url,class,score,,,,,,,,
https://scontent.cdninstagram.com/t51.2885-15/e35/13402471_642700689220487_986613528_n.jpg,people,0.9764208793640137,"Fashion & Beauty",Blank,,,"My look",Photography,,
,outdoors,0.97609543800354,,,,,,,,
,beautiful,0.9618791341781616,,,,,,,,
,adult,0.9550635814666748,,,,,,,,
,sky,0.9470449090003967,,,,,,,,
,one,0.9419852495193481,,,,,,,,
,panoramic,0.9328460693359375,,,,,,,,
,nature,0.9277232885360718,,,,,,,,
,sunset,0.9194450974464417,,,,,,,,
,woman,0.9143604040145874,,,,,,,,
,travel,0.9128890037536621,,,,,,,,
,portrait,0.9102556705474854,,,,,,,,
,landscape,0.9075913429260254,,,,,,,,
,girl,0.8984102606773376,,,,,,,,
,light,0.8812739849090576,,,,,,,,
,park,0.8694431781768799,,,,,,,,
,evening,0.8532106280326843,,,,,,,,
,outside,0.831802487373352,,,,,,,,
,sight,0.8301771879196167,,,,,,,,
,dusk,0.8286608457565308,,,,,,,,
https://scontent.cdninstagram.com/t51.2885-15/e35/13398608_1628746540773663_1365110926_n.jpg,beach,0.9940240383148193,"My life",Recreation,,,"My world today",Beach,,
,travel,0.9883526563644409,,,,,,,,
,sea,0.9846611618995667,,,,,,,,
,water,0.9842301607131958,,,,,,,,
,"no person",0.9821040630340576,,,,,,,,
,chair,0.9804136157035828,,,,,,,,
,ocean,0.9795372486114502,,,,,,,,
,sand,0.9713628888130188,,,,,,,,
,summer,0.9641532897949219,,,,,,,,
,seashore,0.9549421072006226,,,,,,,,
,vacation,0.9515140056610107,,,,,,,,
,sun,0.9514046311378479,,,,,,,,
,relaxation,0.9477779865264893,,,,,,,,
,tropical,0.9225268959999084,,,,,,,,
,seascape,0.9154300093650818,,,,,,,,
,"fair weather",0.8962752819061279,,,,,,,,
,island,0.8953962326049805,,,,,,,,
,recreation,0.8850947618484497,,,,,,,,
,outdoors,0.8769106864929199,,,,,,,,
,leisure,0.8702595829963684,,,,,,,,
https://scontent.cdninstagram.com/t51.2885-15/e35/13402471_642700689220487_986613528_n.jpg,people,0.9764208793640137,"Fashion & Beauty",Blank,,,"My look",Photography,,
,outdoors,0.97609543800354,,,,,,,,
,beautiful,0.9618791341781616,,,,,,,,
,adult,0.9550635814666748,,,,,,,,
,sky,0.9470449090003967,,,,,,,,
,one,0.9419852495193481,,,,,,,,
,panoramic,0.9328460693359375,,,,,,,,
,nature,0.9277232885360718,,,,,,,,
,sunset,0.9194450974464417,,,,,,,,
,woman,0.9143604040145874,,,,,,,,
,travel,0.9128890037536621,,,,,,,,
,portrait,0.9102556705474854,,,,,,,,
,landscape,0.9075913429260254,,,,,,,,
,girl,0.8984102606773376,,,,,,,,
,light,0.8812739849090576,,,,,,,,
,park,0.8694431781768799,,,,,,,,
,evening,0.8532106280326843,,,,,,,,
,outside,0.831802487373352,,,,,,,,
,sight,0.8301771879196167,,,,,,,,
,dusk,0.8286608457565308,,,,,,,,
https://scontent.cdninstagram.com/t51.2885-15/e35/13402446_566948976799330_1741352883_n.jpg,starfish,0.9835358262062073,Environment,,,,"Natural beauty",,,
,nature,0.9834285974502563,,,,,,,,
,"no person",0.971259355545044,,,,,,,,
,sea,0.9667895436286926,,,,,,,,
,ocean,0.9550182819366455,,,,,,,,
,underwater,0.9544374942779541,,,,,,,,
,tropical,0.9472677111625671,,,,,,,,
,invertebrate,0.9440625905990601,,,,,,,,
,sand,0.9367749094963074,,,,,,,,
,beach,0.9312238693237305,,,,,,,,
,desktop,0.9296568036079407,,,,,,,,
,echinoderm,0.9261113405227661,,,,,,,,
,marine,0.9148670434951782,,,,,,,,
,water,0.9041943550109863,,,,,,,,
,vacation,0.90207839012146,,,,,,,,
,outdoors,0.8949320316314697,,,,,,,,
,travel,0.8931045532226562,,,,,,,,
,summer,0.8927962779998779,,,,,,,,
,color,0.8866323232650757,,,,,,,,
,fish,0.8821641802787781,,,,,,,,
https://scontent.cdninstagram.com/t51.2885-15/e35/13398608_1628746540773663_1365110926_n.jpg,beach,0.9940240383148193,"My life",Recreation,,,"My world today",Beach,,
,travel,0.9883526563644409,,,,,,,,
,sea,0.9846611618995667,,,,,,,,
,water,0.9842301607131958,,,,,,,,
,"no person",0.9821040630340576,,,,,,,,
,chair,0.9804136157035828,,,,,,,,
,ocean,0.9795372486114502,,,,,,,,
,sand,0.9713628888130188,,,,,,,,
,summer,0.9641532897949219,,,,,,,,
,seashore,0.9549421072006226,,,,,,,,
,vacation,0.9515140056610107,,,,,,,,
,sun,0.9514046311378479,,,,,,,,
,relaxation,0.9477779865264893,,,,,,,,
,tropical,0.9225268959999084,,,,,,,,
,seascape,0.9154300093650818,,,,,,,,
,"fair weather",0.8962752819061279,,,,,,,,
,island,0.8953962326049805,,,,,,,,
,recreation,0.8850947618484497,,,,,,,,
,outdoors,0.8769106864929199,,,,,,,,
,leisure,0.8702595829963684,,,,,,,,
https://scontent.cdninstagram.com/t51.2885-15/e35/13398471_594193990758139_373943564_n.jpg,water,0.9952208995819092,Environment,,,,"Natural beauty",,,
,watercraft,0.9799189567565918,,,,,,,,
,boat,0.9791921973228455,,,,,,,,
,"no person",0.9673599004745483,,,,,,,,
,sea,0.9643864631652832,,,,,,,,
,travel,0.9637153148651123,,,,,,,,
,fisherman,0.9588527679443359,,,,,,,,
,"transportation system",0.9544158577919006,,,,,,,,
,ocean,0.9503185749053955,,,,,,,,
,recreation,0.9472541809082031,,,,,,,,
,leisure,0.9417014122009277,,,,,,,,
,sky,0.9323546886444092,,,,,,,,
,summer,0.9316223859786987,,,,,,,,
,ship,0.9306390285491943,,,,,,,,
,outdoors,0.9182226657867432,,,,,,,,
,landscape,0.899303674697876,,,,,,,,
,vehicle,0.8960017561912537,,,,,,,,
,yacht,0.8906880617141724,,,,,,,,
,seashore,0.885970950126648,,,,,,,,
,vacation,0.8783677816390991,,,,,,,,
https://scontent.cdninstagram.com/t51.2885-15/e35/13385889_669818596532440_830202645_n.jpg,market,0.9847224950790405,Environment,Food,Commerce,,"Manmade beauty",Food-s,Shopping,
,"no person",0.9511425495147705,,,,,,,,
,sale,0.9421833753585815,,,,,,,,
,stock,0.9415712356567383,,,,,,,,
,travel,0.9257073402404785,,,,,,,,
,city,0.916641116142273,,,,,,,,
,people,0.9104584455490112,,,,,,,,
,street,0.9059549570083618,,,,,,,,
,shop,0.8920377492904663,,,,,,,,
,commerce,0.882917046546936,,,,,,,,
,shopping,0.8706550598144531,,,,,,,,
,many,0.8687573671340942,,,,,,,,
,bazaar,0.858285129070282,,,,,,,,
,group,0.8416932821273804,,,,,,,,
,traditional,0.8389616012573242,,,,,,,,
,urban,0.8289517760276794,,,,,,,,
,sell,0.8230482339859009,,,,,,,,
,outdoors,0.8178186416625977,,,,,,,,
,business,0.8021982908248901,,,,,,,,
,tourism,0.7966721653938293,,,,,,,,
https://scontent.cdninstagram.com/t51.2885-15/e35/13248914_490562284472091_1768649641_n.jpg,bridge,0.9747514724731445,Environment,,,,"Manmade beauty",,,
,light,0.9562327861785889,,,,,,,,
,modern,0.9504656195640564,,,,,,,,
,architecture,0.9487812519073486,,,,,,,,
,city,0.9479995965957642,,,,,,,,
,travel,0.9470815062522888,,,,,,,,
,sky,0.9442988634109497,,,,,,,,
,building,0.9390017986297607,,,,,,,,
,street,0.9371267557144165,,,,,,,,
,urban,0.9337359070777893,,,,,,,,
,"transportation system",0.9323189854621887,,,,,,,,
,water,0.9259200096130371,,,,,,,,
,business,0.9241923093795776,,,,,,,,
,road,0.9236570596694946,,,,,,,,
,"no person",0.9119200706481934,,,,,,,,
,reflection,0.8907954692840576,,,,,,,,
,guidance,0.8896276950836182,,,,,,,,
,empty,0.8825690746307373,,,,,,,,
,construction,0.8635618090629578,,,,,,,,
,color,0.8488406538963318,,,,,,,,
https://scontent.cdninstagram.com/t51.2885-15/e35/13388550_1757901324425235_623470790_n.jpg,finger,0.9701505899429321,"My life",,,,"My world today",,,
,people,0.9635398387908936,,,,,,,,
,hand,0.9595819711685181,,,,,,,,
,touch,0.9594841599464417,,,,,,,,
,light,0.9547593593597412,,,,,,,,
,screen,0.9422738552093506,,,,,,,,
,technology,0.9387133717536926,,,,,,,,
,computer,0.9286453723907471,,,,,,,,
,blur,0.9154335260391235,,,,,,,,
,music,0.9106650948524475,,,,,,,,
,connection,0.9044889211654663,,,,,,,,
,internet,0.9011633992195129,,,,,,,,
,conceptual,0.9010930061340332,,,,,,,,
,concert,0.8966103196144104,,,,,,,,
,access,0.8924398422241211,,,,,,,,
,like,0.8824009895324707,,,,,,,,
,show,0.8576107621192932,,,,,,,,
,art,0.8527941107749939,,,,,,,,
,business,0.8482568264007568,,,,,,,,
,virtual,0.8469347953796387,,,,,,,,
https://scontent.cdninstagram.com/t51.2885-15/s320x320/e35/12424897_1050086891693068_944010881_n.jpg,sunset,0.9930585622787476,Environment,Relationships,,,"Natural beauty","Best friends",,
,water,0.9903552532196045,,,,,,,,
,dawn,0.9893321990966797,,,,,,,,
,lake,0.9867794513702393,,,,,,,,
,dusk,0.9864344596862793,,,,,,,,
,reflection,0.975739598274231,,,,,,,,
,outdoors,0.9689892530441284,,,,,,,,
,river,0.9659054279327393,,,,,,,,
,evening,0.9472271203994751,,,,,,,,
,sky,0.9443856477737427,,,,,,,,
,nature,0.9371918439865112,,,,,,,,
,landscape,0.9263899326324463,,,,,,,,
,sun,0.9034191370010376,,,,,,,,
,cloud,0.893733024597168,,,,,,,,
,wood,0.886648416519165,,,,,,,,
,silhouette,0.8866153955459595,,,,,,,,
,"fair weather",0.8851653337478638,,,,,,,,
,horizontal,0.8835329413414001,,,,,,,,
,"no person",0.8777832984924316,,,,,,,,
,travel,0.8765156269073486,,,,,,,,
https://scontent.cdninstagram.com/t51.2885-15/s480x480/e35/13116834_1196653497020241_1274738283_n.jpg,city,0.98185795545578,Arts,,,,Arts-s,,,
,panoramic,0.9792823791503906,,,,,,,,
,architecture,0.9710397720336914,,,,,,,,
,water,0.9691355228424072,,,,,,,,
,river,0.9611936807632446,,,,,,,,
,travel,0.9609783291816711,,,,,,,,
,landscape,0.9560002088546753,,,,,,,,
,cityscape,0.9507349729537964,,,,,,,,
,outdoors,0.9417268633842468,,,,,,,,
,"no person",0.931206464767456,,,,,,,,
,town,0.9253404140472412,,,,,,,,
,building,0.9234973192214966,,,,,,,,
,sight,0.9180017709732056,,,,,,,,
,tourism,0.9081200957298279,,,,,,,,
,house,0.9044580459594727,,,,,,,,
,skyline,0.8955495357513428,,,,,,,,
,urban,0.8844997882843018,,,,,,,,
,rock,0.8670439720153809,,,,,,,,
,landmark,0.865114688873291,,,,,,,,
,nature,0.8640084266662598,,,,,,,,
https://scontent.cdninstagram.com/t51.2885-15/e35/13391120_538462233007450_1430850480_n.jpg,landscape,0.99166339635849,Environment,,,,"Natural beauty",,,
,nature,0.9815992116928101,,,,,,,,
,tree,0.9798173308372498,,,,,,,,
,agriculture,0.9719197154045105,,,,,,,,
,environment,0.9619409441947937,,,,,,,,
,dawn,0.9608361721038818,,,,,,,,
,cropland,0.9558947086334229,,,,,,,,
,farm,0.9532230496406555,,,,,,,,
,field,0.9509367346763611,,,,,,,,
,wood,0.9486385583877563,,,,,,,,
,flora,0.9479367733001709,,,,,,,,
,hill,0.946969747543335,,,,,,,,
,summer,0.9424408674240112,,,,,,,,
,"no person",0.9418234825134277,,,,,,,,
,outdoors,0.937659740447998,,,,,,,,
,scenic,0.9361661672592163,,,,,,,,
,leaf,0.9329816102981567,,,,,,,,
,grass,0.9328515529632568,,,,,,,,
,beautiful,0.930550217628479,,,,,,,,
,travel,0.9305087327957153,,,,,,,,
https://scontent.cdninstagram.com/t51.2885-15/e35/13402446_566948976799330_1741352883_n.jpg,starfish,0.9835358262062073,Environment,,,,"Natural beauty",,,
,nature,0.9834285974502563,,,,,,,,
,"no person",0.971259355545044,,,,,,,,
,sea,0.9667895436286926,,,,,,,,
,ocean,0.9550182819366455,,,,,,,,
,underwater,0.9544374942779541,,,,,,,,
,tropical,0.9472677111625671,,,,,,,,
,invertebrate,0.9440625905990601,,,,,,,,
,sand,0.9367749094963074,,,,,,,,
,beach,0.9312238693237305,,,,,,,,
,desktop,0.9296568036079407,,,,,,,,
,echinoderm,0.9261113405227661,,,,,,,,
,marine,0.9148670434951782,,,,,,,,
,water,0.9041943550109863,,,,,,,,
,vacation,0.90207839012146,,,,,,,,
,outdoors,0.8949320316314697,,,,,,,,
,travel,0.8931045532226562,,,,,,,,
,summer,0.8927962779998779,,,,,,,,
,color,0.8866323232650757,,,,,,,,
,fish,0.8821641802787781,,,,,,,,
https://scontent.cdninstagram.com/t51.2885-15/e35/12965704_551236675049566_1010793815_n.jpg,business,0.988501250743866,"My life",Commerce,,,"Here I am","Product/brand shots",,
,computer,0.9458242058753967,,,,,,,,
,finance,0.9367369413375854,,,,,,,,
,paper,0.928261399269104,,,,,,,,
,shopping,0.925774335861206,,,,,,,,
,internet,0.9107789993286133,,,,,,,,
,money,0.9091251492500305,,,,,,,,
,technology,0.8948639631271362,,,,,,,,
,financial,0.8929431438446045,,,,,,,,
,commerce,0.8928819894790649,,,,,,,,
,desktop,0.8913092613220215,,,,,,,,
,symbol,0.8903667330741882,,,,,,,,
,data,0.8767549991607666,,,,,,,,
,sign,0.8690171837806702,,,,,,,,
,office,0.8593791723251343,,,,,,,,
,spherical,0.8403694033622742,,,,,,,,
,card,0.8372482657432556,,,,,,,,
,cash,0.8346879482269287,,,,,,,,
,text,0.8313807249069214,,,,,,,,
,communication,0.8310859799385071,,,,,,,,
https://scontent.cdninstagram.com/t51.2885-15/s750x750/sh0.08/e35/13256562_236451943413073_1750480389_n.jpg,wood,0.9876624941825867,Environment,,,,"Natural beauty",,,
,recreation,0.9848167896270752,,,,,,,,
,tree,0.9739379286766052,,,,,,,,
,people,0.973907470703125,,,,,,,,
,trail,0.9675625562667847,,,,,,,,
,one,0.9632464647293091,,,,,,,,
,road,0.962654709815979,,,,,,,,
,outdoors,0.9593620300292969,,,,,,,,
,hike,0.9529225826263428,,,,,,,,
,woman,0.9459660053253174,,,,,,,,
,landscape,0.9348368644714355,,,,,,,,
,adult,0.9328211545944214,,,,,,,,
,footpath,0.9254889488220215,,,,,,,,
,park,0.9198098182678223,,,,,,,,
,nature,0.9195743799209595,,,,,,,,
,"no person",0.9167238473892212,,,,,,,,
,girl,0.9142605662345886,,,,,,,,
,man,0.9132310152053833,,,,,,,,
,adventure,0.9122382402420044,,,,,,,,
,exploration,0.9121192693710327,,,,,,,,
https://scontent.cdninstagram.com/t51.2885-15/e35/13385889_669818596532440_830202645_n.jpg,market,0.9847224950790405,Environment,Food,Commerce,,"Manmade beauty",Food-s,Shopping,
,"no person",0.9511425495147705,,,,,,,,
,sale,0.9421833753585815,,,,,,,,
,stock,0.9415712356567383,,,,,,,,
,travel,0.9257073402404785,,,,,,,,
,city,0.916641116142273,,,,,,,,
,people,0.9104584455490112,,,,,,,,
,street,0.9059549570083618,,,,,,,,
,shop,0.8920377492904663,,,,,,,,
,commerce,0.882917046546936,,,,,,,,
,shopping,0.8706550598144531,,,,,,,,
,many,0.8687573671340942,,,,,,,,
,bazaar,0.858285129070282,,,,,,,,
,group,0.8416932821273804,,,,,,,,
,traditional,0.8389616012573242,,,,,,,,
,urban,0.8289517760276794,,,,,,,,
,sell,0.8230482339859009,,,,,,,,
,outdoors,0.8178186416625977,,,,,,,,
,business,0.8021982908248901,,,,,,,,
,tourism,0.7966721653938293,,,,,,,,
https://scontent.cdninstagram.com/t51.2885-15/e35/12965704_551236675049566_1010793815_n.jpg,business,0.988501250743866,"My life",Commerce,,,"Here I am","Product/brand shots",,
,computer,0.9458242058753967,,,,,,,,
,finance,0.9367369413375854,,,,,,,,
,paper,0.928261399269104,,,,,,,,
,shopping,0.925774335861206,,,,,,,,
,internet,0.9107789993286133,,,,,,,,
,money,0.9091251492500305,,,,,,,,
,technology,0.8948639631271362,,,,,,,,
,financial,0.8929431438446045,,,,,,,,
,commerce,0.8928819894790649,,,,,,,,
,desktop,0.8913092613220215,,,,,,,,
,symbol,0.8903667330741882,,,,,,,,
,data,0.8767549991607666,,,,,,,,
,sign,0.8690171837806702,,,,,,,,
,office,0.8593791723251343,,,,,,,,
,spherical,0.8403694033622742,,,,,,,,
,card,0.8372482657432556,,,,,,,,
,cash,0.8346879482269287,,,,,,,,
,text,0.8313807249069214,,,,,,,,
,communication,0.8310859799385071,,,,,,,,
https://scontent.cdninstagram.com/t51.2885-15/e35/12530910_1720106091539008_33442399_n.jpg,screen,0.9974234104156494,Business,,,,Work,,,
,technology,0.9904507398605347,,,,,,,,
,display,0.9841797351837158,,,,,,,,
,monitor,0.9815975427627563,,,,,,,,
,touch,0.967039167881012,,,,,,,,
,computer,0.9642839431762695,,,,,,,,
,television,0.9534205198287964,,,,,,,,
,business,0.9519258141517639,,,,,,,,
,electronics,0.9512147903442383,,,,,,,,
,internet,0.9440939426422119,,,,,,,,
,equipment,0.9179866313934326,,,,,,,,
,movie,0.9078547954559326,,,,,,,,
,laptop,0.8984135389328003,,,,,,,,
,pill,0.8834918737411499,,,,,,,,
,device,0.8821570873260498,,,,,,,,
,modern,0.8741519451141357,,,,,,,,
,portable,0.8621653914451599,,,,,,,,
,"no person",0.84260493516922,,,,,,,,
,connection,0.8367114067077637,,,,,,,,
,telephone,0.8291633129119873,,,,,,,,
https://scontent.cdninstagram.com/l/t51.2885-15/e35/13398803_206529046408202_148295428_n.jpg,sunset,0.9940850138664246,Environment,"My life",,,"Natural beauty","My world today",,
,sky,0.9927641749382019,,,,,,,,
,landscape,0.9922512769699097,,,,,,,,
,dawn,0.9808191061019897,,,,,,,,
,evening,0.9723161458969116,,,,,,,,
,daylight,0.9665778875350952,,,,,,,,
,tree,0.9645169377326965,,,,,,,,
,light,0.9626040458679199,,,,,,,,
,silhouette,0.9549830555915833,,,,,,,,
,storm,0.9489542841911316,,,,,,,,
,moon,0.9461314678192139,,,,,,,,
,dusk,0.9439835548400879,,,,,,,,
,travel,0.9366650581359863,,,,,,,,
,outdoors,0.9314168691635132,,,,,,,,
,"no person",0.9308309555053711,,,,,,,,
,weather,0.9277113676071167,,,,,,,,
,sun,0.9266728162765503,,,,,,,,
,cloud,0.9222456216812134,,,,,,,,
,airplane,0.9220000505447388,,,,,,,,
,water,0.9207331538200378,,,,,,,,
https://scontent.cdninstagram.com/t51.2885-15/e35/12912658_224000517961571_2020090676_n.jpg,chair,0.9868868589401245,Blank,,,,Photography,,,
,airport,0.9863904714584351,,,,,,,,
,indoors,0.9859875440597534,,,,,,,,
,table,0.9811391830444336,,,,,,,,
,furniture,0.9731148481369019,,,,,,,,
,room,0.954874575138092,,,,,,,,
,seat,0.9513535499572754,,,,,,,,
,restaurant,0.9494725465774536,,,,,,,,
,inside,0.948043942451477,,,,,,,,
,"no person",0.9300293922424316,,,,,,,,
,floor,0.9104331731796265,,,,,,,,
,cafeteria,0.898628830909729,,,,,,,,
,window,0.8849213123321533,,,,,,,,
,ceiling,0.8806189298629761,,,,,,,,
,travel,0.8779858350753784,,,,,,,,
,empty,0.859089732170105,,,,,,,,
,diner,0.8524313569068909,,,,,,,,
,architecture,0.8373144865036011,,,,,,,,
,reflection,0.8360475897789001,,,,,,,,
,dining,0.8318653106689453,,,,,,,,
https://scontent.cdninstagram.com/t51.2885-15/e35/13126823_990252744386093_1735720357_n.jpg,water,0.9713442325592041,Blank,,,,Photography,,,
,nature,0.9672526121139526,,,,,,,,
,"no person",0.95388263463974,,,,,,,,
,outdoors,0.9504048228263855,,,,,,,,
,beautiful,0.9311314821243286,,,,,,,,
,people,0.9279390573501587,,,,,,,,
,one,0.923825740814209,,,,,,,,
,light,0.9225717782974243,,,,,,,,
,smoke,0.9132816791534424,,,,,,,,
,woman,0.9076375961303711,,,,,,,,
,flame,0.904062032699585,,,,,,,,
,dark,0.9027034044265747,,,,,,,,
,hot,0.9014049768447876,,,,,,,,
,sea,0.8930240869522095,,,,,,,,
,panoramic,0.8906111717224121,,,,,,,,
,danger,0.8905541896820068,,,,,,,,
,dawn,0.8898726105690002,,,,,,,,
,evening,0.8804525136947632,,,,,,,,
,sunset,0.8770076036453247,,,,,,,,
,ocean,0.8752121925354004,,,,,,,,
https://scontent.cdninstagram.com/t51.2885-15/s750x750/sh0.08/e35/13256759_478349615692847_2121173766_n.jpg,people,0.9931979179382324,"Fashion & Beauty","My life",,,"My look",Selfie,,
,girl,0.9800243973731995,,,,,,,,
,woman,0.979388952255249,,,,,,,,
,adult,0.9729675054550171,,,,,,,,
,man,0.9711183309555054,,,,,,,,
,portrait,0.9693418741226196,,,,,,,,
,one,0.9504417181015015,,,,,,,,
,fashion,0.9334498047828674,,,,,,,,
,love,0.9246870875358582,,,,,,,,
,wear,0.9226152896881104,,,,,,,,
,indoors,0.9140727519989014,,,,,,,,
,pain,0.9029660820960999,,,,,,,,
,model,0.8966852426528931,,,,,,,,
,dark,0.8610973954200745,,,,,,,,
,battle,0.8504146933555603,,,,,,,,
,studio,0.8424696326255798,,,,,,,,
,young,0.8347023725509644,,,,,,,,
,sexy,0.8286683559417725,,,,,,,,
,child,0.8275933265686035,,,,,,,,
,affection,0.8211424946784973,,,,,,,,
https://scontent.cdninstagram.com/t51.2885-15/s320x320/e35/11250185_227847757573633_1245674546_n.jpg,celebration,0.995773434638977,Travel,,,,Travel-s,,,
,Christmas,0.9936040043830872,,,,,,,,
,illuminated,0.982166051864624,,,,,,,,
,road,0.9731705188751221,,,,,,,,
,winter,0.9676676392555237,,,,,,,,
,outdoors,0.9555518627166748,,,,,,,,
,light,0.9529337882995605,,,,,,,,
,car,0.9520844221115112,,,,,,,,
,"transportation system",0.9509549140930176,,,,,,,,
,horizontal,0.9458308219909668,,,,,,,,
,city,0.9452753067016602,,,,,,,,
,street,0.9384802579879761,,,,,,,,
,traffic,0.9368600845336914,,,,,,,,
,people,0.9159440994262695,,,,,,,,
,headlight,0.9072515964508057,,,,,,,,
,motion,0.8987234234809875,,,,,,,,
,candle,0.8888810873031616,,,,,,,,
,snow,0.8762316703796387,,,,,,,,
,adult,0.8666146993637085,,,,,,,,
,travel,0.8554399013519287,,,,,,,,
https://scontent.cdninstagram.com/t51.2885-15/s750x750/sh0.08/e35/12935060_960375080743867_259541725_n.jpg,table,0.9867902994155884,Food,,,,"Meal time",,,
,people,0.9779168367385864,,,,,,,,
,restaurant,0.9775910377502441,,,,,,,,
,room,0.975227415561676,,,,,,,,
,furniture,0.9751137495040894,,,,,,,,
,hotel,0.9689213037490845,,,,,,,,
,music,0.966813325881958,,,,,,,,
,"interior design",0.9645745754241943,,,,,,,,
,"no person",0.9645610451698303,,,,,,,,
,candle,0.9593040943145752,,,,,,,,
,seat,0.9540183544158936,,,,,,,,
,indoors,0.9516671895980835,,,,,,,,
,chair,0.9500864148139954,,,,,,,,
,bar,0.9465711116790771,,,,,,,,
,flower,0.9461148977279663,,,,,,,,
,light,0.9307591915130615,,,,,,,,
,food,0.9285650253295898,,,,,,,,
,performance,0.9127198457717896,,,,,,,,
,resort,0.8972303867340088,,,,,,,,
,home,0.8920340538024902,,,,,,,,
https://scontent.cdninstagram.com/t51.2885-15/e35/12530910_1720106091539008_33442399_n.jpg,screen,0.9974234104156494,Business,,,,Work,,,
,technology,0.9904507398605347,,,,,,,,
,display,0.9841797351837158,,,,,,,,
,monitor,0.9815975427627563,,,,,,,,
,touch,0.967039167881012,,,,,,,,
,computer,0.9642839431762695,,,,,,,,
,television,0.9534205198287964,,,,,,,,
,business,0.9519258141517639,,,,,,,,
,electronics,0.9512147903442383,,,,,,,,
,internet,0.9440939426422119,,,,,,,,
,equipment,0.9179866313934326,,,,,,,,
,movie,0.9078547954559326,,,,,,,,
,laptop,0.8984135389328003,,,,,,,,
,pill,0.8834918737411499,,,,,,,,
,device,0.8821570873260498,,,,,,,,
,modern,0.8741519451141357,,,,,,,,
,portable,0.8621653914451599,,,,,,,,
,"no person",0.84260493516922,,,,,,,,
,connection,0.8367114067077637,,,,,,,,
,telephone,0.8291633129119873,,,,,,,,
https://scontent.cdninstagram.com/t51.2885-15/e35/12531065_492442544292525_1941261198_n.jpg,people,0.9878915548324585,"My life","Fashion & Beauty",,,"Here I am",Ootd,,
,street,0.9817073345184326,,,,,,,,
,outdoors,0.9741052389144897,,,,,,,,
,city,0.9707381129264832,,,,,,,,
,woman,0.9656939506530762,,,,,,,,
,travel,0.960922122001648,,,,,,,,
,architecture,0.9590892791748047,,,,,,,,
,pavement,0.938146710395813,,,,,,,,
,adult,0.9205648303031921,,,,,,,,
,tourist,0.9155833721160889,,,,,,,,
,shopping,0.8941981792449951,,,,,,,,
,one,0.8429675698280334,,,,,,,,
,fashion,0.8357290029525757,,,,,,,,
,tourism,0.813762903213501,,,,,,,,
,wear,0.8074731826782227,,,,,,,,
,town,0.8069161772727966,,,,,,,,
,man,0.7974890470504761,,,,,,,,
,recreation,0.7963179349899292,,,,,,,,
,road,0.7916512489318848,,,,,,,,
,portrait,0.7900830507278442,,,,,,,,
https://scontent.cdninstagram.com/t51.2885-15/e35/13129879_1011371568945269_1543923515_n.jpg,people,0.9913367629051208,Commerce,,,,Shopping,,,
,indoors,0.9768011569976807,,,,,,,,
,woman,0.9755730628967285,,,,,,,,
,school,0.967454731464386,,,,,,,,
,adult,0.9609338045120239,,,,,,,,
,girl,0.9450721740722656,,,,,,,,
,one,0.9420223832130432,,,,,,,,
,portrait,0.9410210251808167,,,,,,,,
,education,0.9375889897346497,,,,,,,,
,business,0.9359411001205444,,,,,,,,
,stock,0.9314656257629395,,,,,,,,
,light,0.9240748286247253,,,,,,,,
,festival,0.9202076196670532,,,,,,,,
,exhibition,0.8937400579452515,,,,,,,,
,restaurant,0.8937270641326904,,,,,,,,
,room,0.8896658420562744,,,,,,,,
,group,0.8804774284362793,,,,,,,,
,coffee,0.8731683492660522,,,,,,,,
,employee,0.8727642297744751,,,,,,,,
,wear,0.8657917976379395,,,,,,,,
https://scontent.cdninstagram.com/t51.2885-15/s750x750/sh0.08/e35/13249917_1204777852877734_176939869_n.jpg,water,0.9983597993850708,Environment,,,,"Manmade beauty",,,
,lake,0.9913316965103149,,,,,,,,
,leisure,0.9802385568618774,,,,,,,,
,travel,0.9766792058944702,,,,,,,,
,pier,0.968966543674469,,,,,,,,
,recreation,0.9659497737884521,,,,,,,,
,bridge,0.9579079151153564,,,,,,,,
,river,0.952763020992279,,,,,,,,
,"no person",0.9493542909622192,,,,,,,,
,landscape,0.9487600326538086,,,,,,,,
,tree,0.9456052780151367,,,,,,,,
,reflection,0.9452592134475708,,,,,,,,
,summer,0.9429115056991577,,,,,,,,
,outdoors,0.9413208961486816,,,,,,,,
,wood,0.9405650496482849,,,,,,,,
,footbridge,0.9403419494628906,,,,,,,,
,jetty,0.9299945831298828,,,,,,,,
,boardwalk,0.9091709852218628,,,,,,,,
,daylight,0.9030625820159912,,,,,,,,
,relaxation,0.8895580172538757,,,,,,,,
https://scontent.cdninstagram.com/t51.2885-15/s750x750/sh0.08/e35/12599424_574061342763368_784312554_n.jpg,tree,0.9968394041061401,Environment,,,,"Natural beauty",,,
,street,0.980796217918396,,,,,,,,
,vacation,0.9796538352966309,,,,,,,,
,evening,0.9753284454345703,,,,,,,,
,Christmas,0.9744309186935425,,,,,,,,
,travel,0.9721253514289856,,,,,,,,
,city,0.9684357643127441,,,,,,,,
,"no person",0.9680660367012024,,,,,,,,
,light,0.9580405354499817,,,,,,,,
,building,0.9563533663749695,,,,,,,,
,illuminated,0.9503623843193054,,,,,,,,
,urban,0.9360032677650452,,,,,,,,
,architecture,0.9359502196311951,,,,,,,,
,hotel,0.9304264783859253,,,,,,,,
,tourism,0.9280424118041992,,,,,,,,
,celebration,0.9208050966262817,,,,,,,,
,"christmas tree",0.9191793203353882,,,,,,,,
,festival,0.9097709059715271,,,,,,,,
,outdoors,0.9086579084396362,,,,,,,,
,landscape,0.9065197706222534,,,,,,,,
https://scontent.cdninstagram.com/t51.2885-15/s640x640/sh0.08/e35/12976278_672994469504979_1290897328_n.jpg,food,0.9860363006591797,Food,,,,"Meal time",,,
,"no person",0.9758479595184326,,,,,,,,
,delicious,0.9328049421310425,,,,,,,,
,plate,0.9232093095779419,,,,,,,,
,meal,0.9030501842498779,,,,,,,,
,health,0.8902422785758972,,,,,,,,
,dinner,0.887988805770874,,,,,,,,
,cute,0.8842509984970093,,,,,,,,
,hungry,0.8807519674301147,,,,,,,,
,lunch,0.8763076066970825,,,,,,,,
,funny,0.8756673336029053,,,,,,,,
,nutrition,0.8735454678535461,,,,,,,,
,desktop,0.8659498691558838,,,,,,,,
,traditional,0.8655204772949219,,,,,,,,
,tomato,0.8619335889816284,,,,,,,,
,healthy,0.8558840155601501,,,,,,,,
,one,0.8257277011871338,,,,,,,,
,refreshment,0.8237210512161255,,,,,,,,
,tasty,0.821712076663971,,,,,,,,
,vegetable,0.8208476901054382,,,,,,,,
https://scontent.cdninstagram.com/t51.2885-15/s750x750/sh0.08/e35/13256562_236451943413073_1750480389_n.jpg,wood,0.9876624941825867,Environment,,,,"Natural beauty",,,
,recreation,0.9848167896270752,,,,,,,,
,tree,0.9739379286766052,,,,,,,,
,people,0.973907470703125,,,,,,,,
,trail,0.9675625562667847,,,,,,,,
,one,0.9632464647293091,,,,,,,,
,road,0.962654709815979,,,,,,,,
,outdoors,0.9593620300292969,,,,,,,,
,hike,0.9529225826263428,,,,,,,,
,woman,0.9459660053253174,,,,,,,,
,landscape,0.9348368644714355,,,,,,,,
,adult,0.9328211545944214,,,,,,,,
,footpath,0.9254889488220215,,,,,,,,
,park,0.9198098182678223,,,,,,,,
,nature,0.9195743799209595,,,,,,,,
,"no person",0.9167238473892212,,,,,,,,
,girl,0.9142605662345886,,,,,,,,
,man,0.9132310152053833,,,,,,,,
,adventure,0.9122382402420044,,,,,,,,
,exploration,0.9121192693710327,,,,,,,,
https://scontent.cdninstagram.com/t51.2885-15/e35/13166889_1122742564438286_814067043_n.jpg,city,0.9984201192855835,Environment,,,,"Manmade beauty",,,
,skyscraper,0.9967669248580933,,,,,,,,
,building,0.9946912527084351,,,,,,,,
,downtown,0.9937504529953003,,,,,,,,
,architecture,0.9913450479507446,,,,,,,,
,skyline,0.9872148036956787,,,,,,,,
,office,0.9851988554000854,,,,,,,,
,cityscape,0.9828963875770569,,,,,,,,
,business,0.9817311763763428,,,,,,,,
,urban,0.9808424711227417,,,,,,,,
,travel,0.9623739719390869,,,,,,,,
,light,0.961501955986023,,,,,,,,
,street,0.957878589630127,,,,,,,,
,finance,0.9566726088523865,,,,,,,,
,modern,0.9495788216590881,,,,,,,,
,reflection,0.9465833902359009,,,,,,,,
,tower,0.9426255226135254,,,,,,,,
,hotel,0.9327003955841064,,,,,,,,
,"no person",0.9284018874168396,,,,,,,,
,sky,0.9208633303642273,,,,,,,,
https://scontent.cdninstagram.com/t51.2885-15/s750x750/sh0.08/e35/13256759_478349615692847_2121173766_n.jpg,people,0.9931979179382324,"Fashion & Beauty","My life",,,"My look",Selfie,,
,girl,0.9800243973731995,,,,,,,,
,woman,0.979388952255249,,,,,,,,
,adult,0.9729675054550171,,,,,,,,
,man,0.9711183309555054,,,,,,,,
,portrait,0.9693418741226196,,,,,,,,
,one,0.9504417181015015,,,,,,,,
,fashion,0.9334498047828674,,,,,,,,
,love,0.9246870875358582,,,,,,,,
,wear,0.9226152896881104,,,,,,,,
,indoors,0.9140727519989014,,,,,,,,
,pain,0.9029660820960999,,,,,,,,
,model,0.8966852426528931,,,,,,,,
,dark,0.8610973954200745,,,,,,,,
,battle,0.8504146933555603,,,,,,,,
,studio,0.8424696326255798,,,,,,,,
,young,0.8347023725509644,,,,,,,,
,sexy,0.8286683559417725,,,,,,,,
,child,0.8275933265686035,,,,,,,,
,affection,0.8211424946784973,,,,,,,,
https://scontent.cdninstagram.com/t51.2885-15/s480x480/e35/13116834_1196653497020241_1274738283_n.jpg,city,0.98185795545578,Arts,,,,Arts-s,,,
,panoramic,0.9792823791503906,,,,,,,,
,architecture,0.9710397720336914,,,,,,,,
,water,0.9691355228424072,,,,,,,,
,river,0.9611936807632446,,,,,,,,
,travel,0.9609783291816711,,,,,,,,
,landscape,0.9560002088546753,,,,,,,,
,cityscape,0.9507349729537964,,,,,,,,
,outdoors,0.9417268633842468,,,,,,,,
,"no person",0.931206464767456,,,,,,,,
,town,0.9253404140472412,,,,,,,,
,building,0.9234973192214966,,,,,,,,
,sight,0.9180017709732056,,,,,,,,
,tourism,0.9081200957298279,,,,,,,,
,house,0.9044580459594727,,,,,,,,
,skyline,0.8955495357513428,,,,,,,,
,urban,0.8844997882843018,,,,,,,,
,rock,0.8670439720153809,,,,,,,,
,landmark,0.865114688873291,,,,,,,,
,nature,0.8640084266662598,,,,,,,,
https://scontent.cdninstagram.com/t51.2885-15/e35/13266847_143328289415854_1526797620_n.jpg,"no person",0.9973853826522827,Food,,,,"Meal time",,,
,indoors,0.9729292392730713,,,,,,,,
,business,0.9680812954902649,,,,,,,,
,paper,0.929236114025116,,,,,,,,
,healthcare,0.915138840675354,,,,,,,,
,food,0.9055523872375488,,,,,,,,
,health,0.9029717445373535,,,,,,,,
,one,0.8930329084396362,,,,,,,,
,success,0.8909019231796265,,,,,,,,
,wealth,0.8864572048187256,,,,,,,,
,safety,0.8847061991691589,,,,,,,,
,security,0.8838683366775513,,,,,,,,
,security,0.8708736896514893,,,,,,,,
,wood,0.8676588535308838,,,,,,,,
,plastic,0.8609009981155396,,,,,,,,
,retro,0.8603389859199524,,,,,,,,
,shopping,0.8437629342079163,,,,,,,,
,industry,0.8386620283126831,,,,,,,,
,conceptual,0.8374575972557068,,,,,,,,
,danger,0.8320088386535645,,,,,,,,
https://scontent.cdninstagram.com/t51.2885-15/s750x750/sh0.08/e35/12935060_960375080743867_259541725_n.jpg,table,0.9867902994155884,Food,,,,"Meal time",,,
,people,0.9779168367385864,,,,,,,,
,restaurant,0.9775910377502441,,,,,,,,
,room,0.975227415561676,,,,,,,,
,furniture,0.9751137495040894,,,,,,,,
,hotel,0.9689213037490845,,,,,,,,
,music,0.966813325881958,,,,,,,,
,"interior design",0.9645745754241943,,,,,,,,
,"no person",0.9645610451698303,,,,,,,,
,candle,0.9593040943145752,,,,,,,,
,seat,0.9540183544158936,,,,,,,,
,indoors,0.9516671895980835,,,,,,,,
,chair,0.9500864148139954,,,,,,,,
,bar,0.9465711116790771,,,,,,,,
,flower,0.9461148977279663,,,,,,,,
,light,0.9307591915130615,,,,,,,,
,food,0.9285650253295898,,,,,,,,
,performance,0.9127198457717896,,,,,,,,
,resort,0.8972303867340088,,,,,,,,
,home,0.8920340538024902,,,,,,,,
https://scontent.cdninstagram.com/t51.2885-15/e35/13397602_631515790336115_375932874_n.jpg,foot,0.9958680868148804,Undefined,,,,Undefined,,,
,snow,0.9945112466812134,,,,,,,,
,winter,0.9927541613578796,,,,,,,,
,fashion,0.978409469127655,,,,,,,,
,cold,0.9754464626312256,,,,,,,,
,woman,0.9628522396087646,,,,,,,,
,frost,0.954896867275238,,,,,,,,
,people,0.9533874988555908,,,,,,,,
,ice,0.9526305198669434,,,,,,,,
,fun,0.9497998952865601,,,,,,,,
,outdoors,0.9431852102279663,,,,,,,,
,leisure,0.9409040808677673,,,,,,,,
,"no person",0.9400361776351929,,,,,,,,
,Christmas,0.9380468130111694,,,,,,,,
,ice,0.9368123412132263,,,,,,,,
,man,0.9344737529754639,,,,,,,,
,footprint,0.9296730756759644,,,,,,,,
,relaxation,0.9260245561599731,,,,,,,,
,footwear,0.922283411026001,,,,,,,,
,sand,0.9222321510314941,,,,,,,,
https://scontent.cdninstagram.com/t51.2885-15/e35/13126823_990252744386093_1735720357_n.jpg,water,0.9713442325592041,Blank,,,,Photography,,,
,nature,0.9672526121139526,,,,,,,,
,"no person",0.95388263463974,,,,,,,,
,outdoors,0.9504048228263855,,,,,,,,
,beautiful,0.9311314821243286,,,,,,,,
,people,0.9279390573501587,,,,,,,,
,one,0.923825740814209,,,,,,,,
,light,0.9225717782974243,,,,,,,,
,smoke,0.9132816791534424,,,,,,,,
,woman,0.9076375961303711,,,,,,,,
,flame,0.904062032699585,,,,,,,,
,dark,0.9027034044265747,,,,,,,,
,hot,0.9014049768447876,,,,,,,,
,sea,0.8930240869522095,,,,,,,,
,panoramic,0.8906111717224121,,,,,,,,
,danger,0.8905541896820068,,,,,,,,
,dawn,0.8898726105690002,,,,,,,,
,evening,0.8804525136947632,,,,,,,,
,sunset,0.8770076036453247,,,,,,,,
,ocean,0.8752121925354004,,,,,,,,
https://scontent.cdninstagram.com/t51.2885-15/e35/13391120_538462233007450_1430850480_n.jpg,landscape,0.99166339635849,Environment,,,,"Natural beauty",,,
,nature,0.9815992116928101,,,,,,,,
,tree,0.9798173308372498,,,,,,,,
,agriculture,0.9719197154045105,,,,,,,,
,environment,0.9619409441947937,,,,,,,,
,dawn,0.9608361721038818,,,,,,,,
,cropland,0.9558947086334229,,,,,,,,
,farm,0.9532230496406555,,,,,,,,
,field,0.9509367346763611,,,,,,,,
,wood,0.9486385583877563,,,,,,,,
,flora,0.9479367733001709,,,,,,,,
,hill,0.946969747543335,,,,,,,,
,summer,0.9424408674240112,,,,,,,,
,"no person",0.9418234825134277,,,,,,,,
,outdoors,0.937659740447998,,,,,,,,
,scenic,0.9361661672592163,,,,,,,,
,leaf,0.9329816102981567,,,,,,,,
,grass,0.9328515529632568,,,,,,,,
,beautiful,0.930550217628479,,,,,,,,
,travel,0.9305087327957153,,,,,,,,
https://scontent.cdninstagram.com/t51.2885-15/e35/12917820_983563405062834_2140751776_n.jpg,"french fries",0.9964523315429688,Food,,,,"Meal time",,,
,"no person",0.9927045106887817,,,,,,,,
,dinner,0.9875196218490601,,,,,,,,
,lunch,0.986504852771759,,,,,,,,
,food,0.982848048210144,,,,,,,,
,unhealthy,0.9728158712387085,,,,,,,,
,fast,0.9620133638381958,,,,,,,,
,delicious,0.9489420652389526,,,,,,,,
,meal,0.9487779140472412,,,,,,,,
,plate,0.9462335705757141,,,,,,,,
,deep,0.9390919208526611,,,,,,,,
,dish,0.9340639114379883,,,,,,,,
,restaurant,0.9260913133621216,,,,,,,,
,ketchup,0.9248272180557251,,,,,,,,
,fish,0.9169039130210876,,,,,,,,
,meat,0.9140670299530029,,,,,,,,
,hot,0.9024208188056946,,,,,,,,
,potato,0.8938217163085938,,,,,,,,
,"still life",0.891348123550415,,,,,,,,
,dining,0.8857461214065552,,,,,,,,
https://scontent.cdninstagram.com/t51.2885-15/e35/13129879_1011371568945269_1543923515_n.jpg,people,0.9913367629051208,Commerce,,,,Shopping,,,
,indoors,0.9768011569976807,,,,,,,,
,woman,0.9755730628967285,,,,,,,,
,school,0.967454731464386,,,,,,,,
,adult,0.9609338045120239,,,,,,,,
,girl,0.9450721740722656,,,,,,,,
,one,0.9420223832130432,,,,,,,,
,portrait,0.9410210251808167,,,,,,,,
,education,0.9375889897346497,,,,,,,,
,business,0.9359411001205444,,,,,,,,
,stock,0.9314656257629395,,,,,,,,
,light,0.9240748286247253,,,,,,,,
,festival,0.9202076196670532,,,,,,,,
,exhibition,0.8937400579452515,,,,,,,,
,restaurant,0.8937270641326904,,,,,,,,
,room,0.8896658420562744,,,,,,,,
,group,0.8804774284362793,,,,,,,,
,coffee,0.8731683492660522,,,,,,,,
,employee,0.8727642297744751,,,,,,,,
,wear,0.8657917976379395,,,,,,,,
https://scontent.cdninstagram.com/t51.2885-15/e35/13109038_1626750727650319_851295156_n.jpg,wood,0.9962434768676758,Environment,,,,"Natural beauty",,,
,tree,0.9902682900428772,,,,,,,,
,nature,0.9829680323600769,,,,,,,,
,outdoors,0.9786281585693359,,,,,,,,
,landscape,0.964216947555542,,,,,,,,
,hike,0.9636276960372925,,,,,,,,
,daylight,0.9562868475914001,,,,,,,,
,leaf,0.9561843872070312,,,,,,,,
,people,0.9407899379730225,,,,,,,,
,recreation,0.9396004676818848,,,,,,,,
,environment,0.938697338104248,,,,,,,,
,scenic,0.9385019540786743,,,,,,,,
,"no person",0.9349848628044128,,,,,,,,
,one,0.9317280650138855,,,,,,,,
,trail,0.9287289381027222,,,,,,,,
,travel,0.9253276586532593,,,,,,,,
,park,0.9253094792366028,,,,,,,,
,lush,0.9202162623405457,,,,,,,,
,guidance,0.918310284614563,,,,,,,,
,adventure,0.9175699949264526,,,,,,,,
https://scontent.cdninstagram.com/t51.2885-15/e35/13397602_631515790336115_375932874_n.jpg,foot,0.9958680868148804,Undefined,,,,Undefined,,,
,snow,0.9945112466812134,,,,,,,,
,winter,0.9927541613578796,,,,,,,,
,fashion,0.978409469127655,,,,,,,,
,cold,0.9754464626312256,,,,,,,,
,woman,0.9628522396087646,,,,,,,,
,frost,0.954896867275238,,,,,,,,
,people,0.9533874988555908,,,,,,,,
,ice,0.9526305198669434,,,,,,,,
,fun,0.9497998952865601,,,,,,,,
,outdoors,0.9431852102279663,,,,,,,,
,leisure,0.9409040808677673,,,,,,,,
,"no person",0.9400361776351929,,,,,,,,
,Christmas,0.9380468130111694,,,,,,,,
,ice,0.9368123412132263,,,,,,,,
,man,0.9344737529754639,,,,,,,,
,footprint,0.9296730756759644,,,,,,,,
,relaxation,0.9260245561599731,,,,,,,,
,footwear,0.922283411026001,,,,,,,,
,sand,0.9222321510314941,,,,,,,,
https://scontent.cdninstagram.com/t51.2885-15/e35/13113910_169912433404310_55889662_n.jpg,illustration,0.9691170454025269,Arts,,,,Arts-s,,,
,sketch,0.9510670304298401,,,,,,,,
,horizontal,0.929174542427063,,,,,,,,
,people,0.9163730144500732,,,,,,,,
,creativity,0.9092199206352234,,,,,,,,
,vector,0.9005898237228394,,,,,,,,
,man,0.8991663455963135,,,,,,,,
,humor,0.8945260047912598,,,,,,,,
,fun,0.8580061197280884,,,,,,,,
,adult,0.8555896878242493,,,,,,,,
,business,0.8513419032096863,,,,,,,,
,child,0.8320403695106506,,,,,,,,
,vector,0.8204011917114258,,,,,,,,
,"no person",0.8154540061950684,,,,,,,,
,scribble,0.8130617141723633,,,,,,,,
,cheerful,0.8010224103927612,,,,,,,,
,education,0.7981990575790405,,,,,,,,
,outdoors,0.7952135801315308,,,,,,,,
,graffiti,0.7921315431594849,,,,,,,,
,art,0.7865527272224426,,,,,,,,
https://scontent.cdninstagram.com/t51.2885-15/s320x320/e35/11250185_227847757573633_1245674546_n.jpg,celebration,0.995773434638977,Travel,,,,Travel-s,,,
,Christmas,0.9936040043830872,,,,,,,,
,illuminated,0.982166051864624,,,,,,,,
,road,0.9731705188751221,,,,,,,,
,winter,0.9676676392555237,,,,,,,,
,outdoors,0.9555518627166748,,,,,,,,
,light,0.9529337882995605,,,,,,,,
,car,0.9520844221115112,,,,,,,,
,"transportation system",0.9509549140930176,,,,,,,,
,horizontal,0.9458308219909668,,,,,,,,
,city,0.9452753067016602,,,,,,,,
,street,0.9384802579879761,,,,,,,,
,traffic,0.9368600845336914,,,,,,,,
,people,0.9159440994262695,,,,,,,,
,headlight,0.9072515964508057,,,,,,,,
,motion,0.8987234234809875,,,,,,,,
,candle,0.8888810873031616,,,,,,,,
,snow,0.8762316703796387,,,,,,,,
,adult,0.8666146993637085,,,,,,,,
,travel,0.8554399013519287,,,,,,,,
https://scontent.cdninstagram.com/t51.2885-15/s750x750/sh0.08/e35/13249917_1204777852877734_176939869_n.jpg,water,0.9983597993850708,Environment,,,,"Manmade beauty",,,
,lake,0.9913316965103149,,,,,,,,
,leisure,0.9802385568618774,,,,,,,,
,travel,0.9766792058944702,,,,,,,,
,pier,0.968966543674469,,,,,,,,
,recreation,0.9659497737884521,,,,,,,,
,bridge,0.9579079151153564,,,,,,,,
,river,0.952763020992279,,,,,,,,
,"no person",0.9493542909622192,,,,,,,,
,landscape,0.9487600326538086,,,,,,,,
,tree,0.9456052780151367,,,,,,,,
,reflection,0.9452592134475708,,,,,,,,
,summer,0.9429115056991577,,,,,,,,
,outdoors,0.9413208961486816,,,,,,,,
,wood,0.9405650496482849,,,,,,,,
,footbridge,0.9403419494628906,,,,,,,,
,jetty,0.9299945831298828,,,,,,,,
,boardwalk,0.9091709852218628,,,,,,,,
,daylight,0.9030625820159912,,,,,,,,
,relaxation,0.8895580172538757,,,,,,,,
https://scontent.cdninstagram.com/t51.2885-15/e35/13398471_594193990758139_373943564_n.jpg,water,0.9952208995819092,Environment,,,,"Natural beauty",,,
,watercraft,0.9799189567565918,,,,,,,,
,boat,0.9791921973228455,,,,,,,,
,"no person",0.9673599004745483,,,,,,,,
,sea,0.9643864631652832,,,,,,,,
,travel,0.9637153148651123,,,,,,,,
,fisherman,0.9588527679443359,,,,,,,,
,"transportation system",0.9544158577919006,,,,,,,,
,ocean,0.9503185749053955,,,,,,,,
,recreation,0.9472541809082031,,,,,,,,
,leisure,0.9417014122009277,,,,,,,,
,sky,0.9323546886444092,,,,,,,,
,summer,0.9316223859786987,,,,,,,,
,ship,0.9306390285491943,,,,,,,,
,outdoors,0.9182226657867432,,,,,,,,
,landscape,0.899303674697876,,,,,,,,
,vehicle,0.8960017561912537,,,,,,,,
,yacht,0.8906880617141724,,,,,,,,
,seashore,0.885970950126648,,,,,,,,
,vacation,0.8783677816390991,,,,,,,,
https://scontent.cdninstagram.com/l/t51.2885-15/e35/13398803_206529046408202_148295428_n.jpg,sunset,0.9940850138664246,Environment,"My life",,,"Natural beauty","My world today",,
,sky,0.9927641749382019,,,,,,,,
,landscape,0.9922512769699097,,,,,,,,
,dawn,0.9808191061019897,,,,,,,,
,evening,0.9723161458969116,,,,,,,,
,daylight,0.9665778875350952,,,,,,,,
,tree,0.9645169377326965,,,,,,,,
,light,0.9626040458679199,,,,,,,,
,silhouette,0.9549830555915833,,,,,,,,
,storm,0.9489542841911316,,,,,,,,
,moon,0.9461314678192139,,,,,,,,
,dusk,0.9439835548400879,,,,,,,,
,travel,0.9366650581359863,,,,,,,,
,outdoors,0.9314168691635132,,,,,,,,
,"no person",0.9308309555053711,,,,,,,,
,weather,0.9277113676071167,,,,,,,,
,sun,0.9266728162765503,,,,,,,,
,cloud,0.9222456216812134,,,,,,,,
,airplane,0.9220000505447388,,,,,,,,
,water,0.9207331538200378,,,,,,,,
https://scontent.cdninstagram.com/t51.2885-15/e35/13109038_1626750727650319_851295156_n.jpg,wood,0.9962434768676758,Environment,,,,"Natural beauty",,,
,tree,0.9902682900428772,,,,,,,,
,nature,0.9829680323600769,,,,,,,,
,outdoors,0.9786281585693359,,,,,,,,
,landscape,0.964216947555542,,,,,,,,
,hike,0.9636276960372925,,,,,,,,
,daylight,0.9562868475914001,,,,,,,,
,leaf,0.9561843872070312,,,,,,,,
,people,0.9407899379730225,,,,,,,,
,recreation,0.9396004676818848,,,,,,,,
,environment,0.938697338104248,,,,,,,,
,scenic,0.9385019540786743,,,,,,,,
,"no person",0.9349848628044128,,,,,,,,
,one,0.9317280650138855,,,,,,,,
,trail,0.9287289381027222,,,,,,,,
,travel,0.9253276586532593,,,,,,,,
,park,0.9253094792366028,,,,,,,,
,lush,0.9202162623405457,,,,,,,,
,guidance,0.918310284614563,,,,,,,,
,adventure,0.9175699949264526,,,,,,,,
