url,class,score,,,,,,,,
https://scontent.cdninstagram.com/t51.2885-15/s750x750/sh0.08/e35/13248734_1350225468326739_1967823575_n.jpg,"no person",0.9893112182617188,Food,,,,"Meal time",,,
,chocolate,0.986466109752655,,,,,,,,
,delicious,0.9790413975715637,,,,,,,,
,sweet,0.9774430990219116,,,,,,,,
,food,0.976388156414032,,,,,,,,
,coffee,0.9679359197616577,,,,,,,,
,sugar,0.9635388851165771,,,,,,,,
,cream,0.9634566307067871,,,,,,,,
,cake,0.9600152969360352,,,,,,,,
,homemade,0.9596563577651978,,,,,,,,
,cup,0.9580203294754028,,,,,,,,
,baking,0.9401230812072754,,,,,,,,
,traditional,0.934633731842041,,,,,,,,
,breakfast,0.9245749115943909,,,,,,,,
,candy,0.9093875288963318,,,,,,,,
,drink,0.9012918472290039,,,,,,,,
,indulgence,0.8935043811798096,,,,,,,,
,plate,0.8902168273925781,,,,,,,,
,milk,0.8772056102752686,,,,,,,,
,pastry,0.8649470210075378,,,,,,,,
https://scontent.cdninstagram.com/t51.2885-15/e35/13423021_237100550007584_1576559775_n.jpg,drink,0.9970144629478455,Food,,,,"Drinks and snack",,,
,coffee,0.9954320192337036,,,,,,,,
,cup,0.9911297559738159,,,,,,,,
,vertical,0.9813990592956543,,,,,,,,
,breakfast,0.9813627004623413,,,,,,,,
,cappuccino,0.9797805547714233,,,,,,,,
,"no person",0.975814163684845,,,,,,,,
,espresso,0.971713662147522,,,,,,,,
,dawn,0.9645208120346069,,,,,,,,
,milk,0.9643100500106812,,,,,,,,
,caffeine,0.9636272192001343,,,,,,,,
,indoors,0.9609274864196777,,,,,,,,
,glass,0.9435533881187439,,,,,,,,
,cinnamon,0.9427924752235413,,,,,,,,
,chocolate,0.9426867961883545,,,,,,,,
,"coffee cup",0.9421457052230835,,,,,,,,
,food,0.9400550127029419,,,,,,,,
,spoon,0.9323931336402893,,,,,,,,
,sugar,0.9242424964904785,,,,,,,,
,cream,0.9066413640975952,,,,,,,,
https://scontent.cdninstagram.com/t51.2885-15/e35/13423064_284585601892462_237438950_n.jpg,"no person",0.9897952675819397,Food,,,,Dessert,,,
,cooking,0.9488639235496521,,,,,,,,
,delicious,0.9479339122772217,,,,,,,,
,food,0.9475386142730713,,,,,,,,
,bowl,0.9382421970367432,,,,,,,,
,breakfast,0.9351252317428589,,,,,,,,
,ingredients,0.9193625450134277,,,,,,,,
,homemade,0.916477382183075,,,,,,,,
,nutrition,0.9004507660865784,,,,,,,,
,health,0.8911036252975464,,,,,,,,
,desktop,0.882482647895813,,,,,,,,
,sweet,0.8762772083282471,,,,,,,,
,table,0.865238606929779,,,,,,,,
,lunch,0.8609702587127686,,,,,,,,
,dinner,0.8596575260162354,,,,,,,,
,plate,0.8591723442077637,,,,,,,,
,creamy,0.8589759469032288,,,,,,,,
,traditional,0.8518943786621094,,,,,,,,
,meal,0.8502982258796692,,,,,,,,
,hot,0.8499535322189331,,,,,,,,
https://scontent.cdninstagram.com/t51.2885-15/e35/13397424_1768653810069263_1934267701_n.jpg,"no person",0.9939664602279663,Food,,,,Dessert,,,
,chocolate,0.988318920135498,,,,,,,,
,cream,0.9808566570281982,,,,,,,,
,sugar,0.976327657699585,,,,,,,,
,delicious,0.9695836901664734,,,,,,,,
,baking,0.9688818454742432,,,,,,,,
,cake,0.9674637317657471,,,,,,,,
,food,0.9632525444030762,,,,,,,,
,milk,0.9594247341156006,,,,,,,,
,candy,0.9543940424919128,,,,,,,,
,creamy,0.9500693082809448,,,,,,,,
,sweet,0.9458467960357666,,,,,,,,
,homemade,0.9389722347259521,,,,,,,,
,indoors,0.9302372932434082,,,,,,,,
,breakfast,0.9292334318161011,,,,,,,,
,indulgence,0.9290773868560791,,,,,,,,
,coffee,0.9193540215492249,,,,,,,,
,ingredients,0.915852427482605,,,,,,,,
,traditional,0.9124805927276611,,,,,,,,
,pudding,0.8931136131286621,,,,,,,,
https://scontent.cdninstagram.com/t51.2885-15/e35/12825914_1047999748605743_1406494677_n.jpg,"no person",0.9925923347473145,Food,,,,"Meal time",,,
,food,0.9819700717926025,,,,,,,,
,kind,0.9565540552139282,,,,,,,,
,indoors,0.9451699256896973,,,,,,,,
,seafood,0.9269211888313293,,,,,,,,
,horizontal,0.9179480671882629,,,,,,,,
,"still life",0.898301362991333,,,,,,,,
,traditional,0.889410138130188,,,,,,,,
,delicious,0.8875404596328735,,,,,,,,
,cooking,0.8846665620803833,,,,,,,,
,cookware,0.8705939054489136,,,,,,,,
,abundance,0.8704425096511841,,,,,,,,
,fish,0.8365321755409241,,,,,,,,
,indulgence,0.8324872255325317,,,,,,,,
,dinner,0.8217107057571411,,,,,,,,
,wine,0.8147873282432556,,,,,,,,
,wood,0.800177276134491,,,,,,,,
,bread,0.7936522960662842,,,,,,,,
,health,0.7907131314277649,,,,,,,,
,party,0.788078248500824,,,,,,,,
https://scontent.cdninstagram.com/t51.2885-15/e35/13392813_1048867791834782_1171659392_n.jpg,"no person",0.9836558103561401,Travel,,,,Travel-s,,,
,Christmas,0.9240872859954834,,,,,,,,
,people,0.8999056816101074,,,,,,,,
,vertical,0.8877960443496704,,,,,,,,
,paper,0.8581115007400513,,,,,,,,
,vacation,0.8255774974822998,,,,,,,,
,adult,0.8205000162124634,,,,,,,,
,gambling,0.8177505731582642,,,,,,,,
,business,0.8105409145355225,,,,,,,,
,indoors,0.8094229102134705,,,,,,,,
,woman,0.7892540693283081,,,,,,,,
,celebration,0.7875636219978333,,,,,,,,
,desktop,0.7856965065002441,,,,,,,,
,card,0.7736797332763672,,,,,,,,
,fun,0.7725152969360352,,,,,,,,
,horizontal,0.7724797129631042,,,,,,,,
,identity,0.7627935409545898,,,,,,,,
,shopping,0.7523430585861206,,,,,,,,
,symbol,0.731045126914978,,,,,,,,
,traditional,0.7171523571014404,,,,,,,,
https://scontent.cdninstagram.com/t51.2885-15/e35/12816793_1582091672112911_1002166291_n.jpg,text,0.9778532981872559,Business,Entertainment,,,Business-s,Entertainment-s,,
,paper,0.9584964513778687,,,,,,,,
,illustration,0.9439871907234192,,,,,,,,
,"no person",0.9356462955474854,,,,,,,,
,desktop,0.930336594581604,,,,,,,,
,bill,0.9003407955169678,,,,,,,,
,vector,0.8867543935775757,,,,,,,,
,card,0.8626022338867188,,,,,,,,
,celebration,0.8520829081535339,,,,,,,,
,travel,0.8436851501464844,,,,,,,,
,tourism,0.8374843597412109,,,,,,,,
,pattern,0.8352235555648804,,,,,,,,
,retro,0.829021692276001,,,,,,,,
,design,0.8210111856460571,,,,,,,,
,vertical,0.7985938787460327,,,,,,,,
,travel,0.7933201193809509,,,,,,,,
,vacation,0.7877570390701294,,,,,,,,
,business,0.7822781205177307,,,,,,,,
,decoration,0.7820532917976379,,,,,,,,
,cover,0.7801246047019958,,,,,,,,
https://scontent.cdninstagram.com/t51.2885-15/e35/12724729_1578549709134623_288522019_n.jpg,vertical,0.9697586297988892,Gifts,Commerce,,,Gifts-s,"Product/brand shots",,
,illustration,0.96249920129776,,,,,,,,
,celebration,0.9603000283241272,,,,,,,,
,horizontal,0.9558042287826538,,,,,,,,
,fun,0.9509586691856384,,,,,,,,
,confetti,0.9342381954193115,,,,,,,,
,child,0.9238057136535645,,,,,,,,
,people,0.9134226441383362,,,,,,,,
,party,0.9099488258361816,,,,,,,,
,"no person",0.9054352045059204,,,,,,,,
,woman,0.8820773363113403,,,,,,,,
,birthday,0.880007266998291,,,,,,,,
,adult,0.8646502494812012,,,,,,,,
,outdoors,0.8632051348686218,,,,,,,,
,indoors,0.8617712259292603,,,,,,,,
,square,0.8533653020858765,,,,,,,,
,paper,0.8368389010429382,,,,,,,,
,design,0.8323194980621338,,,,,,,,
,Christmas,0.8125410079956055,,,,,,,,
,love,0.8096057176589966,,,,,,,,
https://scontent.cdninstagram.com/t51.2885-15/e35/12424633_492212267631238_856719753_n.jpg,indoors,0.9589851498603821,Food,,,,Dessert,,,
,vertical,0.9517428874969482,,,,,,,,
,"still life",0.9271080493927002,,,,,,,,
,horizontal,0.9184317588806152,,,,,,,,
,square,0.9118537902832031,,,,,,,,
,food,0.8858451247215271,,,,,,,,
,"no person",0.8758288621902466,,,,,,,,
,business,0.8358187675476074,,,,,,,,
,freshness,0.8108347654342651,,,,,,,,
,adult,0.7995865345001221,,,,,,,,
,people,0.7932358384132385,,,,,,,,
,celebration,0.7926921844482422,,,,,,,,
,decoration,0.7892096638679504,,,,,,,,
,table,0.7878875732421875,,,,,,,,
,technology,0.7560790777206421,,,,,,,,
,bowl,0.7415975332260132,,,,,,,,
,indulgence,0.7274342775344849,,,,,,,,
,simplicity,0.696120023727417,,,,,,,,
,plate,0.6926446557044983,,,,,,,,
,Christmas,0.6766954064369202,,,,,,,,
https://scontent.cdninstagram.com/t51.2885-15/e35/13398687_1169964529731912_1019381567_n.jpg,"no person",0.9906860589981079,Food,,,,Dessert,,,
,food,0.9806482791900635,,,,,,,,
,dinner,0.9787764549255371,,,,,,,,
,delicious,0.9751468300819397,,,,,,,,
,lunch,0.9528203010559082,,,,,,,,
,traditional,0.9283609390258789,,,,,,,,
,homemade,0.9224536418914795,,,,,,,,
,baking,0.9195581674575806,,,,,,,,
,chicken,0.9162515997886658,,,,,,,,
,cooking,0.912103533744812,,,,,,,,
,hot,0.9082820415496826,,,,,,,,
,plate,0.9050232172012329,,,,,,,,
,knife,0.8976737260818481,,,,,,,,
,meat,0.8904509544372559,,,,,,,,
,dining,0.8898414373397827,,,,,,,,
,nutrition,0.8895614147186279,,,,,,,,
,breakfast,0.8892699480056763,,,,,,,,
,meal,0.8841860294342041,,,,,,,,
,roasting,0.8666656613349915,,,,,,,,
,pork,0.8527153134346008,,,,,,,,
https://scontent.cdninstagram.com/t51.2885-15/e35/1724351_1684258161834325_970890088_n.jpg,food,0.9830900430679321,Food,,,,"Meal time",,,
,dinner,0.9670711159706116,,,,,,,,
,plate,0.9518752098083496,,,,,,,,
,lunch,0.9505902528762817,,,,,,,,
,meal,0.9269014596939087,,,,,,,,
,vegetable,0.9229227900505066,,,,,,,,
,chicken,0.9119436740875244,,,,,,,,
,"still life",0.9075641632080078,,,,,,,,
,meat,0.8976963758468628,,,,,,,,
,"no person",0.8932381868362427,,,,,,,,
,egg,0.8790453672409058,,,,,,,,
,seafood,0.8786712288856506,,,,,,,,
,fork,0.8773252367973328,,,,,,,,
,vertical,0.8578654527664185,,,,,,,,
,table,0.8552829027175903,,,,,,,,
,dish,0.8530998229980469,,,,,,,,
,horizontal,0.8515378832817078,,,,,,,,
,indoors,0.8513951301574707,,,,,,,,
,pepper,0.8438194990158081,,,,,,,,
,pork,0.8372670412063599,,,,,,,,
https://scontent.cdninstagram.com/t51.2885-15/e35/12797819_1726787660870146_1390287965_n.jpg,"no person",0.9868202805519104,Food,,,,"Meal time",,,
,traditional,0.9767043590545654,,,,,,,,
,food,0.9648233652114868,,,,,,,,
,dinner,0.9635152816772461,,,,,,,,
,delicious,0.9540432095527649,,,,,,,,
,cooking,0.9437475204467773,,,,,,,,
,lunch,0.9376625418663025,,,,,,,,
,ingredients,0.9185515642166138,,,,,,,,
,health,0.9138403534889221,,,,,,,,
,homemade,0.913316547870636,,,,,,,,
,boiling,0.9101072549819946,,,,,,,,
,ready,0.9004284143447876,,,,,,,,
,nutrition,0.8621217012405396,,,,,,,,
,chicken,0.8614091873168945,,,,,,,,
,garlic,0.8533470034599304,,,,,,,,
,wood,0.8447525501251221,,,,,,,,
,taste,0.8445764780044556,,,,,,,,
,parsley,0.8190348148345947,,,,,,,,
,meal,0.8001477718353271,,,,,,,,
,rustic,0.7964850664138794,,,,,,,,
https://scontent.cdninstagram.com/t51.2885-15/e35/12093328_1724938594388901_672614305_n.jpg,horizontal,0.9415837526321411,Travel,,,,Travel-s,,,
,"no person",0.9371750950813293,,,,,,,,
,traditional,0.915624737739563,,,,,,,,
,fun,0.8862289786338806,,,,,,,,
,wood,0.882685124874115,,,,,,,,
,fashion,0.8787445425987244,,,,,,,,
,color,0.871900737285614,,,,,,,,
,design,0.851466178894043,,,,,,,,
,desktop,0.8490703701972961,,,,,,,,
,pattern,0.8489780426025391,,,,,,,,
,vertical,0.8476817607879639,,,,,,,,
,Christmas,0.8473056554794312,,,,,,,,
,indoors,0.8423506021499634,,,,,,,,
,celebration,0.8372740745544434,,,,,,,,
,woman,0.8238848447799683,,,,,,,,
,gift,0.8236438035964966,,,,,,,,
,people,0.8219441175460815,,,,,,,,
,decoration,0.8038167953491211,,,,,,,,
,shopping,0.8021090030670166,,,,,,,,
,handmade,0.7978365421295166,,,,,,,,
https://scontent.cdninstagram.com/t51.2885-15/e35/12751172_458044214396618_144433086_n.jpg,lettuce,0.996739387512207,Food,,,,"Meal time",,,
,salad,0.9967054128646851,,,,,,,,
,lunch,0.9918605089187622,,,,,,,,
,food,0.9905708432197571,,,,,,,,
,dinner,0.9904921650886536,,,,,,,,
,vegetable,0.9880502820014954,,,,,,,,
,delicious,0.9830868244171143,,,,,,,,
,tomato,0.9828524589538574,,,,,,,,
,meal,0.9823335409164429,,,,,,,,
,appetizer,0.9754847288131714,,,,,,,,
,bowl,0.9682348966598511,,,,,,,,
,cheese,0.9659875631332397,,,,,,,,
,plate,0.961785078048706,,,,,,,,
,nutrition,0.9600765705108643,,,,,,,,
,"no person",0.9574794769287109,,,,,,,,
,cuisine,0.9532855153083801,,,,,,,,
,healthy,0.9515615105628967,,,,,,,,
,pepper,0.9435142874717712,,,,,,,,
,dish,0.939982533454895,,,,,,,,
,onion,0.9366086721420288,,,,,,,,
https://scontent.cdninstagram.com/t51.2885-15/e35/10601766_221960988155694_1685757203_n.jpg,cream,0.9982872605323792,Food,,,,Dessert,,,
,milk,0.9918926358222961,,,,,,,,
,"whipped cream",0.9879817962646484,,,,,,,,
,chocolate,0.9877762794494629,,,,,,,,
,cup,0.9875597953796387,,,,,,,,
,ice,0.9867656230926514,,,,,,,,
,vanilla,0.9861254692077637,,,,,,,,
,"no person",0.9845874905586243,,,,,,,,
,creamy,0.9827146530151367,,,,,,,,
,delicious,0.9757057428359985,,,,,,,,
,coffee,0.9739583730697632,,,,,,,,
,sweet,0.9706653952598572,,,,,,,,
,yogurt,0.9674736261367798,,,,,,,,
,scoop,0.9588886499404907,,,,,,,,
,indulgence,0.956464409828186,,,,,,,,
,cold,0.9457437992095947,,,,,,,,
,"dairy product",0.9427712559700012,,,,,,,,
,sugar,0.9302080869674683,,,,,,,,
,spoon,0.9125442504882812,,,,,,,,
,homemade,0.9079139828681946,,,,,,,,
https://scontent.cdninstagram.com/t51.2885-15/e35/12783433_1997861650438033_1275371234_n.jpg,"no person",0.9913734197616577,Food,,,,"Drinks and snack",,,
,Easter,0.9306650161743164,,,,,,,,
,food,0.9215575456619263,,,,,,,,
,health,0.8719878196716309,,,,,,,,
,breakfast,0.8526161313056946,,,,,,,,
,isolated,0.8391302227973938,,,,,,,,
,traditional,0.8245724439620972,,,,,,,,
,nutrition,0.8203346729278564,,,,,,,,
,delicious,0.7962833642959595,,,,,,,,
,child,0.788089394569397,,,,,,,,
,chicken,0.7838208675384521,,,,,,,,
,egg,0.7693706154823303,,,,,,,,
,bright,0.7670356035232544,,,,,,,,
,indoors,0.7665446996688843,,,,,,,,
,horizontal,0.7589995265007019,,,,,,,,
,nature,0.7478128671646118,,,,,,,,
,fun,0.738889217376709,,,,,,,,
,cute,0.7335484027862549,,,,,,,,
,little,0.7325528264045715,,,,,,,,
,kind,0.7267316579818726,,,,,,,,
https://scontent.cdninstagram.com/t51.2885-15/e35/13397437_977597305693942_684943166_n.jpg,vertical,0.9937541484832764,Food,Commerce,,,Food-s,"Product/brand shots",,
,food,0.9862006902694702,,,,,,,,
,text,0.9681921601295471,,,,,,,,
,business,0.9550902843475342,,,,,,,,
,indoors,0.9460663795471191,,,,,,,,
,horizontal,0.9459980726242065,,,,,,,,
,people,0.9313359260559082,,,,,,,,
,refreshment,0.9172227382659912,,,,,,,,
,drink,0.9153620600700378,,,,,,,,
,freshness,0.9145317077636719,,,,,,,,
,luck,0.9091627597808838,,,,,,,,
,variation,0.892041027545929,,,,,,,,
,vegetable,0.8881762027740479,,,,,,,,
,symbol,0.8673821687698364,,,,,,,,
,illustration,0.8621418476104736,,,,,,,,
,adult,0.859386146068573,,,,,,,,
,communication,0.8481506109237671,,,,,,,,
,portrait,0.8415230512619019,,,,,,,,
,desktop,0.8389010429382324,,,,,,,,
,meal,0.8170804381370544,,,,,,,,
https://scontent.cdninstagram.com/t51.2885-15/e35/12383453_198326467190260_1178997468_n.jpg,illustration,0.9625875353813171,Commerce,Food,,,"Product/brand shots",Food-s,,
,symbol,0.9345211982727051,,,,,,,,
,flag,0.9157317280769348,,,,,,,,
,vertical,0.9021830558776855,,,,,,,,
,gambling,0.8980209827423096,,,,,,,,
,desktop,0.8964338302612305,,,,,,,,
,patriotism,0.8957710266113281,,,,,,,,
,banner,0.893541693687439,,,,,,,,
,celebration,0.8841714859008789,,,,,,,,
,design,0.8759536743164062,,,,,,,,
,pattern,0.8750371336936951,,,,,,,,
,sign,0.8655494451522827,,,,,,,,
,"coat of arms",0.8567726612091064,,,,,,,,
,people,0.852318525314331,,,,,,,,
,horizontal,0.8452953100204468,,,,,,,,
,vector,0.8411310911178589,,,,,,,,
,image,0.8209081888198853,,,,,,,,
,communication,0.817283034324646,,,,,,,,
,fun,0.7996574640274048,,,,,,,,
,text,0.7988947629928589,,,,,,,,
https://scontent.cdninstagram.com/t51.2885-15/e35/12950308_1099302966792513_1508109606_n.jpg,"no person",0.9758123159408569,Food,,,,"Drinks and snack",,,
,bottle,0.949792742729187,,,,,,,,
,food,0.941577672958374,,,,,,,,
,health,0.9246993660926819,,,,,,,,
,container,0.9204452633857727,,,,,,,,
,drink,0.8952862024307251,,,,,,,,
,text,0.8942438364028931,,,,,,,,
,festival,0.8916528224945068,,,,,,,,
,color,0.8894190788269043,,,,,,,,
,desktop,0.8883312940597534,,,,,,,,
,people,0.8798567056655884,,,,,,,,
,lid,0.8797825574874878,,,,,,,,
,plastic,0.872427225112915,,,,,,,,
,liquid,0.8681795597076416,,,,,,,,
,sign,0.8613479733467102,,,,,,,,
,milk,0.8587679862976074,,,,,,,,
,traditional,0.8551114201545715,,,,,,,,
,poison,0.8516911268234253,,,,,,,,
,retro,0.8407760858535767,,,,,,,,
,glass,0.8394642472267151,,,,,,,,
https://scontent.cdninstagram.com/t51.2885-15/e35/13150776_573548472827568_480377889_n.jpg,"no person",0.997100830078125,Food,,,,"Meal time",,,
,delicious,0.9839318990707397,,,,,,,,
,traditional,0.9737296104431152,,,,,,,,
,food,0.9623299241065979,,,,,,,,
,breakfast,0.9622763395309448,,,,,,,,
,homemade,0.9531051516532898,,,,,,,,
,lunch,0.9475781917572021,,,,,,,,
,dinner,0.9432014226913452,,,,,,,,
,bread,0.9228436350822449,,,,,,,,
,hot,0.9219305515289307,,,,,,,,
,health,0.9172685742378235,,,,,,,,
,ready,0.9129979014396667,,,,,,,,
,tea,0.910365104675293,,,,,,,,
,nutrition,0.8975763320922852,,,,,,,,
,plate,0.896198034286499,,,,,,,,
,ingredients,0.8947573900222778,,,,,,,,
,kind,0.8944522142410278,,,,,,,,
,cooking,0.8943270444869995,,,,,,,,
,coffee,0.8841235637664795,,,,,,,,
,indoors,0.8745613694190979,,,,,,,,
https://scontent.cdninstagram.com/t51.2885-15/e35/12479080_1769416663291338_486359804_n.jpg,food,0.9828112125396729,Food,,,,Dessert,,,
,horizontal,0.9806766510009766,,,,,,,,
,"no person",0.980047345161438,,,,,,,,
,slice,0.9292492270469666,,,,,,,,
,freshness,0.9279183149337769,,,,,,,,
,square,0.9219563007354736,,,,,,,,
,indoors,0.9218196272850037,,,,,,,,
,sweet,0.9173092246055603,,,,,,,,
,baking,0.9158881902694702,,,,,,,,
,merchandise,0.8779946565628052,,,,,,,,
,refreshment,0.8756623268127441,,,,,,,,
,homemade,0.8744156956672668,,,,,,,,
,vertical,0.8726617097854614,,,,,,,,
,slice,0.8703588843345642,,,,,,,,
,milk,0.8700447678565979,,,,,,,,
,sugar,0.8645317554473877,,,,,,,,
,delicious,0.857088029384613,,,,,,,,
,butter,0.8556836843490601,,,,,,,,
,indulgence,0.8450523614883423,,,,,,,,
,"dairy product",0.8301111459732056,,,,,,,,
https://scontent.cdninstagram.com/t51.2885-15/e35/13129836_1046552238759123_225528121_n.jpg,bowl,0.9841541051864624,Food,,,,"Meal time",,,
,food,0.9750113487243652,,,,,,,,
,vegetable,0.9377638697624207,,,,,,,,
,indoors,0.9344753623008728,,,,,,,,
,horizontal,0.9073063135147095,,,,,,,,
,plate,0.9057554006576538,,,,,,,,
,table,0.877327024936676,,,,,,,,
,vertical,0.8746967911720276,,,,,,,,
,"still life",0.873358964920044,,,,,,,,
,"no person",0.8703120946884155,,,,,,,,
,dinner,0.8586529493331909,,,,,,,,
,lunch,0.8344529867172241,,,,,,,,
,freshness,0.822708249092102,,,,,,,,
,meal,0.794924259185791,,,,,,,,
,cooking,0.7711750268936157,,,,,,,,
,salad,0.757651686668396,,,,,,,,
,dish,0.7452082633972168,,,,,,,,
,leaf,0.7321092486381531,,,,,,,,
,onion,0.7321053743362427,,,,,,,,
,health,0.7008413076400757,,,,,,,,
https://scontent.cdninstagram.com/t51.2885-15/e35/13151192_1733762060224090_1508976003_n.jpg,screen,0.9911405444145203,Entertainment,,,,Entertainment-s,,,
,movie,0.9764258861541748,,,,,,,,
,illustration,0.9673633575439453,,,,,,,,
,television,0.9653940200805664,,,,,,,,
,technology,0.9305977821350098,,,,,,,,
,business,0.9244261384010315,,,,,,,,
,communication,0.9212616086006165,,,,,,,,
,display,0.9180558919906616,,,,,,,,
,desktop,0.9144696593284607,,,,,,,,
,design,0.890105128288269,,,,,,,,
,monitor,0.8844467997550964,,,,,,,,
,computer,0.8770596981048584,,,,,,,,
,graphic,0.8723923563957214,,,,,,,,
,people,0.8607052564620972,,,,,,,,
,internet,0.8586251735687256,,,,,,,,
,celebration,0.8562377691268921,,,,,,,,
,art,0.8507448434829712,,,,,,,,
,"picture frame",0.8429412841796875,,,,,,,,
,video,0.8341042995452881,,,,,,,,
,collage,0.8278820514678955,,,,,,,,
https://scontent.cdninstagram.com/t51.2885-15/e35/1517199_886387958141344_308215180_n.jpg,food,0.9887658357620239,Food,,,,"Drinks and snack",,,
,"no person",0.9844443798065186,,,,,,,,
,drink,0.9575842022895813,,,,,,,,
,traditional,0.9368515014648438,,,,,,,,
,festival,0.9268543720245361,,,,,,,,
,text,0.9197965860366821,,,,,,,,
,jam,0.9140846729278564,,,,,,,,
,container,0.907619297504425,,,,,,,,
,indoors,0.9018664360046387,,,,,,,,
,logo,0.8955134153366089,,,,,,,,
,editorial,0.8822656869888306,,,,,,,,
,cola,0.879517674446106,,,,,,,,
,stock,0.8668469190597534,,,,,,,,
,candy,0.8656567335128784,,,,,,,,
,breakfast,0.8642368912696838,,,,,,,,
,chocolate,0.8608984351158142,,,,,,,,
,religion,0.8575058579444885,,,,,,,,
,celebration,0.8565937876701355,,,,,,,,
,football,0.8513606786727905,,,,,,,,
,sugar,0.8488467335700989,,,,,,,,
https://scontent.cdninstagram.com/t51.2885-15/e35/11417421_751086258326648_1672981314_n.jpg,fun,0.9900131225585938,Commerce,,,,"Product/brand shots",,,
,child,0.9823896884918213,,,,,,,,
,toy,0.9801493883132935,,,,,,,,
,celebration,0.977308988571167,,,,,,,,
,confetti,0.9581168293952942,,,,,,,,
,cute,0.9502683877944946,,,,,,,,
,little,0.9473799467086792,,,,,,,,
,horizontal,0.935248613357544,,,,,,,,
,Christmas,0.9184521436691284,,,,,,,,
,happiness,0.9088979959487915,,,,,,,,
,creativity,0.906542956829071,,,,,,,,
,decoration,0.9064970016479492,,,,,,,,
,indoors,0.904644250869751,,,,,,,,
,people,0.8999321460723877,,,,,,,,
,party,0.8988986015319824,,,,,,,,
,doll,0.8914753198623657,,,,,,,,
,Easter,0.8842602968215942,,,,,,,,
,gift,0.874151885509491,,,,,,,,
,flower,0.8695182204246521,,,,,,,,
,humor,0.8688325881958008,,,,,,,,
https://scontent.cdninstagram.com/t51.2885-15/e35/13259638_251703605190334_903861032_n.jpg,food,0.9903926849365234,Food,,,,"Meal time",,,
,drink,0.9865797162055969,,,,,,,,
,refreshment,0.9763007760047913,,,,,,,,
,breakfast,0.9760481119155884,,,,,,,,
,milk,0.9743832945823669,,,,,,,,
,"no person",0.9609996676445007,,,,,,,,
,sweet,0.9529846906661987,,,,,,,,
,glass,0.9486173391342163,,,,,,,,
,coffee,0.9394158124923706,,,,,,,,
,restaurant,0.9376034140586853,,,,,,,,
,delicious,0.9367696642875671,,,,,,,,
,fruit,0.9241567850112915,,,,,,,,
,bread,0.9228389263153076,,,,,,,,
,homemade,0.9218614101409912,,,,,,,,
,sugar,0.9169794321060181,,,,,,,,
,cream,0.9166281223297119,,,,,,,,
,indoors,0.9131815433502197,,,,,,,,
,table,0.9115171432495117,,,,,,,,
,plate,0.9107381105422974,,,,,,,,
,traditional,0.9071069955825806,,,,,,,,
https://scontent.cdninstagram.com/t51.2885-15/e35/13188041_1700864866853450_1850885538_n.jpg,cream,0.9872334599494934,Food,,,,Dessert,,,
,cup,0.9872235059738159,,,,,,,,
,indulgence,0.9803644418716431,,,,,,,,
,"whipped cream",0.9793568849563599,,,,,,,,
,vertical,0.9768815040588379,,,,,,,,
,vanilla,0.9762600660324097,,,,,,,,
,chocolate,0.9723186492919922,,,,,,,,
,coffee,0.9567863941192627,,,,,,,,
,milk,0.9470261335372925,,,,,,,,
,"dairy product",0.9468132853507996,,,,,,,,
,ice,0.940955400466919,,,,,,,,
,sweet,0.9404982328414917,,,,,,,,
,drink,0.933242917060852,,,,,,,,
,indoors,0.9185287952423096,,,,,,,,
,scoop,0.8968424201011658,,,,,,,,
,yogurt,0.8949249982833862,,,,,,,,
,food,0.8850219249725342,,,,,,,,
,cornet,0.8771848082542419,,,,,,,,
,refreshment,0.839207649230957,,,,,,,,
,"coffee cup",0.8292949199676514,,,,,,,,
https://scontent.cdninstagram.com/t51.2885-15/e35/12825754_1071246039604720_860041599_n.jpg,indoors,0.993449330329895,Entertainment,,,,Entertainment-s,,,
,"christmas present",0.9683573842048645,,,,,,,,
,people,0.9539225697517395,,,,,,,,
,technology,0.9478570222854614,,,,,,,,
,horizontal,0.939119279384613,,,,,,,,
,adult,0.933180570602417,,,,,,,,
,vertical,0.9107823371887207,,,,,,,,
,communication,0.9067608118057251,,,,,,,,
,Christmas,0.8981658220291138,,,,,,,,
,child,0.8980146050453186,,,,,,,,
,man,0.8805842399597168,,,,,,,,
,happiness,0.8588217496871948,,,,,,,,
,internet,0.8499675989151001,,,,,,,,
,illustration,0.8410733342170715,,,,,,,,
,woman,0.8340950012207031,,,,,,,,
,computer,0.8307605385780334,,,,,,,,
,creativity,0.8290294408798218,,,,,,,,
,education,0.8287553191184998,,,,,,,,
,"christmas tree",0.8271707892417908,,,,,,,,
,business,0.8247168660163879,,,,,,,,
https://scontent.cdninstagram.com/t51.2885-15/e35/13116753_1564624610501408_1798564288_n.jpg,desktop,0.9733232259750366,Commerce,"Fashion & Beauty",,,"Product/brand shots","Fashion & Beauty-s",,
,illustration,0.9685171842575073,,,,,,,,
,vector,0.9591891169548035,,,,,,,,
,shoe,0.9577827453613281,,,,,,,,
,fashion,0.9492814540863037,,,,,,,,
,design,0.9476583003997803,,,,,,,,
,color,0.9263006448745728,,,,,,,,
,style,0.9138375520706177,,,,,,,,
,footwear,0.9124946594238281,,,,,,,,
,couple,0.8892528414726257,,,,,,,,
,graphic,0.8869752883911133,,,,,,,,
,abstract,0.874462366104126,,,,,,,,
,image,0.864549994468689,,,,,,,,
,child,0.8403415679931641,,,,,,,,
,party,0.8304156064987183,,,,,,,,
,card,0.8284564018249512,,,,,,,,
,"no person",0.8205538988113403,,,,,,,,
,fun,0.8172037601470947,,,,,,,,
,art,0.8160531520843506,,,,,,,,
,symbol,0.8135899901390076,,,,,,,,
https://scontent.cdninstagram.com/t51.2885-15/e35/12080423_1119789534774034_1552405460_n.jpg,food,0.9877722263336182,Food,,,,"Meal time",,,
,dinner,0.9871951341629028,,,,,,,,
,lunch,0.9813461899757385,,,,,,,,
,lettuce,0.9720212817192078,,,,,,,,
,salad,0.9653705358505249,,,,,,,,
,"no person",0.9619432687759399,,,,,,,,
,bowl,0.9588516354560852,,,,,,,,
,cooking,0.9579965472221375,,,,,,,,
,vegetable,0.9521079063415527,,,,,,,,
,meal,0.9415829181671143,,,,,,,,
,nutrition,0.9260830283164978,,,,,,,,
,health,0.9228169918060303,,,,,,,,
,delicious,0.9201377034187317,,,,,,,,
,leaf,0.9057282209396362,,,,,,,,
,plate,0.9046397805213928,,,,,,,,
,ingredients,0.8887414932250977,,,,,,,,
,dish,0.8727191090583801,,,,,,,,
,appetizer,0.8565418720245361,,,,,,,,
,indoors,0.8376851677894592,,,,,,,,
,refreshment,0.8286119699478149,,,,,,,,
https://scontent.cdninstagram.com/t51.2885-15/e35/13092270_239080339789681_1124198680_n.jpg,"no person",0.9910643100738525,Food,,,,"Drinks and snack",,,
,food,0.9907330274581909,,,,,,,,
,vegetable,0.9473744034767151,,,,,,,,
,horizontal,0.9324088096618652,,,,,,,,
,market,0.9296180605888367,,,,,,,,
,health,0.924227237701416,,,,,,,,
,many,0.8873374462127686,,,,,,,,
,delicious,0.8851169943809509,,,,,,,,
,nutrition,0.8815994262695312,,,,,,,,
,indoors,0.8748531341552734,,,,,,,,
,grow,0.8719626665115356,,,,,,,,
,traditional,0.861923098564148,,,,,,,,
,cooking,0.8615307807922363,,,,,,,,
,vitamin,0.8573522567749023,,,,,,,,
,kind,0.8500999212265015,,,,,,,,
,ingredients,0.846954882144928,,,,,,,,
,dinner,0.8461605906486511,,,,,,,,
,candy,0.8396273851394653,,,,,,,,
,summer,0.8299570083618164,,,,,,,,
,desktop,0.8171019554138184,,,,,,,,
https://scontent.cdninstagram.com/t51.2885-15/e35/12965177_608035999349573_1146878473_n.jpg,snail,0.9939432740211487,Animals,,,,Animals-s,,,
,shellfish,0.9919590950012207,,,,,,,,
,shell,0.987703800201416,,,,,,,,
,gastropod,0.9849230647087097,,,,,,,,
,nature,0.9813846349716187,,,,,,,,
,horizontal,0.9777554273605347,,,,,,,,
,"still life",0.9368053674697876,,,,,,,,
,outdoors,0.9298222064971924,,,,,,,,
,indoors,0.9237958192825317,,,,,,,,
,vertical,0.9211123585700989,,,,,,,,
,wet,0.9189218878746033,,,,,,,,
,animal,0.9131938219070435,,,,,,,,
,food,0.9012064933776855,,,,,,,,
,slow,0.901190996170044,,,,,,,,
,invertebrate,0.8737114667892456,,,,,,,,
,slug,0.8622357845306396,,,,,,,,
,shell,0.8606980443000793,,,,,,,,
,decoration,0.8579977750778198,,,,,,,,
,flora,0.8489185571670532,,,,,,,,
,little,0.835057258605957,,,,,,,,
https://scontent.cdninstagram.com/t51.2885-15/e35/13188004_589687137870157_1283287281_n.jpg,food,0.9913212060928345,Food,,,,"Meal time",,,
,plate,0.9823212623596191,,,,,,,,
,bowl,0.9745047092437744,,,,,,,,
,vegetable,0.9695551991462708,,,,,,,,
,bamboo,0.9677151441574097,,,,,,,,
,meal,0.9671791195869446,,,,,,,,
,horizontal,0.962361216545105,,,,,,,,
,"still life",0.9623231291770935,,,,,,,,
,freshness,0.9612811803817749,,,,,,,,
,vertical,0.9515062570571899,,,,,,,,
,seafood,0.951436460018158,,,,,,,,
,dish,0.9506232738494873,,,,,,,,
,dumpling,0.940098762512207,,,,,,,,
,dinner,0.9367419481277466,,,,,,,,
,lunch,0.9055169224739075,,,,,,,,
,indoors,0.9028980135917664,,,,,,,,
,egg,0.8945319652557373,,,,,,,,
,chicken,0.8858411312103271,,,,,,,,
,appetizer,0.8810520768165588,,,,,,,,
,cooking,0.8806018829345703,,,,,,,,
https://scontent.cdninstagram.com/t51.2885-15/e35/12907138_859791490834186_1227076509_n.jpg,illustration,0.9736769199371338,Gifts,,,,Gifts-s,,,
,paper,0.9692315459251404,,,,,,,,
,retro,0.965840220451355,,,,,,,,
,vertical,0.9452331066131592,,,,,,,,
,vintage,0.9310382008552551,,,,,,,,
,old,0.9266953468322754,,,,,,,,
,pattern,0.9140517711639404,,,,,,,,
,design,0.910792350769043,,,,,,,,
,antique,0.8945865631103516,,,,,,,,
,vector,0.8928440809249878,,,,,,,,
,"picture frame",0.8802198171615601,,,,,,,,
,woman,0.8713454008102417,,,,,,,,
,art,0.8658040165901184,,,,,,,,
,love,0.8610224723815918,,,,,,,,
,letter,0.8608225584030151,,,,,,,,
,text,0.859459400177002,,,,,,,,
,scrapbook,0.8588566780090332,,,,,,,,
,decoration,0.8561960458755493,,,,,,,,
,adult,0.8352266550064087,,,,,,,,
,banner,0.8203530311584473,,,,,,,,
https://scontent.cdninstagram.com/t51.2885-15/e35/13258946_494793630704643_1774980895_n.jpg,breakfast,0.9954222440719604,Food,,,,"Meal time",,,
,coffee,0.9912682771682739,,,,,,,,
,"orange juice",0.9904671311378479,,,,,,,,
,dawn,0.9891639947891235,,,,,,,,
,milk,0.9822103381156921,,,,,,,,
,drink,0.9814273118972778,,,,,,,,
,food,0.9782334566116333,,,,,,,,
,"no person",0.9609509110450745,,,,,,,,
,juice,0.9533020853996277,,,,,,,,
,honey,0.9492272138595581,,,,,,,,
,delicious,0.9470044374465942,,,,,,,,
,indoors,0.9432107210159302,,,,,,,,
,glass,0.9405763149261475,,,,,,,,
,cup,0.9380906820297241,,,,,,,,
,horizontal,0.925976037979126,,,,,,,,
,bread,0.9223911166191101,,,,,,,,
,wood,0.9153599739074707,,,,,,,,
,refreshment,0.9147052764892578,,,,,,,,
,table,0.9130393862724304,,,,,,,,
,sweet,0.9103775024414062,,,,,,,,
https://scontent.cdninstagram.com/t51.2885-15/e35/12750286_231135443908187_1843820470_n.jpg,"no person",0.9635288715362549,Food,,,,"Drinks and snack",,,
,desktop,0.9449026584625244,,,,,,,,
,service,0.9327636957168579,,,,,,,,
,paper,0.8942321538925171,,,,,,,,
,traditional,0.8747016191482544,,,,,,,,
,business,0.8593133091926575,,,,,,,,
,symbol,0.8542666435241699,,,,,,,,
,industry,0.8437021374702454,,,,,,,,
,food,0.8407268524169922,,,,,,,,
,nature,0.8368930220603943,,,,,,,,
,culture,0.8304529786109924,,,,,,,,
,retro,0.8269498944282532,,,,,,,,
,indoors,0.8201372623443604,,,,,,,,
,decoration,0.8091813921928406,,,,,,,,
,color,0.7963733673095703,,,,,,,,
,old,0.7930315136909485,,,,,,,,
,collection,0.7920480966567993,,,,,,,,
,communication,0.7644285559654236,,,,,,,,
,post,0.756189227104187,,,,,,,,
,summer,0.7548443675041199,,,,,,,,
https://scontent.cdninstagram.com/t51.2885-15/e35/13116819_621010744723591_1072886150_n.jpg,vertical,0.9809687733650208,Food,,,,"Meal time",,,
,indoors,0.9709126949310303,,,,,,,,
,food,0.9705886840820312,,,,,,,,
,box,0.9633373022079468,,,,,,,,
,"still life",0.9598084688186646,,,,,,,,
,celebration,0.935312032699585,,,,,,,,
,Christmas,0.9269591569900513,,,,,,,,
,"wrapping paper",0.9111635088920593,,,,,,,,
,horizontal,0.9035278558731079,,,,,,,,
,candle,0.9028046131134033,,,,,,,,
,drink,0.895919919013977,,,,,,,,
,freshness,0.8948101997375488,,,,,,,,
,text,0.854882538318634,,,,,,,,
,candy,0.8468751311302185,,,,,,,,
,business,0.834960401058197,,,,,,,,
,container,0.8340197801589966,,,,,,,,
,variation,0.8338596820831299,,,,,,,,
,paper,0.8318605422973633,,,,,,,,
,indulgence,0.8294262886047363,,,,,,,,
,refreshment,0.8143436312675476,,,,,,,,
https://scontent.cdninstagram.com/t51.2885-15/e35/13099016_906041246173178_1166544804_n.jpg,food,0.9839065074920654,Food,,,,"Meal time",,,
,dinner,0.9803312420845032,,,,,,,,
,delicious,0.9744184017181396,,,,,,,,
,lunch,0.9721529483795166,,,,,,,,
,"no person",0.9717460870742798,,,,,,,,
,soup,0.9712897539138794,,,,,,,,
,bowl,0.9631691575050354,,,,,,,,
,meal,0.9607735872268677,,,,,,,,
,cooking,0.9605437517166138,,,,,,,,
,traditional,0.9523184299468994,,,,,,,,
,hot,0.9399375915527344,,,,,,,,
,dish,0.9382898807525635,,,,,,,,
,cuisine,0.9352787733078003,,,,,,,,
,nutrition,0.9349521398544312,,,,,,,,
,plate,0.9309195280075073,,,,,,,,
,homemade,0.9194636344909668,,,,,,,,
,vegetable,0.9173261523246765,,,,,,,,
,health,0.9067145586013794,,,,,,,,
,meat,0.90542072057724,,,,,,,,
,curry,0.8847460150718689,,,,,,,,
https://scontent.cdninstagram.com/t51.2885-15/e35/12446066_210288606000223_1990916673_n.jpg,woman,0.9758445024490356,Relationships,Travel,,,"Best friends",Travel-s,,
,people,0.9735414981842041,,,,,,,,
,man,0.9270285367965698,,,,,,,,
,togetherness,0.8969823718070984,,,,,,,,
,fun,0.8909775018692017,,,,,,,,
,family,0.8883117437362671,,,,,,,,
,two,0.8864215016365051,,,,,,,,
,adult,0.8722050189971924,,,,,,,,
,education,0.86211097240448,,,,,,,,
,wear,0.8515495657920837,,,,,,,,
,child,0.8472821712493896,,,,,,,,
,group,0.8389615416526794,,,,,,,,
,leisure,0.8260671496391296,,,,,,,,
,portrait,0.8219295144081116,,,,,,,,
,adolescent,0.814486026763916,,,,,,,,
,friendship,0.8097573518753052,,,,,,,,
,love,0.8058155179023743,,,,,,,,
,enjoyment,0.7857980728149414,,,,,,,,
,outdoors,0.7850527763366699,,,,,,,,
,festival,0.7594606280326843,,,,,,,,
https://scontent.cdninstagram.com/t51.2885-15/e35/10251499_1696827470563788_518670945_n.jpg,people,0.9902299642562866,,,,,,,,
,woman,0.952576756477356,,,,,,,,
,adult,0.9418425559997559,,,,,,,,
,happiness,0.9346290826797485,,,,,,,,
,portrait,0.9327936172485352,,,,,,,,
,child,0.9245584011077881,,,,,,,,
,fun,0.9114617705345154,,,,,,,,
,shopping,0.9025783538818359,,,,,,,,
,festival,0.8963276147842407,,,,,,,,
,stock,0.8956304788589478,,,,,,,,
,horizontal,0.8890213966369629,,,,,,,,
,cheerful,0.8782593011856079,,,,,,,,
,fame,0.8776144981384277,,,,,,,,
,event,0.8638298511505127,,,,,,,,
,outdoors,0.8520244359970093,,,,,,,,
,shop,0.8497850894927979,,,,,,,,
,enjoyment,0.8464816808700562,,,,,,,,
,family,0.8265069723129272,,,,,,,,
,indoors,0.8161981105804443,,,,,,,,
,merchandise,0.8015177249908447,,,,,,,,
https://scontent.cdninstagram.com/t51.2885-15/e35/925157_1114694361916036_1316837073_n.jpg,indoors,0.9831219911575317,,,,,,,,
,horizontal,0.9708801507949829,,,,,,,,
,untidy,0.9694691300392151,,,,,,,,
,box,0.957339882850647,,,,,,,,
,variation,0.9560225009918213,,,,,,,,
,people,0.9541535377502441,,,,,,,,
,toy,0.9455065727233887,,,,,,,,
,adult,0.9334384202957153,,,,,,,,
,table,0.9311288595199585,,,,,,,,
,gift,0.9289399981498718,,,,,,,,
,vertical,0.9205609560012817,,,,,,,,
,creativity,0.9141742587089539,,,,,,,,
,decoration,0.9047502279281616,,,,,,,,
,"still life",0.8977286219596863,,,,,,,,
,jumble,0.8964399099349976,,,,,,,,
,business,0.8964006900787354,,,,,,,,
,messy,0.888421893119812,,,,,,,,
,illustration,0.8872320055961609,,,,,,,,
,"christmas present",0.8749986886978149,,,,,,,,
,abundance,0.8673995137214661,,,,,,,,
