url,class,score
https://scontent.cdninstagram.com/t51.2885-15/e15/13391270_1049044601854855_1450484526_n.jpg,woman,0.990172923
,fashion,0.94112885
,girl,0.939879656
,portrait,0.937689424
,young,0.933410764
,beautiful,0.904901505
,pretty,0.902458429
,people,0.894319892
,one,0.886069655
,desktop,0.87867254
,adult,0.878138423
,sexy,0.858777642
,glamour,0.855734169
,cute,0.844701052
,style,0.837614894
,model,0.833942175
,health,0.831735611
,bright,0.830302835
,retro,0.826645911
,hair,0.814380646
https://scontent.cdninstagram.com/t51.2885-15/e15/13092508_1730805597203700_1114389284_n.jpg,people,0.991952181
,portrait,0.987561107
,one,0.98327142
,music,0.957182288
,adult,0.955554843
,microphone,0.94150418
,singer,0.940703869
,woman,0.929587781
,man,0.890895367
,musician,0.882553577
,dark,0.857939482
,child,0.834945619
,concert,0.827712715
,indoors,0.820627451
,pop,0.817518473
,karaoke,0.813390017
,wear,0.803661108
,light,0.788201332
,performance,0.7729702
,offense,0.765016079
https://scontent.cdninstagram.com/t51.2885-15/e15/12918456_1804147373149009_878935454_n.jpg,portrait,0.984952509
,people,0.984275579
,child,0.976588726
,horizontal,0.971978664
,headshot,0.964865148
,indoors,0.960525751
,vertical,0.958778977
,adult,0.950590193
,contemplation,0.933337688
,woman,0.93285495
,dark,0.923236489
,sadness,0.922031403
,serious,0.902410507
,individuality,0.891545773
,staring,0.886794865
,happiness,0.884414911
,adolescent,0.880302608
,innocence,0.879595339
,togetherness,0.865911245
,man,0.857035995
https://scontent.cdninstagram.com/t51.2885-15/e35/13118202_996420900442329_805064238_n.jpg,woman,0.987091482
,adult,0.985583067
,love,0.984328985
,people,0.982448339
,two,0.970464587
,affection,0.969342113
,romance,0.96860075
,togetherness,0.955352187
,portrait,0.954776943
,facial expression,0.952796459
,man,0.946375549
,intimacy,0.932311773
,indoors,0.930513322
,embrace,0.911431968
,interaction,0.901836276
,happiness,0.897899747
,wear,0.89175719
,side view,0.890432119
,relaxation,0.857803166
,one,0.855054259
https://scontent.cdninstagram.com/t51.2885-15/e35/13394963_1071810226246494_2000759513_n.jpg,people,0.945766211
,airport,0.919737935
,competition,0.913390517
,wear,0.909266531
,adult,0.908915997
,woman,0.907313585
,business,0.89368999
,commerce,0.87409234
,music,0.85047996
,portrait,0.84369719
,telephone,0.83512938
,school,0.829315543
,city,0.82212925
,indoors,0.806272984
,travel,0.801566362
,exhibition,0.800506473
,education,0.799965024
,group,0.7905339
,performance,0.78964597
,interaction,0.782734871
https://scontent.cdninstagram.com/t51.2885-15/e15/12918456_1804147373149009_878935454_n.jpg,portrait,0.984952509
,people,0.984275579
,child,0.976588726
,horizontal,0.971978664
,headshot,0.964865148
,indoors,0.960525751
,vertical,0.958778977
,adult,0.950590193
,contemplation,0.933337688
,woman,0.93285495
,dark,0.923236489
,sadness,0.922031403
,serious,0.902410507
,individuality,0.891545773
,staring,0.886794865
,happiness,0.884414911
,adolescent,0.880302608
,innocence,0.879595339
,togetherness,0.865911245
,man,0.857035995
https://scontent.cdninstagram.com/t51.2885-15/e35/13118202_996420900442329_805064238_n.jpg,woman,0.987091482
,adult,0.985583067
,love,0.984328985
,people,0.982448339
,two,0.970464587
,affection,0.969342113
,romance,0.96860075
,togetherness,0.955352187
,portrait,0.954776943
,facial expression,0.952796459
,man,0.946375549
,intimacy,0.932311773
,indoors,0.930513322
,embrace,0.911431968
,interaction,0.901836276
,happiness,0.897899747
,wear,0.89175719
,side view,0.890432119
,relaxation,0.857803166
,one,0.855054259
https://scontent.cdninstagram.com/t51.2885-15/e15/1173086_1138329369512518_278537078_n.jpg,one,0.985231042
,people,0.983324647
,adult,0.977279603
,portrait,0.974699855
,child,0.957689106
,facial expression,0.957054555
,woman,0.9567976
,indoors,0.951187253
,blur,0.936563373
,adolescent,0.921729088
,wear,0.920846164
,sadness,0.899833202
,girl,0.891090512
,pain,0.875997365
,fatigue,0.875226736
,happiness,0.871798813
,daylight,0.869415402
,brunette,0.869362354
,relaxation,0.868772388
,enjoyment,0.862040162
https://scontent.cdninstagram.com/t51.2885-15/e35/10817684_1592998177691259_1090871333_n.jpg,facial expression,0.996169209
,people,0.995197654
,adult,0.993734837
,brunette,0.990668178
,portrait,0.990638852
,room,0.987735033
,woman,0.98691535
,group,0.979907393
,girl,0.976420164
,two,0.967517436
,happiness,0.955301464
,furniture,0.954700053
,indoors,0.952994108
,family,0.950190425
,wear,0.94358933
,school,0.906445503
,child,0.893757105
,technology,0.89098382
,three,0.888429999
,offspring,0.878697455
https://scontent.cdninstagram.com/t51.2885-15/e15/1173086_1138329369512518_278537078_n.jpg,one,0.985231042
,people,0.983324647
,adult,0.977279603
,portrait,0.974699855
,child,0.957689106
,facial expression,0.957054555
,woman,0.9567976
,indoors,0.951187253
,blur,0.936563373
,adolescent,0.921729088
,wear,0.920846164
,sadness,0.899833202
,girl,0.891090512
,pain,0.875997365
,fatigue,0.875226736
,happiness,0.871798813
,daylight,0.869415402
,brunette,0.869362354
,relaxation,0.868772388
,enjoyment,0.862040162
https://scontent.cdninstagram.com/t51.2885-15/e35/12976473_1075061685869161_607861148_n.jpg,girl,0.993112683
,woman,0.991477549
,people,0.984584868
,two,0.98403132
,love,0.973998725
,adult,0.959275723
,happiness,0.956036687
,portrait,0.954676867
,togetherness,0.954281211
,couple,0.942768097
,park,0.94098711
,friendship,0.92908746
,outdoors,0.928591728
,summer,0.913346231
,brunette,0.91273725
,fun,0.900781274
,leisure,0.900050819
,family,0.89577961
,lifestyle,0.88036859
,nature,0.875481427
https://scontent.cdninstagram.com/t51.2885-15/e15/13092508_1730805597203700_1114389284_n.jpg,people,0.991952181
,portrait,0.987561107
,one,0.98327142
,music,0.957182288
,adult,0.955554843
,microphone,0.94150418
,singer,0.940703869
,woman,0.929587781
,man,0.890895367
,musician,0.882553577
,dark,0.857939482
,child,0.834945619
,concert,0.827712715
,indoors,0.820627451
,pop,0.817518473
,karaoke,0.813390017
,wear,0.803661108
,light,0.788201332
,performance,0.7729702
,offense,0.765016079
https://scontent.cdninstagram.com/t51.2885-15/e35/12930835_1548387362122192_1784893225_n.jpg,facial expression,0.997924328
,togetherness,0.990654826
,happiness,0.989723802
,woman,0.988818765
,portrait,0.984437466
,people,0.984089553
,group,0.971699595
,two,0.970861435
,interaction,0.970713913
,friendship,0.966924906
,adult,0.966070294
,daylight,0.962941647
,wear,0.958882868
,laughing,0.95616895
,girl,0.954906881
,three,0.954791188
,child,0.946379781
,affection,0.940324187
,enjoyment,0.937760115
,offspring,0.935813606
https://scontent.cdninstagram.com/t51.2885-15/e35/12976473_1075061685869161_607861148_n.jpg,girl,0.993112683
,woman,0.991477549
,people,0.984584868
,two,0.98403132
,love,0.973998725
,adult,0.959275723
,happiness,0.956036687
,portrait,0.954676867
,togetherness,0.954281211
,couple,0.942768097
,park,0.94098711
,friendship,0.92908746
,outdoors,0.928591728
,summer,0.913346231
,brunette,0.91273725
,fun,0.900781274
,leisure,0.900050819
,family,0.89577961
,lifestyle,0.88036859
,nature,0.875481427
https://scontent.cdninstagram.com/t51.2885-15/e35/13261080_1716894855252667_187164342_n.jpg,group,0.995493054
,group,0.993319631
,people,0.981590331
,portrait,0.978687048
,woman,0.972533345
,many,0.962687612
,adult,0.946061015
,music,0.945986867
,squad,0.943111777
,recreation,0.939997196
,man,0.935917616
,friendship,0.929620266
,school,0.927644491
,singer,0.91862464
,performance,0.916240692
,band,0.912981927
,child,0.902640343
,wear,0.895449758
,education,0.884233475
,girl,0.881257236
https://scontent.cdninstagram.com/t51.2885-15/e15/12749888_255222191477286_1407990360_n.jpg,people,0.987262964
,adult,0.980997384
,one,0.975563705
,woman,0.968589783
,technology,0.96858573
,portrait,0.951958179
,indoors,0.936026335
,computer,0.928615808
,music,0.9139117
,wear,0.897004724
,facial expression,0.893745899
,business,0.862704158
,girl,0.840764046
,telephone,0.832395434
,connection,0.808195472
,room,0.799793184
,eyewear,0.790432811
,leisure,0.786127925
,sitting,0.785060883
,recreation,0.780110836
https://scontent.cdninstagram.com/t51.2885-15/e35/10817684_1592998177691259_1090871333_n.jpg,facial expression,0.996169209
,people,0.995197654
,adult,0.993734837
,brunette,0.990668178
,portrait,0.990638852
,room,0.987735033
,woman,0.98691535
,group,0.979907393
,girl,0.976420164
,two,0.967517436
,happiness,0.955301464
,furniture,0.954700053
,indoors,0.952994108
,family,0.950190425
,wear,0.94358933
,school,0.906445503
,child,0.893757105
,technology,0.89098382
,three,0.888429999
,offspring,0.878697455
https://scontent.cdninstagram.com/t51.2885-15/e35/12599422_474637705994266_1995889750_n.jpg,people,0.966174603
,woman,0.958024919
,portrait,0.956155956
,adult,0.955586433
,festival,0.954458356
,city,0.944532037
,evening,0.92990756
,light,0.925717831
,music,0.905559778
,girl,0.896535218
,party,0.880745053
,business,0.877771139
,street,0.869312048
,urban,0.865983188
,performance,0.861235797
,group,0.847395301
,travel,0.839571238
,nightlife,0.835443258
,wear,0.816673756
,skyscraper,0.815438151
https://scontent.cdninstagram.com/t51.2885-15/e35/13109066_855712827908927_1243122953_n.jpg,woman,0.997440815
,indoors,0.991895974
,fashion,0.986640096
,pretty,0.974298179
,people,0.961448908
,girl,0.954982936
,family,0.952449203
,relaxation,0.949254215
,adolescent,0.944024563
,fun,0.934607923
,portrait,0.930934548
,glamour,0.923405111
,cute,0.923015714
,casual,0.921772718
,leisure,0.916333199
,enjoyment,0.913318038
,joy,0.904127717
,young,0.900282741
,sexy,0.900184453
,love,0.896118999
https://scontent.cdninstagram.com/t51.2885-15/s480x480/e35/12819138_172156129831783_374081411_n.jpg,text,0.996220767
,typography,0.981474996
,baptismal font,0.960392237
,communication,0.958791018
,sign,0.956984878
,vintage,0.954645514
,symbol,0.951792121
,give voice,0.94822824
,retro,0.946128309
,business,0.942822218
,letter,0.942305386
,type,0.94073987
,alphabet,0.937780917
,texture,0.927771449
,desktop,0.924053967
,rudiment,0.903576672
,illustration,0.896367967
,message,0.893210351
,writing,0.865653872
,warning,0.856793404
https://scontent.cdninstagram.com/t51.2885-15/e35/12724832_1538985576401418_1828285738_n.jpg,group,0.998499155
,friendship,0.990446389
,people,0.989925444
,group,0.988902569
,facial expression,0.987188399
,woman,0.976425231
,child,0.975793779
,four,0.975745559
,adult,0.968055964
,five,0.967921853
,exhilaration,0.96279341
,portrait,0.956761539
,happiness,0.948117018
,wear,0.943311691
,many,0.942963719
,school,0.940185368
,laughing,0.936441064
,togetherness,0.935519099
,education,0.934088588
,adolescent,0.932211518
https://scontent.cdninstagram.com/t51.2885-15/e35/12383239_1533269076976203_729384797_n.jpg,child,0.970998406
,woman,0.969116807
,people,0.966904402
,group,0.964378953
,education,0.927625537
,indoors,0.918006301
,adult,0.913897455
,portrait,0.913675129
,enjoyment,0.904564023
,facial expression,0.89351809
,happiness,0.882049918
,family,0.870546103
,girl,0.837399662
,school,0.818099856
,adolescent,0.816764355
,togetherness,0.809215903
,man,0.808422565
,sit,0.806629539
,three,0.787249804
,fun,0.784381151
https://scontent.cdninstagram.com/t51.2885-15/e35/12930835_1548387362122192_1784893225_n.jpg,facial expression,0.997924328
,togetherness,0.990654826
,happiness,0.989723802
,woman,0.988818765
,portrait,0.984437466
,people,0.984089553
,group,0.971699595
,two,0.970861435
,interaction,0.970713913
,friendship,0.966924906
,adult,0.966070294
,daylight,0.962941647
,wear,0.958882868
,laughing,0.95616895
,girl,0.954906881
,three,0.954791188
,child,0.946379781
,affection,0.940324187
,enjoyment,0.937760115
,offspring,0.935813606
https://scontent.cdninstagram.com/t51.2885-15/sh0.08/e35/p750x750/12501661_1594313634193089_1111508015_n.jpg,people,0.995422244
,woman,0.992842674
,friendship,0.9870013
,child,0.983362436
,portrait,0.977190018
,adult,0.975839913
,fashion,0.968007207
,girl,0.960068583
,group,0.953400016
,togetherness,0.952785611
,variation,0.941965222
,fun,0.930863321
,happiness,0.914917946
,horizontal,0.914009571
,celebration,0.908377171
,outdoors,0.906884432
,cheerful,0.903727651
,family,0.89334929
,many,0.88790834
,shopping,0.875042081
https://scontent.cdninstagram.com/t51.2885-15/sh0.08/e35/p750x750/12501661_1594313634193089_1111508015_n.jpg,people,0.995422244
,woman,0.992842674
,friendship,0.9870013
,child,0.983362436
,portrait,0.977190018
,adult,0.975839913
,fashion,0.968007207
,girl,0.960068583
,group,0.953400016
,togetherness,0.952785611
,variation,0.941965222
,fun,0.930863321
,happiness,0.914917946
,horizontal,0.914009571
,celebration,0.908377171
,outdoors,0.906884432
,cheerful,0.903727651
,family,0.89334929
,many,0.88790834
,shopping,0.875042081
https://scontent.cdninstagram.com/t51.2885-15/s750x750/sh0.08/e35/929424_856339534512964_1754176426_n.jpg,woman,0.994877338
,group,0.994824171
,friendship,0.988543272
,man,0.986453116
,togetherness,0.984690905
,child,0.982029676
,group,0.975248218
,indoors,0.966329813
,people,0.958900571
,family,0.953921437
,four,0.950425386
,table,0.943833947
,sit,0.929803252
,adult,0.929503858
,girl,0.926287413
,boy,0.90917623
,collage,0.908303678
,laughing,0.906599224
,happiness,0.902850628
,enjoyment,0.899852574
https://scontent.cdninstagram.com/t51.2885-15/e35/13261080_1716894855252667_187164342_n.jpg,group,0.995493054
,group,0.993319631
,people,0.981590331
,portrait,0.978687048
,woman,0.972533345
,many,0.962687612
,adult,0.946061015
,music,0.945986867
,squad,0.943111777
,recreation,0.939997196
,man,0.935917616
,friendship,0.929620266
,school,0.927644491
,singer,0.91862464
,performance,0.916240692
,band,0.912981927
,child,0.902640343
,wear,0.895449758
,education,0.884233475
,girl,0.881257236
https://scontent.cdninstagram.com/t51.2885-15/s750x750/sh0.08/e35/929424_856339534512964_1754176426_n.jpg,woman,0.994877338
,group,0.994824171
,friendship,0.988543272
,man,0.986453116
,togetherness,0.984690905
,child,0.982029676
,group,0.975248218
,indoors,0.966329813
,people,0.958900571
,family,0.953921437
,four,0.950425386
,table,0.943833947
,sit,0.929803252
,adult,0.929503858
,girl,0.926287413
,boy,0.90917623
,collage,0.908303678
,laughing,0.906599224
,happiness,0.902850628
,enjoyment,0.899852574
https://scontent.cdninstagram.com/t51.2885-15/e15/12749888_255222191477286_1407990360_n.jpg,people,0.987262964
,adult,0.980997384
,one,0.975563705
,woman,0.968589783
,technology,0.96858573
,portrait,0.951958179
,indoors,0.936026335
,computer,0.928615808
,music,0.9139117
,wear,0.897004724
,facial expression,0.893745899
,business,0.862704158
,girl,0.840764046
,telephone,0.832395434
,connection,0.808195472
,room,0.799793184
,eyewear,0.790432811
,leisure,0.786127925
,sitting,0.785060883
,recreation,0.780110836
https://scontent.cdninstagram.com/t51.2885-15/e15/12751090_606190929534003_1201514071_n.jpg,portrait,0.99426049
,people,0.992316246
,one,0.985175312
,face,0.980655074
,monochrome,0.980610251
,adult,0.979151011
,woman,0.969461977
,girl,0.966580629
,person,0.94336772
,beautiful,0.938402772
,black and white,0.931544006
,art,0.925987124
,head,0.899007559
,model,0.894578457
,young,0.886871397
,human,0.886069059
,fashion,0.884119928
,desktop,0.878955543
,eye,0.852675259
,dark,0.847691536
https://scontent.cdninstagram.com/t51.2885-15/e35/12825897_1508241792818058_1195728114_n.jpg,woman,0.995185614
,people,0.980660915
,horizontal,0.97781837
,friendship,0.954500914
,adult,0.949448407
,young,0.948064685
,portrait,0.945216298
,happiness,0.940707743
,togetherness,0.940331697
,joy,0.921378255
,cheerful,0.918257713
,headshot,0.90207845
,adolescent,0.898127317
,girl,0.892489851
,pretty,0.885663986
,fashion,0.871046245
,beautiful,0.868410826
,indoors,0.861987352
,laughing,0.853506207
,love,0.851176381
https://scontent.cdninstagram.com/t51.2885-15/s480x480/e35/12819138_172156129831783_374081411_n.jpg,text,0.996220767
,typography,0.981474996
,baptismal font,0.960392237
,communication,0.958791018
,sign,0.956984878
,vintage,0.954645514
,symbol,0.951792121
,give voice,0.94822824
,retro,0.946128309
,business,0.942822218
,letter,0.942305386
,type,0.94073987
,alphabet,0.937780917
,texture,0.927771449
,desktop,0.924053967
,rudiment,0.903576672
,illustration,0.896367967
,message,0.893210351
,writing,0.865653872
,warning,0.856793404
https://scontent.cdninstagram.com/t51.2885-15/e35/12724832_1538985576401418_1828285738_n.jpg,group,0.998499155
,friendship,0.990446389
,people,0.989925444
,group,0.988902569
,facial expression,0.987188399
,woman,0.976425231
,child,0.975793779
,four,0.975745559
,adult,0.968055964
,five,0.967921853
,exhilaration,0.96279341
,portrait,0.956761539
,happiness,0.948117018
,wear,0.943311691
,many,0.942963719
,school,0.940185368
,laughing,0.936441064
,togetherness,0.935519099
,education,0.934088588
,adolescent,0.932211518
https://scontent.cdninstagram.com/t51.2885-15/e15/12716934_1020801657994620_512512197_n.jpg,portrait,0.980738521
,people,0.975340128
,woman,0.971822679
,adult,0.947419763
,fashion,0.943358541
,young,0.931803226
,cute,0.927393436
,girl,0.90283376
,child,0.894556165
,happiness,0.888785243
,love,0.87917161
,desktop,0.875516057
,face,0.872011244
,looking,0.864083827
,fun,0.862212121
,pretty,0.85907352
,person,0.858158588
,joy,0.854187369
,beautiful,0.846596718
,indoors,0.844172299
https://scontent.cdninstagram.com/t51.2885-15/e35/12599422_474637705994266_1995889750_n.jpg,people,0.966174603
,woman,0.958024919
,portrait,0.956155956
,adult,0.955586433
,festival,0.954458356
,city,0.944532037
,evening,0.92990756
,light,0.925717831
,music,0.905559778
,girl,0.896535218
,party,0.880745053
,business,0.877771139
,street,0.869312048
,urban,0.865983188
,performance,0.861235797
,group,0.847395301
,travel,0.839571238
,nightlife,0.835443258
,wear,0.816673756
,skyscraper,0.815438151
https://scontent.cdninstagram.com/t51.2885-15/e35/1168699_442052296005185_467132103_n.jpg,people,0.977263331
,woman,0.9755162
,group,0.952204466
,child,0.949948668
,portrait,0.947193623
,adult,0.94682014
,fun,0.932814181
,togetherness,0.92967248
,man,0.928275466
,family,0.926171064
,happiness,0.918200493
,girl,0.911437273
,facial expression,0.908878088
,friendship,0.898501039
,laughing,0.897900581
,indoors,0.878332019
,four,0.864261031
,young,0.86109221
,wear,0.859953761
,lifestyle,0.85879755
https://scontent.cdninstagram.com/t51.2885-15/e15/12751090_606190929534003_1201514071_n.jpg,portrait,0.99426049
,people,0.992316246
,one,0.985175312
,face,0.980655074
,monochrome,0.980610251
,adult,0.979151011
,woman,0.969461977
,girl,0.966580629
,person,0.94336772
,beautiful,0.938402772
,black and white,0.931544006
,art,0.925987124
,head,0.899007559
,model,0.894578457
,young,0.886871397
,human,0.886069059
,fashion,0.884119928
,desktop,0.878955543
,eye,0.852675259
,dark,0.847691536
https://scontent.cdninstagram.com/t51.2885-15/e35/12783377_1737693669780364_1909555212_n.jpg,togetherness,0.987120509
,horizontal,0.985522985
,friendship,0.985218883
,people,0.982043266
,woman,0.981055737
,portrait,0.976936996
,happiness,0.973916531
,adult,0.969996274
,child,0.954523742
,indoors,0.951465011
,headshot,0.947554946
,adolescent,0.94502753
,laughing,0.943821788
,cheerful,0.939294934
,man,0.935969234
,fun,0.921450019
,bonding,0.916974306
,love,0.911728799
,joy,0.906797409
,enjoyment,0.888722062
https://scontent.cdninstagram.com/t51.2885-15/e15/12716934_1020801657994620_512512197_n.jpg,portrait,0.980738521
,people,0.975340128
,woman,0.971822679
,adult,0.947419763
,fashion,0.943358541
,young,0.931803226
,cute,0.927393436
,girl,0.90283376
,child,0.894556165
,happiness,0.888785243
,love,0.87917161
,desktop,0.875516057
,face,0.872011244
,looking,0.864083827
,fun,0.862212121
,pretty,0.85907352
,person,0.858158588
,joy,0.854187369
,beautiful,0.846596718
,indoors,0.844172299
https://scontent.cdninstagram.com/t51.2885-15/e35/12825897_1508241792818058_1195728114_n.jpg,woman,0.995185614
,people,0.980660915
,horizontal,0.97781837
,friendship,0.954500914
,adult,0.949448407
,young,0.948064685
,portrait,0.945216298
,happiness,0.940707743
,togetherness,0.940331697
,joy,0.921378255
,cheerful,0.918257713
,headshot,0.90207845
,adolescent,0.898127317
,girl,0.892489851
,pretty,0.885663986
,fashion,0.871046245
,beautiful,0.868410826
,indoors,0.861987352
,laughing,0.853506207
,love,0.851176381
https://scontent.cdninstagram.com/t51.2885-15/e15/12716723_239834309692371_830800239_n.jpg,child,0.998552084
,little,0.974597514
,innocence,0.973099053
,cute,0.968679428
,outdoors,0.959487379
,baby,0.951094449
,fun,0.950666189
,people,0.928583682
,portrait,0.914515257
,summer,0.912379682
,joy,0.85976243
,happiness,0.852817178
,wear,0.848180652
,one,0.829942882
,facial expression,0.828300834
,family,0.825392544
,girl,0.822936177
,nature,0.81106174
,boy,0.805037379
,toddler,0.801085472
https://scontent.cdninstagram.com/t51.2885-15/e35/12328138_924633610988730_1744005851_n.jpg,woman,0.96290195
,people,0.95283854
,portrait,0.909881532
,group,0.888854027
,friendship,0.866809309
,music,0.858796239
,education,0.8315835
,child,0.82058692
,business,0.81630981
,editorial,0.80742383
,fashion,0.807032824
,movie,0.796362042
,togetherness,0.794748247
,actress,0.794682145
,festival,0.790348768
,fun,0.76971823
,family,0.758354783
,adolescent,0.753081799
,actor,0.749036312
,sign,0.746391892
https://scontent.cdninstagram.com/t51.2885-15/e15/13391270_1049044601854855_1450484526_n.jpg,woman,0.990172923
,fashion,0.94112885
,girl,0.939879656
,portrait,0.937689424
,young,0.933410764
,beautiful,0.904901505
,pretty,0.902458429
,people,0.894319892
,one,0.886069655
,desktop,0.87867254
,adult,0.878138423
,sexy,0.858777642
,glamour,0.855734169
,cute,0.844701052
,style,0.837614894
,model,0.833942175
,health,0.831735611
,bright,0.830302835
,retro,0.826645911
,hair,0.814380646
https://scontent.cdninstagram.com/t51.2885-15/e15/12716723_239834309692371_830800239_n.jpg,child,0.998552084
,little,0.974597514
,innocence,0.973099053
,cute,0.968679428
,outdoors,0.959487379
,baby,0.951094449
,fun,0.950666189
,people,0.928583682
,portrait,0.914515257
,summer,0.912379682
,joy,0.85976243
,happiness,0.852817178
,wear,0.848180652
,one,0.829942882
,facial expression,0.828300834
,family,0.825392544
,girl,0.822936177
,nature,0.81106174
,boy,0.805037379
,toddler,0.801085472
https://scontent.cdninstagram.com/t51.2885-15/e35/13109066_855712827908927_1243122953_n.jpg,woman,0.997440815
,indoors,0.991895974
,fashion,0.986640096
,pretty,0.974298179
,people,0.961448908
,girl,0.954982936
,family,0.952449203
,relaxation,0.949254215
,adolescent,0.944024563
,fun,0.934607923
,portrait,0.930934548
,glamour,0.923405111
,cute,0.923015714
,casual,0.921772718
,leisure,0.916333199
,enjoyment,0.913318038
,joy,0.904127717
,young,0.900282741
,sexy,0.900184453
,love,0.896118999
https://scontent.cdninstagram.com/t51.2885-15/e35/13394963_1071810226246494_2000759513_n.jpg,people,0.945766211
,airport,0.919737935
,competition,0.913390517
,wear,0.909266531
,adult,0.908915997
,woman,0.907313585
,business,0.89368999
,commerce,0.87409234
,music,0.85047996
,portrait,0.84369719
,telephone,0.83512938
,school,0.829315543
,city,0.82212925
,indoors,0.806272984
,travel,0.801566362
,exhibition,0.800506473
,education,0.799965024
,group,0.7905339
,performance,0.78964597
,interaction,0.782734871
https://scontent.cdninstagram.com/t51.2885-15/s750x750/sh0.08/e35/12751041_963147153722807_1964724684_n.jpg,administration,0.98813498
,no person,0.987451077
,paper,0.972837567
,business,0.967684507
,document,0.964499831
,law,0.960341513
,text,0.960085154
,money,0.926763773
,book,0.926550865
,government,0.92011857
,airport,0.910495162
,identity,0.90623641
,finance,0.899656653
,book,0.89940536
,finance,0.895675302
,success,0.892911077
,travel,0.875597179
,writing,0.871247709
,passport,0.852226853
,service,0.838903189
https://scontent.cdninstagram.com/t51.2885-15/s750x750/sh0.08/e35/13113797_1089150781150224_1253408465_n.jpg,meal,0.986496925
,cooking,0.980137646
,food,0.977312326
,lunch,0.973614931
,indoors,0.966583788
,people,0.961296737
,woman,0.958508372
,dinner,0.936497688
,restaurant,0.928186774
,enjoyment,0.893314838
,table,0.877389908
,hungry,0.875607491
,family,0.867766619
,meat,0.865430951
,salad,0.854302287
,dining,0.836441517
,chef,0.81769526
,plate,0.809543192
,sit,0.793175638
,adult,0.78348577
https://scontent.cdninstagram.com/t51.2885-15/e35/12328411_1691106221150157_466785362_n.jpg,group,0.996501505
,group,0.988453984
,adult,0.98490262
,man,0.983810544
,woman,0.978609324
,four,0.976286352
,people,0.969185531
,room,0.964726448
,child,0.949292541
,family,0.948313832
,education,0.947736621
,happiness,0.947151303
,togetherness,0.939439178
,facial expression,0.938803971
,furniture,0.93060708
,five,0.929769218
,three,0.927027524
,portrait,0.916565776
,indoors,0.91140151
,offspring,0.90687716
https://scontent.cdninstagram.com/t51.2885-15/e35/12534496_1512776835694532_1463286330_n.jpg,World Wide Web,0.991457462
,template,0.991150022
,page,0.989343822
,form,0.987772107
,navigation,0.98451829
,site,0.977968276
,layout,0.969822288
,stripe,0.964182734
,label,0.957674861
,user,0.954168379
,login,0.953734815
,interface,0.952330589
,menu,0.951418698
,banner,0.929783463
,number,0.915836811
,name,0.89762044
,identity,0.888090968
,set,0.888034821
,arrow,0.887791932
,presentation,0.88560617
https://scontent.cdninstagram.com/t51.2885-15/s750x750/sh0.08/e35/12751041_963147153722807_1964724684_n.jpg,administration,0.98813498
,no person,0.987451077
,paper,0.972837567
,business,0.967684507
,document,0.964499831
,law,0.960341513
,text,0.960085154
,money,0.926763773
,book,0.926550865
,government,0.92011857
,airport,0.910495162
,identity,0.90623641
,finance,0.899656653
,book,0.89940536
,finance,0.895675302
,success,0.892911077
,travel,0.875597179
,writing,0.871247709
,passport,0.852226853
,service,0.838903189
https://scontent.cdninstagram.com/t51.2885-15/s640x640/sh0.08/e35/12543224_1035783293146813_736641566_n.jpg,movie,0.988449812
,ceremony,0.975356936
,festival,0.961323977
,circus,0.957758427
,stage,0.956514955
,theater,0.954494238
,performance,0.953150153
,curtain,0.951809645
,people,0.949780583
,woman,0.945988476
,wear,0.936394811
,theater,0.925134778
,recreation,0.922392607
,red carpet,0.915002525
,award,0.913281798
,fashion,0.911955237
,entertainment,0.90873754
,actress,0.893325925
,hotel,0.881474018
,event,0.867511868
https://scontent.cdninstagram.com/t51.2885-15/e35/12534101_1071182596267202_1749096353_n.jpg,people,0.982551396
,group,0.961076021
,child,0.952071667
,festival,0.946782708
,portrait,0.90312022
,family,0.892728806
,rally,0.881971478
,education,0.870983124
,woman,0.865713298
,man,0.865670443
,rally,0.861620665
,street,0.847088575
,adult,0.839294374
,fun,0.822255075
,battle,0.821654677
,many,0.806091785
,interaction,0.791923523
,offense,0.789682031
,outdoors,0.786259532
,election,0.784477174
https://scontent.cdninstagram.com/t51.2885-15/e15/11350667_597173897103655_1832100661_n.jpg,togetherness,0.995633125
,facial expression,0.990563273
,laughing,0.985557199
,happiness,0.984736323
,woman,0.978654742
,love,0.975750387
,friendship,0.972288013
,affection,0.968846679
,enjoyment,0.967990279
,two,0.963513136
,fun,0.96335876
,people,0.961476088
,joy,0.961092114
,man,0.955584288
,embrace,0.950970352
,child,0.942878604
,portrait,0.941948891
,family,0.938592076
,wear,0.930158734
,interaction,0.927399158
https://scontent.cdninstagram.com/t51.2885-15/s750x750/sh0.08/e35/13113797_1089150781150224_1253408465_n.jpg,meal,0.986496925
,cooking,0.980137646
,food,0.977312326
,lunch,0.973614931
,indoors,0.966583788
,people,0.961296737
,woman,0.958508372
,dinner,0.936497688
,restaurant,0.928186774
,enjoyment,0.893314838
,table,0.877389908
,hungry,0.875607491
,family,0.867766619
,meat,0.865430951
,salad,0.854302287
,dining,0.836441517
,chef,0.81769526
,plate,0.809543192
,sit,0.793175638
,adult,0.78348577
https://scontent.cdninstagram.com/l/t51.2885-15/e15/10838854_1049359501752007_717823515_n.jpg,woman,0.985389888
,fun,0.972799897
,people,0.960632026
,joy,0.957909107
,young,0.932514429
,isolated,0.914296448
,beautiful,0.908777475
,pretty,0.907966614
,happiness,0.905092716
,girl,0.903170466
,friendship,0.898662388
,celebration,0.89357996
,cute,0.875092387
,surprise,0.867496014
,togetherness,0.853975892
,desktop,0.849560261
,person,0.842847466
,Christmas,0.831463516
,smile,0.829768538
,portrait,0.82939446
https://scontent.cdninstagram.com/t51.2885-15/e35/12917863_483914485127255_70945948_n.jpg,woman,0.985155582
,people,0.970466852
,facial expression,0.968401313
,togetherness,0.96627599
,enjoyment,0.958944082
,man,0.956642807
,portrait,0.955815494
,child,0.950273037
,indoors,0.944825649
,wear,0.926255107
,adolescent,0.909023166
,fun,0.901284695
,affection,0.897767425
,two,0.895451784
,love,0.893148541
,family,0.890414655
,adult,0.887946844
,interaction,0.879530311
,happiness,0.877449691
,laughing,0.866949797
https://scontent.cdninstagram.com/t51.2885-15/e35/12328411_1691106221150157_466785362_n.jpg,group,0.996501505
,group,0.988453984
,adult,0.98490262
,man,0.983810544
,woman,0.978609324
,four,0.976286352
,people,0.969185531
,room,0.964726448
,child,0.949292541
,family,0.948313832
,education,0.947736621
,happiness,0.947151303
,togetherness,0.939439178
,facial expression,0.938803971
,furniture,0.93060708
,five,0.929769218
,three,0.927027524
,portrait,0.916565776
,indoors,0.91140151
,offspring,0.90687716
https://scontent.cdninstagram.com/t51.2885-15/e15/12599104_514204368762306_282511633_n.jpg,people,0.990714669
,portrait,0.986436605
,man,0.977023184
,couple,0.973253906
,girl,0.972073913
,love,0.969553947
,monochrome,0.966426849
,two,0.96090734
,woman,0.958851993
,adult,0.94911617
,child,0.944294393
,facial expression,0.9229002
,family,0.90483129
,boy,0.869658768
,fun,0.855075717
,togetherness,0.834195375
,happiness,0.829113007
,group,0.815344334
,smile,0.815330744
,light,0.814054847
https://scontent.cdninstagram.com/t51.2885-15/e35/12534496_1512776835694532_1463286330_n.jpg,World Wide Web,0.991457462
,template,0.991150022
,page,0.989343822
,form,0.987772107
,navigation,0.98451829
,site,0.977968276
,layout,0.969822288
,stripe,0.964182734
,label,0.957674861
,user,0.954168379
,login,0.953734815
,interface,0.952330589
,menu,0.951418698
,banner,0.929783463
,number,0.915836811
,name,0.89762044
,identity,0.888090968
,set,0.888034821
,arrow,0.887791932
,presentation,0.88560617
https://scontent.cdninstagram.com/t51.2885-15/e35/10598250_185815785119088_686150542_n.jpg,woman,0.985373795
,child,0.978241146
,togetherness,0.974239826
,friendship,0.972930908
,adolescent,0.972465217
,fun,0.972140908
,portrait,0.969230831
,laughing,0.967139244
,people,0.958026767
,joy,0.95759517
,love,0.934497774
,family,0.927587509
,facial expression,0.927567244
,indoors,0.90712744
,man,0.90207541
,enjoyment,0.893269122
,happiness,0.88749367
,girl,0.883033514
,three,0.881978273
,group,0.881245315
https://scontent.cdninstagram.com/t51.2885-15/e35/12501711_492097690961663_577535185_n.jpg,woman,0.964697957
,people,0.948645949
,horizontal,0.912798166
,family,0.910585999
,outdoors,0.909594774
,fun,0.897925496
,togetherness,0.893669724
,enjoyment,0.848732948
,friendship,0.841582119
,child,0.835499227
,stock,0.826811075
,shopping,0.822039783
,happiness,0.818871021
,adult,0.810758531
,joy,0.786622524
,adolescent,0.784823298
,cheerful,0.784456849
,indoors,0.771050811
,pride,0.768352807
,man,0.762935162
https://scontent.cdninstagram.com/t51.2885-15/e35/12445978_1018583148202816_1098315502_n.jpg,woman,0.965893626
,people,0.94668299
,togetherness,0.938849449
,outdoors,0.934727848
,child,0.930967689
,adolescent,0.903140366
,portrait,0.893481255
,horizontal,0.884825349
,education,0.86504972
,adult,0.835394382
,fun,0.832542717
,friendship,0.830954075
,family,0.803901553
,love,0.801665425
,multicultural,0.787338972
,enjoyment,0.786727607
,indoors,0.72926122
,cute,0.725864053
,young,0.72345233
,joy,0.718711734
https://scontent.cdninstagram.com/t51.2885-15/e35/1168699_442052296005185_467132103_n.jpg,people,0.977263331
,woman,0.9755162
,group,0.952204466
,child,0.949948668
,portrait,0.947193623
,adult,0.94682014
,fun,0.932814181
,togetherness,0.92967248
,man,0.928275466
,family,0.926171064
,happiness,0.918200493
,girl,0.911437273
,facial expression,0.908878088
,friendship,0.898501039
,laughing,0.897900581
,indoors,0.878332019
,four,0.864261031
,young,0.86109221
,wear,0.859953761
,lifestyle,0.85879755
https://scontent.cdninstagram.com/t51.2885-15/e35/12519491_1665428460362355_338813999_n.jpg,facial expression,0.992568254
,people,0.989369869
,portrait,0.979879618
,two,0.979710519
,adult,0.976715922
,woman,0.97475785
,happiness,0.96615535
,wear,0.960014462
,togetherness,0.946383238
,interaction,0.942436695
,daylight,0.942043364
,outdoors,0.937290549
,man,0.923092842
,enjoyment,0.914072156
,family,0.89851588
,affection,0.879879713
,leisure,0.858059049
,friendship,0.857854247
,love,0.856795788
,group,0.853479385
https://scontent.cdninstagram.com/t51.2885-15/e15/12543285_982053341861503_300031343_n.jpg,water,0.99284029
,landscape,0.981890142
,no person,0.978290796
,sea,0.977556109
,travel,0.964722157
,sky,0.96448195
,nature,0.96232748
,beach,0.955244839
,outdoors,0.954697073
,ocean,0.951609612
,seashore,0.939359307
,daylight,0.93029201
,seascape,0.924721479
,lake,0.923266113
,scenic,0.885513783
,fair weather,0.869241357
,island,0.867465138
,summer,0.863054037
,mountain,0.855613589
,surf,0.832606316
https://scontent.cdninstagram.com/t51.2885-15/s750x750/sh0.08/e35/12531111_224325514580380_806498620_n.jpg,group,0.997626066
,group,0.989831924
,four,0.981615603
,facial expression,0.979937553
,portrait,0.979149461
,child,0.978272915
,woman,0.977786064
,people,0.973632693
,adult,0.97173363
,five,0.966050923
,togetherness,0.965958118
,happiness,0.964801252
,friendship,0.954839587
,man,0.942650318
,boy,0.934121132
,girl,0.928987622
,offspring,0.92367363
,many,0.923657537
,three,0.910388887
,education,0.901175499
https://scontent.cdninstagram.com/t51.2885-15/e35/12445978_1018583148202816_1098315502_n.jpg,woman,0.965893626
,people,0.94668299
,togetherness,0.938849449
,outdoors,0.934727848
,child,0.930967689
,adolescent,0.903140366
,portrait,0.893481255
,horizontal,0.884825349
,education,0.86504972
,adult,0.835394382
,fun,0.832542717
,friendship,0.830954075
,family,0.803901553
,love,0.801665425
,multicultural,0.787338972
,enjoyment,0.786727607
,indoors,0.72926122
,cute,0.725864053
,young,0.72345233
,joy,0.718711734
https://scontent.cdninstagram.com/t51.2885-15/e35/12328138_924633610988730_1744005851_n.jpg,woman,0.96290195
,people,0.95283854
,portrait,0.909881532
,group,0.888854027
,friendship,0.866809309
,music,0.858796239
,education,0.8315835
,child,0.82058692
,business,0.81630981
,editorial,0.80742383
,fashion,0.807032824
,movie,0.796362042
,togetherness,0.794748247
,actress,0.794682145
,festival,0.790348768
,fun,0.76971823
,family,0.758354783
,adolescent,0.753081799
,actor,0.749036312
,sign,0.746391892
https://scontent.cdninstagram.com/t51.2885-15/e35/12383239_1533269076976203_729384797_n.jpg,child,0.970998406
,woman,0.969116807
,people,0.966904402
,group,0.964378953
,education,0.927625537
,indoors,0.918006301
,adult,0.913897455
,portrait,0.913675129
,enjoyment,0.904564023
,facial expression,0.89351809
,happiness,0.882049918
,family,0.870546103
,girl,0.837399662
,school,0.818099856
,adolescent,0.816764355
,togetherness,0.809215903
,man,0.808422565
,sit,0.806629539
,three,0.787249804
,fun,0.784381151
https://scontent.cdninstagram.com/t51.2885-15/e35/1389778_1099191256778171_764730228_n.jpg,woman,0.984753966
,portrait,0.983616471
,friendship,0.967988253
,facial expression,0.963108778
,people,0.961473167
,togetherness,0.955473542
,laughing,0.951779485
,adolescent,0.950811446
,girl,0.941347063
,group,0.939744592
,child,0.916245222
,happiness,0.906202912
,multicultural,0.893260717
,fun,0.892861247
,three,0.891130328
,four,0.859252572
,group,0.853196383
,student,0.852068901
,adult,0.840618551
,music,0.836353362
https://scontent.cdninstagram.com/t51.2885-15/e35/12534101_1071182596267202_1749096353_n.jpg,people,0.982551396
,group,0.961076021
,child,0.952071667
,festival,0.946782708
,portrait,0.90312022
,family,0.892728806
,rally,0.881971478
,education,0.870983124
,woman,0.865713298
,man,0.865670443
,rally,0.861620665
,street,0.847088575
,adult,0.839294374
,fun,0.822255075
,battle,0.821654677
,many,0.806091785
,interaction,0.791923523
,offense,0.789682031
,outdoors,0.786259532
,election,0.784477174
https://scontent.cdninstagram.com/t51.2885-15/e35/12783377_1737693669780364_1909555212_n.jpg,togetherness,0.987120509
,horizontal,0.985522985
,friendship,0.985218883
,people,0.982043266
,woman,0.981055737
,portrait,0.976936996
,happiness,0.973916531
,adult,0.969996274
,child,0.954523742
,indoors,0.951465011
,headshot,0.947554946
,adolescent,0.94502753
,laughing,0.943821788
,cheerful,0.939294934
,man,0.935969234
,fun,0.921450019
,bonding,0.916974306
,love,0.911728799
,joy,0.906797409
,enjoyment,0.888722062
https://scontent.cdninstagram.com/t51.2885-15/e35/10990573_1025104754199666_379366493_n.jpg,woman,0.990662873
,outdoors,0.967045069
,people,0.958514512
,portrait,0.951931596
,daylight,0.940608978
,leisure,0.931049287
,facial expression,0.921892643
,enjoyment,0.915597439
,girl,0.912062168
,pretty,0.903200984
,happiness,0.900527358
,adolescent,0.900019109
,togetherness,0.88920778
,summer,0.882128596
,relaxation,0.876019657
,fun,0.868067086
,adult,0.846128941
,laughing,0.8418051
,brunette,0.82830584
,young,0.823195219
https://scontent.cdninstagram.com/t51.2885-15/e35/10990573_1025104754199666_379366493_n.jpg,woman,0.990662873
,outdoors,0.967045069
,people,0.958514512
,portrait,0.951931596
,daylight,0.940608978
,leisure,0.931049287
,facial expression,0.921892643
,enjoyment,0.915597439
,girl,0.912062168
,pretty,0.903200984
,happiness,0.900527358
,adolescent,0.900019109
,togetherness,0.88920778
,summer,0.882128596
,relaxation,0.876019657
,fun,0.868067086
,adult,0.846128941
,laughing,0.8418051
,brunette,0.82830584
,young,0.823195219
https://scontent.cdninstagram.com/t51.2885-15/e15/12543285_982053341861503_300031343_n.jpg,water,0.99284029
,landscape,0.981890142
,no person,0.978290796
,sea,0.977556109
,travel,0.964722157
,sky,0.96448195
,nature,0.96232748
,beach,0.955244839
,outdoors,0.954697073
,ocean,0.951609612
,seashore,0.939359307
,daylight,0.93029201
,seascape,0.924721479
,lake,0.923266113
,scenic,0.885513783
,fair weather,0.869241357
,island,0.867465138
,summer,0.863054037
,mountain,0.855613589
,surf,0.832606316
https://scontent.cdninstagram.com/t51.2885-15/e15/11350667_597173897103655_1832100661_n.jpg,togetherness,0.995633125
,facial expression,0.990563273
,laughing,0.985557199
,happiness,0.984736323
,woman,0.978654742
,love,0.975750387
,friendship,0.972288013
,affection,0.968846679
,enjoyment,0.967990279
,two,0.963513136
,fun,0.96335876
,people,0.961476088
,joy,0.961092114
,man,0.955584288
,embrace,0.950970352
,child,0.942878604
,portrait,0.941948891
,family,0.938592076
,wear,0.930158734
,interaction,0.927399158
https://scontent.cdninstagram.com/t51.2885-15/e35/12917863_483914485127255_70945948_n.jpg,woman,0.985155582
,people,0.970466852
,facial expression,0.968401313
,togetherness,0.96627599
,enjoyment,0.958944082
,man,0.956642807
,portrait,0.955815494
,child,0.950273037
,indoors,0.944825649
,wear,0.926255107
,adolescent,0.909023166
,fun,0.901284695
,affection,0.897767425
,two,0.895451784
,love,0.893148541
,family,0.890414655
,adult,0.887946844
,interaction,0.879530311
,happiness,0.877449691
,laughing,0.866949797
https://scontent.cdninstagram.com/t51.2885-15/s750x750/sh0.08/e35/12531111_224325514580380_806498620_n.jpg,group,0.997626066
,group,0.989831924
,four,0.981615603
,facial expression,0.979937553
,portrait,0.979149461
,child,0.978272915
,woman,0.977786064
,people,0.973632693
,adult,0.97173363
,five,0.966050923
,togetherness,0.965958118
,happiness,0.964801252
,friendship,0.954839587
,man,0.942650318
,boy,0.934121132
,girl,0.928987622
,offspring,0.92367363
,many,0.923657537
,three,0.910388887
,education,0.901175499
https://scontent.cdninstagram.com/t51.2885-15/e35/12599112_1670556876550734_1634980094_n.jpg,togetherness,0.988651991
,woman,0.986628652
,friendship,0.985102892
,group,0.983426332
,laughing,0.980607271
,man,0.978784442
,happiness,0.978414297
,two,0.97822535
,joy,0.976171613
,people,0.973814189
,three,0.96385932
,portrait,0.963360488
,cheerful,0.958834887
,embrace,0.956843495
,student,0.954155743
,fun,0.950735331
,group,0.934957623
,smile,0.934035182
,young,0.923646688
,love,0.917731404
https://scontent.cdninstagram.com/t51.2885-15/e15/10576093_1553434968316791_1448758739_n.jpg,adult,0.996864915
,people,0.996435761
,woman,0.993317723
,facial expression,0.990379751
,indoors,0.988064528
,portrait,0.987630129
,room,0.983531594
,daylight,0.9763363
,wear,0.967244864
,election,0.960635662
,two,0.95727241
,happiness,0.954493105
,side view,0.948634505
,furniture,0.945449471
,one,0.944300413
,girl,0.935184717
,home,0.926979065
,education,0.922480226
,mirror,0.921058476
,school,0.919758797
https://scontent.cdninstagram.com/t51.2885-15/e15/12599104_514204368762306_282511633_n.jpg,people,0.990714669
,portrait,0.986436605
,man,0.977023184
,couple,0.973253906
,girl,0.972073913
,love,0.969553947
,monochrome,0.966426849
,two,0.96090734
,woman,0.958851993
,adult,0.94911617
,child,0.944294393
,facial expression,0.9229002
,family,0.90483129
,boy,0.869658768
,fun,0.855075717
,togetherness,0.834195375
,happiness,0.829113007
,group,0.815344334
,smile,0.815330744
,light,0.814054847
https://scontent.cdninstagram.com/t51.2885-15/e35/1389778_1099191256778171_764730228_n.jpg,woman,0.984753966
,portrait,0.983616471
,friendship,0.967988253
,facial expression,0.963108778
,people,0.961473167
,togetherness,0.955473542
,laughing,0.951779485
,adolescent,0.950811446
,girl,0.941347063
,group,0.939744592
,child,0.916245222
,happiness,0.906202912
,multicultural,0.893260717
,fun,0.892861247
,three,0.891130328
,four,0.859252572
,group,0.853196383
,student,0.852068901
,adult,0.840618551
,music,0.836353362
https://scontent.cdninstagram.com/t51.2885-15/e35/12627908_928700067179546_1518864904_n.jpg,lake,0.990282893
,landscape,0.988496721
,water,0.98469305
,reflection,0.973154068
,river,0.969559193
,people,0.962800026
,sky,0.957764149
,girl,0.950760841
,travel,0.950618267
,nature,0.945332289
,outdoors,0.943939209
,adult,0.937320948
,sunset,0.930550337
,tree,0.923367262
,woman,0.917697966
,fall,0.910283089
,mountain,0.903015733
,one,0.887160778
,dawn,0.87734592
,recreation,0.868955314
https://scontent.cdninstagram.com/t51.2885-15/e35/12519130_181186745574481_149632267_n.jpg,portrait,0.982112169
,facial expression,0.979015112
,people,0.976577878
,happiness,0.970730484
,woman,0.966146052
,laughing,0.948671937
,togetherness,0.94353056
,group,0.933552504
,friendship,0.931410253
,adult,0.918104529
,enjoyment,0.914066195
,interaction,0.911022902
,two,0.907856286
,outdoors,0.898586869
,daylight,0.893292904
,joy,0.889597595
,man,0.886693001
,fun,0.88511312
,wear,0.870231628
,three,0.868743122
https://scontent.cdninstagram.com/t51.2885-15/e35/11137859_548008788696348_1435149550_n.jpg,people,0.977950573
,one,0.97292459
,adult,0.971437454
,portrait,0.968893409
,woman,0.965247393
,light,0.915843368
,room,0.906852186
,indoors,0.906340241
,wear,0.881736398
,music,0.845448554
,girl,0.829535365
,festival,0.827416241
,business,0.81540215
,family,0.78115046
,recreation,0.770617902
,technology,0.764768422
,furniture,0.763614774
,candle,0.762085438
,man,0.757332027
,musician,0.749587536
https://scontent.cdninstagram.com/t51.2885-15/e15/10576093_1553434968316791_1448758739_n.jpg,adult,0.996864915
,people,0.996435761
,woman,0.993317723
,facial expression,0.990379751
,indoors,0.988064528
,portrait,0.987630129
,room,0.983531594
,daylight,0.9763363
,wear,0.967244864
,election,0.960635662
,two,0.95727241
,happiness,0.954493105
,side view,0.948634505
,furniture,0.945449471
,one,0.944300413
,girl,0.935184717
,home,0.926979065
,education,0.922480226
,mirror,0.921058476
,school,0.919758797
https://scontent.cdninstagram.com/t51.2885-15/e35/12519130_181186745574481_149632267_n.jpg,portrait,0.982112169
,facial expression,0.979015112
,people,0.976577878
,happiness,0.970730484
,woman,0.966146052
,laughing,0.948671937
,togetherness,0.94353056
,group,0.933552504
,friendship,0.931410253
,adult,0.918104529
,enjoyment,0.914066195
,interaction,0.911022902
,two,0.907856286
,outdoors,0.898586869
,daylight,0.893292904
,joy,0.889597595
,man,0.886693001
,fun,0.88511312
,wear,0.870231628
,three,0.868743122
https://scontent.cdninstagram.com/t51.2885-15/e35/12628126_565391076947655_317604013_n.jpg,woman,0.986836135
,girl,0.986772299
,portrait,0.984040797
,people,0.981517375
,flower,0.980192125
,one,0.962946415
,summer,0.958135009
,adult,0.949629128
,garden,0.933495164
,outdoors,0.923666477
,leisure,0.914312959
,happiness,0.89495194
,model,0.882092834
,smile,0.87655735
,recreation,0.870490551
,lifestyle,0.869798899
,fashion,0.867563009
,street,0.864527583
,beautiful,0.855248511
,bench,0.849118114
https://scontent.cdninstagram.com/t51.2885-15/e35/12627908_928700067179546_1518864904_n.jpg,lake,0.990282893
,landscape,0.988496721
,water,0.98469305
,reflection,0.973154068
,river,0.969559193
,people,0.962800026
,sky,0.957764149
,girl,0.950760841
,travel,0.950618267
,nature,0.945332289
,outdoors,0.943939209
,adult,0.937320948
,sunset,0.930550337
,tree,0.923367262
,woman,0.917697966
,fall,0.910283089
,mountain,0.903015733
,one,0.887160778
,dawn,0.87734592
,recreation,0.868955314
https://scontent.cdninstagram.com/t51.2885-15/e35/12628126_565391076947655_317604013_n.jpg,woman,0.986836135
,girl,0.986772299
,portrait,0.984040797
,people,0.981517375
,flower,0.980192125
,one,0.962946415
,summer,0.958135009
,adult,0.949629128
,garden,0.933495164
,outdoors,0.923666477
,leisure,0.914312959
,happiness,0.89495194
,model,0.882092834
,smile,0.87655735
,recreation,0.870490551
,lifestyle,0.869798899
,fashion,0.867563009
,street,0.864527583
,beautiful,0.855248511
,bench,0.849118114
https://scontent.cdninstagram.com/t51.2885-15/e35/10598250_185815785119088_686150542_n.jpg,woman,0.985373795
,child,0.978241146
,togetherness,0.974239826
,friendship,0.972930908
,adolescent,0.972465217
,fun,0.972140908
,portrait,0.969230831
,laughing,0.967139244
,people,0.958026767
,joy,0.95759517
,love,0.934497774
,family,0.927587509
,facial expression,0.927567244
,indoors,0.90712744
,man,0.90207541
,enjoyment,0.893269122
,happiness,0.88749367
,girl,0.883033514
,three,0.881978273
,group,0.881245315
https://scontent.cdninstagram.com/t51.2885-15/e35/12558507_961362817287397_761455307_n.jpg,facial expression,0.990193009
,togetherness,0.980910063
,woman,0.980787635
,people,0.980059862
,man,0.964090228
,two,0.956748605
,indoors,0.955009818
,happiness,0.946214437
,enjoyment,0.94172436
,child,0.941395044
,adult,0.932413578
,portrait,0.923234344
,wear,0.92172718
,love,0.919873714
,affection,0.915110469
,interaction,0.912693501
,fun,0.906895757
,family,0.900066495
,friendship,0.89539814
,group,0.893152714
https://scontent.cdninstagram.com/l/t51.2885-15/e15/10838854_1049359501752007_717823515_n.jpg,woman,0.985389888
,fun,0.972799897
,people,0.960632026
,joy,0.957909107
,young,0.932514429
,isolated,0.914296448
,beautiful,0.908777475
,pretty,0.907966614
,happiness,0.905092716
,girl,0.903170466
,friendship,0.898662388
,celebration,0.89357996
,cute,0.875092387
,surprise,0.867496014
,togetherness,0.853975892
,desktop,0.849560261
,person,0.842847466
,Christmas,0.831463516
,smile,0.829768538
,portrait,0.82939446
https://scontent.cdninstagram.com/t51.2885-15/e35/12519491_1665428460362355_338813999_n.jpg,facial expression,0.992568254
,people,0.989369869
,portrait,0.979879618
,two,0.979710519
,adult,0.976715922
,woman,0.97475785
,happiness,0.96615535
,wear,0.960014462
,togetherness,0.946383238
,interaction,0.942436695
,daylight,0.942043364
,outdoors,0.937290549
,man,0.923092842
,enjoyment,0.914072156
,family,0.89851588
,affection,0.879879713
,leisure,0.858059049
,friendship,0.857854247
,love,0.856795788
,group,0.853479385
https://scontent.cdninstagram.com/t51.2885-15/e35/12547572_1199826110031522_1887414366_n.jpg,facial expression,0.988494635
,adult,0.985205829
,people,0.984708071
,portrait,0.983585775
,wear,0.972715497
,woman,0.966616452
,two,0.955474854
,man,0.947232246
,competition,0.946787596
,happiness,0.939350545
,indoors,0.934712172
,movie,0.90574944
,recreation,0.904049397
,group,0.900676966
,enjoyment,0.898046136
,soccer,0.870415986
,outfit,0.864821196
,togetherness,0.864079058
,music,0.856225848
,interaction,0.847495735
https://scontent.cdninstagram.com/t51.2885-15/e35/12599112_1670556876550734_1634980094_n.jpg,togetherness,0.988651991
,woman,0.986628652
,friendship,0.985102892
,group,0.983426332
,laughing,0.980607271
,man,0.978784442
,happiness,0.978414297
,two,0.97822535
,joy,0.976171613
,people,0.973814189
,three,0.96385932
,portrait,0.963360488
,cheerful,0.958834887
,embrace,0.956843495
,student,0.954155743
,fun,0.950735331
,group,0.934957623
,smile,0.934035182
,young,0.923646688
,love,0.917731404
https://scontent.cdninstagram.com/t51.2885-15/e35/11137859_548008788696348_1435149550_n.jpg,people,0.977950573
,one,0.97292459
,adult,0.971437454
,portrait,0.968893409
,woman,0.965247393
,light,0.915843368
,room,0.906852186
,indoors,0.906340241
,wear,0.881736398
,music,0.845448554
,girl,0.829535365
,festival,0.827416241
,business,0.81540215
,family,0.78115046
,recreation,0.770617902
,technology,0.764768422
,furniture,0.763614774
,candle,0.762085438
,man,0.757332027
,musician,0.749587536
https://scontent.cdninstagram.com/t51.2885-15/s640x640/sh0.08/e35/12543224_1035783293146813_736641566_n.jpg,movie,0.988449812
,ceremony,0.975356936
,festival,0.961323977
,circus,0.957758427
,stage,0.956514955
,theater,0.954494238
,performance,0.953150153
,curtain,0.951809645
,people,0.949780583
,woman,0.945988476
,wear,0.936394811
,theater,0.925134778
,recreation,0.922392607
,red carpet,0.915002525
,award,0.913281798
,fashion,0.911955237
,entertainment,0.90873754
,actress,0.893325925
,hotel,0.881474018
,event,0.867511868
https://scontent.cdninstagram.com/t51.2885-15/e35/12558507_961362817287397_761455307_n.jpg,facial expression,0.990193009
,togetherness,0.980910063
,woman,0.980787635
,people,0.980059862
,man,0.964090228
,two,0.956748605
,indoors,0.955009818
,happiness,0.946214437
,enjoyment,0.94172436
,child,0.941395044
,adult,0.932413578
,portrait,0.923234344
,wear,0.92172718
,love,0.919873714
,affection,0.915110469
,interaction,0.912693501
,fun,0.906895757
,family,0.900066495
,friendship,0.89539814
,group,0.893152714
https://scontent.cdninstagram.com/t51.2885-15/e35/12501711_492097690961663_577535185_n.jpg,woman,0.964697957
,people,0.948645949
,horizontal,0.912798166
,family,0.910585999
,outdoors,0.909594774
,fun,0.897925496
,togetherness,0.893669724
,enjoyment,0.848732948
,friendship,0.841582119
,child,0.835499227
,stock,0.826811075
,shopping,0.822039783
,happiness,0.818871021
,adult,0.810758531
,joy,0.786622524
,adolescent,0.784823298
,cheerful,0.784456849
,indoors,0.771050811
,pride,0.768352807
,man,0.762935162
https://scontent.cdninstagram.com/t51.2885-15/e35/12547572_1199826110031522_1887414366_n.jpg,facial expression,0.988494635
,adult,0.985205829
,people,0.984708071
,portrait,0.983585775
,wear,0.972715497
,woman,0.966616452
,two,0.955474854
,man,0.947232246
,competition,0.946787596
,happiness,0.939350545
,indoors,0.934712172
,movie,0.90574944
,recreation,0.904049397
,group,0.900676966
,enjoyment,0.898046136
,soccer,0.870415986
,outfit,0.864821196
,togetherness,0.864079058
,music,0.856225848
,interaction,0.847495735
