url,class,score,,,,,,,,
https://scontent-sit4-1.cdninstagram.com/t51.2885-15/s320x320/e35/12747591_1562494087401266_772587053_n.jpg,flower,0.9915986061096191,"Fashion & Beauty",Environment,,,Ootd,"Natural beauty",,
,field,0.985944390296936,,,,,,,,
,summer,0.9812930822372437,,,,,,,,
,flora,0.9809958934783936,,,,,,,,
,sunflower,0.9736061096191406,,,,,,,,
,landscape,0.9679396152496338,,,,,,,,
,agriculture,0.9649059772491455,,,,,,,,
,outdoors,0.9612793326377869,,,,,,,,
,farm,0.9568507671356201,,,,,,,,
,nature,0.9548444151878357,,,,,,,,
,hayfield,0.939467191696167,,,,,,,,
,growth,0.9371845722198486,,,,,,,,
,sun,0.9196816682815552,,,,,,,,
,"blue sky",0.919184148311615,,,,,,,,
,environment,0.910449743270874,,,,,,,,
,sky,0.9006887078285217,,,,,,,,
,petal,0.8940701484680176,,,,,,,,
,"fair weather",0.8902981281280518,,,,,,,,
,"no person",0.8816730976104736,,,,,,,,
,color,0.8808776140213013,,,,,,,,
https://scontent-sit4-1.cdninstagram.com/t51.2885-15/s320x320/e35/11349443_1657896757792959_1116638072_n.jpg,child,0.9998921155929565,Relationships,,,,"Best friends",,,
,boy,0.9967268705368042,,,,,,,,
,family,0.9959030747413635,,,,,,,,
,baby,0.9942549467086792,,,,,,,,
,little,0.9862312078475952,,,,,,,,
,innocence,0.9847829341888428,,,,,,,,
,toddler,0.9828586578369141,,,,,,,,
,cute,0.9814047813415527,,,,,,,,
,people,0.9788575172424316,,,,,,,,
,happiness,0.9755660891532898,,,,,,,,
,togetherness,0.9747819900512695,,,,,,,,
,two,0.9733023643493652,,,,,,,,
,offspring,0.9712893962860107,,,,,,,,
,love,0.9674579501152039,,,,,,,,
,portrait,0.9642469882965088,,,,,,,,
,girl,0.9476891756057739,,,,,,,,
,fun,0.9366787075996399,,,,,,,,
,sibling,0.9363394975662231,,,,,,,,
,"facial expression",0.9168491363525391,,,,,,,,
,interaction,0.9140035510063171,,,,,,,,
https://scontent-sit4-1.cdninstagram.com/t51.2885-15/e35/12446353_1768655850033901_1508428696_n.jpg,fashion,0.9955298900604248,"Fashion & Beauty",,,,Ootd,,,
,woman,0.9950121641159058,,,,,,,,
,pretty,0.9775170683860779,,,,,,,,
,glamour,0.9678052663803101,,,,,,,,
,cute,0.9608277082443237,,,,,,,,
,young,0.9487318992614746,,,,,,,,
,dress,0.9431392550468445,,,,,,,,
,sexy,0.9423795938491821,,,,,,,,
,elegant,0.9388651847839355,,,,,,,,
,portrait,0.9284093379974365,,,,,,,,
,wear,0.9167822003364563,,,,,,,,
,looking,0.9113626480102539,,,,,,,,
,casual,0.9092520475387573,,,,,,,,
,adult,0.8929382562637329,,,,,,,,
,adolescent,0.8791100978851318,,,,,,,,
,model,0.8581703901290894,,,,,,,,
,trendy,0.848058819770813,,,,,,,,
,long,0.8356378674507141,,,,,,,,
,contemporary,0.8189173936843872,,,,,,,,
,luxury,0.8096966743469238,,,,,,,,
https://scontent-sit4-1.cdninstagram.com/t51.2885-15/s480x480/e35/12930757_1147245591961716_755459595_n.jpg,"no person",0.9088790416717529,,,,,,,,
,business,0.8731796741485596,,,,,,,,
,steel,0.8389186859130859,,,,,,,,
,illustration,0.8151251673698425,,,,,,,,
,modern,0.8144540786743164,,,,,,,,
,desktop,0.8113999366760254,,,,,,,,
,glazed,0.8072808980941772,,,,,,,,
,symbol,0.7751734256744385,,,,,,,,
,paper,0.7510268688201904,,,,,,,,
,equipment,0.7483702898025513,,,,,,,,
,technology,0.744226336479187,,,,,,,,
,set,0.7345136404037476,,,,,,,,
,round,0.7215648889541626,,,,,,,,
,design,0.7141910791397095,,,,,,,,
,isolated,0.7136613130569458,,,,,,,,
,horizontal,0.7034270763397217,,,,,,,,
,metallic,0.7021121978759766,,,,,,,,
,"stainless steel",0.6859751343727112,,,,,,,,
,image,0.6817142963409424,,,,,,,,
,indoors,0.6780110001564026,,,,,,,,
https://scontent-sit4-1.cdninstagram.com/t51.2885-15/s480x480/e35/12568115_1265276010165817_1890050117_n.jpg,indoors,0.9991542100906372,Environment,,,,"Manmade beauty",,,
,contemporary,0.9916045665740967,,,,,,,,
,luxury,0.9870104789733887,,,,,,,,
,furniture,0.9849692583084106,,,,,,,,
,bathtub,0.9628442525863647,,,,,,,,
,window,0.9609982967376709,,,,,,,,
,bathroom,0.960556149482727,,,,,,,,
,faucet,0.9569998383522034,,,,,,,,
,table,0.9566506147384644,,,,,,,,
,chair,0.9484254121780396,,,,,,,,
,mirror,0.9344234466552734,,,,,,,,
,"interior design",0.9229102730751038,,,,,,,,
,family,0.905372142791748,,,,,,,,
,apartment,0.8938859105110168,,,,,,,,
,comfort,0.8847313523292542,,,,,,,,
,sparse,0.8844993114471436,,,,,,,,
,absence,0.8605905771255493,,,,,,,,
,fixture,0.852149486541748,,,,,,,,
,minimalist,0.8452631831169128,,,,,,,,
,vase,0.8446978330612183,,,,,,,,
https://scontent-sit4-1.cdninstagram.com/t51.2885-15/e35/12407194_475512262639977_1494004030_n.jpg,medicine,0.9692484736442566,,,,,,,,
,bottle,0.9679689407348633,,,,,,,,
,liquid,0.9649834036827087,,,,,,,,
,capsule,0.9553704261779785,,,,,,,,
,set,0.9477230310440063,,,,,,,,
,hygiene,0.936931848526001,,,,,,,,
,plastic,0.9304977059364319,,,,,,,,
,number,0.9253560900688171,,,,,,,,
,illness,0.9112367630004883,,,,,,,,
,label,0.911178469657898,,,,,,,,
,science,0.900438666343689,,,,,,,,
,pill,0.9003341794013977,,,,,,,,
,container,0.8707317113876343,,,,,,,,
,treatment,0.8682910203933716,,,,,,,,
,care,0.8679839968681335,,,,,,,,
,illustration,0.8582578897476196,,,,,,,,
,chemical,0.8317316770553589,,,,,,,,
,blank,0.8258920907974243,,,,,,,,
,drug,0.8257501125335693,,,,,,,,
,sample,0.821212649345398,,,,,,,,
https://scontent-sit4-1.cdninstagram.com/t51.2885-15/e35/13129885_927213707376565_2093281573_n.jpg,sculpture,0.9950352311134338,Environment,,,,"Manmade beauty",,,
,statue,0.9894986748695374,,,,,,,,
,art,0.9703941345214844,,,,,,,,
,monument,0.9687974452972412,,,,,,,,
,religion,0.9626041650772095,,,,,,,,
,ancient,0.9541822075843811,,,,,,,,
,god,0.9293445348739624,,,,,,,,
,travel,0.9259936809539795,,,,,,,,
,tourism,0.9251037240028381,,,,,,,,
,architecture,0.9221926331520081,,,,,,,,
,stone,0.918999433517456,,,,,,,,
,sky,0.8740484714508057,,,,,,,,
,figure,0.8529716730117798,,,,,,,,
,tourist,0.8296818733215332,,,,,,,,
,marble,0.8216381669044495,,,,,,,,
,lion,0.8020492792129517,,,,,,,,
,animal,0.7921611070632935,,,,,,,,
,spirituality,0.7832217812538147,,,,,,,,
,temple,0.7768585681915283,,,,,,,,
,old,0.755285382270813,,,,,,,,
https://scontent-sit4-1.cdninstagram.com/t51.2885-15/s480x480/e35/12677203_1684149925171897_1110327138_n.jpg,shelf,0.9989172220230103,,,,,,,,
,stock,0.9972807168960571,,,,,,,,
,shop,0.9939336776733398,,,,,,,,
,collection,0.9917746782302856,,,,,,,,
,shopping,0.98607337474823,,,,,,,,
,market,0.9853493571281433,,,,,,,,
,option,0.9850003719329834,,,,,,,,
,wear,0.979171872138977,,,,,,,,
,sale,0.975893497467041,,,,,,,,
,commerce,0.9749624133110046,,,,,,,,
,people,0.9605740904808044,,,,,,,,
,indoors,0.9537808299064636,,,,,,,,
,education,0.9521397352218628,,,,,,,,
,fashion,0.9436246156692505,,,,,,,,
,order,0.9433066844940186,,,,,,,,
,variation,0.9429577589035034,,,,,,,,
,adult,0.940548837184906,,,,,,,,
,merchandise,0.9372841119766235,,,,,,,,
,business,0.9371693730354309,,,,,,,,
,bookcase,0.9365639686584473,,,,,,,,
https://scontent-sit4-1.cdninstagram.com/t51.2885-15/s640x640/sh0.08/e35/13734305_1122729371103581_1353772675_n.jpg,illustration,0.9898569583892822,,,,,,,,
,text,0.9807074069976807,,,,,,,,
,vector,0.9776659607887268,,,,,,,,
,bill,0.9507970213890076,,,,,,,,
,business,0.9503873586654663,,,,,,,,
,vector,0.9298809766769409,,,,,,,,
,banner,0.9148044586181641,,,,,,,,
,people,0.8968738913536072,,,,,,,,
,image,0.889655351638794,,,,,,,,
,template,0.8649086356163025,,,,,,,,
,abstract,0.851618766784668,,,,,,,,
,celebration,0.8483434915542603,,,,,,,,
,desktop,0.8351868391036987,,,,,,,,
,"World Wide Web",0.8316311836242676,,,,,,,,
,sign,0.8223611116409302,,,,,,,,
,card,0.818803071975708,,,,,,,,
,design,0.811126708984375,,,,,,,,
,adult,0.8034971356391907,,,,,,,,
,shape,0.7966660261154175,,,,,,,,
,label,0.7918551564216614,,,,,,,,
https://scontent-sit4-1.cdninstagram.com/t51.2885-15/e35/13686811_1760249940920263_395425082_n.jpg,illustration,0.9929476976394653,,,,,,,,
,vector,0.9698227643966675,,,,,,,,
,business,0.9667258262634277,,,,,,,,
,label,0.9648701548576355,,,,,,,,
,text,0.9623247385025024,,,,,,,,
,sign,0.9618624448776245,,,,,,,,
,promotion,0.9561344385147095,,,,,,,,
,vector,0.9556769132614136,,,,,,,,
,symbol,0.9352277517318726,,,,,,,,
,bill,0.9316757321357727,,,,,,,,
,paper,0.9315920472145081,,,,,,,,
,stock,0.9092416763305664,,,,,,,,
,sale,0.9036370515823364,,,,,,,,
,image,0.9026293158531189,,,,,,,,
,design,0.9023309350013733,,,,,,,,
,design,0.8925507664680481,,,,,,,,
,abstract,0.8923013210296631,,,,,,,,
,tag,0.8898296356201172,,,,,,,,
,banner,0.888403058052063,,,,,,,,
,shape,0.8761171102523804,,,,,,,,
https://scontent-sit4-1.cdninstagram.com/l/t51.2885-15/e35/12424830_944321868988959_559576903_n.jpg,"no person",0.996075451374054,,,,,,,,
,business,0.9799892902374268,,,,,,,,
,paper,0.9649875164031982,,,,,,,,
,sign,0.9471840858459473,,,,,,,,
,post,0.9434008598327637,,,,,,,,
,merchandise,0.9341362118721008,,,,,,,,
,election,0.9134366512298584,,,,,,,,
,text,0.8910336494445801,,,,,,,,
,vertical,0.8866276741027832,,,,,,,,
,box,0.8463382124900818,,,,,,,,
,bill,0.8430724143981934,,,,,,,,
,education,0.8423123359680176,,,,,,,,
,cardboard,0.8363391160964966,,,,,,,,
,indoors,0.8338360786437988,,,,,,,,
,information,0.827136754989624,,,,,,,,
,family,0.8205839395523071,,,,,,,,
,empty,0.8141891956329346,,,,,,,,
,security,0.8139140605926514,,,,,,,,
,stock,0.8106144666671753,,,,,,,,
,safety,0.805400550365448,,,,,,,,
https://scontent-sit4-1.cdninstagram.com/t51.2885-15/e35/13188200_602160786627834_1530613332_n.jpg,horizontal,0.9836483597755432,,,,,,,,
,"still life",0.9722610712051392,,,,,,,,
,indoors,0.9640028476715088,,,,,,,,
,vertical,0.9624565243721008,,,,,,,,
,container,0.9401881694793701,,,,,,,,
,box,0.9383937120437622,,,,,,,,
,business,0.9141272902488708,,,,,,,,
,technology,0.9119873642921448,,,,,,,,
,simplicity,0.9019638299942017,,,,,,,,
,creativity,0.8825439214706421,,,,,,,,
,square,0.8802169561386108,,,,,,,,
,glazed,0.8691908121109009,,,,,,,,
,paper,0.8675276041030884,,,,,,,,
,wealth,0.8645687103271484,,,,,,,,
,love,0.8403799533843994,,,,,,,,
,double,0.8380569815635681,,,,,,,,
,data,0.8358144164085388,,,,,,,,
,plastic,0.815887451171875,,,,,,,,
,merchandise,0.8120130896568298,,,,,,,,
,luxury,0.8019372820854187,,,,,,,,
https://scontent-sit4-1.cdninstagram.com/t51.2885-15/e35/12825869_738789882887459_1802513490_n.jpg,business,0.9848572611808777,,,,,,,,
,time,0.9815696477890015,,,,,,,,
,text,0.9598281383514404,,,,,,,,
,sign,0.9574259519577026,,,,,,,,
,"no person",0.9359457492828369,,,,,,,,
,symbol,0.9223664999008179,,,,,,,,
,warning,0.9223337173461914,,,,,,,,
,sign,0.9190419912338257,,,,,,,,
,door,0.9112815856933594,,,,,,,,
,conceptual,0.9068580269813538,,,,,,,,
,desktop,0.8997266888618469,,,,,,,,
,security,0.8979867100715637,,,,,,,,
,urgency,0.8886231780052185,,,,,,,,
,safety,0.8761907815933228,,,,,,,,
,clock,0.8736763000488281,,,,,,,,
,indoors,0.8678247928619385,,,,,,,,
,arrow,0.8594480752944946,,,,,,,,
,office,0.8538263440132141,,,,,,,,
,industry,0.8533475399017334,,,,,,,,
,illustration,0.8524788618087769,,,,,,,,
https://scontent-sit4-1.cdninstagram.com/t51.2885-15/e35/10683893_182327485466177_1105827321_n.jpg,powder,0.9958320260047913,Food,,,,Dessert,,,
,food,0.9851294755935669,,,,,,,,
,wood,0.9833018183708191,,,,,,,,
,"no person",0.9827257394790649,,,,,,,,
,egg,0.9682656526565552,,,,,,,,
,traditional,0.9494855403900146,,,,,,,,
,cooking,0.9442028999328613,,,,,,,,
,hot,0.9304181337356567,,,,,,,,
,table,0.9231585264205933,,,,,,,,
,flour,0.9215207099914551,,,,,,,,
,desktop,0.9117062091827393,,,,,,,,
,breakfast,0.9115976691246033,,,,,,,,
,delicious,0.9108349084854126,,,,,,,,
,wooden,0.900879979133606,,,,,,,,
,nutrition,0.8949657678604126,,,,,,,,
,cup,0.8935629725456238,,,,,,,,
,closeup,0.8860424160957336,,,,,,,,
,baking,0.8858438730239868,,,,,,,,
,coffee,0.8766599297523499,,,,,,,,
,salt,0.866039514541626,,,,,,,,
https://scontent-sit4-1.cdninstagram.com/t51.2885-15/e35/11909287_212870095739637_1309034960_n.jpg,business,0.9919867515563965,,,,,,,,
,text,0.9800106883049011,,,,,,,,
,sign,0.9771759510040283,,,,,,,,
,paper,0.9698212146759033,,,,,,,,
,finance,0.946941614151001,,,,,,,,
,data,0.9469062089920044,,,,,,,,
,time,0.9436084032058716,,,,,,,,
,financial,0.9396975040435791,,,,,,,,
,message,0.9319428205490112,,,,,,,,
,form,0.9299445152282715,,,,,,,,
,communication,0.9286072254180908,,,,,,,,
,money,0.9219690561294556,,,,,,,,
,success,0.9105637669563293,,,,,,,,
,security,0.9040305018424988,,,,,,,,
,service,0.9016438722610474,,,,,,,,
,information,0.8986067771911621,,,,,,,,
,document,0.89488685131073,,,,,,,,
,"give voice",0.8924344778060913,,,,,,,,
,page,0.8904330730438232,,,,,,,,
,internet,0.8903688192367554,,,,,,,,
https://scontent-sit4-1.cdninstagram.com/t51.2885-15/e35/12445942_1741419702765706_909060699_n.jpg,symbol,0.9905142188072205,,,,,,,,
,sphere,0.980453610420227,,,,,,,,
,set,0.9751535654067993,,,,,,,,
,ball-shaped,0.9735628366470337,,,,,,,,
,illustration,0.9724465608596802,,,,,,,,
,spherical,0.9679883718490601,,,,,,,,
,vector,0.9520416259765625,,,,,,,,
,design,0.9498720169067383,,,,,,,,
,collection,0.9380399584770203,,,,,,,,
,image,0.9210724830627441,,,,,,,,
,alphabet,0.9090240001678467,,,,,,,,
,shining,0.9056999683380127,,,,,,,,
,pattern,0.9041494131088257,,,,,,,,
,gold,0.8991868495941162,,,,,,,,
,ball,0.886607825756073,,,,,,,,
,vector,0.8641197681427002,,,,,,,,
,decoration,0.8563797473907471,,,,,,,,
,internet,0.8496353626251221,,,,,,,,
,set,0.8385905027389526,,,,,,,,
,desktop,0.8302830457687378,,,,,,,,
https://scontent-sit4-1.cdninstagram.com/t51.2885-15/e35/12918402_214266755614929_786981920_n.jpg,portrait,0.9849082231521606,"My life",,,,Selfie,,,
,people,0.9849017262458801,,,,,,,,
,wear,0.978916585445404,,,,,,,,
,winter,0.9758999347686768,,,,,,,,
,adult,0.9601231217384338,,,,,,,,
,veil,0.9588096141815186,,,,,,,,
,headscarf,0.9484721422195435,,,,,,,,
,scarf,0.942639172077179,,,,,,,,
,one,0.9243059158325195,,,,,,,,
,woman,0.9049049615859985,,,,,,,,
,snow,0.865680456161499,,,,,,,,
,indoors,0.8645185232162476,,,,,,,,
,vehicle,0.8620569705963135,,,,,,,,
,Christmas,0.8570886850357056,,,,,,,,
,hijab,0.8487986922264099,,,,,,,,
,child,0.8170729279518127,,,,,,,,
,tube,0.8159914016723633,,,,,,,,
,rally,0.8071339130401611,,,,,,,,
,industry,0.8014565110206604,,,,,,,,
,happiness,0.8012652397155762,,,,,,,,
https://scontent-sit4-1.cdninstagram.com/t51.2885-15/e35/12599504_510524059119227_1973807378_n.jpg,template,0.9973249435424805,,,,,,,,
,presentation,0.9945406913757324,,,,,,,,
,label,0.9933547973632812,,,,,,,,
,layout,0.993137001991272,,,,,,,,
,page,0.9921191930770874,,,,,,,,
,banner,0.988832950592041,,,,,,,,
,"World Wide Web",0.9879595041275024,,,,,,,,
,number,0.9878408312797546,,,,,,,,
,form,0.9782482981681824,,,,,,,,
,information,0.9733601808547974,,,,,,,,
,vector,0.9584058523178101,,,,,,,,
,promotion,0.9520952701568604,,,,,,,,
,option,0.9491293430328369,,,,,,,,
,tag,0.9485852718353271,,,,,,,,
,data,0.9483217000961304,,,,,,,,
,booklet,0.9483015537261963,,,,,,,,
,navigation,0.9365725517272949,,,,,,,,
,text,0.9321152567863464,,,,,,,,
,order,0.9306695461273193,,,,,,,,
,business,0.9294361472129822,,,,,,,,
https://scontent-sit4-1.cdninstagram.com/t51.2885-15/e35/11363912_1142603835797035_198697854_n.jpg,clock,0.9880261421203613,,,,,,,,
,time,0.9790273308753967,,,,,,,,
,watch,0.9763203859329224,,,,,,,,
,timer,0.9283472895622253,,,,,,,,
,technology,0.8981770873069763,,,,,,,,
,equipment,0.8957819938659668,,,,,,,,
,dial,0.8938988447189331,,,,,,,,
,accuracy,0.8677564859390259,,,,,,,,
,instrument,0.8600704669952393,,,,,,,,
,"no person",0.8511591553688049,,,,,,,,
,wristwatch,0.8429816961288452,,,,,,,,
,timepiece,0.8429467678070068,,,,,,,,
,chronometer,0.8179042339324951,,,,,,,,
,wrist,0.8071306943893433,,,,,,,,
,minute,0.8026319742202759,,,,,,,,
,antique,0.7982348203659058,,,,,,,,
,deadline,0.7804225087165833,,,,,,,,
,business,0.7794808745384216,,,,,,,,
,design,0.7471398115158081,,,,,,,,
,precision,0.7395952939987183,,,,,,,,
https://scontent-sit4-1.cdninstagram.com/t51.2885-15/e35/1208355_1691735857781640_1516514234_n.jpg,people,0.922183632850647,,,,,,,,
,business,0.8747029900550842,,,,,,,,
,fashion,0.8525043725967407,,,,,,,,
,competition,0.8520690202713013,,,,,,,,
,footwear,0.8311194777488708,,,,,,,,
,wear,0.7924672365188599,,,,,,,,
,man,0.7803900241851807,,,,,,,,
,recreation,0.7536705732345581,,,,,,,,
,woman,0.7509641647338867,,,,,,,,
,adult,0.7457569241523743,,,,,,,,
,soccer,0.7391018867492676,,,,,,,,
,color,0.7385029196739197,,,,,,,,
,commerce,0.7333913445472717,,,,,,,,
,fun,0.7296161651611328,,,,,,,,
,illustration,0.729002058506012,,,,,,,,
,bag,0.7265798449516296,,,,,,,,
,music,0.7184692621231079,,,,,,,,
,shopping,0.7153050899505615,,,,,,,,
,money,0.7144322395324707,,,,,,,,
,"no person",0.7063356637954712,,,,,,,,
https://scontent-sit4-1.cdninstagram.com/t51.2885-15/e35/12144146_201210363567768_1648124877_n.jpg,indoors,0.9920787215232849,,,,,,,,
,"no person",0.9896252155303955,,,,,,,,
,contemporary,0.9642294645309448,,,,,,,,
,furniture,0.9169210195541382,,,,,,,,
,"interior design",0.9060571789741516,,,,,,,,
,luxury,0.8913428783416748,,,,,,,,
,empty,0.8265748620033264,,,,,,,,
,horizontal,0.7975336909294128,,,,,,,,
,family,0.7745579481124878,,,,,,,,
,industry,0.753959059715271,,,,,,,,
,service,0.7521877288818359,,,,,,,,
,chair,0.7509832382202148,,,,,,,,
,business,0.7411893606185913,,,,,,,,
,traditional,0.731391429901123,,,,,,,,
,painting,0.7248125672340393,,,,,,,,
,table,0.7068859338760376,,,,,,,,
,danger,0.7030874490737915,,,,,,,,
,shelf,0.7013466358184814,,,,,,,,
,modern,0.690439760684967,,,,,,,,
,broad,0.685184895992279,,,,,,,,
https://scontent-sit4-1.cdninstagram.com/t51.2885-15/e35/12917916_1718261845109718_830892940_n.jpg,"no person",0.9971756935119629,,,,,,,,
,tulip,0.9821810722351074,,,,,,,,
,leaf,0.9757049083709717,,,,,,,,
,nature,0.9733002185821533,,,,,,,,
,bright,0.972337543964386,,,,,,,,
,Easter,0.9716792702674866,,,,,,,,
,elegant,0.965605616569519,,,,,,,,
,love,0.9445215463638306,,,,,,,,
,health,0.9441283345222473,,,,,,,,
,romance,0.9428030252456665,,,,,,,,
,time,0.9331387877464294,,,,,,,,
,flower,0.9307522773742676,,,,,,,,
,isolated,0.9199142456054688,,,,,,,,
,summer,0.9156632423400879,,,,,,,,
,arrangement,0.8887823820114136,,,,,,,,
,bouquet,0.8883928656578064,,,,,,,,
,gift,0.8866336345672607,,,,,,,,
,ingredients,0.8790581226348877,,,,,,,,
,decoration,0.8685466051101685,,,,,,,,
,early,0.8408609628677368,,,,,,,,
https://scontent-sit4-1.cdninstagram.com/t51.2885-15/e35/12818912_970316123044618_889051723_n.jpg,indoors,0.9892652034759521,,,,,,,,
,window,0.9875302910804749,,,,,,,,
,comfort,0.9828846454620361,,,,,,,,
,furniture,0.9825978875160217,,,,,,,,
,luxury,0.9815921783447266,,,,,,,,
,contemporary,0.9807158708572388,,,,,,,,
,bedroom,0.9679085612297058,,,,,,,,
,curtain,0.9552426338195801,,,,,,,,
,bed,0.9547230005264282,,,,,,,,
,cozy,0.9541292190551758,,,,,,,,
,pillow,0.9509779214859009,,,,,,,,
,chair,0.9329166412353516,,,,,,,,
,hotel,0.9323922991752625,,,,,,,,
,design,0.9220045804977417,,,,,,,,
,family,0.9199236631393433,,,,,,,,
,empty,0.8997608423233032,,,,,,,,
,apartment,0.8888678550720215,,,,,,,,
,relaxation,0.8756417036056519,,,,,,,,
,absence,0.8521822690963745,,,,,,,,
,cushion,0.8496416807174683,,,,,,,,
https://scontent-sit4-1.cdninstagram.com/t51.2885-15/e35/12912795_214912132232555_1555340732_n.jpg,indoors,0.9920787215232849,,,,,,,,
,"no person",0.9896252155303955,,,,,,,,
,contemporary,0.9642294645309448,,,,,,,,
,furniture,0.9169210195541382,,,,,,,,
,"interior design",0.9060571789741516,,,,,,,,
,luxury,0.8913428783416748,,,,,,,,
,empty,0.8265748620033264,,,,,,,,
,horizontal,0.7975336909294128,,,,,,,,
,family,0.7745579481124878,,,,,,,,
,industry,0.753959059715271,,,,,,,,
,service,0.7521877288818359,,,,,,,,
,chair,0.7509832382202148,,,,,,,,
,business,0.7411893606185913,,,,,,,,
,traditional,0.731391429901123,,,,,,,,
,painting,0.7248125672340393,,,,,,,,
,table,0.7068859338760376,,,,,,,,
,danger,0.7030874490737915,,,,,,,,
,shelf,0.7013466358184814,,,,,,,,
,modern,0.690439760684967,,,,,,,,
,broad,0.685184895992279,,,,,,,,
https://scontent-sit4-1.cdninstagram.com/t51.2885-15/s750x750/sh0.08/e35/12558290_1672374599685298_2052725913_n.jpg,"no person",0.9949133396148682,Food,,,,"Meal time",,,
,bowl,0.9844031929969788,,,,,,,,
,food,0.9795780181884766,,,,,,,,
,chili,0.9511604309082031,,,,,,,,
,homemade,0.9468984007835388,,,,,,,,
,dish,0.9362142086029053,,,,,,,,
,traditional,0.9353290796279907,,,,,,,,
,soup,0.9348768591880798,,,,,,,,
,grow,0.9298513531684875,,,,,,,,
,hot,0.9295758008956909,,,,,,,,
,vegetable,0.9256932735443115,,,,,,,,
,appetizer,0.9239474534988403,,,,,,,,
,cream,0.917565107345581,,,,,,,,
,creamy,0.9080865383148193,,,,,,,,
,pepper,0.906855583190918,,,,,,,,
,dinner,0.9028960466384888,,,,,,,,
,cuisine,0.9006109833717346,,,,,,,,
,wood,0.8945608139038086,,,,,,,,
,spoon,0.8921570181846619,,,,,,,,
,rustic,0.8873586654663086,,,,,,,,
https://scontent-sit4-1.cdninstagram.com/t51.2885-15/e35/13398600_580960708743115_256259021_n.jpg,"no person",0.977130115032196,,,,,,,,
,technology,0.9674304723739624,,,,,,,,
,business,0.9602565765380859,,,,,,,,
,isolated,0.9400112628936768,,,,,,,,
,electronics,0.9134922027587891,,,,,,,,
,equipment,0.9073575139045715,,,,,,,,
,plastic,0.9032255411148071,,,,,,,,
,horizontal,0.8952680826187134,,,,,,,,
,paper,0.8862005472183228,,,,,,,,
,machinery,0.8640656471252441,,,,,,,,
,security,0.8461267948150635,,,,,,,,
,contemporary,0.8392428159713745,,,,,,,,
,industry,0.8273547291755676,,,,,,,,
,glazed,0.807706892490387,,,,,,,,
,identity,0.754891037940979,,,,,,,,
,success,0.75029057264328,,,,,,,,
,data,0.734736442565918,,,,,,,,
,illustration,0.7280051708221436,,,,,,,,
,connection,0.7271214723587036,,,,,,,,
,image,0.7247598171234131,,,,,,,,
https://scontent-sit4-1.cdninstagram.com/t51.2885-15/e35/12934848_987155191374237_1836390580_n.jpg,indoors,0.9920787215232849,,,,,,,,
,"no person",0.9896252155303955,,,,,,,,
,contemporary,0.9642294645309448,,,,,,,,
,furniture,0.9169210195541382,,,,,,,,
,"interior design",0.9060571789741516,,,,,,,,
,luxury,0.8913428783416748,,,,,,,,
,empty,0.8265748620033264,,,,,,,,
,horizontal,0.7975336909294128,,,,,,,,
,family,0.7745579481124878,,,,,,,,
,industry,0.753959059715271,,,,,,,,
,service,0.7521877288818359,,,,,,,,
,chair,0.7509832382202148,,,,,,,,
,business,0.7411893606185913,,,,,,,,
,traditional,0.731391429901123,,,,,,,,
,painting,0.7248125672340393,,,,,,,,
,table,0.7068859338760376,,,,,,,,
,danger,0.7030874490737915,,,,,,,,
,shelf,0.7013466358184814,,,,,,,,
,modern,0.690439760684967,,,,,,,,
,broad,0.685184895992279,,,,,,,,
https://scontent-sit4-1.cdninstagram.com/t51.2885-15/e35/12976463_964449883673465_1110603841_n.jpg,indoors,0.9920787215232849,,,,,,,,
,"no person",0.9896252155303955,,,,,,,,
,contemporary,0.9642294645309448,,,,,,,,
,furniture,0.9169210195541382,,,,,,,,
,"interior design",0.9060571789741516,,,,,,,,
,luxury,0.8913428783416748,,,,,,,,
,empty,0.8265748620033264,,,,,,,,
,horizontal,0.7975336909294128,,,,,,,,
,family,0.7745579481124878,,,,,,,,
,industry,0.753959059715271,,,,,,,,
,service,0.7521877288818359,,,,,,,,
,chair,0.7509832382202148,,,,,,,,
,business,0.7411893606185913,,,,,,,,
,traditional,0.731391429901123,,,,,,,,
,painting,0.7248125672340393,,,,,,,,
,table,0.7068859338760376,,,,,,,,
,danger,0.7030874490737915,,,,,,,,
,shelf,0.7013466358184814,,,,,,,,
,modern,0.690439760684967,,,,,,,,
,broad,0.685184895992279,,,,,,,,
https://scontent-sit4-1.cdninstagram.com/t51.2885-15/e35/13108707_611162535700158_490987524_n.jpg,"no person",0.9779585599899292,,,,,,,,
,paper,0.9689373970031738,,,,,,,,
,number,0.9504077434539795,,,,,,,,
,indoors,0.9406489133834839,,,,,,,,
,order,0.9403865337371826,,,,,,,,
,label,0.8940637111663818,,,,,,,,
,business,0.8808916211128235,,,,,,,,
,clean,0.8766075372695923,,,,,,,,
,one,0.8227078318595886,,,,,,,,
,information,0.7714328765869141,,,,,,,,
,booklet,0.7671593427658081,,,,,,,,
,box,0.7668188810348511,,,,,,,,
,container,0.7586575746536255,,,,,,,,
,form,0.7549986839294434,,,,,,,,
,money,0.7436729669570923,,,,,,,,
,food,0.742965579032898,,,,,,,,
,finance,0.736423134803772,,,,,,,,
,plastic,0.7319809198379517,,,,,,,,
,sign,0.7317185401916504,,,,,,,,
,vertical,0.7302247881889343,,,,,,,,
https://scontent-sit4-1.cdninstagram.com/t51.2885-15/e35/12917985_1571385853190219_771025023_n.jpg,indoors,0.9920787215232849,,,,,,,,
,"no person",0.9896252155303955,,,,,,,,
,contemporary,0.9642294645309448,,,,,,,,
,furniture,0.9169210195541382,,,,,,,,
,"interior design",0.9060571789741516,,,,,,,,
,luxury,0.8913428783416748,,,,,,,,
,empty,0.8265748620033264,,,,,,,,
,horizontal,0.7975336909294128,,,,,,,,
,family,0.7745579481124878,,,,,,,,
,industry,0.753959059715271,,,,,,,,
,service,0.7521877288818359,,,,,,,,
,chair,0.7509832382202148,,,,,,,,
,business,0.7411893606185913,,,,,,,,
,traditional,0.731391429901123,,,,,,,,
,painting,0.7248125672340393,,,,,,,,
,table,0.7068859338760376,,,,,,,,
,danger,0.7030874490737915,,,,,,,,
,shelf,0.7013466358184814,,,,,,,,
,modern,0.690439760684967,,,,,,,,
,broad,0.685184895992279,,,,,,,,
https://scontent-sit4-1.cdninstagram.com/t51.2885-15/e35/12976112_283738071958308_1329803065_n.jpg,indoors,0.9920787215232849,,,,,,,,
,"no person",0.9896252155303955,,,,,,,,
,contemporary,0.9642294645309448,,,,,,,,
,furniture,0.9169210195541382,,,,,,,,
,"interior design",0.9060571789741516,,,,,,,,
,luxury,0.8913428783416748,,,,,,,,
,empty,0.8265748620033264,,,,,,,,
,horizontal,0.7975336909294128,,,,,,,,
,family,0.7745579481124878,,,,,,,,
,industry,0.753959059715271,,,,,,,,
,service,0.7521877288818359,,,,,,,,
,chair,0.7509832382202148,,,,,,,,
,business,0.7411893606185913,,,,,,,,
,traditional,0.731391429901123,,,,,,,,
,painting,0.7248125672340393,,,,,,,,
,table,0.7068859338760376,,,,,,,,
,danger,0.7030874490737915,,,,,,,,
,shelf,0.7013466358184814,,,,,,,,
,modern,0.690439760684967,,,,,,,,
,broad,0.685184895992279,,,,,,,,
https://scontent-sit4-1.cdninstagram.com/t51.2885-15/e35/12424944_494257050765415_1358392984_n.jpg,indoors,0.9920787215232849,,,,,,,,
,"no person",0.9896252155303955,,,,,,,,
,contemporary,0.9642294645309448,,,,,,,,
,furniture,0.9169210195541382,,,,,,,,
,"interior design",0.9060571789741516,,,,,,,,
,luxury,0.8913428783416748,,,,,,,,
,empty,0.8265748620033264,,,,,,,,
,horizontal,0.7975336909294128,,,,,,,,
,family,0.7745579481124878,,,,,,,,
,industry,0.753959059715271,,,,,,,,
,service,0.7521877288818359,,,,,,,,
,chair,0.7509832382202148,,,,,,,,
,business,0.7411893606185913,,,,,,,,
,traditional,0.731391429901123,,,,,,,,
,painting,0.7248125672340393,,,,,,,,
,table,0.7068859338760376,,,,,,,,
,danger,0.7030874490737915,,,,,,,,
,shelf,0.7013466358184814,,,,,,,,
,modern,0.690439760684967,,,,,,,,
,broad,0.685184895992279,,,,,,,,
https://scontent-sit4-1.cdninstagram.com/t51.2885-15/e35/12940207_226213244401050_126915917_n.jpg,indoors,0.9920787215232849,,,,,,,,
,"no person",0.9896252155303955,,,,,,,,
,contemporary,0.9642294645309448,,,,,,,,
,furniture,0.9169210195541382,,,,,,,,
,"interior design",0.9060571789741516,,,,,,,,
,luxury,0.8913428783416748,,,,,,,,
,empty,0.8265748620033264,,,,,,,,
,horizontal,0.7975336909294128,,,,,,,,
,family,0.7745579481124878,,,,,,,,
,industry,0.753959059715271,,,,,,,,
,service,0.7521877288818359,,,,,,,,
,chair,0.7509832382202148,,,,,,,,
,business,0.7411893606185913,,,,,,,,
,traditional,0.731391429901123,,,,,,,,
,painting,0.7248125672340393,,,,,,,,
,table,0.7068859338760376,,,,,,,,
,danger,0.7030874490737915,,,,,,,,
,shelf,0.7013466358184814,,,,,,,,
,modern,0.690439760684967,,,,,,,,
,broad,0.685184895992279,,,,,,,,
https://scontent-sit4-1.cdninstagram.com/t51.2885-15/e35/12677551_946503338778432_1548539238_n.jpg,indoors,0.9920787215232849,,,,,,,,
,"no person",0.9896252155303955,,,,,,,,
,contemporary,0.9642294645309448,,,,,,,,
,furniture,0.9169210195541382,,,,,,,,
,"interior design",0.9060571789741516,,,,,,,,
,luxury,0.8913428783416748,,,,,,,,
,empty,0.8265748620033264,,,,,,,,
,horizontal,0.7975336909294128,,,,,,,,
,family,0.7745579481124878,,,,,,,,
,industry,0.753959059715271,,,,,,,,
,service,0.7521877288818359,,,,,,,,
,chair,0.7509832382202148,,,,,,,,
,business,0.7411893606185913,,,,,,,,
,traditional,0.731391429901123,,,,,,,,
,painting,0.7248125672340393,,,,,,,,
,table,0.7068859338760376,,,,,,,,
,danger,0.7030874490737915,,,,,,,,
,shelf,0.7013466358184814,,,,,,,,
,modern,0.690439760684967,,,,,,,,
,broad,0.685184895992279,,,,,,,,
https://scontent-sit4-1.cdninstagram.com/t51.2885-15/e35/12976121_219989905044932_1160972297_n.jpg,indoors,0.9920787215232849,,,,,,,,
,"no person",0.9896252155303955,,,,,,,,
,contemporary,0.9642294645309448,,,,,,,,
,furniture,0.9169210195541382,,,,,,,,
,"interior design",0.9060571789741516,,,,,,,,
,luxury,0.8913428783416748,,,,,,,,
,empty,0.8265748620033264,,,,,,,,
,horizontal,0.7975336909294128,,,,,,,,
,family,0.7745579481124878,,,,,,,,
,industry,0.753959059715271,,,,,,,,
,service,0.7521877288818359,,,,,,,,
,chair,0.7509832382202148,,,,,,,,
,business,0.7411893606185913,,,,,,,,
,traditional,0.731391429901123,,,,,,,,
,painting,0.7248125672340393,,,,,,,,
,table,0.7068859338760376,,,,,,,,
,danger,0.7030874490737915,,,,,,,,
,shelf,0.7013466358184814,,,,,,,,
,modern,0.690439760684967,,,,,,,,
,broad,0.685184895992279,,,,,,,,
https://scontent-sit4-1.cdninstagram.com/t51.2885-15/e35/13704367_879225938850864_394549563_n.jpg,love,0.9968196153640747,,,,,,,,
,romance,0.9905572533607483,,,,,,,,
,heart,0.9851945042610168,,,,,,,,
,"no person",0.9750287532806396,,,,,,,,
,symbol,0.941504180431366,,,,,,,,
,label,0.9112347364425659,,,,,,,,
,wedding,0.9060400724411011,,,,,,,,
,marriage,0.8733344078063965,,,,,,,,
,shape,0.8464904427528381,,,,,,,,
,sign,0.8459835052490234,,,,,,,,
,design,0.8320556879043579,,,,,,,,
,romantic,0.8261218667030334,,,,,,,,
,paper,0.818797767162323,,,,,,,,
,text,0.8182371258735657,,,,,,,,
,affection,0.8049687147140503,,,,,,,,
,business,0.7588851451873779,,,,,,,,
,"valentines day",0.7262724041938782,,,,,,,,
,round,0.7193806171417236,,,,,,,,
,conceptual,0.7130320072174072,,,,,,,,
,retail,0.709628164768219,,,,,,,,
https://scontent-sit4-1.cdninstagram.com/t51.2885-15/e35/12599161_1716104558628184_621167040_n.jpg,indoors,0.9920787215232849,,,,,,,,
,"no person",0.9896252155303955,,,,,,,,
,contemporary,0.9642294645309448,,,,,,,,
,furniture,0.9169210195541382,,,,,,,,
,"interior design",0.9060571789741516,,,,,,,,
,luxury,0.8913428783416748,,,,,,,,
,empty,0.8265748620033264,,,,,,,,
,horizontal,0.7975336909294128,,,,,,,,
,family,0.7745579481124878,,,,,,,,
,industry,0.753959059715271,,,,,,,,
,service,0.7521877288818359,,,,,,,,
,chair,0.7509832382202148,,,,,,,,
,business,0.7411893606185913,,,,,,,,
,traditional,0.731391429901123,,,,,,,,
,painting,0.7248125672340393,,,,,,,,
,table,0.7068859338760376,,,,,,,,
,danger,0.7030874490737915,,,,,,,,
,shelf,0.7013466358184814,,,,,,,,
,modern,0.690439760684967,,,,,,,,
,broad,0.685184895992279,,,,,,,,
https://scontent-sit4-1.cdninstagram.com/t51.2885-15/e35/12960170_1023850420983517_935200442_n.jpg,indoors,0.9920787215232849,,,,,,,,
,"no person",0.9896252155303955,,,,,,,,
,contemporary,0.9642294645309448,,,,,,,,
,furniture,0.9169210195541382,,,,,,,,
,"interior design",0.9060571789741516,,,,,,,,
,luxury,0.8913428783416748,,,,,,,,
,empty,0.8265748620033264,,,,,,,,
,horizontal,0.7975336909294128,,,,,,,,
,family,0.7745579481124878,,,,,,,,
,industry,0.753959059715271,,,,,,,,
,service,0.7521877288818359,,,,,,,,
,chair,0.7509832382202148,,,,,,,,
,business,0.7411893606185913,,,,,,,,
,traditional,0.731391429901123,,,,,,,,
,painting,0.7248125672340393,,,,,,,,
,table,0.7068859338760376,,,,,,,,
,danger,0.7030874490737915,,,,,,,,
,shelf,0.7013466358184814,,,,,,,,
,modern,0.690439760684967,,,,,,,,
,broad,0.685184895992279,,,,,,,,
https://scontent-sit4-1.cdninstagram.com/t51.2885-15/e35/12825829_1713264842230609_2142511614_n.jpg,business,0.9345988631248474,,,,,,,,
,set,0.9294090270996094,,,,,,,,
,"no person",0.9192502498626709,,,,,,,,
,fashion,0.8778330087661743,,,,,,,,
,paper,0.8654784560203552,,,,,,,,
,money,0.8515338897705078,,,,,,,,
,shopping,0.8365404605865479,,,,,,,,
,"World Wide Web",0.8333365321159363,,,,,,,,
,card,0.8115404844284058,,,,,,,,
,scissors,0.8096475005149841,,,,,,,,
,telephone,0.802933931350708,,,,,,,,
,collection,0.8018269538879395,,,,,,,,
,internet,0.796785831451416,,,,,,,,
,pill,0.7797116041183472,,,,,,,,
,money,0.7742830514907837,,,,,,,,
,color,0.7681883573532104,,,,,,,,
,number,0.7641809582710266,,,,,,,,
,isolated,0.7640079855918884,,,,,,,,
,woman,0.7603763341903687,,,,,,,,
,bright,0.7572058439254761,,,,,,,,
https://scontent-sit4-1.cdninstagram.com/t51.2885-15/e35/13380845_1737909803157394_1829765368_n.jpg,business,0.9715512990951538,,,,,,,,
,text,0.9649720191955566,,,,,,,,
,people,0.9503171443939209,,,,,,,,
,adult,0.9295709729194641,,,,,,,,
,horizontal,0.9107806086540222,,,,,,,,
,man,0.8965588808059692,,,,,,,,
,paper,0.8894091844558716,,,,,,,,
,vertical,0.8880637884140015,,,,,,,,
,conceptual,0.8795922994613647,,,,,,,,
,cloud,0.8768774271011353,,,,,,,,
,bill,0.8584808111190796,,,,,,,,
,communication,0.8417859673500061,,,,,,,,
,unemployment,0.827946126461029,,,,,,,,
,data,0.804309606552124,,,,,,,,
,woman,0.7975654602050781,,,,,,,,
,preparation,0.7964591383934021,,,,,,,,
,"transportation system",0.7842931747436523,,,,,,,,
,illustration,0.7809420824050903,,,,,,,,
,content,0.7807389497756958,,,,,,,,
,technology,0.7750797271728516,,,,,,,,
https://scontent-sit4-1.cdninstagram.com/t51.2885-15/s750x750/sh0.08/e35/12749812_1555224278138171_1126598119_n.jpg,child,0.9979982376098633,Relationships,,,,Friends,,,
,togetherness,0.9889390468597412,,,,,,,,
,family,0.9873637557029724,,,,,,,,
,boy,0.9862352013587952,,,,,,,,
,affection,0.9858211874961853,,,,,,,,
,outdoors,0.9847002029418945,,,,,,,,
,"facial expression",0.9779097437858582,,,,,,,,
,happiness,0.9724334478378296,,,,,,,,
,people,0.9662777185440063,,,,,,,,
,embrace,0.9643027782440186,,,,,,,,
,sibling,0.9613361358642578,,,,,,,,
,offspring,0.9607769250869751,,,,,,,,
,portrait,0.9538027048110962,,,,,,,,
,love,0.9478570222854614,,,,,,,,
,group,0.946503758430481,,,,,,,,
,three,0.9445787072181702,,,,,,,,
,daylight,0.9395959377288818,,,,,,,,
,friendship,0.9382258653640747,,,,,,,,
,man,0.9353072047233582,,,,,,,,
,woman,0.932951807975769,,,,,,,,
https://scontent-sit4-1.cdninstagram.com/t51.2885-15/e35/12383272_452192718306025_785662201_n.jpg,people,0.9608915448188782,"My life",,,,Selfie,,,
,outdoors,0.9594129323959351,,,,,,,,
,woman,0.9086538553237915,,,,,,,,
,leisure,0.9084608554840088,,,,,,,,
,child,0.8962422609329224,,,,,,,,
,fun,0.8902652263641357,,,,,,,,
,enjoyment,0.8719906210899353,,,,,,,,
,casual,0.8676508665084839,,,,,,,,
,sit,0.8659768104553223,,,,,,,,
,young,0.8648428916931152,,,,,,,,
,relaxation,0.8591020703315735,,,,,,,,
,shopping,0.8577358722686768,,,,,,,,
,cute,0.851432204246521,,,,,,,,
,man,0.8443260788917542,,,,,,,,
,adolescent,0.8323709964752197,,,,,,,,
,summer,0.8281029462814331,,,,,,,,
,family,0.8221234679222107,,,,,,,,
,portrait,0.8195576667785645,,,,,,,,
,adult,0.8141413331031799,,,,,,,,
,health,0.8051049113273621,,,,,,,,
https://scontent-sit4-1.cdninstagram.com/t51.2885-15/e35/10954479_1718040491766724_142073933_n.jpg,bag,0.9925838112831116,,,,,,,,
,luggage,0.9922115802764893,,,,,,,,
,wear,0.9875872135162354,,,,,,,,
,fashion,0.9805440902709961,,,,,,,,
,isolated,0.9790308475494385,,,,,,,,
,"no person",0.9699223041534424,,,,,,,,
,backpack,0.9578298330307007,,,,,,,,
,handle,0.9530263543128967,,,,,,,,
,leather,0.9403417110443115,,,,,,,,
,casual,0.9398896098136902,,,,,,,,
,safety,0.9319367408752441,,,,,,,,
,nylon,0.9284875392913818,,,,,,,,
,case,0.9262514114379883,,,,,,,,
,security,0.9173972606658936,,,,,,,,
,elegant,0.9017163515090942,,,,,,,,
,equipment,0.8814687728881836,,,,,,,,
,protection,0.8765199184417725,,,,,,,,
,accessory,0.8744440078735352,,,,,,,,
,desktop,0.8727432489395142,,,,,,,,
,full,0.8727288246154785,,,,,,,,
https://scontent-sit4-1.cdninstagram.com/t51.2885-15/e35/12797832_234673116879433_1584763695_n.jpg,text,0.9905440807342529,,,,,,,,
,card,0.9525234699249268,,,,,,,,
,desktop,0.9509507417678833,,,,,,,,
,illustration,0.948477566242218,,,,,,,,
,bill,0.948214590549469,,,,,,,,
,definition,0.934465765953064,,,,,,,,
,tag,0.9247944355010986,,,,,,,,
,graphic,0.9195095896720886,,,,,,,,
,cloud,0.9186909794807434,,,,,,,,
,"give voice",0.9089431762695312,,,,,,,,
,typographic,0.901555597782135,,,,,,,,
,label,0.8714467287063599,,,,,,,,
,template,0.8568321466445923,,,,,,,,
,typography,0.8564863204956055,,,,,,,,
,"picture frame",0.8548100590705872,,,,,,,,
,conceptual,0.8543298244476318,,,,,,,,
,abstract,0.8524994850158691,,,,,,,,
,page,0.8453303575515747,,,,,,,,
,tag,0.8450003266334534,,,,,,,,
,data,0.8430250287055969,,,,,,,,
https://scontent-sit4-1.cdninstagram.com/t51.2885-15/e35/13391210_1029297993792080_1871202310_n.jpg,architecture,0.9633282423019409,"My life",Environment,,,Selfie,"Manmade beauty",,
,grave,0.9565026760101318,,,,,,,,
,building,0.9448732137680054,,,,,,,,
,travel,0.940295934677124,,,,,,,,
,stone,0.9266229867935181,,,,,,,,
,religion,0.9256005883216858,,,,,,,,
,tourism,0.9187462329864502,,,,,,,,
,ancient,0.9118704795837402,,,,,,,,
,old,0.9035255908966064,,,,,,,,
,culture,0.8928829431533813,,,,,,,,
,cemetery,0.8920687437057495,,,,,,,,
,people,0.8823672533035278,,,,,,,,
,sculpture,0.8805018663406372,,,,,,,,
,outdoors,0.8798724412918091,,,,,,,,
,art,0.8757627606391907,,,,,,,,
,tourist,0.8704947829246521,,,,,,,,
,monument,0.869566798210144,,,,,,,,
,statue,0.8523164987564087,,,,,,,,
,temple,0.8436514735221863,,,,,,,,
,outside,0.8294552564620972,,,,,,,,
https://scontent-sit4-1.cdninstagram.com/t51.2885-15/e35/13126734_853974974730335_2001815966_n.jpg,child,0.998136043548584,"Fashion & Beauty",Relationships,,,Ootd,"Best friends",,
,cute,0.9890276789665222,,,,,,,,
,little,0.9795210361480713,,,,,,,,
,innocence,0.9623250961303711,,,,,,,,
,girl,0.9529668092727661,,,,,,,,
,fun,0.9446119070053101,,,,,,,,
,pretty,0.9347386360168457,,,,,,,,
,woman,0.9341731667518616,,,,,,,,
,joy,0.9305657744407654,,,,,,,,
,happiness,0.9271670579910278,,,,,,,,
,portrait,0.9178804159164429,,,,,,,,
,wear,0.9048928022384644,,,,,,,,
,young,0.9041159749031067,,,,,,,,
,family,0.8930119276046753,,,,,,,,
,baby,0.8892636895179749,,,,,,,,
,dress,0.8880933523178101,,,,,,,,
,people,0.8649073839187622,,,,,,,,
,love,0.8554234504699707,,,,,,,,
,cheerful,0.8435066938400269,,,,,,,,
,maternity,0.8308722376823425,,,,,,,,
https://scontent-sit4-1.cdninstagram.com/t51.2885-15/e35/13423700_1715312812061822_477203993_n.jpg,illustration,0.9755953550338745,Business,,,,Work,,,
,text,0.9484601020812988,,,,,,,,
,business,0.9344010353088379,,,,,,,,
,vector,0.916691780090332,,,,,,,,
,vector,0.9134286046028137,,,,,,,,
,bill,0.9012136459350586,,,,,,,,
,horizontal,0.886986255645752,,,,,,,,
,communication,0.8744518160820007,,,,,,,,
,adult,0.8583542108535767,,,,,,,,
,desktop,0.8337034583091736,,,,,,,,
,people,0.8310482501983643,,,,,,,,
,internet,0.8297183513641357,,,,,,,,
,technology,0.8233492970466614,,,,,,,,
,"World Wide Web",0.8110784292221069,,,,,,,,
,banner,0.8075490593910217,,,,,,,,
,image,0.7952159643173218,,,,,,,,
,data,0.772146999835968,,,,,,,,
,symbol,0.7720698714256287,,,,,,,,
,data,0.7577994465827942,,,,,,,,
,sign,0.755072832107544,,,,,,,,
https://scontent-sit4-1.cdninstagram.com/t51.2885-15/e35/12940302_834630346662706_633051862_n.jpg,indoors,0.9920787215232849,,,,,,,,
,"no person",0.9896252155303955,,,,,,,,
,contemporary,0.9642294645309448,,,,,,,,
,furniture,0.9169210195541382,,,,,,,,
,"interior design",0.9060571789741516,,,,,,,,
,luxury,0.8913428783416748,,,,,,,,
,empty,0.8265748620033264,,,,,,,,
,horizontal,0.7975336909294128,,,,,,,,
,family,0.7745579481124878,,,,,,,,
,industry,0.753959059715271,,,,,,,,
,service,0.7521877288818359,,,,,,,,
,chair,0.7509832382202148,,,,,,,,
,business,0.7411893606185913,,,,,,,,
,traditional,0.731391429901123,,,,,,,,
,painting,0.7248125672340393,,,,,,,,
,table,0.7068859338760376,,,,,,,,
,danger,0.7030874490737915,,,,,,,,
,shelf,0.7013466358184814,,,,,,,,
,modern,0.690439760684967,,,,,,,,
,broad,0.685184895992279,,,,,,,,
