url,class,score,,,,,,,,
https://scontent-sit4-1.cdninstagram.com/t51.2885-15/s640x640/e15/13736917_1108162345921029_2060199526_n.jpg,restaurant,0.9957795739173889,Food,,,,Self-preparation,,,
,cooking,0.9956091642379761,,,,,,,,
,indoors,0.9945752024650574,,,,,,,,
,counter,0.9929489493370056,,,,,,,,
,food,0.9909284710884094,,,,,,,,
,preparation,0.9880252480506897,,,,,,,,
,chef,0.9861390590667725,,,,,,,,
,oven,0.9815175533294678,,,,,,,,
,stove,0.9724032878875732,,,,,,,,
,table,0.9703589677810669,,,,,,,,
,people,0.969293475151062,,,,,,,,
,kitchenware,0.9611916542053223,,,,,,,,
,service,0.9600039720535278,,,,,,,,
,meal,0.9577572345733643,,,,,,,,
,woman,0.953599750995636,,,,,,,,
,inside,0.9471575617790222,,,,,,,,
,adult,0.9446499347686768,,,,,,,,
,dining,0.9444049596786499,,,,,,,,
,furniture,0.941430926322937,,,,,,,,
,hotel,0.940620481967926,,,,,,,,
https://scontent-sit4-1.cdninstagram.com/t51.2885-15/s750x750/sh0.08/e35/12543363_1531847657144484_713413046_n.jpg,child,0.9966598153114319,,,,,,,,
,togetherness,0.987823486328125,,,,,,,,
,family,0.9723435640335083,,,,,,,,
,woman,0.9644720554351807,,,,,,,,
,two,0.9535388946533203,,,,,,,,
,people,0.9505148530006409,,,,,,,,
,indoors,0.9501385688781738,,,,,,,,
,fun,0.9460632801055908,,,,,,,,
,three,0.931513786315918,,,,,,,,
,happiness,0.9301363229751587,,,,,,,,
,boy,0.9297707676887512,,,,,,,,
,enjoyment,0.9279951453208923,,,,,,,,
,"facial expression",0.9266876578330994,,,,,,,,
,joy,0.9139814376831055,,,,,,,,
,love,0.9137647151947021,,,,,,,,
,laughing,0.9096746444702148,,,,,,,,
,affection,0.9000481367111206,,,,,,,,
,adolescent,0.8966092467308044,,,,,,,,
,man,0.8962627649307251,,,,,,,,
,group,0.8962289094924927,,,,,,,,
https://scontent-sit4-1.cdninstagram.com/t51.2885-15/s750x750/sh0.08/e35/12783378_1694722324148924_473676796_n.jpg,glass,0.9787446856498718,,,,,,,,
,hand,0.964735746383667,,,,,,,,
,health,0.9491545557975769,,,,,,,,
,treatment,0.9255021810531616,,,,,,,,
,glass,0.9194449186325073,,,,,,,,
,drink,0.9189402461051941,,,,,,,,
,woman,0.9131216406822205,,,,,,,,
,medicine,0.9054020643234253,,,,,,,,
,desktop,0.8993105888366699,,,,,,,,
,clean,0.8964079022407532,,,,,,,,
,care,0.8918059468269348,,,,,,,,
,closeup,0.8714426755905151,,,,,,,,
,relaxation,0.8691754341125488,,,,,,,,
,food,0.8628360033035278,,,,,,,,
,healthy,0.8610518574714661,,,,,,,,
,lifestyle,0.8590717911720276,,,,,,,,
,luxury,0.8571878671646118,,,,,,,,
,water,0.8562071323394775,,,,,,,,
,healthcare,0.8376833200454712,,,,,,,,
,medical,0.8287415504455566,,,,,,,,
https://scontent-sit4-1.cdninstagram.com/t51.2885-15/e15/13248978_1620336888282269_1193591711_n.jpg,people,0.9959005117416382,Relationships,,,,"Best friends",,,
,adult,0.9852094650268555,,,,,,,,
,one,0.9761357307434082,,,,,,,,
,child,0.9689744114875793,,,,,,,,
,indoors,0.9645651578903198,,,,,,,,
,container,0.9490041732788086,,,,,,,,
,education,0.9385694265365601,,,,,,,,
,furniture,0.9350958466529846,,,,,,,,
,room,0.931626558303833,,,,,,,,
,woman,0.9281999468803406,,,,,,,,
,wear,0.9209212064743042,,,,,,,,
,painting,0.9161986112594604,,,,,,,,
,group,0.9154441952705383,,,,,,,,
,two,0.9074010848999023,,,,,,,,
,man,0.8949766159057617,,,,,,,,
,school,0.8915140628814697,,,,,,,,
,portrait,0.8860498666763306,,,,,,,,
,family,0.8603698015213013,,,,,,,,
,table,0.8588207960128784,,,,,,,,
,boy,0.8351070880889893,,,,,,,,
https://scontent-sit4-1.cdninstagram.com/t51.2885-15/e35/13658667_1313038268724979_1680131879_n.jpg,coffee,0.9998958706855774,Food,,,,"Drinks and snack",,,
,cup,0.9958391189575195,,,,,,,,
,drink,0.9940749406814575,,,,,,,,
,cappuccino,0.9927172660827637,,,,,,,,
,espresso,0.9926992058753967,,,,,,,,
,caffeine,0.983163595199585,,,,,,,,
,tea,0.9812002182006836,,,,,,,,
,table,0.9770231246948242,,,,,,,,
,dawn,0.9707210659980774,,,,,,,,
,mug,0.9543399214744568,,,,,,,,
,"no person",0.9537570476531982,,,,,,,,
,"coffee cup",0.9513919353485107,,,,,,,,
,indoors,0.949442982673645,,,,,,,,
,breakfast,0.9465385675430298,,,,,,,,
,restaurant,0.9390948414802551,,,,,,,,
,cafeteria,0.9364547729492188,,,,,,,,
,hot,0.9359338283538818,,,,,,,,
,wood,0.9130605459213257,,,,,,,,
,chair,0.8835501074790955,,,,,,,,
,bar,0.869248628616333,,,,,,,,
https://scontent-sit4-1.cdninstagram.com/t51.2885-15/s750x750/sh0.08/e35/13704121_1802464216653147_1010666497_n.jpg,togetherness,0.9819393157958984,Relationships,,,,"Best friends",,,
,woman,0.980999231338501,,,,,,,,
,people,0.9777258038520813,,,,,,,,
,fun,0.977625846862793,,,,,,,,
,portrait,0.9729825258255005,,,,,,,,
,girl,0.9727568626403809,,,,,,,,
,friendship,0.9683195352554321,,,,,,,,
,two,0.9681813716888428,,,,,,,,
,"facial expression",0.9580405354499817,,,,,,,,
,love,0.9579795598983765,,,,,,,,
,laughing,0.9431028962135315,,,,,,,,
,happiness,0.9383862018585205,,,,,,,,
,family,0.9327243566513062,,,,,,,,
,joy,0.9292891025543213,,,,,,,,
,man,0.9283241033554077,,,,,,,,
,enjoyment,0.9247686862945557,,,,,,,,
,child,0.9212712049484253,,,,,,,,
,smile,0.9020852446556091,,,,,,,,
,boy,0.8998258113861084,,,,,,,,
,indoors,0.8884257078170776,,,,,,,,
https://scontent-sit4-1.cdninstagram.com/t51.2885-15/e35/12552435_1171586569521083_2097292105_n.jpg,"no person",0.9939119219779968,Food,,,,"Drinks and snack",,,
,milk,0.9925733804702759,,,,,,,,
,cup,0.9907559752464294,,,,,,,,
,coffee,0.987662672996521,,,,,,,,
,cream,0.9856923818588257,,,,,,,,
,hot,0.9796596765518188,,,,,,,,
,drink,0.978154182434082,,,,,,,,
,breakfast,0.9710999727249146,,,,,,,,
,food,0.9709453582763672,,,,,,,,
,dawn,0.9683101177215576,,,,,,,,
,cappuccino,0.9426497220993042,,,,,,,,
,caffeine,0.942221999168396,,,,,,,,
,foam,0.9390947222709656,,,,,,,,
,espresso,0.9294959306716919,,,,,,,,
,mug,0.9228217601776123,,,,,,,,
,"still life",0.9224563837051392,,,,,,,,
,creamy,0.9203689098358154,,,,,,,,
,spoon,0.9070138335227966,,,,,,,,
,pudding,0.9050296545028687,,,,,,,,
,tea,0.9012490510940552,,,,,,,,
https://scontent-sit4-1.cdninstagram.com/t51.2885-15/s750x750/sh0.08/e35/12751033_916818681750464_780776428_n.jpg,child,0.9972976446151733,"Fashion & Beauty",,,,Ootd,,,
,girl,0.9863408207893372,,,,,,,,
,fun,0.9743198752403259,,,,,,,,
,little,0.9740684032440186,,,,,,,,
,cute,0.9507797360420227,,,,,,,,
,sport,0.902899980545044,,,,,,,,
,active,0.9020651578903198,,,,,,,,
,smile,0.901915431022644,,,,,,,,
,toy,0.8958884477615356,,,,,,,,
,family,0.8918170928955078,,,,,,,,
,baby,0.8849025964736938,,,,,,,,
,young,0.8828205466270447,,,,,,,,
,people,0.8707141876220703,,,,,,,,
,recreation,0.870145857334137,,,,,,,,
,boy,0.8699685335159302,,,,,,,,
,person,0.8576624989509583,,,,,,,,
,exercise,0.8545278310775757,,,,,,,,
,play,0.8443204164505005,,,,,,,,
,love,0.8400818109512329,,,,,,,,
,fashion,0.8287578821182251,,,,,,,,
https://scontent-sit4-1.cdninstagram.com/t51.2885-15/s640x640/sh0.08/e35/13556857_814482368652456_1653408162_n.jpg,food,0.9980260133743286,Food,,,,"Meal time",,,
,"no person",0.9901472926139832,,,,,,,,
,meal,0.9853144884109497,,,,,,,,
,dinner,0.9849432110786438,,,,,,,,
,meat,0.9846392869949341,,,,,,,,
,dish,0.9841232895851135,,,,,,,,
,vegetable,0.976368248462677,,,,,,,,
,chicken,0.9738888144493103,,,,,,,,
,poultry,0.9680899977684021,,,,,,,,
,sauce,0.967524528503418,,,,,,,,
,lunch,0.9664595127105713,,,,,,,,
,cuisine,0.9659507274627686,,,,,,,,
,cooking,0.9596754908561707,,,,,,,,
,grow,0.9588838219642639,,,,,,,,
,hot,0.9588063955307007,,,,,,,,
,plate,0.9578648209571838,,,,,,,,
,delicious,0.9540396928787231,,,,,,,,
,restaurant,0.9439023733139038,,,,,,,,
,pork,0.937055230140686,,,,,,,,
,pepper,0.9226915836334229,,,,,,,,
https://scontent-sit4-1.cdninstagram.com/t51.2885-15/s750x750/sh0.08/e35/13731191_1723323197935684_1352716549_n.jpg,chocolate,0.9959760904312134,Food,,,,Dessert,,,
,"no person",0.9945856332778931,,,,,,,,
,sugar,0.9924026131629944,,,,,,,,
,delicious,0.9917793869972229,,,,,,,,
,sweet,0.9899164438247681,,,,,,,,
,baking,0.9725699424743652,,,,,,,,
,homemade,0.9723650217056274,,,,,,,,
,dark,0.9720439910888672,,,,,,,,
,cream,0.9672369956970215,,,,,,,,
,indulgence,0.967089056968689,,,,,,,,
,cake,0.9634483456611633,,,,,,,,
,food,0.9620082378387451,,,,,,,,
,brownie,0.9536380171775818,,,,,,,,
,temptation,0.9452716708183289,,,,,,,,
,"chocolate cake",0.9213678240776062,,,,,,,,
,candy,0.9200835824012756,,,,,,,,
,plate,0.9031285643577576,,,,,,,,
,unhealthy,0.8998416662216187,,,,,,,,
,pastry,0.8948553800582886,,,,,,,,
,fudge,0.8901921510696411,,,,,,,,
https://scontent-sit4-1.cdninstagram.com/t51.2885-15/e35/12501809_254924281509081_1806876777_n.jpg,food,0.9925934076309204,Food,,,,"Drinks and snack",,,
,"no person",0.9773666858673096,,,,,,,,
,table,0.9543379545211792,,,,,,,,
,restaurant,0.9507614374160767,,,,,,,,
,people,0.9392143487930298,,,,,,,,
,grow,0.9362788200378418,,,,,,,,
,fruit,0.9066179990768433,,,,,,,,
,drink,0.8980820178985596,,,,,,,,
,coffee,0.895668625831604,,,,,,,,
,indoors,0.8874022364616394,,,,,,,,
,market,0.8851819038391113,,,,,,,,
,celebration,0.8766975402832031,,,,,,,,
,delicious,0.8703521490097046,,,,,,,,
,"still life",0.8596503734588623,,,,,,,,
,cake,0.8550227284431458,,,,,,,,
,group,0.8487534523010254,,,,,,,,
,sugar,0.8461710810661316,,,,,,,,
,dining,0.8429974317550659,,,,,,,,
,party,0.8420261740684509,,,,,,,,
,meal,0.839319109916687,,,,,,,,
https://scontent-sit4-1.cdninstagram.com/t51.2885-15/s750x750/sh0.08/e35/12783322_1093019254095962_1308897782_n.jpg,people,0.9919297695159912,Relationships,,,,"Best friends",,,
,woman,0.9762532711029053,,,,,,,,
,group,0.9640380144119263,,,,,,,,
,portrait,0.9625955820083618,,,,,,,,
,adult,0.9497901201248169,,,,,,,,
,girl,0.9414057731628418,,,,,,,,
,stock,0.9321516156196594,,,,,,,,
,shopping,0.913665771484375,,,,,,,,
,happiness,0.9106588363647461,,,,,,,,
,child,0.9081622362136841,,,,,,,,
,man,0.9033834934234619,,,,,,,,
,wear,0.9018320441246033,,,,,,,,
,fun,0.891524612903595,,,,,,,,
,festival,0.8769863843917847,,,,,,,,
,enjoyment,0.8686859607696533,,,,,,,,
,"facial expression",0.8599234819412231,,,,,,,,
,many,0.8459331393241882,,,,,,,,
,indoors,0.8381487131118774,,,,,,,,
,school,0.8017529249191284,,,,,,,,
,family,0.799353837966919,,,,,,,,
https://scontent-sit4-1.cdninstagram.com/t51.2885-15/e35/13643114_1746108298936300_527307014_n.jpg,people,0.964881181716919,"My life","Fun Filter",,,Selfie,"Fun Filter",,
,child,0.9608391523361206,,,,,,,,
,fun,0.9241917133331299,,,,,,,,
,adult,0.9047938585281372,,,,,,,,
,indoors,0.9025290012359619,,,,,,,,
,portrait,0.8949438333511353,,,,,,,,
,woman,0.8852535486221313,,,,,,,,
,"facial expression",0.8363989591598511,,,,,,,,
,cute,0.816128671169281,,,,,,,,
,education,0.8085424900054932,,,,,,,,
,man,0.8051084280014038,,,,,,,,
,adolescent,0.7986017465591431,,,,,,,,
,one,0.7895187139511108,,,,,,,,
,toy,0.7800066471099854,,,,,,,,
,enjoyment,0.7774658203125,,,,,,,,
,wear,0.7725067138671875,,,,,,,,
,music,0.7587641477584839,,,,,,,,
,happiness,0.7480155229568481,,,,,,,,
,girl,0.7398853898048401,,,,,,,,
,family,0.7383599877357483,,,,,,,,
https://scontent-sit4-1.cdninstagram.com/t51.2885-15/e35/13260983_1728402920782100_881507128_n.jpg,group,0.9963998198509216,Relationships,Food,,,Friends,"Drinks and snack",,
,group,0.9940245151519775,,,,,,,,
,woman,0.9891505241394043,,,,,,,,
,four,0.9739198088645935,,,,,,,,
,friendship,0.9666076898574829,,,,,,,,
,table,0.9608534574508667,,,,,,,,
,restaurant,0.9453158378601074,,,,,,,,
,adult,0.9449976682662964,,,,,,,,
,people,0.9324924945831299,,,,,,,,
,man,0.9318339824676514,,,,,,,,
,five,0.9087711572647095,,,,,,,,
,laughing,0.907162070274353,,,,,,,,
,indoors,0.9069582223892212,,,,,,,,
,togetherness,0.9054977297782898,,,,,,,,
,multicultural,0.9025176763534546,,,,,,,,
,sit,0.9015359282493591,,,,,,,,
,enjoyment,0.9001597166061401,,,,,,,,
,many,0.8861637115478516,,,,,,,,
,bar,0.8607914447784424,,,,,,,,
,room,0.8547341823577881,,,,,,,,
https://scontent-sit4-1.cdninstagram.com/t51.2885-15/e35/13413180_692520987553644_155856812_n.jpg,people,0.9910330772399902,Relationships,"Fashion & Beauty",,,Friends,Ootd,,
,street,0.9711359739303589,,,,,,,,
,adult,0.9598026275634766,,,,,,,,
,woman,0.9470160603523254,,,,,,,,
,city,0.9442845582962036,,,,,,,,
,commerce,0.9409168362617493,,,,,,,,
,girl,0.9404088258743286,,,,,,,,
,tube,0.9333784580230713,,,,,,,,
,light,0.9217631816864014,,,,,,,,
,indoors,0.9200088977813721,,,,,,,,
,train,0.9156817197799683,,,,,,,,
,portrait,0.9147661924362183,,,,,,,,
,motion,0.9111225008964539,,,,,,,,
,man,0.9023367166519165,,,,,,,,
,stock,0.8993388414382935,,,,,,,,
,business,0.895315945148468,,,,,,,,
,two,0.8902683258056641,,,,,,,,
,group,0.8748892545700073,,,,,,,,
,bar,0.8740153312683105,,,,,,,,
,airport,0.8666993379592896,,,,,,,,
https://scontent-sit4-1.cdninstagram.com/t51.2885-15/e35/13696864_1784711695092398_2081056686_n.jpg,cake,0.9982936382293701,Food,,,,Dessert,,,
,cream,0.9954742193222046,,,,,,,,
,sweet,0.9946632981300354,,,,,,,,
,"no person",0.9921588897705078,,,,,,,,
,pastry,0.9899804592132568,,,,,,,,
,delicious,0.9892226457595825,,,,,,,,
,sugar,0.9858089685440063,,,,,,,,
,baking,0.9836698770523071,,,,,,,,
,berry,0.9823086261749268,,,,,,,,
,bakery,0.9802812337875366,,,,,,,,
,creamy,0.9747543334960938,,,,,,,,
,tart,0.9725058674812317,,,,,,,,
,chocolate,0.9704759120941162,,,,,,,,
,birthday,0.9693115949630737,,,,,,,,
,strawberry,0.9588887691497803,,,,,,,,
,pie,0.9577563405036926,,,,,,,,
,candy,0.9492659568786621,,,,,,,,
,torte,0.9430677890777588,,,,,,,,
,mousse,0.9419046640396118,,,,,,,,
,goody,0.9374122023582458,,,,,,,,
https://scontent-sit4-1.cdninstagram.com/t51.2885-15/e35/12912321_858358460975948_1493012715_n.jpg,"no person",0.9781724214553833,Recreation,,,,Beach,,,
,travel,0.9694178700447083,,,,,,,,
,architecture,0.9466884136199951,,,,,,,,
,water,0.944251298904419,,,,,,,,
,luxury,0.944105863571167,,,,,,,,
,chair,0.9438470602035522,,,,,,,,
,beach,0.9428482055664062,,,,,,,,
,outdoors,0.9349077343940735,,,,,,,,
,summer,0.9307641983032227,,,,,,,,
,contemporary,0.921855092048645,,,,,,,,
,"fair weather",0.9180206656455994,,,,,,,,
,relaxation,0.908357560634613,,,,,,,,
,sky,0.9070137739181519,,,,,,,,
,vacation,0.8998011350631714,,,,,,,,
,sand,0.886422872543335,,,,,,,,
,sea,0.8837426900863647,,,,,,,,
,sun,0.87519371509552,,,,,,,,
,recreation,0.8644059896469116,,,,,,,,
,leisure,0.8642150163650513,,,,,,,,
,family,0.8471087217330933,,,,,,,,
https://scontent-sit4-1.cdninstagram.com/t51.2885-15/e35/13423590_256200814744949_1507102307_n.jpg,woman,0.990282416343689,Relationships,Food,,,Friends,"Meal time",,
,table,0.9884251356124878,,,,,,,,
,restaurant,0.9872556328773499,,,,,,,,
,adult,0.9760839343070984,,,,,,,,
,people,0.9602787494659424,,,,,,,,
,furniture,0.9598070383071899,,,,,,,,
,room,0.9548578262329102,,,,,,,,
,indoors,0.9506216049194336,,,,,,,,
,group,0.9400346279144287,,,,,,,,
,coffee,0.9397655725479126,,,,,,,,
,employee,0.9288773536682129,,,,,,,,
,happiness,0.927060604095459,,,,,,,,
,sit,0.924287736415863,,,,,,,,
,drink,0.9241458177566528,,,,,,,,
,togetherness,0.9217223525047302,,,,,,,,
,"facial expression",0.9172217845916748,,,,,,,,
,bar,0.9164315462112427,,,,,,,,
,friendship,0.9140677452087402,,,,,,,,
,dining,0.8996264338493347,,,,,,,,
,group,0.8936261534690857,,,,,,,,
https://scontent-sit4-1.cdninstagram.com/t51.2885-15/e35/13381108_141225552955312_1680389937_n.jpg,ice,0.999444842338562,Food,,,,"Drinks and snack",,,
,cold,0.997912585735321,,,,,,,,
,cocktail,0.996846616268158,,,,,,,,
,fruit,0.9936469793319702,,,,,,,,
,glass,0.9934730529785156,,,,,,,,
,mint,0.9926818013191223,,,,,,,,
,juice,0.9926180839538574,,,,,,,,
,sweet,0.9903402328491211,,,,,,,,
,drink,0.9870139956474304,,,,,,,,
,summer,0.9863337278366089,,,,,,,,
,strawberry,0.9847087264060974,,,,,,,,
,food,0.9829093813896179,,,,,,,,
,refreshment,0.9757001399993896,,,,,,,,
,cream,0.9719893932342529,,,,,,,,
,sugar,0.9712541103363037,,,,,,,,
,pineapple,0.9710414409637451,,,,,,,,
,delicious,0.9705902338027954,,,,,,,,
,smoothie,0.9667365550994873,,,,,,,,
,cool,0.9662864804267883,,,,,,,,
,milk,0.9598307609558105,,,,,,,,
https://scontent-sit4-1.cdninstagram.com/t51.2885-15/e35/13092323_1278480658836047_913012708_n.jpg,footwear,0.9990307092666626,,,,,,,,
,leather,0.998842179775238,,,,,,,,
,foot,0.997903048992157,,,,,,,,
,shoe,0.9958198070526123,,,,,,,,
,fashion,0.9953293800354004,,,,,,,,
,wear,0.9931964874267578,,,,,,,,
,couple,0.9800897836685181,,,,,,,,
,elegant,0.9787372350692749,,,,,,,,
,fashionable,0.9779306650161743,,,,,,,,
,style,0.9703410267829895,,,,,,,,
,woman,0.9697716236114502,,,,,,,,
,luxury,0.9690431356430054,,,,,,,,
,two,0.9668247699737549,,,,,,,,
,sole,0.962131679058075,,,,,,,,
,stiletto,0.9478549361228943,,,,,,,,
,classic,0.9463385939598083,,,,,,,,
,high,0.9424400329589844,,,,,,,,
,color,0.9193507432937622,,,,,,,,
,modern,0.919008195400238,,,,,,,,
,accessory,0.9092522263526917,,,,,,,,
https://scontent-sit4-1.cdninstagram.com/t51.2885-15/e35/12965288_895574843895434_1638161251_n.jpg,"no person",0.9775325059890747,Food,,,,"Drinks and snack",,,
,business,0.974887490272522,,,,,,,,
,paper,0.9709802269935608,,,,,,,,
,money,0.9591907858848572,,,,,,,,
,wealth,0.9560977220535278,,,,,,,,
,money,0.9381444454193115,,,,,,,,
,finance,0.9286206364631653,,,,,,,,
,people,0.91056227684021,,,,,,,,
,text,0.9037131071090698,,,,,,,,
,success,0.9029535055160522,,,,,,,,
,finance,0.9008623957633972,,,,,,,,
,one,0.8948169946670532,,,,,,,,
,financial,0.8800150156021118,,,,,,,,
,dollar,0.8642019033432007,,,,,,,,
,savings,0.8527990579605103,,,,,,,,
,retro,0.846886157989502,,,,,,,,
,coffee,0.8449148535728455,,,,,,,,
,old,0.8411496877670288,,,,,,,,
,vertical,0.8154184818267822,,,,,,,,
,sign,0.8016040325164795,,,,,,,,
https://scontent-sit4-1.cdninstagram.com/t51.2885-15/e35/13636261_833602430073723_193345876_n.jpg,indoors,0.992212176322937,Environment,,,,"Manmade beauty",,,
,"no person",0.9743542671203613,,,,,,,,
,business,0.9739196300506592,,,,,,,,
,architecture,0.9728965759277344,,,,,,,,
,window,0.9583446979522705,,,,,,,,
,city,0.948375940322876,,,,,,,,
,light,0.9481488466262817,,,,,,,,
,travel,0.9420208930969238,,,,,,,,
,contemporary,0.935340404510498,,,,,,,,
,hotel,0.9247766733169556,,,,,,,,
,room,0.9220849275588989,,,,,,,,
,modern,0.9043508172035217,,,,,,,,
,stock,0.9034759998321533,,,,,,,,
,"interior design",0.8785736560821533,,,,,,,,
,furniture,0.8684015274047852,,,,,,,,
,building,0.866107702255249,,,,,,,,
,museum,0.8615165948867798,,,,,,,,
,illuminated,0.86054927110672,,,,,,,,
,"transportation system",0.8400195837020874,,,,,,,,
,luxury,0.8298631310462952,,,,,,,,
https://scontent-sit4-1.cdninstagram.com/t51.2885-15/e35/12907360_597434383756797_619802948_n.jpg,people,0.9693983793258667,Relationships,,,,Friends,,,
,shopping,0.9689686298370361,,,,,,,,
,city,0.953966498374939,,,,,,,,
,festival,0.9453896284103394,,,,,,,,
,street,0.9274970293045044,,,,,,,,
,woman,0.9242250919342041,,,,,,,,
,mall,0.914731502532959,,,,,,,,
,stock,0.9131033420562744,,,,,,,,
,event,0.9103348255157471,,,,,,,,
,crowd,0.9070918560028076,,,,,,,,
,many,0.897931694984436,,,,,,,,
,shop,0.8910918831825256,,,,,,,,
,exhibition,0.8831897974014282,,,,,,,,
,culture,0.8809375762939453,,,,,,,,
,wear,0.8715788125991821,,,,,,,,
,tourist,0.870157778263092,,,,,,,,
,market,0.8573994636535645,,,,,,,,
,man,0.840508759021759,,,,,,,,
,show,0.8382081985473633,,,,,,,,
,group,0.8335523009300232,,,,,,,,
https://scontent-sit4-1.cdninstagram.com/t51.2885-15/e35/12940118_140362146367219_1951041165_n.jpg,wear,0.9998022317886353,,,,,,,,
,footwear,0.9997460842132568,,,,,,,,
,fashion,0.9997444152832031,,,,,,,,
,foot,0.9990416765213013,,,,,,,,
,shoe,0.9980250597000122,,,,,,,,
,leather,0.9975565671920776,,,,,,,,
,couple,0.9972991943359375,,,,,,,,
,casual,0.9946773052215576,,,,,,,,
,two,0.9921284317970276,,,,,,,,
,sandal,0.991744875907898,,,,,,,,
,woman,0.9913825392723083,,,,,,,,
,sole,0.9913419485092163,,,,,,,,
,stiletto,0.9903486371040344,,,,,,,,
,accessory,0.9898192882537842,,,,,,,,
,fashionable,0.9880149364471436,,,,,,,,
,style,0.9876401424407959,,,,,,,,
,color,0.9856780171394348,,,,,,,,
,elegant,0.9846957921981812,,,,,,,,
,high,0.9842572808265686,,,,,,,,
,glamour,0.982412576675415,,,,,,,,
https://scontent-sit4-1.cdninstagram.com/t51.2885-15/e35/13557149_1063898107013228_205033445_n.jpg,footwear,0.9926888346672058,,,,,,,,
,leather,0.9917582273483276,,,,,,,,
,shoe,0.9853847026824951,,,,,,,,
,fashion,0.9834519624710083,,,,,,,,
,woman,0.9831581711769104,,,,,,,,
,foot,0.9684189558029175,,,,,,,,
,elegant,0.9491782188415527,,,,,,,,
,sexy,0.9486804008483887,,,,,,,,
,girl,0.9461796283721924,,,,,,,,
,glamour,0.9435648918151855,,,,,,,,
,people,0.9434641599655151,,,,,,,,
,wear,0.9363787770271301,,,,,,,,
,shining,0.9316178560256958,,,,,,,,
,classic,0.9314709305763245,,,,,,,,
,style,0.916020929813385,,,,,,,,
,street,0.9123355746269226,,,,,,,,
,vintage,0.9072557687759399,,,,,,,,
,adult,0.895298957824707,,,,,,,,
,luxury,0.8890209197998047,,,,,,,,
,"no person",0.8827447891235352,,,,,,,,
https://scontent-sit4-1.cdninstagram.com/t51.2885-15/e35/12912811_1527150060926137_1160703544_n.jpg,woman,0.9878395795822144,Relationships,Food,,,Friends,"Meal time",,
,people,0.9817302823066711,,,,,,,,
,family,0.977898359298706,,,,,,,,
,group,0.9747549295425415,,,,,,,,
,"facial expression",0.9729677438735962,,,,,,,,
,adult,0.964286744594574,,,,,,,,
,room,0.9557521343231201,,,,,,,,
,child,0.9500672221183777,,,,,,,,
,man,0.9485483765602112,,,,,,,,
,indoors,0.9464505910873413,,,,,,,,
,togetherness,0.9381179809570312,,,,,,,,
,four,0.9377644658088684,,,,,,,,
,enjoyment,0.9364759922027588,,,,,,,,
,happiness,0.9349403381347656,,,,,,,,
,girl,0.9298631548881531,,,,,,,,
,furniture,0.9265509843826294,,,,,,,,
,table,0.9171936511993408,,,,,,,,
,portrait,0.9094669222831726,,,,,,,,
,boy,0.905623197555542,,,,,,,,
,offspring,0.8959336876869202,,,,,,,,
https://scontent-sit4-1.cdninstagram.com/t51.2885-15/e35/13269440_1117597091644639_597977126_n.jpg,woman,0.991431713104248,"My life",Food,,,Selfie,"Meal time",,
,enjoyment,0.9890869855880737,,,,,,,,
,people,0.988512396812439,,,,,,,,
,indoors,0.987382709980011,,,,,,,,
,"facial expression",0.9757668972015381,,,,,,,,
,child,0.967922568321228,,,,,,,,
,fun,0.9389182329177856,,,,,,,,
,adult,0.9182512760162354,,,,,,,,
,adolescent,0.9149697422981262,,,,,,,,
,restaurant,0.9119524359703064,,,,,,,,
,coffee,0.9116473197937012,,,,,,,,
,two,0.9100422263145447,,,,,,,,
,furniture,0.9088544845581055,,,,,,,,
,sit,0.8823965191841125,,,,,,,,
,one,0.8811057806015015,,,,,,,,
,table,0.8809760808944702,,,,,,,,
,meal,0.8804210424423218,,,,,,,,
,food,0.8686787486076355,,,,,,,,
,family,0.85906982421875,,,,,,,,
,togetherness,0.8559104204177856,,,,,,,,
https://scontent-sit4-1.cdninstagram.com/t51.2885-15/e35/12912638_999162223465460_2096771477_n.jpg,exhibition,0.9797718524932861,"Fashion & Beauty",Relationships,"My life",,Ootd,Friends,Selfie,
,people,0.9583261013031006,,,,,,,,
,woman,0.9567793607711792,,,,,,,,
,commerce,0.9422311782836914,,,,,,,,
,coffee,0.9159295558929443,,,,,,,,
,shopping,0.9121521711349487,,,,,,,,
,carnival,0.9048051834106445,,,,,,,,
,festival,0.8924785852432251,,,,,,,,
,stock,0.8905550241470337,,,,,,,,
,group,0.8852633237838745,,,,,,,,
,wear,0.8739864230155945,,,,,,,,
,competition,0.8675394654273987,,,,,,,,
,education,0.8549721837043762,,,,,,,,
,city,0.853516697883606,,,,,,,,
,child,0.8290404677391052,,,,,,,,
,editorial,0.8223105669021606,,,,,,,,
,school,0.8222329020500183,,,,,,,,
,convention,0.8149987459182739,,,,,,,,
,singer,0.810582160949707,,,,,,,,
,many,0.8076200485229492,,,,,,,,
https://scontent-sit4-1.cdninstagram.com/t51.2885-15/e35/13129683_841794232619077_53876438_n.jpg,desktop,0.9388307332992554,,,,,,,,
,text,0.9365819692611694,,,,,,,,
,card,0.9288797378540039,,,,,,,,
,celebration,0.9199260473251343,,,,,,,,
,bill,0.9129233360290527,,,,,,,,
,illustration,0.9107855558395386,,,,,,,,
,symbol,0.9100216031074524,,,,,,,,
,festival,0.903075098991394,,,,,,,,
,design,0.900012731552124,,,,,,,,
,decoration,0.8657866716384888,,,,,,,,
,"no person",0.8556618094444275,,,,,,,,
,art,0.8533526659011841,,,,,,,,
,banner,0.8482398390769958,,,,,,,,
,graphic,0.8389325141906738,,,,,,,,
,sign,0.82819002866745,,,,,,,,
,Christmas,0.8128728866577148,,,,,,,,
,music,0.8073561191558838,,,,,,,,
,party,0.7992371320724487,,,,,,,,
,vector,0.795147180557251,,,,,,,,
,typography,0.7891546487808228,,,,,,,,
https://scontent-sit4-1.cdninstagram.com/t51.2885-15/e35/12749860_1016669935071664_421381970_n.jpg,people,0.9838767051696777,Relationships,,,,"Best friends",,,
,movie,0.9753537178039551,,,,,,,,
,child,0.9686053991317749,,,,,,,,
,wear,0.9471340179443359,,,,,,,,
,festival,0.9438529014587402,,,,,,,,
,fun,0.9378609657287598,,,,,,,,
,woman,0.9317979216575623,,,,,,,,
,family,0.9316246509552002,,,,,,,,
,celebration,0.9277627468109131,,,,,,,,
,portrait,0.9256160855293274,,,,,,,,
,two,0.9069863557815552,,,,,,,,
,man,0.9000297784805298,,,,,,,,
,group,0.8978699445724487,,,,,,,,
,exhibition,0.8776780962944031,,,,,,,,
,adult,0.8671701550483704,,,,,,,,
,girl,0.8656721115112305,,,,,,,,
,pride,0.8558435440063477,,,,,,,,
,recreation,0.8542209267616272,,,,,,,,
,costume,0.8531712889671326,,,,,,,,
,happiness,0.8510530591011047,,,,,,,,
https://scontent-sit4-1.cdninstagram.com/t51.2885-15/e35/12935095_1883112378582508_434200811_n.jpg,people,0.9956722855567932,Relationships,"Fashion & Beauty",,,Friends,Ootd,,
,group,0.9934319853782654,,,,,,,,
,woman,0.9792463183403015,,,,,,,,
,adult,0.9684178829193115,,,,,,,,
,many,0.9593977928161621,,,,,,,,
,religion,0.9569060802459717,,,,,,,,
,music,0.941527247428894,,,,,,,,
,ceremony,0.9284886121749878,,,,,,,,
,portrait,0.9270973205566406,,,,,,,,
,performance,0.9204574227333069,,,,,,,,
,wear,0.9197866916656494,,,,,,,,
,man,0.9187711477279663,,,,,,,,
,several,0.9176433086395264,,,,,,,,
,school,0.9175187349319458,,,,,,,,
,education,0.9166761040687561,,,,,,,,
,commerce,0.9104647040367126,,,,,,,,
,election,0.9043065309524536,,,,,,,,
,festival,0.9033445119857788,,,,,,,,
,exhibition,0.8984040021896362,,,,,,,,
,leader,0.8921107053756714,,,,,,,,
https://scontent-sit4-1.cdninstagram.com/t51.2885-15/e35/12818932_240695489601332_348078853_n.jpg,group,0.9972442388534546,Relationships,Food,,,Friends,"Meal time","Drinks and snack",
,people,0.9892518520355225,,,,,,,,
,group,0.9880712032318115,,,,,,,,
,friendship,0.9833394289016724,,,,,,,,
,portrait,0.9707310199737549,,,,,,,,
,woman,0.9684278964996338,,,,,,,,
,"facial expression",0.9676185846328735,,,,,,,,
,four,0.965044379234314,,,,,,,,
,man,0.9545339941978455,,,,,,,,
,laughing,0.9495027661323547,,,,,,,,
,adult,0.9375113248825073,,,,,,,,
,fun,0.9309202432632446,,,,,,,,
,happiness,0.9307801723480225,,,,,,,,
,child,0.929916262626648,,,,,,,,
,many,0.9251916408538818,,,,,,,,
,three,0.9251106977462769,,,,,,,,
,togetherness,0.9247043132781982,,,,,,,,
,boy,0.9245799779891968,,,,,,,,
,enjoyment,0.9112857580184937,,,,,,,,
,family,0.896607518196106,,,,,,,,
https://scontent-sit4-1.cdninstagram.com/t51.2885-15/e35/13256777_1040894692670427_1345224152_n.jpg,shoe,0.9994716644287109,,,,,,,,
,fashion,0.9994644522666931,,,,,,,,
,footwear,0.9992021918296814,,,,,,,,
,foot,0.9969972372055054,,,,,,,,
,leather,0.9960553646087646,,,,,,,,
,elegant,0.9949525594711304,,,,,,,,
,high,0.9936550259590149,,,,,,,,
,sandal,0.9933645129203796,,,,,,,,
,stiletto,0.9925320148468018,,,,,,,,
,couple,0.9910386800765991,,,,,,,,
,glamour,0.9905513525009155,,,,,,,,
,wear,0.9859800338745117,,,,,,,,
,shining,0.9858034253120422,,,,,,,,
,woman,0.980027437210083,,,,,,,,
,classic,0.9747415781021118,,,,,,,,
,two,0.9678099751472473,,,,,,,,
,sole,0.9656977653503418,,,,,,,,
,casual,0.9628616571426392,,,,,,,,
,"no person",0.9572830200195312,,,,,,,,
,sexy,0.9542393684387207,,,,,,,,
https://scontent-sit4-1.cdninstagram.com/t51.2885-15/e35/13696511_171435926608545_1535565326_n.jpg,food,0.9931880235671997,Business,Food,,,Work,"Meal time",,
,"no person",0.9807671308517456,,,,,,,,
,restaurant,0.975495457649231,,,,,,,,
,table,0.941999077796936,,,,,,,,
,meal,0.9373021125793457,,,,,,,,
,dinner,0.9363453388214111,,,,,,,,
,cooking,0.9084011316299438,,,,,,,,
,vegetable,0.8909467458724976,,,,,,,,
,meat,0.8881971836090088,,,,,,,,
,lunch,0.8819072246551514,,,,,,,,
,dining,0.8654506802558899,,,,,,,,
,cuisine,0.8571205139160156,,,,,,,,
,noodles,0.8467426300048828,,,,,,,,
,dish,0.8430087566375732,,,,,,,,
,grow,0.7918959259986877,,,,,,,,
,traditional,0.7912991046905518,,,,,,,,
,indoors,0.7723031640052795,,,,,,,,
,hot,0.7607348561286926,,,,,,,,
,delicious,0.7099134922027588,,,,,,,,
,chicken,0.6674155592918396,,,,,,,,
https://scontent-sit4-1.cdninstagram.com/t51.2885-15/e35/13741086_1040864289331141_1455125430_n.jpg,restaurant,0.9878790378570557,Relationships,Food,,,Friends,Dessert,,
,bar,0.9814656972885132,,,,,,,,
,group,0.978198766708374,,,,,,,,
,people,0.9699617624282837,,,,,,,,
,stock,0.9522523283958435,,,,,,,,
,woman,0.9481697082519531,,,,,,,,
,music,0.947150468826294,,,,,,,,
,exhibition,0.9396450519561768,,,,,,,,
,portrait,0.9379194974899292,,,,,,,,
,friendship,0.9242870211601257,,,,,,,,
,musician,0.9212034940719604,,,,,,,,
,man,0.9188134074211121,,,,,,,,
,performance,0.9184510707855225,,,,,,,,
,festival,0.9182480573654175,,,,,,,,
,fun,0.894852340221405,,,,,,,,
,adult,0.8829920291900635,,,,,,,,
,enjoyment,0.880795419216156,,,,,,,,
,happiness,0.8794440031051636,,,,,,,,
,party,0.8789815902709961,,,,,,,,
,coffee,0.877618670463562,,,,,,,,
https://scontent-sit4-1.cdninstagram.com/t51.2885-15/e35/13398595_602009396636685_1159642306_n.jpg,"no person",0.9911518096923828,Environment,,,,"Manmade beauty",,,
,water,0.9880516529083252,,,,,,,,
,hotel,0.9820100665092468,,,,,,,,
,"swimming pool",0.9767862558364868,,,,,,,,
,pool,0.9756911993026733,,,,,,,,
,summer,0.9727545976638794,,,,,,,,
,outdoors,0.9667184948921204,,,,,,,,
,travel,0.9661072492599487,,,,,,,,
,luxury,0.9637982845306396,,,,,,,,
,tropical,0.9610352516174316,,,,,,,,
,architecture,0.952085018157959,,,,,,,,
,swimming,0.9368605613708496,,,,,,,,
,daylight,0.9107389450073242,,,,,,,,
,tree,0.9072060585021973,,,,,,,,
,leisure,0.9059154987335205,,,,,,,,
,resort,0.8929331302642822,,,,,,,,
,modern,0.8928561806678772,,,,,,,,
,reflection,0.8899416923522949,,,,,,,,
,relaxation,0.8857086896896362,,,,,,,,
,vacation,0.8814375400543213,,,,,,,,
https://scontent-sit4-1.cdninstagram.com/t51.2885-15/e35/13694461_547430208782516_1395696363_n.jpg,child,0.9986112117767334,Relationships,Food,,,Friends,"Meal time",,
,group,0.9915244579315186,,,,,,,,
,education,0.9867379665374756,,,,,,,,
,togetherness,0.9766687750816345,,,,,,,,
,people,0.9729675054550171,,,,,,,,
,school,0.9679328203201294,,,,,,,,
,woman,0.9609721899032593,,,,,,,,
,room,0.9531934261322021,,,,,,,,
,happiness,0.9484189748764038,,,,,,,,
,boy,0.9468883275985718,,,,,,,,
,portrait,0.9461584091186523,,,,,,,,
,family,0.9394938945770264,,,,,,,,
,offspring,0.9377495050430298,,,,,,,,
,enjoyment,0.9368025064468384,,,,,,,,
,"elementary school",0.9310352802276611,,,,,,,,
,adult,0.9290416240692139,,,,,,,,
,classroom,0.9234291315078735,,,,,,,,
,indoors,0.9121875762939453,,,,,,,,
,man,0.9116005301475525,,,,,,,,
,"facial expression",0.9108692407608032,,,,,,,,
https://scontent-sit4-1.cdninstagram.com/t51.2885-15/e35/13397662_1815775791978579_674526089_n.jpg,child,0.9933536052703857,Relationships,,,,"Best friends",,,
,fun,0.981769859790802,,,,,,,,
,people,0.9686740636825562,,,,,,,,
,woman,0.9654592871665955,,,,,,,,
,shopping,0.9516141414642334,,,,,,,,
,family,0.9437308311462402,,,,,,,,
,girl,0.9400251507759094,,,,,,,,
,lifestyle,0.9395848512649536,,,,,,,,
,young,0.9333760738372803,,,,,,,,
,leisure,0.9309685230255127,,,,,,,,
,friendship,0.9245505332946777,,,,,,,,
,outdoors,0.9223141670227051,,,,,,,,
,recreation,0.9086945056915283,,,,,,,,
,active,0.9061044454574585,,,,,,,,
,enjoyment,0.8989031314849854,,,,,,,,
,exercise,0.8978222608566284,,,,,,,,
,summer,0.8833709955215454,,,,,,,,
,man,0.883004367351532,,,,,,,,
,adolescent,0.8817651271820068,,,,,,,,
,sport,0.8549513816833496,,,,,,,,
https://scontent-sit4-1.cdninstagram.com/t51.2885-15/e35/12716754_1685911105023418_1233162665_n.jpg,child,0.9891030192375183,Relationships,,,,Friends,,,
,group,0.9845210909843445,,,,,,,,
,fun,0.9705277681350708,,,,,,,,
,people,0.9610691070556641,,,,,,,,
,celebration,0.9502779245376587,,,,,,,,
,friendship,0.9500633478164673,,,,,,,,
,girl,0.9431217908859253,,,,,,,,
,laughing,0.940495491027832,,,,,,,,
,portrait,0.9235646724700928,,,,,,,,
,party,0.9234356880187988,,,,,,,,
,group,0.9100327491760254,,,,,,,,
,birthday,0.9097892045974731,,,,,,,,
,woman,0.8974297046661377,,,,,,,,
,four,0.8734111189842224,,,,,,,,
,smile,0.8666369915008545,,,,,,,,
,family,0.866530179977417,,,,,,,,
,happiness,0.8634915351867676,,,,,,,,
,joy,0.8631930351257324,,,,,,,,
,exhilaration,0.8574211597442627,,,,,,,,
,"facial expression",0.8460260629653931,,,,,,,,
https://scontent-sit4-1.cdninstagram.com/l/t51.2885-15/e35/13380909_1171149909582319_1373204125_n.jpg,bar,0.989061713218689,Business,,,,Work,,,
,people,0.9878009557723999,,,,,,,,
,restaurant,0.9844105839729309,,,,,,,,
,indoors,0.948340654373169,,,,,,,,
,pub,0.9315555095672607,,,,,,,,
,street,0.9244004487991333,,,,,,,,
,city,0.9076173901557922,,,,,,,,
,hotel,0.899387538433075,,,,,,,,
,light,0.8943991661071777,,,,,,,,
,music,0.878851056098938,,,,,,,,
,dark,0.8767396211624146,,,,,,,,
,stock,0.8667961359024048,,,,,,,,
,nightlife,0.8482251167297363,,,,,,,,
,club,0.8334842920303345,,,,,,,,
,woman,0.8301598429679871,,,,,,,,
,travel,0.8234483003616333,,,,,,,,
,adult,0.8197677135467529,,,,,,,,
,shopping,0.8189685344696045,,,,,,,,
,candle,0.8087934255599976,,,,,,,,
,tourist,0.8082720041275024,,,,,,,,
https://scontent-sit4-1.cdninstagram.com/t51.2885-15/e35/13734416_159777744431983_1096128477_n.jpg,stock,0.9985703229904175,Food,Business,Relationships,,Self-preparation,Work,"Best friends",
,shopping,0.9983498454093933,,,,,,,,
,market,0.9979143738746643,,,,,,,,
,restaurant,0.9966060519218445,,,,,,,,
,commerce,0.9929075837135315,,,,,,,,
,shop,0.9927037358283997,,,,,,,,
,people,0.992111325263977,,,,,,,,
,food,0.977515697479248,,,,,,,,
,sell,0.9772533178329468,,,,,,,,
,bar,0.9623088836669922,,,,,,,,
,merchant,0.9544779658317566,,,,,,,,
,sale,0.9503207206726074,,,,,,,,
,man,0.9350790977478027,,,,,,,,
,booth,0.9306474924087524,,,,,,,,
,indoors,0.9277160167694092,,,,,,,,
,merchandise,0.9227831363677979,,,,,,,,
,group,0.9129584431648254,,,,,,,,
,drink,0.9116067886352539,,,,,,,,
,bargain,0.9095019102096558,,,,,,,,
,supermarket,0.9092749953269958,,,,,,,,
https://scontent-sit4-1.cdninstagram.com/t51.2885-15/e35/12627819_955499291199390_1758170866_n.jpg,festival,0.9964267015457153,,,,,,,,
,celebration,0.9933757781982422,,,,,,,,
,people,0.9816369414329529,,,,,,,,
,many,0.9676060676574707,,,,,,,,
,parade,0.9594973921775818,,,,,,,,
,carnival,0.9571391940116882,,,,,,,,
,crowd,0.9523110389709473,,,,,,,,
,dancing,0.9505177736282349,,,,,,,,
,performance,0.9441231489181519,,,,,,,,
,Christmas,0.9352100491523743,,,,,,,,
,costume,0.9316946268081665,,,,,,,,
,exhibition,0.9310978651046753,,,,,,,,
,street,0.9201982617378235,,,,,,,,
,group,0.9184970259666443,,,,,,,,
,party,0.9096671342849731,,,,,,,,
,strange,0.9088218808174133,,,,,,,,
,city,0.9064921140670776,,,,,,,,
,ceremony,0.9039003849029541,,,,,,,,
,annual,0.9024761319160461,,,,,,,,
,religion,0.885796844959259,,,,,,,,
https://scontent-sit4-1.cdninstagram.com/t51.2885-15/e35/12424932_969141513139068_1817727646_n.jpg,candle,0.9925910234451294,Food,Relationships,Blank,,"Meal time",Friends,"Dessert\",
",
",
",,,,,,,,,,
,celebration,0.987350583076477,,,,,,,,
,people,0.9620376825332642,,,,,,,,
,woman,0.9524943232536316,,,,,,,,
,birthday,0.9378218650817871,,,,,,,,
,festival,0.9311035871505737,,,,,,,,
,man,0.9293253421783447,,,,,,,,
,party,0.9128190875053406,,,,,,,,
,indoors,0.9113436341285706,,,,,,,,
,family,0.9068303108215332,,,,,,,,
,flame,0.9061070084571838,,,,,,,,
,food,0.9023319482803345,,,,,,,,
,Christmas,0.9009761810302734,,,,,,,,
,happiness,0.8889663219451904,,,,,,,,
,candlelight,0.8866115212440491,,,,,,,,
,adult,0.8836398720741272,,,,,,,,
,religion,0.8772929906845093,,,,,,,,
,cake,0.8727374076843262,,,,,,,,
,restaurant,0.862136721611023,,,,,,,,
,dining,0.8560669422149658,,,,,,,,
https://scontent-sit4-1.cdninstagram.com/t51.2885-15/e35/13704158_111292962644568_1291917161_n.jpg,food,0.9957690238952637,Food,,,,"Meal time",,,
,rice,0.9939321875572205,,,,,,,,
,sushi,0.9818862676620483,,,,,,,,
,meal,0.980556845664978,,,,,,,,
,"no person",0.9797383546829224,,,,,,,,
,restaurant,0.9771867990493774,,,,,,,,
,dinner,0.9723160862922668,,,,,,,,
,cooking,0.971623957157135,,,,,,,,
,vegetable,0.9625533819198608,,,,,,,,
,meat,0.9426918029785156,,,,,,,,
,lunch,0.9406272172927856,,,,,,,,
,set,0.9382321834564209,,,,,,,,
,chicken,0.9306590557098389,,,,,,,,
,traditional,0.9282890558242798,,,,,,,,
,cuisine,0.9265486598014832,,,,,,,,
,chef,0.9203709363937378,,,,,,,,
,delicious,0.9169014692306519,,,,,,,,
,fish,0.9100057482719421,,,,,,,,
,seafood,0.9043159484863281,,,,,,,,
,pizza,0.9002737998962402,,,,,,,,
https://scontent-sit4-1.cdninstagram.com/t51.2885-15/e35/12965766_1014325385313952_1144435579_n.jpg,"no person",0.9945050477981567,,,,,,,,
,fashion,0.9932724237442017,,,,,,,,
,footwear,0.9823896884918213,,,,,,,,
,foot,0.9809455871582031,,,,,,,,
,wear,0.9784630537033081,,,,,,,,
,woman,0.9782041311264038,,,,,,,,
,leather,0.9765529632568359,,,,,,,,
,shoe,0.9662994146347046,,,,,,,,
,outdoors,0.9585967659950256,,,,,,,,
,summer,0.9578637480735779,,,,,,,,
,elegant,0.9451091885566711,,,,,,,,
,sexy,0.9343810081481934,,,,,,,,
,indoors,0.9322168827056885,,,,,,,,
,bright,0.9303471446037292,,,,,,,,
,people,0.9220256805419922,,,,,,,,
,street,0.9157090187072754,,,,,,,,
,relaxation,0.901374101638794,,,,,,,,
,classic,0.8960849046707153,,,,,,,,
,wood,0.889707624912262,,,,,,,,
,glamour,0.8738874197006226,,,,,,,,
https://scontent-sit4-1.cdninstagram.com/t51.2885-15/e35/13129599_1534262566880814_222224141_n.jpg,people,0.9906693696975708,Relationships,,,,Friends,,,
,bar,0.9859234094619751,,,,,,,,
,restaurant,0.9793236255645752,,,,,,,,
,food,0.9709433317184448,,,,,,,,
,stock,0.9633855819702148,,,,,,,,
,indoors,0.9588156938552856,,,,,,,,
,man,0.9546332359313965,,,,,,,,
,adult,0.9503767490386963,,,,,,,,
,market,0.9380334615707397,,,,,,,,
,commerce,0.9170592427253723,,,,,,,,
,drink,0.9134169816970825,,,,,,,,
,shopping,0.8935836553573608,,,,,,,,
,table,0.8854714035987854,,,,,,,,
,one,0.8694331645965576,,,,,,,,
,group,0.8662844300270081,,,,,,,,
,service,0.8552442193031311,,,,,,,,
,woman,0.8478943109512329,,,,,,,,
,counter,0.8355247378349304,,,,,,,,
,merchandise,0.8175951242446899,,,,,,,,
,fun,0.8165263533592224,,,,,,,,
https://scontent-sit4-1.cdninstagram.com/t51.2885-15/e35/13277789_1620517541598458_454812935_n.jpg,competition,0.9948756098747253,Relationships,,,,Friends,,,
,ball,0.991863489151001,,,,,,,,
,game,0.9911744594573975,,,,,,,,
,squad,0.9903846979141235,,,,,,,,
,soccer,0.9866494536399841,,,,,,,,
,athlete,0.9849365949630737,,,,,,,,
,people,0.9809232950210571,,,,,,,,
,football,0.9780892133712769,,,,,,,,
,sport,0.9689569473266602,,,,,,,,
,stadium,0.9687098860740662,,,,,,,,
,school,0.9652694463729858,,,,,,,,
,championship,0.9631240367889404,,,,,,,,
,group,0.952854335308075,,,,,,,,
,player,0.9521538019180298,,,,,,,,
,play,0.9510524868965149,,,,,,,,
,woman,0.9473274946212769,,,,,,,,
,goal,0.945117175579071,,,,,,,,
,action,0.9438055753707886,,,,,,,,
,match,0.9426136016845703,,,,,,,,
,child,0.9424870014190674,,,,,,,,
https://scontent-sit4-1.cdninstagram.com/t51.2885-15/e35/13735933_764721423670673_1423142064_n.jpg,dog,0.9978724122047424,,,,,,,,
,mammal,0.9935033321380615,,,,,,,,
,pet,0.9894074201583862,,,,,,,,
,canine,0.9874861240386963,,,,,,,,
,funny,0.9872649908065796,,,,,,,,
,poodle,0.9867088794708252,,,,,,,,
,cute,0.983043372631073,,,,,,,,
,fun,0.982945442199707,,,,,,,,
,"no person",0.981174886226654,,,,,,,,
,people,0.9785724878311157,,,,,,,,
,portrait,0.9730149507522583,,,,,,,,
,friendship,0.9698286056518555,,,,,,,,
,child,0.9691146612167358,,,,,,,,
,puppy,0.9687478542327881,,,,,,,,
,animal,0.9669767022132874,,,,,,,,
,one,0.966695249080658,,,,,,,,
,fur,0.9585272073745728,,,,,,,,
,little,0.9573847055435181,,,,,,,,
,toy,0.9555797576904297,,,,,,,,
,young,0.9227861762046814,,,,,,,,
