url,class,score,,,,,,,,
https://scontent-sit4-1.cdninstagram.com/t51.2885-15/e15/13181244_1160765303954455_1240528954_n.jpg,indoors,0.9846949577331543,Undefined,,,,Undefined,,,
,people,0.9799482822418213,,,,,,,,
,exhibition,0.9638746380805969,,,,,,,,
,business,0.9513517618179321,,,,,,,,
,adult,0.9418274164199829,,,,,,,,
,education,0.9405071139335632,,,,,,,,
,room,0.9270775318145752,,,,,,,,
,man,0.9215691089630127,,,,,,,,
,performance,0.908037543296814,,,,,,,,
,group,0.8996363878250122,,,,,,,,
,festival,0.8983136415481567,,,,,,,,
,school,0.8973067402839661,,,,,,,,
,election,0.897041916847229,,,,,,,,
,league,0.8884248733520508,,,,,,,,
,meeting,0.8827621340751648,,,,,,,,
,woman,0.8815685510635376,,,,,,,,
,museum,0.8625935316085815,,,,,,,,
,music,0.8528855443000793,,,,,,,,
,industry,0.8459014892578125,,,,,,,,
,offense,0.8415420055389404,,,,,,,,
https://scontent-sit4-1.cdninstagram.com/t51.2885-15/e15/11259100_101401353589085_1585748914_n.jpg,performance,0.999213695526123,Entertainment,,,,Events,,,
,music,0.9988884925842285,,,,,,,,
,concert,0.998883843421936,,,,,,,,
,musician,0.9952380657196045,,,,,,,,
,singer,0.9950595498085022,,,,,,,,
,stage,0.994914174079895,,,,,,,,
,festival,0.9902620315551758,,,,,,,,
,audience,0.9723975658416748,,,,,,,,
,band,0.9673157930374146,,,,,,,,
,guitarist,0.9560287594795227,,,,,,,,
,pop,0.9254454970359802,,,,,,,,
,energy,0.912755012512207,,,,,,,,
,light,0.9124763011932373,,,,,,,,
,people,0.9086082577705383,,,,,,,,
,guitar,0.8987822532653809,,,,,,,,
,theater,0.8913114070892334,,,,,,,,
,celebration,0.8752222061157227,,,,,,,,
,party,0.8744173049926758,,,,,,,,
,rap,0.8699789643287659,,,,,,,,
,club,0.8639950752258301,,,,,,,,
https://scontent-sit4-1.cdninstagram.com/l/t51.2885-15/e35/13584184_1199070313477637_1095295103_n.jpg,travel,0.9697666168212891,Blank,,,,Photography,,,
,security,0.9651705026626587,,,,,,,,
,fence,0.962337851524353,,,,,,,,
,outdoors,0.9611087441444397,,,,,,,,
,water,0.9559015035629272,,,,,,,,
,"no person",0.9528266191482544,,,,,,,,
,people,0.9381386041641235,,,,,,,,
,city,0.9342986345291138,,,,,,,,
,sky,0.9340285062789917,,,,,,,,
,sea,0.9327132701873779,,,,,,,,
,street,0.9284892082214355,,,,,,,,
,winter,0.9258899688720703,,,,,,,,
,wire,0.9184430837631226,,,,,,,,
,race,0.9116377830505371,,,,,,,,
,beach,0.9091845154762268,,,,,,,,
,bridge,0.9075896739959717,,,,,,,,
,landscape,0.9023524522781372,,,,,,,,
,road,0.8923629522323608,,,,,,,,
,safety,0.8843192458152771,,,,,,,,
,light,0.8836382627487183,,,,,,,,
https://scontent-sit4-1.cdninstagram.com/t51.2885-15/e15/p640x640/13556821_897253123735367_175176906_n.jpg,child,0.9997299909591675,Relationships,,,,"Baby family",,,
,baby,0.9982763528823853,,,,,,,,
,cute,0.9860703349113464,,,,,,,,
,boy,0.9812687635421753,,,,,,,,
,innocence,0.979911744594574,,,,,,,,
,people,0.9767744541168213,,,,,,,,
,little,0.9767635464668274,,,,,,,,
,sit,0.9701865911483765,,,,,,,,
,indoors,0.9640207290649414,,,,,,,,
,toddler,0.9562520980834961,,,,,,,,
,fun,0.9539767503738403,,,,,,,,
,portrait,0.9338727593421936,,,,,,,,
,girl,0.9240920543670654,,,,,,,,
,one,0.9198384284973145,,,,,,,,
,family,0.9169482588768005,,,,,,,,
,precious,0.9159712791442871,,,,,,,,
,infancy,0.9012166857719421,,,,,,,,
,offspring,0.8981682658195496,,,,,,,,
,seat,0.8873941898345947,,,,,,,,
,love,0.8866223692893982,,,,,,,,
https://scontent-sit4-1.cdninstagram.com/t51.2885-15/e35/13739588_1120326934695809_64734379_n.jpg,woman,0.9791687726974487,Relationships,,,,"Best friends",,,
,"facial expression",0.9771369695663452,,,,,,,,
,portrait,0.9700443148612976,,,,,,,,
,man,0.9575690031051636,,,,,,,,
,people,0.9559440612792969,,,,,,,,
,wear,0.9472801089286804,,,,,,,,
,togetherness,0.944969654083252,,,,,,,,
,group,0.9329841136932373,,,,,,,,
,music,0.9294534921646118,,,,,,,,
,friendship,0.9259710311889648,,,,,,,,
,interaction,0.895219087600708,,,,,,,,
,festival,0.8905425667762756,,,,,,,,
,musician,0.8768709897994995,,,,,,,,
,enjoyment,0.8712484836578369,,,,,,,,
,movie,0.8576146364212036,,,,,,,,
,recreation,0.8561418056488037,,,,,,,,
,laughing,0.8517718315124512,,,,,,,,
,singer,0.8516600131988525,,,,,,,,
,embrace,0.8507708311080933,,,,,,,,
,fun,0.850742757320404,,,,,,,,
https://scontent-sit4-1.cdninstagram.com/t51.2885-15/e35/12328236_1714005202175406_729363441_n.jpg,"no person",0.9595934152603149,Arts,,,,Arts-s,,,
,illustration,0.9592770338058472,,,,,,,,
,technology,0.9393827319145203,,,,,,,,
,design,0.9211678504943848,,,,,,,,
,contemporary,0.9017461538314819,,,,,,,,
,modern,0.895754337310791,,,,,,,,
,business,0.8909931182861328,,,,,,,,
,desktop,0.8738023042678833,,,,,,,,
,abstract,0.8731397986412048,,,,,,,,
,graphic,0.8722885251045227,,,,,,,,
,bright,0.8702788352966309,,,,,,,,
,art,0.8680613040924072,,,,,,,,
,image,0.8647533655166626,,,,,,,,
,isolated,0.8437622785568237,,,,,,,,
,family,0.8409851789474487,,,,,,,,
,architecture,0.8296756744384766,,,,,,,,
,shape,0.8234462738037109,,,,,,,,
,isolated,0.8169256448745728,,,,,,,,
,"picture frame",0.8129878640174866,,,,,,,,
,indoors,0.8097259998321533,,,,,,,,
https://scontent-sit4-1.cdninstagram.com/t51.2885-15/e15/12976534_1094441913911651_243245662_n.jpg,drum,0.9994275569915771,Relationships,Recreation,,,"Best friends",Recreation-s,,
,"percussion instrument",0.9989031553268433,,,,,,,,
,music,0.9988534450531006,,,,,,,,
,people,0.995579719543457,,,,,,,,
,instrument,0.9952419996261597,,,,,,,,
,drummer,0.994280219078064,,,,,,,,
,one,0.9926140904426575,,,,,,,,
,musician,0.9923192262649536,,,,,,,,
,adult,0.9855208396911621,,,,,,,,
,man,0.9833380579948425,,,,,,,,
,performance,0.9759273529052734,,,,,,,,
,rhythm,0.9710463285446167,,,,,,,,
,skill,0.9683529138565063,,,,,,,,
,container,0.95201575756073,,,,,,,,
,industry,0.9491126537322998,,,,,,,,
,band,0.9450443983078003,,,,,,,,
,production,0.9427984952926636,,,,,,,,
,festival,0.9398152828216553,,,,,,,,
,concert,0.9309698343276978,,,,,,,,
,wear,0.9148325324058533,,,,,,,,
https://scontent-sit4-1.cdninstagram.com/t51.2885-15/e15/13117969_1079588465397056_541835269_n.jpg,people,0.9848710894584656,Food,,,,Food-s,,,
,chef,0.9802900552749634,,,,,,,,
,adult,0.9786168336868286,,,,,,,,
,one,0.965052604675293,,,,,,,,
,restaurant,0.9627164006233215,,,,,,,,
,indoors,0.9608567357063293,,,,,,,,
,woman,0.9525032639503479,,,,,,,,
,man,0.9352312088012695,,,,,,,,
,cooking,0.9334516525268555,,,,,,,,
,food,0.9332970380783081,,,,,,,,
,portrait,0.9277519583702087,,,,,,,,
,industry,0.9249703288078308,,,,,,,,
,bar,0.9133908748626709,,,,,,,,
,drink,0.9092814922332764,,,,,,,,
,wear,0.9024296998977661,,,,,,,,
,festival,0.9008895754814148,,,,,,,,
,room,0.8886892795562744,,,,,,,,
,counter,0.8830665349960327,,,,,,,,
,production,0.8622158765792847,,,,,,,,
,apron,0.8481832146644592,,,,,,,,
https://scontent-sit4-1.cdninstagram.com/t51.2885-15/e35/13694710_1774609319449343_1900007841_n.jpg,child,0.9981582164764404,Relationships,,,,"Baby family",,,
,baby,0.9939419031143188,,,,,,,,
,people,0.9901950359344482,,,,,,,,
,girl,0.988720715045929,,,,,,,,
,innocence,0.9798996448516846,,,,,,,,
,portrait,0.977820634841919,,,,,,,,
,boy,0.9750986099243164,,,,,,,,
,"facial expression",0.96165531873703,,,,,,,,
,one,0.959389865398407,,,,,,,,
,indoors,0.9578263759613037,,,,,,,,
,room,0.9497191905975342,,,,,,,,
,love,0.949100136756897,,,,,,,,
,toddler,0.9483800530433655,,,,,,,,
,offspring,0.9479272365570068,,,,,,,,
,happiness,0.9430874586105347,,,,,,,,
,family,0.9377436637878418,,,,,,,,
,woman,0.9342829585075378,,,,,,,,
,two,0.9308800101280212,,,,,,,,
,cute,0.926942765712738,,,,,,,,
,wear,0.9249805212020874,,,,,,,,
https://scontent-sit4-1.cdninstagram.com/t51.2885-15/e35/12783474_1737865089778525_1482110445_n.jpg,performance,0.9954468011856079,Entertainment,Media,,,Entertainment-s,Media-s,,
,music,0.9945693016052246,,,,,,,,
,concert,0.9808960556983948,,,,,,,,
,people,0.977982759475708,,,,,,,,
,festival,0.9651772975921631,,,,,,,,
,musician,0.9624576568603516,,,,,,,,
,dancer,0.9599708318710327,,,,,,,,
,dancing,0.9545983076095581,,,,,,,,
,singer,0.937735915184021,,,,,,,,
,stage,0.9350049495697021,,,,,,,,
,woman,0.9328901171684265,,,,,,,,
,ballet,0.9292880296707153,,,,,,,,
,adult,0.9150744676589966,,,,,,,,
,light,0.9136397242546082,,,,,,,,
,one,0.8929860591888428,,,,,,,,
,art,0.8899804949760437,,,,,,,,
,wear,0.8682628273963928,,,,,,,,
,energy,0.8582102060317993,,,,,,,,
,recreation,0.8520759344100952,,,,,,,,
,girl,0.8408717513084412,,,,,,,,
https://scontent-sit4-1.cdninstagram.com/t51.2885-15/s750x750/sh0.08/e35/13113929_1147823625250201_1841924761_n.jpg,woman,0.9898771047592163,Relationships,,,,"Best friends",,,
,togetherness,0.9881606101989746,,,,,,,,
,"facial expression",0.9856343865394592,,,,,,,,
,people,0.9789040684700012,,,,,,,,
,portrait,0.9736689329147339,,,,,,,,
,interaction,0.9639525413513184,,,,,,,,
,man,0.9637295007705688,,,,,,,,
,happiness,0.9561521410942078,,,,,,,,
,two,0.9547510147094727,,,,,,,,
,friendship,0.9452958106994629,,,,,,,,
,daylight,0.9417825937271118,,,,,,,,
,love,0.9399145245552063,,,,,,,,
,indoors,0.9368956089019775,,,,,,,,
,adult,0.9349413514137268,,,,,,,,
,enjoyment,0.9329849481582642,,,,,,,,
,affection,0.9318292737007141,,,,,,,,
,group,0.9306229948997498,,,,,,,,
,laughing,0.9228397011756897,,,,,,,,
,wear,0.8941915035247803,,,,,,,,
,fun,0.8818302154541016,,,,,,,,
https://scontent-sit4-1.cdninstagram.com/t51.2885-15/e15/13116604_587972001362065_1733827305_n.jpg,child,0.9997475147247314,Relationships,,,,"Baby family",,,
,baby,0.9976657629013062,,,,,,,,
,cute,0.9947803020477295,,,,,,,,
,little,0.9940518736839294,,,,,,,,
,innocence,0.9854618310928345,,,,,,,,
,boy,0.9828388690948486,,,,,,,,
,toddler,0.9815487861633301,,,,,,,,
,confection,0.9549753665924072,,,,,,,,
,youth,0.9473950266838074,,,,,,,,
,sit,0.9437862634658813,,,,,,,,
,portrait,0.9343796968460083,,,,,,,,
,love,0.933921217918396,,,,,,,,
,girl,0.9225820302963257,,,,,,,,
,fun,0.9206984639167786,,,,,,,,
,family,0.9196091890335083,,,,,,,,
,people,0.9186305999755859,,,,,,,,
,joy,0.8994036316871643,,,,,,,,
,happiness,0.8963346481323242,,,,,,,,
,one,0.8880561590194702,,,,,,,,
,play,0.8867712020874023,,,,,,,,
https://scontent-sit4-1.cdninstagram.com/t51.2885-15/e35/13725519_792646667544253_1819770669_n.jpg,beach,0.9979343414306641,Arts,Recreation,Travel,,Arts-s,Beach,Travel-s,
,sand,0.9968640208244324,,,,,,,,
,sea,0.993633508682251,,,,,,,,
,summer,0.9915142059326172,,,,,,,,
,water,0.9911060333251953,,,,,,,,
,ocean,0.9856930375099182,,,,,,,,
,leisure,0.9798409938812256,,,,,,,,
,seashore,0.9768009185791016,,,,,,,,
,fun,0.976144552230835,,,,,,,,
,sky,0.9743736386299133,,,,,,,,
,travel,0.9739033579826355,,,,,,,,
,carefree,0.9681543707847595,,,,,,,,
,freedom,0.9608104228973389,,,,,,,,
,outdoors,0.9586540460586548,,,,,,,,
,enjoyment,0.9523814916610718,,,,,,,,
,vacation,0.9490466117858887,,,,,,,,
,relaxation,0.9466609358787537,,,,,,,,
,sun,0.9397498965263367,,,,,,,,
,recreation,0.9379093647003174,,,,,,,,
,nature,0.9330270290374756,,,,,,,,
https://scontent-sit4-1.cdninstagram.com/t51.2885-15/s640x640/e15/13414396_239005903147417_2008320849_n.jpg,child,0.9996508955955505,Relationships,,,,"Baby family",,,
,indoors,0.9796832799911499,,,,,,,,
,education,0.9706825017929077,,,,,,,,
,family,0.9557052850723267,,,,,,,,
,sit,0.9358761310577393,,,,,,,,
,people,0.9345968961715698,,,,,,,,
,little,0.9302290678024292,,,,,,,,
,cute,0.9297140836715698,,,,,,,,
,innocence,0.929057240486145,,,,,,,,
,enjoyment,0.9261648058891296,,,,,,,,
,daylight,0.9233262538909912,,,,,,,,
,toddler,0.9217613935470581,,,,,,,,
,offspring,0.9203764796257019,,,,,,,,
,baby,0.9202656149864197,,,,,,,,
,boy,0.8988379240036011,,,,,,,,
,fun,0.8842051029205322,,,,,,,,
,room,0.8809081315994263,,,,,,,,
,furniture,0.8597639203071594,,,,,,,,
,"facial expression",0.85909104347229,,,,,,,,
,happiness,0.8441409468650818,,,,,,,,
https://scontent-sit4-1.cdninstagram.com/t51.2885-15/e35/12327995_213676632330325_1846511765_n.jpg,tropical,0.9934231042861938,Travel,Recreation,,,Travel-s,Recreation-s,,
,water,0.9927138090133667,,,,,,,,
,travel,0.9895484447479248,,,,,,,,
,beach,0.986819863319397,,,,,,,,
,exotic,0.9841674566268921,,,,,,,,
,vacation,0.9818205833435059,,,,,,,,
,summer,0.9816725254058838,,,,,,,,
,resort,0.9811563491821289,,,,,,,,
,ocean,0.9803762435913086,,,,,,,,
,leisure,0.9779202938079834,,,,,,,,
,island,0.9766063690185547,,,,,,,,
,relaxation,0.9762166738510132,,,,,,,,
,seashore,0.9754899144172668,,,,,,,,
,chair,0.9744130373001099,,,,,,,,
,sea,0.9681819081306458,,,,,,,,
,sand,0.9672313928604126,,,,,,,,
,"no person",0.9645795822143555,,,,,,,,
,idyllic,0.9624097347259521,,,,,,,,
,recreation,0.9527743458747864,,,,,,,,
,bungalow,0.9504843950271606,,,,,,,,
https://scontent-sit4-1.cdninstagram.com/t51.2885-15/e35/12328448_177888542590674_1508418009_n.jpg,performance,0.9994099140167236,Entertainment,,,,Events,,,
,concert,0.9993122220039368,,,,,,,,
,music,0.99908047914505,,,,,,,,
,musician,0.9947271347045898,,,,,,,,
,festival,0.9945900440216064,,,,,,,,
,singer,0.9943242073059082,,,,,,,,
,band,0.9904664754867554,,,,,,,,
,stage,0.9836784601211548,,,,,,,,
,audience,0.9514338374137878,,,,,,,,
,light,0.9432238340377808,,,,,,,,
,energy,0.932581901550293,,,,,,,,
,guitarist,0.9217318296432495,,,,,,,,
,pop,0.8994885683059692,,,,,,,,
,songwriter,0.8680635690689087,,,,,,,,
,rap,0.8563734292984009,,,,,,,,
,indie,0.8538637757301331,,,,,,,,
,celebration,0.8483685255050659,,,,,,,,
,song,0.8357686996459961,,,,,,,,
,drummer,0.8012356758117676,,,,,,,,
,club,0.7965893745422363,,,,,,,,
https://scontent-sit4-1.cdninstagram.com/t51.2885-15/e35/10467818_841609549300772_547145448_n.jpg,education,0.9832499027252197,Relationships,Arts,,,Friends,Arts-s,,
,adult,0.9715434312820435,,,,,,,,
,woman,0.9709759950637817,,,,,,,,
,people,0.9708321690559387,,,,,,,,
,group,0.9642671942710876,,,,,,,,
,portrait,0.9576183557510376,,,,,,,,
,school,0.9240701198577881,,,,,,,,
,technology,0.9065049886703491,,,,,,,,
,computer,0.9060074090957642,,,,,,,,
,university,0.900546133518219,,,,,,,,
,girl,0.8726076483726501,,,,,,,,
,adolescent,0.8675107955932617,,,,,,,,
,child,0.8635368943214417,,,,,,,,
,happiness,0.8422155380249023,,,,,,,,
,student,0.8379802703857422,,,,,,,,
,indoors,0.8168202638626099,,,,,,,,
,business,0.8085079193115234,,,,,,,,
,smile,0.8005584478378296,,,,,,,,
,room,0.7992205619812012,,,,,,,,
,looking,0.764699399471283,,,,,,,,
https://scontent-sit4-1.cdninstagram.com/t51.2885-15/e35/12599268_1724160457813354_525756791_n.jpg,child,0.999626636505127,Relationships,,,,"Baby family",,,
,baby,0.9926334619522095,,,,,,,,
,boy,0.9919674396514893,,,,,,,,
,people,0.9915990829467773,,,,,,,,
,innocence,0.9881006479263306,,,,,,,,
,one,0.9834337830543518,,,,,,,,
,"facial expression",0.9756150841712952,,,,,,,,
,cute,0.9704274535179138,,,,,,,,
,little,0.967037558555603,,,,,,,,
,portrait,0.9661604166030884,,,,,,,,
,toddler,0.9655253887176514,,,,,,,,
,wear,0.9595624804496765,,,,,,,,
,offspring,0.9564898014068604,,,,,,,,
,newborn,0.9529644250869751,,,,,,,,
,indoors,0.9466224908828735,,,,,,,,
,infancy,0.9265680313110352,,,,,,,,
,precious,0.9087551832199097,,,,,,,,
,tiny,0.9036495685577393,,,,,,,,
,fun,0.8919477462768555,,,,,,,,
,happiness,0.8861030340194702,,,,,,,,
https://scontent-sit4-1.cdninstagram.com/t51.2885-15/e35/12724647_1539169429711195_550141032_n.jpg,sunset,0.9852726459503174,Environment,Travel,,,"Natural beauty",Travel-s,,
,"no person",0.9738971590995789,,,,,,,,
,sky,0.9716907739639282,,,,,,,,
,travel,0.9693814516067505,,,,,,,,
,dawn,0.9645382165908813,,,,,,,,
,landscape,0.9638901948928833,,,,,,,,
,water,0.9596688151359558,,,,,,,,
,street,0.951253354549408,,,,,,,,
,road,0.9463410973548889,,,,,,,,
,light,0.9256317615509033,,,,,,,,
,tree,0.9229501485824585,,,,,,,,
,city,0.9205043315887451,,,,,,,,
,sun,0.9150257110595703,,,,,,,,
,outdoors,0.9123371839523315,,,,,,,,
,"transportation system",0.8874528408050537,,,,,,,,
,vehicle,0.88079833984375,,,,,,,,
,evening,0.8753013610839844,,,,,,,,
,dusk,0.8729506731033325,,,,,,,,
,architecture,0.8661776781082153,,,,,,,,
,river,0.8654788732528687,,,,,,,,
https://scontent-sit4-1.cdninstagram.com/t51.2885-15/e35/13320195_1646353959020998_1799674298_n.jpg,food,0.9929393529891968,Food,,,,"Meal time",,,
,"no person",0.9904742240905762,,,,,,,,
,delicious,0.983872652053833,,,,,,,,
,rice,0.9834930896759033,,,,,,,,
,lunch,0.9790070056915283,,,,,,,,
,dinner,0.978268027305603,,,,,,,,
,chili,0.9743708372116089,,,,,,,,
,bowl,0.9737376570701599,,,,,,,,
,traditional,0.9688977003097534,,,,,,,,
,hot,0.9684497714042664,,,,,,,,
,cooking,0.9680460691452026,,,,,,,,
,vegetable,0.9649479389190674,,,,,,,,
,dish,0.9580471515655518,,,,,,,,
,meal,0.951686680316925,,,,,,,,
,meat,0.9495543241500854,,,,,,,,
,soup,0.9455601572990417,,,,,,,,
,pork,0.9447152614593506,,,,,,,,
,grow,0.9395487904548645,,,,,,,,
,chicken,0.9349197149276733,,,,,,,,
,cuisine,0.9268167614936829,,,,,,,,
https://scontent-sit4-1.cdninstagram.com/t51.2885-15/e35/12599015_231112457222029_526063473_n.jpg,water,0.9954805374145508,Environment,Travel,,,"Natural beauty",Travel-s,,
,"no person",0.9875398874282837,,,,,,,,
,beach,0.9820972681045532,,,,,,,,
,travel,0.9716041088104248,,,,,,,,
,sunset,0.9670376777648926,,,,,,,,
,sea,0.9630737900733948,,,,,,,,
,seashore,0.9558253884315491,,,,,,,,
,dawn,0.9550855159759521,,,,,,,,
,ocean,0.9472211599349976,,,,,,,,
,outdoors,0.9252440333366394,,,,,,,,
,sun,0.9240562319755554,,,,,,,,
,sky,0.922157347202301,,,,,,,,
,pier,0.9156985282897949,,,,,,,,
,landscape,0.911038875579834,,,,,,,,
,reflection,0.906058669090271,,,,,,,,
,river,0.8990391492843628,,,,,,,,
,light,0.8789198398590088,,,,,,,,
,daylight,0.8786758780479431,,,,,,,,
,dusk,0.8778085708618164,,,,,,,,
,lake,0.8699969053268433,,,,,,,,
https://scontent-sit4-1.cdninstagram.com/t51.2885-15/e35/12751411_1513916242250925_1404379571_n.jpg,bike,0.9844940900802612,Recreation,Commerce,,,Beach,"Product/brand shots",,
,wheel,0.9795777797698975,,,,,,,,
,cyclist,0.9642672538757324,,,,,,,,
,"no person",0.9616318941116333,,,,,,,,
,sunset,0.9579483270645142,,,,,,,,
,water,0.957531213760376,,,,,,,,
,beach,0.9545180797576904,,,,,,,,
,recreation,0.9498609304428101,,,,,,,,
,landscape,0.9469249248504639,,,,,,,,
,"transportation system",0.9467794895172119,,,,,,,,
,outdoors,0.9437403678894043,,,,,,,,
,tree,0.9344199299812317,,,,,,,,
,sky,0.9337823987007141,,,,,,,,
,travel,0.9319576025009155,,,,,,,,
,vehicle,0.9304773807525635,,,,,,,,
,dawn,0.9203183650970459,,,,,,,,
,leisure,0.9122703075408936,,,,,,,,
,light,0.9094785451889038,,,,,,,,
,lake,0.888338565826416,,,,,,,,
,seashore,0.8813794851303101,,,,,,,,
https://scontent-sit4-1.cdninstagram.com/t51.2885-15/s750x750/sh0.08/e35/12677686_930023497119017_1284047620_n.jpg,music,0.9996196031570435,Entertainment,,,,Events,,,
,musician,0.9992419481277466,,,,,,,,
,concert,0.999138355255127,,,,,,,,
,performance,0.9990103244781494,,,,,,,,
,instrument,0.9954882264137268,,,,,,,,
,violin,0.9923303127288818,,,,,,,,
,band,0.9788345098495483,,,,,,,,
,orchestra,0.9757393598556519,,,,,,,,
,festival,0.975257158279419,,,,,,,,
,chair,0.9747158288955688,,,,,,,,
,stage,0.9737977385520935,,,,,,,,
,singer,0.9732890129089355,,,,,,,,
,violinist,0.9730420112609863,,,,,,,,
,cello,0.9653401374816895,,,,,,,,
,rehearsal,0.9493106603622437,,,,,,,,
,drum,0.9383122324943542,,,,,,,,
,people,0.9305647611618042,,,,,,,,
,"stringed instrument",0.9159315824508667,,,,,,,,
,sound,0.9098791480064392,,,,,,,,
,"classical music",0.9022719264030457,,,,,,,,
https://scontent-sit4-1.cdninstagram.com/t51.2885-15/e15/12328302_594829400686957_1747641433_n.jpg,food,0.9967639446258545,Food,,,,"Meal time",,,
,meat,0.9908585548400879,,,,,,,,
,"no person",0.984133243560791,,,,,,,,
,meal,0.9753588438034058,,,,,,,,
,pork,0.9534980058670044,,,,,,,,
,dinner,0.9519214630126953,,,,,,,,
,cooking,0.9474565982818604,,,,,,,,
,dish,0.9377660751342773,,,,,,,,
,lunch,0.9368585348129272,,,,,,,,
,vegetable,0.9302099943161011,,,,,,,,
,delicious,0.9272329807281494,,,,,,,,
,restaurant,0.9245185852050781,,,,,,,,
,chicken,0.9069280624389648,,,,,,,,
,beef,0.906227707862854,,,,,,,,
,tomato,0.8853950500488281,,,,,,,,
,cuisine,0.8848377466201782,,,,,,,,
,sauce,0.8746597766876221,,,,,,,,
,pan,0.8691096305847168,,,,,,,,
,plate,0.8667449951171875,,,,,,,,
,tasty,0.8587474822998047,,,,,,,,
https://scontent-sit4-1.cdninstagram.com/t51.2885-15/e15/12724933_958805707569313_1922091655_n.jpg,people,0.9980100393295288,Entertainment,,,,Events,,,
,group,0.9839659929275513,,,,,,,,
,performance,0.9819046258926392,,,,,,,,
,music,0.9729655981063843,,,,,,,,
,adult,0.9693748950958252,,,,,,,,
,dancing,0.9612199068069458,,,,,,,,
,many,0.958368182182312,,,,,,,,
,recreation,0.9583104252815247,,,,,,,,
,festival,0.954357385635376,,,,,,,,
,bar,0.9417378902435303,,,,,,,,
,man,0.9403871297836304,,,,,,,,
,wear,0.9383893013000488,,,,,,,,
,woman,0.9308843612670898,,,,,,,,
,stage,0.9032464623451233,,,,,,,,
,commerce,0.8954675793647766,,,,,,,,
,musician,0.8902666568756104,,,,,,,,
,restaurant,0.8893292546272278,,,,,,,,
,singer,0.8823220729827881,,,,,,,,
,concert,0.8821988105773926,,,,,,,,
,club,0.8760136961936951,,,,,,,,
https://scontent-sit4-1.cdninstagram.com/t51.2885-15/e35/12383421_459852177538237_2032840263_n.jpg,group,0.9830267429351807,Relationships,Food,,,Friends,"Drinks and snack",,
,woman,0.9746682643890381,,,,,,,,
,education,0.9736751317977905,,,,,,,,
,adult,0.965191125869751,,,,,,,,
,table,0.9578765630722046,,,,,,,,
,classroom,0.951555073261261,,,,,,,,
,coffee,0.9512539505958557,,,,,,,,
,indoors,0.9498912692070007,,,,,,,,
,room,0.9451248645782471,,,,,,,,
,school,0.9442042112350464,,,,,,,,
,people,0.9421414732933044,,,,,,,,
,child,0.9405457973480225,,,,,,,,
,happiness,0.931766152381897,,,,,,,,
,group,0.9282845258712769,,,,,,,,
,university,0.9257155656814575,,,,,,,,
,desk,0.9249228239059448,,,,,,,,
,furniture,0.9242703914642334,,,,,,,,
,"facial expression",0.9199222326278687,,,,,,,,
,four,0.915018618106842,,,,,,,,
,sit,0.910463809967041,,,,,,,,
https://scontent-sit4-1.cdninstagram.com/t51.2885-15/e35/12729505_169613166749751_1020112666_n.jpg,drink,0.994312047958374,Food,,,,"Drinks and snack",,,
,bar,0.9902845621109009,,,,,,,,
,food,0.9688329696655273,,,,,,,,
,ice,0.9551169872283936,,,,,,,,
,restaurant,0.9513437747955322,,,,,,,,
,"no person",0.9498388171195984,,,,,,,,
,cold,0.9287880659103394,,,,,,,,
,cocktail,0.924088716506958,,,,,,,,
,glass,0.9038329124450684,,,,,,,,
,party,0.882412314414978,,,,,,,,
,fruit,0.8727559447288513,,,,,,,,
,juice,0.8312184810638428,,,,,,,,
,people,0.8289147019386292,,,,,,,,
,wine,0.8193768262863159,,,,,,,,
,alcohol,0.7934938669204712,,,,,,,,
,liquor,0.7874606251716614,,,,,,,,
,vodka,0.7851649522781372,,,,,,,,
,celebration,0.7739772200584412,,,,,,,,
,nightlife,0.7636480331420898,,,,,,,,
,hotel,0.7481268644332886,,,,,,,,
https://scontent-sit4-1.cdninstagram.com/t51.2885-15/e35/13671243_507572239438165_1435444628_n.jpg,people,0.9688729047775269,Food,,,,"Drinks and snack",,,
,food,0.9616951942443848,,,,,,,,
,drink,0.9153874516487122,,,,,,,,
,woman,0.9132562875747681,,,,,,,,
,"dairy product",0.8930621147155762,,,,,,,,
,festival,0.8832803964614868,,,,,,,,
,man,0.8659083843231201,,,,,,,,
,restaurant,0.8655282258987427,,,,,,,,
,indoors,0.8617254495620728,,,,,,,,
,bar,0.8345401883125305,,,,,,,,
,one,0.8242788910865784,,,,,,,,
,skill,0.7970947027206421,,,,,,,,
,adult,0.7899385690689087,,,,,,,,
,sugar,0.7696536779403687,,,,,,,,
,recreation,0.7616467475891113,,,,,,,,
,"no person",0.7379202842712402,,,,,,,,
,coffee,0.73651123046875,,,,,,,,
,ceremony,0.7359354496002197,,,,,,,,
,indulgence,0.7358229160308838,,,,,,,,
,military,0.7230921387672424,,,,,,,,
https://scontent-sit4-1.cdninstagram.com/t51.2885-15/e35/12965681_872283766233396_1851809714_n.jpg,city,0.9968802332878113,Environment,,,,"Manmade beauty",,,
,light,0.982042670249939,,,,,,,,
,evening,0.9791473150253296,,,,,,,,
,architecture,0.9769079685211182,,,,,,,,
,celebration,0.976510226726532,,,,,,,,
,Christmas,0.9745592474937439,,,,,,,,
,cityscape,0.9714294672012329,,,,,,,,
,building,0.9687392711639404,,,,,,,,
,downtown,0.968599796295166,,,,,,,,
,"no person",0.9639056921005249,,,,,,,,
,street,0.9550595283508301,,,,,,,,
,road,0.9528547525405884,,,,,,,,
,travel,0.950385332107544,,,,,,,,
,urban,0.94991135597229,,,,,,,,
,festival,0.9487606287002563,,,,,,,,
,skyline,0.9455714821815491,,,,,,,,
,skyscraper,0.9451313018798828,,,,,,,,
,dusk,0.9405072927474976,,,,,,,,
,fireworks,0.9274616241455078,,,,,,,,
,traffic,0.9171246290206909,,,,,,,,
https://scontent-sit4-1.cdninstagram.com/t51.2885-15/e35/12545253_1878881895671560_775991827_n.jpg,group,0.9842432141304016,Relationships,,,,Friends,,,
,portrait,0.9794692397117615,,,,,,,,
,woman,0.9791978597640991,,,,,,,,
,people,0.9690558314323425,,,,,,,,
,wear,0.9634436368942261,,,,,,,,
,"facial expression",0.9587242603302002,,,,,,,,
,man,0.956720232963562,,,,,,,,
,adult,0.9337863922119141,,,,,,,,
,happiness,0.9176836013793945,,,,,,,,
,group,0.9121826887130737,,,,,,,,
,three,0.9048509001731873,,,,,,,,
,togetherness,0.8994932174682617,,,,,,,,
,four,0.8848694562911987,,,,,,,,
,festival,0.8844024538993835,,,,,,,,
,friendship,0.8757745027542114,,,,,,,,
,girl,0.8615490794181824,,,,,,,,
,child,0.856182873249054,,,,,,,,
,musician,0.8382613658905029,,,,,,,,
,music,0.8214499950408936,,,,,,,,
,family,0.8209875822067261,,,,,,,,
https://scontent-sit4-1.cdninstagram.com/t51.2885-15/e35/12905215_1648260028746931_1329388295_n.jpg,child,0.9873043298721313,Relationships,,,,"Baby family",,,
,people,0.9807607531547546,,,,,,,,
,woman,0.9771283864974976,,,,,,,,
,two,0.9723880290985107,,,,,,,,
,portrait,0.9672192335128784,,,,,,,,
,family,0.9528589844703674,,,,,,,,
,adult,0.9519485235214233,,,,,,,,
,group,0.9189716577529907,,,,,,,,
,sit,0.9013469219207764,,,,,,,,
,girl,0.9007664918899536,,,,,,,,
,three,0.8960641026496887,,,,,,,,
,indoors,0.883417010307312,,,,,,,,
,togetherness,0.8817204236984253,,,,,,,,
,interaction,0.8808771371841431,,,,,,,,
,"facial expression",0.8618364334106445,,,,,,,,
,offspring,0.8557825088500977,,,,,,,,
,man,0.8489398956298828,,,,,,,,
,enjoyment,0.845365047454834,,,,,,,,
,love,0.845062255859375,,,,,,,,
,affection,0.8275456428527832,,,,,,,,
https://scontent-sit4-1.cdninstagram.com/t51.2885-15/e35/12558799_174909259542644_384977710_n.jpg,group,0.9919466376304626,Relationships,"My life",Commerce,,Friends,"Here I am","Product/brand shots",
,woman,0.9754349589347839,,,,,,,,
,child,0.9735753536224365,,,,,,,,
,man,0.9730920791625977,,,,,,,,
,group,0.9711843132972717,,,,,,,,
,four,0.9388741850852966,,,,,,,,
,friendship,0.9324460625648499,,,,,,,,
,education,0.9279934167861938,,,,,,,,
,togetherness,0.927499532699585,,,,,,,,
,people,0.910575270652771,,,,,,,,
,school,0.8887637853622437,,,,,,,,
,indoors,0.8843411207199097,,,,,,,,
,room,0.8748087286949158,,,,,,,,
,adult,0.8502392768859863,,,,,,,,
,student,0.8477084636688232,,,,,,,,
,laughing,0.8462498188018799,,,,,,,,
,university,0.8299856781959534,,,,,,,,
,girl,0.8286136984825134,,,,,,,,
,table,0.8247288465499878,,,,,,,,
,enjoyment,0.8218859434127808,,,,,,,,
https://scontent-sit4-1.cdninstagram.com/t51.2885-15/e35/13703099_1082135118550073_354619220_n.jpg,group,0.9933842420578003,Relationships,Food,,,Friends,"Drinks and snack",,
,group,0.9925104975700378,,,,,,,,
,woman,0.99129319190979,,,,,,,,
,"facial expression",0.9859442710876465,,,,,,,,
,friendship,0.9803013801574707,,,,,,,,
,adult,0.9673651456832886,,,,,,,,
,four,0.9606400728225708,,,,,,,,
,enjoyment,0.9595820903778076,,,,,,,,
,room,0.9574899673461914,,,,,,,,
,people,0.9541552662849426,,,,,,,,
,happiness,0.9431421756744385,,,,,,,,
,recreation,0.9356220960617065,,,,,,,,
,indoors,0.9263322949409485,,,,,,,,
,togetherness,0.9219121336936951,,,,,,,,
,furniture,0.9215201735496521,,,,,,,,
,wear,0.9102166891098022,,,,,,,,
,lifestyle,0.9100331664085388,,,,,,,,
,party,0.9086267948150635,,,,,,,,
,portrait,0.8934062719345093,,,,,,,,
,girl,0.8927481174468994,,,,,,,,
https://scontent-sit4-1.cdninstagram.com/t51.2885-15/e15/12959974_1098548306832338_314935759_n.jpg,people,0.9895590543746948,Animals,Travel,,,Animals-s,Travel-s,,
,two,0.9710081815719604,,,,,,,,
,woman,0.9634267687797546,,,,,,,,
,mammal,0.9594324231147766,,,,,,,,
,adult,0.9551359415054321,,,,,,,,
,portrait,0.9507687091827393,,,,,,,,
,wear,0.9011919498443604,,,,,,,,
,group,0.8892045617103577,,,,,,,,
,festival,0.8760875463485718,,,,,,,,
,competition,0.8705673217773438,,,,,,,,
,child,0.8664669990539551,,,,,,,,
,religion,0.858134388923645,,,,,,,,
,road,0.8429585695266724,,,,,,,,
,outdoors,0.840181827545166,,,,,,,,
,three,0.8226600289344788,,,,,,,,
,one,0.8205384016036987,,,,,,,,
,zoo,0.8025434017181396,,,,,,,,
,man,0.7999681234359741,,,,,,,,
,family,0.7974110245704651,,,,,,,,
,park,0.7961664199829102,,,,,,,,
https://scontent-sit4-1.cdninstagram.com/t51.2885-15/e35/13108699_176639219397155_1725352780_n.jpg,food,0.9981603026390076,Food,,,,"Meal time",,,
,plate,0.9931168556213379,,,,,,,,
,meal,0.989917516708374,,,,,,,,
,vegetable,0.9892853498458862,,,,,,,,
,"no person",0.9849605560302734,,,,,,,,
,dish,0.9822418689727783,,,,,,,,
,herb,0.9784375429153442,,,,,,,,
,dinner,0.9766305088996887,,,,,,,,
,healthy,0.9754449725151062,,,,,,,,
,epicure,0.9736467599868774,,,,,,,,
,delicious,0.9710992574691772,,,,,,,,
,restaurant,0.9697713255882263,,,,,,,,
,drink,0.9697191119194031,,,,,,,,
,grow,0.9688472747802734,,,,,,,,
,tea,0.9677786827087402,,,,,,,,
,cuisine,0.9676231741905212,,,,,,,,
,cooking,0.9668484330177307,,,,,,,,
,lunch,0.963095486164093,,,,,,,,
,hot,0.9470904469490051,,,,,,,,
,tasty,0.9466515779495239,,,,,,,,
https://scontent-sit4-1.cdninstagram.com/t51.2885-15/e35/12105020_590574667774264_533608078_n.jpg,child,0.9990695118904114,Relationships,,,,Friends,,,
,family,0.9939517974853516,,,,,,,,
,togetherness,0.9931394457817078,,,,,,,,
,boy,0.9918440580368042,,,,,,,,
,group,0.9910269379615784,,,,,,,,
,three,0.9889585971832275,,,,,,,,
,offspring,0.9885705709457397,,,,,,,,
,four,0.9884438514709473,,,,,,,,
,woman,0.985663652420044,,,,,,,,
,portrait,0.9795432090759277,,,,,,,,
,"facial expression",0.9780846834182739,,,,,,,,
,people,0.9737699627876282,,,,,,,,
,happiness,0.9730350971221924,,,,,,,,
,affection,0.9715352058410645,,,,,,,,
,girl,0.9684368371963501,,,,,,,,
,laughing,0.9664422869682312,,,,,,,,
,friendship,0.964401364326477,,,,,,,,
,sibling,0.958785355091095,,,,,,,,
,fun,0.9547944068908691,,,,,,,,
,enjoyment,0.9429429173469543,,,,,,,,
https://scontent-sit4-1.cdninstagram.com/t51.2885-15/e35/12552226_1126661937378233_1363813996_n.jpg,recreation,0.9899373054504395,Relationships,Commerce,Entertainment,,Friends,"Product/brand shots",Events,
,education,0.9883908033370972,,,,,,,,
,school,0.9859856367111206,,,,,,,,
,group,0.9755688309669495,,,,,,,,
,chalkboard,0.9753044843673706,,,,,,,,
,movie,0.9726264476776123,,,,,,,,
,classroom,0.9717347621917725,,,,,,,,
,woman,0.9541704654693604,,,,,,,,
,actress,0.9457193613052368,,,,,,,,
,people,0.9410610198974609,,,,,,,,
,adult,0.9320060014724731,,,,,,,,
,college,0.918136715888977,,,,,,,,
,teacher,0.9162344932556152,,,,,,,,
,music,0.9159765243530273,,,,,,,,
,festival,0.911561131477356,,,,,,,,
,singer,0.910013735294342,,,,,,,,
,portrait,0.9099586009979248,,,,,,,,
,musician,0.9005365371704102,,,,,,,,
,man,0.8996978998184204,,,,,,,,
,university,0.8957588076591492,,,,,,,,
https://scontent-sit4-1.cdninstagram.com/t51.2885-15/e35/1171168_1126665514019904_90942087_n.jpg,flower,0.9965542554855347,,Environment,,,,"Natural beauty",,
,nature,0.9913622140884399,,,,,,,,
,flora,0.9881384372711182,,,,,,,,
,garden,0.983599066734314,,,,,,,,
,leaf,0.9797669649124146,,,,,,,,
,"no person",0.9692375659942627,,,,,,,,
,color,0.9625328779220581,,,,,,,,
,magnolia,0.9599089026451111,,,,,,,,
,blooming,0.9574201107025146,,,,,,,,
,summer,0.9564307928085327,,,,,,,,
,petal,0.9497014284133911,,,,,,,,
,rose,0.9465097784996033,,,,,,,,
,floral,0.9461163282394409,,,,,,,,
,outdoors,0.9373555779457092,,,,,,,,
,season,0.9373253583908081,,,,,,,,
,growth,0.936651349067688,,,,,,,,
,bright,0.9150043725967407,,,,,,,,
,field,0.9100043177604675,,,,,,,,
,decoration,0.8921684622764587,,,,,,,,
,branch,0.8817846775054932,,,,,,,,
https://scontent-sit4-1.cdninstagram.com/t51.2885-15/e35/13102545_814290162034289_1991837845_n.jpg,fruit,0.9976019859313965,Food,,,,Dessert,,,
,berry,0.9974873661994934,,,,,,,,
,sweet,0.9969052672386169,,,,,,,,
,strawberry,0.9965438842773438,,,,,,,,
,food,0.995509147644043,,,,,,,,
,cream,0.9951448440551758,,,,,,,,
,"no person",0.9931772947311401,,,,,,,,
,delicious,0.9795920848846436,,,,,,,,
,"dairy product",0.9777317643165588,,,,,,,,
,refreshment,0.9773962497711182,,,,,,,,
,chocolate,0.977067232131958,,,,,,,,
,sugar,0.9707871675491333,,,,,,,,
,raspberry,0.9599952101707458,,,,,,,,
,ice,0.9510524272918701,,,,,,,,
,grow,0.9404110908508301,,,,,,,,
,cake,0.9283004403114319,,,,,,,,
,frozen,0.9174543619155884,,,,,,,,
,mint,0.9027799367904663,,,,,,,,
,indulgence,0.9025388956069946,,,,,,,,
,creamy,0.9019487500190735,,,,,,,,
https://scontent-sit4-1.cdninstagram.com/t51.2885-15/e35/12917958_133283547072543_332034226_n.jpg,sky,0.9744953513145447,Food,Environment,Travel,,Self-preparation,"Manmade beauty",Travel-s,
,tower,0.9708731174468994,,,,,,,,
,portrait,0.9620020389556885,,,,,,,,
,woman,0.941490888595581,,,,,,,,
,tallest,0.9354260563850403,,,,,,,,
,girl,0.933245062828064,,,,,,,,
,urban,0.9260644912719727,,,,,,,,
,people,0.9247592687606812,,,,,,,,
,architecture,0.9175460934638977,,,,,,,,
,outdoors,0.89788818359375,,,,,,,,
,city,0.8972234725952148,,,,,,,,
,one,0.8825626373291016,,,,,,,,
,fun,0.8737870454788208,,,,,,,,
,smile,0.8664547204971313,,,,,,,,
,steel,0.8658161759376526,,,,,,,,
,travel,0.8631030917167664,,,,,,,,
,building,0.8542909622192383,,,,,,,,
,bridge,0.848804771900177,,,,,,,,
,fashion,0.8339917659759521,,,,,,,,
,hair,0.8337523937225342,,,,,,,,
https://scontent-sit4-1.cdninstagram.com/t51.2885-15/e35/13181504_703131989828173_284588940_n.jpg,"no person",0.9881400465965271,"My life",Commerce,"Fashion & Beauty",Travel,"Here I am","Product/brand shots","Fashion & Beauty-s",Travel-s
,luxury,0.988111674785614,,,,,,,,
,architecture,0.985407829284668,,,,,,,,
,contemporary,0.9765193462371826,,,,,,,,
,modern,0.9762833714485168,,,,,,,,
,indoors,0.9742310643196106,,,,,,,,
,stock,0.9490725994110107,,,,,,,,
,"interior design",0.948766827583313,,,,,,,,
,hotel,0.9421104192733765,,,,,,,,
,business,0.9418249130249023,,,,,,,,
,window,0.9298549890518188,,,,,,,,
,shopping,0.9296358227729797,,,,,,,,
,museum,0.9207463264465332,,,,,,,,
,travel,0.9198252558708191,,,,,,,,
,boutique,0.9063150882720947,,,,,,,,
,glass,0.9031803011894226,,,,,,,,
,room,0.9031760692596436,,,,,,,,
,daylight,0.8977621793746948,,,,,,,,
,city,0.8960119485855103,,,,,,,,
,building,0.8851427435874939,,,,,,,,
https://scontent-sit4-1.cdninstagram.com/t51.2885-15/e35/12530921_1720654838219821_1693379889_n.jpg,people,0.9931589365005493,"My life",Environment,Travel,,Doing,"Natural beauty",Travel-s,
,adult,0.9807393550872803,,,,,,,,
,one,0.9655791521072388,,,,,,,,
,outdoors,0.950034499168396,,,,,,,,
,woman,0.9411503076553345,,,,,,,,
,food,0.9353489875793457,,,,,,,,
,water,0.9342250823974609,,,,,,,,
,park,0.9010657072067261,,,,,,,,
,grow,0.9009578227996826,,,,,,,,
,man,0.9001092910766602,,,,,,,,
,garden,0.8958624601364136,,,,,,,,
,two,0.8894428610801697,,,,,,,,
,wood,0.8818254470825195,,,,,,,,
,nature,0.8725054264068604,,,,,,,,
,tree,0.8702808022499084,,,,,,,,
,recreation,0.8653667569160461,,,,,,,,
,environment,0.8447598218917847,,,,,,,,
,container,0.8398627042770386,,,,,,,,
,leaf,0.8366830945014954,,,,,,,,
,portrait,0.8352515697479248,,,,,,,,
https://scontent-sit4-1.cdninstagram.com/t51.2885-15/e35/12407324_785798974859403_1534754013_n.jpg,water,0.9996036887168884,Travel,Environment,,,Travel-s,"Natural beauty",,
,swimming,0.9968264102935791,,,,,,,,
,travel,0.9930106997489929,,,,,,,,
,leisure,0.9928059577941895,,,,,,,,
,pool,0.9913630485534668,,,,,,,,
,ocean,0.9847500324249268,,,,,,,,
,summer,0.9844753742218018,,,,,,,,
,sea,0.9830090999603271,,,,,,,,
,relaxation,0.9829842448234558,,,,,,,,
,recreation,0.9828039407730103,,,,,,,,
,vacation,0.9805089235305786,,,,,,,,
,resort,0.976076602935791,,,,,,,,
,beach,0.9739435315132141,,,,,,,,
,"swimming pool",0.9717351198196411,,,,,,,,
,tropical,0.9677852392196655,,,,,,,,
,sun,0.9603820443153381,,,,,,,,
,wet,0.9564451575279236,,,,,,,,
,turquoise,0.9513213634490967,,,,,,,,
,swimmer,0.9343066215515137,,,,,,,,
,enjoyment,0.9243301153182983,,,,,,,,
https://scontent-sit4-1.cdninstagram.com/t51.2885-15/e35/12362350_804348706343421_46428622_n.jpg,tree,0.9936535358428955,Recreation,Environment,,,Beach,"Natural beauty",,
,wood,0.9796038866043091,,,,,,,,
,park,0.9792883396148682,,,,,,,,
,leaf,0.9752326011657715,,,,,,,,
,people,0.9711176753044128,,,,,,,,
,road,0.9707087278366089,,,,,,,,
,outdoors,0.9654906392097473,,,,,,,,
,nature,0.9610131978988647,,,,,,,,
,garden,0.958055853843689,,,,,,,,
,summer,0.9575199484825134,,,,,,,,
,environment,0.951767086982727,,,,,,,,
,bench,0.9373639822006226,,,,,,,,
,flora,0.9328970909118652,,,,,,,,
,landscape,0.9319528341293335,,,,,,,,
,recreation,0.9232548475265503,,,,,,,,
,guidance,0.9175406694412231,,,,,,,,
,adult,0.9156476259231567,,,,,,,,
,travel,0.9151022434234619,,,,,,,,
,one,0.9093309640884399,,,,,,,,
,relaxation,0.9045274257659912,,,,,,,,
https://scontent-sit4-1.cdninstagram.com/t51.2885-15/e35/13584258_139058613187198_123360349_n.jpg,"no person",0.9908992648124695,Food,,,,Dessert,,,
,Christmas,0.9872083067893982,,,,,,,,
,winter,0.968894898891449,,,,,,,,
,ball,0.9573938250541687,,,,,,,,
,blur,0.9523707032203674,,,,,,,,
,celebration,0.9479938745498657,,,,,,,,
,glass,0.9147098064422607,,,,,,,,
,gold,0.9093905687332153,,,,,,,,
,water,0.9091348648071289,,,,,,,,
,decoration,0.895910382270813,,,,,,,,
,food,0.8935984373092651,,,,,,,,
,wet,0.8751678466796875,,,,,,,,
,shining,0.8657128810882568,,,,,,,,
,vacation,0.855064868927002,,,,,,,,
,traditional,0.8549535870552063,,,,,,,,
,sweet,0.8300628662109375,,,,,,,,
,sugar,0.8250576257705688,,,,,,,,
,fun,0.7985408306121826,,,,,,,,
,ice,0.79766845703125,,,,,,,,
,cold,0.7920711040496826,,,,,,,,
https://scontent-sit4-1.cdninstagram.com/t51.2885-15/e35/10616351_833046913490573_1405641387_n.jpg,flower,0.9970850348472595,Environment,Travel,,,"Natural beauty",Travel-s,,
,flora,0.987071692943573,,,,,,,,
,garden,0.9835389852523804,,,,,,,,
,tree,0.9793705940246582,,,,,,,,
,nature,0.967894434928894,,,,,,,,
,summer,0.9620888233184814,,,,,,,,
,leaf,0.9559715986251831,,,,,,,,
,season,0.9534606337547302,,,,,,,,
,growth,0.9451645612716675,,,,,,,,
,bright,0.9335981011390686,,,,,,,,
,blooming,0.9285746812820435,,,,,,,,
,outdoors,0.9283534288406372,,,,,,,,
,branch,0.9266190528869629,,,,,,,,
,floral,0.9220387935638428,,,,,,,,
,"no person",0.9210623502731323,,,,,,,,
,park,0.9184668064117432,,,,,,,,
,decoration,0.91304612159729,,,,,,,,
,color,0.9079556465148926,,,,,,,,
,beautiful,0.9009939432144165,,,,,,,,
,petal,0.891014814376831,,,,,,,,
https://scontent-sit4-1.cdninstagram.com/t51.2885-15/e35/13126730_615211788629802_938289438_n.jpg,"no person",0.9713351130485535,Environment,Culture,Travel,,"Manmade beauty",Culture-s,Travel-s,
,rack,0.9618377685546875,,,,,,,,
,industry,0.9605275392532349,,,,,,,,
,container,0.9520915746688843,,,,,,,,
,technology,0.9483630657196045,,,,,,,,
,business,0.9429605603218079,,,,,,,,
,crate,0.9247602224349976,,,,,,,,
,storage,0.9214230179786682,,,,,,,,
,"technical school",0.906552791595459,,,,,,,,
,line,0.8776161670684814,,,,,,,,
,equipment,0.8763697147369385,,,,,,,,
,warehouse,0.87602698802948,,,,,,,,
,commerce,0.8705506920814514,,,,,,,,
,row,0.8666874170303345,,,,,,,,
,shelf,0.8663090467453003,,,,,,,,
,server,0.863224446773529,,,,,,,,
,system,0.86321622133255,,,,,,,,
,support,0.8604361414909363,,,,,,,,
,vehicle,0.8538070917129517,,,,,,,,
,box,0.8476095795631409,,,,,,,,
https://scontent-sit4-1.cdninstagram.com/t51.2885-15/e35/12445823_2022278401330564_1268034670_n.jpg,temple,0.9872397184371948,Culture,Environment,Travel,"Fashion & Beauty",Culture-s,"Manmade beauty",Travel-s,Ootd
,people,0.977337121963501,,,,,,,,
,travel,0.9760476350784302,,,,,,,,
,Shinto,0.9558966159820557,,,,,,,,
,museum,0.9541827440261841,,,,,,,,
,city,0.9433568120002747,,,,,,,,
,castle,0.9416186809539795,,,,,,,,
,shrine,0.9409893751144409,,,,,,,,
,street,0.9393848776817322,,,,,,,,
,building,0.9151813983917236,,,,,,,,
,architecture,0.9148316383361816,,,,,,,,
,outdoors,0.9119774103164673,,,,,,,,
,imperial,0.907804012298584,,,,,,,,
,dynasty,0.8954130411148071,,,,,,,,
,emperor,0.8837701082229614,,,,,,,,
,samurai,0.8793410658836365,,,,,,,,
,dragon,0.8750183582305908,,,,,,,,
,forbidden,0.8735559582710266,,,,,,,,
,pagoda,0.8673642873764038,,,,,,,,
,one,0.8652771711349487,,,,,,,,
