url,class,score,,,,,,,,
https://scontent-sit4-1.cdninstagram.com/t51.2885-15/s320x320/e35/13774400_490721061137405_51526402_n.jpg,sign,0.9994449615478516,Entertainment,,,,Entertainment-s,,,
,sign,0.998846173286438,,,,,,,,
,text,0.9949132800102234,,,,,,,,
,road,0.9852355718612671,,,,,,,,
,bill,0.9837219715118408,,,,,,,,
,sign,0.9807568788528442,,,,,,,,
,warning,0.9793115258216858,,,,,,,,
,message,0.9703843593597412,,,,,,,,
,"fossil fuel",0.9475784301757812,,,,,,,,
,street,0.9426811933517456,,,,,,,,
,rally,0.9375338554382324,,,,,,,,
,guidance,0.937299370765686,,,,,,,,
,information,0.9270989894866943,,,,,,,,
,finance,0.9097726345062256,,,,,,,,
,signage,0.9090160727500916,,,,,,,,
,danger,0.9041454792022705,,,,,,,,
,"no person",0.9003957509994507,,,,,,,,
,law,0.9001914262771606,,,,,,,,
,caution,0.8956387639045715,,,,,,,,
,billboard,0.8952945470809937,,,,,,,,
https://scontent-sit4-1.cdninstagram.com/t51.2885-15/s480x480/e35/13398859_788081517995159_273399249_n.jpg,illustration,0.9853205680847168,Arts,,,,Arts-s,,,
,vector,0.9837069511413574,,,,,,,,
,cute,0.9786515831947327,,,,,,,,
,fun,0.9724254608154297,,,,,,,,
,sketch,0.9596160054206848,,,,,,,,
,funny,0.9588726758956909,,,,,,,,
,animal,0.9348754286766052,,,,,,,,
,luck,0.934335470199585,,,,,,,,
,child,0.9310871362686157,,,,,,,,
,graphic,0.9278724789619446,,,,,,,,
,Easter,0.925272524356842,,,,,,,,
,"no person",0.9113298654556274,,,,,,,,
,lucky,0.8894798755645752,,,,,,,,
,design,0.8846479654312134,,,,,,,,
,art,0.8756669759750366,,,,,,,,
,image,0.8710217475891113,,,,,,,,
,bill,0.8606570959091187,,,,,,,,
,clover,0.8591594099998474,,,,,,,,
,nature,0.8568518161773682,,,,,,,,
,frog,0.8542501330375671,,,,,,,,
https://scontent-sit4-1.cdninstagram.com/t51.2885-15/e35/13722136_1779260259017127_1863707505_n.jpg,annual,0.9847903251647949,Recreation,,,,Fitness,,,
,calendar,0.9826847314834595,,,,,,,,
,time,0.9805831909179688,,,,,,,,
,"no person",0.974127471446991,,,,,,,,
,schedule,0.9708558320999146,,,,,,,,
,date,0.9370182752609253,,,,,,,,
,stripe,0.926834225654602,,,,,,,,
,data,0.9230308532714844,,,,,,,,
,form,0.9171663522720337,,,,,,,,
,agenda,0.9069095253944397,,,,,,,,
,page,0.8915804028511047,,,,,,,,
,data,0.884521484375,,,,,,,,
,business,0.8717876672744751,,,,,,,,
,graph,0.8596934676170349,,,,,,,,
,statistics,0.8550474643707275,,,,,,,,
,reminder,0.8538318276405334,,,,,,,,
,planner,0.8523385524749756,,,,,,,,
,daily,0.8344069123268127,,,,,,,,
,future,0.8299946784973145,,,,,,,,
,number,0.8189805746078491,,,,,,,,
https://scontent-sit4-1.cdninstagram.com/t51.2885-15/s480x480/e35/13531832_1058829234154091_1115044683_n.jpg,illustration,0.9627280235290527,Entertainment,,,,Entertainment-s,,,
,"no person",0.9324436187744141,,,,,,,,
,vicious,0.9163898229598999,,,,,,,,
,fun,0.9155005216598511,,,,,,,,
,sketch,0.9145053029060364,,,,,,,,
,Halloween,0.9129385352134705,,,,,,,,
,cute,0.8712010383605957,,,,,,,,
,vector,0.8583167791366577,,,,,,,,
,skittish,0.8534648418426514,,,,,,,,
,desktop,0.8417927026748657,,,,,,,,
,danger,0.8346232175827026,,,,,,,,
,business,0.828935980796814,,,,,,,,
,symbol,0.8135919570922852,,,,,,,,
,animal,0.8091875314712524,,,,,,,,
,nature,0.8036726713180542,,,,,,,,
,scary,0.7966318130493164,,,,,,,,
,horror,0.7934345006942749,,,,,,,,
,graphic,0.7880233526229858,,,,,,,,
,image,0.7779333591461182,,,,,,,,
,bat,0.7390941381454468,,,,,,,,
https://scontent-sit4-1.cdninstagram.com/t51.2885-15/s480x480/e35/13397484_1095199960581942_300741205_n.jpg,portrait,0.9941648244857788,Entertainment,,,,Entertainment-s,,,
,man,0.9934935569763184,,,,,,,,
,face,0.9889217615127563,,,,,,,,
,people,0.986748218536377,,,,,,,,
,dark,0.978496789932251,,,,,,,,
,adult,0.9686675667762756,,,,,,,,
,vicious,0.9613303542137146,,,,,,,,
,mystery,0.9515011310577393,,,,,,,,
,mask,0.9473209977149963,,,,,,,,
,one,0.9435070753097534,,,,,,,,
,art,0.938015341758728,,,,,,,,
,human,0.9259685277938843,,,,,,,,
,Gothic,0.9057941436767578,,,,,,,,
,beard,0.8948270082473755,,,,,,,,
,culture,0.8828924894332886,,,,,,,,
,Halloween,0.877348780632019,,,,,,,,
,fashion,0.8712085485458374,,,,,,,,
,person,0.8710201978683472,,,,,,,,
,horror,0.8683191537857056,,,,,,,,
,"facial hair",0.8670445084571838,,,,,,,,
https://scontent-sit4-1.cdninstagram.com/t51.2885-15/s480x480/e35/13414172_735343053235237_1395619527_n.jpg,sketch,0.9974336624145508,Entertainment,,,,Entertainment-s,,,
,illustration,0.9957800507545471,,,,,,,,
,vector,0.9883756637573242,,,,,,,,
,animal,0.983614444732666,,,,,,,,
,cute,0.9803996086120605,,,,,,,,
,funny,0.9673511385917664,,,,,,,,
,fun,0.9628587365150452,,,,,,,,
,child,0.9520279765129089,,,,,,,,
,character,0.9456515312194824,,,,,,,,
,humor,0.9430887699127197,,,,,,,,
,lid,0.939434289932251,,,,,,,,
,graphic,0.9301856160163879,,,,,,,,
,cheerful,0.9070260524749756,,,,,,,,
,amusing,0.9055039882659912,,,,,,,,
,Easter,0.8947569131851196,,,,,,,,
,mascot,0.8900406956672668,,,,,,,,
,celebration,0.8887728452682495,,,,,,,,
,greeting,0.8871665000915527,,,,,,,,
,smile,0.8804242014884949,,,,,,,,
,bird,0.8722431063652039,,,,,,,,
https://scontent-sit4-1.cdninstagram.com/t51.2885-15/s480x480/e35/13381330_1769325716630890_678779268_n.jpg,text,0.9544883966445923,Entertainment,,,,Entertainment-s,,,
,dark,0.9526493549346924,,,,,,,,
,"no person",0.9508960843086243,,,,,,,,
,typography,0.9454336166381836,,,,,,,,
,illustration,0.9442516565322876,,,,,,,,
,business,0.9418424367904663,,,,,,,,
,alphabet,0.9213539361953735,,,,,,,,
,conceptual,0.9065793752670288,,,,,,,,
,creativity,0.8967999815940857,,,,,,,,
,desktop,0.8923876881599426,,,,,,,,
,success,0.8779678344726562,,,,,,,,
,internet,0.8750671744346619,,,,,,,,
,horizontal,0.8740599751472473,,,,,,,,
,party,0.8622931241989136,,,,,,,,
,teamwork,0.8545235395431519,,,,,,,,
,design,0.8512137532234192,,,,,,,,
,figure,0.8385875225067139,,,,,,,,
,vector,0.8368326425552368,,,,,,,,
,design,0.8255884051322937,,,,,,,,
,illuminated,0.8142954707145691,,,,,,,,
https://scontent-sit4-1.cdninstagram.com/t51.2885-15/s480x480/e35/13391158_1078673592172036_722313076_n.jpg,vector,0.9761969447135925,Entertainment,,,,Entertainment-s,,,
,illustration,0.9674267768859863,,,,,,,,
,sign,0.9544727802276611,,,,,,,,
,Halloween,0.951519250869751,,,,,,,,
,"no person",0.9467480182647705,,,,,,,,
,fun,0.9404196739196777,,,,,,,,
,sketch,0.9367464780807495,,,,,,,,
,celebration,0.9100793600082397,,,,,,,,
,festival,0.9078157544136047,,,,,,,,
,symbol,0.9076170921325684,,,,,,,,
,cute,0.9028913974761963,,,,,,,,
,bill,0.9024001359939575,,,,,,,,
,art,0.8897860050201416,,,,,,,,
,lid,0.8862133622169495,,,,,,,,
,party,0.8796431422233582,,,,,,,,
,child,0.8767510652542114,,,,,,,,
,card,0.8699992895126343,,,,,,,,
,greeting,0.8687325716018677,,,,,,,,
,desktop,0.8646092414855957,,,,,,,,
,funny,0.8504250645637512,,,,,,,,
https://scontent-sit4-1.cdninstagram.com/t51.2885-15/s640x640/e15/13380915_1774736789404560_1040560532_n.jpg,beach,0.9987949728965759,Recreation,Travel,Environment,,Beach,Travel-s,"Natural beauty",
,sand,0.9974551200866699,,,,,,,,
,water,0.9974049925804138,,,,,,,,
,seashore,0.9957394003868103,,,,,,,,
,sea,0.9954168796539307,,,,,,,,
,ocean,0.993664026260376,,,,,,,,
,travel,0.9920332431793213,,,,,,,,
,summer,0.9808259010314941,,,,,,,,
,vacation,0.9782161712646484,,,,,,,,
,relaxation,0.9699703454971313,,,,,,,,
,tropical,0.9685394763946533,,,,,,,,
,surf,0.9657788276672363,,,,,,,,
,wave,0.9623517394065857,,,,,,,,
,sky,0.9570980072021484,,,,,,,,
,leisure,0.9542737603187561,,,,,,,,
,seascape,0.9443962574005127,,,,,,,,
,landscape,0.9422742128372192,,,,,,,,
,recreation,0.939928412437439,,,,,,,,
,island,0.9395425319671631,,,,,,,,
,"fair weather",0.9320834875106812,,,,,,,,
https://scontent-sit4-1.cdninstagram.com/t51.2885-15/s480x480/e35/13643478_262331610814733_395542668_n.jpg,indoors,0.9925506114959717,Business,,,,Work,,,
,stock,0.9822350740432739,,,,,,,,
,exhibition,0.9773423075675964,,,,,,,,
,technology,0.9704114198684692,,,,,,,,
,shelf,0.9623008966445923,,,,,,,,
,commerce,0.9581557512283325,,,,,,,,
,people,0.9565075635910034,,,,,,,,
,shopping,0.9451177716255188,,,,,,,,
,"no person",0.9445724487304688,,,,,,,,
,room,0.9240847826004028,,,,,,,,
,telephone,0.9228280782699585,,,,,,,,
,furniture,0.9159782528877258,,,,,,,,
,business,0.9093015193939209,,,,,,,,
,merchandise,0.8920285105705261,,,,,,,,
,industry,0.8918985724449158,,,,,,,,
,adult,0.8756179809570312,,,,,,,,
,shop,0.8687211871147156,,,,,,,,
,daylight,0.8660350441932678,,,,,,,,
,connection,0.8542607426643372,,,,,,,,
,display,0.84315025806427,,,,,,,,
https://scontent-sit4-1.cdninstagram.com/t51.2885-15/s480x480/e35/13394897_955757184536769_1734907096_n.jpg,illustration,0.9763972759246826,Entertainment,,,,Entertainment-s,,,
,sketch,0.9702197313308716,,,,,,,,
,fun,0.9531915187835693,,,,,,,,
,graphic,0.9325718879699707,,,,,,,,
,vector,0.9310475587844849,,,,,,,,
,cute,0.9300172924995422,,,,,,,,
,"no person",0.9231442213058472,,,,,,,,
,animal,0.921921968460083,,,,,,,,
,funny,0.908937931060791,,,,,,,,
,celebration,0.9066469669342041,,,,,,,,
,Christmas,0.9061456322669983,,,,,,,,
,Halloween,0.9021624326705933,,,,,,,,
,child,0.8886931538581848,,,,,,,,
,winter,0.8644262552261353,,,,,,,,
,amusing,0.8440425395965576,,,,,,,,
,greeting,0.8406641483306885,,,,,,,,
,card,0.8295650482177734,,,,,,,,
,desktop,0.825264573097229,,,,,,,,
,scary,0.8161789774894714,,,,,,,,
,monster,0.8037905693054199,,,,,,,,
https://scontent-sit4-1.cdninstagram.com/t51.2885-15/e35/13388591_1798529600375976_1083026230_n.jpg,"no person",0.9774501323699951,Commerce,,,,"Product/brand shots",,,
,toy,0.9483647346496582,,,,,,,,
,fun,0.9314079880714417,,,,,,,,
,decoration,0.9134776592254639,,,,,,,,
,child,0.9057000875473022,,,,,,,,
,illustration,0.9000076055526733,,,,,,,,
,color,0.8923684358596802,,,,,,,,
,bright,0.8913581371307373,,,,,,,,
,little,0.8855503797531128,,,,,,,,
,cute,0.8783760070800781,,,,,,,,
,funny,0.8687453269958496,,,,,,,,
,desktop,0.8672117590904236,,,,,,,,
,art,0.8646718263626099,,,,,,,,
,design,0.8384711742401123,,,,,,,,
,pattern,0.8359143733978271,,,,,,,,
,Christmas,0.8337730169296265,,,,,,,,
,kind,0.8324817419052124,,,,,,,,
,food,0.8261314630508423,,,,,,,,
,group,0.8241335153579712,,,,,,,,
,creativity,0.8201037049293518,,,,,,,,
https://scontent-sit4-1.cdninstagram.com/t51.2885-15/e35/13397573_820420484756698_792436703_n.jpg,healthcare,0.983566403388977,Undefined,,,,Undefined,,,
,disease,0.9821480512619019,,,,,,,,
,medicine,0.9747103452682495,,,,,,,,
,illness,0.9747076630592346,,,,,,,,
,money,0.9721322655677795,,,,,,,,
,"no person",0.9640423059463501,,,,,,,,
,number,0.9474129676818848,,,,,,,,
,business,0.9461901187896729,,,,,,,,
,hospital,0.940483570098877,,,,,,,,
,finance,0.9393208622932434,,,,,,,,
,administration,0.932706356048584,,,,,,,,
,offense,0.9151521921157837,,,,,,,,
,paper,0.9116331338882446,,,,,,,,
,emergency,0.9104680418968201,,,,,,,,
,debt,0.8999896049499512,,,,,,,,
,finance,0.8818354606628418,,,,,,,,
,recession,0.8720115423202515,,,,,,,,
,treatment,0.8670512437820435,,,,,,,,
,label,0.8651391863822937,,,,,,,,
,"still life",0.8645566701889038,,,,,,,,
https://scontent-sit4-1.cdninstagram.com/t51.2885-15/s750x750/sh0.08/e35/13694390_1717876431811109_1767373792_n.jpg,sun,0.9993836879730225,Environment,,,,"Natural beauty",,,
,sunset,0.9954516291618347,,,,,,,,
,sky,0.9931426048278809,,,,,,,,
,moon,0.9920393228530884,,,,,,,,
,dawn,0.9917930364608765,,,,,,,,
,landscape,0.9858673810958862,,,,,,,,
,"fair weather",0.9850559234619141,,,,,,,,
,"no person",0.9817899465560913,,,,,,,,
,light,0.9777158498764038,,,,,,,,
,astronomy,0.9662814140319824,,,,,,,,
,evening,0.9662284255027771,,,,,,,,
,eclipse,0.963154673576355,,,,,,,,
,nature,0.9583261609077454,,,,,,,,
,dusk,0.9580233097076416,,,,,,,,
,Heaven,0.9571815729141235,,,,,,,,
,bright,0.9511972069740295,,,,,,,,
,backlit,0.9448726177215576,,,,,,,,
,outdoors,0.931709349155426,,,,,,,,
,weather,0.9308510422706604,,,,,,,,
,sunbeam,0.9221360683441162,,,,,,,,
https://scontent-sit4-1.cdninstagram.com/t51.2885-15/e35/13712231_1763100303934677_1381796101_n.jpg,time,0.992894172668457,Commerce,"Fashion & Beauty",,,"Product/brand shots","Fashion & Beauty-s",,
,instrument,0.9890429973602295,,,,,,,,
,watch,0.9832780957221985,,,,,,,,
,clock,0.9767871499061584,,,,,,,,
,"no person",0.9757001399993896,,,,,,,,
,precision,0.9732459783554077,,,,,,,,
,business,0.9613073468208313,,,,,,,,
,equipment,0.9300054311752319,,,,,,,,
,arrow,0.9298038482666016,,,,,,,,
,analogue,0.9120186567306519,,,,,,,,
,one,0.9048110246658325,,,,,,,,
,guidance,0.9035302996635437,,,,,,,,
,pressure,0.9006425142288208,,,,,,,,
,timer,0.899118185043335,,,,,,,,
,isolated,0.8940967321395874,,,,,,,,
,indoors,0.8919990062713623,,,,,,,,
,accuracy,0.876409649848938,,,,,,,,
,dial,0.8733895421028137,,,,,,,,
,number,0.8689725399017334,,,,,,,,
,wristwatch,0.8663046956062317,,,,,,,,
https://scontent-sit4-1.cdninstagram.com/t51.2885-15/e35/13473211_805809412852536_308149396_n.jpg,template,0.9755203723907471,Undefined,,,,Undefined,,,
,text,0.9732760190963745,,,,,,,,
,card,0.9509116411209106,,,,,,,,
,business,0.9468012452125549,,,,,,,,
,presentation,0.9346197247505188,,,,,,,,
,graphic,0.9312920570373535,,,,,,,,
,illustration,0.9212320446968079,,,,,,,,
,banner,0.9179812669754028,,,,,,,,
,form,0.9011621475219727,,,,,,,,
,page,0.8939562439918518,,,,,,,,
,time,0.8788321614265442,,,,,,,,
,company,0.8755420446395874,,,,,,,,
,vector,0.8742372393608093,,,,,,,,
,desktop,0.8627362847328186,,,,,,,,
,annual,0.8618795275688171,,,,,,,,
,bill,0.8608426451683044,,,,,,,,
,"no person",0.8601868152618408,,,,,,,,
,promotion,0.8598684668540955,,,,,,,,
,abstract,0.8538722991943359,,,,,,,,
,schedule,0.8498245477676392,,,,,,,,
https://scontent-sit4-1.cdninstagram.com/t51.2885-15/e35/13534368_1442856525740352_2064763032_n.jpg,food,0.9991979002952576,Food,,,,"Meal time",,,
,delicious,0.9943963289260864,,,,,,,,
,sweet,0.9913855791091919,,,,,,,,
,sauce,0.9842160940170288,,,,,,,,
,plate,0.9839979410171509,,,,,,,,
,"no person",0.983914852142334,,,,,,,,
,dish,0.9772982597351074,,,,,,,,
,meal,0.9738842248916626,,,,,,,,
,fruit,0.9721366167068481,,,,,,,,
,syrup,0.9701793193817139,,,,,,,,
,epicure,0.9658551216125488,,,,,,,,
,sugar,0.9651716947555542,,,,,,,,
,tasty,0.9631542563438416,,,,,,,,
,grow,0.9621545076370239,,,,,,,,
,chocolate,0.957217812538147,,,,,,,,
,restaurant,0.9569028615951538,,,,,,,,
,hot,0.9496410489082336,,,,,,,,
,cuisine,0.9446640014648438,,,,,,,,
,"dairy product",0.9422788619995117,,,,,,,,
,refreshment,0.9331105947494507,,,,,,,,
https://scontent-sit4-1.cdninstagram.com/t51.2885-15/s640x640/sh0.08/e35/13737054_283881791968348_1832812694_n.jpg,water,0.9901680946350098,Environment,,,,"Manmade beauty",,,
,city,0.9779692888259888,,,,,,,,
,bridge,0.9755344986915588,,,,,,,,
,river,0.9753276109695435,,,,,,,,
,evening,0.9671427011489868,,,,,,,,
,light,0.9669832587242126,,,,,,,,
,travel,0.9603084921836853,,,,,,,,
,reflection,0.9598727226257324,,,,,,,,
,sunset,0.9596801400184631,,,,,,,,
,building,0.9528518915176392,,,,,,,,
,dusk,0.9494763612747192,,,,,,,,
,"no person",0.944426953792572,,,,,,,,
,park,0.9326602220535278,,,,,,,,
,architecture,0.9268128871917725,,,,,,,,
,tree,0.9248073101043701,,,,,,,,
,dawn,0.9231315851211548,,,,,,,,
,urban,0.9117037057876587,,,,,,,,
,outdoors,0.9100921750068665,,,,,,,,
,sky,0.9041233062744141,,,,,,,,
,landscape,0.8990379571914673,,,,,,,,
https://scontent-sit4-1.cdninstagram.com/t51.2885-15/s480x480/e35/13696916_292342584490370_2103922176_n.jpg,technology,0.9949188232421875,Technology,Business,,,Technology-s,Work,,
,computer,0.9851276874542236,,,,,,,,
,indoors,0.9828188419342041,,,,,,,,
,industry,0.9745101928710938,,,,,,,,
,office,0.9744405746459961,,,,,,,,
,business,0.97364342212677,,,,,,,,
,display,0.9728832244873047,,,,,,,,
,monitor,0.9632660746574402,,,,,,,,
,screen,0.95963454246521,,,,,,,,
,horizontal,0.9525014162063599,,,,,,,,
,communication,0.9477407932281494,,,,,,,,
,equipment,0.9250977039337158,,,,,,,,
,internet,0.9176137447357178,,,,,,,,
,electronics,0.9093752503395081,,,,,,,,
,exhibition,0.9036969542503357,,,,,,,,
,grinder,0.8900683522224426,,,,,,,,
,airport,0.8893725872039795,,,,,,,,
,desk,0.8865137696266174,,,,,,,,
,connection,0.8739160895347595,,,,,,,,
,modern,0.8683876395225525,,,,,,,,
https://scontent-sit4-1.cdninstagram.com/t51.2885-15/e35/13774443_1806798742882805_1790805902_n.jpg,business,0.9746687412261963,Gifts,Celebrations,,,Gifts-s,"Personal Events",,
,paper,0.9551006555557251,,,,,,,,
,"no person",0.9511598348617554,,,,,,,,
,landscape,0.929491400718689,,,,,,,,
,exhibition,0.9273211359977722,,,,,,,,
,museum,0.9252859950065613,,,,,,,,
,travel,0.9154199361801147,,,,,,,,
,building,0.913334846496582,,,,,,,,
,tourism,0.9096894264221191,,,,,,,,
,commerce,0.9040368795394897,,,,,,,,
,money,0.903455376625061,,,,,,,,
,sign,0.9000967741012573,,,,,,,,
,festival,0.8971227407455444,,,,,,,,
,administration,0.8970415592193604,,,,,,,,
,retro,0.8846036791801453,,,,,,,,
,document,0.8839256763458252,,,,,,,,
,family,0.8670560717582703,,,,,,,,
,house,0.8631604909896851,,,,,,,,
,city,0.8628216981887817,,,,,,,,
,office,0.8455394506454468,,,,,,,,
https://scontent-sit4-1.cdninstagram.com/t51.2885-15/s480x480/e35/13355467_100948333667988_1806237211_n.jpg,vicious,0.9794212579727173,Entertainment,,,,Entertainment-s,,,
,horror,0.9784350395202637,,,,,,,,
,Satan,0.9723759889602661,,,,,,,,
,face,0.969562292098999,,,,,,,,
,Halloween,0.9695225954055786,,,,,,,,
,Gothic,0.9675121307373047,,,,,,,,
,nightmare,0.9673671722412109,,,,,,,,
,demon,0.9562164545059204,,,,,,,,
,mystery,0.9505271911621094,,,,,,,,
,ghoul,0.9487682580947876,,,,,,,,
,mask,0.9444918632507324,,,,,,,,
,bloody,0.9429826736450195,,,,,,,,
,skittish,0.9354838132858276,,,,,,,,
,scary,0.933040976524353,,,,,,,,
,dark,0.9317289590835571,,,,,,,,
,portrait,0.9314543604850769,,,,,,,,
,witch,0.9203816652297974,,,,,,,,
,ghost,0.9201631546020508,,,,,,,,
,blood,0.9194273948669434,,,,,,,,
,people,0.9136655926704407,,,,,,,,
https://scontent-sit4-1.cdninstagram.com/t51.2885-15/e35/13744297_259507584431078_1836311106_n.jpg,food,0.9952952265739441,Food,,,,"Meal time",,,
,"no person",0.9875595569610596,,,,,,,,
,grow,0.9529814720153809,,,,,,,,
,meal,0.9522050023078918,,,,,,,,
,dish,0.9405719041824341,,,,,,,,
,delicious,0.9348016977310181,,,,,,,,
,dinner,0.9341620206832886,,,,,,,,
,rice,0.9327589273452759,,,,,,,,
,plate,0.9244321584701538,,,,,,,,
,"still life",0.9222667217254639,,,,,,,,
,cooking,0.9169554114341736,,,,,,,,
,meat,0.9133661985397339,,,,,,,,
,sweet,0.9129167199134827,,,,,,,,
,lunch,0.9127000570297241,,,,,,,,
,vegetable,0.911568284034729,,,,,,,,
,restaurant,0.8830674290657043,,,,,,,,
,"dairy product",0.8804992437362671,,,,,,,,
,cuisine,0.8724093437194824,,,,,,,,
,fish,0.8698548078536987,,,,,,,,
,tasty,0.8694198131561279,,,,,,,,
https://scontent-sit4-1.cdninstagram.com/t51.2885-15/s640x640/e15/13355671_1118614304867356_957396521_n.jpg,ocean,0.9941949844360352,Environment,Travel,Recreation,,"Natural beauty",Travel-s,Beach,
,seashore,0.9934960603713989,,,,,,,,
,water,0.993317186832428,,,,,,,,
,sea,0.9930972456932068,,,,,,,,
,beach,0.9847803115844727,,,,,,,,
,travel,0.9847644567489624,,,,,,,,
,wave,0.9783790111541748,,,,,,,,
,"no person",0.9781957268714905,,,,,,,,
,seascape,0.9741222262382507,,,,,,,,
,surf,0.9730091691017151,,,,,,,,
,landscape,0.9570447206497192,,,,,,,,
,sky,0.9539664387702942,,,,,,,,
,island,0.9525136947631836,,,,,,,,
,rock,0.9478446245193481,,,,,,,,
,summer,0.9401737451553345,,,,,,,,
,vacation,0.9317142367362976,,,,,,,,
,scenic,0.926077663898468,,,,,,,,
,bay,0.9257597923278809,,,,,,,,
,outdoors,0.9234163761138916,,,,,,,,
,nature,0.9175968170166016,,,,,,,,
https://scontent-sit4-1.cdninstagram.com/t51.2885-15/s640x640/e15/13671126_1127707797287041_1814555558_n.jpg,people,0.9962619543075562,Entertainment,,,,Sports,,,
,crowd,0.9956530928611755,,,,,,,,
,stadium,0.9946256875991821,,,,,,,,
,audience,0.9921224117279053,,,,,,,,
,many,0.9897775650024414,,,,,,,,
,soccer,0.9850872159004211,,,,,,,,
,group,0.9791730642318726,,,,,,,,
,competition,0.9741871356964111,,,,,,,,
,"sports fan",0.9689209461212158,,,,,,,,
,spectator,0.9662476778030396,,,,,,,,
,football,0.964863657951355,,,,,,,,
,group,0.9564886093139648,,,,,,,,
,performance,0.9560075998306274,,,,,,,,
,concert,0.9559739232063293,,,,,,,,
,grandstand,0.9537466764450073,,,,,,,,
,athlete,0.9514448642730713,,,,,,,,
,game,0.9416726231575012,,,,,,,,
,venue,0.9415944814682007,,,,,,,,
,ceremony,0.9364464282989502,,,,,,,,
,ball,0.9319632053375244,,,,,,,,
https://scontent-sit4-1.cdninstagram.com/t51.2885-15/e35/13398532_526143354260415_1323924298_n.jpg,stock,0.9864703416824341,Commerce,,,,"Product/brand shots",,,
,option,0.9684234857559204,,,,,,,,
,shopping,0.9643000364303589,,,,,,,,
,drink,0.9634785652160645,,,,,,,,
,"no person",0.9560788869857788,,,,,,,,
,market,0.9497517347335815,,,,,,,,
,bottle,0.9492412805557251,,,,,,,,
,food,0.9453259110450745,,,,,,,,
,indoors,0.9398344159126282,,,,,,,,
,sale,0.9394330978393555,,,,,,,,
,commerce,0.9301103353500366,,,,,,,,
,toy,0.9233656525611877,,,,,,,,
,container,0.9206380844116211,,,,,,,,
,merchandise,0.9165155291557312,,,,,,,,
,traditional,0.9142509698867798,,,,,,,,
,people,0.9124676585197449,,,,,,,,
,shop,0.9051276445388794,,,,,,,,
,child,0.8934056758880615,,,,,,,,
,fun,0.8928165435791016,,,,,,,,
,souvenir,0.8918671011924744,,,,,,,,
https://scontent-sit4-1.cdninstagram.com/t51.2885-15/e35/13402200_1142869789109911_646229303_n.jpg,food,0.999003529548645,Food,,,,"Meal time",,,
,rice,0.9944589138031006,,,,,,,,
,vegetable,0.9908460378646851,,,,,,,,
,"no person",0.9900861978530884,,,,,,,,
,meal,0.9877510070800781,,,,,,,,
,dinner,0.9858282804489136,,,,,,,,
,cuisine,0.9796707034111023,,,,,,,,
,lunch,0.9770693182945251,,,,,,,,
,cooking,0.9761430621147156,,,,,,,,
,dish,0.9751399755477905,,,,,,,,
,delicious,0.97491455078125,,,,,,,,
,plate,0.9585204124450684,,,,,,,,
,hot,0.9584504961967468,,,,,,,,
,traditional,0.9578614234924316,,,,,,,,
,egg,0.9577997922897339,,,,,,,,
,cabbage,0.950444221496582,,,,,,,,
,nutrition,0.9466663002967834,,,,,,,,
,chili,0.9403939843177795,,,,,,,,
,restaurant,0.9343194961547852,,,,,,,,
,noodles,0.9338347911834717,,,,,,,,
https://scontent-sit4-1.cdninstagram.com/t51.2885-15/e35/13636180_1767919223453240_397948045_n.jpg,money,0.9930707216262817,Undefined,,,,Undefined,,,
,business,0.991593062877655,,,,,,,,
,paper,0.9905878901481628,,,,,,,,
,"no person",0.9829667806625366,,,,,,,,
,finance,0.9819736480712891,,,,,,,,
,money,0.9789757132530212,,,,,,,,
,number,0.9629377722740173,,,,,,,,
,finance,0.9627346396446228,,,,,,,,
,text,0.9616714715957642,,,,,,,,
,administration,0.9615088105201721,,,,,,,,
,wealth,0.9602887630462646,,,,,,,,
,bank,0.9517872333526611,,,,,,,,
,medicine,0.9487853050231934,,,,,,,,
,financial,0.9484677314758301,,,,,,,,
,commerce,0.9434555768966675,,,,,,,,
,document,0.937537431716919,,,,,,,,
,sign,0.9250333309173584,,,,,,,,
,cash,0.902363121509552,,,,,,,,
,dollar,0.9017547965049744,,,,,,,,
,income,0.8939317464828491,,,,,,,,
https://scontent-sit4-1.cdninstagram.com/t51.2885-15/e35/13694829_1563447570618036_1398047450_n.jpg,food,0.998327374458313,Food,,,,"Meal time",,,
,rice,0.9941085577011108,,,,,,,,
,dinner,0.991034984588623,,,,,,,,
,hot,0.989050030708313,,,,,,,,
,pork,0.9875039458274841,,,,,,,,
,meat,0.9864421486854553,,,,,,,,
,dish,0.9853999614715576,,,,,,,,
,delicious,0.9849236011505127,,,,,,,,
,lunch,0.9843332767486572,,,,,,,,
,meal,0.9820471405982971,,,,,,,,
,cuisine,0.9746086597442627,,,,,,,,
,"no person",0.974183201789856,,,,,,,,
,plate,0.9740136861801147,,,,,,,,
,vegetable,0.9721217155456543,,,,,,,,
,traditional,0.9699168801307678,,,,,,,,
,cooking,0.9628749489784241,,,,,,,,
,restaurant,0.962059736251831,,,,,,,,
,sauce,0.9607939720153809,,,,,,,,
,chicken,0.955576479434967,,,,,,,,
,beef,0.9311280846595764,,,,,,,,
https://scontent-sit4-1.cdninstagram.com/t51.2885-15/e35/13551581_1754511441462603_1679437776_n.jpg,"no person",0.994965672492981,Food,,,,"Meal time",,,
,food,0.9897984266281128,,,,,,,,
,delicious,0.9566020965576172,,,,,,,,
,dinner,0.9558264017105103,,,,,,,,
,lunch,0.9483637809753418,,,,,,,,
,meal,0.9456006288528442,,,,,,,,
,vegetable,0.9447730779647827,,,,,,,,
,rice,0.9386036992073059,,,,,,,,
,traditional,0.9362037777900696,,,,,,,,
,grow,0.9320545792579651,,,,,,,,
,hot,0.9314608573913574,,,,,,,,
,meat,0.9276566505432129,,,,,,,,
,nutrition,0.9244404435157776,,,,,,,,
,dish,0.9206058382987976,,,,,,,,
,"dairy product",0.9082167744636536,,,,,,,,
,plate,0.9011037349700928,,,,,,,,
,cooking,0.9007601737976074,,,,,,,,
,sauce,0.883939266204834,,,,,,,,
,homemade,0.8832900524139404,,,,,,,,
,breakfast,0.8708266019821167,,,,,,,,
https://scontent-sit4-1.cdninstagram.com/t51.2885-15/e35/13398463_581683782001356_1990671292_n.jpg,food,0.9933184385299683,Food,,,,"Meal time",,,
,breakfast,0.9919174909591675,,,,,,,,
,"no person",0.9896844029426575,,,,,,,,
,dawn,0.9838991165161133,,,,,,,,
,coffee,0.9658487439155579,,,,,,,,
,milk,0.9576764106750488,,,,,,,,
,cup,0.9539240002632141,,,,,,,,
,meal,0.9510747790336609,,,,,,,,
,plate,0.9501985907554626,,,,,,,,
,traditional,0.9443196058273315,,,,,,,,
,hot,0.9435818195343018,,,,,,,,
,drink,0.9400733113288879,,,,,,,,
,spoon,0.9301915168762207,,,,,,,,
,tea,0.9194191098213196,,,,,,,,
,bread,0.9098715782165527,,,,,,,,
,sweet,0.9079540967941284,,,,,,,,
,tableware,0.9042409062385559,,,,,,,,
,delicious,0.9001206159591675,,,,,,,,
,fruit,0.8905593156814575,,,,,,,,
,refreshment,0.8899742364883423,,,,,,,,
https://scontent-sit4-1.cdninstagram.com/t51.2885-15/e35/13413364_156982631384420_488918750_n.jpg,number,0.9954121112823486,Undefined,,,,Undefined,,,
,template,0.991023063659668,,,,,,,,
,form,0.9891320466995239,,,,,,,,
,presentation,0.9756684303283691,,,,,,,,
,layout,0.9742634296417236,,,,,,,,
,label,0.9649378061294556,,,,,,,,
,page,0.9531774520874023,,,,,,,,
,banner,0.9515464305877686,,,,,,,,
,booklet,0.9463869333267212,,,,,,,,
,"World Wide Web",0.9424972534179688,,,,,,,,
,business,0.9408241510391235,,,,,,,,
,order,0.9372094869613647,,,,,,,,
,tag,0.9178135395050049,,,,,,,,
,promotion,0.9138021469116211,,,,,,,,
,navigation,0.8931736946105957,,,,,,,,
,stripe,0.8660478591918945,,,,,,,,
,origami,0.8177635669708252,,,,,,,,
,arrow,0.8140565156936646,,,,,,,,
,data,0.8076130151748657,,,,,,,,
,finance,0.80495285987854,,,,,,,,
https://scontent-sit4-1.cdninstagram.com/t51.2885-15/e35/13658461_1727304877557131_333649_n.jpg,food,0.9833493232727051,Food,,,,"Meal time",,,
,delicious,0.9693376421928406,,,,,,,,
,dinner,0.9690001606941223,,,,,,,,
,"no person",0.9662095904350281,,,,,,,,
,lunch,0.9549170732498169,,,,,,,,
,meal,0.9391289949417114,,,,,,,,
,dish,0.9194983839988708,,,,,,,,
,meat,0.9192044734954834,,,,,,,,
,desktop,0.9190707206726074,,,,,,,,
,cooking,0.9171465635299683,,,,,,,,
,chicken,0.9137685298919678,,,,,,,,
,nutrition,0.9062833786010742,,,,,,,,
,healthy,0.9012022018432617,,,,,,,,
,closeup,0.8986677527427673,,,,,,,,
,plate,0.8848843574523926,,,,,,,,
,sauce,0.8842238187789917,,,,,,,,
,cuisine,0.8827464580535889,,,,,,,,
,tasty,0.8812988996505737,,,,,,,,
,traditional,0.8758680820465088,,,,,,,,
,epicure,0.8601193428039551,,,,,,,,
https://scontent-sit4-1.cdninstagram.com/t51.2885-15/e35/13320045_577416349102426_74649530_n.jpg,water,0.9967547655105591,Environment,Travel,,,"Natural beauty",Travel-s,,
,travel,0.9842034578323364,,,,,,,,
,summer,0.9664660692214966,,,,,,,,
,nature,0.9614633321762085,,,,,,,,
,"no person",0.9603530764579773,,,,,,,,
,boat,0.9585300087928772,,,,,,,,
,landscape,0.9582378268241882,,,,,,,,
,vacation,0.9563923478126526,,,,,,,,
,tree,0.9514750242233276,,,,,,,,
,lake,0.9476718306541443,,,,,,,,
,tourism,0.9473872184753418,,,,,,,,
,seashore,0.9465193748474121,,,,,,,,
,sea,0.943954586982727,,,,,,,,
,island,0.9344315528869629,,,,,,,,
,watercraft,0.929513156414032,,,,,,,,
,ocean,0.9280482530593872,,,,,,,,
,outdoors,0.9270623326301575,,,,,,,,
,tropical,0.9263623952865601,,,,,,,,
,sky,0.91819828748703,,,,,,,,
,recreation,0.9181802272796631,,,,,,,,
https://scontent-sit4-1.cdninstagram.com/t51.2885-15/e35/13704277_621677597999251_1938576052_n.jpg,city,0.9950499534606934,Environment,,,,"Manmade beauty",,,
,building,0.9857988357543945,,,,,,,,
,travel,0.9834451079368591,,,,,,,,
,cityscape,0.9785588979721069,,,,,,,,
,light,0.9782013297080994,,,,,,,,
,architecture,0.975871205329895,,,,,,,,
,river,0.96971195936203,,,,,,,,
,water,0.9687421321868896,,,,,,,,
,evening,0.9678085446357727,,,,,,,,
,urban,0.9649907350540161,,,,,,,,
,panoramic,0.9646393060684204,,,,,,,,
,skyscraper,0.9633830785751343,,,,,,,,
,skyline,0.959176778793335,,,,,,,,
,road,0.9565125107765198,,,,,,,,
,bridge,0.9554293155670166,,,,,,,,
,sky,0.9488522410392761,,,,,,,,
,dusk,0.9392884969711304,,,,,,,,
,"no person",0.9368664026260376,,,,,,,,
,"transportation system",0.9366638660430908,,,,,,,,
,business,0.9294407367706299,,,,,,,,
https://scontent-sit4-1.cdninstagram.com/t51.2885-15/e35/13534597_294101544270973_1259923823_n.jpg,"no person",0.9715437889099121,Food,,,,"Drinks and snack",,,
,food,0.9280411005020142,,,,,,,,
,health,0.9012695550918579,,,,,,,,
,desktop,0.885236382484436,,,,,,,,
,box,0.8719730377197266,,,,,,,,
,glass,0.8705043792724609,,,,,,,,
,money,0.8687906265258789,,,,,,,,
,bank,0.8604003190994263,,,,,,,,
,indoors,0.850287914276123,,,,,,,,
,container,0.8423200845718384,,,,,,,,
,wood,0.8372272253036499,,,,,,,,
,business,0.8337894678115845,,,,,,,,
,savings,0.8239821791648865,,,,,,,,
,vertical,0.8129711747169495,,,,,,,,
,traditional,0.8052311539649963,,,,,,,,
,nutrition,0.7951446771621704,,,,,,,,
,milk,0.7928133010864258,,,,,,,,
,healthy,0.7913153171539307,,,,,,,,
,delicious,0.7703258991241455,,,,,,,,
,plastic,0.7683607935905457,,,,,,,,
https://scontent-sit4-1.cdninstagram.com/t51.2885-15/e35/13422886_551464635035374_437516702_n.jpg,illustration,0.9840628504753113,Entertainment,,,,Events,,,
,text,0.9673597812652588,,,,,,,,
,"no person",0.9489747285842896,,,,,,,,
,people,0.9466835260391235,,,,,,,,
,adult,0.9151381254196167,,,,,,,,
,woman,0.8959300518035889,,,,,,,,
,tree,0.8850634098052979,,,,,,,,
,outdoors,0.8399752974510193,,,,,,,,
,business,0.8215939402580261,,,,,,,,
,desktop,0.8171753883361816,,,,,,,,
,recreation,0.8162752389907837,,,,,,,,
,bill,0.8028823137283325,,,,,,,,
,man,0.7938206195831299,,,,,,,,
,summer,0.7915254831314087,,,,,,,,
,creativity,0.7857919931411743,,,,,,,,
,flora,0.7687947154045105,,,,,,,,
,nature,0.7469490766525269,,,,,,,,
,card,0.7453393936157227,,,,,,,,
,portrait,0.7441184520721436,,,,,,,,
,cloud,0.7190128564834595,,,,,,,,
https://scontent-sit4-1.cdninstagram.com/t51.2885-15/e35/13398535_994838877219307_1173585090_n.jpg,indoors,0.9932552576065063,"Fashion & Beauty",,,,"My look",,,
,cooking,0.9826180934906006,,,,,,,,
,people,0.9762586355209351,,,,,,,,
,woman,0.9716230630874634,,,,,,,,
,chef,0.9544394016265869,,,,,,,,
,adult,0.9499102234840393,,,,,,,,
,food,0.9494686126708984,,,,,,,,
,one,0.9478709697723389,,,,,,,,
,drink,0.9339631795883179,,,,,,,,
,kitchenware,0.9309974312782288,,,,,,,,
,counter,0.9282838106155396,,,,,,,,
,man,0.9220358729362488,,,,,,,,
,preparation,0.9196935892105103,,,,,,,,
,family,0.8991979360580444,,,,,,,,
,breakfast,0.8987501859664917,,,,,,,,
,sit,0.8911516666412354,,,,,,,,
,coffee,0.8908548355102539,,,,,,,,
,stove,0.8837240934371948,,,,,,,,
,portrait,0.8700042366981506,,,,,,,,
,vertical,0.8698654770851135,,,,,,,,
https://scontent-sit4-1.cdninstagram.com/t51.2885-15/s750x750/sh0.08/e35/13712608_1761069440800319_444094003_n.jpg,people,0.9962140321731567,Relationships,Blank,,,"Best friends",Photography,,
,beach,0.9940512180328369,,,,,,,,
,man,0.9904149174690247,,,,,,,,
,sunset,0.9869452714920044,,,,,,,,
,love,0.9857412576675415,,,,,,,,
,sea,0.9855875372886658,,,,,,,,
,couple,0.9850245714187622,,,,,,,,
,silhouette,0.9847052097320557,,,,,,,,
,girl,0.9804413318634033,,,,,,,,
,ocean,0.9778646230697632,,,,,,,,
,family,0.9761120676994324,,,,,,,,
,dawn,0.9733951091766357,,,,,,,,
,water,0.9729560613632202,,,,,,,,
,monochrome,0.9713377952575684,,,,,,,,
,woman,0.9685046076774597,,,,,,,,
,nature,0.9602464437484741,,,,,,,,
,child,0.9595663547515869,,,,,,,,
,walk,0.9569727182388306,,,,,,,,
,adult,0.9390149116516113,,,,,,,,
,summer,0.9373275637626648,,,,,,,,
https://scontent-sit4-1.cdninstagram.com/t51.2885-15/e35/13392878_1781008698811697_1380003673_n.jpg,vertical,0.9828295707702637,Food,,,,"Meal time",,,
,food,0.9477696418762207,,,,,,,,
,text,0.8693795204162598,,,,,,,,
,variation,0.8428006768226624,,,,,,,,
,desktop,0.820410966873169,,,,,,,,
,horizontal,0.8190854787826538,,,,,,,,
,sweet,0.8157402276992798,,,,,,,,
,refreshment,0.812084436416626,,,,,,,,
,freshness,0.7641842365264893,,,,,,,,
,wood,0.7463782429695129,,,,,,,,
,people,0.7455037832260132,,,,,,,,
,indoors,0.7359755039215088,,,,,,,,
,glass,0.735591471195221,,,,,,,,
,meal,0.7306383848190308,,,,,,,,
,collection,0.7300142049789429,,,,,,,,
,isolated,0.7253333330154419,,,,,,,,
,plate,0.7126902341842651,,,,,,,,
,nature,0.7002314925193787,,,,,,,,
,fruit,0.6937310695648193,,,,,,,,
,decoration,0.6822738647460938,,,,,,,,
https://scontent-sit4-1.cdninstagram.com/t51.2885-15/e35/13651958_1799276477025475_1310326407_n.jpg,"no person",0.9913789629936218,Undefined,,,,Undefined,,,
,money,0.981359601020813,,,,,,,,
,business,0.9767613410949707,,,,,,,,
,medicine,0.9651296734809875,,,,,,,,
,paper,0.9607876539230347,,,,,,,,
,finance,0.9537394046783447,,,,,,,,
,healthcare,0.950974702835083,,,,,,,,
,bottle,0.939484715461731,,,,,,,,
,money,0.9339501857757568,,,,,,,,
,finance,0.9338827729225159,,,,,,,,
,wealth,0.927511990070343,,,,,,,,
,text,0.9144416451454163,,,,,,,,
,commerce,0.9038114547729492,,,,,,,,
,container,0.886589527130127,,,,,,,,
,one,0.8863991498947144,,,,,,,,
,sign,0.8761455416679382,,,,,,,,
,indoors,0.868675947189331,,,,,,,,
,financial,0.8684285879135132,,,,,,,,
,savings,0.868008017539978,,,,,,,,
,education,0.8656127452850342,,,,,,,,
https://scontent-sit4-1.cdninstagram.com/t51.2885-15/e35/13423016_1730624513846480_139094969_n.jpg,drink,0.9938863515853882,Food,,,,"Meal time",,,
,glass,0.9899107217788696,,,,,,,,
,juice,0.9754354357719421,,,,,,,,
,food,0.9611271619796753,,,,,,,,
,refreshment,0.9486905336380005,,,,,,,,
,fruit,0.9485768675804138,,,,,,,,
,milk,0.9434197545051575,,,,,,,,
,"no person",0.9321922063827515,,,,,,,,
,healthy,0.9313775300979614,,,,,,,,
,cold,0.9284807443618774,,,,,,,,
,cream,0.9224205613136292,,,,,,,,
,delicious,0.909684419631958,,,,,,,,
,cocktail,0.8973551988601685,,,,,,,,
,breakfast,0.896588921546936,,,,,,,,
,sweet,0.8902559280395508,,,,,,,,
,health,0.8776458501815796,,,,,,,,
,table,0.8761671781539917,,,,,,,,
,liquid,0.8745977878570557,,,,,,,,
,cup,0.8698357939720154,,,,,,,,
,smoothie,0.8577032089233398,,,,,,,,
https://scontent-sit4-1.cdninstagram.com/t51.2885-15/e35/13561738_1558162184487905_1931933199_n.jpg,luck,0.986203134059906,Commerce,,,,"Product/brand shots",,,
,gambling,0.9737735986709595,,,,,,,,
,symbol,0.9390590190887451,,,,,,,,
,lucky,0.9390276670455933,,,,,,,,
,number,0.9271385073661804,,,,,,,,
,game,0.9245193004608154,,,,,,,,
,food,0.9100793600082397,,,,,,,,
,desktop,0.9050696492195129,,,,,,,,
,paper,0.9040926098823547,,,,,,,,
,culture,0.9004884958267212,,,,,,,,
,hand,0.8969156742095947,,,,,,,,
,chance,0.896428108215332,,,,,,,,
,color,0.8896846771240234,,,,,,,,
,wealth,0.885196328163147,,,,,,,,
,traditional,0.8845178484916687,,,,,,,,
,"no person",0.8840190768241882,,,,,,,,
,tourism,0.8810929656028748,,,,,,,,
,sign,0.8728562593460083,,,,,,,,
,money,0.8719149231910706,,,,,,,,
,casino,0.8690592050552368,,,,,,,,
https://scontent-sit4-1.cdninstagram.com/t51.2885-15/e35/13408840_256117334766307_1025100342_n.jpg,meat,0.9971568584442139,Food,Commerce,"My life",,"Meal time","Product/brand shots","Here I am",
,food,0.9948200583457947,,,,,,,,
,plate,0.9925147294998169,,,,,,,,
,meal,0.9844048619270325,,,,,,,,
,barbecue,0.983016848564148,,,,,,,,
,beef,0.9720466136932373,,,,,,,,
,dinner,0.9631648063659668,,,,,,,,
,steak,0.9589173793792725,,,,,,,,
,dish,0.9585307836532593,,,,,,,,
,sauce,0.9518840909004211,,,,,,,,
,restaurant,0.9505411982536316,,,,,,,,
,pork,0.944364070892334,,,,,,,,
,horizontal,0.9334937334060669,,,,,,,,
,vegetable,0.9303960800170898,,,,,,,,
,lunch,0.9245830774307251,,,,,,,,
,vertical,0.9135746955871582,,,,,,,,
,chicken,0.9057276248931885,,,,,,,,
,fork,0.8962213397026062,,,,,,,,
,slice,0.8941890001296997,,,,,,,,
,cooking,0.8859350681304932,,,,,,,,
https://scontent-sit4-1.cdninstagram.com/t51.2885-15/e35/13534163_863275940443319_979105255_n.jpg,people,0.9984169602394104,Entertainment,,,,Entertainment-s,,,
,adult,0.9935673475265503,,,,,,,,
,woman,0.9864173531532288,,,,,,,,
,man,0.9852924346923828,,,,,,,,
,group,0.981732964515686,,,,,,,,
,child,0.9676334857940674,,,,,,,,
,crowd,0.9501045942306519,,,,,,,,
,ceremony,0.9196847081184387,,,,,,,,
,religion,0.9186983108520508,,,,,,,,
,celebration,0.9186360836029053,,,,,,,,
,family,0.9148223996162415,,,,,,,,
,group,0.9120343923568726,,,,,,,,
,wear,0.8942165970802307,,,,,,,,
,rite,0.8934853076934814,,,,,,,,
,many,0.8921189904212952,,,,,,,,
,performance,0.89150470495224,,,,,,,,
,dancing,0.8727723360061646,,,,,,,,
,music,0.8696311116218567,,,,,,,,
,festival,0.8693645000457764,,,,,,,,
,enjoyment,0.8576251268386841,,,,,,,,
https://scontent-sit4-1.cdninstagram.com/t51.2885-15/e35/13398553_1136203956400630_1336779481_n.jpg,market,0.9862276911735535,Commerce,,,,"Product/brand shots",,,
,sale,0.9840139746665955,,,,,,,,
,stock,0.9798916578292847,,,,,,,,
,souvenir,0.97771155834198,,,,,,,,
,presentation,0.971574068069458,,,,,,,,
,carnival,0.9621206521987915,,,,,,,,
,festival,0.9602508544921875,,,,,,,,
,shop,0.9477392435073853,,,,,,,,
,religion,0.9436582326889038,,,,,,,,
,city,0.9312927722930908,,,,,,,,
,shopping,0.928954005241394,,,,,,,,
,people,0.9267761707305908,,,,,,,,
,flea,0.9206981658935547,,,,,,,,
,sell,0.9181110858917236,,,,,,,,
,figurine,0.9091452956199646,,,,,,,,
,booth,0.8965301513671875,,,,,,,,
,variation,0.8952430486679077,,,,,,,,
,street,0.8940942287445068,,,,,,,,
,many,0.8856226205825806,,,,,,,,
,celebration,0.8835397362709045,,,,,,,,
https://scontent-sit4-1.cdninstagram.com/t51.2885-15/e35/13724530_1339376899423862_194968897_n.jpg,gold,0.9451941251754761,Gifts,,,,Gifts-s,,,
,flag,0.9365012645721436,,,,,,,,
,"no person",0.9256671071052551,,,,,,,,
,celebration,0.9237159490585327,,,,,,,,
,desktop,0.9196440577507019,,,,,,,,
,symbol,0.8991292715072632,,,,,,,,
,Christmas,0.8612927198410034,,,,,,,,
,palm,0.860358476638794,,,,,,,,
,color,0.8424314856529236,,,,,,,,
,isolated,0.8235150575637817,,,,,,,,
,decoration,0.8176692724227905,,,,,,,,
,design,0.8130180835723877,,,,,,,,
,table,0.7931483387947083,,,,,,,,
,winner,0.7893526554107666,,,,,,,,
,money,0.7856971025466919,,,,,,,,
,light,0.7828664779663086,,,,,,,,
,business,0.7803081274032593,,,,,,,,
,luxury,0.7719074487686157,,,,,,,,
,bright,0.7706211805343628,,,,,,,,
,vacation,0.7669530510902405,,,,,,,,
https://scontent-sit4-1.cdninstagram.com/t51.2885-15/e35/13561727_285728675107274_708292028_n.jpg,collage,0.9729107618331909,"My life",Travel,Animals,Environment,"Here I am",Travel-s,Animals-s,"Natural beauty"
,city,0.916205883026123,,,,,,,,
,urban,0.9105991125106812,,,,,,,,
,house,0.9026563167572021,,,,,,,,
,street,0.9021181464195251,,,,,,,,
,architecture,0.8998939990997314,,,,,,,,
,old,0.8991203308105469,,,,,,,,
,nature,0.893661618232727,,,,,,,,
,desktop,0.8898055553436279,,,,,,,,
,window,0.856575608253479,,,,,,,,
,outdoors,0.8508130311965942,,,,,,,,
,summer,0.8472114205360413,,,,,,,,
,road,0.8432154655456543,,,,,,,,
,travel,0.839957594871521,,,,,,,,
,tourism,0.8382042646408081,,,,,,,,
,vintage,0.8381057977676392,,,,,,,,
,building,0.8381050229072571,,,,,,,,
,business,0.8369910717010498,,,,,,,,
,town,0.8319485187530518,,,,,,,,
,rain,0.8260865211486816,,,,,,,,
https://scontent-sit4-1.cdninstagram.com/t51.2885-15/e35/13743536_855128421283716_1489551463_n.jpg,number,0.9880356788635254,Commerce,,,,"Product/brand shots",,,
,business,0.9749720096588135,,,,,,,,
,paper,0.9654794931411743,,,,,,,,
,label,0.9546034336090088,,,,,,,,
,money,0.9511978626251221,,,,,,,,
,banner,0.939672589302063,,,,,,,,
,finance,0.9267572164535522,,,,,,,,
,commerce,0.9262604713439941,,,,,,,,
,tag,0.8884210586547852,,,,,,,,
,"World Wide Web",0.8830710649490356,,,,,,,,
,note,0.8813962936401367,,,,,,,,
,symbol,0.8644428253173828,,,,,,,,
,card,0.8568936586380005,,,,,,,,
,sign,0.8346391320228577,,,,,,,,
,text,0.830551266670227,,,,,,,,
,sale,0.8201389312744141,,,,,,,,
,price,0.8091284036636353,,,,,,,,
,information,0.7907847166061401,,,,,,,,
,money,0.7812844514846802,,,,,,,,
,illustration,0.7673859596252441,,,,,,,,
