url,class,score,,,,,,,,
https://scontent.cdninstagram.com/t51.2885-15/e35/13561609_650680168417414_1954547400_n.jpg,airport,0.9998486042022705,Travel,,,,Travel-s,,,
,luggage,0.9959861040115356,,,,,,,,
,people,0.9927998185157776,,,,,,,,
,departure,0.9910616874694824,,,,,,,,
,man,0.9841488599777222,,,,,,,,
,tube,0.9834316968917847,,,,,,,,
,indoors,0.9829390048980713,,,,,,,,
,silhouette,0.9789763689041138,,,,,,,,
,monochrome,0.9745737314224243,,,,,,,,
,window,0.9729011654853821,,,,,,,,
,adult,0.9724624752998352,,,,,,,,
,blur,0.9711925983428955,,,,,,,,
,reflection,0.9707056283950806,,,,,,,,
,city,0.9701334834098816,,,,,,,,
,street,0.9695260524749756,,,,,,,,
,"transportation system",0.9661909341812134,,,,,,,,
,business,0.9548906087875366,,,,,,,,
,woman,0.9491398334503174,,,,,,,,
,hallway,0.9481725096702576,,,,,,,,
,rush,0.9479379653930664,,,,,,,,
https://scontent.cdninstagram.com/t51.2885-15/e35/13658841_1111404488915687_116893711_n.jpg,food,0.996955156326294,Food,,,,"Meal time",,,
,bowl,0.9878712892532349,,,,,,,,
,traditional,0.9838887453079224,,,,,,,,
,dish,0.9774532914161682,,,,,,,,
,meal,0.9771190881729126,,,,,,,,
,cuisine,0.9741480946540833,,,,,,,,
,dinner,0.9714229106903076,,,,,,,,
,dumpling,0.9669290781021118,,,,,,,,
,cooking,0.9664002656936646,,,,,,,,
,table,0.9634799957275391,,,,,,,,
,plate,0.9618238210678101,,,,,,,,
,hot,0.9602710604667664,,,,,,,,
,healthy,0.9562796354293823,,,,,,,,
,bamboo,0.9550052881240845,,,,,,,,
,vegetable,0.954972505569458,,,,,,,,
,lunch,0.9541146755218506,,,,,,,,
,restaurant,0.9487181901931763,,,,,,,,
,appetizer,0.9453924894332886,,,,,,,,
,soup,0.9446487426757812,,,,,,,,
,epicure,0.938514232635498,,,,,,,,
https://scontent.cdninstagram.com/t51.2885-15/e35/13398830_229966740721409_1923444_n.jpg,food,0.9905269145965576,Food,,,,"Meal time",,,
,"no person",0.9895113706588745,,,,,,,,
,dinner,0.9613031148910522,,,,,,,,
,delicious,0.9396172761917114,,,,,,,,
,lunch,0.9372090101242065,,,,,,,,
,cooking,0.9336671233177185,,,,,,,,
,meal,0.9332126379013062,,,,,,,,
,grow,0.9251596927642822,,,,,,,,
,traditional,0.9191856384277344,,,,,,,,
,wood,0.9184980392456055,,,,,,,,
,vegetable,0.914887547492981,,,,,,,,
,chili,0.9091742038726807,,,,,,,,
,dish,0.8862055540084839,,,,,,,,
,hot,0.8788827061653137,,,,,,,,
,plate,0.8750742673873901,,,,,,,,
,bread,0.8666660785675049,,,,,,,,
,pepper,0.8665673136711121,,,,,,,,
,bowl,0.8648201823234558,,,,,,,,
,health,0.8646972179412842,,,,,,,,
,ingredients,0.8626010417938232,,,,,,,,
https://scontent.cdninstagram.com/t51.2885-15/e35/13414133_1247847751899664_510862816_n.jpg,people,0.967039942741394,Commerce,,,,Commerce-s,,,
,stock,0.9357891082763672,,,,,,,,
,commerce,0.9353391528129578,,,,,,,,
,industry,0.9301437735557556,,,,,,,,
,many,0.9119558930397034,,,,,,,,
,indoors,0.9038528203964233,,,,,,,,
,business,0.9013705253601074,,,,,,,,
,market,0.8933017253875732,,,,,,,,
,education,0.8927260041236877,,,,,,,,
,grinder,0.8876848220825195,,,,,,,,
,school,0.8827857971191406,,,,,,,,
,administration,0.8787413835525513,,,,,,,,
,man,0.874869167804718,,,,,,,,
,shopping,0.8667771816253662,,,,,,,,
,election,0.8486815094947815,,,,,,,,
,competition,0.8234272003173828,,,,,,,,
,adult,0.8184798955917358,,,,,,,,
,university,0.8144793510437012,,,,,,,,
,service,0.7999119758605957,,,,,,,,
,production,0.7953917980194092,,,,,,,,
https://scontent.cdninstagram.com/t51.2885-15/e35/13266729_1766941010216095_883298167_n.jpg,"no person",0.9952155947685242,Travel,Environment,,,Travel-s,"Manmade beauty",,
,water,0.9900763630867004,,,,,,,,
,watercraft,0.98812335729599,,,,,,,,
,vehicle,0.9792999625205994,,,,,,,,
,travel,0.9779535531997681,,,,,,,,
,"transportation system",0.9707732200622559,,,,,,,,
,ship,0.9646081328392029,,,,,,,,
,airplane,0.9541114568710327,,,,,,,,
,sea,0.9431682825088501,,,,,,,,
,harbor,0.9382075071334839,,,,,,,,
,outdoors,0.9296534061431885,,,,,,,,
,"cruise ship",0.9248898029327393,,,,,,,,
,sky,0.9107479453086853,,,,,,,,
,yacht,0.889689564704895,,,,,,,,
,seashore,0.8877711892127991,,,,,,,,
,city,0.8857182264328003,,,,,,,,
,architecture,0.878853440284729,,,,,,,,
,pier,0.8638951182365417,,,,,,,,
,sailboat,0.8504496812820435,,,,,,,,
,boat,0.8460870981216431,,,,,,,,
https://scontent.cdninstagram.com/t51.2885-15/e35/13129480_115095795563937_425852450_n.jpg,"no person",0.9898216724395752,Food,,,,Dessert,,,
,food,0.9847133159637451,,,,,,,,
,bowl,0.9716341495513916,,,,,,,,
,rice,0.9632887244224548,,,,,,,,
,grow,0.9521603584289551,,,,,,,,
,delicious,0.9456113576889038,,,,,,,,
,dinner,0.9439514875411987,,,,,,,,
,vegetable,0.9423232078552246,,,,,,,,
,dish,0.9324951171875,,,,,,,,
,lunch,0.9323575496673584,,,,,,,,
,meal,0.9310845136642456,,,,,,,,
,nutrition,0.9101208448410034,,,,,,,,
,traditional,0.9058538675308228,,,,,,,,
,meat,0.8979161977767944,,,,,,,,
,health,0.8944164514541626,,,,,,,,
,cooking,0.8909026384353638,,,,,,,,
,rustic,0.890214741230011,,,,,,,,
,cuisine,0.882027268409729,,,,,,,,
,healthy,0.8720548152923584,,,,,,,,
,fruit,0.8679109215736389,,,,,,,,
https://scontent.cdninstagram.com/t51.2885-15/e35/13285512_1716450028644744_41470746_n.jpg,people,0.9941986799240112,Relationships,Entertainment,,,"Best friends",Events,,
,stage,0.9527971744537354,,,,,,,,
,opera,0.9491847157478333,,,,,,,,
,adult,0.9456926584243774,,,,,,,,
,man,0.9405649900436401,,,,,,,,
,wedding,0.9387106895446777,,,,,,,,
,ceremony,0.9372857809066772,,,,,,,,
,religion,0.9268015623092651,,,,,,,,
,woman,0.9236235618591309,,,,,,,,
,hotel,0.9222685098648071,,,,,,,,
,curtain,0.9204288721084595,,,,,,,,
,theater,0.9129846096038818,,,,,,,,
,music,0.9110620021820068,,,,,,,,
,landscape,0.9101121425628662,,,,,,,,
,performance,0.9051101207733154,,,,,,,,
,one,0.902550458908081,,,,,,,,
,movie,0.9018973112106323,,,,,,,,
,home,0.9002692699432373,,,,,,,,
,family,0.8906531929969788,,,,,,,,
,flower,0.8863199949264526,,,,,,,,
https://scontent.cdninstagram.com/t51.2885-15/e35/13573455_1065208536904993_1214407077_n.jpg,footwear,0.9999849796295166,Commerce,"Fashion & Beauty",,,"Product/brand shots","Fashion & Beauty-s",,
,leather,0.9999704957008362,,,,,,,,
,foot,0.9998880624771118,,,,,,,,
,shoe,0.999814510345459,,,,,,,,
,couple,0.9998136758804321,,,,,,,,
,wear,0.9997761249542236,,,,,,,,
,fashion,0.9994105100631714,,,,,,,,
,lace,0.998081386089325,,,,,,,,
,sole,0.9975247383117676,,,,,,,,
,classic,0.9973528385162354,,,,,,,,
,rubberize,0.9962780475616455,,,,,,,,
,shoelace,0.9947443008422852,,,,,,,,
,two,0.9912676811218262,,,,,,,,
,shining,0.9902404546737671,,,,,,,,
,sneakers,0.984463095664978,,,,,,,,
,formalwear,0.9798028469085693,,,,,,,,
,elegant,0.9758379459381104,,,,,,,,
,high,0.9679548740386963,,,,,,,,
,fashionable,0.952888011932373,,,,,,,,
,choice,0.9523544907569885,,,,,,,,
https://scontent.cdninstagram.com/t51.2885-15/e35/13549405_1111200232280691_1304078177_n.jpg,food,0.9947940111160278,Food,,,,"Meal time",,,
,meal,0.9662606716156006,,,,,,,,
,dinner,0.9567590951919556,,,,,,,,
,chef,0.9507501125335693,,,,,,,,
,table,0.9402211308479309,,,,,,,,
,lunch,0.9378452301025391,,,,,,,,
,restaurant,0.937575101852417,,,,,,,,
,knife,0.9372648596763611,,,,,,,,
,people,0.9370585680007935,,,,,,,,
,delicious,0.9329765439033508,,,,,,,,
,plate,0.9261389970779419,,,,,,,,
,cooking,0.9202491044998169,,,,,,,,
,indoors,0.9110221862792969,,,,,,,,
,"no person",0.8980025053024292,,,,,,,,
,dish,0.8939225673675537,,,,,,,,
,meat,0.8919610977172852,,,,,,,,
,adult,0.8919209241867065,,,,,,,,
,child,0.8917162418365479,,,,,,,,
,bread,0.889319658279419,,,,,,,,
,vegetable,0.8869274258613586,,,,,,,,
https://scontent.cdninstagram.com/t51.2885-15/e35/13102393_260101767674292_368477732_n.jpg,people,0.9923316240310669,"My life",,,,Doing,,,
,woman,0.9846790432929993,,,,,,,,
,girl,0.9798051118850708,,,,,,,,
,child,0.9784762263298035,,,,,,,,
,portrait,0.9574631452560425,,,,,,,,
,adult,0.9473608136177063,,,,,,,,
,one,0.9357409477233887,,,,,,,,
,indoors,0.8636126518249512,,,,,,,,
,family,0.856965959072113,,,,,,,,
,offense,0.8522144556045532,,,,,,,,
,brunette,0.8374041318893433,,,,,,,,
,tattoo,0.8278174996376038,,,,,,,,
,sit,0.8247629404067993,,,,,,,,
,force,0.8241342902183533,,,,,,,,
,adolescent,0.8236158490180969,,,,,,,,
,baby,0.7919959425926208,,,,,,,,
,pain,0.7860037088394165,,,,,,,,
,music,0.7749996185302734,,,,,,,,
,cute,0.7509876489639282,,,,,,,,
,room,0.7473067045211792,,,,,,,,
https://scontent.cdninstagram.com/t51.2885-15/e35/13636282_546147505510449_939725322_n.jpg,fashion,0.9881792068481445,Undefined,,,,Undefined,,,
,girl,0.9698792695999146,,,,,,,,
,people,0.9613673090934753,,,,,,,,
,footwear,0.9576736092567444,,,,,,,,
,woman,0.9566745162010193,,,,,,,,
,wear,0.9513931274414062,,,,,,,,
,two,0.9229356050491333,,,,,,,,
,shoe,0.9191265106201172,,,,,,,,
,leather,0.9075125455856323,,,,,,,,
,foot,0.8890159130096436,,,,,,,,
,man,0.8833990097045898,,,,,,,,
,adult,0.882907509803772,,,,,,,,
,sexy,0.8723751306533813,,,,,,,,
,young,0.8661686182022095,,,,,,,,
,model,0.8628739714622498,,,,,,,,
,offense,0.8609931468963623,,,,,,,,
,beautiful,0.856096625328064,,,,,,,,
,love,0.8521401882171631,,,,,,,,
,trendy,0.8471657037734985,,,,,,,,
,indoors,0.8457556962966919,,,,,,,,
https://scontent.cdninstagram.com/t51.2885-15/e35/13167198_473907762807884_935429106_n.jpg,road,0.9887270927429199,Travel,Relationships,,,Travel-s,"Best friends",,
,street,0.9835814833641052,,,,,,,,
,city,0.9783859848976135,,,,,,,,
,people,0.9762798547744751,,,,,,,,
,many,0.9669924974441528,,,,,,,,
,rally,0.9534496068954468,,,,,,,,
,competition,0.9490607380867004,,,,,,,,
,crowd,0.9410924911499023,,,,,,,,
,marathon,0.9360777139663696,,,,,,,,
,motion,0.9222561717033386,,,,,,,,
,tourist,0.9134131669998169,,,,,,,,
,group,0.8958144187927246,,,,,,,,
,race,0.8925241827964783,,,,,,,,
,commerce,0.89163738489151,,,,,,,,
,crossing,0.8887408971786499,,,,,,,,
,stock,0.8834787011146545,,,,,,,,
,festival,0.8831990361213684,,,,,,,,
,daylight,0.8816560506820679,,,,,,,,
,adult,0.8781564235687256,,,,,,,,
,action,0.8774096369743347,,,,,,,,
https://scontent.cdninstagram.com/t51.2885-15/e35/13423654_1045706668855384_155817686_n.jpg,"no person",0.99391770362854,"My life","Fashion & Beauty",,,Doing,"Fashion & Beauty-s",,
,paper,0.9916105270385742,,,,,,,,
,business,0.9873508214950562,,,,,,,,
,data,0.9679638147354126,,,,,,,,
,technology,0.9624961614608765,,,,,,,,
,data,0.9401735067367554,,,,,,,,
,contemporary,0.9277461767196655,,,,,,,,
,office,0.91136634349823,,,,,,,,
,machinery,0.9102669954299927,,,,,,,,
,design,0.9071049690246582,,,,,,,,
,success,0.9067599773406982,,,,,,,,
,"graphic design",0.8967353105545044,,,,,,,,
,internet,0.8848293423652649,,,,,,,,
,writing,0.8689626455307007,,,,,,,,
,indoors,0.8655831813812256,,,,,,,,
,document,0.8586925268173218,,,,,,,,
,computer,0.8585606217384338,,,,,,,,
,equipment,0.8571504354476929,,,,,,,,
,electronics,0.856513500213623,,,,,,,,
,industry,0.8534219861030579,,,,,,,,
https://scontent.cdninstagram.com/t51.2885-15/e35/13437241_1717076921878947_707203782_n.jpg,dinner,0.9870550632476807,Food,,,,"Meal time",,,
,food,0.9841089248657227,,,,,,,,
,"no person",0.9793714880943298,,,,,,,,
,plate,0.978152871131897,,,,,,,,
,lunch,0.9771342277526855,,,,,,,,
,delicious,0.9742472171783447,,,,,,,,
,meal,0.9700701832771301,,,,,,,,
,seafood,0.9598932862281799,,,,,,,,
,fish,0.954730749130249,,,,,,,,
,restaurant,0.9482018947601318,,,,,,,,
,dish,0.9380100965499878,,,,,,,,
,cuisine,0.9349684715270996,,,,,,,,
,rice,0.9319418668746948,,,,,,,,
,epicure,0.9315255284309387,,,,,,,,
,salmon,0.9301202297210693,,,,,,,,
,traditional,0.9200838208198547,,,,,,,,
,appetizer,0.9085841178894043,,,,,,,,
,dining,0.9043405055999756,,,,,,,,
,sushi,0.8997423648834229,,,,,,,,
,vegetable,0.8984091281890869,,,,,,,,
https://scontent.cdninstagram.com/t51.2885-15/sh0.08/e35/p750x750/13092375_1747963105451005_1546055409_n.jpg,portrait,0.9904223084449768,"Fun Filter","My life",,,"Fun Filter",Selfie,,
,face,0.9867513179779053,,,,,,,,
,people,0.9763784408569336,,,,,,,,
,man,0.9705122113227844,,,,,,,,
,monochrome,0.9667125344276428,,,,,,,,
,adult,0.9578285217285156,,,,,,,,
,one,0.9564892649650574,,,,,,,,
,art,0.9509620666503906,,,,,,,,
,eye,0.9455232620239258,,,,,,,,
,mask,0.9417181611061096,,,,,,,,
,head,0.921445369720459,,,,,,,,
,"black and white",0.8988476395606995,,,,,,,,
,fashion,0.8943551182746887,,,,,,,,
,model,0.8861371278762817,,,,,,,,
,funny,0.883617639541626,,,,,,,,
,clown,0.8731905221939087,,,,,,,,
,young,0.8493977785110474,,,,,,,,
,humor,0.8480108976364136,,,,,,,,
,bizarre,0.8445711135864258,,,,,,,,
,wear,0.8228843212127686,,,,,,,,
https://scontent.cdninstagram.com/t51.2885-15/e35/13397589_270215016663709_1521744017_n.jpg,paper,0.9776763916015625,"My life","Fashion & Beauty",,,Doing,"Fashion & Beauty-s",,
,business,0.9675225019454956,,,,,,,,
,architect,0.9570506811141968,,,,,,,,
,pencil,0.9521660804748535,,,,,,,,
,work,0.9478651285171509,,,,,,,,
,diagram,0.9411890506744385,,,,,,,,
,industry,0.9338223338127136,,,,,,,,
,blueprint,0.9334176778793335,,,,,,,,
,design,0.9251613020896912,,,,,,,,
,sketch,0.9189549088478088,,,,,,,,
,expression,0.9117365479469299,,,,,,,,
,improvement,0.9066264629364014,,,,,,,,
,graph,0.8977252244949341,,,,,,,,
,preparation,0.8974190354347229,,,,,,,,
,contractor,0.8935065269470215,,,,,,,,
,sketch,0.893445611000061,,,,,,,,
,scale,0.8930033445358276,,,,,,,,
,document,0.8915554881095886,,,,,,,,
,family,0.8827203512191772,,,,,,,,
,number,0.8730258941650391,,,,,,,,
https://scontent.cdninstagram.com/t51.2885-15/e35/13285278_1639229629733481_2079782378_n.jpg,sunset,0.9964532852172852,Environment,Travel,,,"Natural beauty",Travel-s,,
,sky,0.9933129549026489,,,,,,,,
,sun,0.9914102554321289,,,,,,,,
,light,0.9882513284683228,,,,,,,,
,storm,0.9804686307907104,,,,,,,,
,evening,0.9746997356414795,,,,,,,,
,dawn,0.9728532433509827,,,,,,,,
,vehicle,0.9728471040725708,,,,,,,,
,landscape,0.9710716605186462,,,,,,,,
,weather,0.9705666899681091,,,,,,,,
,"no person",0.9702997207641602,,,,,,,,
,rain,0.9684641361236572,,,,,,,,
,"transportation system",0.9682577848434448,,,,,,,,
,travel,0.967516303062439,,,,,,,,
,dusk,0.9674144983291626,,,,,,,,
,outdoors,0.9562942981719971,,,,,,,,
,"fair weather",0.947637140750885,,,,,,,,
,street,0.9455709457397461,,,,,,,,
,dramatic,0.9422192573547363,,,,,,,,
,city,0.9378103017807007,,,,,,,,
https://scontent.cdninstagram.com/t51.2885-15/e35/13129840_1071940276177754_105728069_n.jpg,water,0.9941455125808716,Environment,,,,"Manmade beauty",,,
,travel,0.9800779819488525,,,,,,,,
,architecture,0.9770082235336304,,,,,,,,
,sky,0.9732788801193237,,,,,,,,
,tree,0.969792366027832,,,,,,,,
,river,0.9647595882415771,,,,,,,,
,building,0.9614322185516357,,,,,,,,
,reflection,0.9587986469268799,,,,,,,,
,luxury,0.9578649997711182,,,,,,,,
,modern,0.9439517855644226,,,,,,,,
,summer,0.9406025409698486,,,,,,,,
,bridge,0.938422679901123,,,,,,,,
,lake,0.9372641444206238,,,,,,,,
,"no person",0.9282617568969727,,,,,,,,
,sight,0.9280382394790649,,,,,,,,
,outdoors,0.927722156047821,,,,,,,,
,park,0.9257469177246094,,,,,,,,
,tourism,0.9255872964859009,,,,,,,,
,city,0.9209912419319153,,,,,,,,
,house,0.9138659834861755,,,,,,,,
https://scontent.cdninstagram.com/t51.2885-15/e35/13102464_1120483437989891_445787494_n.jpg,scissors,0.9859153032302856,"My life",,,,Doing,,,
,tool,0.9770702719688416,,,,,,,,
,set,0.96535724401474,,,,,,,,
,equipment,0.9581441879272461,,,,,,,,
,paper,0.9580810070037842,,,,,,,,
,knife,0.9579583406448364,,,,,,,,
,wood,0.9470139741897583,,,,,,,,
,pliers,0.93498295545578,,,,,,,,
,"no person",0.9211113452911377,,,,,,,,
,desktop,0.9176589250564575,,,,,,,,
,collection,0.913508415222168,,,,,,,,
,brush,0.9072957038879395,,,,,,,,
,work,0.9031930565834045,,,,,,,,
,hammer,0.9021246433258057,,,,,,,,
,family,0.901301920413971,,,,,,,,
,tool,0.9003690481185913,,,,,,,,
,paintbrush,0.8981794118881226,,,,,,,,
,business,0.8723978996276855,,,,,,,,
,color,0.8711504340171814,,,,,,,,
,steel,0.866742730140686,,,,,,,,
https://scontent.cdninstagram.com/t51.2885-15/e35/13267338_123441374737998_1095938856_n.jpg,people,0.9861797094345093,Commerce,Recreation,,,"Product/brand shots",Recreation-s,,
,business,0.9111804962158203,,,,,,,,
,entertainment,0.9084481000900269,,,,,,,,
,pop,0.8857647180557251,,,,,,,,
,healthcare,0.8404313325881958,,,,,,,,
,writing,0.8378105163574219,,,,,,,,
,paper,0.8363087177276611,,,,,,,,
,talent,0.8307160139083862,,,,,,,,
,education,0.7975261807441711,,,,,,,,
,"no person",0.7850731015205383,,,,,,,,
,woman,0.7735280990600586,,,,,,,,
,recreation,0.7601226568222046,,,,,,,,
,money,0.7528306245803833,,,,,,,,
,offense,0.7500945329666138,,,,,,,,
,event,0.7444134950637817,,,,,,,,
,text,0.7427258491516113,,,,,,,,
,person,0.7277905941009521,,,,,,,,
,creativity,0.7275229692459106,,,,,,,,
,sign,0.7256635427474976,,,,,,,,
,election,0.723663866519928,,,,,,,,
https://scontent.cdninstagram.com/t51.2885-15/e35/13118231_806406489460786_1532866159_n.jpg,tree,0.9950025081634521,Environment,,,,"Natural beauty",,,
,people,0.9840655326843262,,,,,,,,
,outdoors,0.9661364555358887,,,,,,,,
,garden,0.9495601654052734,,,,,,,,
,architecture,0.9456741809844971,,,,,,,,
,travel,0.943475604057312,,,,,,,,
,home,0.9402692317962646,,,,,,,,
,building,0.9344162940979004,,,,,,,,
,"no person",0.9285890460014343,,,,,,,,
,daylight,0.9213392734527588,,,,,,,,
,adult,0.9174056053161621,,,,,,,,
,one,0.9072960019111633,,,,,,,,
,landscape,0.9068329334259033,,,,,,,,
,environment,0.9039754867553711,,,,,,,,
,park,0.892408013343811,,,,,,,,
,house,0.8718814849853516,,,,,,,,
,family,0.8673933148384094,,,,,,,,
,leaf,0.8584045171737671,,,,,,,,
,city,0.8554798364639282,,,,,,,,
,two,0.8356754183769226,,,,,,,,
https://scontent.cdninstagram.com/t51.2885-15/e35/13557259_1724082161183140_33644405_n.jpg,people,0.9947450160980225,Relationships,Environment,Travel,,"Best friends",Landmarks,Travel-s,"Manmade beauty"
,man,0.9865702390670776,,,,,,,,
,water,0.9825299382209778,,,,,,,,
,adult,0.9816474914550781,,,,,,,,
,beach,0.9769107103347778,,,,,,,,
,sea,0.9641289710998535,,,,,,,,
,portrait,0.9634416103363037,,,,,,,,
,travel,0.9634131193161011,,,,,,,,
,sunglasses,0.954250693321228,,,,,,,,
,eyewear,0.952850341796875,,,,,,,,
,ocean,0.9383082985877991,,,,,,,,
,recreation,0.9321983456611633,,,,,,,,
,woman,0.9271465539932251,,,,,,,,
,landscape,0.9226023554801941,,,,,,,,
,two,0.9225888252258301,,,,,,,,
,seashore,0.9125536680221558,,,,,,,,
,sunset,0.9042826890945435,,,,,,,,
,light,0.8955392241477966,,,,,,,,
,music,0.8926596641540527,,,,,,,,
,vehicle,0.8891520500183105,,,,,,,,
https://scontent.cdninstagram.com/t51.2885-15/e35/13391234_144439142639914_1732247117_n.jpg,people,0.9853079319000244,Commerce,,,,Commerce-s,,,
,commerce,0.9643475413322449,,,,,,,,
,stock,0.9604318141937256,,,,,,,,
,wear,0.9418023824691772,,,,,,,,
,market,0.938867449760437,,,,,,,,
,room,0.9353531002998352,,,,,,,,
,adult,0.9244847297668457,,,,,,,,
,indoors,0.9103989601135254,,,,,,,,
,painting,0.9081219434738159,,,,,,,,
,shopping,0.9055458307266235,,,,,,,,
,woman,0.8775624632835388,,,,,,,,
,industry,0.8660809993743896,,,,,,,,
,exhibition,0.8601242303848267,,,,,,,,
,group,0.8553148508071899,,,,,,,,
,container,0.8267871737480164,,,,,,,,
,festival,0.8129563331604004,,,,,,,,
,food,0.8032921552658081,,,,,,,,
,daylight,0.7972925901412964,,,,,,,,
,street,0.7893189191818237,,,,,,,,
,man,0.7835619449615479,,,,,,,,
https://scontent.cdninstagram.com/t51.2885-15/e35/13392882_203205506741116_1655228462_n.jpg,furniture,0.9963857531547546,Relationships,Food,,,Friends,"Meal time",,
,table,0.9960187673568726,,,,,,,,
,room,0.9959755539894104,,,,,,,,
,indoors,0.9904200434684753,,,,,,,,
,desk,0.9737558960914612,,,,,,,,
,adult,0.9727108478546143,,,,,,,,
,seat,0.9689104557037354,,,,,,,,
,people,0.9563778638839722,,,,,,,,
,chair,0.9485968947410583,,,,,,,,
,woman,0.9287616014480591,,,,,,,,
,education,0.9246108531951904,,,,,,,,
,restaurant,0.9100402593612671,,,,,,,,
,child,0.9037334322929382,,,,,,,,
,"dining room",0.9016226530075073,,,,,,,,
,dining,0.8952110409736633,,,,,,,,
,man,0.8899275064468384,,,,,,,,
,employee,0.886536180973053,,,,,,,,
,group,0.8798024654388428,,,,,,,,
,window,0.8683916926383972,,,,,,,,
,tableware,0.860962450504303,,,,,,,,
https://scontent.cdninstagram.com/t51.2885-15/e35/13181279_233511933681885_1228760993_n.jpg,paper,0.9977853298187256,"My life","Fashion & Beauty",,,Doing,"Fashion & Beauty-s",,
,document,0.9946973323822021,,,,,,,,
,page,0.9882511496543884,,,,,,,,
,education,0.9878062009811401,,,,,,,,
,"no person",0.9820927381515503,,,,,,,,
,data,0.9782607555389404,,,,,,,,
,business,0.9723174571990967,,,,,,,,
,book,0.9722914695739746,,,,,,,,
,writing,0.9692733883857727,,,,,,,,
,school,0.9685529470443726,,,,,,,,
,book,0.966873049736023,,,,,,,,
,knowledge,0.9663611054420471,,,,,,,,
,study,0.9529088139533997,,,,,,,,
,data,0.9413944482803345,,,,,,,,
,research,0.9400696158409119,,,,,,,,
,composition,0.934944212436676,,,,,,,,
,desk,0.9341741800308228,,,,,,,,
,library,0.9325509071350098,,,,,,,,
,empty,0.9323110580444336,,,,,,,,
,information,0.9185550212860107,,,,,,,,
https://scontent.cdninstagram.com/t51.2885-15/e35/13320049_1029202503832408_561438731_n.jpg,food,0.992925226688385,,,,,,,,
,"no person",0.968970000743866,,,,,,,,
,meal,0.9659748077392578,,,,,,,,
,dinner,0.9650980234146118,,,,,,,,
,drink,0.9574057459831238,,,,,,,,
,lunch,0.9541977643966675,,,,,,,,
,traditional,0.9460141658782959,,,,,,,,
,dish,0.9433916807174683,,,,,,,,
,plate,0.9417532682418823,,,,,,,,
,tea,0.9406433701515198,,,,,,,,
,glass,0.9402929544448853,,,,,,,,
,healthy,0.9396389722824097,,,,,,,,
,restaurant,0.9362313747406006,,,,,,,,
,delicious,0.9310990571975708,,,,,,,,
,table,0.9272682666778564,,,,,,,,
,wine,0.9183473587036133,,,,,,,,
,breakfast,0.9181444644927979,,,,,,,,
,vegetable,0.9156455397605896,,,,,,,,
,hot,0.9155014157295227,,,,,,,,
,chicken,0.9119690656661987,,,,,,,,
https://scontent.cdninstagram.com/t51.2885-15/e35/13285336_1719935294924911_1062971619_n.jpg,nature,0.9948891997337341,Environment,,,,"Natural beauty",,,
,flora,0.9936316013336182,,,,,,,,
,bouquet,0.9935027360916138,,,,,,,,
,flower,0.9931225776672363,,,,,,,,
,vase,0.9897708296775818,,,,,,,,
,leaf,0.9862315654754639,,,,,,,,
,decoration,0.9814294576644897,,,,,,,,
,bright,0.9749643802642822,,,,,,,,
,floral,0.9718244075775146,,,,,,,,
,color,0.9698091745376587,,,,,,,,
,cluster,0.9684182405471802,,,,,,,,
,garden,0.9606684446334839,,,,,,,,
,blooming,0.9591219425201416,,,,,,,,
,summer,0.9573032855987549,,,,,,,,
,beautiful,0.9395655393600464,,,,,,,,
,petal,0.9339586496353149,,,,,,,,
,gift,0.9306480884552002,,,,,,,,
,husk,0.9269546866416931,,,,,,,,
,"no person",0.926124095916748,,,,,,,,
,closeup,0.9252824783325195,,,,,,,,
https://scontent.cdninstagram.com/t51.2885-15/e35/13398835_1143950615646910_88570836_n.jpg,paper,0.9694823026657104,"My life","Fashion & Beauty",,,Doing,"Fashion & Beauty-s",,
,wood,0.9680448770523071,,,,,,,,
,"no person",0.967981219291687,,,,,,,,
,food,0.9237537384033203,,,,,,,,
,health,0.916215717792511,,,,,,,,
,knife,0.9130935668945312,,,,,,,,
,desktop,0.902153730392456,,,,,,,,
,wooden,0.8959822654724121,,,,,,,,
,family,0.8553104400634766,,,,,,,,
,cooking,0.8539209961891174,,,,,,,,
,business,0.8488479256629944,,,,,,,,
,equipment,0.8282920122146606,,,,,,,,
,note,0.8270485997200012,,,,,,,,
,table,0.8252173662185669,,,,,,,,
,retro,0.8230099678039551,,,,,,,,
,sketch,0.8140174746513367,,,,,,,,
,color,0.8058927059173584,,,,,,,,
,indoors,0.8025778532028198,,,,,,,,
,illustration,0.7847570180892944,,,,,,,,
,closeup,0.777097225189209,,,,,,,,
https://scontent.cdninstagram.com/t51.2885-15/e35/13381364_1756104544634219_960137669_n.jpg,people,0.9721419811248779,Recreation,,,,Fitness,,,
,indoors,0.969523549079895,,,,,,,,
,weightlifting,0.9633092880249023,,,,,,,,
,room,0.9574973583221436,,,,,,,,
,"no person",0.955864429473877,,,,,,,,
,military,0.9496269226074219,,,,,,,,
,furniture,0.9471134543418884,,,,,,,,
,adult,0.9206384420394897,,,,,,,,
,vehicle,0.9181592464447021,,,,,,,,
,exhibition,0.9173741340637207,,,,,,,,
,barbell,0.9093024730682373,,,,,,,,
,group,0.8958999514579773,,,,,,,,
,model,0.8923348188400269,,,,,,,,
,weapon,0.8870222568511963,,,,,,,,
,business,0.8715128898620605,,,,,,,,
,industry,0.8712679147720337,,,,,,,,
,equipment,0.8694850206375122,,,,,,,,
,steel,0.8648319840431213,,,,,,,,
,one,0.861416220664978,,,,,,,,
,many,0.8607902526855469,,,,,,,,
https://scontent.cdninstagram.com/t51.2885-15/e35/13269470_1161541484003575_990289302_n.jpg,food,0.9939977526664734,Food,,,,Dessert,,,
,"no person",0.9868853092193604,,,,,,,,
,dinner,0.973764181137085,,,,,,,,
,delicious,0.9725706577301025,,,,,,,,
,soup,0.9634458422660828,,,,,,,,
,lunch,0.9612646698951721,,,,,,,,
,hot,0.9606465101242065,,,,,,,,
,cooking,0.9556961059570312,,,,,,,,
,dish,0.9332174062728882,,,,,,,,
,meat,0.9264653921127319,,,,,,,,
,meal,0.9257537126541138,,,,,,,,
,cream,0.923351526260376,,,,,,,,
,vegetable,0.9197404384613037,,,,,,,,
,traditional,0.919109046459198,,,,,,,,
,bowl,0.914057731628418,,,,,,,,
,pork,0.9042650461196899,,,,,,,,
,grow,0.900985836982727,,,,,,,,
,rice,0.8979289531707764,,,,,,,,
,nutrition,0.8946254849433899,,,,,,,,
,spoon,0.8907787799835205,,,,,,,,
https://scontent.cdninstagram.com/t51.2885-15/e35/13098958_112136489201941_1892695472_n.jpg,furniture,0.9971626996994019,"My life","Fashion & Beauty",,,Doing,"Fashion & Beauty-s",,
,room,0.9929180145263672,,,,,,,,
,stock,0.9920309782028198,,,,,,,,
,seat,0.9911631345748901,,,,,,,,
,chair,0.9859892129898071,,,,,,,,
,wear,0.9845433235168457,,,,,,,,
,indoors,0.9630807638168335,,,,,,,,
,table,0.9612574577331543,,,,,,,,
,boutique,0.9528846144676208,,,,,,,,
,shelf,0.9509628415107727,,,,,,,,
,hanging,0.9348037838935852,,,,,,,,
,shopping,0.9297910928726196,,,,,,,,
,inside,0.9293919801712036,,,,,,,,
,shop,0.9284744262695312,,,,,,,,
,"no person",0.9255194067955017,,,,,,,,
,footwear,0.9255096912384033,,,,,,,,
,market,0.9233701229095459,,,,,,,,
,design,0.8954094648361206,,,,,,,,
,two,0.8847821950912476,,,,,,,,
,"interior design",0.8821349143981934,,,,,,,,
https://scontent.cdninstagram.com/t51.2885-15/e35/13109109_1705252789763187_1960509356_n.jpg,wheel,0.9977889060974121,Transportation,Technology,,,Transportation-s,Technology-s,,
,bike,0.9967776536941528,,,,,,,,
,vehicle,0.9953598976135254,,,,,,,,
,exhibition,0.9855426549911499,,,,,,,,
,"transportation system",0.9797273874282837,,,,,,,,
,competition,0.9571092128753662,,,,,,,,
,car,0.9569309949874878,,,,,,,,
,street,0.9537960290908813,,,,,,,,
,people,0.9330071210861206,,,,,,,,
,city,0.9030616283416748,,,,,,,,
,show,0.8962911367416382,,,,,,,,
,race,0.8913217782974243,,,,,,,,
,road,0.8760404586791992,,,,,,,,
,presentation,0.8699678182601929,,,,,,,,
,stock,0.8680859804153442,,,,,,,,
,traffic,0.8665912747383118,,,,,,,,
,engine,0.8596515655517578,,,,,,,,
,drive,0.8552064895629883,,,,,,,,
,commerce,0.8504781723022461,,,,,,,,
,action,0.8457580804824829,,,,,,,,
https://scontent.cdninstagram.com/t51.2885-15/e35/13249741_279568335717320_1066187349_n.jpg,skyscraper,0.998401403427124,Relationships,Environment,Travel,,"Best friends",Landmarks,Travel-s,"Manmade beauty"
,office,0.9969117641448975,,,,,,,,
,business,0.9963343143463135,,,,,,,,
,city,0.995131254196167,,,,,,,,
,downtown,0.9926447868347168,,,,,,,,
,architecture,0.9922430515289307,,,,,,,,
,skyline,0.9897353649139404,,,,,,,,
,building,0.9893040060997009,,,,,,,,
,tallest,0.9872770309448242,,,,,,,,
,finance,0.9870925545692444,,,,,,,,
,tower,0.9838776588439941,,,,,,,,
,cityscape,0.9779845476150513,,,,,,,,
,urban,0.9770191311836243,,,,,,,,
,modern,0.9750303626060486,,,,,,,,
,sky,0.9586641788482666,,,,,,,,
,daylight,0.914930522441864,,,,,,,,
,outdoors,0.9139298796653748,,,,,,,,
,travel,0.9136757850646973,,,,,,,,
,glass,0.9119508266448975,,,,,,,,
,contemporary,0.9118292331695557,,,,,,,,
https://scontent.cdninstagram.com/t51.2885-15/e35/13437370_148364105573769_2135976356_n.jpg,footwear,0.9996093511581421,Commerce,"Fashion & Beauty",,,"Product/brand shots","Fashion & Beauty-s",,
,fashion,0.9992283582687378,,,,,,,,
,wear,0.999213457107544,,,,,,,,
,leather,0.9986701607704163,,,,,,,,
,foot,0.9983209371566772,,,,,,,,
,shining,0.9922274351119995,,,,,,,,
,shoe,0.9910184741020203,,,,,,,,
,couple,0.9839094877243042,,,,,,,,
,classic,0.9801576137542725,,,,,,,,
,sole,0.9762796759605408,,,,,,,,
,lace,0.9694629907608032,,,,,,,,
,two,0.9660123586654663,,,,,,,,
,cutout,0.9595215320587158,,,,,,,,
,elegant,0.9591201543807983,,,,,,,,
,fashionable,0.9591178297996521,,,,,,,,
,"no person",0.9449639320373535,,,,,,,,
,sneakers,0.9262629747390747,,,,,,,,
,high,0.9122601747512817,,,,,,,,
,suede,0.912035346031189,,,,,,,,
,isolated,0.9099763631820679,,,,,,,,
https://scontent.cdninstagram.com/t51.2885-15/e35/13402241_254253178273744_1643115987_n.jpg,shelf,0.9977459907531738,Commerce,,,,Commerce-s,,,
,bookcase,0.9870178699493408,,,,,,,,
,modern,0.9565055966377258,,,,,,,,
,library,0.9560761451721191,,,,,,,,
,stock,0.9297420978546143,,,,,,,,
,business,0.9280282258987427,,,,,,,,
,room,0.9233852624893188,,,,,,,,
,"no person",0.9221522808074951,,,,,,,,
,indoors,0.9213443398475647,,,,,,,,
,apartment,0.9058843851089478,,,,,,,,
,furniture,0.8920035362243652,,,,,,,,
,architecture,0.8880769610404968,,,,,,,,
,office,0.8852087259292603,,,,,,,,
,family,0.88507080078125,,,,,,,,
,window,0.8789175748825073,,,,,,,,
,house,0.8567230701446533,,,,,,,,
,home,0.8373545408248901,,,,,,,,
,education,0.8314979672431946,,,,,,,,
,contemporary,0.8301577568054199,,,,,,,,
,luxury,0.8055357933044434,,,,,,,,
https://scontent.cdninstagram.com/t51.2885-15/e35/13534300_361259093997789_930527333_n.jpg,food,0.9933755397796631,Food,,,,"Meal time",,,
,"no person",0.9838557839393616,,,,,,,,
,dinner,0.9796239137649536,,,,,,,,
,plate,0.9676798582077026,,,,,,,,
,lunch,0.9628111720085144,,,,,,,,
,meal,0.9627698063850403,,,,,,,,
,cutlery,0.9540701508522034,,,,,,,,
,grow,0.9509004354476929,,,,,,,,
,dish,0.9417970776557922,,,,,,,,
,vegetable,0.9388055801391602,,,,,,,,
,delicious,0.9357210397720337,,,,,,,,
,dining,0.9307456016540527,,,,,,,,
,tableware,0.9266400337219238,,,,,,,,
,fork,0.9249855279922485,,,,,,,,
,wine,0.9167816042900085,,,,,,,,
,restaurant,0.9163128137588501,,,,,,,,
,"still life",0.915179967880249,,,,,,,,
,fish,0.914566695690155,,,,,,,,
,traditional,0.9100388288497925,,,,,,,,
,flatware,0.908842921257019,,,,,,,,
https://scontent.cdninstagram.com/t51.2885-15/e35/13422879_1135997399781023_1056823005_n.jpg,indoors,0.9946333765983582,Commerce,,,,Commerce-s,,,
,inside,0.969578206539154,,,,,,,,
,room,0.9675664901733398,,,,,,,,
,grinder,0.9486172199249268,,,,,,,,
,industry,0.9412424564361572,,,,,,,,
,furniture,0.9358352422714233,,,,,,,,
,stock,0.9221182465553284,,,,,,,,
,table,0.9220415353775024,,,,,,,,
,business,0.9158479571342468,,,,,,,,
,production,0.9132406711578369,,,,,,,,
,daylight,0.8940210342407227,,,,,,,,
,"no person",0.89082932472229,,,,,,,,
,people,0.8845616579055786,,,,,,,,
,warehouse,0.8576369285583496,,,,,,,,
,ceiling,0.8524352312088013,,,,,,,,
,commerce,0.851111650466919,,,,,,,,
,sofa,0.8457629680633545,,,,,,,,
,chair,0.8434393405914307,,,,,,,,
,travel,0.8403301239013672,,,,,,,,
,seat,0.8326036930084229,,,,,,,,
https://scontent.cdninstagram.com/t51.2885-15/e35/13166769_1750810948498054_1775642773_n.jpg,water,0.9925839304924011,Environment,Travel,,,"Manmade beauty",Travel-s,,
,travel,0.9842437505722046,,,,,,,,
,city,0.9796395897865295,,,,,,,,
,"no person",0.9781073331832886,,,,,,,,
,architecture,0.9563025236129761,,,,,,,,
,sky,0.9529805183410645,,,,,,,,
,watercraft,0.9364259839057922,,,,,,,,
,skyline,0.9323674440383911,,,,,,,,
,harbor,0.9291911125183105,,,,,,,,
,building,0.9221552610397339,,,,,,,,
,outdoors,0.9207289814949036,,,,,,,,
,skyscraper,0.9200314283370972,,,,,,,,
,daylight,0.9167624115943909,,,,,,,,
,sea,0.9128485918045044,,,,,,,,
,cityscape,0.8965840339660645,,,,,,,,
,"transportation system",0.8809493184089661,,,,,,,,
,downtown,0.8713849782943726,,,,,,,,
,seashore,0.8712320327758789,,,,,,,,
,hotel,0.8709509372711182,,,,,,,,
,ferry,0.8688887357711792,,,,,,,,
https://scontent.cdninstagram.com/t51.2885-15/e35/13402525_1621927711456151_1110399273_n.jpg,underwater,0.9997850656509399,Relationships,Environment,Travel,Recreation,"Best friends","Natural beauty",Travel-s,Recreation-s
,swimming,0.9948408603668213,,,,,,,,
,"water sports",0.9927104711532593,,,,,,,,
,water,0.9923869967460632,,,,,,,,
,ocean,0.9880602359771729,,,,,,,,
,snorkeling,0.9806616306304932,,,,,,,,
,diving,0.9797018766403198,,,,,,,,
,sea,0.9781485795974731,,,,,,,,
,fish,0.9760687947273254,,,,,,,,
,recreation,0.9645825028419495,,,,,,,,
,diver,0.9556798934936523,,,,,,,,
,coral,0.9399951696395874,,,,,,,,
,reef,0.9381414651870728,,,,,,,,
,people,0.9358633160591125,,,,,,,,
,exploration,0.9304910898208618,,,,,,,,
,deep,0.919826090335846,,,,,,,,
,travel,0.9179152250289917,,,,,,,,
,tropical,0.904080867767334,,,,,,,,
,vacation,0.9026364088058472,,,,,,,,
,scuba,0.9011921286582947,,,,,,,,
https://scontent.cdninstagram.com/t51.2885-15/e35/13414411_1733331523612984_954052296_n.jpg,"no person",0.9281018972396851,"My life","Fashion & Beauty",,,Doing,"Fashion & Beauty-s",,
,illustration,0.8942692279815674,,,,,,,,
,business,0.883373498916626,,,,,,,,
,paper,0.8592101335525513,,,,,,,,
,desktop,0.8440275192260742,,,,,,,,
,man,0.8297815918922424,,,,,,,,
,woman,0.8131073713302612,,,,,,,,
,vector,0.7879078388214111,,,,,,,,
,design,0.7715340852737427,,,,,,,,
,people,0.7604524493217468,,,,,,,,
,symbol,0.7590676546096802,,,,,,,,
,fashion,0.7510344982147217,,,,,,,,
,retro,0.7294190526008606,,,,,,,,
,love,0.7037253379821777,,,,,,,,
,pattern,0.7014999389648438,,,,,,,,
,abstract,0.6797645092010498,,,,,,,,
,art,0.6790809035301208,,,,,,,,
,sketch,0.6775050163269043,,,,,,,,
,money,0.6639590859413147,,,,,,,,
,image,0.6560111045837402,,,,,,,,
https://scontent.cdninstagram.com/t51.2885-15/e35/13388631_925030280947640_1812171321_n.jpg,technology,0.9881590604782104,"My life","Fashion & Beauty",,,Doing,"Fashion & Beauty-s",,
,industry,0.9870485067367554,,,,,,,,
,craft,0.973747968673706,,,,,,,,
,machine,0.9730231761932373,,,,,,,,
,production,0.9716438055038452,,,,,,,,
,grinder,0.9601444602012634,,,,,,,,
,sewing,0.9531289339065552,,,,,,,,
,robot,0.9524770379066467,,,,,,,,
,repair,0.9362702369689941,,,,,,,,
,precision,0.9242775440216064,,,,,,,,
,science,0.9227081537246704,,,,,,,,
,lens,0.9118623733520508,,,,,,,,
,thread,0.908377468585968,,,,,,,,
,equipment,0.9030781388282776,,,,,,,,
,"no person",0.8905381560325623,,,,,,,,
,creativity,0.8760882616043091,,,,,,,,
,work,0.8701980113983154,,,,,,,,
,power,0.8493926525115967,,,,,,,,
,"sewing machine",0.848931074142456,,,,,,,,
,people,0.8479784727096558,,,,,,,,
https://scontent.cdninstagram.com/t51.2885-15/e35/13388727_144162169325873_1207644978_n.jpg,fashion,0.9885821342468262,"My life","Fashion & Beauty",,,Doing,"Fashion & Beauty-s",,
,wear,0.9836100935935974,,,,,,,,
,woman,0.9806613326072693,,,,,,,,
,footwear,0.9711278676986694,,,,,,,,
,stock,0.9279558062553406,,,,,,,,
,shopping,0.916766881942749,,,,,,,,
,people,0.9109236001968384,,,,,,,,
,elegant,0.8974934816360474,,,,,,,,
,"no person",0.8934339284896851,,,,,,,,
,leather,0.8921017646789551,,,,,,,,
,adult,0.8830752372741699,,,,,,,,
,indoors,0.8763675689697266,,,,,,,,
,girl,0.8503264784812927,,,,,,,,
,one,0.8450883626937866,,,,,,,,
,shoe,0.8424258232116699,,,,,,,,
,two,0.8328275680541992,,,,,,,,
,gloves,0.8326470851898193,,,,,,,,
,wedding,0.8302704691886902,,,,,,,,
,dress,0.8288636207580566,,,,,,,,
,business,0.8207781314849854,,,,,,,,
https://scontent.cdninstagram.com/t51.2885-15/e35/13108922_1572851893045040_2064938102_n.jpg,furniture,0.996507465839386,Business,,,,Work,,,
,room,0.9940112233161926,,,,,,,,
,table,0.9930634498596191,,,,,,,,
,indoors,0.9882377982139587,,,,,,,,
,chair,0.9860169887542725,,,,,,,,
,"interior design",0.973981499671936,,,,,,,,
,seat,0.9720546007156372,,,,,,,,
,"no person",0.9700925946235657,,,,,,,,
,exhibition,0.9382480382919312,,,,,,,,
,people,0.917563796043396,,,,,,,,
,lamp,0.9144858121871948,,,,,,,,
,desk,0.8906784653663635,,,,,,,,
,home,0.8778314590454102,,,,,,,,
,daylight,0.8512133359909058,,,,,,,,
,instrument,0.84816974401474,,,,,,,,
,stock,0.8476570248603821,,,,,,,,
,business,0.8272696733474731,,,,,,,,
,group,0.8262865543365479,,,,,,,,
,tableware,0.8224883079528809,,,,,,,,
,service,0.8216642737388611,,,,,,,,
https://scontent.cdninstagram.com/t51.2885-15/e35/13642994_1044383998943936_811524008_n.jpg,airplane,0.9996006488800049,Environment,,,,"Manmade beauty",,,
,airport,0.9994121789932251,,,,,,,,
,aircraft,0.9991621971130371,,,,,,,,
,vehicle,0.9984697103500366,,,,,,,,
,"transportation system",0.997064471244812,,,,,,,,
,military,0.9905974864959717,,,,,,,,
,competition,0.9848901629447937,,,,,,,,
,air,0.9794297814369202,,,,,,,,
,"auto racing",0.9793270230293274,,,,,,,,
,race,0.9468335509300232,,,,,,,,
,travel,0.9450601935386658,,,,,,,,
,jet,0.9429830312728882,,,,,,,,
,road,0.9399902820587158,,,,,,,,
,action,0.9387365579605103,,,,,,,,
,landscape,0.938454806804657,,,,,,,,
,"no person",0.9358746409416199,,,,,,,,
,flight,0.9342595338821411,,,,,,,,
,runway,0.9277644753456116,,,,,,,,
,industry,0.9134640693664551,,,,,,,,
,daylight,0.9134151935577393,,,,,,,,
https://scontent.cdninstagram.com/t51.2885-15/e35/13636300_1761279970811648_1645823858_n.jpg,table,0.9950900077819824,Food,Environment,,,"Meal time","Manmade beauty",,
,people,0.9949626922607422,,,,,,,,
,restaurant,0.9938997030258179,,,,,,,,
,furniture,0.9930305480957031,,,,,,,,
,travel,0.9844772219657898,,,,,,,,
,tableware,0.9718334078788757,,,,,,,,
,dining,0.9712009429931641,,,,,,,,
,hotel,0.9671998023986816,,,,,,,,
,"no person",0.9633152484893799,,,,,,,,
,adult,0.9596096277236938,,,,,,,,
,indoors,0.9591866731643677,,,,,,,,
,daylight,0.9585922956466675,,,,,,,,
,seat,0.9585330486297607,,,,,,,,
,"place setting",0.9581127762794495,,,,,,,,
,group,0.9454874396324158,,,,,,,,
,chair,0.936991810798645,,,,,,,,
,man,0.9329355955123901,,,,,,,,
,room,0.9321406483650208,,,,,,,,
,tourist,0.930760383605957,,,,,,,,
,tourism,0.925652027130127,,,,,,,,
https://scontent.cdninstagram.com/t51.2885-15/e35/13534226_563067643864946_109791262_n.jpg,food,0.9936866164207458,Food,,,,"Meal time",,,
,"no person",0.9921267032623291,,,,,,,,
,dinner,0.9507677555084229,,,,,,,,
,meal,0.9451248645782471,,,,,,,,
,grow,0.9261470437049866,,,,,,,,
,restaurant,0.9230760335922241,,,,,,,,
,dish,0.9201723337173462,,,,,,,,
,meat,0.9198368787765503,,,,,,,,
,vegetable,0.9159668684005737,,,,,,,,
,table,0.9127453565597534,,,,,,,,
,tableware,0.9111540913581848,,,,,,,,
,lunch,0.9088797569274902,,,,,,,,
,sauce,0.9053053855895996,,,,,,,,
,plate,0.9022319316864014,,,,,,,,
,cutlery,0.9001610279083252,,,,,,,,
,hot,0.8938459753990173,,,,,,,,
,traditional,0.8920141458511353,,,,,,,,
,pepper,0.8868096470832825,,,,,,,,
,refreshment,0.8865333199501038,,,,,,,,
,delicious,0.8775635957717896,,,,,,,,
https://scontent.cdninstagram.com/t51.2885-15/e35/13534071_1720487754872159_2016981764_n.jpg,bridge,0.9974480867385864,Environment,Travel,,,Landmarks,Travel-s,,
,city,0.9939957857131958,,,,,,,,
,travel,0.9911600351333618,,,,,,,,
,urban,0.9895578622817993,,,,,,,,
,water,0.9799232482910156,,,,,,,,
,people,0.9757217764854431,,,,,,,,
,sky,0.9668790102005005,,,,,,,,
,street,0.959919810295105,,,,,,,,
,architecture,0.9589793682098389,,,,,,,,
,"transportation system",0.9555878043174744,,,,,,,,
,building,0.950397789478302,,,,,,,,
,river,0.934255063533783,,,,,,,,
,vehicle,0.92240309715271,,,,,,,,
,sea,0.9213408827781677,,,,,,,,
,train,0.9188436269760132,,,,,,,,
,construction,0.9152506589889526,,,,,,,,
,beach,0.9106884002685547,,,,,,,,
,road,0.9102030992507935,,,,,,,,
,tourism,0.9091262221336365,,,,,,,,
,outdoors,0.9090138673782349,,,,,,,,
https://scontent.cdninstagram.com/t51.2885-15/sh0.08/e35/p640x640/13531926_500461726826686_1189444522_n.jpg,portrait,0.991037130355835,"Fun Filter","My life",,,"Fun Filter",Selfie,,
,young,0.9878497123718262,,,,,,,,
,funny,0.9855756163597107,,,,,,,,
,one,0.9736765027046204,,,,,,,,
,face,0.9686270952224731,,,,,,,,
,eye,0.9663482904434204,,,,,,,,
,fun,0.964838981628418,,,,,,,,
,humor,0.9619925618171692,,,,,,,,
,cute,0.9619437456130981,,,,,,,,
,hair,0.9604564309120178,,,,,,,,
,studio,0.9581310749053955,,,,,,,,
,isolated,0.9528421759605408,,,,,,,,
,bizarre,0.9335628747940063,,,,,,,,
,head,0.9320933222770691,,,,,,,,
,beautiful,0.9304263591766357,,,,,,,,
,crazy,0.9272669553756714,,,,,,,,
,people,0.9216069579124451,,,,,,,,
,sunglasses,0.912882924079895,,,,,,,,
,adult,0.9113891124725342,,,,,,,,
,fashion,0.9076970219612122,,,,,,,,
https://scontent.cdninstagram.com/t51.2885-15/e35/13556743_1546787382293688_1666196404_n.jpg,"transportation system",0.993484616279602,Travel,,,,Travel-s,,,
,travel,0.9912564158439636,,,,,,,,
,vehicle,0.9865821599960327,,,,,,,,
,water,0.9802694320678711,,,,,,,,
,"no person",0.9802231788635254,,,,,,,,
,landscape,0.9717088937759399,,,,,,,,
,sky,0.9566978216171265,,,,,,,,
,airplane,0.9439200162887573,,,,,,,,
,sea,0.9395841360092163,,,,,,,,
,guidance,0.9032785892486572,,,,,,,,
,business,0.8969641923904419,,,,,,,,
,airport,0.8952994346618652,,,,,,,,
,sunset,0.8912637829780579,,,,,,,,
,seashore,0.8868269920349121,,,,,,,,
,road,0.864105761051178,,,,,,,,
,aircraft,0.8620593547821045,,,,,,,,
,light,0.8609099388122559,,,,,,,,
,guidance,0.859158992767334,,,,,,,,
,ocean,0.8548610210418701,,,,,,,,
,outdoors,0.825786828994751,,,,,,,,
https://scontent.cdninstagram.com/t51.2885-15/e35/13534443_1195678510462419_960675410_n.jpg,food,0.9963107109069824,Food,,,,Dessert,,,
,"no person",0.9817495346069336,,,,,,,,
,chocolate,0.9752085208892822,,,,,,,,
,sweet,0.9748855829238892,,,,,,,,
,delicious,0.9747198820114136,,,,,,,,
,sugar,0.9746074676513672,,,,,,,,
,cake,0.9506890773773193,,,,,,,,
,plate,0.9431588053703308,,,,,,,,
,baking,0.9374716281890869,,,,,,,,
,fruit,0.9370512962341309,,,,,,,,
,homemade,0.9317418336868286,,,,,,,,
,meal,0.9087311029434204,,,,,,,,
,breakfast,0.9064919948577881,,,,,,,,
,cooking,0.9012067317962646,,,,,,,,
,coffee,0.8914811611175537,,,,,,,,
,pastry,0.8897815942764282,,,,,,,,
,refreshment,0.8860657215118408,,,,,,,,
,epicure,0.8835632801055908,,,,,,,,
,tasty,0.8812068700790405,,,,,,,,
,health,0.873440146446228,,,,,,,,
https://scontent.cdninstagram.com/t51.2885-15/e35/13187957_1694003187532586_998574849_n.jpg,business,0.9526028633117676,"Fashion & Beauty",,,,"Fashion & Beauty-s",,,
,hand,0.942163348197937,,,,,,,,
,woman,0.9384470582008362,,,,,,,,
,people,0.9003949165344238,,,,,,,,
,text,0.859822690486908,,,,,,,,
,education,0.8465999364852905,,,,,,,,
,writing,0.8417467474937439,,,,,,,,
,teamwork,0.8316329121589661,,,,,,,,
,conceptual,0.8089632987976074,,,,,,,,
,adult,0.7972069978713989,,,,,,,,
,creativity,0.7952722907066345,,,,,,,,
,indoors,0.7940951585769653,,,,,,,,
,man,0.7930489778518677,,,,,,,,
,success,0.7818940877914429,,,,,,,,
,support,0.7798293828964233,,,,,,,,
,strategy,0.7578704357147217,,,,,,,,
,person,0.7500792741775513,,,,,,,,
,desktop,0.7409605979919434,,,,,,,,
,human,0.7148111462593079,,,,,,,,
,young,0.7068163156509399,,,,,,,,
