url,class,score
https://scontent.cdninstagram.com/t51.2885-15/e35/12139652_1703096843260213_452092110_n.jpg,commerce,0.9881491661071777
,people,0.9873427152633667
,stock,0.9801002740859985
,group,0.9696413278579712
,many,0.9646236300468445
,shopping,0.9613311886787415
,travel,0.9611721634864807
,vehicle,0.9604739546775818
,city,0.9585545659065247
,tourist,0.9483658075332642
,building,0.9440324306488037
,crowd,0.943350076675415
,daylight,0.9412609338760376
,festival,0.9339545369148254
,tourism,0.9320665597915649
,competition,0.9015481472015381
,architecture,0.8972291946411133
,road,0.895447850227356
,street,0.8798657655715942
,outdoors,0.8692084550857544
https://scontent.cdninstagram.com/t51.2885-15/e35/11925832_700179686748485_262523511_n.jpg,food,0.9905725717544556
,no person,0.9874188899993896
,sweet,0.9830440282821655
,pastry,0.9762396812438965
,sugar,0.9698021411895752
,bakery,0.9525474905967712
,cake,0.9512466192245483
,delicious,0.9483165740966797
,refreshment,0.9451344013214111
,candy,0.9265154600143433
,breakfast,0.9260676503181458
,slice,0.9199159741401672
,tasty,0.9190273284912109
,closeup,0.9043736457824707
,still life,0.8987244367599487
,fruit,0.8971570730209351
,pie,0.8943109512329102
,isolated,0.8937253355979919
,baking,0.8920841217041016
,round,0.8918604850769043
https://scontent.cdninstagram.com/t51.2885-15/e35/12357768_801876996588884_1889787170_n.jpg,food,0.9854969382286072
,popcorn,0.9805539846420288
,no person,0.9728269577026367
,refreshment,0.953337550163269
,delicious,0.9521656036376953
,desktop,0.9188445806503296
,traditional,0.8928464651107788
,sugar,0.8839643001556396
,sweet,0.880470335483551
,corn,0.8708863258361816
,gold,0.8707959651947021
,tasty,0.8698538541793823
,entertainment,0.866431713104248
,display,0.8518167734146118
,goody,0.8478202819824219
,restaurant,0.8291895985603333
,epicure,0.8281919956207275
,meat,0.8258510231971741
,cuisine,0.8181214332580566
,box,0.8064466714859009
https://scontent.cdninstagram.com/t51.2885-15/e35/1889130_159252144425702_5873138_n.jpg,church,0.9982477426528931
,altar,0.9958157539367676
,religion,0.9893307685852051
,architecture,0.988409161567688
,indoors,0.9881552457809448
,cathedral,0.9825679659843445
,chapel,0.9728192090988159
,no person,0.9702075719833374
,arch,0.9556803703308105
,travel,0.9547348618507385
,bench,0.9512943029403687
,candle,0.9493964910507202
,window,0.9454165697097778
,ceiling,0.944724440574646
,spirituality,0.9440093040466309
,landmark,0.9353529214859009
,art,0.9238593578338623
,stained glass,0.9226237535476685
,building,0.9135556221008301
,god,0.8984751105308533
https://scontent.cdninstagram.com/t51.2885-15/e15/12107423_1672959692918509_234108590_n.jpg,water,0.9976314306259155
,no person,0.9965996742248535
,beach,0.9931089878082275
,seashore,0.9930331707000732
,surf,0.9929776191711426
,sand,0.9849217534065247
,ocean,0.9845086336135864
,sea,0.977548360824585
,travel,0.9743228554725647
,wave,0.9688612818717957
,outdoors,0.962114691734314
,landscape,0.9566675424575806
,foam,0.9497401714324951
,tide,0.9130467176437378
,rock,0.9125522375106812
,daylight,0.9079151749610901
,sunset,0.8904018402099609
,seascape,0.8849940299987793
,nature,0.8572585582733154
,scenic,0.8567323088645935
https://scontent.cdninstagram.com/t51.2885-15/s480x480/e35/12725130_1554812224845896_2055667066_n.jpg,food,0.997580349445343
,dinner,0.9782592058181763
,plate,0.9738867282867432
,meat,0.971147358417511
,vegetable,0.9698244333267212
,meal,0.9659442901611328
,lunch,0.962765634059906
,dish,0.9627556800842285
,grow,0.9502139091491699
,delicious,0.9448031187057495
,restaurant,0.9277303218841553
,no person,0.927092432975769
,sauce,0.9123966693878174
,tomato,0.9113644361495972
,cuisine,0.8995462656021118
,tableware,0.8921523094177246
,pork,0.8893594741821289
,table,0.8862436413764954
,cooking,0.8837612271308899
,nutrition,0.8819392323493958
https://scontent.cdninstagram.com/t51.2885-15/e35/12224606_826375750814235_1664107738_n.jpg,food,0.9981908202171326
,meal,0.988878607749939
,vegetable,0.9866958856582642
,hot,0.9855190515518188
,cuisine,0.9854790568351746
,dinner,0.9847357273101807
,delicious,0.981055498123169
,soup,0.9785891175270081
,dish,0.9770351648330688
,noodles,0.9727780818939209
,lunch,0.9716061353683472
,epicure,0.970257580280304
,cooking,0.9668786525726318
,plate,0.9647387266159058
,healthy,0.9635876417160034
,bowl,0.958824634552002
,chili,0.9571624994277954
,meat,0.9570521116256714
,restaurant,0.95390385389328
,tasty,0.9498528242111206
https://scontent.cdninstagram.com/t51.2885-15/e15/12599035_979200658782266_1348713657_n.jpg,still life,0.9972645044326782
,no person,0.9966015219688416
,container,0.9962194561958313
,bowl,0.9947353601455688
,food,0.9932354092597961
,kitchenware,0.9923220872879028
,tableware,0.9919541478157043
,one,0.9858564138412476
,grow,0.9794591665267944
,cookware,0.9633463621139526
,flatware,0.9599164128303528
,dish,0.9555765390396118
,cup,0.9508543014526367
,pot,0.9421138167381287
,cutout,0.9380989074707031
,cooking,0.912032961845398
,soup,0.9114671945571899
,dairy product,0.9061570763587952
,furniture,0.9023258686065674
,indoors,0.901300311088562
https://scontent.cdninstagram.com/t51.2885-15/e35/1170085_1696919930520874_1579170208_n.jpg,roll,0.9790393114089966
,no person,0.9782782793045044
,food,0.9675705432891846
,roll,0.9640905857086182
,rice,0.9536144733428955
,sushi,0.942899227142334
,fish,0.9386690855026245
,avocado,0.9233808517456055
,leaf,0.9184122085571289
,healthy,0.9139529466629028
,meal,0.910269021987915
,seafood,0.9067407846450806
,dinner,0.9002736806869507
,seaweed,0.869623064994812
,cream,0.8594302535057068
,salmon,0.8533481359481812
,traditional,0.8469693660736084
,vegetable,0.8437671661376953
,slice,0.8371161222457886
,closeup,0.8283329010009766
https://scontent.cdninstagram.com/t51.2885-15/e35/12276827_955586387850548_975837912_n.jpg,no person,0.9967414140701294
,strawberry,0.9941307902336121
,sweet,0.9940861463546753
,berry,0.9935789704322815
,fruit,0.9895370602607727
,delicious,0.9857546091079712
,cream,0.9856960773468018
,food,0.9832147359848022
,cake,0.9797549247741699
,breakfast,0.9757847785949707
,pastry,0.9749913215637207
,pancake,0.9685608744621277
,homemade,0.9644226431846619
,sugar,0.9643375873565674
,baking,0.9570767879486084
,dairy product,0.9515708684921265
,jam,0.948776364326477
,tart,0.9379116296768188
,pie,0.9326754808425903
,plate,0.9322666525840759
https://scontent.cdninstagram.com/t51.2885-15/e35/12331916_769256943203804_2063323814_n.jpg,no person,0.9638110995292664
,food,0.9530647993087769
,cooking,0.9376332759857178
,desktop,0.9042037725448608
,wood,0.8769570589065552
,people,0.8606607913970947
,hot,0.8602822422981262
,symbol,0.8561547994613647
,flame,0.8486648201942444
,traditional,0.8337479829788208
,meal,0.8162795305252075
,health,0.8065677285194397
,business,0.8045691251754761
,wooden,0.8030877113342285
,celebration,0.8024595379829407
,text,0.7841628789901733
,stock,0.7693029642105103
,sign,0.7580920457839966
,dinner,0.7522498369216919
,epicure,0.7480745911598206
https://scontent.cdninstagram.com/t51.2885-15/e35/12523540_980216798719830_519166162_n.jpg,temple,0.9990587830543518
,travel,0.9939926862716675
,architecture,0.9888805747032166
,religion,0.9875606298446655
,shrine,0.9858726263046265
,no person,0.9813637137413025
,pagoda,0.9806092977523804
,forbidden,0.9804741144180298
,dynasty,0.9788575768470764
,marquee,0.9775559902191162
,roof,0.9742717742919922
,building,0.9590544104576111
,emperor,0.957148551940918
,daylight,0.9555800557136536
,castle,0.9544478058815002
,museum,0.9484318494796753
,city,0.9435200691223145
,gate,0.9387766122817993
,outdoors,0.9367450475692749
,people,0.9324012994766235
https://scontent.cdninstagram.com/t51.2885-15/e35/12724630_520615791451967_1954300415_n.jpg,illuminated,0.9802043437957764
,business,0.9791644811630249
,light,0.9688260555267334
,sign,0.9365291595458984
,industry,0.9355237483978271
,technology,0.9238765835762024
,festival,0.919937014579773
,movie,0.9197545647621155
,performance,0.9185182452201843
,city,0.909628689289093
,stage,0.8865824937820435
,people,0.8728880882263184
,exhibition,0.8692449927330017
,horizontal,0.8605139255523682
,communication,0.8533706665039062
,computer,0.8498942255973816
,text,0.8458305597305298
,travel,0.8297239542007446
,landscape,0.8248294591903687
,offense,0.8179848194122314
https://scontent.cdninstagram.com/t51.2885-15/e35/13102548_594732964013233_1395896567_n.jpg,food,0.9707996845245361
,child,0.9667302370071411
,celebration,0.9429569840431213
,exhibition,0.941185474395752
,party,0.9360065460205078
,decoration,0.9330583810806274
,people,0.9322396516799927
,fun,0.9226281642913818
,stock,0.9209729433059692
,festival,0.9115945100784302
,container,0.9110274314880371
,color,0.9017859697341919
,painting,0.8876766562461853
,indoors,0.878504753112793
,birthday,0.8584396839141846
,girl,0.8525439500808716
,carnival,0.8449152112007141
,creativity,0.8425877690315247
,candy,0.8416152000427246
,woman,0.8246466517448425
https://scontent.cdninstagram.com/t51.2885-15/e35/10953050_850007321786520_1201255759_n.jpg,food,0.9964157342910767
,no person,0.9895577430725098
,dinner,0.9817079901695251
,delicious,0.9811981916427612
,meal,0.9758721590042114
,meat,0.9743155241012573
,plate,0.9718059301376343
,lunch,0.968775749206543
,flatware,0.9676461219787598
,sauce,0.9650309085845947
,dish,0.963775634765625
,cream,0.961522102355957
,cooking,0.9557338953018188
,creamy,0.9515539407730103
,tableware,0.9413890838623047
,grow,0.9397304654121399
,hot,0.9343595504760742
,dining,0.926465630531311
,beef,0.9243272542953491
,dairy product,0.9153039455413818
https://scontent.cdninstagram.com/t51.2885-15/e35/12357851_808193359289297_4209555_n.jpg,cream,0.9956124424934387
,no person,0.9950661659240723
,cake,0.9950287342071533
,sugar,0.9941960573196411
,sweet,0.9934260845184326
,delicious,0.9898984432220459
,chocolate,0.9890578985214233
,strawberry,0.9849871397018433
,pastry,0.9768736958503723
,indulgence,0.9714455604553223
,food,0.9708249568939209
,baking,0.9700263738632202
,fruit,0.9674359560012817
,bakery,0.961057186126709
,creamy,0.9579070806503296
,candy,0.9573909044265747
,birthday,0.9518976807594299
,berry,0.9489808082580566
,dairy product,0.9402214288711548
,goody,0.9333173632621765
https://scontent.cdninstagram.com/t51.2885-15/e35/12918541_1863443013882463_638501630_n.jpg,indoors,0.988623857498169
,commerce,0.9656257033348083
,exhibition,0.9648456573486328
,people,0.9597785472869873
,business,0.9597615003585815
,technology,0.9589352011680603
,display,0.9469329118728638
,industry,0.9459575414657593
,stock,0.9438474178314209
,adult,0.9346903562545776
,merchandise,0.9345712065696716
,presentation,0.9323709011077881
,room,0.9280425906181335
,food,0.9240472316741943
,computer,0.9117879867553711
,production,0.90506911277771
,healthcare,0.8984841108322144
,furniture,0.8980036377906799
,environment,0.8893787860870361
,shelf,0.8889642357826233
https://scontent.cdninstagram.com/t51.2885-15/e35/12080620_151643271857523_2093798120_n.jpg,food,0.9957454204559326
,no person,0.9706571102142334
,meat,0.9685389995574951
,vegetable,0.9489935636520386
,grow,0.9480973482131958
,meal,0.9398306012153625
,table,0.934597373008728
,restaurant,0.9343681335449219
,dinner,0.9239290356636047
,bread,0.9092597365379333
,people,0.9071288704872131
,cooking,0.8936052322387695
,dish,0.8779377937316895
,delicious,0.8729795217514038
,lunch,0.8665915727615356
,epicure,0.8665553331375122
,cuisine,0.8607211112976074
,onion,0.8536015748977661
,plate,0.8488254547119141
,poultry,0.8466413021087646
https://scontent.cdninstagram.com/t51.2885-15/e35/12628045_570166936479367_2047135301_n.jpg,temple,0.997724711894989
,travel,0.9928689002990723
,pagoda,0.9869850873947144
,architecture,0.9869583249092102
,religion,0.9812496900558472
,traditional,0.9811521768569946
,Buddha,0.9806795120239258
,no person,0.9735537767410278
,shrine,0.9676522016525269
,building,0.967532217502594
,culture,0.9667507410049438
,sky,0.9652721285820007
,outdoors,0.9592269659042358
,castle,0.9541056156158447
,gold,0.9414849281311035
,ancient,0.9370682239532471
,monastery,0.9287619590759277
,spirituality,0.9156815409660339
,tree,0.9121154546737671
,tourism,0.909041702747345
https://scontent.cdninstagram.com/t51.2885-15/e35/12256792_421278584733892_394960219_n.jpg,chocolate,0.9990139603614807
,delicious,0.995390772819519
,food,0.9937666654586792
,sweet,0.9918818473815918
,sugar,0.9886013269424438
,cake,0.9870419502258301
,slice,0.9778991937637329
,indulgence,0.9771691560745239
,pie,0.9703535437583923
,slice,0.9701981544494629
,cream,0.9683493375778198
,epicure,0.9673351645469666
,pastry,0.9657829403877258
,candy,0.9594672322273254
,no person,0.954521894454956
,dark,0.9519871473312378
,baking,0.9469908475875854
,tasty,0.9462842345237732
,chocolate,0.9395344257354736
,plate,0.9381155967712402
https://scontent.cdninstagram.com/t51.2885-15/e35/12081089_109733672721358_1090761340_n.jpg,water,0.9956910610198975
,no person,0.9868142604827881
,beach,0.9865709543228149
,sea,0.9843838214874268
,ocean,0.9800182580947876
,surf,0.9736579060554504
,seashore,0.9726290702819824
,storm,0.9629473686218262
,landscape,0.9613888263702393
,travel,0.9533806443214417
,sky,0.9523214101791382
,wave,0.9497934579849243
,sand,0.9412599205970764
,sunset,0.9376919269561768
,outdoors,0.9336177110671997
,seascape,0.9330013990402222
,nature,0.9322347640991211
,rock,0.9305198788642883
,summer,0.883205771446228
,dawn,0.8702059984207153
https://scontent.cdninstagram.com/t51.2885-15/e35/12231037_857189744399562_618116709_n.jpg,food,0.9981627464294434
,meal,0.9795371294021606
,grow,0.9787359237670898
,plate,0.9756885766983032
,dinner,0.974478006362915
,vegetable,0.9737308025360107
,no person,0.9726178646087646
,meat,0.9699116945266724
,dish,0.9695521593093872
,lunch,0.9691789746284485
,cooking,0.9658563733100891
,hot,0.961338996887207
,delicious,0.960677981376648
,chicken,0.9519794583320618
,cuisine,0.9511632919311523
,traditional,0.9364750385284424
,homemade,0.928044319152832
,potato,0.9278751611709595
,refreshment,0.9232814311981201
,healthy,0.9201672077178955
https://scontent.cdninstagram.com/t51.2885-15/e35/12256792_421278584733892_394960219_n.jpg,chocolate,0.9990139603614807
,delicious,0.995390772819519
,food,0.9937666654586792
,sweet,0.9918818473815918
,sugar,0.9886013269424438
,cake,0.9870419502258301
,slice,0.9778991937637329
,indulgence,0.9771691560745239
,pie,0.9703535437583923
,slice,0.9701981544494629
,cream,0.9683493375778198
,epicure,0.9673351645469666
,pastry,0.9657829403877258
,candy,0.9594672322273254
,no person,0.954521894454956
,dark,0.9519871473312378
,baking,0.9469908475875854
,tasty,0.9462842345237732
,chocolate,0.9395344257354736
,plate,0.9381155967712402
https://scontent.cdninstagram.com/t51.2885-15/e35/12269724_689884371148031_590573347_n.jpg,no person,0.9983992576599121
,chocolate,0.9960529208183289
,sweet,0.9952785968780518
,food,0.9950962662696838
,sugar,0.9876554608345032
,delicious,0.9863825440406799
,candy,0.9802236557006836
,cookie,0.9726182222366333
,baking,0.9655172824859619
,homemade,0.9617952704429626
,indulgence,0.9601478576660156
,dark,0.9473637342453003
,still life,0.9369679689407349
,temptation,0.9325942397117615
,confection,0.9317307472229004
,refreshment,0.9313242435455322
,unhealthy,0.9194364547729492
,cake,0.91103196144104
,meringue,0.9031239748001099
,Christmas,0.8968086838722229
https://scontent.cdninstagram.com/t51.2885-15/e35/12276911_905351679549200_938743957_n.jpg,no person,0.9832072257995605
,food,0.973922848701477
,unhealthy,0.9591033458709717
,wood,0.9188228249549866
,french fries,0.9159145355224609
,salt,0.8841447830200195
,stick,0.8641928434371948
,salty,0.8480420112609863
,traditional,0.8358080387115479
,delicious,0.8116044998168945
,dinner,0.8065443634986877
,restaurant,0.7983017563819885
,cooking,0.7790016531944275
,business,0.7574479579925537
,batch,0.7448593974113464
,junk,0.729884147644043
,lunch,0.6868686676025391
,potato,0.6787174940109253
,many,0.6734623908996582
,industry,0.6682064533233643
https://scontent.cdninstagram.com/t51.2885-15/e35/12354012_1030623653645969_210851980_n.jpg,chocolate,0.9981792569160461
,sugar,0.9936428070068359
,sweet,0.9932748079299927
,no person,0.9914288520812988
,cream,0.9902844429016113
,delicious,0.9893032312393188
,cake,0.9851832389831543
,indulgence,0.9778676629066467
,candy,0.9738168716430664
,birthday,0.9682421088218689
,Christmas,0.9659676551818848
,custard,0.9650754928588867
,unhealthy,0.9590240716934204
,creamy,0.9569589495658875
,baking,0.9507231712341309
,celebration,0.9460686445236206
,homemade,0.9351584911346436
,food,0.935002326965332
,pastry,0.9328403472900391
,temptation,0.9316791296005249
https://scontent.cdninstagram.com/t51.2885-15/e35/12276911_905351679549200_938743957_n.jpg,no person,0.9832072257995605
,food,0.973922848701477
,unhealthy,0.9591033458709717
,wood,0.9188228249549866
,french fries,0.9159145355224609
,salt,0.8841447830200195
,stick,0.8641928434371948
,salty,0.8480420112609863
,traditional,0.8358080387115479
,delicious,0.8116044998168945
,dinner,0.8065443634986877
,restaurant,0.7983017563819885
,cooking,0.7790016531944275
,business,0.7574479579925537
,batch,0.7448593974113464
,junk,0.729884147644043
,lunch,0.6868686676025391
,potato,0.6787174940109253
,many,0.6734623908996582
,industry,0.6682064533233643
https://scontent.cdninstagram.com/t51.2885-15/e35/12105116_169829846696063_354002426_n.jpg,architecture,0.9966062903404236
,no person,0.9957916140556335
,church,0.9894200563430786
,religion,0.9850499629974365
,tower,0.9788923263549805
,travel,0.9746570587158203
,sky,0.9624607563018799
,outdoors,0.9602012634277344
,cathedral,0.9599745869636536
,landmark,0.9570578336715698
,old,0.9552211761474609
,building,0.9487847089767456
,ancient,0.9474395513534546
,Gothic,0.9464929103851318
,Gothic,0.9464602470397949
,spirituality,0.8818164467811584
,city,0.8799825310707092
,religious,0.8777942657470703
,monument,0.8727918267250061
,sacred,0.8596602082252502
https://scontent.cdninstagram.com/t51.2885-15/e35/12139652_1703096843260213_452092110_n.jpg,commerce,0.9881491661071777
,people,0.9873427152633667
,stock,0.9801002740859985
,group,0.9696413278579712
,many,0.9646236300468445
,shopping,0.9613311886787415
,travel,0.9611721634864807
,vehicle,0.9604739546775818
,city,0.9585545659065247
,tourist,0.9483658075332642
,building,0.9440324306488037
,crowd,0.943350076675415
,daylight,0.9412609338760376
,festival,0.9339545369148254
,tourism,0.9320665597915649
,competition,0.9015481472015381
,architecture,0.8972291946411133
,road,0.895447850227356
,street,0.8798657655715942
,outdoors,0.8692084550857544
https://scontent.cdninstagram.com/t51.2885-15/e35/12501473_1096757067003922_576462628_n.jpg,food,0.9976613521575928
,no person,0.9952338337898254
,chocolate,0.9936279058456421
,sweet,0.9932917952537537
,delicious,0.9881255626678467
,sugar,0.9822332859039307
,cake,0.9748708009719849
,homemade,0.971439003944397
,pastry,0.9611086845397949
,baking,0.9519524574279785
,plate,0.9510406255722046
,fruit,0.9494374990463257
,indulgence,0.947345495223999
,candy,0.9391542673110962
,pie,0.938111424446106
,slice,0.9266740083694458
,refreshment,0.9221307039260864
,epicure,0.9148621559143066
,dairy product,0.9117070436477661
,grow,0.9108315110206604
https://scontent.cdninstagram.com/t51.2885-15/e15/12107423_1672959692918509_234108590_n.jpg,water,0.9976314306259155
,no person,0.9965996742248535
,beach,0.9931089878082275
,seashore,0.9930331707000732
,surf,0.9929776191711426
,sand,0.9849217534065247
,ocean,0.9845086336135864
,sea,0.977548360824585
,travel,0.9743228554725647
,wave,0.9688612818717957
,outdoors,0.962114691734314
,landscape,0.9566675424575806
,foam,0.9497401714324951
,tide,0.9130467176437378
,rock,0.9125522375106812
,daylight,0.9079151749610901
,sunset,0.8904018402099609
,seascape,0.8849940299987793
,nature,0.8572585582733154
,scenic,0.8567323088645935
https://scontent.cdninstagram.com/t51.2885-15/e35/12231037_857189744399562_618116709_n.jpg,food,0.9981627464294434
,meal,0.9795371294021606
,grow,0.9787359237670898
,plate,0.9756885766983032
,dinner,0.974478006362915
,vegetable,0.9737308025360107
,no person,0.9726178646087646
,meat,0.9699116945266724
,dish,0.9695521593093872
,lunch,0.9691789746284485
,cooking,0.9658563733100891
,hot,0.961338996887207
,delicious,0.960677981376648
,chicken,0.9519794583320618
,cuisine,0.9511632919311523
,traditional,0.9364750385284424
,homemade,0.928044319152832
,potato,0.9278751611709595
,refreshment,0.9232814311981201
,healthy,0.9201672077178955
https://scontent.cdninstagram.com/t51.2885-15/e35/12523540_980216798719830_519166162_n.jpg,temple,0.9990587830543518
,travel,0.9939926862716675
,architecture,0.9888805747032166
,religion,0.9875606298446655
,shrine,0.9858726263046265
,no person,0.9813637137413025
,pagoda,0.9806092977523804
,forbidden,0.9804741144180298
,dynasty,0.9788575768470764
,marquee,0.9775559902191162
,roof,0.9742717742919922
,building,0.9590544104576111
,emperor,0.957148551940918
,daylight,0.9555800557136536
,castle,0.9544478058815002
,museum,0.9484318494796753
,city,0.9435200691223145
,gate,0.9387766122817993
,outdoors,0.9367450475692749
,people,0.9324012994766235
https://scontent.cdninstagram.com/t51.2885-15/e35/12446360_2012769645614255_1906977787_n.jpg,food,0.9907629489898682
,no person,0.9878060817718506
,noodles,0.9831961393356323
,pasta,0.9781038761138916
,cooking,0.9738016128540039
,spaghetti,0.9726065397262573
,traditional,0.9704296588897705
,lunch,0.9665554761886597
,dinner,0.961409330368042
,delicious,0.9605928659439087
,meal,0.9583913087844849
,nutrition,0.9437932968139648
,cuisine,0.9415696859359741
,closeup,0.9259812831878662
,restaurant,0.9217390418052673
,dish,0.9067683219909668
,carbohydrate,0.9006351232528687
,tasty,0.8884854316711426
,desktop,0.8845739364624023
,macaroni,0.8835799098014832
https://scontent.cdninstagram.com/t51.2885-15/e35/12558765_101191666931080_1951425597_n.jpg,food,0.9826467037200928
,cream,0.9826407432556152
,cake,0.9815584421157837
,chocolate,0.9787687659263611
,sweet,0.9786217212677002
,no person,0.9746811389923096
,breakfast,0.9734602570533752
,delicious,0.9734559059143066
,jam,0.9683216214179993
,plate,0.958754301071167
,sugar,0.953681468963623
,creamy,0.9466707706451416
,cheesecake,0.9456995725631714
,coffee,0.9452500939369202
,slice,0.9432179927825928
,pastry,0.9290512204170227
,fruit,0.9229922294616699
,strawberry,0.9185691475868225
,berry,0.9086202383041382
,pie,0.9066671133041382
https://scontent.cdninstagram.com/t51.2885-15/e35/12558765_101191666931080_1951425597_n.jpg,food,0.9826467037200928
,cream,0.9826407432556152
,cake,0.9815584421157837
,chocolate,0.9787687659263611
,sweet,0.9786217212677002
,no person,0.9746811389923096
,breakfast,0.9734602570533752
,delicious,0.9734559059143066
,jam,0.9683216214179993
,plate,0.958754301071167
,sugar,0.953681468963623
,creamy,0.9466707706451416
,cheesecake,0.9456995725631714
,coffee,0.9452500939369202
,slice,0.9432179927825928
,pastry,0.9290512204170227
,fruit,0.9229922294616699
,strawberry,0.9185691475868225
,berry,0.9086202383041382
,pie,0.9066671133041382
https://scontent.cdninstagram.com/t51.2885-15/e35/12224453_1555727314649775_1191013380_n.jpg,no person,0.982463002204895
,delicious,0.9784711599349976
,food,0.9688055515289307
,lunch,0.9438593983650208
,dinner,0.9417140483856201
,health,0.9374703168869019
,traditional,0.9267226457595825
,nutrition,0.9200326204299927
,indoors,0.8684021830558777
,breakfast,0.8547585010528564
,cooking,0.8315222263336182
,sushi,0.8303162455558777
,rice,0.7969629764556885
,dining,0.7855068445205688
,baking,0.7838366031646729
,refreshment,0.7784308195114136
,unhealthy,0.7606630325317383
,taste,0.7603832483291626
,ready,0.7483130693435669
,meal,0.7465559244155884
https://scontent.cdninstagram.com/t51.2885-15/e35/1889130_159252144425702_5873138_n.jpg,church,0.9982477426528931
,altar,0.9958157539367676
,religion,0.9893307685852051
,architecture,0.988409161567688
,indoors,0.9881552457809448
,cathedral,0.9825679659843445
,chapel,0.9728192090988159
,no person,0.9702075719833374
,arch,0.9556803703308105
,travel,0.9547348618507385
,bench,0.9512943029403687
,candle,0.9493964910507202
,window,0.9454165697097778
,ceiling,0.944724440574646
,spirituality,0.9440093040466309
,landmark,0.9353529214859009
,art,0.9238593578338623
,stained glass,0.9226237535476685
,building,0.9135556221008301
,god,0.8984751105308533
https://scontent.cdninstagram.com/t51.2885-15/e35/12277027_1527715620875327_678599223_n.jpg,dumpling,0.9990289211273193
,food,0.9955711364746094
,dinner,0.9871786832809448
,no person,0.9841150641441345
,bowl,0.9825276136398315
,steamer,0.982049822807312
,meat,0.9809364676475525
,homemade,0.9780429601669312
,lunch,0.9731183052062988
,ravioli,0.9715762138366699
,grow,0.967549204826355
,dish,0.9654231667518616
,meal,0.9630997180938721
,delicious,0.9607585668563843
,cooking,0.9602874517440796
,pork,0.9579968452453613
,wood,0.9514676332473755
,traditional,0.9492162466049194
,tortellini,0.9460799098014832
,amount,0.9360941648483276
https://scontent.cdninstagram.com/t51.2885-15/e35/12724630_520615791451967_1954300415_n.jpg,illuminated,0.9802043437957764
,business,0.9791644811630249
,light,0.9688260555267334
,sign,0.9365291595458984
,industry,0.9355237483978271
,technology,0.9238765835762024
,festival,0.919937014579773
,movie,0.9197545647621155
,performance,0.9185182452201843
,city,0.909628689289093
,stage,0.8865824937820435
,people,0.8728880882263184
,exhibition,0.8692449927330017
,horizontal,0.8605139255523682
,communication,0.8533706665039062
,computer,0.8498942255973816
,text,0.8458305597305298
,travel,0.8297239542007446
,landscape,0.8248294591903687
,offense,0.8179848194122314
https://scontent.cdninstagram.com/t51.2885-15/e35/13151152_1713304992271374_171221501_n.jpg,furniture,0.9972069263458252
,indoors,0.9941518306732178
,room,0.9933925867080688
,table,0.9931213855743408
,chair,0.9873994588851929
,interior design,0.9859660863876343
,no person,0.9814708828926086
,seat,0.9770553708076477
,house,0.9670782089233398
,lamp,0.9663812518119812
,wood,0.9572349786758423
,luxury,0.9468101859092712
,decoration,0.9419357180595398
,contemporary,0.9402643442153931
,shelf,0.9400049448013306
,architecture,0.9380792379379272
,inside,0.9374825954437256
,family,0.9219141006469727
,apartment,0.9200767278671265
,design,0.911471962928772
https://scontent.cdninstagram.com/t51.2885-15/e15/12599035_979200658782266_1348713657_n.jpg,still life,0.9972645044326782
,no person,0.9966015219688416
,container,0.9962194561958313
,bowl,0.9947353601455688
,food,0.9932354092597961
,kitchenware,0.9923220872879028
,tableware,0.9919541478157043
,one,0.9858564138412476
,grow,0.9794591665267944
,cookware,0.9633463621139526
,flatware,0.9599164128303528
,dish,0.9555765390396118
,cup,0.9508543014526367
,pot,0.9421138167381287
,cutout,0.9380989074707031
,cooking,0.912032961845398
,soup,0.9114671945571899
,dairy product,0.9061570763587952
,furniture,0.9023258686065674
,indoors,0.901300311088562
https://scontent.cdninstagram.com/t51.2885-15/e35/12317427_481227338752511_1041803632_n.jpg,money,0.9907099008560181
,business,0.9887852668762207
,finance,0.9861028790473938
,money,0.9799213409423828
,wealth,0.979381799697876
,commerce,0.9704312086105347
,paper,0.9668063521385193
,no person,0.9487701654434204
,bank,0.9468733072280884
,success,0.9378001689910889
,cash,0.9332518577575684
,shopping,0.9331718683242798
,savings,0.9294125437736511
,euro,0.9045512676239014
,symbol,0.9015921354293823
,investment,0.8764127492904663
,financial,0.8680542707443237
,bargain,0.8649226427078247
,number,0.8532263040542603
,debt,0.8455312848091125
https://scontent.cdninstagram.com/t51.2885-15/e35/12081089_109733672721358_1090761340_n.jpg,water,0.9956910610198975
,no person,0.9868142604827881
,beach,0.9865709543228149
,sea,0.9843838214874268
,ocean,0.9800182580947876
,surf,0.9736579060554504
,seashore,0.9726290702819824
,storm,0.9629473686218262
,landscape,0.9613888263702393
,travel,0.9533806443214417
,sky,0.9523214101791382
,wave,0.9497934579849243
,sand,0.9412599205970764
,sunset,0.9376919269561768
,outdoors,0.9336177110671997
,seascape,0.9330013990402222
,nature,0.9322347640991211
,rock,0.9305198788642883
,summer,0.883205771446228
,dawn,0.8702059984207153
https://scontent.cdninstagram.com/t51.2885-15/e35/10387856_578047722354173_2054990536_n.jpg,no person,0.9867086410522461
,people,0.9539216756820679
,man,0.9221673011779785
,one,0.9123353362083435
,skull,0.8990745544433594
,fun,0.8906394243240356
,retro,0.8887056708335876
,Halloween,0.8855772018432617
,container,0.8766345977783203
,danger,0.8620625734329224
,tribal,0.8541408777236938
,graphic design,0.8505815863609314
,woman,0.8475583791732788
,symbol,0.8367341756820679
,vertical,0.8296070098876953
,paper,0.8293097019195557
,adult,0.8181419372558594
,soccer,0.8106356263160706
,sign,0.8092254400253296
,illustration,0.8059378862380981
https://scontent.cdninstagram.com/t51.2885-15/e35/12237554_1672371843038835_878212711_n.jpg,food,0.9977556467056274
,fish,0.9966975450515747
,salmon,0.9961695671081543
,seafood,0.9954826831817627
,rice,0.9919165372848511
,dinner,0.9914830923080444
,meal,0.9902156591415405
,no person,0.9882375001907349
,sushi,0.9878674745559692
,lunch,0.9855397939682007
,delicious,0.9781697988510132
,epicure,0.9668405652046204
,dish,0.958587646484375
,plate,0.9567598700523376
,cuisine,0.9550336599349976
,sashimi,0.9544380307197571
,vegetable,0.947550892829895
,shrimp,0.944650411605835
,meat,0.9393644332885742
,restaurant,0.9339597225189209
https://scontent.cdninstagram.com/t51.2885-15/e35/1170085_1696919930520874_1579170208_n.jpg,roll,0.9790393114089966
,no person,0.9782782793045044
,food,0.9675705432891846
,roll,0.9640905857086182
,rice,0.9536144733428955
,sushi,0.942899227142334
,fish,0.9386690855026245
,avocado,0.9233808517456055
,leaf,0.9184122085571289
,healthy,0.9139529466629028
,meal,0.910269021987915
,seafood,0.9067407846450806
,dinner,0.9002736806869507
,seaweed,0.869623064994812
,cream,0.8594302535057068
,salmon,0.8533481359481812
,traditional,0.8469693660736084
,vegetable,0.8437671661376953
,slice,0.8371161222457886
,closeup,0.8283329010009766
https://scontent.cdninstagram.com/t51.2885-15/e35/11260389_984344158291401_273121211_n.jpg,no person,0.9951410293579102
,food,0.9869359135627747
,delicious,0.9746261239051819
,sweet,0.9618645906448364
,sugar,0.9599448442459106
,chocolate,0.9534168243408203
,fruit,0.9413824081420898
,still life,0.9391443133354187
,homemade,0.935276985168457
,cake,0.9265009760856628
,indulgence,0.9225189685821533
,grow,0.9168920516967773
,cream,0.9166649580001831
,indoors,0.9137646555900574
,baking,0.9052720069885254
,health,0.9001830816268921
,pastry,0.8918126821517944
,refreshment,0.8825713396072388
,traditional,0.8747503161430359
,strawberry,0.87308669090271
https://scontent.cdninstagram.com/t51.2885-15/e35/12960129_1784130115149385_1997624360_n.jpg,no person,0.993940532207489
,traditional,0.9765278100967407
,business,0.9679974317550659
,commerce,0.9648534655570984
,food,0.9641523361206055
,money,0.9440217018127441
,finance,0.9377539753913879
,festival,0.9375054836273193
,shopping,0.9335998296737671
,market,0.9320094585418701
,wealth,0.9309272766113281
,luck,0.9246891736984253
,text,0.9185539484024048
,symbol,0.9142616987228394
,paper,0.9137729406356812
,money,0.8955146670341492
,prosperity,0.8927671909332275
,culture,0.8854978084564209
,travel,0.880620002746582
,religion,0.8696225881576538
https://scontent.cdninstagram.com/t51.2885-15/e35/11260389_984344158291401_273121211_n.jpg,no person,0.9951410293579102
,food,0.9869359135627747
,delicious,0.9746261239051819
,sweet,0.9618645906448364
,sugar,0.9599448442459106
,chocolate,0.9534168243408203
,fruit,0.9413824081420898
,still life,0.9391443133354187
,homemade,0.935276985168457
,cake,0.9265009760856628
,indulgence,0.9225189685821533
,grow,0.9168920516967773
,cream,0.9166649580001831
,indoors,0.9137646555900574
,baking,0.9052720069885254
,health,0.9001830816268921
,pastry,0.8918126821517944
,refreshment,0.8825713396072388
,traditional,0.8747503161430359
,strawberry,0.87308669090271
https://scontent.cdninstagram.com/t51.2885-15/e35/12501473_1096757067003922_576462628_n.jpg,food,0.9976613521575928
,no person,0.9952338337898254
,chocolate,0.9936279058456421
,sweet,0.9932917952537537
,delicious,0.9881255626678467
,sugar,0.9822332859039307
,cake,0.9748708009719849
,homemade,0.971439003944397
,pastry,0.9611086845397949
,baking,0.9519524574279785
,plate,0.9510406255722046
,fruit,0.9494374990463257
,indulgence,0.947345495223999
,candy,0.9391542673110962
,pie,0.938111424446106
,slice,0.9266740083694458
,refreshment,0.9221307039260864
,epicure,0.9148621559143066
,dairy product,0.9117070436477661
,grow,0.9108315110206604
https://scontent.cdninstagram.com/t51.2885-15/e35/12918541_1863443013882463_638501630_n.jpg,indoors,0.988623857498169
,commerce,0.9656257033348083
,exhibition,0.9648456573486328
,people,0.9597785472869873
,business,0.9597615003585815
,technology,0.9589352011680603
,display,0.9469329118728638
,industry,0.9459575414657593
,stock,0.9438474178314209
,adult,0.9346903562545776
,merchandise,0.9345712065696716
,presentation,0.9323709011077881
,room,0.9280425906181335
,food,0.9240472316741943
,computer,0.9117879867553711
,production,0.90506911277771
,healthcare,0.8984841108322144
,furniture,0.8980036377906799
,environment,0.8893787860870361
,shelf,0.8889642357826233
https://scontent.cdninstagram.com/t51.2885-15/e35/12599335_594941140655835_196313354_n.jpg,restaurant,0.9936857223510742
,dining,0.9929583072662354
,food,0.9904472827911377
,table,0.987503170967102
,tableware,0.9704668521881104
,indoors,0.9568690061569214
,cooking,0.9567562341690063
,cutlery,0.9567205905914307
,meal,0.9527322053909302
,no person,0.9486697316169739
,lunch,0.9444462060928345
,dinner,0.9441537857055664
,buffet,0.9252591133117676
,grow,0.9237701892852783
,knife,0.9235156774520874
,service,0.922290563583374
,catering,0.910621166229248
,chef,0.9087823629379272
,plate,0.8864919543266296
,place setting,0.8821642398834229
https://scontent.cdninstagram.com/t51.2885-15/e35/12751458_1071141349604536_116166513_n.jpg,food,0.996728241443634
,pot,0.9779051542282104
,pan,0.9761112928390503
,meal,0.9750104546546936
,meat,0.9745743274688721
,no person,0.97409987449646
,dinner,0.9696646928787231
,cooking,0.9686102271080017
,dish,0.9566472768783569
,herb,0.9524301290512085
,frying pan,0.9457828402519226
,sauce,0.9434336423873901
,vegetable,0.9303897619247437
,lunch,0.9267765283584595
,cuisine,0.9132190346717834
,cookware,0.9079947471618652
,closeup,0.8704626560211182
,pork,0.862334132194519
,delicious,0.8569091558456421
,epicure,0.8568674921989441
https://scontent.cdninstagram.com/t51.2885-15/e35/12940678_820146024783579_915225327_n.jpg,food,0.9970756769180298
,meal,0.9856096506118774
,dinner,0.9823070168495178
,restaurant,0.9772694110870361
,no person,0.9750635623931885
,dish,0.9745134115219116
,lunch,0.9715644717216492
,vegetable,0.9713485240936279
,plate,0.9667657017707825
,table,0.9657533168792725
,soup,0.9637973308563232
,traditional,0.9596700668334961
,meat,0.9509595632553101
,dining,0.950918436050415
,grow,0.9493435621261597
,cooking,0.9490834474563599
,cuisine,0.9476269483566284
,hot,0.9278937578201294
,epicure,0.9266595840454102
,cutlery,0.9263319969177246
https://scontent.cdninstagram.com/t51.2885-15/e35/12960129_1784130115149385_1997624360_n.jpg,no person,0.993940532207489
,traditional,0.9765278100967407
,business,0.9679974317550659
,commerce,0.9648534655570984
,food,0.9641523361206055
,money,0.9440217018127441
,finance,0.9377539753913879
,festival,0.9375054836273193
,shopping,0.9335998296737671
,market,0.9320094585418701
,wealth,0.9309272766113281
,luck,0.9246891736984253
,text,0.9185539484024048
,symbol,0.9142616987228394
,paper,0.9137729406356812
,money,0.8955146670341492
,prosperity,0.8927671909332275
,culture,0.8854978084564209
,travel,0.880620002746582
,religion,0.8696225881576538
https://scontent.cdninstagram.com/t51.2885-15/s480x480/e35/12725130_1554812224845896_2055667066_n.jpg,food,0.997580349445343
,dinner,0.9782592058181763
,plate,0.9738867282867432
,meat,0.971147358417511
,vegetable,0.9698244333267212
,meal,0.9659442901611328
,lunch,0.962765634059906
,dish,0.9627556800842285
,grow,0.9502139091491699
,delicious,0.9448031187057495
,restaurant,0.9277303218841553
,no person,0.927092432975769
,sauce,0.9123966693878174
,tomato,0.9113644361495972
,cuisine,0.8995462656021118
,tableware,0.8921523094177246
,pork,0.8893594741821289
,table,0.8862436413764954
,cooking,0.8837612271308899
,nutrition,0.8819392323493958
https://scontent.cdninstagram.com/t51.2885-15/e35/12317421_776721722457038_240656498_n.jpg,Christmas,0.9677474498748779
,decoration,0.965551495552063
,design,0.9650235772132874
,light,0.9642612934112549
,neon,0.9638282060623169
,theme,0.9630658626556396
,art,0.9592471718788147
,casino,0.9375360012054443
,celebration,0.9347650408744812
,illuminated,0.9343363046646118
,pattern,0.9255192279815674
,bright,0.9253411293029785
,evening,0.9211118817329407
,fancy,0.9170829057693481
,abstract,0.8913638591766357
,ornate,0.8853824138641357
,festival,0.8797149062156677
,fun,0.8490136861801147
,entertainment,0.830876350402832
,gold,0.8269431591033936
https://scontent.cdninstagram.com/t51.2885-15/e35/12357851_808193359289297_4209555_n.jpg,cream,0.9956124424934387
,no person,0.9950661659240723
,cake,0.9950287342071533
,sugar,0.9941960573196411
,sweet,0.9934260845184326
,delicious,0.9898984432220459
,chocolate,0.9890578985214233
,strawberry,0.9849871397018433
,pastry,0.9768736958503723
,indulgence,0.9714455604553223
,food,0.9708249568939209
,baking,0.9700263738632202
,fruit,0.9674359560012817
,bakery,0.961057186126709
,creamy,0.9579070806503296
,candy,0.9573909044265747
,birthday,0.9518976807594299
,berry,0.9489808082580566
,dairy product,0.9402214288711548
,goody,0.9333173632621765
https://scontent.cdninstagram.com/t51.2885-15/e35/12277027_1527715620875327_678599223_n.jpg,dumpling,0.9990289211273193
,food,0.9955711364746094
,dinner,0.9871786832809448
,no person,0.9841150641441345
,bowl,0.9825276136398315
,steamer,0.982049822807312
,meat,0.9809364676475525
,homemade,0.9780429601669312
,lunch,0.9731183052062988
,ravioli,0.9715762138366699
,grow,0.967549204826355
,dish,0.9654231667518616
,meal,0.9630997180938721
,delicious,0.9607585668563843
,cooking,0.9602874517440796
,pork,0.9579968452453613
,wood,0.9514676332473755
,traditional,0.9492162466049194
,tortellini,0.9460799098014832
,amount,0.9360941648483276
https://scontent.cdninstagram.com/t51.2885-15/e15/12393743_173925896306004_1591603003_n.jpg,festival,0.9586939215660095
,music,0.9581425786018372
,people,0.955173909664154
,industry,0.947562038898468
,coffee,0.9362781047821045
,drink,0.9210806488990784
,food,0.9054771661758423
,vehicle,0.8521729111671448
,technology,0.8413360118865967
,business,0.8385332226753235
,celebration,0.8341506719589233
,light,0.8326972723007202
,street,0.8313866257667542
,no person,0.8287930488586426
,travel,0.82281094789505
,concert,0.8171138763427734
,heat,0.8169626593589783
,performance,0.8159826993942261
,indoors,0.8128200769424438
,grinder,0.8074276447296143
https://scontent.cdninstagram.com/t51.2885-15/e35/12080574_1636539029929759_1882701541_n.jpg,lighthouse,0.9999947547912598
,guidance,0.998825192451477
,seashore,0.9966793656349182
,no person,0.9960194826126099
,sea,0.9941398501396179
,navigation,0.9937580823898315
,travel,0.9917917251586914
,water,0.9895533919334412
,ocean,0.9878150224685669
,tower,0.9844657182693481
,sky,0.9783668518066406
,safety,0.9755481481552124
,outdoors,0.9736959338188171
,architecture,0.9719312191009521
,beach,0.9715566635131836
,landscape,0.9701817631721497
,guidance,0.9667795896530151
,nautical,0.9642247557640076
,shore,0.9607352018356323
,daylight,0.940725564956665
https://scontent.cdninstagram.com/t51.2885-15/e35/11377764_145364042515292_93786058_n.jpg,food,0.9927409887313843
,no person,0.9890417456626892
,sweet,0.9639486074447632
,traditional,0.9531234502792358
,delicious,0.9421687722206116
,grow,0.9325611591339111
,fruit,0.9283949732780457
,sugar,0.9224060773849487
,drink,0.9166933298110962
,breakfast,0.903038501739502
,cooking,0.8951758146286011
,wood,0.8946603536605835
,homemade,0.8929928541183472
,health,0.8898365497589111
,chocolate,0.886275053024292
,cup,0.8831512928009033
,meal,0.8778096437454224
,tea,0.8695350885391235
,coffee,0.8671495914459229
,table,0.8653827905654907
https://scontent.cdninstagram.com/t51.2885-15/e35/12599335_594941140655835_196313354_n.jpg,restaurant,0.9936857223510742
,dining,0.9929583072662354
,food,0.9904472827911377
,table,0.987503170967102
,tableware,0.9704668521881104
,indoors,0.9568690061569214
,cooking,0.9567562341690063
,cutlery,0.9567205905914307
,meal,0.9527322053909302
,no person,0.9486697316169739
,lunch,0.9444462060928345
,dinner,0.9441537857055664
,buffet,0.9252591133117676
,grow,0.9237701892852783
,knife,0.9235156774520874
,service,0.922290563583374
,catering,0.910621166229248
,chef,0.9087823629379272
,plate,0.8864919543266296
,place setting,0.8821642398834229
https://scontent.cdninstagram.com/t51.2885-15/e35/12543271_1738934553008679_1615551977_n.jpg,lettuce,0.9994866847991943
,salad,0.9988307952880859
,food,0.995664119720459
,vegetable,0.9904240965843201
,lunch,0.9901366233825684
,meal,0.9850039482116699
,dinner,0.9842075109481812
,healthy,0.9837188720703125
,plate,0.9754784107208252
,diet,0.9728379249572754
,appetizer,0.9651069641113281
,delicious,0.9626959562301636
,leaf,0.9618682861328125
,refreshment,0.9591920375823975
,nutrition,0.9591419696807861
,health,0.9485466480255127
,no person,0.9418805837631226
,tomato,0.9340181350708008
,closeup,0.9327204823493958
,epicure,0.9167497158050537
https://scontent.cdninstagram.com/t51.2885-15/e35/10953050_850007321786520_1201255759_n.jpg,food,0.9964157342910767
,no person,0.9895577430725098
,dinner,0.9817079901695251
,delicious,0.9811981916427612
,meal,0.9758721590042114
,meat,0.9743155241012573
,plate,0.9718059301376343
,lunch,0.968775749206543
,flatware,0.9676461219787598
,sauce,0.9650309085845947
,dish,0.963775634765625
,cream,0.961522102355957
,cooking,0.9557338953018188
,creamy,0.9515539407730103
,tableware,0.9413890838623047
,grow,0.9397304654121399
,hot,0.9343595504760742
,dining,0.926465630531311
,beef,0.9243272542953491
,dairy product,0.9153039455413818
https://scontent.cdninstagram.com/t51.2885-15/e35/12105116_169829846696063_354002426_n.jpg,architecture,0.9966062903404236
,no person,0.9957916140556335
,church,0.9894200563430786
,religion,0.9850499629974365
,tower,0.9788923263549805
,travel,0.9746570587158203
,sky,0.9624607563018799
,outdoors,0.9602012634277344
,cathedral,0.9599745869636536
,landmark,0.9570578336715698
,old,0.9552211761474609
,building,0.9487847089767456
,ancient,0.9474395513534546
,Gothic,0.9464929103851318
,Gothic,0.9464602470397949
,spirituality,0.8818164467811584
,city,0.8799825310707092
,religious,0.8777942657470703
,monument,0.8727918267250061
,sacred,0.8596602082252502
https://scontent.cdninstagram.com/t51.2885-15/e15/12393743_173925896306004_1591603003_n.jpg,festival,0.9586939215660095
,music,0.9581425786018372
,people,0.955173909664154
,industry,0.947562038898468
,coffee,0.9362781047821045
,drink,0.9210806488990784
,food,0.9054771661758423
,vehicle,0.8521729111671448
,technology,0.8413360118865967
,business,0.8385332226753235
,celebration,0.8341506719589233
,light,0.8326972723007202
,street,0.8313866257667542
,no person,0.8287930488586426
,travel,0.82281094789505
,concert,0.8171138763427734
,heat,0.8169626593589783
,performance,0.8159826993942261
,indoors,0.8128200769424438
,grinder,0.8074276447296143
https://scontent.cdninstagram.com/t51.2885-15/e35/13736890_1742759405988918_255303748_n.jpg,symbol,0.9800353050231934
,paper,0.9541822671890259
,sign,0.9528000950813293
,garbage,0.9526767730712891
,trash,0.9430073499679565
,business,0.928731381893158
,flag,0.9142732620239258
,desktop,0.9109508991241455
,money,0.9073848724365234
,recycling,0.8933069705963135
,banner,0.887395977973938
,success,0.8858870267868042
,note,0.8827941417694092
,design,0.8754962086677551
,junk,0.869055986404419
,euro,0.865544319152832
,sign,0.8600554466247559
,color,0.8506401777267456
,image,0.8417745232582092
,waste,0.8235901594161987
https://scontent.cdninstagram.com/t51.2885-15/e35/12080620_151643271857523_2093798120_n.jpg,food,0.9957454204559326
,no person,0.9706571102142334
,meat,0.9685389995574951
,vegetable,0.9489935636520386
,grow,0.9480973482131958
,meal,0.9398306012153625
,table,0.934597373008728
,restaurant,0.9343681335449219
,dinner,0.9239290356636047
,bread,0.9092597365379333
,people,0.9071288704872131
,cooking,0.8936052322387695
,dish,0.8779377937316895
,delicious,0.8729795217514038
,lunch,0.8665915727615356
,epicure,0.8665553331375122
,cuisine,0.8607211112976074
,onion,0.8536015748977661
,plate,0.8488254547119141
,poultry,0.8466413021087646
https://scontent.cdninstagram.com/t51.2885-15/e35/12269724_689884371148031_590573347_n.jpg,no person,0.9983992576599121
,chocolate,0.9960529208183289
,sweet,0.9952785968780518
,food,0.9950962662696838
,sugar,0.9876554608345032
,delicious,0.9863825440406799
,candy,0.9802236557006836
,cookie,0.9726182222366333
,baking,0.9655172824859619
,homemade,0.9617952704429626
,indulgence,0.9601478576660156
,dark,0.9473637342453003
,still life,0.9369679689407349
,temptation,0.9325942397117615
,confection,0.9317307472229004
,refreshment,0.9313242435455322
,unhealthy,0.9194364547729492
,cake,0.91103196144104
,meringue,0.9031239748001099
,Christmas,0.8968086838722229
https://scontent.cdninstagram.com/t51.2885-15/e35/12080574_1636539029929759_1882701541_n.jpg,lighthouse,0.9999947547912598
,guidance,0.998825192451477
,seashore,0.9966793656349182
,no person,0.9960194826126099
,sea,0.9941398501396179
,navigation,0.9937580823898315
,travel,0.9917917251586914
,water,0.9895533919334412
,ocean,0.9878150224685669
,tower,0.9844657182693481
,sky,0.9783668518066406
,safety,0.9755481481552124
,outdoors,0.9736959338188171
,architecture,0.9719312191009521
,beach,0.9715566635131836
,landscape,0.9701817631721497
,guidance,0.9667795896530151
,nautical,0.9642247557640076
,shore,0.9607352018356323
,daylight,0.940725564956665
https://scontent.cdninstagram.com/t51.2885-15/e35/10387856_578047722354173_2054990536_n.jpg,no person,0.9867086410522461
,people,0.9539216756820679
,man,0.9221673011779785
,one,0.9123353362083435
,skull,0.8990745544433594
,fun,0.8906394243240356
,retro,0.8887056708335876
,Halloween,0.8855772018432617
,container,0.8766345977783203
,danger,0.8620625734329224
,tribal,0.8541408777236938
,graphic design,0.8505815863609314
,woman,0.8475583791732788
,symbol,0.8367341756820679
,vertical,0.8296070098876953
,paper,0.8293097019195557
,adult,0.8181419372558594
,soccer,0.8106356263160706
,sign,0.8092254400253296
,illustration,0.8059378862380981
https://scontent.cdninstagram.com/t51.2885-15/e35/12317944_488537381319698_2075074276_n.jpg,Christmas,0.9976706504821777
,christmas tree,0.9942530393600464
,no person,0.9855779409408569
,indoors,0.9849238991737366
,shopping,0.9836812019348145
,winter,0.9817714095115662
,interior design,0.9732401371002197
,stock,0.9716152548789978
,tree,0.9697646498680115
,hanging,0.9690771698951721
,decoration,0.9673596024513245
,business,0.9671123027801514
,mall,0.9574812650680542
,glass,0.9473413228988647
,people,0.9433727860450745
,modern,0.9422755837440491
,celebration,0.9291130304336548
,commerce,0.9249840378761292
,architecture,0.923475980758667
,travel,0.9061839580535889
https://scontent.cdninstagram.com/t51.2885-15/e35/13102548_594732964013233_1395896567_n.jpg,food,0.9707996845245361
,child,0.9667302370071411
,celebration,0.9429569840431213
,exhibition,0.941185474395752
,party,0.9360065460205078
,decoration,0.9330583810806274
,people,0.9322396516799927
,fun,0.9226281642913818
,stock,0.9209729433059692
,festival,0.9115945100784302
,container,0.9110274314880371
,color,0.9017859697341919
,painting,0.8876766562461853
,indoors,0.878504753112793
,birthday,0.8584396839141846
,girl,0.8525439500808716
,carnival,0.8449152112007141
,creativity,0.8425877690315247
,candy,0.8416152000427246
,woman,0.8246466517448425
https://scontent.cdninstagram.com/t51.2885-15/e35/12237554_1672371843038835_878212711_n.jpg,food,0.9977556467056274
,fish,0.9966975450515747
,salmon,0.9961695671081543
,seafood,0.9954826831817627
,rice,0.9919165372848511
,dinner,0.9914830923080444
,meal,0.9902156591415405
,no person,0.9882375001907349
,sushi,0.9878674745559692
,lunch,0.9855397939682007
,delicious,0.9781697988510132
,epicure,0.9668405652046204
,dish,0.958587646484375
,plate,0.9567598700523376
,cuisine,0.9550336599349976
,sashimi,0.9544380307197571
,vegetable,0.947550892829895
,shrimp,0.944650411605835
,meat,0.9393644332885742
,restaurant,0.9339597225189209
https://scontent.cdninstagram.com/t51.2885-15/e35/12317421_776721722457038_240656498_n.jpg,Christmas,0.9677474498748779
,decoration,0.965551495552063
,design,0.9650235772132874
,light,0.9642612934112549
,neon,0.9638282060623169
,theme,0.9630658626556396
,art,0.9592471718788147
,casino,0.9375360012054443
,celebration,0.9347650408744812
,illuminated,0.9343363046646118
,pattern,0.9255192279815674
,bright,0.9253411293029785
,evening,0.9211118817329407
,fancy,0.9170829057693481
,abstract,0.8913638591766357
,ornate,0.8853824138641357
,festival,0.8797149062156677
,fun,0.8490136861801147
,entertainment,0.830876350402832
,gold,0.8269431591033936
https://scontent.cdninstagram.com/t51.2885-15/e35/12446360_2012769645614255_1906977787_n.jpg,food,0.9907629489898682
,no person,0.9878060817718506
,noodles,0.9831961393356323
,pasta,0.9781038761138916
,cooking,0.9738016128540039
,spaghetti,0.9726065397262573
,traditional,0.9704296588897705
,lunch,0.9665554761886597
,dinner,0.961409330368042
,delicious,0.9605928659439087
,meal,0.9583913087844849
,nutrition,0.9437932968139648
,cuisine,0.9415696859359741
,closeup,0.9259812831878662
,restaurant,0.9217390418052673
,dish,0.9067683219909668
,carbohydrate,0.9006351232528687
,tasty,0.8884854316711426
,desktop,0.8845739364624023
,macaroni,0.8835799098014832
https://scontent.cdninstagram.com/t51.2885-15/e35/11925832_700179686748485_262523511_n.jpg,food,0.9905725717544556
,no person,0.9874188899993896
,sweet,0.9830440282821655
,pastry,0.9762396812438965
,sugar,0.9698021411895752
,bakery,0.9525474905967712
,cake,0.9512466192245483
,delicious,0.9483165740966797
,refreshment,0.9451344013214111
,candy,0.9265154600143433
,breakfast,0.9260676503181458
,slice,0.9199159741401672
,tasty,0.9190273284912109
,closeup,0.9043736457824707
,still life,0.8987244367599487
,fruit,0.8971570730209351
,pie,0.8943109512329102
,isolated,0.8937253355979919
,baking,0.8920841217041016
,round,0.8918604850769043
https://scontent.cdninstagram.com/t51.2885-15/e35/12751313_1045773008814405_1437574781_n.jpg,food,0.9938207268714905
,no person,0.9709327220916748
,delicious,0.9627242088317871
,bread,0.9596914052963257
,meal,0.953511655330658
,breakfast,0.9490145444869995
,plate,0.9468598365783691
,dish,0.9235681891441345
,hot,0.9156350493431091
,knife,0.9087933301925659
,toast,0.9063968658447266
,dawn,0.9001199007034302
,lunch,0.8987568616867065
,fruit,0.8982870578765869
,dinner,0.8978124856948853
,tasty,0.8963806629180908
,sweet,0.8933205008506775
,homemade,0.8921968936920166
,cooking,0.8898702263832092
,cuisine,0.8866984844207764
https://scontent.cdninstagram.com/t51.2885-15/e35/13736890_1742759405988918_255303748_n.jpg,symbol,0.9800353050231934
,paper,0.9541822671890259
,sign,0.9528000950813293
,garbage,0.9526767730712891
,trash,0.9430073499679565
,business,0.928731381893158
,flag,0.9142732620239258
,desktop,0.9109508991241455
,money,0.9073848724365234
,recycling,0.8933069705963135
,banner,0.887395977973938
,success,0.8858870267868042
,note,0.8827941417694092
,design,0.8754962086677551
,junk,0.869055986404419
,euro,0.865544319152832
,sign,0.8600554466247559
,color,0.8506401777267456
,image,0.8417745232582092
,waste,0.8235901594161987
https://scontent.cdninstagram.com/t51.2885-15/e35/12543271_1738934553008679_1615551977_n.jpg,lettuce,0.9994866847991943
,salad,0.9988307952880859
,food,0.995664119720459
,vegetable,0.9904240965843201
,lunch,0.9901366233825684
,meal,0.9850039482116699
,dinner,0.9842075109481812
,healthy,0.9837188720703125
,plate,0.9754784107208252
,diet,0.9728379249572754
,appetizer,0.9651069641113281
,delicious,0.9626959562301636
,leaf,0.9618682861328125
,refreshment,0.9591920375823975
,nutrition,0.9591419696807861
,health,0.9485466480255127
,no person,0.9418805837631226
,tomato,0.9340181350708008
,closeup,0.9327204823493958
,epicure,0.9167497158050537
https://scontent.cdninstagram.com/t51.2885-15/e35/11377764_145364042515292_93786058_n.jpg,food,0.9927409887313843
,no person,0.9890417456626892
,sweet,0.9639486074447632
,traditional,0.9531234502792358
,delicious,0.9421687722206116
,grow,0.9325611591339111
,fruit,0.9283949732780457
,sugar,0.9224060773849487
,drink,0.9166933298110962
,breakfast,0.903038501739502
,cooking,0.8951758146286011
,wood,0.8946603536605835
,homemade,0.8929928541183472
,health,0.8898365497589111
,chocolate,0.886275053024292
,cup,0.8831512928009033
,meal,0.8778096437454224
,tea,0.8695350885391235
,coffee,0.8671495914459229
,table,0.8653827905654907
https://scontent.cdninstagram.com/t51.2885-15/e35/12940678_820146024783579_915225327_n.jpg,food,0.9970756769180298
,meal,0.9856096506118774
,dinner,0.9823070168495178
,restaurant,0.9772694110870361
,no person,0.9750635623931885
,dish,0.9745134115219116
,lunch,0.9715644717216492
,vegetable,0.9713485240936279
,plate,0.9667657017707825
,table,0.9657533168792725
,soup,0.9637973308563232
,traditional,0.9596700668334961
,meat,0.9509595632553101
,dining,0.950918436050415
,grow,0.9493435621261597
,cooking,0.9490834474563599
,cuisine,0.9476269483566284
,hot,0.9278937578201294
,epicure,0.9266595840454102
,cutlery,0.9263319969177246
https://scontent.cdninstagram.com/t51.2885-15/e35/12354012_1030623653645969_210851980_n.jpg,chocolate,0.9981792569160461
,sugar,0.9936428070068359
,sweet,0.9932748079299927
,no person,0.9914288520812988
,cream,0.9902844429016113
,delicious,0.9893032312393188
,cake,0.9851832389831543
,indulgence,0.9778676629066467
,candy,0.9738168716430664
,birthday,0.9682421088218689
,Christmas,0.9659676551818848
,custard,0.9650754928588867
,unhealthy,0.9590240716934204
,creamy,0.9569589495658875
,baking,0.9507231712341309
,celebration,0.9460686445236206
,homemade,0.9351584911346436
,food,0.935002326965332
,pastry,0.9328403472900391
,temptation,0.9316791296005249
https://scontent.cdninstagram.com/t51.2885-15/e35/12317427_481227338752511_1041803632_n.jpg,money,0.9907099008560181
,business,0.9887852668762207
,finance,0.9861028790473938
,money,0.9799213409423828
,wealth,0.979381799697876
,commerce,0.9704312086105347
,paper,0.9668063521385193
,no person,0.9487701654434204
,bank,0.9468733072280884
,success,0.9378001689910889
,cash,0.9332518577575684
,shopping,0.9331718683242798
,savings,0.9294125437736511
,euro,0.9045512676239014
,symbol,0.9015921354293823
,investment,0.8764127492904663
,financial,0.8680542707443237
,bargain,0.8649226427078247
,number,0.8532263040542603
,debt,0.8455312848091125
https://scontent.cdninstagram.com/t51.2885-15/e35/12751313_1045773008814405_1437574781_n.jpg,food,0.9938207268714905
,no person,0.9709327220916748
,delicious,0.9627242088317871
,bread,0.9596914052963257
,meal,0.953511655330658
,breakfast,0.9490145444869995
,plate,0.9468598365783691
,dish,0.9235681891441345
,hot,0.9156350493431091
,knife,0.9087933301925659
,toast,0.9063968658447266
,dawn,0.9001199007034302
,lunch,0.8987568616867065
,fruit,0.8982870578765869
,dinner,0.8978124856948853
,tasty,0.8963806629180908
,sweet,0.8933205008506775
,homemade,0.8921968936920166
,cooking,0.8898702263832092
,cuisine,0.8866984844207764
https://scontent.cdninstagram.com/t51.2885-15/e35/12357768_801876996588884_1889787170_n.jpg,food,0.9854969382286072
,popcorn,0.9805539846420288
,no person,0.9728269577026367
,refreshment,0.953337550163269
,delicious,0.9521656036376953
,desktop,0.9188445806503296
,traditional,0.8928464651107788
,sugar,0.8839643001556396
,sweet,0.880470335483551
,corn,0.8708863258361816
,gold,0.8707959651947021
,tasty,0.8698538541793823
,entertainment,0.866431713104248
,display,0.8518167734146118
,goody,0.8478202819824219
,restaurant,0.8291895985603333
,epicure,0.8281919956207275
,meat,0.8258510231971741
,cuisine,0.8181214332580566
,box,0.8064466714859009
https://scontent.cdninstagram.com/t51.2885-15/e35/12317944_488537381319698_2075074276_n.jpg,Christmas,0.9976706504821777
,christmas tree,0.9942530393600464
,no person,0.9855779409408569
,indoors,0.9849238991737366
,shopping,0.9836812019348145
,winter,0.9817714095115662
,interior design,0.9732401371002197
,stock,0.9716152548789978
,tree,0.9697646498680115
,hanging,0.9690771698951721
,decoration,0.9673596024513245
,business,0.9671123027801514
,mall,0.9574812650680542
,glass,0.9473413228988647
,people,0.9433727860450745
,modern,0.9422755837440491
,celebration,0.9291130304336548
,commerce,0.9249840378761292
,architecture,0.923475980758667
,travel,0.9061839580535889
https://scontent.cdninstagram.com/t51.2885-15/e35/12751458_1071141349604536_116166513_n.jpg,food,0.996728241443634
,pot,0.9779051542282104
,pan,0.9761112928390503
,meal,0.9750104546546936
,meat,0.9745743274688721
,no person,0.97409987449646
,dinner,0.9696646928787231
,cooking,0.9686102271080017
,dish,0.9566472768783569
,herb,0.9524301290512085
,frying pan,0.9457828402519226
,sauce,0.9434336423873901
,vegetable,0.9303897619247437
,lunch,0.9267765283584595
,cuisine,0.9132190346717834
,cookware,0.9079947471618652
,closeup,0.8704626560211182
,pork,0.862334132194519
,delicious,0.8569091558456421
,epicure,0.8568674921989441
https://scontent.cdninstagram.com/t51.2885-15/e35/12276827_955586387850548_975837912_n.jpg,no person,0.9967414140701294
,strawberry,0.9941307902336121
,sweet,0.9940861463546753
,berry,0.9935789704322815
,fruit,0.9895370602607727
,delicious,0.9857546091079712
,cream,0.9856960773468018
,food,0.9832147359848022
,cake,0.9797549247741699
,breakfast,0.9757847785949707
,pastry,0.9749913215637207
,pancake,0.9685608744621277
,homemade,0.9644226431846619
,sugar,0.9643375873565674
,baking,0.9570767879486084
,dairy product,0.9515708684921265
,jam,0.948776364326477
,tart,0.9379116296768188
,pie,0.9326754808425903
,plate,0.9322666525840759
https://scontent.cdninstagram.com/t51.2885-15/e35/12224606_826375750814235_1664107738_n.jpg,food,0.9981908202171326
,meal,0.988878607749939
,vegetable,0.9866958856582642
,hot,0.9855190515518188
,cuisine,0.9854790568351746
,dinner,0.9847357273101807
,delicious,0.981055498123169
,soup,0.9785891175270081
,dish,0.9770351648330688
,noodles,0.9727780818939209
,lunch,0.9716061353683472
,epicure,0.970257580280304
,cooking,0.9668786525726318
,plate,0.9647387266159058
,healthy,0.9635876417160034
,bowl,0.958824634552002
,chili,0.9571624994277954
,meat,0.9570521116256714
,restaurant,0.95390385389328
,tasty,0.9498528242111206
https://scontent.cdninstagram.com/t51.2885-15/e35/13151152_1713304992271374_171221501_n.jpg,furniture,0.9972069263458252
,indoors,0.9941518306732178
,room,0.9933925867080688
,table,0.9931213855743408
,chair,0.9873994588851929
,interior design,0.9859660863876343
,no person,0.9814708828926086
,seat,0.9770553708076477
,house,0.9670782089233398
,lamp,0.9663812518119812
,wood,0.9572349786758423
,luxury,0.9468101859092712
,decoration,0.9419357180595398
,contemporary,0.9402643442153931
,shelf,0.9400049448013306
,architecture,0.9380792379379272
,inside,0.9374825954437256
,family,0.9219141006469727
,apartment,0.9200767278671265
,design,0.911471962928772
https://scontent.cdninstagram.com/t51.2885-15/e35/12224453_1555727314649775_1191013380_n.jpg,no person,0.982463002204895
,delicious,0.9784711599349976
,food,0.9688055515289307
,lunch,0.9438593983650208
,dinner,0.9417140483856201
,health,0.9374703168869019
,traditional,0.9267226457595825
,nutrition,0.9200326204299927
,indoors,0.8684021830558777
,breakfast,0.8547585010528564
,cooking,0.8315222263336182
,sushi,0.8303162455558777
,rice,0.7969629764556885
,dining,0.7855068445205688
,baking,0.7838366031646729
,refreshment,0.7784308195114136
,unhealthy,0.7606630325317383
,taste,0.7603832483291626
,ready,0.7483130693435669
,meal,0.7465559244155884
https://scontent.cdninstagram.com/t51.2885-15/e35/12628045_570166936479367_2047135301_n.jpg,temple,0.997724711894989
,travel,0.9928689002990723
,pagoda,0.9869850873947144
,architecture,0.9869583249092102
,religion,0.9812496900558472
,traditional,0.9811521768569946
,Buddha,0.9806795120239258
,no person,0.9735537767410278
,shrine,0.9676522016525269
,building,0.967532217502594
,culture,0.9667507410049438
,sky,0.9652721285820007
,outdoors,0.9592269659042358
,castle,0.9541056156158447
,gold,0.9414849281311035
,ancient,0.9370682239532471
,monastery,0.9287619590759277
,spirituality,0.9156815409660339
,tree,0.9121154546737671
,tourism,0.909041702747345
https://scontent.cdninstagram.com/t51.2885-15/e35/12331916_769256943203804_2063323814_n.jpg,no person,0.9638110995292664
,food,0.9530647993087769
,cooking,0.9376332759857178
,desktop,0.9042037725448608
,wood,0.8769570589065552
,people,0.8606607913970947
,hot,0.8602822422981262
,symbol,0.8561547994613647
,flame,0.8486648201942444
,traditional,0.8337479829788208
,meal,0.8162795305252075
,health,0.8065677285194397
,business,0.8045691251754761
,wooden,0.8030877113342285
,celebration,0.8024595379829407
,text,0.7841628789901733
,stock,0.7693029642105103
,sign,0.7580920457839966
,dinner,0.7522498369216919
,epicure,0.7480745911598206
