url,class,score,,,,,,,,
https://scontent.cdninstagram.com/t51.2885-15/e35/13385784_618663861629438_1539257349_n.jpg?ig_cache_key=MTI2ODA1Nzc3NzkzODg1MDczMg%3D%3D.2,bridge,0.997138917,Environment,"My life",,,"Manmade beauty","Here I am",,
,city,0.996837258,,,,,,,,
,architecture,0.991580427,,,,,,,,
,travel,0.990589142,,,,,,,,
,downtown,0.990500212,,,,,,,,
,urban,0.990077615,,,,,,,,
,sky,0.989028573,,,,,,,,
,building,0.984476566,,,,,,,,
,"transportation system",0.983523905,,,,,,,,
,river,0.981046438,,,,,,,,
,cityscape,0.978099704,,,,,,,,
,skyline,0.974586368,,,,,,,,
,road,0.969985366,,,,,,,,
,modern,0.969620883,,,,,,,,
,skyscraper,0.969405651,,,,,,,,
,traffic,0.963711619,,,,,,,,
,water,0.957603097,,,,,,,,
,highway,0.95707047,,,,,,,,
,construction,0.950890899,,,,,,,,
,street,0.950845122,,,,,,,,
https://scontent.cdninstagram.com/t51.2885-15/e35/13256932_857669537710705_681678758_n.jpg?ig_cache_key=MTI2MTQ0OTUzNDExODUxOTM5Mw%3D%3D.2,shelf,0.990032613,Undefined,,,,Undefined,,,
,"no person",0.981650233,,,,,,,,
,rack,0.974313498,,,,,,,,
,business,0.96862042,,,,,,,,
,industry,0.963394165,,,,,,,,
,row,0.956982911,,,,,,,,
,storage,0.944358468,,,,,,,,
,education,0.94005388,,,,,,,,
,container,0.938324451,,,,,,,,
,order,0.934231818,,,,,,,,
,cabinet,0.932522297,,,,,,,,
,data,0.894076049,,,,,,,,
,wood,0.889216304,,,,,,,,
,research,0.883013427,,,,,,,,
,equipment,0.872451425,,,,,,,,
,bookcase,0.871234298,,,,,,,,
,row,0.870306492,,,,,,,,
,technology,0.864694297,,,,,,,,
,commerce,0.857100129,,,,,,,,
,merchandise,0.851768136,,,,,,,,
https://scontent.cdninstagram.com/t51.2885-15/e35/13398424_253741191667410_953836052_n.jpg?ig_cache_key=MTI3OTU4NDM2OTc3NDE0MDAyNA%3D%3D.2,"no person",0.977073073,Business,,,,Business-s,,,
,people,0.898104787,,,,,,,,
,wear,0.885125756,,,,,,,,
,travel,0.863960564,,,,,,,,
,business,0.856942534,,,,,,,,
,one,0.8345052,,,,,,,,
,symbol,0.821655035,,,,,,,,
,desktop,0.813764572,,,,,,,,
,retro,0.810521245,,,,,,,,
,illustration,0.795936942,,,,,,,,
,text,0.781206369,,,,,,,,
,paper,0.776173234,,,,,,,,
,education,0.762750983,,,,,,,,
,identity,0.746388137,,,,,,,,
,competition,0.739446044,,,,,,,,
,man,0.733015656,,,,,,,,
,commerce,0.720370948,,,,,,,,
,vacation,0.719061494,,,,,,,,
,vehicle,0.718988895,,,,,,,,
,administration,0.708046556,,,,,,,,
https://scontent.cdninstagram.com/t51.2885-15/e35/12446300_1694304080837619_639372116_n.jpg?ig_cache_key=MTIzMDMwMjkyNTE3NTYxMTU4MQ%3D%3D.2,"no person",0.986180007,Business,Entertainment,,,Business-s,Entertainment-s,,
,business,0.968927622,,,,,,,,
,commerce,0.907344818,,,,,,,,
,shopping,0.899114549,,,,,,,,
,money,0.891704082,,,,,,,,
,conceptual,0.876567245,,,,,,,,
,competition,0.859375834,,,,,,,,
,finance,0.854499698,,,,,,,,
,technology,0.843378425,,,,,,,,
,security,0.835490346,,,,,,,,
,success,0.806571722,,,,,,,,
,plastic,0.801694512,,,,,,,,
,"transportation system",0.799604714,,,,,,,,
,text,0.795210123,,,,,,,,
,safety,0.791253924,,,,,,,,
,travel,0.786934137,,,,,,,,
,recreation,0.774713278,,,,,,,,
,wear,0.761627674,,,,,,,,
,industry,0.759322047,,,,,,,,
,retail,0.74849683,,,,,,,,
https://scontent.cdninstagram.com/t51.2885-15/e35/13388600_132027083884604_414969767_n.jpg?ig_cache_key=MTI2OTU1ODY5NjM1NDQ3MjUzMw%3D%3D.2,"no person",0.986680627,Food,Technology,,,"Meal time",Technology-s,,
,travel,0.982405066,,,,,,,,
,container,0.960428834,,,,,,,,
,people,0.949193954,,,,,,,,
,indoors,0.948045254,,,,,,,,
,furniture,0.937702239,,,,,,,,
,tourism,0.932941914,,,,,,,,
,home,0.925220907,,,,,,,,
,"interior design",0.923300982,,,,,,,,
,chair,0.912749887,,,,,,,,
,vacation,0.904434681,,,,,,,,
,tourist,0.90284729,,,,,,,,
,painting,0.901643276,,,,,,,,
,seat,0.88950932,,,,,,,,
,business,0.887819111,,,,,,,,
,"still life",0.884811521,,,,,,,,
,room,0.875921488,,,,,,,,
,telephone,0.868808508,,,,,,,,
,retro,0.859588385,,,,,,,,
,light,0.852752209,,,,,,,,
https://scontent.cdninstagram.com/t51.2885-15/e35/13181487_1054558567952440_851003660_n.jpg?ig_cache_key=MTI0OTgxNTcxNDA3NjI1NDMxMA%3D%3D.2,nature,0.991694689,Environment,"My life",,,"Natural beauty","My world today",,
,seed,0.989697218,,,,,,,,
,summer,0.98603493,,,,,,,,
,flora,0.983446896,,,,,,,,
,field,0.979664028,,,,,,,,
,closeup,0.977306724,,,,,,,,
,grass,0.975531697,,,,,,,,
,husk,0.97238946,,,,,,,,
,cereal,0.970471025,,,,,,,,
,sun,0.96995914,,,,,,,,
,rural,0.968602896,,,,,,,,
,spike,0.959955096,,,,,,,,
,growth,0.958663762,,,,,,,,
,color,0.95267272,,,,,,,,
,outdoors,0.950731635,,,,,,,,
,sky,0.9487921,,,,,,,,
,"no person",0.947306752,,,,,,,,
,crop,0.945762277,,,,,,,,
,"fair weather",0.945298374,,,,,,,,
,straw,0.945115209,,,,,,,,
https://scontent.cdninstagram.com/t51.2885-15/e35/13249922_114907792258609_98480918_n.jpg?ig_cache_key=MTI1MjE0MDYwMzIyNzQ2NDQ3MQ%3D%3D.2,"no person",0.986175716,Environment,"My life",,,"Manmade beauty","My world today",,
,sunset,0.980820775,,,,,,,,
,light,0.977110386,,,,,,,,
,travel,0.974879563,,,,,,,,
,evening,0.972906172,,,,,,,,
,dawn,0.967327952,,,,,,,,
,bridge,0.966765881,,,,,,,,
,city,0.958568335,,,,,,,,
,landscape,0.955610514,,,,,,,,
,street,0.947585523,,,,,,,,
,dusk,0.94288367,,,,,,,,
,"auto racing",0.936443806,,,,,,,,
,water,0.934114933,,,,,,,,
,silhouette,0.92827332,,,,,,,,
,architecture,0.927942276,,,,,,,,
,road,0.927067876,,,,,,,,
,vehicle,0.923289299,,,,,,,,
,"transportation system",0.915657163,,,,,,,,
,competition,0.908128262,,,,,,,,
,people,0.906115651,,,,,,,,
https://scontent.cdninstagram.com/t51.2885-15/e35/12950233_262018434139715_1312236522_n.jpg?ig_cache_key=MTIzMzE3MTY5OTIyMjQwNTI2Mg%3D%3D.2,"no person",0.988247633,"My life",Entertainment,Environment,,"Here I am",Entertainment-s,"Manmade beauty",
,architecture,0.9725281,,,,,,,,
,travel,0.96698463,,,,,,,,
,traditional,0.938154042,,,,,,,,
,outdoors,0.907485902,,,,,,,,
,evening,0.875405312,,,,,,,,
,building,0.875261068,,,,,,,,
,religion,0.863523066,,,,,,,,
,old,0.863370657,,,,,,,,
,tower,0.853134632,,,,,,,,
,ancient,0.844857454,,,,,,,,
,tourism,0.843146563,,,,,,,,
,sky,0.840980828,,,,,,,,
,castle,0.831674814,,,,,,,,
,art,0.819251418,,,,,,,,
,classic,0.815212965,,,,,,,,
,decoration,0.789624095,,,,,,,,
,sculpture,0.78808254,,,,,,,,
,"interior design",0.784350991,,,,,,,,
,city,0.783520341,,,,,,,,
https://scontent.cdninstagram.com/t51.2885-15/s640x640/sh0.08/e35/13166635_1099533920085683_1931724003_n.jpg?ig_cache_key=MTI0NzYxMDA1NTIxMzY3MDc2Ng%3D%3D.2,woman,0.98931402,Celebrations,Relationships,"My life",,"Personal Events","Best friends","With me",
,people,0.978262067,,,,,,,,
,shopping,0.965631366,,,,,,,,
,outdoors,0.947034121,,,,,,,,
,stock,0.909224868,,,,,,,,
,city,0.893974185,,,,,,,,
,adult,0.867657721,,,,,,,,
,family,0.867557406,,,,,,,,
,"shopping bag",0.86388427,,,,,,,,
,shop,0.851458788,,,,,,,,
,street,0.851242304,,,,,,,,
,enjoyment,0.849970222,,,,,,,,
,portrait,0.826560378,,,,,,,,
,wear,0.821511924,,,,,,,,
,business,0.80519402,,,,,,,,
,child,0.786180437,,,,,,,,
,ceremony,0.7802068,,,,,,,,
,love,0.777805924,,,,,,,,
,coffee,0.775131166,,,,,,,,
,fashion,0.773115754,,,,,,,,
https://scontent.cdninstagram.com/t51.2885-15/e15/13118264_216317725416597_1036716013_n.jpg?ig_cache_key=MTI0NjQ0OTY3MjU4MzA3ODM4MQ%3D%3D.2,adult,0.987093329,Celebrations,Relationships,"My life",,"Personal Events",Family,"With me",
,people,0.980950356,,,,,,,,
,portrait,0.98073858,,,,,,,,
,group,0.980338871,,,,,,,,
,wear,0.979544997,,,,,,,,
,room,0.978129208,,,,,,,,
,woman,0.977051854,,,,,,,,
,"facial expression",0.974402785,,,,,,,,
,recreation,0.955588043,,,,,,,,
,man,0.94116807,,,,,,,,
,business,0.928289354,,,,,,,,
,indoors,0.926222801,,,,,,,,
,education,0.894250453,,,,,,,,
,two,0.893519998,,,,,,,,
,happiness,0.890557706,,,,,,,,
,meeting,0.889920831,,,,,,,,
,outfit,0.884880722,,,,,,,,
,actor,0.875023127,,,,,,,,
,cooperation,0.873913884,,,,,,,,
,furniture,0.870317996,,,,,,,,
https://scontent.cdninstagram.com/t51.2885-15/e35/13531990_1056656667748610_878894674_n.jpg?ig_cache_key=MTI4MDk3NTEzMTEwMzM0MDc2Ng%3D%3D.2,"no person",0.971655965,Entertainment,,,,Events,,,
,travel,0.942366123,,,,,,,,
,business,0.915616751,,,,,,,,
,text,0.907862902,,,,,,,,
,symbol,0.900725961,,,,,,,,
,football,0.889118433,,,,,,,,
,design,0.877106547,,,,,,,,
,soccer,0.865653634,,,,,,,,
,sign,0.859456897,,,,,,,,
,hanging,0.85872072,,,,,,,,
,traditional,0.852780461,,,,,,,,
,flag,0.844412088,,,,,,,,
,sign,0.844137251,,,,,,,,
,retro,0.835092604,,,,,,,,
,wear,0.830527067,,,,,,,,
,desktop,0.829282999,,,,,,,,
,old,0.822484493,,,,,,,,
,stock,0.810661793,,,,,,,,
,outdoors,0.804095149,,,,,,,,
,people,0.799983144,,,,,,,,
https://scontent.cdninstagram.com/t51.2885-15/e35/12940178_1594277307554280_570600744_n.jpg?ig_cache_key=MTIzNjA4MDE0MDE0NDMwNDMzOA%3D%3D.2,bridge,0.99897486,Environment,Travel,"My life",,Landmarks,Travel-s,"My world today",
,architecture,0.995367289,,,,,,,,
,drawbridge,0.994952202,,,,,,,,
,"no person",0.994558811,,,,,,,,
,water,0.993687153,,,,,,,,
,river,0.992158771,,,,,,,,
,travel,0.992053747,,,,,,,,
,city,0.980846643,,,,,,,,
,tower,0.973794699,,,,,,,,
,sky,0.97044009,,,,,,,,
,"suspension bridge",0.960790038,,,,,,,,
,landmark,0.954519987,,,,,,,,
,outdoors,0.953039289,,,,,,,,
,connection,0.93365407,,,,,,,,
,building,0.933152854,,,,,,,,
,sunset,0.931521058,,,,,,,,
,unite,0.908513963,,,,,,,,
,urban,0.90534842,,,,,,,,
,"transportation system",0.904803813,,,,,,,,
,great,0.881543756,,,,,,,,
https://scontent.cdninstagram.com/t51.2885-15/e35/12940907_1806787076199802_1878287293_n.jpg?ig_cache_key=MTIzMjQwNjcwMTg1MjI4Nzc5MQ%3D%3D.2,bridge,0.995181859,Environment,"My life",,,Landmarks,"My world today",,
,city,0.99443841,,,,,,,,
,architecture,0.993703604,,,,,,,,
,water,0.991351366,,,,,,,,
,river,0.991008162,,,,,,,,
,building,0.981422424,,,,,,,,
,urban,0.979614258,,,,,,,,
,sky,0.978451014,,,,,,,,
,travel,0.977597892,,,,,,,,
,light,0.976209402,,,,,,,,
,evening,0.972564816,,,,,,,,
,cityscape,0.97105515,,,,,,,,
,dusk,0.970820189,,,,,,,,
,downtown,0.969540119,,,,,,,,
,opera,0.961748958,,,,,,,,
,skyline,0.960772038,,,,,,,,
,"no person",0.959794044,,,,,,,,
,reflection,0.959772468,,,,,,,,
,waterfront,0.958131135,,,,,,,,
,landmark,0.953092754,,,,,,,,
https://scontent.cdninstagram.com/t51.2885-15/e35/12677214_805893229515578_1178840290_n.jpg?ig_cache_key=MTIyMzI0MTQ1Mzc2NTM1NDIzMA%3D%3D.2,people,0.987751484,Environment,"Fashion & Beauty",Travel,,"Manmade beauty","My look",Travel-s,
,bridge,0.963029683,,,,,,,,
,city,0.962962985,,,,,,,,
,outdoors,0.960808277,,,,,,,,
,travel,0.959996581,,,,,,,,
,woman,0.950188935,,,,,,,,
,business,0.936095834,,,,,,,,
,urban,0.932190061,,,,,,,,
,adult,0.920410275,,,,,,,,
,street,0.9174667,,,,,,,,
,building,0.91320014,,,,,,,,
,architecture,0.912660599,,,,,,,,
,man,0.911587238,,,,,,,,
,sky,0.90283227,,,,,,,,
,portrait,0.877129436,,,,,,,,
,vehicle,0.871608257,,,,,,,,
,"transportation system",0.861388505,,,,,,,,
,road,0.858621478,,,,,,,,
,competition,0.856443584,,,,,,,,
,landscape,0.836312234,,,,,,,,
https://scontent.cdninstagram.com/t51.2885-15/e35/13391156_620555711442632_1653502933_n.jpg?ig_cache_key=MTI2NTE4MTgyMjIyODU4Njk3NA%3D%3D.2,people,0.961379826,Relationships,"My life",,,Friends,"With me",,
,woman,0.959282637,,,,,,,,
,group,0.947170854,,,,,,,,
,portrait,0.930500507,,,,,,,,
,man,0.915292263,,,,,,,,
,adult,0.890278459,,,,,,,,
,wear,0.887190819,,,,,,,,
,festival,0.885060966,,,,,,,,
,togetherness,0.884832323,,,,,,,,
,group,0.881024361,,,,,,,,
,friendship,0.863830686,,,,,,,,
,movie,0.848158538,,,,,,,,
,fun,0.844641507,,,,,,,,
,enjoyment,0.838041425,,,,,,,,
,"facial expression",0.81792891,,,,,,,,
,music,0.816921949,,,,,,,,
,celebration,0.80131042,,,,,,,,
,child,0.78610903,,,,,,,,
,happiness,0.785602331,,,,,,,,
,recreation,0.77129972,,,,,,,,
https://scontent.cdninstagram.com/t51.2885-15/e35/13398708_1327100293972762_1712956263_n.jpg?ig_cache_key=MTI3NjYzOTQxMzE2MDg2MjYxMg%3D%3D.2,festival,0.990730047,"My life",,,,"Here I am",,,
,costume,0.990424275,,,,,,,,
,movie,0.989507437,,,,,,,,
,people,0.984608054,,,,,,,,
,fun,0.978903532,,,,,,,,
,child,0.971782684,,,,,,,,
,wear,0.947868824,,,,,,,,
,one,0.941710532,,,,,,,,
,parade,0.935925424,,,,,,,,
,celebration,0.922455788,,,,,,,,
,girl,0.89942795,,,,,,,,
,performance,0.898531437,,,,,,,,
,pretense,0.894023657,,,,,,,,
,strange,0.89124155,,,,,,,,
,clown,0.881475449,,,,,,,,
,theater,0.877320528,,,,,,,,
,music,0.876244187,,,,,,,,
,outfit,0.867255867,,,,,,,,
,party,0.864434361,,,,,,,,
,woman,0.858633518,,,,,,,,
https://scontent.cdninstagram.com/t51.2885-15/e35/13399001_665379080281971_90708919_n.jpg?ig_cache_key=MTI2NzM1NDIwNTU3MTk5ODUxMw%3D%3D.2,people,0.981550217,Recreation,Relationships,,,"Park life","Baby family",,
,street,0.977492213,,,,,,,,
,fun,0.954416931,,,,,,,,
,costume,0.93418324,,,,,,,,
,child,0.930205882,,,,,,,,
,celebration,0.923601747,,,,,,,,
,man,0.904035687,,,,,,,,
,festival,0.896066904,,,,,,,,
,parade,0.863259077,,,,,,,,
,event,0.860617518,,,,,,,,
,city,0.844631314,,,,,,,,
,doll,0.831275702,,,,,,,,
,group,0.821438611,,,,,,,,
,lid,0.819961429,,,,,,,,
,show,0.814565659,,,,,,,,
,toy,0.80568558,,,,,,,,
,mask,0.800147593,,,,,,,,
,art,0.799564481,,,,,,,,
,Christmas,0.788055003,,,,,,,,
,humor,0.787586987,,,,,,,,
https://scontent.cdninstagram.com/t51.2885-15/e35/13259121_1682987605296318_1893738293_n.jpg?ig_cache_key=MTI1ODcxMTAxNjgxNjQ2ODgxMA%3D%3D.2,water,0.996137977,Environment,"My life",Travel,,"Manmade beauty","My world today",Travel-s,
,city,0.993836761,,,,,,,,
,river,0.993019938,,,,,,,,
,travel,0.989622235,,,,,,,,
,bridge,0.988860071,,,,,,,,
,architecture,0.9887802,,,,,,,,
,reflection,0.984090388,,,,,,,,
,building,0.979584336,,,,,,,,
,sunset,0.969638884,,,,,,,,
,sky,0.96734792,,,,,,,,
,urban,0.962663412,,,,,,,,
,dusk,0.958766818,,,,,,,,
,evening,0.958656609,,,,,,,,
,cityscape,0.957674503,,,,,,,,
,"no person",0.94339174,,,,,,,,
,skyline,0.941531897,,,,,,,,
,waterfront,0.934311986,,,,,,,,
,hotel,0.923288286,,,,,,,,
,light,0.922050536,,,,,,,,
,pier,0.900168777,,,,,,,,
https://scontent.cdninstagram.com/t51.2885-15/e35/13108600_252332715130436_1147025199_n.jpg?ig_cache_key=MTI2MDE3ODQzNjYwMTExMDY0Ng%3D%3D.2,"no person",0.99048686,Food,,,,"Meal time",,,
,food,0.972788632,,,,,,,,
,glass,0.956316829,,,,,,,,
,drink,0.9502514,,,,,,,,
,beer,0.923105896,,,,,,,,
,cold,0.905995369,,,,,,,,
,delicious,0.896493435,,,,,,,,
,hot,0.881650329,,,,,,,,
,health,0.87070179,,,,,,,,
,ice,0.866828322,,,,,,,,
,cooking,0.82786417,,,,,,,,
,wood,0.818894088,,,,,,,,
,indoors,0.794844508,,,,,,,,
,traditional,0.789337456,,,,,,,,
,party,0.78608036,,,,,,,,
,wine,0.785653293,,,,,,,,
,nutrition,0.782374859,,,,,,,,
,breakfast,0.769185305,,,,,,,,
,sugar,0.766562343,,,,,,,,
,homemade,0.765436351,,,,,,,,
https://scontent.cdninstagram.com/t51.2885-15/e35/13269604_1594695424176731_119043153_n.jpg?ig_cache_key=MTI1NTgxMzU1NjExMjY3OTEyMA%3D%3D.2,"no person",0.988868237,Food,,,,Dessert,,,
,food,0.979319155,,,,,,,,
,fork,0.972807884,,,,,,,,
,plate,0.971792698,,,,,,,,
,knife,0.959786534,,,,,,,,
,cutlery,0.957798481,,,,,,,,
,sweet,0.95492357,,,,,,,,
,tableware,0.952285469,,,,,,,,
,chocolate,0.933762074,,,,,,,,
,flatware,0.932607412,,,,,,,,
,coffee,0.931815863,,,,,,,,
,cup,0.930789173,,,,,,,,
,cake,0.929895997,,,,,,,,
,breakfast,0.928234816,,,,,,,,
,restaurant,0.916073978,,,,,,,,
,table,0.913097858,,,,,,,,
,"still life",0.908411264,,,,,,,,
,spoon,0.905502915,,,,,,,,
,drink,0.894001067,,,,,,,,
,pastry,0.882240593,,,,,,,,
https://scontent.cdninstagram.com/t51.2885-15/e35/13267393_996962963751302_779258820_n.jpg?ig_cache_key=MTI1NDk1NTA3MzM4NTQ4ODQ4MA%3D%3D.2,"no person",0.992058396,Food,,,,"Meal time",,,
,food,0.990977049,,,,,,,,
,drink,0.967280924,,,,,,,,
,restaurant,0.962501705,,,,,,,,
,traditional,0.943374753,,,,,,,,
,party,0.938921928,,,,,,,,
,table,0.937608361,,,,,,,,
,hot,0.93325758,,,,,,,,
,delicious,0.931021094,,,,,,,,
,dinner,0.905578852,,,,,,,,
,glass,0.899992347,,,,,,,,
,wine,0.891053021,,,,,,,,
,breakfast,0.88642621,,,,,,,,
,"still life",0.881098509,,,,,,,,
,tableware,0.877509832,,,,,,,,
,"dairy product",0.874684334,,,,,,,,
,meal,0.873339236,,,,,,,,
,lunch,0.873201728,,,,,,,,
,indoors,0.869273186,,,,,,,,
,wood,0.857856631,,,,,,,,
https://scontent.cdninstagram.com/t51.2885-15/e35/12107648_1702226886732204_1848670980_n.jpg?ig_cache_key=MTIzODIyNTI3NTMxNzYwOTE0OA%3D%3D.2,city,0.992072463,Environment,"My life",,,"Manmade beauty","My world today",,
,architecture,0.981529832,,,,,,,,
,"no person",0.978874624,,,,,,,,
,travel,0.975471079,,,,,,,,
,cityscape,0.968416929,,,,,,,,
,outdoors,0.954120517,,,,,,,,
,skyline,0.943989336,,,,,,,,
,building,0.941243947,,,,,,,,
,roof,0.920731008,,,,,,,,
,house,0.916715503,,,,,,,,
,urban,0.91582334,,,,,,,,
,sky,0.905119419,,,,,,,,
,town,0.898995876,,,,,,,,
,panorama,0.886768937,,,,,,,,
,water,0.879497766,,,,,,,,
,sight,0.878183365,,,,,,,,
,aerial,0.868653595,,,,,,,,
,heavy,0.866482973,,,,,,,,
,downtown,0.827496529,,,,,,,,
,rooftop,0.779852986,,,,,,,,
https://scontent.cdninstagram.com/t51.2885-15/e35/13167479_235998203442816_1226571031_n.jpg?ig_cache_key=MTI1MDY4MTI4MTc5NjU5NTg0Mg%3D%3D.2,people,0.988481641,Relationships,"My life",Celebrations,,"Best friends","With me","Personal Events",
,education,0.986577988,,,,,,,,
,woman,0.98120445,,,,,,,,
,university,0.981072366,,,,,,,,
,school,0.97901696,,,,,,,,
,outdoors,0.978200316,,,,,,,,
,graduation,0.968361259,,,,,,,,
,adult,0.954682112,,,,,,,,
,man,0.950879931,,,,,,,,
,college,0.946287036,,,,,,,,
,family,0.9459939,,,,,,,,
,portrait,0.938192368,,,,,,,,
,diploma,0.918101192,,,,,,,,
,success,0.913213372,,,,,,,,
,accomplishment,0.909937203,,,,,,,,
,two,0.905190945,,,,,,,,
,campus,0.874871194,,,,,,,,
,young,0.874593616,,,,,,,,
,adolescent,0.868343592,,,,,,,,
,wear,0.866014838,,,,,,,,
https://scontent.cdninstagram.com/t51.2885-15/e35/12445895_1774146812817579_303974627_n.jpg?ig_cache_key=MTIyMTYzODE0MjA2MjcxNTA2MQ%3D%3D.2,business,0.984805167,Commerce,Entertainment,,,"Product/brand shots",Sports,,
,commerce,0.973129392,,,,,,,,
,stock,0.956993878,,,,,,,,
,computer,0.929134607,,,,,,,,
,market,0.923675597,,,,,,,,
,technology,0.901087284,,,,,,,,
,sign,0.89954716,,,,,,,,
,internet,0.892830908,,,,,,,,
,finance,0.892399371,,,,,,,,
,shopping,0.876995206,,,,,,,,
,election,0.854864061,,,,,,,,
,service,0.850171924,,,,,,,,
,communication,0.843100071,,,,,,,,
,text,0.841014504,,,,,,,,
,people,0.840414166,,,,,,,,
,money,0.834323823,,,,,,,,
,indoors,0.833654583,,,,,,,,
,modern,0.813452661,,,,,,,,
,industry,0.810062468,,,,,,,,
,telephone,0.797538102,,,,,,,,
https://scontent.cdninstagram.com/t51.2885-15/e35/12905172_1724865754462376_1038430816_n.jpg?ig_cache_key=MTIyOTA3OTU0NzIzNjI3OTIwNA%3D%3D.2,woman,0.991440058,Relationships,"My life","Fashion & Beauty",,"Best friends","With me","My look",
,fashion,0.985162377,,,,,,,,
,portrait,0.973080933,,,,,,,,
,girl,0.959693968,,,,,,,,
,people,0.95599246,,,,,,,,
,love,0.922932386,,,,,,,,
,model,0.916944981,,,,,,,,
,glamour,0.910147727,,,,,,,,
,adolescent,0.907769799,,,,,,,,
,pretty,0.896591425,,,,,,,,
,cute,0.889611363,,,,,,,,
,sexy,0.881578565,,,,,,,,
,fun,0.881535113,,,,,,,,
,child,0.877037346,,,,,,,,
,wear,0.87280345,,,,,,,,
,"facial expression",0.864905655,,,,,,,,
,indoors,0.847648323,,,,,,,,
,brunette,0.846921682,,,,,,,,
,music,0.844959378,,,,,,,,
,friendship,0.842628002,,,,,,,,
https://scontent.cdninstagram.com/t51.2885-15/e35/12383253_549212855259120_204465325_n.jpg?ig_cache_key=MTIyODE5OTQxOTY0MzkxMjY4MA%3D%3D.2,sunset,0.989803433,Environment,"My life",,,"Manmade beauty","My world today",,
,travel,0.987602115,,,,,,,,
,city,0.984603167,,,,,,,,
,vehicle,0.984432518,,,,,,,,
,"no person",0.980747342,,,,,,,,
,"transportation system",0.976766527,,,,,,,,
,evening,0.974712193,,,,,,,,
,water,0.972918928,,,,,,,,
,dusk,0.969721913,,,,,,,,
,architecture,0.952679873,,,,,,,,
,car,0.947049379,,,,,,,,
,street,0.943899512,,,,,,,,
,sky,0.942135096,,,,,,,,
,dawn,0.941892624,,,,,,,,
,river,0.941467941,,,,,,,,
,cityscape,0.914673269,,,,,,,,
,building,0.908342004,,,,,,,,
,light,0.903871298,,,,,,,,
,outdoors,0.901034236,,,,,,,,
,road,0.894102454,,,,,,,,
https://scontent.cdninstagram.com/t51.2885-15/e35/12912733_1071348612921192_678017145_n.jpg?ig_cache_key=MTIyMzY5MDg5OTU4NjI0NTYyMA%3D%3D.2,woman,0.934740782,,Undefined,,,,Undefined,,
,people,0.929122925,,,,,,,,
,competition,0.927700877,,,,,,,,
,adult,0.890585423,,,,,,,,
,business,0.873145819,,,,,,,,
,man,0.857635736,,,,,,,,
,hand,0.84472388,,,,,,,,
,leisure,0.807368875,,,,,,,,
,indoors,0.807244778,,,,,,,,
,wear,0.805016518,,,,,,,,
,one,0.79546243,,,,,,,,
,soccer,0.784026384,,,,,,,,
,desktop,0.754490316,,,,,,,,
,action,0.747399092,,,,,,,,
,recreation,0.741826832,,,,,,,,
,paper,0.728252292,,,,,,,,
,success,0.721805811,,,,,,,,
,football,0.71434319,,,,,,,,
,text,0.705777645,,,,,,,,
,education,0.698228657,,,,,,,,
https://scontent.cdninstagram.com/t51.2885-15/e35/12965642_1706863226239631_233142921_n.jpg?ig_cache_key=MTIzNTk5NjA3MjM4MzgzMjg5NA%3D%3D.2,business,0.987701178,Commerce,,,,"Product/brand shots",,,
,number,0.986152172,,,,,,,,
,money,0.979114354,,,,,,,,
,paper,0.974733233,,,,,,,,
,finance,0.968802214,,,,,,,,
,money,0.962916434,,,,,,,,
,"no person",0.961311936,,,,,,,,
,information,0.935209274,,,,,,,,
,card,0.929143548,,,,,,,,
,label,0.921154261,,,,,,,,
,finance,0.893913388,,,,,,,,
,wealth,0.893156588,,,,,,,,
,identity,0.891977191,,,,,,,,
,savings,0.878104389,,,,,,,,
,cash,0.876423478,,,,,,,,
,data,0.874770999,,,,,,,,
,layout,0.86730063,,,,,,,,
,commerce,0.867041469,,,,,,,,
,order,0.864972293,,,,,,,,
,presentation,0.864189148,,,,,,,,
https://scontent.cdninstagram.com/t51.2885-15/e35/13380983_290900644577249_1428911418_n.jpg?ig_cache_key=MTI3NTI4NzE5MDAzNjI0MzA4OQ%3D%3D.2,architecture,0.986352503,Environment,Travel,,,"Manmade beauty",Travel-s,,
,old,0.983994365,,,,,,,,
,building,0.979020119,,,,,,,,
,city,0.960344553,,,,,,,,
,street,0.954565048,,,,,,,,
,house,0.954461813,,,,,,,,
,travel,0.950805187,,,,,,,,
,window,0.950397849,,,,,,,,
,urban,0.942353308,,,,,,,,
,"no person",0.937438965,,,,,,,,
,tourism,0.929484725,,,,,,,,
,outdoors,0.919589281,,,,,,,,
,ancient,0.914649725,,,,,,,,
,brick,0.913828373,,,,,,,,
,traditional,0.904923558,,,,,,,,
,town,0.90395999,,,,,,,,
,facade,0.901950777,,,,,,,,
,wall,0.901665688,,,,,,,,
,exterior,0.887717724,,,,,,,,
,apartment,0.886918902,,,,,,,,
https://scontent.cdninstagram.com/t51.2885-15/e35/13277779_1291474090882623_2139476082_n.jpg?ig_cache_key=MTI2MDEwNjcxODAyOTI0Mjk3Ng%3D%3D.2,desktop,0.955577016,Commerce,Cute,,,"Product/brand shots",Cute,,
,design,0.940240264,,,,,,,,
,illustration,0.93892169,,,,,,,,
,image,0.938773394,,,,,,,,
,art,0.934384823,,,,,,,,
,color,0.93089962,,,,,,,,
,isolated,0.919275224,,,,,,,,
,decoration,0.915922403,,,,,,,,
,game,0.913682461,,,,,,,,
,square,0.910304666,,,,,,,,
,collection,0.908126295,,,,,,,,
,"no person",0.896639466,,,,,,,,
,set,0.891206503,,,,,,,,
,box,0.877882242,,,,,,,,
,symbol,0.874742627,,,,,,,,
,abstract,0.869598389,,,,,,,,
,fun,0.863635778,,,,,,,,
,"picture frame",0.84904623,,,,,,,,
,toy,0.844098687,,,,,,,,
,paper,0.841564476,,,,,,,,
https://scontent.cdninstagram.com/t51.2885-15/e35/13355486_1063095237104045_1754464154_n.jpg?ig_cache_key=MTI3Mzc5Nzc1MTg3NTI2NDkzMQ%3D%3D.2,sunset,0.996636748,Environment,"My life",,,"Manmade beauty","My world today",,
,dawn,0.984273255,,,,,,,,
,"no person",0.982577682,,,,,,,,
,dusk,0.97682327,,,,,,,,
,evening,0.976548433,,,,,,,,
,sky,0.962957144,,,,,,,,
,sun,0.95689857,,,,,,,,
,moon,0.948706508,,,,,,,,
,light,0.946517944,,,,,,,,
,silhouette,0.929863691,,,,,,,,
,city,0.920772672,,,,,,,,
,outdoors,0.916820168,,,,,,,,
,travel,0.909923434,,,,,,,,
,architecture,0.907398462,,,,,,,,
,dark,0.901418328,,,,,,,,
,landscape,0.890494347,,,,,,,,
,water,0.857195735,,,,,,,,
,backlit,0.848025918,,,,,,,,
,nature,0.835569024,,,,,,,,
,street,0.826604962,,,,,,,,
https://scontent.cdninstagram.com/t51.2885-15/e35/12965732_632718420215627_2034498689_n.jpg?ig_cache_key=MTIzNDU1Njc5ODk4Nzg4NzI5MQ%3D%3D.2,"no person",0.994433999,Commerce,Technology,,,"Product/brand shots",Technology-s,,
,business,0.951303005,,,,,,,,
,indoors,0.928845048,,,,,,,,
,paper,0.928667545,,,,,,,,
,box,0.907134414,,,,,,,,
,two,0.896089673,,,,,,,,
,retro,0.889310598,,,,,,,,
,one,0.876219392,,,,,,,,
,container,0.85085547,,,,,,,,
,empty,0.845272839,,,,,,,,
,cardboard,0.842435122,,,,,,,,
,post,0.826897502,,,,,,,,
,wood,0.797623754,,,,,,,,
,security,0.776276112,,,,,,,,
,access,0.753792405,,,,,,,,
,technology,0.744836509,,,,,,,,
,money,0.734149694,,,,,,,,
,simplicity,0.721669495,,,,,,,,
,wear,0.710794449,,,,,,,,
,plastic,0.708998919,,,,,,,,
https://scontent.cdninstagram.com/t51.2885-15/e35/12905143_1144524518899668_1000620733_n.jpg?ig_cache_key=MTIyMzg4ODk4NDA5MDMwNDU4Mw%3D%3D.2,restaurant,0.979073822,Food,"My life",,,"Meal time","Here I am",,
,food,0.935703993,,,,,,,,
,bar,0.934830546,,,,,,,,
,indoors,0.933253169,,,,,,,,
,"no person",0.928153872,,,,,,,,
,travel,0.889548719,,,,,,,,
,stock,0.878319621,,,,,,,,
,business,0.874976099,,,,,,,,
,dinner,0.847977698,,,,,,,,
,drink,0.829856694,,,,,,,,
,people,0.823941648,,,,,,,,
,luxury,0.813343942,,,,,,,,
,architecture,0.810815692,,,,,,,,
,city,0.808879375,,,,,,,,
,dining,0.789004326,,,,,,,,
,outdoors,0.785452664,,,,,,,,
,table,0.769060135,,,,,,,,
,delicious,0.766248822,,,,,,,,
,cooking,0.754878223,,,,,,,,
,fun,0.75237447,,,,,,,,
https://scontent.cdninstagram.com/t51.2885-15/e35/12930885_466449770213673_1719363233_n.jpg?ig_cache_key=MTIyNTM5NjIwODI5ODA1ODYyOQ%3D%3D.2,airplane,0.995864511,Celebrations,,,,"Community Events",,,
,flight,0.995497108,,,,,,,,
,aircraft,0.993403137,,,,,,,,
,precision,0.990762889,,,,,,,,
,military,0.982678056,,,,,,,,
,jet,0.973373115,,,,,,,,
,air,0.956987143,,,,,,,,
,fighter,0.934951901,,,,,,,,
,wing,0.916699529,,,,,,,,
,fly,0.906404972,,,,,,,,
,vehicle,0.901088238,,,,,,,,
,bird,0.900310397,,,,,,,,
,"geological formation",0.893537283,,,,,,,,
,"air force",0.879182339,,,,,,,,
,fly,0.867814422,,,,,,,,
,sky,0.864468575,,,,,,,,
,war,0.85550952,,,,,,,,
,navy,0.850466609,,,,,,,,
,force,0.837777793,,,,,,,,
,"no person",0.83071959,,,,,,,,
https://scontent.cdninstagram.com/t51.2885-15/s750x750/sh0.08/e35/13092303_265994377087707_68512016_n.jpg?ig_cache_key=MTIzOTY4NDU0MjM5ODY4NTQ5Mg%3D%3D.2,woman,0.994551063,"Fashion & Beauty","My life",,,"My look",Selfie,,
,fashion,0.964186788,,,,,,,,
,portrait,0.96009475,,,,,,,,
,girl,0.954653203,,,,,,,,
,pretty,0.948798895,,,,,,,,
,cute,0.942576408,,,,,,,,
,telephone,0.911275446,,,,,,,,
,people,0.909644425,,,,,,,,
,glamour,0.889078975,,,,,,,,
,elegant,0.880622625,,,,,,,,
,indoors,0.878005266,,,,,,,,
,sexy,0.868275642,,,,,,,,
,enjoyment,0.865938783,,,,,,,,
,young,0.864046872,,,,,,,,
,model,0.85766381,,,,,,,,
,one,0.855681121,,,,,,,,
,fun,0.831494629,,,,,,,,
,beautiful,0.831164122,,,,,,,,
,eye,0.830588937,,,,,,,,
,joy,0.807718515,,,,,,,,
https://scontent.cdninstagram.com/t51.2885-15/e35/12950217_1108760695840862_1867848733_n.jpg?ig_cache_key=MTIyMDQ1MzU3MjgxMDMzNDM0Mg%3D%3D.2,city,0.99411881,Travel,"My life",Environment,,Travel-s,"Here I am","Manmade beauty",
,stock,0.987935305,,,,,,,,
,neon,0.985921204,,,,,,,,
,mall,0.985405564,,,,,,,,
,urban,0.984260201,,,,,,,,
,tube,0.983289361,,,,,,,,
,travel,0.981699944,,,,,,,,
,shopping,0.978980184,,,,,,,,
,business,0.976170778,,,,,,,,
,modern,0.974187613,,,,,,,,
,architecture,0.97381407,,,,,,,,
,building,0.967998385,,,,,,,,
,"transportation system",0.965179563,,,,,,,,
,light,0.961533248,,,,,,,,
,commerce,0.956867814,,,,,,,,
,street,0.948382258,,,,,,,,
,road,0.941495299,,,,,,,,
,evening,0.934304953,,,,,,,,
,public,0.934127808,,,,,,,,
,illuminated,0.933824301,,,,,,,,
https://scontent.cdninstagram.com/t51.2885-15/e35/13166670_720289601445264_1432536112_n.jpg?ig_cache_key=MTI0NjM3MjI5MjUzOTY3MTE2MA%3D%3D.2,woman,0.957111001,Celebrations,Blank,,,"Personal Events","My life-s",,
,people,0.941972971,,,,,,,,
,education,0.931367636,,,,,,,,
,celebration,0.926313877,,,,,,,,
,adult,0.920163035,,,,,,,,
,one,0.89591229,,,,,,,,
,graduation,0.892311335,,,,,,,,
,university,0.879540086,,,,,,,,
,indoors,0.877654314,,,,,,,,
,school,0.868061066,,,,,,,,
,girl,0.833959818,,,,,,,,
,portrait,0.831555486,,,,,,,,
,wear,0.816271782,,,,,,,,
,young,0.793720126,,,,,,,,
,diploma,0.779583573,,,,,,,,
,pride,0.77657342,,,,,,,,
,ceremony,0.771227837,,,,,,,,
,college,0.767464042,,,,,,,,
,happiness,0.75778079,,,,,,,,
,man,0.75589788,,,,,,,,
https://scontent.cdninstagram.com/t51.2885-15/e35/12328391_573517142808038_841991542_n.jpg?ig_cache_key=MTIxODY3MDAyMDU4MjEzODI0MA%3D%3D.2,business,0.965888262,Business,Travel,"My life",,Business-s,Travel-s,"Here I am",
,"no person",0.960944891,,,,,,,,
,paper,0.916127026,,,,,,,,
,money,0.914860606,,,,,,,,
,blur,0.909694791,,,,,,,,
,indoors,0.901732087,,,,,,,,
,finance,0.883224726,,,,,,,,
,administration,0.853546977,,,,,,,,
,document,0.84426403,,,,,,,,
,pay,0.826391697,,,,,,,,
,finance,0.825356305,,,,,,,,
,law,0.822383344,,,,,,,,
,travel,0.821702421,,,,,,,,
,success,0.804971814,,,,,,,,
,identity,0.799494624,,,,,,,,
,security,0.791644573,,,,,,,,
,text,0.783463478,,,,,,,,
,offense,0.781116366,,,,,,,,
,money,0.761830568,,,,,,,,
,commerce,0.741232336,,,,,,,,
https://scontent.cdninstagram.com/t51.2885-15/e35/1208328_590252147815566_1896999571_n.jpg?ig_cache_key=MTIxNjQzNjk4OTM3Mjg4Mzg2OA%3D%3D.2,architecture,0.996527433,Environment,Travel,"My life",,"Manmade beauty",Travel-s,"My world today",
,building,0.986744285,,,,,,,,
,"no person",0.977212131,,,,,,,,
,travel,0.974384606,,,,,,,,
,city,0.972761393,,,,,,,,
,sky,0.968628764,,,,,,,,
,old,0.966694951,,,,,,,,
,outdoors,0.944836676,,,,,,,,
,house,0.941733003,,,,,,,,
,urban,0.938930631,,,,,,,,
,facade,0.935533643,,,,,,,,
,window,0.934957862,,,,,,,,
,town,0.916194201,,,,,,,,
,street,0.915672064,,,,,,,,
,ancient,0.89563787,,,,,,,,
,tourism,0.868563175,,,,,,,,
,construction,0.867629588,,,,,,,,
,family,0.864075661,,,,,,,,
,brick,0.863675416,,,,,,,,
,apartment,0.857794166,,,,,,,,
https://scontent.cdninstagram.com/t51.2885-15/e35/13391111_502616026589462_1516119035_n.jpg?ig_cache_key=MTI3MTA1NDg2ODcxMzc5MjE1Mg%3D%3D.2,travel,0.987880409,Travel,"My life",Technology,,Travel-s,Doing,Technology-s,
,water,0.987472117,,,,,,,,
,sky,0.982987344,,,,,,,,
,outdoors,0.968442798,,,,,,,,
,leisure,0.965227962,,,,,,,,
,vacation,0.961877584,,,,,,,,
,summer,0.957279325,,,,,,,,
,boat,0.94002521,,,,,,,,
,recreation,0.939268708,,,,,,,,
,people,0.935360193,,,,,,,,
,one,0.917412162,,,,,,,,
,modern,0.907225013,,,,,,,,
,sea,0.904819131,,,,,,,,
,sun,0.902038097,,,,,,,,
,city,0.898184538,,,,,,,,
,nature,0.894242883,,,,,,,,
,"no person",0.88695097,,,,,,,,
,business,0.884067178,,,,,,,,
,tourism,0.870214105,,,,,,,,
,ship,0.855600476,,,,,,,,
https://scontent.cdninstagram.com/t51.2885-15/e35/12907336_1155164721200804_827145747_n.jpg?ig_cache_key=MTIxODgyMzA0MTgxMTE3ODQwOQ%3D%3D.2,clock,0.995516598,Environment,Travel,"My life",,Landmarks,Travel-s,"My world today",
,architecture,0.994607329,,,,,,,,
,tower,0.991228819,,,,,,,,
,building,0.978990376,,,,,,,,
,"no person",0.97842598,,,,,,,,
,travel,0.96741879,,,,,,,,
,parliament,0.966065049,,,,,,,,
,old,0.963867307,,,,,,,,
,city,0.943566203,,,,,,,,
,sky,0.93765974,,,,,,,,
,Gothic,0.933031797,,,,,,,,
,landmark,0.932942212,,,,,,,,
,time,0.920947671,,,,,,,,
,unite,0.916108847,,,,,,,,
,big,0.915593028,,,,,,,,
,administration,0.911111116,,,,,,,,
,outdoors,0.902920187,,,,,,,,
,famous,0.89460361,,,,,,,,
,tourism,0.884636998,,,,,,,,
,urban,0.879876733,,,,,,,,
https://scontent.cdninstagram.com/t51.2885-15/e35/13117799_478876065637642_1877728678_n.jpg?ig_cache_key=MTI0Mzk4Nzg1NTM4NjU2NzYxMg%3D%3D.2,city,0.990614295,"My life",Environment,,,"My world today","Manmade beauty",,
,architecture,0.988690615,,,,,,,,
,sunset,0.984924674,,,,,,,,
,sky,0.981050611,,,,,,,,
,building,0.971753001,,,,,,,,
,"no person",0.971482694,,,,,,,,
,moon,0.967675328,,,,,,,,
,light,0.964097142,,,,,,,,
,downtown,0.961105943,,,,,,,,
,dusk,0.959101558,,,,,,,,
,cityscape,0.953865469,,,,,,,,
,skyline,0.952879548,,,,,,,,
,evening,0.951678395,,,,,,,,
,urban,0.933648467,,,,,,,,
,dawn,0.922381759,,,,,,,,
,skyscraper,0.920921922,,,,,,,,
,office,0.904899716,,,,,,,,
,tower,0.90113616,,,,,,,,
,dark,0.894060314,,,,,,,,
,reflection,0.891010106,,,,,,,,
https://scontent.cdninstagram.com/t51.2885-15/e35/13109009_246976242323397_780721597_n.jpg?ig_cache_key=MTI0MDM0NjEwNTg4MzM1MzQ2OQ%3D%3D.2,coffee,0.988029838,Food,,,,Dessert,,,
,cup,0.976190865,,,,,,,,
,breakfast,0.970114589,,,,,,,,
,food,0.968078792,,,,,,,,
,chocolate,0.965299129,,,,,,,,
,sweet,0.965283394,,,,,,,,
,table,0.962557554,,,,,,,,
,"no person",0.954406321,,,,,,,,
,wood,0.954069376,,,,,,,,
,drink,0.946984768,,,,,,,,
,delicious,0.942790568,,,,,,,,
,espresso,0.931689262,,,,,,,,
,cream,0.929017186,,,,,,,,
,sugar,0.923988342,,,,,,,,
,cake,0.923895359,,,,,,,,
,refreshment,0.923339188,,,,,,,,
,wooden,0.921689391,,,,,,,,
,spoon,0.905349255,,,,,,,,
,milk,0.890664935,,,,,,,,
,mug,0.887596846,,,,,,,,
https://scontent.cdninstagram.com/t51.2885-15/e35/13102508_1694873900766552_1784301415_n.jpg?ig_cache_key=MTI0MTgzODU0NjgzODgzOTc2OA%3D%3D.2,architecture,0.991702199,Environment,,,,Landmarks,,,
,glass,0.982904434,,,,,,,,
,city,0.978234887,,,,,,,,
,travel,0.972808421,,,,,,,,
,building,0.968509793,,,,,,,,
,modern,0.967136681,,,,,,,,
,contemporary,0.962525189,,,,,,,,
,"no person",0.955848336,,,,,,,,
,sky,0.952682734,,,,,,,,
,urban,0.948919773,,,,,,,,
,construction,0.940115511,,,,,,,,
,business,0.937558055,,,,,,,,
,downtown,0.9250471,,,,,,,,
,steel,0.921867251,,,,,,,,
,reflection,0.916207671,,,,,,,,
,futuristic,0.914614677,,,,,,,,
,window,0.907801688,,,,,,,,
,skyscraper,0.90225482,,,,,,,,
,outdoors,0.900557637,,,,,,,,
,expression,0.897939324,,,,,,,,
https://scontent.cdninstagram.com/t51.2885-15/e35/12930786_505747662947834_1075553452_n.jpg?ig_cache_key=MTIxNzk0NzM5MTEzNTAxNTcwOQ%3D%3D.2,sunset,0.994656444,"My life",Environment,Travel,,"My world today","Natural beauty",Travel-s,
,water,0.988611102,,,,,,,,
,dawn,0.977825403,,,,,,,,
,evening,0.96322149,,,,,,,,
,dusk,0.951571524,,,,,,,,
,landscape,0.945960045,,,,,,,,
,reflection,0.944839716,,,,,,,,
,sun,0.944656491,,,,,,,,
,sky,0.944064498,,,,,,,,
,"no person",0.936710119,,,,,,,,
,sea,0.926412404,,,,,,,,
,beach,0.925685406,,,,,,,,
,light,0.920773804,,,,,,,,
,lake,0.913364887,,,,,,,,
,ocean,0.902864218,,,,,,,,
,silhouette,0.874441028,,,,,,,,
,backlit,0.855748534,,,,,,,,
,travel,0.85329926,,,,,,,,
,river,0.844333053,,,,,,,,
,seascape,0.843902707,,,,,,,,
https://scontent.cdninstagram.com/t51.2885-15/e35/12905015_537667523081489_151934140_n.jpg?ig_cache_key=MTIxNzE1NjYzOTIwMzIyMjA2MA%3D%3D.2,street,0.996657431,Environment,Travel,,,"Manmade beauty",Travel-s,,
,telephone,0.994540155,,,,,,,,
,city,0.994135737,,,,,,,,
,town,0.990996718,,,,,,,,
,urban,0.990896225,,,,,,,,
,booth,0.985440016,,,,,,,,
,architecture,0.98335433,,,,,,,,
,travel,0.978288114,,,,,,,,
,public,0.977935433,,,,,,,,
,business,0.976278067,,,,,,,,
,bus,0.972146094,,,,,,,,
,outdoors,0.96511972,,,,,,,,
,building,0.963925004,,,,,,,,
,tourism,0.947995543,,,,,,,,
,"no person",0.937699318,,,,,,,,
,road,0.93362236,,,,,,,,
,tourist,0.91183269,,,,,,,,
,old,0.905801654,,,,,,,,
,typical,0.902613342,,,,,,,,
,"transportation system",0.871397734,,,,,,,,
https://scontent.cdninstagram.com/t51.2885-15/e35/12918517_168428400215756_445086562_n.jpg?ig_cache_key=MTIxNDk2OTUzNjExNzY5NTQwNQ%3D%3D.2,"no person",0.958243012,Commerce,,,,"Product/brand shots",,,
,business,0.943860769,,,,,,,,
,vector,0.930434823,,,,,,,,
,contemporary,0.919569671,,,,,,,,
,indoors,0.900359392,,,,,,,,
,illustration,0.899482369,,,,,,,,
,data,0.889704108,,,,,,,,
,internet,0.887532949,,,,,,,,
,fashion,0.867434084,,,,,,,,
,laptop,0.859648287,,,,,,,,
,people,0.852260113,,,,,,,,
,telephone,0.846559405,,,,,,,,
,vector,0.835606217,,,,,,,,
,paper,0.830233753,,,,,,,,
,technology,0.82738179,,,,,,,,
,data,0.819859326,,,,,,,,
,design,0.817867875,,,,,,,,
,"graphic design",0.813899875,,,,,,,,
,connection,0.793561876,,,,,,,,
,computer,0.792769313,,,,,,,,
https://scontent.cdninstagram.com/t51.2885-15/e35/12907399_1766152436952132_867688901_n.jpg?ig_cache_key=MTIxNTgwMjU0NTc2Mjk1MTQyNw%3D%3D.2,business,0.945549369,Travel,,,,Travel-s,,,
,people,0.940937281,,,,,,,,
,woman,0.919921994,,,,,,,,
,money,0.917418897,,,,,,,,
,"no person",0.916965723,,,,,,,,
,commerce,0.884602964,,,,,,,,
,text,0.863378167,,,,,,,,
,finance,0.8476789,,,,,,,,
,finance,0.84092176,,,,,,,,
,festival,0.840373278,,,,,,,,
,indoors,0.831467986,,,,,,,,
,paper,0.816350877,,,,,,,,
,wood,0.806016922,,,,,,,,
,shopping,0.804127336,,,,,,,,
,adult,0.795648575,,,,,,,,
,traditional,0.772912502,,,,,,,,
,wealth,0.769064009,,,,,,,,
,administration,0.757845223,,,,,,,,
,card,0.756195664,,,,,,,,
,success,0.755274177,,,,,,,,
https://scontent.cdninstagram.com/t51.2885-15/e35/13113947_348085108648730_1339468_n.jpg?ig_cache_key=MTI0NTYyODk1MDA4NDI4MDk2NA%3D%3D.2,food,0.983635306,Food,,,,"Meal time",,,
,beer,0.983610749,,,,,,,,
,"no person",0.970970035,,,,,,,,
,drink,0.968019605,,,,,,,,
,party,0.930433273,,,,,,,,
,glass,0.90505451,,,,,,,,
,wine,0.903203845,,,,,,,,
,cooking,0.902754188,,,,,,,,
,table,0.900220752,,,,,,,,
,container,0.893467188,,,,,,,,
,grow,0.892761707,,,,,,,,
,indoors,0.877365649,,,,,,,,
,meal,0.857458711,,,,,,,,
,restaurant,0.853176117,,,,,,,,
,wood,0.848841906,,,,,,,,
,"dairy product",0.848063827,,,,,,,,
,delicious,0.840543509,,,,,,,,
,traditional,0.832504749,,,,,,,,
,refreshment,0.825662613,,,,,,,,
,unhealthy,0.822809815,,,,,,,,
https://scontent.cdninstagram.com/t51.2885-15/e35/13437406_1737109049905744_650525356_n.jpg?ig_cache_key=MTI3MDk5ODA3NDU1NzY4NTk2OA%3D%3D.2,woman,0.988315463,Relationships,,,,Friends,,,
,student,0.978450537,,,,,,,,
,adolescent,0.94746387,,,,,,,,
,togetherness,0.941736102,,,,,,,,
,man,0.931986749,,,,,,,,
,multicultural,0.930271626,,,,,,,,
,friendship,0.921510518,,,,,,,,
,child,0.918403745,,,,,,,,
,people,0.910881162,,,,,,,,
,fun,0.905838132,,,,,,,,
,group,0.899931252,,,,,,,,
,enjoyment,0.896200538,,,,,,,,
,indoors,0.889040709,,,,,,,,
,teamwork,0.88309437,,,,,,,,
,college,0.877843618,,,,,,,,
,laughing,0.87534678,,,,,,,,
,joy,0.874950707,,,,,,,,
,success,0.867700696,,,,,,,,
,portrait,0.853999972,,,,,,,,
,success,0.822907925,,,,,,,,
https://scontent.cdninstagram.com/t51.2885-15/e35/12907305_195405797509518_399462070_n.jpg?ig_cache_key=MTIxOTM5MjMzMTYzMTI1NTk2OQ%3D%3D.2,evening,0.979493737,Environment,Travel,,,Landmarks,Travel-s,,
,bridge,0.976532936,,,,,,,,
,festival,0.975530028,,,,,,,,
,light,0.974101424,,,,,,,,
,exhilaration,0.963774681,,,,,,,,
,"ferris wheel",0.960454702,,,,,,,,
,neon,0.959519863,,,,,,,,
,travel,0.957562268,,,,,,,,
,water,0.956173718,,,,,,,,
,"no person",0.955420732,,,,,,,,
,illuminated,0.954467237,,,,,,,,
,casino,0.945409894,,,,,,,,
,city,0.941222548,,,,,,,,
,reflection,0.934037805,,,,,,,,
,dusk,0.92980653,,,,,,,,
,fun,0.928762436,,,,,,,,
,river,0.922423244,,,,,,,,
,architecture,0.92122376,,,,,,,,
,sky,0.908831418,,,,,,,,
,building,0.906314552,,,,,,,,
