url,class,score
<<<<<<< HEAD
https://scontent.cdninstagram.com/t51.2885-15/e35/13414210_826456580821007_661955036_n.jpg?ig_cache_key=MTI3NTk5OTUyNDg1NTc0NDMxNg%3D%3D.2,indoors,0.993211746
,woman,0.97848773
,people,0.947895825
,adult,0.939052999
,man,0.934361577
,young,0.932194769
,step,0.881977201
,fashion,0.864676237
,girl,0.862261593
,window,0.859268427
,business,0.856216788
,expect,0.845071316
,pretty,0.827685118
,one,0.823819697
,luggage,0.816040635
,portrait,0.814398408
,looking,0.814100623
,tube,0.80597508
,airport,0.800097108
,bathroom,0.798705816
https://scontent.cdninstagram.com/t51.2885-15/sh0.08/e35/p750x750/13423578_1274623129245352_417913294_n.jpg?ig_cache_key=MTI3NjU5NDY5NzU1ODAzNDQyNQ%3D%3D.2,people,0.993744969
,portrait,0.982671142
,adult,0.982235909
,one,0.981246471
,man,0.965995193
,woman,0.944555461
,sunglasses,0.917654634
,sun,0.887341499
,eyewear,0.879304171
,travel,0.876818478
,girl,0.868398666
,light,0.861541927
,winter,0.847015858
,window,0.837206244
,fair weather,0.827435136
,outdoors,0.826034665
,business,0.822324038
,eyeglasses,0.81496042
,fashion,0.811765075
,recreation,0.793614745
https://scontent.cdninstagram.com/t51.2885-15/e35/13414166_238695589845361_1640788716_n.jpg?ig_cache_key=MTI3NDAzOTI2MjYzMjIxNjMwNg%3D%3D.2,people,0.991990566
,woman,0.955862999
,adult,0.949595153
,outdoors,0.933157206
,recreation,0.929766297
,man,0.912394166
,travel,0.904465199
,light,0.903749168
,two,0.89983809
,girl,0.897213817
,architecture,0.897158384
,competition,0.895299435
,evening,0.883742809
,one,0.883239985
,athlete,0.882924914
,sunset,0.879897714
,city,0.872644663
,landscape,0.872252584
,water,0.858341932
,sports equipment,0.857532263
https://scontent.cdninstagram.com/t51.2885-15/e35/13249643_1769458013284452_1657259651_n.jpg?ig_cache_key=MTI1ODA1MDU5MzkyODc3NTA4OA%3D%3D.2,child,0.996610641
,education,0.987836123
,group,0.987465382
,school,0.978528738
,people,0.968101263
,boy,0.96295625
,class,0.928021848
,happiness,0.921583652
,classroom,0.917089701
,boy,0.915984929
,facial expression,0.915604115
,adult,0.909294724
,room,0.903848946
,portrait,0.900338888
,girl,0.890274346
,youth,0.884638071
,woman,0.875475645
,family,0.870559335
,youth,0.859110951
,teacher,0.83801651
https://scontent.cdninstagram.com/t51.2885-15/e35/13102369_553498684822349_1647160249_n.jpg?ig_cache_key=MTI0OTMyMjM0OTM2ODk2ODMxMA%3D%3D.2,indoors,0.993015885
,man,0.966793001
,people,0.961121798
,business,0.960998654
,woman,0.926106453
,telephone,0.917711258
,contemporary,0.910923839
,adult,0.905525327
,connection,0.867594898
,room,0.863709807
,mirror,0.855692804
,portrait,0.845333219
,family,0.818842828
,office,0.813345909
,looking,0.811923504
,convenience,0.808432817
,modern,0.807978392
,hallway,0.799714088
,side view,0.796992421
,light,0.789191604
https://scontent.cdninstagram.com/t51.2885-15/e35/13150892_1087819481289517_814783895_n.jpg?ig_cache_key=MTI0NjE4MTUzNTU0OTc1Mjc1Mw%3D%3D.2,people,0.977115333
,man,0.961286664
,ceremony,0.959986806
,two,0.95958662
,accomplishment,0.958108962
,adult,0.952380419
,education,0.945080757
,woman,0.942197859
,wear,0.931674063
,school,0.921125054
,business,0.920629382
,portrait,0.907006741
,celebration,0.898823798
,happiness,0.892778754
,group,0.868296385
,graduation,0.853114843
,love,0.84664917
,success,0.840011716
,togetherness,0.834179997
,competition,0.827010989
https://scontent.cdninstagram.com/t51.2885-15/sh0.08/e35/p750x750/13187937_622594264557897_1269886336_n.jpg?ig_cache_key=MTI1NTIzMzkzNDE0MjczNTg5MQ%3D%3D.2,people,0.996695042
,adult,0.970208943
,group,0.961112201
,vehicle,0.957586646
,woman,0.957210064
,man,0.953833103
,monochrome,0.95106411
,group,0.945986748
,airport,0.930160165
,many,0.926660299
,one,0.926272273
,street,0.922291577
,wear,0.918894768
,transportation system,0.887722611
,airplane,0.882645011
,two,0.866134822
,portrait,0.861074924
,leader,0.840037525
,music,0.832679749
,administration,0.831961989
https://scontent.cdninstagram.com/l/t51.2885-15/e35/13167172_1818459248375613_2078941157_n.jpg?ig_cache_key=MTI1NDMxNjE1MzM2OTAwMzc5NA%3D%3D.2,museum,0.996397018
,album,0.99520272
,exhibition,0.992230773
,moment,0.988151193
,people,0.984241664
,illustration,0.982665181
,picture frame,0.982516885
,group,0.981486201
,painting,0.977350831
,margin,0.976531386
,card,0.976509452
,technology,0.972790956
,print,0.971022546
,no person,0.967183471
,blank,0.963366032
,telephone,0.957369208
,man,0.956700087
,screen,0.955663562
,art,0.953888416
,recreation,0.953372836
https://scontent.cdninstagram.com/t51.2885-15/e35/13256852_1783868971847387_565461002_n.jpg?ig_cache_key=MTI1MDg2NzUwODc4MzA4ODk5MQ%3D%3D.2,people,0.986918569
,group,0.978345752
,portrait,0.956030607
,woman,0.954694867
,festival,0.954498172
,adult,0.936996102
,wear,0.914311409
,music,0.91420114
,man,0.912685692
,education,0.875231147
,facial expression,0.870770097
,street,0.866054893
,enjoyment,0.865383387
,group,0.85833919
,two,0.855277419
,business,0.849450469
,interaction,0.848321855
,school,0.846727252
,fame,0.84497112
,musician,0.838249266
https://scontent.cdninstagram.com/t51.2885-15/s750x750/sh0.08/e35/13108635_1752184644995264_187777908_n.jpg?ig_cache_key=MTI0OTI5NjIyNTk3Njk3NjUxMg%3D%3D.2,people,0.993475854
,adult,0.990885377
,portrait,0.986096203
,woman,0.983258009
,two,0.981393814
,man,0.979336202
,wear,0.964979529
,group,0.944234967
,vehicle,0.928382039
,facial expression,0.924641311
,indoors,0.916934311
,eyewear,0.894935369
,healthcare,0.881236792
,recreation,0.876398861
,three,0.873695135
,one,0.854201913
,education,0.850100219
,eyeglasses,0.849366069
,festival,0.84305644
,happiness,0.832892239
https://scontent.cdninstagram.com/t51.2885-15/e35/13150762_182392308823088_1236333883_n.jpg?ig_cache_key=MTI1MDE0MjA3Mjg5MzYwNTgyOA%3D%3D.2,crowd,0.988683581
,people,0.984067678
,many,0.967315793
,city,0.962176323
,street,0.934228539
,road,0.920081615
,police,0.906097531
,school,0.903615475
,man,0.898140669
,event,0.896176815
,group,0.893638492
,race,0.882349968
,motion,0.881691217
,competition,0.876182914
,festival,0.875508547
,band,0.852754951
,audience,0.842932463
,commuter,0.842589259
,public,0.836174726
,spectator,0.830624044
https://scontent.cdninstagram.com/t51.2885-15/e35/13395093_1549862811986366_1925970437_n.jpg?ig_cache_key=MTI3NTQ0NTk0NjExODMwODk5Ng%3D%3D.2,people,0.987650871
,competition,0.984050572
,man,0.977300167
,athlete,0.968403101
,vehicle,0.938408256
,group,0.934298813
,adult,0.916092753
,bike,0.907924056
,recreation,0.903728545
,wear,0.902942121
,many,0.900928736
,group,0.900602102
,championship,0.896750569
,sport,0.895728588
,race,0.88319397
,race,0.878466725
,festival,0.876861334
,helmet,0.876206398
,city,0.875795066
,squad,0.860635996
https://scontent.cdninstagram.com/t51.2885-15/e35/13266690_1715607058697408_1335437156_n.jpg?ig_cache_key=MTI1NjU3Mzc0Nzc1NjI3MDY2MA%3D%3D.2,people,0.968115151
,light,0.967516541
,street,0.960273743
,tree,0.951033711
,city,0.941658139
,landscape,0.933647931
,bench,0.926635981
,travel,0.918258905
,park,0.908037961
,sun,0.904265344
,chair,0.894064307
,building,0.886499166
,garden,0.885980606
,road,0.871795952
,reflection,0.870211601
,sky,0.866942644
,sunset,0.864702582
,house,0.846866488
,home,0.843666196
,environment,0.827630818
https://scontent.cdninstagram.com/t51.2885-15/e35/13166706_1060217344058533_1921398888_n.jpg?ig_cache_key=MTI0NjAyNDgwMzE1MDIwMTk5Ng%3D%3D.2,child,0.995723009
,people,0.983846843
,fun,0.974806666
,group,0.974408925
,graffiti,0.954289794
,enjoyment,0.92537272
,woman,0.925247073
,boy,0.923999786
,outdoors,0.905507565
,recreation,0.895140529
,festival,0.891732574
,adult,0.888717532
,youth,0.887001514
,girl,0.884592295
,man,0.884366274
,street,0.872694075
,lifestyle,0.861285746
,facial expression,0.860400915
,motion,0.854918361
,leisure,0.849788785
https://scontent.cdninstagram.com/t51.2885-15/e35/13129320_2005871856304809_1612868063_n.jpg?ig_cache_key=MTI0NzIwODY4NTYwMjA4MDY5Nw%3D%3D.2,woman,0.971717954
,fun,0.970457196
,dog,0.969935417
,people,0.958363175
,outdoors,0.955102444
,portrait,0.939972043
,one,0.93879962
,leisure,0.935855746
,recreation,0.935363829
,young,0.935233831
,love,0.926610887
,competition,0.922062039
,two,0.921315312
,child,0.906944036
,adult,0.903287351
,music,0.889579952
,fashion,0.889134586
,friendship,0.886093616
,wear,0.885677814
,motion,0.883825302
https://scontent.cdninstagram.com/t51.2885-15/e35/13181539_293198301012025_1182389424_n.jpg?ig_cache_key=MTI1MDEzODkxNjE1OTc1MTk5NQ%3D%3D.2,group,0.987021446
,people,0.97446233
,wear,0.970317721
,adult,0.956701815
,woman,0.955624163
,man,0.953424096
,many,0.928251505
,group,0.922210276
,portrait,0.919140637
,facial expression,0.910722852
,school,0.886290908
,education,0.878596783
,music,0.861887813
,room,0.861877561
,exhibition,0.845486879
,child,0.837349176
,recreation,0.830059052
,enjoyment,0.829306424
,leader,0.825536966
,furniture,0.823655725
https://scontent.cdninstagram.com/t51.2885-15/e35/13183349_967513606689975_1837982922_n.jpg?ig_cache_key=MTI0OTA3NTEyMDkxNzk3MjQ0NQ%3D%3D.2,woman,0.992619038
,two,0.984513402
,love,0.979411364
,portrait,0.978053927
,happiness,0.976256013
,adult,0.97460115
,lifestyle,0.970241606
,girl,0.968804419
,people,0.964044094
,togetherness,0.960150719
,wear,0.960061431
,outdoors,0.958204627
,young,0.95803678
,man,0.943752646
,adolescent,0.943632841
,fun,0.938804865
,joy,0.938318372
,fashion,0.93561852
,leisure,0.933742046
,family,0.932501435
https://scontent.cdninstagram.com/t51.2885-15/e35/13248835_1749016985382201_881983287_n.jpg?ig_cache_key=MTI1MDUxNzkxMzIwMDc1NjUyMw%3D%3D.2,adult,0.982299805
,woman,0.976745665
,man,0.970841706
,business,0.968558192
,people,0.968406022
,happiness,0.960091949
,portrait,0.958784461
,togetherness,0.957756162
,facial expression,0.953019738
,two,0.933728695
,employee,0.926999092
,indoors,0.924981117
,airport,0.914397359
,wear,0.901310325
,luggage,0.893878222
,office,0.893387079
,group,0.89299655
,interaction,0.877881169
,telephone,0.874661207
,girl,0.867236614
https://scontent.cdninstagram.com/t51.2885-15/e35/13249740_1541590496147413_1563687020_n.jpg?ig_cache_key=MTI1NDQ4MDkyNjcxMDY5NTI5NA%3D%3D.2,eyeglasses,0.994910479
,eyewear,0.990832925
,group,0.990643144
,woman,0.988209724
,portrait,0.986628652
,education,0.982269645
,school,0.971402049
,facial expression,0.96701777
,university,0.962350965
,student,0.956758857
,accomplishment,0.945597231
,togetherness,0.942272902
,adult,0.942199349
,people,0.941595435
,three,0.938035131
,happiness,0.933924317
,friendship,0.92521584
,laughing,0.903096199
,indoors,0.902929604
,business,0.89696455
https://scontent.cdninstagram.com/t51.2885-15/e35/13259609_988945871219449_1436172614_n.jpg?ig_cache_key=MTI1NDIxMzEzNDI1ODI3NTU2OA%3D%3D.2,group,0.979598641
,friendship,0.976374686
,group,0.969736159
,multicultural,0.965856075
,woman,0.965607405
,student,0.964090765
,portrait,0.96167767
,adolescent,0.961186647
,people,0.959520817
,squad,0.948429823
,school,0.943150163
,child,0.94255203
,four,0.933636606
,recreation,0.919602394
,competition,0.919576764
,man,0.916234493
,fun,0.91338402
,togetherness,0.897651672
,teamwork,0.88886112
,three,0.887944996
https://scontent.cdninstagram.com/t51.2885-15/e35/13109114_1064109516968110_568311143_n.jpg?ig_cache_key=MTIzOTI0NzUwNDA5MDMzNDYxNQ%3D%3D.2,group,0.991075635
,man,0.983944416
,woman,0.982414126
,adult,0.973522782
,group,0.97345531
,people,0.97229141
,teamwork,0.951906383
,wear,0.9342466
,indoors,0.926843643
,facial expression,0.91099894
,three,0.904690027
,cooperation,0.901766539
,business,0.90160501
,portrait,0.89546001
,togetherness,0.88630724
,enjoyment,0.868960738
,happiness,0.867650151
,education,0.862277627
,four,0.854328275
,commerce,0.846729636
https://scontent.cdninstagram.com/t51.2885-15/s750x750/sh0.08/e35/12965771_1721135878142866_396253855_n.jpg?ig_cache_key=MTIzODM1NDQ5MDgyNDMyODI1Mw%3D%3D.2,people,0.99062264
,man,0.986831903
,portrait,0.985110044
,adult,0.962535501
,facial expression,0.951637208
,woman,0.941508889
,eyeglasses,0.936263442
,outdoors,0.930260777
,wear,0.920319855
,one,0.905161858
,leisure,0.903733552
,adolescent,0.900933027
,boy,0.8779037
,fun,0.863934755
,eyewear,0.851473093
,young,0.849254727
,recreation,0.842708051
,lifestyle,0.842375517
,fashion,0.837389827
,enjoyment,0.825741053
https://scontent.cdninstagram.com/t51.2885-15/s750x750/sh0.08/e35/12965136_1593722420942375_475601161_n.jpg?ig_cache_key=MTIzNzc2MjE3NjAyMDEyMTE5OQ%3D%3D.2,woman,0.99481529
,girl,0.990954399
,portrait,0.989061832
,people,0.988355279
,adult,0.971759677
,indoors,0.964139163
,happiness,0.957783818
,brunette,0.94830817
,eyeglasses,0.946965337
,beautiful,0.936734498
,smile,0.934211314
,lifestyle,0.92418313
,two,0.917984366
,love,0.902836442
,adolescent,0.890575886
,young,0.887501419
,pretty,0.880562663
,model,0.874746799
,fun,0.871392012
,togetherness,0.863701463
https://scontent.cdninstagram.com/t51.2885-15/e35/13422970_1035794103168264_642520137_n.jpg?ig_cache_key=MTI2ODIyMDI4MzIwMDIxMDQ5Mg%3D%3D.2,people,0.983076751
,group,0.979507446
,woman,0.972856283
,adult,0.96746254
,school,0.92769742
,education,0.92228663
,wear,0.90949434
,man,0.902147651
,many,0.89156723
,child,0.844197631
,fashion,0.834876239
,motion,0.825215936
,music,0.820475221
,model,0.80848664
,group,0.797240376
,offense,0.784398019
,exhibition,0.784023583
,business,0.778387189
,military,0.771303415
,festival,0.744698405
https://scontent.cdninstagram.com/t51.2885-15/e35/13092499_1046880915350387_592917360_n.jpg?ig_cache_key=MTIzOTI2MDI2MDk4MjA2NTAxOQ%3D%3D.2,woman,0.994452178
,girl,0.957165062
,people,0.956786752
,young,0.948152781
,business,0.941434383
,portrait,0.930274487
,adult,0.916970372
,smile,0.911390066
,eyeglasses,0.89583081
,pretty,0.894282818
,indoors,0.891867638
,office,0.890832424
,beautiful,0.886109829
,technology,0.874856472
,person,0.859932303
,man,0.858743072
,fun,0.852508903
,fashion,0.850277901
,attractive,0.836376667
,lady,0.833729148
https://scontent.cdninstagram.com/t51.2885-15/e35/13130029_944158269016163_1839180656_n.jpg?ig_cache_key=MTI0NDE2MTg2Mjk4OTc3NTg3Ng%3D%3D.2,woman,0.983694911
,accomplishment,0.964991212
,man,0.945669889
,multicultural,0.942408144
,success,0.941899955
,graduation,0.939711213
,education,0.933971167
,indoors,0.931250215
,people,0.926577508
,business,0.923717856
,togetherness,0.917075157
,intelligence,0.911904335
,ceremony,0.90432936
,student,0.899598479
,looking,0.894123912
,two,0.890637636
,success,0.888361692
,adult,0.873494148
,diploma,0.863963604
,contemporary,0.860955
https://scontent.cdninstagram.com/t51.2885-15/e35/13108974_1750731548538174_947790409_n.jpg?ig_cache_key=MTI2NjYyOTAwMTkyNzQ2MDY5NQ%3D%3D.2,portrait,0.985441983
,people,0.966220021
,man,0.959695697
,adult,0.935027361
,one,0.925732851
,danger,0.922530413
,mask,0.904554725
,mask,0.898746252
,face,0.894558072
,scared,0.886656404
,offense,0.87889421
,young,0.878714323
,research,0.875580072
,dark,0.874959767
,fashion,0.868406355
,indoors,0.867983937
,education,0.861629903
,book,0.857325554
,book,0.856986403
,person,0.855220318
https://scontent.cdninstagram.com/t51.2885-15/e35/13398419_310478799283220_389584034_n.jpg?ig_cache_key=MTI2OTU5Nzg3MjU2MTA2MzU4MQ%3D%3D.2,woman,0.984839916
,man,0.974089384
,group,0.974016309
,indoors,0.972308159
,group,0.957951546
,people,0.957561255
,adult,0.925265133
,friendship,0.920109749
,portrait,0.91940093
,competition,0.881383896
,girl,0.8692137
,laughing,0.863084078
,wear,0.852052987
,three,0.850980997
,facial expression,0.849348545
,togetherness,0.840820909
,teamwork,0.835858881
,four,0.83268106
,enjoyment,0.830363393
,business,0.825510979
https://scontent.cdninstagram.com/t51.2885-15/s750x750/sh0.08/e35/13118068_1123232864404956_1736861315_n.jpg?ig_cache_key=MTIzODI3MzM4NTQwMDEwODM3OQ%3D%3D.2,woman,0.980942726
,man,0.974110126
,togetherness,0.958818018
,love,0.941053152
,student,0.935778797
,family,0.933650851
,people,0.927406192
,adolescent,0.925774992
,fun,0.919216752
,friendship,0.903106928
,child,0.884150505
,portrait,0.881575227
,laughing,0.878136158
,relaxation,0.860741735
,group,0.851759195
,girl,0.845027804
,affection,0.831487358
,leisure,0.830389857
,joy,0.824145973
,indoors,0.812752247
https://scontent.cdninstagram.com/t51.2885-15/e35/13116805_1743768939172410_1581901438_n.jpg?ig_cache_key=MTIzOTI2MDkxODY4MjQ4NjY3OA%3D%3D.2,woman,0.98678118
,group,0.984536409
,people,0.978940845
,adult,0.971949756
,man,0.970766187
,togetherness,0.970257461
,indoors,0.967344642
,interaction,0.96730417
,three,0.965518236
,family,0.959756613
,facial expression,0.95739001
,child,0.95692718
,four,0.952816248
,battle,0.941751838
,room,0.940644443
,wear,0.921035767
,two,0.916495562
,enjoyment,0.903035283
,five,0.901137233
,offspring,0.888866305
https://scontent.cdninstagram.com/t51.2885-15/e35/13129172_1595387647443096_1572777694_n.jpg?ig_cache_key=MTI0MzU2OTI1NDg0NDMzNTg0Nw%3D%3D.2,people,0.987392187
,many,0.974805772
,crowd,0.974088311
,festival,0.969361842
,group,0.965577722
,competition,0.937659025
,performance,0.936758041
,celebration,0.935031176
,music,0.932809234
,woman,0.917446256
,man,0.911061347
,sports fan,0.903254688
,wear,0.89888221
,party,0.863909841
,adult,0.851268291
,group,0.83445102
,audience,0.829998016
,dancing,0.824762464
,concert,0.823716342
,parade,0.813287556
https://scontent.cdninstagram.com/t51.2885-15/s750x750/sh0.08/e35/12960092_231085603923375_687131938_n.jpg?ig_cache_key=MTIzNjg3MzM3MDY0NzY2MDE5NA%3D%3D.2,woman,0.991049588
,people,0.966185451
,business,0.95614171
,education,0.952346265
,outdoors,0.93919462
,connection,0.925949156
,sit,0.925664008
,adult,0.921565354
,portrait,0.917797565
,technology,0.90366888
,internet,0.885488033
,looking,0.883893669
,one,0.880496562
,computer,0.878878355
,leisure,0.876986146
,laptop,0.867551565
,girl,0.862898469
,young,0.861948609
,enjoyment,0.852647424
,wireless,0.848209798
https://scontent.cdninstagram.com/t51.2885-15/e35/13108689_1689012724683410_1835360653_n.jpg?ig_cache_key=MTIzOTI2MzcyNzA2MjYxNjA1OQ%3D%3D.2,tree,0.997868896
,park,0.993313253
,nature,0.992088079
,beautiful,0.992085338
,wood,0.990935743
,girl,0.985464573
,portrait,0.98504281
,outdoors,0.976225138
,one,0.971355557
,people,0.970543444
,summer,0.962970912
,person,0.955549359
,smile,0.951589942
,outside,0.946532607
,hair,0.94545877
,adult,0.940929055
,face,0.93822664
,woman,0.936511099
,young,0.933774412
,lifestyle,0.933701515
https://scontent.cdninstagram.com/t51.2885-15/e35/13398461_305016813165927_1511561739_n.jpg?ig_cache_key=MTI3MDg4NDA4NTg5NzEwMzExMg%3D%3D.2,people,0.982033849
,man,0.976750851
,woman,0.971969903
,wear,0.968864202
,portrait,0.968087435
,outdoors,0.968079805
,military,0.96417588
,adult,0.956903458
,togetherness,0.9396137
,two,0.919571936
,happiness,0.911446095
,army,0.889265656
,group,0.88563478
,facial expression,0.863907456
,uniform,0.835362971
,family,0.825462699
,soldier,0.805871129
,friendship,0.797509134
,enjoyment,0.796253443
,daylight,0.790863872
https://scontent.cdninstagram.com/t51.2885-15/e35/13102509_284758621855384_688513590_n.jpg?ig_cache_key=MTIzNzc2NDI3MzY4MzgyNjM2MA%3D%3D.2,group,0.99807483
,group,0.995335102
,friendship,0.993103385
,togetherness,0.978652596
,four,0.976995349
,student,0.97561121
,man,0.972912788
,woman,0.968783975
,people,0.959630251
,laughing,0.950631142
,three,0.943333983
,facial expression,0.942162156
,unity,0.939837098
,multicultural,0.934182703
,adolescent,0.932671428
,happiness,0.931145668
,portrait,0.927664876
,squad,0.926115155
,fun,0.917945862
,adult,0.9097507
https://scontent.cdninstagram.com/t51.2885-15/s480x480/e35/13116566_1683818965202410_2019481463_n.jpg?ig_cache_key=MTI0MTQyMDM0NDY1NDgyNDQ3Nw%3D%3D.2,people,0.976299882
,woman,0.971426427
,portrait,0.94758749
,togetherness,0.940375388
,man,0.940051615
,adult,0.936594367
,girl,0.927959025
,young,0.916730762
,outdoors,0.915058196
,lifestyle,0.905802369
,happiness,0.904010296
,friendship,0.902437806
,two,0.887946308
,fun,0.88449657
,group,0.87662816
,leisure,0.848179281
,family,0.842407048
,love,0.839022756
,education,0.836170077
,facial expression,0.811080873
https://scontent.cdninstagram.com/t51.2885-15/e35/13102325_577162709118117_1645278228_n.jpg?ig_cache_key=MTIzOTk5NTE1NTMwMzg5MjUyMQ%3D%3D.2,crowd,0.985240459
,stage,0.984259963
,people,0.976151168
,show,0.976040483
,performance,0.972321749
,music,0.971726775
,audience,0.967914939
,many,0.958238244
,event,0.953076482
,concert,0.95238477
,group,0.921852767
,band,0.921592772
,theater,0.921468616
,man,0.910319567
,festival,0.899784267
,dancing,0.880268455
,woman,0.87604624
,ceremony,0.869357824
,celebration,0.857409716
,flag,0.833955228
https://scontent.cdninstagram.com/t51.2885-15/e35/13126738_838339289603569_698344561_n.jpg?ig_cache_key=MTIzOTk5MTMxNDY1NTIxNzAzMQ%3D%3D.2,girl,0.992463291
,beautiful,0.982258677
,people,0.98184371
,portrait,0.981765747
,woman,0.969556689
,brunette,0.953039587
,young,0.948740125
,one,0.9367764
,hair,0.928470135
,person,0.925400972
,adult,0.923772573
,pretty,0.920343161
,model,0.90592742
,happiness,0.902357042
,smile,0.901606321
,face,0.899444342
,bed,0.899363995
,cute,0.894434452
,fashion,0.892314672
,lifestyle,0.890637398
https://scontent.cdninstagram.com/t51.2885-15/s750x750/sh0.08/e35/12446278_500444966814552_447199906_n.jpg?ig_cache_key=MTI0MzM0ODgxNTI0NTIxNTU1Mw%3D%3D.2,child,0.980796695
,woman,0.975906134
,people,0.971559763
,friendship,0.966342449
,togetherness,0.96073699
,student,0.956006408
,adolescent,0.951431036
,fun,0.950384736
,girl,0.946951866
,portrait,0.942350924
,facial expression,0.914575696
,group,0.90935564
,laughing,0.906984687
,three,0.902871132
,adult,0.898047864
,cute,0.89194119
,happiness,0.887894034
,man,0.885404587
,education,0.872425914
,school,0.864084482
=======
https://scontent.cdninstagram.com/t51.2885-15/e35/13414210_826456580821007_661955036_n.jpg?ig_cache_key=MTI3NTk5OTUyNDg1NTc0NDMxNg%3D%3D.2,indoors,0.9932117462158203
,woman,0.9784877300262451
,people,0.9478958249092102
,adult,0.9390529990196228
,man,0.9343615770339966
,young,0.9321947693824768
,step,0.8819772005081177
,fashion,0.8646762371063232
,girl,0.8622615933418274
,window,0.8592684268951416
,business,0.8562167882919312
,expect,0.8450713157653809
,pretty,0.8276851177215576
,one,0.8238196969032288
,luggage,0.8160406351089478
,portrait,0.8143984079360962
,looking,0.8141006231307983
,tube,0.805975079536438
,airport,0.8000971078872681
,bathroom,0.7987058162689209
https://scontent.cdninstagram.com/t51.2885-15/sh0.08/e35/p750x750/13423578_1274623129245352_417913294_n.jpg?ig_cache_key=MTI3NjU5NDY5NzU1ODAzNDQyNQ%3D%3D.2,people,0.993744969367981
,portrait,0.9826711416244507
,adult,0.9822359085083008
,one,0.9812464714050293
,man,0.965995192527771
,woman,0.9445554614067078
,sunglasses,0.9176546335220337
,sun,0.8873414993286133
,eyewear,0.8793041706085205
,travel,0.8768184781074524
,girl,0.8683986663818359
,light,0.8615419268608093
,winter,0.8470158576965332
,window,0.837206244468689
,fair weather,0.8274351358413696
,outdoors,0.826034665107727
,business,0.8223240375518799
,eyeglasses,0.8149604201316833
,fashion,0.8117650747299194
,recreation,0.7936147451400757
https://scontent.cdninstagram.com/t51.2885-15/sh0.08/e35/p750x750/13423578_1274623129245352_417913294_n.jpg?ig_cache_key=MTI3NjU5NDY5NzU1ODAzNDQyNQ%3D%3D.2,people,0.993744969367981
,portrait,0.9826711416244507
,adult,0.9822359085083008
,one,0.9812464714050293
,man,0.965995192527771
,woman,0.9445554614067078
,sunglasses,0.9176546335220337
,sun,0.8873414993286133
,eyewear,0.8793041706085205
,travel,0.8768184781074524
,girl,0.8683986663818359
,light,0.8615419268608093
,winter,0.8470158576965332
,window,0.837206244468689
,fair weather,0.8274351358413696
,outdoors,0.826034665107727
,business,0.8223240375518799
,eyeglasses,0.8149604201316833
,fashion,0.8117650747299194
,recreation,0.7936147451400757
https://scontent.cdninstagram.com/t51.2885-15/e35/13414166_238695589845361_1640788716_n.jpg?ig_cache_key=MTI3NDAzOTI2MjYzMjIxNjMwNg%3D%3D.2,people,0.9919905662536621
,woman,0.9558629989624023
,adult,0.9495951533317566
,outdoors,0.933157205581665
,recreation,0.9297662973403931
,man,0.9123941659927368
,travel,0.9044651985168457
,light,0.9037491679191589
,two,0.8998380899429321
,girl,0.8972138166427612
,architecture,0.8971583843231201
,competition,0.8952994346618652
,evening,0.8837428092956543
,one,0.8832399845123291
,athlete,0.8829249143600464
,sunset,0.8798977136611938
,city,0.8726446628570557
,landscape,0.8722525835037231
,water,0.8583419322967529
,sports equipment,0.857532262802124
https://scontent.cdninstagram.com/t51.2885-15/e35/13249643_1769458013284452_1657259651_n.jpg?ig_cache_key=MTI1ODA1MDU5MzkyODc3NTA4OA%3D%3D.2,child,0.9966106414794922
,education,0.9878361225128174
,group,0.9874653816223145
,school,0.9785287380218506
,people,0.9681012630462646
,boy,0.9629562497138977
,class,0.9280218482017517
,happiness,0.9215836524963379
,classroom,0.9170897006988525
,boy,0.9159849286079407
,facial expression,0.9156041145324707
,adult,0.9092947244644165
,room,0.9038489460945129
,portrait,0.900338888168335
,girl,0.8902743458747864
,youth,0.8846380710601807
,woman,0.8754756450653076
,family,0.8705593347549438
,youth,0.859110951423645
,teacher,0.8380165100097656
https://scontent.cdninstagram.com/t51.2885-15/e35/13102369_553498684822349_1647160249_n.jpg?ig_cache_key=MTI0OTMyMjM0OTM2ODk2ODMxMA%3D%3D.2,indoors,0.9930158853530884
,man,0.9667930006980896
,people,0.9611217975616455
,business,0.9609986543655396
,woman,0.9261064529418945
,telephone,0.9177112579345703
,contemporary,0.9109238386154175
,adult,0.9055253267288208
,connection,0.8675948977470398
,room,0.8637098073959351
,mirror,0.8556928038597107
,portrait,0.8453332185745239
,family,0.8188428282737732
,office,0.8133459091186523
,looking,0.8119235038757324
,convenience,0.8084328174591064
,modern,0.8079783916473389
,hallway,0.7997140884399414
,side view,0.7969924211502075
,light,0.7891916036605835
https://scontent.cdninstagram.com/t51.2885-15/e35/13150892_1087819481289517_814783895_n.jpg?ig_cache_key=MTI0NjE4MTUzNTU0OTc1Mjc1Mw%3D%3D.2,people,0.9771153330802917
,man,0.9612866640090942
,ceremony,0.9599868059158325
,two,0.9595866203308105
,accomplishment,0.9581089615821838
,adult,0.9523804187774658
,education,0.9450807571411133
,woman,0.942197859287262
,wear,0.931674063205719
,school,0.921125054359436
,business,0.9206293821334839
,portrait,0.9070067405700684
,celebration,0.8988237977027893
,happiness,0.892778754234314
,group,0.8682963848114014
,graduation,0.8531148433685303
,love,0.846649169921875
,success,0.840011715888977
,togetherness,0.8341799974441528
,competition,0.827010989189148
https://scontent.cdninstagram.com/t51.2885-15/sh0.08/e35/p750x750/13187937_622594264557897_1269886336_n.jpg?ig_cache_key=MTI1NTIzMzkzNDE0MjczNTg5MQ%3D%3D.2,people,0.9966950416564941
,adult,0.9702089428901672
,group,0.9611122012138367
,vehicle,0.9575866460800171
,woman,0.9572100639343262
,man,0.9538331031799316
,monochrome,0.9510641098022461
,group,0.9459867477416992
,airport,0.9301601648330688
,many,0.9266602993011475
,one,0.9262722730636597
,street,0.9222915768623352
,wear,0.9188947677612305
,transportation system,0.8877226114273071
,airplane,0.8826450109481812
,two,0.8661348223686218
,portrait,0.8610749244689941
,leader,0.8400375247001648
,music,0.8326797485351562
,administration,0.831961989402771
https://scontent.cdninstagram.com/l/t51.2885-15/e35/13167172_1818459248375613_2078941157_n.jpg?ig_cache_key=MTI1NDMxNjE1MzM2OTAwMzc5NA%3D%3D.2,museum,0.9963970184326172
,album,0.9952027201652527
,exhibition,0.9922307729721069
,moment,0.9881511926651001
,people,0.9842416644096375
,illustration,0.9826651811599731
,picture frame,0.982516884803772
,group,0.9814862012863159
,painting,0.9773508310317993
,margin,0.9765313863754272
,card,0.9765094518661499
,technology,0.9727909564971924
,print,0.9710225462913513
,no person,0.9671834707260132
,blank,0.9633660316467285
,telephone,0.9573692083358765
,man,0.9567000865936279
,screen,0.9556635618209839
,art,0.9538884162902832
,recreation,0.9533728361129761
https://scontent.cdninstagram.com/t51.2885-15/e35/13256852_1783868971847387_565461002_n.jpg?ig_cache_key=MTI1MDg2NzUwODc4MzA4ODk5MQ%3D%3D.2,people,0.986918568611145
,group,0.9783457517623901
,portrait,0.9560306072235107
,woman,0.9546948671340942
,festival,0.9544981718063354
,adult,0.9369961023330688
,wear,0.914311408996582
,music,0.9142011404037476
,man,0.9126856923103333
,education,0.875231146812439
,facial expression,0.8707700967788696
,street,0.866054892539978
,enjoyment,0.8653833866119385
,group,0.8583391904830933
,two,0.855277419090271
,business,0.8494504690170288
,interaction,0.8483218550682068
,school,0.8467272520065308
,fame,0.8449711203575134
,musician,0.8382492661476135
https://scontent.cdninstagram.com/t51.2885-15/e35/13414166_238695589845361_1640788716_n.jpg?ig_cache_key=MTI3NDAzOTI2MjYzMjIxNjMwNg%3D%3D.2,people,0.9919905662536621
,woman,0.9558629989624023
,adult,0.9495951533317566
,outdoors,0.933157205581665
,recreation,0.9297662973403931
,man,0.9123941659927368
,travel,0.9044651985168457
,light,0.9037491679191589
,two,0.8998380899429321
,girl,0.8972138166427612
,architecture,0.8971583843231201
,competition,0.8952994346618652
,evening,0.8837428092956543
,one,0.8832399845123291
,athlete,0.8829249143600464
,sunset,0.8798977136611938
,city,0.8726446628570557
,landscape,0.8722525835037231
,water,0.8583419322967529
,sports equipment,0.857532262802124
https://scontent.cdninstagram.com/t51.2885-15/s750x750/sh0.08/e35/13108635_1752184644995264_187777908_n.jpg?ig_cache_key=MTI0OTI5NjIyNTk3Njk3NjUxMg%3D%3D.2,people,0.9934758543968201
,adult,0.9908853769302368
,portrait,0.986096203327179
,woman,0.9832580089569092
,two,0.9813938140869141
,man,0.9793362021446228
,wear,0.9649795293807983
,group,0.9442349672317505
,vehicle,0.9283820390701294
,facial expression,0.9246413111686707
,indoors,0.9169343113899231
,eyewear,0.8949353694915771
,healthcare,0.8812367916107178
,recreation,0.8763988614082336
,three,0.8736951351165771
,one,0.8542019128799438
,education,0.8501002192497253
,eyeglasses,0.8493660688400269
,festival,0.8430564403533936
,happiness,0.8328922390937805
https://scontent.cdninstagram.com/t51.2885-15/e35/13150762_182392308823088_1236333883_n.jpg?ig_cache_key=MTI1MDE0MjA3Mjg5MzYwNTgyOA%3D%3D.2,crowd,0.9886835813522339
,people,0.9840676784515381
,many,0.9673157930374146
,city,0.9621763229370117
,street,0.9342285394668579
,road,0.920081615447998
,police,0.9060975313186646
,school,0.9036154747009277
,man,0.8981406688690186
,event,0.896176815032959
,group,0.8936384916305542
,race,0.882349967956543
,motion,0.8816912174224854
,competition,0.8761829137802124
,festival,0.8755085468292236
,band,0.8527549505233765
,audience,0.8429324626922607
,commuter,0.842589259147644
,public,0.836174726486206
,spectator,0.8306240439414978
https://scontent.cdninstagram.com/t51.2885-15/e35/13150762_182392308823088_1236333883_n.jpg?ig_cache_key=MTI1MDE0MjA3Mjg5MzYwNTgyOA%3D%3D.2,crowd,0.9886835813522339
,people,0.9840676784515381
,many,0.9673157930374146
,city,0.9621763229370117
,street,0.9342285394668579
,road,0.920081615447998
,police,0.9060975313186646
,school,0.9036154747009277
,man,0.8981406688690186
,event,0.896176815032959
,group,0.8936384916305542
,race,0.882349967956543
,motion,0.8816912174224854
,competition,0.8761829137802124
,festival,0.8755085468292236
,band,0.8527549505233765
,audience,0.8429324626922607
,commuter,0.842589259147644
,public,0.836174726486206
,spectator,0.8306240439414978
https://scontent.cdninstagram.com/t51.2885-15/e35/13395093_1549862811986366_1925970437_n.jpg?ig_cache_key=MTI3NTQ0NTk0NjExODMwODk5Ng%3D%3D.2,people,0.9876508712768555
,competition,0.9840505719184875
,man,0.9773001670837402
,athlete,0.9684031009674072
,vehicle,0.9384082555770874
,group,0.9342988133430481
,adult,0.9160927534103394
,bike,0.9079240560531616
,recreation,0.9037285447120667
,wear,0.9029421210289001
,many,0.9009287357330322
,group,0.9006021022796631
,championship,0.8967505693435669
,sport,0.895728588104248
,race,0.8831939697265625
,race,0.8784667253494263
,festival,0.8768613338470459
,helmet,0.8762063980102539
,city,0.8757950663566589
,squad,0.8606359958648682
https://scontent.cdninstagram.com/t51.2885-15/e35/13266690_1715607058697408_1335437156_n.jpg?ig_cache_key=MTI1NjU3Mzc0Nzc1NjI3MDY2MA%3D%3D.2,people,0.9681151509284973
,light,0.9675165414810181
,street,0.9602737426757812
,tree,0.9510337114334106
,city,0.9416581392288208
,landscape,0.9336479306221008
,bench,0.9266359806060791
,travel,0.9182589054107666
,park,0.9080379605293274
,sun,0.9042653441429138
,chair,0.8940643072128296
,building,0.8864991664886475
,garden,0.8859806060791016
,road,0.8717959523200989
,reflection,0.8702116012573242
,sky,0.8669426441192627
,sunset,0.864702582359314
,house,0.8468664884567261
,home,0.8436661958694458
,environment,0.8276308178901672
https://scontent.cdninstagram.com/t51.2885-15/sh0.08/e35/p750x750/13187937_622594264557897_1269886336_n.jpg?ig_cache_key=MTI1NTIzMzkzNDE0MjczNTg5MQ%3D%3D.2,people,0.9966950416564941
,adult,0.9702089428901672
,group,0.9611122012138367
,vehicle,0.9575866460800171
,woman,0.9572100639343262
,man,0.9538331031799316
,monochrome,0.9510641098022461
,group,0.9459867477416992
,airport,0.9301601648330688
,many,0.9266602993011475
,one,0.9262722730636597
,street,0.9222915768623352
,wear,0.9188947677612305
,transportation system,0.8877226114273071
,airplane,0.8826450109481812
,two,0.8661348223686218
,portrait,0.8610749244689941
,leader,0.8400375247001648
,music,0.8326797485351562
,administration,0.831961989402771
https://scontent.cdninstagram.com/t51.2885-15/e35/13166706_1060217344058533_1921398888_n.jpg?ig_cache_key=MTI0NjAyNDgwMzE1MDIwMTk5Ng%3D%3D.2,child,0.9957230091094971
,people,0.9838468432426453
,fun,0.9748066663742065
,group,0.9744089245796204
,graffiti,0.9542897939682007
,enjoyment,0.9253727197647095
,woman,0.925247073173523
,boy,0.9239997863769531
,outdoors,0.9055075645446777
,recreation,0.895140528678894
,festival,0.8917325735092163
,adult,0.888717532157898
,youth,0.8870015144348145
,girl,0.8845922946929932
,man,0.8843662738800049
,street,0.8726940751075745
,lifestyle,0.8612857460975647
,facial expression,0.860400915145874
,motion,0.854918360710144
,leisure,0.8497887849807739
https://scontent.cdninstagram.com/t51.2885-15/e35/13129320_2005871856304809_1612868063_n.jpg?ig_cache_key=MTI0NzIwODY4NTYwMjA4MDY5Nw%3D%3D.2,woman,0.9717179536819458
,fun,0.9704571962356567
,dog,0.969935417175293
,people,0.9583631753921509
,outdoors,0.9551024436950684
,portrait,0.9399720430374146
,one,0.9387996196746826
,leisure,0.9358557462692261
,recreation,0.9353638291358948
,young,0.9352338314056396
,love,0.9266108870506287
,competition,0.9220620393753052
,two,0.9213153123855591
,child,0.9069440364837646
,adult,0.9032873511314392
,music,0.8895799517631531
,fashion,0.8891345858573914
,friendship,0.8860936164855957
,wear,0.8856778144836426
,motion,0.8838253021240234
https://scontent.cdninstagram.com/t51.2885-15/e35/13181539_293198301012025_1182389424_n.jpg?ig_cache_key=MTI1MDEzODkxNjE1OTc1MTk5NQ%3D%3D.2,group,0.9870214462280273
,people,0.9744623303413391
,wear,0.9703177213668823
,adult,0.9567018151283264
,woman,0.9556241631507874
,man,0.9534240961074829
,many,0.9282515048980713
,group,0.9222102761268616
,portrait,0.919140636920929
,facial expression,0.9107228517532349
,school,0.8862909078598022
,education,0.8785967826843262
,music,0.8618878126144409
,room,0.8618775606155396
,exhibition,0.8454868793487549
,child,0.8373491764068604
,recreation,0.8300590515136719
,enjoyment,0.829306423664093
,leader,0.8255369663238525
,furniture,0.8236557245254517
https://scontent.cdninstagram.com/t51.2885-15/e35/13414210_826456580821007_661955036_n.jpg?ig_cache_key=MTI3NTk5OTUyNDg1NTc0NDMxNg%3D%3D.2,indoors,0.9932117462158203
,woman,0.9784877300262451
,people,0.9478958249092102
,adult,0.9390529990196228
,man,0.9343615770339966
,young,0.9321947693824768
,step,0.8819772005081177
,fashion,0.8646762371063232
,girl,0.8622615933418274
,window,0.8592684268951416
,business,0.8562167882919312
,expect,0.8450713157653809
,pretty,0.8276851177215576
,one,0.8238196969032288
,luggage,0.8160406351089478
,portrait,0.8143984079360962
,looking,0.8141006231307983
,tube,0.805975079536438
,airport,0.8000971078872681
,bathroom,0.7987058162689209
https://scontent.cdninstagram.com/t51.2885-15/e35/13183349_967513606689975_1837982922_n.jpg?ig_cache_key=MTI0OTA3NTEyMDkxNzk3MjQ0NQ%3D%3D.2,woman,0.9926190376281738
,two,0.9845134019851685
,love,0.9794113636016846
,portrait,0.9780539274215698
,happiness,0.9762560129165649
,adult,0.974601149559021
,lifestyle,0.9702416062355042
,girl,0.9688044190406799
,people,0.9640440940856934
,togetherness,0.9601507186889648
,wear,0.9600614309310913
,outdoors,0.9582046270370483
,young,0.9580367803573608
,man,0.943752646446228
,adolescent,0.9436328411102295
,fun,0.9388048648834229
,joy,0.9383183717727661
,fashion,0.93561851978302
,leisure,0.9337420463562012
,family,0.9325014352798462
https://scontent.cdninstagram.com/t51.2885-15/e35/13248835_1749016985382201_881983287_n.jpg?ig_cache_key=MTI1MDUxNzkxMzIwMDc1NjUyMw%3D%3D.2,adult,0.9822998046875
,woman,0.9767456650733948
,man,0.9708417057991028
,business,0.9685581922531128
,people,0.9684060215950012
,happiness,0.9600919485092163
,portrait,0.9587844610214233
,togetherness,0.9577561616897583
,facial expression,0.9530197381973267
,two,0.9337286949157715
,employee,0.9269990921020508
,indoors,0.9249811172485352
,airport,0.9143973588943481
,wear,0.9013103246688843
,luggage,0.8938782215118408
,office,0.8933870792388916
,group,0.8929965496063232
,interaction,0.8778811693191528
,telephone,0.8746612071990967
,girl,0.8672366142272949
https://scontent.cdninstagram.com/t51.2885-15/e35/13266690_1715607058697408_1335437156_n.jpg?ig_cache_key=MTI1NjU3Mzc0Nzc1NjI3MDY2MA%3D%3D.2,people,0.9681151509284973
,light,0.9675165414810181
,street,0.9602737426757812
,tree,0.9510337114334106
,city,0.9416581392288208
,landscape,0.9336479306221008
,bench,0.9266359806060791
,travel,0.9182589054107666
,park,0.9080379605293274
,sun,0.9042653441429138
,chair,0.8940643072128296
,building,0.8864991664886475
,garden,0.8859806060791016
,road,0.8717959523200989
,reflection,0.8702116012573242
,sky,0.8669426441192627
,sunset,0.864702582359314
,house,0.8468664884567261
,home,0.8436661958694458
,environment,0.8276308178901672
https://scontent.cdninstagram.com/t51.2885-15/s750x750/sh0.08/e35/13108635_1752184644995264_187777908_n.jpg?ig_cache_key=MTI0OTI5NjIyNTk3Njk3NjUxMg%3D%3D.2,people,0.9934758543968201
,adult,0.9908853769302368
,portrait,0.986096203327179
,woman,0.9832580089569092
,two,0.9813938140869141
,man,0.9793362021446228
,wear,0.9649795293807983
,group,0.9442349672317505
,vehicle,0.9283820390701294
,facial expression,0.9246413111686707
,indoors,0.9169343113899231
,eyewear,0.8949353694915771
,healthcare,0.8812367916107178
,recreation,0.8763988614082336
,three,0.8736951351165771
,one,0.8542019128799438
,education,0.8501002192497253
,eyeglasses,0.8493660688400269
,festival,0.8430564403533936
,happiness,0.8328922390937805
https://scontent.cdninstagram.com/t51.2885-15/e35/13249740_1541590496147413_1563687020_n.jpg?ig_cache_key=MTI1NDQ4MDkyNjcxMDY5NTI5NA%3D%3D.2,eyeglasses,0.994910478591919
,eyewear,0.9908329248428345
,group,0.9906431436538696
,woman,0.9882097244262695
,portrait,0.9866286516189575
,education,0.9822696447372437
,school,0.9714020490646362
,facial expression,0.9670177698135376
,university,0.9623509645462036
,student,0.9567588567733765
,accomplishment,0.945597231388092
,togetherness,0.9422729015350342
,adult,0.9421993494033813
,people,0.9415954351425171
,three,0.9380351305007935
,happiness,0.9339243173599243
,friendship,0.9252158403396606
,laughing,0.9030961990356445
,indoors,0.9029296040534973
,business,0.8969645500183105
https://scontent.cdninstagram.com/t51.2885-15/e35/13248835_1749016985382201_881983287_n.jpg?ig_cache_key=MTI1MDUxNzkxMzIwMDc1NjUyMw%3D%3D.2,adult,0.9822998046875
,woman,0.9767456650733948
,man,0.9708417057991028
,business,0.9685581922531128
,people,0.9684060215950012
,happiness,0.9600919485092163
,portrait,0.9587844610214233
,togetherness,0.9577561616897583
,facial expression,0.9530197381973267
,two,0.9337286949157715
,employee,0.9269990921020508
,indoors,0.9249811172485352
,airport,0.9143973588943481
,wear,0.9013103246688843
,luggage,0.8938782215118408
,office,0.8933870792388916
,group,0.8929965496063232
,interaction,0.8778811693191528
,telephone,0.8746612071990967
,girl,0.8672366142272949
https://scontent.cdninstagram.com/t51.2885-15/e35/13249740_1541590496147413_1563687020_n.jpg?ig_cache_key=MTI1NDQ4MDkyNjcxMDY5NTI5NA%3D%3D.2,eyeglasses,0.994910478591919
,eyewear,0.9908329248428345
,group,0.9906431436538696
,woman,0.9882097244262695
,portrait,0.9866286516189575
,education,0.9822696447372437
,school,0.9714020490646362
,facial expression,0.9670177698135376
,university,0.9623509645462036
,student,0.9567588567733765
,accomplishment,0.945597231388092
,togetherness,0.9422729015350342
,adult,0.9421993494033813
,people,0.9415954351425171
,three,0.9380351305007935
,happiness,0.9339243173599243
,friendship,0.9252158403396606
,laughing,0.9030961990356445
,indoors,0.9029296040534973
,business,0.8969645500183105
https://scontent.cdninstagram.com/t51.2885-15/e35/13256852_1783868971847387_565461002_n.jpg?ig_cache_key=MTI1MDg2NzUwODc4MzA4ODk5MQ%3D%3D.2,people,0.986918568611145
,group,0.9783457517623901
,portrait,0.9560306072235107
,woman,0.9546948671340942
,festival,0.9544981718063354
,adult,0.9369961023330688
,wear,0.914311408996582
,music,0.9142011404037476
,man,0.9126856923103333
,education,0.875231146812439
,facial expression,0.8707700967788696
,street,0.866054892539978
,enjoyment,0.8653833866119385
,group,0.8583391904830933
,two,0.855277419090271
,business,0.8494504690170288
,interaction,0.8483218550682068
,school,0.8467272520065308
,fame,0.8449711203575134
,musician,0.8382492661476135
https://scontent.cdninstagram.com/t51.2885-15/e35/13102369_553498684822349_1647160249_n.jpg?ig_cache_key=MTI0OTMyMjM0OTM2ODk2ODMxMA%3D%3D.2,indoors,0.9930158853530884
,man,0.9667930006980896
,people,0.9611217975616455
,business,0.9609986543655396
,woman,0.9261064529418945
,telephone,0.9177112579345703
,contemporary,0.9109238386154175
,adult,0.9055253267288208
,connection,0.8675948977470398
,room,0.8637098073959351
,mirror,0.8556928038597107
,portrait,0.8453332185745239
,family,0.8188428282737732
,office,0.8133459091186523
,looking,0.8119235038757324
,convenience,0.8084328174591064
,modern,0.8079783916473389
,hallway,0.7997140884399414
,side view,0.7969924211502075
,light,0.7891916036605835
https://scontent.cdninstagram.com/l/t51.2885-15/e35/13167172_1818459248375613_2078941157_n.jpg?ig_cache_key=MTI1NDMxNjE1MzM2OTAwMzc5NA%3D%3D.2,museum,0.9963970184326172
,album,0.9952027201652527
,exhibition,0.9922307729721069
,moment,0.9881511926651001
,people,0.9842416644096375
,illustration,0.9826651811599731
,picture frame,0.982516884803772
,group,0.9814862012863159
,painting,0.9773508310317993
,margin,0.9765313863754272
,card,0.9765094518661499
,technology,0.9727909564971924
,print,0.9710225462913513
,no person,0.9671834707260132
,blank,0.9633660316467285
,telephone,0.9573692083358765
,man,0.9567000865936279
,screen,0.9556635618209839
,art,0.9538884162902832
,recreation,0.9533728361129761
https://scontent.cdninstagram.com/t51.2885-15/e35/13129320_2005871856304809_1612868063_n.jpg?ig_cache_key=MTI0NzIwODY4NTYwMjA4MDY5Nw%3D%3D.2,woman,0.9717179536819458
,fun,0.9704571962356567
,dog,0.969935417175293
,people,0.9583631753921509
,outdoors,0.9551024436950684
,portrait,0.9399720430374146
,one,0.9387996196746826
,leisure,0.9358557462692261
,recreation,0.9353638291358948
,young,0.9352338314056396
,love,0.9266108870506287
,competition,0.9220620393753052
,two,0.9213153123855591
,child,0.9069440364837646
,adult,0.9032873511314392
,music,0.8895799517631531
,fashion,0.8891345858573914
,friendship,0.8860936164855957
,wear,0.8856778144836426
,motion,0.8838253021240234
https://scontent.cdninstagram.com/t51.2885-15/e35/13259609_988945871219449_1436172614_n.jpg?ig_cache_key=MTI1NDIxMzEzNDI1ODI3NTU2OA%3D%3D.2,group,0.9795986413955688
,friendship,0.9763746857643127
,group,0.9697361588478088
,multicultural,0.9658560752868652
,woman,0.9656074047088623
,student,0.9640907645225525
,portrait,0.9616776704788208
,adolescent,0.9611866474151611
,people,0.9595208168029785
,squad,0.9484298229217529
,school,0.9431501626968384
,child,0.9425520300865173
,four,0.9336366057395935
,recreation,0.9196023941040039
,competition,0.9195767641067505
,man,0.9162344932556152
,fun,0.9133840203285217
,togetherness,0.8976516723632812
,teamwork,0.8888611197471619
,three,0.8879449963569641
https://scontent.cdninstagram.com/t51.2885-15/e35/13259609_988945871219449_1436172614_n.jpg?ig_cache_key=MTI1NDIxMzEzNDI1ODI3NTU2OA%3D%3D.2,group,0.9795986413955688
,friendship,0.9763746857643127
,group,0.9697361588478088
,multicultural,0.9658560752868652
,woman,0.9656074047088623
,student,0.9640907645225525
,portrait,0.9616776704788208
,adolescent,0.9611866474151611
,people,0.9595208168029785
,squad,0.9484298229217529
,school,0.9431501626968384
,child,0.9425520300865173
,four,0.9336366057395935
,recreation,0.9196023941040039
,competition,0.9195767641067505
,man,0.9162344932556152
,fun,0.9133840203285217
,togetherness,0.8976516723632812
,teamwork,0.8888611197471619
,three,0.8879449963569641
https://scontent.cdninstagram.com/t51.2885-15/e35/13183349_967513606689975_1837982922_n.jpg?ig_cache_key=MTI0OTA3NTEyMDkxNzk3MjQ0NQ%3D%3D.2,woman,0.9926190376281738
,two,0.9845134019851685
,love,0.9794113636016846
,portrait,0.9780539274215698
,happiness,0.9762560129165649
,adult,0.974601149559021
,lifestyle,0.9702416062355042
,girl,0.9688044190406799
,people,0.9640440940856934
,togetherness,0.9601507186889648
,wear,0.9600614309310913
,outdoors,0.9582046270370483
,young,0.9580367803573608
,man,0.943752646446228
,adolescent,0.9436328411102295
,fun,0.9388048648834229
,joy,0.9383183717727661
,fashion,0.93561851978302
,leisure,0.9337420463562012
,family,0.9325014352798462
https://scontent.cdninstagram.com/t51.2885-15/e35/13150892_1087819481289517_814783895_n.jpg?ig_cache_key=MTI0NjE4MTUzNTU0OTc1Mjc1Mw%3D%3D.2,people,0.9771153330802917
,man,0.9612866640090942
,ceremony,0.9599868059158325
,two,0.9595866203308105
,accomplishment,0.9581089615821838
,adult,0.9523804187774658
,education,0.9450807571411133
,woman,0.942197859287262
,wear,0.931674063205719
,school,0.921125054359436
,business,0.9206293821334839
,portrait,0.9070067405700684
,celebration,0.8988237977027893
,happiness,0.892778754234314
,group,0.8682963848114014
,graduation,0.8531148433685303
,love,0.846649169921875
,success,0.840011715888977
,togetherness,0.8341799974441528
,competition,0.827010989189148
https://scontent.cdninstagram.com/t51.2885-15/e35/13395093_1549862811986366_1925970437_n.jpg?ig_cache_key=MTI3NTQ0NTk0NjExODMwODk5Ng%3D%3D.2,people,0.9876508712768555
,competition,0.9840505719184875
,man,0.9773001670837402
,athlete,0.9684031009674072
,vehicle,0.9384082555770874
,group,0.9342988133430481
,adult,0.9160927534103394
,bike,0.9079240560531616
,recreation,0.9037285447120667
,wear,0.9029421210289001
,many,0.9009287357330322
,group,0.9006021022796631
,championship,0.8967505693435669
,sport,0.895728588104248
,race,0.8831939697265625
,race,0.8784667253494263
,festival,0.8768613338470459
,helmet,0.8762063980102539
,city,0.8757950663566589
,squad,0.8606359958648682
https://scontent.cdninstagram.com/t51.2885-15/e35/13181539_293198301012025_1182389424_n.jpg?ig_cache_key=MTI1MDEzODkxNjE1OTc1MTk5NQ%3D%3D.2,group,0.9870214462280273
,people,0.9744623303413391
,wear,0.9703177213668823
,adult,0.9567018151283264
,woman,0.9556241631507874
,man,0.9534240961074829
,many,0.9282515048980713
,group,0.9222102761268616
,portrait,0.919140636920929
,facial expression,0.9107228517532349
,school,0.8862909078598022
,education,0.8785967826843262
,music,0.8618878126144409
,room,0.8618775606155396
,exhibition,0.8454868793487549
,child,0.8373491764068604
,recreation,0.8300590515136719
,enjoyment,0.829306423664093
,leader,0.8255369663238525
,furniture,0.8236557245254517
https://scontent.cdninstagram.com/t51.2885-15/e35/13109114_1064109516968110_568311143_n.jpg?ig_cache_key=MTIzOTI0NzUwNDA5MDMzNDYxNQ%3D%3D.2,group,0.9910756349563599
,man,0.9839444160461426
,woman,0.9824141263961792
,adult,0.9735227823257446
,group,0.9734553098678589
,people,0.9722914099693298
,teamwork,0.9519063830375671
,wear,0.9342465996742249
,indoors,0.9268436431884766
,facial expression,0.9109989404678345
,three,0.9046900272369385
,cooperation,0.9017665386199951
,business,0.9016050100326538
,portrait,0.8954600095748901
,togetherness,0.8863072395324707
,enjoyment,0.8689607381820679
,happiness,0.8676501512527466
,education,0.862277626991272
,four,0.8543282747268677
,commerce,0.8467296361923218
https://scontent.cdninstagram.com/t51.2885-15/s750x750/sh0.08/e35/12965771_1721135878142866_396253855_n.jpg?ig_cache_key=MTIzODM1NDQ5MDgyNDMyODI1Mw%3D%3D.2,people,0.9906226396560669
,man,0.9868319034576416
,portrait,0.9851100444793701
,adult,0.9625355005264282
,facial expression,0.9516372084617615
,woman,0.9415088891983032
,eyeglasses,0.9362634420394897
,outdoors,0.9302607774734497
,wear,0.9203198552131653
,one,0.9051618576049805
,leisure,0.9037335515022278
,adolescent,0.900933027267456
,boy,0.8779036998748779
,fun,0.8639347553253174
,eyewear,0.8514730930328369
,young,0.8492547273635864
,recreation,0.8427080512046814
,lifestyle,0.8423755168914795
,fashion,0.8373898267745972
,enjoyment,0.8257410526275635
https://scontent.cdninstagram.com/t51.2885-15/s750x750/sh0.08/e35/12965136_1593722420942375_475601161_n.jpg?ig_cache_key=MTIzNzc2MjE3NjAyMDEyMTE5OQ%3D%3D.2,woman,0.9948152899742126
,girl,0.9909543991088867
,portrait,0.9890618324279785
,people,0.988355278968811
,adult,0.9717596769332886
,indoors,0.9641391634941101
,happiness,0.9577838182449341
,brunette,0.9483081698417664
,eyeglasses,0.9469653367996216
,beautiful,0.9367344975471497
,smile,0.9342113137245178
,lifestyle,0.9241831302642822
,two,0.9179843664169312
,love,0.9028364419937134
,adolescent,0.8905758857727051
,young,0.8875014185905457
,pretty,0.8805626630783081
,model,0.8747467994689941
,fun,0.871392011642456
,togetherness,0.8637014627456665
https://scontent.cdninstagram.com/t51.2885-15/s750x750/sh0.08/e35/12965136_1593722420942375_475601161_n.jpg?ig_cache_key=MTIzNzc2MjE3NjAyMDEyMTE5OQ%3D%3D.2,woman,0.9948152899742126
,girl,0.9909543991088867
,portrait,0.9890618324279785
,people,0.988355278968811
,adult,0.9717596769332886
,indoors,0.9641391634941101
,happiness,0.9577838182449341
,brunette,0.9483081698417664
,eyeglasses,0.9469653367996216
,beautiful,0.9367344975471497
,smile,0.9342113137245178
,lifestyle,0.9241831302642822
,two,0.9179843664169312
,love,0.9028364419937134
,adolescent,0.8905758857727051
,young,0.8875014185905457
,pretty,0.8805626630783081
,model,0.8747467994689941
,fun,0.871392011642456
,togetherness,0.8637014627456665
https://scontent.cdninstagram.com/t51.2885-15/e35/13422970_1035794103168264_642520137_n.jpg?ig_cache_key=MTI2ODIyMDI4MzIwMDIxMDQ5Mg%3D%3D.2,people,0.9830767512321472
,group,0.9795074462890625
,woman,0.9728562831878662
,adult,0.9674625396728516
,school,0.9276974201202393
,education,0.9222866296768188
,wear,0.9094943404197693
,man,0.902147650718689
,many,0.8915672302246094
,child,0.8441976308822632
,fashion,0.8348762392997742
,motion,0.8252159357070923
,music,0.8204752206802368
,model,0.8084866404533386
,group,0.7972403764724731
,offense,0.7843980193138123
,exhibition,0.7840235829353333
,business,0.778387188911438
,military,0.7713034152984619
,festival,0.7446984052658081
https://scontent.cdninstagram.com/t51.2885-15/e35/13092499_1046880915350387_592917360_n.jpg?ig_cache_key=MTIzOTI2MDI2MDk4MjA2NTAxOQ%3D%3D.2,woman,0.994452178478241
,girl,0.9571650624275208
,people,0.9567867517471313
,young,0.9481527805328369
,business,0.941434383392334
,portrait,0.930274486541748
,adult,0.9169703722000122
,smile,0.9113900661468506
,eyeglasses,0.8958308100700378
,pretty,0.8942828178405762
,indoors,0.8918676376342773
,office,0.8908324241638184
,beautiful,0.8861098289489746
,technology,0.8748564720153809
,person,0.8599323034286499
,man,0.8587430715560913
,fun,0.8525089025497437
,fashion,0.8502779006958008
,attractive,0.8363766670227051
,lady,0.8337291479110718
https://scontent.cdninstagram.com/t51.2885-15/e35/13130029_944158269016163_1839180656_n.jpg?ig_cache_key=MTI0NDE2MTg2Mjk4OTc3NTg3Ng%3D%3D.2,woman,0.9836949110031128
,accomplishment,0.9649912118911743
,man,0.9456698894500732
,multicultural,0.9424081444740295
,success,0.9418999552726746
,graduation,0.9397112131118774
,education,0.9339711666107178
,indoors,0.9312502145767212
,people,0.9265775084495544
,business,0.9237178564071655
,togetherness,0.9170751571655273
,intelligence,0.9119043350219727
,ceremony,0.9043293595314026
,student,0.8995984792709351
,looking,0.894123911857605
,two,0.8906376361846924
,success,0.8883616924285889
,adult,0.8734941482543945
,diploma,0.8639636039733887
,contemporary,0.860954999923706
https://scontent.cdninstagram.com/t51.2885-15/e35/13108974_1750731548538174_947790409_n.jpg?ig_cache_key=MTI2NjYyOTAwMTkyNzQ2MDY5NQ%3D%3D.2,portrait,0.9854419827461243
,people,0.9662200212478638
,man,0.9596956968307495
,adult,0.9350273609161377
,one,0.9257328510284424
,danger,0.9225304126739502
,mask,0.9045547246932983
,mask,0.8987462520599365
,face,0.8945580720901489
,scared,0.8866564035415649
,offense,0.8788942098617554
,young,0.8787143230438232
,research,0.8755800724029541
,dark,0.8749597668647766
,fashion,0.868406355381012
,indoors,0.8679839372634888
,education,0.8616299033164978
,book,0.857325553894043
,book,0.856986403465271
,person,0.8552203178405762
https://scontent.cdninstagram.com/t51.2885-15/e35/13398419_310478799283220_389584034_n.jpg?ig_cache_key=MTI2OTU5Nzg3MjU2MTA2MzU4MQ%3D%3D.2,woman,0.984839916229248
,man,0.9740893840789795
,group,0.9740163087844849
,indoors,0.9723081588745117
,group,0.957951545715332
,people,0.9575612545013428
,adult,0.9252651333808899
,friendship,0.920109748840332
,portrait,0.9194009304046631
,competition,0.8813838958740234
,girl,0.8692137002944946
,laughing,0.863084077835083
,wear,0.8520529866218567
,three,0.8509809970855713
,facial expression,0.8493485450744629
,togetherness,0.8408209085464478
,teamwork,0.8358588814735413
,four,0.8326810598373413
,enjoyment,0.830363392829895
,business,0.8255109786987305
https://scontent.cdninstagram.com/t51.2885-15/s750x750/sh0.08/e35/13118068_1123232864404956_1736861315_n.jpg?ig_cache_key=MTIzODI3MzM4NTQwMDEwODM3OQ%3D%3D.2,woman,0.9809427261352539
,man,0.9741101264953613
,togetherness,0.9588180184364319
,love,0.9410531520843506
,student,0.935778796672821
,family,0.9336508512496948
,people,0.9274061918258667
,adolescent,0.9257749915122986
,fun,0.9192167520523071
,friendship,0.9031069278717041
,child,0.884150505065918
,portrait,0.8815752267837524
,laughing,0.878136157989502
,relaxation,0.8607417345046997
,group,0.8517591953277588
,girl,0.8450278043746948
,affection,0.8314873576164246
,leisure,0.8303898572921753
,joy,0.8241459727287292
,indoors,0.8127522468566895
https://scontent.cdninstagram.com/t51.2885-15/e35/13116805_1743768939172410_1581901438_n.jpg?ig_cache_key=MTIzOTI2MDkxODY4MjQ4NjY3OA%3D%3D.2,woman,0.9867811799049377
,group,0.9845364093780518
,people,0.9789408445358276
,adult,0.9719497561454773
,man,0.9707661867141724
,togetherness,0.9702574610710144
,indoors,0.9673446416854858
,interaction,0.9673041701316833
,three,0.9655182361602783
,family,0.95975661277771
,facial expression,0.9573900103569031
,child,0.9569271802902222
,four,0.9528162479400635
,battle,0.9417518377304077
,room,0.9406444430351257
,wear,0.9210357666015625
,two,0.9164955615997314
,enjoyment,0.9030352830886841
,five,0.9011372327804565
,offspring,0.8888663053512573
https://scontent.cdninstagram.com/t51.2885-15/s750x750/sh0.08/e35/13118068_1123232864404956_1736861315_n.jpg?ig_cache_key=MTIzODI3MzM4NTQwMDEwODM3OQ%3D%3D.2,woman,0.9809427261352539
,man,0.9741101264953613
,togetherness,0.9588180184364319
,love,0.9410531520843506
,student,0.935778796672821
,family,0.9336508512496948
,people,0.9274061918258667
,adolescent,0.9257749915122986
,fun,0.9192167520523071
,friendship,0.9031069278717041
,child,0.884150505065918
,portrait,0.8815752267837524
,laughing,0.878136157989502
,relaxation,0.8607417345046997
,group,0.8517591953277588
,girl,0.8450278043746948
,affection,0.8314873576164246
,leisure,0.8303898572921753
,joy,0.8241459727287292
,indoors,0.8127522468566895
https://scontent.cdninstagram.com/t51.2885-15/e35/13129172_1595387647443096_1572777694_n.jpg?ig_cache_key=MTI0MzU2OTI1NDg0NDMzNTg0Nw%3D%3D.2,people,0.9873921871185303
,many,0.9748057723045349
,crowd,0.9740883111953735
,festival,0.9693618416786194
,group,0.9655777215957642
,competition,0.9376590251922607
,performance,0.9367580413818359
,celebration,0.9350311756134033
,music,0.9328092336654663
,woman,0.9174462556838989
,man,0.9110613465309143
,sports fan,0.9032546877861023
,wear,0.8988822102546692
,party,0.8639098405838013
,adult,0.8512682914733887
,group,0.8344510197639465
,audience,0.8299980163574219
,dancing,0.8247624635696411
,concert,0.8237163424491882
,parade,0.8132875561714172
https://scontent.cdninstagram.com/t51.2885-15/e35/13109114_1064109516968110_568311143_n.jpg?ig_cache_key=MTIzOTI0NzUwNDA5MDMzNDYxNQ%3D%3D.2,group,0.9910756349563599
,man,0.9839444160461426
,woman,0.9824141263961792
,adult,0.9735227823257446
,group,0.9734553098678589
,people,0.9722914099693298
,teamwork,0.9519063830375671
,wear,0.9342465996742249
,indoors,0.9268436431884766
,facial expression,0.9109989404678345
,three,0.9046900272369385
,cooperation,0.9017665386199951
,business,0.9016050100326538
,portrait,0.8954600095748901
,togetherness,0.8863072395324707
,enjoyment,0.8689607381820679
,happiness,0.8676501512527466
,education,0.862277626991272
,four,0.8543282747268677
,commerce,0.8467296361923218
https://scontent.cdninstagram.com/t51.2885-15/s750x750/sh0.08/e35/12960092_231085603923375_687131938_n.jpg?ig_cache_key=MTIzNjg3MzM3MDY0NzY2MDE5NA%3D%3D.2,woman,0.991049587726593
,people,0.966185450553894
,business,0.9561417102813721
,education,0.9523462653160095
,outdoors,0.9391946196556091
,connection,0.9259491562843323
,sit,0.9256640076637268
,adult,0.9215653538703918
,portrait,0.9177975654602051
,technology,0.9036688804626465
,internet,0.8854880332946777
,looking,0.8838936686515808
,one,0.8804965615272522
,computer,0.8788783550262451
,leisure,0.8769861459732056
,laptop,0.8675515651702881
,girl,0.8628984689712524
,young,0.8619486093521118
,enjoyment,0.8526474237442017
,wireless,0.848209798336029
https://scontent.cdninstagram.com/t51.2885-15/e35/13108974_1750731548538174_947790409_n.jpg?ig_cache_key=MTI2NjYyOTAwMTkyNzQ2MDY5NQ%3D%3D.2,portrait,0.9854419827461243
,people,0.9662200212478638
,man,0.9596956968307495
,adult,0.9350273609161377
,one,0.9257328510284424
,danger,0.9225304126739502
,mask,0.9045547246932983
,mask,0.8987462520599365
,face,0.8945580720901489
,scared,0.8866564035415649
,offense,0.8788942098617554
,young,0.8787143230438232
,research,0.8755800724029541
,dark,0.8749597668647766
,fashion,0.868406355381012
,indoors,0.8679839372634888
,education,0.8616299033164978
,book,0.857325553894043
,book,0.856986403465271
,person,0.8552203178405762
https://scontent.cdninstagram.com/t51.2885-15/e35/13108689_1689012724683410_1835360653_n.jpg?ig_cache_key=MTIzOTI2MzcyNzA2MjYxNjA1OQ%3D%3D.2,tree,0.9978688955307007
,park,0.9933132529258728
,nature,0.9920880794525146
,beautiful,0.992085337638855
,wood,0.990935742855072
,girl,0.9854645729064941
,portrait,0.9850428104400635
,outdoors,0.9762251377105713
,one,0.9713555574417114
,people,0.9705434441566467
,summer,0.9629709124565125
,person,0.9555493593215942
,smile,0.9515899419784546
,outside,0.9465326070785522
,hair,0.9454587697982788
,adult,0.9409290552139282
,face,0.9382266402244568
,woman,0.9365110993385315
,young,0.9337744116783142
,lifestyle,0.9337015151977539
https://scontent.cdninstagram.com/t51.2885-15/e35/13398461_305016813165927_1511561739_n.jpg?ig_cache_key=MTI3MDg4NDA4NTg5NzEwMzExMg%3D%3D.2,people,0.9820338487625122
,man,0.9767508506774902
,woman,0.9719699025154114
,wear,0.9688642024993896
,portrait,0.9680874347686768
,outdoors,0.9680798053741455
,military,0.9641758799552917
,adult,0.9569034576416016
,togetherness,0.9396136999130249
,two,0.9195719361305237
,happiness,0.9114460945129395
,army,0.8892656564712524
,group,0.8856347799301147
,facial expression,0.8639074563980103
,uniform,0.83536297082901
,family,0.8254626989364624
,soldier,0.8058711290359497
,friendship,0.7975091338157654
,enjoyment,0.7962534427642822
,daylight,0.7908638715744019
https://scontent.cdninstagram.com/t51.2885-15/e35/13422970_1035794103168264_642520137_n.jpg?ig_cache_key=MTI2ODIyMDI4MzIwMDIxMDQ5Mg%3D%3D.2,people,0.9830767512321472
,group,0.9795074462890625
,woman,0.9728562831878662
,adult,0.9674625396728516
,school,0.9276974201202393
,education,0.9222866296768188
,wear,0.9094943404197693
,man,0.902147650718689
,many,0.8915672302246094
,child,0.8441976308822632
,fashion,0.8348762392997742
,motion,0.8252159357070923
,music,0.8204752206802368
,model,0.8084866404533386
,group,0.7972403764724731
,offense,0.7843980193138123
,exhibition,0.7840235829353333
,business,0.778387188911438
,military,0.7713034152984619
,festival,0.7446984052658081
https://scontent.cdninstagram.com/t51.2885-15/e35/13102509_284758621855384_688513590_n.jpg?ig_cache_key=MTIzNzc2NDI3MzY4MzgyNjM2MA%3D%3D.2,group,0.9980748295783997
,group,0.9953351020812988
,friendship,0.9931033849716187
,togetherness,0.9786525964736938
,four,0.9769953489303589
,student,0.9756112098693848
,man,0.9729127883911133
,woman,0.968783974647522
,people,0.9596302509307861
,laughing,0.9506311416625977
,three,0.9433339834213257
,facial expression,0.9421621561050415
,unity,0.9398370981216431
,multicultural,0.9341827034950256
,adolescent,0.9326714277267456
,happiness,0.9311456680297852
,portrait,0.9276648759841919
,squad,0.9261151552200317
,fun,0.9179458618164062
,adult,0.9097506999969482
https://scontent.cdninstagram.com/t51.2885-15/s750x750/sh0.08/e35/12965771_1721135878142866_396253855_n.jpg?ig_cache_key=MTIzODM1NDQ5MDgyNDMyODI1Mw%3D%3D.2,people,0.9906226396560669
,man,0.9868319034576416
,portrait,0.9851100444793701
,adult,0.9625355005264282
,facial expression,0.9516372084617615
,woman,0.9415088891983032
,eyeglasses,0.9362634420394897
,outdoors,0.9302607774734497
,wear,0.9203198552131653
,one,0.9051618576049805
,leisure,0.9037335515022278
,adolescent,0.900933027267456
,boy,0.8779036998748779
,fun,0.8639347553253174
,eyewear,0.8514730930328369
,young,0.8492547273635864
,recreation,0.8427080512046814
,lifestyle,0.8423755168914795
,fashion,0.8373898267745972
,enjoyment,0.8257410526275635
https://scontent.cdninstagram.com/t51.2885-15/e35/13398419_310478799283220_389584034_n.jpg?ig_cache_key=MTI2OTU5Nzg3MjU2MTA2MzU4MQ%3D%3D.2,woman,0.984839916229248
,man,0.9740893840789795
,group,0.9740163087844849
,indoors,0.9723081588745117
,group,0.957951545715332
,people,0.9575612545013428
,adult,0.9252651333808899
,friendship,0.920109748840332
,portrait,0.9194009304046631
,competition,0.8813838958740234
,girl,0.8692137002944946
,laughing,0.863084077835083
,wear,0.8520529866218567
,three,0.8509809970855713
,facial expression,0.8493485450744629
,togetherness,0.8408209085464478
,teamwork,0.8358588814735413
,four,0.8326810598373413
,enjoyment,0.830363392829895
,business,0.8255109786987305
https://scontent.cdninstagram.com/t51.2885-15/s480x480/e35/13116566_1683818965202410_2019481463_n.jpg?ig_cache_key=MTI0MTQyMDM0NDY1NDgyNDQ3Nw%3D%3D.2,people,0.9762998819351196
,woman,0.9714264273643494
,portrait,0.9475874900817871
,togetherness,0.9403753876686096
,man,0.9400516152381897
,adult,0.9365943670272827
,girl,0.9279590249061584
,young,0.9167307615280151
,outdoors,0.9150581955909729
,lifestyle,0.9058023691177368
,happiness,0.9040102958679199
,friendship,0.9024378061294556
,two,0.8879463076591492
,fun,0.8844965696334839
,group,0.8766281604766846
,leisure,0.848179280757904
,family,0.8424070477485657
,love,0.8390227556228638
,education,0.8361700773239136
,facial expression,0.8110808730125427
https://scontent.cdninstagram.com/t51.2885-15/s750x750/sh0.08/e35/12960092_231085603923375_687131938_n.jpg?ig_cache_key=MTIzNjg3MzM3MDY0NzY2MDE5NA%3D%3D.2,woman,0.991049587726593
,people,0.966185450553894
,business,0.9561417102813721
,education,0.9523462653160095
,outdoors,0.9391946196556091
,connection,0.9259491562843323
,sit,0.9256640076637268
,adult,0.9215653538703918
,portrait,0.9177975654602051
,technology,0.9036688804626465
,internet,0.8854880332946777
,looking,0.8838936686515808
,one,0.8804965615272522
,computer,0.8788783550262451
,leisure,0.8769861459732056
,laptop,0.8675515651702881
,girl,0.8628984689712524
,young,0.8619486093521118
,enjoyment,0.8526474237442017
,wireless,0.848209798336029
https://scontent.cdninstagram.com/t51.2885-15/e35/13116805_1743768939172410_1581901438_n.jpg?ig_cache_key=MTIzOTI2MDkxODY4MjQ4NjY3OA%3D%3D.2,woman,0.9867811799049377
,group,0.9845364093780518
,people,0.9789408445358276
,adult,0.9719497561454773
,man,0.9707661867141724
,togetherness,0.9702574610710144
,indoors,0.9673446416854858
,interaction,0.9673041701316833
,three,0.9655182361602783
,family,0.95975661277771
,facial expression,0.9573900103569031
,child,0.9569271802902222
,four,0.9528162479400635
,battle,0.9417518377304077
,room,0.9406444430351257
,wear,0.9210357666015625
,two,0.9164955615997314
,enjoyment,0.9030352830886841
,five,0.9011372327804565
,offspring,0.8888663053512573
https://scontent.cdninstagram.com/t51.2885-15/s480x480/e35/13116566_1683818965202410_2019481463_n.jpg?ig_cache_key=MTI0MTQyMDM0NDY1NDgyNDQ3Nw%3D%3D.2,people,0.9762998819351196
,woman,0.9714264273643494
,portrait,0.9475874900817871
,togetherness,0.9403753876686096
,man,0.9400516152381897
,adult,0.9365943670272827
,girl,0.9279590249061584
,young,0.9167307615280151
,outdoors,0.9150581955909729
,lifestyle,0.9058023691177368
,happiness,0.9040102958679199
,friendship,0.9024378061294556
,two,0.8879463076591492
,fun,0.8844965696334839
,group,0.8766281604766846
,leisure,0.848179280757904
,family,0.8424070477485657
,love,0.8390227556228638
,education,0.8361700773239136
,facial expression,0.8110808730125427
https://scontent.cdninstagram.com/t51.2885-15/e35/13398461_305016813165927_1511561739_n.jpg?ig_cache_key=MTI3MDg4NDA4NTg5NzEwMzExMg%3D%3D.2,people,0.9820338487625122
,man,0.9767508506774902
,woman,0.9719699025154114
,wear,0.9688642024993896
,portrait,0.9680874347686768
,outdoors,0.9680798053741455
,military,0.9641758799552917
,adult,0.9569034576416016
,togetherness,0.9396136999130249
,two,0.9195719361305237
,happiness,0.9114460945129395
,army,0.8892656564712524
,group,0.8856347799301147
,facial expression,0.8639074563980103
,uniform,0.83536297082901
,family,0.8254626989364624
,soldier,0.8058711290359497
,friendship,0.7975091338157654
,enjoyment,0.7962534427642822
,daylight,0.7908638715744019
https://scontent.cdninstagram.com/t51.2885-15/e35/13102509_284758621855384_688513590_n.jpg?ig_cache_key=MTIzNzc2NDI3MzY4MzgyNjM2MA%3D%3D.2,group,0.9980748295783997
,group,0.9953351020812988
,friendship,0.9931033849716187
,togetherness,0.9786525964736938
,four,0.9769953489303589
,student,0.9756112098693848
,man,0.9729127883911133
,woman,0.968783974647522
,people,0.9596302509307861
,laughing,0.9506311416625977
,three,0.9433339834213257
,facial expression,0.9421621561050415
,unity,0.9398370981216431
,multicultural,0.9341827034950256
,adolescent,0.9326714277267456
,happiness,0.9311456680297852
,portrait,0.9276648759841919
,squad,0.9261151552200317
,fun,0.9179458618164062
,adult,0.9097506999969482
https://scontent.cdninstagram.com/t51.2885-15/e35/13130029_944158269016163_1839180656_n.jpg?ig_cache_key=MTI0NDE2MTg2Mjk4OTc3NTg3Ng%3D%3D.2,woman,0.9836949110031128
,accomplishment,0.9649912118911743
,man,0.9456698894500732
,multicultural,0.9424081444740295
,success,0.9418999552726746
,graduation,0.9397112131118774
,education,0.9339711666107178
,indoors,0.9312502145767212
,people,0.9265775084495544
,business,0.9237178564071655
,togetherness,0.9170751571655273
,intelligence,0.9119043350219727
,ceremony,0.9043293595314026
,student,0.8995984792709351
,looking,0.894123911857605
,two,0.8906376361846924
,success,0.8883616924285889
,adult,0.8734941482543945
,diploma,0.8639636039733887
,contemporary,0.860954999923706
https://scontent.cdninstagram.com/t51.2885-15/e35/13166706_1060217344058533_1921398888_n.jpg?ig_cache_key=MTI0NjAyNDgwMzE1MDIwMTk5Ng%3D%3D.2,child,0.9957230091094971
,people,0.9838468432426453
,fun,0.9748066663742065
,group,0.9744089245796204
,graffiti,0.9542897939682007
,enjoyment,0.9253727197647095
,woman,0.925247073173523
,boy,0.9239997863769531
,outdoors,0.9055075645446777
,recreation,0.895140528678894
,festival,0.8917325735092163
,adult,0.888717532157898
,youth,0.8870015144348145
,girl,0.8845922946929932
,man,0.8843662738800049
,street,0.8726940751075745
,lifestyle,0.8612857460975647
,facial expression,0.860400915145874
,motion,0.854918360710144
,leisure,0.8497887849807739
https://scontent.cdninstagram.com/t51.2885-15/e35/13102325_577162709118117_1645278228_n.jpg?ig_cache_key=MTIzOTk5NTE1NTMwMzg5MjUyMQ%3D%3D.2,crowd,0.9852404594421387
,stage,0.9842599630355835
,people,0.976151168346405
,show,0.9760404825210571
,performance,0.9723217487335205
,music,0.9717267751693726
,audience,0.9679149389266968
,many,0.9582382440567017
,event,0.9530764818191528
,concert,0.9523847699165344
,group,0.9218527674674988
,band,0.9215927720069885
,theater,0.9214686155319214
,man,0.9103195667266846
,festival,0.8997842669487
,dancing,0.8802684545516968
,woman,0.8760462403297424
,ceremony,0.8693578243255615
,celebration,0.8574097156524658
,flag,0.8339552283287048
https://scontent.cdninstagram.com/t51.2885-15/e35/13126738_838339289603569_698344561_n.jpg?ig_cache_key=MTIzOTk5MTMxNDY1NTIxNzAzMQ%3D%3D.2,girl,0.9924632906913757
,beautiful,0.982258677482605
,people,0.9818437099456787
,portrait,0.9817657470703125
,woman,0.9695566892623901
,brunette,0.9530395865440369
,young,0.9487401247024536
,one,0.9367763996124268
,hair,0.9284701347351074
,person,0.925400972366333
,adult,0.9237725734710693
,pretty,0.9203431606292725
,model,0.9059274196624756
,happiness,0.9023570418357849
,smile,0.9016063213348389
,face,0.8994443416595459
,bed,0.8993639945983887
,cute,0.8944344520568848
,fashion,0.8923146724700928
,lifestyle,0.8906373977661133
https://scontent.cdninstagram.com/t51.2885-15/e35/13129172_1595387647443096_1572777694_n.jpg?ig_cache_key=MTI0MzU2OTI1NDg0NDMzNTg0Nw%3D%3D.2,people,0.9873921871185303
,many,0.9748057723045349
,crowd,0.9740883111953735
,festival,0.9693618416786194
,group,0.9655777215957642
,competition,0.9376590251922607
,performance,0.9367580413818359
,celebration,0.9350311756134033
,music,0.9328092336654663
,woman,0.9174462556838989
,man,0.9110613465309143
,sports fan,0.9032546877861023
,wear,0.8988822102546692
,party,0.8639098405838013
,adult,0.8512682914733887
,group,0.8344510197639465
,audience,0.8299980163574219
,dancing,0.8247624635696411
,concert,0.8237163424491882
,parade,0.8132875561714172
https://scontent.cdninstagram.com/t51.2885-15/s750x750/sh0.08/e35/12446278_500444966814552_447199906_n.jpg?ig_cache_key=MTI0MzM0ODgxNTI0NTIxNTU1Mw%3D%3D.2,child,0.9807966947555542
,woman,0.9759061336517334
,people,0.9715597629547119
,friendship,0.9663424491882324
,togetherness,0.9607369899749756
,student,0.9560064077377319
,adolescent,0.9514310359954834
,fun,0.9503847360610962
,girl,0.9469518661499023
,portrait,0.9423509240150452
,facial expression,0.9145756959915161
,group,0.909355640411377
,laughing,0.9069846868515015
,three,0.9028711318969727
,adult,0.8980478644371033
,cute,0.8919411897659302
,happiness,0.8878940343856812
,man,0.8854045867919922
,education,0.87242591381073
,school,0.8640844821929932
https://scontent.cdninstagram.com/t51.2885-15/s750x750/sh0.08/e35/12446278_500444966814552_447199906_n.jpg?ig_cache_key=MTI0MzM0ODgxNTI0NTIxNTU1Mw%3D%3D.2,child,0.9807966947555542
,woman,0.9759061336517334
,people,0.9715597629547119
,friendship,0.9663424491882324
,togetherness,0.9607369899749756
,student,0.9560064077377319
,adolescent,0.9514310359954834
,fun,0.9503847360610962
,girl,0.9469518661499023
,portrait,0.9423509240150452
,facial expression,0.9145756959915161
,group,0.909355640411377
,laughing,0.9069846868515015
,three,0.9028711318969727
,adult,0.8980478644371033
,cute,0.8919411897659302
,happiness,0.8878940343856812
,man,0.8854045867919922
,education,0.87242591381073
,school,0.8640844821929932
https://scontent.cdninstagram.com/t51.2885-15/e35/13126738_838339289603569_698344561_n.jpg?ig_cache_key=MTIzOTk5MTMxNDY1NTIxNzAzMQ%3D%3D.2,girl,0.9924632906913757
,beautiful,0.982258677482605
,people,0.9818437099456787
,portrait,0.9817657470703125
,woman,0.9695566892623901
,brunette,0.9530395865440369
,young,0.9487401247024536
,one,0.9367763996124268
,hair,0.9284701347351074
,person,0.925400972366333
,adult,0.9237725734710693
,pretty,0.9203431606292725
,model,0.9059274196624756
,happiness,0.9023570418357849
,smile,0.9016063213348389
,face,0.8994443416595459
,bed,0.8993639945983887
,cute,0.8944344520568848
,fashion,0.8923146724700928
,lifestyle,0.8906373977661133
https://scontent.cdninstagram.com/t51.2885-15/e35/13102325_577162709118117_1645278228_n.jpg?ig_cache_key=MTIzOTk5NTE1NTMwMzg5MjUyMQ%3D%3D.2,crowd,0.9852404594421387
,stage,0.9842599630355835
,people,0.976151168346405
,show,0.9760404825210571
,performance,0.9723217487335205
,music,0.9717267751693726
,audience,0.9679149389266968
,many,0.9582382440567017
,event,0.9530764818191528
,concert,0.9523847699165344
,group,0.9218527674674988
,band,0.9215927720069885
,theater,0.9214686155319214
,man,0.9103195667266846
,festival,0.8997842669487
,dancing,0.8802684545516968
,woman,0.8760462403297424
,ceremony,0.8693578243255615
,celebration,0.8574097156524658
,flag,0.8339552283287048
https://scontent.cdninstagram.com/t51.2885-15/e35/13108689_1689012724683410_1835360653_n.jpg?ig_cache_key=MTIzOTI2MzcyNzA2MjYxNjA1OQ%3D%3D.2,tree,0.9978688955307007
,park,0.9933132529258728
,nature,0.9920880794525146
,beautiful,0.992085337638855
,wood,0.990935742855072
,girl,0.9854645729064941
,portrait,0.9850428104400635
,outdoors,0.9762251377105713
,one,0.9713555574417114
,people,0.9705434441566467
,summer,0.9629709124565125
,person,0.9555493593215942
,smile,0.9515899419784546
,outside,0.9465326070785522
,hair,0.9454587697982788
,adult,0.9409290552139282
,face,0.9382266402244568
,woman,0.9365110993385315
,young,0.9337744116783142
,lifestyle,0.9337015151977539
https://scontent.cdninstagram.com/t51.2885-15/e35/13092499_1046880915350387_592917360_n.jpg?ig_cache_key=MTIzOTI2MDI2MDk4MjA2NTAxOQ%3D%3D.2,woman,0.994452178478241
,girl,0.9571650624275208
,people,0.9567867517471313
,young,0.9481527805328369
,business,0.941434383392334
,portrait,0.930274486541748
,adult,0.9169703722000122
,smile,0.9113900661468506
,eyeglasses,0.8958308100700378
,pretty,0.8942828178405762
,indoors,0.8918676376342773
,office,0.8908324241638184
,beautiful,0.8861098289489746
,technology,0.8748564720153809
,person,0.8599323034286499
,man,0.8587430715560913
,fun,0.8525089025497437
,fashion,0.8502779006958008
,attractive,0.8363766670227051
,lady,0.8337291479110718
>>>>>>> origin/dev-billy-neuro
