url,class,score
https://scontent.cdninstagram.com/t51.2885-15/s640x640/e15/13473159_135205573568854_1869846365_n.jpg,rabbit,0.9981650114059448
,cute,0.9923241138458252
,bunny,0.9905765056610107
,one,0.9891954660415649
,rabbit,0.9827884435653687
,mammal,0.9814410209655762
,Easter,0.9782849550247192
,pet,0.9653405547142029
,baby,0.9643576741218567
,rodent,0.9612538814544678
,cat,0.9603086709976196
,no person,0.9561989903450012
,little,0.9526444673538208
,cage,0.9524975419044495
,portrait,0.9496407508850098
,basket,0.9329814910888672
,downy,0.9268704056739807
,funny,0.9190292358398438
,fur,0.9120044708251953
,domestic,0.9038580060005188
https://scontent.cdninstagram.com/t51.2885-15/e15/p640x640/13532004_1192583950759859_1433194296_n.jpg,woman,0.9894580841064453
,people,0.9880179166793823
,enjoyment,0.9798538684844971
,coffee,0.970852255821228
,indoors,0.9576795101165771
,food,0.9552220702171326
,one,0.9442126154899597
,adult,0.9428210258483887
,portrait,0.9348026514053345
,leisure,0.9133303165435791
,facial expression,0.9112440347671509
,relaxation,0.9032201766967773
,drink,0.895440936088562
,lifestyle,0.8928616642951965
,fun,0.8893861174583435
,happiness,0.8840477466583252
,daylight,0.8785475492477417
,cute,0.868147611618042
,tea,0.853178858757019
,cup,0.8494722843170166
https://scontent.cdninstagram.com/t51.2885-15/e35/13320306_1059818884100425_1008720712_n.jpg,people,0.9842116832733154
,stock,0.9823938608169556
,bar,0.9802989959716797
,restaurant,0.9752030372619629
,commerce,0.9589542150497437
,shopping,0.9559218287467957
,coffee,0.9491943120956421
,market,0.931665301322937
,city,0.9049508571624756
,adult,0.8977909088134766
,festival,0.8970782160758972
,wear,0.895970344543457
,shop,0.8911749124526978
,woman,0.8890820741653442
,performance,0.8573107123374939
,exhibition,0.8512632250785828
,drink,0.8353447914123535
,club,0.8323367238044739
,street,0.8302193880081177
,celebration,0.8269743323326111
https://scontent.cdninstagram.com/t51.2885-15/s750x750/sh0.08/e35/13402157_1012083938899040_2114086690_n.jpg,underwater,0.9996944665908813
,ocean,0.9936981201171875
,fish,0.9919472932815552
,coral,0.9910088777542114
,reef,0.9898794889450073
,water,0.9896986484527588
,diving,0.9873523712158203
,sea,0.9851946234703064
,swimming,0.9760425090789795
,snorkeling,0.9717060327529907
,water sports,0.966796875
,scuba,0.9592527747154236
,tropical,0.9591885805130005
,diver,0.9579561948776245
,submarine,0.9541696906089783
,invertebrate,0.9503273963928223
,marine,0.9330379962921143
,exploration,0.9152735471725464
,depth,0.9142230749130249
,nature,0.9125864505767822
https://scontent.cdninstagram.com/t51.2885-15/e35/13408872_905065832972028_1168651034_n.jpg,underwater,0.9985682964324951
,fish,0.9947859048843384
,swimming,0.9910856485366821
,water,0.9809643626213074
,tropical,0.9649996757507324
,no person,0.9531504511833191
,ocean,0.9464815855026245
,diving,0.9377342462539673
,coral,0.9326655864715576
,nature,0.9316083788871765
,sea,0.915073573589325
,snorkeling,0.9130353927612305
,reef,0.8990870714187622
,deep,0.8980860114097595
,exploration,0.8919344544410706
,wildlife,0.8797261714935303
,aquarium,0.8725261092185974
,travel,0.8656352758407593
,exotic,0.8654972314834595
,water sports,0.8590921759605408
https://scontent.cdninstagram.com/t51.2885-15/s750x750/sh0.08/e35/13437244_247558455622514_2067320183_n.jpg,music,0.9991582036018372
,guitar,0.9968731999397278
,musician,0.9967436790466309
,performance,0.9920403957366943
,instrument,0.9905394315719604
,concert,0.9843679666519165
,singer,0.9827239513397217
,guitarist,0.9816551208496094
,stringed instrument,0.9801681637763977
,people,0.9737929701805115
,woman,0.9694561958312988
,adult,0.9672569036483765
,pop,0.9595005512237549
,stage,0.9568181037902832
,band,0.9552947282791138
,two,0.9466513395309448
,acoustic guitar,0.9419496059417725
,group,0.9278345108032227
,man,0.9231536984443665
,festival,0.9209578037261963
https://scontent.cdninstagram.com/t51.2885-15/e35/13408690_541357106052398_143204885_n.jpg,monochrome,0.9980460405349731
,portrait,0.9973301291465759
,people,0.9935425519943237
,girl,0.9872293472290039
,woman,0.9702509045600891
,one,0.9674224257469177
,model,0.9574822187423706
,adult,0.9554709196090698
,sunglasses,0.9520613551139832
,fashion,0.9493688344955444
,sexy,0.9489128589630127
,eye,0.9485132694244385
,face,0.94380784034729
,hair,0.9365748167037964
,black and white,0.9294925928115845
,eyeglasses,0.9225122332572937
,bed,0.9214218854904175
,beautiful,0.9180495142936707
,eyewear,0.9091280698776245
,young,0.9041823148727417
https://scontent.cdninstagram.com/t51.2885-15/s640x640/e15/13397411_119142038511844_1999093556_n.jpg,underwater,0.9997799396514893
,fish,0.9995618462562561
,reef,0.9990711212158203
,coral,0.9990273714065552
,ocean,0.9987553358078003
,sea,0.9985717535018921
,water,0.9956213235855103
,ecosystem,0.9927213191986084
,scuba,0.9920775890350342
,marine,0.9918019771575928
,school,0.9916931390762329
,tropical,0.9903587698936462
,diving,0.9839305877685547
,saltwater,0.9829531908035278
,aquatic,0.9788801074028015
,school,0.9787720441818237
,submarine,0.9779729843139648
,seascape,0.9739655256271362
,snorkeling,0.9734344482421875
,nature,0.9698013067245483
https://scontent.cdninstagram.com/t51.2885-15/e35/13423608_1721025928161987_258806155_n.jpg,school,0.9910365343093872
,education,0.9848364591598511
,people,0.9731806516647339
,library,0.9568199515342712
,pile,0.939461350440979
,bookcase,0.9166133999824524
,man,0.9046040773391724
,shelf,0.8743587732315063
,building,0.8736156225204468
,adult,0.8719958066940308
,color,0.8678878545761108
,street,0.8659183979034424
,row,0.8637495040893555
,study,0.8627439141273499
,literature,0.8585878610610962
,knowledge,0.8508955240249634
,college,0.849848747253418
,university,0.8467215299606323
,group,0.8317504525184631
,bookstore,0.8188689351081848
https://scontent.cdninstagram.com/t51.2885-15/e35/13392789_551370971717534_395360144_n.jpg,fish,0.9920995235443115
,underwater,0.9643659591674805
,no person,0.9607021808624268
,people,0.940403938293457
,food,0.9329398274421692
,daylight,0.9313682317733765
,one,0.929629385471344
,nature,0.9203968048095703
,water,0.9186339378356934
,aquarium,0.9130620360374451
,tropical,0.8930822610855103
,sea,0.8832737803459167
,ocean,0.8821793794631958
,outdoors,0.8781416416168213
,invertebrate,0.8661073446273804
,swimming,0.8617302179336548
,color,0.855370283126831
,biology,0.8356103897094727
,exotic,0.8329344987869263
,adult,0.8126049637794495
https://scontent.cdninstagram.com/t51.2885-15/e35/13395177_1138234392884350_922099253_n.jpg,people,0.9932743310928345
,woman,0.9902365207672119
,girl,0.9821763038635254
,adult,0.9821007251739502
,two,0.9802292585372925
,wear,0.9739806056022644
,lifestyle,0.9592585563659668
,togetherness,0.9592427611351013
,happiness,0.9569896459579468
,fun,0.9560239315032959
,group,0.9486016035079956
,portrait,0.9310762882232666
,friendship,0.9204080700874329
,child,0.9169319868087769
,love,0.9158540964126587
,fashion,0.91203373670578
,young,0.9093017578125
,family,0.8988429307937622
,dress,0.8944516181945801
,man,0.8830657005310059
https://scontent.cdninstagram.com/t51.2885-15/e35/13413455_1137519746270874_1832043399_n.jpg,underwater,0.9998435974121094
,diving,0.9929977655410767
,coral,0.9929354786872864
,fish,0.992810070514679
,snorkeling,0.9910656213760376
,swimming,0.989405632019043
,ocean,0.9867185354232788
,tropical,0.983569324016571
,reef,0.9834983348846436
,water,0.9828832745552063
,sea,0.981397271156311
,water sports,0.9685705900192261
,diver,0.9604748487472534
,deep,0.9578520059585571
,scuba,0.9478259682655334
,submarine,0.9258727431297302
,depth,0.9212490320205688
,exotic,0.9190484285354614
,bottom,0.916893720626831
,submerged,0.915499746799469
https://scontent.cdninstagram.com/t51.2885-15/e35/13408821_1721414714764891_118444469_n.jpg,rabbit,0.999763011932373
,bunny,0.9987571239471436
,Easter,0.9958416819572449
,rabbit,0.9940816760063171
,cute,0.9873924255371094
,basket,0.9740193486213684
,one,0.9727853536605835
,portrait,0.9694695472717285
,mammal,0.9684097766876221
,rodent,0.9611880779266357
,pet,0.9493538737297058
,little,0.9435878992080688
,no person,0.93611079454422
,domestic,0.934192419052124
,baby,0.9321838617324829
,funny,0.9279037714004517
,adorable,0.9207837581634521
,downy,0.9156036376953125
,food,0.9146137237548828
,Passover,0.9123914837837219
https://scontent.cdninstagram.com/l/t51.2885-15/s750x750/sh0.08/e35/13381371_1038827356200780_404991704_n.jpg,rabbit,0.9999357461929321
,bunny,0.9997762441635132
,Easter,0.9992351531982422
,rabbit,0.9988049268722534
,grass,0.9947679042816162
,cute,0.9895056486129761
,portrait,0.9797900915145874
,downy,0.9791185259819031
,animal,0.9617842435836792
,sky,0.9612064361572266
,pet,0.9562433958053589
,young,0.9556840658187866
,baby,0.9545860290527344
,funny,0.9521733522415161
,one,0.9506371021270752
,little,0.9492523670196533
,fun,0.9444544315338135
,farm,0.9439697861671448
,mammal,0.9398095607757568
,nature,0.9374798536300659
https://scontent.cdninstagram.com/t51.2885-15/s750x750/sh0.08/e35/13355499_1754192494849156_1488983851_n.jpg,nature,0.9942254424095154
,cute,0.9911662936210632
,portrait,0.9902357459068298
,grass,0.9886609315872192
,little,0.978462815284729
,young,0.9711958169937134
,summer,0.9691942930221558
,girl,0.9689099788665771
,beautiful,0.9644914865493774
,smile,0.9602224826812744
,rabbit,0.9589976072311401
,outdoors,0.9546911120414734
,child,0.949484646320343
,fun,0.9477583765983582
,hair,0.9461215138435364
,baby,0.9378898739814758
,one,0.9346500635147095
,animal,0.9307717084884644
,eye,0.921924352645874
,fur,0.9192253947257996
https://scontent.cdninstagram.com/t51.2885-15/e35/13249792_575570499270443_702087771_n.jpg,people,0.9755674600601196
,woman,0.9714287519454956
,fashion,0.9584440588951111
,art,0.9442707300186157
,adult,0.9375805854797363
,girl,0.9156839847564697
,portrait,0.8821330070495605
,illustration,0.8681338429450989
,style,0.8648583292961121
,person,0.8629602789878845
,creativity,0.8590715527534485
,retro,0.8502691984176636
,dress,0.847732424736023
,beautiful,0.8314907550811768
,young,0.8251521587371826
,pretty,0.8037693500518799
,glamour,0.7993224263191223
,one,0.784564733505249
,hair,0.7767587900161743
,attractive,0.7646200656890869
https://scontent.cdninstagram.com/t51.2885-15/e35/13414389_253433795021624_1102888839_n.jpg,food,0.9966462850570679
,dinner,0.9960730671882629
,meat,0.9950372576713562
,rice,0.9939615726470947
,lunch,0.9908857345581055
,meal,0.9902130365371704
,dish,0.9863079190254211
,cuisine,0.9815385341644287
,pork,0.9779583215713501
,beef,0.9773531556129456
,delicious,0.977057933807373
,plate,0.9762302041053772
,restaurant,0.9748616218566895
,cooking,0.9685269594192505
,vegetable,0.9669463634490967
,sauce,0.9648982286453247
,pepper,0.9615486860275269
,epicure,0.9488060474395752
,tasty,0.9477232694625854
,traditional,0.9364000558853149
https://scontent.cdninstagram.com/t51.2885-15/e35/13109034_552107401629863_2024970194_n.jpg,rabbit,0.9998471736907959
,bunny,0.9994081258773804
,rodent,0.9963679313659668
,cute,0.9962908625602722
,downy,0.9953206777572632
,rabbit,0.9948809146881104
,Easter,0.9888734817504883
,mammal,0.9881359338760376
,pet,0.9870083332061768
,portrait,0.9853786826133728
,fur,0.9832068681716919
,one,0.9812350869178772
,tame,0.9786707162857056
,furry,0.9732387661933899
,sit,0.9714349508285522
,adorable,0.9619858264923096
,funny,0.9533208608627319
,domestic,0.9521279335021973
,eye,0.9515513181686401
,little,0.9343099594116211
https://scontent.cdninstagram.com/t51.2885-15/e35/13257050_1719092345013835_1086888811_n.jpg,flatware,0.991418719291687
,food,0.9913167357444763
,tableware,0.9874362349510193
,knife,0.9855784773826599
,no person,0.9852796196937561
,cutlery,0.9794141054153442
,plate,0.9518944621086121
,kitchenware,0.950929582118988
,cooking,0.9483301639556885
,spoon,0.9431567192077637
,dish,0.9417543411254883
,grow,0.9391498565673828
,breakfast,0.9334994554519653
,fork,0.9299114942550659
,restaurant,0.929059624671936
,dinner,0.9273787140846252
,lunch,0.9234462380409241
,still life,0.9231000542640686
,table,0.9085900783538818
,dining,0.8937252759933472
https://scontent.cdninstagram.com/t51.2885-15/s640x640/e15/13380931_1744489149139791_640597849_n.jpg,underwater,0.9990952610969543
,swimming,0.996745765209198
,water,0.9909038543701172
,sea,0.9805217981338501
,ocean,0.9801532030105591
,diving,0.9740345478057861
,people,0.9734358787536621
,water sports,0.9724551439285278
,fish,0.9611883759498596
,recreation,0.9609470367431641
,snorkeling,0.9555363059043884
,swimming pool,0.9555126428604126
,leisure,0.9435287117958069
,tropical,0.928685188293457
,pool,0.925570011138916
,coral,0.924168586730957
,diver,0.9232388734817505
,reef,0.9158994555473328
,woman,0.9085187911987305
,school,0.9084916114807129
https://scontent.cdninstagram.com/t51.2885-15/e35/13408973_498386383690254_1967981318_n.jpg,bird,0.999293327331543
,parrot,0.9977583885192871
,wildlife,0.9951239228248596
,animal,0.9866945743560791
,beak,0.9774309396743774
,zoo,0.9729670286178589
,avian,0.9727367162704468
,feather,0.9721943140029907
,wild,0.9633677005767822
,no person,0.9607789516448975
,nature,0.9600870609283447
,macaw,0.9568344354629517
,parakeet,0.946723461151123
,wing,0.9344861507415771
,tropical,0.9327839612960815
,fly,0.919580340385437
,two,0.914141058921814
,color,0.9047859311103821
,exotic,0.8858345746994019
,portrait,0.8393542766571045
https://scontent.cdninstagram.com/t51.2885-15/e35/13167291_1688457211404960_542936404_n.jpg,no person,0.9809979200363159
,art,0.9048115611076355
,food,0.8942865133285522
,desktop,0.8848487138748169
,animal,0.8502534031867981
,bird,0.847801685333252
,decoration,0.8476656675338745
,nature,0.844793438911438
,isolated,0.8265007138252258
,wood,0.8259896039962769
,medicine,0.82242751121521
,still life,0.8126115202903748
,one,0.8052316904067993
,color,0.8046784400939941
,symbol,0.8035702705383301
,frog,0.7953976392745972
,rabbit,0.7940521240234375
,flower,0.7916632294654846
,group,0.7894570827484131
,closeup,0.7885627150535583
https://scontent.cdninstagram.com/t51.2885-15/e35/13381183_951617371617676_2063240754_n.jpg,food,0.9943139553070068
,dinner,0.9930297136306763
,lunch,0.9856454133987427
,delicious,0.976252019405365
,no person,0.9689033031463623
,vegetable,0.968575119972229
,meal,0.9655088186264038
,cooking,0.9615758657455444
,dish,0.9590096473693848
,pasta,0.9491362571716309
,beef,0.9313079714775085
,nutrition,0.9254475831985474
,cuisine,0.9235448837280273
,plate,0.917465329170227
,sauce,0.9156737923622131
,restaurant,0.9144090414047241
,noodles,0.9140551090240479
,meat,0.9124820232391357
,epicure,0.9026375412940979
,pork,0.9000897407531738
https://scontent.cdninstagram.com/t51.2885-15/e35/13402380_262636934127955_2082749823_n.jpg,flower,0.9940119385719299
,bright,0.9858139753341675
,sunflower,0.9855717420578003
,nature,0.9839351177215576
,flora,0.9825308322906494
,beautiful,0.9781302809715271
,summer,0.9746406078338623
,leaf,0.9727339744567871
,petal,0.9670276045799255
,no person,0.9628037214279175
,floral,0.9575371742248535
,color,0.9574346542358398
,sun,0.9394323229789734
,desktop,0.9214251041412354
,decoration,0.9133224487304688
,garden,0.9099470376968384
,blooming,0.901180624961853
,vibrant,0.8959184288978577
,pretty,0.8944301605224609
,season,0.8923102617263794
https://scontent.cdninstagram.com/t51.2885-15/e35/13116665_785979598170098_948537510_n.jpg,coffee,0.997188150882721
,drink,0.9893758296966553
,tea,0.9874939322471619
,cup,0.9793702363967896
,dawn,0.9706776142120361
,breakfast,0.9665766358375549
,mug,0.9637314081192017
,espresso,0.9509783983230591
,cappuccino,0.9488168954849243
,no person,0.9328209161758423
,restaurant,0.9228073954582214
,food,0.9217519760131836
,bar,0.9211104512214661
,hot,0.9159375429153442
,caffeine,0.906995415687561
,table,0.9046003818511963
,indoors,0.885664701461792
,wood,0.826939582824707
,porcelain,0.8206790685653687
,traditional,0.8030252456665039
https://scontent.cdninstagram.com/t51.2885-15/e35/12976491_943069642409407_686220151_n.jpg,grass,0.9894759654998779
,rabbit,0.9884516000747681
,mammal,0.9807882308959961
,flower,0.9684696793556213
,landscape,0.955479085445404
,farm,0.9543532729148865
,lawn,0.9515348672866821
,portrait,0.9502295255661011
,no person,0.9482951164245605
,one,0.9456387758255005
,animal,0.9435566067695618
,bunny,0.9419434070587158
,garden,0.9368993043899536
,nature,0.9270204305648804
,cute,0.9106765985488892
,outdoors,0.9080962538719177
,summer,0.9014593958854675
,field,0.9001772403717041
,pet,0.8887960910797119
,park,0.8818628787994385
https://scontent.cdninstagram.com/t51.2885-15/e35/12917853_953632358084331_1429527014_n.jpg,landscape,0.9949924945831299
,sunset,0.9914534687995911
,light,0.9865221977233887
,dawn,0.9747722744941711
,sky,0.9685747027397156
,backlit,0.9627834558486938
,sun,0.9573001861572266
,desert,0.9556330442428589
,beach,0.9544466137886047
,travel,0.9542990922927856
,daylight,0.9526478052139282
,evening,0.9488184452056885
,fog,0.9460398554801941
,sea,0.94169682264328
,outdoors,0.9393600225448608
,dusk,0.9380415678024292
,no person,0.9283585548400879
,people,0.9194450378417969
,ocean,0.9175421595573425
,weather,0.9101094007492065
https://scontent.cdninstagram.com/t51.2885-15/e35/12907379_1705649886343235_768493061_n.jpg,people,0.9981323480606079
,group,0.9925112724304199
,child,0.9858300685882568
,adult,0.9833343029022217
,woman,0.9753559827804565
,wear,0.9490742087364197
,man,0.9361155033111572
,girl,0.9287786483764648
,market,0.9164353609085083
,many,0.9017317891120911
,travel,0.8836196064949036
,motion,0.8703731298446655
,road,0.8700023293495178
,one,0.8661850690841675
,boy,0.8569151163101196
,religion,0.8446614146232605
,two,0.8377562165260315
,group,0.8319678902626038
,festival,0.8310114145278931
,recreation,0.8303638696670532
https://scontent.cdninstagram.com/t51.2885-15/e35/13150816_1733740223569014_1849134346_n.jpg,water,0.9964012503623962
,boat,0.9956742525100708
,watercraft,0.9944539666175842
,sea,0.9909247159957886
,travel,0.9835835099220276
,transportation system,0.9731706380844116
,ship,0.9724429845809937
,harbor,0.9690245389938354
,ocean,0.9678483009338379
,seashore,0.9643025398254395
,fisherman,0.9372298717498779
,fishing boat,0.9369924068450928
,tourism,0.9317437410354614
,pier,0.9257615208625793
,nautical,0.9216762781143188
,sky,0.9213520288467407
,port,0.920988917350769
,vehicle,0.920502245426178
,vacation,0.9034560918807983
,bay,0.9029557108879089
https://scontent.cdninstagram.com/t51.2885-15/s750x750/sh0.08/e35/13413206_827205320757471_811527556_n.jpg,monochrome,0.9977289438247681
,street,0.9970028400421143
,restaurant,0.9944875836372375
,coffee,0.9924337863922119
,people,0.9924076199531555
,woman,0.984355092048645
,bar,0.973003625869751
,portrait,0.9636551737785339
,urban,0.9597927927970886
,tea,0.9561985731124878
,city,0.9558560848236084
,pub,0.9540933966636658
,fashion,0.952256441116333
,girl,0.9497625827789307
,black and white,0.9434024095535278
,indoors,0.9379783868789673
,adult,0.9377001523971558
,sit,0.9304465055465698
,model,0.9216893911361694
,drink,0.9115152359008789
https://scontent.cdninstagram.com/t51.2885-15/e35/13437174_300613060277758_1839809472_n.jpg,street,0.9875231981277466
,shopping,0.9796020984649658
,city,0.9773887395858765
,woman,0.9564683437347412
,people,0.9532926082611084
,stock,0.9394807815551758
,fashion,0.9359602928161621
,portrait,0.9166841506958008
,umbrella,0.9148813486099243
,urban,0.9014408588409424
,travel,0.897921085357666
,commerce,0.8688923716545105
,business,0.8637850284576416
,festival,0.8511900901794434
,shop,0.8482046723365784
,girl,0.8309398889541626
,reflection,0.8299325704574585
,exhibition,0.8286822438240051
,adult,0.8248187303543091
,one,0.8219717741012573
https://scontent.cdninstagram.com/t51.2885-15/e35/12976638_228995987467796_827937667_n.jpg,food,0.9934103488922119
,no person,0.9893432259559631
,vegetable,0.971373975276947
,wood,0.9653657674789429
,grow,0.9623796939849854
,cooking,0.9576931595802307
,still life,0.9463489055633545
,table,0.9449417591094971
,dinner,0.9342989921569824
,meal,0.9172687530517578
,dish,0.9013495445251465
,lunch,0.9009182453155518
,pepper,0.900694727897644
,bowl,0.9002448320388794
,hot,0.8961248397827148
,wooden,0.8938155174255371
,tableware,0.8928443193435669
,flatware,0.8886920213699341
,restaurant,0.886974573135376
,chili,0.8820260763168335
https://scontent.cdninstagram.com/t51.2885-15/e35/12965693_1698559663719112_508791661_n.jpg,drink,0.9991334676742554
,coffee,0.9985183477401733
,cup,0.9966522455215454
,espresso,0.9926609992980957
,mug,0.9838768243789673
,caffeine,0.9807664155960083
,bar,0.9765775203704834
,hot,0.9744833707809448
,table,0.9733102321624756
,cappuccino,0.9719506502151489
,no person,0.9650669097900391
,beer,0.9574419260025024
,tea,0.9536155462265015
,wood,0.9503622055053711
,glass,0.9495189189910889
,restaurant,0.9492329359054565
,food,0.948383092880249
,still life,0.9479708671569824
,breakfast,0.9429736137390137
,container,0.9400278329849243
https://scontent.cdninstagram.com/t51.2885-15/e35/12918630_1165541716789156_1683743977_n.jpg,no person,0.9871029853820801
,travel,0.9807262420654297
,outdoors,0.9782484769821167
,nature,0.9728531837463379
,landscape,0.9670472145080566
,water,0.9590679407119751
,grass,0.9406360387802124
,wood,0.9400827288627625
,summer,0.939152717590332
,environment,0.919446587562561
,tree,0.9080840945243835
,daylight,0.8954335451126099
,rural,0.8890154957771301
,countryside,0.8798946142196655
,mammal,0.865117073059082
,adventure,0.8645038604736328
,road,0.8628491163253784
,recreation,0.8596838116645813
,wild,0.8516879081726074
,sky,0.8507308959960938
https://scontent.cdninstagram.com/t51.2885-15/e35/12917905_777796892355143_1203091241_n.jpg,woman,0.9873145222663879
,people,0.9826194643974304
,girl,0.9798601865768433
,summer,0.9742093086242676
,nature,0.9740753173828125
,portrait,0.9626184105873108
,outdoors,0.9613043665885925
,adult,0.9505668878555298
,one,0.9505066871643066
,sun,0.9488345384597778
,fair weather,0.9350143671035767
,hair,0.9301539063453674
,sky,0.9155445098876953
,freedom,0.8861575126647949
,sunglasses,0.8785417675971985
,sexy,0.8716022968292236
,sunset,0.8678326606750488
,young,0.8590797185897827
,beautiful,0.8467884063720703
,brunette,0.8456252813339233
https://scontent.cdninstagram.com/t51.2885-15/e35/13381313_258823734477799_1208407747_n.jpg,drink,0.998329222202301
,ice,0.9922266602516174
,cocktail,0.9915149211883545
,juice,0.9908150434494019
,glass,0.9865167140960693
,cold,0.9858829975128174
,bar,0.9727720022201538
,refreshment,0.9595271944999695
,no person,0.9556334614753723
,fruit,0.952656626701355
,sugar,0.9517059922218323
,sweet,0.9483259916305542
,breakfast,0.9369955062866211
,party,0.9342237710952759
,cool,0.9307875633239746
,delicious,0.9290578961372375
,food,0.9207313060760498
,summer,0.9119333028793335
,straw,0.9109971523284912
,liquid,0.901265025138855
https://scontent.cdninstagram.com/t51.2885-15/e35/12940721_1106684849352927_1758675694_n.jpg,people,0.987697958946228
,adult,0.9724321365356445
,woman,0.9691694974899292
,man,0.9485803842544556
,no person,0.9448422193527222
,foot,0.9388474225997925
,painting,0.9330674409866333
,two,0.9303696155548096
,wear,0.9189832210540771
,art,0.8836266994476318
,footwear,0.8744376301765442
,one,0.8697546720504761
,sand,0.8615455627441406
,indoors,0.8268966674804688
,girl,0.824396014213562
,desert,0.7918739318847656
,recreation,0.7872390747070312
,travel,0.7860578298568726
,reclining,0.7735643982887268
,outdoors,0.7430143356323242
https://scontent.cdninstagram.com/t51.2885-15/e35/13256657_1602578750052943_1381600690_n.jpg,sunset,0.9982996582984924
,water,0.9945645332336426
,bridge,0.9874511957168579
,evening,0.9841194748878479
,dusk,0.9798159003257751
,city,0.9780827760696411
,reflection,0.9775097370147705
,river,0.9773331880569458
,sky,0.9772827625274658
,dawn,0.9755995273590088
,architecture,0.9680954217910767
,no person,0.9625098705291748
,travel,0.9604345560073853
,skyline,0.9540413022041321
,cityscape,0.9439356327056885
,sea,0.9438954591751099
,harbor,0.9436919689178467
,bay,0.9291163682937622
,ocean,0.9275901317596436
,moon,0.9260087013244629
https://scontent.cdninstagram.com/t51.2885-15/e35/12446299_1519616115014798_1866741545_n.jpg,water,0.9927354454994202
,sea,0.9863979816436768
,travel,0.9827394485473633
,watercraft,0.9813776016235352
,seashore,0.9793696999549866
,boat,0.970768928527832
,ocean,0.9506352543830872
,beach,0.9449149370193481
,transportation system,0.9352232217788696
,fisherman,0.9187796115875244
,leisure,0.9165842533111572
,recreation,0.9162272214889526
,tourism,0.9076454639434814
,vacation,0.9067258834838867
,vehicle,0.8942173719406128
,fishing boat,0.8931760787963867
,people,0.8885939717292786
,harbor,0.879613995552063
,pier,0.874439001083374
,outdoors,0.8693430423736572
https://scontent.cdninstagram.com/t51.2885-15/e35/13525507_1755887154681321_2116290997_n.jpg,mammal,0.9883573055267334
,one,0.9747902154922485
,portrait,0.9742202758789062
,rabbit,0.9696402549743652
,no person,0.9686034917831421
,pet,0.9535009860992432
,cat,0.9386429786682129
,cute,0.9260910749435425
,animal,0.9239232540130615
,side view,0.8933829069137573
,bunny,0.8620291352272034
,domestic,0.8591028451919556
,baby,0.8590534925460815
,people,0.8583270907402039
,furniture,0.8518150448799133
,fur,0.8476064205169678
,sit,0.8447352647781372
,Easter,0.8183882832527161
,room,0.8130698204040527
,downy,0.8038994073867798
https://scontent.cdninstagram.com/t51.2885-15/e35/13422943_139128726505869_478010954_n.jpg,woman,0.9929611682891846
,adult,0.9918212890625
,people,0.9885973334312439
,indoors,0.9564275741577148
,facial expression,0.9545551538467407
,portrait,0.9476240873336792
,two,0.9441219568252563
,education,0.935151219367981
,happiness,0.9222285747528076
,wear,0.9183903932571411
,one,0.9143542051315308
,enjoyment,0.9126165509223938
,girl,0.911125123500824
,group,0.8789781928062439
,school,0.8777676820755005
,lifestyle,0.866466760635376
,man,0.8506854772567749
,stock,0.8435269594192505
,togetherness,0.8348767757415771
,room,0.8320794701576233
https://scontent.cdninstagram.com/t51.2885-15/e35/13392828_1639408776383184_441598212_n.jpg,mammal,0.9941356182098389
,cute,0.9929661750793457
,pet,0.9919595718383789
,rabbit,0.9917004108428955
,little,0.9866353273391724
,dog,0.983880341053009
,portrait,0.9812883138656616
,grass,0.9786063432693481
,bunny,0.9768815040588379
,sit,0.9743037223815918
,animal,0.9702725410461426
,fur,0.963223934173584
,looking,0.9565086364746094
,funny,0.9499253034591675
,canine,0.9481586217880249
,adorable,0.9466044902801514
,young,0.940239429473877
,rabbit,0.931442141532898
,downy,0.9294605255126953
,one,0.9263707399368286
https://scontent.cdninstagram.com/t51.2885-15/s750x750/sh0.08/e35/13113755_228507397525440_1793052370_n.jpg,portrait,0.9933732748031616
,people,0.9914119243621826
,adult,0.9906761646270752
,woman,0.9885575175285339
,one,0.9815001487731934
,girl,0.9781365394592285
,eyewear,0.944186806678772
,wear,0.9375068545341492
,brunette,0.9373328685760498
,eyeglasses,0.934441864490509
,facial expression,0.9018275737762451
,business,0.8940353989601135
,happiness,0.8553049564361572
,model,0.8532609939575195
,fashion,0.8441829085350037
,face,0.8400495648384094
,beautiful,0.8399291038513184
,telephone,0.82834792137146
,room,0.8172029256820679
,lifestyle,0.8076339364051819
https://scontent.cdninstagram.com/t51.2885-15/e35/13249790_1708186506102425_1957209295_n.jpg,no person,0.9813032150268555
,summer,0.961948812007904
,leaf,0.9498710632324219
,nature,0.9223870038986206
,glass,0.9074865579605103
,outdoors,0.8851187825202942
,drink,0.8779295682907104
,vacation,0.8594219088554382
,color,0.8466189503669739
,food,0.8411111831665039
,relaxation,0.8386576771736145
,party,0.8311458826065063
,cocktail,0.8257362842559814
,bar,0.8220301866531372
,ice,0.8160656690597534
,beach,0.8046716451644897
,wood,0.8020209670066833
,grass,0.7990865707397461
,still life,0.792544960975647
,tropical,0.7714645862579346
https://scontent.cdninstagram.com/t51.2885-15/e35/13531815_1618832185098160_570598804_n.jpg,people,0.9835651516914368
,carnival,0.9737959504127502
,fun,0.9655008316040039
,carousel,0.9562299251556396
,celebration,0.9546467065811157
,festival,0.9546322822570801
,entertainment,0.9218549728393555
,woman,0.90642249584198
,traditional,0.890941858291626
,recreation,0.8721940517425537
,adult,0.8672913312911987
,fairground,0.8644978404045105
,exhilaration,0.8598642349243164
,enjoyment,0.8589211702346802
,group,0.8566186428070068
,vacation,0.8559796810150146
,travel,0.8550797700881958
,wear,0.8541483283042908
,indoors,0.8528050184249878
,religion,0.851954460144043
https://scontent.cdninstagram.com/t51.2885-15/e35/12912723_1582612592054365_387714007_n.jpg,people,0.9920526742935181
,adult,0.978083610534668
,one,0.9668294191360474
,woman,0.9593652486801147
,indoors,0.9444672465324402
,portrait,0.896824061870575
,food,0.8916596174240112
,facial expression,0.8564143180847168
,room,0.8332711458206177
,education,0.8170233964920044
,commerce,0.8118530511856079
,wear,0.810936450958252
,furniture,0.810716450214386
,restaurant,0.7977755069732666
,music,0.7778239250183105
,business,0.7749176025390625
,table,0.7673453688621521
,two,0.7662715911865234
,girl,0.7355426549911499
,group,0.7339447736740112
https://scontent.cdninstagram.com/t51.2885-15/e35/13269546_558562787659239_741795084_n.jpg,people,0.9892748594284058
,one,0.9869140982627869
,portrait,0.9869017601013184
,girl,0.9864015579223633
,adult,0.9729920625686646
,woman,0.9711565375328064
,cute,0.9304558038711548
,brunette,0.8946942687034607
,facial expression,0.888636589050293
,model,0.8826100826263428
,nude,0.8726764917373657
,child,0.8655886650085449
,boy,0.865159273147583
,face,0.8488321304321289
,confection,0.8339913487434387
,indoors,0.8305010795593262
,hair,0.8274181485176086
,studio,0.8191574811935425
,love,0.8146913051605225
,dame,0.8070170879364014
https://scontent.cdninstagram.com/t51.2885-15/e35/12959946_1555797628051587_1386706746_n.jpg,sunset,0.99735027551651
,sand,0.9878743886947632
,backlit,0.9849354028701782
,beach,0.979305624961853
,dawn,0.9732329845428467
,sun,0.972532331943512
,water,0.9667841196060181
,travel,0.961597204208374
,people,0.9591987729072571
,leisure,0.9486114382743835
,one,0.948555588722229
,sky,0.9454857110977173
,woman,0.9439415335655212
,recreation,0.9382093548774719
,evening,0.9334418773651123
,outdoors,0.9319649934768677
,freedom,0.9319345355033875
,desert,0.930720329284668
,girl,0.9299231767654419
,yoga,0.9245645403862
https://scontent.cdninstagram.com/t51.2885-15/e35/12950370_1562190717413126_2055131077_n.jpg,woman,0.9940459728240967
,summer,0.9902614951133728
,beach,0.9861524701118469
,water,0.9686126112937927
,relaxation,0.9683288335800171
,leisure,0.9627884030342102
,sun,0.9546058773994446
,fair weather,0.9542267918586731
,sand,0.952930212020874
,sunglasses,0.9521291255950928
,travel,0.9377952814102173
,enjoyment,0.9338098764419556
,fun,0.9302372932434082
,sea,0.923122763633728
,vacation,0.9229763746261597
,sexy,0.9185090065002441
,nature,0.9110097885131836
,fashion,0.9013452529907227
,pretty,0.8992519378662109
,girl,0.8967341184616089
https://scontent.cdninstagram.com/t51.2885-15/e35/13328957_1605112449800117_1165576525_n.jpg,beach,0.993729829788208
,tropical,0.9833588600158691
,no person,0.9813145399093628
,summer,0.9803688526153564
,sand,0.9789066314697266
,seashore,0.9770174622535706
,travel,0.9738175868988037
,vacation,0.9674810171127319
,ocean,0.9599847793579102
,resort,0.9598569869995117
,sea,0.9586895704269409
,water,0.9558120965957642
,island,0.9474174976348877
,hotel,0.9345376491546631
,sun,0.9260826110839844
,outdoors,0.9211185574531555
,chair,0.9203276634216309
,exotic,0.9150150418281555
,relaxation,0.9140434265136719
,sky,0.8916427493095398
