url,class,score
https://scontent-sit4-1.cdninstagram.com/t51.2885-15/e15/p640x640/13671155_148003365603868_847626968_n.jpg,performance,0.9997060894966125
,music,0.9996652603149414
,concert,0.9995875358581543
,festival,0.996947169303894
,stage,0.9969197511672974
,singer,0.9957132339477539
,musician,0.9943084120750427
,band,0.9922707080841064
,pop,0.9854898452758789
,audience,0.9826095104217529
,party,0.975595235824585
,light,0.9618012309074402
,sound,0.9448949694633484
,guitarist,0.9403964281082153
,show,0.9355376958847046
,bass,0.9316610097885132
,energy,0.9302126169204712
,people,0.9273425340652466
,club,0.918243408203125
,celebration,0.9088332653045654
https://scontent-sit4-1.cdninstagram.com/t51.2885-15/e35/13744148_610765485753345_1535085152_n.jpg,performance,0.9995725154876709
,music,0.9991467595100403
,stage,0.9989199638366699
,concert,0.9987465739250183
,musician,0.9953116178512573
,singer,0.9952322840690613
,people,0.9852375984191895
,audience,0.9778536558151245
,festival,0.9771569967269897
,dancing,0.9742714166641235
,band,0.9708540439605713
,pop,0.9604095220565796
,guitarist,0.9577047824859619
,dancer,0.9547587633132935
,guitar,0.9487279653549194
,theater,0.94426029920578
,theater,0.9387506246566772
,club,0.9277404546737671
,microphone,0.9203454256057739
,group,0.9139145612716675
https://scontent-sit4-1.cdninstagram.com/t51.2885-15/e35/13557115_1621747128139595_446638646_n.jpg,performance,0.9962272644042969
,music,0.9936959743499756
,concert,0.9930992126464844
,singer,0.9893029928207397
,musician,0.9855970144271851
,band,0.9740146994590759
,people,0.9658138751983643
,festival,0.964674711227417
,stage,0.9592500925064087
,guitarist,0.9350076913833618
,group,0.9159952402114868
,guitar,0.8866633176803589
,film festival,0.8809471726417542
,audience,0.8711878061294556
,indie,0.8607608079910278
,stringed instrument,0.857664942741394
,songwriter,0.8294055461883545
,drummer,0.8181864619255066
,instrument,0.8059661388397217
,microphone,0.7950578927993774
https://scontent-sit4-1.cdninstagram.com/t51.2885-15/e35/13380847_1374608105888852_1454751283_n.jpg,administration,0.9725641012191772
,business,0.9599239826202393
,text,0.9305954575538635
,no person,0.9276890754699707
,document,0.9228699803352356
,money,0.9158469438552856
,annual,0.9148076772689819
,finance,0.9035232067108154
,paper,0.8972910046577454
,commerce,0.8673068284988403
,number,0.8540668487548828
,airport,0.8472673892974854
,government,0.8304134607315063
,departure,0.8271218538284302
,vehicle,0.8221817016601562
,time,0.8211761713027954
,finance,0.8188496828079224
,law,0.8157332539558411
,receipt,0.8144010305404663
,travel,0.8030819892883301
https://scontent-sit4-1.cdninstagram.com/t51.2885-15/e35/13597709_1097678323652359_1079208115_n.jpg,people,0.9787335991859436
,room,0.9669088125228882
,business,0.9649888277053833
,indoors,0.96409010887146
,commerce,0.9292707443237305
,election,0.9238437414169312
,adult,0.9174907207489014
,league,0.9154139757156372
,building,0.9115517139434814
,landscape,0.8992340564727783
,finance,0.8913711309432983
,education,0.8854361176490784
,home,0.8827906847000122
,environment,0.8731931447982788
,meeting,0.8701716661453247
,museum,0.8550511002540588
,soccer,0.8540211915969849
,competition,0.8495590090751648
,television,0.8492742776870728
,portrait,0.8474253416061401
https://scontent-sit4-1.cdninstagram.com/t51.2885-15/e35/13534032_148578625550931_1459971948_n.jpg,people,0.9909440875053406
,portrait,0.9870367050170898
,woman,0.9857110977172852
,facial expression,0.9649405479431152
,necklace,0.956535816192627
,two,0.954295814037323
,girl,0.9538956880569458
,brunette,0.9491350650787354
,love,0.9464969038963318
,adult,0.9398860931396484
,man,0.9326299428939819
,wear,0.9253214597702026
,togetherness,0.9147897958755493
,couple,0.902101993560791
,festival,0.8928260207176208
,fashion,0.8779053688049316
,fun,0.8755683898925781
,happiness,0.8751527070999146
,friendship,0.8523468971252441
,embrace,0.8315162658691406
https://scontent-sit4-1.cdninstagram.com/t51.2885-15/e35/13696701_1157411520967261_1169156769_n.jpg,people,0.9947490692138672
,group,0.9898350238800049
,man,0.9893900156021118
,adult,0.9880121946334839
,woman,0.9855992794036865
,wear,0.9814916849136353
,vehicle,0.9775830507278442
,portrait,0.9755897521972656
,daylight,0.9402447938919067
,eyewear,0.9293659329414368
,two,0.928156852722168
,facial expression,0.9200141429901123
,happiness,0.9171170592308044
,commerce,0.9101738929748535
,three,0.9038507342338562
,enjoyment,0.8927739858627319
,car,0.8850886821746826
,festival,0.8839027881622314
,group,0.8677133321762085
,several,0.8355904817581177
https://scontent-sit4-1.cdninstagram.com/t51.2885-15/e35/13642910_299975887002134_2038917577_n.jpg,performance,0.9999424815177917
,music,0.9998042583465576
,concert,0.9995995163917542
,singer,0.9972785115242004
,musician,0.9955540895462036
,stage,0.990526020526886
,pop,0.9857165813446045
,band,0.982452392578125
,festival,0.9804403781890869
,song,0.979676365852356
,guitarist,0.9606469869613647
,rap,0.954857349395752
,songwriter,0.9176635146141052
,audience,0.8969373106956482
,indie,0.8860969543457031
,rocker,0.8709758520126343
,light,0.8201695680618286
,show,0.7669117450714111
,guitar,0.7487865686416626
,sound,0.7359235882759094
https://scontent-sit4-1.cdninstagram.com/t51.2885-15/e35/13597766_1342835709066029_1640803321_n.jpg,business,0.9811115264892578
,no person,0.9646898508071899
,administration,0.9453995227813721
,money,0.9309966564178467
,document,0.9250448942184448
,finance,0.910830020904541
,number,0.8935965299606323
,law,0.8744038343429565
,education,0.8635141849517822
,text,0.8635090589523315
,paper,0.861440896987915
,wealth,0.8310989141464233
,debt,0.8286782503128052
,information,0.8226586580276489
,page,0.7996277809143066
,finance,0.7937793731689453
,pay,0.7573820352554321
,form,0.7547037601470947
,commerce,0.7299361824989319
,people,0.7014956474304199
https://scontent-sit4-1.cdninstagram.com/t51.2885-15/e35/13525478_1031811316933514_2104218427_n.jpg,people,0.9845172166824341
,portrait,0.9754595756530762
,woman,0.9722325801849365
,facial expression,0.9681930541992188
,man,0.9632413387298584
,love,0.9423353672027588
,two,0.9397519826889038
,festival,0.9383110404014587
,wear,0.9319771528244019
,group,0.9240561723709106
,togetherness,0.9171711206436157
,couple,0.91338711977005
,fun,0.9091029167175293
,girl,0.9037992358207703
,friendship,0.9033359289169312
,adult,0.8817628622055054
,music,0.8749326467514038
,happiness,0.8464219570159912
,interaction,0.8376052379608154
,family,0.831091046333313
https://scontent-sit4-1.cdninstagram.com/t51.2885-15/e35/13556969_298038513864829_990262458_n.jpg,group,0.9951062798500061
,woman,0.9910784959793091
,man,0.9761873483657837
,people,0.9756364822387695
,education,0.975624680519104
,school,0.9751900434494019
,adult,0.9679332375526428
,university,0.9669703245162964
,indoors,0.9596182107925415
,facial expression,0.9591367244720459
,togetherness,0.9541648626327515
,happiness,0.9492650032043457
,group,0.9475044012069702
,three,0.9473921060562134
,enjoyment,0.9375944137573242
,child,0.9193163514137268
,four,0.9169467091560364
,five,0.9098002910614014
,portrait,0.9076147675514221
,room,0.8956440091133118
https://scontent-sit4-1.cdninstagram.com/t51.2885-15/e35/13556907_1063186067107610_554848207_n.jpg,people,0.9891244173049927
,city,0.9745539426803589
,wear,0.9704102277755737
,street,0.9699861407279968
,woman,0.9689887762069702
,festival,0.9563432335853577
,adult,0.9501116275787354
,shopping,0.9457643628120422
,man,0.9425716400146484
,group,0.9403539896011353
,stock,0.929303765296936
,daylight,0.9205648899078369
,road,0.906859278678894
,commerce,0.90378737449646
,luggage,0.8987257480621338
,religion,0.8920882344245911
,school,0.8424627184867859
,portrait,0.8292006254196167
,ceremony,0.812291145324707
,vehicle,0.8098162412643433
https://scontent-sit4-1.cdninstagram.com/t51.2885-15/e35/13744018_1008341262616032_992907535_n.jpg,performance,0.9998043775558472
,music,0.9991819858551025
,concert,0.9983831644058228
,musician,0.9935840368270874
,stage,0.9929864406585693
,singer,0.9911407232284546
,festival,0.9843595027923584
,band,0.9632328152656555
,pop,0.9603936672210693
,dancing,0.9315351247787476
,dancer,0.9262601733207703
,rap,0.9176217913627625
,ballet,0.9153918623924255
,theater,0.9065704345703125
,theater,0.8982375860214233
,people,0.8856004476547241
,guitarist,0.8640630841255188
,show,0.841428279876709
,audience,0.8274791836738586
,recreation,0.8251060247421265
https://scontent-sit4-1.cdninstagram.com/t51.2885-15/e35/13767718_663199547161050_2142136558_n.jpg,dumpling,0.9972937107086182
,food,0.9960676431655884
,homemade,0.9945924282073975
,dough,0.9939209222793579
,no person,0.9927862882614136
,flour,0.9909045696258545
,delicious,0.9905668497085571
,sweet,0.9864915609359741
,pastry,0.9842783212661743
,steamer,0.9817363023757935
,cooking,0.9790518283843994
,traditional,0.9758827090263367
,baking,0.9698594808578491
,plate,0.9667655229568481
,dish,0.9650546908378601
,sugar,0.9636129140853882
,table,0.9524328112602234
,cake,0.9513378143310547
,ravioli,0.9495118260383606
,bamboo,0.9494078755378723
https://scontent-sit4-1.cdninstagram.com/t51.2885-15/e35/13768394_615532245278756_752574566_n.jpg,people,0.9948153495788574
,competition,0.9655827283859253
,event,0.9298831224441528
,recreation,0.9093601703643799
,group,0.8802139759063721
,festival,0.8614554405212402
,celebration,0.8361886143684387
,man,0.8233034610748291
,performance,0.8197523355484009
,entertainment,0.8050343990325928
,adult,0.7866061329841614
,many,0.786544919013977
,game,0.7788317203521729
,movie,0.7783195376396179
,music,0.7594383955001831
,ceremony,0.7496578693389893
,award,0.7266229391098022
,restaurant,0.7085215449333191
,city,0.7061702013015747
,group,0.7059380412101746
https://scontent-sit4-1.cdninstagram.com/t51.2885-15/e35/13531858_1459398090752918_1727913219_n.jpg,group,0.992777943611145
,people,0.9883131980895996
,woman,0.9763854742050171
,education,0.9653397798538208
,music,0.9577049016952515
,many,0.9455345273017883
,concert,0.9309549331665039
,school,0.9273395538330078
,performance,0.9265673160552979
,singer,0.9230046272277832
,man,0.9206657409667969
,adult,0.9127747416496277
,rally,0.9081597924232483
,musician,0.9078972339630127
,festival,0.9046370983123779
,dancing,0.859366238117218
,crowd,0.8567900657653809
,administration,0.8427649736404419
,group,0.8421679735183716
,university,0.8418033123016357
https://scontent-sit4-1.cdninstagram.com/t51.2885-15/e35/13696642_1671334443188411_516025_n.jpg,people,0.9919527173042297
,man,0.9755339622497559
,adult,0.9755288362503052
,music,0.9751595854759216
,portrait,0.9655805826187134
,performance,0.9557853937149048
,festival,0.9512112140655518
,group,0.9480576515197754
,wear,0.9261070489883423
,woman,0.920411229133606
,celebration,0.9098883271217346
,musician,0.896846354007721
,singer,0.8829355239868164
,concert,0.8702811002731323
,facial expression,0.8420854806900024
,two,0.8413105607032776
,city,0.8151592016220093
,family,0.8151089549064636
,many,0.8129260540008545
,street,0.8106963634490967
https://scontent-sit4-1.cdninstagram.com/t51.2885-15/e35/13739623_133362980430029_1147730227_n.jpg,woman,0.9909372329711914
,people,0.9726886749267578
,togetherness,0.9708337783813477
,indoors,0.967625617980957
,child,0.9670337438583374
,man,0.9660106897354126
,enjoyment,0.9520970582962036
,portrait,0.9504572153091431
,facial expression,0.9403234720230103
,daylight,0.9364601373672485
,wear,0.9358575344085693
,pride,0.9202991127967834
,two,0.897676944732666
,vehicle,0.8923239707946777
,outdoors,0.8913655281066895
,adult,0.8871069550514221
,elementary school,0.8861691355705261
,family,0.868710458278656
,happiness,0.8661781549453735
,car,0.861812174320221
https://scontent-sit4-1.cdninstagram.com/t51.2885-15/e35/13767723_527623260759708_2055868959_n.jpg,performance,0.9987585544586182
,music,0.9975776672363281
,concert,0.9926957488059998
,singer,0.9884570837020874
,stage,0.985278844833374
,musician,0.9828076362609863
,festival,0.9766780138015747
,people,0.9573625922203064
,band,0.9325442314147949
,dancer,0.9190802574157715
,dancing,0.9159837961196899
,adult,0.8870517015457153
,woman,0.8771023154258728
,group,0.8440858125686646
,theater,0.8333081007003784
,theater,0.8297725915908813
,show,0.8186808824539185
,pop,0.8164347410202026
,wear,0.7908310890197754
,ballet,0.7562023401260376
https://scontent-sit4-1.cdninstagram.com/t51.2885-15/e35/13731393_263480287360146_1149425893_n.jpg,give voice,0.9859504103660583
,text,0.9522814750671387
,conceptual,0.947288453578949
,disease,0.9190312623977661
,desktop,0.885682225227356
,typographic,0.8841006755828857
,education,0.8715174198150635
,business,0.8696551322937012
,donation,0.8357473015785217
,tag,0.8274483680725098
,abstract,0.8259433507919312
,medicine,0.8155887126922607
,monthly,0.8095712065696716
,time,0.8040892481803894
,definition,0.7986575365066528
,number,0.7979862689971924
,schedule,0.7906113862991333
,cloud,0.7882786393165588
,company,0.781003475189209
,phase,0.7759960889816284
https://scontent-sit4-1.cdninstagram.com/t51.2885-15/e35/13628407_1746417258978939_11197430_n.jpg,many,0.9909049272537231
,people,0.9745257496833801
,commerce,0.9744999408721924
,crowd,0.9716147184371948
,exhibition,0.9566304683685303
,education,0.9534735679626465
,group,0.9510011672973633
,festival,0.9439718723297119
,school,0.9379451274871826
,stock,0.9282283186912537
,tourist,0.9275925755500793
,shopping,0.911992609500885
,election,0.9115490317344666
,city,0.8887962102890015
,carnival,0.8817187547683716
,religion,0.8582789301872253
,woman,0.855339527130127
,politician,0.8551990985870361
,candidate,0.8436728715896606
,market,0.8328878879547119
https://scontent-sit4-1.cdninstagram.com/t51.2885-15/e35/13774864_187327098349654_1087059866_n.jpg,group,0.993742823600769
,woman,0.9914584755897522
,man,0.9844177961349487
,adult,0.9797455072402954
,room,0.9778387546539307
,education,0.9755150079727173
,facial expression,0.9728418588638306
,people,0.970024824142456
,child,0.9664312601089478
,indoors,0.9639021158218384
,school,0.9635782241821289
,group,0.951363205909729
,portrait,0.9356312155723572
,togetherness,0.9206573963165283
,class,0.8916189670562744
,classroom,0.8856955766677856
,happiness,0.8835774064064026
,teamwork,0.8819884061813354
,student,0.8689923286437988
,sitting,0.8677830696105957
https://scontent-sit4-1.cdninstagram.com/t51.2885-15/e35/13706920_1755939794646218_143170550_n.jpg,performance,0.9993683695793152
,music,0.999024510383606
,concert,0.9972484111785889
,festival,0.9949371814727783
,rap,0.9782874584197998
,band,0.9779956936836243
,musician,0.9775375127792358
,pop,0.9726599454879761
,singer,0.9713051319122314
,stage,0.9587482213973999
,audience,0.957118034362793
,light,0.9207932353019714
,energy,0.8886736035346985
,celebration,0.8849709033966064
,rave,0.8767712116241455
,evening,0.8630800247192383
,disco,0.862999677658081
,song,0.8607633709907532
,exhilaration,0.857980489730835
,indie,0.8529883623123169
https://scontent-sit4-1.cdninstagram.com/t51.2885-15/e35/13525463_1729819683943025_728190377_n.jpg,people,0.9789162874221802
,man,0.9777676463127136
,group,0.9735530614852905
,woman,0.9708231687545776
,portrait,0.956278920173645
,child,0.9552615880966187
,happiness,0.9490907788276672
,facial expression,0.9444408416748047
,adult,0.9392293691635132
,indoors,0.9375201463699341
,enjoyment,0.9362105131149292
,togetherness,0.9332612752914429
,family,0.9324666261672974
,room,0.9264132976531982
,girl,0.9092270135879517
,school,0.9046760201454163
,two,0.8990325927734375
,three,0.8988097310066223
,friendship,0.8932546377182007
,education,0.8898873329162598
https://scontent-sit4-1.cdninstagram.com/t51.2885-15/e35/13694394_1157712777582170_424367930_n.jpg,people,0.9928263425827026
,music,0.9877188801765442
,concert,0.9781109094619751
,light,0.9610207676887512
,performance,0.9491602182388306
,stage,0.9441385269165039
,musician,0.9069693088531494
,room,0.8983982801437378
,flame,0.8980988264083862
,audience,0.8896654844284058
,festival,0.888263463973999
,indoors,0.8867230415344238
,man,0.8636806011199951
,group,0.8577921390533447
,singer,0.8572381138801575
,hospital,0.8538448214530945
,city,0.8408419489860535
,adult,0.8284217119216919
,piano,0.8258250951766968
,energy,0.8207996487617493
https://scontent-sit4-1.cdninstagram.com/t51.2885-15/e35/13380844_265924380430610_191907787_n.jpg,people,0.9972093105316162
,portrait,0.9885778427124023
,woman,0.9881290793418884
,man,0.9817262887954712
,adult,0.9756487011909485
,girl,0.9755235314369202
,wear,0.969373881816864
,facial expression,0.9662920832633972
,two,0.9531548023223877
,festival,0.9274805188179016
,couple,0.9017124772071838
,group,0.8871870040893555
,fun,0.8749393224716187
,happiness,0.8701426982879639
,fashion,0.869948148727417
,music,0.867914080619812
,child,0.8643784523010254
,love,0.8501818776130676
,adolescent,0.8397501707077026
,enjoyment,0.8368056416511536
https://scontent-sit4-1.cdninstagram.com/t51.2885-15/e35/13557196_1373050969375405_1978967167_n.jpg,movie,0.9942872524261475
,portrait,0.9904971122741699
,people,0.9885520339012146
,television,0.9816579818725586
,performance,0.9756343364715576
,man,0.9727700352668762
,indoors,0.972369909286499
,communication,0.9700854420661926
,sitting,0.9695791006088257
,stage,0.9674596786499023
,audience,0.9643241167068481
,horizontal,0.9627795219421387
,theater,0.9599927663803101
,adult,0.956756591796875
,music,0.9490870237350464
,woman,0.9463903903961182
,cinema,0.9416742920875549
,editorial,0.9112918376922607
,technology,0.901700496673584
,sports fan,0.8963048458099365
https://scontent-sit4-1.cdninstagram.com/t51.2885-15/e35/13694571_116324035469789_1370950392_n.jpg,performance,0.9957913160324097
,music,0.9925937652587891
,concert,0.9886927008628845
,singer,0.9865262508392334
,musician,0.983062207698822
,band,0.9721290469169617
,festival,0.9476411938667297
,stage,0.9443926215171814
,guitarist,0.920269250869751
,pop,0.8865516781806946
,people,0.8525035381317139
,group,0.8153645992279053
,light,0.7745641469955444
,guitar,0.7651932835578918
,adult,0.7551654577255249
,audience,0.7117118835449219
,rap,0.7083953619003296
,bassist,0.6996221542358398
,songwriter,0.645113468170166
,drummer,0.6339635848999023
https://scontent-sit4-1.cdninstagram.com/t51.2885-15/e35/13731385_1359328774096319_603688132_n.jpg,competition,0.990513801574707
,people,0.9879400730133057
,recreation,0.985388994216919
,game,0.962830662727356
,athlete,0.8939082622528076
,championship,0.8906187415122986
,group,0.8774226307868958
,music,0.8514068126678467
,ball,0.8500047922134399
,many,0.8485279083251953
,man,0.846243143081665
,adult,0.8271839022636414
,club,0.8206502199172974
,outfit,0.8198825120925903
,soccer,0.8179628849029541
,movie,0.8138343095779419
,football,0.8120246529579163
,ceremony,0.8044666051864624
,award,0.7998189926147461
,performance,0.7973633408546448
https://scontent-sit4-1.cdninstagram.com/t51.2885-15/e35/13414421_1800615423561220_676270996_n.jpg,people,0.9796411991119385
,group,0.9760185480117798
,festival,0.9531763195991516
,woman,0.9447838068008423
,enjoyment,0.9447659850120544
,facial expression,0.9356834888458252
,man,0.9329770803451538
,child,0.9244282245635986
,fun,0.8833151459693909
,adult,0.8711655139923096
,portrait,0.8682214021682739
,education,0.8674906492233276
,wear,0.8577842712402344
,beer,0.8538336753845215
,celebration,0.8532348871231079
,group,0.8493393659591675
,interaction,0.8378794193267822
,three,0.835229754447937
,laughing,0.8335766792297363
,indoors,0.8251208066940308
https://scontent-sit4-1.cdninstagram.com/t51.2885-15/e35/13743153_1069054296483490_1115759691_n.jpg,performance,0.9998658895492554
,music,0.9996904134750366
,concert,0.9994193315505981
,musician,0.9968996644020081
,singer,0.9962035417556763
,stage,0.9954713582992554
,band,0.9882168769836426
,pop,0.9855414032936096
,festival,0.9814103841781616
,guitarist,0.9688746929168701
,audience,0.9679073095321655
,indie,0.9355900287628174
,rap,0.927075982093811
,guitar,0.9088045358657837
,song,0.8892190456390381
,club,0.8872016668319702
,songwriter,0.8848447799682617
,stringed instrument,0.8597017526626587
,club,0.8431906700134277
,disco,0.8405336141586304
https://scontent-sit4-1.cdninstagram.com/t51.2885-15/e35/13696869_483340931871326_1953981972_n.jpg,music,0.9957302808761597
,concert,0.9946783781051636
,performance,0.994004487991333
,festival,0.9818154573440552
,singer,0.9738031625747681
,musician,0.9720550179481506
,band,0.9674371480941772
,people,0.9500203728675842
,stage,0.9483247995376587
,rave,0.9368224143981934
,light,0.9209627509117126
,party,0.8995230197906494
,pop,0.8991895914077759
,disco,0.8964840173721313
,indie,0.8940820097923279
,club,0.8892598748207092
,energy,0.8822037577629089
,audience,0.881625771522522
,celebration,0.8706278204917908
,rap,0.8367254734039307
https://scontent-sit4-1.cdninstagram.com/t51.2885-15/e35/13551527_138301426592507_1206634044_n.jpg,woman,0.9914064407348633
,indoors,0.9790010452270508
,togetherness,0.972339391708374
,man,0.9652760028839111
,people,0.9536543488502502
,shopping,0.9516589641571045
,enjoyment,0.931542158126831
,love,0.9238085746765137
,portrait,0.9224092960357666
,wedding,0.9175233840942383
,girl,0.9164169430732727
,fun,0.9079582691192627
,happiness,0.9036417007446289
,friendship,0.897800862789154
,laughing,0.8957022428512573
,facial expression,0.8903518915176392
,family,0.8901174068450928
,fashion,0.8702023029327393
,couple,0.8583167791366577
,child,0.8510951399803162
https://scontent-sit4-1.cdninstagram.com/t51.2885-15/e35/13643514_1117331121673368_342139619_n.jpg,communication,0.9881404042243958
,screen,0.9844939112663269
,people,0.9822484254837036
,technology,0.978948712348938
,television,0.9759388566017151
,movie,0.9642170667648315
,business,0.9626661539077759
,man,0.9394824504852295
,computer,0.9346284866333008
,adult,0.9120446443557739
,monitor,0.9097851514816284
,woman,0.8903706669807434
,music,0.8802938461303711
,internet,0.8790530562400818
,spherical,0.8627673387527466
,portrait,0.8610456585884094
,editorial,0.8419089317321777
,meeting,0.8199557065963745
,electronics,0.801970362663269
,exhibition,0.798707902431488
https://scontent-sit4-1.cdninstagram.com/t51.2885-15/e35/13696647_1062739397141476_227375060_n.jpg,performance,0.9938690662384033
,music,0.9937779903411865
,concert,0.9928990602493286
,stage,0.9874430298805237
,festival,0.983801543712616
,musician,0.9819841384887695
,singer,0.9810447692871094
,band,0.972400963306427
,people,0.9603675603866577
,light,0.9344316720962524
,guitar,0.9229129552841187
,show,0.8972271680831909
,audience,0.8863288760185242
,pop,0.8808493614196777
,guitarist,0.8795037269592285
,indie,0.8494535684585571
,punk,0.8155128955841064
,energy,0.8129146099090576
,evening,0.7972959280014038
,recreation,0.788554310798645
https://scontent-sit4-1.cdninstagram.com/t51.2885-15/e35/13721164_1711936892357330_1776704421_n.jpg,travel,0.9881973266601562
,people,0.972766637802124
,water,0.9595440030097961
,child,0.9460580348968506
,enjoyment,0.9304413199424744
,fun,0.9119828939437866
,outdoors,0.9056953191757202
,portrait,0.9001504778862
,leisure,0.8996008634567261
,city,0.8757110834121704
,sky,0.8670902848243713
,vacation,0.8410525918006897
,one,0.8406810760498047
,summer,0.8344911336898804
,man,0.8266323208808899
,recreation,0.8079649209976196
,vehicle,0.7961785793304443
,daylight,0.7857154011726379
,bridge,0.782636284828186
,adolescent,0.7754372358322144
https://scontent-sit4-1.cdninstagram.com/t51.2885-15/e35/13707287_1155669614500465_773386846_n.jpg,exhibition,0.988463819026947
,people,0.9792294502258301
,carnival,0.9712371230125427
,festival,0.9621481895446777
,woman,0.9517493844032288
,school,0.9444419145584106
,booth,0.9241540431976318
,editorial,0.924139678478241
,man,0.9173517227172852
,city,0.916579008102417
,marquee,0.9103093147277832
,education,0.9060874581336975
,group,0.8988814949989319
,adult,0.8937734365463257
,International,0.8788259029388428
,commerce,0.8618661165237427
,wear,0.8530844449996948
,shopping,0.8504321575164795
,event,0.8479359149932861
,club,0.8428230285644531
https://scontent-sit4-1.cdninstagram.com/t51.2885-15/e35/13743363_1266662443352571_1850892393_n.jpg,child,0.9794713854789734
,woman,0.9604264497756958
,fun,0.9551606178283691
,people,0.9537366628646851
,man,0.9448438882827759
,family,0.9377012848854065
,togetherness,0.9219042658805847
,portrait,0.9194222688674927
,happiness,0.8842657804489136
,love,0.8645464777946472
,recreation,0.8606588840484619
,joy,0.851864218711853
,couple,0.8489020466804504
,enjoyment,0.8416052460670471
,young,0.8339506387710571
,leisure,0.8303499817848206
,two,0.8218332529067993
,cute,0.8125030994415283
,adult,0.8080646395683289
,education,0.7970197200775146
https://scontent-sit4-1.cdninstagram.com/t51.2885-15/e35/13704142_1656101534711774_1635575664_n.jpg,fashion,0.9913238286972046
,festival,0.9808870553970337
,woman,0.9782578945159912
,exhibition,0.9779748320579529
,party,0.9775440692901611
,performance,0.9757262468338013
,nightlife,0.9745700359344482
,music,0.973814845085144
,club,0.9706382155418396
,wear,0.9651705026626587
,model,0.9643116593360901
,show,0.9589977264404297
,concert,0.9510306715965271
,celebration,0.9473786354064941
,people,0.9458290338516235
,glamour,0.9454628825187683
,movie,0.9450280070304871
,singer,0.9415249824523926
,evening,0.93861985206604
,girl,0.9323008060455322
https://scontent-sit4-1.cdninstagram.com/t51.2885-15/e35/13534112_1126104867448375_1393951418_n.jpg,people,0.9796977043151855
,one,0.9500949382781982
,wear,0.9363992214202881
,gloves,0.9226425290107727
,girl,0.9196963310241699
,adult,0.9149383306503296
,man,0.9141687154769897
,woman,0.9130470752716064
,child,0.912894606590271
,indoors,0.8998216390609741
,portrait,0.886131763458252
,health,0.8835420608520508
,medicine,0.8800355195999146
,fun,0.86701500415802
,lid,0.8153682947158813
,hospital,0.812164306640625
,mask,0.8118746280670166
,mask,0.8012580871582031
,little,0.7982019186019897
,healthcare,0.7719550132751465
https://scontent-sit4-1.cdninstagram.com/t51.2885-15/e35/13774179_1217305214966786_786735896_n.jpg,people,0.986560583114624
,adult,0.9354338645935059
,portrait,0.9263230562210083
,daylight,0.9260863661766052
,lifestyle,0.9244521260261536
,wear,0.9213265180587769
,enjoyment,0.9207180738449097
,shopping,0.9164612889289856
,fun,0.9150667786598206
,indoors,0.9147381782531738
,man,0.9065432548522949
,leisure,0.9032106399536133
,one,0.8995767831802368
,stock,0.879555344581604
,outdoors,0.8777295351028442
,child,0.8751771450042725
,chair,0.8745497465133667
,happiness,0.8643501996994019
,room,0.8622822761535645
,school,0.8517735004425049
https://scontent-sit4-1.cdninstagram.com/t51.2885-15/e35/13704366_1645066865812010_565660248_n.jpg,food,0.9892681241035461
,no person,0.9761725664138794
,dinner,0.9517501592636108
,lunch,0.9399871826171875
,rice,0.9172217845916748
,delicious,0.914779782295227
,meal,0.9073587656021118
,cooking,0.9040617346763611
,vegetable,0.9034097194671631
,dish,0.8924590349197388
,plate,0.8636280298233032
,table,0.8505185842514038
,traditional,0.8423089981079102
,restaurant,0.8192703723907471
,pork,0.8175687789916992
,grow,0.8135682940483093
,meat,0.8115069270133972
,knife,0.8050382137298584
,bowl,0.791244626045227
,still life,0.7877295017242432
https://scontent-sit4-1.cdninstagram.com/t51.2885-15/e35/13715220_940228522754105_1816531869_n.jpg,performance,0.9983197450637817
,music,0.9974340796470642
,concert,0.9968140125274658
,stage,0.9959417581558228
,musician,0.988052487373352
,singer,0.9869829416275024
,people,0.9653438329696655
,festival,0.9650962352752686
,band,0.956051230430603
,theater,0.9414618611335754
,light,0.9274892807006836
,guitar,0.9230210781097412
,theater,0.9209041595458984
,audience,0.9163522720336914
,pop,0.9101544618606567
,dancing,0.9002854824066162
,guitarist,0.8956066370010376
,show,0.886245608329773
,dancer,0.8853659629821777
,group,0.8715461492538452
https://scontent-sit4-1.cdninstagram.com/t51.2885-15/e35/13722183_245497859176733_421949894_n.jpg,no person,0.995508074760437
,indoors,0.9845907092094421
,industry,0.9374464750289917
,wood,0.9358741641044617
,food,0.9135704040527344
,traditional,0.9109143018722534
,cooking,0.9097224473953247
,machinery,0.896660327911377
,business,0.8884985446929932
,travel,0.8807584047317505
,ingredients,0.8581373691558838
,architecture,0.8544343709945679
,outdoors,0.8532183766365051
,success,0.83968585729599
,luxury,0.8393511772155762
,health,0.8218973278999329
,leisure,0.8208645582199097
,family,0.819611132144928
,vertical,0.8169803619384766
,technology,0.8169698715209961
https://scontent-sit4-1.cdninstagram.com/t51.2885-15/e35/13743118_559328410919510_771403514_n.jpg,people,0.990871787071228
,competition,0.9743503332138062
,music,0.9502583146095276
,performance,0.94664466381073
,festival,0.9453904628753662
,celebration,0.9438319802284241
,recreation,0.9127947092056274
,event,0.875217616558075
,award,0.8706440925598145
,adult,0.8662384748458862
,ceremony,0.8502483367919922
,award,0.8429527878761292
,group,0.8413504362106323
,game,0.8355585336685181
,woman,0.8348702788352966
,champion,0.8219316005706787
,child,0.8015468120574951
,sport,0.7995599508285522
,wear,0.7979234457015991
,athlete,0.7914714813232422
https://scontent-sit4-1.cdninstagram.com/t51.2885-15/e35/13736038_411576455679657_655302707_n.jpg,performance,0.9998501539230347
,music,0.9995747804641724
,concert,0.9993225932121277
,stage,0.9970701932907104
,musician,0.9939701557159424
,singer,0.9936948418617249
,band,0.9839291572570801
,festival,0.9773077368736267
,pop,0.9750620126724243
,guitarist,0.9462956190109253
,show,0.9070841073989868
,rap,0.9039135575294495
,energy,0.9024573564529419
,indie,0.8918754458427429
,guitar,0.8911828994750977
,audience,0.8709489107131958
,song,0.8482273817062378
,club,0.8166930675506592
,light,0.7963070869445801
,songwriter,0.7850358486175537
https://scontent-sit4-1.cdninstagram.com/t51.2885-15/e35/13696459_1963362693890038_958768237_n.jpg,people,0.9881508350372314
,man,0.9823586940765381
,portrait,0.979660153388977
,adult,0.962372362613678
,woman,0.9399513006210327
,shopping,0.9369323253631592
,wear,0.9325377941131592
,pride,0.9265173077583313
,commerce,0.9211249351501465
,stock,0.914975106716156
,happiness,0.912814736366272
,market,0.8937296867370605
,two,0.8832145929336548
,group,0.8699665069580078
,city,0.8548672199249268
,facial expression,0.8542022705078125
,business,0.842258870601654
,enjoyment,0.8358784914016724
,indoors,0.8264896869659424
,street,0.8239577412605286
https://scontent-sit4-1.cdninstagram.com/t51.2885-15/e35/13694448_1739326739661873_1953670894_n.jpg,modern,0.9969816207885742
,business,0.9873902797698975
,city,0.9812297821044922
,urban,0.9807273149490356
,glass,0.9797892570495605
,building,0.9722046852111816
,office,0.9682076573371887
,architecture,0.9539251327514648
,reflection,0.9497566223144531
,street,0.9317057728767395
,contemporary,0.9315818548202515
,window,0.930808424949646
,downtown,0.9070003032684326
,sky,0.9064717292785645
,technology,0.9032319784164429
,travel,0.8859376907348633
,commercial,0.8811277747154236
,light,0.8797723054885864
,futuristic,0.8775126338005066
,cityscape,0.8724700808525085
