url,class,score
https://scontent-sit4-1.cdninstagram.com/t51.2885-15/e35/13167352_967195963388102_1632627084_n.jpg,paper,0.9941060543060303
,note,0.9754582047462463
,business,0.9603562951087952
,letter,0.9459222555160522
,post,0.944594144821167
,no person,0.9440329670906067
,card,0.9409568309783936
,message,0.935110330581665
,document,0.9236619472503662
,blank,0.8812904357910156
,text,0.8568262457847595
,reminder,0.8525642156600952
,office,0.8493520021438599
,desktop,0.8383179306983948
,sticky,0.8359707593917847
,correspondence,0.8125770092010498
,design,0.7921993732452393
,page,0.7785754203796387
,symbol,0.7764034867286682
,money,0.773993194103241
https://scontent-sit4-1.cdninstagram.com/t51.2885-15/e35/13398748_890267887748245_424742410_n.jpg,glass,0.9972684979438782
,drink,0.9938448667526245
,no person,0.9609795808792114
,party,0.9518841505050659
,bottle,0.9512743949890137
,cold,0.9418178796768188
,celebration,0.9350215792655945
,liquid,0.9346719980239868
,wine,0.930234968662262
,alcohol,0.9245213270187378
,still life,0.9210978746414185
,luxury,0.8993136286735535
,water,0.8714292049407959
,full,0.8594335317611694
,food,0.8373761177062988
,health,0.8182724714279175
,bubble,0.8164001703262329
,crystal,0.806139349937439
,taste,0.7929399609565735
,vacation,0.7891796231269836
https://scontent-sit4-1.cdninstagram.com/t51.2885-15/e35/13385828_829637090505173_2100781073_n.jpg,paper,0.9713394641876221
,business,0.9533804059028625
,money,0.9478083848953247
,money,0.9443423748016357
,International,0.9338089227676392
,success,0.9101302027702332
,no person,0.9048314094543457
,wealth,0.9008715152740479
,travel,0.8965396881103516
,symbol,0.8932710289955139
,finance,0.8922862410545349
,gambling,0.8853155970573425
,administration,0.8656869530677795
,luck,0.862231969833374
,sign,0.8483898639678955
,card,0.8479946851730347
,vacation,0.8453997373580933
,spherical,0.8431929349899292
,populace,0.8376879692077637
,commerce,0.8343170881271362
https://scontent-sit4-1.cdninstagram.com/t51.2885-15/e35/13167256_262739377412771_1256258430_n.jpg,no person,0.954199492931366
,paper,0.949465811252594
,business,0.9313387870788574
,desktop,0.9163957834243774
,text,0.9061167240142822
,card,0.9014832377433777
,symbol,0.8935942649841309
,illustration,0.8920511603355408
,note,0.8762229681015015
,vector,0.8647273778915405
,letter,0.8571832776069641
,people,0.835005521774292
,sign,0.8255394697189331
,design,0.8093605637550354
,office,0.7939977645874023
,graphic,0.7831453084945679
,nature,0.7786282896995544
,image,0.7779004573822021
,message,0.7662274241447449
,abstract,0.7624881267547607
https://scontent-sit4-1.cdninstagram.com/t51.2885-15/e35/13437289_752600944842935_611927679_n.jpg,card,0.9521255493164062
,paper,0.944220244884491
,text,0.9350546002388
,note,0.9260948300361633
,business,0.9084862470626831
,letter,0.9008874297142029
,reminder,0.8681751489639282
,no person,0.8633976578712463
,message,0.8611347675323486
,education,0.8564566969871521
,office,0.8503000140190125
,desktop,0.8404828310012817
,blank,0.8247755765914917
,notebook,0.816867470741272
,people,0.8112772703170776
,empty,0.80998694896698
,symbol,0.7860836982727051
,love,0.7827587723731995
,illustration,0.7803354263305664
,calendar,0.7554013729095459
https://scontent-sit4-1.cdninstagram.com/t51.2885-15/e35/13534235_993168964132729_282637516_n.jpg,paper,0.9792494773864746
,text,0.9648351669311523
,document,0.9568014144897461
,love,0.9261837005615234
,no person,0.9032661318778992
,desktop,0.899376630783081
,business,0.8904818296432495
,letter,0.8801429271697998
,card,0.8801255226135254
,education,0.8716555237770081
,school,0.859634280204773
,handwriting,0.8514034748077393
,writing,0.8251200914382935
,travel,0.8227285146713257
,graph,0.7929181456565857
,medicine,0.7896877527236938
,symbol,0.7888636589050293
,wedding,0.7723182439804077
,page,0.7673699855804443
,composition,0.7618682384490967
https://scontent-sit4-1.cdninstagram.com/t51.2885-15/e35/13259077_2004750796417477_743076077_n.jpg,no person,0.986657977104187
,paper,0.9858326315879822
,page,0.9773151278495789
,business,0.9753078818321228
,notebook,0.9727208614349365
,text,0.9722693562507629
,document,0.9695755243301392
,education,0.9647022485733032
,diary,0.9412487745285034
,empty,0.9389500617980957
,commerce,0.912081778049469
,people,0.9053956270217896
,calendar,0.9019178748130798
,writing,0.8913257122039795
,note,0.8844529390335083
,school,0.8827688694000244
,time,0.8805135488510132
,medicine,0.8684637546539307
,pad,0.8581383228302002
,schedule,0.850548505783081
https://scontent-sit4-1.cdninstagram.com/t51.2885-15/e35/13129511_1017960998241239_1060397331_n.jpg,business,0.9815211296081543
,paper,0.9691393375396729
,no person,0.9476718902587891
,text,0.9396470189094543
,desktop,0.9231106638908386
,education,0.9190118312835693
,page,0.9049258232116699
,technology,0.9016833305358887
,data,0.8889068365097046
,card,0.8854695558547974
,blank,0.879447340965271
,data,0.8604830503463745
,notebook,0.8575791716575623
,company,0.8545124530792236
,healthcare,0.8543437123298645
,template,0.8529675602912903
,illustration,0.8455302119255066
,notepaper,0.8361676335334778
,symbol,0.8239603042602539
,document,0.8207482099533081
https://scontent-sit4-1.cdninstagram.com/t51.2885-15/e35/13116621_184165758645154_320028489_n.jpg,desktop,0.9669278860092163
,card,0.9558234810829163
,paper,0.9379571676254272
,text,0.9210293889045715
,symbol,0.9126111268997192
,business,0.9079997539520264
,illustration,0.9022630453109741
,no person,0.8998613357543945
,template,0.8805164694786072
,shape,0.8787260055541992
,texture,0.8625963926315308
,pattern,0.8536176681518555
,notepaper,0.8520240783691406
,abstract,0.8510839939117432
,color,0.8356646299362183
,design,0.8351022005081177
,blank,0.8323783874511719
,notebook,0.8027654886245728
,image,0.7817420959472656
,element,0.7747292518615723
https://scontent-sit4-1.cdninstagram.com/t51.2885-15/e35/13166634_245142749182242_1013055599_n.jpg,paper,0.9962270259857178
,note,0.9878325462341309
,no person,0.98747718334198
,document,0.9795123934745789
,composition,0.9642482399940491
,business,0.9634288549423218
,notebook,0.9625736474990845
,still life,0.9611260890960693
,pencil,0.953482985496521
,writing,0.9477763175964355
,love,0.9206866025924683
,text,0.9103426337242126
,page,0.9102835655212402
,office,0.9010530710220337
,education,0.8910624980926514
,balance,0.8892719745635986
,sheet,0.8738833665847778
,book,0.86594557762146
,calendar,0.8640928268432617
,notepaper,0.862159252166748
https://scontent-sit4-1.cdninstagram.com/t51.2885-15/e35/13556927_260555150989929_1679303734_n.jpg,paper,0.9841424226760864
,no person,0.9646163582801819
,retro,0.9636576771736145
,diary,0.9567120671272278
,notebook,0.955802321434021
,texture,0.9489262104034424
,ink,0.9453058242797852
,page,0.9358563423156738
,document,0.921807050704956
,antique,0.9152814149856567
,vintage,0.9122493863105774
,old,0.9091371297836304
,calendar,0.9039185047149658
,dirty,0.9018633365631104
,desktop,0.8814064264297485
,time,0.8668413162231445
,ancient,0.8570621013641357
,text,0.8476583361625671
,line,0.8396262526512146
,letter,0.8359591960906982
https://scontent-sit4-1.cdninstagram.com/t51.2885-15/e35/13129305_300705046927284_738649080_n.jpg,no person,0.9844111204147339
,still life,0.979340136051178
,people,0.9375309944152832
,one,0.9369097948074341
,child,0.9326425194740295
,text,0.9304540753364563
,paper,0.9283720850944519
,education,0.9187830686569214
,food,0.9035494327545166
,two,0.8971219062805176
,love,0.8945075273513794
,toy,0.8936969041824341
,apple,0.8881317377090454
,school,0.8740109801292419
,blur,0.858607292175293
,adult,0.858344316482544
,fruit,0.8567248582839966
,group,0.8438335061073303
,business,0.8325319290161133
,grow,0.8291176557540894
https://scontent-sit4-1.cdninstagram.com/t51.2885-15/e35/13473101_1761488237408132_1153010394_n.jpg,paper,0.9832272529602051
,business,0.98154616355896
,no person,0.9717282056808472
,document,0.9618508815765381
,text,0.9367035627365112
,technology,0.9051162004470825
,composition,0.9017741680145264
,healthcare,0.8904008269309998
,office,0.8873865604400635
,writing,0.8834799528121948
,education,0.8832355737686157
,data,0.8821607828140259
,data,0.8740050792694092
,health,0.8724561929702759
,growth,0.854966938495636
,desktop,0.8433036804199219
,letter,0.8361846208572388
,balance,0.8202877640724182
,pencil,0.8150807619094849
,finance,0.8083419799804688
https://scontent-sit4-1.cdninstagram.com/t51.2885-15/e35/13413261_602446539936422_1432106150_n.jpg,text,0.9701480865478516
,paper,0.9641902446746826
,education,0.9520817399024963
,notebook,0.9440736770629883
,no person,0.9344395399093628
,school,0.9179903268814087
,healthcare,0.9115549325942993
,desktop,0.9063585996627808
,business,0.90125572681427
,writing,0.8984968662261963
,document,0.8972033262252808
,letter,0.8929426670074463
,page,0.8831748962402344
,card,0.8647434115409851
,science,0.8639365434646606
,symbol,0.8601255416870117
,pattern,0.8461759090423584
,empty,0.8394074440002441
,texture,0.8356848955154419
,illustration,0.8221997022628784
https://scontent-sit4-1.cdninstagram.com/t51.2885-15/e35/13413411_1028590570521994_875500328_n.jpg,no person,0.9795176982879639
,paper,0.9425439238548279
,business,0.9366141557693481
,money,0.8592652082443237
,text,0.8453301191329956
,love,0.8293179273605347
,symbol,0.8175145387649536
,desktop,0.8146883249282837
,heart,0.8000941276550293
,education,0.7983372211456299
,finance,0.7968611717224121
,card,0.7960147857666016
,health,0.795697808265686
,note,0.7921818494796753
,healthcare,0.7769196033477783
,wealth,0.7384666204452515
,letter,0.7337504625320435
,balance,0.728581428527832
,closeup,0.7045363187789917
,success,0.6849570870399475
https://scontent-sit4-1.cdninstagram.com/t51.2885-15/e35/13285533_1241448735880221_2108869037_n.jpg,paper,0.9694147109985352
,no person,0.9646478891372681
,document,0.940147340297699
,business,0.9298874139785767
,text,0.926856517791748
,money,0.9064451456069946
,finance,0.8769694566726685
,composition,0.8624413013458252
,commerce,0.8457080125808716
,technology,0.8442165851593018
,note,0.8422333598136902
,card,0.8364076614379883
,wealth,0.8300981521606445
,computer,0.8158997297286987
,science,0.8112543821334839
,symbol,0.7999114990234375
,still life,0.7984133958816528
,administration,0.7951498031616211
,research,0.7802540063858032
,data,0.7707949876785278
https://scontent-sit4-1.cdninstagram.com/t51.2885-15/e35/13129846_601776646643883_964247505_n.jpg,child,0.9925335049629211
,people,0.9853793382644653
,blur,0.9617352485656738
,boy,0.9578685760498047
,education,0.9412108659744263
,adult,0.9287022352218628
,one,0.9204624891281128
,toy,0.9152678847312927
,girl,0.9128011465072632
,indoors,0.9074316024780273
,two,0.9031612873077393
,facial expression,0.8993716239929199
,fun,0.896395206451416
,boy,0.8874640464782715
,innocence,0.8868672847747803
,enjoyment,0.8867709040641785
,paper,0.8728161454200745
,wear,0.8725631237030029
,youth,0.8722248077392578
,text,0.8467372059822083
https://scontent-sit4-1.cdninstagram.com/t51.2885-15/e35/13298103_255012644862962_547578094_n.jpg,document,0.9923169612884521
,administration,0.989984393119812
,paper,0.9871824979782104
,business,0.986328125
,no person,0.9802362322807312
,text,0.9779571294784546
,book,0.9662744998931885
,law,0.9559322595596313
,finance,0.9523497819900513
,money,0.9499577283859253
,tax,0.9481321573257446
,form,0.946204662322998
,composition,0.9456727504730225
,paperwork,0.9374983310699463
,income,0.936960756778717
,government,0.9276719093322754
,financial,0.9212497472763062
,research,0.9201493859291077
,balance,0.9137933850288391
,debt,0.9119645953178406
https://scontent-sit4-1.cdninstagram.com/t51.2885-15/e35/13736871_304260089921881_964895113_n.jpg,business,0.9725509285926819
,people,0.9592984914779663
,adult,0.9540756940841675
,woman,0.9311115741729736
,indoors,0.8820468187332153
,sign,0.8806673288345337
,office,0.8726804852485657
,technology,0.8634241819381714
,text,0.8421212434768677
,man,0.825615644454956
,one,0.8245953321456909
,presentation,0.8046484589576721
,education,0.7981834411621094
,paper,0.7959634065628052
,finance,0.7713366746902466
,commerce,0.765102207660675
,desktop,0.7640119791030884
,looking,0.7571953535079956
,computer,0.750881016254425
,telephone,0.7477672100067139
https://scontent-sit4-1.cdninstagram.com/t51.2885-15/e35/13744116_1756288584645548_176280992_n.jpg,composition,0.9979520440101624
,paper,0.9929672479629517
,business,0.9881020784378052
,note,0.9832284450531006
,document,0.9816541075706482
,office,0.9797123074531555
,pencil,0.9778342247009277
,writing,0.967491865158081
,ink,0.9600847959518433
,sheet,0.9447231888771057
,work,0.939798891544342
,education,0.9342746138572693
,school,0.9248515963554382
,data,0.9224660396575928
,notebook,0.9203517436981201
,money,0.9159906506538391
,fountain,0.9121509790420532
,empty,0.9066907167434692
,study,0.901894211769104
,handwriting,0.9004039764404297
https://scontent-sit4-1.cdninstagram.com/t51.2885-15/e35/13167295_939755802808379_1731079386_n.jpg,people,0.9805516600608826
,painting,0.9647164344787598
,child,0.958707332611084
,education,0.9308054447174072
,one,0.9028720855712891
,election,0.9014503359794617
,art,0.8824020624160767
,money,0.8804593086242676
,administration,0.8772175312042236
,school,0.8715018630027771
,finance,0.8659614324569702
,indoors,0.8628193736076355
,boy,0.8594930768013
,paper,0.8556636571884155
,business,0.8341906666755676
,hospital,0.8232821226119995
,painter,0.8231369256973267
,offense,0.818365752696991
,vehicle,0.8049725890159607
,adult,0.7805423736572266
https://scontent-sit4-1.cdninstagram.com/t51.2885-15/e35/13380859_1716651031939128_723622935_n.jpg,text,0.9631255865097046
,business,0.9546210765838623
,paper,0.9522495269775391
,desktop,0.9148330688476562
,company,0.8740230798721313
,data,0.8720189332962036
,data,0.865138053894043
,no person,0.824722170829773
,education,0.8236073851585388
,money,0.7972196340560913
,symbol,0.756819486618042
,technology,0.7362537384033203
,preparation,0.7346885204315186
,page,0.726956844329834
,success,0.7227901220321655
,document,0.7215216159820557
,commerce,0.712533712387085
,graph,0.7052332162857056
,design,0.6859796047210693
,research,0.6718025207519531
https://scontent-sit4-1.cdninstagram.com/t51.2885-15/e35/13380871_521367964722354_1234164545_n.jpg,flower,0.9984743595123291
,flora,0.9945242404937744
,no person,0.9936399459838867
,garden,0.9920679330825806
,nature,0.9901440143585205
,leaf,0.9895716905593872
,floral,0.9843066930770874
,petal,0.9822813868522644
,blooming,0.9756559133529663
,color,0.959255576133728
,summer,0.9466441869735718
,closeup,0.9416529536247253
,beautiful,0.9372186660766602
,tropical,0.9339701533317566
,bouquet,0.930149495601654
,growth,0.9283705353736877
,outdoors,0.911144495010376
,botanical,0.9063340425491333
,bright,0.89764404296875
,decoration,0.8904389142990112
https://scontent-sit4-1.cdninstagram.com/t51.2885-15/e35/13402342_1014179161984417_1440028075_n.jpg,business,0.9911609888076782
,paper,0.9853922128677368
,no person,0.9819037914276123
,book,0.95145583152771
,document,0.9415475130081177
,education,0.9207004308700562
,text,0.9187884330749512
,money,0.9074500799179077
,administration,0.9045413732528687
,success,0.8766892552375793
,finance,0.8658121228218079
,wealth,0.8546421527862549
,commerce,0.8302950859069824
,office,0.8237310647964478
,writing,0.8184154033660889
,technology,0.7991626262664795
,page,0.7991561889648438
,data,0.7980806827545166
,book,0.796140193939209
,data,0.7954645156860352
https://scontent-sit4-1.cdninstagram.com/t51.2885-15/e35/13402327_281235775557792_596502576_n.jpg,glass,0.9895204305648804
,drink,0.9882599115371704
,food,0.9876540303230286
,juice,0.9873193502426147
,tropical,0.9763793349266052
,cocktail,0.9729535579681396
,ice,0.9695231914520264
,bar,0.9657264351844788
,fruit,0.9567025899887085
,refreshment,0.9501540064811707
,liquor,0.9280139207839966
,cold,0.9173288345336914
,sugar,0.8963198661804199
,lemon,0.8943750858306885
,restaurant,0.89109867811203
,alcohol,0.8900501728057861
,sweet,0.886640727519989
,straw,0.8813549280166626
,liquid,0.8621339201927185
,milk,0.8453713655471802
https://scontent-sit4-1.cdninstagram.com/t51.2885-15/e35/13381340_1725425327717567_523269183_n.jpg,paper,0.9795043468475342
,ink,0.9573186635971069
,note,0.9486649036407471
,text,0.9474114179611206
,page,0.9199995398521423
,symbol,0.9195573329925537
,desktop,0.9050955772399902
,document,0.8873938918113708
,business,0.8850058317184448
,no person,0.8751171827316284
,sketch,0.8715031147003174
,education,0.8677802085876465
,writing,0.8588680028915405
,letter,0.8560563325881958
,illustration,0.8551390171051025
,notebook,0.851739764213562
,handwriting,0.8350993394851685
,school,0.8161776065826416
,health,0.7963809967041016
,book,0.7921981811523438
https://scontent-sit4-1.cdninstagram.com/t51.2885-15/e35/13573509_1080535232040618_2052455226_n.jpg,document,0.9880179762840271
,paper,0.9850578308105469
,no person,0.9838454723358154
,text,0.9779824018478394
,page,0.9770891070365906
,book,0.9681469202041626
,administration,0.9477863311767578
,business,0.9451446533203125
,education,0.9369736313819885
,notebook,0.926547646522522
,retro,0.9016767740249634
,book,0.897026538848877
,book,0.895530104637146
,identity,0.8901727199554443
,letter,0.8824054002761841
,writing,0.8699893951416016
,old,0.8650822639465332
,poetry,0.8635838031768799
,offense,0.8471104502677917
,number,0.844306230545044
https://scontent-sit4-1.cdninstagram.com/t51.2885-15/e35/13267346_1130416933676655_717705050_n.jpg,poultry,0.9950023889541626
,food,0.9946659803390503
,chicken,0.9943860769271851
,meat,0.9891693592071533
,dinner,0.9890322685241699
,no person,0.9883702993392944
,lunch,0.9812339544296265
,dish,0.9724582433700562
,delicious,0.9717139601707458
,meal,0.9712653160095215
,crisp,0.9690533876419067
,hot,0.9688931703567505
,plate,0.9624351263046265
,unhealthy,0.9605804085731506
,deep,0.9529798030853271
,restaurant,0.9489786624908447
,fast,0.9471543431282043
,crisp,0.939865231513977
,sauce,0.9380696415901184
,pork,0.9352340698242188
https://scontent-sit4-1.cdninstagram.com/t51.2885-15/e35/13694651_212890109111289_528616742_n.jpg,paper,0.9960686564445496
,parchment,0.9841523170471191
,page,0.9804848432540894
,antique,0.9732054471969604
,manuscript,0.9633812308311462
,retro,0.9532745480537415
,no person,0.9530351758003235
,text,0.946513295173645
,vintage,0.9457576870918274
,writing,0.9222227334976196
,texture,0.916316032409668
,dirty,0.9114509224891663
,old,0.9060277938842773
,pattern,0.8967564105987549
,notebook,0.8966163396835327
,desktop,0.8915424942970276
,ancient,0.8877214193344116
,document,0.8761526346206665
,education,0.8559632301330566
,empty,0.8538089990615845
https://scontent-sit4-1.cdninstagram.com/t51.2885-15/e35/13249791_490335334507765_1107041273_n.jpg,people,0.9824401140213013
,child,0.972071647644043
,woman,0.959227442741394
,one,0.9459590315818787
,family,0.9260095953941345
,wear,0.9173839688301086
,indoors,0.9028040170669556
,man,0.9011350870132446
,adult,0.8945821523666382
,two,0.8852584362030029
,girl,0.8843995928764343
,leisure,0.8572567105293274
,boy,0.8508768081665039
,education,0.8498580455780029
,portrait,0.835412323474884
,boy,0.8142653703689575
,recreation,0.7979553937911987
,healthcare,0.7864536643028259
,fun,0.7713338732719421
,cute,0.7573750019073486
https://scontent-sit4-1.cdninstagram.com/t51.2885-15/e35/13150987_554907671355280_425378505_n.jpg,paper,0.956802248954773
,text,0.9478987455368042
,education,0.9458392858505249
,business,0.9427428245544434
,page,0.9243544340133667
,document,0.9137039184570312
,commerce,0.899787962436676
,no person,0.8987690210342407
,desktop,0.8647987842559814
,money,0.8603917956352234
,symbol,0.8599503636360168
,science,0.8473620414733887
,school,0.8454483151435852
,formula,0.8343735933303833
,notebook,0.8279384970664978
,finance,0.8235023617744446
,writing,0.8193947076797485
,vintage,0.8176461458206177
,composition,0.8057913780212402
,texture,0.8028966784477234
https://scontent-sit4-1.cdninstagram.com/t51.2885-15/e35/13534459_1864564473770843_1358804792_n.jpg,text,0.9860152006149292
,paper,0.9857365489006042
,document,0.9797478318214417
,page,0.9753584265708923
,no person,0.9612924456596375
,book,0.9599512219429016
,calendar,0.9496943950653076
,education,0.9403089284896851
,calligraphy,0.934059202671051
,time,0.9294887781143188
,business,0.9233825206756592
,diary,0.914361834526062
,handwriting,0.9094067811965942
,letter,0.9060233235359192
,retro,0.9021862745285034
,administration,0.8934710025787354
,writing,0.8872517943382263
,old,0.8860019445419312
,notebook,0.8719267845153809
,note,0.8648386597633362
https://scontent-sit4-1.cdninstagram.com/t51.2885-15/e35/13398435_1730305283892618_1448739039_n.jpg,leaf,0.9960916042327881
,nature,0.9944396018981934
,flower,0.9930273294448853
,flora,0.9922686815261841
,garden,0.9864544868469238
,summer,0.9672114849090576
,grass,0.964354932308197
,season,0.9622367024421692
,no person,0.9547328948974609
,environment,0.9533188343048096
,floral,0.9519044160842896
,fair weather,0.9399205446243286
,park,0.9367735385894775
,bright,0.9337983131408691
,color,0.9230809211730957
,growth,0.9205639362335205
,beautiful,0.9098606705665588
,closeup,0.9090960025787354
,petal,0.9033546447753906
,Easter,0.9031684398651123
https://scontent-sit4-1.cdninstagram.com/t51.2885-15/e35/13643479_1628425134140647_812253009_n.jpg,paper,0.9768859148025513
,no person,0.9759663343429565
,business,0.9577443599700928
,furniture,0.9554268717765808
,still life,0.9457659721374512
,indoors,0.9424629807472229
,money,0.9415985345840454
,composition,0.9270308017730713
,education,0.9263007640838623
,wood,0.9077426791191101
,table,0.9008909463882446
,school,0.8855598568916321
,room,0.8767595291137695
,book,0.8741198778152466
,commerce,0.860560417175293
,family,0.8454868793487549
,painting,0.8400651812553406
,office,0.7991176843643188
,pencil,0.7901049852371216
,writing,0.7771478891372681
https://scontent-sit4-1.cdninstagram.com/t51.2885-15/e35/13649353_208082102925920_1933172549_n.jpg,paper,0.9835099577903748
,page,0.982463002204895
,document,0.9792147278785706
,text,0.9692673087120056
,notebook,0.9620441198348999
,old,0.9454596042633057
,texture,0.9432592391967773
,retro,0.9419003129005432
,book,0.935697078704834
,vintage,0.9305566549301147
,diary,0.9260948896408081
,book,0.9246692657470703
,desktop,0.9081075191497803
,manuscript,0.9079211950302124
,letter,0.9076443910598755
,education,0.9040060639381409
,no person,0.898044764995575
,note,0.8849385976791382
,illustration,0.882954478263855
,antique,0.8767573833465576
https://scontent-sit4-1.cdninstagram.com/t51.2885-15/e35/13561849_512594198929353_797431659_n.jpg,no person,0.9506600499153137
,festival,0.9422032237052917
,city,0.9358124136924744
,building,0.9319931268692017
,exhibition,0.9312191009521484
,people,0.9220337867736816
,business,0.9090861082077026
,text,0.907482922077179
,travel,0.9032062292098999
,downtown,0.8911651968955994
,landscape,0.8909139633178711
,industry,0.8897058963775635
,room,0.886643648147583
,tourism,0.8736264705657959
,one,0.8430542349815369
,illustration,0.8366695642471313
,music,0.8261339664459229
,indoors,0.8227188587188721
,sign,0.8155645132064819
,science,0.8151721954345703
https://scontent-sit4-1.cdninstagram.com/t51.2885-15/e35/13381124_130978777325025_399640278_n.jpg,pulse,0.9743697047233582
,cardiology,0.963762640953064
,symbol,0.9480019807815552
,no person,0.9391236305236816
,heart,0.9349398612976074
,health,0.9200977087020874
,desktop,0.9161348938941956
,paper,0.910186231136322
,business,0.8944920301437378
,education,0.8939854502677917
,cardiac,0.8922762870788574
,diagnosis,0.8889027833938599
,illustration,0.8873990774154663
,text,0.871942400932312
,healthcare,0.8403624892234802
,data,0.8284025192260742
,technology,0.8195722699165344
,line,0.8102148771286011
,texture,0.8083645105361938
,design,0.7956777215003967
https://scontent-sit4-1.cdninstagram.com/t51.2885-15/e35/13391241_534290573433383_430481793_n.jpg,people,0.9777549505233765
,symbol,0.9299988150596619
,text,0.915912389755249
,paper,0.8989689350128174
,man,0.89667147397995
,sketch,0.884941041469574
,sign,0.8847333192825317
,sketch,0.8835208415985107
,no person,0.8799861669540405
,education,0.8637635707855225
,card,0.8550419807434082
,pencil,0.8521430492401123
,illustration,0.8349730372428894
,business,0.8260970115661621
,composition,0.8127009868621826
,building,0.8029069304466248
,school,0.7841349840164185
,group,0.7772883176803589
,letter,0.757614254951477
,art,0.7562412023544312
https://scontent-sit4-1.cdninstagram.com/t51.2885-15/e35/13285267_993414280776580_344610018_n.jpg,no person,0.9701669216156006
,text,0.9681414365768433
,paper,0.965644121170044
,business,0.9555938243865967
,document,0.9515124559402466
,education,0.9428057670593262
,book,0.8906699419021606
,school,0.8875043392181396
,notebook,0.8716253638267517
,writing,0.8463466763496399
,commerce,0.8348838686943054
,money,0.8344206809997559
,still life,0.8271960020065308
,composition,0.7972744703292847
,success,0.7883566617965698
,handwritten,0.7840598225593567
,data,0.7776365280151367
,page,0.777328610420227
,handwriting,0.7606940269470215
,card,0.745080828666687
https://scontent-sit4-1.cdninstagram.com/t51.2885-15/e35/13267492_1787721831459675_425023425_n.jpg,indoors,0.9908803701400757
,stock,0.9863342046737671
,business,0.9829584360122681
,exhibition,0.9731855988502502
,shelf,0.9638254642486572
,office,0.9620202779769897
,room,0.9578990936279297
,desk,0.9562646746635437
,shopping,0.951343297958374
,school,0.9503889679908752
,technology,0.9491130709648132
,people,0.9489144086837769
,education,0.9470056295394897
,commerce,0.9461324214935303
,shop,0.9408508539199829
,adult,0.9351644515991211
,furniture,0.9290395975112915
,employee,0.914771318435669
,computer,0.9121291637420654
,table,0.8982304334640503
https://scontent-sit4-1.cdninstagram.com/t51.2885-15/e35/13385785_141853779552525_973009726_n.jpg,paper,0.9816904067993164
,notebook,0.9726083874702454
,document,0.9465330839157104
,no person,0.9373120069503784
,page,0.9371715784072876
,note,0.9106566905975342
,education,0.9066559076309204
,notepaper,0.9024350643157959
,desktop,0.8924179077148438
,business,0.8885908126831055
,text,0.8832815289497375
,letter,0.8751171231269836
,blank,0.84716796875
,medicine,0.845341682434082
,book,0.8356083631515503
,card,0.8264065980911255
,texture,0.8091670274734497
,school,0.807766318321228
,color,0.8054840564727783
,healthcare,0.803450345993042
https://scontent-sit4-1.cdninstagram.com/t51.2885-15/e35/13150820_486305511568617_1169697743_n.jpg,cup,0.9850256443023682
,tea,0.9823061227798462
,drink,0.9821101427078247
,coffee,0.9784294366836548
,no person,0.9480487704277039
,container,0.9397684335708618
,table,0.9333174228668213
,food,0.9296690821647644
,wood,0.9203486442565918
,mug,0.9160008430480957
,hot,0.9092568159103394
,indoors,0.899590015411377
,traditional,0.8965026140213013
,ceramic,0.8589259386062622
,dawn,0.8486976027488708
,relaxation,0.8386663198471069
,medicine,0.8375464677810669
,glass,0.831648051738739
,family,0.82242351770401
,breakfast,0.8037246465682983
https://scontent-sit4-1.cdninstagram.com/t51.2885-15/e35/13277730_184944638571979_1403857306_n.jpg,no person,0.9856484532356262
,business,0.9768648147583008
,paper,0.967897891998291
,education,0.9661678075790405
,graph,0.9441665410995483
,text,0.9299416542053223
,symbol,0.9245597720146179
,notepaper,0.9233589172363281
,arrow,0.9218711853027344
,school,0.9113860130310059
,accomplishment,0.8879532814025879
,mathematics,0.8859807252883911
,diagram,0.8791853189468384
,medicine,0.869499683380127
,healthcare,0.8687373399734497
,notebook,0.8671388626098633
,desktop,0.864598274230957
,science,0.8625712394714355
,growth,0.8531928658485413
,progress,0.8474026322364807
https://scontent-sit4-1.cdninstagram.com/t51.2885-15/e35/13473146_149445222133900_375476138_n.jpg,light,0.9755251407623291
,festival,0.9727932214736938
,music,0.9697830677032471
,evening,0.9690268039703369
,no person,0.9615895748138428
,travel,0.9471392631530762
,performance,0.9265061616897583
,city,0.923514723777771
,people,0.9197720289230347
,concert,0.9148067831993103
,business,0.9147179126739502
,building,0.8969225883483887
,exhilaration,0.8961594700813293
,architecture,0.8893805742263794
,motion,0.888155996799469
,illuminated,0.8725599050521851
,urban,0.8622360229492188
,carnival,0.8615295886993408
,Christmas,0.8475264310836792
,blur,0.8420436382293701
https://scontent-sit4-1.cdninstagram.com/t51.2885-15/e35/13413465_1616630965294285_1894513539_n.jpg,group,0.9624670743942261
,child,0.9591147899627686
,woman,0.9420274496078491
,people,0.9309953451156616
,education,0.9064245820045471
,fun,0.897071897983551
,portrait,0.8963186740875244
,facial expression,0.8941460847854614
,laughing,0.8809495568275452
,celebration,0.8770440816879272
,friendship,0.8670229911804199
,togetherness,0.860759437084198
,school,0.8598145246505737
,happiness,0.8528566360473633
,rally,0.8500044345855713
,university,0.846382737159729
,adult,0.8377512097358704
,festival,0.8159146904945374
,exhilaration,0.8065702319145203
,adolescent,0.8012673854827881
https://scontent-sit4-1.cdninstagram.com/t51.2885-15/e35/13628156_1061829307224970_1936217778_n.jpg,paper,0.9900459051132202
,sign,0.9570266008377075
,business,0.9481037259101868
,money,0.9247887134552002
,symbol,0.9206246137619019
,dollar,0.9035713076591492
,number,0.8788625001907349
,finance,0.8751243948936462
,money,0.8712806701660156
,wealth,0.8644335269927979
,desktop,0.852180004119873
,isolated,0.8282651901245117
,vintage,0.8147614002227783
,document,0.7783732414245605
,financial,0.7780166864395142
,collection,0.771670937538147
,cash,0.7502392530441284
,savings,0.7332764863967896
,old,0.7229965329170227
,card,0.7194709777832031
https://scontent-sit4-1.cdninstagram.com/t51.2885-15/e35/13126829_794856387311119_2057685279_n.jpg,no person,0.946130096912384
,paper,0.9225645065307617
,desktop,0.9183241128921509
,money,0.914216935634613
,wealth,0.8915843367576599
,food,0.8728724718093872
,money,0.8686239719390869
,business,0.8635745048522949
,market,0.863564133644104
,shopping,0.854499101638794
,sale,0.8442327976226807
,vertical,0.835254430770874
,finance,0.8206074237823486
,glass,0.8193519711494446
,cash,0.8043482303619385
,color,0.8014271855354309
,bank,0.7902123928070068
,symbol,0.7885713577270508
,bargain,0.7546753883361816
,closeup,0.749697208404541
https://scontent-sit4-1.cdninstagram.com/t51.2885-15/e35/13597643_507345449390304_1178314869_n.jpg,money,0.9883909225463867
,no person,0.9684079885482788
,money,0.9667750000953674
,business,0.966389536857605
,finance,0.9655300974845886
,wealth,0.9357154369354248
,cash,0.9350763559341431
,commerce,0.9250633716583252
,paper,0.917309045791626
,euro,0.8908196687698364
,success,0.8905360698699951
,market,0.8872333765029907
,savings,0.8805884122848511
,shopping,0.8775091767311096
,wood,0.8749768733978271
,financial,0.8603547215461731
,luck,0.8268205523490906
,bank,0.8205687999725342
,finance,0.814983069896698
,credit,0.8108192682266235
