url,class,score
https://scontent-sit4-1.cdninstagram.com/t51.2885-15/s640x640/e15/13381309_619368498217684_1850528816_n.jpg,people,0.9870971441268921
,woman,0.9673181772232056
,adult,0.9670851230621338
,group,0.9620401859283447
,man,0.9512077569961548
,wear,0.9397945404052734
,education,0.930404543876648
,museum,0.9256174564361572
,business,0.9213173389434814
,meeting,0.9193094968795776
,room,0.9116090536117554
,leader,0.9061579704284668
,exhibition,0.8995397686958313
,commerce,0.898072361946106
,home,0.8892290592193604
,league,0.877396821975708
,many,0.8662830591201782
,school,0.8583579659461975
,administration,0.8537378311157227
,indoors,0.8518810272216797
https://scontent-sit4-1.cdninstagram.com/t51.2885-15/s640x640/e15/13628062_307315629657301_1785692171_n.jpg,performance,0.9991638660430908
,music,0.9986450672149658
,concert,0.9984743595123291
,singer,0.993517279624939
,musician,0.990959882736206
,stage,0.9908204674720764
,pop,0.9536500573158264
,festival,0.9476159811019897
,band,0.9433058500289917
,audience,0.9266757965087891
,guitarist,0.9254641532897949
,light,0.8907814025878906
,group,0.8871372938156128
,people,0.8667166233062744
,song,0.8596349954605103
,concert hall,0.8572998046875
,guitar,0.8539847731590271
,songwriter,0.8472486734390259
,rap,0.8428943157196045
,energy,0.8263875842094421
https://scontent-sit4-1.cdninstagram.com/t51.2885-15/s640x640/e15/13397669_1720030111592896_7211238_n.jpg,people,0.9944348335266113
,group,0.9703332781791687
,music,0.9638330936431885
,adult,0.9550268650054932
,performance,0.9494772553443909
,man,0.9439109563827515
,dancing,0.934624195098877
,singer,0.9112708568572998
,club,0.905188798904419
,concert,0.904505729675293
,street,0.9032943248748779
,musician,0.8969262838363647
,city,0.8935555815696716
,commerce,0.8866522908210754
,wear,0.8820227384567261
,bar,0.8798887729644775
,two,0.8784552812576294
,recreation,0.8629461526870728
,festival,0.8540909290313721
,airport,0.8503171801567078
https://scontent-sit4-1.cdninstagram.com/t51.2885-15/s640x640/e15/13562034_150102425412750_692290216_n.jpg,performance,0.9983135461807251
,music,0.9967501759529114
,concert,0.9966257810592651
,singer,0.9901012182235718
,festival,0.989922285079956
,musician,0.9874813556671143
,people,0.983832597732544
,stage,0.9802400469779968
,band,0.9672603607177734
,group,0.9506344795227051
,guitar,0.9280860424041748
,adult,0.9277623891830444
,guitarist,0.9250218868255615
,instrument,0.9126195907592773
,energy,0.9065101146697998
,many,0.8873867988586426
,stringed instrument,0.8795830011367798
,recreation,0.854625940322876
,woman,0.8356945514678955
,pop,0.8239015936851501
https://scontent-sit4-1.cdninstagram.com/t51.2885-15/s640x640/e15/13391280_1028266843888382_1945377479_n.jpg,vehicle,0.9941221475601196
,portrait,0.990287184715271
,people,0.9880052208900452
,man,0.9848891496658325
,adult,0.9793809652328491
,auto racing,0.9750586748123169
,one,0.9741033315658569
,eyewear,0.9606175422668457
,police,0.9464972615242004
,transportation system,0.9459443092346191
,car,0.9453732967376709
,race,0.9392837285995483
,offense,0.9389199614524841
,military,0.9342355728149414
,sunglasses,0.9321868419647217
,safety,0.9140042662620544
,wear,0.91237473487854
,driver,0.9060842394828796
,track,0.8919052481651306
,veil,0.8918793201446533
https://scontent-sit4-1.cdninstagram.com/t51.2885-15/s640x640/e15/13380880_548819765298577_162960539_n.jpg,desktop,0.8979372978210449
,dark,0.8731237649917603
,flame,0.8610543012619019
,design,0.8318849802017212
,bright,0.8219692707061768
,people,0.8206096887588501
,light,0.8074767589569092
,technology,0.7829776406288147
,business,0.7709664106369019
,energy,0.7528040409088135
,party,0.7508493661880493
,abstract,0.716353178024292
,music,0.7075560688972473
,no person,0.7059761881828308
,collage,0.6759735345840454
,color,0.67507004737854
,head,0.6732349395751953
,celebration,0.660947322845459
,motion,0.65972900390625
,space,0.6591191291809082
https://scontent-sit4-1.cdninstagram.com/t51.2885-15/s640x640/e15/13408803_501547726711773_1597791157_n.jpg,performance,0.9887323379516602
,stage,0.9772409200668335
,music,0.9758833646774292
,woman,0.9738799333572388
,singer,0.972212553024292
,people,0.9671840667724609
,fashion,0.9618821144104004
,concert,0.9410423040390015
,wear,0.9372565746307373
,musician,0.9341314435005188
,theater,0.9337884783744812
,festival,0.931889533996582
,dress,0.9263970851898193
,glamour,0.913512647151947
,actress,0.8910211324691772
,theater,0.884014368057251
,adult,0.8726434707641602
,show,0.8539867401123047
,Madonna,0.8526408076286316
,celebration,0.848061203956604
https://scontent-sit4-1.cdninstagram.com/t51.2885-15/e15/p640x640/13392631_1008572555862889_2011058661_n.jpg,woman,0.9921596646308899
,people,0.9893131852149963
,adult,0.9880226850509644
,wear,0.9875257611274719
,group,0.9741790294647217
,stock,0.9542686939239502
,recreation,0.94873046875
,school,0.9462754726409912
,exhibition,0.9408448934555054
,indoors,0.9322398900985718
,commerce,0.9259624481201172
,education,0.9246470332145691
,room,0.9038925170898438
,man,0.8988860845565796
,portrait,0.8894913196563721
,shopping,0.8860939145088196
,luggage,0.8853317499160767
,city,0.8852916955947876
,facial expression,0.881320595741272
,many,0.8801669478416443
https://scontent-sit4-1.cdninstagram.com/t51.2885-15/e35/13658379_1143136045749787_913172430_n.jpg,cream,0.987622857093811
,chocolate,0.9850034713745117
,sweet,0.9842228889465332
,no person,0.9824291467666626
,ice,0.9812673926353455
,cone,0.9791749715805054
,vanilla,0.9726948738098145
,delicious,0.9565098285675049
,milk,0.9562451839447021
,food,0.9456460475921631
,creamy,0.944715142250061
,indulgence,0.9423688650131226
,cold,0.9368137717247009
,goody,0.9299800992012024
,sugar,0.9262644052505493
,refreshment,0.923179030418396
,cream,0.9071109294891357
,candy,0.8949252367019653
,frozen,0.8904786109924316
,temptation,0.884672224521637
https://scontent-sit4-1.cdninstagram.com/t51.2885-15/e35/13745183_409906575851000_2011555653_n.jpg,food,0.9938664436340332
,cake,0.9847564697265625
,sweet,0.9799743890762329
,delicious,0.977292001247406
,pastry,0.9747042655944824
,sugar,0.9744572639465332
,no person,0.9726824760437012
,tasty,0.9601677656173706
,refreshment,0.953608512878418
,meal,0.9525778293609619
,homemade,0.9460289478302002
,cream,0.945454478263855
,pie,0.9397486448287964
,lunch,0.9294450283050537
,dinner,0.9270777702331543
,healthy,0.9234304428100586
,plate,0.9219618439674377
,slice,0.9145458936691284
,cuisine,0.9124268889427185
,dish,0.9120045900344849
https://scontent-sit4-1.cdninstagram.com/t51.2885-15/e35/13652136_931749136952017_1282559053_n.jpg,performance,0.9939864873886108
,musician,0.992344081401825
,music,0.992282509803772
,people,0.9922013282775879
,singer,0.9907217025756836
,stage,0.9837722778320312
,concert,0.9827128052711487
,adult,0.9768295288085938
,group,0.9727082252502441
,festival,0.9724104404449463
,man,0.957595944404602
,theater,0.9530189037322998
,wear,0.9475231170654297
,dinner jacket,0.938341498374939
,three,0.9243654608726501
,two,0.9241489768028259
,recreation,0.9186850786209106
,woman,0.9184125661849976
,portrait,0.9072257280349731
,dress,0.904113233089447
https://scontent-sit4-1.cdninstagram.com/t51.2885-15/e35/13473182_1771627283052962_1325149069_n.jpg,no person,0.9936033487319946
,vegetable,0.9825495481491089
,food,0.971970796585083
,closeup,0.9669235944747925
,nutrition,0.9534035921096802
,egg,0.9351167678833008
,delicious,0.9172790050506592
,cooking,0.9154256582260132
,grow,0.9147511720657349
,cuisine,0.9047541618347168
,traditional,0.8959716558456421
,nature,0.8952968120574951
,lunch,0.8827416896820068
,epicure,0.8658950328826904
,meal,0.8655129671096802
,desktop,0.8613578081130981
,dinner,0.857231616973877
,close,0.8567847013473511
,health,0.8469439148902893
,skin,0.835319459438324
https://scontent-sit4-1.cdninstagram.com/t51.2885-15/e35/13696450_258892454496537_1889297992_n.jpg,no person,0.992301881313324
,food,0.9912952184677124
,delicious,0.9843406677246094
,cooking,0.9842526912689209
,dinner,0.9828243255615234
,lunch,0.9766799211502075
,pasta,0.962831974029541
,homemade,0.9607062339782715
,nutrition,0.9596856236457825
,baking,0.9591985940933228
,meal,0.9512240886688232
,meat,0.9404050707817078
,cuisine,0.9350563287734985
,traditional,0.9264991283416748
,ingredients,0.9079670310020447
,dish,0.9059526920318604
,dough,0.896077036857605
,tasty,0.8773791193962097
,health,0.8751564025878906
,beef,0.8684322834014893
https://scontent-sit4-1.cdninstagram.com/t51.2885-15/e35/13696718_1738651756423014_182952629_n.jpg,paper,0.9942356944084167
,coffee,0.9900856018066406
,no person,0.9831106066703796
,business,0.9791515469551086
,wood,0.9212414026260376
,money,0.8861913681030273
,money,0.8828973770141602
,finance,0.8806281685829163
,cappuccino,0.8778270483016968
,espresso,0.8651280999183655
,indoors,0.8640302419662476
,cup,0.8609769940376282
,savings,0.8511685132980347
,success,0.8495998382568359
,contemporary,0.84882652759552
,isolated,0.8420425653457642
,retro,0.8333144783973694
,tea,0.8250799179077148
,wealth,0.8092699646949768
,drink,0.8068383932113647
https://scontent-sit4-1.cdninstagram.com/t51.2885-15/e35/13285252_1548321032140428_1335500251_n.jpg,container,0.9984691143035889
,plastic,0.995851993560791
,no person,0.9937731027603149
,bottle,0.992035984992981
,drink,0.9901978373527527
,milk,0.9745100140571594
,yogurt,0.9718131422996521
,glass,0.9442822337150574
,child,0.9433629512786865
,cap,0.9382678270339966
,food,0.9313374161720276
,two,0.9275087118148804
,full,0.9239751100540161
,jar,0.92323899269104
,recycling,0.9117191433906555
,lid,0.9116936326026917
,motley,0.8840852379798889
,three,0.8804932832717896
,health,0.8797663450241089
,cold,0.875511646270752
https://scontent-sit4-1.cdninstagram.com/t51.2885-15/s750x750/sh0.08/e35/13355508_1740274689577474_1422529701_n.jpg,portrait,0.989980161190033
,man,0.985672652721405
,people,0.9827885627746582
,adult,0.9393240213394165
,vehicle,0.9332790374755859
,indoors,0.9230709075927734
,woman,0.9166001677513123
,wear,0.916120171546936
,sit,0.908200740814209
,two,0.9036365747451782
,sitting,0.8933322429656982
,military,0.8922263383865356
,car,0.8897731304168701
,aircraft,0.882723331451416
,one,0.8643916249275208
,facial expression,0.8605302572250366
,police,0.8595117330551147
,outfit,0.8349175453186035
,airplane,0.8137167096138
,three,0.7993155717849731
https://scontent-sit4-1.cdninstagram.com/t51.2885-15/e35/13413334_140897362980843_1368944089_n.jpg,airplane,0.9957049489021301
,airport,0.994286835193634
,transportation system,0.9929338693618774
,aircraft,0.9901140928268433
,storm,0.9871599674224854
,vehicle,0.9862508177757263
,travel,0.97881680727005
,industry,0.9676545262336731
,sky,0.965814471244812
,jet,0.9575536251068115
,shipment,0.948112964630127
,calamity,0.946885347366333
,no person,0.9358547925949097
,smoke,0.93116694688797
,rain,0.9285756349563599
,pollution,0.9160283803939819
,traffic,0.9098707437515259
,airliner,0.9092917442321777
,business,0.9041270017623901
,air,0.8936288356781006
https://scontent-sit4-1.cdninstagram.com/t51.2885-15/e35/13643125_1126266064062761_647386690_n.jpg,no person,0.998924732208252
,health,0.9667718410491943
,one,0.9555939435958862
,paper,0.9552029371261597
,vertical,0.9343473315238953
,tea,0.9176409244537354
,healthcare,0.917530357837677
,indoors,0.9127417206764221
,isolated,0.9087258577346802
,writing,0.9083255529403687
,conceptual,0.9027782082557678
,empty,0.8934694528579712
,merchandise,0.884245753288269
,business,0.8791673183441162
,traditional,0.8749160170555115
,success,0.8556699752807617
,retro,0.8493969440460205
,bright,0.8432005047798157
,text,0.8405002951622009
,treatment,0.8285390138626099
https://scontent-sit4-1.cdninstagram.com/t51.2885-15/e35/13573562_809065282556797_1091288496_n.jpg,text,0.996773362159729
,paper,0.9895382523536682
,business,0.979106068611145
,document,0.9616413116455078
,sign,0.9600574970245361
,page,0.9559376239776611
,sign,0.9523331522941589
,snap,0.9414598941802979
,finance,0.92990642786026
,education,0.9254305362701416
,communication,0.9245510101318359
,bill,0.9224775433540344
,time,0.9089940786361694
,information,0.9063364267349243
,offense,0.8830261826515198
,no person,0.8810831904411316
,inspiration,0.8363511562347412
,school,0.8170617818832397
,recession,0.8098558187484741
,horizontal,0.7957333922386169
https://scontent-sit4-1.cdninstagram.com/t51.2885-15/e35/13704181_503377933190459_411036465_n.jpg,business,0.9490852355957031
,text,0.9334554672241211
,no person,0.9170697927474976
,sign,0.912853479385376
,illustration,0.8943275213241577
,travel,0.8861023187637329
,sign,0.8808618783950806
,bill,0.8725590705871582
,card,0.8634922504425049
,finance,0.8540802001953125
,vector,0.8466809988021851
,administration,0.8453318476676941
,symbol,0.8426287174224854
,festival,0.8393322229385376
,people,0.8147883415222168
,light,0.8138856887817383
,tourism,0.8108323812484741
,technology,0.8043702840805054
,design,0.8035768270492554
,commerce,0.7821009159088135
https://scontent-sit4-1.cdninstagram.com/t51.2885-15/e35/13402273_1686163138303068_1980721186_n.jpg,rice,0.9937198162078857
,no person,0.991107702255249
,food,0.9789453744888306
,ingredients,0.9484216570854187
,wood,0.9375661015510559
,traditional,0.9336732029914856
,cooking,0.9325839281082153
,delicious,0.9253804683685303
,health,0.9214572906494141
,nutrition,0.9028079509735107
,bamboo,0.8991914987564087
,homemade,0.8983191847801208
,grow,0.8817979097366333
,bowl,0.8727364540100098
,still life,0.8651029467582703
,dinner,0.853688657283783
,lunch,0.8503574728965759
,milk,0.8440847396850586
,vegetable,0.8372484445571899
,cereal,0.8290069103240967
https://scontent-sit4-1.cdninstagram.com/t51.2885-15/e35/13741467_1114954598543544_228153281_n.jpg,food,0.9855889081954956
,delicious,0.9635000228881836
,milk,0.9596309065818787
,no person,0.9575045108795166
,refreshment,0.949691653251648
,hot,0.9411236047744751
,traditional,0.9354016780853271
,cream,0.9297021627426147
,breakfast,0.9292433261871338
,drink,0.9243018627166748
,bread,0.9075971841812134
,sweet,0.9043474197387695
,meal,0.9008182287216187
,isolated,0.8949954509735107
,dinner,0.8883801698684692
,healthy,0.8883206248283386
,nutrition,0.8867912292480469
,glass,0.8831629753112793
,lunch,0.8809980154037476
,homemade,0.879807710647583
https://scontent-sit4-1.cdninstagram.com/t51.2885-15/e35/13381373_289322944744191_1649938832_n.jpg,food,0.9915271997451782
,no person,0.9858009219169617
,dinner,0.9703025221824646
,plate,0.969734787940979
,lunch,0.9608557224273682
,meal,0.9600840210914612
,delicious,0.9594473838806152
,cooking,0.9474598169326782
,french fries,0.9421684741973877
,chicken,0.9328744411468506
,bread,0.9283660054206848
,meat,0.9274381399154663
,traditional,0.9255908727645874
,breakfast,0.9221923351287842
,refreshment,0.921209990978241
,dish,0.9207037687301636
,seafood,0.9000871777534485
,fast,0.8983517289161682
,ketchup,0.8936700820922852
,restaurant,0.886315107345581
https://scontent-sit4-1.cdninstagram.com/t51.2885-15/e35/13561672_842421419223815_2104516302_n.jpg,performance,0.9997563362121582
,concert,0.9965592622756958
,music,0.9961941242218018
,musician,0.9900413751602173
,singer,0.9875141382217407
,stage,0.9837198257446289
,festival,0.9814239144325256
,band,0.9567916393280029
,pop,0.8624929785728455
,fashion,0.860612154006958
,indie,0.8252249956130981
,show,0.7841088771820068
,rap,0.7697807550430298
,wear,0.7674716711044312
,celebration,0.7445195913314819
,light,0.733720064163208
,one,0.7145124673843384
,adult,0.705345630645752
,songwriter,0.7051324844360352
,people,0.7049356698989868
https://scontent-sit4-1.cdninstagram.com/t51.2885-15/e35/13381327_715671745240844_647957397_n.jpg,screen,0.985946774482727
,telephone,0.9685441255569458
,business,0.9659385681152344
,internet,0.9613267183303833
,set,0.9561981558799744
,display,0.9521974325180054
,World Wide Web,0.9496878385543823
,technology,0.9474441409111023
,banner,0.9450465440750122
,computer,0.9331238865852356
,movie,0.9265121817588806
,card,0.9149103760719299
,vector,0.9120292067527771
,travel,0.9094268083572388
,symbol,0.9020001888275146
,label,0.8886905908584595
,pill,0.8856798410415649
,image,0.8769658207893372
,monitor,0.8762609958648682
,illustration,0.8757878541946411
https://scontent-sit4-1.cdninstagram.com/t51.2885-15/e35/13398864_1752871984935085_988474623_n.jpg,food,0.9950056076049805
,meal,0.986549973487854
,dinner,0.9779458045959473
,delicious,0.9743002653121948
,dish,0.9739208221435547
,cuisine,0.9704045653343201
,lunch,0.9700887203216553
,meat,0.9658040404319763
,vegetable,0.9628674983978271
,healthy,0.9582090973854065
,plate,0.9547692537307739
,epicure,0.9543962478637695
,cooking,0.9523517489433289
,tasty,0.9486535787582397
,sauce,0.9480315446853638
,hot,0.9332350492477417
,seafood,0.9328688383102417
,restaurant,0.9325019121170044
,diet,0.922738790512085
,traditional,0.9226170778274536
https://scontent-sit4-1.cdninstagram.com/t51.2885-15/e35/13277533_798545303611357_540603642_n.jpg,food,0.9888224005699158
,no person,0.9858930706977844
,delicious,0.970283031463623
,unhealthy,0.9434930086135864
,refreshment,0.9330724477767944
,traditional,0.9208483099937439
,breakfast,0.9178078174591064
,bread,0.9050887227058411
,homemade,0.8965096473693848
,wood,0.8858572840690613
,cream,0.8849815726280212
,sugar,0.8834910988807678
,baking,0.8799251317977905
,fast,0.879631757736206
,nutrition,0.8723186254501343
,restaurant,0.8710519671440125
,hungry,0.8600568175315857
,indoors,0.8483904600143433
,cake,0.844127893447876
,cooking,0.8437274694442749
https://scontent-sit4-1.cdninstagram.com/t51.2885-15/e35/13597825_1643745329280726_867457935_n.jpg,chocolate,0.9878108501434326
,food,0.9849767684936523
,sweet,0.9810059070587158
,delicious,0.9781259298324585
,no person,0.9697787761688232
,cream,0.9683241844177246
,sugar,0.9504338502883911
,cup,0.948678731918335
,fruit,0.9461081027984619
,coffee,0.9425840377807617
,epicure,0.9251025915145874
,vanilla,0.9041849374771118
,health,0.9041292667388916
,plate,0.8996846079826355
,refreshment,0.8960118293762207
,closeup,0.8919280171394348
,cake,0.8907607197761536
,baking,0.888365626335144
,homemade,0.884175181388855
,cold,0.8754978179931641
https://scontent-sit4-1.cdninstagram.com/t51.2885-15/e35/13628116_274670976230219_138307862_n.jpg,no person,0.994140625
,container,0.9865788221359253
,medicine,0.9808468818664551
,healthcare,0.980537474155426
,bottle,0.9642937183380127
,one,0.9576408863067627
,treatment,0.9402791261672974
,cure,0.925238311290741
,two,0.9241381883621216
,label,0.9042346477508545
,health,0.8819273710250854
,still life,0.8722333312034607
,illness,0.8536630272865295
,industry,0.8478856086730957
,number,0.8379137516021729
,three,0.816008985042572
,merchandise,0.8097811937332153
,prescription,0.7862934470176697
,science,0.7792618274688721
,indoors,0.7783228754997253
https://scontent-sit4-1.cdninstagram.com/t51.2885-15/e35/13381207_279237675799934_307211711_n.jpg,food,0.9937150478363037
,no person,0.9896469712257385
,delicious,0.980770468711853
,breakfast,0.961104154586792
,homemade,0.9540254473686218
,sweet,0.9504401683807373
,traditional,0.9482266902923584
,sugar,0.9454426169395447
,bread,0.937274158000946
,meal,0.9315480589866638
,dinner,0.9308748245239258
,baking,0.9289578199386597
,jam,0.9215436577796936
,plate,0.9184343814849854
,lunch,0.9104578495025635
,cooking,0.9097979664802551
,epicure,0.9028840661048889
,pastry,0.8950271606445312
,fruit,0.8922392725944519
,cuisine,0.8827595114707947
https://scontent-sit4-1.cdninstagram.com/t51.2885-15/e35/13652052_643227482496515_1058980659_n.jpg,people,0.9844883680343628
,woman,0.9785829782485962
,adult,0.9598075747489929
,portrait,0.9558423161506653
,man,0.9455206394195557
,group,0.9185616970062256
,education,0.912505030632019
,World Wide Web,0.8991595506668091
,presentation,0.89454185962677
,child,0.8905491828918457
,internet,0.8904447555541992
,technology,0.882382869720459
,indoors,0.8653892278671265
,communication,0.8488089442253113
,collage,0.8483626842498779
,happiness,0.8372142314910889
,outdoors,0.8263527154922485
,business,0.8216086030006409
,horizontal,0.8133867979049683
,friendship,0.8059308528900146
https://scontent-sit4-1.cdninstagram.com/t51.2885-15/e35/13277706_1173851769325792_1823146907_n.jpg,food,0.9980186820030212
,no person,0.9920401573181152
,grow,0.9842140674591064
,vegetable,0.9754765629768372
,meal,0.9702805280685425
,meat,0.9674221277236938
,dinner,0.9630100727081299
,dish,0.9492614269256592
,sauce,0.9461710453033447
,cooking,0.9383857250213623
,beef,0.9383314847946167
,plate,0.9356592893600464
,bowl,0.9336286783218384
,lunch,0.9225084781646729
,delicious,0.9201759099960327
,restaurant,0.9107108116149902
,drink,0.9060490727424622
,hot,0.9050125479698181
,cuisine,0.9046393632888794
,root vegetable,0.8975880146026611
https://scontent-sit4-1.cdninstagram.com/t51.2885-15/e35/13402231_491328347724913_1330191815_n.jpg,World Wide Web,0.9718579053878784
,internet,0.9707142114639282
,screen,0.9672210216522217
,business,0.959894597530365
,banner,0.9555418491363525
,text,0.9515022039413452
,computer,0.9467045068740845
,communication,0.9433943033218384
,card,0.9420795440673828
,bill,0.9379761219024658
,technology,0.932684600353241
,desktop,0.9258112907409668
,sign,0.9174025654792786
,display,0.9118708372116089
,online,0.8963208794593811
,information,0.8652347326278687
,illustration,0.8590632677078247
,image,0.8541476726531982
,collage,0.853955864906311
,set,0.8477541208267212
https://scontent-sit4-1.cdninstagram.com/l/t51.2885-15/e35/13525535_1729202164008865_694994045_n.jpg,hot,0.9773563146591187
,food,0.9764009714126587
,healthy,0.959694504737854
,no person,0.9521678686141968
,soup,0.9315543174743652
,delicious,0.9204072952270508
,breakfast,0.9126923084259033
,bowl,0.9113420248031616
,cuisine,0.9109570980072021
,drink,0.9046934843063354
,traditional,0.903965950012207
,cream,0.8995356559753418
,meal,0.8979684114456177
,vegetable,0.8956081867218018
,plate,0.8942477703094482
,tasty,0.8826313018798828
,cup,0.8822333812713623
,refreshment,0.875072181224823
,restaurant,0.8733428716659546
,dish,0.8731890916824341
https://scontent-sit4-1.cdninstagram.com/t51.2885-15/e35/13266646_187600581636625_678542087_n.jpg,food,0.9727269411087036
,business,0.9467523694038391
,money,0.9434535503387451
,commerce,0.9371376037597656
,finance,0.9343964457511902
,money,0.9171430468559265
,illustration,0.8719868659973145
,no person,0.8706109523773193
,drink,0.8616635799407959
,technology,0.8596486449241638
,coffee,0.838152289390564
,cash,0.8302903175354004
,symbol,0.8273524045944214
,shopping,0.8269493579864502
,wealth,0.8258752822875977
,cooking,0.8254220485687256
,cheese,0.8147691488265991
,paper,0.8085230588912964
,sweet,0.7973576784133911
,euro,0.7928972244262695
https://scontent-sit4-1.cdninstagram.com/t51.2885-15/e35/13402458_1195649250447749_1065280316_n.jpg,food,0.9820268750190735
,no person,0.9471656084060669
,delicious,0.9439557194709778
,meal,0.9247722625732422
,dish,0.9191365242004395
,traditional,0.9151741862297058
,meat,0.9122049808502197
,tasty,0.9013184905052185
,dinner,0.8917969465255737
,plate,0.8879200220108032
,hot,0.8863340616226196
,desktop,0.8844220042228699
,cuisine,0.8836166262626648
,closeup,0.8825476169586182
,restaurant,0.8731820583343506
,isolated,0.8669337630271912
,refreshment,0.8629833459854126
,healthy,0.8587794899940491
,sauce,0.8520005941390991
,vegetable,0.8508397340774536
https://scontent-sit4-1.cdninstagram.com/t51.2885-15/e35/13285508_243141486054088_1388683751_n.jpg,food,0.9965767860412598
,cuisine,0.9864474534988403
,meal,0.9845199584960938
,dinner,0.9844182729721069
,hot,0.981937050819397
,cooking,0.9788732528686523
,dish,0.9787650108337402
,delicious,0.9774307608604431
,lunch,0.9687031507492065
,soup,0.9684361815452576
,epicure,0.9666100740432739
,no person,0.9634495973587036
,vegetable,0.9595147371292114
,seafood,0.9590688943862915
,curry,0.9572138786315918
,traditional,0.9556652307510376
,restaurant,0.952813982963562
,meat,0.9519964456558228
,bowl,0.9513734579086304
,rice,0.9500619769096375
https://scontent-sit4-1.cdninstagram.com/t51.2885-15/e35/13649354_1002260159893320_1433290129_n.jpg,fashion,0.974844217300415
,woman,0.9670222997665405
,stage,0.9582374691963196
,people,0.9563013315200806
,dress,0.9530912637710571
,model,0.9473010301589966
,show,0.9443448781967163
,collection,0.9226446151733398
,music,0.9212015867233276
,performance,0.9194486141204834
,beautiful,0.9044649600982666
,sexy,0.8963505029678345
,young,0.8879852890968323
,wear,0.8865327835083008
,party,0.8826355934143066
,style,0.8730193376541138
,body,0.8713150024414062
,club,0.8655204772949219
,nightlife,0.8598353266716003
,adult,0.8579303622245789
https://scontent-sit4-1.cdninstagram.com/t51.2885-15/e35/13694384_997385080383226_715137741_n.jpg,food,0.9913549423217773
,meal,0.9512078762054443
,dinner,0.9479780197143555
,delicious,0.9424945712089539
,plate,0.9399668574333191
,desktop,0.9383131265640259
,dish,0.9270236492156982
,restaurant,0.9181445240974426
,no person,0.9178056716918945
,lunch,0.9048652648925781
,tasty,0.9046978950500488
,fast,0.9014393091201782
,isolated,0.8989166021347046
,cooking,0.8985885381698608
,refreshment,0.8951325416564941
,cuisine,0.8842583894729614
,traditional,0.8693894147872925
,healthy,0.8679223656654358
,hot,0.8599163889884949
,meat,0.8581310510635376
https://scontent-sit4-1.cdninstagram.com/t51.2885-15/e35/13422822_1610728315922795_913678505_n.jpg,cat,0.9992740154266357
,kitten,0.9961838722229004
,cute,0.9960711002349854
,domestic,0.9931331276893616
,pet,0.9921139478683472
,mammal,0.9915628433227539
,little,0.9773143529891968
,animal,0.9764223098754883
,portrait,0.9760141968727112
,funny,0.9751492738723755
,fur,0.971172571182251
,one,0.9698558449745178
,sit,0.9690372347831726
,adorable,0.9644670486450195
,young,0.9571704864501953
,eye,0.9566304683685303
,no person,0.9468247890472412
,stripe,0.9396375417709351
,grey,0.9360260963439941
,whisker,0.928956151008606
https://scontent-sit4-1.cdninstagram.com/t51.2885-15/e35/13414180_208317962900368_702741467_n.jpg,money,0.9839633703231812
,business,0.9808274507522583
,passport,0.9792928695678711
,finance,0.969719648361206
,visa,0.9605056047439575
,administration,0.9589985609054565
,commerce,0.9588171243667603
,paper,0.9488009214401245
,travel,0.9452803730964661
,official,0.9394649863243103
,cash,0.9384212493896484
,ticket,0.9365856647491455
,bank,0.9344164133071899
,symbol,0.9304741621017456
,document,0.9303475618362427
,finance,0.923582911491394
,money,0.9217429757118225
,International,0.9201083183288574
,departure,0.919202446937561
,payment,0.9154282808303833
https://scontent-sit4-1.cdninstagram.com/t51.2885-15/e35/13473274_716031335205255_2134158174_n.jpg,chocolate,0.9624839425086975
,food,0.9575308561325073
,traditional,0.9568548202514648
,market,0.9540066719055176
,collage,0.9537256956100464
,shop,0.9229481220245361
,sale,0.9210720062255859
,option,0.9154185652732849
,shopping,0.908395528793335
,booth,0.9051539897918701
,candy,0.9032849073410034
,woman,0.8993296027183533
,stock,0.8959790468215942
,culture,0.8922417163848877
,people,0.8875022530555725
,kind,0.875145435333252
,coffee,0.8737764358520508
,tea,0.8728376626968384
,sweet,0.8582475185394287
,delicious,0.8460937142372131
https://scontent-sit4-1.cdninstagram.com/t51.2885-15/e35/13768209_498339117025858_813397267_n.jpg,food,0.9849553108215332
,traditional,0.9500632882118225
,lunch,0.9418362379074097
,woman,0.9415496587753296
,dinner,0.940864086151123
,meal,0.9402257204055786
,people,0.9246631264686584
,delicious,0.8838461637496948
,restaurant,0.8693207502365112
,meat,0.866805911064148
,plate,0.8625955581665039
,dish,0.8587566614151001
,cooking,0.8531662225723267
,healthy,0.8409346342086792
,health,0.8384377956390381
,cuisine,0.8192436695098877
,nutrition,0.8151798248291016
,culture,0.8132761716842651
,tasty,0.8061142563819885
,vegetable,0.8038320541381836
https://scontent-sit4-1.cdninstagram.com/t51.2885-15/e35/13408717_287795281566454_547147687_n.jpg,food,0.9655808210372925
,restaurant,0.9368997812271118
,business,0.9176080822944641
,stock,0.8429710865020752
,meat,0.8384479284286499
,meal,0.831186056137085
,vegetable,0.8225134611129761
,soup,0.8217239379882812
,market,0.8098398447036743
,shopping,0.7884826064109802
,city,0.779204249382019
,seafood,0.7658488750457764
,display,0.7610610723495483
,people,0.7567754983901978
,chicken,0.7483787536621094
,takeout,0.7424304485321045
,tourism,0.7414486408233643
,vertical,0.739035964012146
,plate,0.7377844452857971
,shop,0.7363274097442627
https://scontent-sit4-1.cdninstagram.com/t51.2885-15/e35/13380871_1732148183720502_1991505701_n.jpg,food,0.9939528107643127
,dish,0.9698230028152466
,dinner,0.9638474583625793
,meal,0.9629503488540649
,healthy,0.9627352952957153
,cuisine,0.959456741809845
,plate,0.9574871063232422
,vegetable,0.9484599828720093
,delicious,0.9465616941452026
,sauce,0.9438269138336182
,restaurant,0.9435457587242126
,cooking,0.9309200048446655
,tasty,0.9248098134994507
,traditional,0.9246830344200134
,no person,0.9226696491241455
,lunch,0.9220544099807739
,epicure,0.9214697480201721
,closeup,0.9198998808860779
,hot,0.9008333086967468
,diet,0.8984280824661255
https://scontent-sit4-1.cdninstagram.com/t51.2885-15/e35/13402605_588490624655998_1039786565_n.jpg,food,0.9951720237731934
,dish,0.9832766652107239
,plate,0.9813807010650635
,dinner,0.9756006002426147
,meal,0.9750467538833618
,cuisine,0.9722697734832764
,healthy,0.9639766216278076
,lunch,0.9551770687103271
,delicious,0.9542428255081177
,tasty,0.9487928152084351
,cooking,0.9485923647880554
,restaurant,0.9467517137527466
,epicure,0.9460159540176392
,traditional,0.9342025518417358
,closeup,0.9308933019638062
,bowl,0.9289641976356506
,pasta,0.9253412485122681
,hot,0.9240630269050598
,sauce,0.9189978837966919
,diet,0.917678952217102
https://scontent-sit4-1.cdninstagram.com/t51.2885-15/e35/13437287_562703923909408_834096554_n.jpg,woman,0.9913417100906372
,people,0.9773167967796326
,fashion,0.9700720906257629
,adult,0.9373281002044678
,young,0.9345443248748779
,business,0.9323571920394897
,indoors,0.9264577627182007
,girl,0.9190266132354736
,portrait,0.9153560400009155
,pretty,0.9023188948631287
,adolescent,0.8855441808700562
,music,0.8808358907699585
,beautiful,0.8707300424575806
,education,0.8704611659049988
,glamour,0.8704461455345154
,person,0.8685608506202698
,style,0.8507363200187683
,attractive,0.8240455985069275
,friendship,0.8164458274841309
,model,0.8086495399475098
https://scontent-sit4-1.cdninstagram.com/t51.2885-15/s640x640/e15/13328970_631852323629601_648605369_n.jpg,competition,0.9885855317115784
,people,0.982974648475647
,vehicle,0.9820791482925415
,race,0.9731042385101318
,soccer,0.9563429355621338
,road,0.9471606016159058
,race,0.9456162452697754
,group,0.9439451694488525
,light,0.9435898065567017
,action,0.9404193162918091
,transportation system,0.9399821758270264
,travel,0.934292197227478
,sitting,0.9246401190757751
,bike,0.9197704792022705
,festival,0.9086728096008301
,track,0.9084075093269348
,wheel,0.9059170484542847
,motion,0.9000626802444458
,city,0.896722137928009
,adult,0.8940626382827759
