url,class,score,,,,,,,,
https://scontent.cdninstagram.com/t51.2885-15/e35/13392906_1608584392765188_234163610_n.jpg,landscape,0.9935284852981567,Environment,,,,"Natural beauty",,,
,tree,0.9934700727462769,,,,,,,,
,water,0.9909635782241821,,,,,,,,
,lake,0.9847128391265869,,,,,,,,
,nature,0.9808655977249146,,,,,,,,
,"no person",0.9783485531806946,,,,,,,,
,river,0.9745755195617676,,,,,,,,
,reflection,0.96706223487854,,,,,,,,
,park,0.9635457396507263,,,,,,,,
,wood,0.9610615968704224,,,,,,,,
,environment,0.959399402141571,,,,,,,,
,summer,0.9551652073860168,,,,,,,,
,pool,0.9548764824867249,,,,,,,,
,outdoors,0.951545238494873,,,,,,,,
,grass,0.9298296570777893,,,,,,,,
,scenic,0.9203342199325562,,,,,,,,
,travel,0.9167364835739136,,,,,,,,
,sky,0.9062510132789612,,,,,,,,
,fog,0.8838842511177063,,,,,,,,
,daylight,0.864050030708313,,,,,,,,
https://scontent.cdninstagram.com/t51.2885-15/e35/13398628_1269404596404804_1840821447_n.jpg,business,0.9688025116920471,Relationships,Business,,,Friends,Conf/Events,,
,group,0.9668227434158325,,,,,,,,
,leader,0.9650141596794128,,,,,,,,
,many,0.936430811882019,,,,,,,,
,administration,0.9202109575271606,,,,,,,,
,portrait,0.9198997616767883,,,,,,,,
,people,0.9054680466651917,,,,,,,,
,adult,0.8966476917266846,,,,,,,,
,group,0.8943866491317749,,,,,,,,
,meeting,0.8836362957954407,,,,,,,,
,politician,0.8757404088973999,,,,,,,,
,man,0.8575490117073059,,,,,,,,
,wear,0.8454706072807312,,,,,,,,
,chair,0.8221986293792725,,,,,,,,
,election,0.8136345744132996,,,,,,,,
,woman,0.8132754564285278,,,,,,,,
,International,0.8021349906921387,,,,,,,,
,education,0.7952828407287598,,,,,,,,
,league,0.7721097469329834,,,,,,,,
,employee,0.7663813829421997,,,,,,,,
https://scontent.cdninstagram.com/t51.2885-15/e35/13423682_669483843200022_1249538852_n.jpg,people,0.9994747638702393,"Fashion & Beauty",,,,"My look",,,
,group,0.9833786487579346,,,,,,,,
,adult,0.9389910697937012,,,,,,,,
,religion,0.926263153553009,,,,,,,,
,man,0.9204789400100708,,,,,,,,
,many,0.8963369727134705,,,,,,,,
,group,0.8597311973571777,,,,,,,,
,leader,0.8364002108573914,,,,,,,,
,city,0.8213784098625183,,,,,,,,
,commerce,0.8181958198547363,,,,,,,,
,several,0.8115570545196533,,,,,,,,
,music,0.8040034770965576,,,,,,,,
,offense,0.7644248604774475,,,,,,,,
,wear,0.743597149848938,,,,,,,,
,competition,0.7303523421287537,,,,,,,,
,dancing,0.7265198230743408,,,,,,,,
,performance,0.7176488041877747,,,,,,,,
,woman,0.7000222206115723,,,,,,,,
,street,0.6995272636413574,,,,,,,,
,administration,0.6926750540733337,,,,,,,,
https://scontent.cdninstagram.com/t51.2885-15/e35/13423677_889383284506940_1767344727_n.jpg,"no person",0.9561227560043335,Business,,,,Conf/Events,,,
,travel,0.941429853439331,,,,,,,,
,text,0.9046056270599365,,,,,,,,
,horizontal,0.8971604108810425,,,,,,,,
,business,0.8839291930198669,,,,,,,,
,indoors,0.8794354796409607,,,,,,,,
,administration,0.8711793422698975,,,,,,,,
,people,0.8637917041778564,,,,,,,,
,vacation,0.8605773448944092,,,,,,,,
,outdoors,0.8330394625663757,,,,,,,,
,one,0.8289189338684082,,,,,,,,
,paper,0.8258464336395264,,,,,,,,
,finance,0.8257867097854614,,,,,,,,
,woman,0.8249059319496155,,,,,,,,
,label,0.8239575624465942,,,,,,,,
,healthcare,0.8162887096405029,,,,,,,,
,identity,0.8145480155944824,,,,,,,,
,number,0.8052490949630737,,,,,,,,
,security,0.7953348159790039,,,,,,,,
,order,0.7705883979797363,,,,,,,,
https://scontent.cdninstagram.com/t51.2885-15/s640x640/sh0.08/e35/13395050_1574904232803121_1011983063_n.jpg,sofa,0.9989669919013977,,,,,,,,
,indoors,0.9971342086791992,,,,,,,,
,chair,0.9952259659767151,,,,,,,,
,seat,0.9951914548873901,,,,,,,,
,armchair,0.9951179027557373,,,,,,,,
,furniture,0.9918662309646606,,,,,,,,
,contemporary,0.9884084463119507,,,,,,,,
,room,0.9831151962280273,,,,,,,,
,leather,0.9823594689369202,,,,,,,,
,"interior design",0.9719948172569275,,,,,,,,
,comfort,0.9698302745819092,,,,,,,,
,"no person",0.9657396078109741,,,,,,,,
,modern,0.9489855766296387,,,,,,,,
,family,0.9488399624824524,,,,,,,,
,luxury,0.9475259184837341,,,,,,,,
,cozy,0.945342481136322,,,,,,,,
,table,0.9269006848335266,,,,,,,,
,cushion,0.9176510572433472,,,,,,,,
,empty,0.9157558679580688,,,,,,,,
,relaxation,0.9076226949691772,,,,,,,,
https://scontent.cdninstagram.com/t51.2885-15/e35/13398628_1269404596404804_1840821447_n.jpg,business,0.9688025116920471,Relationships,Business,,,Friends,Conf/Events,,
,group,0.9668227434158325,,,,,,,,
,leader,0.9650141596794128,,,,,,,,
,many,0.936430811882019,,,,,,,,
,administration,0.9202109575271606,,,,,,,,
,portrait,0.9198997616767883,,,,,,,,
,people,0.9054680466651917,,,,,,,,
,adult,0.8966476917266846,,,,,,,,
,group,0.8943866491317749,,,,,,,,
,meeting,0.8836362957954407,,,,,,,,
,politician,0.8757404088973999,,,,,,,,
,man,0.8575490117073059,,,,,,,,
,wear,0.8454706072807312,,,,,,,,
,chair,0.8221986293792725,,,,,,,,
,election,0.8136345744132996,,,,,,,,
,woman,0.8132754564285278,,,,,,,,
,International,0.8021349906921387,,,,,,,,
,education,0.7952828407287598,,,,,,,,
,league,0.7721097469329834,,,,,,,,
,employee,0.7663813829421997,,,,,,,,
https://scontent.cdninstagram.com/t51.2885-15/e35/13423682_669483843200022_1249538852_n.jpg,people,0.9994747638702393,"Fashion & Beauty",,,,"My look",,,
,group,0.9833786487579346,,,,,,,,
,adult,0.9389910697937012,,,,,,,,
,religion,0.926263153553009,,,,,,,,
,man,0.9204789400100708,,,,,,,,
,many,0.8963369727134705,,,,,,,,
,group,0.8597311973571777,,,,,,,,
,leader,0.8364002108573914,,,,,,,,
,city,0.8213784098625183,,,,,,,,
,commerce,0.8181958198547363,,,,,,,,
,several,0.8115570545196533,,,,,,,,
,music,0.8040034770965576,,,,,,,,
,offense,0.7644248604774475,,,,,,,,
,wear,0.743597149848938,,,,,,,,
,competition,0.7303523421287537,,,,,,,,
,dancing,0.7265198230743408,,,,,,,,
,performance,0.7176488041877747,,,,,,,,
,woman,0.7000222206115723,,,,,,,,
,street,0.6995272636413574,,,,,,,,
,administration,0.6926750540733337,,,,,,,,
https://scontent.cdninstagram.com/t51.2885-15/e35/13392906_1608584392765188_234163610_n.jpg,landscape,0.9935284852981567,Environment,,,,"Natural beauty",,,
,tree,0.9934700727462769,,,,,,,,
,water,0.9909635782241821,,,,,,,,
,lake,0.9847128391265869,,,,,,,,
,nature,0.9808655977249146,,,,,,,,
,"no person",0.9783485531806946,,,,,,,,
,river,0.9745755195617676,,,,,,,,
,reflection,0.96706223487854,,,,,,,,
,park,0.9635457396507263,,,,,,,,
,wood,0.9610615968704224,,,,,,,,
,environment,0.959399402141571,,,,,,,,
,summer,0.9551652073860168,,,,,,,,
,pool,0.9548764824867249,,,,,,,,
,outdoors,0.951545238494873,,,,,,,,
,grass,0.9298296570777893,,,,,,,,
,scenic,0.9203342199325562,,,,,,,,
,travel,0.9167364835739136,,,,,,,,
,sky,0.9062510132789612,,,,,,,,
,fog,0.8838842511177063,,,,,,,,
,daylight,0.864050030708313,,,,,,,,
https://scontent.cdninstagram.com/l/t51.2885-15/e35/13422799_1129252493802108_1227014988_n.jpg,business,0.986901044845581,Business,Entertainment,,,Business-s,Entertainment-s,,
,money,0.9455111026763916,,,,,,,,
,paper,0.9441334009170532,,,,,,,,
,"no person",0.9264740943908691,,,,,,,,
,finance,0.921857476234436,,,,,,,,
,text,0.911717414855957,,,,,,,,
,wealth,0.8857325315475464,,,,,,,,
,money,0.8852877616882324,,,,,,,,
,commerce,0.8829866051673889,,,,,,,,
,one,0.8697224259376526,,,,,,,,
,administration,0.8507354259490967,,,,,,,,
,people,0.8450373411178589,,,,,,,,
,rally,0.8446304798126221,,,,,,,,
,number,0.8097769021987915,,,,,,,,
,pay,0.8016781806945801,,,,,,,,
,success,0.8007076978683472,,,,,,,,
,sign,0.7873648405075073,,,,,,,,
,recession,0.7440008521080017,,,,,,,,
,spherical,0.7324817180633545,,,,,,,,
,growth,0.7266557812690735,,,,,,,,
https://scontent.cdninstagram.com/t51.2885-15/e35/13473115_284853651863893_1203012154_n.jpg,outdoors,0.9814810752868652,Animals,,,,Animals-s,,,
,nature,0.971871018409729,,,,,,,,
,park,0.9693447351455688,,,,,,,,
,leisure,0.9415757060050964,,,,,,,,
,recreation,0.9375619888305664,,,,,,,,
,water,0.9343336820602417,,,,,,,,
,summer,0.9308679103851318,,,,,,,,
,bird,0.9291746020317078,,,,,,,,
,zoo,0.9247180819511414,,,,,,,,
,one,0.9194006323814392,,,,,,,,
,people,0.9046419262886047,,,,,,,,
,adult,0.9024755954742432,,,,,,,,
,"no person",0.8995421528816223,,,,,,,,
,grass,0.8995181322097778,,,,,,,,
,enjoyment,0.8925801515579224,,,,,,,,
,relaxation,0.884193480014801,,,,,,,,
,tropical,0.8615372180938721,,,,,,,,
,garden,0.8264760971069336,,,,,,,,
,golf,0.8240772485733032,,,,,,,,
,woman,0.8137434720993042,,,,,,,,
https://scontent.cdninstagram.com/t51.2885-15/e35/13473115_284853651863893_1203012154_n.jpg,outdoors,0.9814810752868652,Animals,,,,Animals-s,,,
,nature,0.971871018409729,,,,,,,,
,park,0.9693447351455688,,,,,,,,
,leisure,0.9415757060050964,,,,,,,,
,recreation,0.9375619888305664,,,,,,,,
,water,0.9343336820602417,,,,,,,,
,summer,0.9308679103851318,,,,,,,,
,bird,0.9291746020317078,,,,,,,,
,zoo,0.9247180819511414,,,,,,,,
,one,0.9194006323814392,,,,,,,,
,people,0.9046419262886047,,,,,,,,
,adult,0.9024755954742432,,,,,,,,
,"no person",0.8995421528816223,,,,,,,,
,grass,0.8995181322097778,,,,,,,,
,enjoyment,0.8925801515579224,,,,,,,,
,relaxation,0.884193480014801,,,,,,,,
,tropical,0.8615372180938721,,,,,,,,
,garden,0.8264760971069336,,,,,,,,
,golf,0.8240772485733032,,,,,,,,
,woman,0.8137434720993042,,,,,,,,
https://scontent.cdninstagram.com/t51.2885-15/s640x640/e15/13413231_1610109799299756_1383102359_n.jpg,competition,0.9948906898498535,Recreation,,,,Recreation-s,,,
,action,0.9921988248825073,,,,,,,,
,motion,0.9918055534362793,,,,,,,,
,athlete,0.9825663566589355,,,,,,,,
,blur,0.9777567386627197,,,,,,,,
,people,0.9742014408111572,,,,,,,,
,alley,0.9733567237854004,,,,,,,,
,adult,0.9728940725326538,,,,,,,,
,ball,0.9706555604934692,,,,,,,,
,game,0.9669008255004883,,,,,,,,
,recreation,0.9644027948379517,,,,,,,,
,man,0.9616634845733643,,,,,,,,
,train,0.9613468647003174,,,,,,,,
,hurry,0.9611725807189941,,,,,,,,
,club,0.9451223015785217,,,,,,,,
,woman,0.9397306442260742,,,,,,,,
,"sports equipment",0.9345636367797852,,,,,,,,
,match,0.9336305260658264,,,,,,,,
,wear,0.9327677488327026,,,,,,,,
,girl,0.926519513130188,,,,,,,,
https://scontent.cdninstagram.com/t51.2885-15/e35/13414328_1820307174859037_178697754_n.jpg,one,0.945054292678833,"My life",,,,"Here I am",,,
,cat,0.9436565637588501,,,,,,,,
,mammal,0.9356977343559265,,,,,,,,
,"no person",0.9273232221603394,,,,,,,,
,people,0.9077222943305969,,,,,,,,
,pet,0.8889447450637817,,,,,,,,
,cute,0.8614301681518555,,,,,,,,
,portrait,0.8603732585906982,,,,,,,,
,funny,0.8540910482406616,,,,,,,,
,baby,0.8359671831130981,,,,,,,,
,sit,0.8299212455749512,,,,,,,,
,animal,0.8250373601913452,,,,,,,,
,art,0.8151564598083496,,,,,,,,
,indoors,0.8131413459777832,,,,,,,,
,family,0.7914579510688782,,,,,,,,
,adult,0.7835246324539185,,,,,,,,
,little,0.7723329067230225,,,,,,,,
,fur,0.757841944694519,,,,,,,,
,child,0.7577223777770996,,,,,,,,
,fun,0.7530686259269714,,,,,,,,
https://scontent.cdninstagram.com/t51.2885-15/e35/13398400_1748226412086756_100602207_n.jpg,business,0.9891820549964905,Business,Entertainment,,,Business-s,Entertainment-s,,
,paper,0.9748674631118774,,,,,,,,
,finance,0.9703274369239807,,,,,,,,
,money,0.9642478227615356,,,,,,,,
,money,0.9587072134017944,,,,,,,,
,wealth,0.9441632032394409,,,,,,,,
,commerce,0.903935968875885,,,,,,,,
,symbol,0.8880223035812378,,,,,,,,
,success,0.8861061334609985,,,,,,,,
,identity,0.8845531940460205,,,,,,,,
,"no person",0.873004674911499,,,,,,,,
,sign,0.8694928884506226,,,,,,,,
,bank,0.868187427520752,,,,,,,,
,dollar,0.8561076521873474,,,,,,,,
,note,0.8527616262435913,,,,,,,,
,document,0.8364854454994202,,,,,,,,
,text,0.8349683284759521,,,,,,,,
,cash,0.831436812877655,,,,,,,,
,investment,0.8303390741348267,,,,,,,,
,number,0.815169095993042,,,,,,,,
https://scontent.cdninstagram.com/t51.2885-15/e35/13398400_1748226412086756_100602207_n.jpg,business,0.9891820549964905,Business,Entertainment,,,Business-s,Entertainment-s,,
,paper,0.9748674631118774,,,,,,,,
,finance,0.9703274369239807,,,,,,,,
,money,0.9642478227615356,,,,,,,,
,money,0.9587072134017944,,,,,,,,
,wealth,0.9441632032394409,,,,,,,,
,commerce,0.903935968875885,,,,,,,,
,symbol,0.8880223035812378,,,,,,,,
,success,0.8861061334609985,,,,,,,,
,identity,0.8845531940460205,,,,,,,,
,"no person",0.873004674911499,,,,,,,,
,sign,0.8694928884506226,,,,,,,,
,bank,0.868187427520752,,,,,,,,
,dollar,0.8561076521873474,,,,,,,,
,note,0.8527616262435913,,,,,,,,
,document,0.8364854454994202,,,,,,,,
,text,0.8349683284759521,,,,,,,,
,cash,0.831436812877655,,,,,,,,
,investment,0.8303390741348267,,,,,,,,
,number,0.815169095993042,,,,,,,,
https://scontent.cdninstagram.com/t51.2885-15/s640x640/e15/13413231_1610109799299756_1383102359_n.jpg,competition,0.9948906898498535,Recreation,,,,Recreation-s,,,
,action,0.9921988248825073,,,,,,,,
,motion,0.9918055534362793,,,,,,,,
,athlete,0.9825663566589355,,,,,,,,
,blur,0.9777567386627197,,,,,,,,
,people,0.9742014408111572,,,,,,,,
,alley,0.9733567237854004,,,,,,,,
,adult,0.9728940725326538,,,,,,,,
,ball,0.9706555604934692,,,,,,,,
,game,0.9669008255004883,,,,,,,,
,recreation,0.9644027948379517,,,,,,,,
,man,0.9616634845733643,,,,,,,,
,train,0.9613468647003174,,,,,,,,
,hurry,0.9611725807189941,,,,,,,,
,club,0.9451223015785217,,,,,,,,
,woman,0.9397306442260742,,,,,,,,
,"sports equipment",0.9345636367797852,,,,,,,,
,match,0.9336305260658264,,,,,,,,
,wear,0.9327677488327026,,,,,,,,
,girl,0.926519513130188,,,,,,,,
https://scontent.cdninstagram.com/t51.2885-15/e35/13392788_144585039293852_1979841245_n.jpg,people,0.9918267726898193,"Fashion & Beauty",,,,"My look",,,
,child,0.9794708490371704,,,,,,,,
,man,0.9760450720787048,,,,,,,,
,two,0.9726954698562622,,,,,,,,
,adult,0.9546413421630859,,,,,,,,
,religion,0.9466174840927124,,,,,,,,
,interaction,0.9439448118209839,,,,,,,,
,battle,0.931029200553894,,,,,,,,
,daylight,0.9211419820785522,,,,,,,,
,boy,0.9055321216583252,,,,,,,,
,three,0.9034846425056458,,,,,,,,
,city,0.9032864570617676,,,,,,,,
,outdoors,0.9014114737510681,,,,,,,,
,urban,0.8944683074951172,,,,,,,,
,street,0.8850743174552917,,,,,,,,
,group,0.8773741722106934,,,,,,,,
,woman,0.8710827827453613,,,,,,,,
,action,0.8662601709365845,,,,,,,,
,wear,0.8638732433319092,,,,,,,,
,one,0.8623210191726685,,,,,,,,
https://scontent.cdninstagram.com/t51.2885-15/e35/13398795_1624270701223391_1045274479_n.jpg,street,0.9619005918502808,"My life",Environment,,,"Here I am","Manmade beauty",,
,travel,0.9592958688735962,,,,,,,,
,architecture,0.9576631784439087,,,,,,,,
,people,0.9440112113952637,,,,,,,,
,road,0.9405800104141235,,,,,,,,
,outdoors,0.9330816864967346,,,,,,,,
,building,0.9281607866287231,,,,,,,,
,"no person",0.9248084425926208,,,,,,,,
,tree,0.9239869117736816,,,,,,,,
,park,0.9224271774291992,,,,,,,,
,summer,0.9155274629592896,,,,,,,,
,city,0.914516806602478,,,,,,,,
,garden,0.9107144474983215,,,,,,,,
,urban,0.909286618232727,,,,,,,,
,wood,0.9000654220581055,,,,,,,,
,pavement,0.8969249725341797,,,,,,,,
,vacation,0.8784729242324829,,,,,,,,
,house,0.8783184289932251,,,,,,,,
,tourism,0.8751668930053711,,,,,,,,
,religion,0.8692479133605957,,,,,,,,
https://scontent.cdninstagram.com/t51.2885-15/e35/13398795_1624270701223391_1045274479_n.jpg,street,0.9619005918502808,"My life",Environment,,,"Here I am","Manmade beauty",,
,travel,0.9592958688735962,,,,,,,,
,architecture,0.9576631784439087,,,,,,,,
,people,0.9440112113952637,,,,,,,,
,road,0.9405800104141235,,,,,,,,
,outdoors,0.9330816864967346,,,,,,,,
,building,0.9281607866287231,,,,,,,,
,"no person",0.9248084425926208,,,,,,,,
,tree,0.9239869117736816,,,,,,,,
,park,0.9224271774291992,,,,,,,,
,summer,0.9155274629592896,,,,,,,,
,city,0.914516806602478,,,,,,,,
,garden,0.9107144474983215,,,,,,,,
,urban,0.909286618232727,,,,,,,,
,wood,0.9000654220581055,,,,,,,,
,pavement,0.8969249725341797,,,,,,,,
,vacation,0.8784729242324829,,,,,,,,
,house,0.8783184289932251,,,,,,,,
,tourism,0.8751668930053711,,,,,,,,
,religion,0.8692479133605957,,,,,,,,
https://scontent.cdninstagram.com/t51.2885-15/e35/13355498_1565348460425933_1242869871_n.jpg,"no person",0.9705844521522522,Food,Celebrations,,,Dessert,"Personal Events",,
,food,0.9677798748016357,,,,,,,,
,decoration,0.9616829752922058,,,,,,,,
,celebration,0.9589428305625916,,,,,,,,
,card,0.9476702213287354,,,,,,,,
,cake,0.9333596229553223,,,,,,,,
,party,0.909442663192749,,,,,,,,
,bill,0.9057466983795166,,,,,,,,
,sweet,0.9024308919906616,,,,,,,,
,sign,0.8982684016227722,,,,,,,,
,desktop,0.8941779136657715,,,,,,,,
,symbol,0.878236711025238,,,,,,,,
,cream,0.8723852634429932,,,,,,,,
,delicious,0.8715201020240784,,,,,,,,
,banner,0.8651696443557739,,,,,,,,
,text,0.8416469097137451,,,,,,,,
,sugar,0.838870644569397,,,,,,,,
,chocolate,0.8353835344314575,,,,,,,,
,wood,0.8275362253189087,,,,,,,,
,birthday,0.8240694999694824,,,,,,,,
https://scontent.cdninstagram.com/t51.2885-15/e35/13414328_1820307174859037_178697754_n.jpg,one,0.945054292678833,"My life",,,,"Here I am",,,
,cat,0.9436565637588501,,,,,,,,
,mammal,0.9356977343559265,,,,,,,,
,"no person",0.9273232221603394,,,,,,,,
,people,0.9077222943305969,,,,,,,,
,pet,0.8889447450637817,,,,,,,,
,cute,0.8614301681518555,,,,,,,,
,portrait,0.8603732585906982,,,,,,,,
,funny,0.8540910482406616,,,,,,,,
,baby,0.8359671831130981,,,,,,,,
,sit,0.8299212455749512,,,,,,,,
,animal,0.8250373601913452,,,,,,,,
,art,0.8151564598083496,,,,,,,,
,indoors,0.8131413459777832,,,,,,,,
,family,0.7914579510688782,,,,,,,,
,adult,0.7835246324539185,,,,,,,,
,little,0.7723329067230225,,,,,,,,
,fur,0.757841944694519,,,,,,,,
,child,0.7577223777770996,,,,,,,,
,fun,0.7530686259269714,,,,,,,,
https://scontent.cdninstagram.com/t51.2885-15/e35/13355498_1565348460425933_1242869871_n.jpg,"no person",0.9705844521522522,Food,Celebrations,,,Dessert,"Personal Events",,
,food,0.9677798748016357,,,,,,,,
,decoration,0.9616829752922058,,,,,,,,
,celebration,0.9589428305625916,,,,,,,,
,card,0.9476702213287354,,,,,,,,
,cake,0.9333596229553223,,,,,,,,
,party,0.909442663192749,,,,,,,,
,bill,0.9057466983795166,,,,,,,,
,sweet,0.9024308919906616,,,,,,,,
,sign,0.8982684016227722,,,,,,,,
,desktop,0.8941779136657715,,,,,,,,
,symbol,0.878236711025238,,,,,,,,
,cream,0.8723852634429932,,,,,,,,
,delicious,0.8715201020240784,,,,,,,,
,banner,0.8651696443557739,,,,,,,,
,text,0.8416469097137451,,,,,,,,
,sugar,0.838870644569397,,,,,,,,
,chocolate,0.8353835344314575,,,,,,,,
,wood,0.8275362253189087,,,,,,,,
,birthday,0.8240694999694824,,,,,,,,
https://scontent.cdninstagram.com/t51.2885-15/e35/13285513_841427662628254_205472904_n.jpg,"no person",0.9903072118759155,,,,,,,,
,invertebrate,0.9877652525901794,,,,,,,,
,one,0.9857683181762695,,,,,,,,
,food,0.9726202487945557,,,,,,,,
,biology,0.9517883062362671,,,,,,,,
,daylight,0.9465173482894897,,,,,,,,
,insect,0.9425202012062073,,,,,,,,
,fish,0.9190055727958679,,,,,,,,
,grow,0.9111353158950806,,,,,,,,
,environment,0.9107402563095093,,,,,,,,
,seafood,0.9068812131881714,,,,,,,,
,water,0.8810750246047974,,,,,,,,
,"still life",0.8807514905929565,,,,,,,,
,"side view",0.8698457479476929,,,,,,,,
,wildlife,0.8451333045959473,,,,,,,,
,adult,0.8348070383071899,,,,,,,,
,blur,0.8262417316436768,,,,,,,,
,people,0.8085860013961792,,,,,,,,
,sea,0.8074085712432861,,,,,,,,
,shellfish,0.7976090908050537,,,,,,,,
https://scontent.cdninstagram.com/t51.2885-15/e35/13285513_841427662628254_205472904_n.jpg,"no person",0.9903072118759155,,,,,,,,
,invertebrate,0.9877652525901794,,,,,,,,
,one,0.9857683181762695,,,,,,,,
,food,0.9726202487945557,,,,,,,,
,biology,0.9517883062362671,,,,,,,,
,daylight,0.9465173482894897,,,,,,,,
,insect,0.9425202012062073,,,,,,,,
,fish,0.9190055727958679,,,,,,,,
,grow,0.9111353158950806,,,,,,,,
,environment,0.9107402563095093,,,,,,,,
,seafood,0.9068812131881714,,,,,,,,
,water,0.8810750246047974,,,,,,,,
,"still life",0.8807514905929565,,,,,,,,
,"side view",0.8698457479476929,,,,,,,,
,wildlife,0.8451333045959473,,,,,,,,
,adult,0.8348070383071899,,,,,,,,
,blur,0.8262417316436768,,,,,,,,
,people,0.8085860013961792,,,,,,,,
,sea,0.8074085712432861,,,,,,,,
,shellfish,0.7976090908050537,,,,,,,,
https://scontent.cdninstagram.com/t51.2885-15/e35/13392847_1755723104698269_985698529_n.jpg,"no person",0.9954622983932495,Recreation,Food,,,Fitness,"Drinks and snack",,
,health,0.9828717708587646,,,,,,,,
,juice,0.9763895869255066,,,,,,,,
,drink,0.954627513885498,,,,,,,,
,indoors,0.953404426574707,,,,,,,,
,healthcare,0.9515702724456787,,,,,,,,
,glass,0.9356059432029724,,,,,,,,
,breakfast,0.9355626106262207,,,,,,,,
,cold,0.9120774269104004,,,,,,,,
,food,0.8993009328842163,,,,,,,,
,plastic,0.8984625935554504,,,,,,,,
,delicious,0.8925259709358215,,,,,,,,
,medicine,0.8827935457229614,,,,,,,,
,nutrition,0.8546862602233887,,,,,,,,
,vertical,0.8464667201042175,,,,,,,,
,container,0.8257128596305847,,,,,,,,
,merchandise,0.8209680318832397,,,,,,,,
,treatment,0.8187053799629211,,,,,,,,
,cure,0.8166095018386841,,,,,,,,
,relaxation,0.8141759634017944,,,,,,,,
https://scontent.cdninstagram.com/t51.2885-15/e35/13392847_1755723104698269_985698529_n.jpg,"no person",0.9954622983932495,Recreation,Food,,,Fitness,"Drinks and snack",,
,health,0.9828717708587646,,,,,,,,
,juice,0.9763895869255066,,,,,,,,
,drink,0.954627513885498,,,,,,,,
,indoors,0.953404426574707,,,,,,,,
,healthcare,0.9515702724456787,,,,,,,,
,glass,0.9356059432029724,,,,,,,,
,breakfast,0.9355626106262207,,,,,,,,
,cold,0.9120774269104004,,,,,,,,
,food,0.8993009328842163,,,,,,,,
,plastic,0.8984625935554504,,,,,,,,
,delicious,0.8925259709358215,,,,,,,,
,medicine,0.8827935457229614,,,,,,,,
,nutrition,0.8546862602233887,,,,,,,,
,vertical,0.8464667201042175,,,,,,,,
,container,0.8257128596305847,,,,,,,,
,merchandise,0.8209680318832397,,,,,,,,
,treatment,0.8187053799629211,,,,,,,,
,cure,0.8166095018386841,,,,,,,,
,relaxation,0.8141759634017944,,,,,,,,
https://scontent.cdninstagram.com/t51.2885-15/e35/13398988_665867346895530_1747388482_n.jpg,rain,0.9998922944068909,"My life",,,,"My world today",,,
,drop,0.9987107515335083,,,,,,,,
,wet,0.9974086284637451,,,,,,,,
,water,0.996537983417511,,,,,,,,
,dew,0.9964675903320312,,,,,,,,
,droplet,0.9943503737449646,,,,,,,,
,splash,0.9839310050010681,,,,,,,,
,raindrop,0.9838212728500366,,,,,,,,
,nature,0.9835891723632812,,,,,,,,
,rainy,0.9672708511352539,,,,,,,,
,reflection,0.9638556241989136,,,,,,,,
,bubble,0.9620539546012878,,,,,,,,
,color,0.9620414972305298,,,,,,,,
,liquid,0.9603946208953857,,,,,,,,
,water,0.960254430770874,,,,,,,,
,clear,0.9552185535430908,,,,,,,,
,waterdrop,0.9447109699249268,,,,,,,,
,purity,0.9392435550689697,,,,,,,,
,bird,0.9387296438217163,,,,,,,,
,clean,0.9340274333953857,,,,,,,,
https://scontent.cdninstagram.com/t51.2885-15/e35/13298183_614246062055898_1478305542_n.jpg,invertebrate,0.9989160299301147,Animals,,,,Animals-s,,,
,insect,0.9939844608306885,,,,,,,,
,painting,0.9930344223976135,,,,,,,,
,illustration,0.9915541410446167,,,,,,,,
,one,0.9873271584510803,,,,,,,,
,motion,0.9784747958183289,,,,,,,,
,biology,0.9766455888748169,,,,,,,,
,mammal,0.9756883382797241,,,,,,,,
,art,0.9710817933082581,,,,,,,,
,people,0.9694994688034058,,,,,,,,
,"no person",0.9679992198944092,,,,,,,,
,museum,0.9536037445068359,,,,,,,,
,cavalry,0.9530080556869507,,,,,,,,
,daylight,0.9517226219177246,,,,,,,,
,adult,0.9436533451080322,,,,,,,,
,wildlife,0.9414865970611572,,,,,,,,
,spider,0.9379414319992065,,,,,,,,
,"side view",0.9296696186065674,,,,,,,,
,action,0.9287371039390564,,,,,,,,
,print,0.9267615079879761,,,,,,,,
https://scontent.cdninstagram.com/t51.2885-15/e35/13249005_592489067596280_1638055022_n.jpg,business,0.9475983381271362,Business,,,,Conf/Events,,,
,bill,0.9450815916061401,,,,,,,,
,text,0.9261047840118408,,,,,,,,
,illustration,0.8895493745803833,,,,,,,,
,communication,0.8812268376350403,,,,,,,,
,design,0.8661637902259827,,,,,,,,
,modern,0.8631172180175781,,,,,,,,
,technology,0.8545660972595215,,,,,,,,
,abstract,0.8533233404159546,,,,,,,,
,internet,0.8434853553771973,,,,,,,,
,graphic,0.8388985395431519,,,,,,,,
,computer,0.8351192474365234,,,,,,,,
,horizontal,0.831200122833252,,,,,,,,
,sign,0.8296136260032654,,,,,,,,
,election,0.8240551948547363,,,,,,,,
,presentation,0.8191776275634766,,,,,,,,
,screen,0.8026840686798096,,,,,,,,
,travel,0.8018642663955688,,,,,,,,
,desktop,0.7896605730056763,,,,,,,,
,indoors,0.7796222567558289,,,,,,,,
https://scontent.cdninstagram.com/t51.2885-15/e35/13298220_256552261367373_1991014446_n.jpg,business,0.9757671356201172,Business,,,,Business-s,,,
,paper,0.9705749750137329,,,,,,,,
,finance,0.9700380563735962,,,,,,,,
,document,0.9675599336624146,,,,,,,,
,number,0.9597904682159424,,,,,,,,
,money,0.959722638130188,,,,,,,,
,identity,0.9508599042892456,,,,,,,,
,departure,0.9431304931640625,,,,,,,,
,visa,0.9401129484176636,,,,,,,,
,passport,0.9307683110237122,,,,,,,,
,abroad,0.9151074886322021,,,,,,,,
,money,0.9150501489639282,,,,,,,,
,card,0.9079580307006836,,,,,,,,
,symbol,0.8746706247329712,,,,,,,,
,populace,0.8570224046707153,,,,,,,,
,bank,0.8565177917480469,,,,,,,,
,financial,0.8558846712112427,,,,,,,,
,text,0.8553966283798218,,,,,,,,
,page,0.8531836271286011,,,,,,,,
,wealth,0.8485710024833679,,,,,,,,
https://scontent.cdninstagram.com/t51.2885-15/e35/13298220_256552261367373_1991014446_n.jpg,business,0.9757671356201172,Business,,,,Business-s,,,
,paper,0.9705749750137329,,,,,,,,
,finance,0.9700380563735962,,,,,,,,
,document,0.9675599336624146,,,,,,,,
,number,0.9597904682159424,,,,,,,,
,money,0.959722638130188,,,,,,,,
,identity,0.9508599042892456,,,,,,,,
,departure,0.9431304931640625,,,,,,,,
,visa,0.9401129484176636,,,,,,,,
,passport,0.9307683110237122,,,,,,,,
,abroad,0.9151074886322021,,,,,,,,
,money,0.9150501489639282,,,,,,,,
,card,0.9079580307006836,,,,,,,,
,symbol,0.8746706247329712,,,,,,,,
,populace,0.8570224046707153,,,,,,,,
,bank,0.8565177917480469,,,,,,,,
,financial,0.8558846712112427,,,,,,,,
,text,0.8553966283798218,,,,,,,,
,page,0.8531836271286011,,,,,,,,
,wealth,0.8485710024833679,,,,,,,,
https://scontent.cdninstagram.com/t51.2885-15/e35/13298265_1108250809235345_1602397027_n.jpg,food,0.9978578686714172,Food,,,,"Meal time",,,
,fish,0.9911371469497681,,,,,,,,
,dinner,0.9838896989822388,,,,,,,,
,seafood,0.9831770658493042,,,,,,,,
,delicious,0.9830369353294373,,,,,,,,
,meal,0.980809211730957,,,,,,,,
,epicure,0.9804177284240723,,,,,,,,
,healthy,0.9788853526115417,,,,,,,,
,cooking,0.9779336452484131,,,,,,,,
,restaurant,0.9757379293441772,,,,,,,,
,plate,0.9713220596313477,,,,,,,,
,cuisine,0.96787029504776,,,,,,,,
,tasty,0.9609247446060181,,,,,,,,
,dish,0.9605826735496521,,,,,,,,
,nutrition,0.9456431269645691,,,,,,,,
,lunch,0.9443271160125732,,,,,,,,
,diet,0.9436323046684265,,,,,,,,
,closeup,0.9342631101608276,,,,,,,,
,"no person",0.928149938583374,,,,,,,,
,desktop,0.9235318303108215,,,,,,,,
https://scontent.cdninstagram.com/t51.2885-15/e35/13269520_1736808903268306_750296363_n.jpg,group,0.9902631044387817,Relationships,Celebrations,,,Friends,Celebrations-s,,
,woman,0.9808158874511719,,,,,,,,
,group,0.9804697036743164,,,,,,,,
,people,0.9641925096511841,,,,,,,,
,man,0.9633846282958984,,,,,,,,
,adult,0.9613414406776428,,,,,,,,
,indoors,0.9446172714233398,,,,,,,,
,"facial expression",0.9419261813163757,,,,,,,,
,togetherness,0.9417686462402344,,,,,,,,
,teamwork,0.9282737970352173,,,,,,,,
,four,0.9116726517677307,,,,,,,,
,enjoyment,0.9009311199188232,,,,,,,,
,room,0.8766171932220459,,,,,,,,
,friendship,0.869408905506134,,,,,,,,
,happiness,0.8649201393127441,,,,,,,,
,interaction,0.8508543968200684,,,,,,,,
,portrait,0.847182035446167,,,,,,,,
,education,0.8450188040733337,,,,,,,,
,business,0.8317890167236328,,,,,,,,
,squad,0.829659104347229,,,,,,,,
https://scontent.cdninstagram.com/t51.2885-15/e35/13298183_614246062055898_1478305542_n.jpg,invertebrate,0.9989160299301147,Animals,,,,Animals-s,,,
,insect,0.9939844608306885,,,,,,,,
,painting,0.9930344223976135,,,,,,,,
,illustration,0.9915541410446167,,,,,,,,
,one,0.9873271584510803,,,,,,,,
,motion,0.9784747958183289,,,,,,,,
,biology,0.9766455888748169,,,,,,,,
,mammal,0.9756883382797241,,,,,,,,
,art,0.9710817933082581,,,,,,,,
,people,0.9694994688034058,,,,,,,,
,"no person",0.9679992198944092,,,,,,,,
,museum,0.9536037445068359,,,,,,,,
,cavalry,0.9530080556869507,,,,,,,,
,daylight,0.9517226219177246,,,,,,,,
,adult,0.9436533451080322,,,,,,,,
,wildlife,0.9414865970611572,,,,,,,,
,spider,0.9379414319992065,,,,,,,,
,"side view",0.9296696186065674,,,,,,,,
,action,0.9287371039390564,,,,,,,,
,print,0.9267615079879761,,,,,,,,
https://scontent.cdninstagram.com/t51.2885-15/e35/13249005_592489067596280_1638055022_n.jpg,business,0.9475983381271362,Business,,,,Conf/Events,,,
,bill,0.9450815916061401,,,,,,,,
,text,0.9261047840118408,,,,,,,,
,illustration,0.8895493745803833,,,,,,,,
,communication,0.8812268376350403,,,,,,,,
,design,0.8661637902259827,,,,,,,,
,modern,0.8631172180175781,,,,,,,,
,technology,0.8545660972595215,,,,,,,,
,abstract,0.8533233404159546,,,,,,,,
,internet,0.8434853553771973,,,,,,,,
,graphic,0.8388985395431519,,,,,,,,
,computer,0.8351192474365234,,,,,,,,
,horizontal,0.831200122833252,,,,,,,,
,sign,0.8296136260032654,,,,,,,,
,election,0.8240551948547363,,,,,,,,
,presentation,0.8191776275634766,,,,,,,,
,screen,0.8026840686798096,,,,,,,,
,travel,0.8018642663955688,,,,,,,,
,desktop,0.7896605730056763,,,,,,,,
,indoors,0.7796222567558289,,,,,,,,
https://scontent.cdninstagram.com/t51.2885-15/e35/13398988_665867346895530_1747388482_n.jpg,rain,0.9998922944068909,"My life",,,,"My world today",,,
,drop,0.9987107515335083,,,,,,,,
,wet,0.9974086284637451,,,,,,,,
,water,0.996537983417511,,,,,,,,
,dew,0.9964675903320312,,,,,,,,
,droplet,0.9943503737449646,,,,,,,,
,splash,0.9839310050010681,,,,,,,,
,raindrop,0.9838212728500366,,,,,,,,
,nature,0.9835891723632812,,,,,,,,
,rainy,0.9672708511352539,,,,,,,,
,reflection,0.9638556241989136,,,,,,,,
,bubble,0.9620539546012878,,,,,,,,
,color,0.9620414972305298,,,,,,,,
,liquid,0.9603946208953857,,,,,,,,
,water,0.960254430770874,,,,,,,,
,clear,0.9552185535430908,,,,,,,,
,waterdrop,0.9447109699249268,,,,,,,,
,purity,0.9392435550689697,,,,,,,,
,bird,0.9387296438217163,,,,,,,,
,clean,0.9340274333953857,,,,,,,,
https://scontent.cdninstagram.com/t51.2885-15/e35/13392788_144585039293852_1979841245_n.jpg,people,0.9918267726898193,"Fashion & Beauty",,,,"My look",,,
,child,0.9794708490371704,,,,,,,,
,man,0.9760450720787048,,,,,,,,
,two,0.9726954698562622,,,,,,,,
,adult,0.9546413421630859,,,,,,,,
,religion,0.9466174840927124,,,,,,,,
,interaction,0.9439448118209839,,,,,,,,
,battle,0.931029200553894,,,,,,,,
,daylight,0.9211419820785522,,,,,,,,
,boy,0.9055321216583252,,,,,,,,
,three,0.9034846425056458,,,,,,,,
,city,0.9032864570617676,,,,,,,,
,outdoors,0.9014114737510681,,,,,,,,
,urban,0.8944683074951172,,,,,,,,
,street,0.8850743174552917,,,,,,,,
,group,0.8773741722106934,,,,,,,,
,woman,0.8710827827453613,,,,,,,,
,action,0.8662601709365845,,,,,,,,
,wear,0.8638732433319092,,,,,,,,
,one,0.8623210191726685,,,,,,,,
https://scontent.cdninstagram.com/t51.2885-15/e15/13256941_1143030525742999_360150989_n.jpg,underwater,0.9993494749069214,Animals,,,,Animals-s,,,
,aquarium,0.9986380338668823,,,,,,,,
,fish,0.9960529804229736,,,,,,,,
,swimming,0.9931381940841675,,,,,,,,
,tank,0.9855093955993652,,,,,,,,
,water,0.9744124412536621,,,,,,,,
,goldfish,0.9599475860595703,,,,,,,,
,deep,0.9386874437332153,,,,,,,,
,coral,0.9356648921966553,,,,,,,,
,diving,0.9298906326293945,,,,,,,,
,reef,0.9174416065216064,,,,,,,,
,aquatic,0.9100292325019836,,,,,,,,
,exploration,0.8961998224258423,,,,,,,,
,ocean,0.8745064735412598,,,,,,,,
,submarine,0.8724888563156128,,,,,,,,
,"no person",0.8706265687942505,,,,,,,,
,marine,0.8680868148803711,,,,,,,,
,light,0.8474104404449463,,,,,,,,
,jellyfish,0.8369323015213013,,,,,,,,
,scuba,0.8083891868591309,,,,,,,,
https://scontent.cdninstagram.com/t51.2885-15/e35/13298265_1108250809235345_1602397027_n.jpg,food,0.9978578686714172,Food,,,,"Meal time",,,
,fish,0.9911371469497681,,,,,,,,
,dinner,0.9838896989822388,,,,,,,,
,seafood,0.9831770658493042,,,,,,,,
,delicious,0.9830369353294373,,,,,,,,
,meal,0.980809211730957,,,,,,,,
,epicure,0.9804177284240723,,,,,,,,
,healthy,0.9788853526115417,,,,,,,,
,cooking,0.9779336452484131,,,,,,,,
,restaurant,0.9757379293441772,,,,,,,,
,plate,0.9713220596313477,,,,,,,,
,cuisine,0.96787029504776,,,,,,,,
,tasty,0.9609247446060181,,,,,,,,
,dish,0.9605826735496521,,,,,,,,
,nutrition,0.9456431269645691,,,,,,,,
,lunch,0.9443271160125732,,,,,,,,
,diet,0.9436323046684265,,,,,,,,
,closeup,0.9342631101608276,,,,,,,,
,"no person",0.928149938583374,,,,,,,,
,desktop,0.9235318303108215,,,,,,,,
https://scontent.cdninstagram.com/t51.2885-15/e35/13116705_876338505844618_1020881749_n.jpg,dog,0.9965968132019043,Animals,,,,Animals-s,,,
,mammal,0.9965857267379761,,,,,,,,
,cat,0.9959153532981873,,,,,,,,
,pet,0.991438627243042,,,,,,,,
,canine,0.9895086288452148,,,,,,,,
,one,0.986444354057312,,,,,,,,
,cute,0.984322190284729,,,,,,,,
,portrait,0.9829814434051514,,,,,,,,
,puppy,0.9781315326690674,,,,,,,,
,baby,0.9740437269210815,,,,,,,,
,little,0.9731116890907288,,,,,,,,
,kitten,0.970626950263977,,,,,,,,
,room,0.967210054397583,,,,,,,,
,toy,0.9659626483917236,,,,,,,,
,child,0.9434773921966553,,,,,,,,
,cub,0.9423229098320007,,,,,,,,
,"no person",0.9384567737579346,,,,,,,,
,animal,0.9321604371070862,,,,,,,,
,adorable,0.9209088087081909,,,,,,,,
,furniture,0.9161489009857178,,,,,,,,
https://scontent.cdninstagram.com/t51.2885-15/e35/13249792_1707033152894459_163281794_n.jpg,"no person",0.9884076714515686,Food,,,,Dessert,,,
,drink,0.9652043581008911,,,,,,,,
,glass,0.9627389907836914,,,,,,,,
,cup,0.9501169919967651,,,,,,,,
,cream,0.9482921361923218,,,,,,,,
,food,0.941040575504303,,,,,,,,
,coffee,0.9197694063186646,,,,,,,,
,milk,0.9190425872802734,,,,,,,,
,cold,0.9126816987991333,,,,,,,,
,breakfast,0.9123643636703491,,,,,,,,
,sweet,0.9035102128982544,,,,,,,,
,delicious,0.8996803164482117,,,,,,,,
,fruit,0.8956567049026489,,,,,,,,
,sugar,0.8867594003677368,,,,,,,,
,wood,0.8812532424926758,,,,,,,,
,juice,0.8740612864494324,,,,,,,,
,table,0.8613735437393188,,,,,,,,
,chocolate,0.8593883514404297,,,,,,,,
,ice,0.8589593172073364,,,,,,,,
,homemade,0.8454517722129822,,,,,,,,
https://scontent.cdninstagram.com/t51.2885-15/e35/13249792_1707033152894459_163281794_n.jpg,"no person",0.9884076714515686,Food,,,,Dessert,,,
,drink,0.9652043581008911,,,,,,,,
,glass,0.9627389907836914,,,,,,,,
,cup,0.9501169919967651,,,,,,,,
,cream,0.9482921361923218,,,,,,,,
,food,0.941040575504303,,,,,,,,
,coffee,0.9197694063186646,,,,,,,,
,milk,0.9190425872802734,,,,,,,,
,cold,0.9126816987991333,,,,,,,,
,breakfast,0.9123643636703491,,,,,,,,
,sweet,0.9035102128982544,,,,,,,,
,delicious,0.8996803164482117,,,,,,,,
,fruit,0.8956567049026489,,,,,,,,
,sugar,0.8867594003677368,,,,,,,,
,wood,0.8812532424926758,,,,,,,,
,juice,0.8740612864494324,,,,,,,,
,table,0.8613735437393188,,,,,,,,
,chocolate,0.8593883514404297,,,,,,,,
,ice,0.8589593172073364,,,,,,,,
,homemade,0.8454517722129822,,,,,,,,
https://scontent.cdninstagram.com/t51.2885-15/s640x640/sh0.08/e35/13320250_237239519986987_623518138_n.jpg,people,0.9715410470962524,Business,Relationships,Celebrations,,Conf/Events,Friends,"Personal Events",
,group,0.9526019096374512,,,,,,,,
,festival,0.951201319694519,,,,,,,,
,woman,0.9367334842681885,,,,,,,,
,performance,0.9341779947280884,,,,,,,,
,music,0.9259562492370605,,,,,,,,
,many,0.9081765413284302,,,,,,,,
,education,0.8978838920593262,,,,,,,,
,school,0.8910613059997559,,,,,,,,
,man,0.8895362615585327,,,,,,,,
,election,0.8788822889328003,,,,,,,,
,adult,0.8523523211479187,,,,,,,,
,politician,0.8492128849029541,,,,,,,,
,child,0.8423969745635986,,,,,,,,
,singer,0.8409478664398193,,,,,,,,
,concert,0.8303722739219666,,,,,,,,
,editorial,0.825732946395874,,,,,,,,
,candidate,0.8203936815261841,,,,,,,,
,university,0.8080517053604126,,,,,,,,
,ceremony,0.803259015083313,,,,,,,,
https://scontent.cdninstagram.com/t51.2885-15/e15/13256941_1143030525742999_360150989_n.jpg,underwater,0.9993494749069214,Animals,,,,Animals-s,,,
,aquarium,0.9986380338668823,,,,,,,,
,fish,0.9960529804229736,,,,,,,,
,swimming,0.9931381940841675,,,,,,,,
,tank,0.9855093955993652,,,,,,,,
,water,0.9744124412536621,,,,,,,,
,goldfish,0.9599475860595703,,,,,,,,
,deep,0.9386874437332153,,,,,,,,
,coral,0.9356648921966553,,,,,,,,
,diving,0.9298906326293945,,,,,,,,
,reef,0.9174416065216064,,,,,,,,
,aquatic,0.9100292325019836,,,,,,,,
,exploration,0.8961998224258423,,,,,,,,
,ocean,0.8745064735412598,,,,,,,,
,submarine,0.8724888563156128,,,,,,,,
,"no person",0.8706265687942505,,,,,,,,
,marine,0.8680868148803711,,,,,,,,
,light,0.8474104404449463,,,,,,,,
,jellyfish,0.8369323015213013,,,,,,,,
,scuba,0.8083891868591309,,,,,,,,
https://scontent.cdninstagram.com/t51.2885-15/e35/13249811_1627737840879160_881752620_n.jpg,cat,0.9913886785507202,Animals,,,,Animals-s,,,
,mammal,0.9898289442062378,,,,,,,,
,people,0.9523842334747314,,,,,,,,
,"no person",0.9415394067764282,,,,,,,,
,animal,0.9363645911216736,,,,,,,,
,pet,0.9061644077301025,,,,,,,,
,one,0.9042094945907593,,,,,,,,
,dog,0.8864231109619141,,,,,,,,
,kitten,0.8752086162567139,,,,,,,,
,baby,0.8707340955734253,,,,,,,,
,mouse,0.8701028823852539,,,,,,,,
,rodent,0.8384226560592651,,,,,,,,
,wildlife,0.7889153957366943,,,,,,,,
,portrait,0.7765446901321411,,,,,,,,
,building,0.7516229748725891,,,,,,,,
,cute,0.7416723370552063,,,,,,,,
,little,0.7202256321907043,,,,,,,,
,curiosity,0.7099143266677856,,,,,,,,
,family,0.6976950168609619,,,,,,,,
,"side view",0.6707305908203125,,,,,,,,
https://scontent.cdninstagram.com/t51.2885-15/e35/13414425_108794286214041_17755782_n.jpg,business,0.9520478844642639,Business,Entertainment,,,Business-s,Entertainment-s,,
,paper,0.9421098232269287,,,,,,,,
,finance,0.9237237572669983,,,,,,,,
,document,0.91472989320755,,,,,,,,
,money,0.9114601612091064,,,,,,,,
,text,0.9012289047241211,,,,,,,,
,education,0.8857287168502808,,,,,,,,
,people,0.8753207921981812,,,,,,,,
,bill,0.8577873110771179,,,,,,,,
,commerce,0.853256344795227,,,,,,,,
,sign,0.8487614989280701,,,,,,,,
,number,0.8265126347541809,,,,,,,,
,note,0.8191279768943787,,,,,,,,
,"no person",0.8057333827018738,,,,,,,,
,offense,0.7710473537445068,,,,,,,,
,illustration,0.7634569406509399,,,,,,,,
,administration,0.7605553865432739,,,,,,,,
,school,0.7599198818206787,,,,,,,,
,building,0.7538265585899353,,,,,,,,
,festival,0.7478662729263306,,,,,,,,
https://scontent.cdninstagram.com/t51.2885-15/e35/13116705_876338505844618_1020881749_n.jpg,dog,0.9965968132019043,Animals,,,,Animals-s,,,
,mammal,0.9965857267379761,,,,,,,,
,cat,0.9959153532981873,,,,,,,,
,pet,0.991438627243042,,,,,,,,
,canine,0.9895086288452148,,,,,,,,
,one,0.986444354057312,,,,,,,,
,cute,0.984322190284729,,,,,,,,
,portrait,0.9829814434051514,,,,,,,,
,puppy,0.9781315326690674,,,,,,,,
,baby,0.9740437269210815,,,,,,,,
,little,0.9731116890907288,,,,,,,,
,kitten,0.970626950263977,,,,,,,,
,room,0.967210054397583,,,,,,,,
,toy,0.9659626483917236,,,,,,,,
,child,0.9434773921966553,,,,,,,,
,cub,0.9423229098320007,,,,,,,,
,"no person",0.9384567737579346,,,,,,,,
,animal,0.9321604371070862,,,,,,,,
,adorable,0.9209088087081909,,,,,,,,
,furniture,0.9161489009857178,,,,,,,,
https://scontent.cdninstagram.com/t51.2885-15/e35/13414425_108794286214041_17755782_n.jpg,business,0.9520478844642639,Business,Entertainment,,,Business-s,Entertainment-s,,
,paper,0.9421098232269287,,,,,,,,
,finance,0.9237237572669983,,,,,,,,
,document,0.91472989320755,,,,,,,,
,money,0.9114601612091064,,,,,,,,
,text,0.9012289047241211,,,,,,,,
,education,0.8857287168502808,,,,,,,,
,people,0.8753207921981812,,,,,,,,
,bill,0.8577873110771179,,,,,,,,
,commerce,0.853256344795227,,,,,,,,
,sign,0.8487614989280701,,,,,,,,
,number,0.8265126347541809,,,,,,,,
,note,0.8191279768943787,,,,,,,,
,"no person",0.8057333827018738,,,,,,,,
,offense,0.7710473537445068,,,,,,,,
,illustration,0.7634569406509399,,,,,,,,
,administration,0.7605553865432739,,,,,,,,
,school,0.7599198818206787,,,,,,,,
,building,0.7538265585899353,,,,,,,,
,festival,0.7478662729263306,,,,,,,,
https://scontent.cdninstagram.com/t51.2885-15/e35/13269520_1736808903268306_750296363_n.jpg,group,0.9902631044387817,Relationships,Celebrations,,,Friends,Celebrations-s,,
,woman,0.9808158874511719,,,,,,,,
,group,0.9804697036743164,,,,,,,,
,people,0.9641925096511841,,,,,,,,
,man,0.9633846282958984,,,,,,,,
,adult,0.9613414406776428,,,,,,,,
,indoors,0.9446172714233398,,,,,,,,
,"facial expression",0.9419261813163757,,,,,,,,
,togetherness,0.9417686462402344,,,,,,,,
,teamwork,0.9282737970352173,,,,,,,,
,four,0.9116726517677307,,,,,,,,
,enjoyment,0.9009311199188232,,,,,,,,
,room,0.8766171932220459,,,,,,,,
,friendship,0.869408905506134,,,,,,,,
,happiness,0.8649201393127441,,,,,,,,
,interaction,0.8508543968200684,,,,,,,,
,portrait,0.847182035446167,,,,,,,,
,education,0.8450188040733337,,,,,,,,
,business,0.8317890167236328,,,,,,,,
,squad,0.829659104347229,,,,,,,,
https://scontent.cdninstagram.com/t51.2885-15/e35/13181275_523082631210235_744384124_n.jpg,illustration,0.9738117456436157,Arts,,,,Motivational,,,
,abstract,0.9680525660514832,,,,,,,,
,business,0.964927077293396,,,,,,,,
,text,0.9500510692596436,,,,,,,,
,horizontal,0.9325789213180542,,,,,,,,
,desktop,0.9231221675872803,,,,,,,,
,technology,0.916851282119751,,,,,,,,
,internet,0.9033432006835938,,,,,,,,
,image,0.9012622833251953,,,,,,,,
,design,0.8904392123222351,,,,,,,,
,graphic,0.8895230889320374,,,,,,,,
,communication,0.8741229176521301,,,,,,,,
,cloud,0.8575673699378967,,,,,,,,
,symbol,0.8559437990188599,,,,,,,,
,data,0.8532297015190125,,,,,,,,
,computer,0.8478835225105286,,,,,,,,
,data,0.8444688320159912,,,,,,,,
,pattern,0.8424971103668213,,,,,,,,
,bill,0.8410418033599854,,,,,,,,
,connection,0.8386557102203369,,,,,,,,
https://scontent.cdninstagram.com/t51.2885-15/e35/13108785_1734283006818196_668624492_n.jpg,turtle,0.9972907304763794,Animals,,,,Animals-s,,,
,shell,0.994399905204773,,,,,,,,
,one,0.9843107461929321,,,,,,,,
,reptile,0.9818072319030762,,,,,,,,
,wildlife,0.963226318359375,,,,,,,,
,shield,0.9595839977264404,,,,,,,,
,environment,0.9595500230789185,,,,,,,,
,armor,0.9589630961418152,,,,,,,,
,animal,0.951617956161499,,,,,,,,
,invertebrate,0.9465274810791016,,,,,,,,
,portrait,0.9451589584350586,,,,,,,,
,people,0.9371830821037292,,,,,,,,
,reflection,0.9258189797401428,,,,,,,,
,adult,0.921608030796051,,,,,,,,
,daylight,0.9182059168815613,,,,,,,,
,endurance,0.8955162167549133,,,,,,,,
,tortoise,0.8911435604095459,,,,,,,,
,light,0.8798342943191528,,,,,,,,
,amphibian,0.8593475818634033,,,,,,,,
,competition,0.8589426279067993,,,,,,,,
https://scontent.cdninstagram.com/t51.2885-15/e35/13181275_523082631210235_744384124_n.jpg,illustration,0.9738117456436157,Arts,,,,Motivational,,,
,abstract,0.9680525660514832,,,,,,,,
,business,0.964927077293396,,,,,,,,
,text,0.9500510692596436,,,,,,,,
,horizontal,0.9325789213180542,,,,,,,,
,desktop,0.9231221675872803,,,,,,,,
,technology,0.916851282119751,,,,,,,,
,internet,0.9033432006835938,,,,,,,,
,image,0.9012622833251953,,,,,,,,
,design,0.8904392123222351,,,,,,,,
,graphic,0.8895230889320374,,,,,,,,
,communication,0.8741229176521301,,,,,,,,
,cloud,0.8575673699378967,,,,,,,,
,symbol,0.8559437990188599,,,,,,,,
,data,0.8532297015190125,,,,,,,,
,computer,0.8478835225105286,,,,,,,,
,data,0.8444688320159912,,,,,,,,
,pattern,0.8424971103668213,,,,,,,,
,bill,0.8410418033599854,,,,,,,,
,connection,0.8386557102203369,,,,,,,,
https://scontent.cdninstagram.com/t51.2885-15/e35/13277593_266061740415009_1205750193_n.jpg,people,0.9966530799865723,Culture,"My life",Celebrations,,Culture-s,"Here I am",Celebrations-s,
,festival,0.9950197339057922,,,,,,,,
,street,0.9910788536071777,,,,,,,,
,group,0.9772588610649109,,,,,,,,
,parade,0.9757615327835083,,,,,,,,
,many,0.9698845148086548,,,,,,,,
,celebration,0.9672396779060364,,,,,,,,
,carnival,0.9672014713287354,,,,,,,,
,city,0.947862982749939,,,,,,,,
,ceremony,0.9416790008544922,,,,,,,,
,religion,0.9346876740455627,,,,,,,,
,crowd,0.922814667224884,,,,,,,,
,road,0.9155018329620361,,,,,,,,
,dancer,0.883131206035614,,,,,,,,
,wear,0.8811278343200684,,,,,,,,
,costume,0.8709119558334351,,,,,,,,
,mask,0.8484869003295898,,,,,,,,
,man,0.8291027545928955,,,,,,,,
,tourist,0.823553204536438,,,,,,,,
,music,0.814228892326355,,,,,,,,
https://scontent.cdninstagram.com/t51.2885-15/e35/13277593_266061740415009_1205750193_n.jpg,people,0.9966530799865723,Culture,"My life",Celebrations,,Culture-s,"Here I am",Celebrations-s,
,festival,0.9950197339057922,,,,,,,,
,street,0.9910788536071777,,,,,,,,
,group,0.9772588610649109,,,,,,,,
,parade,0.9757615327835083,,,,,,,,
,many,0.9698845148086548,,,,,,,,
,celebration,0.9672396779060364,,,,,,,,
,carnival,0.9672014713287354,,,,,,,,
,city,0.947862982749939,,,,,,,,
,ceremony,0.9416790008544922,,,,,,,,
,religion,0.9346876740455627,,,,,,,,
,crowd,0.922814667224884,,,,,,,,
,road,0.9155018329620361,,,,,,,,
,dancer,0.883131206035614,,,,,,,,
,wear,0.8811278343200684,,,,,,,,
,costume,0.8709119558334351,,,,,,,,
,mask,0.8484869003295898,,,,,,,,
,man,0.8291027545928955,,,,,,,,
,tourist,0.823553204536438,,,,,,,,
,music,0.814228892326355,,,,,,,,
https://scontent.cdninstagram.com/t51.2885-15/e15/13298087_106547803100472_637590763_n.jpg,man,0.9928572177886963,,,,,,,,
,people,0.9826292991638184,,,,,,,,
,adult,0.9462602138519287,,,,,,,,
,art,0.9073154926300049,,,,,,,,
,leader,0.884422779083252,,,,,,,,
,religion,0.8837074041366577,,,,,,,,
,portrait,0.8781403303146362,,,,,,,,
,group,0.8448506593704224,,,,,,,,
,illustration,0.8203424215316772,,,,,,,,
,painting,0.8126723170280457,,,,,,,,
,person,0.7961939573287964,,,,,,,,
,symbol,0.7828760743141174,,,,,,,,
,ancient,0.7805458307266235,,,,,,,,
,war,0.7770112752914429,,,,,,,,
,human,0.7658248543739319,,,,,,,,
,army,0.7562652826309204,,,,,,,,
,soldier,0.7555517554283142,,,,,,,,
,old,0.754706621170044,,,,,,,,
,"facial hair",0.7474679350852966,,,,,,,,
,wear,0.7364749312400818,,,,,,,,
https://scontent.cdninstagram.com/t51.2885-15/s640x640/sh0.08/e35/13395050_1574904232803121_1011983063_n.jpg,sofa,0.9989669919013977,,,,,,,,
,indoors,0.9971342086791992,,,,,,,,
,chair,0.9952259659767151,,,,,,,,
,seat,0.9951914548873901,,,,,,,,
,armchair,0.9951179027557373,,,,,,,,
,furniture,0.9918662309646606,,,,,,,,
,contemporary,0.9884084463119507,,,,,,,,
,room,0.9831151962280273,,,,,,,,
,leather,0.9823594689369202,,,,,,,,
,"interior design",0.9719948172569275,,,,,,,,
,comfort,0.9698302745819092,,,,,,,,
,"no person",0.9657396078109741,,,,,,,,
,modern,0.9489855766296387,,,,,,,,
,family,0.9488399624824524,,,,,,,,
,luxury,0.9475259184837341,,,,,,,,
,cozy,0.945342481136322,,,,,,,,
,table,0.9269006848335266,,,,,,,,
,cushion,0.9176510572433472,,,,,,,,
,empty,0.9157558679580688,,,,,,,,
,relaxation,0.9076226949691772,,,,,,,,
https://scontent.cdninstagram.com/t51.2885-15/s640x640/sh0.08/e35/13320250_237239519986987_623518138_n.jpg,people,0.9715410470962524,Business,Relationships,Celebrations,,Conf/Events,Friends,"Personal Events",
,group,0.9526019096374512,,,,,,,,
,festival,0.951201319694519,,,,,,,,
,woman,0.9367334842681885,,,,,,,,
,performance,0.9341779947280884,,,,,,,,
,music,0.9259562492370605,,,,,,,,
,many,0.9081765413284302,,,,,,,,
,education,0.8978838920593262,,,,,,,,
,school,0.8910613059997559,,,,,,,,
,man,0.8895362615585327,,,,,,,,
,election,0.8788822889328003,,,,,,,,
,adult,0.8523523211479187,,,,,,,,
,politician,0.8492128849029541,,,,,,,,
,child,0.8423969745635986,,,,,,,,
,singer,0.8409478664398193,,,,,,,,
,concert,0.8303722739219666,,,,,,,,
,editorial,0.825732946395874,,,,,,,,
,candidate,0.8203936815261841,,,,,,,,
,university,0.8080517053604126,,,,,,,,
,ceremony,0.803259015083313,,,,,,,,
https://scontent.cdninstagram.com/t51.2885-15/e35/13248910_263585934031334_752392280_n.jpg,touch,0.9978454113006592,Technology,,,,Technology-s,,,
,telephone,0.9975768327713013,,,,,,,,
,screen,0.9962972402572632,,,,,,,,
,technology,0.9863839149475098,,,,,,,,
,display,0.9857427477836609,,,,,,,,
,connection,0.984584629535675,,,,,,,,
,pill,0.9777716398239136,,,,,,,,
,wireless,0.9728406667709351,,,,,,,,
,smart,0.9724447727203369,,,,,,,,
,business,0.9691036939620972,,,,,,,,
,internet,0.9609155654907227,,,,,,,,
,computer,0.9608486890792847,,,,,,,,
,portable,0.9489833116531372,,,,,,,,
,electronics,0.9460003972053528,,,,,,,,
,commerce,0.9429011344909668,,,,,,,,
,device,0.936882734298706,,,,,,,,
,machinery,0.9125023484230042,,,,,,,,
,application,0.9021756649017334,,,,,,,,
,spherical,0.9006863832473755,,,,,,,,
,cellular,0.8974003791809082,,,,,,,,
https://scontent.cdninstagram.com/t51.2885-15/e35/13248910_263585934031334_752392280_n.jpg,touch,0.9978454113006592,Technology,,,,Technology-s,,,
,telephone,0.9975768327713013,,,,,,,,
,screen,0.9962972402572632,,,,,,,,
,technology,0.9863839149475098,,,,,,,,
,display,0.9857427477836609,,,,,,,,
,connection,0.984584629535675,,,,,,,,
,pill,0.9777716398239136,,,,,,,,
,wireless,0.9728406667709351,,,,,,,,
,smart,0.9724447727203369,,,,,,,,
,business,0.9691036939620972,,,,,,,,
,internet,0.9609155654907227,,,,,,,,
,computer,0.9608486890792847,,,,,,,,
,portable,0.9489833116531372,,,,,,,,
,electronics,0.9460003972053528,,,,,,,,
,commerce,0.9429011344909668,,,,,,,,
,device,0.936882734298706,,,,,,,,
,machinery,0.9125023484230042,,,,,,,,
,application,0.9021756649017334,,,,,,,,
,spherical,0.9006863832473755,,,,,,,,
,cellular,0.8974003791809082,,,,,,,,
https://scontent.cdninstagram.com/t51.2885-15/e35/13260862_1008666875882914_1968360673_n.jpg,dog,0.9973911046981812,Animals,,,,Animals-s,,,
,canine,0.9951393604278564,,,,,,,,
,cute,0.9920333027839661,,,,,,,,
,little,0.990350604057312,,,,,,,,
,puppy,0.9875390529632568,,,,,,,,
,pet,0.9836801290512085,,,,,,,,
,mammal,0.9785975217819214,,,,,,,,
,one,0.973892331123352,,,,,,,,
,spitz,0.9626401662826538,,,,,,,,
,portrait,0.962226390838623,,,,,,,,
,people,0.9569166898727417,,,,,,,,
,fur,0.9527909755706787,,,,,,,,
,"no person",0.9521343111991882,,,,,,,,
,downy,0.9498369693756104,,,,,,,,
,sit,0.9465048909187317,,,,,,,,
,child,0.9172948598861694,,,,,,,,
,friendship,0.9092206358909607,,,,,,,,
,indoors,0.8999388217926025,,,,,,,,
,puppy,0.8917275667190552,,,,,,,,
,funny,0.8837338089942932,,,,,,,,
https://scontent.cdninstagram.com/t51.2885-15/e35/13249811_1627737840879160_881752620_n.jpg,cat,0.9913886785507202,Animals,,,,Animals-s,,,
,mammal,0.9898289442062378,,,,,,,,
,people,0.9523842334747314,,,,,,,,
,"no person",0.9415394067764282,,,,,,,,
,animal,0.9363645911216736,,,,,,,,
,pet,0.9061644077301025,,,,,,,,
,one,0.9042094945907593,,,,,,,,
,dog,0.8864231109619141,,,,,,,,
,kitten,0.8752086162567139,,,,,,,,
,baby,0.8707340955734253,,,,,,,,
,mouse,0.8701028823852539,,,,,,,,
,rodent,0.8384226560592651,,,,,,,,
,wildlife,0.7889153957366943,,,,,,,,
,portrait,0.7765446901321411,,,,,,,,
,building,0.7516229748725891,,,,,,,,
,cute,0.7416723370552063,,,,,,,,
,little,0.7202256321907043,,,,,,,,
,curiosity,0.7099143266677856,,,,,,,,
,family,0.6976950168609619,,,,,,,,
,"side view",0.6707305908203125,,,,,,,,
https://scontent.cdninstagram.com/t51.2885-15/e35/13260862_1008666875882914_1968360673_n.jpg,dog,0.9973911046981812,Animals,,,,Animals-s,,,
,canine,0.9951393604278564,,,,,,,,
,cute,0.9920333027839661,,,,,,,,
,little,0.990350604057312,,,,,,,,
,puppy,0.9875390529632568,,,,,,,,
,pet,0.9836801290512085,,,,,,,,
,mammal,0.9785975217819214,,,,,,,,
,one,0.973892331123352,,,,,,,,
,spitz,0.9626401662826538,,,,,,,,
,portrait,0.962226390838623,,,,,,,,
,people,0.9569166898727417,,,,,,,,
,fur,0.9527909755706787,,,,,,,,
,"no person",0.9521343111991882,,,,,,,,
,downy,0.9498369693756104,,,,,,,,
,sit,0.9465048909187317,,,,,,,,
,child,0.9172948598861694,,,,,,,,
,friendship,0.9092206358909607,,,,,,,,
,indoors,0.8999388217926025,,,,,,,,
,puppy,0.8917275667190552,,,,,,,,
,funny,0.8837338089942932,,,,,,,,
https://scontent.cdninstagram.com/t51.2885-15/e35/12976648_783441805089666_464668493_n.jpg,text,0.9261274933815002,Entertainment,,,,Entertainment-s,,,
,business,0.9147600531578064,,,,,,,,
,people,0.891175389289856,,,,,,,,
,illustration,0.8836145401000977,,,,,,,,
,"no person",0.8815574645996094,,,,,,,,
,technology,0.880494236946106,,,,,,,,
,education,0.8679065704345703,,,,,,,,
,sign,0.8677102327346802,,,,,,,,
,number,0.8640519380569458,,,,,,,,
,desktop,0.8585922122001648,,,,,,,,
,symbol,0.8462375402450562,,,,,,,,
,travel,0.8384696245193481,,,,,,,,
,competition,0.8275095224380493,,,,,,,,
,adult,0.8271561861038208,,,,,,,,
,promotion,0.8154932856559753,,,,,,,,
,computer,0.8100249767303467,,,,,,,,
,festival,0.8008521795272827,,,,,,,,
,display,0.7971044778823853,,,,,,,,
,landscape,0.7965282201766968,,,,,,,,
,football,0.7688380479812622,,,,,,,,
https://scontent.cdninstagram.com/t51.2885-15/e35/13126777_100487653699761_2096941477_n.jpg,screen,0.9997037649154663,Entertainment,,,,Sports,,,
,computer,0.9988650679588318,,,,,,,,
,technology,0.9985907077789307,,,,,,,,
,monitor,0.9939970970153809,,,,,,,,
,internet,0.9939109683036804,,,,,,,,
,laptop,0.9875717759132385,,,,,,,,
,display,0.9866518378257751,,,,,,,,
,stadium,0.984038233757019,,,,,,,,
,telephone,0.976983904838562,,,,,,,,
,wireless,0.9737223982810974,,,,,,,,
,connection,0.9667338132858276,,,,,,,,
,touch,0.9622764587402344,,,,,,,,
,portable,0.9522629380226135,,,,,,,,
,data,0.9481687545776367,,,,,,,,
,"no person",0.9423666000366211,,,,,,,,
,business,0.9419623017311096,,,,,,,,
,people,0.9390569925308228,,,,,,,,
,network,0.9368723034858704,,,,,,,,
,electronics,0.9302608966827393,,,,,,,,
,football,0.9291454553604126,,,,,,,,
https://scontent.cdninstagram.com/t51.2885-15/e35/13113804_103800690034113_2052932970_n.jpg,"no person",0.983683168888092,Animals,,,,Animals-s,,,
,furniture,0.9696513414382935,,,,,,,,
,indoors,0.9571179151535034,,,,,,,,
,room,0.943264365196228,,,,,,,,
,wood,0.9320862889289856,,,,,,,,
,seat,0.9266283512115479,,,,,,,,
,house,0.8963580131530762,,,,,,,,
,family,0.8929469585418701,,,,,,,,
,mammal,0.891096830368042,,,,,,,,
,travel,0.8793495297431946,,,,,,,,
,window,0.8641887903213501,,,,,,,,
,daylight,0.8596373796463013,,,,,,,,
,home,0.8466553092002869,,,,,,,,
,chair,0.8458480834960938,,,,,,,,
,one,0.8312201499938965,,,,,,,,
,"interior design",0.8261976838111877,,,,,,,,
,outdoors,0.8240866661071777,,,,,,,,
,architecture,0.8099620342254639,,,,,,,,
,cat,0.7616490125656128,,,,,,,,
,people,0.7441726326942444,,,,,,,,
https://scontent.cdninstagram.com/t51.2885-15/e15/13298087_106547803100472_637590763_n.jpg,man,0.9928572177886963,,,,,,,,
,people,0.9826292991638184,,,,,,,,
,adult,0.9462602138519287,,,,,,,,
,art,0.9073154926300049,,,,,,,,
,leader,0.884422779083252,,,,,,,,
,religion,0.8837074041366577,,,,,,,,
,portrait,0.8781403303146362,,,,,,,,
,group,0.8448506593704224,,,,,,,,
,illustration,0.8203424215316772,,,,,,,,
,painting,0.8126723170280457,,,,,,,,
,person,0.7961939573287964,,,,,,,,
,symbol,0.7828760743141174,,,,,,,,
,ancient,0.7805458307266235,,,,,,,,
,war,0.7770112752914429,,,,,,,,
,human,0.7658248543739319,,,,,,,,
,army,0.7562652826309204,,,,,,,,
,soldier,0.7555517554283142,,,,,,,,
,old,0.754706621170044,,,,,,,,
,"facial hair",0.7474679350852966,,,,,,,,
,wear,0.7364749312400818,,,,,,,,
https://scontent.cdninstagram.com/t51.2885-15/e35/13129168_888814907930492_1169334472_n.jpg,people,0.997876763343811,Entertainment,,,,Sports,,,
,computer,0.9978346228599548,,,,,,,,
,adult,0.9976668357849121,,,,,,,,
,one,0.996389627456665,,,,,,,,
,technology,0.9949469566345215,,,,,,,,
,"facial expression",0.987516462802887,,,,,,,,
,wear,0.9839946627616882,,,,,,,,
,access,0.9771728515625,,,,,,,,
,education,0.9719161987304688,,,,,,,,
,man,0.971657395362854,,,,,,,,
,portrait,0.9713274240493774,,,,,,,,
,room,0.9712092876434326,,,,,,,,
,concentration,0.9666850566864014,,,,,,,,
,"side view",0.9626368880271912,,,,,,,,
,telephone,0.9623159170150757,,,,,,,,
,laptop,0.9602344036102295,,,,,,,,
,school,0.9480489492416382,,,,,,,,
,indoors,0.9458363056182861,,,,,,,,
,connection,0.9434100985527039,,,,,,,,
,furniture,0.9406982660293579,,,,,,,,
https://scontent.cdninstagram.com/t51.2885-15/e35/13126777_100487653699761_2096941477_n.jpg,screen,0.9997037649154663,Entertainment,,,,Sports,,,
,computer,0.9988650679588318,,,,,,,,
,technology,0.9985907077789307,,,,,,,,
,monitor,0.9939970970153809,,,,,,,,
,internet,0.9939109683036804,,,,,,,,
,laptop,0.9875717759132385,,,,,,,,
,display,0.9866518378257751,,,,,,,,
,stadium,0.984038233757019,,,,,,,,
,telephone,0.976983904838562,,,,,,,,
,wireless,0.9737223982810974,,,,,,,,
,connection,0.9667338132858276,,,,,,,,
,touch,0.9622764587402344,,,,,,,,
,portable,0.9522629380226135,,,,,,,,
,data,0.9481687545776367,,,,,,,,
,"no person",0.9423666000366211,,,,,,,,
,business,0.9419623017311096,,,,,,,,
,people,0.9390569925308228,,,,,,,,
,network,0.9368723034858704,,,,,,,,
,electronics,0.9302608966827393,,,,,,,,
,football,0.9291454553604126,,,,,,,,
https://scontent.cdninstagram.com/t51.2885-15/e15/13150808_239158766441327_768085465_n.jpg,horizontal,0.9467641115188599,Arts,,,,Motivational,,,
,cloud,0.9441852569580078,,,,,,,,
,outdoors,0.94374680519104,,,,,,,,
,horizontal,0.9393118619918823,,,,,,,,
,sea,0.876716136932373,,,,,,,,
,landscape,0.8536795973777771,,,,,,,,
,vertical,0.8505758047103882,,,,,,,,
,illuminated,0.8291094303131104,,,,,,,,
,dark,0.820292592048645,,,,,,,,
,dusk,0.807033896446228,,,,,,,,
,reflection,0.8013635277748108,,,,,,,,
,text,0.8002409934997559,,,,,,,,
,business,0.7903303503990173,,,,,,,,
,nature,0.7866267561912537,,,,,,,,
,light,0.7845073938369751,,,,,,,,
,communication,0.7835913896560669,,,,,,,,
,sky,0.7294753789901733,,,,,,,,
,motion,0.7236315011978149,,,,,,,,
,weather,0.6802849173545837,,,,,,,,
,abstract,0.6788554191589355,,,,,,,,
https://scontent.cdninstagram.com/t51.2885-15/e35/12940943_564882583669573_1134970558_n.jpg,technology,0.9226027727127075,Entertainment,,,,Entertainment-s,,,
,vehicle,0.9212996959686279,,,,,,,,
,business,0.8915076851844788,,,,,,,,
,"transportation system",0.8799635171890259,,,,,,,,
,number,0.8755692839622498,,,,,,,,
,travel,0.8743588924407959,,,,,,,,
,text,0.8599339127540588,,,,,,,,
,"no person",0.8378088474273682,,,,,,,,
,desktop,0.8246272802352905,,,,,,,,
,airplane,0.8208566904067993,,,,,,,,
,symbol,0.8196665644645691,,,,,,,,
,people,0.8092085123062134,,,,,,,,
,industry,0.8059512376785278,,,,,,,,
,communication,0.8002526760101318,,,,,,,,
,computer,0.8000996112823486,,,,,,,,
,outdoors,0.7936914563179016,,,,,,,,
,time,0.7936224937438965,,,,,,,,
,sign,0.780071496963501,,,,,,,,
,illustration,0.7798645496368408,,,,,,,,
,light,0.7767477035522461,,,,,,,,
https://scontent.cdninstagram.com/t51.2885-15/e35/12940943_564882583669573_1134970558_n.jpg,technology,0.9226027727127075,Entertainment,,,,Entertainment-s,,,
,vehicle,0.9212996959686279,,,,,,,,
,business,0.8915076851844788,,,,,,,,
,"transportation system",0.8799635171890259,,,,,,,,
,number,0.8755692839622498,,,,,,,,
,travel,0.8743588924407959,,,,,,,,
,text,0.8599339127540588,,,,,,,,
,"no person",0.8378088474273682,,,,,,,,
,desktop,0.8246272802352905,,,,,,,,
,airplane,0.8208566904067993,,,,,,,,
,symbol,0.8196665644645691,,,,,,,,
,people,0.8092085123062134,,,,,,,,
,industry,0.8059512376785278,,,,,,,,
,communication,0.8002526760101318,,,,,,,,
,computer,0.8000996112823486,,,,,,,,
,outdoors,0.7936914563179016,,,,,,,,
,time,0.7936224937438965,,,,,,,,
,sign,0.780071496963501,,,,,,,,
,illustration,0.7798645496368408,,,,,,,,
,light,0.7767477035522461,,,,,,,,
https://scontent.cdninstagram.com/t51.2885-15/e35/12976648_783441805089666_464668493_n.jpg,text,0.9261274933815002,Entertainment,,,,Entertainment-s,,,
,business,0.9147600531578064,,,,,,,,
,people,0.891175389289856,,,,,,,,
,illustration,0.8836145401000977,,,,,,,,
,"no person",0.8815574645996094,,,,,,,,
,technology,0.880494236946106,,,,,,,,
,education,0.8679065704345703,,,,,,,,
,sign,0.8677102327346802,,,,,,,,
,number,0.8640519380569458,,,,,,,,
,desktop,0.8585922122001648,,,,,,,,
,symbol,0.8462375402450562,,,,,,,,
,travel,0.8384696245193481,,,,,,,,
,competition,0.8275095224380493,,,,,,,,
,adult,0.8271561861038208,,,,,,,,
,promotion,0.8154932856559753,,,,,,,,
,computer,0.8100249767303467,,,,,,,,
,festival,0.8008521795272827,,,,,,,,
,display,0.7971044778823853,,,,,,,,
,landscape,0.7965282201766968,,,,,,,,
,football,0.7688380479812622,,,,,,,,
https://scontent.cdninstagram.com/t51.2885-15/e35/13113804_103800690034113_2052932970_n.jpg,"no person",0.983683168888092,Animals,,,,Animals-s,,,
,furniture,0.9696513414382935,,,,,,,,
,indoors,0.9571179151535034,,,,,,,,
,room,0.943264365196228,,,,,,,,
,wood,0.9320862889289856,,,,,,,,
,seat,0.9266283512115479,,,,,,,,
,house,0.8963580131530762,,,,,,,,
,family,0.8929469585418701,,,,,,,,
,mammal,0.891096830368042,,,,,,,,
,travel,0.8793495297431946,,,,,,,,
,window,0.8641887903213501,,,,,,,,
,daylight,0.8596373796463013,,,,,,,,
,home,0.8466553092002869,,,,,,,,
,chair,0.8458480834960938,,,,,,,,
,one,0.8312201499938965,,,,,,,,
,"interior design",0.8261976838111877,,,,,,,,
,outdoors,0.8240866661071777,,,,,,,,
,architecture,0.8099620342254639,,,,,,,,
,cat,0.7616490125656128,,,,,,,,
,people,0.7441726326942444,,,,,,,,
https://scontent.cdninstagram.com/t51.2885-15/e35/12935004_1524190164556315_1730112544_n.jpg,screen,0.990927517414093,Entertainment,,,,Entertainment-s,,,
,technology,0.9757585525512695,,,,,,,,
,movie,0.9596131443977356,,,,,,,,
,internet,0.9553840160369873,,,,,,,,
,computer,0.9426941871643066,,,,,,,,
,television,0.9294131994247437,,,,,,,,
,desktop,0.9151538610458374,,,,,,,,
,dark,0.912132978439331,,,,,,,,
,display,0.910927414894104,,,,,,,,
,music,0.9090405702590942,,,,,,,,
,modern,0.9073005318641663,,,,,,,,
,contemporary,0.9010038375854492,,,,,,,,
,performance,0.8596833944320679,,,,,,,,
,people,0.8557102680206299,,,,,,,,
,electronics,0.8527309894561768,,,,,,,,
,"no person",0.8515685796737671,,,,,,,,
,wireless,0.8507588505744934,,,,,,,,
,monitor,0.8314903974533081,,,,,,,,
,video,0.8289327621459961,,,,,,,,
,business,0.8223398923873901,,,,,,,,
https://scontent.cdninstagram.com/t51.2885-15/e35/13129168_888814907930492_1169334472_n.jpg,people,0.997876763343811,Entertainment,,,,Sports,,,
,computer,0.9978346228599548,,,,,,,,
,adult,0.9976668357849121,,,,,,,,
,one,0.996389627456665,,,,,,,,
,technology,0.9949469566345215,,,,,,,,
,"facial expression",0.987516462802887,,,,,,,,
,wear,0.9839946627616882,,,,,,,,
,access,0.9771728515625,,,,,,,,
,education,0.9719161987304688,,,,,,,,
,man,0.971657395362854,,,,,,,,
,portrait,0.9713274240493774,,,,,,,,
,room,0.9712092876434326,,,,,,,,
,concentration,0.9666850566864014,,,,,,,,
,"side view",0.9626368880271912,,,,,,,,
,telephone,0.9623159170150757,,,,,,,,
,laptop,0.9602344036102295,,,,,,,,
,school,0.9480489492416382,,,,,,,,
,indoors,0.9458363056182861,,,,,,,,
,connection,0.9434100985527039,,,,,,,,
,furniture,0.9406982660293579,,,,,,,,
https://scontent.cdninstagram.com/t51.2885-15/e35/13108785_1734283006818196_668624492_n.jpg,turtle,0.9972907304763794,Animals,,,,Animals-s,,,
,shell,0.994399905204773,,,,,,,,
,one,0.9843107461929321,,,,,,,,
,reptile,0.9818072319030762,,,,,,,,
,wildlife,0.963226318359375,,,,,,,,
,shield,0.9595839977264404,,,,,,,,
,environment,0.9595500230789185,,,,,,,,
,armor,0.9589630961418152,,,,,,,,
,animal,0.951617956161499,,,,,,,,
,invertebrate,0.9465274810791016,,,,,,,,
,portrait,0.9451589584350586,,,,,,,,
,people,0.9371830821037292,,,,,,,,
,reflection,0.9258189797401428,,,,,,,,
,adult,0.921608030796051,,,,,,,,
,daylight,0.9182059168815613,,,,,,,,
,endurance,0.8955162167549133,,,,,,,,
,tortoise,0.8911435604095459,,,,,,,,
,light,0.8798342943191528,,,,,,,,
,amphibian,0.8593475818634033,,,,,,,,
,competition,0.8589426279067993,,,,,,,,
https://scontent.cdninstagram.com/t51.2885-15/e15/12976338_1538625386432570_1291272977_n.jpg,food,0.997407078742981,Food,,,,"Meal time",,,
,sweet,0.9920432567596436,,,,,,,,
,grow,0.9906326532363892,,,,,,,,
,pastry,0.9816920757293701,,,,,,,,
,cake,0.9796077013015747,,,,,,,,
,fruit,0.9793910980224609,,,,,,,,
,"no person",0.9778695702552795,,,,,,,,
,"still life",0.9777976274490356,,,,,,,,
,plate,0.9652254581451416,,,,,,,,
,"dairy product",0.9598110914230347,,,,,,,,
,pie,0.9585495591163635,,,,,,,,
,delicious,0.9516643285751343,,,,,,,,
,dish,0.9496238827705383,,,,,,,,
,chocolate,0.9407293796539307,,,,,,,,
,meal,0.9371159076690674,,,,,,,,
,fork,0.926026463508606,,,,,,,,
,bread,0.9233292937278748,,,,,,,,
,cutlery,0.9217609167098999,,,,,,,,
,homemade,0.9195343255996704,,,,,,,,
,refreshment,0.911338746547699,,,,,,,,
https://scontent.cdninstagram.com/t51.2885-15/e15/12965651_1298136166883145_1127152923_n.jpg,sign,0.9813841581344604,"My life",,,,"My world today",,,
,paper,0.9784570336341858,,,,,,,,
,business,0.9709125757217407,,,,,,,,
,"no person",0.9438431262969971,,,,,,,,
,text,0.931218683719635,,,,,,,,
,money,0.9210463166236877,,,,,,,,
,finance,0.9174662828445435,,,,,,,,
,number,0.915655255317688,,,,,,,,
,symbol,0.8673993349075317,,,,,,,,
,sign,0.8619732856750488,,,,,,,,
,finance,0.8481451869010925,,,,,,,,
,one,0.8342864513397217,,,,,,,,
,people,0.822921097278595,,,,,,,,
,commerce,0.8115509748458862,,,,,,,,
,sign,0.8090415596961975,,,,,,,,
,note,0.8085635900497437,,,,,,,,
,charity,0.8080341815948486,,,,,,,,
,room,0.7992818355560303,,,,,,,,
,family,0.7941141724586487,,,,,,,,
,offense,0.7839758992195129,,,,,,,,
https://scontent.cdninstagram.com/l/t51.2885-15/e35/13422799_1129252493802108_1227014988_n.jpg,business,0.986901044845581,Business,Entertainment,,,Business-s,Entertainment-s,,
,money,0.9455111026763916,,,,,,,,
,paper,0.9441334009170532,,,,,,,,
,"no person",0.9264740943908691,,,,,,,,
,finance,0.921857476234436,,,,,,,,
,text,0.911717414855957,,,,,,,,
,wealth,0.8857325315475464,,,,,,,,
,money,0.8852877616882324,,,,,,,,
,commerce,0.8829866051673889,,,,,,,,
,one,0.8697224259376526,,,,,,,,
,administration,0.8507354259490967,,,,,,,,
,people,0.8450373411178589,,,,,,,,
,rally,0.8446304798126221,,,,,,,,
,number,0.8097769021987915,,,,,,,,
,pay,0.8016781806945801,,,,,,,,
,success,0.8007076978683472,,,,,,,,
,sign,0.7873648405075073,,,,,,,,
,recession,0.7440008521080017,,,,,,,,
,spherical,0.7324817180633545,,,,,,,,
,growth,0.7266557812690735,,,,,,,,
https://scontent.cdninstagram.com/t51.2885-15/e15/12965651_1298136166883145_1127152923_n.jpg,sign,0.9813841581344604,"My life",,,,"My world today",,,
,paper,0.9784570336341858,,,,,,,,
,business,0.9709125757217407,,,,,,,,
,"no person",0.9438431262969971,,,,,,,,
,text,0.931218683719635,,,,,,,,
,money,0.9210463166236877,,,,,,,,
,finance,0.9174662828445435,,,,,,,,
,number,0.915655255317688,,,,,,,,
,symbol,0.8673993349075317,,,,,,,,
,sign,0.8619732856750488,,,,,,,,
,finance,0.8481451869010925,,,,,,,,
,one,0.8342864513397217,,,,,,,,
,people,0.822921097278595,,,,,,,,
,commerce,0.8115509748458862,,,,,,,,
,sign,0.8090415596961975,,,,,,,,
,note,0.8085635900497437,,,,,,,,
,charity,0.8080341815948486,,,,,,,,
,room,0.7992818355560303,,,,,,,,
,family,0.7941141724586487,,,,,,,,
,offense,0.7839758992195129,,,,,,,,
https://scontent.cdninstagram.com/t51.2885-15/e35/13098989_1790679961165171_43096564_n.jpg,soccer,0.9800344109535217,,,,,,,,
,football,0.9780395030975342,,,,,,,,
,stadium,0.9761770963668823,,,,,,,,
,screen,0.9511816501617432,,,,,,,,
,illustration,0.9477038979530334,,,,,,,,
,competition,0.943619966506958,,,,,,,,
,technology,0.9360271692276001,,,,,,,,
,internet,0.9351800680160522,,,,,,,,
,people,0.9341182708740234,,,,,,,,
,outdoors,0.9256479740142822,,,,,,,,
,illuminated,0.9204449653625488,,,,,,,,
,horizontal,0.9175601601600647,,,,,,,,
,spotlight,0.9132338166236877,,,,,,,,
,sport,0.9128800630569458,,,,,,,,
,computer,0.9115091562271118,,,,,,,,
,field,0.9087108373641968,,,,,,,,
,movie,0.9067161083221436,,,,,,,,
,audience,0.8971641659736633,,,,,,,,
,communication,0.8965268135070801,,,,,,,,
,light,0.8928787708282471,,,,,,,,
https://scontent.cdninstagram.com/t51.2885-15/sh0.08/e35/p750x750/12917930_1550143915281878_1034987709_n.jpg,soccer,0.9893195629119873,,,,,,,,
,child,0.9824113845825195,,,,,,,,
,game,0.9793599843978882,,,,,,,,
,football,0.977737307548523,,,,,,,,
,competition,0.973048985004425,,,,,,,,
,people,0.9578108787536621,,,,,,,,
,ball,0.9499331116676331,,,,,,,,
,stadium,0.9314422607421875,,,,,,,,
,portrait,0.9207351207733154,,,,,,,,
,fun,0.9202326536178589,,,,,,,,
,wear,0.8894020318984985,,,,,,,,
,sport,0.8884096741676331,,,,,,,,
,adult,0.887885570526123,,,,,,,,
,action,0.8828819990158081,,,,,,,,
,woman,0.8775179386138916,,,,,,,,
,athlete,0.8737205862998962,,,,,,,,
,recreation,0.859958291053772,,,,,,,,
,match,0.859448254108429,,,,,,,,
,champion,0.85764479637146,,,,,,,,
,man,0.8465989828109741,,,,,,,,
https://scontent.cdninstagram.com/t51.2885-15/e15/13150808_239158766441327_768085465_n.jpg,horizontal,0.9467641115188599,Arts,,,,Motivational,,,
,cloud,0.9441852569580078,,,,,,,,
,outdoors,0.94374680519104,,,,,,,,
,horizontal,0.9393118619918823,,,,,,,,
,sea,0.876716136932373,,,,,,,,
,landscape,0.8536795973777771,,,,,,,,
,vertical,0.8505758047103882,,,,,,,,
,illuminated,0.8291094303131104,,,,,,,,
,dark,0.820292592048645,,,,,,,,
,dusk,0.807033896446228,,,,,,,,
,reflection,0.8013635277748108,,,,,,,,
,text,0.8002409934997559,,,,,,,,
,business,0.7903303503990173,,,,,,,,
,nature,0.7866267561912537,,,,,,,,
,light,0.7845073938369751,,,,,,,,
,communication,0.7835913896560669,,,,,,,,
,sky,0.7294753789901733,,,,,,,,
,motion,0.7236315011978149,,,,,,,,
,weather,0.6802849173545837,,,,,,,,
,abstract,0.6788554191589355,,,,,,,,
https://scontent.cdninstagram.com/t51.2885-15/e35/12960184_496711453787001_1668642279_n.jpg,girl,0.9871228933334351,Undefined,,,,Undefined,,,
,body,0.9850636124610901,,,,,,,,
,foot,0.9849085807800293,,,,,,,,
,woman,0.9772175550460815,,,,,,,,
,nude,0.964553952217102,,,,,,,,
,people,0.9611575603485107,,,,,,,,
,adult,0.9362192749977112,,,,,,,,
,outdoors,0.9329218864440918,,,,,,,,
,beach,0.9329168796539307,,,,,,,,
,summer,0.9213377237319946,,,,,,,,
,nude,0.9188718795776367,,,,,,,,
,love,0.9183006286621094,,,,,,,,
,young,0.9119497537612915,,,,,,,,
,two,0.9003605842590332,,,,,,,,
,baby,0.8980661034584045,,,,,,,,
,care,0.8890267610549927,,,,,,,,
,water,0.8885557651519775,,,,,,,,
,recreation,0.8852688074111938,,,,,,,,
,skin,0.8813295960426331,,,,,,,,
,grass,0.8754124641418457,,,,,,,,
https://scontent.cdninstagram.com/t51.2885-15/e35/12905269_977320875698155_1317593497_n.jpg,"no person",0.9850862622261047,"My life",,,,"Here I am",,,
,indoors,0.9795136451721191,,,,,,,,
,illuminated,0.9577381014823914,,,,,,,,
,outdoors,0.9434189200401306,,,,,,,,
,horizontal,0.9145715236663818,,,,,,,,
,light,0.9143077731132507,,,,,,,,
,vertical,0.9064184427261353,,,,,,,,
,business,0.9029068946838379,,,,,,,,
,travel,0.8818511962890625,,,,,,,,
,architecture,0.860710620880127,,,,,,,,
,contemporary,0.8383265733718872,,,,,,,,
,text,0.8156213760375977,,,,,,,,
,window,0.7872560024261475,,,,,,,,
,illustration,0.785601019859314,,,,,,,,
,empty,0.7855945229530334,,,,,,,,
,city,0.7835206985473633,,,,,,,,
,modern,0.7761461734771729,,,,,,,,
,blur,0.769057035446167,,,,,,,,
,glass,0.7661381959915161,,,,,,,,
,bright,0.7657774686813354,,,,,,,,
https://scontent.cdninstagram.com/t51.2885-15/e35/12976387_117365205334189_1970501853_n.jpg,people,0.9912089109420776,"Fashion & Beauty",,,,"My look",,,
,indoors,0.9840875864028931,,,,,,,,
,one,0.983317494392395,,,,,,,,
,adult,0.9791553020477295,,,,,,,,
,portrait,0.9748671650886536,,,,,,,,
,man,0.9525075554847717,,,,,,,,
,child,0.9521942138671875,,,,,,,,
,room,0.9487385153770447,,,,,,,,
,"facial expression",0.9412387609481812,,,,,,,,
,wear,0.9381449818611145,,,,,,,,
,family,0.9316034913063049,,,,,,,,
,offense,0.9205279350280762,,,,,,,,
,fatigue,0.8860373497009277,,,,,,,,
,"side view",0.879878044128418,,,,,,,,
,education,0.8714535236358643,,,,,,,,
,girl,0.8711267113685608,,,,,,,,
,youth,0.8691738843917847,,,,,,,,
,bed,0.8540651798248291,,,,,,,,
,house,0.8419631719589233,,,,,,,,
,boy,0.8373010158538818,,,,,,,,
https://scontent.cdninstagram.com/t51.2885-15/e35/13098989_1790679961165171_43096564_n.jpg,soccer,0.9800344109535217,,,,,,,,
,football,0.9780395030975342,,,,,,,,
,stadium,0.9761770963668823,,,,,,,,
,screen,0.9511816501617432,,,,,,,,
,illustration,0.9477038979530334,,,,,,,,
,competition,0.943619966506958,,,,,,,,
,technology,0.9360271692276001,,,,,,,,
,internet,0.9351800680160522,,,,,,,,
,people,0.9341182708740234,,,,,,,,
,outdoors,0.9256479740142822,,,,,,,,
,illuminated,0.9204449653625488,,,,,,,,
,horizontal,0.9175601601600647,,,,,,,,
,spotlight,0.9132338166236877,,,,,,,,
,sport,0.9128800630569458,,,,,,,,
,computer,0.9115091562271118,,,,,,,,
,field,0.9087108373641968,,,,,,,,
,movie,0.9067161083221436,,,,,,,,
,audience,0.8971641659736633,,,,,,,,
,communication,0.8965268135070801,,,,,,,,
,light,0.8928787708282471,,,,,,,,
https://scontent.cdninstagram.com/t51.2885-15/e35/12976387_117365205334189_1970501853_n.jpg,people,0.9912089109420776,"Fashion & Beauty",,,,"My look",,,
,indoors,0.9840875864028931,,,,,,,,
,one,0.983317494392395,,,,,,,,
,adult,0.9791553020477295,,,,,,,,
,portrait,0.9748671650886536,,,,,,,,
,man,0.9525075554847717,,,,,,,,
,child,0.9521942138671875,,,,,,,,
,room,0.9487385153770447,,,,,,,,
,"facial expression",0.9412387609481812,,,,,,,,
,wear,0.9381449818611145,,,,,,,,
,family,0.9316034913063049,,,,,,,,
,offense,0.9205279350280762,,,,,,,,
,fatigue,0.8860373497009277,,,,,,,,
,"side view",0.879878044128418,,,,,,,,
,education,0.8714535236358643,,,,,,,,
,girl,0.8711267113685608,,,,,,,,
,youth,0.8691738843917847,,,,,,,,
,bed,0.8540651798248291,,,,,,,,
,house,0.8419631719589233,,,,,,,,
,boy,0.8373010158538818,,,,,,,,
https://scontent.cdninstagram.com/t51.2885-15/e35/12960176_1712741195604532_1298415172_n.jpg,indoors,0.9951927065849304,"Fashion & Beauty",,,,"My look",,,
,room,0.9940260648727417,,,,,,,,
,furniture,0.9902945756912231,,,,,,,,
,people,0.9895946979522705,,,,,,,,
,adult,0.98520427942276,,,,,,,,
,child,0.9789166450500488,,,,,,,,
,one,0.974337637424469,,,,,,,,
,daylight,0.9668810367584229,,,,,,,,
,"facial expression",0.966220498085022,,,,,,,,
,education,0.9636651277542114,,,,,,,,
,school,0.9407526254653931,,,,,,,,
,boy,0.9372971653938293,,,,,,,,
,happiness,0.9372773170471191,,,,,,,,
,seat,0.9359394311904907,,,,,,,,
,man,0.9352174997329712,,,,,,,,
,concentration,0.9267467260360718,,,,,,,,
,portrait,0.9246364831924438,,,,,,,,
,blur,0.9178758859634399,,,,,,,,
,sit,0.9136305451393127,,,,,,,,
,wear,0.9093366861343384,,,,,,,,
https://scontent.cdninstagram.com/t51.2885-15/e35/12960176_1712741195604532_1298415172_n.jpg,indoors,0.9951927065849304,"Fashion & Beauty",,,,"My look",,,
,room,0.9940260648727417,,,,,,,,
,furniture,0.9902945756912231,,,,,,,,
,people,0.9895946979522705,,,,,,,,
,adult,0.98520427942276,,,,,,,,
,child,0.9789166450500488,,,,,,,,
,one,0.974337637424469,,,,,,,,
,daylight,0.9668810367584229,,,,,,,,
,"facial expression",0.966220498085022,,,,,,,,
,education,0.9636651277542114,,,,,,,,
,school,0.9407526254653931,,,,,,,,
,boy,0.9372971653938293,,,,,,,,
,happiness,0.9372773170471191,,,,,,,,
,seat,0.9359394311904907,,,,,,,,
,man,0.9352174997329712,,,,,,,,
,concentration,0.9267467260360718,,,,,,,,
,portrait,0.9246364831924438,,,,,,,,
,blur,0.9178758859634399,,,,,,,,
,sit,0.9136305451393127,,,,,,,,
,wear,0.9093366861343384,,,,,,,,
https://scontent.cdninstagram.com/t51.2885-15/e15/12976338_1538625386432570_1291272977_n.jpg,food,0.997407078742981,Food,,,,"Meal time",,,
,sweet,0.9920432567596436,,,,,,,,
,grow,0.9906326532363892,,,,,,,,
,pastry,0.9816920757293701,,,,,,,,
,cake,0.9796077013015747,,,,,,,,
,fruit,0.9793910980224609,,,,,,,,
,"no person",0.9778695702552795,,,,,,,,
,"still life",0.9777976274490356,,,,,,,,
,plate,0.9652254581451416,,,,,,,,
,"dairy product",0.9598110914230347,,,,,,,,
,pie,0.9585495591163635,,,,,,,,
,delicious,0.9516643285751343,,,,,,,,
,dish,0.9496238827705383,,,,,,,,
,chocolate,0.9407293796539307,,,,,,,,
,meal,0.9371159076690674,,,,,,,,
,fork,0.926026463508606,,,,,,,,
,bread,0.9233292937278748,,,,,,,,
,cutlery,0.9217609167098999,,,,,,,,
,homemade,0.9195343255996704,,,,,,,,
,refreshment,0.911338746547699,,,,,,,,
https://scontent.cdninstagram.com/t51.2885-15/e35/12905269_977320875698155_1317593497_n.jpg,"no person",0.9850862622261047,"My life",,,,"Here I am",,,
,indoors,0.9795136451721191,,,,,,,,
,illuminated,0.9577381014823914,,,,,,,,
,outdoors,0.9434189200401306,,,,,,,,
,horizontal,0.9145715236663818,,,,,,,,
,light,0.9143077731132507,,,,,,,,
,vertical,0.9064184427261353,,,,,,,,
,business,0.9029068946838379,,,,,,,,
,travel,0.8818511962890625,,,,,,,,
,architecture,0.860710620880127,,,,,,,,
,contemporary,0.8383265733718872,,,,,,,,
,text,0.8156213760375977,,,,,,,,
,window,0.7872560024261475,,,,,,,,
,illustration,0.785601019859314,,,,,,,,
,empty,0.7855945229530334,,,,,,,,
,city,0.7835206985473633,,,,,,,,
,modern,0.7761461734771729,,,,,,,,
,blur,0.769057035446167,,,,,,,,
,glass,0.7661381959915161,,,,,,,,
,bright,0.7657774686813354,,,,,,,,
https://scontent.cdninstagram.com/t51.2885-15/e35/13102504_1766748046880817_538998242_n.jpg,man,0.9655168056488037,Blank,,,,Photography,,,
,people,0.951683521270752,,,,,,,,
,art,0.9384515881538391,,,,,,,,
,illustration,0.9269323348999023,,,,,,,,
,sketch,0.9117780923843384,,,,,,,,
,skull,0.8779671788215637,,,,,,,,
,music,0.8695029616355896,,,,,,,,
,adult,0.8392571210861206,,,,,,,,
,power,0.8163748383522034,,,,,,,,
,woodcut,0.8152320384979248,,,,,,,,
,one,0.809658408164978,,,,,,,,
,retro,0.7946868538856506,,,,,,,,
,silhouette,0.7946187257766724,,,,,,,,
,monochrome,0.7885088920593262,,,,,,,,
,symbol,0.7759734392166138,,,,,,,,
,sword,0.7640379071235657,,,,,,,,
,Halloween,0.7629674077033997,,,,,,,,
,desktop,0.7502299547195435,,,,,,,,
,person,0.7496981620788574,,,,,,,,
,light,0.7496774196624756,,,,,,,,
https://scontent.cdninstagram.com/t51.2885-15/e35/12724903_916545418462903_1357646095_n.jpg,group,0.99932861328125,Relationships,"My life",,,Friends,Doing,,
,group,0.9979488849639893,,,,,,,,
,people,0.9912439584732056,,,,,,,,
,recreation,0.9879502058029175,,,,,,,,
,four,0.9831578731536865,,,,,,,,
,man,0.9831127524375916,,,,,,,,
,friendship,0.9830842018127441,,,,,,,,
,woman,0.9818100929260254,,,,,,,,
,five,0.9751842021942139,,,,,,,,
,adult,0.9711368083953857,,,,,,,,
,three,0.947258472442627,,,,,,,,
,"facial expression",0.9438860416412354,,,,,,,,
,child,0.9402433633804321,,,,,,,,
,adolescent,0.9374741315841675,,,,,,,,
,family,0.9294002056121826,,,,,,,,
,class,0.9258085489273071,,,,,,,,
,several,0.9109992980957031,,,,,,,,
,portrait,0.9064497947692871,,,,,,,,
,togetherness,0.9053286910057068,,,,,,,,
,enjoyment,0.8954582810401917,,,,,,,,
https://scontent.cdninstagram.com/t51.2885-15/e35/12960184_496711453787001_1668642279_n.jpg,girl,0.9871228933334351,Undefined,,,,Undefined,,,
,body,0.9850636124610901,,,,,,,,
,foot,0.9849085807800293,,,,,,,,
,woman,0.9772175550460815,,,,,,,,
,nude,0.964553952217102,,,,,,,,
,people,0.9611575603485107,,,,,,,,
,adult,0.9362192749977112,,,,,,,,
,outdoors,0.9329218864440918,,,,,,,,
,beach,0.9329168796539307,,,,,,,,
,summer,0.9213377237319946,,,,,,,,
,nude,0.9188718795776367,,,,,,,,
,love,0.9183006286621094,,,,,,,,
,young,0.9119497537612915,,,,,,,,
,two,0.9003605842590332,,,,,,,,
,baby,0.8980661034584045,,,,,,,,
,care,0.8890267610549927,,,,,,,,
,water,0.8885557651519775,,,,,,,,
,recreation,0.8852688074111938,,,,,,,,
,skin,0.8813295960426331,,,,,,,,
,grass,0.8754124641418457,,,,,,,,
https://scontent.cdninstagram.com/t51.2885-15/e35/12935004_1524190164556315_1730112544_n.jpg,screen,0.990927517414093,Entertainment,,,,Entertainment-s,,,
,technology,0.9757585525512695,,,,,,,,
,movie,0.9596131443977356,,,,,,,,
,internet,0.9553840160369873,,,,,,,,
,computer,0.9426941871643066,,,,,,,,
,television,0.9294131994247437,,,,,,,,
,desktop,0.9151538610458374,,,,,,,,
,dark,0.912132978439331,,,,,,,,
,display,0.910927414894104,,,,,,,,
,music,0.9090405702590942,,,,,,,,
,modern,0.9073005318641663,,,,,,,,
,contemporary,0.9010038375854492,,,,,,,,
,performance,0.8596833944320679,,,,,,,,
,people,0.8557102680206299,,,,,,,,
,electronics,0.8527309894561768,,,,,,,,
,"no person",0.8515685796737671,,,,,,,,
,wireless,0.8507588505744934,,,,,,,,
,monitor,0.8314903974533081,,,,,,,,
,video,0.8289327621459961,,,,,,,,
,business,0.8223398923873901,,,,,,,,
https://scontent.cdninstagram.com/t51.2885-15/e35/13102504_1766748046880817_538998242_n.jpg,man,0.9655168056488037,Blank,,,,Photography,,,
,people,0.951683521270752,,,,,,,,
,art,0.9384515881538391,,,,,,,,
,illustration,0.9269323348999023,,,,,,,,
,sketch,0.9117780923843384,,,,,,,,
,skull,0.8779671788215637,,,,,,,,
,music,0.8695029616355896,,,,,,,,
,adult,0.8392571210861206,,,,,,,,
,power,0.8163748383522034,,,,,,,,
,woodcut,0.8152320384979248,,,,,,,,
,one,0.809658408164978,,,,,,,,
,retro,0.7946868538856506,,,,,,,,
,silhouette,0.7946187257766724,,,,,,,,
,monochrome,0.7885088920593262,,,,,,,,
,symbol,0.7759734392166138,,,,,,,,
,sword,0.7640379071235657,,,,,,,,
,Halloween,0.7629674077033997,,,,,,,,
,desktop,0.7502299547195435,,,,,,,,
,person,0.7496981620788574,,,,,,,,
,light,0.7496774196624756,,,,,,,,
https://scontent.cdninstagram.com/t51.2885-15/s640x640/sh0.08/e35/12907322_1696189403968176_358802838_n.jpg,people,0.979042649269104,"My life",Relationships,,,Doing,Friends,,
,woman,0.9738532900810242,,,,,,,,
,recreation,0.9485718011856079,,,,,,,,
,child,0.946429431438446,,,,,,,,
,man,0.9336783289909363,,,,,,,,
,group,0.9317223429679871,,,,,,,,
,adult,0.9244855046272278,,,,,,,,
,lifestyle,0.9229884743690491,,,,,,,,
,girl,0.9198952913284302,,,,,,,,
,fun,0.9187513589859009,,,,,,,,
,active,0.9163452982902527,,,,,,,,
,outdoors,0.906185507774353,,,,,,,,
,togetherness,0.8842740058898926,,,,,,,,
,young,0.8660538196563721,,,,,,,,
,happiness,0.8659659028053284,,,,,,,,
,exercise,0.8635856509208679,,,,,,,,
,friendship,0.8567458391189575,,,,,,,,
,sport,0.8528118133544922,,,,,,,,
,enjoyment,0.844070553779602,,,,,,,,
,leisure,0.8432950973510742,,,,,,,,
https://scontent.cdninstagram.com/t51.2885-15/e35/13423677_889383284506940_1767344727_n.jpg,"no person",0.9561227560043335,Business,,,,Conf/Events,,,
,travel,0.941429853439331,,,,,,,,
,text,0.9046056270599365,,,,,,,,
,horizontal,0.8971604108810425,,,,,,,,
,business,0.8839291930198669,,,,,,,,
,indoors,0.8794354796409607,,,,,,,,
,administration,0.8711793422698975,,,,,,,,
,people,0.8637917041778564,,,,,,,,
,vacation,0.8605773448944092,,,,,,,,
,outdoors,0.8330394625663757,,,,,,,,
,one,0.8289189338684082,,,,,,,,
,paper,0.8258464336395264,,,,,,,,
,finance,0.8257867097854614,,,,,,,,
,woman,0.8249059319496155,,,,,,,,
,label,0.8239575624465942,,,,,,,,
,healthcare,0.8162887096405029,,,,,,,,
,identity,0.8145480155944824,,,,,,,,
,number,0.8052490949630737,,,,,,,,
,security,0.7953348159790039,,,,,,,,
,order,0.7705883979797363,,,,,,,,
https://scontent.cdninstagram.com/t51.2885-15/e35/12724903_916545418462903_1357646095_n.jpg,group,0.99932861328125,Relationships,"My life",,,Friends,Doing,,
,group,0.9979488849639893,,,,,,,,
,people,0.9912439584732056,,,,,,,,
,recreation,0.9879502058029175,,,,,,,,
,four,0.9831578731536865,,,,,,,,
,man,0.9831127524375916,,,,,,,,
,friendship,0.9830842018127441,,,,,,,,
,woman,0.9818100929260254,,,,,,,,
,five,0.9751842021942139,,,,,,,,
,adult,0.9711368083953857,,,,,,,,
,three,0.947258472442627,,,,,,,,
,"facial expression",0.9438860416412354,,,,,,,,
,child,0.9402433633804321,,,,,,,,
,adolescent,0.9374741315841675,,,,,,,,
,family,0.9294002056121826,,,,,,,,
,class,0.9258085489273071,,,,,,,,
,several,0.9109992980957031,,,,,,,,
,portrait,0.9064497947692871,,,,,,,,
,togetherness,0.9053286910057068,,,,,,,,
,enjoyment,0.8954582810401917,,,,,,,,
https://scontent.cdninstagram.com/t51.2885-15/s640x640/sh0.08/e35/12907322_1696189403968176_358802838_n.jpg,people,0.979042649269104,"My life",Relationships,,,Doing,Friends,,
,woman,0.9738532900810242,,,,,,,,
,recreation,0.9485718011856079,,,,,,,,
,child,0.946429431438446,,,,,,,,
,man,0.9336783289909363,,,,,,,,
,group,0.9317223429679871,,,,,,,,
,adult,0.9244855046272278,,,,,,,,
,lifestyle,0.9229884743690491,,,,,,,,
,girl,0.9198952913284302,,,,,,,,
,fun,0.9187513589859009,,,,,,,,
,active,0.9163452982902527,,,,,,,,
,outdoors,0.906185507774353,,,,,,,,
,togetherness,0.8842740058898926,,,,,,,,
,young,0.8660538196563721,,,,,,,,
,happiness,0.8659659028053284,,,,,,,,
,exercise,0.8635856509208679,,,,,,,,
,friendship,0.8567458391189575,,,,,,,,
,sport,0.8528118133544922,,,,,,,,
,enjoyment,0.844070553779602,,,,,,,,
,leisure,0.8432950973510742,,,,,,,,
https://scontent.cdninstagram.com/t51.2885-15/sh0.08/e35/p750x750/12917930_1550143915281878_1034987709_n.jpg,soccer,0.9893195629119873,,,,,,,,
,child,0.9824113845825195,,,,,,,,
,game,0.9793599843978882,,,,,,,,
,football,0.977737307548523,,,,,,,,
,competition,0.973048985004425,,,,,,,,
,people,0.9578108787536621,,,,,,,,
,ball,0.9499331116676331,,,,,,,,
,stadium,0.9314422607421875,,,,,,,,
,portrait,0.9207351207733154,,,,,,,,
,fun,0.9202326536178589,,,,,,,,
,wear,0.8894020318984985,,,,,,,,
,sport,0.8884096741676331,,,,,,,,
,adult,0.887885570526123,,,,,,,,
,action,0.8828819990158081,,,,,,,,
,woman,0.8775179386138916,,,,,,,,
,athlete,0.8737205862998962,,,,,,,,
,recreation,0.859958291053772,,,,,,,,
,match,0.859448254108429,,,,,,,,
,champion,0.85764479637146,,,,,,,,
,man,0.8465989828109741,,,,,,,,
