url,class,score
https://scontent.cdninstagram.com/t51.2885-15/e15/10661087_1520882511538278_114276837_n.jpg,dog,0.998056173324585
,canine,0.9869003295898438
,people,0.9743441343307495
,pet,0.9731708765029907
,mammal,0.9709476828575134
,room,0.9667032957077026
,exhibition,0.9663230776786804
,portrait,0.9595675468444824
,animal,0.9242432117462158
,indoors,0.9199870824813843
,puppy,0.9083593487739563
,child,0.9079023003578186
,one,0.9001379013061523
,adult,0.8727999925613403
,wear,0.8649358749389648
,two,0.8402074575424194
,cat,0.8234120607376099
,sit,0.8218379020690918
,family,0.8191256523132324
,furniture,0.8126215934753418
https://scontent.cdninstagram.com/t51.2885-15/e35/13108860_491550104365928_90746189_n.jpg,food,0.9979784488677979
,no person,0.9952123165130615
,dinner,0.9858115911483765
,meal,0.9830244779586792
,lunch,0.9823399782180786
,delicious,0.9793859720230103
,cuisine,0.9687321782112122
,meat,0.9676294326782227
,traditional,0.9615178108215332
,healthy,0.9586144089698792
,seafood,0.9518480896949768
,epicure,0.9513751864433289
,vegetable,0.9503166675567627
,cooking,0.9476140737533569
,fish,0.9387900829315186
,tasty,0.932767391204834
,restaurant,0.9237627983093262
,dish,0.9237507581710815
,diet,0.9173427820205688
,rice,0.9141863584518433
https://scontent.cdninstagram.com/t51.2885-15/e35/12976541_2028106697415490_313778258_n.jpg,no person,0.9856317043304443
,architecture,0.9779535531997681
,outdoors,0.9724113941192627
,city,0.9714498519897461
,travel,0.9712409973144531
,business,0.9638249278068542
,horizontal,0.9562638998031616
,industry,0.9431297779083252
,transportation system,0.9340879917144775
,football,0.9317108392715454
,sky,0.9284124374389648
,soccer,0.9148086309432983
,modern,0.9019762277603149
,building,0.8869509696960449
,illuminated,0.8570895195007324
,train,0.8548805713653564
,dusk,0.8419891595840454
,water,0.8357008695602417
,stadium,0.8171637058258057
,sign,0.8134088516235352
https://scontent.cdninstagram.com/t51.2885-15/e35/13117870_560469427467718_1940975134_n.jpg,text,0.9937900304794312
,business,0.9917840957641602
,sign,0.9803508520126343
,paper,0.9696669578552246
,administration,0.96895432472229
,document,0.9683163166046143
,finance,0.9659254550933838
,unemployment,0.9640980958938599
,money,0.9588395953178406
,information,0.9560502767562866
,law,0.9482426643371582
,finance,0.943968653678894
,offense,0.9361847639083862
,commerce,0.9337172508239746
,security,0.9296048283576965
,success,0.9214770197868347
,financial,0.9160575866699219
,organization,0.9117050170898438
,no person,0.8994835615158081
,service,0.8933926820755005
https://scontent.cdninstagram.com/t51.2885-15/e35/12224082_1639847949602298_1633097413_n.jpg,illuminated,0.9668746590614319
,technology,0.9324100017547607
,business,0.9080752730369568
,light,0.9004623889923096
,dark,0.8349246978759766
,television,0.7991059422492981
,science,0.797575831413269
,bill,0.7917022705078125
,no person,0.7715657949447632
,screen,0.7654131650924683
,energy,0.7629260420799255
,storm,0.7468535900115967
,display,0.7432827949523926
,banner,0.7213496565818787
,stage,0.6966291666030884
,abstract,0.6959075927734375
,industry,0.6549474000930786
,presentation,0.6443725228309631
,performance,0.62764573097229
,music,0.623897135257721
https://scontent.cdninstagram.com/t51.2885-15/e35/13649167_1730726887186315_776291264_n.jpg,dog,0.9999494552612305
,canine,0.9998010396957397
,pet,0.9978495836257935
,puppy,0.9968826770782471
,mammal,0.9968216419219971
,portrait,0.9836844801902771
,animal,0.9779734015464783
,friendship,0.9775575399398804
,two,0.9753345847129822
,sit,0.9730985164642334
,cute,0.9721264243125916
,one,0.9658493995666504
,terrier,0.9605900049209595
,retriever,0.9584234356880188
,kennel,0.9566165208816528
,people,0.9452159404754639
,breed,0.9424166083335876
,guard,0.9422169923782349
,domestic,0.9394509196281433
,humor,0.9381009340286255
https://scontent.cdninstagram.com/t51.2885-15/e35/12345934_1535872826731681_1916742041_n.jpg,technology,0.9875460267066956
,abstract,0.9778094291687012
,design,0.9759219884872437
,bright,0.9733800888061523
,desktop,0.94236159324646
,illustration,0.9384543895721436
,light,0.9367932677268982
,modern,0.9326111078262329
,computer,0.9284223318099976
,graphic,0.9282130002975464
,data,0.9249476194381714
,internet,0.9154967069625854
,pattern,0.9122346639633179
,data,0.910186767578125
,dark,0.9037883281707764
,electronics,0.89591383934021
,space,0.8827892541885376
,contemporary,0.8812881708145142
,illuminated,0.8807196617126465
,futuristic,0.8747661113739014
https://scontent.cdninstagram.com/t51.2885-15/e35/13398740_588394424672026_2117821852_n.jpg,cat,0.99263596534729
,fur,0.9918501377105713
,one,0.9869086742401123
,people,0.9847756624221802
,sleep,0.9799222946166992
,downy,0.9697238802909851
,baby,0.9633165597915649
,portrait,0.9611957669258118
,no person,0.956967830657959
,mammal,0.9527922868728638
,bed,0.9465885162353516
,winter,0.9421775341033936
,child,0.9380764365196228
,newborn,0.9324623346328735
,dog,0.9266749620437622
,pet,0.9230639934539795
,kitten,0.9177360534667969
,wear,0.9122207164764404
,cover,0.9056285619735718
,love,0.9052897095680237
https://scontent.cdninstagram.com/t51.2885-15/e15/12912430_1913196085573389_1043416047_n.jpg,stock,0.9873448610305786
,no person,0.9841024875640869
,shopping,0.9796926975250244
,merchandise,0.9628127813339233
,shop,0.9575381278991699
,food,0.9534204006195068
,commerce,0.9469700455665588
,market,0.9410146474838257
,business,0.939749002456665
,service,0.9295793771743774
,indoors,0.8936394453048706
,restaurant,0.8862874507904053
,traditional,0.8591184616088867
,booth,0.8582123517990112
,street,0.8573015332221985
,city,0.8376870155334473
,industry,0.8298968076705933
,shelf,0.828470766544342
,contemporary,0.8233548998832703
,container,0.8226045966148376
https://scontent.cdninstagram.com/l/t51.2885-15/s640x640/e15/13549411_159921444419670_1846334295_n.jpg,dog,0.9939705729484558
,little,0.9878219366073608
,cute,0.9823163747787476
,young,0.9735544919967651
,pet,0.9730355143547058
,child,0.9697423577308655
,puppy,0.968172013759613
,adorable,0.96345055103302
,funny,0.9584462642669678
,indoors,0.9514037370681763
,canine,0.9476046562194824
,fun,0.9459677338600159
,floor,0.942224383354187
,friendship,0.9351796507835388
,sit,0.9324942827224731
,toy,0.9309346675872803
,domestic,0.9269312620162964
,portrait,0.9196704030036926
,girl,0.9160307049751282
,family,0.9070460796356201
https://scontent.cdninstagram.com/t51.2885-15/s480x480/e35/12797889_1842235256003226_1515136815_n.jpg,no person,0.9789469838142395
,cute,0.9785087704658508
,one,0.9723409414291382
,indoors,0.9700802564620972
,little,0.9639643430709839
,love,0.9484552145004272
,mammal,0.9389727115631104
,woman,0.9194134473800659
,fun,0.9108901619911194
,funny,0.8944687843322754
,young,0.890236496925354
,looking,0.8878079652786255
,paper,0.8848450183868408
,pet,0.8804036378860474
,people,0.8796459436416626
,portrait,0.8667395114898682
,isolated,0.8628360033035278
,sit,0.8545734882354736
,child,0.8508193492889404
,family,0.8307843208312988
https://scontent.cdninstagram.com/t51.2885-15/e35/12930945_594085944076540_445654930_n.jpg,stock,0.997778058052063
,shop,0.9944872856140137
,shopping,0.9931796193122864
,merchandise,0.9782576560974121
,service,0.9744349122047424
,chef,0.9619746208190918
,commerce,0.9526960253715515
,industry,0.9525543451309204
,counter,0.9490524530410767
,restaurant,0.9466308355331421
,market,0.9409142732620239
,department,0.9367564916610718
,mall,0.9265125393867493
,boutique,0.9227767586708069
,supermarket,0.921518862247467
,people,0.9007073640823364
,indoors,0.900392472743988
,cooking,0.8804606199264526
,bargain,0.8667987585067749
,showcase,0.8458941578865051
https://scontent.cdninstagram.com/t51.2885-15/e35/12976412_585815674926442_1993203877_n.jpg,cream,0.9991830587387085
,ice,0.9981215000152588
,scoop,0.9972906112670898
,vanilla,0.997211754322052
,dairy product,0.9972002506256104
,cold,0.9960650205612183
,creamy,0.9953017830848694
,frozen,0.9952734708786011
,sorbet,0.9940752983093262
,milk,0.9939332008361816
,sweet,0.9930546283721924
,no person,0.9920324087142944
,yogurt,0.9897198677062988
,mint,0.9849984645843506
,frozen,0.9810059666633606
,chocolate,0.9799709916114807
,delicious,0.9789323806762695
,fruit,0.97819983959198
,food,0.9691001176834106
,dairy,0.9689441919326782
https://scontent.cdninstagram.com/t51.2885-15/e35/13597704_262074204174034_1703367265_n.jpg,dog,0.9993084669113159
,canine,0.9974609613418579
,mammal,0.9873148202896118
,puppy,0.9862477779388428
,portrait,0.9830605983734131
,one,0.982349157333374
,pet,0.9679555892944336
,no person,0.9604489803314209
,people,0.9424662590026855
,pug,0.9411518573760986
,sleep,0.9318864345550537
,animal,0.9229229688644409
,cute,0.9180786609649658
,domestic,0.9039322733879089
,adorable,0.8972276449203491
,puppy,0.8923842906951904
,bulldog,0.8745771050453186
,monochrome,0.8724385499954224
,boxer,0.8633095026016235
,adult,0.8536171317100525
https://scontent.cdninstagram.com/t51.2885-15/e35/13298173_1770288143187492_1002099046_n.jpg,no person,0.9943004846572876
,empty,0.9505358934402466
,milk,0.93914794921875
,coffee,0.9390790462493896
,plastic,0.9134994745254517
,breakfast,0.9017173051834106
,health,0.898400604724884
,dawn,0.8863809704780579
,merchandise,0.8726094961166382
,container,0.8663080334663391
,paper,0.8629847764968872
,glass,0.8542158603668213
,isolated,0.8349605798721313
,nutrition,0.8025675415992737
,full,0.7967675924301147
,cappuccino,0.7916170954704285
,glazed,0.789787232875824
,business,0.7894306182861328
,cream,0.7874391078948975
,conceptual,0.7793856263160706
https://scontent.cdninstagram.com/t51.2885-15/e35/12357712_1532083357104325_355318269_n.jpg,people,0.9853353500366211
,business,0.9824480414390564
,commerce,0.9420401453971863
,man,0.9413251280784607
,city,0.9400390386581421
,travel,0.9337015151977539
,stock,0.9234445095062256
,architecture,0.9129844903945923
,technology,0.8891006708145142
,adult,0.8855098485946655
,music,0.8851862549781799
,performance,0.8788750767707825
,industry,0.8682793378829956
,tourism,0.8655493259429932
,restaurant,0.8568531274795532
,exhibition,0.8546248078346252
,telephone,0.8532062768936157
,woman,0.8370545506477356
,silhouette,0.8324286937713623
,building,0.8313803672790527
https://scontent.cdninstagram.com/t51.2885-15/e15/13118226_588645257967465_648854375_n.jpg,dog,0.9995961785316467
,mammal,0.9992141723632812
,canine,0.9988173246383667
,pet,0.9977428913116455
,cute,0.9879232048988342
,puppy,0.9877767562866211
,retriever,0.9862767457962036
,animal,0.9832805395126343
,domestic,0.9750296473503113
,two,0.9621480703353882
,breed,0.9619898796081543
,one,0.9598077535629272
,people,0.9576131105422974
,baby,0.9506617784500122
,sit,0.9502676129341125
,portrait,0.9498238563537598
,golden retriever,0.9474754929542542
,little,0.9325190782546997
,adorable,0.928175687789917
,puppy,0.9180213212966919
https://scontent.cdninstagram.com/t51.2885-15/e15/12081166_1662569270649096_1164569181_n.jpg,people,0.996979296207428
,many,0.9812002182006836
,music,0.9710049033164978
,performance,0.9694101810455322
,crowd,0.9671382904052734
,group,0.9663686752319336
,concert,0.9651490449905396
,stage,0.9593130350112915
,festival,0.9574342966079712
,man,0.9400617480278015
,show,0.9124079942703247
,adult,0.9088389277458191
,group,0.9032236337661743
,singer,0.8912353515625
,city,0.8879691362380981
,woman,0.8750902414321899
,musician,0.8475961685180664
,audience,0.8457045555114746
,event,0.8431171178817749
,competition,0.834839403629303
https://scontent.cdninstagram.com/t51.2885-15/s640x640/e15/12728399_1552790855034934_431918602_n.jpg,people,0.989563524723053
,one,0.9847362041473389
,adult,0.9738073348999023
,medicine,0.9691389799118042
,painting,0.9559516906738281
,blur,0.9484807252883911
,food,0.943314790725708
,child,0.942267656326294
,daylight,0.9400361776351929
,girl,0.9387122392654419
,woman,0.9185225367546082
,invertebrate,0.8952302932739258
,healthcare,0.8829313516616821
,light,0.862767219543457
,portrait,0.859033465385437
,hand,0.8475933074951172
,medical practitioner,0.8324095010757446
,creativity,0.8298286199569702
,two,0.8242630362510681
,baby,0.8217774629592896
https://scontent.cdninstagram.com/t51.2885-15/s640x640/e15/13743338_560058634181251_2026648208_n.jpg,dog,0.9999254941940308
,canine,0.9994117617607117
,puppy,0.9990241527557373
,pet,0.9983433485031128
,cute,0.99831223487854
,little,0.9945852160453796
,portrait,0.9944676160812378
,mammal,0.9938023090362549
,animal,0.9923563003540039
,domestic,0.990986704826355
,pug,0.9895957708358765
,sit,0.9878453016281128
,adorable,0.9856933355331421
,puppy,0.9814128875732422
,funny,0.9807154536247253
,breed,0.9740592837333679
,studio,0.9673444032669067
,purebred,0.9655284881591797
,friendship,0.9647743105888367
,looking,0.9604505300521851
https://scontent.cdninstagram.com/l/t51.2885-15/e35/13739393_138852703211536_542453267_n.jpg,water,0.9985255002975464
,watercraft,0.997565507888794
,ship,0.9962522983551025
,transportation system,0.9949213266372681
,no person,0.9897414445877075
,pier,0.9888243675231934
,vehicle,0.985744833946228
,bridge,0.9849778413772583
,harbor,0.9834356307983398
,sea,0.981421947479248
,boat,0.9772728681564331
,river,0.9659494161605835
,travel,0.9617762565612793
,ocean,0.9614099860191345
,navy,0.9449949264526367
,warship,0.9275301694869995
,port,0.9232524037361145
,sky,0.8963992595672607
,reflection,0.8891597390174866
,city,0.8762983679771423
https://scontent.cdninstagram.com/t51.2885-15/e35/11313583_1700522833567205_848969897_n.jpg,food,0.9961115121841431
,meal,0.9899909496307373
,dinner,0.9876734614372253
,lunch,0.9837014675140381
,cuisine,0.979823112487793
,restaurant,0.9769579768180847
,traditional,0.9738534092903137
,epicure,0.9737604260444641
,dish,0.9709739089012146
,vegetable,0.9708043932914734
,plate,0.966528058052063
,hot,0.9570513367652893
,rice,0.9431955218315125
,healthy,0.9425116181373596
,tasty,0.9364886283874512
,delicious,0.9348064661026001
,meat,0.932381272315979
,sauce,0.9263616800308228
,table,0.9243980646133423
,bowl,0.9204928874969482
https://scontent.cdninstagram.com/t51.2885-15/s640x640/e15/13741232_1064608116926916_1312450380_n.jpg,dog,0.9987068176269531
,pet,0.9931422472000122
,canine,0.9909796714782715
,mammal,0.9905269145965576
,cute,0.9894704222679138
,animal,0.9880533814430237
,portrait,0.9859830141067505
,puppy,0.9857159852981567
,pug,0.9824367761611938
,domestic,0.9732050895690918
,adorable,0.9675149917602539
,bulldog,0.9642720222473145
,funny,0.9539803266525269
,breed,0.9495214223861694
,little,0.9429975152015686
,bull,0.9281735420227051
,sleep,0.9173982739448547
,looking,0.9133567810058594
,studio,0.9070046544075012
,one,0.9046396017074585
https://scontent.cdninstagram.com/t51.2885-15/e15/12237114_1667083826862750_804894762_n.jpg,illustration,0.9512099027633667
,desktop,0.9107358455657959
,sketch,0.8597294092178345
,animal,0.85107421875
,funny,0.8301210403442383
,family,0.8275416493415833
,graphic,0.8184272050857544
,isolated,0.8079564571380615
,image,0.8053798675537109
,business,0.8004738092422485
,art,0.7928785085678101
,man,0.7875034809112549
,design,0.7729487419128418
,child,0.7719573378562927
,cute,0.7606402039527893
,finance,0.7439913153648376
,toy,0.7399590611457825
,symbol,0.7315387725830078
,people,0.7314934134483337
,one,0.7211260199546814
https://scontent.cdninstagram.com/t51.2885-15/e15/1170355_248952432105160_1411192406_n.jpg,blur,0.9975810050964355
,abstract,0.9908748269081116
,portrait,0.9793555736541748
,cat,0.9793057441711426
,dof,0.9790393114089966
,no person,0.9774305820465088
,people,0.9671378135681152
,dog,0.9624394178390503
,still life,0.9557391405105591
,one,0.949608564376831
,nude,0.9485840797424316
,girl,0.9469761252403259
,mammal,0.9414549469947815
,art,0.9414036273956299
,bird,0.9367393255233765
,monochrome,0.9259425401687622
,daylight,0.9006080627441406
,side view,0.8995823264122009
,baby,0.8949400186538696
,landscape,0.8880025148391724
https://scontent.cdninstagram.com/t51.2885-15/e35/13248959_241966859498977_1144668295_n.jpg,bottle,0.9926619529724121
,drink,0.9891781806945801
,no person,0.9867973923683167
,glass,0.9851937294006348
,container,0.9743402600288391
,food,0.9625368118286133
,beer,0.955674409866333
,cold,0.9456014633178711
,alcohol,0.9253604412078857
,color,0.9171179533004761
,liquor,0.8916033506393433
,still life,0.8890746831893921
,liquid,0.8863582611083984
,ice,0.8830374479293823
,medicine,0.8766673803329468
,fruit,0.8459994792938232
,bar,0.8317139148712158
,one,0.8289041519165039
,desktop,0.8259814977645874
,reflection,0.8130972981452942
https://scontent.cdninstagram.com/t51.2885-15/e35/12531004_514673455361437_8502653_n.jpg,dog,0.9997284412384033
,canine,0.9979338049888611
,cute,0.9971490502357483
,pet,0.9969820976257324
,puppy,0.9951984882354736
,animal,0.9942011833190918
,purebred,0.9863119721412659
,domestic,0.984276294708252
,mammal,0.9828543066978455
,breed,0.9813119173049927
,pedigree,0.9807376861572266
,friendship,0.9784804582595825
,adorable,0.9726295471191406
,fur,0.9721149206161499
,little,0.9706059694290161
,funny,0.9614804983139038
,young,0.9600402116775513
,spitz,0.9598280787467957
,portrait,0.9568741321563721
,tongue,0.9540371894836426
https://scontent.cdninstagram.com/t51.2885-15/e15/12120222_1643597809232599_2010917328_n.jpg,dog,0.9872375726699829
,mammal,0.9815705418586731
,one,0.9751205444335938
,no person,0.9696357250213623
,pet,0.9586173892021179
,people,0.9512990117073059
,cute,0.9501036405563354
,baby,0.936957836151123
,canine,0.9360896944999695
,portrait,0.9356776475906372
,love,0.9350920915603638
,animal,0.9319227933883667
,puppy,0.9260480999946594
,indoors,0.9221221208572388
,girl,0.9207631349563599
,child,0.9055843353271484
,adult,0.8941613435745239
,sleep,0.8861250877380371
,little,0.8805147409439087
,bed,0.8800146579742432
https://scontent.cdninstagram.com/t51.2885-15/e35/12558407_165990180441477_1727857529_n.jpg,mammal,0.9959517121315002
,pet,0.9896951913833618
,dog,0.9892840385437012
,portrait,0.9756606817245483
,canine,0.9709705114364624
,one,0.9684339761734009
,cute,0.9626818895339966
,domestic,0.9604952335357666
,cat,0.9600284099578857
,animal,0.9517439603805542
,downy,0.9271284341812134
,puppy,0.89786696434021
,fur,0.8952541947364807
,people,0.8935185670852661
,no person,0.8900352716445923
,little,0.8669087886810303
,adorable,0.8648035526275635
,baby,0.8638859987258911
,funny,0.8562459349632263
,confection,0.8485852479934692
https://scontent.cdninstagram.com/t51.2885-15/e35/12534462_1159260850758416_1366448524_n.jpg,cat,0.9936175346374512
,window,0.9909466505050659
,room,0.9884191751480103
,indoors,0.9870195984840393
,mammal,0.9701685905456543
,people,0.9654983282089233
,furniture,0.9594385623931885
,one,0.9529238939285278
,portrait,0.9482518434524536
,no person,0.9385724663734436
,mirror,0.9380400776863098
,museum,0.9372085332870483
,reflection,0.9284377098083496
,pet,0.9187592267990112
,exhibition,0.9113621711730957
,cage,0.9098938703536987
,shelf,0.9085615873336792
,adult,0.8963285684585571
,kitten,0.8959470987319946
,light,0.8779610395431519
https://scontent.cdninstagram.com/t51.2885-15/e15/13118071_1284013108279719_1806191639_n.jpg,food,0.9969446659088135
,meat,0.9880635738372803
,rice,0.9829853773117065
,meal,0.979918360710144
,no person,0.9744043350219727
,cooking,0.9674699306488037
,pan,0.9653034806251526
,dish,0.9595826864242554
,vegetable,0.9351210594177246
,healthy,0.9286452531814575
,dinner,0.9228060841560364
,fall,0.9209917187690735
,chicken,0.9167529344558716
,pork,0.9110885858535767
,cuisine,0.9098265171051025
,frying pan,0.896899938583374
,bowl,0.8879151940345764
,pepper,0.8523255586624146
,saffron,0.8518267869949341
,herb,0.8464656472206116
https://scontent.cdninstagram.com/t51.2885-15/e35/12142005_1518126271842502_337010504_n.jpg,light,0.9817919731140137
,stadium,0.9555888175964355
,energy,0.9346405267715454
,motion,0.9342031478881836
,technology,0.9210827350616455
,science,0.9207252860069275
,no person,0.9202002286911011
,evening,0.9076910018920898
,competition,0.8446871638298035
,city,0.8301236629486084
,building,0.8234168291091919
,space,0.7897853851318359
,vehicle,0.7768702507019043
,astronomy,0.757816731929779
,music,0.7514616847038269
,recreation,0.7312840223312378
,travel,0.711822509765625
,architecture,0.7035154104232788
,venue,0.695022702217102
,ball,0.693118155002594
https://scontent.cdninstagram.com/t51.2885-15/s640x640/e15/13643447_650740095075365_986338194_n.jpg,dog,0.9991340637207031
,sleep,0.9978926181793213
,bed,0.9972634315490723
,bedroom,0.9892696142196655
,canine,0.9860073328018188
,portrait,0.9851371645927429
,mammal,0.9812099933624268
,sleepy,0.980684757232666
,reclining,0.9768277406692505
,one,0.976361095905304
,people,0.9572691917419434
,nude,0.9547045230865479
,pillow,0.948615550994873
,puppy,0.9449723958969116
,pet,0.9446693658828735
,cover,0.9414441585540771
,fatigue,0.9401859045028687
,baby,0.9198147058486938
,siesta,0.9127154350280762
,sadness,0.9087660312652588
https://scontent.cdninstagram.com/t51.2885-15/e35/12357742_793163807472890_1224561800_n.jpg,page,0.9921885132789612
,template,0.9903759956359863
,label,0.9864269495010376
,number,0.9862488508224487
,form,0.9821709394454956
,layout,0.9795929789543152
,presentation,0.9768692255020142
,information,0.9758597612380981
,World Wide Web,0.9515094757080078
,promotion,0.9333409667015076
,business,0.9067913889884949
,order,0.9048200845718384
,data,0.8952324390411377
,booklet,0.8920564651489258
,time,0.8832604885101318
,variation,0.8811700344085693
,sign,0.8734149932861328
,navigation,0.8722227811813354
,stripe,0.8647546768188477
,diagram,0.8561267852783203
https://scontent.cdninstagram.com/t51.2885-15/e35/1171088_838498179612291_329026477_n.jpg,pasta,0.9971518516540527
,food,0.991963803768158
,no person,0.9824510812759399
,dinner,0.980772852897644
,spaghetti,0.9785277843475342
,delicious,0.9767218828201294
,lunch,0.9736975431442261
,cuisine,0.9732451438903809
,nutrition,0.968726634979248
,meal,0.9667206406593323
,macaroni,0.9613802433013916
,cooking,0.9613223075866699
,traditional,0.9605010747909546
,healthy,0.9601137638092041
,noodles,0.956702709197998
,sauce,0.9468306303024292
,dish,0.9418965578079224
,hot,0.9399005174636841
,closeup,0.9346057176589966
,vegetable,0.926177978515625
https://scontent.cdninstagram.com/t51.2885-15/e35/12393883_940714089338005_1656822126_n.jpg,food,0.9992265701293945
,meal,0.9942421913146973
,fish,0.9941596984863281
,seafood,0.9934893846511841
,no person,0.9928624629974365
,dinner,0.9902982115745544
,restaurant,0.9846230149269104
,plate,0.9845553040504456
,meat,0.9839006662368774
,dish,0.9807530045509338
,lunch,0.9793290495872498
,rice,0.976085364818573
,tableware,0.962568998336792
,dining,0.9586915373802185
,vegetable,0.9565961360931396
,grow,0.9526664018630981
,cooking,0.9510918855667114
,delicious,0.9484491348266602
,chicken,0.936301589012146
,cuisine,0.9304401278495789
https://scontent.cdninstagram.com/t51.2885-15/e35/13099110_696140760524328_591665477_n.jpg,food,0.9963630437850952
,meal,0.9839650392532349
,egg,0.9828879833221436
,no person,0.9828152656555176
,breakfast,0.975674569606781
,dish,0.9734935760498047
,rice,0.9674118757247925
,cooking,0.9587159156799316
,plate,0.9579153656959534
,lunch,0.9472357034683228
,dinner,0.9439365267753601
,grow,0.9420924186706543
,frying pan,0.9322582483291626
,delicious,0.9204057455062866
,vegetable,0.9108560681343079
,dawn,0.9044343829154968
,cuisine,0.9025254249572754
,meat,0.8940947651863098
,hot,0.8938796520233154
,restaurant,0.8877788186073303
https://scontent.cdninstagram.com/t51.2885-15/e35/13696425_1142738825789029_1875897566_n.jpg,cute,0.9936317205429077
,downy,0.9802080392837524
,little,0.9797979593276978
,cat,0.9791431427001953
,motley,0.9763810634613037
,pet,0.9744688272476196
,animal,0.9702615737915039
,no person,0.9685764908790588
,funny,0.965154767036438
,domestic,0.9592471718788147
,adorable,0.9591439962387085
,toy,0.9537208676338196
,baby,0.9501516819000244
,sleep,0.9451605081558228
,color,0.9430550336837769
,tiny,0.9229388236999512
,child,0.9220193028450012
,fur,0.9208972454071045
,fun,0.9189283847808838
,kitten,0.9172456860542297
https://scontent.cdninstagram.com/t51.2885-15/e35/13108861_941880475926742_1380572876_n.jpg,cake,0.9909569025039673
,delicious,0.987538754940033
,sweet,0.9855153560638428
,food,0.984468936920166
,cream,0.9840055704116821
,no person,0.9817273616790771
,coffee,0.9792625904083252
,sugar,0.9779601097106934
,chocolate,0.9752106666564941
,breakfast,0.9628365635871887
,baking,0.9449142217636108
,pie,0.9371867179870605
,drink,0.9335740208625793
,plate,0.9287254810333252
,pastry,0.9184156656265259
,goody,0.9060143232345581
,cup,0.9059504270553589
,indulgence,0.8930081725120544
,slice,0.8869713544845581
,unhealthy,0.8860095143318176
https://scontent.cdninstagram.com/t51.2885-15/e35/1971489_1492338541075033_1657426798_n.jpg,stock,0.9830882549285889
,street,0.982524037361145
,shopping,0.9765216112136841
,people,0.9648159742355347
,commerce,0.9628468751907349
,market,0.9517567157745361
,city,0.9317833185195923
,bar,0.9083124399185181
,light,0.8857836723327637
,restaurant,0.873083233833313
,group,0.8717095851898193
,evening,0.8497731685638428
,neon,0.831550121307373
,tourist,0.8267519474029541
,travel,0.818305492401123
,lantern,0.7963576912879944
,urban,0.7763862013816833
,music,0.7586379051208496
,alley,0.7448805570602417
,nightlife,0.7441065311431885
https://scontent.cdninstagram.com/t51.2885-15/e35/13118012_1121582991195423_1772272026_n.jpg,food,0.9960245490074158
,dinner,0.9898279905319214
,meal,0.9888145923614502
,cuisine,0.9856112003326416
,dish,0.9846440553665161
,cooking,0.9796496033668518
,healthy,0.9779998660087585
,lunch,0.9777174592018127
,sauce,0.9755042195320129
,delicious,0.974143922328949
,vegetable,0.9697837829589844
,meat,0.966778039932251
,noodles,0.9661751389503479
,plate,0.9661476016044617
,restaurant,0.9590263366699219
,hot,0.9571906328201294
,epicure,0.9571552276611328
,pasta,0.9568589925765991
,traditional,0.95428466796875
,tasty,0.947198748588562
https://scontent.cdninstagram.com/t51.2885-15/e35/10956819_114602182269638_156832284_n.jpg,people,0.9814430475234985
,window,0.9611594676971436
,business,0.9585274457931519
,man,0.9480735063552856
,light,0.9354349374771118
,reflection,0.9186501502990723
,adult,0.9174726009368896
,door,0.916632890701294
,city,0.9149823188781738
,woman,0.901964545249939
,architecture,0.8813809156417847
,office,0.8802553415298462
,wall,0.8736395835876465
,indoors,0.8662595748901367
,glass,0.8653876781463623
,girl,0.8552190065383911
,abstract,0.8525829911231995
,family,0.8517613410949707
,outdoors,0.851722240447998
,recreation,0.8516457676887512
https://scontent.cdninstagram.com/t51.2885-15/e35/13150846_1397778510247712_1667299922_n.jpg,child,0.9995468854904175
,little,0.9754892587661743
,baby,0.9725338220596313
,fun,0.9677901268005371
,cute,0.9668973684310913
,preschool,0.9652228355407715
,girl,0.964905858039856
,education,0.9648483991622925
,people,0.9599384665489197
,toy,0.9592801332473755
,indoors,0.9581259489059448
,youth,0.9381276369094849
,family,0.9359158277511597
,boy,0.9320717453956604
,creativity,0.9319592118263245
,toddler,0.931445837020874
,kindergarten,0.9236526489257812
,room,0.909824013710022
,innocence,0.9096879363059998
,sit,0.8992974758148193
https://scontent.cdninstagram.com/t51.2885-15/e35/10013328_933078216777529_1177724216_n.jpg,Christmas,0.9937794208526611
,celebration,0.971164345741272
,shining,0.9643709659576416
,particle,0.9515180587768555
,science,0.9485671520233154
,bright,0.9453672170639038
,winter,0.9340838193893433
,sphere,0.9291051030158997
,chemistry,0.9232245683670044
,desktop,0.9187855124473572
,atom,0.9128403663635254
,abstract,0.9125790596008301
,illustration,0.9071515798568726
,party,0.9064779877662659
,space,0.9054921269416809
,technology,0.8988147974014282
,light,0.8969050645828247
,hanging,0.8955000042915344
,design,0.8900518417358398
,physics,0.8862738609313965
https://scontent.cdninstagram.com/t51.2885-15/e35/12356480_710736012394739_1281547612_n.jpg,no person,0.9754396677017212
,indoors,0.9724950790405273
,text,0.9493114352226257
,furniture,0.9422330856323242
,shop,0.924397349357605
,stock,0.9230976104736328
,design,0.9164599180221558
,business,0.9039866924285889
,shopping,0.8919053077697754
,religion,0.8914890289306641
,luxury,0.8897749185562134
,decoration,0.8827974796295166
,leather,0.8827344179153442
,travel,0.8734320402145386
,wood,0.8724466562271118
,container,0.8593794107437134
,box,0.8508533835411072
,old,0.8403816819190979
,horizontal,0.8330614566802979
,architecture,0.8296633958816528
https://scontent.cdninstagram.com/t51.2885-15/e35/12362119_1022921597750756_1806257458_n.jpg,transportation system,0.9822125434875488
,car,0.9811998009681702
,bus,0.9796755909919739
,city,0.9413697123527527
,vehicle,0.9381022453308105
,traffic,0.9349715113639832
,street,0.9187896251678467
,industry,0.9184122085571289
,train,0.9173555374145508
,service,0.9119563102722168
,bar,0.9088481664657593
,tube,0.8866668939590454
,station,0.8849911689758301
,no person,0.8785892128944397
,people,0.8784067630767822
,travel,0.84974205493927
,road,0.8433879613876343
,engine,0.8432068824768066
,urban,0.8358283638954163
,railway,0.8335782289505005
https://scontent.cdninstagram.com/t51.2885-15/e35/13102575_1698393853754788_1353991084_n.jpg,bird,0.9950259923934937
,no person,0.992652416229248
,university,0.9726552963256836
,outdoors,0.9616343975067139
,wildlife,0.9592812061309814
,daylight,0.9421932697296143
,travel,0.8878592252731323
,one,0.884143590927124
,city,0.8752017021179199
,animal,0.8691445589065552
,nature,0.8609408140182495
,water,0.8567967414855957
,park,0.8402881622314453
,grass,0.7950870990753174
,sky,0.7926183938980103
,poultry,0.7843132019042969
,urban,0.7543693780899048
,architecture,0.7424025535583496
,side view,0.7339513301849365
,two,0.729436993598938
https://scontent.cdninstagram.com/t51.2885-15/e35/13126704_829471347157509_1236719341_n.jpg,no person,0.963445782661438
,beer,0.9153538942337036
,indoors,0.8978670835494995
,vertical,0.8886849880218506
,wood,0.8855708837509155
,food,0.8713762760162354
,coffee,0.8665461540222168
,traditional,0.8422030210494995
,drink,0.8372300863265991
,elegant,0.8232043385505676
,dawn,0.8225024938583374
,container,0.8199232220649719
,success,0.8184679746627808
,tea,0.8182346820831299
,retro,0.8143605589866638
,ceramic,0.7935327291488647
,art,0.7887042760848999
,breakfast,0.7719858884811401
,money,0.7703678011894226
,health,0.7635871171951294
