url,class,score
https://scontent-sit4-1.cdninstagram.com/t51.2885-15/e35/13741161_827357294066779_1137592906_n.jpg,sketch,0.963011622428894
,paper,0.9583417773246765
,no person,0.9306110739707947
,business,0.9121884107589722
,desktop,0.9008283019065857
,document,0.8835660815238953
,handwriting,0.8491494655609131
,graph,0.8390112519264221
,bird,0.8381540775299072
,nature,0.8378897905349731
,growth,0.8377436399459839
,accomplishment,0.811582624912262
,diagram,0.8095220327377319
,water,0.8044987916946411
,note,0.7884286046028137
,art,0.7879137992858887
,writing,0.7869695425033569
,composition,0.7570751905441284
,sketch,0.7510087490081787
,text,0.7308181524276733
https://scontent-sit4-1.cdninstagram.com/t51.2885-15/e35/13732359_1878502079071650_735808748_n.jpg,group,0.9898102879524231
,people,0.9860247373580933
,portrait,0.9803526401519775
,adult,0.9673399925231934
,music,0.9662843346595764
,facial expression,0.9661478996276855
,woman,0.9618695378303528
,man,0.9618003964424133
,musician,0.9568488597869873
,festival,0.9436864256858826
,wear,0.9345943927764893
,performance,0.9267518520355225
,group,0.9266104698181152
,singer,0.9143142104148865
,recreation,0.9050943851470947
,celebration,0.8890371918678284
,concert,0.8805475831031799
,movie,0.8691474199295044
,party,0.8571953773498535
,three,0.8546187877655029
https://scontent-sit4-1.cdninstagram.com/t51.2885-15/e35/p320x320/13827393_559572270916909_1737683160_n.jpg,people,0.9958108067512512
,portrait,0.992734432220459
,adult,0.9901114702224731
,group,0.9881735444068909
,wear,0.9820464849472046
,woman,0.9756709337234497
,facial expression,0.971611499786377
,festival,0.9689785242080688
,recreation,0.9609030485153198
,music,0.9597018957138062
,man,0.9596449136734009
,singer,0.94294273853302
,actress,0.9343863129615784
,movie,0.9307349920272827
,musician,0.9294675588607788
,performance,0.9146823883056641
,stock,0.9130421876907349
,ceremony,0.9061756134033203
,celebration,0.9021490812301636
,group,0.8889316320419312
https://scontent-sit4-1.cdninstagram.com/t51.2885-15/sh0.08/e35/p750x750/13706805_1157807727602914_332195561_n.jpg,people,0.9789637923240662
,child,0.9784449338912964
,group,0.9716472029685974
,woman,0.9689581394195557
,portrait,0.9626206159591675
,friendship,0.9608277082443237
,group,0.9446501731872559
,togetherness,0.943812370300293
,family,0.9398032426834106
,fun,0.9354723691940308
,laughing,0.93489670753479
,man,0.910580039024353
,boy,0.9091092348098755
,adolescent,0.8977664113044739
,girl,0.8974326252937317
,love,0.8937601447105408
,enjoyment,0.8635749816894531
,four,0.8499006032943726
,music,0.8130152225494385
,boy,0.8083148002624512
https://scontent-sit4-1.cdninstagram.com/t51.2885-15/e35/13712740_1050974684950755_2025069915_n.jpg,glass,0.9941972494125366
,drink,0.9902808666229248
,sweet,0.9725664854049683
,breakfast,0.9678357839584351
,juice,0.9618945121765137
,cold,0.9550193548202515
,refreshment,0.9542931318283081
,no person,0.9540245532989502
,food,0.9476019144058228
,fruit,0.9455215930938721
,ice,0.9406833648681641
,liquid,0.9368188977241516
,delicious,0.9190453886985779
,cup,0.9096189737319946
,healthy,0.8992422819137573
,sugar,0.8920493125915527
,taste,0.8763923645019531
,full,0.8729194402694702
,summer,0.8582825660705566
,hot,0.8505256772041321
https://scontent-sit4-1.cdninstagram.com/t51.2885-15/e35/13827432_268778516837443_1464273913_n.jpg,woman,0.9822269678115845
,drink,0.977542519569397
,portrait,0.9756616353988647
,people,0.9749708771705627
,group,0.9748547077178955
,man,0.9658181071281433
,friendship,0.964895486831665
,happiness,0.9577288627624512
,family,0.9576220512390137
,togetherness,0.9569722414016724
,girl,0.9426464438438416
,fun,0.9403311014175415
,three,0.9325066804885864
,group,0.9314612746238708
,adult,0.931175708770752
,laughing,0.9290199279785156
,child,0.9287412166595459
,enjoyment,0.9213742017745972
,indoors,0.9168503880500793
,outdoors,0.9155941605567932
https://scontent-sit4-1.cdninstagram.com/t51.2885-15/e35/13731366_1104884202913610_69787713_n.jpg,group,0.9711145758628845
,portrait,0.9695515632629395
,child,0.9638875722885132
,people,0.9579680562019348
,friendship,0.9505260586738586
,group,0.9448397159576416
,school,0.9445878267288208
,man,0.9334345459938049
,education,0.898303747177124
,street,0.8942873477935791
,woman,0.8884152173995972
,fun,0.885649561882019
,boy,0.8750342726707458
,family,0.8682732582092285
,girl,0.8673316240310669
,recreation,0.8608357906341553
,adolescent,0.8327121734619141
,happiness,0.8320456743240356
,sport,0.8226741552352905
,outdoors,0.8184682130813599
https://scontent-sit4-1.cdninstagram.com/t51.2885-15/e35/13707059_135975500173836_923013139_n.jpg,school,0.9634530544281006
,education,0.9593284130096436
,competition,0.9481017589569092
,group,0.9333488941192627
,people,0.9289328455924988
,child,0.9207122325897217
,rally,0.9105923175811768
,portrait,0.8944512605667114
,rally,0.88398277759552
,action,0.881951630115509
,soccer,0.8726426362991333
,university,0.8665711879730225
,woman,0.8634271621704102
,motion,0.8435642719268799
,race,0.8150190114974976
,festival,0.8115444779396057
,vehicle,0.8037001490592957
,adult,0.8009593486785889
,sports fan,0.7917752265930176
,football,0.7887864708900452
https://scontent-sit4-1.cdninstagram.com/t51.2885-15/e35/13731159_1672951683030999_1281033599_n.jpg,no person,0.9938843250274658
,food,0.984308123588562
,tableware,0.9643222093582153
,still life,0.9605816602706909
,flatware,0.9557665586471558
,rice,0.9388232231140137
,indoors,0.9376498460769653
,grow,0.9284579753875732
,cutlery,0.9221671223640442
,spoon,0.8983938694000244
,dinner,0.8969842195510864
,fork,0.8911852836608887
,breakfast,0.884813666343689
,wood,0.8829760551452637
,lunch,0.8827400207519531
,cooking,0.8809226751327515
,dawn,0.8790364265441895
,knife,0.8776258826255798
,coffee,0.8769562244415283
,delicious,0.8748881220817566
https://scontent-sit4-1.cdninstagram.com/t51.2885-15/e35/13767680_293768860971989_11534280_n.jpg,woman,0.9928737878799438
,adolescent,0.9819660186767578
,man,0.973405122756958
,child,0.9721857309341431
,togetherness,0.9669684171676636
,family,0.960807204246521
,people,0.959192156791687
,fun,0.948268711566925
,pretty,0.94010329246521
,indoors,0.9377167224884033
,enjoyment,0.9356713891029358
,love,0.9259428381919861
,outdoors,0.8927834630012512
,laughing,0.8896410465240479
,joy,0.8854488730430603
,pride,0.8793032169342041
,student,0.8741286396980286
,friendship,0.873939037322998
,portrait,0.8731821775436401
,young,0.8682500123977661
https://scontent-sit4-1.cdninstagram.com/t51.2885-15/e35/13743439_150741318690947_917305685_n.jpg,portrait,0.9901310205459595
,woman,0.9836593270301819
,people,0.9811925888061523
,child,0.9730345606803894
,girl,0.9696698188781738
,facial expression,0.9613282680511475
,fashion,0.9551873207092285
,wear,0.9441583156585693
,boy,0.9435495138168335
,two,0.9227026700973511
,togetherness,0.9122248291969299
,indoors,0.8925929665565491
,music,0.8854125142097473
,man,0.8750824928283691
,love,0.8696955442428589
,fun,0.8658463358879089
,festival,0.8538897037506104
,adult,0.8527207374572754
,model,0.8491199016571045
,enjoyment,0.8490352034568787
https://scontent-sit4-1.cdninstagram.com/t51.2885-15/e35/13725568_265728950486258_776120829_n.jpg,juice,0.996845543384552
,no person,0.9930814504623413
,breakfast,0.9906147718429565
,drink,0.982973575592041
,milk,0.981925904750824
,orange juice,0.9800457954406738
,health,0.9603641629219055
,delicious,0.9589115381240845
,glass,0.9473810195922852
,nutrition,0.937065839767456
,yogurt,0.9322474002838135
,cold,0.9315438270568848
,tropical,0.9247229099273682
,dawn,0.9229531288146973
,fruit,0.8701674938201904
,juicy,0.8681894540786743
,smoothie,0.866402804851532
,food,0.8508840799331665
,refreshment,0.845697283744812
,ice,0.8393956422805786
https://scontent-sit4-1.cdninstagram.com/t51.2885-15/e35/13774835_649157325236361_1989646333_n.jpg,woman,0.9919518828392029
,portrait,0.9756888151168823
,people,0.9732685089111328
,man,0.9694409370422363
,facial expression,0.9660463333129883
,togetherness,0.9439489245414734
,group,0.924515426158905
,adult,0.9168455004692078
,wear,0.9145838022232056
,adolescent,0.9023268222808838
,friendship,0.8985018730163574
,music,0.8974031209945679
,two,0.8964958786964417
,enjoyment,0.8940294981002808
,child,0.8724350929260254
,recreation,0.8685359358787537
,love,0.8676813840866089
,fun,0.8634203672409058
,indoors,0.8616805672645569
,family,0.8583055734634399
https://scontent-sit4-1.cdninstagram.com/t51.2885-15/s750x750/sh0.08/e35/13743159_309589462722655_15547010_n.jpg,food,0.9915124177932739
,soup,0.9843065738677979
,no person,0.9762194156646729
,traditional,0.9670305848121643
,grow,0.9589478969573975
,hot,0.9522823095321655
,bowl,0.9500833749771118
,lunch,0.9478491544723511
,fish,0.9471908211708069
,dinner,0.9414787292480469
,broth,0.9297770857810974
,dish,0.9135271310806274
,cooking,0.9110146760940552
,delicious,0.9018336534500122
,restaurant,0.8873019814491272
,meat,0.870279848575592
,health,0.8536704778671265
,warmly,0.849244236946106
,wood,0.8371529579162598
,cuisine,0.8309096097946167
https://scontent-sit4-1.cdninstagram.com/t51.2885-15/s750x750/sh0.08/e35/13743439_1125872400793600_1629306178_n.jpg,group,0.990838348865509
,people,0.9865895509719849
,group,0.9731690883636475
,woman,0.9719756245613098
,portrait,0.9683603644371033
,adult,0.9541965126991272
,music,0.9524183869361877
,man,0.948219895362854
,many,0.943084716796875
,performance,0.9300772547721863
,facial expression,0.9299268126487732
,celebration,0.9188072681427002
,wear,0.9064404368400574
,child,0.9006665945053101
,singer,0.8921689987182617
,festival,0.885756254196167
,recreation,0.8855377435684204
,family,0.8808264136314392
,musician,0.8775001764297485
,girl,0.8447113037109375
https://scontent-sit4-1.cdninstagram.com/t51.2885-15/e35/13732238_1403571976323387_1735618505_n.jpg,child,0.9820394515991211
,woman,0.9711591601371765
,facial expression,0.9675347805023193
,portrait,0.9630314111709595
,people,0.9606735110282898
,group,0.9553709030151367
,wear,0.9364354610443115
,indoors,0.9362039566040039
,recreation,0.9262828826904297
,enjoyment,0.9220053553581238
,school,0.9179998636245728
,friendship,0.9085831642150879
,fun,0.9074281454086304
,togetherness,0.8986129760742188
,adolescent,0.8973199129104614
,group,0.892582356929779
,five,0.8921582698822021
,family,0.8882284164428711
,competition,0.8860584497451782
,education,0.8831970691680908
https://scontent-sit4-1.cdninstagram.com/t51.2885-15/e35/13740921_1807474249488747_98424814_n.jpg,woman,0.9654134511947632
,people,0.9447752237319946
,indoors,0.9217325448989868
,child,0.9171479940414429
,education,0.8637048006057739
,enjoyment,0.8451405763626099
,elementary school,0.8449503183364868
,drink,0.8147621750831604
,coffee,0.8131097555160522
,adolescent,0.8118277788162231
,adult,0.789641261100769
,fun,0.7693194150924683
,portrait,0.7560117840766907
,pretty,0.7490156888961792
,horizontal,0.7440979480743408
,text,0.7336320877075195
,cute,0.7245181798934937
,young,0.7209570407867432
,school,0.7055015563964844
,health,0.7013832330703735
https://scontent-sit4-1.cdninstagram.com/t51.2885-15/e35/13745052_1560806097559614_1223717364_n.jpg,people,0.9924043416976929
,woman,0.9906610250473022
,indoors,0.9893749952316284
,portrait,0.9625508785247803
,girl,0.9619641304016113
,wear,0.961063027381897
,adult,0.9465976357460022
,one,0.9431341886520386
,adolescent,0.9366141557693481
,facial expression,0.9336181879043579
,enjoyment,0.8766819834709167
,daylight,0.8530246615409851
,fashion,0.8459112048149109
,child,0.843694806098938
,family,0.8066403269767761
,pretty,0.8061618804931641
,school,0.8015142679214478
,happiness,0.792324423789978
,pride,0.7854267358779907
,looking,0.7720418572425842
https://scontent-sit4-1.cdninstagram.com/t51.2885-15/s750x750/sh0.08/e35/13734351_783652338443702_1761970948_n.jpg,group,0.9919688105583191
,group,0.9766801595687866
,people,0.970308780670166
,child,0.9642120599746704
,fun,0.9573103785514832
,woman,0.9568831324577332
,friendship,0.9437203407287598
,music,0.9329100847244263
,laughing,0.9318382143974304
,portrait,0.9288551807403564
,man,0.923168420791626
,many,0.919546365737915
,festival,0.9184251427650452
,facial expression,0.9137251973152161
,adolescent,0.9109642505645752
,enjoyment,0.8770539164543152
,singer,0.8693207502365112
,girl,0.8633391857147217
,musician,0.8529934883117676
,crowd,0.8406238555908203
https://scontent-sit4-1.cdninstagram.com/t51.2885-15/e35/13734287_331511833903305_1072567086_n.jpg,plate,0.9934775233268738
,food,0.9916772842407227
,delicious,0.9834613800048828
,no person,0.9817379713058472
,dinner,0.9815642833709717
,lunch,0.9804188013076782
,dish,0.9752146601676941
,meal,0.9647814035415649
,vegetable,0.9592289924621582
,epicure,0.9557900428771973
,dining,0.9458391666412354
,cuisine,0.9287322759628296
,nutrition,0.9254845380783081
,cooking,0.9223970770835876
,helping,0.9115305542945862
,restaurant,0.9034363627433777
,appetizer,0.9000433683395386
,grow,0.897436261177063
,healthy,0.8945392370223999
,sauce,0.8918982744216919
https://scontent-sit4-1.cdninstagram.com/t51.2885-15/s750x750/sh0.08/e35/13745156_1142618592427571_1677649483_n.jpg,food,0.9948333501815796
,dinner,0.994572103023529
,meat,0.9921990633010864
,lunch,0.9862948656082153
,dish,0.9823760986328125
,meal,0.9803485870361328
,plate,0.9795660972595215
,delicious,0.9765456914901733
,chicken,0.9748865365982056
,poultry,0.9737464189529419
,sauce,0.9734236001968384
,no person,0.9655952453613281
,cooking,0.9612113237380981
,barbecue,0.9509098529815674
,cuisine,0.9489617347717285
,hot,0.9464218020439148
,duck,0.9441578388214111
,restaurant,0.9440097212791443
,pork,0.9425058364868164
,beef,0.9316672086715698
https://scontent-sit4-1.cdninstagram.com/t51.2885-15/e35/13694481_1769580159953990_1559087353_n.jpg,facial expression,0.9712724089622498
,people,0.9705296754837036
,woman,0.9692850112915039
,child,0.9684978723526001
,portrait,0.9680893421173096
,group,0.9604145288467407
,man,0.9464797377586365
,happiness,0.939245343208313
,togetherness,0.9334794282913208
,boy,0.922438383102417
,enjoyment,0.9208158850669861
,adult,0.9202831983566284
,family,0.9199660420417786
,adolescent,0.9123800992965698
,laughing,0.9022064208984375
,fun,0.8991079926490784
,education,0.8951342701911926
,school,0.8923972845077515
,indoors,0.8644934892654419
,group,0.8563313484191895
https://scontent-sit4-1.cdninstagram.com/t51.2885-15/e35/13597586_523482391171043_443290875_n.jpg,woman,0.9904613494873047
,people,0.9798888564109802
,portrait,0.9443697929382324
,two,0.9299639463424683
,girl,0.9097824692726135
,wear,0.9070816040039062
,three,0.8949683308601379
,child,0.8875889778137207
,adolescent,0.8792064189910889
,enjoyment,0.8779984712600708
,fun,0.8629370927810669
,facial expression,0.861967921257019
,outdoors,0.857714056968689
,adult,0.8576682209968567
,indoors,0.847208559513092
,group,0.835419774055481
,man,0.8338527083396912
,laughing,0.8264468312263489
,togetherness,0.8133753538131714
,family,0.8130067586898804
https://scontent-sit4-1.cdninstagram.com/t51.2885-15/e35/13741400_646314328851742_1114670961_n.jpg,child,0.9971408247947693
,group,0.9947922229766846
,friendship,0.9761484861373901
,boy,0.9705764055252075
,family,0.9613173604011536
,school,0.9599865078926086
,group,0.9530466794967651
,fun,0.9527477025985718
,four,0.9519761204719543
,five,0.9468700885772705
,laughing,0.9431091547012329
,togetherness,0.9418761134147644
,facial expression,0.9415839314460754
,education,0.9312556982040405
,people,0.928541362285614
,portrait,0.9252684116363525
,sibling,0.9235773086547852
,adolescent,0.9184609055519104
,woman,0.9157918691635132
,enjoyment,0.8907566070556641
https://scontent-sit4-1.cdninstagram.com/t51.2885-15/e35/13734515_616883108466588_1260786051_n.jpg,people,0.9876879453659058
,woman,0.9848592281341553
,portrait,0.9847353100776672
,man,0.9710704684257507
,girl,0.9599502086639404
,adult,0.9550601243972778
,wear,0.9542039632797241
,two,0.95109623670578
,indoors,0.9506253004074097
,child,0.9502224326133728
,togetherness,0.9303081631660461
,facial expression,0.9160442352294922
,group,0.8962811231613159
,family,0.8913196921348572
,love,0.8894942998886108
,happiness,0.8868885040283203
,adolescent,0.8696339130401611
,three,0.8687814474105835
,enjoyment,0.8556702136993408
,school,0.8355218768119812
https://scontent-sit4-1.cdninstagram.com/t51.2885-15/e35/13703061_174394166306181_2034020526_n.jpg,people,0.9723179936408997
,coffee,0.9701530933380127
,drink,0.9699610471725464
,woman,0.9568748474121094
,adult,0.899060845375061
,fun,0.8845183849334717
,food,0.8741228580474854
,enjoyment,0.8669554591178894
,milk,0.8476104736328125
,cup,0.8454020023345947
,tea,0.8297209739685059
,indoors,0.8141387701034546
,refreshment,0.7849980592727661
,portrait,0.7689627408981323
,celebration,0.7383944988250732
,adolescent,0.7332391142845154
,young,0.7279374599456787
,child,0.7212482690811157
,pride,0.7160665988922119
,breakfast,0.714253306388855
https://scontent-sit4-1.cdninstagram.com/t51.2885-15/e35/13721121_275611069479154_977274442_n.jpg,facial expression,0.9866405725479126
,woman,0.9864673614501953
,child,0.984239935874939
,people,0.9771454334259033
,enjoyment,0.9770736694335938
,togetherness,0.9767835140228271
,man,0.9682276248931885
,portrait,0.9647862911224365
,group,0.9611320495605469
,family,0.9603396654129028
,boy,0.9542200565338135
,indoors,0.9501891136169434
,adult,0.9396880865097046
,offspring,0.9389053583145142
,three,0.9360908269882202
,happiness,0.9332327842712402
,adolescent,0.9312922954559326
,group,0.9302035570144653
,friendship,0.9290543794631958
,four,0.9271942377090454
https://scontent-sit4-1.cdninstagram.com/t51.2885-15/e35/13715322_117294558712471_1973704068_n.jpg,woman,0.972600519657135
,people,0.9559710025787354
,festival,0.9101502895355225
,rally,0.8977457880973816
,fun,0.8976885080337524
,enjoyment,0.8915163278579712
,portrait,0.8865939378738403
,rally,0.8845199346542358
,child,0.8602222800254822
,pride,0.7919450998306274
,outdoors,0.7903183698654175
,celebration,0.7861694097518921
,family,0.7716923952102661
,wear,0.7541786432266235
,sports fan,0.7461960315704346
,rebellion,0.7450437545776367
,music,0.7410463094711304
,leisure,0.7377612590789795
,man,0.7372084856033325
,girl,0.7295179963111877
https://scontent-sit4-1.cdninstagram.com/t51.2885-15/e35/13671700_1205432006187768_596373243_n.jpg,people,0.9909250140190125
,woman,0.9839407205581665
,portrait,0.9603121876716614
,wear,0.9449394941329956
,indoors,0.939932107925415
,one,0.926068902015686
,adult,0.9177111387252808
,festival,0.8991234302520752
,fashion,0.8800877332687378
,healthcare,0.8642139434814453
,competition,0.8611710071563721
,kimono,0.856652557849884
,pretty,0.8524574041366577
,adolescent,0.8330218195915222
,man,0.8299289345741272
,stock,0.8215730786323547
,exhibition,0.8181198835372925
,girl,0.814616322517395
,geisha,0.805769681930542
,looking,0.8036824464797974
https://scontent-sit4-1.cdninstagram.com/t51.2885-15/e35/13712345_574870289351637_1920661479_n.jpg,group,0.9960600137710571
,group,0.9834913611412048
,people,0.9810051918029785
,portrait,0.9714414477348328
,friendship,0.96861732006073
,woman,0.9652726650238037
,child,0.9567029476165771
,facial expression,0.9417225122451782
,man,0.9373748302459717
,music,0.9363481998443604
,adolescent,0.9199738502502441
,festival,0.9144135117530823
,fun,0.9127885103225708
,many,0.9075480699539185
,girl,0.9066320657730103
,youth,0.9007776379585266
,adult,0.8899612426757812
,laughing,0.8766379356384277
,school,0.8626099824905396
,boy,0.8345001935958862
https://scontent-sit4-1.cdninstagram.com/t51.2885-15/e35/13696897_277812412595112_509502009_n.jpg,school,0.9532420039176941
,education,0.9492237567901611
,people,0.9398616552352905
,indoors,0.9368244409561157
,woman,0.9168229103088379
,man,0.8984255194664001
,competition,0.8935571908950806
,child,0.8807257413864136
,portrait,0.867051899433136
,boy,0.8457037210464478
,skill,0.8248916864395142
,adult,0.8169903755187988
,game,0.7962288856506348
,soccer,0.7843477725982666
,recreation,0.7838608622550964
,wear,0.7671208381652832
,enjoyment,0.7524974346160889
,pride,0.7309496402740479
,ball,0.7304056882858276
,elementary school,0.7294873595237732
https://scontent-sit4-1.cdninstagram.com/t51.2885-15/e35/13743263_1764956083747896_363612649_n.jpg,child,0.9903016090393066
,people,0.9872308969497681
,woman,0.9845677614212036
,two,0.9765521287918091
,girl,0.9714019298553467
,fun,0.9701364040374756
,leisure,0.9628154039382935
,togetherness,0.9581891298294067
,enjoyment,0.9547703266143799
,happiness,0.9540444612503052
,boy,0.9488967657089233
,portrait,0.9431445598602295
,family,0.9422633647918701
,facial expression,0.9372199773788452
,lifestyle,0.9162692427635193
,cute,0.9158661961555481
,wear,0.9153302907943726
,boy,0.9065425395965576
,adolescent,0.90598464012146
,adult,0.9056038856506348
https://scontent-sit4-1.cdninstagram.com/t51.2885-15/e35/13744027_152487215156180_1072769731_n.jpg,woman,0.9718787670135498
,people,0.9447546601295471
,togetherness,0.9428369402885437
,enjoyment,0.9360566735267639
,child,0.9308570623397827
,indoors,0.9142328500747681
,fun,0.9123302698135376
,pride,0.8871555328369141
,family,0.879571795463562
,man,0.8778834939002991
,shopping,0.8739473819732666
,friendship,0.8720589280128479
,adolescent,0.8680130243301392
,wear,0.8642557859420776
,portrait,0.8557994961738586
,laughing,0.8434487581253052
,festival,0.7998617887496948
,outdoors,0.7815083861351013
,fashion,0.7723218202590942
,multicultural,0.7719873785972595
https://scontent-sit4-1.cdninstagram.com/t51.2885-15/s750x750/sh0.08/e35/13774365_305339643133141_1958159523_n.jpg,group,0.9952933192253113
,group,0.9875019788742065
,people,0.9831300377845764
,portrait,0.9625146985054016
,many,0.9623216390609741
,music,0.9611508846282959
,man,0.9569651484489441
,competition,0.9482210874557495
,woman,0.9421646595001221
,crowd,0.9324424266815186
,facial expression,0.9321616888046265
,sports fan,0.9270833730697632
,recreation,0.9230097532272339
,band,0.9150922894477844
,performance,0.9136266708374023
,family,0.9114329814910889
,adult,0.910354495048523
,musician,0.9076811075210571
,singer,0.9013501405715942
,festival,0.8937692046165466
https://scontent-sit4-1.cdninstagram.com/t51.2885-15/e35/13722142_289452208112667_1296931952_n.jpg,woman,0.9947421550750732
,indoors,0.9818044900894165
,togetherness,0.9703478813171387
,portrait,0.9618160724639893
,friendship,0.9598979949951172
,people,0.9517518281936646
,adolescent,0.9495447874069214
,facial expression,0.9494409561157227
,enjoyment,0.9396100044250488
,man,0.9352914094924927
,family,0.9335511326789856
,fun,0.9330570697784424
,laughing,0.9264026880264282
,love,0.9132475852966309
,girl,0.9024807214736938
,wear,0.8887985944747925
,leisure,0.8734170198440552
,fashion,0.872126579284668
,child,0.8688928484916687
,multicultural,0.865268886089325
https://scontent-sit4-1.cdninstagram.com/t51.2885-15/e35/13712359_164273687315549_2071121187_n.jpg,business,0.9639572501182556
,paper,0.9631884098052979
,money,0.9490047693252563
,no person,0.9355742931365967
,finance,0.927309513092041
,text,0.9107742309570312
,money,0.8954935073852539
,sign,0.8734886050224304
,success,0.8534270524978638
,desktop,0.850121796131134
,commerce,0.8365089893341064
,shopping,0.8284614086151123
,financial,0.8215430974960327
,wealth,0.8156594038009644
,card,0.8141796588897705
,savings,0.8028547167778015
,number,0.7925398349761963
,illustration,0.7857399582862854
,note,0.7819143533706665
,symbol,0.7814654111862183
https://scontent-sit4-1.cdninstagram.com/t51.2885-15/e35/13714136_904362379692675_315936015_n.jpg,people,0.9921429753303528
,adult,0.966144323348999
,woman,0.9646822214126587
,indoors,0.9312168955802917
,stock,0.9229822158813477
,portrait,0.9141241312026978
,wear,0.9105113744735718
,girl,0.891103208065033
,one,0.8788200616836548
,brunette,0.8703360557556152
,family,0.866743803024292
,education,0.8659656047821045
,commerce,0.8561644554138184
,vehicle,0.8556506633758545
,facial expression,0.8203614950180054
,technology,0.7989654541015625
,fame,0.7851390838623047
,festival,0.7844979763031006
,enjoyment,0.7834768295288086
,school,0.7597233057022095
https://scontent-sit4-1.cdninstagram.com/t51.2885-15/e35/13724721_635125479987797_696029911_n.jpg,no person,0.9949668645858765
,food,0.9808738231658936
,delicious,0.9805361032485962
,knife,0.9682151079177856
,dinner,0.9645448923110962
,lunch,0.9608573317527771
,health,0.9378607273101807
,ingredients,0.9336262345314026
,cooking,0.9225242137908936
,breakfast,0.9167802333831787
,traditional,0.9075785279273987
,meal,0.9071269035339355
,taste,0.901935338973999
,ready,0.9008071422576904
,nutrition,0.9005593061447144
,pork,0.9003719091415405
,plate,0.8966228365898132
,indoors,0.8832989931106567
,leaf,0.8576003313064575
,vegetable,0.8463530540466309
https://scontent-sit4-1.cdninstagram.com/t51.2885-15/e35/13768207_330008814053260_836449628_n.jpg,group,0.9904471039772034
,people,0.9897331595420837
,woman,0.9829123020172119
,man,0.9721245765686035
,friendship,0.9719605445861816
,portrait,0.9426926970481873
,music,0.9406304359436035
,family,0.9400889873504639
,group,0.9397392272949219
,adult,0.9351751804351807
,young,0.9193477630615234
,party,0.9124130010604858
,band,0.9084841012954712
,performance,0.9055715203285217
,fun,0.9030439853668213
,musician,0.8896369934082031
,indoors,0.8699628114700317
,nightlife,0.8683519959449768
,event,0.8661948442459106
,singer,0.8635817766189575
https://scontent-sit4-1.cdninstagram.com/t51.2885-15/e35/13768127_927492550693073_1035885119_n.jpg,festival,0.9666182398796082
,people,0.9588427543640137
,rally,0.9306990504264832
,crowd,0.9297876954078674
,motion,0.9157891273498535
,rally,0.9134610295295715
,sports fan,0.9124521017074585
,competition,0.9106401205062866
,school,0.906546950340271
,education,0.8950942754745483
,many,0.8949847221374512
,woman,0.8834325075149536
,man,0.8682679533958435
,pride,0.8641331195831299
,city,0.8561379909515381
,police,0.8555823564529419
,street,0.855443000793457
,marathon,0.8529689311981201
,International,0.8515785932540894
,group,0.8501609563827515
https://scontent-sit4-1.cdninstagram.com/t51.2885-15/e35/13704272_1700969836833404_1532468994_n.jpg,woman,0.9752145409584045
,indoors,0.937491774559021
,coffee,0.9041038751602173
,enjoyment,0.9019680023193359
,people,0.8971266746520996
,cooking,0.8886286020278931
,family,0.8848755359649658
,fun,0.873846709728241
,young,0.8724914789199829
,food,0.8640036582946777
,man,0.8592526912689209
,lifestyle,0.8024870157241821
,pretty,0.7994405031204224
,knife,0.7886166572570801
,togetherness,0.7825832962989807
,sit,0.7739777565002441
,love,0.7600005865097046
,casual,0.7497485280036926
,breakfast,0.7445822954177856
,restaurant,0.7431735396385193
https://scontent-sit4-1.cdninstagram.com/t51.2885-15/e35/13722194_607014362807104_988871565_n.jpg,people,0.9818814992904663
,woman,0.9803915023803711
,child,0.9594346880912781
,togetherness,0.9516348838806152
,man,0.9485260248184204
,group,0.9471808671951294
,wear,0.9441049098968506
,enjoyment,0.929570198059082
,portrait,0.9256676435470581
,facial expression,0.9226047992706299
,family,0.8927757740020752
,shopping,0.8855428695678711
,indoors,0.8791157603263855
,fun,0.8759090900421143
,happiness,0.8726412057876587
,girl,0.8706011772155762
,two,0.8479230403900146
,pride,0.8459435701370239
,friendship,0.8209398984909058
,three,0.8156337141990662
https://scontent-sit4-1.cdninstagram.com/t51.2885-15/e35/13704205_1163149467075920_494763524_n.jpg,woman,0.9833158254623413
,people,0.970628023147583
,man,0.9690183401107788
,indoors,0.9661209583282471
,togetherness,0.9630832076072693
,family,0.957332968711853
,drink,0.9501851201057434
,enjoyment,0.9227922558784485
,fun,0.8973543643951416
,friendship,0.8964365720748901
,coffee,0.882949948310852
,laughing,0.8759896755218506
,portrait,0.8719552755355835
,recreation,0.8702613711357117
,beer,0.8600150346755981
,adult,0.8539750576019287
,wine,0.8406975269317627
,outdoors,0.8381893634796143
,cooking,0.8295130729675293
,love,0.8292218446731567
https://scontent-sit4-1.cdninstagram.com/t51.2885-15/e35/13724489_203338076736098_1842043325_n.jpg,child,0.995165228843689
,people,0.9759296774864197
,fun,0.9712992906570435
,togetherness,0.9624899625778198
,enjoyment,0.957919716835022
,family,0.9508625268936157
,happiness,0.9487117528915405
,outdoors,0.9454878568649292
,friendship,0.9307191967964172
,group,0.9173390865325928
,woman,0.9102545976638794
,laughing,0.9060406684875488
,education,0.9031425714492798
,girl,0.8955382108688354
,portrait,0.8860998153686523
,school,0.8822394609451294
,boy,0.8758221864700317
,joy,0.8716899752616882
,boy,0.8496764302253723
,youth,0.845409631729126
https://scontent-sit4-1.cdninstagram.com/t51.2885-15/e35/13774390_1283394868338088_753786483_n.jpg,label,0.9880114793777466
,template,0.9851536750793457
,number,0.9832303524017334
,layout,0.9793511033058167
,navigation,0.9767454862594604
,World Wide Web,0.9687223434448242
,banner,0.9667588472366333
,tag,0.9494509696960449
,page,0.9384483695030212
,vector,0.9360083341598511
,information,0.9351054430007935
,business,0.9194263219833374
,presentation,0.9139007329940796
,form,0.9102665185928345
,stripe,0.8687123656272888
,booklet,0.8611881732940674
,variation,0.8588858842849731
,arrow,0.845641016960144
,site,0.8456185460090637
,promotion,0.8453114032745361
https://scontent-sit4-1.cdninstagram.com/t51.2885-15/e35/13703046_1144300282296305_218293047_n.jpg,friendship,0.9870194792747498
,woman,0.9623854160308838
,fun,0.9602047204971313
,people,0.9462611675262451
,togetherness,0.9461538791656494
,drink,0.9416364431381226
,child,0.9301841855049133
,enjoyment,0.928942084312439
,group,0.91651451587677
,man,0.9057946801185608
,recreation,0.90489661693573
,beer,0.904228687286377
,outdoors,0.8980172872543335
,family,0.8811806440353394
,laughing,0.8792718648910522
,leisure,0.8712702393531799
,group,0.8562332391738892
,celebration,0.8558136224746704
,festival,0.846396803855896
,young,0.8392108678817749
https://scontent-sit4-1.cdninstagram.com/t51.2885-15/e35/13658308_659569397531505_1768651777_n.jpg,people,0.9648771286010742
,woman,0.9486887454986572
,man,0.9252355098724365
,family,0.9198848009109497
,indoors,0.9102849960327148
,togetherness,0.89417964220047
,festival,0.8754920959472656
,recreation,0.8730891346931458
,enjoyment,0.8571448922157288
,portrait,0.8567619323730469
,group,0.8411457538604736
,celebration,0.8002173900604248
,music,0.7991652488708496
,fun,0.7794439792633057
,laughing,0.7765357494354248
,four,0.7757351398468018
,stock,0.7752833366394043
,child,0.7711089849472046
,three,0.7704845666885376
,cooking,0.7681477665901184
https://scontent-sit4-1.cdninstagram.com/t51.2885-15/e35/13651856_968816459894369_335572724_n.jpg,man,0.9784835577011108
,woman,0.9778390526771545
,people,0.9683922529220581
,healthcare,0.9639101028442383
,togetherness,0.9193536639213562
,enjoyment,0.9167340993881226
,facial expression,0.9098919034004211
,exercise,0.8983199596405029
,adult,0.8969298601150513
,health,0.8935810327529907
,outdoors,0.8922465443611145
,wear,0.8915178775787354
,group,0.8858224153518677
,pride,0.8541909456253052
,recreation,0.8496198654174805
,child,0.8495230078697205
,fun,0.8393051624298096
,group,0.8333831429481506
,friendship,0.810463547706604
,family,0.8077666759490967
