url,class,score
https://scontent-sit4-1.cdninstagram.com/t51.2885-15/e35/13694830_645218248966615_71042827_n.jpg,sky,0.9926507472991943
,reflection,0.9892934560775757
,landscape,0.9888490438461304
,water,0.9862316846847534
,nature,0.9838786125183105
,sunset,0.9815397262573242
,lake,0.9779436588287354
,sea,0.9660446643829346
,beach,0.9604597091674805
,travel,0.958974301815033
,river,0.958038330078125
,dawn,0.9565517902374268
,cloud,0.9521316289901733
,ocean,0.9450704455375671
,mountain,0.9381821155548096
,light,0.9349557757377625
,bridge,0.9303122162818909
,sun,0.9237866401672363
,tree,0.9147289991378784
,summer,0.9085304141044617
https://scontent-sit4-1.cdninstagram.com/t51.2885-15/s640x640/sh0.08/e35/1170140_203070170038072_1401887712_n.jpg,food,0.9944299459457397
,delicious,0.9786273837089539
,sweet,0.9681907892227173
,plate,0.9674890041351318
,meal,0.9637471437454224
,tasty,0.9627630710601807
,refreshment,0.9626100063323975
,cream,0.9617820978164673
,breakfast,0.9556841254234314
,pastry,0.953378438949585
,no person,0.9511523246765137
,lunch,0.9478152990341187
,dinner,0.9400574564933777
,cake,0.9312385320663452
,dish,0.9251748919487
,sugar,0.92165607213974
,bread,0.9191624522209167
,epicure,0.9190773963928223
,homemade,0.9152145385742188
,nutrition,0.9106156826019287
https://scontent-sit4-1.cdninstagram.com/t51.2885-15/s640x640/sh0.08/e35/10584626_1525789411047267_598704587_n.jpg,woman,0.987208366394043
,restaurant,0.9796853065490723
,table,0.9787026047706604
,indoors,0.97479248046875
,man,0.9734537601470947
,group,0.9730117321014404
,togetherness,0.9692987203598022
,meal,0.9656646251678467
,family,0.9535490870475769
,people,0.9520397782325745
,dining,0.9492876529693604
,enjoyment,0.9478154182434082
,four,0.9460219144821167
,lunch,0.9447692632675171
,group,0.9380009174346924
,room,0.9376653432846069
,friendship,0.9313614964485168
,adult,0.9248273372650146
,laughing,0.9228873252868652
,furniture,0.9226902723312378
https://scontent-sit4-1.cdninstagram.com/t51.2885-15/e35/12599377_1576345792651284_735913896_n.jpg,food,0.9923377633094788
,plate,0.972061276435852
,dinner,0.9716795682907104
,meal,0.9621930718421936
,delicious,0.9598117470741272
,no person,0.951018750667572
,vegetable,0.9498834609985352
,dish,0.9432908296585083
,cuisine,0.9378259181976318
,lunch,0.931167483329773
,restaurant,0.9233527183532715
,cooking,0.9224750995635986
,sauce,0.9046708345413208
,epicure,0.9021004438400269
,meat,0.8969627618789673
,healthy,0.8589057922363281
,grow,0.8443541526794434
,tasty,0.8415007591247559
,bowl,0.8400391936302185
,health,0.8311030864715576
https://scontent-sit4-1.cdninstagram.com/t51.2885-15/e35/13266660_479552912251904_400818961_n.jpg,sky,0.9923060536384583
,outdoors,0.9903042316436768
,cloud,0.989997148513794
,nature,0.9787125587463379
,fair weather,0.9705521464347839
,sunset,0.9678350687026978
,horizontal,0.9634326696395874
,sun,0.9561550617218018
,dusk,0.9520334601402283
,weather,0.9352331161499023
,bright,0.92464280128479
,cloudscape,0.9237045049667358
,landscape,0.9097830057144165
,quiet,0.9092368483543396
,dawn,0.9030840396881104
,light,0.8994299173355103
,silhouette,0.8544538021087646
,sunny,0.8488435745239258
,reflection,0.846889078617096
,dark,0.8409075736999512
https://scontent-sit4-1.cdninstagram.com/t51.2885-15/s750x750/sh0.08/e35/13256680_643828872446214_1423001473_n.jpg,woman,0.9921727180480957
,adult,0.9878692030906677
,man,0.9874135255813599
,people,0.9840350151062012
,two,0.979081928730011
,facial expression,0.9786608815193176
,indoors,0.976571798324585
,togetherness,0.9759884476661682
,love,0.9724023342132568
,happiness,0.9669632911682129
,wear,0.9628139734268188
,romance,0.9535937309265137
,enjoyment,0.9498675465583801
,affection,0.9163330793380737
,family,0.9126812219619751
,interaction,0.9070158004760742
,connection,0.877868115901947
,room,0.874520480632782
,satisfaction,0.8547787070274353
,leisure,0.849380612373352
https://scontent-sit4-1.cdninstagram.com/t51.2885-15/s640x640/sh0.08/e35/13118274_1729081060687549_2057189025_n.jpg,food,0.9974441528320312
,dinner,0.984597384929657
,meal,0.983759343624115
,dish,0.9815811514854431
,cuisine,0.9767675995826721
,vegetable,0.9766067266464233
,lunch,0.9760063886642456
,plate,0.9733922481536865
,bowl,0.973292887210846
,sauce,0.9732725620269775
,meat,0.9680393934249878
,delicious,0.9640860557556152
,chili,0.9635196924209595
,hot,0.958297848701477
,cooking,0.9572501182556152
,pepper,0.9559231400489807
,tasty,0.9521608352661133
,healthy,0.949116587638855
,epicure,0.9469693899154663
,curry,0.9333758354187012
https://scontent-sit4-1.cdninstagram.com/t51.2885-15/e35/13166786_256951077991887_1804535933_n.jpg,business,0.9937946796417236
,money,0.9855709671974182
,money,0.9801706075668335
,vertical,0.9786007404327393
,finance,0.9769260883331299
,wealth,0.9544217586517334
,indoors,0.9510451555252075
,economy,0.9241882562637329
,spherical,0.9129387736320496
,financial,0.8803187012672424
,wood,0.8719874620437622
,horizontal,0.8708370923995972
,still life,0.8661203384399414
,no person,0.8611598014831543
,change,0.8534045219421387
,technology,0.8504985570907593
,cash,0.8468711972236633
,savings,0.8357759714126587
,communication,0.8321138620376587
,finance,0.8305521011352539
https://scontent-sit4-1.cdninstagram.com/t51.2885-15/sh0.08/e35/p750x750/13774402_1662546024066729_1653638466_n.jpg,child,0.999654233455658
,boy,0.997084379196167
,baby,0.9936532974243164
,family,0.9935740232467651
,love,0.9908698201179504
,togetherness,0.9852731227874756
,cute,0.9802285432815552
,indoors,0.9791727066040039
,two,0.9778734445571899
,girl,0.9764336943626404
,people,0.9748412370681763
,facial expression,0.9688947200775146
,offspring,0.9677252769470215
,innocence,0.96410071849823
,little,0.9640381932258606
,maternity,0.9620988965034485
,fun,0.9596760272979736
,affection,0.9523977041244507
,toddler,0.929963231086731
,room,0.9115382432937622
https://scontent-sit4-1.cdninstagram.com/t51.2885-15/e35/13102559_1677672499164766_1609873469_n.jpg,nature,0.9588294625282288
,flower,0.9562486410140991
,flora,0.9554464817047119
,outdoors,0.9531396627426147
,horizontal,0.948739230632782
,no person,0.9354585409164429
,flower head,0.9310826063156128
,vertical,0.9293178915977478
,bright,0.9184187054634094
,fragility,0.896213173866272
,freshness,0.8832317590713501
,growth,0.8755300045013428
,summer,0.8736101388931274
,petal,0.8717702627182007
,leaf,0.8670204877853394
,dandelion,0.8186960220336914
,pollen,0.770991861820221
,fair weather,0.7572768926620483
,springtime,0.7284631729125977
,focus,0.7026358842849731
https://scontent-sit4-1.cdninstagram.com/t51.2885-15/e35/12328403_233556203662475_585627245_n.jpg,food,0.9820414781570435
,chocolate,0.9769827127456665
,no person,0.9716669917106628
,sweet,0.9661182165145874
,coffee,0.9412939548492432
,delicious,0.9364001750946045
,sugar,0.9277522563934326
,cream,0.9216047525405884
,milk,0.901115894317627
,cake,0.897587239742279
,drink,0.8910293579101562
,plate,0.8869967460632324
,hot,0.8814541101455688
,traditional,0.8755048513412476
,wood,0.8754382133483887
,table,0.8697795867919922
,paper,0.8485382795333862
,refreshment,0.8418930172920227
,epicure,0.8370999693870544
,creamy,0.8361493945121765
https://scontent-sit4-1.cdninstagram.com/t51.2885-15/e35/12728527_1557179501261719_123886991_n.jpg,love,0.9898335933685303
,woman,0.9877197742462158
,romance,0.981438398361206
,togetherness,0.9739245772361755
,people,0.9728624820709229
,birthday,0.9682658910751343
,fun,0.944851279258728
,gift,0.9422757029533386
,child,0.9385286569595337
,man,0.9363558292388916
,celebration,0.9301152229309082
,adult,0.9236317873001099
,family,0.9235482215881348
,couple,0.9187698364257812
,friendship,0.9149808883666992
,two,0.9109821319580078
,girl,0.8983620405197144
,flower,0.8913674354553223
,recreation,0.8861331343650818
,fashion,0.8837858438491821
https://scontent-sit4-1.cdninstagram.com/t51.2885-15/sh0.08/e35/p750x750/12749821_961364710611919_294952154_n.jpg,food,0.9903469681739807
,no person,0.9820783138275146
,indoors,0.9236345291137695
,bowl,0.9191187620162964
,plate,0.9158388376235962
,meal,0.9008125066757202
,vegetable,0.8901693224906921
,refreshment,0.8831609487533569
,cooking,0.8784898519515991
,horizontal,0.8642317056655884
,dish,0.863808274269104
,variation,0.863219141960144
,freshness,0.8585342168807983
,tray,0.8536080121994019
,table,0.841059684753418
,kind,0.8357982635498047
,still life,0.8341232538223267
,delicious,0.8340867757797241
,traditional,0.8338279724121094
,health,0.8253700137138367
https://scontent-sit4-1.cdninstagram.com/t51.2885-15/e35/12534644_1030763900329336_1924815766_n.jpg,people,0.9869694709777832
,woman,0.9857730269432068
,family,0.9726965427398682
,girl,0.9657827019691467
,group,0.9640874862670898
,adult,0.9522769451141357
,wear,0.9487940073013306
,portrait,0.9325672388076782
,facial expression,0.926990807056427
,dress,0.9100661277770996
,happiness,0.9100140333175659
,indoors,0.9004103541374207
,child,0.867412805557251
,two,0.8462105989456177
,room,0.8452475070953369
,fashion,0.8451539278030396
,actress,0.8404667973518372
,friendship,0.8318408131599426
,enjoyment,0.8239725232124329
,festival,0.8201466798782349
https://scontent-sit4-1.cdninstagram.com/t51.2885-15/sh0.08/e35/p750x750/12959902_230796867281011_702726134_n.jpg,woman,0.9883971810340881
,togetherness,0.9849182367324829
,friendship,0.9715683460235596
,fun,0.9641226530075073
,laughing,0.9628208875656128
,adolescent,0.9589760303497314
,people,0.9565143585205078
,student,0.9407843947410583
,child,0.9357290267944336
,joy,0.9293121099472046
,enjoyment,0.9288495779037476
,portrait,0.9277558922767639
,group,0.9240818023681641
,facial expression,0.9176029562950134
,indoors,0.8960962891578674
,man,0.8872449398040771
,multicultural,0.8825668096542358
,four,0.8620572686195374
,love,0.8519455194473267
,family,0.8322407603263855
https://scontent-sit4-1.cdninstagram.com/t51.2885-15/e35/12383646_789254197871311_2117074790_n.jpg,no person,0.9988293051719666
,hoggish,0.9959192276000977
,savings,0.9945096969604492
,toy,0.978478193283081
,child,0.9740468263626099
,still life,0.9738368988037109
,wealth,0.973568320274353
,dairy product,0.9559589624404907
,one,0.9496026039123535
,stacks,0.9401925206184387
,money,0.9347262978553772
,grow,0.9179636240005493
,cookie,0.9171902537345886
,food,0.9130919575691223
,bank,0.9111396074295044
,little,0.9103426933288574
,sugar,0.9101563692092896
,three,0.9088267087936401
,family,0.9024077653884888
,sweet,0.902402400970459
https://scontent-sit4-1.cdninstagram.com/t51.2885-15/e35/12912680_1188394694545769_217162410_n.jpg,food,0.9897376298904419
,no person,0.9782182574272156
,traditional,0.9763296842575073
,dinner,0.9726797342300415
,cooking,0.9721061587333679
,meal,0.9662399291992188
,lunch,0.9652564525604248
,delicious,0.9611424207687378
,dish,0.9509749412536621
,health,0.950882613658905
,cuisine,0.9503973126411438
,hot,0.9499306678771973
,bowl,0.9416263103485107
,nutrition,0.9338586926460266
,plate,0.9338524341583252
,healthy,0.92819744348526
,rice,0.8981759548187256
,sauce,0.8955577611923218
,restaurant,0.8842272758483887
,breakfast,0.8807781338691711
https://scontent-sit4-1.cdninstagram.com/t51.2885-15/e35/12545474_1558694434447341_1363488754_n.jpg,food,0.9959307909011841
,no person,0.9833514094352722
,dinner,0.9748614430427551
,grow,0.9746902585029602
,meal,0.9729053974151611
,vegetable,0.9724712371826172
,dish,0.9724030494689941
,lunch,0.9666943550109863
,meat,0.9526059031486511
,delicious,0.9471564292907715
,plate,0.9387519359588623
,seafood,0.9385901689529419
,fish,0.9346786737442017
,bowl,0.9346346259117126
,soup,0.9211125373840332
,chicken,0.9181886911392212
,cooking,0.9104635715484619
,cuisine,0.9090293645858765
,pork,0.9015411138534546
,restaurant,0.8940929174423218
https://scontent-sit4-1.cdninstagram.com/t51.2885-15/e35/12135167_1717531998531185_348777592_n.jpg,people,0.999130129814148
,two,0.9973264932632446
,man,0.9930917620658875
,woman,0.9924819469451904
,adult,0.9817299842834473
,shadow,0.9754194021224976
,wear,0.9718756675720215
,love,0.95943284034729
,silhouette,0.9587076902389526
,child,0.9391648173332214
,profile,0.9376193881034851
,one,0.9326988458633423
,portrait,0.9262366890907288
,music,0.914027214050293
,recreation,0.9136794805526733
,beach,0.909997820854187
,affection,0.908464252948761
,outdoors,0.9045464992523193
,dancing,0.8867367506027222
,monochrome,0.8859882354736328
https://scontent-sit4-1.cdninstagram.com/t51.2885-15/e35/13113971_945016112283994_1197194315_n.jpg,soup,0.9982343316078186
,food,0.9929172992706299
,no person,0.9905757904052734
,dinner,0.9873354434967041
,bowl,0.9864956140518188
,bread,0.975673258304596
,dish,0.9744702577590942
,vegetable,0.9718987941741943
,grow,0.9677602648735046
,lunch,0.9664485454559326
,creamy,0.9658944606781006
,cooking,0.9657505750656128
,spoon,0.9602448344230652
,appetizer,0.9601651430130005
,root vegetable,0.9583693742752075
,still life,0.9566460847854614
,cream,0.9489409327507019
,hot,0.9440561532974243
,homemade,0.9422736167907715
,flatware,0.9412133693695068
https://scontent-sit4-1.cdninstagram.com/t51.2885-15/e15/13257180_1563558843949236_453806456_n.jpg,performance,0.999747633934021
,concert,0.9997292757034302
,music,0.9996541738510132
,stage,0.9970113039016724
,musician,0.9956525564193726
,festival,0.9950716495513916
,singer,0.9947922825813293
,band,0.9941897988319397
,audience,0.9859331846237183
,party,0.9800625443458557
,light,0.9745137691497803
,pop,0.9706103205680847
,people,0.9605035781860352
,show,0.959500789642334
,celebration,0.9555552005767822
,crowd,0.9510568380355835
,guitarist,0.9467343091964722
,song,0.9112789034843445
,landscape,0.9040080308914185
,group,0.9017819166183472
https://scontent-sit4-1.cdninstagram.com/t51.2885-15/e35/12530942_1246734442021250_548330704_n.jpg,woman,0.9794423580169678
,stock,0.9763497114181519
,people,0.9714552164077759
,shopping,0.9639251232147217
,portrait,0.938391923904419
,shop,0.9317066669464111
,group,0.9170174598693848
,friendship,0.9027746915817261
,fashion,0.8925402164459229
,adult,0.8900773525238037
,happiness,0.8812037110328674
,girl,0.8574494123458862
,wear,0.8563806414604187
,adolescent,0.8549795746803284
,fun,0.8494133949279785
,editorial,0.8388416767120361
,school,0.8376225233078003
,recreation,0.8372193574905396
,festival,0.8303903341293335
,child,0.8276718854904175
https://scontent-sit4-1.cdninstagram.com/t51.2885-15/s640x640/sh0.08/e35/12135168_1072069079554795_982219168_n.jpg,food,0.9941811561584473
,pan,0.9874247312545776
,dinner,0.9872806072235107
,cooking,0.9871683120727539
,no person,0.9849824905395508
,lunch,0.9832168817520142
,delicious,0.9792707562446594
,rice,0.9747161865234375
,traditional,0.9726037979125977
,meal,0.9715923070907593
,meat,0.9704532027244568
,vegetable,0.9609412550926208
,chicken,0.9597779512405396
,frying pan,0.9576907157897949
,dish,0.955024778842926
,hot,0.9521157741546631
,cuisine,0.9461690187454224
,noodles,0.940150260925293
,pork,0.9394038915634155
,pot,0.9234234690666199
https://scontent-sit4-1.cdninstagram.com/t51.2885-15/e35/13181464_864560627023686_544002050_n.jpg,woman,0.9847805500030518
,isolated,0.918979823589325
,skin,0.9108788967132568
,love,0.9064780473709106
,shopping,0.8951137065887451
,no person,0.8945955038070679
,nature,0.8908685445785522
,indoors,0.890699028968811
,health,0.8755254745483398
,vertical,0.8496707677841187
,elegant,0.8495692014694214
,generosity,0.8494435548782349
,sexy,0.8246403932571411
,leaf,0.8216383457183838
,young,0.7995916604995728
,people,0.7807498574256897
,romance,0.7698193788528442
,giving,0.7616208791732788
,fashion,0.7591097354888916
,one,0.7581436634063721
https://scontent-sit4-1.cdninstagram.com/t51.2885-15/e35/12543114_227326857610520_1157249442_n.jpg,people,0.9501523971557617
,woman,0.9386053085327148
,child,0.9369376301765442
,group,0.9299501180648804
,celebration,0.9170848727226257
,family,0.9160268306732178
,man,0.9049988985061646
,fun,0.8844883441925049
,young,0.8824373483657837
,education,0.8778288960456848
,girl,0.8521226048469543
,school,0.8452699184417725
,friendship,0.8426657915115356
,party,0.8375998735427856
,business,0.8321212530136108
,exhibition,0.8039685487747192
,battle,0.7889456152915955
,festival,0.7615053653717041
,competition,0.7545371055603027
,group,0.7525954842567444
https://scontent-sit4-1.cdninstagram.com/t51.2885-15/e35/10731546_1554490211507873_1398999649_n.jpg,woman,0.9916475415229797
,friendship,0.9791133403778076
,people,0.9789395928382874
,group,0.9742064476013184
,young,0.9666575789451599
,man,0.9539878368377686
,togetherness,0.9443103075027466
,fun,0.9395438432693481
,fashion,0.939443051815033
,wedding,0.9357466697692871
,girl,0.9309272766113281
,family,0.9306751489639282
,collage,0.9127539396286011
,child,0.9093526005744934
,love,0.8882617950439453
,dress,0.8841521739959717
,many,0.8767547607421875
,happiness,0.8663063049316406
,smile,0.865218460559845
,portrait,0.860571026802063
https://scontent-sit4-1.cdninstagram.com/t51.2885-15/e35/13102326_274599822877935_2137137020_n.jpg,salmon,0.9943990707397461
,fish,0.9878597855567932
,food,0.9868812561035156
,no person,0.9850443601608276
,delicious,0.9819424748420715
,seafood,0.9817911386489868
,dinner,0.9777038097381592
,lunch,0.9765724539756775
,rice,0.9635408520698547
,sushi,0.9597928524017334
,tuna,0.953071117401123
,caviar,0.9455525875091553
,nutrition,0.9361284971237183
,traditional,0.9319777488708496
,avocado,0.9269508123397827
,epicure,0.9175153970718384
,meal,0.9029711484909058
,breakfast,0.8963909149169922
,cucumber,0.8947509527206421
,slice,0.8840195536613464
https://scontent-sit4-1.cdninstagram.com/t51.2885-15/e35/12547573_137588809956540_491600519_n.jpg,food,0.997199535369873
,no person,0.9940446019172668
,baking,0.9846610426902771
,homemade,0.979261040687561
,delicious,0.9692784547805786
,traditional,0.9668596386909485
,cookie,0.9662593603134155
,sugar,0.9659847021102905
,sweet,0.9652045369148254
,breakfast,0.9569563865661621
,pastry,0.954214334487915
,flour,0.9530454277992249
,dough,0.9518540501594543
,refreshment,0.9499093294143677
,tray,0.9475291967391968
,bakery,0.930150032043457
,cooking,0.9265382289886475
,bread,0.9211113452911377
,table,0.9179366827011108
,dairy product,0.9025905132293701
https://scontent-sit4-1.cdninstagram.com/t51.2885-15/e35/13703127_1040814966009484_1864221787_n.jpg,recreation,0.9753421545028687
,fun,0.9719820618629456
,people,0.9655730128288269
,leisure,0.9551034569740295
,outdoors,0.9547206163406372
,man,0.9538261890411377
,togetherness,0.9493078589439392
,woman,0.9480765461921692
,enjoyment,0.9465518593788147
,child,0.9448034167289734
,competition,0.9440491795539856
,grass,0.9302637577056885
,athlete,0.9298986196517944
,friendship,0.9297469258308411
,ball,0.926626980304718
,happiness,0.9213302135467529
,joy,0.9143587350845337
,adult,0.912401556968689
,exercise,0.9113816022872925
,adolescent,0.9112192392349243
https://scontent-sit4-1.cdninstagram.com/t51.2885-15/e35/12547399_978194222247469_200576689_n.jpg,food,0.9945803880691528
,delicious,0.970394492149353
,no person,0.965417206287384
,cuisine,0.9608789682388306
,dinner,0.9533808827400208
,dish,0.9466568827629089
,meal,0.9445168972015381
,plate,0.9398318529129028
,lunch,0.9375551342964172
,tasty,0.9374780654907227
,traditional,0.9368094205856323
,healthy,0.9339728951454163
,nutrition,0.9267053008079529
,cooking,0.9165314435958862
,epicure,0.9083863496780396
,closeup,0.889468252658844
,refreshment,0.8894331455230713
,vegetable,0.8822033405303955
,diet,0.8817135095596313
,restaurant,0.879580557346344
https://scontent-sit4-1.cdninstagram.com/t51.2885-15/e35/13525507_217352998663691_2081635090_n.jpg,baby,0.9995291233062744
,newborn,0.9984259605407715
,child,0.9983630180358887
,innocence,0.9916528463363647
,boy,0.9915295839309692
,infancy,0.9865647554397583
,people,0.9852724075317383
,portrait,0.9750268459320068
,toddler,0.9740039110183716
,cover,0.9739879369735718
,suckling,0.9736279845237732
,sleep,0.9672073721885681
,birth,0.9609248042106628
,one,0.9562511444091797
,love,0.9561983346939087
,safety,0.9544000029563904
,offspring,0.954393744468689
,indoors,0.9344896674156189
,carriage,0.9340599179267883
,tiny,0.9254676103591919
https://scontent-sit4-1.cdninstagram.com/t51.2885-15/e35/12339010_234692010195427_1586309742_n.jpg,group,0.9984385371208191
,people,0.9935710430145264
,adult,0.9926753044128418
,woman,0.9923360347747803
,wear,0.9913073778152466
,facial expression,0.9890135526657104
,group,0.9821306467056274
,room,0.9751011729240417
,furniture,0.972262978553772
,child,0.9703333377838135
,offspring,0.9689035415649414
,many,0.9651931524276733
,five,0.9627577066421509
,man,0.9563025236129761
,girl,0.9550485014915466
,music,0.9474012851715088
,recreation,0.9467878937721252
,boy,0.9398975372314453
,seat,0.9373911619186401
,family,0.9364916086196899
https://scontent-sit4-1.cdninstagram.com/t51.2885-15/e35/12568066_1731060940463767_470891648_n.jpg,school,0.9936013221740723
,university,0.9921361207962036
,woman,0.9892570972442627
,education,0.9822229146957397
,child,0.9808239936828613
,people,0.9790025949478149
,student,0.978124737739563
,portrait,0.9756790995597839
,group,0.9736815690994263
,graduation,0.9663413763046265
,many,0.9649206399917603
,celebration,0.9567298889160156
,adolescent,0.952042818069458
,college,0.9486151337623596
,girl,0.9458373785018921
,academic,0.9443260431289673
,fashion,0.9386003017425537
,friendship,0.9361988306045532
,festival,0.9218469262123108
,fun,0.8940327167510986
https://scontent-sit4-1.cdninstagram.com/t51.2885-15/e35/13320198_1769175053327784_661237546_n.jpg,food,0.9787260293960571
,sweet,0.9652720093727112
,traditional,0.9648333787918091
,plate,0.9605273008346558
,cake,0.9592992067337036
,delicious,0.9582008123397827
,no person,0.9531751871109009
,candle,0.9450398683547974
,cream,0.9449961185455322
,sugar,0.9315592050552368
,fruit,0.9209865927696228
,chocolate,0.916237473487854
,refreshment,0.9160506129264832
,table,0.9122019410133362
,cup,0.9060731530189514
,candy,0.8730281591415405
,goody,0.8618571162223816
,still life,0.8519188165664673
,strawberry,0.8477884531021118
,celebration,0.8443014025688171
https://scontent-sit4-1.cdninstagram.com/t51.2885-15/e35/13183392_969163369868781_472256616_n.jpg,food,0.9928157329559326
,dinner,0.976778507232666
,meal,0.9760475158691406
,plate,0.974915087223053
,lunch,0.9742733836174011
,no person,0.9668577313423157
,delicious,0.964442253112793
,vegetable,0.955291748046875
,chicken,0.9503141641616821
,meat,0.9490293264389038
,seafood,0.9469395279884338
,parsley,0.9442042112350464
,dish,0.9363565444946289
,epicure,0.9332772493362427
,fish,0.924105703830719
,sauce,0.9093654155731201
,refreshment,0.8971953988075256
,cooking,0.8896807432174683
,nutrition,0.8880448937416077
,bread,0.8866015672683716
https://scontent-sit4-1.cdninstagram.com/t51.2885-15/e35/12558634_1554711101508304_472492086_n.jpg,woman,0.9839133024215698
,child,0.9746495485305786
,people,0.9714428186416626
,group,0.9650975465774536
,adult,0.9526695609092712
,room,0.9405142068862915
,man,0.9355728626251221
,indoors,0.9338810443878174
,togetherness,0.9265984296798706
,happiness,0.8749521970748901
,education,0.8707548975944519
,exhibition,0.868077278137207
,wear,0.8677548170089722
,multicultural,0.8640910387039185
,enjoyment,0.8637316226959229
,facial expression,0.8606426119804382
,friendship,0.8566650152206421
,family,0.8537577390670776
,adolescent,0.852674663066864
,recreation,0.840617299079895
https://scontent-sit4-1.cdninstagram.com/t51.2885-15/e35/12393853_1717729138441321_751290036_n.jpg,people,0.9897924065589905
,woman,0.9858253002166748
,group,0.9645875692367554
,many,0.9634683132171631
,collection,0.9426321983337402
,fashion,0.9389618039131165
,city,0.9388173818588257
,man,0.9289371371269226
,shopping,0.9286679029464722
,street,0.9237965941429138
,adult,0.9180443286895752
,event,0.9064289331436157
,outdoors,0.9061464667320251
,portrait,0.8968479633331299
,young,0.8967814445495605
,person,0.8957086801528931
,exhibition,0.8902783393859863
,show,0.8808766603469849
,stock,0.8761133551597595
,wear,0.8700193762779236
https://scontent-sit4-1.cdninstagram.com/t51.2885-15/e35/12383382_1720442251535539_230067021_n.jpg,portrait,0.9957423210144043
,people,0.9928088188171387
,facial expression,0.9927972555160522
,child,0.9883730411529541
,two,0.9868462085723877
,togetherness,0.9841428995132446
,happiness,0.9797123670578003
,woman,0.9765711426734924
,girl,0.9763674736022949
,friendship,0.9743826389312744
,wear,0.9719773530960083
,interaction,0.9704983830451965
,love,0.9573928117752075
,affection,0.9463068246841431
,family,0.9397710561752319
,youth,0.9391393661499023
,fun,0.9330360889434814
,adult,0.9290658831596375
,adolescent,0.9236893653869629
,man,0.922841489315033
https://scontent-sit4-1.cdninstagram.com/t51.2885-15/e35/13277696_1011863345558008_1779167961_n.jpg,woman,0.9773231744766235
,people,0.972741961479187
,adult,0.964729368686676
,recreation,0.9244133234024048
,fashion,0.9220634698867798
,performance,0.8965173959732056
,party,0.8847264051437378
,wear,0.882843017578125
,indoors,0.8811964392662048
,dancing,0.8605749607086182
,music,0.8558281660079956
,business,0.8512741923332214
,movie,0.8457026481628418
,celebration,0.845284640789032
,horizontal,0.8432872295379639
,portrait,0.8262240886688232
,enjoyment,0.8162188529968262
,stage,0.8120722770690918
,festival,0.8094409108161926
,education,0.8038222789764404
https://scontent-sit4-1.cdninstagram.com/t51.2885-15/e35/12912456_224536494600748_895967446_n.jpg,people,0.911005973815918
,woman,0.8785781264305115
,fashion,0.8569296598434448
,business,0.8563539981842041
,beautiful,0.8522920608520508
,illustration,0.8521333932876587
,person,0.844529390335083
,model,0.8166807889938354
,one,0.7947591543197632
,adult,0.7932522296905518
,girl,0.7897325754165649
,modern,0.7786365747451782
,young,0.7757202982902527
,portrait,0.7751184701919556
,human,0.769862174987793
,fun,0.7491493225097656
,desktop,0.7307609915733337
,wear,0.7291027903556824
,lady,0.7211676836013794
,cute,0.7134169936180115
https://scontent-sit4-1.cdninstagram.com/t51.2885-15/e35/12568987_966850656697041_554139418_n.jpg,food,0.9934617280960083
,meal,0.9773452877998352
,healthy,0.9724776744842529
,cuisine,0.9696333408355713
,dish,0.9687799215316772
,vegetable,0.9502679109573364
,plate,0.9469804167747498
,bowl,0.9450269341468811
,diet,0.9435110092163086
,dinner,0.9418520927429199
,cooking,0.9417514204978943
,restaurant,0.9408707618713379
,table,0.9349336624145508
,lunch,0.9320214986801147
,epicure,0.9267226457595825
,desktop,0.9190754294395447
,hot,0.9188689589500427
,tasty,0.9168343544006348
,delicious,0.9135102033615112
,nutrition,0.9092088937759399
https://scontent-sit4-1.cdninstagram.com/t51.2885-15/e35/12599303_1672247849695380_1096252112_n.jpg,food,0.9947906732559204
,dinner,0.9799224734306335
,lunch,0.9719157218933105
,no person,0.9684078693389893
,meal,0.9671010971069336
,vegetable,0.9603707790374756
,knife,0.9575232863426208
,bread,0.9559358358383179
,delicious,0.9545287489891052
,plate,0.9531546831130981
,dish,0.9464372396469116
,fork,0.9423242807388306
,hot,0.9416018724441528
,cooking,0.9372431039810181
,cheese,0.9360758066177368
,fish,0.9320814609527588
,cuisine,0.9293777942657471
,still life,0.9149490594863892
,homemade,0.907977819442749
,appetizer,0.8989604115486145
https://scontent-sit4-1.cdninstagram.com/t51.2885-15/e35/13129950_1100924799964206_98511014_n.jpg,sponge,0.9940667748451233
,food,0.992486834526062
,no person,0.9912095069885254
,sweet,0.9911843538284302
,cake,0.9906062483787537
,sugar,0.976433515548706
,fruit,0.97612464427948
,pastry,0.9738016724586487
,plate,0.9632546305656433
,delicious,0.9601548314094543
,slice,0.9594104886054993
,cookie,0.9591083526611328
,homemade,0.9582526683807373
,bread,0.9562154412269592
,chocolate,0.9526244401931763
,traditional,0.9523442983627319
,pie,0.9504537582397461
,bakery,0.9385002255439758
,napkin,0.9264600276947021
,indulgence,0.9260730743408203
https://scontent-sit4-1.cdninstagram.com/t51.2885-15/e35/12519542_1005990529475011_1637193454_n.jpg,no person,0.999211847782135
,traditional,0.9949337244033813
,food,0.9903678894042969
,delicious,0.9874571561813354
,homemade,0.9852237701416016
,dough,0.9771631956100464
,bread,0.9738545417785645
,health,0.9692405462265015
,breakfast,0.9632418155670166
,baking,0.9502338767051697
,kind,0.943465530872345
,Easter,0.9409353137016296
,jam,0.93630051612854
,roll,0.9329532384872437
,nutrition,0.9270706176757812
,pastry,0.9135615825653076
,bakery,0.9135235548019409
,bun,0.91058349609375
,refreshment,0.9054202437400818
,round,0.8992331027984619
https://scontent-sit4-1.cdninstagram.com/t51.2885-15/e35/12976395_873341449455356_1196567204_n.jpg,business,0.9710386991500854
,food,0.9679213166236877
,finance,0.9617921113967896
,money,0.9576601982116699
,shopping,0.9510736465454102
,market,0.9498471021652222
,commerce,0.9491302967071533
,bargain,0.9328963756561279
,stock,0.9290906190872192
,sale,0.9246042966842651
,money,0.9207198023796082
,paper,0.9145692586898804
,no person,0.9032617807388306
,desktop,0.8961122035980225
,euro,0.8922363519668579
,cash,0.8903058767318726
,retail,0.8792604804039001
,price,0.8665237426757812
,wealth,0.8664772510528564
,text,0.858816385269165
https://scontent-sit4-1.cdninstagram.com/t51.2885-15/e35/10561157_1712817372285612_2061611238_n.jpg,jewelry,0.9991008043289185
,gold,0.996436595916748
,necklace,0.9934374094009399
,pendant,0.991830587387085
,precious,0.9918166399002075
,luxury,0.990327000617981
,platinum,0.9849832653999329
,shining,0.9824271202087402
,fashion,0.9820200800895691
,gem,0.9819165468215942
,gift,0.9716657400131226
,accessory,0.9716427326202393
,bracelet,0.9711442589759827
,decoration,0.9674534797668457
,band,0.9586993455886841
,brooch,0.9498640894889832
,desktop,0.9475650787353516
,no person,0.9450564384460449
,beads,0.9376137852668762
,wear,0.9233212471008301
https://scontent-sit4-1.cdninstagram.com/t51.2885-15/e35/13277681_1745904039027839_1460593143_n.jpg,people,0.9940478801727295
,child,0.9845466017723083
,woman,0.9830137491226196
,adult,0.9632813930511475
,family,0.9577101469039917
,indoors,0.9555752277374268
,togetherness,0.9503666162490845
,group,0.9412330389022827
,facial expression,0.9380893707275391
,wear,0.9115227460861206
,man,0.900691032409668
,enjoyment,0.8951252698898315
,furniture,0.8881917595863342
,offspring,0.8754913806915283
,two,0.8731703758239746
,daylight,0.8727504014968872
,boy,0.869368851184845
,four,0.868641197681427
,grow,0.8681608438491821
,girl,0.8480690717697144
https://scontent-sit4-1.cdninstagram.com/t51.2885-15/e35/12940069_1042755049094627_2039889524_n.jpg,food,0.9972152709960938
,dinner,0.9892381429672241
,lunch,0.9823538661003113
,meal,0.9815155863761902
,meat,0.9786456823348999
,no person,0.9776215553283691
,delicious,0.9737932682037354
,dish,0.9620314836502075
,chicken,0.9599649906158447
,plate,0.959193229675293
,vegetable,0.9560726881027222
,cooking,0.9451004266738892
,traditional,0.9357439279556274
,cuisine,0.934262752532959
,bread,0.9287678003311157
,pork,0.9278367161750793
,sauce,0.9268121719360352
,hot,0.9208217859268188
,beef,0.9161592721939087
,rice,0.9149616956710815
