URL,CLASS,SCORE,PASSION,INTEREST
https://scontent.cdninstagram.com/t51.2885-15/s750x750/sh0.08/e35/13150756_1015385528543142_2001029772_n.jpg,child,0.9991055727005005,relationships,
,baby,0.9913127422332764,,
,love,0.9902145862579346,,
,family,0.9868555068969727,,
,boy,0.9854086637496948,,
,cute,0.9732917547225952,,
,maternity,0.9708925485610962,,
,togetherness,0.9687697887420654,,
,people,0.9672868251800537,,
,indoors,0.9614878296852112,,
,woman,0.9592083692550659,,
,two,0.9575996398925781,,
,innocence,0.9536718726158142,,
,offspring,0.953576922416687,,
,little,0.9500685930252075,,
,toddler,0.9359158873558044,,
,sit,0.9334961175918579,,
,girl,0.9332165718078613,,
,fun,0.917699933052063,,
,affection,0.9132408499717712,,
https://scontent.cdninstagram.com/t51.2885-15/s750x750/sh0.08/e35/13391130_150915381987698_818509657_n.jpg,indoors,0.9838118553161621,relationships,
,adult,0.9765006303787231,,
,people,0.9763576984405518,,
,woman,0.9730627536773682,,
,child,0.9678351879119873,,
,family,0.9567350149154663,,
,man,0.9466673135757446,,
,love,0.9415707588195801,,
,two,0.9337735176086426,,
,togetherness,0.9204334020614624,,
,room,0.9036462903022766,,
,medicine,0.8991115093231201,,
,healthcare,0.8974568843841553,,
,baby,0.8858628273010254,,
,portrait,0.8818365335464478,,
,"facial expression",0.8793985247612,,
,interaction,0.8759058713912964,,
,wear,0.852826714515686,,
,"side view",0.8414384722709656,,
,window,0.8349136114120483,,
https://scontent.cdninstagram.com/t51.2885-15/e15/12317554_765329953594989_687531048_n.jpg,competition,0.9989570379257202,"healthy living",
,basketball,0.9963505864143372,,
,sport,0.9962669610977173,,
,game,0.9956112504005432,,
,indoors,0.9941693544387817,,
,stadium,0.9937208890914917,,
,ball,0.9923633337020874,,
,athlete,0.9882094264030457,,
,play,0.9802340269088745,,
,web,0.9750177264213562,,
,floor,0.9646786451339722,,
,court,0.9572423696517944,,
,tournament,0.9464828372001648,,
,school,0.9453479647636414,,
,university,0.941180944442749,,
,inside,0.9359867572784424,,
,basket,0.933833122253418,,
,"sports equipment",0.9298416972160339,,
,win,0.9282665848731995,,
,recreation,0.9243686199188232,,
https://scontent.cdninstagram.com/t51.2885-15/s640x640/sh0.08/e35/12145532_1630809410510606_158591485_n.jpg,"no person",0.9880979657173157,food,
,beer,0.9825893044471741,,
,competition,0.9800636172294617,,
,drink,0.9573720693588257,,
,action,0.9319800734519958,,
,football,0.9290067553520203,,
,food,0.9263105392456055,,
,container,0.9170829057693481,,
,race,0.9080435037612915,,
,soccer,0.9007691144943237,,
,vehicle,0.8927515745162964,,
,one,0.8640710115432739,,
,logo,0.8577992916107178,,
,cold,0.840374231338501,,
,"auto racing",0.8297889232635498,,
,bottle,0.8264724612236023,,
,glass,0.826111912727356,,
,travel,0.8215687274932861,,
,rally,0.8204924464225769,,
,bar,0.8115209341049194,,
https://scontent.cdninstagram.com/t51.2885-15/s640x640/sh0.08/e35/12256627_1196508807030319_924502303_n.jpg,car,0.9998314380645752,transportation,
,vehicle,0.9954239130020142,,
,automotive,0.9942156076431274,,
,show,0.9917389154434204,,
,drive,0.9910026788711548,,
,chrome,0.9880971312522888,,
,"transportation system",0.9847804307937622,,
,luxury,0.9819154143333435,,
,glazed,0.981380820274353,,
,classic,0.976935863494873,,
,sedan,0.9766078591346741,,
,exhibition,0.974812388420105,,
,wheel,0.973879873752594,,
,fast,0.9707900285720825,,
,hood,0.9696488380432129,,
,speed,0.9612815380096436,,
,coupe,0.9453536868095398,,
,power,0.9356859922409058,,
,unique,0.93121337890625,,
,bumper,0.9260421395301819,,
https://scontent.cdninstagram.com/t51.2885-15/s640x640/sh0.08/e35/13391294_1210826348951323_1286480399_n.jpg,wood,0.9959958791732788,fashion,
,footwear,0.9951069951057434,,
,wooden,0.9946321249008179,,
,shoe,0.9934816360473633,,
,desktop,0.9897181391716003,,
,wear,0.9876817464828491,,
,fashion,0.9842338562011719,,
,style,0.9833724498748779,,
,leather,0.9793940186500549,,
,foot,0.9749072790145874,,
,closeup,0.960856556892395,,
,couple,0.9607526659965515,,
,vintage,0.9566110372543335,,
,old,0.950974702835083,,
,design,0.950833797454834,,
,texture,0.9424902200698853,,
,retro,0.9424228072166443,,
,elegant,0.9418323040008545,,
,color,0.9413101673126221,,
,traditional,0.9382649660110474,,
https://scontent.cdninstagram.com/t51.2885-15/s640x640/sh0.08/e35/13248808_1004991986258240_1831232311_n.jpg,"no person",0.9952019453048706,travel,
,paper,0.9896982908248901,,
,passport,0.9603621959686279,,
,business,0.9559838771820068,,
,citizenship,0.9482252597808838,,
,writing,0.9147437810897827,,
,identity,0.9114618301391602,,
,visa,0.9071038961410522,,
,document,0.8948982954025269,,
,citizen,0.879746675491333,,
,indoors,0.8662441968917847,,
,love,0.857148289680481,,
,woman,0.8528580069541931,,
,administration,0.8479411602020264,,
,shopping,0.8300915956497192,,
,elegant,0.8257551193237305,,
,one,0.8189454078674316,,
,contemporary,0.8175557851791382,,
,spirituality,0.8112467527389526,,
,travel,0.8107905387878418,,
https://scontent.cdninstagram.com/t51.2885-15/s640x640/sh0.08/e35/12144307_1915410295351352_520709741_n.jpg,ice,0.9993360638618469,food,
,cold,0.9961826801300049,,
,cream,0.9936702251434326,,
,frozen,0.9912618398666382,,
,sweet,0.9909276962280273,,
,food,0.9881191849708557,,
,vanilla,0.9871867299079895,,
,drink,0.9805294871330261,,
,fruit,0.9798154830932617,,
,milk,0.9770113229751587,,
,frozen,0.9743199348449707,,
,"dairy product",0.9740516543388367,,
,refreshment,0.9735308885574341,,
,"no person",0.9686088562011719,,
,glass,0.9674304723739624,,
,chocolate,0.9667625427246094,,
,cool,0.962729811668396,,
,delicious,0.9619956612586975,,
,cup,0.956929624080658,,
,sugar,0.9450293183326721,,
https://scontent.cdninstagram.com/t51.2885-15/s640x640/sh0.08/e35/11875387_528590017288380_1326071723_n.jpg,festival,0.9699931144714355,,
,people,0.9610887765884399,,
,music,0.9500243663787842,,
,performance,0.9353350400924683,,
,woman,0.930980920791626,,
,light,0.9296181201934814,,
,concert,0.9204393625259399,,
,one,0.8637695908546448,,
,musician,0.8397398591041565,,
,adult,0.819058358669281,,
,stage,0.7970496416091919,,
,show,0.7966964244842529,,
,singer,0.7648741006851196,,
,indoors,0.7331829071044922,,
,art,0.7255098819732666,,
,band,0.6962752342224121,,
,energy,0.6951733827590942,,
,exhibition,0.6851290464401245,,
,urban,0.6823899149894714,,
,city,0.6760126352310181,,
https://scontent.cdninstagram.com/t51.2885-15/s640x640/sh0.08/e35/11809835_798360400282631_1507070298_n.jpg,table,0.9940897226333618,food,
,people,0.9928923845291138,,
,restaurant,0.9882739782333374,,
,adult,0.9804412126541138,,
,furniture,0.9778717756271362,,
,room,0.9757591485977173,,
,indoors,0.9754927158355713,,
,woman,0.9699790477752686,,
,man,0.9662636518478394,,
,dining,0.9623881578445435,,
,group,0.9603091478347778,,
,four,0.9582734107971191,,
,several,0.9467748403549194,,
,meal,0.9465362429618835,,
,food,0.9456326961517334,,
,recreation,0.936477780342102,,
,group,0.9255543947219849,,
,lunch,0.9222217798233032,,
,exhibition,0.8721418380737305,,
,two,0.8695312738418579,,
https://scontent.cdninstagram.com/t51.2885-15/s640x640/sh0.08/e35/12105098_736692113141348_594365521_n.jpg,passport,0.9951753616333008,travel,
,administration,0.9936139583587646,,
,visa,0.9917149543762207,,
,paper,0.9808713793754578,,
,citizenship,0.9805530309677124,,
,citizen,0.9771348834037781,,
,document,0.9765033721923828,,
,identity,0.9734829664230347,,
,official,0.9713636636734009,,
,business,0.9699157476425171,,
,"no person",0.9579306244850159,,
,number,0.956227719783783,,
,abroad,0.9541288018226624,,
,money,0.9361618757247925,,
,text,0.9331719875335693,,
,finance,0.9260494112968445,,
,card,0.9259527921676636,,
,homeland,0.9213000535964966,,
,departure,0.9199994802474976,,
,International,0.9163562059402466,,
https://scontent.cdninstagram.com/t51.2885-15/e15/12139646_913460802041361_1075058959_n.jpg,vehicle,0.9992122650146484,transportation,
,car,0.9983815550804138,,
,travel,0.9961397647857666,,
,"transportation system",0.9942310452461243,,
,"no person",0.9928114414215088,,
,race,0.983455240726471,,
,outdoors,0.9822854399681091,,
,"auto racing",0.9781532287597656,,
,sky,0.9703381061553955,,
,action,0.9607651233673096,,
,fast,0.957726240158081,,
,daylight,0.957026481628418,,
,traffic,0.9535096883773804,,
,competition,0.94278883934021,,
,airplane,0.9426496028900146,,
,guidance,0.9391582012176514,,
,aircraft,0.9372094869613647,,
,city,0.9337257146835327,,
,dashboard,0.924784779548645,,
,"steering wheel",0.9213114976882935,,
https://scontent.cdninstagram.com/t51.2885-15/s640x640/sh0.08/e35/11385172_850730965018573_1570632315_n.jpg,beer,0.9986597895622253,food,
,drink,0.99611896276474,,
,alcohol,0.9909634590148926,,
,"no person",0.9901993274688721,,
,bottle,0.9878784418106079,,
,glass,0.9779129028320312,,
,wine,0.964260995388031,,
,food,0.9576382637023926,,
,cold,0.9527740478515625,,
,liquor,0.9491857886314392,,
,container,0.9291970729827881,,
,bar,0.9272518157958984,,
,one,0.89217609167099,,
,lager,0.8848187923431396,,
,environment,0.8812145590782166,,
,intoxicated,0.8660570979118347,,
,liquid,0.8615610599517822,,
,health,0.8271377086639404,,
,vertical,0.8260312080383301,,
,indoors,0.8029224872589111,,
https://scontent.cdninstagram.com/t51.2885-15/s640x640/sh0.08/e35/13320180_267511600268239_2011987890_n.jpg,people,0.959586501121521,fashion,
,recreation,0.9155410528182983,,
,man,0.907479465007782,,
,leisure,0.8899184465408325,,
,business,0.8878672122955322,,
,travel,0.8866661787033081,,
,wear,0.8706165552139282,,
,competition,0.8630408048629761,,
,fashion,0.8549615144729614,,
,woman,0.8389526605606079,,
,adult,0.8321552276611328,,
,one,0.821157693862915,,
,veil,0.8108725547790527,,
,fun,0.7935559749603271,,
,street,0.7884466648101807,,
,footwear,0.7771919965744019,,
,adventure,0.7725138664245605,,
,money,0.7707030773162842,,
,desktop,0.7701691389083862,,
,lid,0.7478996515274048,,
https://scontent.cdninstagram.com/t51.2885-15/e15/12093353_459243420933772_1084977650_n.jpg,travel,0.9934819936752319,travel,
,water,0.9904270172119141,,
,city,0.9865274429321289,,
,seashore,0.9833389520645142,,
,sea,0.9783899784088135,,
,"no person",0.9738409519195557,,
,"transportation system",0.9709892272949219,,
,cityscape,0.9681984782218933,,
,daylight,0.9569394588470459,,
,architecture,0.9550256729125977,,
,vehicle,0.952223539352417,,
,sight,0.9503990411758423,,
,traffic,0.9378125667572021,,
,outdoors,0.9355043172836304,,
,ship,0.9337383508682251,,
,town,0.9294944405555725,,
,urban,0.9113399982452393,,
,building,0.9091768264770508,,
,beach,0.9052689671516418,,
,watercraft,0.9028216600418091,,
https://scontent.cdninstagram.com/t51.2885-15/e15/11373866_260607507443311_210738486_n.jpg,people,0.9870332479476929,entertainment,
,crowd,0.9839544892311096,,
,many,0.9488229751586914,,
,competition,0.9480299949645996,,
,festival,0.9420290589332581,,
,"sports fan",0.9392750859260559,,
,stadium,0.9282056093215942,,
,soccer,0.9260037541389465,,
,man,0.9183695316314697,,
,woman,0.8940281867980957,,
,city,0.88154137134552,,
,group,0.8723622560501099,,
,group,0.8668687343597412,,
,football,0.8649885654449463,,
,audience,0.860794186592102,,
,game,0.8529127836227417,,
,spectator,0.8508788347244263,,
,motion,0.8444857597351074,,
,International,0.8367810249328613,,
,street,0.8313632011413574,,
https://scontent.cdninstagram.com/t51.2885-15/s640x640/sh0.08/e35/12132751_782807421842802_298154821_n.jpg,bottle,0.9997293949127197,food,
,container,0.9983072280883789,,
,healthcare,0.9920816421508789,,
,medicine,0.9900379180908203,,
,"no person",0.988486111164093,,
,drink,0.9744963645935059,,
,treatment,0.9628123044967651,,
,cure,0.9258106350898743,,
,merchandise,0.9210672378540039,,
,"still life",0.9209773540496826,,
,liquid,0.9153409004211426,,
,one,0.9118208885192871,,
,indoors,0.910088062286377,,
,glass,0.8982741832733154,,
,health,0.8849468231201172,,
,liquor,0.8781613111495972,,
,beer,0.8706141710281372,,
,chemical,0.8496372699737549,,
,label,0.8488906621932983,,
,plastic,0.8473044633865356,,
https://scontent.cdninstagram.com/t51.2885-15/e15/11313770_997739210266125_1078794730_n.jpg,concert,0.9982072114944458,entertainment,
,performance,0.9956523180007935,,
,music,0.9923349618911743,,
,audience,0.977603018283844,,
,stage,0.9725174903869629,,
,festival,0.9526528120040894,,
,energy,0.9465794563293457,,
,light,0.9430950880050659,,
,band,0.9392180442810059,,
,singer,0.9252417087554932,,
,musician,0.9200758934020996,,
,club,0.9149353504180908,,
,party,0.9015955924987793,,
,rave,0.8997609615325928,,
,sound,0.8990331888198853,,
,motion,0.898554801940918,,
,line,0.896962583065033,,
,disco,0.8854739665985107,,
,texture,0.8515523672103882,,
,crowd,0.8419873118400574,,
https://scontent.cdninstagram.com/t51.2885-15/e35/12568160_566473566848651_297163363_n.jpg,car,0.9998818635940552,transportation,
,vehicle,0.999840497970581,,
,dashboard,0.9997633099555969,,
,"transportation system",0.9994215965270996,,
,speedometer,0.9968202114105225,,
,drive,0.9966704845428467,,
,fast,0.9945745468139648,,
,speed,0.9928520917892456,,
,dash,0.9927659630775452,,
,dial,0.9896085858345032,,
,race,0.9861243963241577,,
,light,0.9824273586273193,,
,control,0.9798036813735962,,
,driver,0.9797450304031372,,
,shift,0.9777584075927734,,
,odometer,0.9773063659667969,,
,"steering wheel",0.975739598274231,,
,gauge,0.9702547788619995,,
,guidance,0.968663215637207,,
,travel,0.9649290442466736,,
https://scontent.cdninstagram.com/t51.2885-15/s640x640/sh0.08/e35/11371164_428626840655564_1819029412_n.jpg,people,0.9747982621192932,food,
,woman,0.9682698249816895,,
,adult,0.9670460224151611,,
,food,0.9562737941741943,,
,girl,0.9479818344116211,,
,furniture,0.9428849220275879,,
,one,0.9380897283554077,,
,indoors,0.9364580512046814,,
,family,0.9345356225967407,,
,man,0.9175024032592773,,
,wear,0.9115425944328308,,
,room,0.8850224018096924,,
,creativity,0.8826583623886108,,
,two,0.8678263425827026,,
,business,0.8582714796066284,,
,preparation,0.8509840369224548,,
,table,0.8411175608634949,,
,chocolate,0.834846019744873,,
,model,0.8298436403274536,,
,cake,0.8256996870040894,,
https://scontent.cdninstagram.com/t51.2885-15/s640x640/sh0.08/e35/10632310_952376638150970_195027090_n.jpg,people,0.9932802319526672,,
,street,0.983564019203186,,
,festival,0.9647341966629028,,
,city,0.9620484113693237,,
,group,0.9490032196044922,,
,light,0.9408168196678162,,
,landscape,0.9362040758132935,,
,road,0.9168074131011963,,
,music,0.9141925573348999,,
,flame,0.9025799036026001,,
,police,0.9023833274841309,,
,rebellion,0.9009371995925903,,
,battle,0.8964912295341492,,
,crowd,0.892196774482727,,
,man,0.8919560313224792,,
,travel,0.8804528713226318,,
,adult,0.8671371340751648,,
,religion,0.8669543266296387,,
,evening,0.8642938137054443,,
,tourist,0.8608696460723877,,
https://scontent.cdninstagram.com/l/t51.2885-15/s640x640/sh0.08/e35/11881773_789515417826413_1357170568_n.jpg,money,0.9763873815536499,business,
,business,0.9759387969970703,,
,finance,0.9528170824050903,,
,money,0.9222891330718994,,
,commerce,0.9005944132804871,,
,"no person",0.8940982818603516,,
,wealth,0.889452338218689,,
,people,0.8816157579421997,,
,data,0.8780148029327393,,
,paper,0.8605262041091919,,
,finance,0.8600805997848511,,
,technology,0.8591034412384033,,
,success,0.8528538942337036,,
,pay,0.8349109888076782,,
,internet,0.8336459398269653,,
,computer,0.827650785446167,,
,bank,0.8158475160598755,,
,data,0.8124494552612305,,
,growth,0.7915113568305969,,
,financial,0.7912019491195679,,
https://scontent.cdninstagram.com/t51.2885-15/s640x640/sh0.08/e35/13473249_1040997289299944_1844536849_n.jpg,knife,0.9895294308662415,food,
,food,0.9749622941017151,,
,cooking,0.9725621938705444,,
,health,0.9631047248840332,,
,preparation,0.9616032838821411,,
,"no person",0.9417383670806885,,
,indoors,0.9286826252937317,,
,nutrition,0.9193063378334045,,
,wood,0.9162740707397461,,
,medicine,0.8934628367424011,,
,family,0.8893718719482422,,
,hand,0.8727489709854126,,
,table,0.8607209920883179,,
,leaf,0.853532075881958,,
,healthy,0.837429404258728,,
,chef,0.8352372646331787,,
,dinner,0.8288800716400146,,
,equipment,0.8180134296417236,,
,vegetable,0.8180050849914551,,
,woman,0.8145254850387573,,
https://scontent.cdninstagram.com/t51.2885-15/e15/10261197_190741077943157_986056955_n.jpg,Christmas,0.9979032874107361,celebration,
,flame,0.9965099096298218,,
,fireworks,0.9949463605880737,,
,celebration,0.9922975301742554,,
,festival,0.9828376770019531,,
,shining,0.9810223579406738,,
,bright,0.9768326282501221,,
,"no person",0.9759626984596252,,
,blur,0.9596784114837646,,
,explosion,0.9550938606262207,,
,party,0.9528735876083374,,
,winter,0.9284120798110962,,
,"New Year",0.9243239164352417,,
,sparkling,0.9152837991714478,,
,flash,0.9016776084899902,,
,vacation,0.8745068311691284,,
,glisten,0.8571705222129822,,
,hot,0.8558902740478516,,
,eve,0.8465248942375183,,
,spark,0.8421212434768677,,
https://scontent.cdninstagram.com/t51.2885-15/e15/11351588_499344470223351_1219483454_n.jpg,concert,0.9982242584228516,entertainment,
,music,0.997875452041626,,
,performance,0.9974896907806396,,
,festival,0.9971318244934082,,
,stage,0.993641197681427,,
,audience,0.9858341217041016,,
,musician,0.9735238552093506,,
,celebration,0.9709693193435669,,
,landscape,0.9642937779426575,,
,party,0.960715651512146,,
,city,0.9604597091674805,,
,light,0.9589085578918457,,
,building,0.9552029371261597,,
,band,0.9507843255996704,,
,singer,0.9506409168243408,,
,people,0.941150426864624,,
,venue,0.9361684322357178,,
,rave,0.922661542892456,,
,crowd,0.9177913665771484,,
,flame,0.8889089822769165,,
https://scontent.cdninstagram.com/t51.2885-15/e35/11821191_1609419339309077_1526879512_n.jpg,cake,0.9949305653572083,relationships,
,people,0.9657669067382812,,
,two,0.9654767513275146,,
,woman,0.9645102024078369,,
,man,0.9617051482200623,,
,family,0.9418333172798157,,
,indoors,0.9390449523925781,,
,adult,0.935560941696167,,
,happiness,0.9352520704269409,,
,three,0.9339280724525452,,
,coffee,0.9336485862731934,,
,birthday,0.9333718419075012,,
,enjoyment,0.9281755685806274,,
,love,0.9280300140380859,,
,sweet,0.9257143139839172,,
,food,0.9176002144813538,,
,cup,0.9136682152748108,,
,candle,0.9085830450057983,,
,celebration,0.9072577953338623,,
,restaurant,0.904159665107727,,
https://scontent.cdninstagram.com/t51.2885-15/e35/12729491_434208486778510_1214411003_n.jpg,woman,0.9945443868637085,relationships,
,people,0.9911091327667236,,
,family,0.990121603012085,,
,two,0.9899485111236572,,
,adult,0.9852700233459473,,
,man,0.9834528565406799,,
,love,0.9818464517593384,,
,indoors,0.9751778841018677,,
,"facial expression",0.9692291617393494,,
,child,0.9641357660293579,,
,togetherness,0.96344393491745,,
,affection,0.9544789791107178,,
,room,0.9528582096099854,,
,sit,0.9494386911392212,,
,offspring,0.9392509460449219,,
,portrait,0.9217529296875,,
,embrace,0.9170425534248352,,
,happiness,0.9037842750549316,,
,enjoyment,0.9014813899993896,,
,laughing,0.8898822069168091,,
https://scontent.cdninstagram.com/t51.2885-15/e15/13092412_968035119959437_733764266_n.jpg,child,0.997994065284729,relationships,
,baby,0.9933069944381714,,
,people,0.987557590007782,,
,newborn,0.9868335127830505,,
,one,0.9779413938522339,,
,sleep,0.9753230810165405,,
,innocence,0.9753166437149048,,
,indoors,0.9742249250411987,,
,boy,0.9688654541969299,,
,cute,0.9658883810043335,,
,family,0.9639046788215637,,
,cover,0.9628399610519409,,
,love,0.950673520565033,,
,infancy,0.9336647987365723,,
,bed,0.933376669883728,,
,little,0.9328719973564148,,
,portrait,0.9089932441711426,,
,tiny,0.8869636654853821,,
,fun,0.8840693235397339,,
,man,0.8836797475814819,,
https://scontent.cdninstagram.com/t51.2885-15/s640x640/sh0.08/e35/13249739_563491727168627_446620782_n.jpg,business,0.9904495477676392,travel,
,document,0.9831522703170776,,
,paper,0.9775516390800476,,
,administration,0.9644589424133301,,
,money,0.9466682076454163,,
,people,0.9356727600097656,,
,office,0.9277795553207397,,
,commerce,0.9238370656967163,,
,education,0.9141291975975037,,
,finance,0.91140216588974,,
,text,0.9105936288833618,,
,writing,0.8993880748748779,,
,sign,0.8931179642677307,,
,finance,0.8532364368438721,,
,composition,0.8458014130592346,,
,letter,0.822045087814331,,
,signature,0.8199747800827026,,
,calendar,0.816358208656311,,
,law,0.812309741973877,,
,hand,0.811558723449707,,
https://scontent.cdninstagram.com/t51.2885-15/e15/12144095_1542068402705316_895759506_n.jpg,people,0.990341305732727,recreation,
,man,0.9346746206283569,,
,adult,0.9316163063049316,,
,street,0.9183646440505981,,
,group,0.9164053201675415,,
,vehicle,0.9033803939819336,,
,woman,0.886028528213501,,
,city,0.8827981948852539,,
,festival,0.8484929800033569,,
,road,0.8476806879043579,,
,wear,0.8473548889160156,,
,group,0.8424283266067505,,
,industry,0.8403738737106323,,
,two,0.8344539403915405,,
,child,0.8229641914367676,,
,education,0.8204108476638794,,
,one,0.7927838563919067,,
,recreation,0.7890018224716187,,
,building,0.7886475324630737,,
,police,0.7841604351997375,,
https://scontent.cdninstagram.com/t51.2885-15/s640x640/sh0.08/e35/12120366_862496037174873_1057866909_n.jpg,shelf,0.9994958639144897,food,
,container,0.9933404922485352,,
,bottle,0.9920884370803833,,
,medicine,0.9826024770736694,,
,drink,0.9671000242233276,,
,food,0.9668833017349243,,
,stock,0.9634851217269897,,
,people,0.9619203805923462,,
,indoors,0.9566864967346191,,
,counter,0.9557260274887085,,
,exhibition,0.9528635740280151,,
,room,0.9439059495925903,,
,laboratory,0.9310798645019531,,
,chemical,0.9271929264068604,,
,"still life",0.9247303009033203,,
,healthcare,0.9234939813613892,,
,science,0.9171838164329529,,
,biology,0.911666750907898,,
,fruit,0.9064781665802002,,
,furniture,0.9041637182235718,,
https://scontent.cdninstagram.com/t51.2885-15/e15/11358125_1004242256274882_1819400454_n.jpg,many,0.9970042705535889,entertainment,
,competition,0.9963106513023376,,
,people,0.9957200288772583,,
,crowd,0.9951851963996887,,
,"sports fan",0.9862210154533386,,
,audience,0.9852637052536011,,
,group,0.9823943376541138,,
,stadium,0.9817194938659668,,
,spectator,0.9751087427139282,,
,athlete,0.9707255959510803,,
,man,0.9593119621276855,,
,group,0.9553133249282837,,
,action,0.9534050822257996,,
,soccer,0.9481674432754517,,
,victory,0.9366047382354736,,
,flag,0.926687479019165,,
,performance,0.9247679710388184,,
,championship,0.9203294515609741,,
,football,0.9130504131317139,,
,track,0.9050410985946655,,
https://scontent.cdninstagram.com/t51.2885-15/e15/11311425_867225503343954_1090722323_n.jpg,flame,0.9994227886199951,entertainment,
,festival,0.9984216094017029,,
,celebration,0.9971352815628052,,
,concert,0.9968639612197876,,
,party,0.9949307441711426,,
,performance,0.9935959577560425,,
,music,0.989740788936615,,
,smoke,0.9843915700912476,,
,audience,0.9834506511688232,,
,fireworks,0.9833807349205017,,
,stage,0.9698084592819214,,
,light,0.9581916332244873,,
,energy,0.9503017663955688,,
,band,0.9464173316955566,,
,rebellion,0.94232177734375,,
,Christmas,0.9363418817520142,,
,musician,0.9361586570739746,,
,singer,0.9351058602333069,,
,rave,0.9316275119781494,,
,burnt,0.9313008189201355,,
https://scontent.cdninstagram.com/t51.2885-15/s640x640/sh0.08/e35/12724943_1212421195452119_798925236_n.jpg,people,0.9960795640945435,food,
,restaurant,0.9933675527572632,,
,group,0.9836142063140869,,
,many,0.983575165271759,,
,bar,0.9810678958892822,,
,adult,0.9791015982627869,,
,commerce,0.9750412702560425,,
,woman,0.9722661375999451,,
,shopping,0.9702117443084717,,
,man,0.967754602432251,,
,stock,0.9611561298370361,,
,drink,0.9578893184661865,,
,coffee,0.9481671452522278,,
,market,0.9462950229644775,,
,employee,0.9359926581382751,,
,wear,0.923019528388977,,
,several,0.8998239636421204,,
,counter,0.8970743417739868,,
,festival,0.8910560011863708,,
,group,0.8826063871383667,,
https://scontent.cdninstagram.com/t51.2885-15/s750x750/sh0.08/e35/11381807_1608798062723541_1113531532_n.jpg,child,0.9983277320861816,relationships,
,group,0.994684100151062,,
,friendship,0.9935619235038757,,
,people,0.988512396812439,,
,togetherness,0.9859294891357422,,
,woman,0.9793812036514282,,
,indoors,0.975868821144104,,
,portrait,0.974428653717041,,
,education,0.9728347063064575,,
,family,0.9639674425125122,,
,group,0.9599980115890503,,
,adult,0.9569895267486572,,
,happiness,0.955858588218689,,
,horizontal,0.9545862674713135,,
,four,0.9519534111022949,,
,man,0.9519022703170776,,
,classroom,0.9436240196228027,,
,school,0.9382889866828918,,
,teamwork,0.9245847463607788,,
,fun,0.9213367104530334,,
https://scontent.cdninstagram.com/t51.2885-15/s640x640/sh0.08/e35/10424677_407127069472893_1387556541_n.jpg,"no person",0.9923611879348755,food,
,glass,0.9154382944107056,,
,cold,0.9109005928039551,,
,drink,0.9092106819152832,,
,food,0.9025425314903259,,
,emergency,0.90218186378479,,
,city,0.8895711898803711,,
,bottle,0.8808367252349854,,
,winter,0.8728158473968506,,
,indoors,0.8720289468765259,,
,health,0.871945858001709,,
,street,0.8694009184837341,,
,ice,0.8549646139144897,,
,travel,0.847624659538269,,
,industry,0.822331964969635,,
,business,0.822268009185791,,
,plastic,0.8219515085220337,,
,outdoors,0.8195227384567261,,
,traditional,0.8174461126327515,,
,medicine,0.8125292062759399,,
https://scontent.cdninstagram.com/t51.2885-15/s750x750/sh0.08/e35/11335160_1466689433649607_564072650_n.jpg,"sports fan",0.9949161410331726,relationships,
,competition,0.9935545921325684,,
,football,0.9918226003646851,,
,soccer,0.9915298223495483,,
,people,0.9833728671073914,,
,stadium,0.9748266935348511,,
,game,0.95615553855896,,
,woman,0.9511693716049194,,
,match,0.9503501653671265,,
,festival,0.9463579654693604,,
,man,0.9449917078018188,,
,crowd,0.9435864686965942,,
,athlete,0.9419357180595398,,
,city,0.9194686412811279,,
,recreation,0.9189817905426025,,
,championship,0.9175355434417725,,
,music,0.9125624895095825,,
,sport,0.9061689376831055,,
,International,0.9047155380249023,,
,concert,0.8982272744178772,,
https://scontent.cdninstagram.com/t51.2885-15/e35/12501708_1665245347061337_841452973_n.jpg,car,0.9997899532318115,transportation,
,automotive,0.9963247776031494,,
,vehicle,0.9950186014175415,,
,show,0.994648814201355,,
,exhibition,0.9923600554466248,,
,drive,0.9888273477554321,,
,"transportation system",0.9861267805099487,,
,luxury,0.9819779396057129,,
,classic,0.9747500419616699,,
,coupe,0.9726152420043945,,
,fast,0.9605953693389893,,
,speed,0.9563387036323547,,
,showroom,0.9545595645904541,,
,chrome,0.9475538730621338,,
,sedan,0.9412403106689453,,
,wheel,0.9398235082626343,,
,headlight,0.9189499020576477,,
,prototype,0.9135163426399231,,
,unique,0.9032106399536133,,
,engine,0.8781506419181824,,
https://scontent.cdninstagram.com/t51.2885-15/e35/11376318_987420511309347_200726835_n.jpg,music,0.9920437335968018,entertainment,
,club,0.9756520986557007,,
,people,0.9725288152694702,,
,performance,0.9706463813781738,,
,festival,0.9554376006126404,,
,concert,0.951634407043457,,
,dancing,0.9343713521957397,,
,singer,0.9262412786483765,,
,group,0.9238529801368713,,
,party,0.9237196445465088,,
,musician,0.9087387323379517,,
,celebration,0.9043651819229126,,
,band,0.9017611145973206,,
,man,0.8799126148223877,,
,wear,0.8716705441474915,,
,crowd,0.8578221201896667,,
,stage,0.8494760990142822,,
,recreation,0.8490555286407471,,
,woman,0.8467094898223877,,
,"sports fan",0.8452733755111694,,
https://scontent.cdninstagram.com/t51.2885-15/e35/12135261_1655925544678658_438036599_n.jpg,church,0.9956673383712769,architecture,
,religion,0.9920952320098877,,
,"no person",0.9912840127944946,,
,altar,0.9902516603469849,,
,indoors,0.9793726205825806,,
,bench,0.9749664068222046,,
,cathedral,0.9683384895324707,,
,architecture,0.9667065739631653,,
,chapel,0.9581047296524048,,
,"stained glass",0.9514777064323425,,
,travel,0.949182391166687,,
,arch,0.9268738031387329,,
,Gothic,0.9187262654304504,,
,building,0.913054347038269,,
,landmark,0.9122333526611328,,
,religious,0.9074664115905762,,
,aisle,0.9071834087371826,,
,cross,0.8779459595680237,,
,choir,0.8769940137863159,,
,god,0.8743532299995422,,
https://scontent.cdninstagram.com/t51.2885-15/e15/12135345_996771720360976_1599030211_n.jpg,travel,0.9946386814117432,travel,
,leisure,0.9852526783943176,,
,water,0.9832009077072144,,
,recreation,0.9790616035461426,,
,sand,0.975489616394043,,
,outdoors,0.9752520322799683,,
,beach,0.973098635673523,,
,"no person",0.9709053039550781,,
,winter,0.9656173586845398,,
,seashore,0.9547340869903564,,
,vacation,0.9514703750610352,,
,snow,0.9434089064598083,,
,sky,0.9385772347450256,,
,tropical,0.9318602085113525,,
,resort,0.9276027679443359,,
,relaxation,0.9268382787704468,,
,"fair weather",0.9190984964370728,,
,people,0.9077757000923157,,
,daylight,0.902891993522644,,
,swimming,0.8977179527282715,,
https://scontent.cdninstagram.com/t51.2885-15/e15/12292847_1550755448548401_2040405317_n.jpg,"no person",0.9882436990737915,,
,flame,0.9814865589141846,,
,blur,0.9707478284835815,,
,danger,0.9687514305114746,,
,abstract,0.9649697542190552,,
,smoke,0.96376633644104,,
,burn,0.9626390337944031,,
,dark,0.9620562791824341,,
,desktop,0.9492570161819458,,
,hot,0.9424430131912231,,
,astronomy,0.9324644804000854,,
,design,0.9254571795463562,,
,art,0.9242929220199585,,
,light,0.9121845960617065,,
,ash,0.91093909740448,,
,bright,0.8816008567810059,,
,illustration,0.8752315044403076,,
,heat,0.8684455156326294,,
,flammable,0.8371193408966064,,
,"natural gas",0.8309394121170044,,
https://scontent.cdninstagram.com/t51.2885-15/e15/11420699_501051466718555_936715246_n.jpg,child,0.9994363784790039,relationships,
,little,0.9956496953964233,,
,cute,0.9889093041419983,,
,fun,0.9827072024345398,,
,girl,0.9738931655883789,,
,preschool,0.973756730556488,,
,people,0.9670061469078064,,
,education,0.9547755718231201,,
,playground,0.9510562419891357,,
,leisure,0.9413856267929077,,
,school,0.9352486729621887,,
,sit,0.934395432472229,,
,kindergarten,0.932367205619812,,
,baby,0.9173977375030518,,
,family,0.9082452058792114,,
,toddler,0.9061782360076904,,
,summer,0.9005202651023865,,
,pretty,0.8999238014221191,,
,toy,0.8998806476593018,,
,portrait,0.8986086845397949,,
https://scontent.cdninstagram.com/t51.2885-15/e35/12965753_1588702954755317_1641394162_n.jpg,bill,0.9777747988700867,"healthy living",
,text,0.9765257239341736,,
,people,0.9716452360153198,,
,competition,0.9566875696182251,,
,rally,0.9411371946334839,,
,soccer,0.9319581985473633,,
,athlete,0.9306925535202026,,
,adult,0.9245029091835022,,
,football,0.9234297275543213,,
,champion,0.9228708744049072,,
,election,0.9130018949508667,,
,man,0.8990185260772705,,
,action,0.8973793983459473,,
,race,0.896332323551178,,
,recreation,0.885527491569519,,
,portrait,0.8834613561630249,,
,business,0.8803005814552307,,
,woman,0.875962495803833,,
,award,0.8702937960624695,,
,marathon,0.8629372119903564,,
https://scontent.cdninstagram.com/t51.2885-15/s640x640/sh0.08/e35/12424644_1714116395492210_1621518318_n.jpg,money,0.9794140458106995,,
,paper,0.9773403406143188,,
,finance,0.9686909914016724,,
,business,0.9663310050964355,,
,market,0.9578237533569336,,
,success,0.9570585489273071,,
,commerce,0.9555841684341431,,
,shopping,0.949968695640564,,
,sale,0.8925763368606567,,
,wealth,0.8849846124649048,,
,money,0.876746416091919,,
,food,0.8761732578277588,,
,note,0.8680884838104248,,
,text,0.8617787957191467,,
,retail,0.8490797281265259,,
,bargain,0.847062349319458,,
,sign,0.8318597674369812,,
,symbol,0.8301577568054199,,
,stock,0.8164446353912354,,
,soccer,0.8147604465484619,,
https://scontent.cdninstagram.com/t51.2885-15/e15/11850192_506006902908368_244572236_n.jpg,people,0.9911537170410156,politics,
,vehicle,0.9678171873092651,,
,rally,0.9557616710662842,,
,competition,0.9507666230201721,,
,flag,0.9471451044082642,,
,festival,0.9412336945533752,,
,many,0.9354535341262817,,
,group,0.928636908531189,,
,crowd,0.916548490524292,,
,military,0.9073822498321533,,
,group,0.9058212041854858,,
,race,0.9047638773918152,,
,city,0.8987528085708618,,
,street,0.8889644145965576,,
,action,0.888813316822052,,
,man,0.8869741559028625,,
,police,0.8850992918014526,,
,democracy,0.8796168565750122,,
,road,0.8729410171508789,,
,marathon,0.8557038307189941,,
https://scontent.cdninstagram.com/t51.2885-15/e35/12976507_1249622015080811_267217378_n.jpg,illustration,0.9979996681213379,,
,symbol,0.9809583425521851,,
,communication,0.9697043299674988,,
,solution,0.9695345163345337,,
,map,0.9545139074325562,,
,cloud,0.9425966739654541,,
,sketch,0.9274619817733765,,
,business,0.9177629947662354,,
,hand,0.9103215932846069,,
,vector,0.9089687466621399,,
,character,0.9035157561302185,,
,intelligence,0.9019027948379517,,
,technology,0.9016799926757812,,
,bulb,0.9014955759048462,,
,sign,0.8978288769721985,,
,art,0.8919138312339783,,
,abstract,0.8851606249809265,,
,spherical,0.8748341202735901,,
,vector,0.872918963432312,,
,science,0.8665743470191956,,
https://scontent.cdninstagram.com/t51.2885-15/e15/11325096_1739053919655080_913353552_n.jpg,concert,0.9949671030044556,entertainment,
,energy,0.9916142225265503,,
,performance,0.9904117584228516,,
,music,0.9886726140975952,,
,festival,0.9746402502059937,,
,stage,0.9706493020057678,,
,motion,0.9622230529785156,,
,laser,0.958774209022522,,
,party,0.9469419717788696,,
,wave,0.9351671934127808,,
,abstract,0.9320950508117676,,
,light,0.9320273399353027,,
,sound,0.9233447909355164,,
,flame,0.9211050271987915,,
,celebration,0.9180656671524048,,
,rave,0.9079800844192505,,
,graphic,0.9060766100883484,,
,spotlight,0.902033269405365,,
,blur,0.8818753361701965,,
,light,0.8677241802215576,,
https://scontent.cdninstagram.com/t51.2885-15/e35/12445900_1067464249958643_73426496_n.jpg,people,0.9968148469924927,relationships,
,group,0.9964271187782288,,
,many,0.9955311417579651,,
,group,0.977556586265564,,
,club,0.9736648797988892,,
,wear,0.969789981842041,,
,adult,0.9684180617332458,,
,crowd,0.9654697179794312,,
,music,0.9617823958396912,,
,woman,0.9588821530342102,,
,celebration,0.9587714076042175,,
,festival,0.9506349563598633,,
,man,0.9498100280761719,,
,recreation,0.9382765889167786,,
,bar,0.9333734512329102,,
,performance,0.9331762790679932,,
,dancing,0.9273779392242432,,
,enjoyment,0.9238708019256592,,
,party,0.9225958585739136,,
,several,0.873002827167511,,
https://scontent.cdninstagram.com/t51.2885-15/s640x640/sh0.08/e35/13423029_489007127890507_77249382_n.jpg,child,0.9988653659820557,relationships,
,baby,0.9896747469902039,,
,cute,0.9790047407150269,,
,portrait,0.9679763317108154,,
,family,0.9644877910614014,,
,fun,0.9621531963348389,,
,boy,0.9572036266326904,,
,little,0.9448250532150269,,
,people,0.9394632577896118,,
,happiness,0.9392520785331726,,
,girl,0.924843430519104,,
,innocence,0.9224770069122314,,
,love,0.8976547718048096,,
,joy,0.8901950120925903,,
,toddler,0.8851940631866455,,
,togetherness,0.8830839395523071,,
,two,0.8676505088806152,,
,cheerful,0.8459435701370239,,
,offspring,0.8430804014205933,,
,woman,0.8215064406394958,,
