url,class,score
https://scontent-sit4-1.cdninstagram.com/t51.2885-15/e15/12446289_987158301333319_121968802_n.jpg,dark,0.993337512
,blur,0.99154973
,abstract,0.967314124
,desktop,0.950775981
,design,0.918054581
,no person,0.906644821
,art,0.87447834
,modern,0.861962318
,light,0.859139204
,illuminated,0.85899359
,decoration,0.851594746
,light,0.845634818
,line,0.845382512
,pattern,0.832874835
,indoors,0.795510828
,color,0.795188904
,focus,0.784799755
,shadow,0.761109829
,motion,0.759420753
,wallpaper,0.712842941
https://scontent-sit4-1.cdninstagram.com/t51.2885-15/e15/12917857_814110985361931_866693320_n.jpg,people,0.994208753
,adult,0.982050478
,one,0.976706624
,woman,0.965559363
,two,0.960298657
,wear,0.957066059
,music,0.941047847
,man,0.939706564
,indoors,0.936693668
,portrait,0.932722688
,facial expression,0.905320644
,performance,0.894079566
,recreation,0.883898199
,musician,0.882031441
,eyewear,0.846745849
,singer,0.831532359
,side view,0.803745747
,room,0.801252723
,festival,0.797171474
,enjoyment,0.789461315
https://scontent-sit4-1.cdninstagram.com/t51.2885-15/e15/12798171_988995804471187_1974885743_n.jpg,no person,0.999557614
,recreation,0.997705042
,action,0.995888174
,outdoors,0.989655614
,leisure,0.988282323
,ball,0.987740517
,balloon,0.984155059
,blur,0.982602715
,daylight,0.981492043
,one,0.977505803
,sky,0.977472067
,travel,0.976625383
,sports equipment,0.972006559
,light,0.969471812
,competition,0.968291998
,moon,0.964168251
,evening,0.961901426
,water,0.942452371
,people,0.939915955
,fun,0.939883709
https://scontent-sit4-1.cdninstagram.com/t51.2885-15/sh0.08/e35/p640x640/12139630_1499070220392631_1491551506_n.jpg,illustration,0.996682286
,vector,0.995369673
,card,0.991235912
,baby,0.984759331
,vector,0.973662913
,banner,0.973042727
,sketch,0.972267628
,template,0.969660878
,fun,0.962087393
,child,0.952414393
,cute,0.93939203
,graphic,0.937756598
,newborn,0.932088017
,page,0.927871048
,desktop,0.916558802
,design,0.912719131
,birth,0.904733777
,presentation,0.894628525
,picture frame,0.884993434
,menu,0.877805829
https://scontent-sit4-1.cdninstagram.com/t51.2885-15/e15/12383597_1395687290738417_1772453298_n.jpg,music,0.999511242
,instrument,0.999426603
,musician,0.999374628
,piano,0.997659326
,guitar,0.994841576
,jazz,0.994541228
,people,0.991360366
,concert,0.988859415
,one,0.980747223
,man,0.975518823
,acoustic,0.970337391
,performance,0.969276786
,pianist,0.966558039
,adult,0.966058254
,singer,0.945121765
,indoors,0.941769242
,band,0.936139345
,guitarist,0.930115819
,sound,0.91687119
,pop,0.912692428
https://scontent-sit4-1.cdninstagram.com/t51.2885-15/sh0.08/e35/p750x750/12555859_1718554458362997_1975999826_n.jpg,indoors,0.991242051
,sit,0.987309694
,sofa,0.968519807
,man,0.962796688
,sitting,0.947291076
,people,0.943094015
,relaxation,0.940347672
,adult,0.938255012
,technology,0.932611287
,family,0.906484723
,woman,0.905570745
,furniture,0.899625778
,seat,0.870863736
,vertical,0.865643442
,business,0.865103722
,looking,0.860739827
,chair,0.846664071
,enjoyment,0.843920469
,computer,0.833624005
,connection,0.824689388
https://scontent-sit4-1.cdninstagram.com/t51.2885-15/e15/13628273_1243841498973593_680066566_n.jpg,light,0.980505228
,tube,0.966921747
,evening,0.960569263
,tunnel,0.959119201
,water,0.956183493
,no person,0.956083775
,city,0.951067507
,travel,0.946896911
,business,0.937943578
,illuminated,0.935633421
,building,0.934611797
,motion,0.931664824
,architecture,0.92876035
,reflection,0.928605318
,urban,0.915811718
,speed,0.906140566
,dusk,0.905401707
,modern,0.891589999
,blur,0.885220885
,technology,0.869689941
https://scontent-sit4-1.cdninstagram.com/t51.2885-15/e35/918211_1258185514196626_744685240_n.jpg,man,0.996021271
,people,0.995998323
,two,0.990738034
,portrait,0.985736132
,adult,0.979799032
,facial expression,0.972640276
,wear,0.970024705
,love,0.954758286
,ceremony,0.916529477
,togetherness,0.897727668
,woman,0.862471402
,interaction,0.860418379
,indoors,0.859822869
,friendship,0.858661175
,music,0.85831964
,three,0.854413271
,veil,0.841265559
,lid,0.838660717
,happiness,0.832425416
,group,0.828790784
https://scontent-sit4-1.cdninstagram.com/t51.2885-15/e35/12724824_115590445497740_2120089099_n.jpg,no person,0.982026935
,illustration,0.961930752
,vector,0.959736705
,desktop,0.891494334
,woman,0.888733327
,people,0.887743294
,vertical,0.884676814
,adult,0.863611639
,sketch,0.858181894
,portrait,0.845705986
,man,0.837083936
,design,0.836487889
,eye,0.835981369
,danger,0.827148736
,fun,0.821835697
,square,0.818647087
,symbol,0.814442515
,dark,0.792047977
,Halloween,0.791891634
,pattern,0.767775297
https://scontent-sit4-1.cdninstagram.com/t51.2885-15/s640x640/sh0.08/e35/12960094_259069911104512_2055162405_n.jpg,man,0.975129843
,people,0.967429876
,woman,0.967119575
,sit,0.961970508
,family,0.941791177
,young,0.937721193
,portrait,0.936701179
,adult,0.927301645
,group,0.923787534
,fun,0.902412891
,friendship,0.897973955
,two,0.881111562
,three,0.868233323
,music,0.864227355
,sitting,0.863090396
,four,0.851963401
,love,0.843131542
,chair,0.841173351
,couple,0.83652091
,lifestyle,0.835242271
https://scontent-sit4-1.cdninstagram.com/t51.2885-15/e35/13102339_194808897578870_1527690002_n.jpg,people,0.987507463
,blur,0.984805644
,no person,0.97785008
,underwater,0.975987017
,wear,0.973539352
,one,0.965790272
,adult,0.963559747
,invertebrate,0.955310583
,art,0.952634275
,recreation,0.941905737
,light,0.939817846
,portrait,0.936215758
,music,0.936210036
,facial expression,0.925161362
,painting,0.923764586
,abstract,0.909395576
,woman,0.903956771
,side view,0.903953314
,action,0.89992094
,water,0.896713972
https://scontent-sit4-1.cdninstagram.com/t51.2885-15/e35/12407640_170750306628108_1896700765_n.jpg,people,0.999705553
,adult,0.994549155
,portrait,0.991035283
,one,0.985040665
,man,0.983393312
,two,0.982090712
,monochrome,0.981640697
,profile,0.974796474
,wear,0.959687591
,side view,0.933473587
,woman,0.925273299
,facial expression,0.88461566
,child,0.881683111
,art,0.874269485
,music,0.851319551
,baby,0.839634657
,girl,0.839374304
,leader,0.805715084
,veil,0.786580324
,love,0.785607278
https://scontent-sit4-1.cdninstagram.com/t51.2885-15/sh0.08/e35/p750x750/13725521_1713285378921296_1003835510_n.jpg,child,0.999908864
,little,0.993815064
,cute,0.993005455
,baby,0.988050103
,innocence,0.987199306
,people,0.978957057
,family,0.976203084
,fun,0.976096749
,indoors,0.971991181
,toddler,0.96173811
,sit,0.953879476
,horizontal,0.944414616
,boy,0.931333065
,togetherness,0.9236691
,education,0.922504783
,love,0.909111261
,joy,0.905480385
,portrait,0.884603083
,preschool,0.883411884
,happiness,0.881992459
https://scontent-sit4-1.cdninstagram.com/t51.2885-15/e35/11350725_1058881140835100_1616815693_n.jpg,people,0.985378146
,one,0.978704572
,music,0.971854031
,adult,0.970489979
,musician,0.947232425
,woman,0.939612985
,man,0.929960608
,guitar,0.922350764
,two,0.913125455
,sit,0.901657999
,wear,0.892581224
,sitting,0.884888649
,indoors,0.883608341
,portrait,0.858943939
,chair,0.835074246
,furniture,0.831232846
,instrument,0.830824673
,room,0.823449969
,monochrome,0.797968805
,piano,0.797329485
https://scontent-sit4-1.cdninstagram.com/t51.2885-15/s750x750/sh0.08/e35/11925783_452603838257679_1932615757_n.jpg,people,0.992840111
,two,0.990270138
,woman,0.982027769
,adult,0.978010654
,wear,0.970445156
,man,0.960723281
,portrait,0.959819198
,facial expression,0.955115318
,family,0.954619825
,indoors,0.94614172
,togetherness,0.934732676
,affection,0.921912313
,love,0.919368207
,girl,0.911840379
,romance,0.895556688
,one,0.887043953
,interaction,0.88416338
,room,0.878898263
,embrace,0.87704277
,happiness,0.86820364
https://scontent-sit4-1.cdninstagram.com/t51.2885-15/e35/13556950_265256637173492_334084597_n.jpg,people,0.999138832
,one,0.996916354
,portrait,0.992465198
,adult,0.986665249
,man,0.976338625
,music,0.959641397
,wear,0.938621223
,musician,0.926092088
,indoors,0.9117347
,outfit,0.840683877
,chair,0.833175659
,light,0.825341642
,singer,0.824844658
,two,0.800810218
,sit,0.799989939
,room,0.773154974
,actor,0.767935634
,piano,0.763505101
,seat,0.761300683
,leader,0.761214554
https://scontent-sit4-1.cdninstagram.com/t51.2885-15/sh0.08/e35/p750x750/13181455_571144139720138_1832294290_n.jpg,car,0.970983505
,people,0.968601942
,one,0.956832469
,portrait,0.94915545
,vehicle,0.938284755
,baseball,0.925399423
,auto racing,0.922452688
,man,0.909455776
,competition,0.905909479
,wear,0.893206596
,safety,0.869663477
,outdoors,0.867510319
,looking,0.86093241
,uniform,0.850979567
,child,0.840440691
,baseball cap,0.832723498
,outfit,0.832010865
,driver,0.816959858
,indoors,0.810792208
,cap,0.794633329
https://scontent-sit4-1.cdninstagram.com/t51.2885-15/e35/12353412_492048187640522_1670763558_n.jpg,snooker,0.999996066
,cue,0.999951363
,recreation,0.999839008
,game,0.999611974
,competition,0.999545813
,pool,0.999267936
,leisure,0.99925518
,ball,0.998019755
,sport,0.995770156
,mat,0.994942427
,play,0.993841171
,gambling,0.993443966
,challenge,0.992481232
,club,0.991992831
,indoors,0.979159117
,alley,0.978865564
,fun,0.977663875
,sports equipment,0.967340469
,action,0.966766357
,one,0.965727508
https://scontent-sit4-1.cdninstagram.com/t51.2885-15/e35/12081080_1222474024436168_2019952461_n.jpg,weightlifting,0.997289777
,indoors,0.997251809
,weight,0.994994521
,strength,0.993320942
,train,0.992598534
,dumbbell,0.989379823
,barbell,0.989102006
,exercise,0.988587797
,club,0.985935092
,treadmill,0.985505939
,athlete,0.977370977
,bodybuilding,0.975383878
,strong,0.969459832
,teacher,0.959989071
,fitness,0.954689145
,muscle,0.942039251
,furniture,0.941555738
,lift,0.937740088
,bench,0.931833267
,equipment,0.924695194
https://scontent-sit4-1.cdninstagram.com/t51.2885-15/e35/12142710_934315466639602_835731009_n.jpg,child,0.994601071
,group,0.98990798
,people,0.988438606
,girl,0.984713614
,movie,0.980075538
,woman,0.977608263
,boy,0.97690618
,portrait,0.973959208
,adult,0.963464916
,boy,0.960385919
,education,0.948609591
,man,0.942250669
,family,0.940721869
,business,0.93492949
,seat,0.93168962
,school,0.928943038
,toy,0.925981045
,class,0.920321941
,room,0.910445809
,youth,0.901851535
https://scontent-sit4-1.cdninstagram.com/t51.2885-15/s750x750/sh0.08/e35/13745233_299362293747902_325368795_n.jpg,restaurant,0.994637489
,people,0.991929293
,food,0.975530505
,adult,0.973144054
,man,0.962391913
,table,0.935533047
,dining,0.929626703
,drink,0.920018792
,one,0.915522099
,bar,0.912100077
,indoors,0.911637187
,chef,0.903168976
,group,0.89573133
,furniture,0.880413175
,meal,0.871857285
,education,0.856388748
,dinner,0.853764296
,two,0.848489523
,room,0.847814322
,hotel,0.843066692
https://scontent-sit4-1.cdninstagram.com/t51.2885-15/e35/12558559_1553907864933099_1280606995_n.jpg,portrait,0.995312929
,people,0.992096364
,woman,0.969650984
,adult,0.963404179
,child,0.931609869
,man,0.924680471
,one,0.924674511
,dark,0.914227962
,indoors,0.854905725
,face,0.849411607
,girl,0.837763429
,monochrome,0.823338509
,wear,0.807375908
,adolescent,0.803348958
,desktop,0.786103547
,art,0.780430317
,music,0.769418895
,young,0.769411922
,looking,0.754647374
,lid,0.739538789
https://scontent-sit4-1.cdninstagram.com/t51.2885-15/s750x750/sh0.08/e35/12912342_996538980425507_2090540836_n.jpg,winter,0.993728757
,Christmas,0.993640542
,celebration,0.963219404
,christmas tree,0.954814136
,people,0.940912008
,snow,0.93428123
,no person,0.917004466
,one,0.911774158
,decoration,0.906319976
,light,0.900107384
,portrait,0.89777112
,tree,0.888129354
,thread,0.878512025
,festival,0.841434538
,adult,0.834279597
,interior design,0.831224382
,landscape,0.820755839
,administration,0.800803602
,wear,0.796714842
,election,0.786755085
https://scontent-sit4-1.cdninstagram.com/t51.2885-15/s750x750/sh0.08/e35/13725730_953838124724878_1483425128_n.jpg,vehicle,0.990714431
,people,0.983483791
,wheel,0.964852214
,exhibition,0.960665226
,bike,0.948011637
,transportation system,0.923319459
,competition,0.919840634
,man,0.918183863
,adult,0.904615521
,indoors,0.873083293
,sitting,0.849474549
,race,0.811499119
,stock,0.791984618
,carnival,0.78233099
,cyclist,0.770198822
,action,0.758209705
,machine,0.754576743
,room,0.750196457
,car,0.744032919
,woman,0.742664933
https://scontent-sit4-1.cdninstagram.com/t51.2885-15/e35/12144136_1203010649712271_1049627560_n.jpg,people,0.984392881
,woman,0.981506765
,group,0.973886371
,man,0.971166611
,adult,0.953839421
,facial expression,0.946469843
,music,0.944306374
,portrait,0.939014792
,wear,0.928426743
,love,0.916416109
,three,0.912915945
,group,0.901323915
,fun,0.88100791
,two,0.876773238
,four,0.876090705
,togetherness,0.865162849
,friendship,0.861454487
,musician,0.857976019
,five,0.856908619
,family,0.853453159
https://scontent-sit4-1.cdninstagram.com/t51.2885-15/e35/12531171_1145034885528595_1900341357_n.jpg,athlete,0.990646243
,wear,0.989077866
,people,0.988794446
,competition,0.973243833
,outfit,0.972570896
,uniform,0.967270076
,stadium,0.958705306
,adult,0.958113194
,one,0.956865788
,baseball,0.947101355
,sports equipment,0.945507824
,football,0.932931185
,man,0.931445837
,basketball,0.918744922
,portrait,0.916965961
,recreation,0.888398468
,soccer,0.88221705
,sports fan,0.879781246
,action,0.871954918
,music,0.83705759
https://scontent-sit4-1.cdninstagram.com/t51.2885-15/e35/12912266_964115266999426_1280552452_n.jpg,street,0.996268153
,people,0.991784871
,monochrome,0.975224018
,road,0.969461799
,adult,0.968121409
,transportation system,0.966076255
,man,0.948337197
,police,0.932757616
,action,0.918855727
,vehicle,0.916751027
,city,0.908346057
,woman,0.888626993
,group,0.886046827
,blur,0.879337907
,administration,0.86366725
,wear,0.859243631
,car,0.835989714
,offense,0.830821216
,two,0.827673376
,one,0.822072148
https://scontent-sit4-1.cdninstagram.com/t51.2885-15/e35/12598971_947309025353759_524565597_n.jpg,illustration,0.988795996
,sketch,0.97680819
,vector,0.963196516
,child,0.942470133
,tree,0.938360095
,nature,0.926318467
,animal,0.905725777
,design,0.900162518
,fun,0.895945132
,desktop,0.894424081
,graphic,0.88319087
,funny,0.869503021
,image,0.867600203
,card,0.8577106
,cute,0.85595715
,art,0.855347157
,summer,0.854753196
,symbol,0.837752938
,set,0.82816422
,bird,0.8138991
https://scontent-sit4-1.cdninstagram.com/t51.2885-15/e35/12424948_253833034963252_776852062_n.jpg,people,0.99892807
,adult,0.996351898
,portrait,0.993549943
,two,0.988907635
,one,0.985418916
,man,0.979096889
,woman,0.97743094
,wear,0.973576903
,girl,0.972566962
,facial expression,0.970787168
,monochrome,0.967872024
,wedding,0.956911325
,veil,0.949468136
,profile,0.948003292
,love,0.93591547
,art,0.930918276
,music,0.92944169
,child,0.922453463
,retro,0.917310297
,actress,0.913022876
https://scontent-sit4-1.cdninstagram.com/t51.2885-15/e35/12328407_922353287885005_234344023_n.jpg,child,0.999845386
,people,0.981036961
,baby,0.980857849
,room,0.980297089
,little,0.974003315
,toddler,0.97104764
,one,0.968625784
,education,0.968594074
,indoors,0.963852048
,cute,0.963692784
,boy,0.962674379
,school,0.957021952
,boy,0.952080965
,happiness,0.943126798
,daylight,0.932426631
,innocence,0.930739999
,furniture,0.926982284
,portrait,0.9239344
,girl,0.907272339
,family,0.90049088
https://scontent-sit4-1.cdninstagram.com/t51.2885-15/e35/12905057_612086335611381_1263959667_n.jpg,people,0.98465544
,window,0.978239775
,adult,0.976276577
,indoors,0.968127131
,business,0.95525682
,city,0.953756988
,transportation system,0.949084282
,offense,0.945496857
,bus,0.942932487
,outdoors,0.940301538
,man,0.937895656
,street,0.936394811
,horizontal,0.932527423
,side view,0.927908003
,car,0.900114775
,train,0.898690641
,tube,0.894770861
,telephone,0.887826324
,airport,0.879493713
,technology,0.876855969
https://scontent-sit4-1.cdninstagram.com/t51.2885-15/e35/13166635_519372244921105_464450903_n.jpg,performance,0.981672764
,festival,0.976778865
,people,0.971053481
,music,0.960048914
,celebration,0.929077089
,light,0.921734214
,concert,0.909185767
,musician,0.903883994
,adult,0.900079846
,singer,0.866598189
,man,0.865923285
,club,0.859272063
,stage,0.847158313
,energy,0.784580946
,band,0.756845117
,woman,0.75099051
,group,0.747664213
,evening,0.728078961
,Christmas,0.72353828
,crowd,0.708520174
https://scontent-sit4-1.cdninstagram.com/t51.2885-15/e35/11887166_913305898704621_290723836_n.jpg,beer,0.997390151
,restaurant,0.995447993
,table,0.984290242
,people,0.980643511
,bar,0.97401607
,drink,0.964226007
,pub,0.963443458
,food,0.962616861
,waitress,0.962503076
,man,0.952589512
,street,0.944175959
,city,0.938168287
,group,0.935945392
,daylight,0.934919894
,festival,0.8991732
,group,0.883028746
,many,0.88245213
,diner,0.88243264
,meal,0.862703443
,outdoors,0.854764104
https://scontent-sit4-1.cdninstagram.com/t51.2885-15/e35/12446289_1077786265600720_984679707_n.jpg,people,0.990718007
,adult,0.98636806
,portrait,0.977764249
,man,0.974671721
,indoors,0.958500028
,commerce,0.958313942
,business,0.956801295
,one,0.951955497
,facial expression,0.951893151
,airport,0.950034618
,wear,0.930372119
,two,0.923359573
,woman,0.915024161
,employee,0.896184325
,room,0.893687487
,group,0.881685972
,stock,0.873656869
,vehicle,0.861095011
,outerwear,0.850945234
,telephone,0.828059137
https://scontent-sit4-1.cdninstagram.com/t51.2885-15/e35/12907407_580807738767010_1669212441_n.jpg,technology,0.997890234
,computer,0.996509671
,laptop,0.994706273
,internet,0.992492437
,screen,0.975938797
,no person,0.963905752
,business,0.95176208
,wireless,0.951279402
,keyboard,0.938107371
,monitor,0.925876319
,spherical,0.917198777
,electronics,0.913739681
,contemporary,0.90610683
,people,0.900392175
,connection,0.896565318
,display,0.871626496
,portable,0.870239437
,travel,0.86687386
,data,0.863428831
,indoors,0.859585881
https://scontent-sit4-1.cdninstagram.com/l/t51.2885-15/s750x750/sh0.08/e35/13584182_502860793244174_49021913_n.jpg,group,0.993576527
,people,0.985104263
,family,0.9793607
,group,0.974304914
,music,0.973250389
,woman,0.963566363
,portrait,0.959086299
,adult,0.949861288
,musician,0.949741483
,man,0.944923878
,friendship,0.942403972
,child,0.939165473
,singer,0.93075645
,performance,0.924549341
,band,0.868800402
,many,0.868485928
,boy,0.861580372
,girl,0.86006701
,education,0.855708003
,school,0.850604653
https://scontent-sit4-1.cdninstagram.com/t51.2885-15/e35/11351931_973243519410096_63911776_n.jpg,recreation,0.98830688
,wear,0.979481816
,movie,0.968999505
,adult,0.944331527
,music,0.93955338
,festival,0.915060818
,fashion,0.906349659
,actress,0.90630281
,promotion,0.897891283
,musician,0.895570397
,arrival,0.887279272
,fashionable,0.885646641
,people,0.880319834
,woman,0.878526628
,film festival,0.877044678
,red carpet,0.874776483
,competition,0.852566123
,television,0.842070222
,singer,0.838196933
,track,0.816022694
https://scontent-sit4-1.cdninstagram.com/t51.2885-15/e35/13694727_550454278471228_512054987_n.jpg,people,0.994941235
,adult,0.991928458
,group,0.989606738
,man,0.975486994
,woman,0.974035025
,portrait,0.973179817
,wear,0.971652865
,offense,0.968890011
,room,0.968658447
,interaction,0.948192
,battle,0.947288334
,recreation,0.936972022
,gang,0.932923198
,police,0.927646339
,war,0.927281022
,four,0.925310731
,military,0.919181824
,facial expression,0.918186963
,five,0.917863965
,three,0.914921761
https://scontent-sit4-1.cdninstagram.com/t51.2885-15/e35/13392686_1731501633754489_1919689683_n.jpg,people,0.991450191
,adult,0.987396717
,man,0.981137574
,portrait,0.949767292
,two,0.948380828
,recreation,0.942514777
,group,0.940792441
,offense,0.939375758
,daylight,0.932101846
,weapon,0.916068196
,facial expression,0.912736058
,outdoors,0.904967308
,gun,0.894840479
,battle,0.893996716
,woman,0.88796556
,wear,0.885954022
,police,0.885598898
,military,0.875018597
,sit,0.843883932
,education,0.839503765
https://scontent-sit4-1.cdninstagram.com/t51.2885-15/e35/13298204_1144438058909913_1653838324_n.jpg,people,0.987215996
,adult,0.959725618
,one,0.934804678
,man,0.911380947
,wear,0.899253845
,portrait,0.874847293
,woman,0.872422338
,offense,0.862658143
,lid,0.83457458
,outdoors,0.819476128
,administration,0.79896462
,religion,0.79003644
,flag,0.778956294
,rally,0.766224027
,celebration,0.74824065
,rally,0.738094568
,Christmas,0.736152291
,container,0.733111858
,election,0.730399132
,battle,0.730214953
https://scontent-sit4-1.cdninstagram.com/t51.2885-15/e35/12976433_870728189702843_529397875_n.jpg,portrait,0.998216867
,facial expression,0.998108447
,people,0.997006893
,man,0.995376706
,adult,0.994115651
,wear,0.979053855
,two,0.96916157
,facial hair,0.949539483
,movie,0.939144135
,happiness,0.933322191
,one,0.916255474
,actor,0.915589213
,mustache,0.908245027
,recreation,0.908098042
,laughing,0.885605872
,goatee,0.859041214
,outfit,0.839297235
,singer,0.824862957
,musician,0.818256259
,actress,0.79879427
https://scontent-sit4-1.cdninstagram.com/t51.2885-15/e35/12141947_443462769177569_807898865_n.jpg,people,0.988420606
,one,0.98488909
,man,0.978958786
,indoors,0.977046728
,wear,0.964798093
,business,0.964179397
,adult,0.961863518
,curtain,0.950504541
,fashion,0.93161118
,portrait,0.931579709
,music,0.896602392
,performance,0.879408062
,movie,0.869241357
,facial expression,0.866175294
,woman,0.848917484
,telephone,0.847554684
,recreation,0.830572963
,singer,0.817709148
,outfit,0.807979703
,connection,0.80455035
https://scontent-sit4-1.cdninstagram.com/t51.2885-15/e35/13277793_565955066917241_111786467_n.jpg,people,0.990194857
,man,0.985091925
,indoors,0.983132064
,adult,0.973387599
,portrait,0.963788509
,retro,0.957717657
,one,0.938177466
,dark,0.91464448
,music,0.90808934
,fashion,0.907021761
,woman,0.898643196
,wear,0.891732514
,facial expression,0.881839395
,looking,0.873992026
,monochrome,0.853124619
,sit,0.849814534
,adolescent,0.842738509
,two,0.835735559
,fine-looking,0.833208323
,business,0.832076311
https://scontent-sit4-1.cdninstagram.com/t51.2885-15/e35/12301319_1045505425508556_1040115157_n.jpg,Christmas,0.999339879
,winter,0.998527467
,no person,0.994842768
,christmas tree,0.993065
,celebration,0.980912805
,snow,0.978444338
,illuminated,0.975430727
,festival,0.951106429
,shining,0.944073915
,sparkling,0.936139941
,outdoors,0.924235344
,snowflake,0.916707039
,light,0.914507627
,evening,0.909015298
,New Year,0.902494669
,glisten,0.897044063
,hanging,0.894370914
,traditional,0.891246319
,bright,0.876252174
,architecture,0.860086918
https://scontent-sit4-1.cdninstagram.com/t51.2885-15/e35/12677236_979474105474753_2075424567_n.jpg,people,0.97381109
,street,0.96759665
,road,0.923532367
,business,0.917883098
,city,0.915001154
,man,0.889919281
,pavement,0.855517685
,woman,0.848633647
,police,0.832067132
,military,0.802733064
,adult,0.760381341
,building,0.713154197
,administration,0.700182021
,wear,0.694791138
,urban,0.681954443
,architecture,0.676534116
,leader,0.664762378
,outdoors,0.641357303
,offense,0.637240231
,light,0.63106066
https://scontent-sit4-1.cdninstagram.com/t51.2885-15/e35/12934994_1609164439404677_287791927_n.jpg,street,0.985025585
,city,0.976728976
,people,0.975888729
,urban,0.957524061
,rally,0.953457713
,travel,0.946121514
,building,0.942168295
,road,0.938788176
,architecture,0.928307652
,competition,0.920706809
,race,0.907630861
,police,0.90247345
,outdoors,0.898707747
,man,0.887996852
,landscape,0.883204937
,daylight,0.856563091
,business,0.855410814
,portrait,0.844722867
,park,0.839363456
,one,0.836555362
https://scontent-sit4-1.cdninstagram.com/t51.2885-15/e35/11374028_416583835195016_1017253835_n.jpg,business,0.978163004
,people,0.977744341
,adult,0.976948857
,one,0.97127986
,young,0.962692499
,sit,0.957813144
,fashion,0.952401757
,street,0.951647162
,man,0.949913383
,city,0.945469975
,outdoors,0.943720818
,urban,0.936976135
,step,0.936718762
,portrait,0.932690382
,woman,0.925505459
,lifestyle,0.924432755
,sitting,0.919269443
,wear,0.912272751
,luggage,0.889116943
,pavement,0.887643337
https://scontent-sit4-1.cdninstagram.com/t51.2885-15/e35/12224454_1498699950425777_1879151584_n.jpg,people,0.97464335
,man,0.96621567
,mask,0.955567002
,art,0.944238782
,wear,0.931542516
,helmet,0.913865089
,adult,0.910681248
,illustration,0.907429039
,one,0.894269586
,portrait,0.892795563
,costume,0.882467151
,face,0.871248126
,war,0.867288768
,fear,0.836913764
,painting,0.828696549
,veil,0.826269865
,woman,0.799209595
,mask,0.793374836
,Halloween,0.786062479
,fantasy,0.778256536
https://scontent-sit4-1.cdninstagram.com/t51.2885-15/e15/12446289_987158301333319_121968802_n.jpg,dark,0.993337512
,blur,0.99154973
,abstract,0.967314124
,desktop,0.950775981
,design,0.918054581
,no person,0.906644821
,art,0.87447834
,modern,0.861962318
,light,0.859139204
,illuminated,0.85899359
,decoration,0.851594746
,light,0.845634818
,line,0.845382512
,pattern,0.832874835
,indoors,0.795510828
,color,0.795188904
,focus,0.784799755
,shadow,0.761109829
,motion,0.759420753
,wallpaper,0.712842941
https://scontent-sit4-1.cdninstagram.com/t51.2885-15/e15/12798171_988995804471187_1974885743_n.jpg,no person,0.999557614
,recreation,0.997705042
,action,0.995888174
,outdoors,0.989655614
,leisure,0.988282323
,ball,0.987740517
,balloon,0.984155059
,blur,0.982602715
,daylight,0.981492043
,one,0.977505803
,sky,0.977472067
,travel,0.976625383
,sports equipment,0.972006559
,light,0.969471812
,competition,0.968291998
,moon,0.964168251
,evening,0.961901426
,water,0.942452371
,people,0.939915955
,fun,0.939883709
https://scontent-sit4-1.cdninstagram.com/t51.2885-15/sh0.08/e35/p750x750/12555859_1718554458362997_1975999826_n.jpg,indoors,0.991242051
,sit,0.987309694
,sofa,0.968519807
,man,0.962796688
,sitting,0.947291076
,people,0.943094015
,relaxation,0.940347672
,adult,0.938255012
,technology,0.932611287
,family,0.906484723
,woman,0.905570745
,furniture,0.899625778
,seat,0.870863736
,vertical,0.865643442
,business,0.865103722
,looking,0.860739827
,chair,0.846664071
,enjoyment,0.843920469
,computer,0.833624005
,connection,0.824689388
https://scontent-sit4-1.cdninstagram.com/t51.2885-15/sh0.08/e35/p640x640/12139630_1499070220392631_1491551506_n.jpg,illustration,0.996682286
,vector,0.995369673
,card,0.991235912
,baby,0.984759331
,vector,0.973662913
,banner,0.973042727
,sketch,0.972267628
,template,0.969660878
,fun,0.962087393
,child,0.952414393
,cute,0.93939203
,graphic,0.937756598
,newborn,0.932088017
,page,0.927871048
,desktop,0.916558802
,design,0.912719131
,birth,0.904733777
,presentation,0.894628525
,picture frame,0.884993434
,menu,0.877805829
https://scontent-sit4-1.cdninstagram.com/t51.2885-15/e15/12917857_814110985361931_866693320_n.jpg,people,0.994208753
,adult,0.982050478
,one,0.976706624
,woman,0.965559363
,two,0.960298657
,wear,0.957066059
,music,0.941047847
,man,0.939706564
,indoors,0.936693668
,portrait,0.932722688
,facial expression,0.905320644
,performance,0.894079566
,recreation,0.883898199
,musician,0.882031441
,eyewear,0.846745849
,singer,0.831532359
,side view,0.803745747
,room,0.801252723
,festival,0.797171474
,enjoyment,0.789461315
https://scontent-sit4-1.cdninstagram.com/t51.2885-15/e15/12383597_1395687290738417_1772453298_n.jpg,music,0.999511242
,instrument,0.999426603
,musician,0.999374628
,piano,0.997659326
,guitar,0.994841576
,jazz,0.994541228
,people,0.991360366
,concert,0.988859415
,one,0.980747223
,man,0.975518823
,acoustic,0.970337391
,performance,0.969276786
,pianist,0.966558039
,adult,0.966058254
,singer,0.945121765
,indoors,0.941769242
,band,0.936139345
,guitarist,0.930115819
,sound,0.91687119
,pop,0.912692428
https://scontent-sit4-1.cdninstagram.com/t51.2885-15/e15/13628273_1243841498973593_680066566_n.jpg,light,0.980505228
,tube,0.966921747
,evening,0.960569263
,tunnel,0.959119201
,water,0.956183493
,no person,0.956083775
,city,0.951067507
,travel,0.946896911
,business,0.937943578
,illuminated,0.935633421
,building,0.934611797
,motion,0.931664824
,architecture,0.92876035
,reflection,0.928605318
,urban,0.915811718
,speed,0.906140566
,dusk,0.905401707
,modern,0.891589999
,blur,0.885220885
,technology,0.869689941
https://scontent-sit4-1.cdninstagram.com/t51.2885-15/e35/918211_1258185514196626_744685240_n.jpg,man,0.996021271
,people,0.995998323
,two,0.990738034
,portrait,0.985736132
,adult,0.979799032
,facial expression,0.972640276
,wear,0.970024705
,love,0.954758286
,ceremony,0.916529477
,togetherness,0.897727668
,woman,0.862471402
,interaction,0.860418379
,indoors,0.859822869
,friendship,0.858661175
,music,0.85831964
,three,0.854413271
,veil,0.841265559
,lid,0.838660717
,happiness,0.832425416
,group,0.828790784
https://scontent-sit4-1.cdninstagram.com/t51.2885-15/e35/13102339_194808897578870_1527690002_n.jpg,people,0.987507463
,blur,0.984805644
,no person,0.97785008
,underwater,0.975987017
,wear,0.973539352
,one,0.965790272
,adult,0.963559747
,invertebrate,0.955310583
,art,0.952634275
,recreation,0.941905737
,light,0.939817846
,portrait,0.936215758
,music,0.936210036
,facial expression,0.925161362
,painting,0.923764586
,abstract,0.909395576
,woman,0.903956771
,side view,0.903953314
,action,0.89992094
,water,0.896713972
https://scontent-sit4-1.cdninstagram.com/t51.2885-15/e35/12407640_170750306628108_1896700765_n.jpg,people,0.999705553
,adult,0.994549155
,portrait,0.991035283
,one,0.985040665
,man,0.983393312
,two,0.982090712
,monochrome,0.981640697
,profile,0.974796474
,wear,0.959687591
,side view,0.933473587
,woman,0.925273299
,facial expression,0.88461566
,child,0.881683111
,art,0.874269485
,music,0.851319551
,baby,0.839634657
,girl,0.839374304
,leader,0.805715084
,veil,0.786580324
,love,0.785607278
https://scontent-sit4-1.cdninstagram.com/t51.2885-15/s640x640/sh0.08/e35/12960094_259069911104512_2055162405_n.jpg,man,0.975129843
,people,0.967429876
,woman,0.967119575
,sit,0.961970508
,family,0.941791177
,young,0.937721193
,portrait,0.936701179
,adult,0.927301645
,group,0.923787534
,fun,0.902412891
,friendship,0.897973955
,two,0.881111562
,three,0.868233323
,music,0.864227355
,sitting,0.863090396
,four,0.851963401
,love,0.843131542
,chair,0.841173351
,couple,0.83652091
,lifestyle,0.835242271
https://scontent-sit4-1.cdninstagram.com/t51.2885-15/e35/12144136_1203010649712271_1049627560_n.jpg,people,0.984392881
,woman,0.981506765
,group,0.973886371
,man,0.971166611
,adult,0.953839421
,facial expression,0.946469843
,music,0.944306374
,portrait,0.939014792
,wear,0.928426743
,love,0.916416109
,three,0.912915945
,group,0.901323915
,fun,0.88100791
,two,0.876773238
,four,0.876090705
,togetherness,0.865162849
,friendship,0.861454487
,musician,0.857976019
,five,0.856908619
,family,0.853453159
https://scontent-sit4-1.cdninstagram.com/t51.2885-15/s750x750/sh0.08/e35/13745233_299362293747902_325368795_n.jpg,restaurant,0.994637489
,people,0.991929293
,food,0.975530505
,adult,0.973144054
,man,0.962391913
,table,0.935533047
,dining,0.929626703
,drink,0.920018792
,one,0.915522099
,bar,0.912100077
,indoors,0.911637187
,chef,0.903168976
,group,0.89573133
,furniture,0.880413175
,meal,0.871857285
,education,0.856388748
,dinner,0.853764296
,two,0.848489523
,room,0.847814322
,hotel,0.843066692
https://scontent-sit4-1.cdninstagram.com/t51.2885-15/e35/13556950_265256637173492_334084597_n.jpg,people,0.999138832
,one,0.996916354
,portrait,0.992465198
,adult,0.986665249
,man,0.976338625
,music,0.959641397
,wear,0.938621223
,musician,0.926092088
,indoors,0.9117347
,outfit,0.840683877
,chair,0.833175659
,light,0.825341642
,singer,0.824844658
,two,0.800810218
,sit,0.799989939
,room,0.773154974
,actor,0.767935634
,piano,0.763505101
,seat,0.761300683
,leader,0.761214554
https://scontent-sit4-1.cdninstagram.com/t51.2885-15/e35/11350725_1058881140835100_1616815693_n.jpg,people,0.985378146
,one,0.978704572
,music,0.971854031
,adult,0.970489979
,musician,0.947232425
,woman,0.939612985
,man,0.929960608
,guitar,0.922350764
,two,0.913125455
,sit,0.901657999
,wear,0.892581224
,sitting,0.884888649
,indoors,0.883608341
,portrait,0.858943939
,chair,0.835074246
,furniture,0.831232846
,instrument,0.830824673
,room,0.823449969
,monochrome,0.797968805
,piano,0.797329485
https://scontent-sit4-1.cdninstagram.com/t51.2885-15/e35/11351931_973243519410096_63911776_n.jpg,recreation,0.98830688
,wear,0.979481816
,movie,0.968999505
,adult,0.944331527
,music,0.93955338
,festival,0.915060818
,fashion,0.906349659
,actress,0.90630281
,promotion,0.897891283
,musician,0.895570397
,arrival,0.887279272
,fashionable,0.885646641
,people,0.880319834
,woman,0.878526628
,film festival,0.877044678
,red carpet,0.874776483
,competition,0.852566123
,television,0.842070222
,singer,0.838196933
,track,0.816022694
https://scontent-sit4-1.cdninstagram.com/t51.2885-15/e35/12724824_115590445497740_2120089099_n.jpg,no person,0.982026935
,illustration,0.961930752
,vector,0.959736705
,desktop,0.891494334
,woman,0.888733327
,people,0.887743294
,vertical,0.884676814
,adult,0.863611639
,sketch,0.858181894
,portrait,0.845705986
,man,0.837083936
,design,0.836487889
,eye,0.835981369
,danger,0.827148736
,fun,0.821835697
,square,0.818647087
,symbol,0.814442515
,dark,0.792047977
,Halloween,0.791891634
,pattern,0.767775297
https://scontent-sit4-1.cdninstagram.com/t51.2885-15/e35/12531171_1145034885528595_1900341357_n.jpg,athlete,0.990646243
,wear,0.989077866
,people,0.988794446
,competition,0.973243833
,outfit,0.972570896
,uniform,0.967270076
,stadium,0.958705306
,adult,0.958113194
,one,0.956865788
,baseball,0.947101355
,sports equipment,0.945507824
,football,0.932931185
,man,0.931445837
,basketball,0.918744922
,portrait,0.916965961
,recreation,0.888398468
,soccer,0.88221705
,sports fan,0.879781246
,action,0.871954918
,music,0.83705759
https://scontent-sit4-1.cdninstagram.com/t51.2885-15/e35/12558559_1553907864933099_1280606995_n.jpg,portrait,0.995312929
,people,0.992096364
,woman,0.969650984
,adult,0.963404179
,child,0.931609869
,man,0.924680471
,one,0.924674511
,dark,0.914227962
,indoors,0.854905725
,face,0.849411607
,girl,0.837763429
,monochrome,0.823338509
,wear,0.807375908
,adolescent,0.803348958
,desktop,0.786103547
,art,0.780430317
,music,0.769418895
,young,0.769411922
,looking,0.754647374
,lid,0.739538789
https://scontent-sit4-1.cdninstagram.com/t51.2885-15/e35/13166635_519372244921105_464450903_n.jpg,performance,0.981672764
,festival,0.976778865
,people,0.971053481
,music,0.960048914
,celebration,0.929077089
,light,0.921734214
,concert,0.909185767
,musician,0.903883994
,adult,0.900079846
,singer,0.866598189
,man,0.865923285
,club,0.859272063
,stage,0.847158313
,energy,0.784580946
,band,0.756845117
,woman,0.75099051
,group,0.747664213
,evening,0.728078961
,Christmas,0.72353828
,crowd,0.708520174
https://scontent-sit4-1.cdninstagram.com/t51.2885-15/e35/12424948_253833034963252_776852062_n.jpg,people,0.99892807
,adult,0.996351898
,portrait,0.993549943
,two,0.988907635
,one,0.985418916
,man,0.979096889
,woman,0.97743094
,wear,0.973576903
,girl,0.972566962
,facial expression,0.970787168
,monochrome,0.967872024
,wedding,0.956911325
,veil,0.949468136
,profile,0.948003292
,love,0.93591547
,art,0.930918276
,music,0.92944169
,child,0.922453463
,retro,0.917310297
,actress,0.913022876
https://scontent-sit4-1.cdninstagram.com/t51.2885-15/s750x750/sh0.08/e35/12912342_996538980425507_2090540836_n.jpg,winter,0.993728757
,Christmas,0.993640542
,celebration,0.963219404
,christmas tree,0.954814136
,people,0.940912008
,snow,0.93428123
,no person,0.917004466
,one,0.911774158
,decoration,0.906319976
,light,0.900107384
,portrait,0.89777112
,tree,0.888129354
,thread,0.878512025
,festival,0.841434538
,adult,0.834279597
,interior design,0.831224382
,landscape,0.820755839
,administration,0.800803602
,wear,0.796714842
,election,0.786755085
https://scontent-sit4-1.cdninstagram.com/l/t51.2885-15/s750x750/sh0.08/e35/13584182_502860793244174_49021913_n.jpg,group,0.993576527
,people,0.985104263
,family,0.9793607
,group,0.974304914
,music,0.973250389
,woman,0.963566363
,portrait,0.959086299
,adult,0.949861288
,musician,0.949741483
,man,0.944923878
,friendship,0.942403972
,child,0.939165473
,singer,0.93075645
,performance,0.924549341
,band,0.868800402
,many,0.868485928
,boy,0.861580372
,girl,0.86006701
,education,0.855708003
,school,0.850604653
https://scontent-sit4-1.cdninstagram.com/t51.2885-15/e35/12598971_947309025353759_524565597_n.jpg,illustration,0.988795996
,sketch,0.97680819
,vector,0.963196516
,child,0.942470133
,tree,0.938360095
,nature,0.926318467
,animal,0.905725777
,design,0.900162518
,fun,0.895945132
,desktop,0.894424081
,graphic,0.88319087
,funny,0.869503021
,image,0.867600203
,card,0.8577106
,cute,0.85595715
,art,0.855347157
,summer,0.854753196
,symbol,0.837752938
,set,0.82816422
,bird,0.8138991
https://scontent-sit4-1.cdninstagram.com/t51.2885-15/e35/12142710_934315466639602_835731009_n.jpg,child,0.994601071
,group,0.98990798
,people,0.988438606
,girl,0.984713614
,movie,0.980075538
,woman,0.977608263
,boy,0.97690618
,portrait,0.973959208
,adult,0.963464916
,boy,0.960385919
,education,0.948609591
,man,0.942250669
,family,0.940721869
,business,0.93492949
,seat,0.93168962
,school,0.928943038
,toy,0.925981045
,class,0.920321941
,room,0.910445809
,youth,0.901851535
https://scontent-sit4-1.cdninstagram.com/t51.2885-15/e35/12907407_580807738767010_1669212441_n.jpg,technology,0.997890234
,computer,0.996509671
,laptop,0.994706273
,internet,0.992492437
,screen,0.975938797
,no person,0.963905752
,business,0.95176208
,wireless,0.951279402
,keyboard,0.938107371
,monitor,0.925876319
,spherical,0.917198777
,electronics,0.913739681
,contemporary,0.90610683
,people,0.900392175
,connection,0.896565318
,display,0.871626496
,portable,0.870239437
,travel,0.86687386
,data,0.863428831
,indoors,0.859585881
https://scontent-sit4-1.cdninstagram.com/t51.2885-15/e35/12328407_922353287885005_234344023_n.jpg,child,0.999845386
,people,0.981036961
,baby,0.980857849
,room,0.980297089
,little,0.974003315
,toddler,0.97104764
,one,0.968625784
,education,0.968594074
,indoors,0.963852048
,cute,0.963692784
,boy,0.962674379
,school,0.957021952
,boy,0.952080965
,happiness,0.943126798
,daylight,0.932426631
,innocence,0.930739999
,furniture,0.926982284
,portrait,0.9239344
,girl,0.907272339
,family,0.90049088
https://scontent-sit4-1.cdninstagram.com/t51.2885-15/sh0.08/e35/p750x750/13725521_1713285378921296_1003835510_n.jpg,child,0.999908864
,little,0.993815064
,cute,0.993005455
,baby,0.988050103
,innocence,0.987199306
,people,0.978957057
,family,0.976203084
,fun,0.976096749
,indoors,0.971991181
,toddler,0.96173811
,sit,0.953879476
,horizontal,0.944414616
,boy,0.931333065
,togetherness,0.9236691
,education,0.922504783
,love,0.909111261
,joy,0.905480385
,portrait,0.884603083
,preschool,0.883411884
,happiness,0.881992459
https://scontent-sit4-1.cdninstagram.com/t51.2885-15/e35/12353412_492048187640522_1670763558_n.jpg,snooker,0.999996066
,cue,0.999951363
,recreation,0.999839008
,game,0.999611974
,competition,0.999545813
,pool,0.999267936
,leisure,0.99925518
,ball,0.998019755
,sport,0.995770156
,mat,0.994942427
,play,0.993841171
,gambling,0.993443966
,challenge,0.992481232
,club,0.991992831
,indoors,0.979159117
,alley,0.978865564
,fun,0.977663875
,sports equipment,0.967340469
,action,0.966766357
,one,0.965727508
https://scontent-sit4-1.cdninstagram.com/t51.2885-15/sh0.08/e35/p750x750/13181455_571144139720138_1832294290_n.jpg,car,0.970983505
,people,0.968601942
,one,0.956832469
,portrait,0.94915545
,vehicle,0.938284755
,baseball,0.925399423
,auto racing,0.922452688
,man,0.909455776
,competition,0.905909479
,wear,0.893206596
,safety,0.869663477
,outdoors,0.867510319
,looking,0.86093241
,uniform,0.850979567
,child,0.840440691
,baseball cap,0.832723498
,outfit,0.832010865
,driver,0.816959858
,indoors,0.810792208
,cap,0.794633329
https://scontent-sit4-1.cdninstagram.com/t51.2885-15/e35/13277793_565955066917241_111786467_n.jpg,people,0.990194857
,man,0.985091925
,indoors,0.983132064
,adult,0.973387599
,portrait,0.963788509
,retro,0.957717657
,one,0.938177466
,dark,0.91464448
,music,0.90808934
,fashion,0.907021761
,woman,0.898643196
,wear,0.891732514
,facial expression,0.881839395
,looking,0.873992026
,monochrome,0.853124619
,sit,0.849814534
,adolescent,0.842738509
,two,0.835735559
,fine-looking,0.833208323
,business,0.832076311
https://scontent-sit4-1.cdninstagram.com/t51.2885-15/s750x750/sh0.08/e35/13725730_953838124724878_1483425128_n.jpg,vehicle,0.990714431
,people,0.983483791
,wheel,0.964852214
,exhibition,0.960665226
,bike,0.948011637
,transportation system,0.923319459
,competition,0.919840634
,man,0.918183863
,adult,0.904615521
,indoors,0.873083293
,sitting,0.849474549
,race,0.811499119
,stock,0.791984618
,carnival,0.78233099
,cyclist,0.770198822
,action,0.758209705
,machine,0.754576743
,room,0.750196457
,car,0.744032919
,woman,0.742664933
https://scontent-sit4-1.cdninstagram.com/t51.2885-15/e35/12976433_870728189702843_529397875_n.jpg,portrait,0.998216867
,facial expression,0.998108447
,people,0.997006893
,man,0.995376706
,adult,0.994115651
,wear,0.979053855
,two,0.96916157
,facial hair,0.949539483
,movie,0.939144135
,happiness,0.933322191
,one,0.916255474
,actor,0.915589213
,mustache,0.908245027
,recreation,0.908098042
,laughing,0.885605872
,goatee,0.859041214
,outfit,0.839297235
,singer,0.824862957
,musician,0.818256259
,actress,0.79879427
https://scontent-sit4-1.cdninstagram.com/t51.2885-15/e35/12912266_964115266999426_1280552452_n.jpg,street,0.996268153
,people,0.991784871
,monochrome,0.975224018
,road,0.969461799
,adult,0.968121409
,transportation system,0.966076255
,man,0.948337197
,police,0.932757616
,action,0.918855727
,vehicle,0.916751027
,city,0.908346057
,woman,0.888626993
,group,0.886046827
,blur,0.879337907
,administration,0.86366725
,wear,0.859243631
,car,0.835989714
,offense,0.830821216
,two,0.827673376
,one,0.822072148
https://scontent-sit4-1.cdninstagram.com/t51.2885-15/e35/13694727_550454278471228_512054987_n.jpg,people,0.994941235
,adult,0.991928458
,group,0.989606738
,man,0.975486994
,woman,0.974035025
,portrait,0.973179817
,wear,0.971652865
,offense,0.968890011
,room,0.968658447
,interaction,0.948192
,battle,0.947288334
,recreation,0.936972022
,gang,0.932923198
,police,0.927646339
,war,0.927281022
,four,0.925310731
,military,0.919181824
,facial expression,0.918186963
,five,0.917863965
,three,0.914921761
https://scontent-sit4-1.cdninstagram.com/t51.2885-15/s750x750/sh0.08/e35/11925783_452603838257679_1932615757_n.jpg,people,0.992840111
,two,0.990270138
,woman,0.982027769
,adult,0.978010654
,wear,0.970445156
,man,0.960723281
,portrait,0.959819198
,facial expression,0.955115318
,family,0.954619825
,indoors,0.94614172
,togetherness,0.934732676
,affection,0.921912313
,love,0.919368207
,girl,0.911840379
,romance,0.895556688
,one,0.887043953
,interaction,0.88416338
,room,0.878898263
,embrace,0.87704277
,happiness,0.86820364
https://scontent-sit4-1.cdninstagram.com/t51.2885-15/e35/12905057_612086335611381_1263959667_n.jpg,people,0.98465544
,window,0.978239775
,adult,0.976276577
,indoors,0.968127131
,business,0.95525682
,city,0.953756988
,transportation system,0.949084282
,offense,0.945496857
,bus,0.942932487
,outdoors,0.940301538
,man,0.937895656
,street,0.936394811
,horizontal,0.932527423
,side view,0.927908003
,car,0.900114775
,train,0.898690641
,tube,0.894770861
,telephone,0.887826324
,airport,0.879493713
,technology,0.876855969
https://scontent-sit4-1.cdninstagram.com/t51.2885-15/e35/12141947_443462769177569_807898865_n.jpg,people,0.988420606
,one,0.98488909
,man,0.978958786
,indoors,0.977046728
,wear,0.964798093
,business,0.964179397
,adult,0.961863518
,curtain,0.950504541
,fashion,0.93161118
,portrait,0.931579709
,music,0.896602392
,performance,0.879408062
,movie,0.869241357
,facial expression,0.866175294
,woman,0.848917484
,telephone,0.847554684
,recreation,0.830572963
,singer,0.817709148
,outfit,0.807979703
,connection,0.80455035
https://scontent-sit4-1.cdninstagram.com/t51.2885-15/e35/11887166_913305898704621_290723836_n.jpg,beer,0.997390151
,restaurant,0.995447993
,table,0.984290242
,people,0.980643511
,bar,0.97401607
,drink,0.964226007
,pub,0.963443458
,food,0.962616861
,waitress,0.962503076
,man,0.952589512
,street,0.944175959
,city,0.938168287
,group,0.935945392
,daylight,0.934919894
,festival,0.8991732
,group,0.883028746
,many,0.88245213
,diner,0.88243264
,meal,0.862703443
,outdoors,0.854764104
https://scontent-sit4-1.cdninstagram.com/t51.2885-15/e35/12224454_1498699950425777_1879151584_n.jpg,people,0.97464335
,man,0.96621567
,mask,0.955567002
,art,0.944238782
,wear,0.931542516
,helmet,0.913865089
,adult,0.910681248
,illustration,0.907429039
,one,0.894269586
,portrait,0.892795563
,costume,0.882467151
,face,0.871248126
,war,0.867288768
,fear,0.836913764
,painting,0.828696549
,veil,0.826269865
,woman,0.799209595
,mask,0.793374836
,Halloween,0.786062479
,fantasy,0.778256536
https://scontent-sit4-1.cdninstagram.com/t51.2885-15/e35/13298204_1144438058909913_1653838324_n.jpg,people,0.987215996
,adult,0.959725618
,one,0.934804678
,man,0.911380947
,wear,0.899253845
,portrait,0.874847293
,woman,0.872422338
,offense,0.862658143
,lid,0.83457458
,outdoors,0.819476128
,administration,0.79896462
,religion,0.79003644
,flag,0.778956294
,rally,0.766224027
,celebration,0.74824065
,rally,0.738094568
,Christmas,0.736152291
,container,0.733111858
,election,0.730399132
,battle,0.730214953
https://scontent-sit4-1.cdninstagram.com/t51.2885-15/e35/12081080_1222474024436168_2019952461_n.jpg,weightlifting,0.997289777
,indoors,0.997251809
,weight,0.994994521
,strength,0.993320942
,train,0.992598534
,dumbbell,0.989379823
,barbell,0.989102006
,exercise,0.988587797
,club,0.985935092
,treadmill,0.985505939
,athlete,0.977370977
,bodybuilding,0.975383878
,strong,0.969459832
,teacher,0.959989071
,fitness,0.954689145
,muscle,0.942039251
,furniture,0.941555738
,lift,0.937740088
,bench,0.931833267
,equipment,0.924695194
https://scontent-sit4-1.cdninstagram.com/t51.2885-15/e35/12677236_979474105474753_2075424567_n.jpg,people,0.97381109
,street,0.96759665
,road,0.923532367
,business,0.917883098
,city,0.915001154
,man,0.889919281
,pavement,0.855517685
,woman,0.848633647
,police,0.832067132
,military,0.802733064
,adult,0.760381341
,building,0.713154197
,administration,0.700182021
,wear,0.694791138
,urban,0.681954443
,architecture,0.676534116
,leader,0.664762378
,outdoors,0.641357303
,offense,0.637240231
,light,0.63106066
https://scontent-sit4-1.cdninstagram.com/t51.2885-15/e35/12446289_1077786265600720_984679707_n.jpg,people,0.990718007
,adult,0.98636806
,portrait,0.977764249
,man,0.974671721
,indoors,0.958500028
,commerce,0.958313942
,business,0.956801295
,one,0.951955497
,facial expression,0.951893151
,airport,0.950034618
,wear,0.930372119
,two,0.923359573
,woman,0.915024161
,employee,0.896184325
,room,0.893687487
,group,0.881685972
,stock,0.873656869
,vehicle,0.861095011
,outerwear,0.850945234
,telephone,0.828059137
https://scontent-sit4-1.cdninstagram.com/t51.2885-15/e35/13392686_1731501633754489_1919689683_n.jpg,people,0.991450191
,adult,0.987396717
,man,0.981137574
,portrait,0.949767292
,two,0.948380828
,recreation,0.942514777
,group,0.940792441
,offense,0.939375758
,daylight,0.932101846
,weapon,0.916068196
,facial expression,0.912736058
,outdoors,0.904967308
,gun,0.894840479
,battle,0.893996716
,woman,0.88796556
,wear,0.885954022
,police,0.885598898
,military,0.875018597
,sit,0.843883932
,education,0.839503765
https://scontent-sit4-1.cdninstagram.com/t51.2885-15/e35/11374028_416583835195016_1017253835_n.jpg,business,0.978163004
,people,0.977744341
,adult,0.976948857
,one,0.97127986
,young,0.962692499
,sit,0.957813144
,fashion,0.952401757
,street,0.951647162
,man,0.949913383
,city,0.945469975
,outdoors,0.943720818
,urban,0.936976135
,step,0.936718762
,portrait,0.932690382
,woman,0.925505459
,lifestyle,0.924432755
,sitting,0.919269443
,wear,0.912272751
,luggage,0.889116943
,pavement,0.887643337
https://scontent-sit4-1.cdninstagram.com/t51.2885-15/e35/12934994_1609164439404677_287791927_n.jpg,street,0.985025585
,city,0.976728976
,people,0.975888729
,urban,0.957524061
,rally,0.953457713
,travel,0.946121514
,building,0.942168295
,road,0.938788176
,architecture,0.928307652
,competition,0.920706809
,race,0.907630861
,police,0.90247345
,outdoors,0.898707747
,man,0.887996852
,landscape,0.883204937
,daylight,0.856563091
,business,0.855410814
,portrait,0.844722867
,park,0.839363456
,one,0.836555362
https://scontent-sit4-1.cdninstagram.com/t51.2885-15/e35/12301319_1045505425508556_1040115157_n.jpg,Christmas,0.999339879
,winter,0.998527467
,no person,0.994842768
,christmas tree,0.993065
,celebration,0.980912805
,snow,0.978444338
,illuminated,0.975430727
,festival,0.951106429
,shining,0.944073915
,sparkling,0.936139941
,outdoors,0.924235344
,snowflake,0.916707039
,light,0.914507627
,evening,0.909015298
,New Year,0.902494669
,glisten,0.897044063
,hanging,0.894370914
,traditional,0.891246319
,bright,0.876252174
,architecture,0.860086918
