url,class,score
https://scontent-sit4-1.cdninstagram.com/t51.2885-15/s480x480/e35/12104971_1646922542249060_1295069650_n.jpg,illustration,0.9892449378967285
,vector,0.9887151122093201
,sketch,0.9617461562156677
,graphic,0.9598969221115112
,design,0.945146918296814
,symbol,0.9428906440734863
,art,0.9290075302124023
,character,0.9227110147476196
,image,0.9169677495956421
,sign,0.8924537897109985
,label,0.8657020330429077
,humor,0.8489128947257996
,greeting,0.8443989753723145
,banner,0.8386074304580688
,funny,0.8366760015487671
,sketch,0.8358618021011353
,mascot,0.8352383375167847
,desktop,0.8348674774169922
,amusing,0.8328114748001099
,outline,0.8267526626586914
https://scontent-sit4-1.cdninstagram.com/t51.2885-15/s750x750/sh0.08/e35/12724646_938083936326259_984291295_n.jpg,illustration,0.9653086066246033
,business,0.9565305113792419
,text,0.9541441202163696
,symbol,0.9372372627258301
,desktop,0.9323061108589172
,image,0.906879186630249
,graphic,0.8972960710525513
,vector,0.8817664384841919
,internet,0.8796403408050537
,vector,0.875032365322113
,design,0.8701003193855286
,sign,0.8697916865348816
,abstract,0.8494404554367065
,education,0.8481532335281372
,technology,0.844232439994812
,isolated,0.8344231843948364
,alphabet,0.8302332758903503
,communication,0.8195942640304565
,people,0.8093416690826416
,success,0.8036801815032959
https://scontent-sit4-1.cdninstagram.com/t51.2885-15/e35/10261205_1218304938182916_161047681_n.jpg,symbol,0.949215292930603
,illustration,0.9490972757339478
,vector,0.932026743888855
,image,0.9217231273651123
,sign,0.9202739000320435
,design,0.9081186056137085
,graphic,0.8918694257736206
,desktop,0.8891689777374268
,sketch,0.8840590715408325
,business,0.8823401927947998
,Halloween,0.8791362047195435
,fun,0.8675528764724731
,celebration,0.8658081889152527
,no person,0.8400271534919739
,text,0.8397017121315002
,number,0.8035608530044556
,food,0.7978086471557617
,card,0.7945658564567566
,bill,0.788003146648407
,humor,0.7850704789161682
https://scontent-sit4-1.cdninstagram.com/t51.2885-15/s480x480/e35/12327931_974764629229016_1013481561_n.jpg,child,0.9993677139282227
,little,0.9979448318481445
,cute,0.9961549043655396
,fun,0.983901858329773
,innocence,0.9788939356803894
,precious,0.9757359027862549
,joy,0.9652212858200073
,pretty,0.9645720720291138
,isolated,0.9626815319061279
,baby,0.9602471590042114
,funny,0.9426299333572388
,laughing,0.9125571250915527
,adorable,0.8935421705245972
,eye,0.8724266886711121
,toddler,0.8709105253219604
,young,0.8565282821655273
,confection,0.8523086309432983
,looking,0.8350290656089783
,hair,0.8128896951675415
,beautiful,0.8040737509727478
https://scontent-sit4-1.cdninstagram.com/t51.2885-15/e35/12132783_631957730279800_1015248852_n.jpg,indoors,0.9643188714981079
,people,0.953532338142395
,business,0.9278264045715332
,adult,0.9143142700195312
,man,0.9114905595779419
,technology,0.9074404239654541
,room,0.8477538824081421
,computer,0.816083550453186
,healthcare,0.7971129417419434
,office,0.7887775897979736
,woman,0.7793603539466858
,portrait,0.7644360065460205
,light,0.7311609983444214
,paper,0.7297759652137756
,young,0.7185078263282776
,recreation,0.7136354446411133
,actor,0.712553858757019
,hospital,0.7114633917808533
,chair,0.7025672197341919
,modern,0.7002730369567871
https://scontent-sit4-1.cdninstagram.com/t51.2885-15/e35/p480x480/11352005_966636223375461_1096014783_n.jpg,people,0.9858839511871338
,adult,0.9845635890960693
,portrait,0.969977855682373
,business,0.9493303298950195
,indoors,0.9466816186904907
,woman,0.9440999031066895
,education,0.9418032169342041
,text,0.9091495275497437
,bill,0.895510196685791
,man,0.894852876663208
,vertical,0.8862830996513367
,technology,0.8525787591934204
,facial expression,0.8295204639434814
,communication,0.8280206918716431
,school,0.8255294561386108
,display,0.8130315542221069
,offense,0.8115221261978149
,child,0.8056952953338623
,movie,0.7930822372436523
,horizontal,0.7608952522277832
https://scontent-sit4-1.cdninstagram.com/t51.2885-15/e35/11254100_1519277675063343_340563871_n.jpg,internet,0.9739961624145508
,no person,0.9736819267272949
,technology,0.9729106426239014
,identity,0.9648525714874268
,illustration,0.9523668885231018
,business,0.9475778341293335
,computer,0.9258778691291809
,glazed,0.9035971164703369
,travel,0.9022974967956543
,plastic,0.8982397317886353
,vector,0.8795719742774963
,electronics,0.8747912645339966
,control,0.8684840202331543
,square,0.845945417881012
,horizontal,0.8417708277702332
,people,0.8316516876220703
,machinery,0.8250519633293152
,vector,0.8239989280700684
,spherical,0.8239890336990356
,security,0.8208754062652588
https://scontent-sit4-1.cdninstagram.com/t51.2885-15/e35/12277399_1241878859171366_1271990845_n.jpg,horizontal,0.9441725015640259
,equipment,0.9441617727279663
,technology,0.9218745231628418
,telephone,0.9001129269599915
,machinery,0.8611137866973877
,square,0.8546125888824463
,no person,0.8466038703918457
,business,0.8385496735572815
,electronics,0.8283689022064209
,connection,0.820173978805542
,appliance,0.8193238973617554
,simplicity,0.8144490122795105
,data,0.7963916063308716
,illustration,0.7961419820785522
,vertical,0.7808568477630615
,paper,0.7791657447814941
,wireless,0.7740081548690796
,portable,0.7715747356414795
,number,0.7628748416900635
,internet,0.762075662612915
https://scontent-sit4-1.cdninstagram.com/t51.2885-15/e35/11931016_319364334854582_2108224315_n.jpg,computer,0.9875175952911377
,technology,0.9724180102348328
,business,0.9719833135604858
,data,0.970539927482605
,internet,0.9547913074493408
,laptop,0.9474465847015381
,communication,0.9021400809288025
,desktop,0.9019040465354919
,office,0.9011437892913818
,sign,0.8915802836418152
,screen,0.8896462917327881
,music,0.8737747073173523
,industry,0.8669906854629517
,symbol,0.8640673160552979
,display,0.8629215955734253
,commerce,0.8548547625541687
,data,0.849738359451294
,people,0.8495731353759766
,electronics,0.8444960713386536
,modern,0.8441225290298462
https://scontent-sit4-1.cdninstagram.com/t51.2885-15/e15/917829_481821115337900_1083154709_n.jpg,people,0.9645485281944275
,indoors,0.9611479043960571
,room,0.9591231346130371
,education,0.9351546764373779
,school,0.9339045286178589
,adult,0.9166216254234314
,recreation,0.9097113609313965
,furniture,0.9063044786453247
,leisure,0.8838309645652771
,one,0.8832922577857971
,no person,0.8826444149017334
,group,0.8498048782348633
,floor,0.8454449772834778
,wear,0.8394616842269897
,floor,0.814814567565918
,business,0.812258243560791
,family,0.8050540685653687
,child,0.7982618808746338
,university,0.7981749176979065
,offense,0.7871628999710083
https://scontent-sit4-1.cdninstagram.com/t51.2885-15/e35/13269367_1119922324736816_1316611415_n.jpg,no person,0.9923723340034485
,navigation,0.9905192852020264
,stripe,0.9855164289474487
,graphic design,0.9797118902206421
,data,0.9749705195426941
,layout,0.9747264385223389
,form,0.9746440649032593
,option,0.9701037406921387
,template,0.9697473049163818
,donation,0.9646626710891724
,step,0.9616683125495911
,page,0.9569219350814819
,order,0.9559276700019836
,step,0.9535545110702515
,procedure,0.9515688419342041
,World Wide Web,0.9510937929153442
,check,0.945267915725708
,progress,0.9444342851638794
,business,0.9388822317123413
,presentation,0.9226172566413879
https://scontent-sit4-1.cdninstagram.com/t51.2885-15/s750x750/sh0.08/e35/12106010_986337134755763_1517705215_n.jpg,illustration,0.9767583012580872
,text,0.975360631942749
,desktop,0.9621819257736206
,graphic,0.9542605876922607
,give voice,0.949053168296814
,symbol,0.9343892335891724
,business,0.9317722320556641
,conceptual,0.9185678958892822
,vector,0.9109116196632385
,abstract,0.9073659181594849
,image,0.9067550897598267
,vector,0.8607109189033508
,design,0.8512557744979858
,internet,0.8477216958999634
,cloud,0.8261610865592957
,computer,0.8217412233352661
,company,0.8205588459968567
,element,0.8191435933113098
,World Wide Web,0.8162821531295776
,design,0.815292477607727
https://scontent-sit4-1.cdninstagram.com/t51.2885-15/e35/12825937_617439115096103_1287492390_n.jpg,coffee,0.9996941089630127
,espresso,0.9991523027420044
,cup,0.9985301494598389
,foam,0.9983143210411072
,cappuccino,0.9982850551605225
,drink,0.9981721639633179
,caffeine,0.9980905055999756
,hot,0.9961433410644531
,mug,0.9933037161827087
,dawn,0.992534339427948
,breakfast,0.9901034832000732
,saucer,0.985058069229126
,mocha,0.9746837615966797
,break,0.9742200970649719
,dark,0.9741532802581787
,no person,0.962422251701355
,perfume,0.9615345597267151
,food,0.959699273109436
,porcelain,0.9388188123703003
,table,0.9363006949424744
https://scontent-sit4-1.cdninstagram.com/t51.2885-15/e35/12081060_1673843132829471_1159767719_n.jpg,business,0.9702210426330566
,no person,0.9696922898292542
,text,0.9382443428039551
,technology,0.9220622777938843
,indoors,0.8815996646881104
,commerce,0.8719178438186646
,finance,0.8301457166671753
,paper,0.8229746222496033
,internet,0.8110675811767578
,still life,0.8015894293785095
,healthcare,0.7805906534194946
,shopping,0.775836706161499
,number,0.7600466012954712
,education,0.7554828524589539
,logo,0.7440556287765503
,stock,0.7434291839599609
,sign,0.7299753427505493
,industry,0.7283538579940796
,connection,0.7234048843383789
,food,0.719218373298645
https://scontent-sit4-1.cdninstagram.com/t51.2885-15/e35/12783275_586690461479994_496560299_n.jpg,people,0.9834671020507812
,indoors,0.9824330806732178
,horizontal,0.9749129414558411
,adult,0.9748942255973816
,illuminated,0.974535346031189
,window,0.9591790437698364
,technology,0.941821277141571
,light,0.9385887384414673
,side view,0.9380347728729248
,business,0.9143310785293579
,communication,0.9135244488716125
,flashlight,0.9074214696884155
,horizontal,0.8981442451477051
,shadow,0.8806948065757751
,modern,0.8795384168624878
,vertical,0.8689910173416138
,transportation system,0.8612920045852661
,reflection,0.8488293886184692
,performance,0.8385891914367676
,outdoors,0.8170716762542725
https://scontent-sit4-1.cdninstagram.com/t51.2885-15/e35/13118303_1698720417044955_1089653568_n.jpg,airplane,0.9998745322227478
,aircraft,0.9995698928833008
,airport,0.9995144605636597
,transportation system,0.9954627752304077
,vehicle,0.993517279624939
,flight,0.9892736673355103
,jet,0.9884286522865295
,travel,0.984583854675293
,air,0.9780813455581665
,fly,0.9767484664916992
,airliner,0.9625744819641113
,departure,0.9540663957595825
,landscape,0.9409592151641846
,sky,0.9348138570785522
,military,0.9314506649971008
,fly,0.9292346239089966
,commercial,0.9268020391464233
,technology,0.925621509552002
,business,0.9206461906433105
,airbus,0.9188414812088013
https://scontent-sit4-1.cdninstagram.com/t51.2885-15/e35/12354095_926746154070696_142054115_n.jpg,no person,0.9505027532577515
,desktop,0.9142839908599854
,business,0.906246542930603
,sign,0.891272783279419
,text,0.8902552127838135
,dark,0.8791540861129761
,illustration,0.8727219104766846
,symbol,0.8578028082847595
,design,0.8488543033599854
,retro,0.844079852104187
,music,0.8163541555404663
,technology,0.815200686454773
,sign,0.8085078001022339
,graphic,0.8075501918792725
,banner,0.8066737651824951
,vector,0.8033429384231567
,bill,0.7845722436904907
,internet,0.7707804441452026
,celebration,0.7688690423965454
,decoration,0.7659422159194946
https://scontent-sit4-1.cdninstagram.com/t51.2885-15/s640x640/sh0.08/e35/12145035_761698037272953_1554052688_n.jpg,indoors,0.9912102222442627
,woman,0.9852136373519897
,togetherness,0.9845547676086426
,child,0.9805734157562256
,friendship,0.9743523001670837
,enjoyment,0.9590315818786621
,people,0.9557883143424988
,wine,0.9437190890312195
,sit,0.9383699893951416
,man,0.9367806315422058
,restaurant,0.9252669811248779
,drink,0.917333722114563
,family,0.8948858976364136
,laughing,0.8904023170471191
,fun,0.8850355744361877
,adolescent,0.881783127784729
,horizontal,0.8747363090515137
,happiness,0.8570886254310608
,bar,0.853323757648468
,adult,0.8337982892990112
https://scontent-sit4-1.cdninstagram.com/t51.2885-15/e35/12331660_1633706986896851_1257679192_n.jpg,toy,0.9485428333282471
,child,0.9480255842208862
,no person,0.9470062851905823
,fun,0.9343727827072144
,people,0.9217194318771362
,group,0.9061622619628906
,art,0.8823134303092957
,illustration,0.8807210922241211
,adult,0.8611284494400024
,balloon,0.8411556482315063
,game,0.830560028553009
,man,0.8234438300132751
,doll,0.8076525926589966
,still life,0.8044368624687195
,boy,0.8043963313102722
,sketch,0.78633713722229
,facial expression,0.7856056690216064
,girl,0.7818201780319214
,color,0.7817283868789673
,youth,0.7617294788360596
https://scontent-sit4-1.cdninstagram.com/t51.2885-15/e35/12224650_1681930325381044_1820494644_n.jpg,no person,0.9758749008178711
,food,0.9546476006507874
,delicious,0.9478887319564819
,plate,0.93317711353302
,breakfast,0.9300856590270996
,cream,0.9287401437759399
,chocolate,0.927544116973877
,milk,0.9207019805908203
,kind,0.8860006928443909
,glass,0.8614933490753174
,traditional,0.8560217022895813
,coffee,0.8546574115753174
,drink,0.8539426326751709
,lunch,0.8505978584289551
,tablecloth,0.8482850790023804
,sugar,0.8482142686843872
,dish,0.8481598496437073
,health,0.8448434472084045
,restaurant,0.8399401903152466
,table,0.838771402835846
https://scontent-sit4-1.cdninstagram.com/t51.2885-15/e35/12107689_181521372183984_56797037_n.jpg,outdoors,0.9890142679214478
,woman,0.979734480381012
,nature,0.9708369374275208
,water,0.9623169898986816
,togetherness,0.9512308835983276
,summer,0.9484766721725464
,fun,0.9475479125976562
,enjoyment,0.9438760280609131
,man,0.9328914880752563
,people,0.9304605722427368
,travel,0.9201704859733582
,child,0.917711615562439
,adolescent,0.9142239689826965
,recreation,0.9082621335983276
,happiness,0.9038199782371521
,leisure,0.9006518125534058
,joy,0.9002102613449097
,friendship,0.8938372135162354
,laughing,0.8877187967300415
,portrait,0.8815305233001709
https://scontent-sit4-1.cdninstagram.com/t51.2885-15/e35/12407410_555754301275654_1327654633_n.jpg,box,0.9130146503448486
,paper,0.9084995985031128
,no person,0.9008989334106445
,text,0.8817733526229858
,celebration,0.878794252872467
,decoration,0.8757700324058533
,desktop,0.8754978179931641
,design,0.8631699085235596
,Christmas,0.8455979824066162
,card,0.8193145990371704
,color,0.8145623207092285
,retro,0.807799220085144
,old,0.7738760709762573
,vacation,0.7692853212356567
,art,0.7622910737991333
,note,0.7607507705688477
,bill,0.7561967372894287
,gift,0.7447699308395386
,vintage,0.7437949776649475
,business,0.7424941062927246
https://scontent-sit4-1.cdninstagram.com/t51.2885-15/e35/12063011_1022513591120920_1604204773_n.jpg,paper,0.9858136177062988
,vertical,0.9635294675827026
,no person,0.9305883049964905
,wood,0.9236360788345337
,business,0.9035604000091553
,text,0.8872283697128296
,finance,0.8854526877403259
,money,0.8807759284973145
,money,0.8277517557144165
,symbol,0.8176443576812744
,sign,0.8172074556350708
,wealth,0.8102240562438965
,letter,0.8084408044815063
,old,0.8023470640182495
,document,0.7948901057243347
,number,0.7906887531280518
,financial,0.7589263916015625
,note,0.7469378709793091
,writing,0.7426203489303589
,investment,0.7403687238693237
https://scontent-sit4-1.cdninstagram.com/t51.2885-15/e35/11910370_1694178240795712_1974900201_n.jpg,illustration,0.9609029293060303
,vector,0.9138678908348083
,business,0.899864912033081
,bill,0.8974629640579224
,symbol,0.8852655291557312
,text,0.8827300071716309
,no person,0.8710175156593323
,collection,0.8692052364349365
,desktop,0.8642812967300415
,banner,0.8472455739974976
,people,0.846373438835144
,vector,0.840715765953064
,label,0.8372596502304077
,sign,0.8367725014686584
,set,0.8083946108818054
,design,0.7997146844863892
,adult,0.7973930239677429
,image,0.7941364645957947
,retro,0.7878061532974243
,horizontal,0.7705169916152954
https://scontent-sit4-1.cdninstagram.com/t51.2885-15/e35/12751256_813651788763378_10367193_n.jpg,gift,0.9344557523727417
,no person,0.9335200786590576
,love,0.9115200042724609
,card,0.9028897881507874
,heart,0.878326416015625
,people,0.8737361431121826
,celebration,0.8460849523544312
,illustration,0.8429060578346252
,wedding,0.8409413695335388
,travel,0.8393346071243286
,desktop,0.8314265012741089
,decoration,0.8258025646209717
,symbol,0.8249112963676453
,business,0.8239350318908691
,technology,0.8204898834228516
,luck,0.8176014423370361
,box,0.8088271617889404
,paper,0.7979311347007751
,design,0.7940666675567627
,gambling,0.7938167452812195
https://scontent-sit4-1.cdninstagram.com/t51.2885-15/e35/12976341_1070097433062403_1907573158_n.jpg,indoors,0.9747785925865173
,contemporary,0.963658332824707
,business,0.9620773792266846
,man,0.9444097876548767
,success,0.9372571706771851
,woman,0.9301633834838867
,intelligence,0.9164564609527588
,people,0.9137939214706421
,healthcare,0.9105164408683777
,looking,0.9071875810623169
,success,0.8794511556625366
,connection,0.830483078956604
,health,0.823367178440094
,paper,0.8222512006759644
,internet,0.8134605884552002
,research,0.8097019195556641
,outdoors,0.7975918054580688
,serious,0.7911515235900879
,young,0.7661864757537842
,eyeglasses,0.7654106616973877
https://scontent-sit4-1.cdninstagram.com/t51.2885-15/e35/13394943_1120066044698298_788053926_n.jpg,business,0.9930757284164429
,internet,0.980002760887146
,computer,0.975584864616394
,technology,0.9694501161575317
,communication,0.9617531299591064
,people,0.9615821242332458
,commerce,0.9597280025482178
,shopping,0.9576096534729004
,spherical,0.9565944671630859
,finance,0.9554119110107422
,market,0.9478379487991333
,World Wide Web,0.9448236227035522
,economy,0.9402937889099121
,money,0.9263625741004944
,display,0.9127806425094604
,bank,0.9104219079017639
,connection,0.9020801782608032
,network,0.899361252784729
,bargain,0.894609272480011
,money,0.8931066989898682
https://scontent-sit4-1.cdninstagram.com/t51.2885-15/e35/13108788_227610130939968_2044495350_n.jpg,indoors,0.9848335981369019
,people,0.9800539016723633
,vertical,0.9783732891082764
,adult,0.9569844603538513
,window,0.9547025561332703
,stock,0.9495788216590881
,business,0.9386626482009888
,outdoors,0.9364960789680481
,man,0.892277717590332
,travel,0.891981840133667
,bar,0.8897225260734558
,shopping,0.8803831338882446
,woman,0.8633245229721069
,architecture,0.8409451246261597
,city,0.8408145904541016
,technology,0.8370424509048462
,illustration,0.8361541032791138
,text,0.8164577484130859
,horizontal,0.8001832962036133
,religion,0.8000643253326416
https://scontent-sit4-1.cdninstagram.com/t51.2885-15/e35/1170205_1570534653237923_1419246848_n.jpg,desktop,0.9829075336456299
,pattern,0.9817824363708496
,collage,0.9804248809814453
,illustration,0.9654990434646606
,mosaic,0.9654139876365662
,collection,0.9598110914230347
,abstract,0.9541499018669128
,business,0.9493891596794128
,show,0.9485076665878296
,alphabet,0.9425334930419922
,art,0.9421893358230591
,symbol,0.9387828707695007
,texture,0.9358565807342529
,design,0.9247474074363708
,set,0.9064356088638306
,money,0.9018094539642334
,square,0.9006145000457764
,rudiment,0.8961324691772461
,graphic,0.8958989381790161
,decoration,0.8925299644470215
https://scontent-sit4-1.cdninstagram.com/t51.2885-15/e35/1170428_1685222925088337_1468644690_n.jpg,food,0.9982618689537048
,meal,0.990318775177002
,cuisine,0.9825335741043091
,dish,0.9820880889892578
,dinner,0.9818835258483887
,epicure,0.9783806800842285
,meat,0.9744042158126831
,vegetable,0.9742741584777832
,cooking,0.973028302192688
,lunch,0.9717662334442139
,plate,0.9716566801071167
,hot,0.9695025682449341
,delicious,0.9582446217536926
,pepper,0.9560983777046204
,healthy,0.9528527855873108
,restaurant,0.9486415386199951
,tasty,0.9430732727050781
,sauce,0.940343976020813
,table,0.9402092695236206
,no person,0.9378150701522827
https://scontent-sit4-1.cdninstagram.com/t51.2885-15/e35/12976553_1611308182521617_1862504583_n.jpg,coffee,0.9971188306808472
,no person,0.9918966293334961
,cup,0.9903911352157593
,caffeine,0.989799976348877
,cappuccino,0.9889596700668335
,espresso,0.9881830215454102
,hot,0.9870010018348694
,breakfast,0.983005166053772
,dawn,0.9828945994377136
,drink,0.9755940437316895
,foam,0.9690837860107422
,cream,0.9631401896476746
,dark,0.9505374431610107
,food,0.9413782358169556
,delicious,0.9348204731941223
,mocha,0.9329131245613098
,mug,0.925408661365509
,saucer,0.8996810913085938
,chocolate,0.8968967199325562
,bean,0.8802378177642822
https://scontent-sit4-1.cdninstagram.com/t51.2885-15/e35/12298783_1663887703882959_1393454395_n.jpg,indoors,0.9738960862159729
,business,0.9648360013961792
,room,0.9643487930297852
,furniture,0.9603140354156494
,exhibition,0.9504580497741699
,inside,0.9477939009666443
,modern,0.9386332035064697
,office,0.9263724684715271
,people,0.9139003753662109
,table,0.9014642238616943
,museum,0.8994075655937195
,stock,0.8988445997238159
,library,0.8967403173446655
,chair,0.8900466561317444
,family,0.8897386789321899
,building,0.888999342918396
,architecture,0.8786280751228333
,contemporary,0.8778119087219238
,education,0.869948148727417
,no person,0.8652223348617554
https://scontent-sit4-1.cdninstagram.com/t51.2885-15/e35/12071045_471011626404052_152968232_n.jpg,no person,0.9939242601394653
,paper,0.9755585193634033
,business,0.9629806280136108
,future,0.9613759517669678
,time,0.9544345140457153
,calendar,0.91599440574646
,annual,0.9072855710983276
,research,0.8826520442962646
,science,0.8696592450141907
,ball-shaped,0.8594803214073181
,graph,0.852373480796814
,graphic design,0.8465838432312012
,travel,0.8420087695121765
,growth,0.835324227809906
,schedule,0.8352267742156982
,date,0.829555332660675
,planner,0.8128131628036499
,technology,0.8096339106559753
,diagram,0.7956415414810181
,map,0.7939613461494446
https://scontent-sit4-1.cdninstagram.com/t51.2885-15/e35/12144106_478947918978323_2060164160_n.jpg,no person,0.9243738055229187
,Christmas,0.9123636484146118
,people,0.900977373123169
,paper,0.8808384537696838
,illustration,0.8731057643890381
,vacation,0.8727025985717773
,card,0.8684239387512207
,business,0.8683762550354004
,winter,0.8590971231460571
,woman,0.8576453924179077
,fun,0.8519130945205688
,celebration,0.851399302482605
,vector,0.8459742069244385
,vertical,0.831901490688324
,desktop,0.8034366369247437
,outdoors,0.7976130247116089
,ornate,0.7929025292396545
,nature,0.7897201776504517
,decoration,0.7842600345611572
,adult,0.77217698097229
https://scontent-sit4-1.cdninstagram.com/t51.2885-15/e35/12353933_496183243895264_701638886_n.jpg,people,0.9877744913101196
,election,0.9753215312957764
,portrait,0.9743601083755493
,rally,0.9710178375244141
,bill,0.9634044766426086
,healthcare,0.9531673192977905
,offense,0.9507898092269897
,battle,0.9413466453552246
,rally,0.9305667877197266
,flag,0.9200304746627808
,administration,0.9185290336608887
,adult,0.9159177541732788
,landscape,0.9101412892341614
,war,0.8980391025543213
,exhibition,0.8943456411361694
,woman,0.8922808766365051
,festival,0.8864344358444214
,revolution,0.881045937538147
,rebellion,0.8584414720535278
,democracy,0.852952778339386
https://scontent-sit4-1.cdninstagram.com/t51.2885-15/e35/12277585_904810209615257_840196525_n.jpg,festival,0.991368293762207
,people,0.9766088128089905
,election,0.9748595356941223
,group,0.9625958204269409
,ceremony,0.962125301361084
,parliament,0.9611682891845703
,religion,0.9598895907402039
,performance,0.95407634973526
,many,0.9519324898719788
,battle,0.9516333341598511
,crowd,0.9478760361671448
,exhibition,0.9433426260948181
,music,0.9408054351806641
,audience,0.9390167593955994
,soccer,0.9352834820747375
,league,0.9350784420967102
,politician,0.9340698719024658
,leader,0.9301794767379761
,military,0.9286028742790222
,administration,0.9283258318901062
https://scontent-sit4-1.cdninstagram.com/t51.2885-15/e35/12940304_1676981352519101_1462765152_n.jpg,food,0.9875788688659668
,no person,0.9865303039550781
,fruit,0.956579864025116
,delicious,0.9559255242347717
,sweet,0.9373323917388916
,health,0.8958226442337036
,bowl,0.8863615989685059
,nutrition,0.8810772895812988
,cooking,0.8704765439033508
,table,0.865059494972229
,refreshment,0.8625035285949707
,sugar,0.8601513504981995
,plate,0.8301466703414917
,breakfast,0.8295356631278992
,healthy,0.8140919208526611
,dinner,0.8103744983673096
,lunch,0.8037289381027222
,wood,0.8031315803527832
,summer,0.8003034591674805
,restaurant,0.7993415594100952
https://scontent-sit4-1.cdninstagram.com/t51.2885-15/e35/12751416_257602137905121_1876045315_n.jpg,food,0.9919643402099609
,no person,0.9903327226638794
,dinner,0.989893913269043
,cooking,0.9861701130867004
,lunch,0.9852337837219238
,meal,0.9630032777786255
,delicious,0.9616062641143799
,vegetable,0.9615535736083984
,pasta,0.9578167200088501
,noodles,0.9550008177757263
,traditional,0.9443483948707581
,nutrition,0.9433939456939697
,dish,0.9329130053520203
,health,0.9306658506393433
,ready,0.924654483795166
,ingredients,0.9226284027099609
,pan,0.9186481237411499
,restaurant,0.9150397777557373
,hot,0.9132571220397949
,cuisine,0.9047490358352661
https://scontent-sit4-1.cdninstagram.com/t51.2885-15/e15/10624378_933172426766933_1476693038_n.jpg,child,0.9928840398788452
,candle,0.9881342053413391
,indoors,0.9818778038024902
,people,0.9738483428955078
,table,0.9670722484588623
,food,0.9664602875709534
,family,0.963239312171936
,little,0.9327152967453003
,cake,0.9246717691421509
,boy,0.9168239831924438
,celebration,0.9118335843086243
,birthday cake,0.9100602865219116
,fun,0.8926094770431519
,young,0.8875373601913452
,enjoyment,0.8867887258529663
,man,0.8852622509002686
,cute,0.8797032833099365
,one,0.8795473575592041
,woman,0.8755201101303101
,girl,0.8735989332199097
https://scontent-sit4-1.cdninstagram.com/t51.2885-15/e35/11820742_1646397872290647_2012168319_n.jpg,food,0.9893416166305542
,no person,0.9838753342628479
,rice,0.9703370332717896
,traditional,0.9507259130477905
,delicious,0.9437766075134277
,cereal,0.9426063299179077
,nutrition,0.938749372959137
,healthy,0.9361347556114197
,corn,0.9353457689285278
,health,0.9257783889770508
,breakfast,0.922039270401001
,homemade,0.9201630353927612
,dish,0.919324517250061
,cooking,0.9188047647476196
,bowl,0.9137024283409119
,lunch,0.9107656478881836
,meal,0.9094545841217041
,refreshment,0.9085301160812378
,sweet,0.9055370688438416
,dinner,0.9047696590423584
https://scontent-sit4-1.cdninstagram.com/t51.2885-15/e35/13259613_1716113928657109_496256078_n.jpg,food,0.9867522120475769
,delicious,0.9778215885162354
,breakfast,0.9704979062080383
,sweet,0.9703636169433594
,no person,0.9653854370117188
,homemade,0.9598541855812073
,refreshment,0.9513065218925476
,tasty,0.9503438472747803
,sugar,0.937238335609436
,meal,0.9355567097663879
,cake,0.930665135383606
,pastry,0.9245282411575317
,nutrition,0.9219328165054321
,bowl,0.9212981462478638
,cream,0.9129630327224731
,traditional,0.911137044429779
,diet,0.9047935605049133
,epicure,0.9021071195602417
,milk,0.9005963802337646
,baking,0.8985303640365601
https://scontent-sit4-1.cdninstagram.com/t51.2885-15/e35/12356605_1177159898979382_330132590_n.jpg,people,0.9691897630691528
,music,0.9585747122764587
,indoors,0.930561900138855
,performance,0.9160333871841431
,window,0.8708615899085999
,light,0.8702288269996643
,no person,0.8667144179344177
,festival,0.8621034026145935
,religion,0.851290225982666
,room,0.8492914438247681
,landscape,0.8386881351470947
,portrait,0.8295789957046509
,exhibition,0.8295059204101562
,movie,0.827558159828186
,technology,0.812559187412262
,travel,0.8101919889450073
,adult,0.8052843809127808
,stock,0.8043934106826782
,musician,0.8032451868057251
,city,0.7989214658737183
https://scontent-sit4-1.cdninstagram.com/t51.2885-15/e35/12071258_965566766843558_97114690_n.jpg,table,0.9994983673095703
,chair,0.9992505311965942
,furniture,0.9988481998443604
,luxury,0.9982174634933472
,hotel,0.9969779253005981
,seat,0.9964916706085205
,dining,0.9962443709373474
,restaurant,0.991479218006134
,patio,0.9914764761924744
,no person,0.9876640439033508
,inside,0.9857335090637207
,cafeteria,0.9856491088867188
,indoors,0.9793875217437744
,tableware,0.9743782877922058
,contemporary,0.9732502698898315
,bistro,0.9719423055648804
,sofa,0.9704281091690063
,interior design,0.9691958427429199
,room,0.9674314260482788
,modern,0.9644826650619507
https://scontent-sit4-1.cdninstagram.com/t51.2885-15/e35/13150754_1695688754027373_644408790_n.jpg,woman,0.9731290936470032
,child,0.9531351327896118
,healthcare,0.9383040070533752
,people,0.938199520111084
,indoors,0.9087885618209839
,man,0.8709093332290649
,togetherness,0.8579427003860474
,adolescent,0.857330322265625
,education,0.8530288934707642
,family,0.8530187606811523
,military,0.8478440046310425
,young,0.840021014213562
,love,0.820476770401001
,health,0.8158586025238037
,vertical,0.8151071667671204
,fun,0.8142451643943787
,cute,0.8038248419761658
,bill,0.7998803853988647
,paper,0.799258828163147
,rally,0.7814842462539673
https://scontent-sit4-1.cdninstagram.com/t51.2885-15/e35/12677165_1719933818222906_237401452_n.jpg,food,0.996126651763916
,meal,0.9901015758514404
,cuisine,0.9845186471939087
,dinner,0.9832748174667358
,vegetable,0.9811213612556458
,dish,0.9807139039039612
,soup,0.9804342985153198
,epicure,0.9762623310089111
,delicious,0.9721958637237549
,lunch,0.971839189529419
,plate,0.9708126783370972
,meat,0.9706687927246094
,cooking,0.9665675759315491
,tasty,0.9632855653762817
,traditional,0.9590945243835449
,healthy,0.9565979242324829
,diet,0.9489151239395142
,restaurant,0.9455912709236145
,hot,0.938149094581604
,bowl,0.9370371103286743
https://scontent-sit4-1.cdninstagram.com/t51.2885-15/e35/13181391_998794783489887_409352506_n.jpg,food,0.9959047436714172
,vegetable,0.9805842638015747
,rice,0.969831645488739
,meal,0.9671941995620728
,dish,0.9655669331550598
,cooking,0.9607468843460083
,delicious,0.9563672542572021
,bowl,0.9514383673667908
,no person,0.9470702409744263
,dinner,0.9462875127792358
,chili,0.9446002244949341
,lunch,0.9425783157348633
,meat,0.9411002993583679
,cuisine,0.941016435623169
,hot,0.9337292909622192
,plate,0.9226800203323364
,egg,0.9193997383117676
,chicken,0.9173527956008911
,restaurant,0.9135376214981079
,onion,0.9126244783401489
https://scontent-sit4-1.cdninstagram.com/t51.2885-15/e35/10919205_627596194045763_534437724_n.jpg,stock,0.9854215979576111
,shopping,0.9836616516113281
,sale,0.9803910255432129
,market,0.9771708250045776
,commerce,0.9679449796676636
,glass,0.9630235433578491
,business,0.9616109132766724
,finance,0.9519267082214355
,bargain,0.9484691023826599
,no person,0.9437435865402222
,drink,0.9420779943466187
,color,0.9366912841796875
,food,0.9315199255943298
,sell,0.9279217720031738
,shop,0.9262124300003052
,money,0.924731433391571
,desktop,0.9132441878318787
,bottle,0.9105560779571533
,container,0.8937106132507324
,money,0.8933607339859009
https://scontent-sit4-1.cdninstagram.com/t51.2885-15/e35/12292749_207446099593475_53603574_n.jpg,illustration,0.9806946516036987
,sketch,0.9669021368026733
,child,0.9556311368942261
,vector,0.9218205213546753
,fun,0.9018498659133911
,graphic,0.8937655687332153
,people,0.8744081258773804
,cute,0.8741003274917603
,laptop,0.8277493715286255
,design,0.8206010460853577
,art,0.7913274765014648
,education,0.7853460907936096
,card,0.7834702730178833
,vector,0.7797023057937622
,desktop,0.7780823707580566
,celebration,0.7763955593109131
,love,0.7711631059646606
,toy,0.7685683965682983
,man,0.7684164047241211
,business,0.7626742124557495
