URL,CLASS,SCORE,PASSION,INTEREST
https://scontent.cdninstagram.com/t51.2885-15/e35/13402175_640445146105182_227880935_n.jpg,beach,0.9936630129814148,recreation,,
,sea,0.9932848215103149,,,
,sunset,0.9923095703125,,,
,water,0.9910612106323242,,,
,ocean,0.989707350730896,,,
,recreation,0.9866795539855957,,,
,kite,0.984980583190918,,,
,sky,0.9842408895492554,,,
,leisure,0.9789860248565674,,,
,parachute,0.970779299736023,,,
,travel,0.9703226089477539,,,
,fly,0.968073844909668,,,
,wind,0.965633749961853,,,
,seashore,0.9634497165679932,,,
,action,0.9619823694229126,,,
,air,0.9565722942352295,,,
,"no person",0.9532238245010376,,,
,freedom,0.9527411460876465,,,
,evening,0.9521592259407043,,,
,dawn,0.9485135674476624,,,
https://scontent.cdninstagram.com/t51.2885-15/s320x320/e35/13395141_1787812598115416_2086518210_n.jpg,family,0.994667649269104,,,
,woman,0.9889777898788452,,,
,people,0.976688027381897,,,
,adult,0.9756660461425781,,,
,indoors,0.9685595035552979,,,
,man,0.9528631567955017,,,
,couple,0.9520294666290283,,,
,room,0.9459454417228699,,,
,two,0.9452336430549622,,,
,togetherness,0.9393484592437744,,,
,young,0.9382463693618774,,,
,communication,0.9374722242355347,,,
,sit,0.9357656240463257,,,
,love,0.9223054647445679,,,
,relationship,0.9217350482940674,,,
,parent,0.9208269119262695,,,
,child,0.9184883236885071,,,
,sofa,0.9179249405860901,,,
,girl,0.9115148782730103,,,
,education,0.9105492234230042,,,
https://scontent.cdninstagram.com/t51.2885-15/e35/13392744_873603036078135_395484036_n.jpg,wheel,0.9938399791717529,transportation,,
,bike,0.9862847328186035,,,
,people,0.9765334129333496,,,
,vehicle,0.972162127494812,,,
,"transportation system",0.9686641693115234,,,
,cyclist,0.9365320205688477,,,
,biker,0.9321107864379883,,,
,man,0.9250838756561279,,,
,sitting,0.9220050573348999,,,
,adult,0.9134577512741089,,,
,road,0.9035593867301941,,,
,vintage,0.9030109643936157,,,
,street,0.8883289098739624,,,
,recreation,0.8785390257835388,,,
,one,0.8707196116447449,,,
,outdoors,0.8631235361099243,,,
,wheel,0.8619145154953003,,,
,helmet,0.853827714920044,,,
,urban,0.8514353632926941,,,
,old,0.8466253280639648,,,
https://scontent.cdninstagram.com/t51.2885-15/s640x640/sh0.08/e35/13413403_154249368319557_1946132600_n.jpg,space,0.9933066368103027,,,
,astronomy,0.9915491342544556,,,
,moon,0.9784353971481323,,,
,desktop,0.9739982485771179,,,
,galaxy,0.9610068798065186,,,
,cosmos,0.9555919170379639,,,
,dark,0.95012366771698,,,
,constellation,0.9292376041412354,,,
,abstract,0.9245487451553345,,,
,"no person",0.9160633683204651,,,
,science,0.8978939056396484,,,
,illustration,0.8953613042831421,,,
,infinity,0.8934848308563232,,,
,fantasy,0.8896142244338989,,,
,exploration,0.881795346736908,,,
,wallpaper,0.8741244673728943,,,
,nebula,0.868410587310791,,,
,dust,0.8557705879211426,,,
,"extraterrestrial being",0.8447922468185425,,,
,design,0.8334360122680664,,,
https://scontent.cdninstagram.com/t51.2885-15/e35/13397702_230382400676796_986477252_n.jpg,food,0.9928451776504517,food,,
,"no person",0.9842507243156433,,,
,breakfast,0.9812783598899841,,,
,delicious,0.9679895043373108,,,
,nutrition,0.9633651375770569,,,
,healthy,0.9604328870773315,,,
,meal,0.9563523530960083,,,
,cooking,0.9461492300033569,,,
,refreshment,0.9398764371871948,,,
,closeup,0.9397435188293457,,,
,health,0.9386721849441528,,,
,wood,0.9361956119537354,,,
,traditional,0.9244648218154907,,,
,homemade,0.9224840998649597,,,
,sweet,0.9206115007400513,,,
,cereal,0.9052489995956421,,,
,milk,0.9035207629203796,,,
,lunch,0.9016822576522827,,,
,rustic,0.8972328901290894,,,
,diet,0.8907283544540405,,,
https://scontent.cdninstagram.com/t51.2885-15/s320x320/e35/13534172_1045895758796954_1710423397_n.jpg,cardboard,0.9879858493804932,,,
,"no person",0.9732348322868347,,,
,paper,0.96573406457901,,,
,recycling,0.9550617933273315,,,
,box,0.9349517822265625,,,
,corrugated,0.9333294630050659,,,
,business,0.9146968126296997,,,
,simplicity,0.9104286432266235,,,
,empty,0.900079607963562,,,
,carton,0.8824590444564819,,,
,wear,0.8756906986236572,,,
,post,0.8731473684310913,,,
,mail,0.857207715511322,,,
,dirty,0.8525675535202026,,,
,writing,0.8495029211044312,,,
,bundle,0.8429341316223145,,,
,horizontal,0.841978907585144,,,
,wood,0.8167552947998047,,,
,secrecy,0.7927826046943665,,,
,indoors,0.7903798818588257,,,
https://scontent.cdninstagram.com/t51.2885-15/e35/13397506_967498736704470_1416333520_n.jpg,"transportation system",0.9973056316375732,travel,,
,airport,0.9933665990829468,,,
,travel,0.9933429956436157,,,
,airplane,0.9891116619110107,,,
,vehicle,0.9888606071472168,,,
,traffic,0.9837378263473511,,,
,aircraft,0.9717772006988525,,,
,road,0.9586009383201599,,,
,city,0.9496476054191589,,,
,sky,0.9455634355545044,,,
,car,0.943670928478241,,,
,"no person",0.9424359798431396,,,
,jet,0.9089497327804565,,,
,arrival,0.9075987339019775,,,
,urban,0.8984977006912231,,,
,commercial,0.8899762630462646,,,
,shipment,0.8866428136825562,,,
,fast,0.8790053129196167,,,
,street,0.861158013343811,,,
,airbus,0.8551459908485413,,,
https://scontent.cdninstagram.com/t51.2885-15/s640x640/sh0.08/e35/13277759_952144798237850_2048602031_n.jpg,paper,0.9765318036079407,design,,
,writing,0.9524928331375122,,,
,wood,0.9491162300109863,,,
,retro,0.941379189491272,,,
,text,0.9397510290145874,,,
,education,0.9289820194244385,,,
,document,0.9257233142852783,,,
,business,0.9168972969055176,,,
,old,0.9102660417556763,,,
,time,0.9018102884292603,,,
,vintage,0.9006966948509216,,,
,"no person",0.8998556137084961,,,
,desktop,0.8890519738197327,,,
,antique,0.8848789930343628,,,
,page,0.8721544742584229,,,
,sign,0.8429607152938843,,,
,book,0.8365759253501892,,,
,wooden,0.8353689908981323,,,
,wisdom,0.8276928663253784,,,
,law,0.8204382658004761,,,
https://scontent.cdninstagram.com/t51.2885-15/e35/13397584_988954857886243_1797361146_n.jpg,shopping,0.9918084144592285,shopping,,
,people,0.9906637668609619,,,
,commerce,0.9865444898605347,,,
,tourist,0.9844133853912354,,,
,stock,0.9808938503265381,,,
,restaurant,0.9729543924331665,,,
,tourism,0.9650738835334778,,,
,market,0.9628044366836548,,,
,city,0.9627075791358948,,,
,travel,0.95461106300354,,,
,many,0.953242301940918,,,
,group,0.9336820840835571,,,
,street,0.9323298335075378,,,
,marquee,0.9212796688079834,,,
,crowd,0.913672924041748,,,
,carnival,0.9054960012435913,,,
,festival,0.9032816886901855,,,
,wear,0.8949399590492249,,,
,shop,0.8867632150650024,,,
,bar,0.883060872554779,,,
https://scontent.cdninstagram.com/t51.2885-15/e35/13551609_1551271535179395_1441022724_n.jpg,paper,0.9894029498100281,business,,
,"no person",0.9860014915466309,,,
,business,0.9715405702590942,,,
,text,0.9560596942901611,,,
,page,0.9174160361289978,,,
,document,0.9157916307449341,,,
,internet,0.9081714153289795,,,
,retro,0.8847378492355347,,,
,empty,0.861666738986969,,,
,empty,0.8525757193565369,,,
,letter,0.8490704298019409,,,
,data,0.8420323133468628,,,
,writing,0.8221731781959534,,,
,blank,0.8016306161880493,,,
,identity,0.788840115070343,,,
,antique,0.7866228222846985,,,
,indoors,0.7714744806289673,,,
,post,0.7509745359420776,,,
,security,0.7480930089950562,,,
,education,0.7453290224075317,,,
https://scontent.cdninstagram.com/t51.2885-15/e35/13557312_1631289753782255_1705935797_n.jpg,indoors,0.9975773096084595,design,,
,furniture,0.9958057999610901,,,
,table,0.9935396313667297,,,
,"interior design",0.9930111169815063,,,
,room,0.9903505444526672,,,
,inside,0.9889475107192993,,,
,chandelier,0.9888218641281128,,,
,seat,0.9877532124519348,,,
,luxury,0.9858015775680542,,,
,hotel,0.9794360399246216,,,
,chair,0.979433536529541,,,
,ceiling,0.9785147905349731,,,
,"no person",0.9761162996292114,,,
,lobby,0.9662261009216309,,,
,architecture,0.9592090249061584,,,
,lamp,0.9544122815132141,,,
,window,0.9509887099266052,,,
,"dining room",0.9498889446258545,,,
,home,0.9498727321624756,,,
,floor,0.9472577571868896,,,
https://scontent.cdninstagram.com/t51.2885-15/e35/13395032_1259076967455534_1519623782_n.jpg,woman,0.9912599325180054,relationships,,
,people,0.9778708219528198,,,
,man,0.965647280216217,,,
,sunglasses,0.9578603506088257,,,
,eyeglasses,0.9574522972106934,,,
,fun,0.9518430233001709,,,
,outdoors,0.9453190565109253,,,
,portrait,0.9396108388900757,,,
,wear,0.9168449640274048,,,
,togetherness,0.916217565536499,,,
,two,0.913730800151825,,,
,love,0.9065291881561279,,,
,friendship,0.8803685307502747,,,
,family,0.8781747221946716,,,
,leisure,0.8719573020935059,,,
,young,0.8665749430656433,,,
,eyewear,0.841949462890625,,,
,enjoyment,0.8363054394721985,,,
,adolescent,0.8360797166824341,,,
,child,0.8220877647399902,,,
https://scontent.cdninstagram.com/t51.2885-15/e35/13256691_1381270351899583_721696559_n.jpg,people,0.9833451509475708,business,,
,adult,0.9440574645996094,,,
,business,0.9341723918914795,,,
,stock,0.9171674251556396,,,
,woman,0.9028761386871338,,,
,portrait,0.8997856378555298,,,
,shopping,0.8689062595367432,,,
,indoors,0.8605111837387085,,,
,one,0.8315070271492004,,,
,commerce,0.8207106590270996,,,
,money,0.800603985786438,,,
,paper,0.7928659915924072,,,
,bill,0.7805781364440918,,,
,vertical,0.7661019563674927,,,
,offense,0.7300428748130798,,,
,money,0.7210698127746582,,,
,education,0.7108379602432251,,,
,market,0.6992604732513428,,,
,text,0.6761963367462158,,,
,person,0.673517107963562,,,
https://scontent.cdninstagram.com/t51.2885-15/e35/13398472_286499531686151_777953222_n.jpg,skyscraper,0.9973500967025757,relationships,,
,office,0.9947669506072998,,,
,city,0.9944548606872559,,,
,building,0.9930775165557861,,,
,architecture,0.9904177188873291,,,
,urban,0.9897680282592773,,,
,downtown,0.989434003829956,,,
,business,0.9879755973815918,,,
,tallest,0.9871653318405151,,,
,modern,0.9870523810386658,,,
,tower,0.9814846515655518,,,
,glass,0.9769910573959351,,,
,finance,0.9765251278877258,,,
,cityscape,0.9699225425720215,,,
,construction,0.9692748785018921,,,
,skyline,0.9685789346694946,,,
,steel,0.9685436487197876,,,
,expression,0.9633384943008423,,,
,financial,0.9602205753326416,,,
,window,0.954621434211731,,,
https://scontent.cdninstagram.com/t51.2885-15/s640x640/e15/13266707_1599058537052563_456768640_n.jpg,"no person",0.9970950484275818,food,,
,paper,0.9901540279388428,,,
,food,0.9862550497055054,,,
,wood,0.9828583598136902,,,
,ingredients,0.9775038957595825,,,
,cooking,0.9641709327697754,,,
,health,0.9615893363952637,,,
,knife,0.9554406404495239,,,
,traditional,0.9500355124473572,,,
,cheese,0.947824239730835,,,
,milk,0.9463938474655151,,,
,delicious,0.9399162530899048,,,
,wooden,0.9291341304779053,,,
,homemade,0.9240243434906006,,,
,nutrition,0.9088437557220459,,,
,dairy,0.9081128835678101,,,
,baking,0.8993077874183655,,,
,table,0.8892196416854858,,,
,rustic,0.8840889930725098,,,
,preparation,0.8737794160842896,,,
https://scontent.cdninstagram.com/t51.2885-15/e35/13248895_218459045203155_213397445_n.jpg,food,0.9962189197540283,food,,
,"no person",0.9961996078491211,,,
,cooking,0.9696373343467712,,,
,epicure,0.9641052484512329,,,
,meat,0.9405480623245239,,,
,delicious,0.9389284253120422,,,
,sweet,0.934211254119873,,,
,meal,0.926552951335907,,,
,cream,0.9245644211769104,,,
,slice,0.9229087233543396,,,
,tasty,0.9214037656784058,,,
,refreshment,0.9024317860603333,,,
,fruit,0.8915749788284302,,,
,summer,0.8908427953720093,,,
,flame,0.873853325843811,,,
,dinner,0.8712749481201172,,,
,healthy,0.8589714765548706,,,
,beef,0.8553619384765625,,,
,goody,0.8538973331451416,,,
,strawberry,0.8478137254714966,,,
https://scontent.cdninstagram.com/t51.2885-15/e35/13258847_486238424912465_790985872_n.jpg,shopping,0.981026828289032,shopping,,
,stock,0.9759578704833984,,,
,people,0.9710781574249268,,,
,commerce,0.9689809679985046,,,
,market,0.9660564661026001,,,
,city,0.943665623664856,,,
,exhibition,0.9246625900268555,,,
,group,0.9245633482933044,,,
,street,0.9221138954162598,,,
,many,0.9132705926895142,,,
,shop,0.9051845073699951,,,
,tourist,0.8847261071205139,,,
,festival,0.8781805038452148,,,
,booth,0.8722103834152222,,,
,crowd,0.8504384756088257,,,
,business,0.8344777226448059,,,
,competition,0.8184506297111511,,,
,restaurant,0.8055588006973267,,,
,bar,0.780983030796051,,,
,woman,0.778200626373291,,,
https://scontent.cdninstagram.com/t51.2885-15/e35/13422792_1065301713537389_1742144803_n.jpg,"no person",0.9933631420135498,,,
,vehicle,0.9525039196014404,,,
,illuminated,0.9523590803146362,,,
,astronomy,0.9427211284637451,,,
,light,0.9351236820220947,,,
,exploration,0.9258756637573242,,,
,dark,0.9234877824783325,,,
,"transportation system",0.9112852215766907,,,
,travel,0.9052352905273438,,,
,music,0.8878297805786133,,,
,outdoors,0.8790334463119507,,,
,motion,0.8602038025856018,,,
,science,0.8514399528503418,,,
,competition,0.8474993705749512,,,
,observatory,0.8382903933525085,,,
,spacecraft,0.8278392553329468,,,
,blur,0.8162383437156677,,,
,action,0.8031525015830994,,,
,airplane,0.8007451295852661,,,
,aircraft,0.7983598709106445,,,
https://scontent.cdninstagram.com/t51.2885-15/e35/13397706_1091139024290941_654394582_n.jpg,food,0.9989429116249084,food,,
,cuisine,0.9937676191329956,,,
,vegetable,0.9936675429344177,,,
,meal,0.9924246072769165,,,
,dish,0.9909669756889343,,,
,dinner,0.9895322322845459,,,
,bowl,0.986217737197876,,,
,lunch,0.9816361665725708,,,
,plate,0.9815617799758911,,,
,cooking,0.9774142503738403,,,
,healthy,0.9773061275482178,,,
,epicure,0.9762426018714905,,,
,sauce,0.974658727645874,,,
,hot,0.9735045433044434,,,
,delicious,0.9717333316802979,,,
,tasty,0.9706586599349976,,,
,traditional,0.9660487771034241,,,
,appetizer,0.9582812190055847,,,
,soup,0.958067774772644,,,
,diet,0.9541183710098267,,,
https://scontent.cdninstagram.com/t51.2885-15/s640x640/e15/13388565_253202398383923_220649293_n.jpg,"no person",0.9865040183067322,,,
,road,0.9685078859329224,,,
,light,0.9512608051300049,,,
,landscape,0.9422773122787476,,,
,street,0.926528811454773,,,
,environment,0.9259623289108276,,,
,guidance,0.90977942943573,,,
,leaf,0.9008688926696777,,,
,daylight,0.8826808929443359,,,
,pavement,0.882341742515564,,,
,offense,0.8757931590080261,,,
,garden,0.8617532849311829,,,
,outdoors,0.8555257320404053,,,
,travel,0.851183295249939,,,
,flower,0.8477799892425537,,,
,park,0.8348692655563354,,,
,people,0.8324889540672302,,,
,tree,0.8129565119743347,,,
,shadow,0.8084467649459839,,,
,tunnel,0.807280421257019,,,
https://scontent.cdninstagram.com/t51.2885-15/e35/13099007_498170287042490_2057849328_n.jpg,"no person",0.9825003147125244,business,,
,paper,0.9655563235282898,,,
,shopping,0.9553529024124146,,,
,illustration,0.9551335573196411,,,
,business,0.920143723487854,,,
,woman,0.8901476860046387,,,
,wealth,0.8867381811141968,,,
,people,0.8835967779159546,,,
,vertical,0.876933217048645,,,
,isolated,0.8726063370704651,,,
,man,0.8555878400802612,,,
,retro,0.8191498517990112,,,
,identity,0.8095159530639648,,,
,bill,0.8032714128494263,,,
,isolated,0.7936944961547852,,,
,text,0.7884887456893921,,,
,success,0.786366879940033,,,
,card,0.7800360918045044,,,
,shop,0.753075361251831,,,
,symbol,0.7523508071899414,,,
https://scontent.cdninstagram.com/t51.2885-15/e35/13260968_625941267558248_432979259_n.jpg,sticky,0.9928721189498901,,,
,blank,0.9885261058807373,,,
,paper,0.9875540137290955,,,
,note,0.9792078137397766,,,
,empty,0.9739822149276733,,,
,design,0.9714666604995728,,,
,business,0.9702398777008057,,,
,label,0.9639648199081421,,,
,template,0.9563850164413452,,,
,message,0.9542370438575745,,,
,empty,0.9433343410491943,,,
,image,0.941845178604126,,,
,square,0.9343949556350708,,,
,shadow,0.9325193166732788,,,
,element,0.9309865832328796,,,
,reminder,0.9285344481468201,,,
,memo,0.9282327890396118,,,
,"no person",0.9281047582626343,,,
,illustration,0.9260439872741699,,,
,office,0.9258360862731934,,,
https://scontent.cdninstagram.com/t51.2885-15/s480x480/e35/13398744_254112164958380_313618149_n.jpg,"no person",0.9874681234359741,,,
,text,0.961206316947937,,,
,business,0.9553167223930359,,,
,display,0.9285392165184021,,,
,desktop,0.9128849506378174,,,
,horizontal,0.8804562091827393,,,
,money,0.8765281438827515,,,
,data,0.8619024157524109,,,
,dark,0.858721137046814,,,
,commerce,0.8275341987609863,,,
,education,0.8188174962997437,,,
,security,0.811053991317749,,,
,industry,0.8055597543716431,,,
,data,0.788351833820343,,,
,retro,0.7842598557472229,,,
,typography,0.7821762561798096,,,
,technology,0.7774561643600464,,,
,sign,0.75773024559021,,,
,market,0.7559629678726196,,,
,"picture frame",0.7542210221290588,,,
https://scontent.cdninstagram.com/t51.2885-15/s640x640/e15/13556835_623807671128936_1833523338_n.jpg,indoors,0.9725178480148315,architecture,,
,room,0.9710321426391602,,,
,"no person",0.9704304933547974,,,
,stock,0.9679878950119019,,,
,business,0.9563035368919373,,,
,commerce,0.9544277191162109,,,
,industry,0.9382154941558838,,,
,architecture,0.9303697347640991,,,
,furniture,0.9266918897628784,,,
,exhibition,0.9203581809997559,,,
,shelf,0.9147641658782959,,,
,daylight,0.9071462154388428,,,
,technology,0.9010995626449585,,,
,modern,0.8906558752059937,,,
,city,0.8619856834411621,,,
,rack,0.8592594861984253,,,
,home,0.8555742502212524,,,
,museum,0.849123477935791,,,
,window,0.8397252559661865,,,
,travel,0.8354521989822388,,,
https://scontent.cdninstagram.com/t51.2885-15/e35/13408892_1719883561612632_143273468_n.jpg,garden,0.9951286911964417,recreation,,
,park,0.9902939796447754,,,
,walk,0.9892520904541016,,,
,people,0.9891018867492676,,,
,flower,0.9809485077857971,,,
,tree,0.9759986400604248,,,
,girl,0.9726605415344238,,,
,guidance,0.9724973440170288,,,
,road,0.9539358019828796,,,
,recreation,0.9474574327468872,,,
,woman,0.9423385858535767,,,
,footpath,0.9405796527862549,,,
,bridge,0.9392520189285278,,,
,religion,0.9371117353439331,,,
,summer,0.9320584535598755,,,
,landscape,0.9299218654632568,,,
,street,0.9272967576980591,,,
,adult,0.9238475561141968,,,
,architecture,0.9231293201446533,,,
,outdoors,0.9111688733100891,,,
https://scontent.cdninstagram.com/t51.2885-15/s640x640/sh0.08/e35/13277592_741416189294182_1721636621_n.jpg,people,0.9724574089050293,,,
,education,0.9710845351219177,,,
,music,0.9339079856872559,,,
,school,0.9330228567123413,,,
,landscape,0.930682897567749,,,
,child,0.9295545816421509,,,
,woman,0.9005387425422668,,,
,festival,0.9002007842063904,,,
,classroom,0.8883389234542847,,,
,recreation,0.8714141249656677,,,
,business,0.8561861515045166,,,
,energy,0.8560227155685425,,,
,adult,0.8496773838996887,,,
,indoors,0.8370026350021362,,,
,man,0.8363451957702637,,,
,teacher,0.82929927110672,,,
,one,0.8268442153930664,,,
,science,0.8202353715896606,,,
,religion,0.817250669002533,,,
,fun,0.8060228824615479,,,
https://scontent.cdninstagram.com/t51.2885-15/e35/13248744_623289591157222_1764482541_n.jpg,pill,0.9911714792251587,beauty,,
,medicine,0.9855550527572632,,,
,treatment,0.9846000671386719,,,
,aid,0.9685006141662598,,,
,detail,0.9628983736038208,,,
,pain,0.9600773453712463,,,
,drug,0.9569433927536011,,,
,illness,0.956428587436676,,,
,healthcare,0.9525656700134277,,,
,prescription,0.9520513415336609,,,
,health,0.9497867822647095,,,
,cure,0.9454031586647034,,,
,science,0.9395752549171448,,,
,capsule,0.9390788078308105,,,
,medical,0.9325639009475708,,,
,care,0.9266586899757385,,,
,business,0.9095973968505859,,,
,addiction,0.9023460149765015,,,
,isolated,0.9023004174232483,,,
,hospital,0.9005031585693359,,,
https://scontent.cdninstagram.com/t51.2885-15/s640x640/e15/13394964_1773512099591964_1873160156_n.jpg,palm,0.9973925352096558,travel,,
,tropical,0.9952324628829956,,,
,beach,0.9857499003410339,,,
,travel,0.9842042922973633,,,
,resort,0.9841274619102478,,,
,exotic,0.9825265407562256,,,
,vacation,0.982132077217102,,,
,tree,0.9803935289382935,,,
,paradise,0.9782857894897461,,,
,summer,0.9682666659355164,,,
,island,0.9676739573478699,,,
,hotel,0.9667419195175171,,,
,coconut,0.966283917427063,,,
,water,0.9495189189910889,,,
,ocean,0.9493297338485718,,,
,seashore,0.9489526152610779,,,
,tourism,0.9477548599243164,,,
,sand,0.9438114762306213,,,
,sun,0.9401534795761108,,,
,luxury,0.9314179420471191,,,
https://scontent.cdninstagram.com/t51.2885-15/e35/13329064_1553980711570701_592631852_n.jpg,paper,0.9961493611335754,business,,
,document,0.9945907592773438,,,
,business,0.9778282642364502,,,
,composition,0.9760382175445557,,,
,"no person",0.9619806408882141,,,
,writing,0.9313601851463318,,,
,text,0.9197051525115967,,,
,page,0.9024230241775513,,,
,administration,0.8925654888153076,,,
,letter,0.8728333711624146,,,
,handwriting,0.8623305559158325,,,
,notebook,0.8588540554046631,,,
,sign,0.8541123867034912,,,
,note,0.8413053750991821,,,
,pencil,0.8180252313613892,,,
,finance,0.8134133815765381,,,
,education,0.8103684186935425,,,
,office,0.8045181035995483,,,
,success,0.8026798963546753,,,
,money,0.8021206855773926,,,
https://scontent.cdninstagram.com/t51.2885-15/e35/13437244_497415567124682_588075121_n.jpg,child,0.9888703227043152,entertainment,,
,people,0.9799140691757202,,,
,fun,0.9501788020133972,,,
,toy,0.9180666208267212,,,
,man,0.9130604267120361,,,
,robot,0.9066119194030762,,,
,one,0.8658970594406128,,,
,street,0.8541115522384644,,,
,"no person",0.8474658131599426,,,
,character,0.8263289928436279,,,
,funny,0.8167030811309814,,,
,woman,0.8148472905158997,,,
,portrait,0.7783748507499695,,,
,family,0.7664214968681335,,,
,humor,0.754919171333313,,,
,vehicle,0.7380448579788208,,,
,wear,0.7297320365905762,,,
,movie,0.7273278832435608,,,
,doll,0.719825029373169,,,
,art,0.7171132564544678,,,
https://scontent.cdninstagram.com/t51.2885-15/sh0.08/e35/p750x750/13181362_569497559919665_437744838_n.jpg,man,0.987913966178894,food,,
,indoors,0.9848224520683289,,,
,people,0.980935275554657,,,
,restaurant,0.9732904434204102,,,
,one,0.9671853184700012,,,
,adult,0.9608671069145203,,,
,food,0.9512320756912231,,,
,chef,0.9244641065597534,,,
,meal,0.9139680862426758,,,
,portrait,0.8951790928840637,,,
,table,0.8853302001953125,,,
,cooking,0.8803759813308716,,,
,drink,0.8761118054389954,,,
,beef,0.874800443649292,,,
,meat,0.8531856536865234,,,
,coffee,0.8391571640968323,,,
,sunglasses,0.8264225125312805,,,
,wear,0.8261522650718689,,,
,wine,0.8224821090698242,,,
,lunch,0.8007606267929077,,,
https://scontent.cdninstagram.com/t51.2885-15/e35/13381421_898851433558365_1576165319_n.jpg,food,0.998301088809967,food,,
,meat,0.997252345085144,,,
,dinner,0.9944579005241394,,,
,meal,0.9940897226333618,,,
,lunch,0.9908014535903931,,,
,dish,0.9858941435813904,,,
,plate,0.9852283000946045,,,
,vegetable,0.980750322341919,,,
,cuisine,0.9770647287368774,,,
,delicious,0.9714301824569702,,,
,pork,0.9647083282470703,,,
,tasty,0.9645107984542847,,,
,epicure,0.962486982345581,,,
,restaurant,0.9615707397460938,,,
,cooking,0.9613348841667175,,,
,potato,0.9612284302711487,,,
,hot,0.9586334228515625,,,
,sauce,0.9558829665184021,,,
,chicken,0.948441743850708,,,
,healthy,0.9459526538848877,,,
https://scontent.cdninstagram.com/t51.2885-15/e35/13277782_511086972411104_1722650811_n.jpg,"World Wide Web",0.9931652545928955,,,
,site,0.9930381774902344,,,
,page,0.9807287454605103,,,
,vector,0.9744503498077393,,,
,banner,0.9721493721008301,,,
,graph,0.9628337621688843,,,
,number,0.9552085399627686,,,
,vector,0.9532638788223267,,,
,internet,0.9356456995010376,,,
,form,0.9320412278175354,,,
,vertical,0.9268615245819092,,,
,presentation,0.9251148104667664,,,
,template,0.9240520000457764,,,
,illustration,0.9198516607284546,,,
,label,0.9048906564712524,,,
,set,0.8960119485855103,,,
,diagram,0.8954266309738159,,,
,layout,0.8914871215820312,,,
,arrow,0.8835887908935547,,,
,user,0.8772947788238525,,,
https://scontent.cdninstagram.com/t51.2885-15/s750x750/sh0.08/e35/13188209_184069495325700_323703600_n.jpg,woman,0.986631453037262,fashion,,
,people,0.9833780527114868,,,
,portrait,0.9754399061203003,,,
,one,0.9751237630844116,,,
,indoors,0.9490964412689209,,,
,adult,0.9444873332977295,,,
,"facial expression",0.8682941794395447,,,
,wear,0.8451895713806152,,,
,adolescent,0.8352879881858826,,,
,girl,0.8326301574707031,,,
,room,0.811344563961029,,,
,child,0.8077320456504822,,,
,looking,0.785703182220459,,,
,daylight,0.7360461950302124,,,
,fashion,0.7213297486305237,,,
,glamour,0.6809248328208923,,,
,door,0.66504967212677,,,
,door,0.6406185030937195,,,
,model,0.6387506723403931,,,
,pretty,0.6219033002853394,,,
https://scontent.cdninstagram.com/t51.2885-15/e35/13423013_1555996154702589_1152759237_n.jpg,people,0.9915249347686768,fashion,,
,one,0.9861526489257812,,,
,tree,0.9797791242599487,,,
,flower,0.9794621467590332,,,
,woman,0.9714788198471069,,,
,portrait,0.9668623805046082,,,
,adult,0.9651200771331787,,,
,garden,0.9452521800994873,,,
,model,0.923479437828064,,,
,girl,0.9146941900253296,,,
,recreation,0.903387188911438,,,
,leisure,0.8963525891304016,,,
,bench,0.8901030421257019,,,
,hotel,0.8842628002166748,,,
,outdoors,0.88361656665802,,,
,tropical,0.8603216409683228,,,
,fashion,0.852555513381958,,,
,summer,0.8397308588027954,,,
,nature,0.8373381495475769,,,
,patio,0.8272169828414917,,,
https://scontent.cdninstagram.com/t51.2885-15/e35/13259089_1135964226467624_331259040_n.jpg,people,0.9840199947357178,travel,,
,stone,0.9811996221542358,,,
,travel,0.979028582572937,,,
,architecture,0.9623539447784424,,,
,outdoors,0.9577996730804443,,,
,one,0.9567009210586548,,,
,adult,0.9481801986694336,,,
,two,0.9419189691543579,,,
,ancient,0.9353516101837158,,,
,rock,0.9305222034454346,,,
,nature,0.9295635223388672,,,
,building,0.921531081199646,,,
,religion,0.9200019836425781,,,
,temple,0.9135401248931885,,,
,child,0.9080298542976379,,,
,daylight,0.8868416547775269,,,
,tourist,0.8865955471992493,,,
,tourism,0.8598875999450684,,,
,woman,0.8514500856399536,,,
,wood,0.8506349325180054,,,
https://scontent.cdninstagram.com/t51.2885-15/e35/13392772_958701947558532_1054683416_n.jpg,city,0.9974386692047119,architecture,,
,architecture,0.9954246282577515,,,
,skyscraper,0.9942141771316528,,,
,skyline,0.9925564527511597,,,
,twin,0.9915258884429932,,,
,tower,0.9900360107421875,,,
,cityscape,0.9889343976974487,,,
,tallest,0.9847512245178223,,,
,downtown,0.9845869541168213,,,
,urban,0.9800766706466675,,,
,building,0.9761853218078613,,,
,sky,0.9719438552856445,,,
,travel,0.9715566635131836,,,
,modern,0.9712769985198975,,,
,"no person",0.9659844636917114,,,
,office,0.9648700952529907,,,
,high,0.955761194229126,,,
,business,0.9480984807014465,,,
,finance,0.9354753494262695,,,
,construction,0.9326947331428528,,,
https://scontent.cdninstagram.com/t51.2885-15/e35/13269543_1539859266322962_786257519_n.jpg,food,0.9965070486068726,food,,
,"no person",0.9848514795303345,,,
,dinner,0.9839943647384644,,,
,meat,0.9749855399131775,,,
,meal,0.9736137390136719,,,
,bread,0.9711120128631592,,,
,lunch,0.9698637127876282,,,
,chicken,0.956062912940979,,,
,dish,0.9555106163024902,,,
,cooking,0.9504942893981934,,,
,vegetable,0.949973464012146,,,
,poultry,0.9446777701377869,,,
,knife,0.9442104697227478,,,
,plate,0.9410790205001831,,,
,grow,0.9343833923339844,,,
,delicious,0.9141552448272705,,,
,pork,0.8875645399093628,,,
,cuisine,0.880431056022644,,,
,potato,0.8666559457778931,,,
,wood,0.8633408546447754,,,
https://scontent.cdninstagram.com/t51.2885-15/e35/13109136_1706392786245150_1929185185_n.jpg,round,0.9935753345489502,,,
,accuracy,0.9920172691345215,,,
,precision,0.9913331270217896,,,
,target,0.9911434650421143,,,
,time,0.9883400201797485,,,
,"no person",0.977301836013794,,,
,accurate,0.9696921706199646,,,
,clock,0.9645362496376038,,,
,desktop,0.9624085426330566,,,
,watch,0.9463260173797607,,,
,arrow,0.9448447227478027,,,
,dart,0.9379482269287109,,,
,arrow,0.9366774559020996,,,
,number,0.9360326528549194,,,
,hit,0.9218249320983887,,,
,business,0.9194948673248291,,,
,technology,0.9183302521705627,,,
,dial,0.907076895236969,,,
,round,0.9002028703689575,,,
,aim,0.8965359926223755,,,
https://scontent.cdninstagram.com/t51.2885-15/e35/13391091_1628598207457375_682117939_n.jpg,shopping,0.9994432926177979,shopping,,
,commerce,0.998790979385376,,,
,stock,0.9987607598304749,,,
,market,0.9972610473632812,,,
,tourist,0.9886023998260498,,,
,city,0.9882917404174805,,,
,people,0.9839475154876709,,,
,shop,0.9783200025558472,,,
,street,0.9779747724533081,,,
,bazaar,0.9747500419616699,,,
,many,0.9721824526786804,,,
,group,0.9664428234100342,,,
,booth,0.9643157720565796,,,
,tourism,0.9613887071609497,,,
,road,0.9502224326133728,,,
,billboard,0.9449224472045898,,,
,crowd,0.9376504421234131,,,
,urban,0.9023658037185669,,,
,merchandise,0.8979146480560303,,,
,daylight,0.8965120911598206,,,
https://scontent.cdninstagram.com/t51.2885-15/e35/13258920_651474248337907_981945419_n.jpg,sitting,0.9947292804718018,recreation,,
,cavalry,0.9945929050445557,,,
,mammal,0.993720531463623,,,
,people,0.9889665842056274,,,
,adult,0.9853056073188782,,,
,recreation,0.9816626906394958,,,
,horse,0.9800189733505249,,,
,equestrian,0.9778247475624084,,,
,man,0.9639757871627808,,,
,rider,0.9560382962226868,,,
,saddle,0.954587996006012,,,
,competition,0.9506453275680542,,,
,cowboy,0.9488540887832642,,,
,race,0.9445962309837341,,,
,lid,0.9434456825256348,,,
,woman,0.9397333860397339,,,
,one,0.9340106248855591,,,
,two,0.9336711764335632,,,
,action,0.9320838451385498,,,
,motion,0.9276107549667358,,,
https://scontent.cdninstagram.com/t51.2885-15/e35/13256674_826729274128056_573970153_n.jpg,farm,0.9931703805923462,,,
,cavalry,0.9835957884788513,,,
,animal,0.981645941734314,,,
,livestock,0.9814469814300537,,,
,rural,0.977225661277771,,,
,mammal,0.975264310836792,,,
,horse,0.972051739692688,,,
,outdoors,0.958448588848114,,,
,agriculture,0.9554448127746582,,,
,nature,0.9533076286315918,,,
,equestrian,0.9429972767829895,,,
,competition,0.9424811601638794,,,
,pony,0.934309184551239,,,
,agriculture,0.9218837022781372,,,
,grass,0.9209966659545898,,,
,domestic,0.9128144979476929,,,
,saddle,0.9110375642776489,,,
,sitting,0.9105937480926514,,,
,cowboy,0.8994807004928589,,,
,equine,0.8926623463630676,,,
https://scontent.cdninstagram.com/t51.2885-15/e35/13423602_1208474469172376_481317875_n.jpg,furniture,0.9873612523078918,design,,
,indoors,0.9792389869689941,,,
,seat,0.9675710201263428,,,
,room,0.9618414640426636,,,
,vehicle,0.9403926730155945,,,
,table,0.9360557198524475,,,
,"no person",0.934418797492981,,,
,chair,0.9295315742492676,,,
,"interior design",0.9118506908416748,,,
,production,0.9096876978874207,,,
,museum,0.8987153768539429,,,
,airplane,0.8912372589111328,,,
,people,0.8787519931793213,,,
,industry,0.8716816902160645,,,
,exhibition,0.8643522262573242,,,
,desk,0.8642003536224365,,,
,light,0.8501197099685669,,,
,business,0.8499899506568909,,,
,aircraft,0.8468890190124512,,,
,floor,0.8445253372192383,,,
https://scontent.cdninstagram.com/t51.2885-15/e35/13398436_1202176339821976_1674489887_n.jpg,architecture,0.994114875793457,architecture,,
,street,0.9886163473129272,,,
,travel,0.9882417917251587,,,
,"no person",0.9782513380050659,,,
,city,0.9733428955078125,,,
,daylight,0.9672582149505615,,,
,outdoors,0.9638267755508423,,,
,people,0.963049590587616,,,
,building,0.9580539464950562,,,
,tourist,0.9561560153961182,,,
,stock,0.9558098316192627,,,
,commerce,0.9464566707611084,,,
,town,0.9357948303222656,,,
,tourism,0.9316452741622925,,,
,shopping,0.8864246010780334,,,
,urban,0.8840808868408203,,,
,lantern,0.8715311288833618,,,
,sightseeing,0.8703112602233887,,,
,temple,0.8638949394226074,,,
,religion,0.8497360348701477,,,
https://scontent.cdninstagram.com/t51.2885-15/e15/13392686_487166724809920_336969755_n.jpg,beach,0.9976260662078857,recreation,,
,sea,0.9939947724342346,,,
,ocean,0.9872430562973022,,,
,seashore,0.9863865971565247,,,
,water,0.9842913746833801,,,
,sand,0.9788345098495483,,,
,leisure,0.9750148057937622,,,
,lifestyle,0.9695519208908081,,,
,recreation,0.9546065330505371,,,
,barefoot,0.9448778033256531,,,
,people,0.9412802457809448,,,
,sun,0.9342154860496521,,,
,fun,0.9301612377166748,,,
,enjoyment,0.9236211776733398,,,
,sunset,0.9123517274856567,,,
,travel,0.9119157791137695,,,
,action,0.9061956405639648,,,
,backlit,0.9001286029815674,,,
,relaxation,0.8967112302780151,,,
,surf,0.8790918588638306,,,
https://scontent.cdninstagram.com/t51.2885-15/e35/13355598_1031739756910447_428054700_n.jpg,city,0.9904592633247375,architecture,,
,skyscraper,0.987184464931488,,,
,light,0.9839370250701904,,,
,evening,0.9784061908721924,,,
,building,0.9748784899711609,,,
,reflection,0.9728803634643555,,,
,downtown,0.964728593826294,,,
,architecture,0.961809515953064,,,
,urban,0.9572662115097046,,,
,cityscape,0.9550933241844177,,,
,skyline,0.9378566741943359,,,
,water,0.9296084046363831,,,
,river,0.9225449562072754,,,
,travel,0.9217526316642761,,,
,bridge,0.9084262847900391,,,
,tower,0.8944631814956665,,,
,dusk,0.8923341631889343,,,
,business,0.8913769721984863,,,
,office,0.8902627229690552,,,
,neon,0.8896265029907227,,,
https://scontent.cdninstagram.com/t51.2885-15/e35/13397702_1738332123091786_429267833_n.jpg,beach,0.9973735809326172,recreation,,
,"no person",0.9928988218307495,,,
,seashore,0.9868181943893433,,,
,chair,0.9857690930366516,,,
,resort,0.9821920394897461,,,
,palm,0.9799110889434814,,,
,ocean,0.9795514345169067,,,
,sand,0.9777193069458008,,,
,tree,0.9771586656570435,,,
,recreation,0.9753684401512146,,,
,island,0.9752903580665588,,,
,leisure,0.9722055196762085,,,
,travel,0.9689311385154724,,,
,tropical,0.951883852481842,,,
,relaxation,0.951288640499115,,,
,sun,0.9511411786079407,,,
,water,0.9485264420509338,,,
,vacation,0.9465587139129639,,,
,hotel,0.9378935098648071,,,
,daylight,0.9190527200698853,,,
https://scontent.cdninstagram.com/t51.2885-15/e35/13402207_808595105906621_417025915_n.jpg,woman,0.9949780106544495,relationships,,
,people,0.9947746992111206,,,
,adult,0.9929558038711548,,,
,"facial expression",0.9893807172775269,,,
,wear,0.9890580177307129,,,
,portrait,0.9828049540519714,,,
,two,0.9810115098953247,,,
,man,0.9366392493247986,,,
,happiness,0.9361817836761475,,,
,one,0.9151385426521301,,,
,outdoors,0.9110320806503296,,,
,girl,0.9072902202606201,,,
,enjoyment,0.9058204889297485,,,
,festival,0.8859182000160217,,,
,daylight,0.8757166862487793,,,
,indoors,0.8719329833984375,,,
,group,0.8670859336853027,,,
,brunette,0.858660101890564,,,
,fashion,0.8547832369804382,,,
,togetherness,0.8397859334945679,,,
https://scontent.cdninstagram.com/t51.2885-15/e35/13392772_1194113727279880_665768009_n.jpg,food,0.9981056451797485,food,,
,meat,0.994820237159729,,,
,dinner,0.9947680234909058,,,
,meal,0.9923305511474609,,,
,sauce,0.9905301332473755,,,
,dish,0.9856653213500977,,,
,cuisine,0.9828258752822876,,,
,lunch,0.9827118515968323,,,
,cooking,0.9779578447341919,,,
,plate,0.9761834144592285,,,
,delicious,0.9755449295043945,,,
,"no person",0.9734883308410645,,,
,vegetable,0.9733397960662842,,,
,hot,0.9690238237380981,,,
,pork,0.9674500226974487,,,
,tasty,0.9628716707229614,,,
,restaurant,0.9574570059776306,,,
,beef,0.9547492265701294,,,
,stew,0.9457665681838989,,,
,epicure,0.9453870058059692,,,
https://scontent.cdninstagram.com/t51.2885-15/sh0.08/e35/p750x750/13398990_144919459256881_227469241_n.jpg,portrait,0.9872323274612427,relationships,,
,people,0.9871377944946289,,,
,child,0.980318546295166,,,
,humor,0.9775933027267456,,,
,adult,0.9701650738716125,,,
,headshot,0.9648743867874146,,,
,happiness,0.9583740234375,,,
,indoors,0.9552748203277588,,,
,togetherness,0.9551098346710205,,,
,horizontal,0.951170027256012,,,
,fun,0.941434383392334,,,
,"facial expression",0.934407114982605,,,
,man,0.9139864444732666,,,
,vertical,0.8964846134185791,,,
,friendship,0.8950821757316589,,,
,woman,0.8847649097442627,,,
,mischief,0.8835151791572571,,,
,laughing,0.8784854412078857,,,
,cheerful,0.867561399936676,,,
,bonding,0.8656383752822876,,,
