url,class,score,,,,,,,,
https://scontent.cdninstagram.com/t51.2885-15/s640x640/sh0.08/e35/13355429_274273516255819_64552991_n.jpg?ig_cache_key=MTI3Mzc5MzE4OTI0MzUyMTYxNg%3D%3D.2,people,0.9980591535568237,Entertainment,Relationships,,,Events,"Best friends",,
,military,0.987175464630127,,,,,,,,
,adult,0.9855483770370483,,,,,,,,
,group,0.9839814305305481,,,,,,,,
,army,0.9834171533584595,,,,,,,,
,wear,0.9826496839523315,,,,,,,,
,woman,0.9781513214111328,,,,,,,,
,man,0.9727869033813477,,,,,,,,
,uniform,0.9718707799911499,,,,,,,,
,group,0.9708719253540039,,,,,,,,
,war,0.9683150053024292,,,,,,,,
,soldier,0.9683107137680054,,,,,,,,
,portrait,0.9403727054595947,,,,,,,,
,outfit,0.9386215806007385,,,,,,,,
,vehicle,0.933099627494812,,,,,,,,
,many,0.930495023727417,,,,,,,,
,two,0.9237215518951416,,,,,,,,
,battle,0.9053000211715698,,,,,,,,
,festival,0.8933736085891724,,,,,,,,
,veil,0.884127676486969,,,,,,,,
https://scontent.cdninstagram.com/t51.2885-15/sh0.08/e35/p750x750/10011303_804472109686583_798696324_n.jpg?ig_cache_key=MTE0OTI5MTAxNjQ3NzIxNDc2OA%3D%3D.2,people,0.988478422164917,Food,,,,"Meal time",,,
,adult,0.9879913330078125,,,,,,,,
,woman,0.9808162450790405,,,,,,,,
,man,0.9697568416595459,,,,,,,,
,chef,0.9685822129249573,,,,,,,,
,restaurant,0.9616014957427979,,,,,,,,
,indoors,0.9557889699935913,,,,,,,,
,cooking,0.9488545060157776,,,,,,,,
,wear,0.9000422954559326,,,,,,,,
,stove,0.8790316581726074,,,,,,,,
,two,0.8690025806427002,,,,,,,,
,preparation,0.8679968118667603,,,,,,,,
,meal,0.8535284399986267,,,,,,,,
,"facial expression",0.8534597158432007,,,,,,,,
,table,0.8389925956726074,,,,,,,,
,room,0.809052586555481,,,,,,,,
,portrait,0.8060056567192078,,,,,,,,
,food,0.7991957664489746,,,,,,,,
,group,0.7986617088317871,,,,,,,,
,family,0.7943927049636841,,,,,,,,
https://scontent.cdninstagram.com/t51.2885-15/s750x750/sh0.08/e35/13398541_195214854212626_33695071_n.jpg?ig_cache_key=MTI3MTQwODAzMDA5MTMxNjIwNg%3D%3D.2,group,0.9979473352432251,Relationships,Entertainment,,,Friends,Events,,
,people,0.9922219514846802,,,,,,,,
,group,0.9871538281440735,,,,,,,,
,portrait,0.9807803630828857,,,,,,,,
,adult,0.9754502773284912,,,,,,,,
,woman,0.9748169183731079,,,,,,,,
,man,0.9728881120681763,,,,,,,,
,"facial expression",0.9570199251174927,,,,,,,,
,many,0.950311541557312,,,,,,,,
,friendship,0.910021185874939,,,,,,,,
,music,0.9094635844230652,,,,,,,,
,several,0.8897675275802612,,,,,,,,
,wear,0.8818368911743164,,,,,,,,
,administration,0.8801668882369995,,,,,,,,
,family,0.8523545265197754,,,,,,,,
,education,0.8468788862228394,,,,,,,,
,leader,0.8424922227859497,,,,,,,,
,five,0.8404363393783569,,,,,,,,
,festival,0.8345720767974854,,,,,,,,
,school,0.827161431312561,,,,,,,,
https://scontent.cdninstagram.com/t51.2885-15/e35/13320216_1722805287959511_110468964_n.jpg?ig_cache_key=MTI2NTc2OTM2ODU5NDk0MjUxNg%3D%3D.2,people,0.9855925440788269,Environment,,,,"Manmade beauty",,,
,river,0.9756088256835938,,,,,,,,
,water,0.9594607353210449,,,,,,,,
,adult,0.9553835391998291,,,,,,,,
,vehicle,0.9533520936965942,,,,,,,,
,city,0.9463382959365845,,,,,,,,
,travel,0.9448708295822144,,,,,,,,
,one,0.9431940317153931,,,,,,,,
,recreation,0.8945302963256836,,,,,,,,
,man,0.893988847732544,,,,,,,,
,tourist,0.884783148765564,,,,,,,,
,bridge,0.8832192420959473,,,,,,,,
,gun,0.8775080442428589,,,,,,,,
,military,0.874548614025116,,,,,,,,
,outdoors,0.8693944215774536,,,,,,,,
,weapon,0.8674581050872803,,,,,,,,
,tourism,0.8657529354095459,,,,,,,,
,police,0.8637982606887817,,,,,,,,
,building,0.8574320077896118,,,,,,,,
,watercraft,0.8550527095794678,,,,,,,,
https://scontent.cdninstagram.com/t51.2885-15/e35/1169733_161780180852988_1324591490_n.jpg?ig_cache_key=MTE1MTQ2MjI0MjIyNjI3NjU4Mw%3D%3D.2,people,0.9925472736358643,Relationships,,,,Friends,,,
,group,0.9892598986625671,,,,,,,,
,woman,0.9684122800827026,,,,,,,,
,man,0.9609251022338867,,,,,,,,
,adult,0.957155168056488,,,,,,,,
,portrait,0.932458221912384,,,,,,,,
,administration,0.9300485849380493,,,,,,,,
,family,0.9200747013092041,,,,,,,,
,child,0.8990802764892578,,,,,,,,
,road,0.8765371441841125,,,,,,,,
,many,0.8721446990966797,,,,,,,,
,religion,0.8661989569664001,,,,,,,,
,rally,0.8575870990753174,,,,,,,,
,group,0.8543456196784973,,,,,,,,
,wear,0.851675808429718,,,,,,,,
,street,0.8411957621574402,,,,,,,,
,outdoors,0.8323563933372498,,,,,,,,
,several,0.8290168046951294,,,,,,,,
,landscape,0.8284982442855835,,,,,,,,
,enjoyment,0.8229807615280151,,,,,,,,
https://scontent.cdninstagram.com/t51.2885-15/sh0.08/e35/p750x750/12407255_977513308990339_853030736_n.jpg?ig_cache_key=MTE2NTk0MDMyMzU4NjQxMDk4MQ%3D%3D.2,street,0.9995108842849731,"Fashion & Beauty",Blank,,,Ootd,Photography,,
,people,0.9950019121170044,,,,,,,,
,city,0.9937183856964111,,,,,,,,
,monochrome,0.9918034076690674,,,,,,,,
,road,0.97801673412323,,,,,,,,
,pavement,0.9655654430389404,,,,,,,,
,urban,0.9456943273544312,,,,,,,,
,adult,0.9455969333648682,,,,,,,,
,business,0.9309964179992676,,,,,,,,
,man,0.9086809158325195,,,,,,,,
,"transportation system",0.8960710763931274,,,,,,,,
,downtown,0.8891779184341431,,,,,,,,
,group,0.8890325427055359,,,,,,,,
,architecture,0.8874294757843018,,,,,,,,
,"black and white",0.8869646787643433,,,,,,,,
,building,0.8776620626449585,,,,,,,,
,one,0.8745369911193848,,,,,,,,
,office,0.8711775541305542,,,,,,,,
,Broadway,0.8584270477294922,,,,,,,,
,town,0.858201265335083,,,,,,,,
https://scontent.cdninstagram.com/t51.2885-15/s750x750/sh0.08/e35/13266752_993433134105563_916031495_n.jpg?ig_cache_key=MTI2MjI3MzUyOTA0NjEwODE5MA%3D%3D.2,water,0.9881664514541626,"Fashion & Beauty",Travel,,,Ootd,Travel-s,,
,travel,0.9788914322853088,,,,,,,,
,recreation,0.9780699014663696,,,,,,,,
,people,0.9776439666748047,,,,,,,,
,one,0.9691768884658813,,,,,,,,
,leisure,0.9685330390930176,,,,,,,,
,sea,0.961259126663208,,,,,,,,
,adult,0.959080696105957,,,,,,,,
,watercraft,0.9562024474143982,,,,,,,,
,lifestyle,0.9542869329452515,,,,,,,,
,ocean,0.9500365853309631,,,,,,,,
,pier,0.9457473754882812,,,,,,,,
,"transportation system",0.9400842189788818,,,,,,,,
,vehicle,0.9381895065307617,,,,,,,,
,outdoors,0.9314728379249573,,,,,,,,
,sky,0.9306720495223999,,,,,,,,
,landscape,0.9211122989654541,,,,,,,,
,daylight,0.9134865999221802,,,,,,,,
,seashore,0.9104689955711365,,,,,,,,
,bridge,0.9086383581161499,,,,,,,,
https://scontent.cdninstagram.com/t51.2885-15/s750x750/sh0.08/e35/12383299_1740726832813354_900942262_n.jpg?ig_cache_key=MTE1Nzk3ODEzMTExMzE4MzY2OQ%3D%3D.2,adult,0.9922207593917847,Food,"Fashion & Beauty",,,"Meal time","My look",,
,people,0.9910210967063904,,,,,,,,
,woman,0.96605384349823,,,,,,,,
,man,0.9417012929916382,,,,,,,,
,portrait,0.9357343912124634,,,,,,,,
,wear,0.9340164065361023,,,,,,,,
,employee,0.9253292679786682,,,,,,,,
,one,0.9159514904022217,,,,,,,,
,"facial expression",0.9132547378540039,,,,,,,,
,business,0.9106441736221313,,,,,,,,
,commerce,0.9050282835960388,,,,,,,,
,indoors,0.902172327041626,,,,,,,,
,furniture,0.90202796459198,,,,,,,,
,restaurant,0.8986523151397705,,,,,,,,
,room,0.8922511339187622,,,,,,,,
,table,0.8893632292747498,,,,,,,,
,two,0.8861662745475769,,,,,,,,
,coffee,0.8829184770584106,,,,,,,,
,meal,0.8794252872467041,,,,,,,,
,food,0.8568786382675171,,,,,,,,
https://scontent.cdninstagram.com/t51.2885-15/e35/13269422_1729731133940227_571594044_n.jpg?ig_cache_key=MTI2MDU2MzYzMzk2MzUzNDgzOQ%3D%3D.2,people,0.9844601154327393,Relationships,Food,,,Friends,"Meal time",,
,group,0.9683303833007812,,,,,,,,
,woman,0.9529098272323608,,,,,,,,
,man,0.9525363445281982,,,,,,,,
,adult,0.9200439453125,,,,,,,,
,festival,0.9107503890991211,,,,,,,,
,many,0.8866034150123596,,,,,,,,
,wear,0.8862377405166626,,,,,,,,
,group,0.8817954063415527,,,,,,,,
,child,0.8776262998580933,,,,,,,,
,portrait,0.8704972267150879,,,,,,,,
,celebration,0.8693091869354248,,,,,,,,
,enjoyment,0.8493541479110718,,,,,,,,
,"facial expression",0.8242576122283936,,,,,,,,
,family,0.8159160614013672,,,,,,,,
,music,0.8157824873924255,,,,,,,,
,crowd,0.8081009387969971,,,,,,,,
,party,0.7999890446662903,,,,,,,,
,coffee,0.7889474034309387,,,,,,,,
,outdoors,0.7848309874534607,,,,,,,,
https://scontent.cdninstagram.com/t51.2885-15/e35/12345886_548609735304998_2048854448_n.jpg?ig_cache_key=MTEzODM3NzEzMDIxMTI4MTQwMg%3D%3D.2,group,0.9855690598487854,Relationships,,,,Friends,,,
,man,0.9710020422935486,,,,,,,,
,group,0.968228816986084,,,,,,,,
,three,0.9535025358200073,,,,,,,,
,table,0.9456287622451782,,,,,,,,
,room,0.9448704123497009,,,,,,,,
,portrait,0.9435251355171204,,,,,,,,
,adult,0.9378458261489868,,,,,,,,
,people,0.932340681552887,,,,,,,,
,four,0.9091718792915344,,,,,,,,
,musician,0.8899176120758057,,,,,,,,
,family,0.8841153979301453,,,,,,,,
,woman,0.8761023283004761,,,,,,,,
,music,0.8719879388809204,,,,,,,,
,furniture,0.8474854230880737,,,,,,,,
,indoors,0.8069922924041748,,,,,,,,
,recreation,0.8054214715957642,,,,,,,,
,five,0.8009554743766785,,,,,,,,
,two,0.7783706784248352,,,,,,,,
,"facial expression",0.7760568857192993,,,,,,,,
https://scontent.cdninstagram.com/t51.2885-15/s750x750/sh0.08/e35/12394027_855659424551072_179572707_n.jpg?ig_cache_key=MTE0MzQ1NTUwNDI2NDg1NzcxNg%3D%3D.2,child,0.9982868432998657,Relationships,Recreation,,,Friends,Recreation-s,,
,people,0.997056245803833,,,,,,,,
,group,0.996216356754303,,,,,,,,
,group,0.9950375556945801,,,,,,,,
,wear,0.984258770942688,,,,,,,,
,recreation,0.9828654527664185,,,,,,,,
,boy,0.9815358519554138,,,,,,,,
,enjoyment,0.9749476909637451,,,,,,,,
,fun,0.9720538258552551,,,,,,,,
,veil,0.960567831993103,,,,,,,,
,vehicle,0.9542926549911499,,,,,,,,
,"facial expression",0.9524438381195068,,,,,,,,
,four,0.9483394622802734,,,,,,,,
,adult,0.9464964866638184,,,,,,,,
,many,0.9436404705047607,,,,,,,,
,man,0.9362725615501404,,,,,,,,
,boy,0.9296762347221375,,,,,,,,
,portrait,0.9253755807876587,,,,,,,,
,woman,0.9229189157485962,,,,,,,,
,family,0.9218415021896362,,,,,,,,
https://scontent.cdninstagram.com/t51.2885-15/e35/12523698_1499157750394027_1521893109_n.jpg?ig_cache_key=MTE1NjUzNDYxMjAxNjIzNjczMQ%3D%3D.2,people,0.9903795719146729,Relationships,,,,Friends,,,
,group,0.9881975054740906,,,,,,,,
,man,0.9859786033630371,,,,,,,,
,woman,0.9839940071105957,,,,,,,,
,adult,0.9828303456306458,,,,,,,,
,portrait,0.9794234037399292,,,,,,,,
,group,0.9645323753356934,,,,,,,,
,recreation,0.9552029371261597,,,,,,,,
,three,0.9532564878463745,,,,,,,,
,"facial expression",0.9513723850250244,,,,,,,,
,wear,0.9488279819488525,,,,,,,,
,outdoors,0.9470508098602295,,,,,,,,
,vehicle,0.9452507495880127,,,,,,,,
,friendship,0.9373131990432739,,,,,,,,
,competition,0.9358230829238892,,,,,,,,
,four,0.9315234422683716,,,,,,,,
,enjoyment,0.9306106567382812,,,,,,,,
,togetherness,0.9203358888626099,,,,,,,,
,family,0.8939533233642578,,,,,,,,
,five,0.8850884437561035,,,,,,,,
https://scontent.cdninstagram.com/t51.2885-15/e35/13398980_966566950105736_1328113696_n.jpg?ig_cache_key=MTI3MjM3OTM2MzEyNjE1MTQ0Nw%3D%3D.2,indoors,0.9733850955963135,Food,"Fashion & Beauty",,,Dessert,"My look",,
,people,0.9698129892349243,,,,,,,,
,food,0.9687713384628296,,,,,,,,
,one,0.9577397108078003,,,,,,,,
,enjoyment,0.9566514492034912,,,,,,,,
,man,0.9524344205856323,,,,,,,,
,chocolate,0.9341580867767334,,,,,,,,
,cake,0.9277263879776001,,,,,,,,
,restaurant,0.8915764093399048,,,,,,,,
,delicious,0.8853630423545837,,,,,,,,
,sweet,0.8823339939117432,,,,,,,,
,child,0.871047854423523,,,,,,,,
,adult,0.8663870692253113,,,,,,,,
,portrait,0.8373409509658813,,,,,,,,
,sugar,0.8358482122421265,,,,,,,,
,plate,0.8282119035720825,,,,,,,,
,grow,0.8106188178062439,,,,,,,,
,drink,0.8105443120002747,,,,,,,,
,coffee,0.7995710372924805,,,,,,,,
,wear,0.7986252903938293,,,,,,,,
https://scontent.cdninstagram.com/t51.2885-15/e35/12534295_1517641875233009_527093973_n.jpg?ig_cache_key=MTE1NzIxODY2NjE4MTAzNjQ1NA%3D%3D.2,helmet,0.9918336868286133,"My life",Recreation,Relationships,,Doing,Recreation-s,Friends,
,teamwork,0.9844058752059937,,,,,,,,
,raft,0.982518196105957,,,,,,,,
,kayak,0.9789861440658569,,,,,,,,
,man,0.9772000312805176,,,,,,,,
,fun,0.9766930937767029,,,,,,,,
,people,0.9737383723258972,,,,,,,,
,oar,0.9736760854721069,,,,,,,,
,paddle,0.9736083745956421,,,,,,,,
,canoe,0.9721148014068604,,,,,,,,
,recreation,0.9689152240753174,,,,,,,,
,vehicle,0.9580278396606445,,,,,,,,
,boy,0.9523614645004272,,,,,,,,
,competition,0.9466301798820496,,,,,,,,
,child,0.9462262392044067,,,,,,,,
,group,0.9452998042106628,,,,,,,,
,squad,0.9385798573493958,,,,,,,,
,adult,0.9308609962463379,,,,,,,,
,boatman,0.9277620315551758,,,,,,,,
,adventure,0.924863874912262,,,,,,,,
https://scontent.cdninstagram.com/t51.2885-15/e35/12356604_1721429864752797_1757186186_n.jpg?ig_cache_key=MTE0Nzg1OTQ1NDYzNjMyOTM5MQ%3D%3D.2,winter,0.9823243618011475,Travel,"Fashion & Beauty",Environment,,Travel-s,"My look","Natural beauty",
,snow,0.9767829775810242,,,,,,,,
,people,0.9746212959289551,,,,,,,,
,adult,0.9647794961929321,,,,,,,,
,one,0.9482831954956055,,,,,,,,
,woman,0.9454717040061951,,,,,,,,
,portrait,0.9442604780197144,,,,,,,,
,cold,0.93803471326828,,,,,,,,
,water,0.9133850336074829,,,,,,,,
,outdoors,0.9095810651779175,,,,,,,,
,girl,0.8924933671951294,,,,,,,,
,ice,0.8852169513702393,,,,,,,,
,man,0.8716462850570679,,,,,,,,
,wear,0.8690906763076782,,,,,,,,
,landscape,0.8588575124740601,,,,,,,,
,two,0.8566849231719971,,,,,,,,
,weather,0.8463692665100098,,,,,,,,
,travel,0.8442196846008301,,,,,,,,
,child,0.8225845098495483,,,,,,,,
,action,0.8009132146835327,,,,,,,,
https://scontent.cdninstagram.com/t51.2885-15/e35/12357585_846350082129340_1406245343_n.jpg?ig_cache_key=MTE0MTk5NDk0NjY4MDMyNjczMA%3D%3D.2,woman,0.9684858322143555,Relationships,Recreation,,,Friends,Beach,,
,recreation,0.963661253452301,,,,,,,,
,group,0.9551448822021484,,,,,,,,
,enjoyment,0.9512122273445129,,,,,,,,
,competition,0.9399668574333191,,,,,,,,
,man,0.9386412501335144,,,,,,,,
,people,0.9330531358718872,,,,,,,,
,leisure,0.9299039840698242,,,,,,,,
,togetherness,0.9236716032028198,,,,,,,,
,fun,0.9225144982337952,,,,,,,,
,athlete,0.921663224697113,,,,,,,,
,child,0.9201534986495972,,,,,,,,
,wear,0.9028855562210083,,,,,,,,
,adolescent,0.8871109485626221,,,,,,,,
,group,0.8833472728729248,,,,,,,,
,friendship,0.8750714063644409,,,,,,,,
,adult,0.8715338706970215,,,,,,,,
,outdoors,0.8603121042251587,,,,,,,,
,motion,0.8531152009963989,,,,,,,,
,lifestyle,0.8207285404205322,,,,,,,,
https://scontent.cdninstagram.com/t51.2885-15/s750x750/sh0.08/e35/12552254_176750536019592_318358745_n.jpg?ig_cache_key=MTE2MzAxMDAyNzUyMjA5OTI3Ng%3D%3D.2,group,0.9800520539283752,Relationships,,,,Friends,,,
,group,0.9697011709213257,,,,,,,,
,people,0.9674723148345947,,,,,,,,
,woman,0.966950535774231,,,,,,,,
,adult,0.946769118309021,,,,,,,,
,man,0.9436537027359009,,,,,,,,
,wear,0.9320212602615356,,,,,,,,
,four,0.9142335057258606,,,,,,,,
,recreation,0.9019314050674438,,,,,,,,
,motion,0.8733588457107544,,,,,,,,
,child,0.8668588399887085,,,,,,,,
,athlete,0.8559982776641846,,,,,,,,
,portrait,0.8298290967941284,,,,,,,,
,five,0.8261294364929199,,,,,,,,
,competition,0.8260273933410645,,,,,,,,
,enjoyment,0.8248013257980347,,,,,,,,
,energy,0.822869062423706,,,,,,,,
,dancing,0.8147659301757812,,,,,,,,
,school,0.8131468296051025,,,,,,,,
,outfit,0.8054957389831543,,,,,,,,
https://scontent.cdninstagram.com/t51.2885-15/s750x750/sh0.08/e35/10009384_1538510066472232_97043184_n.jpg?ig_cache_key=MTE0Mjc1MDU1MzA5NjA2Mzk1MA%3D%3D.2,group,0.9980770349502563,Relationships,Recreation,,,Friends,Beach,,
,people,0.9926145076751709,,,,,,,,
,group,0.9867739081382751,,,,,,,,
,recreation,0.9853394627571106,,,,,,,,
,adult,0.9843546152114868,,,,,,,,
,man,0.9840666651725769,,,,,,,,
,four,0.9687291383743286,,,,,,,,
,woman,0.9683475494384766,,,,,,,,
,wear,0.9665020108222961,,,,,,,,
,competition,0.9605384469032288,,,,,,,,
,leisure,0.9588252305984497,,,,,,,,
,boy,0.9577081799507141,,,,,,,,
,child,0.9558853507041931,,,,,,,,
,friendship,0.9462072849273682,,,,,,,,
,lifestyle,0.9440740942955017,,,,,,,,
,water,0.9437158107757568,,,,,,,,
,togetherness,0.9433563351631165,,,,,,,,
,athlete,0.9410828351974487,,,,,,,,
,fun,0.9348211288452148,,,,,,,,
,energy,0.9303621053695679,,,,,,,,
https://scontent.cdninstagram.com/t51.2885-15/e35/13437431_1068242533250107_1887634719_n.jpg?ig_cache_key=MTI3MDc3MzU3MDEwNjgyMDc2OA%3D%3D.2,military,0.9979293346405029,Relationships,"My life",,,Friends,Doing,,
,people,0.9962030649185181,,,,,,,,
,group,0.9891244173049927,,,,,,,,
,war,0.9860963821411133,,,,,,,,
,soldier,0.9849852323532104,,,,,,,,
,adult,0.9837672114372253,,,,,,,,
,weapon,0.9822087287902832,,,,,,,,
,uniform,0.9796955585479736,,,,,,,,
,group,0.9740790128707886,,,,,,,,
,wear,0.9677805304527283,,,,,,,,
,army,0.9649978876113892,,,,,,,,
,battle,0.958827018737793,,,,,,,,
,many,0.9557065963745117,,,,,,,,
,rifle,0.955101728439331,,,,,,,,
,vehicle,0.9532020688056946,,,,,,,,
,outfit,0.9460684061050415,,,,,,,,
,gun,0.9453378915786743,,,,,,,,
,"military uniform",0.9425092339515686,,,,,,,,
,man,0.9377167224884033,,,,,,,,
,administration,0.9165406227111816,,,,,,,,
https://scontent.cdninstagram.com/t51.2885-15/e35/13388522_1560044890964405_301524537_n.jpg?ig_cache_key=MTI2NDQ5MzczMjcyMzE2NTc3NQ%3D%3D.2,military,0.9898419380187988,"Fashion & Beauty",,,,"My look",,,
,people,0.983629584312439,,,,,,,,
,patriotism,0.971259593963623,,,,,,,,
,uniform,0.9705868363380432,,,,,,,,
,flag,0.9599133729934692,,,,,,,,
,army,0.9593865871429443,,,,,,,,
,battle,0.9474482536315918,,,,,,,,
,pride,0.9401640892028809,,,,,,,,
,one,0.9390251636505127,,,,,,,,
,wear,0.922196626663208,,,,,,,,
,woman,0.9115211963653564,,,,,,,,
,man,0.9073494076728821,,,,,,,,
,administration,0.9029641151428223,,,,,,,,
,child,0.9020478129386902,,,,,,,,
,sign,0.9000809788703918,,,,,,,,
,portrait,0.8969941139221191,,,,,,,,
,war,0.8850842714309692,,,,,,,,
,adult,0.8749440908432007,,,,,,,,
,soldier,0.8509893417358398,,,,,,,,
,boy,0.8247345089912415,,,,,,,,
https://scontent.cdninstagram.com/t51.2885-15/e35/12393877_1098271016861816_1376577539_n.jpg?ig_cache_key=MTEzOTgxOTU0NTc3ODQ1NzUxMQ%3D%3D.2,people,0.9750357270240784,Relationships,,,,Friends,,,
,outdoors,0.9690391421318054,,,,,,,,
,"facial expression",0.9686356782913208,,,,,,,,
,woman,0.9664999842643738,,,,,,,,
,recreation,0.9621800184249878,,,,,,,,
,togetherness,0.9569205045700073,,,,,,,,
,man,0.949505090713501,,,,,,,,
,two,0.9261565208435059,,,,,,,,
,portrait,0.9190890789031982,,,,,,,,
,child,0.9034448862075806,,,,,,,,
,adult,0.9023267030715942,,,,,,,,
,enjoyment,0.8968843221664429,,,,,,,,
,affection,0.8950091600418091,,,,,,,,
,family,0.8920608162879944,,,,,,,,
,daylight,0.8865558505058289,,,,,,,,
,friendship,0.8780655860900879,,,,,,,,
,wear,0.8667863607406616,,,,,,,,
,happiness,0.8641319870948792,,,,,,,,
,group,0.862891674041748,,,,,,,,
,leisure,0.8483989834785461,,,,,,,,
https://scontent.cdninstagram.com/t51.2885-15/s750x750/sh0.08/e35/12331366_1494990894139824_1934490016_n.jpg?ig_cache_key=MTE0ODU3Mjc1MjQ0NDkxNzk4MQ%3D%3D.2,beach,0.9971389174461365,Blank,Recreation,"Fashion & Beauty",,Blank,Beach,Ootd,
,sand,0.9970592260360718,,,,,,,,
,leisure,0.990183413028717,,,,,,,,
,seashore,0.9864055514335632,,,,,,,,
,sea,0.9862202405929565,,,,,,,,
,summer,0.9834862947463989,,,,,,,,
,water,0.982040286064148,,,,,,,,
,vacation,0.9804167747497559,,,,,,,,
,ocean,0.9760435223579407,,,,,,,,
,fun,0.9699840545654297,,,,,,,,
,enjoyment,0.9692708849906921,,,,,,,,
,travel,0.9676750898361206,,,,,,,,
,relaxation,0.9674113988876343,,,,,,,,
,recreation,0.954302191734314,,,,,,,,
,lifestyle,0.9179926514625549,,,,,,,,
,joy,0.9117991924285889,,,,,,,,
,"fair weather",0.8856586217880249,,,,,,,,
,tropical,0.8812578916549683,,,,,,,,
,happiness,0.8741961717605591,,,,,,,,
,outdoors,0.8717989921569824,,,,,,,,
https://scontent.cdninstagram.com/t51.2885-15/e35/10727651_1682051228703148_120811953_n.jpg?ig_cache_key=MTE1MjgxMjk2MjI0NjU2MDY1MA%3D%3D.2,group,0.9967460632324219,Relationships,,,,Friends,,,
,people,0.9903410077095032,,,,,,,,
,"facial expression",0.9871859550476074,,,,,,,,
,portrait,0.9864401817321777,,,,,,,,
,group,0.982616662979126,,,,,,,,
,adult,0.9770267009735107,,,,,,,,
,many,0.9600419998168945,,,,,,,,
,woman,0.9559375047683716,,,,,,,,
,man,0.9359372854232788,,,,,,,,
,child,0.9316529035568237,,,,,,,,
,music,0.9275890588760376,,,,,,,,
,wear,0.9209572076797485,,,,,,,,
,crowd,0.9102951288223267,,,,,,,,
,festival,0.9081536531448364,,,,,,,,
,movie,0.9079062938690186,,,,,,,,
,performance,0.9034016728401184,,,,,,,,
,"sports fan",0.9018579721450806,,,,,,,,
,theater,0.8885021209716797,,,,,,,,
,recreation,0.8837544918060303,,,,,,,,
,happiness,0.8834770917892456,,,,,,,,
https://scontent.cdninstagram.com/t51.2885-15/e35/12543117_433764683460482_325817344_n.jpg?ig_cache_key=MTE3ODI0MjAxODg1Mjk5NzI1Nw%3D%3D.2,competition,0.9909024238586426,Relationships,,,,"Best friends",,,
,soccer,0.9907821416854858,,,,,,,,
,recreation,0.9878441095352173,,,,,,,,
,football,0.9818655252456665,,,,,,,,
,people,0.9817138910293579,,,,,,,,
,movie,0.9799932241439819,,,,,,,,
,festival,0.9763107895851135,,,,,,,,
,portrait,0.9729204177856445,,,,,,,,
,wear,0.9571930170059204,,,,,,,,
,editorial,0.9552680850028992,,,,,,,,
,charity,0.9536672830581665,,,,,,,,
,ceremony,0.950402021408081,,,,,,,,
,singer,0.9398771524429321,,,,,,,,
,actress,0.9381896257400513,,,,,,,,
,school,0.9349039793014526,,,,,,,,
,race,0.9307560920715332,,,,,,,,
,"red carpet",0.9201418161392212,,,,,,,,
,music,0.9194527864456177,,,,,,,,
,stadium,0.9130786657333374,,,,,,,,
,actor,0.8989966511726379,,,,,,,,
https://scontent.cdninstagram.com/t51.2885-15/s750x750/sh0.08/e35/12356449_1555890234701238_601977240_n.jpg?ig_cache_key=MTE0NjM5MDA5ODM1ODMwNzI2OA%3D%3D.2,man,0.9886970520019531,Relationships,Recreation,Travel,Food,Friends,Beach,Travel-s,"Meal time"
,group,0.9855749011039734,,,,,,,,
,group,0.9756504893302917,,,,,,,,
,woman,0.9754675626754761,,,,,,,,
,four,0.9728754758834839,,,,,,,,
,adult,0.9711617231369019,,,,,,,,
,people,0.970686674118042,,,,,,,,
,"facial expression",0.9661368131637573,,,,,,,,
,restaurant,0.9549204111099243,,,,,,,,
,togetherness,0.9525386095046997,,,,,,,,
,table,0.9517626762390137,,,,,,,,
,enjoyment,0.9428067207336426,,,,,,,,
,meal,0.9411265254020691,,,,,,,,
,friendship,0.9347796440124512,,,,,,,,
,child,0.9285855293273926,,,,,,,,
,five,0.9217739105224609,,,,,,,,
,recreation,0.9012453556060791,,,,,,,,
,happiness,0.8897654414176941,,,,,,,,
,several,0.8877820372581482,,,,,,,,
,furniture,0.8837541341781616,,,,,,,,
https://scontent.cdninstagram.com/t51.2885-15/s750x750/sh0.08/e35/13092469_1741184499449991_444035265_n.jpg?ig_cache_key=MTIzNTI2MzgxNDYwMDc1NTg1Mw%3D%3D.2,people,0.9881462454795837,"Fashion & Beauty",,,,"My look",,,
,street,0.9830224514007568,,,,,,,,
,wall,0.968328595161438,,,,,,,,
,portrait,0.9653445482254028,,,,,,,,
,door,0.9521756172180176,,,,,,,,
,man,0.9457119107246399,,,,,,,,
,adult,0.9456768035888672,,,,,,,,
,one,0.9452832937240601,,,,,,,,
,urban,0.9406857490539551,,,,,,,,
,window,0.9366677403450012,,,,,,,,
,city,0.9170156717300415,,,,,,,,
,shadow,0.8770923614501953,,,,,,,,
,rain,0.8685290217399597,,,,,,,,
,business,0.8680922985076904,,,,,,,,
,graffiti,0.8640577793121338,,,,,,,,
,wear,0.8597160577774048,,,,,,,,
,woman,0.8478665947914124,,,,,,,,
,security,0.8351463079452515,,,,,,,,
,door,0.8180054426193237,,,,,,,,
,light,0.8103161454200745,,,,,,,,
https://scontent.cdninstagram.com/t51.2885-15/s480x480/e35/12534368_771801302963207_1253729629_n.jpg?ig_cache_key=MTE3Njg4MDE4OTMzNzc2NjIwMQ%3D%3D.2,adult,0.9944987297058105,Food,Relationships,Celebrations,,Dessert,"Best friends","Personal Events",
,woman,0.9917060136795044,,,,,,,,
,"facial expression",0.9824835062026978,,,,,,,,
,people,0.9774994850158691,,,,,,,,
,man,0.9765270948410034,,,,,,,,
,indoors,0.9754308462142944,,,,,,,,
,happiness,0.9628415107727051,,,,,,,,
,group,0.9612175822257996,,,,,,,,
,two,0.9539097547531128,,,,,,,,
,room,0.9477449655532837,,,,,,,,
,medicine,0.9428035020828247,,,,,,,,
,portrait,0.9322845339775085,,,,,,,,
,togetherness,0.9321426749229431,,,,,,,,
,wear,0.928183913230896,,,,,,,,
,daylight,0.9246984720230103,,,,,,,,
,healthcare,0.9137671589851379,,,,,,,,
,office,0.9135487079620361,,,,,,,,
,enjoyment,0.9093793034553528,,,,,,,,
,technology,0.9089696407318115,,,,,,,,
,doctor,0.9043113589286804,,,,,,,,
https://scontent.cdninstagram.com/t51.2885-15/e35/13126704_272602419751840_148959838_n.jpg?ig_cache_key=MTI0OTI1NzMzMjY4MzgzNjA3MQ%3D%3D.2,military,0.999025821685791,Relationships,,,,Friends,,,
,people,0.9972115755081177,,,,,,,,
,group,0.9939026832580566,,,,,,,,
,group,0.9922759532928467,,,,,,,,
,war,0.9891630411148071,,,,,,,,
,adult,0.9876500368118286,,,,,,,,
,soldier,0.9873235821723938,,,,,,,,
,army,0.9859602451324463,,,,,,,,
,uniform,0.9832767248153687,,,,,,,,
,man,0.9780304431915283,,,,,,,,
,wear,0.9776252508163452,,,,,,,,
,weapon,0.9720739126205444,,,,,,,,
,portrait,0.9509215354919434,,,,,,,,
,vehicle,0.9391166567802429,,,,,,,,
,gun,0.9311596155166626,,,,,,,,
,outfit,0.9288579225540161,,,,,,,,
,many,0.9208647012710571,,,,,,,,
,battle,0.9147542715072632,,,,,,,,
,four,0.8984149694442749,,,,,,,,
,five,0.8814458847045898,,,,,,,,
https://scontent.cdninstagram.com/t51.2885-15/e35/13248678_1609593246019017_1596826648_n.jpg?ig_cache_key=MTI1ODQwNDczNDYxOTYxODA5MA%3D%3D.2,soldier,0.993619441986084,Relationships,"My life",,,Friends,Doing,,
,war,0.990251362323761,,,,,,,,
,army,0.9892089366912842,,,,,,,,
,military,0.988527774810791,,,,,,,,
,weapon,0.9852718114852905,,,,,,,,
,combat,0.9791045784950256,,,,,,,,
,battle,0.9786930680274963,,,,,,,,
,people,0.9702515006065369,,,,,,,,
,man,0.967978835105896,,,,,,,,
,gun,0.9678072333335876,,,,,,,,
,camouflage,0.9574900269508362,,,,,,,,
,force,0.9500678777694702,,,,,,,,
,armor,0.947539746761322,,,,,,,,
,uniform,0.9447067379951477,,,,,,,,
,combat,0.9416015148162842,,,,,,,,
,rifle,0.9395594596862793,,,,,,,,
,guard,0.9360554218292236,,,,,,,,
,helmet,0.9111992120742798,,,,,,,,
,special,0.9085737466812134,,,,,,,,
,police,0.9020612239837646,,,,,,,,
https://scontent.cdninstagram.com/t51.2885-15/s750x750/sh0.08/e35/10387862_1748948298674302_1932256036_n.jpg?ig_cache_key=MTIxNTE4OTI1NjY0NDU5NDAzMQ%3D%3D.2,people,0.9856908321380615,Relationships,,,,Friends,,,
,group,0.9849085211753845,,,,,,,,
,group,0.971200704574585,,,,,,,,
,woman,0.9706965088844299,,,,,,,,
,portrait,0.965363621711731,,,,,,,,
,many,0.9570224285125732,,,,,,,,
,outdoors,0.943962812423706,,,,,,,,
,family,0.9368875026702881,,,,,,,,
,friendship,0.9275623559951782,,,,,,,,
,man,0.926338255405426,,,,,,,,
,fun,0.9021326899528503,,,,,,,,
,adult,0.901952862739563,,,,,,,,
,togetherness,0.9005362391471863,,,,,,,,
,enjoyment,0.8996666073799133,,,,,,,,
,happiness,0.8854024410247803,,,,,,,,
,child,0.8774871230125427,,,,,,,,
,recreation,0.8712201118469238,,,,,,,,
,wear,0.8703309297561646,,,,,,,,
,pride,0.851434588432312,,,,,,,,
,festival,0.8427532911300659,,,,,,,,
https://scontent.cdninstagram.com/t51.2885-15/e35/12716998_950799795011311_2142620405_n.jpg?ig_cache_key=MTE4ODM0NjQ4MzU0MzExNTkxOQ%3D%3D.2,recreation,0.9678919315338135,Relationships,,,,"Best friends",,,
,portrait,0.9665086269378662,,,,,,,,
,people,0.9635422825813293,,,,,,,,
,woman,0.9541034698486328,,,,,,,,
,man,0.9464507699012756,,,,,,,,
,togetherness,0.9002184867858887,,,,,,,,
,movie,0.8925976157188416,,,,,,,,
,music,0.8908817768096924,,,,,,,,
,family,0.8792834281921387,,,,,,,,
,actress,0.8703831434249878,,,,,,,,
,outdoors,0.8687574863433838,,,,,,,,
,editorial,0.8528838157653809,,,,,,,,
,indoors,0.8482419848442078,,,,,,,,
,friendship,0.8460750579833984,,,,,,,,
,stock,0.8418148756027222,,,,,,,,
,wear,0.8365281224250793,,,,,,,,
,festival,0.8222830295562744,,,,,,,,
,school,0.8102947473526001,,,,,,,,
,adolescent,0.8038077354431152,,,,,,,,
,singer,0.80246901512146,,,,,,,,
https://scontent.cdninstagram.com/t51.2885-15/e35/13277539_629854873830010_149967096_n.jpg?ig_cache_key=MTI1NDk0NTUxNDk0MzQxNjc2Ng%3D%3D.2,drink,0.9863600134849548,Food,,,,Dessert,,,
,food,0.9830862283706665,,,,,,,,
,hot,0.9707130193710327,,,,,,,,
,restaurant,0.9518117904663086,,,,,,,,
,cup,0.948602557182312,,,,,,,,
,table,0.941917359828949,,,,,,,,
,coffee,0.9143316149711609,,,,,,,,
,breakfast,0.9097082018852234,,,,,,,,
,epicure,0.864288330078125,,,,,,,,
,traditional,0.8618355989456177,,,,,,,,
,delicious,0.8591912984848022,,,,,,,,
,plate,0.8488962650299072,,,,,,,,
,spoon,0.8392325639724731,,,,,,,,
,cooking,0.8352639675140381,,,,,,,,
,party,0.8282577991485596,,,,,,,,
,sugar,0.8257247805595398,,,,,,,,
,"no person",0.8066270351409912,,,,,,,,
,wood,0.7840840816497803,,,,,,,,
,glass,0.7736644744873047,,,,,,,,
,closeup,0.7698060870170593,,,,,,,,
https://scontent.cdninstagram.com/t51.2885-15/e35/12599094_236369990038190_1571232314_n.jpg?ig_cache_key=MTE4NTU0NDY5NDYxMTU3NzUzNw%3D%3D.2,group,0.997491180896759,Culture,Relationships,,,Culture-s,"Best friends",,
,"facial expression",0.9953573942184448,,,,,,,,
,group,0.9925950765609741,,,,,,,,
,four,0.987700343132019,,,,,,,,
,furniture,0.9846121072769165,,,,,,,,
,togetherness,0.9822507500648499,,,,,,,,
,man,0.979560375213623,,,,,,,,
,seat,0.9786811470985413,,,,,,,,
,room,0.9780595898628235,,,,,,,,
,boy,0.9766170978546143,,,,,,,,
,family,0.975822925567627,,,,,,,,
,woman,0.9714121222496033,,,,,,,,
,people,0.9703525304794312,,,,,,,,
,sofa,0.967440664768219,,,,,,,,
,portrait,0.9651058912277222,,,,,,,,
,adult,0.962482213973999,,,,,,,,
,laughing,0.9618211984634399,,,,,,,,
,child,0.9595127105712891,,,,,,,,
,happiness,0.9587695002555847,,,,,,,,
,friendship,0.9579890370368958,,,,,,,,
https://scontent.cdninstagram.com/t51.2885-15/e35/12677607_966227823446786_891539397_n.jpg?ig_cache_key=MTE4OTA3NTI5ODg1ODgzMDg0NQ%3D%3D.2,people,0.9858586192131042,Entertainment,Relationships,,,Events,Friends,,
,portrait,0.9858009815216064,,,,,,,,
,group,0.9849379062652588,,,,,,,,
,group,0.97905433177948,,,,,,,,
,adult,0.9687229990959167,,,,,,,,
,man,0.943758487701416,,,,,,,,
,"sports fan",0.918591320514679,,,,,,,,
,child,0.9182984828948975,,,,,,,,
,woman,0.9134500622749329,,,,,,,,
,"facial expression",0.888148307800293,,,,,,,,
,celebration,0.8696122169494629,,,,,,,,
,competition,0.8650738000869751,,,,,,,,
,wear,0.8538997173309326,,,,,,,,
,bill,0.8502291440963745,,,,,,,,
,family,0.843590497970581,,,,,,,,
,vehicle,0.8265486359596252,,,,,,,,
,four,0.8243416547775269,,,,,,,,
,enjoyment,0.8236430883407593,,,,,,,,
,friendship,0.8152481317520142,,,,,,,,
,music,0.8126788139343262,,,,,,,,
https://scontent.cdninstagram.com/t51.2885-15/e35/13109063_1772018039686335_1513956498_n.jpg?ig_cache_key=MTI0MDMwNjA3ODI0NzAyODgwOA%3D%3D.2,group,0.9963099956512451,Relationships,,,,Friends,,,
,group,0.9958758354187012,,,,,,,,
,people,0.9927913546562195,,,,,,,,
,restaurant,0.9910106658935547,,,,,,,,
,woman,0.987937331199646,,,,,,,,
,four,0.9763638973236084,,,,,,,,
,bar,0.9735097885131836,,,,,,,,
,adult,0.9725481271743774,,,,,,,,
,man,0.9696910381317139,,,,,,,,
,drink,0.9648926258087158,,,,,,,,
,three,0.9556097984313965,,,,,,,,
,portrait,0.9501504898071289,,,,,,,,
,friendship,0.9472509622573853,,,,,,,,
,enjoyment,0.9419435262680054,,,,,,,,
,sit,0.9398566484451294,,,,,,,,
,many,0.9329054355621338,,,,,,,,
,coffee,0.9241176247596741,,,,,,,,
,table,0.924025297164917,,,,,,,,
,five,0.9215812683105469,,,,,,,,
,several,0.9194861054420471,,,,,,,,
https://scontent.cdninstagram.com/t51.2885-15/e35/13113902_1716280688652807_893240631_n.jpg?ig_cache_key=MTI0OTcyNjcwNjU2NTc3Nzg5Mg%3D%3D.2,water,0.997760534286499,Travel,Environment,,,Travel-s,"Natural beauty",,
,"no person",0.9923356771469116,,,,,,,,
,river,0.9685349464416504,,,,,,,,
,landscape,0.9585530757904053,,,,,,,,
,travel,0.958135724067688,,,,,,,,
,waterfall,0.9520955085754395,,,,,,,,
,power,0.9463909864425659,,,,,,,,
,outdoors,0.9375711679458618,,,,,,,,
,spray,0.9343855381011963,,,,,,,,
,surf,0.9238625764846802,,,,,,,,
,nature,0.9202290773391724,,,,,,,,
,foam,0.9160353541374207,,,,,,,,
,motion,0.8846612572669983,,,,,,,,
,mist,0.8816249966621399,,,,,,,,
,lake,0.8766366243362427,,,,,,,,
,ocean,0.872613251209259,,,,,,,,
,storm,0.8625673055648804,,,,,,,,
,seashore,0.8596276640892029,,,,,,,,
,splash,0.8573102951049805,,,,,,,,
,watercraft,0.8493956327438354,,,,,,,,
https://scontent.cdninstagram.com/t51.2885-15/e35/13277840_1733033043610448_616292943_n.jpg?ig_cache_key=MTI1NTQzMzg1MzUzODY2NzE2MA%3D%3D.2,celebration,0.9630670547485352,Relationships,Entertainment,,,Friends,Events,,
,fun,0.960517406463623,,,,,,,,
,party,0.9554339647293091,,,,,,,,
,music,0.955146312713623,,,,,,,,
,people,0.9501241445541382,,,,,,,,
,woman,0.9477741718292236,,,,,,,,
,group,0.9448858499526978,,,,,,,,
,art,0.940958559513092,,,,,,,,
,performance,0.93421870470047,,,,,,,,
,man,0.9325233697891235,,,,,,,,
,festival,0.9165905714035034,,,,,,,,
,mask,0.9066389799118042,,,,,,,,
,club,0.9053395986557007,,,,,,,,
,pop,0.8991754055023193,,,,,,,,
,disco,0.870525062084198,,,,,,,,
,adult,0.8703834414482117,,,,,,,,
,costume,0.8696973323822021,,,,,,,,
,club,0.867836058139801,,,,,,,,
,face,0.8665237426757812,,,,,,,,
,light,0.8568118810653687,,,,,,,,
https://scontent.cdninstagram.com/t51.2885-15/e15/13150789_1739217199627520_1042759628_n.jpg?ig_cache_key=MTI1MDU5MDYyNDc0MTg1MzgxNA%3D%3D.2,woman,0.989943265914917,Relationships,,,,Friends,,,
,man,0.9811207056045532,,,,,,,,
,adult,0.9791361093521118,,,,,,,,
,togetherness,0.9776332378387451,,,,,,,,
,people,0.9752887487411499,,,,,,,,
,friendship,0.9728161096572876,,,,,,,,
,university,0.9726194739341736,,,,,,,,
,group,0.9717639684677124,,,,,,,,
,portrait,0.971476674079895,,,,,,,,
,happiness,0.9670454263687134,,,,,,,,
,education,0.943191409111023,,,,,,,,
,"facial expression",0.9162288308143616,,,,,,,,
,group,0.9126801490783691,,,,,,,,
,adolescent,0.8948448896408081,,,,,,,,
,enjoyment,0.8892111778259277,,,,,,,,
,cheerful,0.8873748779296875,,,,,,,,
,school,0.8806933760643005,,,,,,,,
,laughing,0.8625035285949707,,,,,,,,
,indoors,0.8576223254203796,,,,,,,,
,outdoors,0.8509494066238403,,,,,,,,
https://scontent.cdninstagram.com/t51.2885-15/e35/12724791_531063717070300_1503112420_n.jpg?ig_cache_key=MTE4MDM4ODUxOTgwMDczNjU2MQ%3D%3D.2,people,0.9883826971054077,"Fashion & Beauty",,,,"My look",,,
,adult,0.9620904922485352,,,,,,,,
,man,0.9489351511001587,,,,,,,,
,street,0.9475260972976685,,,,,,,,
,one,0.9430533051490784,,,,,,,,
,offense,0.9171916246414185,,,,,,,,
,festival,0.9147127866744995,,,,,,,,
,wear,0.8998687267303467,,,,,,,,
,portrait,0.8815588355064392,,,,,,,,
,position,0.8672093749046326,,,,,,,,
,music,0.8423462510108948,,,,,,,,
,woman,0.8301910161972046,,,,,,,,
,battle,0.830048143863678,,,,,,,,
,rally,0.819181501865387,,,,,,,,
,election,0.81294846534729,,,,,,,,
,motion,0.7991519570350647,,,,,,,,
,city,0.7944449186325073,,,,,,,,
,road,0.7934528589248657,,,,,,,,
,urban,0.792876124382019,,,,,,,,
,police,0.792426347732544,,,,,,,,
