url,class,score,,,,,,,,
https://scontent.cdninstagram.com/t51.2885-15/s640x640/sh0.08/e35/13402285_1615223308788642_1518521247_n.jpg,car,0.9995582103729248,Commerce,Transportation,,,"Product/brand shots",Transportation-s,,
,vehicle,0.9954659938812256,,,,,,,,
,automotive,0.989088773727417,,,,,,,,
,"transportation system",0.9854347109794617,,,,,,,,
,wheel,0.9803290367126465,,,,,,,,
,drive,0.96954345703125,,,,,,,,
,fast,0.967880368232727,,,,,,,,
,coupe,0.9538254737854004,,,,,,,,
,hurry,0.9505641460418701,,,,,,,,
,speed,0.9325941205024719,,,,,,,,
,show,0.92913818359375,,,,,,,,
,hood,0.9277067184448242,,,,,,,,
,convertible,0.9267627596855164,,,,,,,,
,asphalt,0.9163428544998169,,,,,,,,
,sedan,0.9129317402839661,,,,,,,,
,classic,0.8914659023284912,,,,,,,,
,race,0.8729076385498047,,,,,,,,
,road,0.8677290678024292,,,,,,,,
,roadster,0.8500137329101562,,,,,,,,
,pavement,0.8388094305992126,,,,,,,,
https://scontent.cdninstagram.com/t51.2885-15/e35/13397474_837319343067997_1911271508_n.jpg,people,0.9969651699066162,"My life","Fashion & Beauty",,,Selfie,"My look",,
,adult,0.9744369983673096,,,,,,,,
,two,0.9724883437156677,,,,,,,,
,group,0.9532933235168457,,,,,,,,
,vehicle,0.9486538171768188,,,,,,,,
,man,0.930356502532959,,,,,,,,
,one,0.9279091358184814,,,,,,,,
,music,0.9277973771095276,,,,,,,,
,monochrome,0.9249254465103149,,,,,,,,
,wear,0.9188684821128845,,,,,,,,
,group,0.9085078239440918,,,,,,,,
,three,0.9050910472869873,,,,,,,,
,outfit,0.8692208528518677,,,,,,,,
,"transportation system",0.8551373481750488,,,,,,,,
,woman,0.8524531126022339,,,,,,,,
,musician,0.8371702432632446,,,,,,,,
,movie,0.8293122053146362,,,,,,,,
,uniform,0.8218120336532593,,,,,,,,
,actor,0.8144272565841675,,,,,,,,
,recreation,0.8130077123641968,,,,,,,,
https://scontent.cdninstagram.com/t51.2885-15/e35/13355585_1795035234048743_1672960382_n.jpg,competition,0.9950906038284302,"My life",Relationships,,,"With me","Best friends",,
,club,0.9852570295333862,,,,,,,,
,athlete,0.977973461151123,,,,,,,,
,championship,0.9768833518028259,,,,,,,,
,ball,0.9584037065505981,,,,,,,,
,indoors,0.9567992091178894,,,,,,,,
,school,0.9497796297073364,,,,,,,,
,game,0.9468239545822144,,,,,,,,
,woman,0.9424883723258972,,,,,,,,
,soccer,0.9363221526145935,,,,,,,,
,exhibition,0.9293973445892334,,,,,,,,
,basketball,0.9293394684791565,,,,,,,,
,track,0.9271039962768555,,,,,,,,
,sport,0.909905195236206,,,,,,,,
,recreation,0.9088094234466553,,,,,,,,
,exercise,0.9086963534355164,,,,,,,,
,adult,0.907726526260376,,,,,,,,
,man,0.8998451828956604,,,,,,,,
,train,0.8989052772521973,,,,,,,,
,race,0.8872706890106201,,,,,,,,
https://scontent.cdninstagram.com/t51.2885-15/e35/13394910_1557513241210491_1680553027_n.jpg,car,0.9988584518432617,Transportation,Commerce,,,Transportation-s,"Product/brand shots",,
,classic,0.9973654747009277,,,,,,,,
,vehicle,0.9971398115158081,,,,,,,,
,luxury,0.9895782470703125,,,,,,,,
,headlight,0.983562707901001,,,,,,,,
,chrome,0.9814701080322266,,,,,,,,
,show,0.9794869422912598,,,,,,,,
,"transportation system",0.9768093824386597,,,,,,,,
,unique,0.9666645526885986,,,,,,,,
,hood,0.9653393030166626,,,,,,,,
,nostalgia,0.9641438722610474,,,,,,,,
,convertible,0.9619178771972656,,,,,,,,
,fast,0.960573673248291,,,,,,,,
,automotive,0.9597352147102356,,,,,,,,
,drive,0.9565074443817139,,,,,,,,
,power,0.9549807906150818,,,,,,,,
,front,0.9549639225006104,,,,,,,,
,exhibition,0.9539458155632019,,,,,,,,
,retro,0.9504939913749695,,,,,,,,
,style,0.9488164186477661,,,,,,,,
https://scontent.cdninstagram.com/t51.2885-15/e35/13423400_2055623144663007_1284453829_n.jpg,vehicle,0.9702876806259155,Transportation,Environment,"My life","Fashion & Beauty",Transportation-s,"Manmade beauty",Selfie,"My look"
,people,0.9613743424415588,,,,,,,,
,landscape,0.9364030957221985,,,,,,,,
,travel,0.9361730813980103,,,,,,,,
,"transportation system",0.9135094881057739,,,,,,,,
,"no person",0.9062684774398804,,,,,,,,
,competition,0.8878270983695984,,,,,,,,
,action,0.8862658739089966,,,,,,,,
,race,0.8862305879592896,,,,,,,,
,outdoors,0.8485425710678101,,,,,,,,
,city,0.847601056098938,,,,,,,,
,daylight,0.8474987745285034,,,,,,,,
,light,0.8462015390396118,,,,,,,,
,car,0.8440892696380615,,,,,,,,
,adult,0.8306028246879578,,,,,,,,
,sky,0.8305650949478149,,,,,,,,
,tree,0.8275090456008911,,,,,,,,
,group,0.8237107992172241,,,,,,,,
,road,0.8124047517776489,,,,,,,,
,two,0.7999546527862549,,,,,,,,
https://scontent.cdninstagram.com/t51.2885-15/s750x750/sh0.08/e35/13256867_1944997425726523_859034408_n.jpg,car,0.9992992877960205,Transportation,Commerce,,,Transportation-s,"Product/brand shots",,
,vehicle,0.9961310029029846,,,,,,,,
,automotive,0.9957126975059509,,,,,,,,
,sedan,0.9740540981292725,,,,,,,,
,"transportation system",0.9687764644622803,,,,,,,,
,coupe,0.9684895277023315,,,,,,,,
,wheel,0.9681847095489502,,,,,,,,
,exhibition,0.9654819965362549,,,,,,,,
,drive,0.9621254205703735,,,,,,,,
,prototype,0.952195405960083,,,,,,,,
,fast,0.9491910934448242,,,,,,,,
,show,0.9444801807403564,,,,,,,,
,race,0.934430718421936,,,,,,,,
,blacktop,0.9131125211715698,,,,,,,,
,hurry,0.9122101068496704,,,,,,,,
,power,0.8700660467147827,,,,,,,,
,dodge,0.8688730001449585,,,,,,,,
,chrome,0.8577944040298462,,,,,,,,
,competition,0.8441832065582275,,,,,,,,
,super,0.834861159324646,,,,,,,,
https://scontent.cdninstagram.com/t51.2885-15/e35/13285429_508816295993852_548655149_n.jpg,people,0.9754244685173035,Relationships,"My life",,,Friends,"With me",,
,school,0.9659393429756165,,,,,,,,
,education,0.9609380960464478,,,,,,,,
,many,0.9314457774162292,,,,,,,,
,woman,0.9278122782707214,,,,,,,,
,child,0.9200177192687988,,,,,,,,
,adult,0.9127721190452576,,,,,,,,
,athlete,0.9050191640853882,,,,,,,,
,man,0.9019977450370789,,,,,,,,
,competition,0.9018198251724243,,,,,,,,
,ball,0.8637315630912781,,,,,,,,
,game,0.8592110872268677,,,,,,,,
,recreation,0.8454622030258179,,,,,,,,
,group,0.8430761098861694,,,,,,,,
,wear,0.8384332656860352,,,,,,,,
,soccer,0.8357611894607544,,,,,,,,
,"sports fan",0.8334987163543701,,,,,,,,
,motion,0.8278228044509888,,,,,,,,
,class,0.820098340511322,,,,,,,,
,university,0.8162593841552734,,,,,,,,
https://scontent.cdninstagram.com/t51.2885-15/e35/13423615_258763891165903_2121185780_n.jpg,people,0.9989290237426758,"My life","Fashion & Beauty",,,Selfie,"My look",,
,monochrome,0.9916421175003052,,,,,,,,
,one,0.9901844263076782,,,,,,,,
,portrait,0.9830889105796814,,,,,,,,
,adult,0.9751666188240051,,,,,,,,
,man,0.9695781469345093,,,,,,,,
,wear,0.9538750648498535,,,,,,,,
,shadow,0.9499104022979736,,,,,,,,
,silhouette,0.9314531087875366,,,,,,,,
,woman,0.9194923043251038,,,,,,,,
,girl,0.8933895230293274,,,,,,,,
,"black and white",0.8924511075019836,,,,,,,,
,child,0.8879382610321045,,,,,,,,
,street,0.8871150016784668,,,,,,,,
,light,0.8727284669876099,,,,,,,,
,fog,0.8678638339042664,,,,,,,,
,rain,0.8166152238845825,,,,,,,,
,art,0.7983723878860474,,,,,,,,
,profile,0.7921782732009888,,,,,,,,
,music,0.7905738353729248,,,,,,,,
https://scontent.cdninstagram.com/t51.2885-15/e35/13188011_967036673395649_2109738549_n.jpg,car,0.9996155500411987,Transportation,Commerce,,,Transportation-s,"Product/brand shots",,
,hurry,0.9955955743789673,,,,,,,,
,asphalt,0.9942871332168579,,,,,,,,
,"transportation system",0.9892325401306152,,,,,,,,
,pavement,0.9885246753692627,,,,,,,,
,fast,0.988279402256012,,,,,,,,
,blur,0.984968900680542,,,,,,,,
,vehicle,0.9833253622055054,,,,,,,,
,street,0.976254940032959,,,,,,,,
,road,0.9751330614089966,,,,,,,,
,race,0.9728747606277466,,,,,,,,
,automotive,0.9665637612342834,,,,,,,,
,action,0.9569442868232727,,,,,,,,
,blacktop,0.9558674097061157,,,,,,,,
,drive,0.9518188834190369,,,,,,,,
,wheel,0.9409956932067871,,,,,,,,
,speed,0.9347661137580872,,,,,,,,
,coupe,0.8934332132339478,,,,,,,,
,track,0.8651588559150696,,,,,,,,
,traffic,0.8584574460983276,,,,,,,,
https://scontent.cdninstagram.com/t51.2885-15/e35/13277684_248311998857550_1719906827_n.jpg,water,0.9950573444366455,Environment,"My life",,,"Manmade beauty","My world today",,
,city,0.994182825088501,,,,,,,,
,travel,0.9862945675849915,,,,,,,,
,architecture,0.9851518869400024,,,,,,,,
,river,0.981749415397644,,,,,,,,
,skyline,0.9796663522720337,,,,,,,,
,bridge,0.9792879819869995,,,,,,,,
,building,0.9727007150650024,,,,,,,,
,cityscape,0.971726655960083,,,,,,,,
,evening,0.967626690864563,,,,,,,,
,harbor,0.966690719127655,,,,,,,,
,urban,0.9661890864372253,,,,,,,,
,waterfront,0.9640715718269348,,,,,,,,
,sunset,0.9638633728027344,,,,,,,,
,sky,0.9629154205322266,,,,,,,,
,reflection,0.9609010219573975,,,,,,,,
,light,0.9601725339889526,,,,,,,,
,"no person",0.9596239328384399,,,,,,,,
,"ferris wheel",0.9581212997436523,,,,,,,,
,bay,0.9521726369857788,,,,,,,,
https://scontent.cdninstagram.com/t51.2885-15/e35/13259519_102007353555287_514456936_n.jpg,tunnel,0.9993510246276855,Environment,"My life",,,"Manmade beauty","My world today",,
,tube,0.9972452521324158,,,,,,,,
,blur,0.9878770709037781,,,,,,,,
,perspective,0.9627848863601685,,,,,,,,
,light,0.9609477519989014,,,,,,,,
,fast,0.9540542364120483,,,,,,,,
,"no person",0.9476217031478882,,,,,,,,
,zoom,0.9301763772964478,,,,,,,,
,motion,0.9294078350067139,,,,,,,,
,dark,0.9284358024597168,,,,,,,,
,abstract,0.9263951778411865,,,,,,,,
,light,0.9215261936187744,,,,,,,,
,guidance,0.9193414449691772,,,,,,,,
,"transportation system",0.9164565801620483,,,,,,,,
,luminescence,0.914732813835144,,,,,,,,
,urban,0.8870271444320679,,,,,,,,
,street,0.8814145922660828,,,,,,,,
,city,0.8795903921127319,,,,,,,,
,railway,0.8794231414794922,,,,,,,,
,step,0.8791090846061707,,,,,,,,
https://scontent.cdninstagram.com/t51.2885-15/e35/13261023_1146377525397100_1169056722_n.jpg,car,0.9999116063117981,Transportation,Commerce,,,Transportation-s,"Product/brand shots",,
,vehicle,0.9989597797393799,,,,,,,,
,"transportation system",0.9948450326919556,,,,,,,,
,automotive,0.992700457572937,,,,,,,,
,show,0.9894477128982544,,,,,,,,
,drive,0.9840235114097595,,,,,,,,
,street,0.9701164364814758,,,,,,,,
,sedan,0.9696780443191528,,,,,,,,
,chrome,0.9645606279373169,,,,,,,,
,classic,0.9551177024841309,,,,,,,,
,exhibition,0.9463748931884766,,,,,,,,
,hood,0.9458498954772949,,,,,,,,
,road,0.9442429542541504,,,,,,,,
,wheel,0.9410966634750366,,,,,,,,
,coupe,0.9342324137687683,,,,,,,,
,headlight,0.9121251106262207,,,,,,,,
,convertible,0.907968282699585,,,,,,,,
,luxury,0.8975931406021118,,,,,,,,
,monochrome,0.8901811838150024,,,,,,,,
,driver,0.8834842443466187,,,,,,,,
https://scontent.cdninstagram.com/t51.2885-15/e35/13381030_1100455343354257_1935377061_n.jpg,neon,0.9900431036949158,Technology,,,,Technology-s,,,
,illustration,0.9725505113601685,,,,,,,,
,graphic,0.9701040983200073,,,,,,,,
,illuminated,0.9482382535934448,,,,,,,,
,design,0.9433289766311646,,,,,,,,
,technology,0.9402239918708801,,,,,,,,
,desktop,0.9374760389328003,,,,,,,,
,computer,0.9357280731201172,,,,,,,,
,vector,0.9337908029556274,,,,,,,,
,symbol,0.9233052730560303,,,,,,,,
,sign,0.9224563241004944,,,,,,,,
,abstract,0.9158395528793335,,,,,,,,
,business,0.9138464331626892,,,,,,,,
,internet,0.8989759683609009,,,,,,,,
,light,0.8981124758720398,,,,,,,,
,banner,0.8824684023857117,,,,,,,,
,bright,0.8807835578918457,,,,,,,,
,text,0.8670156002044678,,,,,,,,
,luminescence,0.865763783454895,,,,,,,,
,element,0.8613220453262329,,,,,,,,
https://scontent.cdninstagram.com/t51.2885-15/e35/13531842_1236448766366753_127832983_n.jpg,page,0.9947707653045654,Undefined,,,,Undefined,,,
,"World Wide Web",0.9930344820022583,,,,,,,,
,form,0.9904749393463135,,,,,,,,
,template,0.9842525124549866,,,,,,,,
,stripe,0.9834397435188293,,,,,,,,
,site,0.9771933555603027,,,,,,,,
,number,0.9616708755493164,,,,,,,,
,layout,0.9611308574676514,,,,,,,,
,menu,0.9551658630371094,,,,,,,,
,banner,0.953525185585022,,,,,,,,
,business,0.9500035643577576,,,,,,,,
,internet,0.9462506771087646,,,,,,,,
,user,0.9452908039093018,,,,,,,,
,login,0.941478967666626,,,,,,,,
,data,0.9359046220779419,,,,,,,,
,data,0.9269866347312927,,,,,,,,
,password,0.9260565042495728,,,,,,,,
,browser,0.920379638671875,,,,,,,,
,navigation,0.916263222694397,,,,,,,,
,vector,0.9149435758590698,,,,,,,,
https://scontent.cdninstagram.com/t51.2885-15/e35/13129337_1704146456508570_495637657_n.jpg,food,0.9960719347000122,Food,,,,Dessert,,,
,fruit,0.9779496192932129,,,,,,,,
,vegetable,0.9747958183288574,,,,,,,,
,"no person",0.9700143337249756,,,,,,,,
,apple,0.9664345383644104,,,,,,,,
,sweet,0.9413434863090515,,,,,,,,
,cooking,0.9391621351242065,,,,,,,,
,"still life",0.9378361701965332,,,,,,,,
,dinner,0.9262708425521851,,,,,,,,
,health,0.9251128435134888,,,,,,,,
,bowl,0.924474835395813,,,,,,,,
,nutrition,0.9094280004501343,,,,,,,,
,grow,0.9037423729896545,,,,,,,,
,healthy,0.8991528153419495,,,,,,,,
,delicious,0.8957998752593994,,,,,,,,
,knife,0.8926624059677124,,,,,,,,
,meal,0.8906878232955933,,,,,,,,
,color,0.881250262260437,,,,,,,,
,pepper,0.8760296106338501,,,,,,,,
,diet,0.8668404221534729,,,,,,,,
https://scontent.cdninstagram.com/t51.2885-15/e35/13118276_1030307023727148_1592943469_n.jpg,recreation,0.9920241236686707,Relationships,Transportation,Recreation,"My life",Friends,Transportation-s,Fitness,"With me"
,wheel,0.9909111261367798,,,,,,,,
,cyclist,0.9826948642730713,,,,,,,,
,sitting,0.9799805283546448,,,,,,,,
,woman,0.9773892164230347,,,,,,,,
,vehicle,0.976115882396698,,,,,,,,
,people,0.9736226797103882,,,,,,,,
,man,0.9681974649429321,,,,,,,,
,road,0.9643605947494507,,,,,,,,
,marathon,0.9588320255279541,,,,,,,,
,exercise,0.957422137260437,,,,,,,,
,race,0.9563726782798767,,,,,,,,
,runner,0.9555262327194214,,,,,,,,
,leisure,0.9537331461906433,,,,,,,,
,bike,0.949781060218811,,,,,,,,
,enjoyment,0.9455624222755432,,,,,,,,
,competition,0.9416272640228271,,,,,,,,
,motion,0.9409559965133667,,,,,,,,
,adult,0.9346386194229126,,,,,,,,
,fitness,0.933599591255188,,,,,,,,
https://scontent.cdninstagram.com/t51.2885-15/e35/13116693_1027247790691417_42260643_n.jpg,food,0.9962563514709473,Food,,,,"Meal time",,,
,"no person",0.9925297498703003,,,,,,,,
,grow,0.9788787364959717,,,,,,,,
,delicious,0.951303243637085,,,,,,,,
,vegetable,0.9488056898117065,,,,,,,,
,dinner,0.9486948251724243,,,,,,,,
,fish,0.9475371837615967,,,,,,,,
,seafood,0.9375830888748169,,,,,,,,
,"still life",0.9354695677757263,,,,,,,,
,cooking,0.9211264848709106,,,,,,,,
,meal,0.9172360897064209,,,,,,,,
,plate,0.9164245128631592,,,,,,,,
,lunch,0.8991984128952026,,,,,,,,
,restaurant,0.8946987986564636,,,,,,,,
,nutrition,0.8904597759246826,,,,,,,,
,"root vegetable",0.8866862058639526,,,,,,,,
,carrot,0.8796328902244568,,,,,,,,
,dish,0.8729226589202881,,,,,,,,
,dining,0.8570748567581177,,,,,,,,
,tableware,0.8565583229064941,,,,,,,,
https://scontent.cdninstagram.com/t51.2885-15/e35/12445865_1717717041839506_1726502427_n.jpg,wheel,0.999640703201294,Transportation,,,,Transportation-s,,,
,bike,0.9981675744056702,,,,,,,,
,"transportation system",0.9922564029693604,,,,,,,,
,vehicle,0.9903748035430908,,,,,,,,
,tire,0.9803568720817566,,,,,,,,
,race,0.9681593775749207,,,,,,,,
,drive,0.957956850528717,,,,,,,,
,road,0.9545882940292358,,,,,,,,
,car,0.9449576139450073,,,,,,,,
,wheel,0.9172226190567017,,,,,,,,
,motorbike,0.9076720476150513,,,,,,,,
,street,0.9072654247283936,,,,,,,,
,track,0.9028611183166504,,,,,,,,
,rim,0.890215277671814,,,,,,,,
,competition,0.8882237672805786,,,,,,,,
,sport,0.8867219686508179,,,,,,,,
,traffic,0.8692344427108765,,,,,,,,
,action,0.8588106632232666,,,,,,,,
,automotive,0.8587706089019775,,,,,,,,
,speed,0.8571568727493286,,,,,,,,
https://scontent.cdninstagram.com/t51.2885-15/e35/12940073_222981731409066_1120767059_n.jpg,leaf,0.9958062171936035,Environment,"My life",,,"Natural beauty","My world today",,
,tree,0.9910573363304138,,,,,,,,
,wood,0.9892463684082031,,,,,,,,
,nature,0.9870712757110596,,,,,,,,
,lush,0.9843592047691345,,,,,,,,
,"fair weather",0.9811050891876221,,,,,,,,
,branch,0.9790842533111572,,,,,,,,
,bright,0.9727976322174072,,,,,,,,
,"no person",0.9685739278793335,,,,,,,,
,growth,0.9656115770339966,,,,,,,,
,sun,0.9647116661071777,,,,,,,,
,park,0.9621680378913879,,,,,,,,
,season,0.9506006240844727,,,,,,,,
,landscape,0.9498577117919922,,,,,,,,
,summer,0.9473313093185425,,,,,,,,
,environment,0.9410111904144287,,,,,,,,
,outdoors,0.9373615980148315,,,,,,,,
,flora,0.9360844492912292,,,,,,,,
,sunbeam,0.9087141752243042,,,,,,,,
,sunny,0.8954097032546997,,,,,,,,
https://scontent.cdninstagram.com/t51.2885-15/e35/12940762_990685711021196_1945926655_n.jpg,people,0.9900208711624146,Celebrations,"My life","Fashion & Beauty",,"Personal Events",Selfie,Ootd,
,group,0.9899049997329712,,,,,,,,
,adult,0.986564040184021,,,,,,,,
,man,0.9816758632659912,,,,,,,,
,business,0.962584376335144,,,,,,,,
,wear,0.9474537372589111,,,,,,,,
,room,0.9381124973297119,,,,,,,,
,indoors,0.924790620803833,,,,,,,,
,education,0.9109700918197632,,,,,,,,
,woman,0.905565083026886,,,,,,,,
,employee,0.9013824462890625,,,,,,,,
,leader,0.8979629278182983,,,,,,,,
,"facial expression",0.8944970965385437,,,,,,,,
,portrait,0.8904331922531128,,,,,,,,
,office,0.879802942276001,,,,,,,,
,group,0.8762513399124146,,,,,,,,
,commerce,0.8723142743110657,,,,,,,,
,election,0.8679250478744507,,,,,,,,
,administration,0.8653156757354736,,,,,,,,
,meeting,0.8536041378974915,,,,,,,,
https://scontent.cdninstagram.com/t51.2885-15/e35/13188079_1580132555631471_505060676_n.jpg,group,0.9877511262893677,Relationships,"My life",,,Friends,"With me",,
,people,0.9847484827041626,,,,,,,,
,group,0.9808475971221924,,,,,,,,
,road,0.9790555238723755,,,,,,,,
,many,0.9742822051048279,,,,,,,,
,recreation,0.9585682153701782,,,,,,,,
,competition,0.9541005492210388,,,,,,,,
,street,0.9502371549606323,,,,,,,,
,city,0.946410596370697,,,,,,,,
,marathon,0.9458209872245789,,,,,,,,
,man,0.940805971622467,,,,,,,,
,adult,0.9405409097671509,,,,,,,,
,woman,0.9393109083175659,,,,,,,,
,motion,0.9376269578933716,,,,,,,,
,child,0.9368155002593994,,,,,,,,
,athlete,0.9328694343566895,,,,,,,,
,runner,0.9287506341934204,,,,,,,,
,race,0.9114763736724854,,,,,,,,
,jogger,0.8941391110420227,,,,,,,,
,wear,0.881773829460144,,,,,,,,
https://scontent.cdninstagram.com/t51.2885-15/e35/12940126_613060308859998_227148788_n.jpg,business,0.9580436944961548,Undefined,,,,Undefined,,,
,number,0.9112566709518433,,,,,,,,
,technology,0.902980625629425,,,,,,,,
,desktop,0.886640191078186,,,,,,,,
,office,0.8601278066635132,,,,,,,,
,equipment,0.8513352870941162,,,,,,,,
,money,0.8335450887680054,,,,,,,,
,reflection,0.8329335451126099,,,,,,,,
,telephone,0.8243944644927979,,,,,,,,
,modern,0.8048015832901001,,,,,,,,
,plastic,0.7950059175491333,,,,,,,,
,communication,0.7713589668273926,,,,,,,,
,"no person",0.7649086713790894,,,,,,,,
,power,0.7575535774230957,,,,,,,,
,data,0.7456085085868835,,,,,,,,
,car,0.7390320301055908,,,,,,,,
,financial,0.7327466011047363,,,,,,,,
,color,0.7173031568527222,,,,,,,,
,leisure,0.716715931892395,,,,,,,,
,connection,0.7148051857948303,,,,,,,,
https://scontent.cdninstagram.com/t51.2885-15/e35/12383100_807390326059020_955647470_n.jpg,many,0.9923684597015381,,Entertainment,,,,Events,,
,competition,0.991258978843689,,,,,,,,
,stadium,0.9878648519515991,,,,,,,,
,group,0.9869804382324219,,,,,,,,
,people,0.9855682253837585,,,,,,,,
,athlete,0.9616513252258301,,,,,,,,
,crowd,0.9438883066177368,,,,,,,,
,action,0.9383904933929443,,,,,,,,
,spectator,0.9266708493232727,,,,,,,,
,man,0.9228334426879883,,,,,,,,
,soccer,0.896685004234314,,,,,,,,
,recreation,0.8800089359283447,,,,,,,,
,motion,0.8549432754516602,,,,,,,,
,group,0.8499608039855957,,,,,,,,
,adult,0.843047559261322,,,,,,,,
,audience,0.8415378332138062,,,,,,,,
,game,0.8392398953437805,,,,,,,,
,outdoors,0.8341021537780762,,,,,,,,
,school,0.8261280655860901,,,,,,,,
,"no person",0.822609007358551,,,,,,,,
https://scontent.cdninstagram.com/t51.2885-15/s750x750/sh0.08/e35/12940684_582451468589764_1195376244_n.jpg,action,0.9822152853012085,Recreation,Entertainment,"My life",,Fitness,Sports,Doing,
,runner,0.9801080226898193,,,,,,,,
,exercise,0.975918173789978,,,,,,,,
,competition,0.9677845239639282,,,,,,,,
,adult,0.9668810367584229,,,,,,,,
,sport,0.9664041996002197,,,,,,,,
,one,0.9648345708847046,,,,,,,,
,recreation,0.9598320722579956,,,,,,,,
,people,0.9584857225418091,,,,,,,,
,man,0.9506844282150269,,,,,,,,
,leisure,0.946645975112915,,,,,,,,
,athlete,0.9458070993423462,,,,,,,,
,fitness,0.9433530569076538,,,,,,,,
,woman,0.942619800567627,,,,,,,,
,active,0.9287320375442505,,,,,,,,
,motion,0.9263224601745605,,,,,,,,
,determination,0.924115777015686,,,,,,,,
,portrait,0.9119446277618408,,,,,,,,
,outdoors,0.9091954231262207,,,,,,,,
,jogger,0.8964780569076538,,,,,,,,
https://scontent.cdninstagram.com/t51.2885-15/e35/13256811_1625057191149577_1338944672_n.jpg,flower,0.9993458986282349,Environment,"My life",,,"Natural beauty","My world today",,
,flora,0.9988564252853394,,,,,,,,
,floral,0.9961962699890137,,,,,,,,
,garden,0.9954256415367126,,,,,,,,
,exotic,0.995173454284668,,,,,,,,
,blooming,0.9946575164794922,,,,,,,,
,nature,0.9944294691085815,,,,,,,,
,tropical,0.9927988052368164,,,,,,,,
,petal,0.9913864731788635,,,,,,,,
,botanical,0.9893937110900879,,,,,,,,
,beautiful,0.9882559776306152,,,,,,,,
,color,0.9878273010253906,,,,,,,,
,leaf,0.9865540266036987,,,,,,,,
,"no person",0.9810034036636353,,,,,,,,
,bright,0.9809072613716125,,,,,,,,
,husk,0.9749490022659302,,,,,,,,
,vibrant,0.9723564982414246,,,,,,,,
,elegant,0.9686734676361084,,,,,,,,
,decoration,0.9672346115112305,,,,,,,,
,closeup,0.9643969535827637,,,,,,,,
https://scontent.cdninstagram.com/t51.2885-15/e35/12935114_1702768149962069_328191177_n.jpg,"no person",0.9881141185760498,"My life",,,,"My world today",,,
,people,0.984123945236206,,,,,,,,
,monochrome,0.9568884372711182,,,,,,,,
,empty,0.93465656042099,,,,,,,,
,stadium,0.8950718641281128,,,,,,,,
,dark,0.8940047025680542,,,,,,,,
,abandoned,0.8423329591751099,,,,,,,,
,group,0.8379234075546265,,,,,,,,
,water,0.8334239721298218,,,,,,,,
,"black and white",0.8282170295715332,,,,,,,,
,wear,0.8157418370246887,,,,,,,,
,light,0.808327317237854,,,,,,,,
,group,0.8048300743103027,,,,,,,,
,adult,0.7938892841339111,,,,,,,,
,old,0.768797755241394,,,,,,,,
,industry,0.7678948640823364,,,,,,,,
,war,0.7675849199295044,,,,,,,,
,street,0.7559647560119629,,,,,,,,
,military,0.7440146207809448,,,,,,,,
,one,0.7437282800674438,,,,,,,,
https://scontent.cdninstagram.com/t51.2885-15/e35/12568823_1676816882586284_47915195_n.jpg,car,0.999729573726654,Transportation,Commerce,,,Transportation-s,"Product/brand shots",,
,vehicle,0.9969660043716431,,,,,,,,
,street,0.9962271451950073,,,,,,,,
,monochrome,0.99040687084198,,,,,,,,
,"transportation system",0.9870440363883972,,,,,,,,
,road,0.9866070747375488,,,,,,,,
,pavement,0.9641047716140747,,,,,,,,
,blur,0.9639319777488708,,,,,,,,
,action,0.9307156801223755,,,,,,,,
,city,0.9174325466156006,,,,,,,,
,automotive,0.9054887890815735,,,,,,,,
,hurry,0.9018398523330688,,,,,,,,
,race,0.9005510807037354,,,,,,,,
,wheel,0.8830989599227905,,,,,,,,
,fast,0.8666309118270874,,,,,,,,
,driver,0.8411698341369629,,,,,,,,
,coupe,0.8398295044898987,,,,,,,,
,competition,0.8366860151290894,,,,,,,,
,people,0.8207623958587646,,,,,,,,
,convertible,0.818968653678894,,,,,,,,
https://scontent.cdninstagram.com/t51.2885-15/e35/13381231_1752612098307774_140389032_n.jpg,exercise,0.9820675849914551,Relationships,"My life",,,"Best friends","With me",,
,competition,0.9789716601371765,,,,,,,,
,athlete,0.9732383489608765,,,,,,,,
,woman,0.9677692651748657,,,,,,,,
,recreation,0.96382737159729,,,,,,,,
,fitness,0.9560220241546631,,,,,,,,
,indoors,0.9353910684585571,,,,,,,,
,sport,0.9352916479110718,,,,,,,,
,man,0.927539587020874,,,,,,,,
,multicultural,0.9147393703460693,,,,,,,,
,train,0.8912167549133301,,,,,,,,
,active,0.8878195881843567,,,,,,,,
,school,0.8753924369812012,,,,,,,,
,group,0.8683335781097412,,,,,,,,
,enjoyment,0.8626363277435303,,,,,,,,
,action,0.8589886426925659,,,,,,,,
,people,0.8580557703971863,,,,,,,,
,basketball,0.8579758405685425,,,,,,,,
,child,0.8538724184036255,,,,,,,,
,leisure,0.8453960418701172,,,,,,,,
https://scontent.cdninstagram.com/t51.2885-15/e35/11372015_1121483584550894_2104628331_n.jpg,skyscraper,0.9994316101074219,Environment,"My life",,,"Manmade beauty","My world today",,
,downtown,0.9993447065353394,,,,,,,,
,skyline,0.9991394281387329,,,,,,,,
,city,0.9987607002258301,,,,,,,,
,cityscape,0.9982044696807861,,,,,,,,
,architecture,0.9958507418632507,,,,,,,,
,office,0.9931442737579346,,,,,,,,
,waterfront,0.9889769554138184,,,,,,,,
,building,0.9878213405609131,,,,,,,,
,urban,0.985553503036499,,,,,,,,
,finance,0.9840332269668579,,,,,,,,
,tallest,0.9771754145622253,,,,,,,,
,business,0.9750584959983826,,,,,,,,
,modern,0.9730145931243896,,,,,,,,
,dusk,0.9708200693130493,,,,,,,,
,harbor,0.9704650640487671,,,,,,,,
,district,0.957886278629303,,,,,,,,
,tower,0.9552494287490845,,,,,,,,
,reflection,0.9524414539337158,,,,,,,,
,river,0.949623703956604,,,,,,,,
https://scontent.cdninstagram.com/t51.2885-15/e35/13109100_102720400146134_19893413_n.jpg,people,0.992442786693573,"My life","Fashion & Beauty",,,Selfie,"My look",,
,man,0.9765398502349854,,,,,,,,
,sunset,0.965539813041687,,,,,,,,
,adult,0.9622873067855835,,,,,,,,
,outdoors,0.9278969764709473,,,,,,,,
,one,0.9277443885803223,,,,,,,,
,woman,0.9261571168899536,,,,,,,,
,travel,0.9222068786621094,,,,,,,,
,road,0.9181941747665405,,,,,,,,
,evening,0.9119935035705566,,,,,,,,
,street,0.9104461073875427,,,,,,,,
,dusk,0.9040757417678833,,,,,,,,
,silhouette,0.8952111601829529,,,,,,,,
,landscape,0.8936251997947693,,,,,,,,
,boy,0.8933943510055542,,,,,,,,
,girl,0.8931511640548706,,,,,,,,
,light,0.8921278715133667,,,,,,,,
,recreation,0.8907513618469238,,,,,,,,
,two,0.8898431062698364,,,,,,,,
,dawn,0.8481854200363159,,,,,,,,
https://scontent.cdninstagram.com/t51.2885-15/e35/13126748_850414945064583_872641257_n.jpg,car,0.9999099373817444,Transportation,Commerce,,,Transportation-s,"Product/brand shots",,
,vehicle,0.9993521571159363,,,,,,,,
,automotive,0.9943233132362366,,,,,,,,
,drive,0.9939318895339966,,,,,,,,
,wheel,0.9924074411392212,,,,,,,,
,"transportation system",0.991878867149353,,,,,,,,
,hurry,0.9914455413818359,,,,,,,,
,race,0.9853653907775879,,,,,,,,
,coupe,0.9848668575286865,,,,,,,,
,convertible,0.9800601005554199,,,,,,,,
,pavement,0.9744197130203247,,,,,,,,
,blacktop,0.9707355499267578,,,,,,,,
,driver,0.9704786539077759,,,,,,,,
,fast,0.9669532775878906,,,,,,,,
,hood,0.9663325548171997,,,,,,,,
,roadster,0.9508265852928162,,,,,,,,
,asphalt,0.9505549669265747,,,,,,,,
,super,0.9451203346252441,,,,,,,,
,prototype,0.9396264553070068,,,,,,,,
,sedan,0.9383153915405273,,,,,,,,
https://scontent.cdninstagram.com/t51.2885-15/e35/12935051_869090489887417_1119179866_n.jpg,race,0.9968409538269043,Commerce,,,,"Product/brand shots",,,
,street,0.9955373406410217,,,,,,,,
,road,0.9940312504768372,,,,,,,,
,action,0.9936158657073975,,,,,,,,
,"auto racing",0.9912089109420776,,,,,,,,
,car,0.9890251755714417,,,,,,,,
,blur,0.9879392385482788,,,,,,,,
,travel,0.9864861369132996,,,,,,,,
,hurry,0.9808435440063477,,,,,,,,
,"transportation system",0.9775279760360718,,,,,,,,
,vehicle,0.9758723974227905,,,,,,,,
,traffic,0.9729939103126526,,,,,,,,
,championship,0.9711000323295593,,,,,,,,
,competition,0.9698125720024109,,,,,,,,
,city,0.9654303789138794,,,,,,,,
,fast,0.9553333520889282,,,,,,,,
,zoom,0.9405233860015869,,,,,,,,
,guidance,0.9370211958885193,,,,,,,,
,track,0.9367240071296692,,,,,,,,
,asphalt,0.9354053735733032,,,,,,,,
https://scontent.cdninstagram.com/t51.2885-15/e35/10268956_872718466170052_52666629_n.jpg,illustration,0.9780839681625366,Undefined,,,,Undefined,,,
,symbol,0.9488837718963623,,,,,,,,
,text,0.9459987878799438,,,,,,,,
,sign,0.9275134801864624,,,,,,,,
,vector,0.9263095259666443,,,,,,,,
,stock,0.9246231317520142,,,,,,,,
,design,0.9198606014251709,,,,,,,,
,"no person",0.9174501895904541,,,,,,,,
,sale,0.9128848314285278,,,,,,,,
,label,0.9112987518310547,,,,,,,,
,banner,0.9104050397872925,,,,,,,,
,celebration,0.8938233852386475,,,,,,,,
,image,0.8828879594802856,,,,,,,,
,bill,0.8740421533584595,,,,,,,,
,Christmas,0.8667541742324829,,,,,,,,
,desktop,0.8642536401748657,,,,,,,,
,graphic,0.8552342653274536,,,,,,,,
,promotion,0.8459989428520203,,,,,,,,
,art,0.8376457691192627,,,,,,,,
,love,0.8367879390716553,,,,,,,,
https://scontent.cdninstagram.com/t51.2885-15/e35/12724799_189999721357218_4651633_n.jpg,exercise,0.9662008881568909,Recreation,"My life","Fashion & Beauty",,Fitness,Selfie,"My look",
,woman,0.965831995010376,,,,,,,,
,people,0.9556876420974731,,,,,,,,
,girl,0.9512598514556885,,,,,,,,
,ball,0.9234868288040161,,,,,,,,
,sport,0.9157721400260925,,,,,,,,
,one,0.9145721197128296,,,,,,,,
,adult,0.9126217365264893,,,,,,,,
,action,0.9044886827468872,,,,,,,,
,recreation,0.8993456363677979,,,,,,,,
,fitness,0.8908768892288208,,,,,,,,
,athlete,0.8847662210464478,,,,,,,,
,leisure,0.8681372404098511,,,,,,,,
,competition,0.8622162938117981,,,,,,,,
,young,0.8528772592544556,,,,,,,,
,active,0.8519306182861328,,,,,,,,
,man,0.8518872261047363,,,,,,,,
,fashion,0.8477882742881775,,,,,,,,
,jump,0.8351624011993408,,,,,,,,
,skill,0.8340890407562256,,,,,,,,
https://scontent.cdninstagram.com/t51.2885-15/e35/12677653_1687479058134378_1006974201_n.jpg,vehicle,0.9959743618965149,Transportation,Commerce,,,Transportation-s,"Product/brand shots",,
,car,0.9946815967559814,,,,,,,,
,"transportation system",0.9942102432250977,,,,,,,,
,monochrome,0.9841517210006714,,,,,,,,
,street,0.9634279012680054,,,,,,,,
,engine,0.9356096982955933,,,,,,,,
,people,0.9181714057922363,,,,,,,,
,vintage,0.9173823595046997,,,,,,,,
,wheel,0.9066100120544434,,,,,,,,
,old,0.9023255109786987,,,,,,,,
,"black and white",0.8986478447914124,,,,,,,,
,retro,0.8881097435951233,,,,,,,,
,chrome,0.8856486082077026,,,,,,,,
,classic,0.8748117685317993,,,,,,,,
,"no person",0.8717802166938782,,,,,,,,
,automotive,0.8634815812110901,,,,,,,,
,wreck,0.8603449463844299,,,,,,,,
,speed,0.8523657917976379,,,,,,,,
,broken,0.8412231802940369,,,,,,,,
,drive,0.8359555006027222,,,,,,,,
https://scontent.cdninstagram.com/t51.2885-15/sh0.08/e35/p750x750/1173223_552821891539287_1843742175_n.jpg,people,0.9936844706535339,Entertainment,Recreation,Relationships,"My life",Sports,Fitness,Friends,"With me"
,group,0.9700304865837097,,,,,,,,
,festival,0.9669382572174072,,,,,,,,
,man,0.9609056711196899,,,,,,,,
,fun,0.9525914192199707,,,,,,,,
,woman,0.9520636796951294,,,,,,,,
,many,0.9515054225921631,,,,,,,,
,group,0.9498645067214966,,,,,,,,
,adult,0.9471405744552612,,,,,,,,
,university,0.9290146827697754,,,,,,,,
,competition,0.9245948791503906,,,,,,,,
,school,0.9193635582923889,,,,,,,,
,wear,0.9159131646156311,,,,,,,,
,enjoyment,0.9157466888427734,,,,,,,,
,religion,0.908096194267273,,,,,,,,
,squad,0.9060930609703064,,,,,,,,
,crowd,0.9039448499679565,,,,,,,,
,celebration,0.9033855199813843,,,,,,,,
,child,0.8993058204650879,,,,,,,,
,parade,0.8977449536323547,,,,,,,,
https://scontent.cdninstagram.com/t51.2885-15/e35/12328113_639487569523351_543020575_n.jpg,car,0.9994924068450928,Transportation,Commerce,,,Transportation-s,"Product/brand shots",,
,monochrome,0.9989171624183655,,,,,,,,
,street,0.9982081651687622,,,,,,,,
,vehicle,0.9940564632415771,,,,,,,,
,"transportation system",0.9924013614654541,,,,,,,,
,road,0.9875545501708984,,,,,,,,
,traffic,0.9803407192230225,,,,,,,,
,travel,0.9735482931137085,,,,,,,,
,"black and white",0.967197597026825,,,,,,,,
,city,0.9581691026687622,,,,,,,,
,pavement,0.9492729902267456,,,,,,,,
,blur,0.9163623452186584,,,,,,,,
,classic,0.8886436820030212,,,,,,,,
,bus,0.8884028196334839,,,,,,,,
,luxury,0.887178361415863,,,,,,,,
,urban,0.883963942527771,,,,,,,,
,wheel,0.8713145852088928,,,,,,,,
,automotive,0.8569976091384888,,,,,,,,
,people,0.8522670269012451,,,,,,,,
,driver,0.8371708393096924,,,,,,,,
https://scontent.cdninstagram.com/t51.2885-15/e35/12677175_662920743848267_206731264_n.jpg,car,0.9998694658279419,Transportation,Commerce,,,Transportation-s,"Product/brand shots",,
,vehicle,0.9990829229354858,,,,,,,,
,"transportation system",0.9947954416275024,,,,,,,,
,automotive,0.9909777641296387,,,,,,,,
,classic,0.9879049062728882,,,,,,,,
,chrome,0.9834128618240356,,,,,,,,
,drive,0.9799731969833374,,,,,,,,
,show,0.9729242324829102,,,,,,,,
,headlight,0.9624629020690918,,,,,,,,
,sedan,0.9537339210510254,,,,,,,,
,wheel,0.952330470085144,,,,,,,,
,hood,0.9427268505096436,,,,,,,,
,retro,0.9414682388305664,,,,,,,,
,coupe,0.9382079839706421,,,,,,,,
,convertible,0.9358780384063721,,,,,,,,
,luxury,0.9243277907371521,,,,,,,,
,power,0.9044766426086426,,,,,,,,
,windshield,0.9041623473167419,,,,,,,,
,fast,0.9017572402954102,,,,,,,,
,design,0.900833249092102,,,,,,,,
https://scontent.cdninstagram.com/t51.2885-15/e35/12383380_1033671066678878_693038970_n.jpg,car,0.9999079704284668,Transportation,Commerce,,,Transportation-s,"Product/brand shots",,
,vehicle,0.997636616230011,,,,,,,,
,"transportation system",0.9904986619949341,,,,,,,,
,automotive,0.9895757436752319,,,,,,,,
,show,0.9671733975410461,,,,,,,,
,coupe,0.9539823532104492,,,,,,,,
,road,0.9531153440475464,,,,,,,,
,drive,0.9490659832954407,,,,,,,,
,hurry,0.9458214044570923,,,,,,,,
,sedan,0.9427328705787659,,,,,,,,
,wheel,0.9356567859649658,,,,,,,,
,headlight,0.9261181354522705,,,,,,,,
,hood,0.9237239360809326,,,,,,,,
,exhibition,0.9227877855300903,,,,,,,,
,fast,0.9180830717086792,,,,,,,,
,convertible,0.9136803150177002,,,,,,,,
,dodge,0.9077284336090088,,,,,,,,
,chrome,0.8867990374565125,,,,,,,,
,street,0.8599724769592285,,,,,,,,
,luxury,0.8524172306060791,,,,,,,,
https://scontent.cdninstagram.com/t51.2885-15/e35/12558725_1844319732461505_242872169_n.jpg,car,0.9995356798171997,Transportation,Commerce,,,Transportation-s,"Product/brand shots",,
,vehicle,0.9971054792404175,,,,,,,,
,automotive,0.97862708568573,,,,,,,,
,fast,0.9737339615821838,,,,,,,,
,coupe,0.9700030088424683,,,,,,,,
,race,0.9595311284065247,,,,,,,,
,hurry,0.9570006132125854,,,,,,,,
,wheel,0.948925793170929,,,,,,,,
,asphalt,0.9489006996154785,,,,,,,,
,"transportation system",0.9463865756988525,,,,,,,,
,blacktop,0.9446137547492981,,,,,,,,
,drive,0.9187284111976624,,,,,,,,
,convertible,0.9054112434387207,,,,,,,,
,sedan,0.9028240442276001,,,,,,,,
,action,0.9017444252967834,,,,,,,,
,road,0.8994959592819214,,,,,,,,
,show,0.8985112309455872,,,,,,,,
,pavement,0.8974075317382812,,,,,,,,
,luxury,0.87204909324646,,,,,,,,
,noon,0.8671576976776123,,,,,,,,
https://scontent.cdninstagram.com/t51.2885-15/e35/1169823_178592492527383_800919677_n.jpg,swimming,0.9988058805465698,Relationships,Recreation,"My life",,Friends,Recreation-s,"With me",
,water,0.9985203742980957,,,,,,,,
,pool,0.9963293075561523,,,,,,,,
,"swimming pool",0.9917774200439453,,,,,,,,
,child,0.986772894859314,,,,,,,,
,fun,0.9843106865882874,,,,,,,,
,travel,0.9836182594299316,,,,,,,,
,recreation,0.9808865785598755,,,,,,,,
,people,0.9800547361373901,,,,,,,,
,leisure,0.975342333316803,,,,,,,,
,wet,0.9708974361419678,,,,,,,,
,vacation,0.9700373411178589,,,,,,,,
,swimmer,0.9685449600219727,,,,,,,,
,enjoyment,0.9586151838302612,,,,,,,,
,summer,0.9559644460678101,,,,,,,,
,resort,0.9455772638320923,,,,,,,,
,group,0.9420175552368164,,,,,,,,
,beach,0.9228010177612305,,,,,,,,
,woman,0.917945146560669,,,,,,,,
,seashore,0.9157263040542603,,,,,,,,
https://scontent.cdninstagram.com/t51.2885-15/s640x640/sh0.08/e35/12751023_576735029157364_88428814_n.jpg,people,0.9805859923362732,"My life","Fashion & Beauty",,,Selfie,"My look",,
,light,0.9773390889167786,,,,,,,,
,street,0.9197819232940674,,,,,,,,
,city,0.9157876968383789,,,,,,,,
,man,0.9029202461242676,,,,,,,,
,art,0.8955302834510803,,,,,,,,
,portrait,0.8831841945648193,,,,,,,,
,girl,0.8825376629829407,,,,,,,,
,church,0.8817271590232849,,,,,,,,
,dawn,0.8788352012634277,,,,,,,,
,sunset,0.8774200677871704,,,,,,,,
,adult,0.8499540686607361,,,,,,,,
,model,0.8437913656234741,,,,,,,,
,technology,0.8303037881851196,,,,,,,,
,landscape,0.8142722249031067,,,,,,,,
,window,0.8070908784866333,,,,,,,,
,one,0.8063554167747498,,,,,,,,
,music,0.8046192526817322,,,,,,,,
,woman,0.8045311570167542,,,,,,,,
,dark,0.8029265403747559,,,,,,,,
https://scontent.cdninstagram.com/t51.2885-15/e35/12677346_788362757936668_434740782_n.jpg,people,0.9830610156059265,Entertainment,,,,Events,,,
,meeting,0.9717564582824707,,,,,,,,
,many,0.9360677003860474,,,,,,,,
,ceremony,0.935175895690918,,,,,,,,
,leader,0.9292335510253906,,,,,,,,
,league,0.9267178773880005,,,,,,,,
,group,0.9085690975189209,,,,,,,,
,landscape,0.904170036315918,,,,,,,,
,celebration,0.9038821458816528,,,,,,,,
,education,0.9002652168273926,,,,,,,,
,politician,0.899306058883667,,,,,,,,
,election,0.8892318606376648,,,,,,,,
,school,0.8880475163459778,,,,,,,,
,flag,0.8872894048690796,,,,,,,,
,International,0.8865102529525757,,,,,,,,
,adult,0.8736205101013184,,,,,,,,
,festival,0.8633346557617188,,,,,,,,
,exhibition,0.8611171245574951,,,,,,,,
,military,0.8556394577026367,,,,,,,,
,democracy,0.8528581857681274,,,,,,,,
https://scontent.cdninstagram.com/t51.2885-15/e35/11260407_805506359555568_95948205_n.jpg,competition,0.9786115884780884,Recreation,"My life","Fashion & Beauty",,Fitness,Selfie,"My look",
,man,0.9675190448760986,,,,,,,,
,people,0.9604998826980591,,,,,,,,
,athlete,0.9010448455810547,,,,,,,,
,indoors,0.8985550403594971,,,,,,,,
,adult,0.8931587338447571,,,,,,,,
,stadium,0.8756552934646606,,,,,,,,
,action,0.857459306716919,,,,,,,,
,one,0.8565676212310791,,,,,,,,
,action,0.853693962097168,,,,,,,,
,woman,0.8378866910934448,,,,,,,,
,strength,0.8365797996520996,,,,,,,,
,determination,0.7561402320861816,,,,,,,,
,"sports equipment",0.7404419183731079,,,,,,,,
,sport,0.7358934879302979,,,,,,,,
,soccer,0.7335870862007141,,,,,,,,
,championship,0.7335250377655029,,,,,,,,
,wear,0.733018696308136,,,,,,,,
,power,0.7218626737594604,,,,,,,,
,strong,0.7182573080062866,,,,,,,,
https://scontent.cdninstagram.com/t51.2885-15/e35/12725088_820868794706958_492525932_n.jpg,people,0.9850742220878601,"My life",Environment,"Fashion & Beauty",,Selfie,"Manmade beauty",Ootd,
,man,0.9805631041526794,,,,,,,,
,adult,0.9783945083618164,,,,,,,,
,wear,0.975456953048706,,,,,,,,
,travel,0.9710339903831482,,,,,,,,
,outdoors,0.969441831111908,,,,,,,,
,one,0.9538164734840393,,,,,,,,
,urban,0.9460958242416382,,,,,,,,
,city,0.9438889026641846,,,,,,,,
,daylight,0.9301793575286865,,,,,,,,
,woman,0.9143041372299194,,,,,,,,
,motion,0.9050652980804443,,,,,,,,
,lifestyle,0.8999603986740112,,,,,,,,
,portrait,0.8995429277420044,,,,,,,,
,water,0.8931430578231812,,,,,,,,
,boy,0.8923125863075256,,,,,,,,
,street,0.8793399333953857,,,,,,,,
,business,0.8688087463378906,,,,,,,,
,recreation,0.857527494430542,,,,,,,,
,"facial expression",0.8571240901947021,,,,,,,,
https://scontent.cdninstagram.com/t51.2885-15/e35/12424568_583370521816492_346310613_n.jpg,car,0.9977783560752869,Transportation,Commerce,,,Transportation-s,"Product/brand shots",,
,vehicle,0.9935849905014038,,,,,,,,
,"transportation system",0.9670846462249756,,,,,,,,
,race,0.9631014466285706,,,,,,,,
,competition,0.9445040225982666,,,,,,,,
,pavement,0.9028087854385376,,,,,,,,
,automotive,0.901512622833252,,,,,,,,
,street,0.8944847583770752,,,,,,,,
,road,0.8824275732040405,,,,,,,,
,hurry,0.8730997443199158,,,,,,,,
,drive,0.8710996508598328,,,,,,,,
,action,0.8379467129707336,,,,,,,,
,show,0.8325834274291992,,,,,,,,
,championship,0.8078452944755554,,,,,,,,
,"auto racing",0.8049612641334534,,,,,,,,
,people,0.7856403589248657,,,,,,,,
,rally,0.77995365858078,,,,,,,,
,wheel,0.7748668193817139,,,,,,,,
,super,0.7688615322113037,,,,,,,,
,city,0.7525132894515991,,,,,,,,
https://scontent.cdninstagram.com/t51.2885-15/e35/12479350_1519899081643826_970326887_n.jpg,flag,0.9720029830932617,Undefined,,,,Undefined,,,
,"no person",0.9666564464569092,,,,,,,,
,country,0.9566619992256165,,,,,,,,
,banner,0.9456404447555542,,,,,,,,
,symbol,0.9440134763717651,,,,,,,,
,paper,0.9218333959579468,,,,,,,,
,freedom,0.8705874681472778,,,,,,,,
,wear,0.8650500774383545,,,,,,,,
,patriotism,0.8648338317871094,,,,,,,,
,democracy,0.8589361906051636,,,,,,,,
,desktop,0.8482266664505005,,,,,,,,
,silk,0.8472460508346558,,,,,,,,
,sign,0.8453861474990845,,,,,,,,
,celebration,0.8112958669662476,,,,,,,,
,text,0.7644333243370056,,,,,,,,
,Christmas,0.7480752468109131,,,,,,,,
,bright,0.7471715211868286,,,,,,,,
,textile,0.743540346622467,,,,,,,,
,horizontal,0.723931610584259,,,,,,,,
,pride,0.7237709760665894,,,,,,,,
https://scontent.cdninstagram.com/t51.2885-15/e35/13391290_1555577268077776_2101936273_n.jpg,music,0.9605644345283508,"My life","Fashion & Beauty",Transportation,,Selfie,"My look",Transportation-s,
,festival,0.9583476781845093,,,,,,,,
,exhibition,0.9496197700500488,,,,,,,,
,technology,0.9454339742660522,,,,,,,,
,indoors,0.9429531097412109,,,,,,,,
,performance,0.9320046901702881,,,,,,,,
,industry,0.9265451431274414,,,,,,,,
,people,0.9192993640899658,,,,,,,,
,business,0.9182868003845215,,,,,,,,
,light,0.8756606578826904,,,,,,,,
,nightlife,0.8742619752883911,,,,,,,,
,shopping,0.8622579574584961,,,,,,,,
,show,0.8617016077041626,,,,,,,,
,man,0.8209089040756226,,,,,,,,
,vehicle,0.7999891042709351,,,,,,,,
,dancing,0.7989746332168579,,,,,,,,
,club,0.7958100438117981,,,,,,,,
,woman,0.7920895218849182,,,,,,,,
,musician,0.7899075150489807,,,,,,,,
,party,0.7842579483985901,,,,,,,,
https://scontent.cdninstagram.com/t51.2885-15/e35/13414124_941812269269277_493966271_n.jpg,vehicle,0.9977160692214966,"My life","Fashion & Beauty",Transportation,,Selfie,"My look",Transportation-s,
,exhibition,0.9878994226455688,,,,,,,,
,"transportation system",0.9858335256576538,,,,,,,,
,industry,0.9814611077308655,,,,,,,,
,people,0.9556446075439453,,,,,,,,
,car,0.9415784478187561,,,,,,,,
,competition,0.9390321969985962,,,,,,,,
,technology,0.9362332820892334,,,,,,,,
,wheel,0.9331893920898438,,,,,,,,
,machine,0.9207631349563599,,,,,,,,
,drive,0.9154775142669678,,,,,,,,
,show,0.9138951301574707,,,,,,,,
,production,0.8999121189117432,,,,,,,,
,action,0.8974481821060181,,,,,,,,
,business,0.8801790475845337,,,,,,,,
,group,0.8761343955993652,,,,,,,,
,truck,0.8557363152503967,,,,,,,,
,race,0.8545260429382324,,,,,,,,
,automotive,0.8461335301399231,,,,,,,,
,one,0.84260493516922,,,,,,,,
https://scontent.cdninstagram.com/t51.2885-15/e35/13381087_1754166594820285_1161089454_n.jpg,monochrome,0.9974173307418823,Undefined,,,,Undefined,,,
,street,0.9883037805557251,,,,,,,,
,bridge,0.9740577340126038,,,,,,,,
,city,0.9704270362854004,,,,,,,,
,"no person",0.9647938013076782,,,,,,,,
,tube,0.960868775844574,,,,,,,,
,light,0.9605563879013062,,,,,,,,
,urban,0.9427661895751953,,,,,,,,
,reflection,0.9411654472351074,,,,,,,,
,"black and white",0.9409104585647583,,,,,,,,
,architecture,0.9396279454231262,,,,,,,,
,shadow,0.9364603161811829,,,,,,,,
,water,0.921062707901001,,,,,,,,
,people,0.9178683757781982,,,,,,,,
,travel,0.9162139892578125,,,,,,,,
,train,0.913679838180542,,,,,,,,
,"transportation system",0.9126111268997192,,,,,,,,
,train,0.9051652550697327,,,,,,,,
,building,0.8988529443740845,,,,,,,,
,pier,0.8799465894699097,,,,,,,,
