url,class,score
https://scontent.cdninstagram.com/t51.2885-15/e35/13398455_849326168504931_252402570_n.jpg,facial expression,0.9920201301574707
,people,0.9839404225349426
,portrait,0.9834526777267456
,togetherness,0.9823297262191772
,woman,0.9820533990859985
,happiness,0.9766764640808105
,two,0.9754573106765747
,friendship,0.9692992568016052
,love,0.9603315591812134
,fun,0.9553444385528564
,affection,0.9488651156425476
,child,0.944762110710144
,adult,0.9443336725234985
,interaction,0.9426015615463257
,joy,0.9420466423034668
,embrace,0.9394489526748657
,girl,0.9388256072998047
,family,0.9281858205795288
,lifestyle,0.9258853197097778
,laughing,0.9234353303909302
https://scontent.cdninstagram.com/t51.2885-15/e35/13259583_647884842034262_1330983471_n.jpg,woman,0.9879987239837646
,friendship,0.9863949418067932
,portrait,0.980839192867279
,people,0.9651727676391602
,girl,0.9641586542129517
,adult,0.9507459402084351
,adolescent,0.9412357807159424
,group,0.9344128370285034
,school,0.9142705202102661
,happiness,0.9140937328338623
,university,0.913796067237854
,student,0.9126628637313843
,multicultural,0.9022473692893982
,group,0.900834321975708
,togetherness,0.8803219795227051
,fun,0.8782017230987549
,lifestyle,0.8667529821395874
,brunette,0.8636771440505981
,family,0.8467401266098022
,laughing,0.8402180671691895
https://scontent.cdninstagram.com/t51.2885-15/e35/13167461_1765629840333287_1748170352_n.jpg,boy,0.9924380779266357
,togetherness,0.991317093372345
,group,0.9903448224067688
,facial expression,0.9889100193977356
,four,0.9882895946502686
,child,0.9862790107727051
,three,0.9853123426437378
,happiness,0.9830895662307739
,laughing,0.9821023941040039
,portrait,0.9745581746101379
,people,0.9743200540542603
,man,0.9651837348937988
,offspring,0.9650492668151855
,affection,0.9632553458213806
,friendship,0.9628028869628906
,interaction,0.9623937606811523
,family,0.9614725708961487
,love,0.9612292051315308
,group,0.9524128437042236
,embrace,0.9505389928817749
https://scontent.cdninstagram.com/t51.2885-15/e35/13258852_130634050676966_441008986_n.jpg,woman,0.9687652587890625
,business,0.9626245498657227
,office,0.9536948204040527
,portrait,0.9529170989990234
,indoors,0.9451133012771606
,one,0.9451016187667847
,sign,0.9439798593521118
,wall,0.9400083422660828
,people,0.9349552392959595
,adult,0.9334515929222107
,school,0.918565034866333
,girl,0.916217565536499
,paper,0.9045841693878174
,education,0.9034672975540161
,room,0.894748330116272
,empty,0.8762707710266113
,blank,0.8656480312347412
,model,0.8498484492301941
,fashion,0.843303918838501
,exhibition,0.8420287370681763
https://scontent.cdninstagram.com/t51.2885-15/e35/13267580_983216631796675_1492136575_n.jpg,group,0.9961393475532532
,group,0.9921367168426514
,squad,0.9877686500549316
,people,0.9801640510559082
,woman,0.9793597459793091
,man,0.960112452507019
,adult,0.9545302391052246
,friendship,0.9515178203582764
,competition,0.9477375745773315
,recreation,0.9465456008911133
,fun,0.9393820762634277
,teamwork,0.9331045746803284
,athlete,0.9260154962539673
,portrait,0.9203989505767822
,many,0.9183311462402344
,energy,0.9046043157577515
,girl,0.9029837846755981
,performance,0.8883758783340454
,festival,0.8850880861282349
,ball,0.8807271122932434
https://scontent.cdninstagram.com/t51.2885-15/e35/13126870_277346569272566_467346841_n.jpg,group,0.9920883178710938
,many,0.9866229295730591
,people,0.9760053157806396
,school,0.9709175229072571
,woman,0.961816668510437
,group,0.9612350463867188
,crowd,0.9369854927062988
,education,0.9366077184677124
,festival,0.9183135032653809
,dancing,0.9170301556587219
,performance,0.9076797962188721
,man,0.8973770141601562
,adult,0.885603666305542
,singer,0.8798725605010986
,music,0.8765690922737122
,university,0.872603178024292
,wear,0.8615740537643433
,portrait,0.8488409519195557
,recreation,0.8393324613571167
,child,0.8377188444137573
https://scontent.cdninstagram.com/t51.2885-15/e35/13108949_235602146831108_1759359260_n.jpg,performance,0.9527019262313843
,adult,0.9516265988349915
,woman,0.9394993782043457
,people,0.9371821880340576
,music,0.921026349067688
,man,0.9130332469940186
,two,0.9012616872787476
,competition,0.8853191137313843
,singer,0.8664778470993042
,one,0.8041847944259644
,wear,0.8032947182655334
,action,0.8019415140151978
,musician,0.8002436757087708
,dancing,0.7755837440490723
,stadium,0.7578015327453613
,concert,0.7562747001647949
,recreation,0.7543414831161499
,ballet,0.7173691987991333
,three,0.6872031688690186
,festival,0.6843708753585815
https://scontent.cdninstagram.com/t51.2885-15/e35/13391342_507536512789599_1370901026_n.jpg,togetherness,0.9927107095718384
,child,0.9873846769332886
,joy,0.9845632910728455
,laughing,0.9814772009849548
,fun,0.9814409017562866
,woman,0.9700464010238647
,enjoyment,0.964449942111969
,affection,0.9637981653213501
,love,0.9595335125923157
,happiness,0.9570134878158569
,facial expression,0.9568731188774109
,friendship,0.9529454708099365
,portrait,0.9426947236061096
,people,0.9349836111068726
,family,0.9321744441986084
,cute,0.921218752861023
,girl,0.9152691960334778
,embrace,0.9140762090682983
,two,0.9072436094284058
,daylight,0.905104398727417
https://scontent.cdninstagram.com/t51.2885-15/e35/13256797_283779695293485_1309621244_n.jpg,water,0.9911438226699829
,vacation,0.9761148691177368
,travel,0.9747774600982666
,summer,0.960115909576416
,leisure,0.9585229158401489
,group,0.9549357891082764
,group,0.9484211206436157
,beach,0.945561408996582
,woman,0.9447922706604004
,fun,0.9447606205940247
,people,0.9444120526313782
,sea,0.9406453371047974
,recreation,0.9383953809738159
,seashore,0.9198620319366455
,four,0.912319540977478
,ocean,0.9071897268295288
,outdoors,0.8985198736190796
,pool,0.8964883089065552
,girl,0.8943647146224976
,lifestyle,0.8868715167045593
https://scontent.cdninstagram.com/t51.2885-15/e35/13259509_1788821047999170_372804581_n.jpg,water,0.9928219318389893
,leisure,0.9927635192871094
,recreation,0.9910916090011597
,people,0.9741032123565674
,woman,0.9688931703567505
,travel,0.9642558097839355
,fun,0.9608522653579712
,adult,0.9568161964416504
,watercraft,0.9536794424057007
,water sports,0.9407781362533569
,vehicle,0.9376519918441772
,summer,0.9356657266616821
,lifestyle,0.9354004859924316
,enjoyment,0.9307377934455872
,vacation,0.9279657006263733
,man,0.9248183965682983
,swimming,0.9209599494934082
,two,0.8886010646820068
,sea,0.8865089416503906
,girl,0.8859803676605225
https://scontent.cdninstagram.com/t51.2885-15/s750x750/sh0.08/e35/13167244_977121659050413_901217899_n.jpg,people,0.9819501638412476
,outdoors,0.9765673875808716
,one,0.9744129776954651
,nature,0.9725452661514282
,tree,0.9675769805908203
,woman,0.9615939855575562
,adult,0.955324649810791
,summer,0.9442557692527771
,park,0.9392017126083374
,portrait,0.9366063475608826
,garden,0.9353927373886108
,flower,0.894166886806488
,landscape,0.8934011459350586
,grass,0.8820346593856812
,girl,0.8705252408981323
,daylight,0.8662998676300049
,flora,0.8601233959197998
,travel,0.8543967008590698
,leisure,0.8417107462882996
,fair weather,0.8230787515640259
https://scontent.cdninstagram.com/t51.2885-15/s750x750/sh0.08/e35/13473258_665188630294893_1034558310_n.jpg,love,0.9954667091369629
,woman,0.9934959411621094
,people,0.9922654628753662
,two,0.9906656742095947
,adult,0.9772779941558838
,outdoors,0.9741976261138916
,togetherness,0.9732638597488403
,girl,0.9694074392318726
,romance,0.9679098725318909
,man,0.9677944779396057
,portrait,0.9597669839859009
,affection,0.9520784616470337
,happiness,0.9344631433486938
,couple,0.9298873543739319
,water,0.929725706577301
,fun,0.9137150049209595
,lifestyle,0.9011095762252808
,embrace,0.9001010060310364
,family,0.8915951251983643
,leisure,0.8904529213905334
https://scontent.cdninstagram.com/t51.2885-15/e35/13267396_578348975677101_1845228835_n.jpg,squad,0.9909089803695679
,group,0.9908692836761475
,group,0.9859947562217712
,woman,0.9859943389892578
,people,0.9645873308181763
,young,0.9585660696029663
,man,0.9519186019897461
,portrait,0.9493617415428162
,adult,0.9462039470672607
,girl,0.9428657293319702
,friendship,0.9405581951141357
,fun,0.9292640686035156
,body,0.9150056838989258
,lifestyle,0.9141842126846313
,teamwork,0.9066434502601624
,person,0.9064334630966187
,smile,0.8952583074569702
,unity,0.8865108489990234
,fitness,0.8861947059631348
,togetherness,0.8809194564819336
https://scontent.cdninstagram.com/t51.2885-15/e35/13298190_290777344590938_1860694376_n.jpg,water,0.9832618236541748
,summer,0.9807416200637817
,travel,0.9730125665664673
,leisure,0.972180962562561
,recreation,0.9673026204109192
,woman,0.9502336382865906
,fun,0.9370530843734741
,relaxation,0.9211311340332031
,enjoyment,0.9210545420646667
,sunglasses,0.9168834090232849
,vacation,0.9121061563491821
,people,0.8982955813407898
,one,0.8938652276992798
,sea,0.8907638788223267
,outdoors,0.8844583034515381
,sun,0.8705874681472778
,girl,0.8683879971504211
,resort,0.8678418397903442
,adult,0.866132378578186
,sky,0.8580260276794434
https://scontent.cdninstagram.com/t51.2885-15/e35/13113703_1728653457352729_1915667930_n.jpg,group,0.9677776098251343
,people,0.965996503829956
,woman,0.9625723361968994
,man,0.9613364934921265
,music,0.8935742974281311
,portrait,0.8929779529571533
,many,0.8844573497772217
,festival,0.8826529383659363
,adult,0.8638201951980591
,wear,0.8617458343505859
,group,0.8565897941589355
,enjoyment,0.8366659879684448
,offense,0.8282999992370605
,family,0.8240171670913696
,competition,0.8104950785636902
,street,0.8088456392288208
,togetherness,0.802329421043396
,friendship,0.7902600765228271
,crowd,0.7730458974838257
,school,0.7620599269866943
https://scontent.cdninstagram.com/t51.2885-15/s750x750/sh0.08/e35/13269516_1270827806273532_746968951_n.jpg,water,0.9937547445297241
,recreation,0.9823797941207886
,leisure,0.9802713394165039
,travel,0.9788446426391602
,watercraft,0.9739934206008911
,fun,0.963315486907959
,water sports,0.9520615339279175
,summer,0.9449496269226074
,swimming,0.937283992767334
,enjoyment,0.9350320100784302
,relaxation,0.9059485197067261
,outdoors,0.8930813074111938
,people,0.8905566930770874
,lake,0.8783175945281982
,woman,0.8770588636398315
,vehicle,0.8714552521705627
,vacation,0.8479554653167725
,canoe,0.8322136402130127
,child,0.8317920565605164
,adolescent,0.8291968107223511
https://scontent.cdninstagram.com/t51.2885-15/e35/13129913_1197544813624235_910737503_n.jpg,group,0.9920886754989624
,performance,0.9894365072250366
,people,0.9862543344497681
,music,0.9853212833404541
,adult,0.9763273000717163
,group,0.9737052321434021
,man,0.9729231595993042
,singer,0.9691444635391235
,musician,0.9682135581970215
,concert,0.9594945907592773
,competition,0.9535759687423706
,recreation,0.9434125423431396
,woman,0.9429374933242798
,wear,0.9327065944671631
,festival,0.9286540746688843
,stage,0.9135531187057495
,band,0.9020175337791443
,outfit,0.899577260017395
,many,0.8989609479904175
,dancing,0.8963214159011841
https://scontent.cdninstagram.com/t51.2885-15/e35/13249703_1046206778797608_1671398230_n.jpg,water,0.9875776171684265
,woman,0.9823043346405029
,leisure,0.9809660911560059
,travel,0.9605726003646851
,vacation,0.9585578441619873
,recreation,0.9580665826797485
,people,0.9555933475494385
,man,0.9553827047348022
,fun,0.9507298469543457
,enjoyment,0.928219735622406
,girl,0.9280216693878174
,watercraft,0.9217938184738159
,group,0.9119408130645752
,sea,0.9051207900047302
,adult,0.8970522284507751
,summer,0.89463210105896
,lifestyle,0.8921492695808411
,young,0.8855764269828796
,group,0.8806433081626892
,love,0.864719033241272
https://scontent.cdninstagram.com/t51.2885-15/e35/13259523_1630012057321112_1432974791_n.jpg,people,0.9743043780326843
,adult,0.9716861248016357
,wear,0.9575427770614624
,portrait,0.9460206627845764
,business,0.9393901228904724
,one,0.9219670295715332
,man,0.887730062007904
,woman,0.8853975534439087
,girl,0.8716757297515869
,model,0.8544736504554749
,fashionable,0.8468635082244873
,competition,0.8399132490158081
,action,0.8105772733688354
,exhibition,0.8007974028587341
,fashion,0.7895743250846863
,skirt,0.7699044346809387
,museum,0.7562346458435059
,building,0.7306951284408569
,landscape,0.7275393009185791
,room,0.7253772616386414
https://scontent.cdninstagram.com/t51.2885-15/e35/13551615_634934300005262_483531478_n.jpg,movie,0.9827611446380615
,people,0.9782357811927795
,fashion,0.9534898996353149
,festival,0.944855809211731
,exhibition,0.9335425496101379
,woman,0.9326528310775757
,girl,0.9202746152877808
,man,0.9118643999099731
,stock,0.9059759378433228
,music,0.9048172831535339
,show,0.8997565507888794
,family,0.8859792351722717
,indoors,0.8783285021781921
,editorial,0.8700052499771118
,museum,0.8677736520767212
,room,0.8622238039970398
,model,0.8574944734573364
,portrait,0.8548533916473389
,wear,0.8546574115753174
,performance,0.8449351787567139
https://scontent.cdninstagram.com/t51.2885-15/e35/13402687_394944194013921_1774762527_n.jpg,child,0.9884376525878906
,toy,0.9835556745529175
,wear,0.9826449751853943
,winter,0.977324366569519
,one,0.9580116271972656
,girl,0.9425021409988403
,fun,0.9358717203140259
,people,0.93535315990448
,indoors,0.9310134649276733
,Christmas,0.9273315072059631
,happiness,0.9268864989280701
,adult,0.9234104156494141
,leisure,0.9146020412445068
,innocence,0.9131810069084167
,woman,0.9063865542411804
,two,0.8986318707466125
,family,0.8984490633010864
,little,0.8981794714927673
,cutout,0.8852419853210449
,game,0.8843804597854614
https://scontent.cdninstagram.com/t51.2885-15/e35/13285437_262307930789926_1843737644_n.jpg,woman,0.9840987920761108
,fashion,0.9671809673309326
,people,0.9625464081764221
,man,0.961132824420929
,young,0.9587199687957764
,adult,0.9538241624832153
,wear,0.9526352882385254
,girl,0.9288288354873657
,portrait,0.9189448356628418
,model,0.9077205061912537
,dress,0.9013015031814575
,beautiful,0.8372246623039246
,pretty,0.8225294351577759
,glamour,0.8163700103759766
,elegant,0.8135397434234619
,fun,0.7992849349975586
,studio,0.7984521985054016
,adolescent,0.7959485650062561
,sexy,0.790477991104126
,person,0.7892279624938965
https://scontent.cdninstagram.com/t51.2885-15/e35/13408897_1708952889358207_758140734_n.jpg,people,0.9948773384094238
,bench,0.9898027181625366
,woman,0.9811773300170898
,seat,0.9771931171417236
,adult,0.9770297408103943
,furniture,0.9704289436340332
,chair,0.9634968042373657
,leisure,0.9631472826004028
,one,0.9622817635536194
,recreation,0.953848659992218
,garden,0.9349799156188965
,relaxation,0.915952205657959
,two,0.9153925776481628
,outdoors,0.9119067192077637
,group,0.9115374088287354
,man,0.911109447479248
,wear,0.9101345539093018
,sit,0.9024245142936707
,summer,0.890367329120636
,enjoyment,0.8839865326881409
https://scontent.cdninstagram.com/t51.2885-15/s640x640/e15/13414181_626115044213557_983309098_n.jpg,people,0.9868509769439697
,adult,0.9635685682296753
,motion,0.9546709656715393
,one,0.9354066252708435
,reflection,0.9249104261398315
,man,0.9159721732139587
,city,0.9091567993164062
,light,0.9039919376373291
,athlete,0.8980727195739746
,competition,0.897419810295105
,indoors,0.8715351819992065
,portrait,0.870042622089386
,festival,0.8598531484603882
,energy,0.8530418276786804
,performance,0.8466095328330994
,action,0.8399136066436768
,business,0.8283761739730835
,building,0.8087182641029358
,woman,0.8051307201385498
,blur,0.801120400428772
https://scontent.cdninstagram.com/t51.2885-15/e35/13269328_627630607389554_1537805794_n.jpg,people,0.9653339385986328
,woman,0.9546657800674438
,group,0.9456141591072083
,wear,0.9271743297576904
,fashion,0.922882080078125
,portrait,0.8907416462898254
,adult,0.8825229406356812
,man,0.8669829368591309
,music,0.8622808456420898
,many,0.8604122400283813
,education,0.8514627814292908
,performance,0.8405706882476807
,model,0.8248815536499023
,school,0.8173123598098755
,business,0.7996519804000854
,dress,0.7874182462692261
,band,0.7854996919631958
,singer,0.7836103439331055
,festival,0.7792977094650269
,outfit,0.7602819204330444
https://scontent.cdninstagram.com/t51.2885-15/e35/13116665_245618909126976_1240408515_n.jpg,woman,0.9924131631851196
,two,0.9810457825660706
,togetherness,0.9742581844329834
,man,0.9728554487228394
,people,0.9624862670898438
,wear,0.9546842575073242
,facial expression,0.9465980529785156
,adult,0.9351564645767212
,affection,0.9346522092819214
,recreation,0.9230185151100159
,love,0.92050701379776
,family,0.9045928716659546
,enjoyment,0.8917055726051331
,portrait,0.8759473562240601
,fun,0.8717131614685059
,indoors,0.8650035858154297
,leisure,0.8497189283370972
,fashion,0.8148331642150879
,friendship,0.808524489402771
,happiness,0.7995932698249817
https://scontent.cdninstagram.com/t51.2885-15/e35/13267560_552308804929771_1056621884_n.jpg,group,0.9969234466552734
,recreation,0.9960857629776001
,people,0.9919050335884094
,fun,0.989661693572998
,water,0.987960934638977
,leisure,0.9873992204666138
,beach,0.9830493927001953
,man,0.9825817346572876
,friendship,0.9789268970489502
,seashore,0.9784979224205017
,group,0.9779102206230164
,competition,0.9766373634338379
,lifestyle,0.9755873680114746
,water sports,0.9683818221092224
,boy,0.9660701751708984
,child,0.9602549076080322
,woman,0.9589591026306152
,adult,0.9584411978721619
,motion,0.9526551961898804
,race,0.9515979290008545
https://scontent.cdninstagram.com/t51.2885-15/e35/13183524_1015790795174558_1864634314_n.jpg,water,0.9946519136428833
,sea,0.9874793291091919
,ocean,0.9838635921478271
,travel,0.9805212020874023
,watercraft,0.94952392578125
,boat,0.9279934167861938
,no person,0.9275879263877869
,swimming,0.9242516756057739
,wave,0.9186673164367676
,swimming,0.910355806350708
,child,0.9050483703613281
,vacation,0.904616117477417
,people,0.9025459885597229
,beach,0.9013787508010864
,summer,0.8981966972351074
,woman,0.890249490737915
,girl,0.8845028877258301
,fun,0.860386848449707
,seashore,0.8568446636199951
,fish,0.8545819520950317
https://scontent.cdninstagram.com/t51.2885-15/e35/13181368_271533023190918_620844910_n.jpg,woman,0.9964931607246399
,fashion,0.9797102808952332
,portrait,0.9760082960128784
,pretty,0.9611190557479858
,facial expression,0.9551793932914734
,one,0.9513949155807495
,girl,0.9488976001739502
,sexy,0.9450169801712036
,people,0.9394981265068054
,wear,0.9268577694892883
,adult,0.9031562805175781
,brunette,0.9014431834220886
,glamour,0.892776370048523
,adolescent,0.8808989524841309
,model,0.8803732395172119
,cute,0.8717211484909058
,long,0.8560154438018799
,hair,0.855056881904602
,look,0.8036307096481323
,joy,0.8033597469329834
https://scontent.cdninstagram.com/t51.2885-15/s750x750/sh0.08/e35/13102419_1082257855180066_1251872683_n.jpg,group,0.9912717342376709
,woman,0.9904677867889404
,portrait,0.9823718070983887
,recreation,0.9788855314254761
,group,0.9643868207931519
,fashion,0.9572286605834961
,people,0.9507453441619873
,model,0.941922664642334
,wear,0.9418004751205444
,adult,0.9413443803787231
,friendship,0.9408591389656067
,girl,0.9206894636154175
,music,0.9180737137794495
,facial expression,0.9076622724533081
,five,0.8980904817581177
,togetherness,0.8687067031860352
,man,0.8640633821487427
,band,0.8601014018058777
,multicultural,0.8508706092834473
,fashionable,0.8500692844390869
https://scontent.cdninstagram.com/t51.2885-15/e35/13277519_589389291218076_740143893_n.jpg,music,0.9777392148971558
,performance,0.9768744707107544
,woman,0.9647535085678101
,man,0.9535717964172363
,dancing,0.9451613426208496
,people,0.9412966966629028
,stage,0.9036090970039368
,singer,0.9010896682739258
,adult,0.8958941698074341
,musician,0.8858047127723694
,concert,0.8852236866950989
,dancer,0.8822028040885925
,theater,0.8604341149330139
,ballet,0.8568524718284607
,group,0.8527252674102783
,theater,0.8491823077201843
,fashion,0.8370174765586853
,love,0.8365488648414612
,active,0.8294199705123901
,elegant,0.7992806434631348
https://scontent.cdninstagram.com/t51.2885-15/e35/13266812_1729201740662696_1118017551_n.jpg,woman,0.9763553142547607
,people,0.9742947816848755
,man,0.9706068634986877
,group,0.9682872295379639
,portrait,0.9606168270111084
,group,0.9332542419433594
,adult,0.9308013916015625
,facial expression,0.8698982000350952
,togetherness,0.8693765997886658
,three,0.8608696460723877
,two,0.8531520366668701
,business,0.849678635597229
,indoors,0.8434462547302246
,family,0.8254627585411072
,partnership,0.8242288827896118
,teamwork,0.8143631219863892
,happiness,0.8087750673294067
,love,0.803734540939331
,wear,0.8031525015830994
,friendship,0.7980306148529053
https://scontent.cdninstagram.com/t51.2885-15/s750x750/sh0.08/e35/13248775_1615307162120534_827958753_n.jpg,woman,0.9903603792190552
,performance,0.9880020618438721
,music,0.98537677526474
,dancing,0.9834553003311157
,man,0.964575469493866
,fashion,0.9616436958312988
,people,0.9566267728805542
,singer,0.9492629766464233
,musician,0.9411960244178772
,stage,0.9381327629089355
,theater,0.9299182891845703
,theater,0.9218562841415405
,love,0.9198700785636902
,concert,0.9144206643104553
,group,0.9040988683700562
,wear,0.8894404172897339
,two,0.8817210793495178
,adult,0.8809458017349243
,pop,0.8468303680419922
,glamour,0.8463295102119446
https://scontent.cdninstagram.com/t51.2885-15/e35/13188014_822728227861766_1143434923_n.jpg,performance,0.9974905848503113
,people,0.9959902167320251
,music,0.9926314353942871
,group,0.9925258159637451
,theater,0.9885413646697998
,stage,0.9878506660461426
,theater,0.9829996824264526
,adult,0.9781984090805054
,concert,0.9734855890274048
,many,0.9730992317199707
,group,0.9643923044204712
,wear,0.9642845392227173
,musician,0.9566686153411865
,dancing,0.9562944173812866
,man,0.9534894824028015
,festival,0.9498506784439087
,motion,0.9484617710113525
,dancer,0.9449232220649719
,singer,0.9419916868209839
,opera,0.9416368007659912
https://scontent.cdninstagram.com/t51.2885-15/e35/13328990_850957728382300_1368420866_n.jpg,people,0.9954140186309814
,group,0.985735297203064
,beach,0.9838391542434692
,leisure,0.9836446046829224
,recreation,0.983585000038147
,seashore,0.9775460958480835
,many,0.9760390520095825
,travel,0.9759717583656311
,group,0.9731667041778564
,competition,0.9685988426208496
,water,0.9666516780853271
,woman,0.9347848892211914
,outdoors,0.9336733818054199
,adult,0.9287862777709961
,tourism,0.9273791313171387
,vacation,0.9269677400588989
,child,0.9172302484512329
,enjoyment,0.9135422706604004
,landscape,0.9119468927383423
,tourist,0.9118161201477051
https://scontent.cdninstagram.com/t51.2885-15/e35/13285337_1708600502756422_563077928_n.jpg,water,0.9898451566696167
,woman,0.971046507358551
,leisure,0.9685919284820557
,travel,0.965797483921051
,fun,0.9655179381370544
,summer,0.9592466354370117
,recreation,0.9414458274841309
,enjoyment,0.9335873126983643
,swimming,0.9290796518325806
,ocean,0.9256669878959656
,sea,0.9231473207473755
,girl,0.9206871390342712
,vacation,0.9169809818267822
,beach,0.9156737923622131
,child,0.9123252630233765
,people,0.9109573364257812
,seashore,0.8530899286270142
,lifestyle,0.828691840171814
,outdoors,0.8276885151863098
,joy,0.8267935514450073
https://scontent.cdninstagram.com/t51.2885-15/e35/13414209_1751732751739646_975062231_n.jpg,woman,0.9892841577529907
,group,0.9892013072967529
,group,0.9869970083236694
,people,0.9832055568695068
,man,0.9795190691947937
,adult,0.9715499877929688
,teamwork,0.9336438179016113
,three,0.9014753103256226
,togetherness,0.9007874727249146
,wear,0.9001775979995728
,four,0.8920828104019165
,portrait,0.8892605304718018
,education,0.8738349676132202
,cooperation,0.86858069896698
,happiness,0.8416088223457336
,partnership,0.8367772102355957
,business,0.8361955881118774
,girl,0.8350216150283813
,friendship,0.8339003324508667
,indoors,0.8305420875549316
https://scontent.cdninstagram.com/t51.2885-15/e35/13355589_258642861163097_228085705_n.jpg,group,0.9936498403549194
,people,0.9922666549682617
,group,0.9782373309135437
,woman,0.9776092171669006
,portrait,0.968187689781189
,adult,0.9512499570846558
,music,0.9215553998947144
,girl,0.9201112985610962
,four,0.9080715775489807
,singer,0.8870406150817871
,three,0.8865153789520264
,facial expression,0.882441520690918
,performance,0.8730766773223877
,outdoors,0.8724193572998047
,recreation,0.8723759055137634
,musician,0.8713480830192566
,wear,0.867850661277771
,man,0.8652419447898865
,friendship,0.8630514144897461
,enjoyment,0.8533878922462463
https://scontent.cdninstagram.com/t51.2885-15/e35/13329049_737784053028264_1406856418_n.jpg,people,0.9877595901489258
,one,0.9810020923614502
,adult,0.9769240021705627
,man,0.9667189121246338
,portrait,0.9519873857498169
,big,0.9464020133018494
,model,0.9359774589538574
,exhibition,0.930961012840271
,indoors,0.9183201789855957
,museum,0.8450071215629578
,child,0.8406811952590942
,mammal,0.827701210975647
,large,0.803593635559082
,body,0.7918415069580078
,head,0.789811372756958
,business,0.7832849621772766
,fashion,0.7810500860214233
,studio,0.7558889389038086
,beautiful,0.7532023191452026
,baby,0.7368795275688171
https://scontent.cdninstagram.com/t51.2885-15/e35/13397476_466348630240599_1602982342_n.jpg,facial expression,0.9896456003189087
,togetherness,0.9883638024330139
,people,0.9858342409133911
,child,0.9848548769950867
,fun,0.9840811491012573
,happiness,0.9826000928878784
,woman,0.9788818955421448
,laughing,0.9774793982505798
,portrait,0.976282000541687
,two,0.9745429754257202
,girl,0.967666506767273
,enjoyment,0.965864896774292
,joy,0.9623493552207947
,daylight,0.9587615728378296
,friendship,0.9409869313240051
,affection,0.9401112794876099
,love,0.9399218559265137
,family,0.9314471483230591
,wear,0.9223923087120056
,cute,0.9123312830924988
https://scontent.cdninstagram.com/t51.2885-15/e35/13329107_1719499965004131_1710170390_n.jpg,woman,0.9453443288803101
,music,0.9417373538017273
,performance,0.9414972066879272
,sign,0.938736081123352
,people,0.9375937581062317
,festival,0.9290836453437805
,wear,0.9016026258468628
,party,0.9000420570373535
,adult,0.8887057304382324
,celebration,0.879368782043457
,singer,0.8723700046539307
,dark,0.8598337173461914
,musician,0.8491555452346802
,light,0.846882164478302
,portrait,0.844730794429779
,business,0.8322696089744568
,stage,0.8094205856323242
,girl,0.8054026365280151
,promotion,0.7903658151626587
,desktop,0.7815933227539062
https://scontent.cdninstagram.com/t51.2885-15/e35/13388634_101110010317374_2052852283_n.jpg,man,0.9839011430740356
,stock,0.974789023399353
,people,0.9726439118385315
,indoors,0.9696323871612549
,shopping,0.9602786302566528
,adult,0.9570168852806091
,commerce,0.9567328095436096
,education,0.928718626499176
,business,0.9119681119918823
,woman,0.9103345274925232
,exhibition,0.8952479362487793
,school,0.8745795488357544
,coffee,0.8696727752685547
,portrait,0.8683173656463623
,group,0.8520187139511108
,employee,0.8462283611297607
,industry,0.8454797267913818
,wear,0.8449804782867432
,city,0.8315815925598145
,shop,0.8187410831451416
https://scontent.cdninstagram.com/t51.2885-15/e35/13385690_1766262583586718_1337780207_n.jpg,woman,0.9696712493896484
,man,0.9540700912475586
,enjoyment,0.9518923759460449
,group,0.9438835382461548
,group,0.9398088455200195
,people,0.9266868233680725
,family,0.9093540906906128
,togetherness,0.9078730940818787
,popcorn,0.9072018265724182
,fun,0.8884633779525757
,four,0.8839696645736694
,many,0.8767183423042297
,portrait,0.8732064962387085
,adult,0.857959508895874
,child,0.8450877666473389
,laughing,0.8345300555229187
,friendship,0.8324177265167236
,three,0.8292102217674255
,multicultural,0.8241073489189148
,cooking,0.8212913274765015
https://scontent.cdninstagram.com/t51.2885-15/e35/13395054_1717315261878569_113299972_n.jpg,people,0.9957809448242188
,two,0.9918859004974365
,adult,0.9890952706336975
,room,0.9844659566879272
,indoors,0.9821745753288269
,family,0.9764924049377441
,portrait,0.976088285446167
,woman,0.9752098321914673
,man,0.9704932570457458
,winter,0.9607852697372437
,happiness,0.9593729972839355
,wear,0.9433043599128723
,child,0.9407784938812256
,girl,0.9370747208595276
,facial expression,0.9355616569519043
,Christmas,0.9269126653671265
,one,0.9219437837600708
,sit,0.917497992515564
,three,0.9116491079330444
,fun,0.9021899104118347
https://scontent.cdninstagram.com/t51.2885-15/s640x640/e15/13423057_1338848769464550_977738901_n.jpg,competition,0.9903833866119385
,athlete,0.9859830141067505
,fashion,0.9728527069091797
,model,0.9674463868141174
,class,0.9487990140914917
,club,0.9395129084587097
,energy,0.9381139278411865
,motion,0.9364020824432373
,ball,0.9305509328842163
,recreation,0.9303675889968872
,woman,0.9254393577575684
,indoors,0.9221780300140381
,portrait,0.9181156158447266
,girl,0.9124204516410828
,pool,0.9088187217712402
,exhibition,0.907442569732666
,people,0.9048782587051392
,bar,0.9042977094650269
,adult,0.9016999006271362
,stage,0.8892436027526855
https://scontent.cdninstagram.com/t51.2885-15/e35/13256887_1606822889633790_742752498_n.jpg,city,0.9773247838020325
,shopping,0.9760188460350037
,street,0.9707471132278442
,business,0.9601543545722961
,urban,0.9573702812194824
,architecture,0.9496665596961975
,people,0.9454470872879028
,stock,0.9439446926116943
,outdoors,0.9392333626747131
,daylight,0.9333733916282654
,commerce,0.9209844470024109
,building,0.8933805227279663
,travel,0.8865025043487549
,shop,0.8783237934112549
,modern,0.8776060342788696
,step,0.8559746742248535
,tourist,0.8425062894821167
,tourism,0.8214107751846313
,pavement,0.8145396709442139
,merchandise,0.8105601668357849
https://scontent.cdninstagram.com/t51.2885-15/s640x640/e15/13298104_1799250273620605_691420796_n.jpg,athlete,0.985616147518158
,competition,0.9808045625686646
,adult,0.9434299468994141
,people,0.9397450685501099
,one,0.9374234676361084
,recreation,0.9257991909980774
,exhibition,0.9158692359924316
,portrait,0.8950519561767578
,indoors,0.8762041330337524
,wear,0.8710576295852661
,woman,0.8585739731788635
,action,0.8439946174621582
,festival,0.8350672721862793
,tennis,0.8348515629768372
,room,0.8323909044265747
,strength,0.8273045420646667
,ball,0.8251975774765015
,girl,0.823185920715332
,International,0.8193681240081787
,exercise,0.8097863793373108
https://scontent.cdninstagram.com/t51.2885-15/e35/13320250_1723133764571201_1134591557_n.jpg,fashion,0.9946982860565186
,model,0.9906596541404724
,portrait,0.9693853855133057
,woman,0.9649597406387329
,show,0.9544172883033752
,people,0.9431261420249939
,business,0.940660834312439
,exhibition,0.9389113187789917
,collection,0.9375343322753906
,television,0.9311739802360535
,glamour,0.9295240044593811
,girl,0.9290587902069092
,wear,0.9246373772621155
,music,0.9116430282592773
,fashionable,0.8979569673538208
,movie,0.8910249471664429
,presentation,0.8906270265579224
,adult,0.8840732574462891
,indoors,0.8678672909736633
,technology,0.8571835160255432
https://scontent.cdninstagram.com/t51.2885-15/e35/13380977_1630516810602335_1634578988_n.jpg,woman,0.9816638231277466
,people,0.9805290699005127
,group,0.9736470580101013
,adult,0.9526001214981079
,man,0.9509575366973877
,group,0.9447286128997803
,girl,0.9261171817779541
,school,0.9084431529045105
,portrait,0.9056655764579773
,education,0.8904834985733032
,music,0.8825159668922424
,family,0.8713738918304443
,wear,0.864837646484375
,band,0.8583511114120483
,squad,0.8552590608596802
,child,0.8327394723892212
,telephone,0.8290914297103882
,singer,0.8130496740341187
,fashion,0.8041139841079712
,boy,0.7826145887374878
https://scontent.cdninstagram.com/t51.2885-15/e35/13391072_1753071584907490_1509363076_n.jpg,woman,0.975017786026001
,exercise,0.9354979395866394
,athlete,0.9320653080940247
,competition,0.9276533126831055
,people,0.9196265935897827
,adult,0.891364336013794
,strength,0.8688806295394897
,leisure,0.8590847253799438
,two,0.8478735685348511
,fashion,0.8464959859848022
,man,0.8452609777450562
,fitness,0.8446057438850403
,girl,0.8401919603347778
,recreation,0.8334534764289856
,wear,0.8246521949768066
,young,0.8108718395233154
,fun,0.8106302618980408
,energy,0.8103313446044922
,indoors,0.7867010831832886
,active,0.7858952283859253
