url,class,score
https://scontent.cdninstagram.com/t51.2885-15/s640x640/e15/13642983_1721009814834580_800821184_n.jpg,woman,0.9944972991943359
,girl,0.9868462085723877
,portrait,0.9838788509368896
,brunette,0.9677700996398926
,people,0.9676474332809448
,fashion,0.9673638343811035
,one,0.9583579301834106
,adult,0.9575480222702026
,model,0.9474047422409058
,relaxation,0.9428068399429321
,facial expression,0.9415010213851929
,beautiful,0.9401806592941284
,hair,0.9378046989440918
,sexy,0.9284605979919434
,face,0.9201526641845703
,pretty,0.9138879776000977
,hairdo,0.909355878829956
,skin,0.9039722681045532
,eye,0.9002424478530884
,glamour,0.8997670412063599
https://scontent.cdninstagram.com/t51.2885-15/sh0.08/e35/p750x750/13549577_1842045672689854_1006812782_n.jpg,fashion,0.9958329796791077
,woman,0.9952278137207031
,glamour,0.9937763214111328
,lips,0.992963433265686
,eye,0.9880388379096985
,skin,0.9802851676940918
,lipstick,0.9784169793128967
,sexy,0.9735820889472961
,portrait,0.9643779993057251
,girl,0.9556721448898315
,model,0.9522709250450134
,pretty,0.9481867551803589
,hair,0.944162905216217
,look,0.9366074800491333
,elegant,0.9180147051811218
,cute,0.9098278284072876
,style,0.9030203819274902
,long,0.8810653686523438
,young,0.8598823547363281
,luxury,0.8597168922424316
https://scontent.cdninstagram.com/t51.2885-15/e35/13561642_1117746658248109_1073215875_n.jpg,group,0.961988091468811
,woman,0.9581196308135986
,facial expression,0.9490193128585815
,man,0.9435263872146606
,adult,0.9425367116928101
,portrait,0.9383105635643005
,indoors,0.9354604482650757
,sofa,0.9336753487586975
,room,0.9333800077438354
,people,0.9307906031608582
,togetherness,0.9205638766288757
,family,0.9202291369438171
,furniture,0.8845942616462708
,happiness,0.8801947832107544
,interaction,0.8764742612838745
,business,0.8682709336280823
,group,0.8535323143005371
,wear,0.8420330286026001
,sit,0.8269056081771851
,four,0.8189435005187988
https://scontent.cdninstagram.com/t51.2885-15/e35/13256648_381964901973947_233843735_n.jpg,food,0.9822116494178772
,table,0.933404803276062
,restaurant,0.9289891719818115
,cooking,0.9191051125526428
,meal,0.8883654475212097
,no person,0.8840487599372864
,desktop,0.8698523044586182
,drink,0.8697441816329956
,people,0.8670766353607178
,plate,0.8525211215019226
,sweet,0.8444018363952637
,indoors,0.8423296213150024
,epicure,0.8378804922103882
,cake,0.8358728885650635
,chocolate,0.8295578956604004
,breakfast,0.8236665725708008
,business,0.8233744502067566
,dinner,0.8166330456733704
,stock,0.8077487945556641
,dish,0.8033327460289001
https://scontent.cdninstagram.com/t51.2885-15/e35/13642863_1064438773644797_489868834_n.jpg,people,0.9894554615020752
,two,0.9847484827041626
,love,0.9845696687698364
,woman,0.9807604551315308
,girl,0.972547173500061
,family,0.958884596824646
,wear,0.946436882019043
,adult,0.9439761638641357
,portrait,0.9332891702651978
,facial expression,0.9298317432403564
,romance,0.9258198142051697
,togetherness,0.9141180515289307
,man,0.9114680290222168
,couple,0.9081688523292542
,brunette,0.9060146808624268
,affection,0.9051426649093628
,kiss,0.8917742967605591
,indoors,0.8915593028068542
,happiness,0.8772786855697632
,dress,0.8750093579292297
https://scontent.cdninstagram.com/t51.2885-15/e35/13561684_1734858506725876_1575392941_n.jpg,woman,0.9936670064926147
,portrait,0.9867532253265381
,girl,0.9776161909103394
,fashion,0.9681808352470398
,brunette,0.9403342008590698
,people,0.9371322393417358
,model,0.935878574848175
,facial expression,0.924726665019989
,wear,0.9156026840209961
,eye,0.9096670150756836
,sexy,0.8996150493621826
,long,0.894385576248169
,glamour,0.8854972124099731
,one,0.8592948913574219
,lips,0.8370535373687744
,pretty,0.827889084815979
,hair,0.8268395662307739
,adult,0.8130353689193726
,indoors,0.8065075874328613
,cute,0.7798758745193481
https://scontent.cdninstagram.com/t51.2885-15/s750x750/sh0.08/e35/13573542_1140797252648166_395077562_n.jpg,woman,0.9952101707458496
,fashion,0.9869283437728882
,portrait,0.9848043918609619
,love,0.9724812507629395
,girl,0.9717788696289062
,eye,0.9357250928878784
,model,0.9330117702484131
,people,0.9241902828216553
,pretty,0.9203364849090576
,glamour,0.9086097478866577
,sexy,0.9036922454833984
,cute,0.9021341800689697
,togetherness,0.8844455480575562
,brunette,0.8821611404418945
,face,0.8790383338928223
,adolescent,0.8498755097389221
,joy,0.8495404720306396
,scarf,0.8345600366592407
,fun,0.8222282528877258
,beautiful,0.8138858675956726
https://scontent.cdninstagram.com/t51.2885-15/e35/13167168_1604313916527545_2010246120_n.jpg,window,0.9973881244659424
,people,0.9931137561798096
,silhouette,0.992621660232544
,indoors,0.9895368218421936
,backlit,0.9894438982009888
,shadow,0.9669201374053955
,man,0.958600640296936
,one,0.9581239223480225
,adult,0.952734112739563
,door,0.9510724544525146
,offense,0.9412597417831421
,reflection,0.9357220530509949
,room,0.9355102181434631
,light,0.9251124262809753
,woman,0.918210506439209
,side view,0.8923367261886597
,architecture,0.887024998664856
,business,0.8838601112365723
,security,0.8679134845733643
,travel,0.8668529987335205
https://scontent.cdninstagram.com/l/t51.2885-15/s750x750/sh0.08/e35/13256726_261115514249573_1230754339_n.jpg,woman,0.9818446636199951
,street,0.9551663994789124
,people,0.9394986629486084
,portrait,0.9379225373268127
,girl,0.9348356127738953
,fashion,0.9300963878631592
,group,0.8968021869659424
,love,0.8901020884513855
,festival,0.8718352913856506
,celebration,0.8519688844680786
,fun,0.8463485240936279
,wedding,0.8413710594177246
,family,0.8404074907302856
,man,0.8178684115409851
,glamour,0.8080921173095703
,outdoors,0.8075090646743774
,rally,0.800162136554718
,party,0.7989438772201538
,music,0.7774208188056946
,child,0.7757693529129028
https://scontent.cdninstagram.com/t51.2885-15/e15/13117887_1213934305297245_1637702442_n.jpg,portrait,0.9964450597763062
,adult,0.9852877855300903
,people,0.9823527336120605
,one,0.9802544713020325
,face,0.9755978584289551
,facial expression,0.962084949016571
,woman,0.9562040567398071
,model,0.9280364513397217
,girl,0.9253506660461426
,fashion,0.924776554107666
,wear,0.8886808753013611
,brunette,0.8615370988845825
,fashionable,0.8606051802635193
,head,0.825435996055603
,beautiful,0.8194708228111267
,eye,0.8068521022796631
,glamour,0.8064315915107727
,dark,0.7937160730361938
,hairdo,0.7839374542236328
,young,0.7735417485237122
https://scontent.cdninstagram.com/t51.2885-15/e35/13092343_1672407236358303_1466013892_n.jpg,chocolate,0.9975941181182861
,no person,0.9929577112197876
,food,0.9913973808288574
,sweet,0.9879816770553589
,candy,0.9770755767822266
,sugar,0.976255476474762
,delicious,0.9734205603599548
,cake,0.9722825288772583
,confection,0.9557793140411377
,indulgence,0.9431663751602173
,traditional,0.9391323328018188
,cream,0.9381443858146667
,desktop,0.9299169778823853
,goody,0.906346321105957
,pastry,0.9035506248474121
,cookie,0.8882931470870972
,dark,0.8879935145378113
,unhealthy,0.8841708898544312
,refreshment,0.878670334815979
,tasty,0.8775186538696289
https://scontent.cdninstagram.com/t51.2885-15/e35/13129254_1687243138196655_396602903_n.jpg,people,0.9944099187850952
,portrait,0.9890986680984497
,adult,0.9857628345489502
,woman,0.9849203824996948
,love,0.9797950983047485
,girl,0.9778887629508972
,two,0.970638632774353
,happiness,0.9698737859725952
,beautiful,0.9648693203926086
,facial expression,0.9513565897941589
,family,0.9472276568412781
,lifestyle,0.9394546747207642
,togetherness,0.9349368810653687
,face,0.9256817698478699
,affection,0.9238630533218384
,wear,0.9186624884605408
,man,0.9175288677215576
,young,0.9129438400268555
,romance,0.912077784538269
,relationship,0.8961449861526489
https://scontent.cdninstagram.com/t51.2885-15/e35/12976421_1117906528246533_1356903809_n.jpg,adult,0.9889601469039917
,people,0.9839569330215454
,man,0.9836854934692383
,woman,0.983378529548645
,group,0.9678866863250732
,group,0.9613977670669556
,facial expression,0.9611758589744568
,furniture,0.947115957736969
,four,0.9430614113807678
,indoors,0.9429545402526855
,table,0.9420291185379028
,meal,0.9336661100387573
,restaurant,0.9226938486099243
,room,0.9219824075698853
,drink,0.9155904650688171
,enjoyment,0.9087793827056885
,lifestyle,0.8958284258842468
,happiness,0.8916298151016235
,family,0.8902578949928284
,wear,0.8890100717544556
https://scontent.cdninstagram.com/t51.2885-15/sh0.08/e35/p750x750/13256638_186897175039959_722655302_n.jpg,people,0.9789406061172485
,group,0.938312292098999
,woman,0.9372429847717285
,veil,0.9015799164772034
,headscarf,0.8985573053359985
,wear,0.8948416709899902
,man,0.8938983678817749
,adult,0.8932986259460449
,religion,0.886398434638977
,family,0.8848233222961426
,portrait,0.8597147464752197
,child,0.8550513982772827
,rally,0.8042396903038025
,battle,0.7768442630767822
,education,0.7755240201950073
,election,0.7685016989707947
,outdoors,0.756047248840332
,many,0.7478644847869873
,street,0.7449132204055786
,administration,0.7425646781921387
https://scontent.cdninstagram.com/t51.2885-15/e35/13658452_161958757556067_145857138_n.jpg,girl,0.9916735887527466
,brunette,0.9896354675292969
,woman,0.9869883060455322
,people,0.982358455657959
,park,0.9766535758972168
,adult,0.9733630418777466
,bench,0.969756543636322
,outdoors,0.9568994045257568
,lifestyle,0.952826976776123
,leisure,0.9479494094848633
,portrait,0.9431545734405518
,relaxation,0.9322434663772583
,grass,0.9300608038902283
,one,0.9207247495651245
,person,0.9190493822097778
,happiness,0.9185456037521362
,summer,0.9135623574256897
,nature,0.9115024209022522
,sit,0.9091919660568237
,pants,0.9031774997711182
https://scontent.cdninstagram.com/t51.2885-15/s640x640/sh0.08/e35/13259036_1732109847074056_637484799_n.jpg,food,0.9855685234069824
,delicious,0.9821963906288147
,health,0.9458996057510376
,dinner,0.9442284107208252
,no person,0.9384636878967285
,people,0.9380581378936768
,knife,0.9341945052146912
,restaurant,0.9293898940086365
,traditional,0.9256583452224731
,chocolate,0.9251840710639954
,cream,0.9167500734329224
,taste,0.9101904630661011
,indoors,0.8966695070266724
,epicure,0.8836427927017212
,nutrition,0.8785640001296997
,cooking,0.8781082630157471
,meal,0.8618524074554443
,woman,0.8618443012237549
,lunch,0.8597720265388489
,tasty,0.8506165742874146
https://scontent.cdninstagram.com/t51.2885-15/e35/13098877_833896706715914_1186062905_n.jpg,color,0.9259494543075562
,desktop,0.9119767546653748
,fashion,0.8896139860153198
,collection,0.8740955591201782
,display,0.8696589469909668
,luxury,0.8531637191772461
,money,0.8474542498588562
,business,0.8392268419265747
,card,0.8257656097412109
,still life,0.8152106404304504
,no person,0.8043019771575928
,poker,0.8027896285057068
,people,0.8015693426132202
,wealth,0.7913118600845337
,glamour,0.791103720664978
,gambling,0.7693397402763367
,gold,0.7664006948471069
,music,0.7479273676872253
,paper,0.7431303858757019
,art,0.7363609075546265
https://scontent.cdninstagram.com/t51.2885-15/e35/13118082_1173865619312360_102278739_n.jpg,painting,0.999302864074707
,people,0.9947137832641602
,print,0.9922857284545898
,art,0.9915758371353149
,illustration,0.9912545680999756
,adult,0.9871863722801208
,exhibition,0.9859594106674194
,museum,0.9825395345687866
,woman,0.9745020866394043
,group,0.9657458066940308
,two,0.9639706015586853
,man,0.9588994979858398
,wear,0.9497473239898682
,class,0.9344577193260193
,room,0.9338332414627075
,one,0.9202463626861572
,child,0.9084667563438416
,furniture,0.9076297283172607
,lithograph,0.9075803756713867
,recreation,0.8917233347892761
https://scontent.cdninstagram.com/t51.2885-15/e35/12479614_941988155919204_1476585765_n.jpg,business,0.9891059994697571
,paper,0.9771726131439209
,text,0.9563149213790894
,identity,0.940558671951294
,data,0.9319391846656799
,no person,0.9200388193130493
,security,0.9043082594871521
,symbol,0.8806976079940796
,sign,0.8761452436447144
,design,0.8699648380279541
,document,0.8674659132957458
,communication,0.8613784313201904
,number,0.8578366041183472
,education,0.8535571098327637
,illustration,0.824799120426178
,technology,0.8220192193984985
,information,0.8206135034561157
,computer,0.820114016532898
,office,0.8172070384025574
,display,0.8081036806106567
https://scontent.cdninstagram.com/l/t51.2885-15/e35/13151278_1000425873326778_953689736_n.jpg,city,0.9910726547241211
,water,0.9848966598510742
,architecture,0.9832044243812561
,skyline,0.979240894317627
,no person,0.9754205942153931
,cityscape,0.9746105670928955
,travel,0.9673138856887817
,river,0.967215895652771
,sky,0.9660572409629822
,downtown,0.9623153209686279
,building,0.9574286341667175
,skyscraper,0.9494809508323669
,waterfront,0.9430981278419495
,harbor,0.9390581846237183
,urban,0.9224628806114197
,bridge,0.9222774505615234
,office,0.9161176085472107
,business,0.9142225384712219
,sunset,0.9128246903419495
,pier,0.9066669940948486
https://scontent.cdninstagram.com/t51.2885-15/e35/12976445_1584300778546883_2071356739_n.jpg,abstract,0.9786245226860046
,desktop,0.9749308824539185
,design,0.956218957901001
,pattern,0.9498672485351562
,dark,0.9498084783554077
,texture,0.9435896873474121
,wallpaper,0.9348949790000916
,no person,0.9287927150726318
,futuristic,0.9197406768798828
,shining,0.9063724875450134
,background,0.8991662859916687
,art,0.8988863229751587
,retro,0.8969169855117798
,color,0.8905899524688721
,bright,0.8836476802825928
,light,0.881330668926239
,luminescence,0.8599071502685547
,Christmas,0.8579819202423096
,element,0.8572342395782471
,graphic,0.8555868864059448
https://scontent.cdninstagram.com/t51.2885-15/e35/12976679_994253213956393_766396008_n.jpg,paper,0.9956746101379395
,document,0.9945594072341919
,business,0.978833794593811
,text,0.9648862481117249
,administration,0.9625905752182007
,money,0.9583233594894409
,law,0.9532699584960938
,composition,0.9406073093414307
,paperwork,0.9388332366943359
,finance,0.9364869594573975
,writing,0.9336142539978027
,paper,0.9317375421524048
,no person,0.927992582321167
,finance,0.9264952540397644
,financial,0.9160860776901245
,page,0.9134166836738586
,education,0.9035643339157104
,book,0.9026634097099304
,tax,0.8803377151489258
,income,0.8767344951629639
https://scontent.cdninstagram.com/t51.2885-15/s480x480/e35/12904980_848500681940106_1021820831_n.jpg,give voice,0.9964672327041626
,text,0.9905389547348022
,business,0.9788731932640076
,education,0.9611379504203796
,typographic,0.959014892578125
,conceptual,0.9414091110229492
,desktop,0.9340194463729858
,definition,0.9229298830032349
,cloud,0.9145576357841492
,management,0.9088467955589294
,leadership,0.9009767770767212
,abstract,0.9003249406814575
,internet,0.8941330909729004
,design,0.8890359997749329
,school,0.8884806036949158
,company,0.8812973499298096
,success,0.8801775574684143
,isolated,0.8743335604667664
,strategy,0.8704638481140137
,success,0.8638091087341309
https://scontent.cdninstagram.com/t51.2885-15/e35/12519516_471428079728281_97158218_n.jpg,woman,0.9883072972297668
,people,0.9814293384552002
,stock,0.9680221080780029
,lifestyle,0.9646854996681213
,girl,0.9644604325294495
,beautiful,0.9611122608184814
,adult,0.9502075910568237
,indoors,0.9498708248138428
,portrait,0.9434783458709717
,young,0.9265164136886597
,fashion,0.9235125780105591
,shopping,0.9234515428543091
,happiness,0.921680212020874
,brunette,0.916068434715271
,attractive,0.9076988697052002
,shop,0.9031949043273926
,pretty,0.9004881978034973
,one,0.8897732496261597
,casual,0.8864769339561462
,person,0.885866105556488
https://scontent.cdninstagram.com/t51.2885-15/sh0.08/e35/p750x750/12519362_1270556726292685_1901777421_n.jpg,woman,0.9974669814109802
,fashion,0.9882003664970398
,glamour,0.9823339581489563
,eye,0.9808748960494995
,skin,0.9788451194763184
,lips,0.962432861328125
,portrait,0.9578385353088379
,sexy,0.9544780254364014
,pretty,0.9490818381309509
,model,0.9274358153343201
,look,0.9260280132293701
,long,0.9195416569709778
,girl,0.9141256213188171
,cute,0.9068714380264282
,hair,0.9043821096420288
,clean,0.8939203023910522
,perfection,0.8937162756919861
,nude,0.8679417371749878
,elegant,0.8640625476837158
,bright,0.825503408908844
https://scontent.cdninstagram.com/t51.2885-15/e35/13181509_1108446365843135_1965164520_n.jpg,woman,0.9870033264160156
,child,0.973120927810669
,family,0.9713393449783325
,togetherness,0.9631226062774658
,people,0.9619163274765015
,man,0.960889995098114
,group,0.9550072550773621
,fun,0.9485854506492615
,friendship,0.9422985315322876
,adult,0.9341899752616882
,facial expression,0.9259873032569885
,happiness,0.9181798100471497
,laughing,0.9176928997039795
,celebration,0.9173190593719482
,girl,0.9017288088798523
,indoors,0.8832360506057739
,enjoyment,0.8785242438316345
,wear,0.874160885810852
,love,0.8552143573760986
,boy,0.8458318710327148
https://scontent.cdninstagram.com/t51.2885-15/e35/12930847_102802643461750_303394873_n.jpg,chocolate,0.9863637685775757
,one,0.9593878984451294
,sugar,0.9546918869018555
,no person,0.9447095394134521
,food,0.939513087272644
,ice,0.9302660226821899
,delicious,0.9171597957611084
,woman,0.9131735563278198
,dark,0.9046053886413574
,indulgence,0.8814668655395508
,refreshment,0.8798311948776245
,candy,0.8445379734039307
,sweet,0.8359601497650146
,enjoyment,0.8139615058898926
,unhealthy,0.8106798529624939
,people,0.8097689151763916
,temptation,0.8054599761962891
,liquor,0.8018690347671509
,bar,0.7979151010513306
,drink,0.7962925434112549
https://scontent.cdninstagram.com/t51.2885-15/sh0.08/e35/p750x750/13117867_603858529778461_813369215_n.jpg,no person,0.9992549419403076
,paper,0.9912875890731812
,retro,0.9621642827987671
,dirty,0.9587798118591309
,graphic design,0.9281148910522461
,time,0.9234462976455688
,empty,0.9189337491989136
,calendar,0.908054530620575
,antique,0.9074621200561523
,messy,0.877350926399231
,worn,0.8766229748725891
,stripe,0.8661286234855652
,interior design,0.8660902976989746
,wear,0.8610416650772095
,business,0.8570560216903687
,writing,0.8538411855697632
,old,0.853634238243103
,horizontal,0.850639283657074
,future,0.848331093788147
,rough,0.8083675503730774
https://scontent.cdninstagram.com/t51.2885-15/s640x640/sh0.08/e35/13108601_724571120979817_57937433_n.jpg,people,0.9800282716751099
,stock,0.9772452116012573
,woman,0.9706064462661743
,portrait,0.9504052400588989
,shopping,0.9501050710678101
,business,0.9358628988265991
,commerce,0.9333821535110474
,shop,0.9200663566589355
,education,0.9175446033477783
,adult,0.89933180809021
,industry,0.8973289132118225
,market,0.8871899843215942
,school,0.8611129522323608
,option,0.8414421081542969
,street,0.8313902616500854
,bargain,0.8050776720046997
,sale,0.8020244836807251
,young,0.7915295362472534
,shelf,0.7892090082168579
,indoors,0.7845554351806641
https://scontent.cdninstagram.com/t51.2885-15/e35/13151029_746122205490328_1257352077_n.jpg,group,0.9917396306991577
,people,0.9903203248977661
,adult,0.9828559160232544
,man,0.971745491027832
,restaurant,0.9700369834899902
,woman,0.9667762517929077
,furniture,0.9426614046096802
,facial expression,0.9388099908828735
,room,0.9280767440795898
,bar,0.914081871509552
,several,0.9122501611709595
,indoors,0.9105798006057739
,education,0.9093848466873169
,table,0.9046474099159241
,drink,0.8952213525772095
,wear,0.8909767866134644
,group,0.8765908479690552
,enjoyment,0.8649423122406006
,coffee,0.8500047922134399
,employee,0.8492828011512756
https://scontent.cdninstagram.com/t51.2885-15/e35/13256583_1720055351607501_1173463900_n.jpg,music,0.994956910610199
,people,0.9912214279174805
,musician,0.9891257286071777
,performance,0.980740487575531
,singer,0.9774601459503174
,concert,0.9757277369499207
,stage,0.9648395776748657
,adult,0.9639567136764526
,band,0.9459271430969238
,group,0.9242901802062988
,guitar,0.9096475839614868
,guitarist,0.9036039113998413
,drum,0.8901766538619995
,microphone,0.8801784515380859
,percussion instrument,0.8716143369674683
,many,0.8702703714370728
,instrument,0.8662161827087402
,one,0.828508734703064
,audience,0.8253908157348633
,stringed instrument,0.8165623545646667
https://scontent.cdninstagram.com/t51.2885-15/s750x750/sh0.08/e35/13561968_283832805301651_1767835711_n.jpg,woman,0.9939455986022949
,girl,0.984275758266449
,portrait,0.9773380756378174
,people,0.9581740498542786
,fashion,0.9564619660377502
,love,0.9524612426757812
,pretty,0.9484097957611084
,model,0.9341325759887695
,beautiful,0.9341135025024414
,adolescent,0.9301509857177734
,friendship,0.9229542016983032
,brunette,0.914311408996582
,fun,0.9105900526046753
,young,0.9038458466529846
,cute,0.9032304286956787
,smile,0.8967896699905396
,family,0.8905190229415894
,joy,0.8824518918991089
,sexy,0.8732848167419434
,togetherness,0.8504883050918579
https://scontent.cdninstagram.com/t51.2885-15/e35/13269530_1551542915151513_1726784059_n.jpg,woman,0.9941387176513672
,fashion,0.9733172655105591
,girl,0.9682512283325195
,pretty,0.9611477255821228
,sexy,0.9446076154708862
,young,0.9413495659828186
,glamour,0.9341527223587036
,beautiful,0.923650860786438
,friendship,0.9181976318359375
,love,0.9074057340621948
,people,0.8826935291290283
,portrait,0.8817379474639893
,model,0.8807591199874878
,family,0.8694256544113159
,brunette,0.8629223108291626
,hair,0.8559123277664185
,elegant,0.8452977538108826
,lifestyle,0.8425024747848511
,indoors,0.8408830165863037
,lady,0.8365065455436707
https://scontent.cdninstagram.com/t51.2885-15/e35/13099105_1135628533126153_1619626057_n.jpg,no person,0.9789302349090576
,business,0.9722558259963989
,success,0.9538942575454712
,horizontal,0.9512085914611816
,internet,0.9424812197685242
,paper,0.9310075044631958
,technology,0.9167830944061279
,data,0.8772686719894409
,glazed,0.869178056716919
,plastic,0.8515781164169312
,isolated,0.8506009578704834
,identity,0.8419934511184692
,data,0.8307664394378662
,contemporary,0.820634126663208
,simplicity,0.8194557428359985
,connection,0.8093019723892212
,indoors,0.8075891137123108
,industry,0.7962380647659302
,education,0.79132080078125
,vertical,0.7902388572692871
https://scontent.cdninstagram.com/t51.2885-15/e35/13259495_599105233597053_1894238065_n.jpg,desktop,0.9520206451416016
,paper,0.9478150010108948
,card,0.9367307424545288
,no person,0.921409010887146
,color,0.9204869270324707
,symbol,0.9184245467185974
,gambling,0.9175001382827759
,design,0.9000697135925293
,business,0.856865406036377
,illustration,0.8420403599739075
,identity,0.837462842464447
,country,0.8367669582366943
,poker,0.8344114422798157
,closeup,0.8270667195320129
,vintage,0.8222494125366211
,luxury,0.8192309737205505
,luck,0.8098587989807129
,image,0.8050308227539062
,wealth,0.8049276471138
,decoration,0.7804064750671387
https://scontent.cdninstagram.com/t51.2885-15/s750x750/sh0.08/e35/13413276_146028325807444_1532099832_n.jpg,portrait,0.9913816452026367
,people,0.9789778590202332
,group,0.9733564853668213
,adult,0.9731748104095459
,facial expression,0.969234049320221
,three,0.9686980843544006
,movie,0.9673947095870972
,actress,0.9660420417785645
,togetherness,0.9551773071289062
,interaction,0.9510896801948547
,wear,0.9479852318763733
,man,0.9479397535324097
,red carpet,0.9477474689483643
,boy,0.942084550857544
,four,0.9254635572433472
,offspring,0.9238741397857666
,child,0.9221476316452026
,woman,0.918407678604126
,affection,0.9078588485717773
,musician,0.9030027985572815
https://scontent.cdninstagram.com/t51.2885-15/e35/13257147_269766236704056_1523483579_n.jpg,people,0.9977432489395142
,food,0.9914795160293579
,woman,0.9856452941894531
,adult,0.9773430824279785
,restaurant,0.9714499711990356
,indoors,0.968018651008606
,meal,0.962435245513916
,group,0.9546304941177368
,drink,0.94636470079422
,two,0.9391447901725769
,one,0.9321990013122559
,cooking,0.9222741723060608
,grow,0.910523533821106
,bread,0.9054847955703735
,man,0.8990404605865479
,enjoyment,0.8970680236816406
,lunch,0.8896520137786865
,meat,0.8606515526771545
,chef,0.8589998483657837
,table,0.8567709922790527
https://scontent.cdninstagram.com/t51.2885-15/e35/13391211_1543467125962232_1325314094_n.jpg,fashion,0.9946777820587158
,woman,0.9906426072120667
,glamour,0.9872958660125732
,portrait,0.9826822876930237
,girl,0.9634648561477661
,eye,0.9573665261268616
,lips,0.9521623849868774
,model,0.9511019587516785
,jewelry,0.9370157718658447
,skin,0.9366095066070557
,sexy,0.9251657724380493
,lipstick,0.9041072130203247
,hairdo,0.8642106652259827
,luxury,0.8468496799468994
,people,0.8349544405937195
,nude,0.8230100870132446
,brunette,0.8098443150520325
,hair,0.808476448059082
,one,0.7936327457427979
,elegant,0.7891285419464111
https://scontent.cdninstagram.com/t51.2885-15/s750x750/sh0.08/e35/13126782_1770563413176955_1960092354_n.jpg,no person,0.9960235357284546
,fashion,0.9911436438560486
,veil,0.9859672784805298
,vehicle,0.9834070205688477
,travel,0.9775296449661255
,wear,0.9755409955978394
,competition,0.9715276956558228
,indoors,0.9517463445663452
,car,0.9490669965744019
,race,0.9460959434509277
,cap,0.9397961497306824
,outdoors,0.9389795064926147
,elegant,0.9375802278518677
,lid,0.9354496002197266
,people,0.9324274063110352
,luxury,0.928929328918457
,auto racing,0.9102196097373962
,hotel,0.9073556661605835
,military,0.9037489295005798
,championship,0.9023194909095764
https://scontent.cdninstagram.com/t51.2885-15/e35/13391265_1013378795425578_331898601_n.jpg,indoors,0.9895191192626953
,woman,0.9867338538169861
,furniture,0.9866479635238647
,room,0.9831663370132446
,girl,0.9714734554290771
,portrait,0.970962643623352
,chair,0.9659964442253113
,people,0.9640659093856812
,table,0.9611839652061462
,desk,0.960291862487793
,seat,0.9568995833396912
,education,0.9330463409423828
,adult,0.9301923513412476
,book,0.9151699542999268
,fashion,0.8993840217590332
,facial expression,0.8978376984596252
,model,0.894905686378479
,school,0.8946937918663025
,sit,0.8936291933059692
,one,0.8835684657096863
https://scontent.cdninstagram.com/t51.2885-15/e35/13249798_1756230857947544_213186892_n.jpg,woman,0.981783926486969
,girl,0.9792296290397644
,portrait,0.9789535999298096
,fashion,0.9555149078369141
,people,0.9347323179244995
,model,0.9208904504776001
,cute,0.9180169105529785
,lips,0.9003666639328003
,eye,0.8981349468231201
,sexy,0.8895622491836548
,face,0.8856334686279297
,glamour,0.8784795999526978
,facial expression,0.8738071322441101
,studio,0.8599662184715271
,one,0.8563177585601807
,pretty,0.8438081741333008
,adult,0.83903968334198
,nude,0.8271883726119995
,brunette,0.8175239562988281
,skin,0.7946338653564453
https://scontent.cdninstagram.com/t51.2885-15/e35/13297965_142748412807455_1755676317_n.jpg,woman,0.9913138151168823
,table,0.973915696144104
,man,0.96638023853302
,indoors,0.9661786556243896
,group,0.9643484354019165
,adult,0.9634681940078735
,group,0.9572639465332031
,togetherness,0.956854522228241
,people,0.9521011114120483
,portrait,0.9520537853240967
,sit,0.9475821256637573
,family,0.9474474191665649
,restaurant,0.9449182748794556
,happiness,0.926586925983429
,four,0.9149700403213501
,drink,0.9128904938697815
,room,0.9120742082595825
,wine,0.9109020829200745
,friendship,0.910485029220581
,smile,0.9027059674263
https://scontent.cdninstagram.com/t51.2885-15/e35/13277705_848497891947483_266769051_n.jpg,indoors,0.9889079332351685
,room,0.9878839254379272
,contemporary,0.976973831653595
,home,0.974266767501831
,picture frame,0.9628899097442627
,no person,0.9563101530075073
,furniture,0.950056791305542
,table,0.9450044631958008
,exhibition,0.9447469711303711
,architecture,0.9387240409851074
,museum,0.934371829032898
,house,0.9119763374328613
,light,0.9074270725250244
,window,0.9054099321365356
,family,0.9052641987800598
,apartment,0.9046604633331299
,interior design,0.8952546119689941
,decoration,0.8806154131889343
,luxury,0.8737272620201111
,inside,0.8728100061416626
https://scontent.cdninstagram.com/t51.2885-15/e35/13395166_1161141197277846_1229082138_n.jpg,no person,0.9883750677108765
,paper,0.9175376892089844
,box,0.9003978967666626
,education,0.8905802965164185
,art,0.8814364671707153
,decoration,0.865904688835144
,conceptual,0.8182152509689331
,still life,0.8140135407447815
,celebration,0.8082523345947266
,Christmas,0.804267168045044
,thread,0.7922943830490112
,indoors,0.7870039939880371
,business,0.7815635800361633
,interior design,0.7800951600074768
,retro,0.7740355730056763
,desktop,0.7675018310546875
,creativity,0.7537480592727661
,knowledge,0.75235915184021
,wear,0.744659423828125
,color,0.7440550327301025
https://scontent.cdninstagram.com/t51.2885-15/e35/11386457_1106984069366567_1777543703_n.jpg,footwear,0.9971842169761658
,foot,0.9962100982666016
,leather,0.9936114549636841
,shoe,0.992210865020752
,wear,0.9887635707855225
,couple,0.988025963306427
,no person,0.9806134700775146
,fashion,0.9754538536071777
,sandal,0.9664469957351685
,classic,0.9652117490768433
,isolated,0.9583829045295715
,two,0.9536514282226562
,sneakers,0.940384566783905
,accessory,0.9373501539230347
,sole,0.9270089864730835
,rubberize,0.9147636890411377
,recreation,0.9126333594322205
,casual,0.91115403175354
,leisure,0.904062032699585
,pair,0.9009840488433838
https://scontent.cdninstagram.com/t51.2885-15/e35/13473211_1729797740642423_2119184383_n.jpg,silhouette,0.9816646575927734
,people,0.9800140857696533
,no person,0.9649922847747803
,moon,0.9645389914512634
,sky,0.946579098701477
,evening,0.9460223317146301
,sunset,0.9445136785507202
,smoke,0.944054126739502
,dusk,0.9243010878562927
,group,0.91920006275177
,backlit,0.9037613868713379
,light,0.9025335311889648
,city,0.8964069485664368
,outdoors,0.8792235255241394
,travel,0.8693311214447021
,ceremony,0.8658398985862732
,flame,0.8586500883102417
,dawn,0.8525443077087402
,landscape,0.8482352495193481
,cemetery,0.8339277505874634
https://scontent.cdninstagram.com/t51.2885-15/e35/13557115_1782114208675421_610351660_n.jpg,group,0.9963715076446533
,woman,0.990830659866333
,portrait,0.9868505001068115
,people,0.9813607335090637
,boy,0.9797148108482361
,four,0.9789568185806274
,three,0.977349042892456
,facial expression,0.9767706394195557
,wear,0.9740103483200073
,girl,0.9726473093032837
,offspring,0.9726270437240601
,adult,0.9695992469787598
,hijab,0.9695323705673218
,happiness,0.9688133001327515
,child,0.968413233757019
,togetherness,0.9614976644515991
,friendship,0.9553872346878052
,headscarf,0.9504782557487488
,family,0.9360591173171997
,scarf,0.9357478618621826
https://scontent.cdninstagram.com/t51.2885-15/e35/13355478_1034226783293128_677469413_n.jpg,woman,0.9893158674240112
,togetherness,0.9878045320510864
,friendship,0.9713162779808044
,indoors,0.9385851621627808
,adolescent,0.9293358325958252
,facial expression,0.9276847839355469
,laughing,0.9269813299179077
,love,0.9184027910232544
,people,0.9123485088348389
,multicultural,0.9075855016708374
,fun,0.9061565399169922
,portrait,0.9027146100997925
,enjoyment,0.9014025330543518
,happiness,0.9004128575325012
,three,0.8941100239753723
,student,0.8868594169616699
,group,0.8861737251281738
,man,0.8856961727142334
,child,0.8746070861816406
,embrace,0.8594000935554504
https://scontent.cdninstagram.com/t51.2885-15/e35/13391309_155855654826603_242180413_n.jpg,group,0.9922870397567749
,group,0.9857463836669922
,people,0.9818759560585022
,woman,0.9768114686012268
,music,0.9549405574798584
,man,0.9485142827033997
,adult,0.9371594190597534
,many,0.9321950674057007
,performance,0.9313718676567078
,concert,0.9271388053894043
,recreation,0.9214816093444824
,dancing,0.9156161546707153
,singer,0.9089284539222717
,band,0.8928970098495483
,crowd,0.8888646960258484
,squad,0.8780645728111267
,enjoyment,0.8719246983528137
,festival,0.8634101748466492
,musician,0.8460286855697632
,portrait,0.8418827056884766
https://scontent.cdninstagram.com/t51.2885-15/e35/13534268_1741992189350271_381244356_n.jpg,woman,0.9955276846885681
,fashion,0.9931575059890747
,eye,0.9832616448402405
,glamour,0.9758627414703369
,pretty,0.9665262699127197
,lips,0.9632688760757446
,sexy,0.9596564769744873
,portrait,0.9560362100601196
,skin,0.9412901401519775
,long,0.9335551261901855
,look,0.9315508604049683
,model,0.9228106737136841
,hair,0.9221664667129517
,cute,0.9198735952377319
,elegant,0.8719726800918579
,girl,0.8669232130050659
,straight,0.8052984476089478
,seduction,0.795251727104187
,scarf,0.7820545434951782
,brunette,0.7740853428840637
https://scontent.cdninstagram.com/t51.2885-15/e35/13413398_1779508158951524_13882862_n.jpg,music,0.9901070594787598
,people,0.9865927696228027
,performance,0.9865301847457886
,many,0.9831233620643616
,concert,0.9816803932189941
,musician,0.9598057270050049
,group,0.9534330368041992
,band,0.9493227601051331
,festival,0.932645320892334
,audience,0.9001943469047546
,instrument,0.8853944540023804
,group,0.8761049509048462
,crowd,0.8745969533920288
,man,0.8720760345458984
,singer,0.8666051626205444
,adult,0.8428745269775391
,leader,0.8366047143936157
,stage,0.8343108892440796
,ceremony,0.8238911628723145
,dancing,0.8165513873100281
https://scontent.cdninstagram.com/t51.2885-15/e35/13259654_1189592764392853_1806127583_n.jpg,no person,0.9909135699272156
,business,0.913585901260376
,education,0.9086251854896545
,indoors,0.9025672674179077
,fashion,0.8584669828414917
,luxury,0.8537865281105042
,wood,0.8421065807342529
,success,0.8339756727218628
,technology,0.81911301612854
,dark,0.8157155513763428
,shadow,0.8085899949073792
,creativity,0.7981092929840088
,glamour,0.797278881072998
,vertical,0.7960762977600098
,retro,0.7955442667007446
,woman,0.7828923463821411
,antique,0.766650378704071
,still life,0.7616541385650635
,conceptual,0.7583853006362915
,order,0.7579532265663147
https://scontent.cdninstagram.com/t51.2885-15/s750x750/sh0.08/e35/13597775_146561609099195_811666064_n.jpg,woman,0.9587011337280273
,togetherness,0.9577706456184387
,friendship,0.9576098918914795
,people,0.9466124176979065
,fun,0.9442224502563477
,group,0.9292504787445068
,child,0.9257073402404785
,adolescent,0.9248181581497192
,portrait,0.9225451946258545
,joy,0.9081974625587463
,laughing,0.9031386375427246
,happiness,0.8790782690048218
,outdoors,0.8619920015335083
,family,0.8593870997428894
,man,0.8441135883331299
,multicultural,0.8079845905303955
,cute,0.8063942790031433
,enjoyment,0.805658221244812
,love,0.8047969341278076
,embrace,0.8026679754257202
https://scontent.cdninstagram.com/t51.2885-15/e35/13534337_325158257815872_1490618694_n.jpg,fashion,0.9973713159561157
,brush,0.9945865869522095
,woman,0.9857281446456909
,wear,0.967294454574585
,indoors,0.957740306854248
,gloves,0.9441485404968262
,luxury,0.9436442852020264
,glamour,0.9401695728302002
,accessory,0.9342508912086487
,set,0.933677613735199
,collection,0.9294077157974243
,leather,0.9277637004852295
,equipment,0.9159879684448242
,design,0.9094357490539551
,no person,0.9062496423721313
,elegant,0.9025313854217529
,style,0.8983029127120972
,mascara,0.8936859369277954
,studio,0.8891244530677795
,many,0.8869601488113403
