url,class,score
https://scontent.cdninstagram.com/t51.2885-15/e35/13258883_1577913389173646_217399662_n.jpg,lettuce,0.9986870288848877
,no person,0.9964402318000793
,food,0.9958482980728149
,lunch,0.9948562383651733
,tomato,0.9908925294876099
,dinner,0.9861277937889099
,bread,0.9859709739685059
,delicious,0.9855512380599976
,nutrition,0.9846929311752319
,breakfast,0.9821532964706421
,fast,0.9814730286598206
,sandwich,0.9796474575996399
,refreshment,0.9790941476821899
,meal,0.9711077213287354
,ketchup,0.9707369804382324
,unhealthy,0.9602388143539429
,health,0.9577024579048157
,cheese,0.9425211548805237
,meat,0.9379525184631348
,vegetable,0.9350658655166626
https://scontent.cdninstagram.com/t51.2885-15/e35/13422920_1628447120806824_145266054_n.jpg,sunset,0.9990583062171936
,water,0.9960586428642273
,sun,0.9952170848846436
,beach,0.9900158047676086
,dawn,0.9877424836158752
,no person,0.9760560989379883
,sea,0.9715291857719421
,dusk,0.9667141437530518
,evening,0.9612517356872559
,ocean,0.9602780342102051
,landscape,0.9487790465354919
,fair weather,0.9426597952842712
,sand,0.9360606670379639
,seascape,0.9327646493911743
,reflection,0.9164570569992065
,sky,0.9011000990867615
,seashore,0.893115758895874
,surf,0.8830676078796387
,summer,0.8771017789840698
,nature,0.8697941303253174
https://scontent.cdninstagram.com/t51.2885-15/sh0.08/e35/p750x750/13381302_1734631573489322_36846253_n.jpg,people,0.9808858633041382
,man,0.9767919778823853
,adult,0.9737750291824341
,indoors,0.9686054587364197
,business,0.95476233959198
,woman,0.9535525441169739
,wear,0.9515595436096191
,group,0.9394088983535767
,portrait,0.9235786199569702
,facial expression,0.9178645610809326
,offense,0.9051375389099121
,outfit,0.8646906614303589
,mask,0.8512021899223328
,two,0.8179218769073486
,room,0.7925976514816284
,theater,0.7640489935874939
,conceptual,0.7632757425308228
,three,0.7505249977111816
,fraud,0.7406392097473145
,fear,0.739924430847168
https://scontent.cdninstagram.com/t51.2885-15/e35/12070636_475978475922187_616971163_n.jpg,people,0.9943728446960449
,man,0.9643701910972595
,adult,0.9567630290985107
,police,0.9478591680526733
,battle,0.9390707612037659
,one,0.929466724395752
,war,0.9281637668609619
,military,0.9277519583702087
,rally,0.9268405437469482
,calamity,0.9164973497390747
,offense,0.914467990398407
,religion,0.9131544828414917
,mask,0.9031779170036316
,rebellion,0.9018010497093201
,competition,0.8642482757568359
,festival,0.8587527275085449
,wear,0.8530497550964355
,healthcare,0.8529691696166992
,outfit,0.8139342069625854
,flame,0.8071333169937134
https://scontent.cdninstagram.com/t51.2885-15/sh0.08/e35/p750x750/11850056_180605265618412_1016635965_n.jpg,vector,0.9705111980438232
,set,0.960625410079956
,navigation,0.951358437538147
,vector,0.947514533996582
,stripe,0.9287229776382446
,graph,0.9227128028869629
,template,0.9222006797790527
,World Wide Web,0.9049655795097351
,business,0.899794340133667
,presentation,0.8957545161247253
,illustration,0.881144106388092
,site,0.8790122270584106
,label,0.877498984336853
,no person,0.8594306707382202
,set,0.8583155870437622
,diagram,0.8558987379074097
,collection,0.8509933948516846
,banner,0.8464919328689575
,layout,0.8329727053642273
,menu,0.8326079845428467
https://scontent.cdninstagram.com/t51.2885-15/s750x750/sh0.08/e35/12237017_866243356829244_1417021486_n.jpg,people,0.980536699295044
,city,0.9643869400024414
,street,0.9592395424842834
,woman,0.9451741576194763
,architecture,0.9441210031509399
,portrait,0.9430072903633118
,building,0.9372113943099976
,travel,0.931943953037262
,fashion,0.929988443851471
,landscape,0.9228493571281433
,offense,0.913610577583313
,girl,0.9117338061332703
,one,0.9079833030700684
,window,0.904942512512207
,light,0.9041878581047058
,adult,0.8960988521575928
,model,0.889047384262085
,indoors,0.883865475654602
,man,0.882677435874939
,festival,0.8727861642837524
https://scontent.cdninstagram.com/t51.2885-15/sh0.08/e35/p750x750/12677594_1734720560082575_1287795128_n.jpg,recreation,0.9940648674964905
,people,0.9915000200271606
,portrait,0.9527573585510254
,actress,0.9424286484718323
,wear,0.9380766153335571
,red carpet,0.9146161079406738
,movie,0.8829752802848816
,room,0.8705710172653198
,two,0.8701126575469971
,facial expression,0.8644857406616211
,youth,0.8532469272613525
,festival,0.8309444189071655
,arrival,0.8149498701095581
,group,0.8096850514411926
,fame,0.8086532354354858
,competition,0.7927775979042053
,television,0.7902798652648926
,adult,0.7675054669380188
,film festival,0.7392255067825317
,actor,0.7343670129776001
https://scontent.cdninstagram.com/t51.2885-15/e35/11910238_1686356471600197_109801622_n.jpg,car,0.9994961023330688
,vehicle,0.9960300326347351
,street,0.9943493604660034
,transportation system,0.9925272464752197
,people,0.991628885269165
,road,0.9913183450698853
,man,0.9797425270080566
,traffic,0.9785123467445374
,offense,0.9768137335777283
,police,0.9688690900802612
,drive,0.9651038646697998
,driver,0.962733268737793
,action,0.9579960107803345
,accident,0.9533704519271851
,battle,0.9402823448181152
,portrait,0.9341516494750977
,hurry,0.9338315725326538
,adult,0.9230959415435791
,highway,0.8999704122543335
,competition,0.8963040113449097
https://scontent.cdninstagram.com/t51.2885-15/e35/11380947_740379782774491_1323804500_n.jpg,people,0.9944382905960083
,one,0.9819349646568298
,light,0.980171799659729
,portrait,0.9632681012153625
,adult,0.961101770401001
,indoors,0.9565128087997437
,travel,0.934762716293335
,vehicle,0.9318856000900269
,music,0.9224792718887329
,man,0.9223113059997559
,administration,0.9128493070602417
,offense,0.8887585401535034
,action,0.8748809099197388
,festival,0.8644200563430786
,home,0.8498168587684631
,landscape,0.8481411933898926
,car,0.8348108530044556
,room,0.833862841129303
,city,0.8273450136184692
,girl,0.8235052824020386
https://scontent.cdninstagram.com/t51.2885-15/e15/11352335_1580870608853339_1777009437_n.jpg,woman,0.9694561958312988
,people,0.9650834798812866
,education,0.9504532814025879
,indoors,0.9467553496360779
,adult,0.9169409275054932
,young,0.9125521183013916
,school,0.8866418600082397
,man,0.8857131600379944
,girl,0.8833606839179993
,work,0.8619275689125061
,business,0.8467814922332764
,person,0.8321224451065063
,portrait,0.8289104700088501
,cheerful,0.8262235522270203
,adolescent,0.8083670139312744
,beautiful,0.8079575300216675
,smile,0.7999919652938843
,fun,0.7935843467712402
,classroom,0.7868838310241699
,lifestyle,0.783910870552063
https://scontent.cdninstagram.com/t51.2885-15/s640x640/sh0.08/e35/12558667_572553169558914_631427923_n.jpg,internet,0.9964056015014648
,sign,0.9905773997306824
,symbol,0.9896460771560669
,button,0.9763187766075134
,computer,0.9744449257850647
,image,0.9672977924346924
,business,0.9561175107955933
,World Wide Web,0.9376365542411804
,technology,0.9084652662277222
,no person,0.9079534411430359
,email,0.8994338512420654
,keyboard,0.8951061367988586
,text,0.8878756761550903
,alphabet,0.8867318630218506
,computer network,0.8778941035270691
,lock,0.8673086762428284
,vector,0.8658760786056519
,key,0.8428590297698975
,service,0.8381340503692627
,calculator,0.8277389407157898
https://scontent.cdninstagram.com/t51.2885-15/s750x750/sh0.08/e35/11820737_984878201574094_933056378_n.jpg,car,0.9887611865997314
,vehicle,0.9808460474014282
,people,0.971853494644165
,indoors,0.9643338918685913
,driver,0.963796854019165
,man,0.9545366764068604
,portrait,0.9527526497840881
,competition,0.9518867135047913
,auto racing,0.9450465440750122
,child,0.9360193014144897
,one,0.9300795793533325
,championship,0.9214956760406494
,race,0.9195650815963745
,outdoors,0.8963384628295898
,looking,0.8682811260223389
,woman,0.8667172193527222
,adolescent,0.8484578132629395
,adult,0.8466693162918091
,travel,0.8464304208755493
,race,0.84026038646698
https://scontent.cdninstagram.com/t51.2885-15/e35/12081132_1489805114679554_340184807_n.jpg,child,0.9851107597351074
,people,0.9849514961242676
,man,0.9830812811851501
,water,0.9734243154525757
,one,0.9656950831413269
,portrait,0.9481218457221985
,outdoors,0.9202347993850708
,boy,0.9176280498504639
,beach,0.915778398513794
,adult,0.896028995513916
,fun,0.8593893647193909
,young,0.8531889915466309
,wet,0.8390859961509705
,nature,0.8376868963241577
,summer,0.8368300199508667
,little,0.831409215927124
,hand,0.8298271894454956
,baby,0.8153036236763
,seashore,0.8129090666770935
,relaxation,0.8123384118080139
https://scontent.cdninstagram.com/t51.2885-15/e35/12568202_162775230766813_947115621_n.jpg,people,0.9857920408248901
,room,0.9774034023284912
,wear,0.9768289923667908
,facial expression,0.9752838015556335
,adult,0.9708005785942078
,recreation,0.9690170288085938
,indoors,0.9503446817398071
,one,0.9439527988433838
,furniture,0.9203743934631348
,woman,0.9194490909576416
,festival,0.914280354976654
,chair,0.9080500602722168
,red carpet,0.8993948101997375
,drink,0.8988485336303711
,portrait,0.8945260047912598
,movie,0.8875249624252319
,singer,0.8860278725624084
,seat,0.885297954082489
,actress,0.8716858625411987
,food,0.8574271202087402
https://scontent.cdninstagram.com/t51.2885-15/e35/12825712_225946917755737_965295307_n.jpg,people,0.9863806962966919
,one,0.972036600112915
,portrait,0.9602759480476379
,adult,0.95124351978302
,child,0.9403111338615417
,recreation,0.9377909898757935
,wear,0.9305156469345093
,outdoors,0.9129639863967896
,facial expression,0.907357931137085
,woman,0.9062526226043701
,sitting,0.8945201635360718
,man,0.8936337232589722
,girl,0.8921071290969849
,leisure,0.8896475434303284
,boy,0.8751491904258728
,street,0.8711488842964172
,adolescent,0.8605986833572388
,travel,0.845608115196228
,education,0.835935115814209
,school,0.8223189115524292
https://scontent.cdninstagram.com/t51.2885-15/s480x480/e35/11850110_500602526769623_71526453_n.jpg,facial expression,0.9938017129898071
,people,0.9931902885437012
,one,0.9908415079116821
,adult,0.9903011322021484
,wear,0.9893960952758789
,furniture,0.9830608367919922
,room,0.9746223092079163
,indoors,0.9601860046386719
,portrait,0.9570478200912476
,seat,0.9516676664352417
,man,0.9433082342147827
,telephone,0.9162296056747437
,outfit,0.9105989933013916
,chair,0.9040303230285645
,table,0.8943367004394531
,recreation,0.8849310874938965
,outerwear,0.8822704553604126
,business,0.8793535232543945
,home,0.8771864771842957
,musician,0.8689572811126709
https://scontent.cdninstagram.com/t51.2885-15/e35/12135351_911834775573783_2048255108_n.jpg,road,0.9962980151176453
,tree,0.9863540530204773
,landscape,0.9860436916351318
,environment,0.9748415946960449
,guidance,0.9738588929176331
,wood,0.9730826616287231
,trail,0.9678598642349243
,travel,0.9598374962806702
,outdoors,0.9578622579574585
,footpath,0.9557483196258545
,nature,0.95030677318573
,track,0.9387390613555908
,people,0.9298033714294434
,daylight,0.9209036827087402
,leaf,0.9200690984725952
,no person,0.9181666374206543
,park,0.9153665900230408
,hike,0.9101998805999756
,adventure,0.896507203578949
,flora,0.8863575458526611
https://scontent.cdninstagram.com/t51.2885-15/e35/12530830_199388943758456_1035955253_n.jpg,woman,0.9696443676948547
,group,0.9687809944152832
,people,0.954788088798523
,man,0.9450715780258179
,adolescent,0.9036673307418823
,education,0.8950735926628113
,child,0.8898842334747314
,friendship,0.8885023593902588
,portrait,0.867152988910675
,fun,0.857515275478363
,group,0.8377856016159058
,music,0.8333662748336792
,student,0.8318275213241577
,indoors,0.812161386013031
,family,0.8073529005050659
,school,0.8072628974914551
,enjoyment,0.7813147306442261
,laughing,0.7789150476455688
,togetherness,0.7771952152252197
,festival,0.7681243419647217
https://scontent.cdninstagram.com/t51.2885-15/e15/11325309_1484548011836341_521629903_n.jpg,woman,0.989495575428009
,people,0.9790872931480408
,adult,0.9688827991485596
,young,0.9586114287376404
,person,0.9509965777397156
,business,0.943040132522583
,portrait,0.9300500154495239
,beautiful,0.9253749847412109
,shopping,0.9240052700042725
,girl,0.9142941832542419
,man,0.911257266998291
,indoors,0.9091007709503174
,shop,0.8856488466262817
,friendship,0.8788704872131348
,pretty,0.8727579116821289
,cheerful,0.8719333410263062
,lifestyle,0.8678073287010193
,fashion,0.8618752956390381
,smile,0.8537917137145996
,attractive,0.8536866903305054
https://scontent.cdninstagram.com/t51.2885-15/s750x750/sh0.08/e35/11374268_1612812252305359_275911212_n.jpg,no person,0.9919198751449585
,business,0.9272394180297852
,food,0.918623685836792
,money,0.9018133282661438
,paper,0.8523572087287903
,still life,0.8397451043128967
,technology,0.8205909132957458
,text,0.8081374764442444
,education,0.7870325446128845
,display,0.7732725143432617
,finance,0.7700440883636475
,computer,0.7617159485816956
,symbol,0.7605253458023071
,commerce,0.7519787549972534
,one,0.7462840676307678
,internet,0.7342840433120728
,indoors,0.7325893044471741
,travel,0.7251675128936768
,people,0.7199535965919495
,wood,0.7167118787765503
https://scontent.cdninstagram.com/t51.2885-15/e35/11849796_1624074587847783_278312141_n.jpg,girl,0.9897361397743225
,summer,0.9887744784355164
,woman,0.9750614166259766
,people,0.9745265245437622
,beautiful,0.9728257060050964
,outdoors,0.9683538675308228
,person,0.9580065011978149
,portrait,0.957473874092102
,park,0.9551377296447754
,nature,0.9490039944648743
,leisure,0.9398066997528076
,young,0.9371361136436462
,adult,0.9276351928710938
,smile,0.9235047698020935
,outside,0.9206780195236206
,one,0.9179559946060181
,lifestyle,0.9103997349739075
,recreation,0.9027518033981323
,fun,0.8842769265174866
,hair,0.883080005645752
https://scontent.cdninstagram.com/t51.2885-15/e35/11931174_972747119415161_1223328546_n.jpg,technology,0.9713183641433716
,people,0.9666650891304016
,telephone,0.9652206897735596
,lens,0.9406473636627197
,offense,0.9368162155151367
,equipment,0.9367926120758057
,safety,0.9280493259429932
,vehicle,0.9192463755607605
,one,0.9159960150718689
,security,0.9146134257316589
,adult,0.8773895502090454
,child,0.8744081258773804
,man,0.8730036616325378
,movie,0.8709844350814819
,portrait,0.869854211807251
,car,0.8634244203567505
,hand,0.8568498492240906
,screen,0.8547935485839844
,military,0.8541248440742493
,boy,0.835092306137085
