url,class,score,,,,,,,,
https://scontent.cdninstagram.com/t51.2885-15/e35/13402484_1551241321844758_1694437031_n.jpg?ig_cache_key=MTI3MTcyMjI3NTkyODUwMDI0Nw%3D%3D.2,model,0.984196424,"Fashion & Beauty",,,,"My look",,,
,adult,0.983393431,,,,,,,,
,woman,0.98183465,,,,,,,,
,girl,0.976234555,,,,,,,,
,portrait,0.970000982,,,,,,,,
,wear,0.96082288,,,,,,,,
,fashion,0.957924426,,,,,,,,
,one,0.942097187,,,,,,,,
,pants,0.933640361,,,,,,,,
,people,0.93048203,,,,,,,,
,fashionable,0.897721648,,,,,,,,
,skirt,0.868812799,,,,,,,,
,brunette,0.838126659,,,,,,,,
,dress,0.835663795,,,,,,,,
,lifestyle,0.818534315,,,,,,,,
,necklace,0.785878301,,,,,,,,
,purse,0.78011471,,,,,,,,
,jacket,0.77528882,,,,,,,,
,bag,0.774156213,,,,,,,,
,lid,0.754406214,,,,,,,,
https://scontent.cdninstagram.com/t51.2885-15/e35/13402484_1551241321844758_1694437031_n.jpg?ig_cache_key=MTI3MTcyMjI3NTkyODUwMDI0Nw%3D%3D.2,model,0.984196424,"Fashion & Beauty",,,,"My look",,,
,adult,0.983393431,,,,,,,,
,woman,0.98183465,,,,,,,,
,girl,0.976234555,,,,,,,,
,portrait,0.970000982,,,,,,,,
,wear,0.96082288,,,,,,,,
,fashion,0.957924426,,,,,,,,
,one,0.942097187,,,,,,,,
,pants,0.933640361,,,,,,,,
,people,0.93048203,,,,,,,,
,fashionable,0.897721648,,,,,,,,
,skirt,0.868812799,,,,,,,,
,brunette,0.838126659,,,,,,,,
,dress,0.835663795,,,,,,,,
,lifestyle,0.818534315,,,,,,,,
,necklace,0.785878301,,,,,,,,
,purse,0.78011471,,,,,,,,
,jacket,0.77528882,,,,,,,,
,bag,0.774156213,,,,,,,,
,lid,0.754406214,,,,,,,,
https://scontent.cdninstagram.com/t51.2885-15/e35/13249874_1129581613749790_1421904836_n.jpg?ig_cache_key=MTI2MDg5NTgwMjI2MzAzODAzOA%3D%3D.2,group,0.986083746,Relationships,,,,Friends,,,
,portrait,0.983461976,,,,,,,,
,girl,0.971534967,,,,,,,,
,people,0.970847011,,,,,,,,
,woman,0.968360901,,,,,,,,
,adult,0.95957011,,,,,,,,
,man,0.957035303,,,,,,,,
,friendship,0.952405632,,,,,,,,
,group,0.948027074,,,,,,,,
,smile,0.946870625,,,,,,,,
,happiness,0.936628878,,,,,,,,
,beautiful,0.931448102,,,,,,,,
,three,0.929842472,,,,,,,,
,computer,0.92399019,,,,,,,,
,technology,0.922347486,,,,,,,,
,squad,0.917028725,,,,,,,,
,lifestyle,0.914392769,,,,,,,,
,indoors,0.906742513,,,,,,,,
,four,0.898034692,,,,,,,,
,laughing,0.897848248,,,,,,,,
https://scontent.cdninstagram.com/t51.2885-15/e35/13166967_1790118391224718_462136016_n.jpg?ig_cache_key=MTI0NjMyMTMzNjU3NzEyNDk1MA%3D%3D.2,love,0.990930676,Relationships,,,,"Best friends",,,
,togetherness,0.986395299,,,,,,,,
,man,0.977626204,,,,,,,,
,woman,0.977223575,,,,,,,,
,affection,0.97163415,,,,,,,,
,people,0.969967306,,,,,,,,
,two,0.966749191,,,,,,,,
,embrace,0.965964079,,,,,,,,
,portrait,0.958974242,,,,,,,,
,family,0.954592586,,,,,,,,
,"facial expression",0.953974366,,,,,,,,
,romance,0.947324634,,,,,,,,
,indoors,0.937584758,,,,,,,,
,interaction,0.933273554,,,,,,,,
,happiness,0.922213078,,,,,,,,
,friendship,0.91282773,,,,,,,,
,wear,0.907113194,,,,,,,,
,adult,0.890762985,,,,,,,,
,fun,0.887093186,,,,,,,,
,joy,0.879394889,,,,,,,,
https://scontent.cdninstagram.com/t51.2885-15/s640x640/e15/13249677_228498144203998_1145064797_n.jpg?ig_cache_key=MTI2ODEzNTY2Mjc3NDM0ODU5Mg%3D%3D.2,woman,0.989628494,Relationships,,,,Friends,,,
,people,0.983569741,,,,,,,,
,adult,0.979548037,,,,,,,,
,portrait,0.97877872,,,,,,,,
,togetherness,0.974272907,,,,,,,,
,happiness,0.973302603,,,,,,,,
,friendship,0.96771872,,,,,,,,
,wear,0.961206198,,,,,,,,
,two,0.955196738,,,,,,,,
,girl,0.953293204,,,,,,,,
,"facial expression",0.948976398,,,,,,,,
,indoors,0.943214357,,,,,,,,
,child,0.936336994,,,,,,,,
,lifestyle,0.921717405,,,,,,,,
,daylight,0.915239394,,,,,,,,
,group,0.912007689,,,,,,,,
,man,0.901143789,,,,,,,,
,love,0.894278765,,,,,,,,
,family,0.887914538,,,,,,,,
,three,0.887408316,,,,,,,,
https://scontent.cdninstagram.com/t51.2885-15/s750x750/sh0.08/e35/13414351_265355950498600_191612350_n.jpg?ig_cache_key=MTI3NDM4MTYxNzg0MDQ4MzA3Mg%3D%3D.2,fashion,0.998060763,,,,,,,,
,glamour,0.992647827,,,,,,,,
,woman,0.988502145,,,,,,,,
,girl,0.983292341,,,,,,,,
,model,0.982356131,,,,,,,,
,portrait,0.979120731,,,,,,,,
,style,0.971795976,,,,,,,,
,sexy,0.962113202,,,,,,,,
,love,0.958683014,,,,,,,,
,beautiful,0.95536828,,,,,,,,
,lips,0.950314164,,,,,,,,
,elegant,0.947393894,,,,,,,,
,luxury,0.944746494,,,,,,,,
,hairdo,0.944232464,,,,,,,,
,lipstick,0.93509686,,,,,,,,
,jewelry,0.933067918,,,,,,,,
,studio,0.922392726,,,,,,,,
,eye,0.922300816,,,,,,,,
,lady,0.916739821,,,,,,,,
,fashionable,0.902610362,,,,,,,,
https://scontent.cdninstagram.com/t51.2885-15/s640x640/sh0.08/e35/13126806_1740693542843641_285422695_n.jpg?ig_cache_key=MTI0MTc2NTE3NDcwMzc3NzgyNg%3D%3D.2,flower,0.996391773,Environment,,,,"Natural beauty",,,
,Gerbera,0.995364964,,,,,,,,
,flora,0.990092039,,,,,,,,
,petal,0.983528852,,,,,,,,
,nature,0.982698798,,,,,,,,
,beautiful,0.979773402,,,,,,,,
,bright,0.974128604,,,,,,,,
,summer,0.973361015,,,,,,,,
,floral,0.970333695,,,,,,,,
,color,0.962612212,,,,,,,,
,bouquet,0.957663536,,,,,,,,
,blooming,0.949797511,,,,,,,,
,leaf,0.94806242,,,,,,,,
,"no person",0.923973322,,,,,,,,
,head,0.92378664,,,,,,,,
,closeup,0.923220992,,,,,,,,
,love,0.921383619,,,,,,,,
,garden,0.919200301,,,,,,,,
,gift,0.90846622,,,,,,,,
,decoration,0.899381399,,,,,,,,
https://scontent.cdninstagram.com/t51.2885-15/e35/13413356_1143493335702305_368109415_n.jpg?ig_cache_key=MTI3ODI4MjE4MDgwNjI3MzIzNg%3D%3D.2,people,0.993608117,Relationships,,,,"Best friends",,,
,adult,0.992630601,,,,,,,,
,two,0.985174179,,,,,,,,
,portrait,0.983443975,,,,,,,,
,wear,0.983374715,,,,,,,,
,one,0.977805376,,,,,,,,
,indoors,0.97504735,,,,,,,,
,man,0.96766609,,,,,,,,
,woman,0.954058647,,,,,,,,
,competition,0.948893428,,,,,,,,
,"facial expression",0.94236362,,,,,,,,
,rope,0.934429169,,,,,,,,
,recreation,0.914225638,,,,,,,,
,music,0.86131227,,,,,,,,
,musician,0.839163363,,,,,,,,
,athlete,0.820548892,,,,,,,,
,gloves,0.795622349,,,,,,,,
,singer,0.780245543,,,,,,,,
,festival,0.76897037,,,,,,,,
,pants,0.766037643,,,,,,,,
https://scontent.cdninstagram.com/t51.2885-15/e35/13259039_1017089321679260_1453097520_n.jpg?ig_cache_key=MTI1MjE5MzIyNDY3OTQ1MTA3NQ%3D%3D.2,woman,0.996444106,"Fashion & Beauty",,,,"My look",,,
,pretty,0.953942299,,,,,,,,
,girl,0.953941464,,,,,,,,
,young,0.944300294,,,,,,,,
,people,0.943564534,,,,,,,,
,fashion,0.942142487,,,,,,,,
,adult,0.941680133,,,,,,,,
,one,0.938205421,,,,,,,,
,portrait,0.931613207,,,,,,,,
,cute,0.925643682,,,,,,,,
,casual,0.914174199,,,,,,,,
,wear,0.904499888,,,,,,,,
,indoors,0.89485395,,,,,,,,
,contemporary,0.893809199,,,,,,,,
,looking,0.874892473,,,,,,,,
,tea,0.874622941,,,,,,,,
,brunette,0.868733764,,,,,,,,
,adolescent,0.85861975,,,,,,,,
,beautiful,0.847979784,,,,,,,,
,"facial expression",0.841755033,,,,,,,,
https://scontent.cdninstagram.com/t51.2885-15/s640x640/sh0.08/e35/13126806_1740693542843641_285422695_n.jpg?ig_cache_key=MTI0MTc2NTE3NDcwMzc3NzgyNg%3D%3D.2,flower,0.996391773,Environment,,,,"Natural beauty",,,
,Gerbera,0.995364964,,,,,,,,
,flora,0.990092039,,,,,,,,
,petal,0.983528852,,,,,,,,
,nature,0.982698798,,,,,,,,
,beautiful,0.979773402,,,,,,,,
,bright,0.974128604,,,,,,,,
,summer,0.973361015,,,,,,,,
,floral,0.970333695,,,,,,,,
,color,0.962612212,,,,,,,,
,bouquet,0.957663536,,,,,,,,
,blooming,0.949797511,,,,,,,,
,leaf,0.94806242,,,,,,,,
,"no person",0.923973322,,,,,,,,
,head,0.92378664,,,,,,,,
,closeup,0.923220992,,,,,,,,
,love,0.921383619,,,,,,,,
,garden,0.919200301,,,,,,,,
,gift,0.90846622,,,,,,,,
,decoration,0.899381399,,,,,,,,
https://scontent.cdninstagram.com/t51.2885-15/e35/13126741_1180790135278355_181832946_n.jpg?ig_cache_key=MTI0NDIzNzM4Mjc2ODM1NTM5Nw%3D%3D.2,woman,0.99158603,Relationships,Culture,,,"Best friends",Culture-s,,
,fashion,0.988516569,,,,,,,,
,girl,0.984052181,,,,,,,,
,beautiful,0.980468512,,,,,,,,
,pretty,0.976162195,,,,,,,,
,young,0.964801073,,,,,,,,
,cute,0.963850737,,,,,,,,
,portrait,0.958648145,,,,,,,,
,love,0.943554759,,,,,,,,
,sexy,0.936524391,,,,,,,,
,glamour,0.921086788,,,,,,,,
,model,0.918512821,,,,,,,,
,hair,0.917480946,,,,,,,,
,people,0.913233817,,,,,,,,
,brunette,0.894164801,,,,,,,,
,attractive,0.877348602,,,,,,,,
,face,0.865250587,,,,,,,,
,joy,0.864428282,,,,,,,,
,fun,0.859454691,,,,,,,,
,long,0.858698487,,,,,,,,
https://scontent.cdninstagram.com/t51.2885-15/e35/13398744_244936259218282_1963102955_n.jpg?ig_cache_key=MTI2NTk3OTE3NDcwMjI0NjMwNg%3D%3D.2,time,0.990836263,Commerce,"Fashion & Beauty",,,"Product/brand shots","Fashion & Beauty-s",,
,pressure,0.976597726,,,,,,,,
,hand,0.96250999,,,,,,,,
,man,0.953443289,,,,,,,,
,clock,0.925834715,,,,,,,,
,people,0.922997355,,,,,,,,
,precision,0.904814363,,,,,,,,
,watch,0.896027267,,,,,,,,
,one,0.887503505,,,,,,,,
,adult,0.879682064,,,,,,,,
,wristwatch,0.866170764,,,,,,,,
,instrument,0.86572355,,,,,,,,
,watch,0.862088442,,,,,,,,
,urgency,0.850956798,,,,,,,,
,wrist,0.847441912,,,,,,,,
,business,0.832320333,,,,,,,,
,health,0.790606558,,,,,,,,
,late,0.778535545,,,,,,,,
,desktop,0.774683356,,,,,,,,
,conceptual,0.76437819,,,,,,,,
https://scontent.cdninstagram.com/t51.2885-15/e35/12934900_1767705543460422_1303575622_n.jpg?ig_cache_key=MTIyNTI4ODQwMDIwNTczNjU3OA%3D%3D.2,woman,0.989764452,"Fashion & Beauty","My life",,,"My look",Selfie,,
,portrait,0.965428412,,,,,,,,
,fashion,0.961608291,,,,,,,,
,people,0.960370183,,,,,,,,
,girl,0.95998764,,,,,,,,
,one,0.954480529,,,,,,,,
,adult,0.954229057,,,,,,,,
,young,0.946316838,,,,,,,,
,pretty,0.939047277,,,,,,,,
,brunette,0.925520062,,,,,,,,
,beautiful,0.924479604,,,,,,,,
,indoors,0.91849494,,,,,,,,
,model,0.918325663,,,,,,,,
,glamour,0.904258609,,,,,,,,
,cute,0.899870276,,,,,,,,
,sexy,0.89937675,,,,,,,,
,wear,0.890171587,,,,,,,,
,hair,0.878564835,,,,,,,,
,attractive,0.876921892,,,,,,,,
,elegant,0.874059737,,,,,,,,
https://scontent.cdninstagram.com/l/t51.2885-15/e35/12960194_1682635698653461_1107782784_n.jpg?ig_cache_key=MTIyNTI4NDY2Mjk1NTA0MzM0NA%3D%3D.2,fashion,0.993924022,Relationships,,,,"Best friends",,,
,woman,0.989905715,,,,,,,,
,girl,0.9829005,,,,,,,,
,portrait,0.972197294,,,,,,,,
,love,0.961979628,,,,,,,,
,glamour,0.961513996,,,,,,,,
,model,0.950493336,,,,,,,,
,beautiful,0.944998741,,,,,,,,
,sexy,0.932320118,,,,,,,,
,people,0.930458784,,,,,,,,
,pretty,0.926699877,,,,,,,,
,fun,0.920487285,,,,,,,,
,young,0.918313503,,,,,,,,
,style,0.914936185,,,,,,,,
,cute,0.897758842,,,,,,,,
,lips,0.88910234,,,,,,,,
,sunglasses,0.880512714,,,,,,,,
,eye,0.877249002,,,,,,,,
,studio,0.871270418,,,,,,,,
,romance,0.864232183,,,,,,,,
https://scontent.cdninstagram.com/t51.2885-15/e35/12950344_255628554778656_507292178_n.jpg?ig_cache_key=MTIyMzY3Mzc1NjUyNTQ4ODk0Mg%3D%3D.2,woman,0.992510676,Relationships,,,,"Best friends",,,
,fashion,0.98129189,,,,,,,,
,people,0.977063417,,,,,,,,
,girl,0.969947994,,,,,,,,
,fun,0.959377766,,,,,,,,
,young,0.954537153,,,,,,,,
,adult,0.95021075,,,,,,,,
,portrait,0.945438981,,,,,,,,
,cute,0.937103033,,,,,,,,
,pretty,0.930146813,,,,,,,,
,beautiful,0.926843643,,,,,,,,
,indoors,0.92353642,,,,,,,,
,sunglasses,0.922602713,,,,,,,,
,lifestyle,0.916404486,,,,,,,,
,hairdo,0.915353537,,,,,,,,
,glamour,0.90938282,,,,,,,,
,two,0.901577592,,,,,,,,
,face,0.891808867,,,,,,,,
,casual,0.888522148,,,,,,,,
,love,0.884179711,,,,,,,,
https://scontent.cdninstagram.com/t51.2885-15/e35/13126734_944717168972979_1755266408_n.jpg?ig_cache_key=MTI0MjcxODQxMDU0MTU5MDk1MA%3D%3D.2,light,0.982546687,"Fashion & Beauty",,,,"My look",,,
,tube,0.965466022,,,,,,,,
,business,0.95731914,,,,,,,,
,music,0.926571369,,,,,,,,
,performance,0.916454077,,,,,,,,
,city,0.915781736,,,,,,,,
,people,0.914769888,,,,,,,,
,motion,0.911244988,,,,,,,,
,building,0.900662839,,,,,,,,
,tunnel,0.896028042,,,,,,,,
,exhibition,0.894808114,,,,,,,,
,travel,0.887583256,,,,,,,,
,airport,0.886943221,,,,,,,,
,reflection,0.85525775,,,,,,,,
,"transportation system",0.833501577,,,,,,,,
,concert,0.826518655,,,,,,,,
,street,0.822201133,,,,,,,,
,art,0.816315114,,,,,,,,
,industry,0.815690637,,,,,,,,
,technology,0.814644098,,,,,,,,
https://scontent.cdninstagram.com/t51.2885-15/s750x750/sh0.08/e35/10953668_1694251927494987_154828346_n.jpg?ig_cache_key=MTIxMDc2ODA2ODAyNzU3NTE5Nw%3D%3D.2,togetherness,0.989958227,Relationships,,,,"Best friends",,,
,love,0.988996625,,,,,,,,
,woman,0.97955358,,,,,,,,
,embrace,0.977582097,,,,,,,,
,people,0.973714292,,,,,,,,
,affection,0.970265269,,,,,,,,
,family,0.968920112,,,,,,,,
,two,0.964806318,,,,,,,,
,child,0.955112576,,,,,,,,
,fun,0.954605699,,,,,,,,
,man,0.952238917,,,,,,,,
,happiness,0.933902979,,,,,,,,
,interaction,0.926253676,,,,,,,,
,joy,0.924374998,,,,,,,,
,friendship,0.924305201,,,,,,,,
,"facial expression",0.920712709,,,,,,,,
,laughing,0.916917205,,,,,,,,
,romance,0.915997982,,,,,,,,
,portrait,0.914925456,,,,,,,,
,indoors,0.896922171,,,,,,,,
https://scontent.cdninstagram.com/t51.2885-15/e35/12825927_1027957083909865_1060234836_n.jpg?ig_cache_key=MTE5OTczMzk4MTE1NDMzOTA2Nw%3D%3D.2,woman,0.993809998,Relationships,,,,"Best friends",,,
,fashion,0.990816295,,,,,,,,
,girl,0.966560841,,,,,,,,
,glamour,0.953754306,,,,,,,,
,portrait,0.95044744,,,,,,,,
,model,0.941317558,,,,,,,,
,love,0.930375457,,,,,,,,
,sexy,0.9285146,,,,,,,,
,people,0.926306367,,,,,,,,
,pretty,0.920192122,,,,,,,,
,adolescent,0.911556721,,,,,,,,
,fun,0.905529737,,,,,,,,
,friendship,0.890010536,,,,,,,,
,cute,0.880039036,,,,,,,,
,brunette,0.87620759,,,,,,,,
,lips,0.869120955,,,,,,,,
,joy,0.850711107,,,,,,,,
,eye,0.840872109,,,,,,,,
,two,0.832291603,,,,,,,,
,beautiful,0.807036936,,,,,,,,
https://scontent.cdninstagram.com/t51.2885-15/e35/12950344_255628554778656_507292178_n.jpg?ig_cache_key=MTIyMzY3Mzc1NjUyNTQ4ODk0Mg%3D%3D.2,woman,0.992510676,Relationships,,,,"Best friends",,,
,fashion,0.98129189,,,,,,,,
,people,0.977063417,,,,,,,,
,girl,0.969947994,,,,,,,,
,fun,0.959377766,,,,,,,,
,young,0.954537153,,,,,,,,
,adult,0.95021075,,,,,,,,
,portrait,0.945438981,,,,,,,,
,cute,0.937103033,,,,,,,,
,pretty,0.930146813,,,,,,,,
,beautiful,0.926843643,,,,,,,,
,indoors,0.92353642,,,,,,,,
,sunglasses,0.922602713,,,,,,,,
,lifestyle,0.916404486,,,,,,,,
,hairdo,0.915353537,,,,,,,,
,glamour,0.90938282,,,,,,,,
,two,0.901577592,,,,,,,,
,face,0.891808867,,,,,,,,
,casual,0.888522148,,,,,,,,
,love,0.884179711,,,,,,,,
https://scontent.cdninstagram.com/t51.2885-15/e35/12825772_463904600472497_1153687781_n.jpg?ig_cache_key=MTE5ODk4Njc3MjQ1NjYzMDYxMw%3D%3D.2,woman,0.98490417,Celebrations,Relationships,,,"Personal Events",Friends,,
,people,0.967962384,,,,,,,,
,adult,0.948795974,,,,,,,,
,girl,0.939930677,,,,,,,,
,indoors,0.912291586,,,,,,,,
,man,0.9102211,,,,,,,,
,wedding,0.893811345,,,,,,,,
,love,0.867110193,,,,,,,,
,business,0.850919902,,,,,,,,
,happiness,0.831962228,,,,,,,,
,portrait,0.828676999,,,,,,,,
,togetherness,0.811104178,,,,,,,,
,food,0.810611606,,,,,,,,
,wear,0.807176292,,,,,,,,
,child,0.798311353,,,,,,,,
,veil,0.797065794,,,,,,,,
,fun,0.771691918,,,,,,,,
,family,0.769560695,,,,,,,,
,room,0.76355803,,,,,,,,
,young,0.757243872,,,,,,,,
https://scontent.cdninstagram.com/t51.2885-15/e35/13117761_275765046090106_501899178_n.jpg?ig_cache_key=MTI0NTM4OTAyODg5MDIwODkzMQ%3D%3D.2,family,0.976045072,Relationships,Celebrations,,,Friends,"Personal Events",,
,people,0.974695921,,,,,,,,
,woman,0.974435449,,,,,,,,
,adult,0.971367121,,,,,,,,
,group,0.962273836,,,,,,,,
,happiness,0.95724982,,,,,,,,
,offspring,0.947033107,,,,,,,,
,portrait,0.939771891,,,,,,,,
,"facial expression",0.939238787,,,,,,,,
,togetherness,0.93774581,,,,,,,,
,love,0.934051871,,,,,,,,
,wear,0.929691732,,,,,,,,
,man,0.929175258,,,,,,,,
,child,0.924000204,,,,,,,,
,girl,0.90962863,,,,,,,,
,room,0.902965665,,,,,,,,
,two,0.897974491,,,,,,,,
,three,0.897677183,,,,,,,,
,lifestyle,0.888635874,,,,,,,,
,boy,0.87841022,,,,,,,,
https://scontent.cdninstagram.com/t51.2885-15/e35/12328517_1581559378825057_349037541_n.jpg?ig_cache_key=MTIyMzg2NjMwODQ5MDkxNDI1NA%3D%3D.2,woman,0.984834492,"Fashion & Beauty",,,,"My look",,,
,portrait,0.983914852,,,,,,,,
,girl,0.976457953,,,,,,,,
,one,0.976074278,,,,,,,,
,child,0.946631074,,,,,,,,
,people,0.94301939,,,,,,,,
,fashion,0.937823772,,,,,,,,
,fun,0.933796525,,,,,,,,
,cute,0.921680868,,,,,,,,
,wear,0.912420869,,,,,,,,
,young,0.907209516,,,,,,,,
,pretty,0.890868306,,,,,,,,
,adolescent,0.885485768,,,,,,,,
,"facial expression",0.880042017,,,,,,,,
,joy,0.876596928,,,,,,,,
,summer,0.875308275,,,,,,,,
,adult,0.874859214,,,,,,,,
,eye,0.86479789,,,,,,,,
,looking,0.860479236,,,,,,,,
,casual,0.855894804,,,,,,,,
https://scontent.cdninstagram.com/t51.2885-15/s750x750/sh0.08/e35/13129400_1625300744461277_1856753807_n.jpg?ig_cache_key=MTI0NjExNjg2ODY4NjMxMDM3Nw%3D%3D.2,adult,0.982863188,Relationships,Celebrations,Food,,"Best friends","Personal Events",Dessert,
,people,0.982482791,,,,,,,,
,woman,0.97773236,,,,,,,,
,family,0.974871397,,,,,,,,
,two,0.973825872,,,,,,,,
,room,0.967341304,,,,,,,,
,indoors,0.962820649,,,,,,,,
,happiness,0.955884218,,,,,,,,
,man,0.955742121,,,,,,,,
,wear,0.945159972,,,,,,,,
,house,0.93765831,,,,,,,,
,furniture,0.936097085,,,,,,,,
,"facial expression",0.929610312,,,,,,,,
,portrait,0.905711889,,,,,,,,
,wedding,0.899432063,,,,,,,,
,love,0.881873488,,,,,,,,
,lifestyle,0.85406965,,,,,,,,
,home,0.83317852,,,,,,,,
,box,0.816002846,,,,,,,,
,stock,0.811086655,,,,,,,,
https://scontent.cdninstagram.com/t51.2885-15/e35/10362068_969424319806826_1616729400_n.jpg?ig_cache_key=MTE5OTk0NjU0MDc3MTkyODMzMQ%3D%3D.2,woman,0.993237734,"Fashion & Beauty",,,,Ootd,,,
,fashion,0.984546065,,,,,,,,
,portrait,0.972677112,,,,,,,,
,cute,0.961355925,,,,,,,,
,girl,0.95682615,,,,,,,,
,pretty,0.955897093,,,,,,,,
,one,0.943107367,,,,,,,,
,wear,0.936133146,,,,,,,,
,model,0.93443048,,,,,,,,
,glamour,0.92368114,,,,,,,,
,young,0.899418473,,,,,,,,
,adult,0.895608127,,,,,,,,
,dress,0.887740016,,,,,,,,
,looking,0.880926073,,,,,,,,
,sexy,0.871969223,,,,,,,,
,studio,0.855029225,,,,,,,,
,brunette,0.84667927,,,,,,,,
,hair,0.834142089,,,,,,,,
,people,0.828397512,,,,,,,,
,joy,0.816318154,,,,,,,,
https://scontent.cdninstagram.com/l/t51.2885-15/e35/12960194_1682635698653461_1107782784_n.jpg?ig_cache_key=MTIyNTI4NDY2Mjk1NTA0MzM0NA%3D%3D.2,fashion,0.993924022,Relationships,,,,"Best friends",,,
,woman,0.989905715,,,,,,,,
,girl,0.9829005,,,,,,,,
,portrait,0.972197294,,,,,,,,
,love,0.961979628,,,,,,,,
,glamour,0.961513996,,,,,,,,
,model,0.950493336,,,,,,,,
,beautiful,0.944998741,,,,,,,,
,sexy,0.932320118,,,,,,,,
,people,0.930458784,,,,,,,,
,pretty,0.926699877,,,,,,,,
,fun,0.920487285,,,,,,,,
,young,0.918313503,,,,,,,,
,style,0.914936185,,,,,,,,
,cute,0.897758842,,,,,,,,
,lips,0.88910234,,,,,,,,
,sunglasses,0.880512714,,,,,,,,
,eye,0.877249002,,,,,,,,
,studio,0.871270418,,,,,,,,
,romance,0.864232183,,,,,,,,
https://scontent.cdninstagram.com/t51.2885-15/e35/12383252_618007555016159_127555618_n.jpg?ig_cache_key=MTIxODA0MzIzNTMwMDc2Mzk5Ng%3D%3D.2,woman,0.995113552,Relationships,,,,"Best friends",,,
,wear,0.994406819,,,,,,,,
,fashion,0.980483174,,,,,,,,
,two,0.96381557,,,,,,,,
,adult,0.956116736,,,,,,,,
,people,0.953397632,,,,,,,,
,portrait,0.926817119,,,,,,,,
,dress,0.890792191,,,,,,,,
,fashionable,0.884858906,,,,,,,,
,togetherness,0.861312926,,,,,,,,
,love,0.858338535,,,,,,,,
,"facial expression",0.856914282,,,,,,,,
,looking,0.856718183,,,,,,,,
,glamour,0.851086617,,,,,,,,
,indoors,0.848188818,,,,,,,,
,contemporary,0.835016131,,,,,,,,
,model,0.819247723,,,,,,,,
,happiness,0.818286777,,,,,,,,
,girl,0.809727907,,,,,,,,
,friendship,0.808516979,,,,,,,,
https://scontent.cdninstagram.com/t51.2885-15/e35/13408690_277473592642793_1897358848_n.jpg?ig_cache_key=MTI3MzE3NjYyMDE2MzM2MTY4NQ%3D%3D.2,woman,0.994789779,"Fashion & Beauty",,,,"My look",,,
,girl,0.97946322,,,,,,,,
,portrait,0.965218544,,,,,,,,
,people,0.953809619,,,,,,,,
,fashion,0.935127735,,,,,,,,
,pretty,0.919413269,,,,,,,,
,cute,0.915027618,,,,,,,,
,one,0.913505077,,,,,,,,
,model,0.895808578,,,,,,,,
,young,0.889837563,,,,,,,,
,brunette,0.889130831,,,,,,,,
,sexy,0.887160361,,,,,,,,
,adult,0.88257277,,,,,,,,
,adolescent,0.847758472,,,,,,,,
,"facial expression",0.839521348,,,,,,,,
,studio,0.835483611,,,,,,,,
,glamour,0.833817482,,,,,,,,
,face,0.831443071,,,,,,,,
,looking,0.817942321,,,,,,,,
,eye,0.81474179,,,,,,,,
https://scontent.cdninstagram.com/t51.2885-15/s750x750/sh0.08/e35/10953668_1694251927494987_154828346_n.jpg?ig_cache_key=MTIxMDc2ODA2ODAyNzU3NTE5Nw%3D%3D.2,togetherness,0.989958227,Relationships,,,,"Best friends",,,
,love,0.988996625,,,,,,,,
,woman,0.97955358,,,,,,,,
,embrace,0.977582097,,,,,,,,
,people,0.973714292,,,,,,,,
,affection,0.970265269,,,,,,,,
,family,0.968920112,,,,,,,,
,two,0.964806318,,,,,,,,
,child,0.955112576,,,,,,,,
,fun,0.954605699,,,,,,,,
,man,0.952238917,,,,,,,,
,happiness,0.933902979,,,,,,,,
,interaction,0.926253676,,,,,,,,
,joy,0.924374998,,,,,,,,
,friendship,0.924305201,,,,,,,,
,"facial expression",0.920712709,,,,,,,,
,laughing,0.916917205,,,,,,,,
,romance,0.915997982,,,,,,,,
,portrait,0.914925456,,,,,,,,
,indoors,0.896922171,,,,,,,,
https://scontent.cdninstagram.com/t51.2885-15/e35/12383252_618007555016159_127555618_n.jpg?ig_cache_key=MTIxODA0MzIzNTMwMDc2Mzk5Ng%3D%3D.2,woman,0.995113552,Relationships,,,,"Best friends",,,
,wear,0.994406819,,,,,,,,
,fashion,0.980483174,,,,,,,,
,two,0.96381557,,,,,,,,
,adult,0.956116736,,,,,,,,
,people,0.953397632,,,,,,,,
,portrait,0.926817119,,,,,,,,
,dress,0.890792191,,,,,,,,
,fashionable,0.884858906,,,,,,,,
,togetherness,0.861312926,,,,,,,,
,love,0.858338535,,,,,,,,
,"facial expression",0.856914282,,,,,,,,
,looking,0.856718183,,,,,,,,
,glamour,0.851086617,,,,,,,,
,indoors,0.848188818,,,,,,,,
,contemporary,0.835016131,,,,,,,,
,model,0.819247723,,,,,,,,
,happiness,0.818286777,,,,,,,,
,girl,0.809727907,,,,,,,,
,friendship,0.808516979,,,,,,,,
https://scontent.cdninstagram.com/t51.2885-15/e35/13092316_1134310906627673_1748518529_n.jpg?ig_cache_key=MTI0NjExNDQxMzM3NDMwMzEzNQ%3D%3D.2,woman,0.9846946,Culture,Entertainment,"Fashion & Beauty",,Culture-s,Events,"My look",
,people,0.983166337,,,,,,,,
,girl,0.964687586,,,,,,,,
,adult,0.964235246,,,,,,,,
,indoors,0.953530014,,,,,,,,
,happiness,0.924141586,,,,,,,,
,room,0.915133953,,,,,,,,
,sit,0.912229896,,,,,,,,
,coffee,0.907936454,,,,,,,,
,education,0.904652953,,,,,,,,
,enjoyment,0.881596327,,,,,,,,
,family,0.880494654,,,,,,,,
,telephone,0.878428996,,,,,,,,
,portrait,0.877577424,,,,,,,,
,lifestyle,0.876018286,,,,,,,,
,wear,0.870495319,,,,,,,,
,shopping,0.852111459,,,,,,,,
,fun,0.847076297,,,,,,,,
,drink,0.842630267,,,,,,,,
,tea,0.840509415,,,,,,,,
https://scontent.cdninstagram.com/t51.2885-15/e35/12825772_463904600472497_1153687781_n.jpg?ig_cache_key=MTE5ODk4Njc3MjQ1NjYzMDYxMw%3D%3D.2,woman,0.98490417,Celebrations,Relationships,,,"Personal Events",Friends,,
,people,0.967962384,,,,,,,,
,adult,0.948795974,,,,,,,,
,girl,0.939930677,,,,,,,,
,indoors,0.912291586,,,,,,,,
,man,0.9102211,,,,,,,,
,wedding,0.893811345,,,,,,,,
,love,0.867110193,,,,,,,,
,business,0.850919902,,,,,,,,
,happiness,0.831962228,,,,,,,,
,portrait,0.828676999,,,,,,,,
,togetherness,0.811104178,,,,,,,,
,food,0.810611606,,,,,,,,
,wear,0.807176292,,,,,,,,
,child,0.798311353,,,,,,,,
,veil,0.797065794,,,,,,,,
,fun,0.771691918,,,,,,,,
,family,0.769560695,,,,,,,,
,room,0.76355803,,,,,,,,
,young,0.757243872,,,,,,,,
https://scontent.cdninstagram.com/t51.2885-15/e35/13129982_1062336123825451_1005963091_n.jpg?ig_cache_key=MTI0MDU0MjUyNDE2NTgxMTA0OQ%3D%3D.2,car,0.9972651,"Fashion & Beauty","My life",,,"My look",Selfie,,
,woman,0.996193171,,,,,,,,
,beautiful,0.980732203,,,,,,,,
,girl,0.979489863,,,,,,,,
,pretty,0.975132585,,,,,,,,
,vehicle,0.97486192,,,,,,,,
,people,0.970515609,,,,,,,,
,portrait,0.970506489,,,,,,,,
,driver,0.970241308,,,,,,,,
,indoors,0.968554378,,,,,,,,
,young,0.965228736,,,,,,,,
,adult,0.964644611,,,,,,,,
,outdoors,0.961096883,,,,,,,,
,one,0.958947897,,,,,,,,
,travel,0.958802044,,,,,,,,
,leisure,0.958448887,,,,,,,,
,"transportation system",0.949879169,,,,,,,,
,travel,0.941157818,,,,,,,,
,casual,0.940996468,,,,,,,,
,cute,0.933223963,,,,,,,,
https://scontent.cdninstagram.com/t51.2885-15/e35/12934854_807078686092052_1241088959_n.jpg?ig_cache_key=MTIyNTAzOTIyODQ0OTgxMTMwNA%3D%3D.2,food,0.997304082,,Food,,,,"Meal time",,
,"no person",0.992707729,,,,,,,,
,meal,0.984123945,,,,,,,,
,traditional,0.975749969,,,,,,,,
,lunch,0.974456668,,,,,,,,
,dinner,0.966105461,,,,,,,,
,hot,0.96552515,,,,,,,,
,delicious,0.963962793,,,,,,,,
,table,0.960390329,,,,,,,,
,cooking,0.957636654,,,,,,,,
,restaurant,0.952645898,,,,,,,,
,bowl,0.949657023,,,,,,,,
,breakfast,0.947932839,,,,,,,,
,dish,0.943290353,,,,,,,,
,cuisine,0.935178161,,,,,,,,
,health,0.935165048,,,,,,,,
,plate,0.931215763,,,,,,,,
,nutrition,0.923716128,,,,,,,,
,healthy,0.917372823,,,,,,,,
,dining,0.917066157,,,,,,,,
https://scontent.cdninstagram.com/t51.2885-15/e35/10362068_969424319806826_1616729400_n.jpg?ig_cache_key=MTE5OTk0NjU0MDc3MTkyODMzMQ%3D%3D.2,woman,0.993237734,"Fashion & Beauty",,,,Ootd,,,
,fashion,0.984546065,,,,,,,,
,portrait,0.972677112,,,,,,,,
,cute,0.961355925,,,,,,,,
,girl,0.95682615,,,,,,,,
,pretty,0.955897093,,,,,,,,
,one,0.943107367,,,,,,,,
,wear,0.936133146,,,,,,,,
,model,0.93443048,,,,,,,,
,glamour,0.92368114,,,,,,,,
,young,0.899418473,,,,,,,,
,adult,0.895608127,,,,,,,,
,dress,0.887740016,,,,,,,,
,looking,0.880926073,,,,,,,,
,sexy,0.871969223,,,,,,,,
,studio,0.855029225,,,,,,,,
,brunette,0.84667927,,,,,,,,
,hair,0.834142089,,,,,,,,
,people,0.828397512,,,,,,,,
,joy,0.816318154,,,,,,,,
https://scontent.cdninstagram.com/t51.2885-15/s750x750/sh0.08/e35/12317490_160669040961428_1544841396_n.jpg?ig_cache_key=MTE0NDExMzgzODUyMTI4MDk1MA%3D%3D.2,woman,0.989873469,Relationships,,,,"Best friends",,,
,people,0.969879389,,,,,,,,
,portrait,0.962455094,,,,,,,,
,shopping,0.952495277,,,,,,,,
,girl,0.932958007,,,,,,,,
,happiness,0.928162932,,,,,,,,
,fashion,0.92439568,,,,,,,,
,indoors,0.922807574,,,,,,,,
,adolescent,0.91987431,,,,,,,,
,adult,0.905863166,,,,,,,,
,wear,0.899828911,,,,,,,,
,stock,0.898165941,,,,,,,,
,"facial expression",0.89561516,,,,,,,,
,fun,0.88396883,,,,,,,,
,enjoyment,0.878150821,,,,,,,,
,pretty,0.877104282,,,,,,,,
,joy,0.870242476,,,,,,,,
,cute,0.862155139,,,,,,,,
,brunette,0.845417619,,,,,,,,
,togetherness,0.841947198,,,,,,,,
https://scontent.cdninstagram.com/t51.2885-15/e35/12976550_788476117921309_59922961_n.jpg?ig_cache_key=MTI0MDQ0OTQzNDEzODY2Nzk1NA%3D%3D.2,people,0.980993152,Culture,Relationships,,,Culture-s,Family,,
,group,0.98062706,,,,,,,,
,woman,0.96752882,,,,,,,,
,wear,0.966791034,,,,,,,,
,portrait,0.95248425,,,,,,,,
,celebration,0.944821,,,,,,,,
,child,0.941656828,,,,,,,,
,family,0.941221952,,,,,,,,
,costume,0.935280323,,,,,,,,
,adult,0.927847803,,,,,,,,
,festival,0.920773089,,,,,,,,
,dress,0.918138504,,,,,,,,
,religion,0.911807775,,,,,,,,
,girl,0.909671426,,,,,,,,
,princess,0.902886748,,,,,,,,
,ceremony,0.901616812,,,,,,,,
,traditional,0.892880201,,,,,,,,
,wedding,0.863391399,,,,,,,,
,veil,0.850592732,,,,,,,,
,man,0.849308431,,,,,,,,
https://scontent.cdninstagram.com/t51.2885-15/s750x750/sh0.08/e35/12783280_236479400026437_760423180_n.jpg?ig_cache_key=MTIwMjg0MDEyNTM2MDAwNzYwNA%3D%3D.2,woman,0.995480299,Relationships,,,,"Best friends",,,
,wear,0.988466263,,,,,,,,
,fashion,0.975851655,,,,,,,,
,portrait,0.963271439,,,,,,,,
,one,0.949466348,,,,,,,,
,adult,0.949168444,,,,,,,,
,"facial expression",0.930120707,,,,,,,,
,adolescent,0.930101871,,,,,,,,
,cute,0.895966172,,,,,,,,
,trendy,0.881330073,,,,,,,,
,pretty,0.86816746,,,,,,,,
,people,0.865263343,,,,,,,,
,girl,0.851720095,,,,,,,,
,looking,0.850440323,,,,,,,,
,footwear,0.847781837,,,,,,,,
,glamour,0.847283483,,,,,,,,
,model,0.841513693,,,,,,,,
,joy,0.837673187,,,,,,,,
,happiness,0.828681827,,,,,,,,
,contemporary,0.789252222,,,,,,,,
https://scontent.cdninstagram.com/t51.2885-15/s750x750/sh0.08/e35/12917837_1782596621974893_233780544_n.jpg?ig_cache_key=MTIzNTUxODcxMzU0NDUzNDA2MA%3D%3D.2,woman,0.989143133,Relationships,,,,"Best friends",,,
,portrait,0.980583668,,,,,,,,
,people,0.979371667,,,,,,,,
,two,0.976652861,,,,,,,,
,"facial expression",0.967700422,,,,,,,,
,love,0.965255022,,,,,,,,
,togetherness,0.960814953,,,,,,,,
,girl,0.944275498,,,,,,,,
,man,0.930363059,,,,,,,,
,wear,0.929987848,,,,,,,,
,adult,0.92938602,,,,,,,,
,fashion,0.925946116,,,,,,,,
,fun,0.902243197,,,,,,,,
,affection,0.892564118,,,,,,,,
,three,0.892350316,,,,,,,,
,happiness,0.884434462,,,,,,,,
,friendship,0.877477944,,,,,,,,
,family,0.855976939,,,,,,,,
,model,0.854199529,,,,,,,,
,joy,0.842595339,,,,,,,,
https://scontent.cdninstagram.com/t51.2885-15/e35/13092316_1134310906627673_1748518529_n.jpg?ig_cache_key=MTI0NjExNDQxMzM3NDMwMzEzNQ%3D%3D.2,woman,0.9846946,Culture,Entertainment,"Fashion & Beauty",,Culture-s,Events,"My look",
,people,0.983166337,,,,,,,,
,girl,0.964687586,,,,,,,,
,adult,0.964235246,,,,,,,,
,indoors,0.953530014,,,,,,,,
,happiness,0.924141586,,,,,,,,
,room,0.915133953,,,,,,,,
,sit,0.912229896,,,,,,,,
,coffee,0.907936454,,,,,,,,
,education,0.904652953,,,,,,,,
,enjoyment,0.881596327,,,,,,,,
,family,0.880494654,,,,,,,,
,telephone,0.878428996,,,,,,,,
,portrait,0.877577424,,,,,,,,
,lifestyle,0.876018286,,,,,,,,
,wear,0.870495319,,,,,,,,
,shopping,0.852111459,,,,,,,,
,fun,0.847076297,,,,,,,,
,drink,0.842630267,,,,,,,,
,tea,0.840509415,,,,,,,,
https://scontent.cdninstagram.com/t51.2885-15/e35/12383695_1056257941114598_77293479_n.jpg?ig_cache_key=MTIxODU2NTcyMTE2NzcxODk1MA%3D%3D.2,woman,0.982469022,Relationships,Food,,,"Best friends",Dessert,,
,indoors,0.97740376,,,,,,,,
,food,0.947713315,,,,,,,,
,meal,0.932644367,,,,,,,,
,family,0.91364193,,,,,,,,
,lifestyle,0.913140774,,,,,,,,
,enjoyment,0.902026296,,,,,,,,
,hungry,0.897592843,,,,,,,,
,adult,0.892903447,,,,,,,,
,people,0.889431715,,,,,,,,
,child,0.868679166,,,,,,,,
,table,0.865201473,,,,,,,,
,lunch,0.862752318,,,,,,,,
,breakfast,0.859833002,,,,,,,,
,cute,0.85126555,,,,,,,,
,young,0.842472672,,,,,,,,
,girl,0.837562263,,,,,,,,
,happiness,0.81020689,,,,,,,,
,cooking,0.809508801,,,,,,,,
,room,0.801265717,,,,,,,,
https://scontent.cdninstagram.com/t51.2885-15/e35/13413356_1143493335702305_368109415_n.jpg?ig_cache_key=MTI3ODI4MjE4MDgwNjI3MzIzNg%3D%3D.2,people,0.993608117,Relationships,,,,"Best friends",,,
,adult,0.992630601,,,,,,,,
,two,0.985174179,,,,,,,,
,portrait,0.983443975,,,,,,,,
,wear,0.983374715,,,,,,,,
,one,0.977805376,,,,,,,,
,indoors,0.97504735,,,,,,,,
,man,0.96766609,,,,,,,,
,woman,0.954058647,,,,,,,,
,competition,0.948893428,,,,,,,,
,"facial expression",0.94236362,,,,,,,,
,rope,0.934429169,,,,,,,,
,recreation,0.914225638,,,,,,,,
,music,0.86131227,,,,,,,,
,musician,0.839163363,,,,,,,,
,athlete,0.820548892,,,,,,,,
,gloves,0.795622349,,,,,,,,
,singer,0.780245543,,,,,,,,
,festival,0.76897037,,,,,,,,
,pants,0.766037643,,,,,,,,
https://scontent.cdninstagram.com/t51.2885-15/e35/12934900_1767705543460422_1303575622_n.jpg?ig_cache_key=MTIyNTI4ODQwMDIwNTczNjU3OA%3D%3D.2,woman,0.989764452,"Fashion & Beauty","My life",,,"My look",Selfie,,
,portrait,0.965428412,,,,,,,,
,fashion,0.961608291,,,,,,,,
,people,0.960370183,,,,,,,,
,girl,0.95998764,,,,,,,,
,one,0.954480529,,,,,,,,
,adult,0.954229057,,,,,,,,
,young,0.946316838,,,,,,,,
,pretty,0.939047277,,,,,,,,
,brunette,0.925520062,,,,,,,,
,beautiful,0.924479604,,,,,,,,
,indoors,0.91849494,,,,,,,,
,model,0.918325663,,,,,,,,
,glamour,0.904258609,,,,,,,,
,cute,0.899870276,,,,,,,,
,sexy,0.89937675,,,,,,,,
,wear,0.890171587,,,,,,,,
,hair,0.878564835,,,,,,,,
,attractive,0.876921892,,,,,,,,
,elegant,0.874059737,,,,,,,,
https://scontent.cdninstagram.com/t51.2885-15/e35/12357297_1042437335817359_401744200_n.jpg?ig_cache_key=MTE0NDY4MDgwMDYzNjg1NjY3NQ%3D%3D.2,woman,0.98765707,Relationships,,,,"Best friends",,,
,girl,0.97059679,,,,,,,,
,portrait,0.963154733,,,,,,,,
,fashion,0.946380377,,,,,,,,
,model,0.940784335,,,,,,,,
,beautiful,0.936123729,,,,,,,,
,brunette,0.919923246,,,,,,,,
,cute,0.906579971,,,,,,,,
,young,0.904319763,,,,,,,,
,people,0.89159584,,,,,,,,
,family,0.881513536,,,,,,,,
,pretty,0.878856003,,,,,,,,
,studio,0.865609288,,,,,,,,
,face,0.862450123,,,,,,,,
,adult,0.853603005,,,,,,,,
,friendship,0.851524711,,,,,,,,
,lifestyle,0.842705131,,,,,,,,
,adolescent,0.838735223,,,,,,,,
,fun,0.838081241,,,,,,,,
,lady,0.832720399,,,,,,,,
https://scontent.cdninstagram.com/t51.2885-15/e35/13423584_253115841710973_2098339924_n.jpg?ig_cache_key=MTI2ODgxMTQ2NDA2NzIxMzcxMg%3D%3D.2,group,0.985120118,Relationships,,,,Friends,,,
,adult,0.972729206,,,,,,,,
,man,0.971534133,,,,,,,,
,people,0.966861963,,,,,,,,
,woman,0.964855611,,,,,,,,
,"facial expression",0.954381049,,,,,,,,
,wear,0.94315213,,,,,,,,
,school,0.942287028,,,,,,,,
,education,0.939543009,,,,,,,,
,group,0.935846329,,,,,,,,
,enjoyment,0.9196257,,,,,,,,
,room,0.918368101,,,,,,,,
,portrait,0.915710926,,,,,,,,
,university,0.906514049,,,,,,,,
,friendship,0.894735813,,,,,,,,
,furniture,0.894121408,,,,,,,,
,indoors,0.890210748,,,,,,,,
,seat,0.887550414,,,,,,,,
,happiness,0.862221062,,,,,,,,
,child,0.858360052,,,,,,,,
https://scontent.cdninstagram.com/t51.2885-15/e35/13166967_1790118391224718_462136016_n.jpg?ig_cache_key=MTI0NjMyMTMzNjU3NzEyNDk1MA%3D%3D.2,love,0.990930676,Relationships,,,,"Best friends",,,
,togetherness,0.986395299,,,,,,,,
,man,0.977626204,,,,,,,,
,woman,0.977223575,,,,,,,,
,affection,0.97163415,,,,,,,,
,people,0.969967306,,,,,,,,
,two,0.966749191,,,,,,,,
,embrace,0.965964079,,,,,,,,
,portrait,0.958974242,,,,,,,,
,family,0.954592586,,,,,,,,
,"facial expression",0.953974366,,,,,,,,
,romance,0.947324634,,,,,,,,
,indoors,0.937584758,,,,,,,,
,interaction,0.933273554,,,,,,,,
,happiness,0.922213078,,,,,,,,
,friendship,0.91282773,,,,,,,,
,wear,0.907113194,,,,,,,,
,adult,0.890762985,,,,,,,,
,fun,0.887093186,,,,,,,,
,joy,0.879394889,,,,,,,,
https://scontent.cdninstagram.com/t51.2885-15/e35/12394020_545837598925984_182973553_n.jpg?ig_cache_key=MTE0Mzg2MzI4NjU1NDEyNzI1NQ%3D%3D.2,food,0.999109447,Food,,,,"Meal time",,,
,hot,0.994584918,,,,,,,,
,pasta,0.989809752,,,,,,,,
,cuisine,0.989262998,,,,,,,,
,meal,0.988750339,,,,,,,,
,chili,0.988175154,,,,,,,,
,delicious,0.987220585,,,,,,,,
,cooking,0.987215996,,,,,,,,
,noodles,0.987080097,,,,,,,,
,dinner,0.985599339,,,,,,,,
,traditional,0.984539866,,,,,,,,
,dish,0.980044186,,,,,,,,
,lunch,0.979916334,,,,,,,,
,vegetable,0.979291856,,,,,,,,
,restaurant,0.9791888,,,,,,,,
,sauce,0.978057325,,,,,,,,
,"no person",0.972169995,,,,,,,,
,plate,0.972113013,,,,,,,,
,epicure,0.971958876,,,,,,,,
,bowl,0.965979934,,,,,,,,
https://scontent.cdninstagram.com/t51.2885-15/s750x750/sh0.08/e35/13129400_1625300744461277_1856753807_n.jpg?ig_cache_key=MTI0NjExNjg2ODY4NjMxMDM3Nw%3D%3D.2,adult,0.982863188,Relationships,Celebrations,Food,,"Best friends","Personal Events",Dessert,
,people,0.982482791,,,,,,,,
,woman,0.97773236,,,,,,,,
,family,0.974871397,,,,,,,,
,two,0.973825872,,,,,,,,
,room,0.967341304,,,,,,,,
,indoors,0.962820649,,,,,,,,
,happiness,0.955884218,,,,,,,,
,man,0.955742121,,,,,,,,
,wear,0.945159972,,,,,,,,
,house,0.93765831,,,,,,,,
,furniture,0.936097085,,,,,,,,
,"facial expression",0.929610312,,,,,,,,
,portrait,0.905711889,,,,,,,,
,wedding,0.899432063,,,,,,,,
,love,0.881873488,,,,,,,,
,lifestyle,0.85406965,,,,,,,,
,home,0.83317852,,,,,,,,
,box,0.816002846,,,,,,,,
,stock,0.811086655,,,,,,,,
https://scontent.cdninstagram.com/t51.2885-15/e35/12357297_1042437335817359_401744200_n.jpg?ig_cache_key=MTE0NDY4MDgwMDYzNjg1NjY3NQ%3D%3D.2,woman,0.98765707,Relationships,,,,"Best friends",,,
,girl,0.97059679,,,,,,,,
,portrait,0.963154733,,,,,,,,
,fashion,0.946380377,,,,,,,,
,model,0.940784335,,,,,,,,
,beautiful,0.936123729,,,,,,,,
,brunette,0.919923246,,,,,,,,
,cute,0.906579971,,,,,,,,
,young,0.904319763,,,,,,,,
,people,0.89159584,,,,,,,,
,family,0.881513536,,,,,,,,
,pretty,0.878856003,,,,,,,,
,studio,0.865609288,,,,,,,,
,face,0.862450123,,,,,,,,
,adult,0.853603005,,,,,,,,
,friendship,0.851524711,,,,,,,,
,lifestyle,0.842705131,,,,,,,,
,adolescent,0.838735223,,,,,,,,
,fun,0.838081241,,,,,,,,
,lady,0.832720399,,,,,,,,
https://scontent.cdninstagram.com/t51.2885-15/e35/12357408_1675643959382979_2136174115_n.jpg?ig_cache_key=MTE0NjI4ODIzMTMzMDU3MjU1NQ%3D%3D.2,group,0.998800874,Relationships,,,,Friends,,,
,friendship,0.996412396,,,,,,,,
,woman,0.993403852,,,,,,,,
,people,0.991705179,,,,,,,,
,portrait,0.990877151,,,,,,,,
,laughing,0.98364687,,,,,,,,
,school,0.982339382,,,,,,,,
,beautiful,0.98061657,,,,,,,,
,girl,0.976757944,,,,,,,,
,child,0.976110578,,,,,,,,
,education,0.975327969,,,,,,,,
,smile,0.969889879,,,,,,,,
,three,0.961768925,,,,,,,,
,fun,0.961306036,,,,,,,,
,student,0.958957911,,,,,,,,
,four,0.957083046,,,,,,,,
,group,0.951938391,,,,,,,,
,youth,0.947003841,,,,,,,,
,many,0.945038319,,,,,,,,
,face,0.941739917,,,,,,,,
https://scontent.cdninstagram.com/t51.2885-15/e35/12940715_984112325006525_1192117025_n.jpg?ig_cache_key=MTIyNjgwNjU2OTU1ODgyOTE2OQ%3D%3D.2,food,0.998029828,Food,,,,"Meal time",,,
,meal,0.989899099,,,,,,,,
,cuisine,0.982235789,,,,,,,,
,cooking,0.979401648,,,,,,,,
,rice,0.976377606,,,,,,,,
,dinner,0.97605437,,,,,,,,
,dish,0.97509104,,,,,,,,
,vegetable,0.970764041,,,,,,,,
,spoon,0.969985187,,,,,,,,
,bowl,0.969132066,,,,,,,,
,healthy,0.968760967,,,,,,,,
,pepper,0.966076255,,,,,,,,
,epicure,0.95924902,,,,,,,,
,lunch,0.957635462,,,,,,,,
,cereal,0.949575424,,,,,,,,
,table,0.942021191,,,,,,,,
,hot,0.938918471,,,,,,,,
,plate,0.937932134,,,,,,,,
,traditional,0.935561538,,,,,,,,
,restaurant,0.931924641,,,,,,,,
https://scontent.cdninstagram.com/t51.2885-15/e35/13181325_512717605586622_1724822335_n.jpg?ig_cache_key=MTI1MjkxMTgxNDUwMDExNzM3NQ%3D%3D.2,city,0.995577753,Environment,Travel,,,"Manmade beauty",Travel-s,,
,travel,0.988526881,,,,,,,,
,cityscape,0.97107029,,,,,,,,
,street,0.967608452,,,,,,,,
,urban,0.966709971,,,,,,,,
,people,0.965796947,,,,,,,,
,downtown,0.963405371,,,,,,,,
,skyline,0.945892453,,,,,,,,
,building,0.944660425,,,,,,,,
,road,0.925640881,,,,,,,,
,architecture,0.918730915,,,,,,,,
,business,0.911606789,,,,,,,,
,skyscraper,0.9079597,,,,,,,,
,outdoors,0.897230148,,,,,,,,
,group,0.880609393,,,,,,,,
,water,0.880427361,,,,,,,,
,town,0.870267034,,,,,,,,
,vehicle,0.863098443,,,,,,,,
,adult,0.853684425,,,,,,,,
,aerial,0.851510048,,,,,,,,
https://scontent.cdninstagram.com/t51.2885-15/e35/13126741_1180790135278355_181832946_n.jpg?ig_cache_key=MTI0NDIzNzM4Mjc2ODM1NTM5Nw%3D%3D.2,woman,0.99158603,Relationships,Culture,,,"Best friends",Culture-s,,
,fashion,0.988516569,,,,,,,,
,girl,0.984052181,,,,,,,,
,beautiful,0.980468512,,,,,,,,
,pretty,0.976162195,,,,,,,,
,young,0.964801073,,,,,,,,
,cute,0.963850737,,,,,,,,
,portrait,0.958648145,,,,,,,,
,love,0.943554759,,,,,,,,
,sexy,0.936524391,,,,,,,,
,glamour,0.921086788,,,,,,,,
,model,0.918512821,,,,,,,,
,hair,0.917480946,,,,,,,,
,people,0.913233817,,,,,,,,
,brunette,0.894164801,,,,,,,,
,attractive,0.877348602,,,,,,,,
,face,0.865250587,,,,,,,,
,joy,0.864428282,,,,,,,,
,fun,0.859454691,,,,,,,,
,long,0.858698487,,,,,,,,
https://scontent.cdninstagram.com/t51.2885-15/e35/13129982_1062336123825451_1005963091_n.jpg?ig_cache_key=MTI0MDU0MjUyNDE2NTgxMTA0OQ%3D%3D.2,car,0.9972651,"Fashion & Beauty","My life",,,"My look",Selfie,,
,woman,0.996193171,,,,,,,,
,beautiful,0.980732203,,,,,,,,
,girl,0.979489863,,,,,,,,
,pretty,0.975132585,,,,,,,,
,vehicle,0.97486192,,,,,,,,
,people,0.970515609,,,,,,,,
,portrait,0.970506489,,,,,,,,
,driver,0.970241308,,,,,,,,
,indoors,0.968554378,,,,,,,,
,young,0.965228736,,,,,,,,
,adult,0.964644611,,,,,,,,
,outdoors,0.961096883,,,,,,,,
,one,0.958947897,,,,,,,,
,travel,0.958802044,,,,,,,,
,leisure,0.958448887,,,,,,,,
,"transportation system",0.949879169,,,,,,,,
,travel,0.941157818,,,,,,,,
,casual,0.940996468,,,,,,,,
,cute,0.933223963,,,,,,,,
https://scontent.cdninstagram.com/t51.2885-15/e35/13402350_1775368919364152_886464467_n.jpg?ig_cache_key=MTI2ODc1NDcxOTg3MzY1Nzc1NA%3D%3D.2,architecture,0.987632155,Environment,,,,"Manmade beauty",,,
,sky,0.987426877,,,,,,,,
,city,0.981712997,,,,,,,,
,building,0.980888844,,,,,,,,
,travel,0.976079106,,,,,,,,
,"no person",0.969930053,,,,,,,,
,sunset,0.953571022,,,,,,,,
,light,0.943122029,,,,,,,,
,museum,0.938605905,,,,,,,,
,outdoors,0.916597188,,,,,,,,
,water,0.916061401,,,,,,,,
,street,0.906787336,,,,,,,,
,urban,0.902660489,,,,,,,,
,modern,0.884466767,,,,,,,,
,house,0.86996305,,,,,,,,
,park,0.866612375,,,,,,,,
,dusk,0.864974558,,,,,,,,
,river,0.861736536,,,,,,,,
,evening,0.8589288,,,,,,,,
,construction,0.853454709,,,,,,,,
https://scontent.cdninstagram.com/t51.2885-15/e35/13126870_273777826301793_1528538706_n.jpg?ig_cache_key=MTI0NzgxMDM5NjM5NTEwNDg2Mw%3D%3D.2,woman,0.994053841,"Fashion & Beauty",,,,Ootd,,,
,adult,0.949622273,,,,,,,,
,wear,0.947249055,,,,,,,,
,people,0.937845647,,,,,,,,
,pretty,0.928274155,,,,,,,,
,one,0.92642808,,,,,,,,
,portrait,0.92137301,,,,,,,,
,fashion,0.908145189,,,,,,,,
,girl,0.901165962,,,,,,,,
,young,0.869709373,,,,,,,,
,indoors,0.859973311,,,,,,,,
,isolated,0.856771946,,,,,,,,
,contemporary,0.853168607,,,,,,,,
,looking,0.828792989,,,,,,,,
,business,0.818776965,,,,,,,,
,casual,0.818329215,,,,,,,,
,cute,0.799566984,,,,,,,,
,model,0.796618938,,,,,,,,
,elegant,0.757839978,,,,,,,,
,friendly,0.751450539,,,,,,,,
https://scontent.cdninstagram.com/t51.2885-15/e35/1599832_1533073420341108_1927238436_n.jpg?ig_cache_key=MTE0NDU3MDg5MjQxNTM2Mzc1OQ%3D%3D.2,food,0.992125869,Food,,,,"Meal time",,,
,bowl,0.975140035,,,,,,,,
,tea,0.972368479,,,,,,,,
,hot,0.966283977,,,,,,,,
,"no person",0.965478897,,,,,,,,
,cuisine,0.950126708,,,,,,,,
,traditional,0.949860692,,,,,,,,
,cooking,0.947991192,,,,,,,,
,plate,0.939400852,,,,,,,,
,wooden,0.939215779,,,,,,,,
,healthy,0.930774212,,,,,,,,
,wood,0.922356367,,,,,,,,
,epicure,0.919154167,,,,,,,,
,drink,0.917023003,,,,,,,,
,meal,0.916966915,,,,,,,,
,pepper,0.916185141,,,,,,,,
,table,0.916161418,,,,,,,,
,herb,0.915382922,,,,,,,,
,dish,0.903296232,,,,,,,,
,spoon,0.900490522,,,,,,,,
https://scontent.cdninstagram.com/t51.2885-15/e35/13181325_512717605586622_1724822335_n.jpg?ig_cache_key=MTI1MjkxMTgxNDUwMDExNzM3NQ%3D%3D.2,city,0.995577753,Environment,Travel,,,"Manmade beauty",Travel-s,,
,travel,0.988526881,,,,,,,,
,cityscape,0.97107029,,,,,,,,
,street,0.967608452,,,,,,,,
,urban,0.966709971,,,,,,,,
,people,0.965796947,,,,,,,,
,downtown,0.963405371,,,,,,,,
,skyline,0.945892453,,,,,,,,
,building,0.944660425,,,,,,,,
,road,0.925640881,,,,,,,,
,architecture,0.918730915,,,,,,,,
,business,0.911606789,,,,,,,,
,skyscraper,0.9079597,,,,,,,,
,outdoors,0.897230148,,,,,,,,
,group,0.880609393,,,,,,,,
,water,0.880427361,,,,,,,,
,town,0.870267034,,,,,,,,
,vehicle,0.863098443,,,,,,,,
,adult,0.853684425,,,,,,,,
,aerial,0.851510048,,,,,,,,
https://scontent.cdninstagram.com/t51.2885-15/e35/13422819_1126734450702747_873752933_n.jpg?ig_cache_key=MTI2OTU2NzMyMzk3ODI5NjAxNQ%3D%3D.2,people,0.987481773,Relationships,,,,"Best friends",,,
,adult,0.954761028,,,,,,,,
,stock,0.951424718,,,,,,,,
,shopping,0.943493485,,,,,,,,
,woman,0.940797687,,,,,,,,
,wear,0.939777017,,,,,,,,
,competition,0.938453197,,,,,,,,
,portrait,0.92428267,,,,,,,,
,man,0.911542773,,,,,,,,
,urban,0.902744412,,,,,,,,
,indoors,0.890192807,,,,,,,,
,one,0.888046145,,,,,,,,
,city,0.882826567,,,,,,,,
,fun,0.879721582,,,,,,,,
,two,0.879333496,,,,,,,,
,recreation,0.871122003,,,,,,,,
,festival,0.862157524,,,,,,,,
,exhibition,0.856059313,,,,,,,,
,motion,0.851348341,,,,,,,,
,group,0.849799991,,,,,,,,
https://scontent.cdninstagram.com/t51.2885-15/e35/12905150_246772625668560_1857408783_n.jpg?ig_cache_key=MTIyMDAxMzA4NTA4MjQ3OTE3Mw%3D%3D.2,indoors,0.991094172,"Fashion & Beauty",,,,Ootd,,,
,people,0.985835433,,,,,,,,
,adult,0.981578469,,,,,,,,
,one,0.965781569,,,,,,,,
,business,0.958691716,,,,,,,,
,woman,0.955121517,,,,,,,,
,man,0.949533224,,,,,,,,
,"facial expression",0.940237761,,,,,,,,
,wear,0.936408997,,,,,,,,
,blur,0.917277336,,,,,,,,
,furniture,0.915736258,,,,,,,,
,portrait,0.911747396,,,,,,,,
,room,0.9114393,,,,,,,,
,commerce,0.8713727,,,,,,,,
,office,0.867294192,,,,,,,,
,recreation,0.852955699,,,,,,,,
,cooperation,0.851960301,,,,,,,,
,balance,0.830785394,,,,,,,,
,motion,0.818028986,,,,,,,,
,employee,0.807563066,,,,,,,,
https://scontent.cdninstagram.com/t51.2885-15/e35/12519584_235706386767912_1242229759_n.jpg?ig_cache_key=MTE5OTAwOTkyNTE5OTI2MDU2Ng%3D%3D.2,woman,0.994933188,,Relationships,,,,"Best friends",,
,fashion,0.979361892,,,,,,,,
,pretty,0.961248517,,,,,,,,
,love,0.952746093,,,,,,,,
,fun,0.951979518,,,,,,,,
,joy,0.949221373,,,,,,,,
,adolescent,0.942026615,,,,,,,,
,togetherness,0.939008474,,,,,,,,
,cute,0.938287973,,,,,,,,
,girl,0.921551585,,,,,,,,
,friendship,0.919871449,,,,,,,,
,casual,0.906536698,,,,,,,,
,portrait,0.900610983,,,,,,,,
,laughing,0.877642751,,,,,,,,
,glamour,0.87218374,,,,,,,,
,young,0.871952295,,,,,,,,
,sexy,0.855851531,,,,,,,,
,people,0.837060809,,,,,,,,
,embrace,0.825904489,,,,,,,,
,family,0.820292592,,,,,,,,
https://scontent.cdninstagram.com/t51.2885-15/e35/13398744_244936259218282_1963102955_n.jpg?ig_cache_key=MTI2NTk3OTE3NDcwMjI0NjMwNg%3D%3D.2,time,0.990836263,Commerce,"Fashion & Beauty",,,"Product/brand shots","Fashion & Beauty-s",,
,pressure,0.976597726,,,,,,,,
,hand,0.96250999,,,,,,,,
,man,0.953443289,,,,,,,,
,clock,0.925834715,,,,,,,,
,people,0.922997355,,,,,,,,
,precision,0.904814363,,,,,,,,
,watch,0.896027267,,,,,,,,
,one,0.887503505,,,,,,,,
,adult,0.879682064,,,,,,,,
,wristwatch,0.866170764,,,,,,,,
,instrument,0.86572355,,,,,,,,
,watch,0.862088442,,,,,,,,
,urgency,0.850956798,,,,,,,,
,wrist,0.847441912,,,,,,,,
,business,0.832320333,,,,,,,,
,health,0.790606558,,,,,,,,
,late,0.778535545,,,,,,,,
,desktop,0.774683356,,,,,,,,
,conceptual,0.76437819,,,,,,,,
https://scontent.cdninstagram.com/t51.2885-15/e35/1599832_1533073420341108_1927238436_n.jpg?ig_cache_key=MTE0NDU3MDg5MjQxNTM2Mzc1OQ%3D%3D.2,food,0.992125869,Food,,,,"Meal time",,,
,bowl,0.975140035,,,,,,,,
,tea,0.972368479,,,,,,,,
,hot,0.966283977,,,,,,,,
,"no person",0.965478897,,,,,,,,
,cuisine,0.950126708,,,,,,,,
,traditional,0.949860692,,,,,,,,
,cooking,0.947991192,,,,,,,,
,plate,0.939400852,,,,,,,,
,wooden,0.939215779,,,,,,,,
,healthy,0.930774212,,,,,,,,
,wood,0.922356367,,,,,,,,
,epicure,0.919154167,,,,,,,,
,drink,0.917023003,,,,,,,,
,meal,0.916966915,,,,,,,,
,pepper,0.916185141,,,,,,,,
,table,0.916161418,,,,,,,,
,herb,0.915382922,,,,,,,,
,dish,0.903296232,,,,,,,,
,spoon,0.900490522,,,,,,,,
https://scontent.cdninstagram.com/t51.2885-15/e35/13181448_1180789701954942_709525249_n.jpg?ig_cache_key=MTI0NjM3ODk0NDIxMDEwMjYyMg%3D%3D.2,woman,0.986189365,Entertainment,"Fashion & Beauty","My life",,Events,"My look",Selfie,
,people,0.958172679,,,,,,,,
,fashion,0.953415453,,,,,,,,
,young,0.896661222,,,,,,,,
,indoors,0.891690969,,,,,,,,
,pretty,0.890288949,,,,,,,,
,adult,0.89025569,,,,,,,,
,portrait,0.871337175,,,,,,,,
,cute,0.864207923,,,,,,,,
,love,0.860934019,,,,,,,,
,fun,0.854204059,,,,,,,,
,leisure,0.830343664,,,,,,,,
,girl,0.819057226,,,,,,,,
,adolescent,0.817642331,,,,,,,,
,sit,0.802603841,,,,,,,,
,glamour,0.79744947,,,,,,,,
,one,0.795994997,,,,,,,,
,sexy,0.79402411,,,,,,,,
,outdoors,0.788527846,,,,,,,,
,music,0.786113858,,,,,,,,
https://scontent.cdninstagram.com/t51.2885-15/e35/13181448_1180789701954942_709525249_n.jpg?ig_cache_key=MTI0NjM3ODk0NDIxMDEwMjYyMg%3D%3D.2,woman,0.986189365,Entertainment,"Fashion & Beauty","My life",,Events,"My look",Selfie,
,people,0.958172679,,,,,,,,
,fashion,0.953415453,,,,,,,,
,young,0.896661222,,,,,,,,
,indoors,0.891690969,,,,,,,,
,pretty,0.890288949,,,,,,,,
,adult,0.89025569,,,,,,,,
,portrait,0.871337175,,,,,,,,
,cute,0.864207923,,,,,,,,
,love,0.860934019,,,,,,,,
,fun,0.854204059,,,,,,,,
,leisure,0.830343664,,,,,,,,
,girl,0.819057226,,,,,,,,
,adolescent,0.817642331,,,,,,,,
,sit,0.802603841,,,,,,,,
,glamour,0.79744947,,,,,,,,
,one,0.795994997,,,,,,,,
,sexy,0.79402411,,,,,,,,
,outdoors,0.788527846,,,,,,,,
,music,0.786113858,,,,,,,,
https://scontent.cdninstagram.com/t51.2885-15/s750x750/sh0.08/e35/12317490_160669040961428_1544841396_n.jpg?ig_cache_key=MTE0NDExMzgzODUyMTI4MDk1MA%3D%3D.2,woman,0.989873469,Relationships,,,,"Best friends",,,
,people,0.969879389,,,,,,,,
,portrait,0.962455094,,,,,,,,
,shopping,0.952495277,,,,,,,,
,girl,0.932958007,,,,,,,,
,happiness,0.928162932,,,,,,,,
,fashion,0.92439568,,,,,,,,
,indoors,0.922807574,,,,,,,,
,adolescent,0.91987431,,,,,,,,
,adult,0.905863166,,,,,,,,
,wear,0.899828911,,,,,,,,
,stock,0.898165941,,,,,,,,
,"facial expression",0.89561516,,,,,,,,
,fun,0.88396883,,,,,,,,
,enjoyment,0.878150821,,,,,,,,
,pretty,0.877104282,,,,,,,,
,joy,0.870242476,,,,,,,,
,cute,0.862155139,,,,,,,,
,brunette,0.845417619,,,,,,,,
,togetherness,0.841947198,,,,,,,,
https://scontent.cdninstagram.com/t51.2885-15/e35/12328517_1581559378825057_349037541_n.jpg?ig_cache_key=MTIyMzg2NjMwODQ5MDkxNDI1NA%3D%3D.2,woman,0.984834492,"Fashion & Beauty",,,,"My look",,,
,portrait,0.983914852,,,,,,,,
,girl,0.976457953,,,,,,,,
,one,0.976074278,,,,,,,,
,child,0.946631074,,,,,,,,
,people,0.94301939,,,,,,,,
,fashion,0.937823772,,,,,,,,
,fun,0.933796525,,,,,,,,
,cute,0.921680868,,,,,,,,
,wear,0.912420869,,,,,,,,
,young,0.907209516,,,,,,,,
,pretty,0.890868306,,,,,,,,
,adolescent,0.885485768,,,,,,,,
,"facial expression",0.880042017,,,,,,,,
,joy,0.876596928,,,,,,,,
,summer,0.875308275,,,,,,,,
,adult,0.874859214,,,,,,,,
,eye,0.86479789,,,,,,,,
,looking,0.860479236,,,,,,,,
,casual,0.855894804,,,,,,,,
https://scontent.cdninstagram.com/t51.2885-15/e35/13126734_944717168972979_1755266408_n.jpg?ig_cache_key=MTI0MjcxODQxMDU0MTU5MDk1MA%3D%3D.2,light,0.982546687,"Fashion & Beauty",,,,"My look",,,
,tube,0.965466022,,,,,,,,
,business,0.95731914,,,,,,,,
,music,0.926571369,,,,,,,,
,performance,0.916454077,,,,,,,,
,city,0.915781736,,,,,,,,
,people,0.914769888,,,,,,,,
,motion,0.911244988,,,,,,,,
,building,0.900662839,,,,,,,,
,tunnel,0.896028042,,,,,,,,
,exhibition,0.894808114,,,,,,,,
,travel,0.887583256,,,,,,,,
,airport,0.886943221,,,,,,,,
,reflection,0.85525775,,,,,,,,
,"transportation system",0.833501577,,,,,,,,
,concert,0.826518655,,,,,,,,
,street,0.822201133,,,,,,,,
,art,0.816315114,,,,,,,,
,industry,0.815690637,,,,,,,,
,technology,0.814644098,,,,,,,,
https://scontent.cdninstagram.com/t51.2885-15/e35/13249874_1129581613749790_1421904836_n.jpg?ig_cache_key=MTI2MDg5NTgwMjI2MzAzODAzOA%3D%3D.2,group,0.986083746,Relationships,,,,Friends,,,
,portrait,0.983461976,,,,,,,,
,girl,0.971534967,,,,,,,,
,people,0.970847011,,,,,,,,
,woman,0.968360901,,,,,,,,
,adult,0.95957011,,,,,,,,
,man,0.957035303,,,,,,,,
,friendship,0.952405632,,,,,,,,
,group,0.948027074,,,,,,,,
,smile,0.946870625,,,,,,,,
,happiness,0.936628878,,,,,,,,
,beautiful,0.931448102,,,,,,,,
,three,0.929842472,,,,,,,,
,computer,0.92399019,,,,,,,,
,technology,0.922347486,,,,,,,,
,squad,0.917028725,,,,,,,,
,lifestyle,0.914392769,,,,,,,,
,indoors,0.906742513,,,,,,,,
,four,0.898034692,,,,,,,,
,laughing,0.897848248,,,,,,,,
https://scontent.cdninstagram.com/t51.2885-15/e35/12519584_235706386767912_1242229759_n.jpg?ig_cache_key=MTE5OTAwOTkyNTE5OTI2MDU2Ng%3D%3D.2,woman,0.994933188,,Relationships,,,,"Best friends",,
,fashion,0.979361892,,,,,,,,
,pretty,0.961248517,,,,,,,,
,love,0.952746093,,,,,,,,
,fun,0.951979518,,,,,,,,
,joy,0.949221373,,,,,,,,
,adolescent,0.942026615,,,,,,,,
,togetherness,0.939008474,,,,,,,,
,cute,0.938287973,,,,,,,,
,girl,0.921551585,,,,,,,,
,friendship,0.919871449,,,,,,,,
,casual,0.906536698,,,,,,,,
,portrait,0.900610983,,,,,,,,
,laughing,0.877642751,,,,,,,,
,glamour,0.87218374,,,,,,,,
,young,0.871952295,,,,,,,,
,sexy,0.855851531,,,,,,,,
,people,0.837060809,,,,,,,,
,embrace,0.825904489,,,,,,,,
,family,0.820292592,,,,,,,,
https://scontent.cdninstagram.com/t51.2885-15/s750x750/sh0.08/e35/12783280_236479400026437_760423180_n.jpg?ig_cache_key=MTIwMjg0MDEyNTM2MDAwNzYwNA%3D%3D.2,woman,0.995480299,Relationships,,,,"Best friends",,,
,wear,0.988466263,,,,,,,,
,fashion,0.975851655,,,,,,,,
,portrait,0.963271439,,,,,,,,
,one,0.949466348,,,,,,,,
,adult,0.949168444,,,,,,,,
,"facial expression",0.930120707,,,,,,,,
,adolescent,0.930101871,,,,,,,,
,cute,0.895966172,,,,,,,,
,trendy,0.881330073,,,,,,,,
,pretty,0.86816746,,,,,,,,
,people,0.865263343,,,,,,,,
,girl,0.851720095,,,,,,,,
,looking,0.850440323,,,,,,,,
,footwear,0.847781837,,,,,,,,
,glamour,0.847283483,,,,,,,,
,model,0.841513693,,,,,,,,
,joy,0.837673187,,,,,,,,
,happiness,0.828681827,,,,,,,,
,contemporary,0.789252222,,,,,,,,
https://scontent.cdninstagram.com/t51.2885-15/e35/12940715_984112325006525_1192117025_n.jpg?ig_cache_key=MTIyNjgwNjU2OTU1ODgyOTE2OQ%3D%3D.2,food,0.998029828,Food,,,,"Meal time",,,
,meal,0.989899099,,,,,,,,
,cuisine,0.982235789,,,,,,,,
,cooking,0.979401648,,,,,,,,
,rice,0.976377606,,,,,,,,
,dinner,0.97605437,,,,,,,,
,dish,0.97509104,,,,,,,,
,vegetable,0.970764041,,,,,,,,
,spoon,0.969985187,,,,,,,,
,bowl,0.969132066,,,,,,,,
,healthy,0.968760967,,,,,,,,
,pepper,0.966076255,,,,,,,,
,epicure,0.95924902,,,,,,,,
,lunch,0.957635462,,,,,,,,
,cereal,0.949575424,,,,,,,,
,table,0.942021191,,,,,,,,
,hot,0.938918471,,,,,,,,
,plate,0.937932134,,,,,,,,
,traditional,0.935561538,,,,,,,,
,restaurant,0.931924641,,,,,,,,
https://scontent.cdninstagram.com/t51.2885-15/e35/12905150_246772625668560_1857408783_n.jpg?ig_cache_key=MTIyMDAxMzA4NTA4MjQ3OTE3Mw%3D%3D.2,indoors,0.991094172,"Fashion & Beauty",,,,Ootd,,,
,people,0.985835433,,,,,,,,
,adult,0.981578469,,,,,,,,
,one,0.965781569,,,,,,,,
,business,0.958691716,,,,,,,,
,woman,0.955121517,,,,,,,,
,man,0.949533224,,,,,,,,
,"facial expression",0.940237761,,,,,,,,
,wear,0.936408997,,,,,,,,
,blur,0.917277336,,,,,,,,
,furniture,0.915736258,,,,,,,,
,portrait,0.911747396,,,,,,,,
,room,0.9114393,,,,,,,,
,commerce,0.8713727,,,,,,,,
,office,0.867294192,,,,,,,,
,recreation,0.852955699,,,,,,,,
,cooperation,0.851960301,,,,,,,,
,balance,0.830785394,,,,,,,,
,motion,0.818028986,,,,,,,,
,employee,0.807563066,,,,,,,,
https://scontent.cdninstagram.com/t51.2885-15/e35/12935011_1080628248626151_2016560144_n.jpg?ig_cache_key=MTIyNDMwODExODQ3MjMyMTg2MA%3D%3D.2,food,0.997349858,Food,,,,"Meal time",,,
,meal,0.985425472,,,,,,,,
,table,0.98165226,,,,,,,,
,"no person",0.979036093,,,,,,,,
,plate,0.971517682,,,,,,,,
,breakfast,0.970462143,,,,,,,,
,restaurant,0.962940812,,,,,,,,
,spoon,0.9623698,,,,,,,,
,dish,0.957311392,,,,,,,,
,tableware,0.955463886,,,,,,,,
,hot,0.952822089,,,,,,,,
,traditional,0.952775002,,,,,,,,
,cooking,0.948341012,,,,,,,,
,cuisine,0.939524472,,,,,,,,
,bowl,0.938724279,,,,,,,,
,dinner,0.936217427,,,,,,,,
,lunch,0.931106329,,,,,,,,
,egg,0.914444566,,,,,,,,
,cutlery,0.910066605,,,,,,,,
,drink,0.909048319,,,,,,,,
https://scontent.cdninstagram.com/t51.2885-15/e35/13102524_876839009105845_1884585954_n.jpg?ig_cache_key=MTI0ODU3MDc2NTM4NDMxMzY4NA%3D%3D.2,sweet,0.998727679,Food,,,,Dessert,,,
,food,0.997589827,,,,,,,,
,chocolate,0.995936871,,,,,,,,
,plate,0.99253273,,,,,,,,
,fruit,0.992376387,,,,,,,,
,cake,0.991782427,,,,,,,,
,delicious,0.990213275,,,,,,,,
,sugar,0.988576531,,,,,,,,
,cream,0.986774802,,,,,,,,
,pastry,0.98588866,,,,,,,,
,syrup,0.983948112,,,,,,,,
,goody,0.977152228,,,,,,,,
,refreshment,0.976207256,,,,,,,,
,pie,0.9720788,,,,,,,,
,epicure,0.966838181,,,,,,,,
,tasty,0.96280086,,,,,,,,
,vanilla,0.952656209,,,,,,,,
,meal,0.941577673,,,,,,,,
,honey,0.941028893,,,,,,,,
,"no person",0.93941462,,,,,,,,
https://scontent.cdninstagram.com/t51.2885-15/e35/12976550_788476117921309_59922961_n.jpg?ig_cache_key=MTI0MDQ0OTQzNDEzODY2Nzk1NA%3D%3D.2,people,0.980993152,Culture,Relationships,,,Culture-s,Family,,
,group,0.98062706,,,,,,,,
,woman,0.96752882,,,,,,,,
,wear,0.966791034,,,,,,,,
,portrait,0.95248425,,,,,,,,
,celebration,0.944821,,,,,,,,
,child,0.941656828,,,,,,,,
,family,0.941221952,,,,,,,,
,costume,0.935280323,,,,,,,,
,adult,0.927847803,,,,,,,,
,festival,0.920773089,,,,,,,,
,dress,0.918138504,,,,,,,,
,religion,0.911807775,,,,,,,,
,girl,0.909671426,,,,,,,,
,princess,0.902886748,,,,,,,,
,ceremony,0.901616812,,,,,,,,
,traditional,0.892880201,,,,,,,,
,wedding,0.863391399,,,,,,,,
,veil,0.850592732,,,,,,,,
,man,0.849308431,,,,,,,,
https://scontent.cdninstagram.com/t51.2885-15/e35/12960096_1719640631626893_1000858752_n.jpg?ig_cache_key=MTIyNDYxOTI0NTQwODMxNjA2NQ%3D%3D.2,people,0.995806932,,Arts,,,,Arts-s,,
,adult,0.97295928,,,,,,,,
,exhibition,0.969491422,,,,,,,,
,room,0.966230273,,,,,,,,
,museum,0.960604608,,,,,,,,
,furniture,0.960208237,,,,,,,,
,art,0.950634599,,,,,,,,
,indoors,0.949200511,,,,,,,,
,one,0.940737367,,,,,,,,
,sculpture,0.936081707,,,,,,,,
,gold,0.932550609,,,,,,,,
,music,0.93027705,,,,,,,,
,painting,0.925709546,,,,,,,,
,religion,0.924928844,,,,,,,,
,group,0.914183021,,,,,,,,
,home,0.904631793,,,,,,,,
,seat,0.902592599,,,,,,,,
,luxury,0.89667201,,,,,,,,
,"interior design",0.896418571,,,,,,,,
,performance,0.895477295,,,,,,,,
https://scontent.cdninstagram.com/t51.2885-15/e35/12825927_1027957083909865_1060234836_n.jpg?ig_cache_key=MTE5OTczMzk4MTE1NDMzOTA2Nw%3D%3D.2,woman,0.993809998,Relationships,,,,"Best friends",,,
,fashion,0.990816295,,,,,,,,
,girl,0.966560841,,,,,,,,
,glamour,0.953754306,,,,,,,,
,portrait,0.95044744,,,,,,,,
,model,0.941317558,,,,,,,,
,love,0.930375457,,,,,,,,
,sexy,0.9285146,,,,,,,,
,people,0.926306367,,,,,,,,
,pretty,0.920192122,,,,,,,,
,adolescent,0.911556721,,,,,,,,
,fun,0.905529737,,,,,,,,
,friendship,0.890010536,,,,,,,,
,cute,0.880039036,,,,,,,,
,brunette,0.87620759,,,,,,,,
,lips,0.869120955,,,,,,,,
,joy,0.850711107,,,,,,,,
,eye,0.840872109,,,,,,,,
,two,0.832291603,,,,,,,,
,beautiful,0.807036936,,,,,,,,
https://scontent.cdninstagram.com/t51.2885-15/e35/12383695_1056257941114598_77293479_n.jpg?ig_cache_key=MTIxODU2NTcyMTE2NzcxODk1MA%3D%3D.2,woman,0.982469022,Relationships,Food,,,"Best friends",Dessert,,
,indoors,0.97740376,,,,,,,,
,food,0.947713315,,,,,,,,
,meal,0.932644367,,,,,,,,
,family,0.91364193,,,,,,,,
,lifestyle,0.913140774,,,,,,,,
,enjoyment,0.902026296,,,,,,,,
,hungry,0.897592843,,,,,,,,
,adult,0.892903447,,,,,,,,
,people,0.889431715,,,,,,,,
,child,0.868679166,,,,,,,,
,table,0.865201473,,,,,,,,
,lunch,0.862752318,,,,,,,,
,breakfast,0.859833002,,,,,,,,
,cute,0.85126555,,,,,,,,
,young,0.842472672,,,,,,,,
,girl,0.837562263,,,,,,,,
,happiness,0.81020689,,,,,,,,
,cooking,0.809508801,,,,,,,,
,room,0.801265717,,,,,,,,
https://scontent.cdninstagram.com/t51.2885-15/e35/12394020_545837598925984_182973553_n.jpg?ig_cache_key=MTE0Mzg2MzI4NjU1NDEyNzI1NQ%3D%3D.2,food,0.999109447,Food,,,,"Meal time",,,
,hot,0.994584918,,,,,,,,
,pasta,0.989809752,,,,,,,,
,cuisine,0.989262998,,,,,,,,
,meal,0.988750339,,,,,,,,
,chili,0.988175154,,,,,,,,
,delicious,0.987220585,,,,,,,,
,cooking,0.987215996,,,,,,,,
,noodles,0.987080097,,,,,,,,
,dinner,0.985599339,,,,,,,,
,traditional,0.984539866,,,,,,,,
,dish,0.980044186,,,,,,,,
,lunch,0.979916334,,,,,,,,
,vegetable,0.979291856,,,,,,,,
,restaurant,0.9791888,,,,,,,,
,sauce,0.978057325,,,,,,,,
,"no person",0.972169995,,,,,,,,
,plate,0.972113013,,,,,,,,
,epicure,0.971958876,,,,,,,,
,bowl,0.965979934,,,,,,,,
https://scontent.cdninstagram.com/t51.2885-15/e35/12357613_1660568650862296_1202382080_n.jpg?ig_cache_key=MTE0MzUxMTcyMjUxNzgxNzUyNQ%3D%3D.2,food,0.997062266,Food,,,,Dessert,,,
,"no person",0.997028351,,,,,,,,
,baking,0.986927092,,,,,,,,
,"dairy product",0.986807585,,,,,,,,
,cheese,0.982713997,,,,,,,,
,grow,0.981507182,,,,,,,,
,delicious,0.971856594,,,,,,,,
,pastry,0.967496157,,,,,,,,
,pie,0.965472221,,,,,,,,
,dough,0.964119732,,,,,,,,
,melt,0.962824583,,,,,,,,
,homemade,0.953195512,,,,,,,,
,pizza,0.953088522,,,,,,,,
,crust,0.948894501,,,,,,,,
,slice,0.948755741,,,,,,,,
,fruit,0.930931509,,,,,,,,
,lunch,0.928189397,,,,,,,,
,"baked goods",0.92324394,,,,,,,,
,dinner,0.919225752,,,,,,,,
,meal,0.915336132,,,,,,,,
https://scontent.cdninstagram.com/t51.2885-15/e35/12934854_807078686092052_1241088959_n.jpg?ig_cache_key=MTIyNTAzOTIyODQ0OTgxMTMwNA%3D%3D.2,food,0.997304082,,Food,,,,"Meal time",,
,"no person",0.992707729,,,,,,,,
,meal,0.984123945,,,,,,,,
,traditional,0.975749969,,,,,,,,
,lunch,0.974456668,,,,,,,,
,dinner,0.966105461,,,,,,,,
,hot,0.96552515,,,,,,,,
,delicious,0.963962793,,,,,,,,
,table,0.960390329,,,,,,,,
,cooking,0.957636654,,,,,,,,
,restaurant,0.952645898,,,,,,,,
,bowl,0.949657023,,,,,,,,
,breakfast,0.947932839,,,,,,,,
,dish,0.943290353,,,,,,,,
,cuisine,0.935178161,,,,,,,,
,health,0.935165048,,,,,,,,
,plate,0.931215763,,,,,,,,
,nutrition,0.923716128,,,,,,,,
,healthy,0.917372823,,,,,,,,
,dining,0.917066157,,,,,,,,
https://scontent.cdninstagram.com/t51.2885-15/s640x640/e15/13249677_228498144203998_1145064797_n.jpg?ig_cache_key=MTI2ODEzNTY2Mjc3NDM0ODU5Mg%3D%3D.2,woman,0.989628494,Relationships,,,,Friends,,,
,people,0.983569741,,,,,,,,
,adult,0.979548037,,,,,,,,
,portrait,0.97877872,,,,,,,,
,togetherness,0.974272907,,,,,,,,
,happiness,0.973302603,,,,,,,,
,friendship,0.96771872,,,,,,,,
,wear,0.961206198,,,,,,,,
,two,0.955196738,,,,,,,,
,girl,0.953293204,,,,,,,,
,"facial expression",0.948976398,,,,,,,,
,indoors,0.943214357,,,,,,,,
,child,0.936336994,,,,,,,,
,lifestyle,0.921717405,,,,,,,,
,daylight,0.915239394,,,,,,,,
,group,0.912007689,,,,,,,,
,man,0.901143789,,,,,,,,
,love,0.894278765,,,,,,,,
,family,0.887914538,,,,,,,,
,three,0.887408316,,,,,,,,
https://scontent.cdninstagram.com/t51.2885-15/e35/12357613_1660568650862296_1202382080_n.jpg?ig_cache_key=MTE0MzUxMTcyMjUxNzgxNzUyNQ%3D%3D.2,food,0.997062266,Food,,,,Dessert,,,
,"no person",0.997028351,,,,,,,,
,baking,0.986927092,,,,,,,,
,"dairy product",0.986807585,,,,,,,,
,cheese,0.982713997,,,,,,,,
,grow,0.981507182,,,,,,,,
,delicious,0.971856594,,,,,,,,
,pastry,0.967496157,,,,,,,,
,pie,0.965472221,,,,,,,,
,dough,0.964119732,,,,,,,,
,melt,0.962824583,,,,,,,,
,homemade,0.953195512,,,,,,,,
,pizza,0.953088522,,,,,,,,
,crust,0.948894501,,,,,,,,
,slice,0.948755741,,,,,,,,
,fruit,0.930931509,,,,,,,,
,lunch,0.928189397,,,,,,,,
,"baked goods",0.92324394,,,,,,,,
,dinner,0.919225752,,,,,,,,
,meal,0.915336132,,,,,,,,
https://scontent.cdninstagram.com/t51.2885-15/e35/13259039_1017089321679260_1453097520_n.jpg?ig_cache_key=MTI1MjE5MzIyNDY3OTQ1MTA3NQ%3D%3D.2,woman,0.996444106,"Fashion & Beauty",,,,"My look",,,
,pretty,0.953942299,,,,,,,,
,girl,0.953941464,,,,,,,,
,young,0.944300294,,,,,,,,
,people,0.943564534,,,,,,,,
,fashion,0.942142487,,,,,,,,
,adult,0.941680133,,,,,,,,
,one,0.938205421,,,,,,,,
,portrait,0.931613207,,,,,,,,
,cute,0.925643682,,,,,,,,
,casual,0.914174199,,,,,,,,
,wear,0.904499888,,,,,,,,
,indoors,0.89485395,,,,,,,,
,contemporary,0.893809199,,,,,,,,
,looking,0.874892473,,,,,,,,
,tea,0.874622941,,,,,,,,
,brunette,0.868733764,,,,,,,,
,adolescent,0.85861975,,,,,,,,
,beautiful,0.847979784,,,,,,,,
,"facial expression",0.841755033,,,,,,,,
https://scontent.cdninstagram.com/t51.2885-15/e35/13117761_275765046090106_501899178_n.jpg?ig_cache_key=MTI0NTM4OTAyODg5MDIwODkzMQ%3D%3D.2,family,0.976045072,Relationships,Celebrations,,,Friends,"Personal Events",,
,people,0.974695921,,,,,,,,
,woman,0.974435449,,,,,,,,
,adult,0.971367121,,,,,,,,
,group,0.962273836,,,,,,,,
,happiness,0.95724982,,,,,,,,
,offspring,0.947033107,,,,,,,,
,portrait,0.939771891,,,,,,,,
,"facial expression",0.939238787,,,,,,,,
,togetherness,0.93774581,,,,,,,,
,love,0.934051871,,,,,,,,
,wear,0.929691732,,,,,,,,
,man,0.929175258,,,,,,,,
,child,0.924000204,,,,,,,,
,girl,0.90962863,,,,,,,,
,room,0.902965665,,,,,,,,
,two,0.897974491,,,,,,,,
,three,0.897677183,,,,,,,,
,lifestyle,0.888635874,,,,,,,,
,boy,0.87841022,,,,,,,,
https://scontent.cdninstagram.com/t51.2885-15/e35/13408690_277473592642793_1897358848_n.jpg?ig_cache_key=MTI3MzE3NjYyMDE2MzM2MTY4NQ%3D%3D.2,woman,0.994789779,"Fashion & Beauty",,,,"My look",,,
,girl,0.97946322,,,,,,,,
,portrait,0.965218544,,,,,,,,
,people,0.953809619,,,,,,,,
,fashion,0.935127735,,,,,,,,
,pretty,0.919413269,,,,,,,,
,cute,0.915027618,,,,,,,,
,one,0.913505077,,,,,,,,
,model,0.895808578,,,,,,,,
,young,0.889837563,,,,,,,,
,brunette,0.889130831,,,,,,,,
,sexy,0.887160361,,,,,,,,
,adult,0.88257277,,,,,,,,
,adolescent,0.847758472,,,,,,,,
,"facial expression",0.839521348,,,,,,,,
,studio,0.835483611,,,,,,,,
,glamour,0.833817482,,,,,,,,
,face,0.831443071,,,,,,,,
,looking,0.817942321,,,,,,,,
,eye,0.81474179,,,,,,,,
https://scontent.cdninstagram.com/t51.2885-15/e35/12960096_1719640631626893_1000858752_n.jpg?ig_cache_key=MTIyNDYxOTI0NTQwODMxNjA2NQ%3D%3D.2,people,0.995806932,,Arts,,,,Arts-s,,
,adult,0.97295928,,,,,,,,
,exhibition,0.969491422,,,,,,,,
,room,0.966230273,,,,,,,,
,museum,0.960604608,,,,,,,,
,furniture,0.960208237,,,,,,,,
,art,0.950634599,,,,,,,,
,indoors,0.949200511,,,,,,,,
,one,0.940737367,,,,,,,,
,sculpture,0.936081707,,,,,,,,
,gold,0.932550609,,,,,,,,
,music,0.93027705,,,,,,,,
,painting,0.925709546,,,,,,,,
,religion,0.924928844,,,,,,,,
,group,0.914183021,,,,,,,,
,home,0.904631793,,,,,,,,
,seat,0.902592599,,,,,,,,
,luxury,0.89667201,,,,,,,,
,"interior design",0.896418571,,,,,,,,
,performance,0.895477295,,,,,,,,
https://scontent.cdninstagram.com/t51.2885-15/e35/12935011_1080628248626151_2016560144_n.jpg?ig_cache_key=MTIyNDMwODExODQ3MjMyMTg2MA%3D%3D.2,food,0.997349858,Food,,,,"Meal time",,,
,meal,0.985425472,,,,,,,,
,table,0.98165226,,,,,,,,
,"no person",0.979036093,,,,,,,,
,plate,0.971517682,,,,,,,,
,breakfast,0.970462143,,,,,,,,
,restaurant,0.962940812,,,,,,,,
,spoon,0.9623698,,,,,,,,
,dish,0.957311392,,,,,,,,
,tableware,0.955463886,,,,,,,,
,hot,0.952822089,,,,,,,,
,traditional,0.952775002,,,,,,,,
,cooking,0.948341012,,,,,,,,
,cuisine,0.939524472,,,,,,,,
,bowl,0.938724279,,,,,,,,
,dinner,0.936217427,,,,,,,,
,lunch,0.931106329,,,,,,,,
,egg,0.914444566,,,,,,,,
,cutlery,0.910066605,,,,,,,,
,drink,0.909048319,,,,,,,,
https://scontent.cdninstagram.com/t51.2885-15/e35/13126870_273777826301793_1528538706_n.jpg?ig_cache_key=MTI0NzgxMDM5NjM5NTEwNDg2Mw%3D%3D.2,woman,0.994053841,"Fashion & Beauty",,,,Ootd,,,
,adult,0.949622273,,,,,,,,
,wear,0.947249055,,,,,,,,
,people,0.937845647,,,,,,,,
,pretty,0.928274155,,,,,,,,
,one,0.92642808,,,,,,,,
,portrait,0.92137301,,,,,,,,
,fashion,0.908145189,,,,,,,,
,girl,0.901165962,,,,,,,,
,young,0.869709373,,,,,,,,
,indoors,0.859973311,,,,,,,,
,isolated,0.856771946,,,,,,,,
,contemporary,0.853168607,,,,,,,,
,looking,0.828792989,,,,,,,,
,business,0.818776965,,,,,,,,
,casual,0.818329215,,,,,,,,
,cute,0.799566984,,,,,,,,
,model,0.796618938,,,,,,,,
,elegant,0.757839978,,,,,,,,
,friendly,0.751450539,,,,,,,,
https://scontent.cdninstagram.com/t51.2885-15/s750x750/sh0.08/e35/12917837_1782596621974893_233780544_n.jpg?ig_cache_key=MTIzNTUxODcxMzU0NDUzNDA2MA%3D%3D.2,woman,0.989143133,Relationships,,,,"Best friends",,,
,portrait,0.980583668,,,,,,,,
,people,0.979371667,,,,,,,,
,two,0.976652861,,,,,,,,
,"facial expression",0.967700422,,,,,,,,
,love,0.965255022,,,,,,,,
,togetherness,0.960814953,,,,,,,,
,girl,0.944275498,,,,,,,,
,man,0.930363059,,,,,,,,
,wear,0.929987848,,,,,,,,
,adult,0.92938602,,,,,,,,
,fashion,0.925946116,,,,,,,,
,fun,0.902243197,,,,,,,,
,affection,0.892564118,,,,,,,,
,three,0.892350316,,,,,,,,
,happiness,0.884434462,,,,,,,,
,friendship,0.877477944,,,,,,,,
,family,0.855976939,,,,,,,,
,model,0.854199529,,,,,,,,
,joy,0.842595339,,,,,,,,
https://scontent.cdninstagram.com/t51.2885-15/e35/13102524_876839009105845_1884585954_n.jpg?ig_cache_key=MTI0ODU3MDc2NTM4NDMxMzY4NA%3D%3D.2,sweet,0.998727679,Food,,,,Dessert,,,
,food,0.997589827,,,,,,,,
,chocolate,0.995936871,,,,,,,,
,plate,0.99253273,,,,,,,,
,fruit,0.992376387,,,,,,,,
,cake,0.991782427,,,,,,,,
,delicious,0.990213275,,,,,,,,
,sugar,0.988576531,,,,,,,,
,cream,0.986774802,,,,,,,,
,pastry,0.98588866,,,,,,,,
,syrup,0.983948112,,,,,,,,
,goody,0.977152228,,,,,,,,
,refreshment,0.976207256,,,,,,,,
,pie,0.9720788,,,,,,,,
,epicure,0.966838181,,,,,,,,
,tasty,0.96280086,,,,,,,,
,vanilla,0.952656209,,,,,,,,
,meal,0.941577673,,,,,,,,
,honey,0.941028893,,,,,,,,
,"no person",0.93941462,,,,,,,,
https://scontent.cdninstagram.com/t51.2885-15/e35/13381236_107899902969988_112931469_n.jpg?ig_cache_key=MTI3MTQ5NzMyOTQ0MDY4MDI5Nw%3D%3D.2,sky,0.993225455,Environment,"My life",,,"Natural beauty","My world today",,
,light,0.988619804,,,,,,,,
,"no person",0.963569522,,,,,,,,
,architecture,0.960817575,,,,,,,,
,house,0.956745982,,,,,,,,
,sunset,0.947244346,,,,,,,,
,family,0.944539189,,,,,,,,
,religion,0.936224222,,,,,,,,
,building,0.934263229,,,,,,,,
,cloud,0.931772888,,,,,,,,
,outdoors,0.925739884,,,,,,,,
,sun,0.91045332,,,,,,,,
,high,0.900234938,,,,,,,,
,landscape,0.893169284,,,,,,,,
,window,0.892629266,,,,,,,,
,dark,0.889173985,,,,,,,,
,space,0.887634277,,,,,,,,
,church,0.883886218,,,,,,,,
,city,0.867980421,,,,,,,,
,estate,0.867072701,,,,,,,,
https://scontent.cdninstagram.com/t51.2885-15/e35/12357408_1675643959382979_2136174115_n.jpg?ig_cache_key=MTE0NjI4ODIzMTMzMDU3MjU1NQ%3D%3D.2,group,0.998800874,Relationships,,,,Friends,,,
,friendship,0.996412396,,,,,,,,
,woman,0.993403852,,,,,,,,
,people,0.991705179,,,,,,,,
,portrait,0.990877151,,,,,,,,
,laughing,0.98364687,,,,,,,,
,school,0.982339382,,,,,,,,
,beautiful,0.98061657,,,,,,,,
,girl,0.976757944,,,,,,,,
,child,0.976110578,,,,,,,,
,education,0.975327969,,,,,,,,
,smile,0.969889879,,,,,,,,
,three,0.961768925,,,,,,,,
,fun,0.961306036,,,,,,,,
,student,0.958957911,,,,,,,,
,four,0.957083046,,,,,,,,
,group,0.951938391,,,,,,,,
,youth,0.947003841,,,,,,,,
,many,0.945038319,,,,,,,,
,face,0.941739917,,,,,,,,
https://scontent.cdninstagram.com/t51.2885-15/e35/13381236_107899902969988_112931469_n.jpg?ig_cache_key=MTI3MTQ5NzMyOTQ0MDY4MDI5Nw%3D%3D.2,sky,0.993225455,Environment,"My life",,,"Natural beauty","My world today",,
,light,0.988619804,,,,,,,,
,"no person",0.963569522,,,,,,,,
,architecture,0.960817575,,,,,,,,
,house,0.956745982,,,,,,,,
,sunset,0.947244346,,,,,,,,
,family,0.944539189,,,,,,,,
,religion,0.936224222,,,,,,,,
,building,0.934263229,,,,,,,,
,cloud,0.931772888,,,,,,,,
,outdoors,0.925739884,,,,,,,,
,sun,0.91045332,,,,,,,,
,high,0.900234938,,,,,,,,
,landscape,0.893169284,,,,,,,,
,window,0.892629266,,,,,,,,
,dark,0.889173985,,,,,,,,
,space,0.887634277,,,,,,,,
,church,0.883886218,,,,,,,,
,city,0.867980421,,,,,,,,
,estate,0.867072701,,,,,,,,
https://scontent.cdninstagram.com/t51.2885-15/s750x750/sh0.08/e35/13414351_265355950498600_191612350_n.jpg?ig_cache_key=MTI3NDM4MTYxNzg0MDQ4MzA3Mg%3D%3D.2,fashion,0.998060763,,,,,,,,
,glamour,0.992647827,,,,,,,,
,woman,0.988502145,,,,,,,,
,girl,0.983292341,,,,,,,,
,model,0.982356131,,,,,,,,
,portrait,0.979120731,,,,,,,,
,style,0.971795976,,,,,,,,
,sexy,0.962113202,,,,,,,,
,love,0.958683014,,,,,,,,
,beautiful,0.95536828,,,,,,,,
,lips,0.950314164,,,,,,,,
,elegant,0.947393894,,,,,,,,
,luxury,0.944746494,,,,,,,,
,hairdo,0.944232464,,,,,,,,
,lipstick,0.93509686,,,,,,,,
,jewelry,0.933067918,,,,,,,,
,studio,0.922392726,,,,,,,,
,eye,0.922300816,,,,,,,,
,lady,0.916739821,,,,,,,,
,fashionable,0.902610362,,,,,,,,
https://scontent.cdninstagram.com/t51.2885-15/e35/13402350_1775368919364152_886464467_n.jpg?ig_cache_key=MTI2ODc1NDcxOTg3MzY1Nzc1NA%3D%3D.2,architecture,0.987632155,Environment,,,,"Manmade beauty",,,
,sky,0.987426877,,,,,,,,
,city,0.981712997,,,,,,,,
,building,0.980888844,,,,,,,,
,travel,0.976079106,,,,,,,,
,"no person",0.969930053,,,,,,,,
,sunset,0.953571022,,,,,,,,
,light,0.943122029,,,,,,,,
,museum,0.938605905,,,,,,,,
,outdoors,0.916597188,,,,,,,,
,water,0.916061401,,,,,,,,
,street,0.906787336,,,,,,,,
,urban,0.902660489,,,,,,,,
,modern,0.884466767,,,,,,,,
,house,0.86996305,,,,,,,,
,park,0.866612375,,,,,,,,
,dusk,0.864974558,,,,,,,,
,river,0.861736536,,,,,,,,
,evening,0.8589288,,,,,,,,
,construction,0.853454709,,,,,,,,
https://scontent.cdninstagram.com/t51.2885-15/e35/13423584_253115841710973_2098339924_n.jpg?ig_cache_key=MTI2ODgxMTQ2NDA2NzIxMzcxMg%3D%3D.2,group,0.985120118,Relationships,,,,Friends,,,
,adult,0.972729206,,,,,,,,
,man,0.971534133,,,,,,,,
,people,0.966861963,,,,,,,,
,woman,0.964855611,,,,,,,,
,"facial expression",0.954381049,,,,,,,,
,wear,0.94315213,,,,,,,,
,school,0.942287028,,,,,,,,
,education,0.939543009,,,,,,,,
,group,0.935846329,,,,,,,,
,enjoyment,0.9196257,,,,,,,,
,room,0.918368101,,,,,,,,
,portrait,0.915710926,,,,,,,,
,university,0.906514049,,,,,,,,
,friendship,0.894735813,,,,,,,,
,furniture,0.894121408,,,,,,,,
,indoors,0.890210748,,,,,,,,
,seat,0.887550414,,,,,,,,
,happiness,0.862221062,,,,,,,,
,child,0.858360052,,,,,,,,
https://scontent.cdninstagram.com/t51.2885-15/s750x750/sh0.08/e35/13408773_287573611580690_1609807331_n.jpg?ig_cache_key=MTI3MTAwOTU4NDI4MDcyNTc0OQ%3D%3D.2,food,0.995392203,Food,,,,"Meal time",,,
,meal,0.983259797,,,,,,,,
,grow,0.968338966,,,,,,,,
,vegetable,0.965726256,,,,,,,,
,plate,0.964141071,,,,,,,,
,dish,0.955253124,,,,,,,,
,restaurant,0.954777181,,,,,,,,
,dinner,0.951564193,,,,,,,,
,"no person",0.950749636,,,,,,,,
,meat,0.946946383,,,,,,,,
,lunch,0.938748717,,,,,,,,
,cooking,0.921729922,,,,,,,,
,delicious,0.921620369,,,,,,,,
,cuisine,0.919448972,,,,,,,,
,epicure,0.914256692,,,,,,,,
,party,0.911116004,,,,,,,,
,table,0.90767467,,,,,,,,
,salad,0.906531334,,,,,,,,
,tasty,0.89047873,,,,,,,,
,sauce,0.887219429,,,,,,,,
https://scontent.cdninstagram.com/t51.2885-15/e35/13402667_611396192362865_1573950850_n.jpg?ig_cache_key=MTI3MDk5NDI0OTE3NTQ5MzMwMQ%3D%3D.2,wear,0.978464484,"Fashion & Beauty",,,,"My look",,,
,people,0.971907914,,,,,,,,
,woman,0.971533179,,,,,,,,
,adult,0.963569522,,,,,,,,
,man,0.955578923,,,,,,,,
,fashion,0.955393076,,,,,,,,
,one,0.927705109,,,,,,,,
,footwear,0.916002393,,,,,,,,
,indoors,0.908161521,,,,,,,,
,recreation,0.904170692,,,,,,,,
,portrait,0.873629093,,,,,,,,
,pants,0.856052697,,,,,,,,
,business,0.851874113,,,,,,,,
,jewelry,0.839263797,,,,,,,,
,two,0.836388111,,,,,,,,
,fashionable,0.834666073,,,,,,,,
,"red carpet",0.832940042,,,,,,,,
,music,0.828272223,,,,,,,,
,dress,0.825597286,,,,,,,,
,festival,0.814113855,,,,,,,,
https://scontent.cdninstagram.com/t51.2885-15/e35/13402667_611396192362865_1573950850_n.jpg?ig_cache_key=MTI3MDk5NDI0OTE3NTQ5MzMwMQ%3D%3D.2,wear,0.978464484,"Fashion & Beauty",,,,"My look",,,
,people,0.971907914,,,,,,,,
,woman,0.971533179,,,,,,,,
,adult,0.963569522,,,,,,,,
,man,0.955578923,,,,,,,,
,fashion,0.955393076,,,,,,,,
,one,0.927705109,,,,,,,,
,footwear,0.916002393,,,,,,,,
,indoors,0.908161521,,,,,,,,
,recreation,0.904170692,,,,,,,,
,portrait,0.873629093,,,,,,,,
,pants,0.856052697,,,,,,,,
,business,0.851874113,,,,,,,,
,jewelry,0.839263797,,,,,,,,
,two,0.836388111,,,,,,,,
,fashionable,0.834666073,,,,,,,,
,"red carpet",0.832940042,,,,,,,,
,music,0.828272223,,,,,,,,
,dress,0.825597286,,,,,,,,
,festival,0.814113855,,,,,,,,
https://scontent.cdninstagram.com/t51.2885-15/s750x750/sh0.08/e35/13408773_287573611580690_1609807331_n.jpg?ig_cache_key=MTI3MTAwOTU4NDI4MDcyNTc0OQ%3D%3D.2,food,0.995392203,Food,,,,"Meal time",,,
,meal,0.983259797,,,,,,,,
,grow,0.968338966,,,,,,,,
,vegetable,0.965726256,,,,,,,,
,plate,0.964141071,,,,,,,,
,dish,0.955253124,,,,,,,,
,restaurant,0.954777181,,,,,,,,
,dinner,0.951564193,,,,,,,,
,"no person",0.950749636,,,,,,,,
,meat,0.946946383,,,,,,,,
,lunch,0.938748717,,,,,,,,
,cooking,0.921729922,,,,,,,,
,delicious,0.921620369,,,,,,,,
,cuisine,0.919448972,,,,,,,,
,epicure,0.914256692,,,,,,,,
,party,0.911116004,,,,,,,,
,table,0.90767467,,,,,,,,
,salad,0.906531334,,,,,,,,
,tasty,0.89047873,,,,,,,,
,sauce,0.887219429,,,,,,,,
https://scontent.cdninstagram.com/t51.2885-15/e35/13422819_1126734450702747_873752933_n.jpg?ig_cache_key=MTI2OTU2NzMyMzk3ODI5NjAxNQ%3D%3D.2,people,0.987481773,Relationships,,,,"Best friends",,,
,adult,0.954761028,,,,,,,,
,stock,0.951424718,,,,,,,,
,shopping,0.943493485,,,,,,,,
,woman,0.940797687,,,,,,,,
,wear,0.939777017,,,,,,,,
,competition,0.938453197,,,,,,,,
,portrait,0.92428267,,,,,,,,
,man,0.911542773,,,,,,,,
,urban,0.902744412,,,,,,,,
,indoors,0.890192807,,,,,,,,
,one,0.888046145,,,,,,,,
,city,0.882826567,,,,,,,,
,fun,0.879721582,,,,,,,,
,two,0.879333496,,,,,,,,
,recreation,0.871122003,,,,,,,,
,festival,0.862157524,,,,,,,,
,exhibition,0.856059313,,,,,,,,
,motion,0.851348341,,,,,,,,
,group,0.849799991,,,,,,,,
