url,class,score
https://scontent.cdninstagram.com/t51.2885-15/e35/13397530_1782426565377261_1215408193_n.jpg,luggage,0.998762608
,case,0.991602242
,no person,0.989587426
,bag,0.989534259
,leather,0.989322186
,briefcase,0.987750769
,container,0.980925798
,business,0.976624548
,handle,0.975236475
,indoors,0.96197772
,purse,0.953272581
,lock,0.947036624
,security,0.932009935
,isolated,0.918772578
,retro,0.908956349
,portfolio,0.902542114
,box,0.888072491
,furniture,0.886704743
,room,0.879069388
,equipment,0.877851844
https://scontent.cdninstagram.com/t51.2885-15/e35/13391233_1731326130472627_646188644_n.jpg,woman,0.994393945
,fashion,0.987097263
,glamour,0.985991955
,eye,0.983580351
,skin,0.97632277
,sexy,0.973867297
,nude,0.954308391
,lips,0.953298032
,pretty,0.945702493
,girl,0.932981849
,model,0.913971364
,portrait,0.910007417
,cute,0.903163135
,hair,0.873540998
,elegant,0.869672537
,clean,0.859811068
,long,0.84739095
,look,0.845765114
,seduction,0.791195273
,perfection,0.758101106
https://scontent.cdninstagram.com/t51.2885-15/e35/13525426_1548283375481106_2040000239_n.jpg,family,0.987631083
,people,0.972480774
,man,0.962605715
,child,0.954029024
,summer,0.94111371
,leisure,0.92731452
,outdoors,0.925046206
,outside,0.923341036
,woman,0.919987023
,fun,0.919090986
,boy,0.917641163
,girl,0.907847524
,park,0.903375626
,sit,0.901865244
,togetherness,0.900600314
,young,0.899863601
,lifestyle,0.899609089
,water,0.894156098
,travel,0.891656995
,friendship,0.89135015
https://scontent.cdninstagram.com/t51.2885-15/e35/13398773_1791764737719895_1585734054_n.jpg,action,0.994907737
,kite,0.986150742
,air,0.982681632
,competition,0.97951287
,aircraft,0.977576852
,people,0.976347446
,airplane,0.971821308
,fly,0.965466022
,sky,0.963979781
,skill,0.96064651
,freedom,0.958312988
,sports equipment,0.957906961
,flight,0.954729736
,exhilaration,0.9510023
,motion,0.936199009
,fun,0.935253024
,aerobatics,0.930384338
,recreation,0.926703751
,parachute,0.924114823
,water sports,0.911695182
https://scontent.cdninstagram.com/t51.2885-15/e35/13381011_639579172864441_356524333_n.jpg,food,0.997115791
,no person,0.987914324
,plate,0.970865667
,dish,0.969847918
,grow,0.969383121
,vegetable,0.961185932
,cream,0.951835513
,meal,0.950144529
,delicious,0.947885156
,bowl,0.939583302
,healthy,0.937188625
,cuisine,0.928361535
,lunch,0.910202205
,epicure,0.907047927
,hot,0.906451523
,dinner,0.902568221
,cooking,0.90003562
,traditional,0.890864372
,sweet,0.890658259
,restaurant,0.886527479
https://scontent.cdninstagram.com/t51.2885-15/e35/13258862_537429206443718_364571630_n.jpg,food,0.992494702
,people,0.972366571
,chocolate,0.971791148
,dairy product,0.941223979
,cake,0.926260829
,delicious,0.924715638
,no person,0.917879224
,sugar,0.908334255
,sweet,0.899306655
,group,0.897816479
,candy,0.889623404
,one,0.860424876
,restaurant,0.85639143
,grow,0.855225086
,indulgence,0.827604413
,adult,0.819720387
,several,0.80978024
,cream,0.804103613
,cooking,0.786172271
,refreshment,0.773819923
https://scontent.cdninstagram.com/t51.2885-15/e35/13258862_537429206443718_364571630_n.jpg,food,0.992494702
,people,0.972366571
,chocolate,0.971791148
,dairy product,0.941223979
,cake,0.926260829
,delicious,0.924715638
,no person,0.917879224
,sugar,0.908334255
,sweet,0.899306655
,group,0.897816479
,candy,0.889623404
,one,0.860424876
,restaurant,0.85639143
,grow,0.855225086
,indulgence,0.827604413
,adult,0.819720387
,several,0.80978024
,cream,0.804103613
,cooking,0.786172271
,refreshment,0.773819923
https://scontent.cdninstagram.com/t51.2885-15/e15/13181285_1051724128231634_431966503_n.jpg,indoors,0.988155127
,exercise,0.988048732
,woman,0.985941768
,young,0.97935158
,fitness,0.975916028
,active,0.971819103
,sport,0.946769714
,people,0.935821891
,health,0.935181618
,man,0.916614592
,athlete,0.903578877
,leisure,0.901492298
,strength,0.897809863
,weight,0.893233895
,class,0.889101505
,recreation,0.878738403
,girl,0.876987636
,fun,0.876963496
,school,0.861821413
,education,0.856458664
https://scontent.cdninstagram.com/t51.2885-15/e35/13260800_1541657832809571_528975876_n.jpg,people,0.990218401
,group,0.986989498
,group,0.982950568
,music,0.978612483
,band,0.975307763
,singer,0.975029349
,musician,0.961911678
,performance,0.956788898
,recreation,0.92791903
,concert,0.927296519
,many,0.922935128
,festival,0.911624432
,wear,0.902531028
,woman,0.899737
,fame,0.879090309
,portrait,0.863943934
,adult,0.862867951
,drummer,0.854275703
,competition,0.849284649
,party,0.83836025
https://scontent.cdninstagram.com/t51.2885-15/s480x480/e35/13388692_1099141193492184_171099645_n.jpg,people,0.983813286
,woman,0.975714564
,adult,0.948109031
,recreation,0.947779059
,man,0.945662618
,portrait,0.931340575
,competition,0.921959996
,child,0.917723954
,group,0.910421491
,girl,0.909530163
,group,0.901832223
,outdoors,0.896415234
,fun,0.890095532
,wear,0.877546549
,healthcare,0.875737309
,friendship,0.849556327
,two,0.84631145
,facial expression,0.829988837
,leisure,0.815412402
,athlete,0.795163274
https://scontent.cdninstagram.com/t51.2885-15/e35/13397582_249598525417213_299997932_n.jpg,people,0.982491732
,woman,0.979012012
,portrait,0.951434791
,adult,0.94959271
,event,0.895203471
,fame,0.892032385
,group,0.874099433
,festival,0.872911453
,person,0.859739661
,actress,0.856015205
,brunette,0.855891705
,business,0.847078025
,family,0.838207424
,pop,0.807884574
,rally,0.792914748
,music,0.786349833
,famous,0.785218894
,rally,0.775469601
,girl,0.774188638
,entertainment,0.769558191
https://scontent.cdninstagram.com/t51.2885-15/s480x480/e35/13388692_1099141193492184_171099645_n.jpg,people,0.983813286
,woman,0.975714564
,adult,0.948109031
,recreation,0.947779059
,man,0.945662618
,portrait,0.931340575
,competition,0.921959996
,child,0.917723954
,group,0.910421491
,girl,0.909530163
,group,0.901832223
,outdoors,0.896415234
,fun,0.890095532
,wear,0.877546549
,healthcare,0.875737309
,friendship,0.849556327
,two,0.84631145
,facial expression,0.829988837
,leisure,0.815412402
,athlete,0.795163274
https://scontent.cdninstagram.com/t51.2885-15/e35/13320261_601709723328289_757449808_n.jpg,water,0.986324906
,sky,0.984252214
,no person,0.97471863
,sunset,0.970598519
,sea,0.965241432
,sun,0.954480171
,dawn,0.95400238
,wind,0.951326966
,travel,0.947621942
,boat,0.944584966
,sailboat,0.942419767
,vehicle,0.941445351
,ocean,0.934112549
,watercraft,0.932521343
,landscape,0.889459729
,beach,0.88597703
,sail,0.881569505
,recreation,0.878501832
,summer,0.873584211
,transportation system,0.868350029
https://scontent.cdninstagram.com/t51.2885-15/e35/13397530_1782426565377261_1215408193_n.jpg,luggage,0.998762608
,case,0.991602242
,no person,0.989587426
,bag,0.989534259
,leather,0.989322186
,briefcase,0.987750769
,container,0.980925798
,business,0.976624548
,handle,0.975236475
,indoors,0.96197772
,purse,0.953272581
,lock,0.947036624
,security,0.932009935
,isolated,0.918772578
,retro,0.908956349
,portfolio,0.902542114
,box,0.888072491
,furniture,0.886704743
,room,0.879069388
,equipment,0.877851844
https://scontent.cdninstagram.com/t51.2885-15/e35/13151348_1073710972671161_1886297105_n.jpg,woman,0.984477997
,group,0.982772708
,people,0.979941249
,portrait,0.968441367
,girl,0.959656596
,adult,0.953719914
,music,0.918854952
,school,0.900587201
,group,0.892150939
,education,0.88082552
,recreation,0.862483501
,facial expression,0.861546695
,festival,0.84787786
,man,0.841654241
,singer,0.84087348
,family,0.839947462
,child,0.83669585
,musician,0.834185004
,friendship,0.823285997
,competition,0.820940197
https://scontent.cdninstagram.com/t51.2885-15/e35/13320210_141960876207721_2004823890_n.jpg,architecture,0.997452319
,building,0.991033792
,house,0.98818624
,old,0.982545972
,city,0.979412317
,castle,0.975660563
,facade,0.971629143
,travel,0.970496058
,outdoors,0.96648407
,no person,0.96589458
,street,0.964655638
,town,0.948354959
,tourism,0.946874022
,urban,0.936972022
,exterior,0.936913133
,ancient,0.935034573
,vintage,0.934088111
,landmark,0.926903367
,historic,0.922672272
,imperial,0.914186597
https://scontent.cdninstagram.com/t51.2885-15/s640x640/e15/13388607_1707586289497596_1627611488_n.jpg,people,0.993355155
,adult,0.981033087
,woman,0.978121877
,group,0.977584958
,education,0.959810555
,school,0.959459543
,man,0.959173441
,wear,0.943409324
,recreation,0.94283092
,child,0.937959909
,portrait,0.933315635
,exhibition,0.916284204
,room,0.907291055
,festival,0.889807284
,family,0.865491629
,girl,0.845113158
,class,0.842283189
,boy,0.840201259
,indoors,0.839585423
,performance,0.826752901
https://scontent.cdninstagram.com/t51.2885-15/e35/13129370_470496283140487_2108044445_n.jpg,woman,0.979147434
,four,0.975409448
,man,0.974957228
,group,0.970959306
,restaurant,0.967927217
,group,0.960352123
,people,0.95444411
,adult,0.95303452
,table,0.945019424
,family,0.940655351
,enjoyment,0.935525179
,coffee,0.930898726
,three,0.930504441
,indoors,0.925309241
,facial expression,0.923465192
,dining,0.893277526
,two,0.889525652
,drink,0.874911547
,togetherness,0.869431853
,meal,0.86683321
https://scontent.cdninstagram.com/t51.2885-15/e35/13166971_267856793559459_1981995406_n.jpg,people,0.970219493
,woman,0.963768303
,portrait,0.934407353
,two,0.905371547
,actress,0.884479284
,man,0.877594829
,adult,0.872554839
,wear,0.865762234
,family,0.86118269
,facial expression,0.833215475
,indoors,0.818822503
,celebration,0.812208056
,love,0.80046612
,business,0.800203085
,friendship,0.799033999
,ceremony,0.761024237
,group,0.754064322
,fashion,0.75404501
,movie,0.753109574
,happiness,0.749032259
https://scontent.cdninstagram.com/t51.2885-15/e35/13102404_1596317797325169_1907253769_n.jpg,vehicle,0.994367599
,car,0.994128942
,transportation system,0.993498921
,blur,0.98699069
,travel,0.963687062
,no person,0.962803245
,airport,0.961610675
,tube,0.952744007
,business,0.948701739
,industry,0.947217524
,warehouse,0.94329071
,container,0.936797023
,action,0.932736158
,grinder,0.931480289
,production,0.929807842
,indoors,0.928803444
,exhibition,0.918849111
,daylight,0.913029969
,commerce,0.907275021
,city,0.898605168
https://scontent.cdninstagram.com/t51.2885-15/e35/13437431_1723361891266732_800003535_n.jpg,people,0.973926663
,woman,0.972440958
,adult,0.961667061
,music,0.95775187
,room,0.956115723
,business,0.92819196
,musician,0.917574167
,indoors,0.913923025
,group,0.912992239
,education,0.899802148
,table,0.89759481
,performance,0.893807769
,singer,0.876600146
,man,0.874119639
,league,0.868980646
,portrait,0.867700934
,furniture,0.850003719
,chair,0.837517023
,meeting,0.833062172
,girl,0.830973268
https://scontent.cdninstagram.com/t51.2885-15/e35/13117801_543952542444188_426326213_n.jpg,wave,0.992695332
,motion,0.990733862
,splash,0.984467208
,flow,0.974210978
,water,0.962122798
,water,0.960953414
,no person,0.950374365
,nature,0.94850421
,ripple,0.947993994
,desktop,0.94707942
,cold,0.946753502
,stream,0.938943624
,abstract,0.926853538
,smooth,0.924890161
,clear,0.923644304
,clean,0.922766089
,cool,0.913117409
,sea,0.912808001
,wet,0.910281897
,spray,0.898856282
https://scontent.cdninstagram.com/t51.2885-15/e35/13260800_1541657832809571_528975876_n.jpg,people,0.990218401
,group,0.986989498
,group,0.982950568
,music,0.978612483
,band,0.975307763
,singer,0.975029349
,musician,0.961911678
,performance,0.956788898
,recreation,0.92791903
,concert,0.927296519
,many,0.922935128
,festival,0.911624432
,wear,0.902531028
,woman,0.899737
,fame,0.879090309
,portrait,0.863943934
,adult,0.862867951
,drummer,0.854275703
,competition,0.849284649
,party,0.83836025
https://scontent.cdninstagram.com/t51.2885-15/e35/13437143_1025194634230919_1745125766_n.jpg,no person,0.974826097
,fashion,0.946745634
,business,0.896304786
,leather,0.889532566
,people,0.887498915
,wear,0.884900451
,shopping,0.864773512
,old,0.863559365
,paper,0.854274273
,money,0.851891398
,card,0.850321889
,purse,0.841519654
,woman,0.835048914
,textile,0.832893133
,military,0.831473351
,man,0.826938629
,retro,0.8233639
,one,0.821393132
,identity,0.82113111
,symbol,0.811324477
https://scontent.cdninstagram.com/t51.2885-15/s640x640/e15/13388607_1707586289497596_1627611488_n.jpg,people,0.993355155
,adult,0.981033087
,woman,0.978121877
,group,0.977584958
,education,0.959810555
,school,0.959459543
,man,0.959173441
,wear,0.943409324
,recreation,0.94283092
,child,0.937959909
,portrait,0.933315635
,exhibition,0.916284204
,room,0.907291055
,festival,0.889807284
,family,0.865491629
,girl,0.845113158
,class,0.842283189
,boy,0.840201259
,indoors,0.839585423
,performance,0.826752901
https://scontent.cdninstagram.com/t51.2885-15/e35/13437431_1723361891266732_800003535_n.jpg,people,0.973926663
,woman,0.972440958
,adult,0.961667061
,music,0.95775187
,room,0.956115723
,business,0.92819196
,musician,0.917574167
,indoors,0.913923025
,group,0.912992239
,education,0.899802148
,table,0.89759481
,performance,0.893807769
,singer,0.876600146
,man,0.874119639
,league,0.868980646
,portrait,0.867700934
,furniture,0.850003719
,chair,0.837517023
,meeting,0.833062172
,girl,0.830973268
https://scontent.cdninstagram.com/t51.2885-15/e35/13398773_1791764737719895_1585734054_n.jpg,action,0.994907737
,kite,0.986150742
,air,0.982681632
,competition,0.97951287
,aircraft,0.977576852
,people,0.976347446
,airplane,0.971821308
,fly,0.965466022
,sky,0.963979781
,skill,0.96064651
,freedom,0.958312988
,sports equipment,0.957906961
,flight,0.954729736
,exhilaration,0.9510023
,motion,0.936199009
,fun,0.935253024
,aerobatics,0.930384338
,recreation,0.926703751
,parachute,0.924114823
,water sports,0.911695182
https://scontent.cdninstagram.com/t51.2885-15/e35/13397582_249598525417213_299997932_n.jpg,people,0.982491732
,woman,0.979012012
,portrait,0.951434791
,adult,0.94959271
,event,0.895203471
,fame,0.892032385
,group,0.874099433
,festival,0.872911453
,person,0.859739661
,actress,0.856015205
,brunette,0.855891705
,business,0.847078025
,family,0.838207424
,pop,0.807884574
,rally,0.792914748
,music,0.786349833
,famous,0.785218894
,rally,0.775469601
,girl,0.774188638
,entertainment,0.769558191
https://scontent.cdninstagram.com/t51.2885-15/e35/13437302_621999241343749_620278083_n.jpg,rice,0.996618986
,food,0.996338665
,no person,0.98668611
,cooking,0.980580211
,cereal,0.956670761
,meal,0.950220406
,baking,0.949811697
,sugar,0.943607569
,delicious,0.942140102
,sweet,0.938165665
,bowl,0.935390592
,flour,0.932491541
,staple,0.925302744
,milk,0.908528805
,nutrition,0.904984117
,cuisine,0.885774732
,kitchenware,0.87908566
,dish,0.874170721
,egg,0.87300384
,ingredients,0.869147062
https://scontent.cdninstagram.com/t51.2885-15/e35/13320261_601709723328289_757449808_n.jpg,water,0.986324906
,sky,0.984252214
,no person,0.97471863
,sunset,0.970598519
,sea,0.965241432
,sun,0.954480171
,dawn,0.95400238
,wind,0.951326966
,travel,0.947621942
,boat,0.944584966
,sailboat,0.942419767
,vehicle,0.941445351
,ocean,0.934112549
,watercraft,0.932521343
,landscape,0.889459729
,beach,0.88597703
,sail,0.881569505
,recreation,0.878501832
,summer,0.873584211
,transportation system,0.868350029
https://scontent.cdninstagram.com/t51.2885-15/e35/13437143_1025194634230919_1745125766_n.jpg,no person,0.974826097
,fashion,0.946745634
,business,0.896304786
,leather,0.889532566
,people,0.887498915
,wear,0.884900451
,shopping,0.864773512
,old,0.863559365
,paper,0.854274273
,money,0.851891398
,card,0.850321889
,purse,0.841519654
,woman,0.835048914
,textile,0.832893133
,military,0.831473351
,man,0.826938629
,retro,0.8233639
,one,0.821393132
,identity,0.82113111
,symbol,0.811324477
https://scontent.cdninstagram.com/t51.2885-15/e35/13381011_639579172864441_356524333_n.jpg,food,0.997115791
,no person,0.987914324
,plate,0.970865667
,dish,0.969847918
,grow,0.969383121
,vegetable,0.961185932
,cream,0.951835513
,meal,0.950144529
,delicious,0.947885156
,bowl,0.939583302
,healthy,0.937188625
,cuisine,0.928361535
,lunch,0.910202205
,epicure,0.907047927
,hot,0.906451523
,dinner,0.902568221
,cooking,0.90003562
,traditional,0.890864372
,sweet,0.890658259
,restaurant,0.886527479
https://scontent.cdninstagram.com/t51.2885-15/e35/13437302_621999241343749_620278083_n.jpg,rice,0.996618986
,food,0.996338665
,no person,0.98668611
,cooking,0.980580211
,cereal,0.956670761
,meal,0.950220406
,baking,0.949811697
,sugar,0.943607569
,delicious,0.942140102
,sweet,0.938165665
,bowl,0.935390592
,flour,0.932491541
,staple,0.925302744
,milk,0.908528805
,nutrition,0.904984117
,cuisine,0.885774732
,kitchenware,0.87908566
,dish,0.874170721
,egg,0.87300384
,ingredients,0.869147062
https://scontent.cdninstagram.com/t51.2885-15/e15/13092341_466397983566043_1080135713_n.jpg,people,0.996400714
,adult,0.986373782
,woman,0.979393542
,man,0.964510083
,wear,0.959588706
,indoors,0.958312869
,group,0.95707041
,two,0.933769584
,portrait,0.933308601
,many,0.906852961
,monochrome,0.904251814
,group,0.903867722
,airport,0.903573811
,several,0.885486364
,one,0.882347524
,girl,0.869980693
,recreation,0.868124902
,tube,0.864110708
,action,0.86162138
,athlete,0.850429416
https://scontent.cdninstagram.com/t51.2885-15/e35/12965165_1773033936263247_2118811789_n.jpg,business,0.952123642
,money,0.943666935
,people,0.932688475
,hand,0.931767941
,money,0.919269562
,woman,0.894039869
,indoors,0.880670309
,man,0.880108297
,cash,0.866368473
,person,0.842026711
,savings,0.841564298
,adult,0.832818747
,one,0.816678286
,vertical,0.81667757
,symbol,0.799829662
,success,0.768755138
,retro,0.760751486
,wealth,0.758056104
,finance,0.741403341
,desktop,0.734043479
https://scontent.cdninstagram.com/t51.2885-15/e35/13102597_112463849169001_299489304_n.jpg,cat,0.998073339
,cute,0.996536434
,kitten,0.992483079
,pet,0.991633892
,fur,0.989078701
,mammal,0.98831439
,domestic,0.985459328
,one,0.974611104
,sit,0.970490992
,indoors,0.963745117
,little,0.963685632
,young,0.962252021
,animal,0.959504068
,downy,0.958526731
,portrait,0.949458301
,whisker,0.948698401
,looking,0.948327005
,tabby,0.945699215
,eye,0.939182937
,funny,0.93627739
https://scontent.cdninstagram.com/t51.2885-15/e35/13422900_1219521214726127_591981367_n.jpg,woman,0.974413276
,people,0.972019017
,girl,0.940642893
,portrait,0.92407012
,person,0.915195346
,adult,0.900717974
,outdoors,0.894124269
,young,0.889238596
,summer,0.880221963
,happiness,0.86407876
,love,0.861707807
,fashion,0.856337428
,lifestyle,0.854745328
,park,0.845381737
,fun,0.82266438
,leisure,0.817588687
,dress,0.806724191
,walk,0.798372209
,pretty,0.78880167
,one,0.782755256
https://scontent.cdninstagram.com/t51.2885-15/e35/12519393_1017186025041132_1612936060_n.jpg,money,0.97082144
,paper,0.960878372
,business,0.959197342
,money,0.957446575
,wealth,0.956443846
,spherical,0.954956651
,card,0.950251102
,symbol,0.924147606
,identity,0.921978593
,finance,0.911821365
,no person,0.904541612
,shopping,0.904040456
,cash,0.892490387
,desktop,0.884655714
,bank,0.882545948
,passport,0.856315255
,bargain,0.841130137
,pay,0.836062074
,tourism,0.82213974
,success,0.821089447
https://scontent.cdninstagram.com/t51.2885-15/e15/13181285_1051724128231634_431966503_n.jpg,indoors,0.988155127
,exercise,0.988048732
,woman,0.985941768
,young,0.97935158
,fitness,0.975916028
,active,0.971819103
,sport,0.946769714
,people,0.935821891
,health,0.935181618
,man,0.916614592
,athlete,0.903578877
,leisure,0.901492298
,strength,0.897809863
,weight,0.893233895
,class,0.889101505
,recreation,0.878738403
,girl,0.876987636
,fun,0.876963496
,school,0.861821413
,education,0.856458664
https://scontent.cdninstagram.com/t51.2885-15/sh0.08/e35/p750x750/12383163_1793852230843825_1609326036_n.jpg,group,0.993481755
,portrait,0.990515411
,facial expression,0.968423247
,people,0.966049194
,group,0.966038227
,man,0.959514558
,woman,0.955147505
,adult,0.951597452
,music,0.94355011
,festival,0.940550923
,singer,0.935844064
,recreation,0.92895323
,movie,0.928570867
,musician,0.928469539
,interaction,0.910948217
,actress,0.892932177
,three,0.886245906
,wear,0.878869534
,happiness,0.86894834
,friendship,0.868046761
https://scontent.cdninstagram.com/t51.2885-15/e35/13269351_578667452306592_384600664_n.jpg,food,0.997003794
,no person,0.989656448
,meal,0.951253295
,wood,0.946536422
,vegetable,0.937376499
,refreshment,0.933464408
,delicious,0.931047797
,still life,0.912120938
,bread,0.907470345
,dish,0.907203317
,fruit,0.906398416
,dinner,0.903017879
,grow,0.897612333
,table,0.893152475
,plate,0.883975983
,rustic,0.880415857
,meat,0.874070585
,cooking,0.864601433
,cuisine,0.859603405
,tasty,0.854286432
https://scontent.cdninstagram.com/t51.2885-15/e35/13422900_1219521214726127_591981367_n.jpg,woman,0.974413276
,people,0.972019017
,girl,0.940642893
,portrait,0.92407012
,person,0.915195346
,adult,0.900717974
,outdoors,0.894124269
,young,0.889238596
,summer,0.880221963
,happiness,0.86407876
,love,0.861707807
,fashion,0.856337428
,lifestyle,0.854745328
,park,0.845381737
,fun,0.82266438
,leisure,0.817588687
,dress,0.806724191
,walk,0.798372209
,pretty,0.78880167
,one,0.782755256
https://scontent.cdninstagram.com/t51.2885-15/e35/13269351_578667452306592_384600664_n.jpg,food,0.997003794
,no person,0.989656448
,meal,0.951253295
,wood,0.946536422
,vegetable,0.937376499
,refreshment,0.933464408
,delicious,0.931047797
,still life,0.912120938
,bread,0.907470345
,dish,0.907203317
,fruit,0.906398416
,dinner,0.903017879
,grow,0.897612333
,table,0.893152475
,plate,0.883975983
,rustic,0.880415857
,meat,0.874070585
,cooking,0.864601433
,cuisine,0.859603405
,tasty,0.854286432
https://scontent.cdninstagram.com/t51.2885-15/e35/13320210_141960876207721_2004823890_n.jpg,architecture,0.997452319
,building,0.991033792
,house,0.98818624
,old,0.982545972
,city,0.979412317
,castle,0.975660563
,facade,0.971629143
,travel,0.970496058
,outdoors,0.96648407
,no person,0.96589458
,street,0.964655638
,town,0.948354959
,tourism,0.946874022
,urban,0.936972022
,exterior,0.936913133
,ancient,0.935034573
,vintage,0.934088111
,landmark,0.926903367
,historic,0.922672272
,imperial,0.914186597
https://scontent.cdninstagram.com/t51.2885-15/e35/13258904_991828167591179_1364753707_n.jpg,people,0.980928779
,competition,0.968645751
,athlete,0.960888028
,motion,0.958774924
,group,0.957321763
,recreation,0.957122326
,group,0.956674933
,dancing,0.954056203
,festival,0.953279674
,man,0.942178726
,squad,0.924184978
,woman,0.923980892
,performance,0.923854709
,fun,0.920532823
,school,0.919692576
,sport,0.913934708
,action,0.912529588
,many,0.902867794
,active,0.887958944
,adult,0.884415746
https://scontent.cdninstagram.com/t51.2885-15/e35/13525426_1548283375481106_2040000239_n.jpg,family,0.987631083
,people,0.972480774
,man,0.962605715
,child,0.954029024
,summer,0.94111371
,leisure,0.92731452
,outdoors,0.925046206
,outside,0.923341036
,woman,0.919987023
,fun,0.919090986
,boy,0.917641163
,girl,0.907847524
,park,0.903375626
,sit,0.901865244
,togetherness,0.900600314
,young,0.899863601
,lifestyle,0.899609089
,water,0.894156098
,travel,0.891656995
,friendship,0.89135015
https://scontent.cdninstagram.com/t51.2885-15/e35/13258904_991828167591179_1364753707_n.jpg,people,0.980928779
,competition,0.968645751
,athlete,0.960888028
,motion,0.958774924
,group,0.957321763
,recreation,0.957122326
,group,0.956674933
,dancing,0.954056203
,festival,0.953279674
,man,0.942178726
,squad,0.924184978
,woman,0.923980892
,performance,0.923854709
,fun,0.920532823
,school,0.919692576
,sport,0.913934708
,action,0.912529588
,many,0.902867794
,active,0.887958944
,adult,0.884415746
https://scontent.cdninstagram.com/t51.2885-15/e35/12502009_1688604538059984_346732426_n.jpg,hand,0.983242273
,woman,0.961533785
,business,0.947169304
,people,0.933024764
,human,0.906955242
,work,0.899626791
,person,0.884692669
,technology,0.84809339
,band,0.83383292
,family,0.825297236
,foot,0.815149367
,desktop,0.802980363
,equipment,0.801138759
,fashion,0.795121431
,man,0.794746757
,wedding,0.794599533
,adult,0.793392658
,industry,0.779360712
,indoors,0.769446909
,girl,0.765307665
https://scontent.cdninstagram.com/t51.2885-15/s750x750/sh0.08/e35/13183506_706918649450966_585334828_n.jpg,woman,0.990545154
,togetherness,0.988548636
,child,0.985455275
,facial expression,0.983459592
,people,0.98143208
,indoors,0.977603555
,friendship,0.963970542
,happiness,0.96394372
,portrait,0.957214355
,interaction,0.949520469
,two,0.942593455
,enjoyment,0.941807091
,love,0.940570235
,girl,0.939915061
,adult,0.938823104
,man,0.9297508
,adolescent,0.929599047
,family,0.929211378
,group,0.917006552
,affection,0.914929152
https://scontent.cdninstagram.com/t51.2885-15/e35/13257157_530624843776681_2113107639_n.jpg,group,0.995475054
,group,0.993108332
,portrait,0.989561677
,friendship,0.985259533
,woman,0.98492229
,people,0.980787277
,man,0.967559218
,student,0.966571569
,brunette,0.963828444
,music,0.957945287
,fun,0.954775453
,facial expression,0.944500566
,laughing,0.944200516
,family,0.931742191
,adolescent,0.925747216
,musician,0.916199446
,adult,0.914729416
,band,0.910724401
,togetherness,0.900874019
,singer,0.897543669
https://scontent.cdninstagram.com/t51.2885-15/e35/13151348_1073710972671161_1886297105_n.jpg,woman,0.984477997
,group,0.982772708
,people,0.979941249
,portrait,0.968441367
,girl,0.959656596
,adult,0.953719914
,music,0.918854952
,school,0.900587201
,group,0.892150939
,education,0.88082552
,recreation,0.862483501
,facial expression,0.861546695
,festival,0.84787786
,man,0.841654241
,singer,0.84087348
,family,0.839947462
,child,0.83669585
,musician,0.834185004
,friendship,0.823285997
,competition,0.820940197
https://scontent.cdninstagram.com/t51.2885-15/e35/13256939_540011582854843_1999042903_n.jpg,food,0.997330248
,seafood,0.996961176
,sushi,0.994052649
,fish,0.989012599
,meat,0.987593472
,salmon,0.979824007
,rice,0.977409005
,meal,0.975510001
,no person,0.974033833
,shrimp,0.970351577
,dinner,0.968447089
,restaurant,0.963641763
,epicure,0.948937416
,barbecue,0.946884274
,cooking,0.946364701
,seaweed,0.943834782
,sashimi,0.938646793
,grow,0.938188493
,flame,0.933691502
,shellfish,0.926245689
https://scontent.cdninstagram.com/t51.2885-15/e15/13092341_466397983566043_1080135713_n.jpg,people,0.996400714
,adult,0.986373782
,woman,0.979393542
,man,0.964510083
,wear,0.959588706
,indoors,0.958312869
,group,0.95707041
,two,0.933769584
,portrait,0.933308601
,many,0.906852961
,monochrome,0.904251814
,group,0.903867722
,airport,0.903573811
,several,0.885486364
,one,0.882347524
,girl,0.869980693
,recreation,0.868124902
,tube,0.864110708
,action,0.86162138
,athlete,0.850429416
https://scontent.cdninstagram.com/t51.2885-15/e35/13256939_540011582854843_1999042903_n.jpg,food,0.997330248
,seafood,0.996961176
,sushi,0.994052649
,fish,0.989012599
,meat,0.987593472
,salmon,0.979824007
,rice,0.977409005
,meal,0.975510001
,no person,0.974033833
,shrimp,0.970351577
,dinner,0.968447089
,restaurant,0.963641763
,epicure,0.948937416
,barbecue,0.946884274
,cooking,0.946364701
,seaweed,0.943834782
,sashimi,0.938646793
,grow,0.938188493
,flame,0.933691502
,shellfish,0.926245689
https://scontent.cdninstagram.com/t51.2885-15/e35/13117976_1197758840242893_1869404834_n.jpg,food,0.993890285
,spoon,0.991514504
,no person,0.989763021
,bowl,0.982488096
,sweet,0.976553798
,delicious,0.963637173
,hot,0.961761653
,cream,0.952521801
,grow,0.942250073
,health,0.941905081
,wood,0.939819217
,cup,0.938801348
,sugar,0.934915662
,desktop,0.926821649
,taste,0.925648689
,plate,0.910290718
,traditional,0.908347607
,still life,0.906871915
,healthy,0.905492723
,fruit,0.904167771
https://scontent.cdninstagram.com/t51.2885-15/e35/13257157_530624843776681_2113107639_n.jpg,group,0.995475054
,group,0.993108332
,portrait,0.989561677
,friendship,0.985259533
,woman,0.98492229
,people,0.980787277
,man,0.967559218
,student,0.966571569
,brunette,0.963828444
,music,0.957945287
,fun,0.954775453
,facial expression,0.944500566
,laughing,0.944200516
,family,0.931742191
,adolescent,0.925747216
,musician,0.916199446
,adult,0.914729416
,band,0.910724401
,togetherness,0.900874019
,singer,0.897543669
https://scontent.cdninstagram.com/t51.2885-15/s750x750/sh0.08/e35/13183506_706918649450966_585334828_n.jpg,woman,0.990545154
,togetherness,0.988548636
,child,0.985455275
,facial expression,0.983459592
,people,0.98143208
,indoors,0.977603555
,friendship,0.963970542
,happiness,0.96394372
,portrait,0.957214355
,interaction,0.949520469
,two,0.942593455
,enjoyment,0.941807091
,love,0.940570235
,girl,0.939915061
,adult,0.938823104
,man,0.9297508
,adolescent,0.929599047
,family,0.929211378
,group,0.917006552
,affection,0.914929152
https://scontent.cdninstagram.com/t51.2885-15/e35/13391233_1731326130472627_646188644_n.jpg,woman,0.994393945
,fashion,0.987097263
,glamour,0.985991955
,eye,0.983580351
,skin,0.97632277
,sexy,0.973867297
,nude,0.954308391
,lips,0.953298032
,pretty,0.945702493
,girl,0.932981849
,model,0.913971364
,portrait,0.910007417
,cute,0.903163135
,hair,0.873540998
,elegant,0.869672537
,clean,0.859811068
,long,0.84739095
,look,0.845765114
,seduction,0.791195273
,perfection,0.758101106
https://scontent.cdninstagram.com/t51.2885-15/e35/13187994_273230393022065_1653010053_n.jpg,watercraft,0.993210375
,water,0.993024945
,sea,0.983992457
,transportation system,0.98343271
,travel,0.981550574
,vehicle,0.975749373
,boat,0.965753615
,ship,0.962030292
,no person,0.953231156
,seashore,0.945184708
,harbor,0.940188289
,daylight,0.937992275
,tourism,0.93070811
,pier,0.92054534
,ocean,0.919078231
,canal,0.910972178
,bay,0.892356992
,city,0.884348869
,river,0.87949717
,sky,0.875556469
https://scontent.cdninstagram.com/t51.2885-15/e35/12959956_219037468472109_1315655786_n.jpg,dog,0.996539354
,portrait,0.986626625
,canine,0.986446619
,friendship,0.985775471
,mammal,0.972901821
,woman,0.971253872
,people,0.963776588
,cute,0.955936313
,two,0.952703238
,girl,0.948336959
,one,0.940636158
,adult,0.937304854
,pet,0.933872223
,fun,0.908373713
,young,0.892697632
,looking,0.883851588
,puppy,0.881839514
,best,0.863262534
,sit,0.842264652
,three,0.840800524
https://scontent.cdninstagram.com/t51.2885-15/e35/13117976_1197758840242893_1869404834_n.jpg,food,0.993890285
,spoon,0.991514504
,no person,0.989763021
,bowl,0.982488096
,sweet,0.976553798
,delicious,0.963637173
,hot,0.961761653
,cream,0.952521801
,grow,0.942250073
,health,0.941905081
,wood,0.939819217
,cup,0.938801348
,sugar,0.934915662
,desktop,0.926821649
,taste,0.925648689
,plate,0.910290718
,traditional,0.908347607
,still life,0.906871915
,healthy,0.905492723
,fruit,0.904167771
https://scontent.cdninstagram.com/t51.2885-15/e35/13166662_1086217891419405_642096161_n.jpg,group,0.998084843
,group,0.995323181
,portrait,0.989651561
,people,0.986695886
,woman,0.984530807
,many,0.980958462
,adult,0.980825007
,music,0.969814479
,man,0.964026868
,singer,0.959575057
,performance,0.957947254
,squad,0.957261801
,musician,0.953955889
,festival,0.939404249
,competition,0.939264715
,education,0.938199401
,school,0.930685997
,child,0.930666208
,recreation,0.929496169
,band,0.928913474
https://scontent.cdninstagram.com/t51.2885-15/e35/13102597_112463849169001_299489304_n.jpg,cat,0.998073339
,cute,0.996536434
,kitten,0.992483079
,pet,0.991633892
,fur,0.989078701
,mammal,0.98831439
,domestic,0.985459328
,one,0.974611104
,sit,0.970490992
,indoors,0.963745117
,little,0.963685632
,young,0.962252021
,animal,0.959504068
,downy,0.958526731
,portrait,0.949458301
,whisker,0.948698401
,looking,0.948327005
,tabby,0.945699215
,eye,0.939182937
,funny,0.93627739
https://scontent.cdninstagram.com/t51.2885-15/s750x750/sh0.08/e35/13437190_258059701237911_491712744_n.jpg,people,0.993480206
,adult,0.987984061
,man,0.974398851
,woman,0.967070699
,seat,0.965913892
,illustration,0.965641618
,vehicle,0.954251647
,house,0.952154994
,room,0.948701859
,furniture,0.94595015
,wear,0.929410577
,indoors,0.923373699
,chair,0.919124961
,city,0.918365955
,transportation system,0.917880535
,art,0.917714
,girl,0.915959477
,group,0.907979429
,building,0.896963477
,lifestyle,0.896415472
https://scontent.cdninstagram.com/t51.2885-15/e35/12976622_248080582206720_1017587688_n.jpg,text,0.962389231
,sign,0.953439951
,card,0.942075908
,letter,0.922461689
,label,0.89033854
,celebration,0.88416779
,sketch,0.88145566
,vintage,0.877738476
,calligraphy,0.875874758
,desktop,0.871273398
,paper,0.867441893
,bill,0.8521505
,greeting,0.851680934
,illustration,0.8454988
,handwriting,0.832518041
,banner,0.82425338
,invitation,0.823852181
,symbol,0.821504354
,decoration,0.811430216
,give voice,0.810788989
https://scontent.cdninstagram.com/t51.2885-15/e35/13117801_543952542444188_426326213_n.jpg,wave,0.992695332
,motion,0.990733862
,splash,0.984467208
,flow,0.974210978
,water,0.962122798
,water,0.960953414
,no person,0.950374365
,nature,0.94850421
,ripple,0.947993994
,desktop,0.94707942
,cold,0.946753502
,stream,0.938943624
,abstract,0.926853538
,smooth,0.924890161
,clear,0.923644304
,clean,0.922766089
,cool,0.913117409
,sea,0.912808001
,wet,0.910281897
,spray,0.898856282
https://scontent.cdninstagram.com/t51.2885-15/e35/13187994_273230393022065_1653010053_n.jpg,watercraft,0.993210375
,water,0.993024945
,sea,0.983992457
,transportation system,0.98343271
,travel,0.981550574
,vehicle,0.975749373
,boat,0.965753615
,ship,0.962030292
,no person,0.953231156
,seashore,0.945184708
,harbor,0.940188289
,daylight,0.937992275
,tourism,0.93070811
,pier,0.92054534
,ocean,0.919078231
,canal,0.910972178
,bay,0.892356992
,city,0.884348869
,river,0.87949717
,sky,0.875556469
https://scontent.cdninstagram.com/t51.2885-15/e35/13249920_872873319502302_1481949272_n.jpg,travel,0.988402724
,architecture,0.986686349
,street,0.981776178
,no person,0.981472969
,city,0.977798343
,light,0.976081848
,building,0.970282555
,religion,0.941083193
,evening,0.938773513
,church,0.937821031
,urban,0.935958326
,arch,0.935331345
,bridge,0.925781548
,road,0.922851026
,dusk,0.87620163
,outdoors,0.866823196
,landmark,0.865627527
,transportation system,0.850060225
,sky,0.843614817
,illuminated,0.83264333
https://scontent.cdninstagram.com/t51.2885-15/e35/13408982_195520944179133_479416667_n.jpg,illustration,0.976041675
,pattern,0.973722279
,design,0.971567631
,wallpaper,0.968384385
,seamless,0.965158582
,abstract,0.956463695
,desktop,0.955151081
,animal,0.949643612
,texture,0.949479818
,graphic,0.947318316
,nature,0.947245479
,wildlife,0.945626557
,collection,0.945393145
,art,0.944787145
,decoration,0.941319108
,butterfly,0.940297961
,vector,0.937702715
,repetition,0.922395349
,image,0.921333253
,no person,0.906301737
https://scontent.cdninstagram.com/t51.2885-15/e35/13113870_272777066394572_1730426374_n.jpg,no person,0.998247147
,food,0.986309528
,cooking,0.95834142
,delicious,0.956227481
,bowl,0.951588213
,health,0.937787294
,indoors,0.929125547
,dinner,0.92466557
,cream,0.923816919
,creamy,0.909665823
,soup,0.907405615
,ingredients,0.897101462
,spoon,0.894171357
,sweet,0.893379927
,grow,0.893231153
,nutrition,0.892471194
,still life,0.884819388
,breakfast,0.883547068
,hot,0.87791276
,one,0.871302068
https://scontent.cdninstagram.com/t51.2885-15/e35/13266648_1088013267913076_1117230373_n.jpg,business,0.968209922
,people,0.94763267
,sign,0.907559693
,commerce,0.901237011
,money,0.88772881
,finance,0.886039197
,no person,0.883130372
,music,0.874024749
,symbol,0.865464211
,finance,0.86460042
,festival,0.858819187
,rally,0.825371921
,industry,0.824345231
,administration,0.816257954
,one,0.813226581
,energy,0.812073886
,woman,0.808152676
,travel,0.795464873
,musician,0.793721199
,family,0.791772485
https://scontent.cdninstagram.com/t51.2885-15/e35/13102404_1596317797325169_1907253769_n.jpg,vehicle,0.994367599
,car,0.994128942
,transportation system,0.993498921
,blur,0.98699069
,travel,0.963687062
,no person,0.962803245
,airport,0.961610675
,tube,0.952744007
,business,0.948701739
,industry,0.947217524
,warehouse,0.94329071
,container,0.936797023
,action,0.932736158
,grinder,0.931480289
,production,0.929807842
,indoors,0.928803444
,exhibition,0.918849111
,daylight,0.913029969
,commerce,0.907275021
,city,0.898605168
https://scontent.cdninstagram.com/t51.2885-15/e35/13249920_872873319502302_1481949272_n.jpg,travel,0.988402724
,architecture,0.986686349
,street,0.981776178
,no person,0.981472969
,city,0.977798343
,light,0.976081848
,building,0.970282555
,religion,0.941083193
,evening,0.938773513
,church,0.937821031
,urban,0.935958326
,arch,0.935331345
,bridge,0.925781548
,road,0.922851026
,dusk,0.87620163
,outdoors,0.866823196
,landmark,0.865627527
,transportation system,0.850060225
,sky,0.843614817
,illuminated,0.83264333
https://scontent.cdninstagram.com/t51.2885-15/e35/13129370_470496283140487_2108044445_n.jpg,woman,0.979147434
,four,0.975409448
,man,0.974957228
,group,0.970959306
,restaurant,0.967927217
,group,0.960352123
,people,0.95444411
,adult,0.95303452
,table,0.945019424
,family,0.940655351
,enjoyment,0.935525179
,coffee,0.930898726
,three,0.930504441
,indoors,0.925309241
,facial expression,0.923465192
,dining,0.893277526
,two,0.889525652
,drink,0.874911547
,togetherness,0.869431853
,meal,0.86683321
https://scontent.cdninstagram.com/t51.2885-15/e35/12976636_506909246159710_2032293410_n.jpg,woman,0.989918828
,young,0.976225615
,indoors,0.966032028
,pretty,0.965445638
,fashion,0.962359488
,elegant,0.961112618
,window,0.953392029
,people,0.952645779
,dress,0.94688499
,love,0.946352005
,girl,0.941450834
,outdoors,0.937529981
,adult,0.930425286
,luxury,0.929485679
,family,0.924262643
,beautiful,0.923409522
,style,0.917115092
,sit,0.906344056
,wedding,0.905851245
,attractive,0.903879464
https://scontent.cdninstagram.com/t51.2885-15/e35/13266648_1088013267913076_1117230373_n.jpg,business,0.968209922
,people,0.94763267
,sign,0.907559693
,commerce,0.901237011
,money,0.88772881
,finance,0.886039197
,no person,0.883130372
,music,0.874024749
,symbol,0.865464211
,finance,0.86460042
,festival,0.858819187
,rally,0.825371921
,industry,0.824345231
,administration,0.816257954
,one,0.813226581
,energy,0.812073886
,woman,0.808152676
,travel,0.795464873
,musician,0.793721199
,family,0.791772485
https://scontent.cdninstagram.com/t51.2885-15/sh0.08/e35/p750x750/12383163_1793852230843825_1609326036_n.jpg,group,0.993481755
,portrait,0.990515411
,facial expression,0.968423247
,people,0.966049194
,group,0.966038227
,man,0.959514558
,woman,0.955147505
,adult,0.951597452
,music,0.94355011
,festival,0.940550923
,singer,0.935844064
,recreation,0.92895323
,movie,0.928570867
,musician,0.928469539
,interaction,0.910948217
,actress,0.892932177
,three,0.886245906
,wear,0.878869534
,happiness,0.86894834
,friendship,0.868046761
https://scontent.cdninstagram.com/t51.2885-15/e35/13166662_1086217891419405_642096161_n.jpg,group,0.998084843
,group,0.995323181
,portrait,0.989651561
,people,0.986695886
,woman,0.984530807
,many,0.980958462
,adult,0.980825007
,music,0.969814479
,man,0.964026868
,singer,0.959575057
,performance,0.957947254
,squad,0.957261801
,musician,0.953955889
,festival,0.939404249
,competition,0.939264715
,education,0.938199401
,school,0.930685997
,child,0.930666208
,recreation,0.929496169
,band,0.928913474
https://scontent.cdninstagram.com/t51.2885-15/e35/13437180_1743619229248106_764991388_n.jpg,man,0.960242748
,woman,0.959618449
,togetherness,0.953612268
,fun,0.951742113
,people,0.950834334
,travel,0.945785522
,recreation,0.943373978
,water,0.942019939
,beach,0.93319571
,leisure,0.925704539
,enjoyment,0.923373103
,sand,0.906275511
,love,0.878992081
,outdoors,0.868832946
,summer,0.865617394
,friendship,0.849767447
,group,0.841236591
,vacation,0.838652968
,seashore,0.831865668
,child,0.829186678
https://scontent.cdninstagram.com/t51.2885-15/e35/12519393_1017186025041132_1612936060_n.jpg,money,0.97082144
,paper,0.960878372
,business,0.959197342
,money,0.957446575
,wealth,0.956443846
,spherical,0.954956651
,card,0.950251102
,symbol,0.924147606
,identity,0.921978593
,finance,0.911821365
,no person,0.904541612
,shopping,0.904040456
,cash,0.892490387
,desktop,0.884655714
,bank,0.882545948
,passport,0.856315255
,bargain,0.841130137
,pay,0.836062074
,tourism,0.82213974
,success,0.821089447
https://scontent.cdninstagram.com/t51.2885-15/e35/13166971_267856793559459_1981995406_n.jpg,people,0.970219493
,woman,0.963768303
,portrait,0.934407353
,two,0.905371547
,actress,0.884479284
,man,0.877594829
,adult,0.872554839
,wear,0.865762234
,family,0.86118269
,facial expression,0.833215475
,indoors,0.818822503
,celebration,0.812208056
,love,0.80046612
,business,0.800203085
,friendship,0.799033999
,ceremony,0.761024237
,group,0.754064322
,fashion,0.75404501
,movie,0.753109574
,happiness,0.749032259
https://scontent.cdninstagram.com/t51.2885-15/e35/12959956_219037468472109_1315655786_n.jpg,dog,0.996539354
,portrait,0.986626625
,canine,0.986446619
,friendship,0.985775471
,mammal,0.972901821
,woman,0.971253872
,people,0.963776588
,cute,0.955936313
,two,0.952703238
,girl,0.948336959
,one,0.940636158
,adult,0.937304854
,pet,0.933872223
,fun,0.908373713
,young,0.892697632
,looking,0.883851588
,puppy,0.881839514
,best,0.863262534
,sit,0.842264652
,three,0.840800524
https://scontent.cdninstagram.com/t51.2885-15/e35/12383185_231443683878018_1107285478_n.jpg,group,0.996359289
,woman,0.989131808
,people,0.985189378
,group,0.978913963
,family,0.976114869
,man,0.975551486
,adult,0.969105601
,wear,0.967897296
,portrait,0.95857507
,music,0.949751735
,recreation,0.947490275
,facial expression,0.941338301
,many,0.928333759
,child,0.92184031
,leader,0.908274651
,several,0.90146172
,togetherness,0.901022792
,singer,0.899085283
,administration,0.894753814
,ceremony,0.893452883
https://scontent.cdninstagram.com/t51.2885-15/e35/12965169_924350447687311_1029050234_n.jpg,dog,0.997984052
,canine,0.987836003
,people,0.987771034
,woman,0.986288667
,girl,0.978913903
,mammal,0.972244978
,portrait,0.966915131
,child,0.955833793
,friendship,0.929940462
,pet,0.928100586
,adult,0.920865238
,two,0.911157608
,one,0.909824371
,wolf,0.889605761
,family,0.879998207
,cute,0.879721284
,hair,0.858316541
,puppy,0.850653291
,animal,0.840718448
,youth,0.836511374
https://scontent.cdninstagram.com/t51.2885-15/e35/13113870_272777066394572_1730426374_n.jpg,no person,0.998247147
,food,0.986309528
,cooking,0.95834142
,delicious,0.956227481
,bowl,0.951588213
,health,0.937787294
,indoors,0.929125547
,dinner,0.92466557
,cream,0.923816919
,creamy,0.909665823
,soup,0.907405615
,ingredients,0.897101462
,spoon,0.894171357
,sweet,0.893379927
,grow,0.893231153
,nutrition,0.892471194
,still life,0.884819388
,breakfast,0.883547068
,hot,0.87791276
,one,0.871302068
https://scontent.cdninstagram.com/t51.2885-15/e35/12976622_248080582206720_1017587688_n.jpg,text,0.962389231
,sign,0.953439951
,card,0.942075908
,letter,0.922461689
,label,0.89033854
,celebration,0.88416779
,sketch,0.88145566
,vintage,0.877738476
,calligraphy,0.875874758
,desktop,0.871273398
,paper,0.867441893
,bill,0.8521505
,greeting,0.851680934
,illustration,0.8454988
,handwriting,0.832518041
,banner,0.82425338
,invitation,0.823852181
,symbol,0.821504354
,decoration,0.811430216
,give voice,0.810788989
https://scontent.cdninstagram.com/t51.2885-15/e35/12383185_231443683878018_1107285478_n.jpg,group,0.996359289
,woman,0.989131808
,people,0.985189378
,group,0.978913963
,family,0.976114869
,man,0.975551486
,adult,0.969105601
,wear,0.967897296
,portrait,0.95857507
,music,0.949751735
,recreation,0.947490275
,facial expression,0.941338301
,many,0.928333759
,child,0.92184031
,leader,0.908274651
,several,0.90146172
,togetherness,0.901022792
,singer,0.899085283
,administration,0.894753814
,ceremony,0.893452883
https://scontent.cdninstagram.com/t51.2885-15/e35/12940884_676853549121526_1365353017_n.jpg,food,0.985051394
,no person,0.982928574
,fruit,0.982768297
,sweet,0.967129052
,people,0.962935328
,still life,0.9594208
,one,0.947464943
,two,0.942178488
,indoors,0.930208802
,grow,0.928055406
,chocolate,0.927309573
,dairy product,0.925641894
,cream,0.923828244
,group,0.916193128
,berry,0.914263964
,adult,0.898961902
,delicious,0.892075181
,plate,0.890870094
,heart,0.884873867
,table,0.861154318
https://scontent.cdninstagram.com/t51.2885-15/e35/12940846_485208931664739_1465551213_n.jpg,no person,0.987094402
,business,0.979778886
,money,0.979124367
,paper,0.973166287
,money,0.973103285
,wealth,0.972957969
,finance,0.961429358
,savings,0.932540774
,pay,0.929687798
,success,0.917218506
,vertical,0.915874124
,debt,0.905676484
,bank,0.874529064
,card,0.867557287
,loan,0.863050938
,number,0.84829545
,cash,0.8454597
,investment,0.843547583
,family,0.834526062
,insurance,0.825448573
https://scontent.cdninstagram.com/t51.2885-15/e35/12965165_1773033936263247_2118811789_n.jpg,business,0.952123642
,money,0.943666935
,people,0.932688475
,hand,0.931767941
,money,0.919269562
,woman,0.894039869
,indoors,0.880670309
,man,0.880108297
,cash,0.866368473
,person,0.842026711
,savings,0.841564298
,adult,0.832818747
,one,0.816678286
,vertical,0.81667757
,symbol,0.799829662
,success,0.768755138
,retro,0.760751486
,wealth,0.758056104
,finance,0.741403341
,desktop,0.734043479
https://scontent.cdninstagram.com/t51.2885-15/e35/12070720_584865758344208_1788622787_n.jpg,mammal,0.996366501
,wildlife,0.995860338
,cat,0.985789299
,tiger,0.98374176
,safari,0.979330897
,wild,0.977764368
,nature,0.970882952
,danger,0.965000272
,no person,0.96480763
,big,0.956421375
,jungle,0.952729642
,aggression,0.951706111
,animal,0.943596601
,conservation,0.939443767
,grass,0.936408281
,stripe,0.924922585
,zoo,0.91752547
,portrait,0.914492846
,hunter,0.909312665
,large,0.902196109
https://scontent.cdninstagram.com/t51.2885-15/e35/12965169_924350447687311_1029050234_n.jpg,dog,0.997984052
,canine,0.987836003
,people,0.987771034
,woman,0.986288667
,girl,0.978913903
,mammal,0.972244978
,portrait,0.966915131
,child,0.955833793
,friendship,0.929940462
,pet,0.928100586
,adult,0.920865238
,two,0.911157608
,one,0.909824371
,wolf,0.889605761
,family,0.879998207
,cute,0.879721284
,hair,0.858316541
,puppy,0.850653291
,animal,0.840718448
,youth,0.836511374
https://scontent.cdninstagram.com/t51.2885-15/e35/12976636_506909246159710_2032293410_n.jpg,woman,0.989918828
,young,0.976225615
,indoors,0.966032028
,pretty,0.965445638
,fashion,0.962359488
,elegant,0.961112618
,window,0.953392029
,people,0.952645779
,dress,0.94688499
,love,0.946352005
,girl,0.941450834
,outdoors,0.937529981
,adult,0.930425286
,luxury,0.929485679
,family,0.924262643
,beautiful,0.923409522
,style,0.917115092
,sit,0.906344056
,wedding,0.905851245
,attractive,0.903879464
https://scontent.cdninstagram.com/t51.2885-15/e35/12940846_485208931664739_1465551213_n.jpg,no person,0.987094402
,business,0.979778886
,money,0.979124367
,paper,0.973166287
,money,0.973103285
,wealth,0.972957969
,finance,0.961429358
,savings,0.932540774
,pay,0.929687798
,success,0.917218506
,vertical,0.915874124
,debt,0.905676484
,bank,0.874529064
,card,0.867557287
,loan,0.863050938
,number,0.84829545
,cash,0.8454597
,investment,0.843547583
,family,0.834526062
,insurance,0.825448573
https://scontent.cdninstagram.com/t51.2885-15/e35/12940884_676853549121526_1365353017_n.jpg,food,0.985051394
,no person,0.982928574
,fruit,0.982768297
,sweet,0.967129052
,people,0.962935328
,still life,0.9594208
,one,0.947464943
,two,0.942178488
,indoors,0.930208802
,grow,0.928055406
,chocolate,0.927309573
,dairy product,0.925641894
,cream,0.923828244
,group,0.916193128
,berry,0.914263964
,adult,0.898961902
,delicious,0.892075181
,plate,0.890870094
,heart,0.884873867
,table,0.861154318
https://scontent.cdninstagram.com/t51.2885-15/e35/12502009_1688604538059984_346732426_n.jpg,hand,0.983242273
,woman,0.961533785
,business,0.947169304
,people,0.933024764
,human,0.906955242
,work,0.899626791
,person,0.884692669
,technology,0.84809339
,band,0.83383292
,family,0.825297236
,foot,0.815149367
,desktop,0.802980363
,equipment,0.801138759
,fashion,0.795121431
,man,0.794746757
,wedding,0.794599533
,adult,0.793392658
,industry,0.779360712
,indoors,0.769446909
,girl,0.765307665
https://scontent.cdninstagram.com/t51.2885-15/e35/13408982_195520944179133_479416667_n.jpg,illustration,0.976041675
,pattern,0.973722279
,design,0.971567631
,wallpaper,0.968384385
,seamless,0.965158582
,abstract,0.956463695
,desktop,0.955151081
,animal,0.949643612
,texture,0.949479818
,graphic,0.947318316
,nature,0.947245479
,wildlife,0.945626557
,collection,0.945393145
,art,0.944787145
,decoration,0.941319108
,butterfly,0.940297961
,vector,0.937702715
,repetition,0.922395349
,image,0.921333253
,no person,0.906301737
https://scontent.cdninstagram.com/t51.2885-15/e35/12070720_584865758344208_1788622787_n.jpg,mammal,0.996366501
,wildlife,0.995860338
,cat,0.985789299
,tiger,0.98374176
,safari,0.979330897
,wild,0.977764368
,nature,0.970882952
,danger,0.965000272
,no person,0.96480763
,big,0.956421375
,jungle,0.952729642
,aggression,0.951706111
,animal,0.943596601
,conservation,0.939443767
,grass,0.936408281
,stripe,0.924922585
,zoo,0.91752547
,portrait,0.914492846
,hunter,0.909312665
,large,0.902196109
https://scontent.cdninstagram.com/t51.2885-15/e35/13391088_1083759248365492_1415100612_n.jpg,empty,0.988788724
,wall,0.982777953
,no person,0.970371485
,room,0.954288363
,exhibition,0.941309452
,door,0.926326156
,family,0.91380322
,architecture,0.913298607
,street,0.910460591
,building,0.901801705
,people,0.890093029
,house,0.889384091
,light,0.88340199
,indoors,0.879058838
,wood,0.876797318
,museum,0.871902227
,urban,0.862753749
,security,0.857361257
,old,0.855191708
,safety,0.849055409
https://scontent.cdninstagram.com/t51.2885-15/e35/13391088_1083759248365492_1415100612_n.jpg,empty,0.988788724
,wall,0.982777953
,no person,0.970371485
,room,0.954288363
,exhibition,0.941309452
,door,0.926326156
,family,0.91380322
,architecture,0.913298607
,street,0.910460591
,building,0.901801705
,people,0.890093029
,house,0.889384091
,light,0.88340199
,indoors,0.879058838
,wood,0.876797318
,museum,0.871902227
,urban,0.862753749
,security,0.857361257
,old,0.855191708
,safety,0.849055409
https://scontent.cdninstagram.com/t51.2885-15/e35/13437180_1743619229248106_764991388_n.jpg,man,0.960242748
,woman,0.959618449
,togetherness,0.953612268
,fun,0.951742113
,people,0.950834334
,travel,0.945785522
,recreation,0.943373978
,water,0.942019939
,beach,0.93319571
,leisure,0.925704539
,enjoyment,0.923373103
,sand,0.906275511
,love,0.878992081
,outdoors,0.868832946
,summer,0.865617394
,friendship,0.849767447
,group,0.841236591
,vacation,0.838652968
,seashore,0.831865668
,child,0.829186678
https://scontent.cdninstagram.com/t51.2885-15/s750x750/sh0.08/e35/13437190_258059701237911_491712744_n.jpg,people,0.993480206
,adult,0.987984061
,man,0.974398851
,woman,0.967070699
,seat,0.965913892
,illustration,0.965641618
,vehicle,0.954251647
,house,0.952154994
,room,0.948701859
,furniture,0.94595015
,wear,0.929410577
,indoors,0.923373699
,chair,0.919124961
,city,0.918365955
,transportation system,0.917880535
,art,0.917714
,girl,0.915959477
,group,0.907979429
,building,0.896963477
,lifestyle,0.896415472
