url,class,score
https://scontent-sit4-1.cdninstagram.com/t51.2885-15/s640x640/e15/13423680_1679519862311641_1742721534_n.jpg,people,0.9901310205459595
,man,0.9767694473266602
,adult,0.9690474271774292
,wear,0.9678816199302673
,no person,0.9666740894317627
,one,0.9654104709625244
,shadow,0.9513193368911743
,portrait,0.9394062161445618
,monochrome,0.9236955642700195
,veil,0.9151281118392944
,woman,0.9100298881530762
,light,0.8663465976715088
,sculpture,0.8445455431938171
,abstract,0.8442566990852356
,museum,0.8333494067192078
,wedding,0.8281944990158081
,side view,0.8207621574401855
,two,0.7891965508460999
,business,0.7569390535354614
,silhouette,0.747360348701477
https://scontent-sit4-1.cdninstagram.com/t51.2885-15/e35/13166897_239753109717723_712716678_n.jpg,hijab,0.9961276054382324
,woman,0.9933018088340759
,child,0.9847471714019775
,people,0.9846385717391968
,adult,0.9841967821121216
,headscarf,0.9797177314758301
,portrait,0.9779794216156006
,veil,0.9745885133743286
,togetherness,0.9652931690216064
,man,0.9570482969284058
,group,0.9519664645195007
,wear,0.9505789279937744
,monochrome,0.9177389144897461
,happiness,0.9072986245155334
,family,0.90433669090271
,bill,0.9006365537643433
,vertical,0.8898888826370239
,nun,0.8896970748901367
,girl,0.883342981338501
,three,0.8829784393310547
https://scontent-sit4-1.cdninstagram.com/t51.2885-15/e35/13116804_1198974940135027_15945830_n.jpg,outdoors,0.9709914922714233
,sky,0.9668547511100769
,vertical,0.9623292088508606
,illuminated,0.9586445093154907
,horizontal,0.9438372850418091
,illustration,0.9406404495239258
,travel,0.9179947972297668
,light,0.9171508550643921
,dusk,0.9119710922241211
,architecture,0.911247730255127
,column,0.9023207426071167
,horizontal,0.8882484436035156
,design,0.874024510383606
,no person,0.8549419641494751
,abstract,0.8460624814033508
,tower,0.8306752443313599
,business,0.8256772756576538
,desktop,0.8233312368392944
,shadow,0.8199030160903931
,fair weather,0.8162398338317871
https://scontent-sit4-1.cdninstagram.com/t51.2885-15/e35/12747601_139836883070186_617793012_n.jpg,horizontal,0.9795479774475098
,vertical,0.9614356756210327
,people,0.9515151977539062
,illustration,0.9351217746734619
,cloud,0.9319068193435669
,abstract,0.9224111437797546
,creativity,0.9202677011489868
,dark,0.9184396266937256
,pattern,0.8945246934890747
,no person,0.8864555358886719
,science,0.8758841753005981
,sky,0.8607491254806519
,adult,0.8602863550186157
,outdoors,0.8586355447769165
,desktop,0.841306209564209
,astronomy,0.8338229656219482
,vector,0.8230334520339966
,moon,0.7999193668365479
,business,0.7992801666259766
,nature,0.7964680790901184
https://scontent-sit4-1.cdninstagram.com/t51.2885-15/s480x480/e35/12224317_1520007764989586_1407874852_n.jpg,symbol,0.9843941926956177
,no person,0.978947103023529
,art,0.9772063493728638
,people,0.969131588935852
,abstract,0.9582475423812866
,retro,0.9543648958206177
,design,0.9498463869094849
,one,0.9237654209136963
,silhouette,0.9224876165390015
,sign,0.9219369888305664
,old,0.9187247157096863
,shape,0.9180795550346375
,graffiti,0.9168915748596191
,vector,0.9153047800064087
,ink,0.9150006771087646
,dirty,0.9147582054138184
,artistic,0.9145394563674927
,isolated,0.9114097356796265
,texture,0.9051480293273926
,illustration,0.902612030506134
https://scontent-sit4-1.cdninstagram.com/t51.2885-15/e35/13628269_1713091185608391_22537838_n.jpg,woman,0.9869071245193481
,hijab,0.9702645540237427
,fashion,0.9462926387786865
,wear,0.9330348968505859
,shopping,0.9268350601196289
,winter,0.9123804569244385
,headscarf,0.8883099555969238
,traditional,0.884151816368103
,scarf,0.8668167591094971
,Christmas,0.8455004692077637
,people,0.8392337560653687
,contemporary,0.8307217359542847
,veil,0.8259050846099854
,pretty,0.8184362649917603
,dress,0.7985642552375793
,portrait,0.7897896766662598
,adult,0.7814858555793762
,religion,0.7785021662712097
,bag,0.7730870842933655
,elegant,0.7697351574897766
https://scontent-sit4-1.cdninstagram.com/t51.2885-15/e35/12912620_1024459237629513_1488986144_n.jpg,no person,0.9931505918502808
,delicious,0.991563081741333
,food,0.9883772134780884
,dairy product,0.9616520404815674
,cream,0.9561253190040588
,creamy,0.9381897449493408
,fruit,0.9201916456222534
,dinner,0.9148921966552734
,sweet,0.8972429037094116
,grow,0.8967832922935486
,lunch,0.8948465585708618
,baking,0.8945519924163818
,chocolate,0.8868639469146729
,plate,0.8826764225959778
,breakfast,0.8821252584457397
,homemade,0.8747642040252686
,nutrition,0.868661642074585
,vanilla,0.8555923700332642
,jam,0.8548965454101562
,sugar,0.8498762845993042
https://scontent-sit4-1.cdninstagram.com/t51.2885-15/e15/p640x640/12750348_1738892206340157_37856667_n.jpg,child,0.9994540214538574
,baby,0.9989147186279297
,newborn,0.9972058534622192
,innocence,0.9897303581237793
,little,0.9879507422447205
,boy,0.9866353273391724
,love,0.9813663959503174
,tiny,0.980758786201477
,cute,0.9754894971847534
,offspring,0.9622024297714233
,people,0.961927056312561
,family,0.954138994216919
,toddler,0.9513614177703857
,indoors,0.9467912912368774
,infancy,0.9367061853408813
,hospital,0.927259087562561
,birth,0.9272418022155762
,suckling,0.9240208864212036
,pacifier,0.9234347343444824
,maternity,0.9203571677207947
https://scontent-sit4-1.cdninstagram.com/t51.2885-15/s480x480/e35/12501638_1292303347450544_435065771_n.jpg,glass,0.913702130317688
,Christmas,0.910129189491272
,drink,0.8920537829399109
,celebration,0.8909163475036621
,illustration,0.8670588731765747
,no person,0.8600893020629883
,desktop,0.8585687875747681
,winter,0.8544994592666626
,symbol,0.8458840250968933
,business,0.8137860894203186
,success,0.8021718263626099
,cold,0.7941657304763794
,decoration,0.7600901126861572
,conceptual,0.750796377658844
,text,0.7494769096374512
,isolated,0.7478606700897217
,balance,0.7374953031539917
,abstract,0.7208596467971802
,wealth,0.7068869471549988
,image,0.6885815262794495
https://scontent-sit4-1.cdninstagram.com/t51.2885-15/e35/12965766_2002466653312582_2112898875_n.jpg,healthcare,0.9875733256340027
,medicine,0.9847619533538818
,people,0.9675091505050659
,girl,0.9636054635047913
,woman,0.9479278326034546
,addiction,0.9455195665359497
,skin,0.9327148199081421
,closeup,0.923940896987915
,one,0.9042067527770996
,food,0.8917185068130493
,nude,0.8869740962982178
,foot,0.8642079830169678
,health,0.8601675629615784
,man,0.8473447561264038
,adult,0.8412450551986694
,smoke,0.8392497301101685
,nature,0.8255724906921387
,medical,0.8189826011657715
,hand,0.8170914649963379
,treatment,0.7971997261047363
https://scontent-sit4-1.cdninstagram.com/t51.2885-15/e35/13732287_1231054756913999_1731105611_n.jpg,people,0.9672306776046753
,woman,0.9648969173431396
,man,0.9614119529724121
,flag,0.9601030945777893
,patriotism,0.9462622404098511
,hijab,0.9187463521957397
,young,0.9002068638801575
,adult,0.8978790044784546
,country,0.871312141418457
,wear,0.8393975496292114
,travel,0.838033139705658
,symbol,0.8318115472793579
,portrait,0.8286074995994568
,child,0.8262789249420166
,religion,0.825262188911438
,group,0.819394588470459
,looking,0.8070261478424072
,populace,0.8012536764144897
,love,0.788719654083252
,freedom,0.7849385142326355
https://scontent-sit4-1.cdninstagram.com/t51.2885-15/s750x750/sh0.08/e35/12301150_1076210035736120_1938356509_n.jpg,child,0.9995514154434204
,baby,0.9991359710693359
,newborn,0.9936879277229309
,little,0.9886733293533325
,boy,0.9855458736419678
,cute,0.9804350137710571
,family,0.9735172986984253
,people,0.9731673002243042
,toddler,0.9713554382324219
,fun,0.9682260751724243
,innocence,0.9634394645690918
,offspring,0.9585415124893188
,cover,0.9585230350494385
,girl,0.9476714730262756
,love,0.9463557004928589
,happiness,0.9371895790100098
,bed,0.9298592805862427
,toy,0.928730845451355
,two,0.9026357531547546
,confection,0.8993183374404907
https://scontent-sit4-1.cdninstagram.com/t51.2885-15/e35/12393630_1539336039713105_1726689435_n.jpg,food,0.9878315329551697
,breakfast,0.9799821376800537
,dawn,0.975138783454895
,coffee,0.9717421531677246
,drink,0.9717279672622681
,spoon,0.9617350101470947
,milk,0.9552041292190552
,cream,0.9458958506584167
,plate,0.9412658214569092
,no person,0.940359354019165
,cup,0.9323012828826904
,vertical,0.9316288232803345
,chocolate,0.9294822216033936
,espresso,0.9272451996803284
,indoors,0.9253236055374146
,sweet,0.924105167388916
,cappuccino,0.9240649938583374
,table,0.920966625213623
,square,0.9004672169685364
,refreshment,0.8910349607467651
https://scontent-sit4-1.cdninstagram.com/t51.2885-15/s750x750/sh0.08/e35/13402556_554584488035904_1933534661_n.jpg,Christmas,0.998527467250824
,lamp,0.9981956481933594
,winter,0.9958368539810181
,illuminated,0.9918981790542603
,bulb,0.9908888936042786
,bright,0.9908773303031921
,traditional,0.9882490038871765
,lantern,0.9846521615982056
,light,0.9833875894546509
,hanging,0.9828951358795166
,light,0.9816242456436157
,electricity,0.9781175255775452
,celebration,0.9751379489898682
,shining,0.9722720384597778
,glass,0.9690908193588257
,no person,0.9653130769729614
,decoration,0.9652263522148132
,snow,0.9593847393989563
,design,0.9578526020050049
,greeting,0.9573011994361877
https://scontent-sit4-1.cdninstagram.com/t51.2885-15/s640x640/sh0.08/e35/13658741_1078098985617846_1111889901_n.jpg,hijab,0.9998760223388672
,headscarf,0.9995259046554565
,religion,0.9994747638702393
,veil,0.9989533424377441
,woman,0.9873849749565125
,people,0.9857199192047119
,wear,0.9823786020278931
,group,0.9820036888122559
,traditional,0.9765694737434387
,nun,0.9595316648483276
,family,0.9586427211761475
,adult,0.9555132389068604
,ceremony,0.9554034471511841
,Easter,0.9535304307937622
,spirituality,0.952131986618042
,scarf,0.9456321001052856
,prayer,0.942869246006012
,Bedouin,0.9380612373352051
,child,0.936040997505188
,culture,0.9285901784896851
https://scontent-sit4-1.cdninstagram.com/t51.2885-15/e35/12822317_835037246606449_698927033_n.jpg,shopping,0.9993452429771423
,shop,0.9990236759185791
,sale,0.9976432919502258
,stock,0.9949955940246582
,fashion,0.9937832355499268
,wear,0.9936591982841492
,hanger,0.9930881857872009
,gift,0.9918069839477539
,bag,0.987609326839447
,boutique,0.9851818680763245
,style,0.9832049608230591
,wardrobe,0.9824250936508179
,luxury,0.9763658046722412
,purchase,0.9762253165245056
,dress,0.970869779586792
,hanging,0.9628714323043823
,design,0.9606159925460815
,bargain,0.9604706764221191
,shopper,0.9552657008171082
,Christmas,0.9540640115737915
https://scontent-sit4-1.cdninstagram.com/t51.2885-15/e35/12479522_1134893239868493_48712321_n.jpg,indoors,0.9676526188850403
,people,0.9611916542053223
,woman,0.9558894634246826
,portrait,0.9530016183853149
,one,0.9282160997390747
,fashion,0.9237337112426758
,business,0.9217228889465332
,adult,0.9097922444343567
,wear,0.8939757347106934
,man,0.8646547198295593
,girl,0.8535957336425781
,leisure,0.7991884350776672
,facial expression,0.7758257389068604
,enjoyment,0.771898627281189
,looking,0.769224226474762
,model,0.7685647010803223
,fun,0.7629572153091431
,window,0.7539303302764893
,travel,0.7430638074874878
,commerce,0.7306225299835205
https://scontent-sit4-1.cdninstagram.com/t51.2885-15/s750x750/sh0.08/e35/13181343_464048767124489_1446043844_n.jpg,child,0.9980427026748657
,baby,0.9880253076553345
,little,0.9809677600860596
,people,0.9799700379371643
,cute,0.9788570404052734
,girl,0.9759188890457153
,boy,0.9727479219436646
,portrait,0.9657406806945801
,fun,0.9645317196846008
,family,0.9435521364212036
,innocence,0.9417458176612854
,toddler,0.9380995035171509
,confection,0.9348820447921753
,two,0.9328816533088684
,love,0.9237437844276428
,happiness,0.9089943170547485
,one,0.9064514636993408
,toy,0.8964268565177917
,indoors,0.8925473690032959
,sit,0.8784602880477905
https://scontent-sit4-1.cdninstagram.com/t51.2885-15/e35/13696469_1069745046450011_390995376_n.jpg,arrival,0.978348970413208
,illustration,0.9771158695220947
,card,0.9752029180526733
,birthday,0.9681879878044128
,invitation,0.9530581831932068
,text,0.9511157274246216
,baby,0.945650577545166
,announcement,0.9361687302589417
,vector,0.9282854795455933
,sketch,0.9198024272918701
,cute,0.9168369770050049
,greeting,0.9145433902740479
,celebration,0.9140929579734802
,party,0.9119570851325989
,anniversary,0.9070332050323486
,love,0.8933914303779602
,fun,0.889271080493927
,design,0.8843896985054016
,welcome,0.8698993921279907
,child,0.8629337549209595
https://scontent-sit4-1.cdninstagram.com/t51.2885-15/e35/13256655_1581152382184212_2075070226_n.jpg,paper,0.9847814440727234
,banner,0.973095715045929
,illustration,0.9723101258277893
,design,0.9626064300537109
,picture frame,0.9617414474487305
,desktop,0.9589030146598816
,card,0.9532016515731812
,bill,0.9460543394088745
,business,0.9418246150016785
,symbol,0.94048011302948
,vector,0.9169858694076538
,template,0.9141582250595093
,text,0.9036133289337158
,art,0.9030307531356812
,image,0.8948161602020264
,label,0.8931680917739868
,abstract,0.8902215361595154
,flag,0.8856339454650879
,margin,0.8835902214050293
,graphic,0.8762590885162354
https://scontent-sit4-1.cdninstagram.com/t51.2885-15/s750x750/sh0.08/e35/12907328_1575129812800615_1945426488_n.jpg,headscarf,0.997165322303772
,hijab,0.9949097037315369
,veil,0.9942760467529297
,wear,0.9901578426361084
,woman,0.9869967699050903
,people,0.9856520891189575
,portrait,0.9795798063278198
,religion,0.9776363372802734
,adult,0.973640501499176
,group,0.9645397663116455
,scarf,0.9593232870101929
,two,0.9482174515724182
,man,0.9408255219459534
,girl,0.9290359020233154
,facial expression,0.892493724822998
,happiness,0.8818091154098511
,togetherness,0.8756115436553955
,stock,0.8748047351837158
,three,0.8445451259613037
,love,0.8438626527786255
https://scontent-sit4-1.cdninstagram.com/t51.2885-15/e35/13329139_126852544402880_1919423978_n.jpg,indoors,0.9884549379348755
,woman,0.984190821647644
,people,0.9824961423873901
,child,0.9784271717071533
,love,0.9658980369567871
,fun,0.9621919393539429
,family,0.9614039659500122
,togetherness,0.9567532539367676
,adult,0.9553289413452148
,happiness,0.9395365715026855
,man,0.9234905242919922
,portrait,0.9175475239753723
,cheerful,0.9081383943557739
,cute,0.9034014940261841
,joy,0.8949118852615356
,mirror,0.8934204578399658
,laughing,0.8883224725723267
,friendship,0.8855141997337341
,horizontal,0.8832471370697021
,young,0.8542094230651855
https://scontent-sit4-1.cdninstagram.com/t51.2885-15/e35/12965189_605437076298652_716988874_n.jpg,child,0.9999948143959045
,little,0.9987664222717285
,cute,0.9985626935958862
,baby,0.9980005025863647
,fun,0.995503306388855
,family,0.9942421913146973
,boy,0.989804208278656
,innocence,0.988464891910553
,joy,0.9783230423927307
,togetherness,0.9705926179885864
,happiness,0.956350564956665
,toddler,0.9529448747634888
,sit,0.9527708292007446
,laughing,0.9254753589630127
,precious,0.916617751121521
,cheerful,0.9143922328948975
,preschool,0.9040528535842896
,vertical,0.9016202092170715
,people,0.8922227621078491
,toy,0.8776400089263916
https://scontent-sit4-1.cdninstagram.com/t51.2885-15/e35/13532040_1429391700420859_1409750437_n.jpg,car,0.9995903968811035
,vehicle,0.9991999864578247
,transportation system,0.997423529624939
,traffic,0.9902570843696594
,road,0.9837802648544312
,drive,0.9761693477630615
,travel,0.970781147480011
,street,0.965779185295105
,action,0.962976336479187
,police,0.9528807401657104
,truck,0.9458966255187988
,race,0.9385708570480347
,fast,0.9181007146835327
,driver,0.9173519611358643
,accident,0.9127305746078491
,storm,0.9024284482002258
,city,0.8992730975151062
,auto racing,0.870712161064148
,competition,0.8684827089309692
,outdoors,0.8605492115020752
https://scontent-sit4-1.cdninstagram.com/t51.2885-15/e35/12276750_1654646124790501_1109932828_n.jpg,people,0.985790491104126
,child,0.9799004793167114
,portrait,0.9779482483863831
,one,0.9692060351371765
,indoors,0.9623569846153259
,laptop,0.9540681838989258
,girl,0.9525163173675537
,adult,0.934708833694458
,wear,0.9346586465835571
,facial expression,0.931114912033081
,room,0.9291582703590393
,computer,0.9198535680770874
,furniture,0.9174560308456421
,family,0.9128274917602539
,technology,0.9046099185943604
,woman,0.899235725402832
,sit,0.8942956328392029
,education,0.893208384513855
,desk,0.8877308964729309
,school,0.8850722312927246
https://scontent-sit4-1.cdninstagram.com/t51.2885-15/e35/12393735_1520129064948449_156583365_n.jpg,child,0.997512698173523
,baby,0.9848388433456421
,portrait,0.9795066118240356
,innocence,0.9793264865875244
,cute,0.960465133190155
,people,0.9593713283538818
,newborn,0.9512268900871277
,indoors,0.9468534588813782
,horizontal,0.9448649287223816
,cover,0.9222270250320435
,happiness,0.9035574197769165
,fun,0.9011371731758118
,vertical,0.8986067175865173
,little,0.8970391750335693
,cheerful,0.8951228857040405
,headshot,0.893775224685669
,boy,0.8850208520889282
,facial expression,0.8623070120811462
,infancy,0.8575955629348755
,adult,0.851577877998352
https://scontent-sit4-1.cdninstagram.com/t51.2885-15/e35/13129461_1719551964963281_2035034338_n.jpg,portrait,0.9824271202087402
,monochrome,0.9744617938995361
,woman,0.9738000631332397
,people,0.9715930223464966
,girl,0.955604076385498
,fashion,0.9404958486557007
,face,0.9315069913864136
,adult,0.9312803149223328
,black and white,0.9310990571975708
,model,0.9106765389442444
,beautiful,0.8930538892745972
,desktop,0.8930008411407471
,person,0.888820230960846
,smile,0.8778848648071289
,set,0.8700394034385681
,young,0.8676196932792664
,man,0.8595989942550659
,one,0.8398754000663757
,eye,0.8352082967758179
,art,0.8286004066467285
https://scontent-sit4-1.cdninstagram.com/t51.2885-15/e35/13557272_1757033394552907_2076876203_n.jpg,wear,0.9888193011283875
,woman,0.9754117727279663
,hijab,0.9535596370697021
,gown,0.9481346011161804
,veil,0.9416137933731079
,fashion,0.9238224029541016
,people,0.8801229000091553
,religion,0.8794989585876465
,adult,0.8512488603591919
,headscarf,0.8493790626525879
,indoors,0.8472862243652344
,shopping,0.8100333213806152
,dress,0.8099080920219421
,nun,0.7940933704376221
,gown,0.7930615544319153
,scarf,0.783697247505188
,traditional,0.7785876989364624
,man,0.7771186828613281
,one,0.7697753310203552
,graduation,0.7674809694290161
https://scontent-sit4-1.cdninstagram.com/t51.2885-15/e35/13249935_290118481330329_171308933_n.jpg,text,0.9812278151512146
,give voice,0.9798167943954468
,definition,0.9717305898666382
,education,0.9430977702140808
,business,0.892859935760498
,page,0.881467342376709
,book,0.872056782245636
,typescript,0.8693309426307678
,disease,0.8554401397705078
,research,0.8552510738372803
,medicine,0.8538998365402222
,science,0.84784996509552
,desktop,0.8468539714813232
,number,0.8464893102645874
,data,0.8462282419204712
,management,0.8399707674980164
,conceptual,0.836729109287262
,abstract,0.8316432237625122
,dictionary,0.8208969831466675
,knowledge,0.8086596727371216
https://scontent-sit4-1.cdninstagram.com/t51.2885-15/e35/12783342_1678836959035682_1004873498_n.jpg,group,0.9644675850868225
,education,0.9612200260162354
,adult,0.9568125009536743
,man,0.9453878402709961
,people,0.9416549801826477
,woman,0.9358711242675781
,indoors,0.9185187220573425
,school,0.8896282315254211
,industry,0.8749207258224487
,university,0.8693555593490601
,vehicle,0.8508725166320801
,commerce,0.8472644090652466
,facial expression,0.8439382314682007
,teamwork,0.8186997175216675
,grinder,0.8089962005615234
,portrait,0.8085096478462219
,room,0.8051111698150635
,business,0.7943756580352783
,group,0.7744515538215637
,furniture,0.7693016529083252
https://scontent-sit4-1.cdninstagram.com/t51.2885-15/e35/13671230_487133891482646_209624236_n.jpg,hijab,0.9988573789596558
,veil,0.9935881495475769
,headscarf,0.9932643175125122
,woman,0.9895470142364502
,group,0.9844043254852295
,scarf,0.9816009402275085
,portrait,0.9781376123428345
,people,0.9762938022613525
,religion,0.972833514213562
,man,0.9622491598129272
,wear,0.953673243522644
,togetherness,0.9483048915863037
,girl,0.9448873996734619
,three,0.929817259311676
,child,0.9278339147567749
,adult,0.9102083444595337
,traditional,0.9078074097633362
,love,0.9076275825500488
,family,0.9070206880569458
,friendship,0.9064935445785522
https://scontent-sit4-1.cdninstagram.com/t51.2885-15/e35/13584138_104360203311637_1031843591_n.jpg,Christmas,0.9609274864196777
,shopping,0.9569990038871765
,woman,0.9510276913642883
,fun,0.9495823383331299
,gift,0.9452941417694092
,paper,0.9406462907791138
,people,0.9296435117721558
,cute,0.9286361932754517
,young,0.92253577709198
,fashion,0.9148143529891968
,indoors,0.911239504814148
,child,0.9040499925613403
,traditional,0.8971608877182007
,surprise,0.8742114305496216
,girl,0.8728669881820679
,birthday,0.8676438927650452
,celebration,0.8647053241729736
,joy,0.8619102239608765
,man,0.8556602001190186
,pretty,0.8511441946029663
https://scontent-sit4-1.cdninstagram.com/t51.2885-15/e35/12331857_1177390715622633_1301063875_n.jpg,screen,0.9950287342071533
,display,0.9902368783950806
,technology,0.9802432060241699
,monitor,0.9674433469772339
,business,0.9666222929954529
,computer,0.9647362232208252
,desktop,0.9502600431442261
,modern,0.9484525322914124
,equipment,0.9483526945114136
,wireless,0.9371418952941895
,blank,0.9351677298545837
,communication,0.9144210815429688
,telephone,0.9078100323677063
,electronics,0.9075216054916382
,multimedia,0.8937819004058838
,no person,0.8857324123382568
,technical school,0.8847802877426147
,image,0.8832058906555176
,isolated,0.8809777498245239
,data,0.8791322708129883
https://scontent-sit4-1.cdninstagram.com/t51.2885-15/e35/13181237_1027838743965008_1784624488_n.jpg,hijab,0.9911332130432129
,headscarf,0.9865426421165466
,woman,0.9849810600280762
,veil,0.9815589189529419
,people,0.9764162302017212
,scarf,0.9645585417747498
,religion,0.9549698829650879
,wear,0.9504039883613586
,child,0.9420142769813538
,group,0.9370949268341064
,adult,0.9270387887954712
,outdoors,0.9209136366844177
,man,0.9185579419136047
,portrait,0.9075438380241394
,togetherness,0.8836570978164673
,family,0.8586249947547913
,recreation,0.8571748733520508
,girl,0.8440384864807129
,landscape,0.8332247138023376
,happiness,0.8311915993690491
https://scontent-sit4-1.cdninstagram.com/t51.2885-15/e35/915582_1716817168587493_1004536573_n.jpg,hijab,0.9990684986114502
,headscarf,0.9989949464797974
,scarf,0.995488703250885
,veil,0.9954636693000793
,wear,0.9877719283103943
,woman,0.9861094951629639
,people,0.9816782474517822
,religion,0.9736695289611816
,traditional,0.9524405002593994
,child,0.9483929872512817
,portrait,0.9342546463012695
,adult,0.9248306155204773
,girl,0.9132481813430786
,man,0.9131842851638794
,fun,0.8967841267585754
,culture,0.8896695375442505
,family,0.8835914134979248
,facial expression,0.8747984170913696
,group,0.8620189428329468
,color,0.8505780696868896
https://scontent-sit4-1.cdninstagram.com/t51.2885-15/s640x640/sh0.08/e35/13298269_1296739430355354_2137864703_n.jpg,furniture,0.9469079971313477
,business,0.9412904977798462
,room,0.9371155500411987
,modern,0.923132061958313
,indoors,0.9222170114517212
,people,0.9039088487625122
,adult,0.9034475088119507
,one,0.9016488790512085
,office,0.8987299203872681
,offense,0.8961427807807922
,inside,0.8919620513916016
,vehicle,0.8849525451660156
,family,0.8792834877967834
,style,0.8731234073638916
,paper,0.8643053770065308
,house,0.864259660243988
,table,0.8576616048812866
,desk,0.8554409742355347
,building,0.8501592874526978
,portrait,0.8465368747711182
https://scontent-sit4-1.cdninstagram.com/t51.2885-15/e35/13562075_1829014333993297_1641345246_n.jpg,woman,0.9971826076507568
,group,0.9904900789260864
,girl,0.9801252484321594
,beautiful,0.9770179986953735
,people,0.9732110500335693
,child,0.9701116681098938
,lifestyle,0.9560849666595459
,adult,0.9531344175338745
,smile,0.9445397853851318
,young,0.942288875579834
,school,0.9400608539581299
,education,0.9347034692764282
,friendship,0.9225438237190247
,fun,0.921239972114563
,laughing,0.9135744571685791
,man,0.9080808162689209
,academic,0.9068546891212463
,happiness,0.9025042057037354
,hijab,0.9006016850471497
,class,0.8985641002655029
https://scontent-sit4-1.cdninstagram.com/t51.2885-15/e35/13556792_218767928522050_103509301_n.jpg,hijab,0.9995160102844238
,headscarf,0.9990348815917969
,people,0.993307888507843
,religion,0.9917710423469543
,wear,0.9908595681190491
,veil,0.9906665086746216
,group,0.9871387481689453
,woman,0.9849664568901062
,scarf,0.980536162853241
,portrait,0.9745980501174927
,adult,0.9740105867385864
,family,0.9604296684265137
,offspring,0.9549192190170288
,child,0.9484961628913879
,man,0.9438086748123169
,nun,0.9346603155136108
,facial expression,0.9286079406738281
,two,0.8995153903961182
,ceremony,0.8866208791732788
,girl,0.8743628859519958
https://scontent-sit4-1.cdninstagram.com/t51.2885-15/e35/12822462_1785272141694880_643258157_n.jpg,woman,0.9950201511383057
,togetherness,0.9884120225906372
,man,0.9856593012809753
,indoors,0.9805231094360352
,adult,0.9796338081359863
,people,0.9750593900680542
,happiness,0.9526923298835754
,family,0.9516284465789795
,facial expression,0.9487650394439697
,group,0.9327520132064819
,enjoyment,0.9309806823730469
,table,0.9295586347579956
,sit,0.9283162355422974
,furniture,0.9218882918357849
,two,0.9079455733299255
,friendship,0.8849856853485107
,room,0.8801805377006531
,lifestyle,0.879711389541626
,cooking,0.8589485883712769
,fun,0.8568969964981079
https://scontent-sit4-1.cdninstagram.com/t51.2885-15/e35/11417481_807816469348509_734674812_n.jpg,food,0.9943758249282837
,cream,0.9764502048492432
,no person,0.9630141258239746
,meal,0.9616568684577942
,epicure,0.9549878835678101
,dairy product,0.9549276828765869
,healthy,0.9538794159889221
,delicious,0.9537529945373535
,vegetable,0.9499824643135071
,grow,0.9464933276176453
,diet,0.9446753859519958
,bowl,0.944649338722229
,milk,0.9445381164550781
,tasty,0.93513023853302
,refreshment,0.9341918230056763
,dish,0.9340757727622986
,rice,0.9328348636627197
,cuisine,0.9298030138015747
,sweet,0.9296398758888245
,dairy,0.922069787979126
https://scontent-sit4-1.cdninstagram.com/t51.2885-15/e35/13573626_1543468435960812_810526485_n.jpg,no person,0.9812050461769104
,color,0.9590871334075928
,sweet,0.9569822549819946
,cake,0.9557934999465942
,party,0.9543726444244385
,handmade,0.9385112524032593
,decoration,0.9383118152618408
,bright,0.920920193195343
,celebration,0.9188675880432129
,traditional,0.8989336490631104
,homemade,0.8966577053070068
,sugar,0.8964841365814209
,food,0.8580114245414734
,birthday,0.8417336344718933
,Easter,0.8416540622711182
,motley,0.8326495289802551
,round,0.8103461861610413
,desktop,0.8036179542541504
,pattern,0.8015217781066895
,festival,0.7969107031822205
https://scontent-sit4-1.cdninstagram.com/t51.2885-15/e35/12797664_1106323422732043_897654391_n.jpg,people,0.9663844704627991
,festival,0.951249361038208
,exhibition,0.9502876996994019
,school,0.9439449310302734
,many,0.9438128471374512
,crowd,0.9432187080383301
,street,0.9371938705444336
,city,0.9286143183708191
,tourist,0.9201865196228027
,child,0.9187615513801575
,event,0.9120050668716431
,carnival,0.910811185836792
,fun,0.905846357345581
,market,0.9051655530929565
,editorial,0.9041714072227478
,competition,0.8957815766334534
,shopping,0.8909114599227905
,tourism,0.888272762298584
,group,0.8796050548553467
,stock,0.8590091466903687
https://scontent-sit4-1.cdninstagram.com/t51.2885-15/e35/12728633_1398636730435918_859082791_n.jpg,woman,0.9911775588989258
,girl,0.9851148724555969
,portrait,0.9849199056625366
,group,0.9823570847511292
,people,0.977349042892456
,car,0.9752658605575562
,man,0.9693475961685181
,adult,0.9553533792495728
,smile,0.9495105743408203
,happiness,0.9427474737167358
,friendship,0.9422861933708191
,three,0.9371640682220459
,couple,0.92015540599823
,togetherness,0.901681661605835
,indoors,0.8828165531158447
,vehicle,0.8564668297767639
,travel,0.85291588306427
,love,0.8448897004127502
,facial expression,0.8443990349769592
,laughing,0.841814398765564
https://scontent-sit4-1.cdninstagram.com/t51.2885-15/e35/13725524_1281302271910066_1888221540_n.jpg,people,0.9911555051803589
,shopping,0.9759610891342163
,group,0.9663934111595154
,celebration,0.9576212167739868
,woman,0.9478651285171509
,festival,0.9418678879737854
,street,0.9306807518005371
,commerce,0.9303320646286011
,wear,0.9223008155822754
,stock,0.9112628698348999
,market,0.887343168258667
,crowd,0.8726672530174255
,child,0.8718178272247314
,family,0.8638497591018677
,Christmas,0.8436455726623535
,many,0.8401918411254883
,adult,0.8396266102790833
,gift,0.8364752531051636
,road,0.8273290991783142
,city,0.8200117945671082
https://scontent-sit4-1.cdninstagram.com/t51.2885-15/e35/13129584_995181940560413_1029669312_n.jpg,rice,0.9956614971160889
,food,0.9931768774986267
,cereal,0.9926159381866455
,healthy,0.9810702800750732
,meal,0.9794489145278931
,nutrition,0.948994517326355
,diet,0.9445071816444397
,no person,0.9441160559654236
,fiber,0.9422190189361572
,bowl,0.9358578324317932
,seed,0.9318980574607849
,cooking,0.9179674983024597
,wheat,0.9174140095710754
,closeup,0.9152342081069946
,desktop,0.9145257472991943
,breakfast,0.9120119214057922
,tasty,0.9087391495704651
,staple,0.9057122468948364
,delicious,0.8982530832290649
,dry,0.8940820693969727
https://scontent-sit4-1.cdninstagram.com/t51.2885-15/e35/13126768_258983537786697_703296402_n.jpg,graffiti,0.9950265884399414
,dirty,0.9898363351821899
,wall,0.9875026345252991
,messy,0.9860184192657471
,spray,0.9835015535354614
,splash,0.9810642004013062
,art,0.9708953499794006
,urban,0.9687445163726807
,texture,0.9680265188217163
,painting,0.9642573595046997
,stain,0.9606013894081116
,vandalism,0.9605520963668823
,abstract,0.9574265480041504
,old,0.9571088552474976
,water,0.9551433324813843
,color,0.9521311521530151
,rusty,0.9516782760620117
,artistic,0.9506770372390747
,street,0.9474596977233887
,rain,0.9440712928771973
https://scontent-sit4-1.cdninstagram.com/t51.2885-15/e35/12543097_1672628096350787_1055016995_n.jpg,hijab,0.9973630309104919
,headscarf,0.9969610571861267
,scarf,0.9895641207695007
,woman,0.9848760366439819
,family,0.9816356897354126
,girl,0.9770028591156006
,people,0.9709745645523071
,veil,0.9677376747131348
,beautiful,0.9674669504165649
,traditional,0.9564361572265625
,young,0.9493954181671143
,adult,0.9456003904342651
,wear,0.945082426071167
,child,0.9429274797439575
,religion,0.94203782081604
,portrait,0.9341212511062622
,smile,0.9306778311729431
,happiness,0.9296756982803345
,fun,0.9239698052406311
,love,0.9201681613922119
https://scontent-sit4-1.cdninstagram.com/t51.2885-15/e35/12357265_950978538274125_1727360385_n.jpg,business,0.9929934740066528
,no person,0.9800707697868347
,finance,0.9684119820594788
,text,0.9663206338882446
,education,0.9630582332611084
,success,0.9622069597244263
,money,0.947172999382019
,retail,0.9439492225646973
,shopping,0.9434822797775269
,identity,0.9317978620529175
,stock,0.9172146320343018
,design,0.9164111614227295
,strategy,0.9142783284187317
,internet,0.9025110602378845
,technology,0.8953906297683716
,illustration,0.8950467109680176
,money,0.8856824636459351
,security,0.8848812580108643
,solution,0.880362868309021
,merchandise,0.8801822066307068
