url,class,score,,,,,,,,
https://scontent.cdninstagram.com/t51.2885-15/e35/13118329_519836521534520_1895566173_n.jpg,people,0.9715518951416016,"My life",,Relationships,,"Here I am",,"Best friends",Fitness
,man,0.946103572845459,,,,,,,,
,woman,0.9230358600616455,,,,,,,,
,outdoors,0.8936184048652649,,,,,,,,
,business,0.8912988901138306,,,,,,,,
,adult,0.8696891069412231,,,,,,,,
,text,0.8597450256347656,,,,,,,,
,education,0.8488940000534058,,,,,,,,
,bill,0.8319097757339478,,,,,,,,
,banner,0.7952536344528198,,,,,,,,
,horizontal,0.7894617319107056,,,,,,,,
,teamwork,0.7680834531784058,,,,,,,,
,uniform,0.7610630989074707,,,,,,,,
,success,0.760694146156311,,,,,,,,
,service,0.7605630159378052,,,,,,,,
,competition,0.7512426376342773,,,,,,,,
,race,0.7499743103981018,,,,,,,,
,family,0.7441285848617554,,,,,,,,
,school,0.7284481525421143,,,,,,,,
,togetherness,0.7126305103302002,,,,,,,,
https://scontent.cdninstagram.com/t51.2885-15/s750x750/sh0.08/e35/13320166_1136978579687913_320759082_n.jpg,group,0.9812064170837402,Entertainment,Relationships,Food,,Events,Friends,"Meal time",
,people,0.9438183307647705,,,,,,,,
,group,0.9303308725357056,,,,,,,,
,woman,0.925048291683197,,,,,,,,
,man,0.9150825142860413,,,,,,,,
,adult,0.9123570919036865,,,,,,,,
,many,0.8894648551940918,,,,,,,,
,meeting,0.8847054243087769,,,,,,,,
,room,0.8822966814041138,,,,,,,,
,portrait,0.881176233291626,,,,,,,,
,furniture,0.8762142658233643,,,,,,,,
,chair,0.8751938939094543,,,,,,,,
,"facial expression",0.8613457679748535,,,,,,,,
,leader,0.8481333255767822,,,,,,,,
,sit,0.8041865229606628,,,,,,,,
,business,0.8025103807449341,,,,,,,,
,coffee,0.7913419008255005,,,,,,,,
,wear,0.781112790107727,,,,,,,,
,indoors,0.7797033786773682,,,,,,,,
,commerce,0.7711055278778076,,,,,,,,
https://scontent.cdninstagram.com/t51.2885-15/e35/12930788_929954740459002_1529736005_n.jpg,man,0.9851810336112976,Food,Relationships,,,"Meal time",Friends,,
,woman,0.9756418466567993,,,,,,,,
,group,0.9663887023925781,,,,,,,,
,table,0.9573410749435425,,,,,,,,
,friendship,0.9562042951583862,,,,,,,,
,togetherness,0.9557361006736755,,,,,,,,
,adult,0.9473445415496826,,,,,,,,
,happiness,0.9456468224525452,,,,,,,,
,people,0.9435250759124756,,,,,,,,
,drink,0.9405944347381592,,,,,,,,
,sit,0.9384530186653137,,,,,,,,
,enjoyment,0.9296112060546875,,,,,,,,
,group,0.9211318492889404,,,,,,,,
,indoors,0.9097496867179871,,,,,,,,
,family,0.9086177945137024,,,,,,,,
,room,0.9063337445259094,,,,,,,,
,restaurant,0.8991984128952026,,,,,,,,
,coffee,0.8789079785346985,,,,,,,,
,furniture,0.8768261671066284,,,,,,,,
,"facial expression",0.8687537908554077,,,,,,,,
https://scontent.cdninstagram.com/t51.2885-15/sh0.08/e35/p750x750/13183359_1146375985434622_1382378015_n.jpg,woman,0.9913972616195679,Relationships,Food,,,"Best friends",Dessert,,
,people,0.9806957244873047,,,,,,,,
,"facial expression",0.9748237729072571,,,,,,,,
,group,0.9725189208984375,,,,,,,,
,portrait,0.9672068357467651,,,,,,,,
,togetherness,0.9621244668960571,,,,,,,,
,man,0.9537427425384521,,,,,,,,
,enjoyment,0.9529010653495789,,,,,,,,
,indoors,0.9433025121688843,,,,,,,,
,interaction,0.9391912221908569,,,,,,,,
,daylight,0.9231526851654053,,,,,,,,
,child,0.9230549931526184,,,,,,,,
,adult,0.9187449216842651,,,,,,,,
,girl,0.8897110223770142,,,,,,,,
,happiness,0.8858708143234253,,,,,,,,
,wear,0.8705952167510986,,,,,,,,
,three,0.8683202266693115,,,,,,,,
,outdoors,0.8610076904296875,,,,,,,,
,family,0.8602914810180664,,,,,,,,
,adolescent,0.8551380634307861,,,,,,,,
https://scontent.cdninstagram.com/t51.2885-15/e35/12965011_1585966871715017_1269441480_n.jpg,young,0.9879465103149414,Relationships,Environment,Recreation,,"Best friends","Natural beauty",Recreation-s,
,leisure,0.9800650477409363,,,,,,,,
,lifestyle,0.9770594835281372,,,,,,,,
,exercise,0.9723652005195618,,,,,,,,
,fun,0.9679276943206787,,,,,,,,
,fitness,0.9649966359138489,,,,,,,,
,outdoors,0.9636163711547852,,,,,,,,
,adolescent,0.9578590393066406,,,,,,,,
,summer,0.9437646269798279,,,,,,,,
,recreation,0.9426964521408081,,,,,,,,
,boy,0.9340289831161499,,,,,,,,
,woman,0.9339628219604492,,,,,,,,
,nature,0.9324136972427368,,,,,,,,
,man,0.9315210580825806,,,,,,,,
,person,0.9301735162734985,,,,,,,,
,active,0.9283520579338074,,,,,,,,
,park,0.9262111186981201,,,,,,,,
,girl,0.9206616878509521,,,,,,,,
,people,0.9196622371673584,,,,,,,,
,sport,0.9164292812347412,,,,,,,,
https://scontent.cdninstagram.com/t51.2885-15/e35/12965247_1719348818303038_1721112776_n.jpg,people,0.9848257899284363,"My life",Commerce,Relationships,,"Here I am","Product/brand shots",Friends,
,group,0.9550842046737671,,,,,,,,
,adult,0.9500855803489685,,,,,,,,
,stock,0.9398636817932129,,,,,,,,
,man,0.9261869192123413,,,,,,,,
,woman,0.923738420009613,,,,,,,,
,commerce,0.919419527053833,,,,,,,,
,portrait,0.9112969636917114,,,,,,,,
,indoors,0.8875579833984375,,,,,,,,
,competition,0.8815181255340576,,,,,,,,
,election,0.8772901296615601,,,,,,,,
,shopping,0.8763978481292725,,,,,,,,
,many,0.8716691732406616,,,,,,,,
,wear,0.8639529943466187,,,,,,,,
,festival,0.8565660119056702,,,,,,,,
,soccer,0.8541246652603149,,,,,,,,
,market,0.8405188322067261,,,,,,,,
,administration,0.839521050453186,,,,,,,,
,business,0.8357006311416626,,,,,,,,
,food,0.8330018520355225,,,,,,,,
https://scontent.cdninstagram.com/t51.2885-15/e15/12747612_185658221803281_1768691325_n.jpg,people,0.9938638210296631,Relationships,,,,"Baby family",,,
,two,0.9921769499778748,,,,,,,,
,portrait,0.99049973487854,,,,,,,,
,love,0.990170419216156,,,,,,,,
,adult,0.9854558110237122,,,,,,,,
,man,0.9824085235595703,,,,,,,,
,boy,0.9784203171730042,,,,,,,,
,affection,0.9748356938362122,,,,,,,,
,child,0.9734121561050415,,,,,,,,
,"facial expression",0.9714809656143188,,,,,,,,
,family,0.9633704423904419,,,,,,,,
,togetherness,0.9631820917129517,,,,,,,,
,interaction,0.9410998821258545,,,,,,,,
,baby,0.9357766509056091,,,,,,,,
,indoors,0.933961033821106,,,,,,,,
,happiness,0.929624080657959,,,,,,,,
,offspring,0.9232659339904785,,,,,,,,
,embrace,0.9180258512496948,,,,,,,,
,woman,0.8826273679733276,,,,,,,,
,wear,0.8719717264175415,,,,,,,,
https://scontent.cdninstagram.com/t51.2885-15/s750x750/sh0.08/e35/12599325_1606881129536857_383248344_n.jpg,"facial expression",0.9938965439796448,Relationships,,,,Friends,,,
,group,0.9902206659317017,,,,,,,,
,portrait,0.9836342334747314,,,,,,,,
,happiness,0.9780591130256653,,,,,,,,
,daylight,0.9776536822319031,,,,,,,,
,group,0.9725010395050049,,,,,,,,
,friendship,0.9702333211898804,,,,,,,,
,togetherness,0.9699571132659912,,,,,,,,
,woman,0.9694262742996216,,,,,,,,
,people,0.9650681018829346,,,,,,,,
,interaction,0.9643703103065491,,,,,,,,
,enjoyment,0.9422257542610168,,,,,,,,
,laughing,0.9421486854553223,,,,,,,,
,outdoors,0.9408233165740967,,,,,,,,
,student,0.9407379031181335,,,,,,,,
,adult,0.9364907741546631,,,,,,,,
,three,0.9348280429840088,,,,,,,,
,four,0.9206835627555847,,,,,,,,
,man,0.9151749610900879,,,,,,,,
,adolescent,0.8824349641799927,,,,,,,,
https://scontent.cdninstagram.com/t51.2885-15/e35/12530902_1176335119045557_1800051893_n.jpg,food,0.9689158797264099,Food,Commerce,,,"Meal time","Product/brand shots",,
,set,0.9382578730583191,,,,,,,,
,desktop,0.9367949962615967,,,,,,,,
,dinner,0.9245312809944153,,,,,,,,
,"no person",0.9203668832778931,,,,,,,,
,collage,0.9163311719894409,,,,,,,,
,fish,0.9066727161407471,,,,,,,,
,sushi,0.9057904481887817,,,,,,,,
,plate,0.905133843421936,,,,,,,,
,restaurant,0.9040992259979248,,,,,,,,
,kind,0.9020938873291016,,,,,,,,
,traditional,0.8995161056518555,,,,,,,,
,meal,0.8987404108047485,,,,,,,,
,lunch,0.8911586999893188,,,,,,,,
,healthy,0.8893168568611145,,,,,,,,
,wood,0.8858045339584351,,,,,,,,
,delicious,0.8856381177902222,,,,,,,,
,dish,0.8812073469161987,,,,,,,,
,table,0.8796401023864746,,,,,,,,
,seafood,0.8745815753936768,,,,,,,,
https://scontent.cdninstagram.com/t51.2885-15/e35/12751550_1728574937422007_1172569152_n.jpg,"no person",0.9938347339630127,Food,,,,"Meal time",,,
,food,0.9904309511184692,,,,,,,,
,bread,0.9805302619934082,,,,,,,,
,lunch,0.9784669876098633,,,,,,,,
,"french fries",0.9746159315109253,,,,,,,,
,delicious,0.9692018032073975,,,,,,,,
,dinner,0.9675717353820801,,,,,,,,
,fast,0.9602120518684387,,,,,,,,
,unhealthy,0.9516870975494385,,,,,,,,
,meat,0.9499995708465576,,,,,,,,
,meal,0.9378986954689026,,,,,,,,
,nutrition,0.9288909435272217,,,,,,,,
,traditional,0.919931173324585,,,,,,,,
,ketchup,0.902190089225769,,,,,,,,
,refreshment,0.9010961055755615,,,,,,,,
,plate,0.8961398601531982,,,,,,,,
,sandwich,0.8884879946708679,,,,,,,,
,hot,0.886078417301178,,,,,,,,
,cooking,0.8833611011505127,,,,,,,,
,vegetable,0.865364670753479,,,,,,,,
https://scontent.cdninstagram.com/t51.2885-15/e35/10632450_1160950580604364_82849980_n.jpg,woman,0.9868100881576538,"Fashion & Beauty","My life",,,"My look",Selfie,,
,people,0.9837000370025635,,,,,,,,
,adult,0.9835339784622192,,,,,,,,
,portrait,0.9825301170349121,,,,,,,,
,happiness,0.9794881343841553,,,,,,,,
,"facial expression",0.9791170358657837,,,,,,,,
,indoors,0.9767013788223267,,,,,,,,
,girl,0.9703583717346191,,,,,,,,
,one,0.9700034856796265,,,,,,,,
,room,0.9637883901596069,,,,,,,,
,wear,0.9403858184814453,,,,,,,,
,lifestyle,0.939170241355896,,,,,,,,
,brunette,0.936465859413147,,,,,,,,
,enjoyment,0.9326155185699463,,,,,,,,
,family,0.9294420480728149,,,,,,,,
,leisure,0.9171067476272583,,,,,,,,
,child,0.8814904689788818,,,,,,,,
,fun,0.8812183141708374,,,,,,,,
,sit,0.8706519603729248,,,,,,,,
,technology,0.8639681935310364,,,,,,,,
https://scontent.cdninstagram.com/t51.2885-15/e35/13355526_1636556103332107_1704879009_n.jpg,group,0.99013751745224,Relationships,,,,Friends,,,
,portrait,0.9817710518836975,,,,,,,,
,people,0.9812760353088379,,,,,,,,
,man,0.9732035398483276,,,,,,,,
,group,0.9708949327468872,,,,,,,,
,adult,0.9656227827072144,,,,,,,,
,festival,0.9655147194862366,,,,,,,,
,woman,0.9419807195663452,,,,,,,,
,recreation,0.9317530989646912,,,,,,,,
,"facial expression",0.9302806854248047,,,,,,,,
,musician,0.9134885668754578,,,,,,,,
,music,0.9127885103225708,,,,,,,,
,singer,0.9070125222206116,,,,,,,,
,movie,0.9061682224273682,,,,,,,,
,wear,0.8977924585342407,,,,,,,,
,happiness,0.8849616646766663,,,,,,,,
,four,0.8719264268875122,,,,,,,,
,many,0.8663402795791626,,,,,,,,
,fame,0.8623390197753906,,,,,,,,
,several,0.8477596044540405,,,,,,,,
https://scontent.cdninstagram.com/t51.2885-15/e35/12784023_191855774515805_540350365_n.jpg,car,0.9998515844345093,Relationships,,,,"Best friends",,,
,vehicle,0.9992887377738953,,,,,,,,
,"transportation system",0.9977157115936279,,,,,,,,
,driver,0.996703028678894,,,,,,,,
,woman,0.9885877370834351,,,,,,,,
,indoors,0.9885560274124146,,,,,,,,
,"steering wheel",0.9855149388313293,,,,,,,,
,guidance,0.9848085045814514,,,,,,,,
,travel,0.9810277223587036,,,,,,,,
,man,0.9776360988616943,,,,,,,,
,seat,0.976109504699707,,,,,,,,
,adult,0.9731234312057495,,,,,,,,
,people,0.9730303883552551,,,,,,,,
,two,0.9675503373146057,,,,,,,,
,happiness,0.9660619497299194,,,,,,,,
,window,0.9601197838783264,,,,,,,,
,travel,0.9583488702774048,,,,,,,,
,enjoyment,0.9547937512397766,,,,,,,,
,outdoors,0.9536799192428589,,,,,,,,
,sitting,0.9519710540771484,,,,,,,,
https://scontent.cdninstagram.com/t51.2885-15/e35/12825699_784172061717465_914475518_n.jpg,food,0.9878824949264526,Food,,,,"Meal time",,,
,"no person",0.974652111530304,,,,,,,,
,dinner,0.9669961929321289,,,,,,,,
,cutlery,0.9660451412200928,,,,,,,,
,spoon,0.954593300819397,,,,,,,,
,lunch,0.9497585296630859,,,,,,,,
,fork,0.9489102363586426,,,,,,,,
,meal,0.9437531232833862,,,,,,,,
,tableware,0.9375259876251221,,,,,,,,
,vegetable,0.9314416646957397,,,,,,,,
,cooking,0.9293063282966614,,,,,,,,
,table,0.9245932102203369,,,,,,,,
,knife,0.9229297041893005,,,,,,,,
,dish,0.9190565347671509,,,,,,,,
,flatware,0.9183096885681152,,,,,,,,
,"still life",0.9134240746498108,,,,,,,,
,grow,0.9059968590736389,,,,,,,,
,plate,0.9045314788818359,,,,,,,,
,delicious,0.9016318321228027,,,,,,,,
,restaurant,0.8908741474151611,,,,,,,,
https://scontent.cdninstagram.com/t51.2885-15/e35/12534388_1019850684743358_955319109_n.jpg,restaurant,0.9987793564796448,Food,Relationships,,,"Drinks and snack",Friends,,
,group,0.9981755018234253,,,,,,,,
,group,0.997724175453186,,,,,,,,
,bar,0.995134711265564,,,,,,,,
,table,0.9931265115737915,,,,,,,,
,people,0.9881653785705566,,,,,,,,
,man,0.9874104261398315,,,,,,,,
,four,0.9858741760253906,,,,,,,,
,friendship,0.9842763543128967,,,,,,,,
,woman,0.9794807434082031,,,,,,,,
,adult,0.9720298051834106,,,,,,,,
,dining,0.9665921330451965,,,,,,,,
,several,0.965782880783081,,,,,,,,
,drink,0.9501525163650513,,,,,,,,
,sit,0.9464720487594604,,,,,,,,
,club,0.9396384954452515,,,,,,,,
,many,0.9387733340263367,,,,,,,,
,recreation,0.9289078712463379,,,,,,,,
,waiter,0.9230499267578125,,,,,,,,
,five,0.9087954163551331,,,,,,,,
https://scontent.cdninstagram.com/t51.2885-15/e35/13392851_995410050579339_37573112_n.jpg,squad,0.9938758015632629,Relationships,Recreation,,,Friends,Recreation-s,,
,teamwork,0.9881901741027832,,,,,,,,
,group,0.9819101095199585,,,,,,,,
,athlete,0.977043092250824,,,,,,,,
,people,0.9700523018836975,,,,,,,,
,cooperation,0.9670619368553162,,,,,,,,
,competition,0.9646501541137695,,,,,,,,
,man,0.9576817154884338,,,,,,,,
,fitness,0.9453064799308777,,,,,,,,
,group,0.9421294927597046,,,,,,,,
,energy,0.9371768832206726,,,,,,,,
,recreation,0.9360827803611755,,,,,,,,
,soccer,0.9356937408447266,,,,,,,,
,woman,0.9303120374679565,,,,,,,,
,ball,0.9300674200057983,,,,,,,,
,rugby,0.9271721243858337,,,,,,,,
,sport,0.9234689474105835,,,,,,,,
,friendship,0.9204015731811523,,,,,,,,
,exercise,0.9099128246307373,,,,,,,,
,football,0.8886957168579102,,,,,,,,
https://scontent.cdninstagram.com/t51.2885-15/e15/12935082_460186800841635_662696405_n.jpg,man,0.986169695854187,Relationships,Food,,,"Best friends","Meal time",,
,adult,0.9856526851654053,,,,,,,,
,people,0.9803386926651001,,,,,,,,
,wear,0.9618601202964783,,,,,,,,
,indoors,0.9586471915245056,,,,,,,,
,"facial expression",0.9574522376060486,,,,,,,,
,drink,0.9530046582221985,,,,,,,,
,portrait,0.9520491361618042,,,,,,,,
,enjoyment,0.9488486051559448,,,,,,,,
,competition,0.9476789236068726,,,,,,,,
,woman,0.9476605653762817,,,,,,,,
,championship,0.9169936180114746,,,,,,,,
,coffee,0.9082156419754028,,,,,,,,
,happiness,0.8978887796401978,,,,,,,,
,recreation,0.8911525011062622,,,,,,,,
,togetherness,0.8630921840667725,,,,,,,,
,two,0.8619729280471802,,,,,,,,
,festival,0.835934042930603,,,,,,,,
,group,0.8236274719238281,,,,,,,,
,cup,0.8221914768218994,,,,,,,,
https://scontent.cdninstagram.com/t51.2885-15/e35/12677334_453803961477535_2058831594_n.jpg,people,0.9753470420837402,Relationships,,,,"Baby family",,,
,man,0.9702222347259521,,,,,,,,
,fun,0.9670047163963318,,,,,,,,
,woman,0.9629901051521301,,,,,,,,
,lid,0.9572198390960693,,,,,,,,
,wear,0.9555590748786926,,,,,,,,
,two,0.942466139793396,,,,,,,,
,child,0.9403876066207886,,,,,,,,
,togetherness,0.9333993196487427,,,,,,,,
,happiness,0.9328165054321289,,,,,,,,
,family,0.9261807799339294,,,,,,,,
,joy,0.9201197624206543,,,,,,,,
,love,0.919722318649292,,,,,,,,
,celebration,0.9150068759918213,,,,,,,,
,cute,0.9130181074142456,,,,,,,,
,cap,0.8973333835601807,,,,,,,,
,indoors,0.8964108228683472,,,,,,,,
,portrait,0.8963369131088257,,,,,,,,
,Christmas,0.8954639434814453,,,,,,,,
,adult,0.8932561278343201,,,,,,,,
https://scontent.cdninstagram.com/t51.2885-15/e35/13167215_1352899554723986_405705034_n.jpg,woman,0.9955812096595764,Relationships,,,,"Best friends",,,
,"facial expression",0.9937076568603516,,,,,,,,
,togetherness,0.9904657006263733,,,,,,,,
,man,0.9875187873840332,,,,,,,,
,adult,0.9852691292762756,,,,,,,,
,people,0.9849566221237183,,,,,,,,
,interaction,0.9781989455223083,,,,,,,,
,indoors,0.9764475226402283,,,,,,,,
,portrait,0.9742733240127563,,,,,,,,
,happiness,0.9705647230148315,,,,,,,,
,daylight,0.9672446250915527,,,,,,,,
,two,0.9672039151191711,,,,,,,,
,wear,0.9567546248435974,,,,,,,,
,confidence,0.9533610939979553,,,,,,,,
,group,0.9492356777191162,,,,,,,,
,teamwork,0.9377159476280212,,,,,,,,
,partnership,0.9292242527008057,,,,,,,,
,enjoyment,0.9270936250686646,,,,,,,,
,cooperation,0.9198340177536011,,,,,,,,
,brunette,0.8855109214782715,,,,,,,,
https://scontent.cdninstagram.com/t51.2885-15/e35/13126810_482185181973240_909907264_n.jpg,"no person",0.9893145561218262,Food,,,,Dessert,,,
,food,0.985059916973114,,,,,,,,
,"still life",0.9841839671134949,,,,,,,,
,one,0.9797073006629944,,,,,,,,
,grow,0.9682520627975464,,,,,,,,
,people,0.9642918109893799,,,,,,,,
,indoors,0.9494582414627075,,,,,,,,
,tableware,0.946427047252655,,,,,,,,
,table,0.9410368204116821,,,,,,,,
,adult,0.9344748854637146,,,,,,,,
,fruit,0.9229843020439148,,,,,,,,
,plate,0.9223951101303101,,,,,,,,
,daylight,0.9181863069534302,,,,,,,,
,flatware,0.9087353944778442,,,,,,,,
,dish,0.9077038168907166,,,,,,,,
,bowl,0.8961448669433594,,,,,,,,
,cup,0.8917242288589478,,,,,,,,
,man,0.890953779220581,,,,,,,,
,furniture,0.8891894817352295,,,,,,,,
,conceptual,0.8810110688209534,,,,,,,,
https://scontent.cdninstagram.com/t51.2885-15/e35/12407408_1678703102410814_888060136_n.jpg,food,0.9936192631721497,Food,,,,"Meal time",,,
,egg,0.9886229038238525,,,,,,,,
,delicious,0.9832545518875122,,,,,,,,
,lunch,0.9823290109634399,,,,,,,,
,bacon,0.9819961786270142,,,,,,,,
,breakfast,0.9818907380104065,,,,,,,,
,"no person",0.9811177849769592,,,,,,,,
,meal,0.9710451364517212,,,,,,,,
,dinner,0.9624859094619751,,,,,,,,
,bread,0.9483029246330261,,,,,,,,
,meat,0.9381095767021179,,,,,,,,
,cooking,0.9358781576156616,,,,,,,,
,nutrition,0.9340749382972717,,,,,,,,
,cuisine,0.9337776899337769,,,,,,,,
,closeup,0.9333008527755737,,,,,,,,
,plate,0.924046516418457,,,,,,,,
,tasty,0.9223082065582275,,,,,,,,
,toast,0.9201978445053101,,,,,,,,
,brunch,0.9182659387588501,,,,,,,,
,refreshment,0.9156210422515869,,,,,,,,
https://scontent.cdninstagram.com/t51.2885-15/e35/13394897_1047749061981123_414544998_n.jpg,group,0.9867401123046875,Relationships,Food,,,Friends,"Drinks and snack",,
,woman,0.9857979416847229,,,,,,,,
,man,0.9855811595916748,,,,,,,,
,people,0.9680022597312927,,,,,,,,
,group,0.964771032333374,,,,,,,,
,four,0.9632245302200317,,,,,,,,
,enjoyment,0.9595295786857605,,,,,,,,
,five,0.9571613073348999,,,,,,,,
,education,0.9519853591918945,,,,,,,,
,child,0.9472767114639282,,,,,,,,
,wine,0.9360921382904053,,,,,,,,
,adult,0.931628942489624,,,,,,,,
,indoors,0.9240740537643433,,,,,,,,
,togetherness,0.9221503734588623,,,,,,,,
,bar,0.9142226576805115,,,,,,,,
,laughing,0.9116792678833008,,,,,,,,
,several,0.9055130481719971,,,,,,,,
,friendship,0.9038434028625488,,,,,,,,
,beer,0.8971924781799316,,,,,,,,
,drink,0.8863218426704407,,,,,,,,
https://scontent.cdninstagram.com/t51.2885-15/e35/12317555_922567064506687_1914042098_n.jpg,exercise,0.9949673414230347,"My life",Environment,Relationships,,"Here I am","Natural beauty","Best friends",
,sport,0.9874023795127869,,,,,,,,
,fitness,0.9848471879959106,,,,,,,,
,lifestyle,0.9828721284866333,,,,,,,,
,leisure,0.9742023944854736,,,,,,,,
,recreation,0.9721654653549194,,,,,,,,
,summer,0.9640597105026245,,,,,,,,
,fun,0.9607220888137817,,,,,,,,
,active,0.9602145552635193,,,,,,,,
,road,0.9583781957626343,,,,,,,,
,park,0.9575814604759216,,,,,,,,
,runner,0.9454159736633301,,,,,,,,
,young,0.9373340606689453,,,,,,,,
,nature,0.9296000003814697,,,,,,,,
,person,0.9230225086212158,,,,,,,,
,healthy,0.9121547937393188,,,,,,,,
,child,0.9097312092781067,,,,,,,,
,woman,0.9091007113456726,,,,,,,,
,sportive,0.9082931876182556,,,,,,,,
,outdoors,0.9045633673667908,,,,,,,,
https://scontent.cdninstagram.com/t51.2885-15/e35/12501695_1526367151024808_2080615506_n.jpg,people,0.989335298538208,Relationships,Travel,,,"Best friends",Travel-s,,
,adult,0.9731323719024658,,,,,,,,
,woman,0.9694230556488037,,,,,,,,
,recreation,0.9560449123382568,,,,,,,,
,school,0.9484145045280457,,,,,,,,
,group,0.9370110034942627,,,,,,,,
,man,0.9366604089736938,,,,,,,,
,competition,0.918572187423706,,,,,,,,
,portrait,0.8951995372772217,,,,,,,,
,girl,0.8902380466461182,,,,,,,,
,group,0.8863654136657715,,,,,,,,
,education,0.8777509927749634,,,,,,,,
,wear,0.8613905906677246,,,,,,,,
,athlete,0.8592183589935303,,,,,,,,
,child,0.8510262966156006,,,,,,,,
,"facial expression",0.8480402231216431,,,,,,,,
,class,0.8362489938735962,,,,,,,,
,travel,0.8290057182312012,,,,,,,,
,fun,0.8230972290039062,,,,,,,,
,indoors,0.8225060701370239,,,,,,,,
https://scontent.cdninstagram.com/t51.2885-15/e35/12356552_574457642710197_1376492223_n.jpg,people,0.9921042323112488,Relationships,,,,"Best friends",,,
,adult,0.9765361547470093,,,,,,,,
,man,0.955966591835022,,,,,,,,
,woman,0.9543724656105042,,,,,,,,
,two,0.9502443671226501,,,,,,,,
,group,0.9476813673973083,,,,,,,,
,wear,0.9371974468231201,,,,,,,,
,indoors,0.9365580081939697,,,,,,,,
,room,0.9294894933700562,,,,,,,,
,portrait,0.9225873351097107,,,,,,,,
,recreation,0.9074939489364624,,,,,,,,
,music,0.8965393900871277,,,,,,,,
,"facial expression",0.8843487501144409,,,,,,,,
,one,0.8685204982757568,,,,,,,,
,commerce,0.8211034536361694,,,,,,,,
,musician,0.8189862370491028,,,,,,,,
,festival,0.811740517616272,,,,,,,,
,three,0.8106651902198792,,,,,,,,
,singer,0.8033439517021179,,,,,,,,
,telephone,0.7885997295379639,,,,,,,,
https://scontent.cdninstagram.com/t51.2885-15/e35/10432039_440689082802185_1694245262_n.jpg,group,0.9519542455673218,Relationships,,,,Friends,,,
,child,0.9517010450363159,,,,,,,,
,woman,0.9422234296798706,,,,,,,,
,family,0.9180524349212646,,,,,,,,
,people,0.8829136490821838,,,,,,,,
,man,0.8790150880813599,,,,,,,,
,education,0.8638519048690796,,,,,,,,
,togetherness,0.8542311191558838,,,,,,,,
,group,0.8487221002578735,,,,,,,,
,boy,0.8415595293045044,,,,,,,,
,girl,0.8370255827903748,,,,,,,,
,portrait,0.8366802334785461,,,,,,,,
,fun,0.836609959602356,,,,,,,,
,laughing,0.8293089866638184,,,,,,,,
,sofa,0.8271701335906982,,,,,,,,
,four,0.8263475894927979,,,,,,,,
,friendship,0.8184178471565247,,,,,,,,
,adult,0.8142750263214111,,,,,,,,
,room,0.8134970664978027,,,,,,,,
,ma,0.8097302913665771,,,,,,,,
https://scontent.cdninstagram.com/t51.2885-15/e35/12394124_564924616998899_924970667_n.jpg,people,0.975904107093811,Relationships,Environment,,,"Best friends","Manmade beauty",,
,festival,0.9643566608428955,,,,,,,,
,music,0.961735725402832,,,,,,,,
,fun,0.9570196866989136,,,,,,,,
,man,0.9374420046806335,,,,,,,,
,light,0.9372546672821045,,,,,,,,
,exhilaration,0.9247003793716431,,,,,,,,
,celebration,0.9115964770317078,,,,,,,,
,performance,0.9023160934448242,,,,,,,,
,enjoyment,0.891150951385498,,,,,,,,
,motion,0.8757893443107605,,,,,,,,
,club,0.8629436492919922,,,,,,,,
,party,0.8539383411407471,,,,,,,,
,couple,0.8505952954292297,,,,,,,,
,casino,0.8501981496810913,,,,,,,,
,woman,0.8364242315292358,,,,,,,,
,religion,0.8324778079986572,,,,,,,,
,adult,0.8318695425987244,,,,,,,,
,entertainment,0.8307076692581177,,,,,,,,
,evening,0.820542573928833,,,,,,,,
https://scontent.cdninstagram.com/t51.2885-15/e35/12930880_221438121577787_1668960277_n.jpg,woman,0.9412994384765625,Relationships,Recreation,,,"Best friends",Recreation-s,,
,man,0.9319086074829102,,,,,,,,
,people,0.9228805899620056,,,,,,,,
,portrait,0.9213532209396362,,,,,,,,
,togetherness,0.9043511152267456,,,,,,,,
,adult,0.9012282490730286,,,,,,,,
,squad,0.8982129693031311,,,,,,,,
,horizontal,0.8951880931854248,,,,,,,,
,happiness,0.8643906116485596,,,,,,,,
,friendship,0.8578240871429443,,,,,,,,
,group,0.8467861413955688,,,,,,,,
,unity,0.8390145301818848,,,,,,,,
,cheerful,0.822177529335022,,,,,,,,
,group,0.8103909492492676,,,,,,,,
,teamwork,0.8066648840904236,,,,,,,,
,outdoors,0.7903915643692017,,,,,,,,
,child,0.785728931427002,,,,,,,,
,business,0.7829465270042419,,,,,,,,
,success,0.7763479948043823,,,,,,,,
,laughing,0.7490192651748657,,,,,,,,
https://scontent.cdninstagram.com/t51.2885-15/sh0.08/e35/p750x750/12362169_1665454183725733_769206637_n.jpg,togetherness,0.9947397112846375,Relationships,,,,"Best friends",,,
,"facial expression",0.9934531450271606,,,,,,,,
,two,0.9920179843902588,,,,,,,,
,people,0.9904802441596985,,,,,,,,
,love,0.9899874925613403,,,,,,,,
,happiness,0.9894492030143738,,,,,,,,
,woman,0.9893672466278076,,,,,,,,
,affection,0.9839029312133789,,,,,,,,
,adult,0.9796708822250366,,,,,,,,
,man,0.9727411270141602,,,,,,,,
,romance,0.9681857824325562,,,,,,,,
,portrait,0.9643586874008179,,,,,,,,
,embrace,0.963416337966919,,,,,,,,
,wear,0.9617122411727905,,,,,,,,
,friendship,0.9532583355903625,,,,,,,,
,interaction,0.9520411491394043,,,,,,,,
,daylight,0.9519007205963135,,,,,,,,
,laughing,0.9413266181945801,,,,,,,,
,lifestyle,0.9379210472106934,,,,,,,,
,fun,0.9375941753387451,,,,,,,,
https://scontent.cdninstagram.com/t51.2885-15/e35/12346101_1663045350617660_877118112_n.jpg,woman,0.9828492403030396,Relationships,,,,"Best friends",,,
,togetherness,0.9767407178878784,,,,,,,,
,portrait,0.9712696075439453,,,,,,,,
,embrace,0.9655957221984863,,,,,,,,
,friendship,0.9593644142150879,,,,,,,,
,two,0.9583868384361267,,,,,,,,
,joy,0.9565456509590149,,,,,,,,
,people,0.9549776315689087,,,,,,,,
,man,0.9523805379867554,,,,,,,,
,love,0.9486895799636841,,,,,,,,
,young,0.9283515810966492,,,,,,,,
,isolated,0.9269129037857056,,,,,,,,
,fun,0.9234813451766968,,,,,,,,
,pretty,0.9208009243011475,,,,,,,,
,happiness,0.9181959629058838,,,,,,,,
,couple,0.9109007120132446,,,,,,,,
,laughing,0.9066990613937378,,,,,,,,
,fashion,0.8978685140609741,,,,,,,,
,casual,0.8973443508148193,,,,,,,,
,adolescent,0.8928960561752319,,,,,,,,
https://scontent.cdninstagram.com/t51.2885-15/s750x750/sh0.08/e35/12346092_929316313811392_335204525_n.jpg,group,0.995246171951294,Relationships,,,,Friends,,,
,people,0.9851778149604797,,,,,,,,
,adult,0.9799240231513977,,,,,,,,
,woman,0.9759926795959473,,,,,,,,
,man,0.9755030870437622,,,,,,,,
,child,0.9696860313415527,,,,,,,,
,happiness,0.9692874550819397,,,,,,,,
,group,0.9665364027023315,,,,,,,,
,family,0.9610641002655029,,,,,,,,
,togetherness,0.9595285654067993,,,,,,,,
,portrait,0.9558459520339966,,,,,,,,
,"facial expression",0.9438227415084839,,,,,,,,
,room,0.9385899305343628,,,,,,,,
,girl,0.9268484115600586,,,,,,,,
,fun,0.9250861406326294,,,,,,,,
,education,0.9191340208053589,,,,,,,,
,friendship,0.9183450937271118,,,,,,,,
,boy,0.905776858329773,,,,,,,,
,many,0.9034260511398315,,,,,,,,
,lifestyle,0.9028626084327698,,,,,,,,
https://scontent.cdninstagram.com/t51.2885-15/s640x640/sh0.08/e35/12394189_894042533983149_2027423365_n.jpg,love,0.9929717183113098,Relationships,,,,"Best friends",,,
,togetherness,0.990111231803894,,,,,,,,
,woman,0.988998532295227,,,,,,,,
,affection,0.9835489392280579,,,,,,,,
,two,0.9828798770904541,,,,,,,,
,embrace,0.9815932512283325,,,,,,,,
,man,0.9743342399597168,,,,,,,,
,people,0.9647961258888245,,,,,,,,
,portrait,0.9633436799049377,,,,,,,,
,"facial expression",0.9621996879577637,,,,,,,,
,family,0.9543408751487732,,,,,,,,
,laughing,0.9306463003158569,,,,,,,,
,joy,0.9283435344696045,,,,,,,,
,romance,0.9231084585189819,,,,,,,,
,interaction,0.920819878578186,,,,,,,,
,happiness,0.9180260896682739,,,,,,,,
,adult,0.9177457094192505,,,,,,,,
,maternity,0.9006763696670532,,,,,,,,
,fun,0.8837420344352722,,,,,,,,
,child,0.8783310651779175,,,,,,,,
https://scontent.cdninstagram.com/t51.2885-15/e35/12816845_885550214901131_24199117_n.jpg,woman,0.9731367826461792,Food,Relationships,,,"Meal time","Best friends",,
,indoors,0.9554647207260132,,,,,,,,
,coffee,0.9534733891487122,,,,,,,,
,man,0.9506131410598755,,,,,,,,
,food,0.9492393732070923,,,,,,,,
,chocolate,0.940406084060669,,,,,,,,
,cake,0.9396936297416687,,,,,,,,
,delicious,0.9316161870956421,,,,,,,,
,people,0.923026442527771,,,,,,,,
,restaurant,0.9090136289596558,,,,,,,,
,adult,0.9031462073326111,,,,,,,,
,drink,0.887676477432251,,,,,,,,
,sweet,0.8794322609901428,,,,,,,,
,"no person",0.8656362295150757,,,,,,,,
,cream,0.8646043539047241,,,,,,,,
,romance,0.863633394241333,,,,,,,,
,collage,0.8628779053688049,,,,,,,,
,breakfast,0.8581888675689697,,,,,,,,
,variation,0.8496910929679871,,,,,,,,
,love,0.8444026708602905,,,,,,,,
https://scontent.cdninstagram.com/t51.2885-15/e35/12393866_1539464813041005_1983383821_n.jpg,food,0.9897770285606384,Food,,,,"Meal time",,,
,dinner,0.975754976272583,,,,,,,,
,meal,0.9739581346511841,,,,,,,,
,table,0.9679756164550781,,,,,,,,
,"no person",0.9628445506095886,,,,,,,,
,knife,0.9567782878875732,,,,,,,,
,set,0.9532591104507446,,,,,,,,
,plate,0.951823353767395,,,,,,,,
,restaurant,0.9516305923461914,,,,,,,,
,lunch,0.9478452801704407,,,,,,,,
,dining,0.9332133531570435,,,,,,,,
,indoors,0.9205536246299744,,,,,,,,
,"still life",0.9197998046875,,,,,,,,
,dish,0.9049157500267029,,,,,,,,
,tray,0.9020940065383911,,,,,,,,
,epicure,0.872478187084198,,,,,,,,
,rice,0.8707038164138794,,,,,,,,
,cuisine,0.8658691644668579,,,,,,,,
,hot,0.8644651174545288,,,,,,,,
,roll,0.8637833595275879,,,,,,,,
https://scontent.cdninstagram.com/t51.2885-15/e35/12301327_731289233671491_664281464_n.jpg,food,0.994755744934082,Food,,,,"Meal time",,,
,meal,0.9923757910728455,,,,,,,,
,dinner,0.9918309450149536,,,,,,,,
,lunch,0.9892300367355347,,,,,,,,
,restaurant,0.9869158267974854,,,,,,,,
,plate,0.9779663681983948,,,,,,,,
,dining,0.976852297782898,,,,,,,,
,sushi,0.9679031372070312,,,,,,,,
,dish,0.9659230709075928,,,,,,,,
,"no person",0.96578049659729,,,,,,,,
,knife,0.9596989750862122,,,,,,,,
,fish,0.9585872888565063,,,,,,,,
,seafood,0.953872561454773,,,,,,,,
,delicious,0.9527581930160522,,,,,,,,
,tableware,0.9526111483573914,,,,,,,,
,table,0.9516900777816772,,,,,,,,
,cuisine,0.9516332745552063,,,,,,,,
,rice,0.9513496160507202,,,,,,,,
,vegetable,0.9463186264038086,,,,,,,,
,cutlery,0.9428101181983948,,,,,,,,
https://scontent.cdninstagram.com/t51.2885-15/e35/12725177_200526293633264_853784983_n.jpg,"facial expression",0.9946085214614868,Relationships,,,,Friends,,,
,togetherness,0.9905576705932617,,,,,,,,
,woman,0.9860758781433105,,,,,,,,
,happiness,0.9811466932296753,,,,,,,,
,adult,0.9773846864700317,,,,,,,,
,man,0.9738539457321167,,,,,,,,
,people,0.9715139269828796,,,,,,,,
,group,0.9704665541648865,,,,,,,,
,portrait,0.962553858757019,,,,,,,,
,laughing,0.9585256576538086,,,,,,,,
,family,0.9546945691108704,,,,,,,,
,indoors,0.9534299373626709,,,,,,,,
,affection,0.9502995610237122,,,,,,,,
,three,0.945733368396759,,,,,,,,
,interaction,0.9449191689491272,,,,,,,,
,enjoyment,0.9385238885879517,,,,,,,,
,friendship,0.9230329394340515,,,,,,,,
,two,0.9228934645652771,,,,,,,,
,four,0.9180583357810974,,,,,,,,
,wear,0.9085686802864075,,,,,,,,
https://scontent.cdninstagram.com/t51.2885-15/e35/12716758_810157179089898_598382751_n.jpg,woman,0.9759165048599243,Culture,Relationships,,,Culture-s,"Best friends",,
,people,0.959863007068634,,,,,,,,
,adult,0.9137259721755981,,,,,,,,
,indoors,0.9097808599472046,,,,,,,,
,portrait,0.8951824903488159,,,,,,,,
,man,0.8776501417160034,,,,,,,,
,"facial expression",0.8482853174209595,,,,,,,,
,family,0.8434837460517883,,,,,,,,
,pride,0.8315917253494263,,,,,,,,
,adolescent,0.8289017677307129,,,,,,,,
,laughing,0.7980419397354126,,,,,,,,
,coffee,0.7957332134246826,,,,,,,,
,wear,0.7956892251968384,,,,,,,,
,enjoyment,0.7936064004898071,,,,,,,,
,looking,0.7640520930290222,,,,,,,,
,happiness,0.7562758922576904,,,,,,,,
,cup,0.7526653409004211,,,,,,,,
,one,0.7522131204605103,,,,,,,,
,business,0.747626781463623,,,,,,,,
,child,0.7410152554512024,,,,,,,,
https://scontent.cdninstagram.com/t51.2885-15/sh0.08/e35/p750x750/11934837_1179103468791019_492519496_n.jpg,togetherness,0.9930254817008972,Relationships,,,,"Best friends",,,
,child,0.9902130365371704,,,,,,,,
,interaction,0.982632577419281,,,,,,,,
,"facial expression",0.9819746017456055,,,,,,,,
,love,0.981342077255249,,,,,,,,
,affection,0.9794905185699463,,,,,,,,
,people,0.9786332845687866,,,,,,,,
,two,0.9785339832305908,,,,,,,,
,embrace,0.9711965322494507,,,,,,,,
,portrait,0.9673131704330444,,,,,,,,
,family,0.9657773375511169,,,,,,,,
,happiness,0.9635812044143677,,,,,,,,
,boy,0.9609336853027344,,,,,,,,
,enjoyment,0.9590167999267578,,,,,,,,
,fun,0.9577896595001221,,,,,,,,
,daylight,0.9568530321121216,,,,,,,,
,woman,0.9540780782699585,,,,,,,,
,friendship,0.9440350532531738,,,,,,,,
,joy,0.9405809044837952,,,,,,,,
,laughing,0.9400277137756348,,,,,,,,
https://scontent.cdninstagram.com/t51.2885-15/e35/12357607_176416702713409_288653689_n.jpg,food,0.9744528532028198,Relationships,Food,,,"Best friends","Meal time",,
,cooking,0.9521881937980652,,,,,,,,
,woman,0.9485871195793152,,,,,,,,
,restaurant,0.9334701299667358,,,,,,,,
,drink,0.9266597628593445,,,,,,,,
,people,0.9228074550628662,,,,,,,,
,lifestyle,0.9042323231697083,,,,,,,,
,desktop,0.892174243927002,,,,,,,,
,healthy,0.880631685256958,,,,,,,,
,coffee,0.8791805505752563,,,,,,,,
,chef,0.8772681951522827,,,,,,,,
,person,0.8638677597045898,,,,,,,,
,health,0.8480201959609985,,,,,,,,
,set,0.8435678482055664,,,,,,,,
,culture,0.8433331847190857,,,,,,,,
,young,0.8402117490768433,,,,,,,,
,meal,0.8381247520446777,,,,,,,,
,indoors,0.8328951597213745,,,,,,,,
,preparation,0.8318021893501282,,,,,,,,
,collection,0.8283008337020874,,,,,,,,
https://scontent.cdninstagram.com/t51.2885-15/s750x750/sh0.08/e35/12558399_206279336389769_1082069493_n.jpg,togetherness,0.9927272796630859,Relationships,,,,Family,,,
,happiness,0.9895256757736206,,,,,,,,
,woman,0.9856013655662537,,,,,,,,
,man,0.9847183227539062,,,,,,,,
,portrait,0.9809576869010925,,,,,,,,
,friendship,0.9802128076553345,,,,,,,,
,people,0.9783920645713806,,,,,,,,
,cheerful,0.9737820625305176,,,,,,,,
,adult,0.9716992974281311,,,,,,,,
,outdoors,0.9619489908218384,,,,,,,,
,family,0.9500120878219604,,,,,,,,
,horizontal,0.9483084678649902,,,,,,,,
,laughing,0.9456959962844849,,,,,,,,
,child,0.9255993366241455,,,,,,,,
,teamwork,0.9231798052787781,,,,,,,,
,indoors,0.9219277501106262,,,,,,,,
,enjoyment,0.9145146012306213,,,,,,,,
,group,0.8972417116165161,,,,,,,,
,fun,0.893280565738678,,,,,,,,
,group,0.887553334236145,,,,,,,,
https://scontent.cdninstagram.com/t51.2885-15/e35/12825889_1196933573652779_1829546549_n.jpg,group,0.9889053702354431,Relationships,,,,"Best friends",,,
,squad,0.9887087941169739,,,,,,,,
,teamwork,0.9795320630073547,,,,,,,,
,group,0.9791638851165771,,,,,,,,
,woman,0.977227509021759,,,,,,,,
,company,0.9744412899017334,,,,,,,,
,multicultural,0.9712872505187988,,,,,,,,
,man,0.970626950263977,,,,,,,,
,success,0.9695940613746643,,,,,,,,
,business,0.9689600467681885,,,,,,,,
,student,0.9667448401451111,,,,,,,,
,staff,0.955325722694397,,,,,,,,
,corporate,0.9541453123092651,,,,,,,,
,four,0.9523308873176575,,,,,,,,
,smile,0.9481675624847412,,,,,,,,
,portrait,0.9450297355651855,,,,,,,,
,togetherness,0.944472074508667,,,,,,,,
,collage,0.9393455982208252,,,,,,,,
,unity,0.9374282360076904,,,,,,,,
,laughing,0.9363425970077515,,,,,,,,
https://scontent.cdninstagram.com/t51.2885-15/e35/12783180_1096172750404329_49738080_n.jpg,woman,0.983124852180481,Celebrations,Relationships,Food,,"Personal Events",Family,Dessert,
,togetherness,0.979161262512207,,,,,,,,
,man,0.9753291606903076,,,,,,,,
,cheerful,0.9750096797943115,,,,,,,,
,happiness,0.9747334718704224,,,,,,,,
,indoors,0.9522899389266968,,,,,,,,
,table,0.9489104747772217,,,,,,,,
,family,0.9371916055679321,,,,,,,,
,adult,0.9369970560073853,,,,,,,,
,enjoyment,0.9362868666648865,,,,,,,,
,laughing,0.9336177110671997,,,,,,,,
,friendship,0.9326027035713196,,,,,,,,
,sit,0.9192079901695251,,,,,,,,
,horizontal,0.9114648103713989,,,,,,,,
,child,0.8939770460128784,,,,,,,,
,people,0.8782554864883423,,,,,,,,
,bonding,0.8668606281280518,,,,,,,,
,restaurant,0.8662495613098145,,,,,,,,
,drink,0.8385000228881836,,,,,,,,
,parent,0.816081166267395,,,,,,,,
https://scontent.cdninstagram.com/t51.2885-15/s750x750/sh0.08/e35/12277625_1172337329461261_383743987_n.jpg,people,0.9925545454025269,Travel,Environment,Recreation,,Travel-s,"Natural beauty",Recreation-s,
,man,0.9884825348854065,,,,,,,,
,adult,0.9868263602256775,,,,,,,,
,outdoors,0.9739688634872437,,,,,,,,
,one,0.9621704816818237,,,,,,,,
,recreation,0.9415789842605591,,,,,,,,
,travel,0.938692033290863,,,,,,,,
,water,0.934801459312439,,,,,,,,
,daylight,0.9206345677375793,,,,,,,,
,leisure,0.9104735255241394,,,,,,,,
,"water sports",0.8919925689697266,,,,,,,,
,vacation,0.8827887177467346,,,,,,,,
,seashore,0.8802187442779541,,,,,,,,
,summer,0.8763408064842224,,,,,,,,
,lifestyle,0.8728817701339722,,,,,,,,
,sea,0.8727464079856873,,,,,,,,
,two,0.8700813055038452,,,,,,,,
,portrait,0.8650274276733398,,,,,,,,
,fun,0.8648484945297241,,,,,,,,
,beach,0.8631367683410645,,,,,,,,
https://scontent.cdninstagram.com/t51.2885-15/e35/12716852_1674567726125589_1179880764_n.jpg,woman,0.9929739832878113,Undefined,,,,Undefined,,,
,foot,0.9925609230995178,,,,,,,,
,nude,0.9736274480819702,,,,,,,,
,girl,0.9729269742965698,,,,,,,,
,skin,0.9698055982589722,,,,,,,,
,people,0.9647771120071411,,,,,,,,
,adult,0.9229429960250854,,,,,,,,
,body,0.9182500243186951,,,,,,,,
,barefoot,0.9063202738761902,,,,,,,,
,buttocks,0.9028623700141907,,,,,,,,
,fashion,0.902436375617981,,,,,,,,
,back,0.8994131088256836,,,,,,,,
,treatment,0.8954222202301025,,,,,,,,
,man,0.8931821584701538,,,,,,,,
,medicine,0.8871822953224182,,,,,,,,
,nude,0.8812481760978699,,,,,,,,
,health,0.8806239366531372,,,,,,,,
,love,0.8770236968994141,,,,,,,,
,pain,0.8762233257293701,,,,,,,,
,weight,0.8740108013153076,,,,,,,,
https://scontent.cdninstagram.com/t51.2885-15/s640x640/sh0.08/e35/12356476_1084405164911155_195795910_n.jpg,woman,0.9925835132598877,Relationships,,,,"Best friends",,,
,adult,0.9890656471252441,,,,,,,,
,people,0.9881836175918579,,,,,,,,
,portrait,0.976000189781189,,,,,,,,
,group,0.9676605463027954,,,,,,,,
,two,0.953615665435791,,,,,,,,
,indoors,0.9351082444190979,,,,,,,,
,man,0.9161837100982666,,,,,,,,
,three,0.906883955001831,,,,,,,,
,girl,0.8878210783004761,,,,,,,,
,young,0.8867474794387817,,,,,,,,
,recreation,0.8765709400177002,,,,,,,,
,group,0.8762872219085693,,,,,,,,
,happiness,0.8748549222946167,,,,,,,,
,lifestyle,0.8632479906082153,,,,,,,,
,education,0.859609842300415,,,,,,,,
,business,0.8531503677368164,,,,,,,,
,cheerful,0.8410911560058594,,,,,,,,
,smile,0.8350496888160706,,,,,,,,
,finance,0.8320552110671997,,,,,,,,
https://scontent.cdninstagram.com/t51.2885-15/e15/12393821_931213240260422_1649696241_n.jpg,nature,0.9785290956497192,Animals,,,,Animals-s,,,
,people,0.9774775505065918,,,,,,,,
,outdoors,0.9721470475196838,,,,,,,,
,mammal,0.9463105201721191,,,,,,,,
,pet,0.9412362575531006,,,,,,,,
,animal,0.9376055598258972,,,,,,,,
,park,0.937244713306427,,,,,,,,
,woman,0.9350358247756958,,,,,,,,
,two,0.934053897857666,,,,,,,,
,summer,0.9335139989852905,,,,,,,,
,one,0.9290435910224915,,,,,,,,
,adult,0.9289834499359131,,,,,,,,
,girl,0.9286376237869263,,,,,,,,
,zoo,0.922049880027771,,,,,,,,
,portrait,0.9190155267715454,,,,,,,,
,tree,0.9101777076721191,,,,,,,,
,friendship,0.898887038230896,,,,,,,,
,dog,0.8978725671768188,,,,,,,,
,grass,0.8929028511047363,,,,,,,,
,daylight,0.8833202719688416,,,,,,,,
https://scontent.cdninstagram.com/t51.2885-15/e35/12353861_682091418596609_621982945_n.jpg,people,0.9804325103759766,Relationships,Commerce,,,"Best friends",Shopping,,
,shopping,0.977271318435669,,,,,,,,
,woman,0.9667532444000244,,,,,,,,
,stock,0.9591450095176697,,,,,,,,
,group,0.9481595754623413,,,,,,,,
,wear,0.9346787929534912,,,,,,,,
,shop,0.9310160875320435,,,,,,,,
,happiness,0.9306826591491699,,,,,,,,
,portrait,0.9235810041427612,,,,,,,,
,adult,0.9197435975074768,,,,,,,,
,man,0.866362452507019,,,,,,,,
,enjoyment,0.8360997438430786,,,,,,,,
,commerce,0.8237791061401367,,,,,,,,
,festival,0.8200927376747131,,,,,,,,
,fun,0.8093527555465698,,,,,,,,
,outdoors,0.8047167062759399,,,,,,,,
,friendship,0.7927348613739014,,,,,,,,
,many,0.7791479825973511,,,,,,,,
,market,0.7733722925186157,,,,,,,,
,togetherness,0.7722989320755005,,,,,,,,
https://scontent.cdninstagram.com/t51.2885-15/e35/12331510_1056624504382614_807780897_n.jpg,people,0.9929752349853516,Food,Relationships,,,"Meal time","Best friends",,
,group,0.9649853706359863,,,,,,,,
,many,0.9645645618438721,,,,,,,,
,commerce,0.9616647958755493,,,,,,,,
,market,0.9535471796989441,,,,,,,,
,exhibition,0.9345481991767883,,,,,,,,
,carnival,0.9290820360183716,,,,,,,,
,shopping,0.921069860458374,,,,,,,,
,street,0.9187459945678711,,,,,,,,
,city,0.9164649248123169,,,,,,,,
,festival,0.9028822183609009,,,,,,,,
,coffee,0.8963705897331238,,,,,,,,
,stock,0.8821350336074829,,,,,,,,
,group,0.8809260129928589,,,,,,,,
,crowd,0.8761506080627441,,,,,,,,
,man,0.8730466365814209,,,,,,,,
,restaurant,0.8629447817802429,,,,,,,,
,competition,0.8550305366516113,,,,,,,,
,food,0.8521994352340698,,,,,,,,
,woman,0.8455145359039307,,,,,,,,
https://scontent.cdninstagram.com/t51.2885-15/e35/13126667_1195997310418555_1901106637_n.jpg,people,0.9761515855789185,Relationships,Recreation,,,Friends,Recreation-s,,
,man,0.9470529556274414,,,,,,,,
,group,0.9363065958023071,,,,,,,,
,group,0.9202871322631836,,,,,,,,
,woman,0.9094507694244385,,,,,,,,
,military,0.8992509841918945,,,,,,,,
,education,0.8935346603393555,,,,,,,,
,band,0.8801605701446533,,,,,,,,
,International,0.8746434450149536,,,,,,,,
,squad,0.8721948862075806,,,,,,,,
,wear,0.8681486248970032,,,,,,,,
,teamwork,0.8613569736480713,,,,,,,,
,exhibition,0.8544701337814331,,,,,,,,
,city,0.8446303606033325,,,,,,,,
,school,0.8433064222335815,,,,,,,,
,festival,0.8426728248596191,,,,,,,,
,motion,0.8394267559051514,,,,,,,,
,performance,0.8355152010917664,,,,,,,,
,business,0.8350541591644287,,,,,,,,
,many,0.8288996815681458,,,,,,,,
https://scontent.cdninstagram.com/t51.2885-15/e35/13117896_1687779274810855_2005853176_n.jpg,child,0.9932031035423279,Relationships,,,,"Baby family",,,
,togetherness,0.9737256765365601,,,,,,,,
,family,0.9660319089889526,,,,,,,,
,fun,0.9646191596984863,,,,,,,,
,boy,0.9568169116973877,,,,,,,,
,woman,0.9562622308731079,,,,,,,,
,joy,0.9526297450065613,,,,,,,,
,love,0.9463818073272705,,,,,,,,
,happiness,0.9388443231582642,,,,,,,,
,group,0.9383537769317627,,,,,,,,
,people,0.9357998371124268,,,,,,,,
,laughing,0.9338271021842957,,,,,,,,
,four,0.932837963104248,,,,,,,,
,cute,0.9323447942733765,,,,,,,,
,three,0.9154993891716003,,,,,,,,
,offspring,0.9125588536262512,,,,,,,,
,ma,0.9103823900222778,,,,,,,,
,affection,0.8999037742614746,,,,,,,,
,portrait,0.8965357542037964,,,,,,,,
,little,0.8846075534820557,,,,,,,,
https://scontent.cdninstagram.com/t51.2885-15/e35/13151059_1817998345088539_550800570_n.jpg,group,0.9897427558898926,Relationships,Food,,,Friends,"Meal time",,
,adult,0.9833022356033325,,,,,,,,
,woman,0.9776196479797363,,,,,,,,
,man,0.9746640920639038,,,,,,,,
,people,0.9743064641952515,,,,,,,,
,group,0.9612499475479126,,,,,,,,
,"facial expression",0.9539364576339722,,,,,,,,
,coffee,0.9513727426528931,,,,,,,,
,happiness,0.9325173497200012,,,,,,,,
,enjoyment,0.928360641002655,,,,,,,,
,room,0.9279130697250366,,,,,,,,
,indoors,0.8978003859519958,,,,,,,,
,restaurant,0.8970441222190857,,,,,,,,
,education,0.8929640054702759,,,,,,,,
,furniture,0.8841342926025391,,,,,,,,
,table,0.8809165954589844,,,,,,,,
,togetherness,0.8772759437561035,,,,,,,,
,drink,0.8735098838806152,,,,,,,,
,interaction,0.8668287992477417,,,,,,,,
,portrait,0.8484107255935669,,,,,,,,
