url,class,score
https://scontent.cdninstagram.com/t51.2885-15/e35/13413495_510160099177605_734857637_n.jpg,one,0.9943758249282837
,man,0.9776032567024231
,wear,0.9745404124259949
,business,0.9622565507888794
,people,0.9619174003601074
,adult,0.9566011428833008
,portrait,0.9408723711967468
,outfit,0.935376763343811
,looking,0.9172185063362122
,accomplishment,0.9095857739448547
,facial expression,0.9015820026397705
,recreation,0.8896039724349976
,indoors,0.847084641456604
,competition,0.8469608426094055
,fine-looking,0.822041392326355
,intelligence,0.8140028715133667
,fashionable,0.8075565099716187
,contemporary,0.7964396476745605
,confidence,0.765708863735199
,music,0.7601598501205444
https://scontent.cdninstagram.com/l/t51.2885-15/e15/13092430_642608772572165_472480292_n.jpg,people,0.9768440127372742
,portrait,0.9417359828948975
,woman,0.9392086267471313
,adult,0.9362139701843262
,child,0.9215039014816284
,celebration,0.9123309850692749
,man,0.9006258249282837
,cheerful,0.8798834681510925
,stock,0.8766363859176636
,togetherness,0.8764663934707642
,horizontal,0.872785210609436
,happiness,0.8655476570129395
,friendship,0.8534349203109741
,fun,0.8532165884971619
,event,0.8445229530334473
,shop,0.8125513792037964
,outdoors,0.792704701423645
,indoors,0.7860904932022095
,enjoyment,0.7732501029968262
,shopping,0.771296501159668
https://scontent.cdninstagram.com/t51.2885-15/e35/12940047_214234992290150_759188423_n.jpg,people,0.9898211359977722
,group,0.9848588109016418
,adult,0.981198787689209
,computer,0.9796648025512695
,technology,0.9738081693649292
,wear,0.9618597030639648
,woman,0.9579920172691345
,interaction,0.9561504125595093
,man,0.9440664052963257
,room,0.9407408237457275
,facial expression,0.934411346912384
,girl,0.925063967704773
,science,0.910528838634491
,exhibition,0.8984137773513794
,education,0.8951873183250427
,light,0.8940105438232422
,telephone,0.8912976980209351
,indoors,0.8911303281784058
,music,0.8798528909683228
,medicine,0.8792511224746704
https://scontent.cdninstagram.com/t51.2885-15/e35/12598962_1756486611248057_307007351_n.jpg,group,0.9930928945541382
,group,0.9886497259140015
,woman,0.9788404703140259
,friendship,0.9737006425857544
,squad,0.9734454154968262
,student,0.9628026485443115
,people,0.9626263380050659
,many,0.9583210945129395
,education,0.9474484920501709
,teamwork,0.9281028509140015
,school,0.92637038230896
,child,0.9251968860626221
,young,0.9183565378189087
,man,0.9066129922866821
,adolescent,0.8965280652046204
,university,0.8866158723831177
,togetherness,0.8834633827209473
,unity,0.8824909925460815
,portrait,0.8824251890182495
,collage,0.8730556964874268
https://scontent.cdninstagram.com/t51.2885-15/e35/13108955_1064280493633203_100920107_n.jpg,man,0.9824976921081543
,one,0.9700891971588135
,fine-looking,0.9681969881057739
,people,0.9679033756256104
,portrait,0.9675472974777222
,isolated,0.9556112289428711
,adult,0.934145450592041
,looking,0.9284301996231079
,young,0.9264370203018188
,casual,0.9249035120010376
,desktop,0.8993424773216248
,business,0.8681992292404175
,studio,0.8597038984298706
,serious,0.8557095527648926
,pensive,0.8488289713859558
,fashion,0.8350358605384827
,boy,0.8305294513702393
,friendly,0.8208884000778198
,confidence,0.8148931860923767
,adolescent,0.8125444650650024
https://scontent.cdninstagram.com/t51.2885-15/e35/12798070_1664211703845478_552549451_n.jpg,child,0.9979825019836426
,recreation,0.9913709759712219
,people,0.9883124232292175
,boy,0.9832104444503784
,fun,0.9824503064155579
,leisure,0.9798246026039124
,game,0.9786986112594604
,exercise,0.9784058332443237
,lifestyle,0.9774696826934814
,athlete,0.9685869216918945
,happiness,0.9607815742492676
,school,0.9508765935897827
,enjoyment,0.9503649473190308
,youth,0.9473390579223633
,playground,0.9348918199539185
,wear,0.9332016706466675
,competition,0.9311193227767944
,ball,0.9303946495056152
,girl,0.9176290035247803
,sport,0.9105349779129028
https://scontent.cdninstagram.com/t51.2885-15/e35/12568263_1504863663150799_1286066324_n.jpg,food,0.9968630075454712
,meal,0.967304527759552
,cuisine,0.9655364751815796
,refreshment,0.9600247144699097
,plate,0.9596205353736877
,closeup,0.9562244415283203
,appetizer,0.9548106789588928
,healthy,0.9548085331916809
,epicure,0.95070481300354
,delicious,0.9504518508911133
,desktop,0.9458041191101074
,no person,0.9448782205581665
,traditional,0.9425896406173706
,tasty,0.9378756284713745
,dish,0.9348406195640564
,sweet,0.9340387582778931
,wood,0.932441234588623
,cooking,0.9267134666442871
,breakfast,0.9201458692550659
,dinner,0.9171153903007507
https://scontent.cdninstagram.com/t51.2885-15/e35/12424444_504388433095328_1325297615_n.jpg,people,0.9966760873794556
,water,0.9784048795700073
,sea,0.9737754464149475
,travel,0.9646914005279541
,pier,0.9640216827392578
,woman,0.9590555429458618
,adult,0.9523407220840454
,ocean,0.9450249075889587
,one,0.9265897274017334
,man,0.9243931770324707
,watercraft,0.9120150804519653
,beach,0.9111627340316772
,city,0.9027142524719238
,girl,0.9016138315200806
,person,0.8895299434661865
,leisure,0.888806939125061
,boat,0.8863579034805298
,ship,0.8590052127838135
,vacation,0.8580490350723267
,outdoors,0.8565187454223633
https://scontent.cdninstagram.com/t51.2885-15/e35/12224382_141896832833889_560353737_n.jpg,illustration,0.9811985492706299
,no person,0.9770941734313965
,horizontal,0.9764318466186523
,text,0.9461859464645386
,isolated,0.9187135696411133
,isolated,0.9027905464172363
,business,0.8921406269073486
,template,0.8445916175842285
,paper,0.8393872976303101
,design,0.8378412127494812
,vector,0.8286986351013184
,desktop,0.8144571781158447
,blank,0.7843976616859436
,internet,0.7748581767082214
,abstract,0.7734386920928955
,graphic,0.7632139921188354
,banner,0.7631723880767822
,form,0.7593593597412109
,shadow,0.7565139532089233
,order,0.7505526542663574
https://scontent.cdninstagram.com/t51.2885-15/e35/12479454_932583790194777_1244841837_n.jpg,indoors,0.9852901697158813
,people,0.9753831624984741
,room,0.9664044380187988
,adult,0.9657701253890991
,woman,0.9639462232589722
,family,0.9403456449508667
,two,0.9134188890457153
,man,0.9017311334609985
,cabinet,0.9005612134933472
,portrait,0.8961192965507507
,food,0.8848739862442017
,wear,0.8803561925888062
,girl,0.8761037588119507
,business,0.8563886880874634
,school,0.8518058061599731
,stock,0.8512107729911804
,education,0.8444213271141052
,furniture,0.8317643404006958
,facial expression,0.8245764970779419
,exhibition,0.8125017881393433
https://scontent.cdninstagram.com/t51.2885-15/e35/11848853_708921432546630_122386810_n.jpg,technology,0.9901209473609924
,screen,0.9825412034988403
,communication,0.9821404218673706
,computer,0.9721112251281738
,internet,0.9657027125358582
,display,0.9614044427871704
,people,0.952377438545227
,horizontal,0.9458916187286377
,touch,0.9393498301506042
,connection,0.934964656829834
,invention,0.9258624911308289
,science,0.923987865447998
,man,0.922081470489502
,adult,0.9063552618026733
,spherical,0.8980363607406616
,woman,0.8756519556045532
,multimedia,0.862419843673706
,World Wide Web,0.8621054887771606
,technical school,0.8604243993759155
,pill,0.8375334739685059
https://scontent.cdninstagram.com/t51.2885-15/e35/13549523_1759238850991790_676032841_n.jpg,people,0.9790043830871582
,one,0.9722582101821899
,man,0.9633986949920654
,portrait,0.9564143419265747
,wear,0.9429916143417358
,fashion,0.9215799570083618
,child,0.9197797775268555
,facial expression,0.8757901191711426
,adult,0.8717911839485168
,indoors,0.8558276891708374
,dark,0.8511410355567932
,adolescent,0.8307524919509888
,looking,0.8249001502990723
,fine-looking,0.8146753311157227
,serious,0.8129710555076599
,cute,0.8011524677276611
,intelligence,0.789006233215332
,boy,0.788611650466919
,fun,0.775288462638855
,contemporary,0.7681149244308472
https://scontent.cdninstagram.com/t51.2885-15/e35/12328149_1196788560349278_157099164_n.jpg,portrait,0.9833968877792358
,people,0.9736417531967163
,one,0.9593737125396729
,adult,0.9581845998764038
,fashion,0.93431156873703
,man,0.9105715751647949
,wear,0.906886875629425
,indoors,0.8876471519470215
,looking,0.8697446584701538
,young,0.8256964683532715
,model,0.8214499950408936
,serious,0.8081662654876709
,business,0.7925349473953247
,woman,0.78242027759552
,vertical,0.7657985687255859
,adolescent,0.7556679844856262
,fashionable,0.7218552827835083
,studio,0.7216249108314514
,face,0.7033290266990662
,fine-looking,0.6789196729660034
https://scontent.cdninstagram.com/t51.2885-15/e35/11201528_1640846422864287_487848307_n.jpg,no person,0.9912897348403931
,sky,0.9900872707366943
,winter,0.9775189161300659
,snow,0.960784912109375
,outdoors,0.9521383047103882
,blue sky,0.9506427049636841
,nature,0.945405900478363
,festival,0.9419535398483276
,air,0.9399728178977966
,high,0.9379636645317078
,flight,0.9370001554489136
,bright,0.9348844885826111
,wind,0.9261661171913147
,swimming,0.8999497890472412
,fair weather,0.8994422554969788
,sun,0.8979470729827881
,freedom,0.8938205242156982
,airplane,0.8877854347229004
,summer,0.878037691116333
,fun,0.8774586915969849
https://scontent.cdninstagram.com/t51.2885-15/e35/13355600_1091628624240755_1259226454_n.jpg,people,0.9857083559036255
,one,0.9704731702804565
,outdoors,0.9675564765930176
,travel,0.9571669101715088
,landscape,0.9462777376174927
,sky,0.9455283880233765
,adult,0.9401414394378662
,recreation,0.9350839853286743
,nature,0.9318571090698242
,summer,0.9243571758270264
,agriculture,0.9226486682891846
,tropical,0.9069787263870239
,vehicle,0.9041284918785095
,daylight,0.8948382139205933
,tree,0.8766796588897705
,leisure,0.8732212781906128
,water,0.8695827722549438
,environment,0.8602434396743774
,cropland,0.8572090864181519
,man,0.8557384014129639
https://scontent.cdninstagram.com/t51.2885-15/e35/11311403_1628167017439611_1838680718_n.jpg,market,0.9904369711875916
,people,0.9886663556098938
,stock,0.9852731227874756
,grow,0.9834353923797607
,shopping,0.976248025894165
,child,0.9689640402793884
,food,0.9513331651687622
,adult,0.9477847814559937
,shop,0.9447373151779175
,supermarket,0.9423254728317261
,indoors,0.9417617321014404
,happiness,0.9398447871208191
,woman,0.9323528409004211
,group,0.9306042790412903
,festival,0.9150142669677734
,stall,0.910244345664978
,shelf,0.8852583169937134
,wear,0.8552473783493042
,school,0.8549008369445801
,education,0.8543437123298645
https://scontent.cdninstagram.com/t51.2885-15/e35/11352247_120324821637293_1115708982_n.jpg,food,0.9979308247566223
,shrimp,0.9970430135726929
,seafood,0.9935140609741211
,prawn,0.9931462407112122
,no person,0.9899048805236816
,rice,0.9892480373382568
,delicious,0.9883242249488831
,meal,0.9855563640594482
,dinner,0.985278308391571
,crab,0.983948826789856
,dish,0.9837647676467896
,shellfish,0.9828008413314819
,hot,0.9782930016517639
,cooking,0.978020429611206
,chili,0.9765920639038086
,cuisine,0.9759377241134644
,vegetable,0.9749698638916016
,fish,0.9723244309425354
,noodles,0.9706538915634155
,lunch,0.968548059463501
https://scontent.cdninstagram.com/t51.2885-15/e15/11282599_1434501253522193_276351744_n.jpg,people,0.9884388446807861
,one,0.9883583784103394
,portrait,0.9881216287612915
,facial expression,0.9847093820571899
,adult,0.9806416034698486
,wear,0.9757080674171448
,woman,0.9230549335479736
,indoors,0.903719425201416
,child,0.8978757858276367
,happiness,0.8945310115814209
,looking,0.8912060260772705
,cute,0.8844443559646606
,man,0.8766753673553467
,face,0.8547446131706238
,enjoyment,0.8521881103515625
,youth,0.8051396608352661
,adolescent,0.7965697050094604
,young,0.7951253652572632
,confidence,0.7924240827560425
,individuality,0.7918627262115479
https://scontent.cdninstagram.com/t51.2885-15/s640x640/sh0.08/e35/12424397_1664891060466765_1242298415_n.jpg,woman,0.9898980855941772
,indoors,0.9732572436332703
,portrait,0.9637885689735413
,people,0.9623522758483887
,man,0.9617401361465454
,facial expression,0.9554778337478638
,adult,0.9425982236862183
,wear,0.9281306266784668
,togetherness,0.9191163778305054
,recreation,0.9168022871017456
,two,0.9155069589614868
,group,0.8994737863540649
,business,0.8946530818939209
,room,0.8840445280075073
,teamwork,0.8837331533432007
,happiness,0.8591999411582947
,commerce,0.8313949108123779
,cooperation,0.8312975168228149
,office,0.829805850982666
,employee,0.8220403790473938
https://scontent.cdninstagram.com/t51.2885-15/e15/11266669_1113957195287876_1732704535_n.jpg,people,0.9876689910888672
,woman,0.9871393442153931
,adult,0.9807941913604736
,indoors,0.9744101762771606
,portrait,0.959295928478241
,girl,0.9438954591751099
,room,0.9364322423934937
,wear,0.9254177808761597
,telephone,0.9186724424362183
,one,0.9133367538452148
,facial expression,0.9008418321609497
,man,0.898787260055542
,sit,0.8900879621505737
,sitting,0.8832410573959351
,education,0.8607000112533569
,tube,0.8571174144744873
,technology,0.8567773103713989
,happiness,0.8379809856414795
,two,0.8362563252449036
,concentration,0.8333601355552673
https://scontent.cdninstagram.com/t51.2885-15/e15/12568779_1556282714687574_1818219112_n.jpg,food,0.9975501298904419
,no person,0.9929488301277161
,grow,0.986699104309082
,vegetable,0.9725388884544373
,delicious,0.9647186994552612
,dish,0.9562026262283325
,dinner,0.9552154541015625
,fruit,0.9534144401550293
,cooking,0.947959303855896
,chili,0.9427122473716736
,plate,0.9395208358764648
,meal,0.933357834815979
,sauce,0.9270972013473511
,cuisine,0.9268207550048828
,pepper,0.9256408214569092
,bowl,0.9193580150604248
,hot,0.917711615562439
,mouth-watering,0.9142864346504211
,nutrition,0.9135608673095703
,lunch,0.9133140444755554
https://scontent.cdninstagram.com/t51.2885-15/e35/13414418_502509679959353_969121383_n.jpg,library,0.9862847328186035
,modern,0.9860692024230957
,no person,0.9690122008323669
,shelf,0.9628162980079651
,architecture,0.957809567451477
,knowledge,0.9114408493041992
,building,0.8932470679283142
,city,0.8839932680130005
,bookcase,0.8794913291931152
,university,0.8739731311798096
,business,0.8683242797851562
,education,0.866337239742279
,contemporary,0.8658918142318726
,indoors,0.8613031506538391
,daylight,0.8593155145645142
,study,0.8558435440063477
,school,0.8434244394302368
,literature,0.7840847969055176
,public,0.7794108986854553
,travel,0.7734856605529785
https://scontent.cdninstagram.com/t51.2885-15/e15/11357530_462733707219417_403679066_n.jpg,group,0.997768759727478
,people,0.9927470684051514
,facial expression,0.9858708381652832
,happiness,0.9797444343566895
,woman,0.9783724546432495
,man,0.9761459827423096
,adult,0.9753884077072144
,child,0.9744267463684082
,five,0.9713987112045288
,portrait,0.9676458239555359
,four,0.9546546936035156
,religion,0.9485320448875427
,group,0.9405755996704102
,wear,0.9389097690582275
,festival,0.9188706874847412
,education,0.9151296615600586
,several,0.9120033979415894
,school,0.909064531326294
,boy,0.9014036655426025
,laughing,0.8972353935241699
https://scontent.cdninstagram.com/t51.2885-15/e15/11380753_1620137234899705_1596306871_n.jpg,people,0.9712465405464172
,fun,0.9625996351242065
,man,0.9585781097412109
,fashion,0.9461406469345093
,sunglasses,0.9361698031425476
,portrait,0.9350969791412354
,music,0.9145035147666931
,indoors,0.910213828086853
,young,0.9026014804840088
,one,0.8951276540756226
,child,0.8767995238304138
,sexy,0.8666152954101562
,woman,0.8631635904312134
,funny,0.8584334850311279
,adolescent,0.8515536785125732
,eye,0.8406499624252319
,enjoyment,0.8397468328475952
,dark,0.8371760845184326
,cute,0.8356592655181885
,pretty,0.8268129229545593
https://scontent.cdninstagram.com/t51.2885-15/e35/12070922_1669164863367962_792873999_n.jpg,touch,0.9990159273147583
,telephone,0.9985260367393494
,screen,0.9979448914527893
,wireless,0.9971110820770264
,portable,0.9965097308158875
,smart,0.9936611652374268
,display,0.9890533685684204
,technology,0.986507773399353
,connection,0.9820716381072998
,internet,0.9815105199813843
,cellular,0.9814448952674866
,electronics,0.9706264734268188
,computer,0.9703521728515625
,cellular telephone,0.9663324356079102
,pill,0.9640355110168457
,business,0.9615883231163025
,travel,0.9589794874191284
,appliance,0.9520432353019714
,hand,0.9477009773254395
,laptop,0.9470714330673218
https://scontent.cdninstagram.com/t51.2885-15/e35/11349343_814312162030071_196428873_n.jpg,people,0.9200365543365479
,illustration,0.8898718953132629
,music,0.8804715871810913
,graphic,0.8671151399612427
,movie,0.8638045787811279
,competition,0.8610221147537231
,man,0.8591079115867615
,woman,0.8553730249404907
,adult,0.8317322731018066
,festival,0.8266412019729614
,art,0.8008410334587097
,athlete,0.7823877930641174
,vector,0.7634890079498291
,soccer,0.7566869258880615
,fashion,0.7561280727386475
,person,0.7548788785934448
,graffiti,0.7372334003448486
,musician,0.7338660955429077
,young,0.7172737121582031
,action,0.7170875072479248
https://scontent.cdninstagram.com/t51.2885-15/e35/12356359_952580518110379_470284966_n.jpg,food,0.9935742616653442
,no person,0.9874691963195801
,egg,0.984382152557373
,breakfast,0.9834529161453247
,meal,0.9775164127349854
,plate,0.9766114950180054
,fork,0.975214421749115
,lunch,0.9741318225860596
,dish,0.9704865217208862
,cooking,0.970018744468689
,knife,0.9659940004348755
,dinner,0.9632017612457275
,cutlery,0.9605343341827393
,vegetable,0.9540549516677856
,healthy,0.9518091678619385
,nutrition,0.948459804058075
,delicious,0.9479281902313232
,health,0.9434381723403931
,dining,0.9424002170562744
,tableware,0.9293986558914185
https://scontent.cdninstagram.com/t51.2885-15/e15/12256843_1530475330577383_273961033_n.jpg,street,0.9863197803497314
,road,0.9820972681045532
,city,0.9788522720336914
,people,0.9731419086456299
,group,0.9457770586013794
,festival,0.9380646347999573
,crowd,0.9156349897384644
,commerce,0.9132691621780396
,evening,0.91133052110672
,travel,0.9101032018661499
,many,0.906005859375
,vehicle,0.8924688100814819
,motion,0.8885077238082886
,car,0.8825575113296509
,police,0.8819451332092285
,shopping,0.8758218288421631
,urban,0.8717896938323975
,tourist,0.8709682822227478
,business,0.867046594619751
,traffic,0.8645472526550293
https://scontent.cdninstagram.com/t51.2885-15/e35/13277562_283166392016883_215928574_n.jpg,people,0.9848530292510986
,business,0.9612645506858826
,wall,0.9532160758972168
,woman,0.944796085357666
,architecture,0.9388431906700134
,city,0.9368159770965576
,adult,0.9266471862792969
,building,0.9136914014816284
,man,0.9104433059692383
,street,0.9099392890930176
,urban,0.8906378746032715
,girl,0.881372332572937
,one,0.8730404376983643
,concrete,0.8706664443016052
,light,0.8643690347671509
,window,0.8637323379516602
,step,0.8415029048919678
,office,0.8358860015869141
,portrait,0.8301239013671875
,stone,0.823448657989502
https://scontent.cdninstagram.com/t51.2885-15/e35/13414188_1906513776241987_354707732_n.jpg,people,0.9963678121566772
,many,0.9666103720664978
,adult,0.9664973020553589
,one,0.9652352929115295
,outdoors,0.9581170082092285
,group,0.9506535530090332
,man,0.948665201663971
,festival,0.9414082169532776
,woman,0.9322956800460815
,daylight,0.9189711809158325
,wear,0.9099280834197998
,vehicle,0.9008985757827759
,market,0.8772948980331421
,recreation,0.8770719766616821
,commerce,0.8758043050765991
,street,0.8744925260543823
,child,0.8580131530761719
,shopping,0.8456710577011108
,ceremony,0.8352611064910889
,religion,0.8310176730155945
https://scontent.cdninstagram.com/t51.2885-15/e15/11358924_501932019964312_1737442423_n.jpg,child,0.9936410188674927
,portrait,0.9885698556900024
,people,0.9861416816711426
,vertical,0.9555932283401489
,one,0.9460856914520264
,indoors,0.92522132396698
,boy,0.913418173789978
,innocence,0.9080536365509033
,man,0.9047642946243286
,serious,0.8953933715820312
,sadness,0.8948407173156738
,fun,0.8870440721511841
,facial expression,0.8838653564453125
,adult,0.8815260529518127
,looking,0.8603497743606567
,text,0.8555823564529419
,education,0.849327802658081
,cute,0.8489367961883545
,adolescent,0.8359532356262207
,little,0.827109694480896
https://scontent.cdninstagram.com/t51.2885-15/e35/11378599_503035003186731_1061798724_n.jpg,group,0.9958466291427612
,facial expression,0.994762659072876
,people,0.9935269355773926
,adult,0.9924222230911255
,portrait,0.989753246307373
,happiness,0.9867404103279114
,woman,0.9840410947799683
,wear,0.9832280874252319
,daylight,0.9751867651939392
,man,0.9677303433418274
,enjoyment,0.9594337940216064
,togetherness,0.9533474445343018
,festival,0.9464553594589233
,three,0.9416598081588745
,group,0.9287933707237244
,four,0.9181458950042725
,vehicle,0.9130592346191406
,eyewear,0.8926159143447876
,interaction,0.8921512365341187
,two,0.8918473720550537
https://scontent.cdninstagram.com/t51.2885-15/s480x480/e35/12107496_1064684836878026_743019581_n.jpg,meat,0.9970983266830444
,food,0.9947630763053894
,meal,0.992596447467804
,plate,0.9924582242965698
,dinner,0.9909045696258545
,salad,0.98502516746521
,dish,0.9839281439781189
,lunch,0.9797891974449158
,steak,0.9770278930664062
,poultry,0.9724395275115967
,potato,0.9713014960289001
,vegetable,0.9692006707191467
,restaurant,0.9642744064331055
,cuisine,0.9631965160369873
,barbecue,0.9629942774772644
,sauce,0.9618215560913086
,beef,0.958734393119812
,fillet,0.9567748308181763
,delicious,0.9506978988647461
,epicure,0.9449349045753479
https://scontent.cdninstagram.com/t51.2885-15/e35/13298257_1136563533071286_1296048479_n.jpg,people,0.994379997253418
,portrait,0.9935030937194824
,man,0.9912310838699341
,one,0.9794812202453613
,adult,0.9469665288925171
,wear,0.9250989556312561
,monochrome,0.8411571979522705
,fashion,0.7617976665496826
,vertical,0.7411028742790222
,indoors,0.7261484861373901
,competition,0.7234934568405151
,athlete,0.7182930111885071
,adolescent,0.7088295221328735
,boy,0.6827826499938965
,pensive,0.6726989150047302
,music,0.6698318719863892
,serious,0.656378448009491
,child,0.6560540199279785
,facial hair,0.6366903781890869
,rugby,0.6281381249427795
https://scontent.cdninstagram.com/t51.2885-15/e15/11324479_445193235650703_1572749578_n.jpg,people,0.9843997955322266
,one,0.9799466133117676
,adult,0.9761852025985718
,recreation,0.9675288200378418
,lifestyle,0.9637887477874756
,leisure,0.9625187516212463
,tennis,0.9549202919006348
,outdoors,0.9462462067604065
,woman,0.9444992542266846
,portrait,0.9383800625801086
,park,0.9205965399742126
,athlete,0.8852047324180603
,daylight,0.8839534521102905
,young,0.8743240833282471
,competition,0.8724650740623474
,wear,0.8595174551010132
,enjoyment,0.8537356853485107
,girl,0.8475961685180664
,relaxation,0.8312987089157104
,motion,0.8135313987731934
https://scontent.cdninstagram.com/t51.2885-15/e15/13129272_461936247343086_358370105_n.jpg,indoors,0.9923255443572998
,luggage,0.9846701622009277
,airport,0.9773803949356079
,business,0.975624144077301
,commuter,0.9705682992935181
,horizontal,0.9688694477081299
,people,0.9637233018875122
,expect,0.9618264436721802
,woman,0.9490828514099121
,adult,0.9371449947357178
,motion,0.9309421181678772
,reflection,0.9242426156997681
,outdoors,0.9234898090362549
,pavement,0.9174826741218567
,window,0.9087055921554565
,horizontal,0.901684582233429
,city,0.8986238241195679
,wait,0.8985366821289062
,transportation system,0.897726833820343
,tube,0.8938404321670532
https://scontent.cdninstagram.com/t51.2885-15/e35/13129132_788324507971000_776803485_n.jpg,people,0.9895263910293579
,adult,0.9835976362228394
,one,0.97869473695755
,portrait,0.9766274690628052
,outdoors,0.959627628326416
,business,0.9379516243934631
,wear,0.935329794883728
,man,0.9278424978256226
,daylight,0.9186246991157532
,woman,0.9005002975463867
,park,0.8837872743606567
,office,0.8717612624168396
,lifestyle,0.8622106909751892
,building,0.848998486995697
,person,0.8324339389801025
,urban,0.823846697807312
,education,0.8168908357620239
,travel,0.8121327757835388
,young,0.8113555312156677
,outside,0.8086249828338623
https://scontent.cdninstagram.com/t51.2885-15/e35/13188163_1585102928449461_649062278_n.jpg,tiger,0.9981902837753296
,cat,0.9961097240447998
,zoo,0.9950867891311646
,portrait,0.9926765561103821
,mammal,0.9823983907699585
,stripe,0.9774471521377563
,big,0.9769279956817627
,wildlife,0.973646879196167
,animal,0.9723875522613525
,jungle,0.9654651880264282
,face,0.9590162634849548
,cute,0.9483228921890259
,eye,0.9438686370849609
,safari,0.9402168989181519
,wild,0.9331043362617493
,head,0.9241165518760681
,angry,0.9146481156349182
,nature,0.913499116897583
,hair,0.9122569561004639
,baby,0.9093711376190186
https://scontent.cdninstagram.com/t51.2885-15/e35/11430214_736310909847952_53393520_n.jpg,people,0.9956256747245789
,portrait,0.9929518103599548
,girl,0.9879491925239563
,street,0.9799529910087585
,child,0.9697573781013489
,festival,0.9467254877090454
,woman,0.9383975863456726
,sunglasses,0.9263220429420471
,man,0.9221304655075073
,city,0.9213701486587524
,urban,0.9062907695770264
,music,0.9030215740203857
,one,0.8974380493164062
,boy,0.8942646980285645
,adult,0.8897082805633545
,fun,0.888695240020752
,landscape,0.8752694129943848
,model,0.8725341558456421
,strange,0.8609011769294739
,light,0.8543828725814819
https://scontent.cdninstagram.com/t51.2885-15/e35/13092479_868035633323793_1780581233_n.jpg,people,0.9886057376861572
,adult,0.9679350852966309
,woman,0.9540465474128723
,stock,0.9392490386962891
,portrait,0.9226338863372803
,wear,0.9204186201095581
,food,0.9114468097686768
,grow,0.9068583250045776
,shopping,0.9018656611442566
,restaurant,0.9010234475135803
,child,0.8944640159606934
,one,0.886433482170105
,man,0.886353075504303
,indoors,0.8861881494522095
,daylight,0.8854740262031555
,market,0.8802838325500488
,girl,0.8709297180175781
,happiness,0.8640962243080139
,chef,0.8446804285049438
,dairy product,0.8238070011138916
https://scontent.cdninstagram.com/t51.2885-15/e35/13129833_1705698819697777_418424618_n.jpg,group,0.995028018951416
,group,0.9935743808746338
,many,0.9796078205108643
,people,0.9713488817214966
,woman,0.9601856470108032
,music,0.9484202265739441
,man,0.9465077519416809
,recreation,0.9196603894233704
,adult,0.9120848178863525
,school,0.9081324338912964
,portrait,0.9051806926727295
,singer,0.8930203914642334
,concert,0.8854626417160034
,education,0.8817909955978394
,band,0.8809483647346497
,crowd,0.8713656663894653
,friendship,0.8612802028656006
,performance,0.8583054542541504
,musician,0.8492496013641357
,enjoyment,0.8423309922218323
https://scontent.cdninstagram.com/t51.2885-15/e15/13117834_870244549752896_1591237957_n.jpg,people,0.9878499507904053
,daylight,0.9807567596435547
,adult,0.976327121257782
,competition,0.9739201068878174
,outdoors,0.9697667956352234
,recreation,0.9628289341926575
,city,0.9619106650352478
,athlete,0.9567817449569702
,building,0.9363942742347717
,man,0.9307208061218262
,woman,0.9085524678230286
,architecture,0.9028724431991577
,lifestyle,0.8950345516204834
,motion,0.8929636478424072
,home,0.8805861473083496
,street,0.8791613578796387
,action,0.8767150640487671
,track and field,0.8706740140914917
,one,0.8688298463821411
,leisure,0.8654535412788391
https://scontent.cdninstagram.com/t51.2885-15/e35/13259599_237730969939423_403014417_n.jpg,people,0.9900115132331848
,one,0.9813281297683716
,woman,0.9681099653244019
,yoga,0.9626521468162537
,adult,0.9593837857246399
,recreation,0.9315539598464966
,strength,0.9300466775894165
,exercise,0.9218184351921082
,leisure,0.903968095779419
,girl,0.9038994312286377
,balance,0.9021332263946533
,position,0.8975651860237122
,gymnastics,0.8833370208740234
,fun,0.8658015131950378
,relaxation,0.8581572771072388
,man,0.8513333797454834
,fitness,0.8419921398162842
,portrait,0.8398378491401672
,meditation,0.8390666246414185
,outdoors,0.8373784422874451
https://scontent.cdninstagram.com/t51.2885-15/e35/13151258_1407190602912780_342023010_n.jpg,sky,0.9909372329711914
,people,0.9799419641494751
,outdoors,0.9772282838821411
,freedom,0.9754752516746521
,fun,0.9743756055831909
,leisure,0.9627479314804077
,summer,0.9621192216873169
,man,0.9611431360244751
,adult,0.9560505747795105
,recreation,0.9395464658737183
,woman,0.9291698932647705
,nature,0.9239505529403687
,active,0.8934832811355591
,girl,0.8874050378799438
,fair weather,0.8866110444068909
,happiness,0.8862196207046509
,lifestyle,0.8833431005477905
,enjoyment,0.8799953460693359
,two,0.8710445761680603
,child,0.8677488565444946
https://scontent.cdninstagram.com/t51.2885-15/sh0.08/e35/p750x750/13298096_547435665435336_1861238422_n.jpg,street,0.9995762705802917
,road,0.9989075064659119
,city,0.9941027164459229
,crossing,0.9920417070388794
,pavement,0.987943172454834
,people,0.9784257411956787
,urban,0.9662764072418213
,traffic,0.9505574703216553
,woman,0.9256232380867004
,shopping,0.9140326976776123
,police,0.8944013118743896
,car,0.8893861770629883
,business,0.8798067569732666
,motion,0.8768320679664612
,rally,0.8577088117599487
,man,0.8438720107078552
,town,0.8384231925010681
,marathon,0.8376199007034302
,commerce,0.836538553237915
,wait,0.8286824226379395
https://scontent.cdninstagram.com/t51.2885-15/s750x750/sh0.08/e35/13266693_830392433771364_1042050024_n.jpg,street,0.9967758655548096
,road,0.9937392473220825
,people,0.9883714914321899
,city,0.9670439958572388
,pavement,0.9587958455085754
,adult,0.9571723937988281
,man,0.9503356218338013
,crossing,0.9250925183296204
,woman,0.9240590333938599
,one,0.9216785430908203
,portrait,0.9198441505432129
,car,0.9137709140777588
,business,0.9090720415115356
,urban,0.8502928018569946
,bench,0.8490086793899536
,chair,0.8398383855819702
,motion,0.8126001358032227
,transportation system,0.810630202293396
,flower,0.7987699508666992
,child,0.7868795394897461
https://scontent.cdninstagram.com/t51.2885-15/s640x640/sh0.08/e35/13126763_1011348082275573_1139340957_n.jpg,people,0.9906200170516968
,woman,0.9765030145645142
,adult,0.9730722904205322
,wear,0.9663034081459045
,child,0.9560205936431885
,portrait,0.9446693658828735
,festival,0.9359422922134399
,group,0.9085307121276855
,girl,0.9002994298934937
,music,0.8860245943069458
,two,0.8849408030509949
,strange,0.8801419734954834
,man,0.8748046159744263
,family,0.8744843006134033
,competition,0.8574131727218628
,recreation,0.8469634056091309
,one,0.8430407047271729
,enjoyment,0.8297412991523743
,daylight,0.8177511096000671
,facial expression,0.8067184090614319
https://scontent.cdninstagram.com/t51.2885-15/e35/11821827_869217953169747_233077827_n.jpg,people,0.9923780560493469
,portrait,0.9793539643287659
,woman,0.9644732475280762
,adult,0.9537813663482666
,music,0.9459215998649597
,girl,0.9425106048583984
,wear,0.93907630443573
,man,0.9272651076316833
,musician,0.9250726699829102
,group,0.9227240085601807
,singer,0.9159860610961914
,two,0.9039965867996216
,festival,0.8967582583427429
,movie,0.8899922966957092
,actress,0.8830081224441528
,fashion,0.873920202255249
,three,0.8730864524841309
,red carpet,0.870707631111145
,facial expression,0.8403488397598267
,recreation,0.8309789896011353
https://scontent.cdninstagram.com/t51.2885-15/e35/12930827_504390823077685_1512491698_n.jpg,man,0.9865443706512451
,people,0.9855159521102905
,portrait,0.9835797548294067
,one,0.9788551330566406
,dark,0.963307797908783
,adult,0.9578655958175659
,competition,0.9386113882064819
,soccer,0.934756875038147
,wear,0.8977515697479248
,athlete,0.888554036617279
,fashion,0.8394164443016052
,serious,0.8342688679695129
,football,0.8313596248626709
,music,0.8014083504676819
,looking,0.7981561422348022
,adolescent,0.7949100732803345
,singer,0.7530845403671265
,face,0.7505906820297241
,determination,0.7492611408233643
,boy,0.7475267648696899
https://scontent.cdninstagram.com/t51.2885-15/e15/12120419_1708635336058812_471831503_n.jpg,indoors,0.9950954914093018
,horizontal,0.9901012182235718
,adult,0.9834433794021606
,people,0.979985237121582
,man,0.9614430665969849
,woman,0.9577047824859619
,headshot,0.9546027183532715
,portrait,0.930675745010376
,contemplation,0.9283981323242188
,window,0.9199098348617554
,business,0.8990163803100586
,looking,0.8951029181480408
,concentration,0.8895982503890991
,sit,0.8654766082763672
,vertical,0.8533941507339478
,child,0.8494287729263306
,sitting,0.8441824913024902
,relaxation,0.8342016339302063
,side view,0.8321132659912109
,serious,0.8313987255096436
https://scontent.cdninstagram.com/t51.2885-15/e35/12724703_1520313894944490_653943375_n.jpg,food,0.9976017475128174
,plate,0.9933416843414307
,cake,0.9848371744155884
,pastry,0.9798086285591125
,dish,0.9772411584854126
,pie,0.9749810695648193
,no person,0.9670702219009399
,sweet,0.966100811958313
,delicious,0.9626098275184631
,table,0.9569137096405029
,cuisine,0.943900465965271
,meal,0.9394601583480835
,restaurant,0.9386216402053833
,cream,0.9367082118988037
,bakery,0.9338866472244263
,refreshment,0.9334473609924316
,epicure,0.9283937215805054
,tart,0.9230859279632568
,tasty,0.9157121181488037
,fruit,0.9105011224746704
