url,class,score,,,,,,,,
https://scontent-sit4-1.cdninstagram.com/t51.2885-15/e35/1517265_1393267107639594_1808129431_n.jpg,nature,0.9470107555389404,"Fashion & Beauty",Environment,,,"My look","Natural beauty",,
,woman,0.9439351558685303,,,,,,,,
,summer,0.943271815776825,,,,,,,,
,sun,0.9410579800605774,,,,,,,,
,health,0.9263535737991333,,,,,,,,
,outdoors,0.9218927621841431,,,,,,,,
,sky,0.920364499092102,,,,,,,,
,young,0.9198026061058044,,,,,,,,
,love,0.9138268232345581,,,,,,,,
,people,0.9075462222099304,,,,,,,,
,romance,0.8934884071350098,,,,,,,,
,sunset,0.8883919715881348,,,,,,,,
,"fair weather",0.8871715068817139,,,,,,,,
,freedom,0.8430989384651184,,,,,,,,
,desktop,0.8376226425170898,,,,,,,,
,joy,0.8159168362617493,,,,,,,,
,dawn,0.8071510791778564,,,,,,,,
,relaxation,0.8056740760803223,,,,,,,,
,fun,0.8041566610336304,,,,,,,,
,"no person",0.8037254810333252,,,,,,,,
https://scontent-sit4-1.cdninstagram.com/t51.2885-15/e35/12277579_1654983464790740_2084905571_n.jpg,woman,0.9833762645721436,"Fashion & Beauty",,,,Ootd,,,
,young,0.9606586694717407,,,,,,,,
,people,0.9587281942367554,,,,,,,,
,girl,0.9404197931289673,,,,,,,,
,fashion,0.9153759479522705,,,,,,,,
,isolated,0.9149399995803833,,,,,,,,
,adult,0.9029641151428223,,,,,,,,
,man,0.8882248997688293,,,,,,,,
,uniform,0.8852829933166504,,,,,,,,
,dress,0.8840936422348022,,,,,,,,
,love,0.8741846084594727,,,,,,,,
,pretty,0.8547285199165344,,,,,,,,
,person,0.84907466173172,,,,,,,,
,fun,0.840178370475769,,,,,,,,
,illustration,0.8366977572441101,,,,,,,,
,shopping,0.8202058672904968,,,,,,,,
,bag,0.810884952545166,,,,,,,,
,child,0.8106242418289185,,,,,,,,
,squad,0.7991320490837097,,,,,,,,
,skirt,0.7970352172851562,,,,,,,,
https://scontent-sit4-1.cdninstagram.com/t51.2885-15/e35/12237196_1661712777402451_2090216360_n.jpg,people,0.9627239108085632,Relationships,"My life",,,Friends,"Here I am",,
,man,0.9460647702217102,,,,,,,,
,child,0.9312065839767456,,,,,,,,
,woman,0.9098876714706421,,,,,,,,
,cheerful,0.9007627964019775,,,,,,,,
,squad,0.8587933778762817,,,,,,,,
,family,0.8425225019454956,,,,,,,,
,illustration,0.8261479139328003,,,,,,,,
,education,0.8244246244430542,,,,,,,,
,adult,0.8220739960670471,,,,,,,,
,uniform,0.8220100402832031,,,,,,,,
,business,0.8110456466674805,,,,,,,,
,boy,0.8018998503684998,,,,,,,,
,sketch,0.8001951575279236,,,,,,,,
,friendship,0.7967796325683594,,,,,,,,
,sport,0.7877194285392761,,,,,,,,
,girl,0.7826212048530579,,,,,,,,
,togetherness,0.770892858505249,,,,,,,,
,fun,0.7618792653083801,,,,,,,,
,happiness,0.754019558429718,,,,,,,,
https://scontent-sit4-1.cdninstagram.com/t51.2885-15/e35/1173094_745241175607004_2056392430_n.jpg,portrait,0.9820734262466431,"Fashion & Beauty",,,,Ootd,,,
,girl,0.9803718328475952,,,,,,,,
,people,0.9797536730766296,,,,,,,,
,wear,0.9791253209114075,,,,,,,,
,skirt,0.9771898984909058,,,,,,,,
,woman,0.9757603406906128,,,,,,,,
,one,0.9739840030670166,,,,,,,,
,adult,0.9713117480278015,,,,,,,,
,"facial expression",0.9553090929985046,,,,,,,,
,child,0.9510577917098999,,,,,,,,
,school,0.9505186080932617,,,,,,,,
,dress,0.9339234828948975,,,,,,,,
,bag,0.8990910053253174,,,,,,,,
,fashion,0.8986129760742188,,,,,,,,
,happiness,0.8971254825592041,,,,,,,,
,education,0.879980206489563,,,,,,,,
,two,0.8769797086715698,,,,,,,,
,brunette,0.8447644114494324,,,,,,,,
,model,0.8391597270965576,,,,,,,,
,room,0.8315722942352295,,,,,,,,
https://scontent-sit4-1.cdninstagram.com/t51.2885-15/e35/12357767_1529727887319941_1713358944_n.jpg,snow,0.9988802671432495,Relationships,Travel,,,Family,Travel-s,,
,winter,0.9951815605163574,,,,,,,,
,fun,0.9837754964828491,,,,,,,,
,sport,0.9823317527770996,,,,,,,,
,recreation,0.9765779972076416,,,,,,,,
,child,0.9740310907363892,,,,,,,,
,man,0.9625279903411865,,,,,,,,
,leisure,0.9553989171981812,,,,,,,,
,boy,0.9534718990325928,,,,,,,,
,ice,0.9523072838783264,,,,,,,,
,skier,0.9381577968597412,,,,,,,,
,active,0.9258599281311035,,,,,,,,
,slope,0.9243432283401489,,,,,,,,
,cold,0.924091100692749,,,,,,,,
,action,0.8868046998977661,,,,,,,,
,snowy,0.8846491575241089,,,,,,,,
,people,0.8843549489974976,,,,,,,,
,group,0.8765304088592529,,,,,,,,
,action,0.8752027750015259,,,,,,,,
,downhill,0.8388627767562866,,,,,,,,
https://scontent-sit4-1.cdninstagram.com/t51.2885-15/s640x640/sh0.08/e35/13108846_216967955353576_2047829614_n.jpg,people,0.9961700439453125,Relationships,,,,"Best friends",,,
,graduation,0.9942242503166199,,,,,,,,
,adult,0.9941341876983643,,,,,,,,
,school,0.991657018661499,,,,,,,,
,accomplishment,0.9873743653297424,,,,,,,,
,education,0.9869776368141174,,,,,,,,
,woman,0.9858369827270508,,,,,,,,
,university,0.9777041673660278,,,,,,,,
,wear,0.9664113521575928,,,,,,,,
,portrait,0.966187596321106,,,,,,,,
,diploma,0.9611842632293701,,,,,,,,
,ceremony,0.9547710418701172,,,,,,,,
,outdoors,0.9546976089477539,,,,,,,,
,daylight,0.952716588973999,,,,,,,,
,two,0.9484199285507202,,,,,,,,
,uniform,0.9480252861976624,,,,,,,,
,outfit,0.9384608268737793,,,,,,,,
,girl,0.9314114451408386,,,,,,,,
,mortarboard,0.9302529096603394,,,,,,,,
,happiness,0.9253339171409607,,,,,,,,
https://scontent-sit4-1.cdninstagram.com/t51.2885-15/e35/11910530_426175604245983_1519455636_n.jpg,painter,0.9361696839332581,Relationships,Commerce,,,"Best friends",Shopping,,
,woman,0.9014748334884644,,,,,,,,
,shopping,0.8954916000366211,,,,,,,,
,bag,0.8898338079452515,,,,,,,,
,container,0.8800559639930725,,,,,,,,
,painting,0.877611517906189,,,,,,,,
,isolated,0.8631860017776489,,,,,,,,
,desktop,0.8596649169921875,,,,,,,,
,people,0.8446566462516785,,,,,,,,
,paper,0.8386213779449463,,,,,,,,
,plastic,0.8313912153244019,,,,,,,,
,paintbrush,0.8266265988349915,,,,,,,,
,business,0.8214651942253113,,,,,,,,
,person,0.8096122741699219,,,,,,,,
,box,0.8070858120918274,,,,,,,,
,family,0.7973142862319946,,,,,,,,
,design,0.7856262922286987,,,,,,,,
,equipment,0.7846299409866333,,,,,,,,
,art,0.7644099593162537,,,,,,,,
,brush,0.7537626028060913,,,,,,,,
https://scontent-sit4-1.cdninstagram.com/t51.2885-15/e35/13266813_1079437845454524_1690744574_n.jpg,people,0.9926924705505371,Relationships,,,,"Best friends",,,
,wear,0.9918049573898315,,,,,,,,
,adult,0.987581729888916,,,,,,,,
,woman,0.9842803478240967,,,,,,,,
,two,0.9675850868225098,,,,,,,,
,child,0.9672459363937378,,,,,,,,
,portrait,0.9611034989356995,,,,,,,,
,girl,0.9596664309501648,,,,,,,,
,indoors,0.9594635963439941,,,,,,,,
,school,0.949806272983551,,,,,,,,
,one,0.9347901344299316,,,,,,,,
,education,0.9239116907119751,,,,,,,,
,room,0.923136293888092,,,,,,,,
,medicine,0.9070181250572205,,,,,,,,
,dress,0.8953670263290405,,,,,,,,
,skirt,0.8931507468223572,,,,,,,,
,healthcare,0.8746893405914307,,,,,,,,
,group,0.8713282942771912,,,,,,,,
,commerce,0.8603318333625793,,,,,,,,
,stock,0.8410106897354126,,,,,,,,
https://scontent-sit4-1.cdninstagram.com/t51.2885-15/e35/12362613_545780075602974_324486084_n.jpg,woman,0.9878977537155151,Celebrations,"Fashion & Beauty",,,"Community Events","Fashion & Beauty-s",,
,fashion,0.9728586673736572,,,,,,,,
,adult,0.9542067050933838,,,,,,,,
,wear,0.9440158605575562,,,,,,,,
,isolated,0.9227482080459595,,,,,,,,
,dress,0.8965221643447876,,,,,,,,
,young,0.8880815505981445,,,,,,,,
,beautiful,0.8748530149459839,,,,,,,,
,scarf,0.8664777278900146,,,,,,,,
,girl,0.862561821937561,,,,,,,,
,shopping,0.8575881719589233,,,,,,,,
,person,0.854561448097229,,,,,,,,
,pretty,0.8445703983306885,,,,,,,,
,people,0.8361445069313049,,,,,,,,
,casual,0.8308953642845154,,,,,,,,
,vertical,0.8188186883926392,,,,,,,,
,portrait,0.8182289600372314,,,,,,,,
,sexy,0.8166947364807129,,,,,,,,
,underwear,0.8045167922973633,,,,,,,,
,skirt,0.801868736743927,,,,,,,,
https://scontent-sit4-1.cdninstagram.com/t51.2885-15/e35/1169760_189181218122022_1453578012_n.jpg,woman,0.9879316091537476,Relationships,,,,"Best friends",,,
,people,0.9806746244430542,,,,,,,,
,indoors,0.9770972728729248,,,,,,,,
,man,0.9708201289176941,,,,,,,,
,wear,0.9537631273269653,,,,,,,,
,adult,0.9503660202026367,,,,,,,,
,togetherness,0.9487080574035645,,,,,,,,
,child,0.9348567724227905,,,,,,,,
,girl,0.9217248558998108,,,,,,,,
,two,0.917341947555542,,,,,,,,
,"facial expression",0.9151580333709717,,,,,,,,
,portrait,0.8994320631027222,,,,,,,,
,family,0.8936134576797485,,,,,,,,
,fun,0.8881614208221436,,,,,,,,
,one,0.8868110179901123,,,,,,,,
,leisure,0.8820682764053345,,,,,,,,
,enjoyment,0.8784507513046265,,,,,,,,
,fashion,0.8662819862365723,,,,,,,,
,happiness,0.8398613333702087,,,,,,,,
,recreation,0.8218775987625122,,,,,,,,
https://scontent-sit4-1.cdninstagram.com/l/t51.2885-15/e35/12717073_929882487102933_3739625_n.jpg,step,0.996052622795105,"Fashion & Beauty",,,,Ootd,,,
,girl,0.9929032325744629,,,,,,,,
,woman,0.9874681234359741,,,,,,,,
,portrait,0.981627345085144,,,,,,,,
,people,0.9804314374923706,,,,,,,,
,fashion,0.9788509011268616,,,,,,,,
,model,0.9760890007019043,,,,,,,,
,skirt,0.9742120504379272,,,,,,,,
,one,0.9675154685974121,,,,,,,,
,child,0.9550237655639648,,,,,,,,
,dress,0.9456660747528076,,,,,,,,
,wear,0.934563934803009,,,,,,,,
,brunette,0.919361412525177,,,,,,,,
,adult,0.9166673421859741,,,,,,,,
,indoors,0.8921475410461426,,,,,,,,
,glamour,0.8816184997558594,,,,,,,,
,miniskirt,0.842139482498169,,,,,,,,
,light,0.8255852460861206,,,,,,,,
,door,0.8242589831352234,,,,,,,,
,footwear,0.7907402515411377,,,,,,,,
https://scontent-sit4-1.cdninstagram.com/t51.2885-15/e35/12912611_1579423502348641_2055326801_n.jpg,railway,0.9981298446655273,Travel,"Fashion & Beauty",,,Travel-s,"My look",,
,train,0.9913811683654785,,,,,,,,
,people,0.9830142259597778,,,,,,,,
,track,0.981412410736084,,,,,,,,
,railway,0.9715800285339355,,,,,,,,
,woman,0.966210663318634,,,,,,,,
,travel,0.9638281464576721,,,,,,,,
,adult,0.950631320476532,,,,,,,,
,motion,0.947203516960144,,,,,,,,
,road,0.946906328201294,,,,,,,,
,train,0.9440844058990479,,,,,,,,
,fun,0.9262139797210693,,,,,,,,
,intersection,0.9180923104286194,,,,,,,,
,girl,0.9176379442214966,,,,,,,,
,one,0.8944268822669983,,,,,,,,
,recreation,0.8708505630493164,,,,,,,,
,portrait,0.8649065494537354,,,,,,,,
,man,0.8611224889755249,,,,,,,,
,street,0.8403064608573914,,,,,,,,
,child,0.8307658433914185,,,,,,,,
https://scontent-sit4-1.cdninstagram.com/t51.2885-15/e35/12353200_1506430349652823_367407907_n.jpg,child,0.9762610197067261,Relationships,,,,Friends,,,
,group,0.9697276949882507,,,,,,,,
,woman,0.9690920114517212,,,,,,,,
,group,0.9661147594451904,,,,,,,,
,togetherness,0.9593360424041748,,,,,,,,
,man,0.9537888765335083,,,,,,,,
,people,0.945917010307312,,,,,,,,
,family,0.9385340213775635,,,,,,,,
,friendship,0.9219698905944824,,,,,,,,
,fun,0.9165811538696289,,,,,,,,
,unity,0.9051991701126099,,,,,,,,
,many,0.90082186460495,,,,,,,,
,four,0.8943455815315247,,,,,,,,
,love,0.879004955291748,,,,,,,,
,joy,0.8754580020904541,,,,,,,,
,laughing,0.8742703199386597,,,,,,,,
,young,0.85946124792099,,,,,,,,
,happiness,0.8466527462005615,,,,,,,,
,student,0.8258510828018188,,,,,,,,
,multicultural,0.8204699158668518,,,,,,,,
https://scontent-sit4-1.cdninstagram.com/t51.2885-15/e35/10723902_778138038979830_892976549_n.jpg,child,0.9968520402908325,Relationships,,,,Friends,,,
,people,0.9791532754898071,,,,,,,,
,fun,0.9645617008209229,,,,,,,,
,isolated,0.9618937969207764,,,,,,,,
,portrait,0.9615128040313721,,,,,,,,
,woman,0.9570031762123108,,,,,,,,
,cute,0.9497030973434448,,,,,,,,
,little,0.9414345026016235,,,,,,,,
,family,0.9399667382240295,,,,,,,,
,group,0.9398348331451416,,,,,,,,
,boy,0.9290440082550049,,,,,,,,
,young,0.9206932783126831,,,,,,,,
,joy,0.9178907871246338,,,,,,,,
,three,0.9146883487701416,,,,,,,,
,togetherness,0.9097960591316223,,,,,,,,
,friendship,0.9073208570480347,,,,,,,,
,girl,0.9066654443740845,,,,,,,,
,man,0.9061106443405151,,,,,,,,
,baby,0.9027383327484131,,,,,,,,
,happiness,0.8872919082641602,,,,,,,,
https://scontent-sit4-1.cdninstagram.com/t51.2885-15/e35/13129325_1408946365794379_418606665_n.jpg,woman,0.9956164360046387,Relationships,,,,"Best friends",,,
,adult,0.9764675498008728,,,,,,,,
,man,0.973050057888031,,,,,,,,
,togetherness,0.9637538194656372,,,,,,,,
,"facial expression",0.9592733383178711,,,,,,,,
,people,0.9535378217697144,,,,,,,,
,two,0.9509687423706055,,,,,,,,
,indoors,0.9442572593688965,,,,,,,,
,group,0.9406014680862427,,,,,,,,
,child,0.9366459846496582,,,,,,,,
,happiness,0.9329228401184082,,,,,,,,
,school,0.9327208995819092,,,,,,,,
,wear,0.9277470111846924,,,,,,,,
,education,0.92508465051651,,,,,,,,
,healthcare,0.9176315069198608,,,,,,,,
,portrait,0.9116919040679932,,,,,,,,
,three,0.9061901569366455,,,,,,,,
,girl,0.8884402513504028,,,,,,,,
,cooperation,0.8847731351852417,,,,,,,,
,adolescent,0.8789600133895874,,,,,,,,
https://scontent-sit4-1.cdninstagram.com/t51.2885-15/e35/10724995_1704151103201594_604834215_n.jpg,balance,0.9771813154220581,"My life",Recreation,Relationships,,Doing,Recreation-s,"Best friends",
,motion,0.9715613126754761,,,,,,,,
,agility,0.9691951870918274,,,,,,,,
,adult,0.9677704572677612,,,,,,,,
,people,0.9616681337356567,,,,,,,,
,dancing,0.9616246223449707,,,,,,,,
,gymnastics,0.952541708946228,,,,,,,,
,woman,0.9511494636535645,,,,,,,,
,action,0.9292641282081604,,,,,,,,
,one,0.9259748458862305,,,,,,,,
,wear,0.9237700700759888,,,,,,,,
,exercise,0.9193729162216187,,,,,,,,
,dancer,0.9172258377075195,,,,,,,,
,skill,0.9165454506874084,,,,,,,,
,girl,0.9111795425415039,,,,,,,,
,ambition,0.9099880456924438,,,,,,,,
,handstand,0.9000939130783081,,,,,,,,
,determination,0.8940505385398865,,,,,,,,
,performance,0.8927685022354126,,,,,,,,
,competition,0.8919744491577148,,,,,,,,
https://scontent-sit4-1.cdninstagram.com/t51.2885-15/e35/12145471_1741384982756363_1920279051_n.jpg,man,0.9825841188430786,Relationships,Food,Celebrations,,Family,Dessert,"Personal Events",
,friendship,0.9767230749130249,,,,,,,,
,woman,0.9659401178359985,,,,,,,,
,group,0.9597612619400024,,,,,,,,
,group,0.9509164690971375,,,,,,,,
,people,0.941656231880188,,,,,,,,
,fun,0.9376507997512817,,,,,,,,
,togetherness,0.9231443405151367,,,,,,,,
,multicultural,0.9224250316619873,,,,,,,,
,student,0.8949695825576782,,,,,,,,
,child,0.8926970958709717,,,,,,,,
,restaurant,0.8783214688301086,,,,,,,,
,young,0.8759912848472595,,,,,,,,
,family,0.8617086410522461,,,,,,,,
,party,0.8610048890113831,,,,,,,,
,squad,0.8580951690673828,,,,,,,,
,happiness,0.8558101654052734,,,,,,,,
,table,0.854180097579956,,,,,,,,
,cheerful,0.8443556427955627,,,,,,,,
,bar,0.843829333782196,,,,,,,,
https://scontent-sit4-1.cdninstagram.com/t51.2885-15/e35/13355443_713513005457365_56170289_n.jpg,people,0.993354856967926,Relationships,"My life",,,Friends,Doing,,
,woman,0.9744960069656372,,,,,,,,
,competition,0.9647195339202881,,,,,,,,
,recreation,0.9644076228141785,,,,,,,,
,one,0.953691840171814,,,,,,,,
,adult,0.9526245594024658,,,,,,,,
,exercise,0.9475769996643066,,,,,,,,
,man,0.9395590424537659,,,,,,,,
,two,0.9309465885162354,,,,,,,,
,group,0.925855278968811,,,,,,,,
,athlete,0.9198837280273438,,,,,,,,
,wear,0.9135411381721497,,,,,,,,
,indoors,0.9132816791534424,,,,,,,,
,performance,0.9119762778282166,,,,,,,,
,festival,0.9072294235229492,,,,,,,,
,motion,0.8943843841552734,,,,,,,,
,dancing,0.8821931481361389,,,,,,,,
,music,0.851204514503479,,,,,,,,
,many,0.8506268858909607,,,,,,,,
,leisure,0.8461086750030518,,,,,,,,
https://scontent-sit4-1.cdninstagram.com/t51.2885-15/e35/13402214_1724964777743426_1497909708_n.jpg,sand,0.999679446220398,Relationships,Environment,Recreation,,"Best friends","Natural beauty",Beach,
,beach,0.9990168809890747,,,,,,,,
,water,0.997460126876831,,,,,,,,
,leisure,0.9950758218765259,,,,,,,,
,sea,0.9938275814056396,,,,,,,,
,summer,0.9938099384307861,,,,,,,,
,fun,0.9937994480133057,,,,,,,,
,travel,0.9935997128486633,,,,,,,,
,vacation,0.990821123123169,,,,,,,,
,seashore,0.9871617555618286,,,,,,,,
,relaxation,0.9868403673171997,,,,,,,,
,tropical,0.9866052865982056,,,,,,,,
,togetherness,0.9864293336868286,,,,,,,,
,ocean,0.9859179258346558,,,,,,,,
,enjoyment,0.9848381280899048,,,,,,,,
,love,0.9725803732872009,,,,,,,,
,recreation,0.9686505198478699,,,,,,,,
,romance,0.9674049615859985,,,,,,,,
,child,0.9581305980682373,,,,,,,,
,joy,0.9571362733840942,,,,,,,,
https://scontent-sit4-1.cdninstagram.com/t51.2885-15/e35/12479247_877683238997459_1175983575_n.jpg,school,0.9760332703590393,Relationships,,,,Friends,,,
,woman,0.9646652936935425,,,,,,,,
,group,0.9585133194923401,,,,,,,,
,education,0.9583148956298828,,,,,,,,
,people,0.9534323215484619,,,,,,,,
,portrait,0.9248785376548767,,,,,,,,
,child,0.9196345210075378,,,,,,,,
,man,0.8928714394569397,,,,,,,,
,adult,0.8835089206695557,,,,,,,,
,student,0.8749141097068787,,,,,,,,
,indoors,0.8741369843482971,,,,,,,,
,wear,0.8642122745513916,,,,,,,,
,"elementary school",0.8277512788772583,,,,,,,,
,happiness,0.8194059729576111,,,,,,,,
,university,0.8163323402404785,,,,,,,,
,adolescent,0.8058962821960449,,,,,,,,
,business,0.7995224595069885,,,,,,,,
,multicultural,0.7971668839454651,,,,,,,,
,girl,0.7899087071418762,,,,,,,,
,togetherness,0.7828128337860107,,,,,,,,
https://scontent-sit4-1.cdninstagram.com/t51.2885-15/e35/12276932_1388806898092702_2141709602_n.jpg,summer,0.9682809114456177,"Fashion & Beauty",,,,"My look",,,
,nature,0.9680957794189453,,,,,,,,
,water,0.9551588296890259,,,,,,,,
,sky,0.9261413812637329,,,,,,,,
,architecture,0.9131947159767151,,,,,,,,
,house,0.9128928780555725,,,,,,,,
,flora,0.9100740551948547,,,,,,,,
,window,0.9062365293502808,,,,,,,,
,tree,0.9058040380477905,,,,,,,,
,city,0.8989334106445312,,,,,,,,
,outdoors,0.8976178169250488,,,,,,,,
,travel,0.8948639631271362,,,,,,,,
,beautiful,0.893641471862793,,,,,,,,
,building,0.8924280405044556,,,,,,,,
,business,0.8906819224357605,,,,,,,,
,landscape,0.8893750905990601,,,,,,,,
,people,0.8867220878601074,,,,,,,,
,climb,0.8848845958709717,,,,,,,,
,leaf,0.8659657835960388,,,,,,,,
,sight,0.8621089458465576,,,,,,,,
https://scontent-sit4-1.cdninstagram.com/t51.2885-15/e35/12231009_173091696374214_1727647015_n.jpg,woman,0.9769754409790039,"Fashion & Beauty",Celebrations,,,"My look","Community Events",,
,people,0.9769690632820129,,,,,,,,
,girl,0.9507196545600891,,,,,,,,
,street,0.9492189288139343,,,,,,,,
,young,0.9457764625549316,,,,,,,,
,shopping,0.9390732049942017,,,,,,,,
,person,0.9234620928764343,,,,,,,,
,child,0.9105586409568787,,,,,,,,
,fun,0.9072226881980896,,,,,,,,
,pretty,0.8946875929832458,,,,,,,,
,fashion,0.8829572796821594,,,,,,,,
,smile,0.8799304962158203,,,,,,,,
,beautiful,0.8764732480049133,,,,,,,,
,joy,0.8656244874000549,,,,,,,,
,family,0.8632007241249084,,,,,,,,
,portrait,0.8496623039245605,,,,,,,,
,city,0.8496484756469727,,,,,,,,
,Christmas,0.832923173904419,,,,,,,,
,celebration,0.8246752023696899,,,,,,,,
,cute,0.8243356943130493,,,,,,,,
https://scontent-sit4-1.cdninstagram.com/t51.2885-15/e35/12357378_1676762002581204_584236357_n.jpg,child,0.9813936948776245,,Relationships,Food,,,Family,"Meal time",
,people,0.9673351049423218,,,,,,,,
,student,0.962943434715271,,,,,,,,
,group,0.9622812271118164,,,,,,,,
,woman,0.9617955684661865,,,,,,,,
,education,0.9568016529083252,,,,,,,,
,school,0.9538568258285522,,,,,,,,
,friendship,0.9520766735076904,,,,,,,,
,family,0.9424363970756531,,,,,,,,
,fun,0.9400333762168884,,,,,,,,
,isolated,0.9225290417671204,,,,,,,,
,adolescent,0.913749098777771,,,,,,,,
,young,0.9077538251876831,,,,,,,,
,togetherness,0.8821429014205933,,,,,,,,
,recreation,0.84800124168396,,,,,,,,
,joy,0.8443949222564697,,,,,,,,
,multicultural,0.8437531590461731,,,,,,,,
,indoors,0.8428680896759033,,,,,,,,
,enjoyment,0.8413560390472412,,,,,,,,
,"elementary school",0.841172456741333,,,,,,,,
https://scontent-sit4-1.cdninstagram.com/t51.2885-15/e35/12224333_1661532807465474_366838656_n.jpg,child,0.9856923222541809,Relationships,,,,"Best friends",,,
,woman,0.9779468178749084,,,,,,,,
,education,0.9739853739738464,,,,,,,,
,people,0.9651234149932861,,,,,,,,
,group,0.9642490744590759,,,,,,,,
,school,0.9628404378890991,,,,,,,,
,student,0.9618545770645142,,,,,,,,
,squad,0.9452989101409912,,,,,,,,
,friendship,0.9377284049987793,,,,,,,,
,man,0.9359782338142395,,,,,,,,
,adolescent,0.9350581169128418,,,,,,,,
,togetherness,0.909172773361206,,,,,,,,
,isolated,0.8987363576889038,,,,,,,,
,teamwork,0.8892544507980347,,,,,,,,
,young,0.8873089551925659,,,,,,,,
,multicultural,0.883599042892456,,,,,,,,
,college,0.8731125593185425,,,,,,,,
,academic,0.8628957271575928,,,,,,,,
,portrait,0.8612383008003235,,,,,,,,
,pupils,0.8517301082611084,,,,,,,,
https://scontent-sit4-1.cdninstagram.com/t51.2885-15/e35/12301177_786401764820808_1694824503_n.jpg,group,0.977881908416748,Relationships,,,,Family,,,
,man,0.9740144610404968,,,,,,,,
,group,0.972256064414978,,,,,,,,
,teamwork,0.9417622089385986,,,,,,,,
,squad,0.9365228414535522,,,,,,,,
,woman,0.9353276491165161,,,,,,,,
,success,0.9290247559547424,,,,,,,,
,business,0.92149817943573,,,,,,,,
,partnership,0.8955594301223755,,,,,,,,
,people,0.8877017498016357,,,,,,,,
,formal,0.8820555806159973,,,,,,,,
,four,0.8816404938697815,,,,,,,,
,togetherness,0.8740254640579224,,,,,,,,
,success,0.8629003167152405,,,,,,,,
,three,0.8339577317237854,,,,,,,,
,staff,0.832767903804779,,,,,,,,
,multicultural,0.8192299008369446,,,,,,,,
,corporate,0.792926549911499,,,,,,,,
,company,0.7897048592567444,,,,,,,,
,actor,0.7834967374801636,,,,,,,,
https://scontent-sit4-1.cdninstagram.com/t51.2885-15/e35/928266_1653046068291181_547751245_n.jpg,people,0.992251992225647,Relationships,,,,Friends,,,
,man,0.9830195903778076,,,,,,,,
,sport,0.9828367233276367,,,,,,,,
,group,0.9824459552764893,,,,,,,,
,squad,0.9734698534011841,,,,,,,,
,woman,0.963885486125946,,,,,,,,
,competition,0.9624578952789307,,,,,,,,
,athlete,0.9614901542663574,,,,,,,,
,group,0.9565800428390503,,,,,,,,
,fitness,0.947291910648346,,,,,,,,
,exercise,0.9409465789794922,,,,,,,,
,many,0.9407432675361633,,,,,,,,
,action,0.9398225545883179,,,,,,,,
,runner,0.9376868009567261,,,,,,,,
,adult,0.9364305734634399,,,,,,,,
,crowd,0.9301616549491882,,,,,,,,
,teamwork,0.9295521974563599,,,,,,,,
,young,0.928685188293457,,,,,,,,
,recreation,0.9277416467666626,,,,,,,,
,active,0.926450788974762,,,,,,,,
https://scontent-sit4-1.cdninstagram.com/t51.2885-15/e35/12825841_1670059289915761_1065048821_n.jpg,people,0.9845170378684998,Relationships,Environment,,,Friends,"Manmade beauty",,
,soccer,0.9707582592964172,,,,,,,,
,competition,0.9654446244239807,,,,,,,,
,recreation,0.9635709524154663,,,,,,,,
,squad,0.9476350545883179,,,,,,,,
,outdoors,0.9381660223007202,,,,,,,,
,school,0.9363781213760376,,,,,,,,
,education,0.9263451099395752,,,,,,,,
,man,0.9109281301498413,,,,,,,,
,game,0.9079067707061768,,,,,,,,
,ball,0.9037028551101685,,,,,,,,
,adult,0.9014967679977417,,,,,,,,
,group,0.8985939621925354,,,,,,,,
,lawn,0.8975626826286316,,,,,,,,
,teamwork,0.8955222964286804,,,,,,,,
,grass,0.8922399282455444,,,,,,,,
,daylight,0.8921462297439575,,,,,,,,
,athlete,0.8850212693214417,,,,,,,,
,football,0.884425699710846,,,,,,,,
,rugby,0.8818434476852417,,,,,,,,
https://scontent-sit4-1.cdninstagram.com/l/t51.2885-15/e35/13398832_1772494749631889_1133067433_n.jpg,friendship,0.9733163118362427,Relationships,Recreation,,,Friends,Beach,,
,water,0.9644902944564819,,,,,,,,
,group,0.961493968963623,,,,,,,,
,beach,0.9566384553909302,,,,,,,,
,outdoors,0.9553823471069336,,,,,,,,
,group,0.9470224380493164,,,,,,,,
,fun,0.9455139636993408,,,,,,,,
,people,0.9420427083969116,,,,,,,,
,summer,0.9408931732177734,,,,,,,,
,travel,0.9402180314064026,,,,,,,,
,man,0.9392012357711792,,,,,,,,
,togetherness,0.9302008152008057,,,,,,,,
,sand,0.9246684908866882,,,,,,,,
,teamwork,0.910408616065979,,,,,,,,
,woman,0.9071752429008484,,,,,,,,
,child,0.9058191776275635,,,,,,,,
,seashore,0.9005947113037109,,,,,,,,
,family,0.8957881331443787,,,,,,,,
,leisure,0.891503095626831,,,,,,,,
,recreation,0.8846672773361206,,,,,,,,
https://scontent-sit4-1.cdninstagram.com/t51.2885-15/e35/13721067_1770783896493520_567890250_n.jpg,city,0.9884783029556274,Relationships,Environment,,,"Best friends","Manmade beauty",,
,business,0.977631688117981,,,,,,,,
,urban,0.9750411510467529,,,,,,,,
,building,0.9689968228340149,,,,,,,,
,street,0.967511773109436,,,,,,,,
,people,0.9651550054550171,,,,,,,,
,architecture,0.9606586694717407,,,,,,,,
,skyscraper,0.9464963674545288,,,,,,,,
,office,0.9462124109268188,,,,,,,,
,outdoors,0.9362329244613647,,,,,,,,
,adult,0.9246194958686829,,,,,,,,
,modern,0.9218131899833679,,,,,,,,
,downtown,0.9214823246002197,,,,,,,,
,portrait,0.9007829427719116,,,,,,,,
,technology,0.9000416994094849,,,,,,,,
,woman,0.8992931842803955,,,,,,,,
,family,0.8968726992607117,,,,,,,,
,apartment,0.8904803991317749,,,,,,,,
,sky,0.8773468136787415,,,,,,,,
,daylight,0.8754451274871826,,,,,,,,
https://scontent-sit4-1.cdninstagram.com/t51.2885-15/e35/11931236_143060306054161_1174683462_n.jpg,child,0.9885753393173218,Relationships,,,,Friends,,,
,people,0.9761117696762085,,,,,,,,
,fun,0.9679524898529053,,,,,,,,
,collage,0.9443814754486084,,,,,,,,
,group,0.9403179883956909,,,,,,,,
,sport,0.9390147924423218,,,,,,,,
,many,0.9310649633407593,,,,,,,,
,friendship,0.9244905710220337,,,,,,,,
,woman,0.9172590970993042,,,,,,,,
,young,0.9171925187110901,,,,,,,,
,man,0.9151891469955444,,,,,,,,
,family,0.9088256359100342,,,,,,,,
,person,0.9061307311058044,,,,,,,,
,girl,0.9049639701843262,,,,,,,,
,game,0.893028199672699,,,,,,,,
,squad,0.8918273448944092,,,,,,,,
,school,0.8839169144630432,,,,,,,,
,education,0.8837923407554626,,,,,,,,
,crowd,0.8585596680641174,,,,,,,,
,happiness,0.8555737733840942,,,,,,,,
https://scontent-sit4-1.cdninstagram.com/t51.2885-15/s750x750/sh0.08/e35/13423444_1074254469280062_1048803481_n.jpg,woman,0.9877709150314331,Relationships,Recreation,Environment,,Friends,Beach,"Natural beauty",
,beach,0.9857032299041748,,,,,,,,
,water,0.9840850830078125,,,,,,,,
,togetherness,0.9825303554534912,,,,,,,,
,happiness,0.9785082340240479,,,,,,,,
,fun,0.9780547618865967,,,,,,,,
,enjoyment,0.974869430065155,,,,,,,,
,lifestyle,0.9733867645263672,,,,,,,,
,seashore,0.9732280969619751,,,,,,,,
,sea,0.9717826247215271,,,,,,,,
,love,0.9644743204116821,,,,,,,,
,leisure,0.9643592834472656,,,,,,,,
,ocean,0.9611443281173706,,,,,,,,
,adult,0.9564700126647949,,,,,,,,
,travel,0.9558324813842773,,,,,,,,
,vacation,0.9552522301673889,,,,,,,,
,girl,0.9548103213310242,,,,,,,,
,friendship,0.949715256690979,,,,,,,,
,summer,0.9486181735992432,,,,,,,,
,outdoors,0.9481319189071655,,,,,,,,
https://scontent-sit4-1.cdninstagram.com/t51.2885-15/e35/11930993_1654641988151752_1721643337_n.jpg,woman,0.9905071258544922,"Fashion & Beauty",Environment,,,Ootd,"Manmade beauty",,
,summer,0.9886834621429443,,,,,,,,
,nature,0.9805223941802979,,,,,,,,
,people,0.9801697731018066,,,,,,,,
,young,0.9787718057632446,,,,,,,,
,relaxation,0.9778600335121155,,,,,,,,
,beautiful,0.973980188369751,,,,,,,,
,outdoors,0.9738768339157104,,,,,,,,
,water,0.9731159210205078,,,,,,,,
,girl,0.9664545059204102,,,,,,,,
,adult,0.9577153921127319,,,,,,,,
,lifestyle,0.9557172060012817,,,,,,,,
,love,0.9526318311691284,,,,,,,,
,family,0.9523096084594727,,,,,,,,
,portrait,0.9472824335098267,,,,,,,,
,window,0.9465289115905762,,,,,,,,
,tropical,0.9462270140647888,,,,,,,,
,leisure,0.9456216096878052,,,,,,,,
,sit,0.938008189201355,,,,,,,,
,attractive,0.9312123656272888,,,,,,,,
https://scontent-sit4-1.cdninstagram.com/t51.2885-15/e35/12224696_1692892614279785_1643051130_n.jpg,collage,0.9819430112838745,Recreation,Relationships,Entertainment,,Beach,Friends,Events,
,people,0.9766572713851929,,,,,,,,
,crowd,0.9516932964324951,,,,,,,,
,man,0.9125188589096069,,,,,,,,
,many,0.9109905958175659,,,,,,,,
,woman,0.8934839963912964,,,,,,,,
,business,0.8831822872161865,,,,,,,,
,sport,0.8610454797744751,,,,,,,,
,squad,0.841589093208313,,,,,,,,
,collection,0.8342770934104919,,,,,,,,
,city,0.8114375472068787,,,,,,,,
,variation,0.8066117763519287,,,,,,,,
,shopping,0.783598005771637,,,,,,,,
,market,0.781599760055542,,,,,,,,
,event,0.7814251780509949,,,,,,,,
,fun,0.7784745693206787,,,,,,,,
,paper,0.7723758816719055,,,,,,,,
,horizontal,0.7606477737426758,,,,,,,,
,street,0.7579882144927979,,,,,,,,
,desktop,0.7564458847045898,,,,,,,,
https://scontent-sit4-1.cdninstagram.com/t51.2885-15/s750x750/sh0.08/e35/13267473_1740653852883263_1111142888_n.jpg,woman,0.9855992197990417,Relationships,,,,"Best friends",,,
,people,0.9808276891708374,,,,,,,,
,adult,0.9760069847106934,,,,,,,,
,outdoors,0.9651182889938354,,,,,,,,
,two,0.9470508098602295,,,,,,,,
,man,0.9460877180099487,,,,,,,,
,portrait,0.9428529739379883,,,,,,,,
,recreation,0.9199167490005493,,,,,,,,
,wear,0.9060715436935425,,,,,,,,
,leisure,0.9055887460708618,,,,,,,,
,togetherness,0.8892008066177368,,,,,,,,
,lifestyle,0.8830757737159729,,,,,,,,
,fashion,0.8807731866836548,,,,,,,,
,girl,0.8698645234107971,,,,,,,,
,one,0.8477076292037964,,,,,,,,
,love,0.8289096355438232,,,,,,,,
,competition,0.824813961982727,,,,,,,,
,enjoyment,0.8089267015457153,,,,,,,,
,model,0.8056492805480957,,,,,,,,
,summer,0.8030916452407837,,,,,,,,
https://scontent-sit4-1.cdninstagram.com/t51.2885-15/e35/12501502_1522475658052393_839206431_n.jpg,portrait,0.9790635108947754,"Fashion & Beauty",Environment,,,"My look","Manmade beauty",,
,outdoors,0.9787755608558655,,,,,,,,
,people,0.9739038348197937,,,,,,,,
,city,0.970196008682251,,,,,,,,
,daylight,0.9640549421310425,,,,,,,,
,happiness,0.9281933307647705,,,,,,,,
,skyscraper,0.9193118810653687,,,,,,,,
,urban,0.9174009561538696,,,,,,,,
,girl,0.9119190573692322,,,,,,,,
,woman,0.9080054759979248,,,,,,,,
,enjoyment,0.905207633972168,,,,,,,,
,park,0.9003379344940186,,,,,,,,
,"facial expression",0.8967188596725464,,,,,,,,
,building,0.8909156322479248,,,,,,,,
,one,0.8869509696960449,,,,,,,,
,lifestyle,0.8848106861114502,,,,,,,,
,water,0.8728742599487305,,,,,,,,
,adult,0.8688867092132568,,,,,,,,
,street,0.8617783784866333,,,,,,,,
,travel,0.8427311182022095,,,,,,,,
https://scontent-sit4-1.cdninstagram.com/t51.2885-15/e35/1169090_1717541328529561_1646989296_n.jpg,man,0.9842417240142822,Relationships,,,,Friends,,,
,squad,0.9710901975631714,,,,,,,,
,people,0.9670829772949219,,,,,,,,
,sport,0.9511042833328247,,,,,,,,
,group,0.9472715854644775,,,,,,,,
,fun,0.931357741355896,,,,,,,,
,game,0.9250578880310059,,,,,,,,
,boy,0.9235410690307617,,,,,,,,
,young,0.9225336313247681,,,,,,,,
,friendship,0.8971420526504517,,,,,,,,
,ball,0.890240490436554,,,,,,,,
,recreation,0.8876861929893494,,,,,,,,
,lifestyle,0.8780584335327148,,,,,,,,
,fitness,0.8688357472419739,,,,,,,,
,leisure,0.8549455404281616,,,,,,,,
,teamwork,0.833255410194397,,,,,,,,
,adult,0.826579749584198,,,,,,,,
,adolescent,0.8169594407081604,,,,,,,,
,family,0.8164892196655273,,,,,,,,
,child,0.8158261179924011,,,,,,,,
https://scontent-sit4-1.cdninstagram.com/t51.2885-15/e35/12356391_501299313372146_803861386_n.jpg,traditional,0.9142664670944214,Environment,"Fashion & Beauty",,,"Manmade beauty",Ootd,,
,illustration,0.9071340560913086,,,,,,,,
,woman,0.8816032409667969,,,,,,,,
,design,0.8796296119689941,,,,,,,,
,decoration,0.8753848671913147,,,,,,,,
,jewelry,0.8727643489837646,,,,,,,,
,art,0.8597795963287354,,,,,,,,
,fun,0.8571184277534485,,,,,,,,
,fashion,0.8530198335647583,,,,,,,,
,desktop,0.8464515209197998,,,,,,,,
,travel,0.8425155282020569,,,,,,,,
,entertainment,0.8227524161338806,,,,,,,,
,people,0.8200117945671082,,,,,,,,
,retro,0.8183085322380066,,,,,,,,
,beautiful,0.8034794330596924,,,,,,,,
,circus,0.7961196899414062,,,,,,,,
,festival,0.7950751781463623,,,,,,,,
,style,0.7943925857543945,,,,,,,,
,bright,0.7929551601409912,,,,,,,,
,gold,0.792906641960144,,,,,,,,
https://scontent-sit4-1.cdninstagram.com/t51.2885-15/e35/13398915_207320062997471_522053939_n.jpg,beach,0.9791122674942017,Relationships,Environment,Recreation,,"Best friends","Natural beauty",Beach,
,ocean,0.9719609618186951,,,,,,,,
,sea,0.9709521532058716,,,,,,,,
,girl,0.967292308807373,,,,,,,,
,leisure,0.9664566516876221,,,,,,,,
,water,0.9640532732009888,,,,,,,,
,summer,0.9557368755340576,,,,,,,,
,people,0.9540160894393921,,,,,,,,
,lifestyle,0.9511825442314148,,,,,,,,
,seashore,0.9482100009918213,,,,,,,,
,fun,0.9474400877952576,,,,,,,,
,child,0.9451733231544495,,,,,,,,
,woman,0.9422528743743896,,,,,,,,
,happiness,0.9340166449546814,,,,,,,,
,recreation,0.9072585105895996,,,,,,,,
,enjoyment,0.8958742618560791,,,,,,,,
,outdoors,0.8807711601257324,,,,,,,,
,joy,0.872648298740387,,,,,,,,
,travel,0.8670604228973389,,,,,,,,
,adult,0.8573505282402039,,,,,,,,
https://scontent-sit4-1.cdninstagram.com/t51.2885-15/e35/12783933_582301415261330_871798607_n.jpg,people,0.9852184653282166,Relationships,Entertainment,,,Friends,Events,,
,child,0.9627623558044434,,,,,,,,
,crowd,0.9436818361282349,,,,,,,,
,many,0.9397666454315186,,,,,,,,
,woman,0.935937762260437,,,,,,,,
,sport,0.9331402778625488,,,,,,,,
,game,0.9298310875892639,,,,,,,,
,education,0.9111421704292297,,,,,,,,
,democracy,0.9024795889854431,,,,,,,,
,soccer,0.893597424030304,,,,,,,,
,squad,0.8907416462898254,,,,,,,,
,man,0.8862484693527222,,,,,,,,
,collage,0.8825260400772095,,,,,,,,
,football,0.8814854621887207,,,,,,,,
,group,0.8776763081550598,,,,,,,,
,friendship,0.8747401237487793,,,,,,,,
,event,0.8732550740242004,,,,,,,,
,bill,0.8712341785430908,,,,,,,,
,flag,0.866895318031311,,,,,,,,
,fun,0.8663057088851929,,,,,,,,
https://scontent-sit4-1.cdninstagram.com/t51.2885-15/e35/12357868_518254198335076_1731843177_n.jpg,people,0.9944330453872681,"Fashion & Beauty",,,,Ootd,,,
,girl,0.9832620620727539,,,,,,,,
,street,0.9798083305358887,,,,,,,,
,city,0.9794524312019348,,,,,,,,
,light,0.9631512761116028,,,,,,,,
,woman,0.9415812492370605,,,,,,,,
,motion,0.9330465793609619,,,,,,,,
,portrait,0.9284354448318481,,,,,,,,
,road,0.9197139739990234,,,,,,,,
,urban,0.9151470065116882,,,,,,,,
,travel,0.9117054343223572,,,,,,,,
,adult,0.9019042253494263,,,,,,,,
,one,0.8952116966247559,,,,,,,,
,evening,0.8828145265579224,,,,,,,,
,music,0.8767215013504028,,,,,,,,
,child,0.8669896125793457,,,,,,,,
,fashion,0.8584194183349609,,,,,,,,
,person,0.8494486808776855,,,,,,,,
,group,0.8481404781341553,,,,,,,,
,landscape,0.8473179936408997,,,,,,,,
https://scontent-sit4-1.cdninstagram.com/t51.2885-15/e35/12976583_205919113124539_1171460407_n.jpg,people,0.9927284121513367,"Fashion & Beauty",,,,Ootd,,,
,adult,0.991889238357544,,,,,,,,
,woman,0.9812451601028442,,,,,,,,
,one,0.9802306890487671,,,,,,,,
,indoors,0.9757992029190063,,,,,,,,
,portrait,0.9660018682479858,,,,,,,,
,window,0.9620901346206665,,,,,,,,
,girl,0.9389976263046265,,,,,,,,
,wear,0.9186374545097351,,,,,,,,
,light,0.9116193056106567,,,,,,,,
,man,0.9038714170455933,,,,,,,,
,blur,0.9020987153053284,,,,,,,,
,room,0.8954450488090515,,,,,,,,
,travel,0.8932634592056274,,,,,,,,
,sit,0.8897836208343506,,,,,,,,
,music,0.8785620927810669,,,,,,,,
,"facial expression",0.8728708028793335,,,,,,,,
,brunette,0.869658887386322,,,,,,,,
,reflection,0.852298378944397,,,,,,,,
,outdoors,0.851115882396698,,,,,,,,
https://scontent-sit4-1.cdninstagram.com/t51.2885-15/e35/11116866_1218626561497508_1106695606_n.jpg,child,0.9835876226425171,"Fashion & Beauty",,,,Ootd,,,
,girl,0.980493426322937,,,,,,,,
,summer,0.9783811569213867,,,,,,,,
,people,0.9754800796508789,,,,,,,,
,young,0.9627634882926941,,,,,,,,
,woman,0.9557158350944519,,,,,,,,
,leisure,0.9438950419425964,,,,,,,,
,fun,0.9347419142723083,,,,,,,,
,nature,0.9313489198684692,,,,,,,,
,walk,0.9255903959274292,,,,,,,,
,street,0.9219304323196411,,,,,,,,
,relaxation,0.9189414978027344,,,,,,,,
,lifestyle,0.9172477126121521,,,,,,,,
,portrait,0.9147030115127563,,,,,,,,
,beautiful,0.910464882850647,,,,,,,,
,person,0.902896523475647,,,,,,,,
,one,0.9022760391235352,,,,,,,,
,park,0.8928271532058716,,,,,,,,
,garden,0.8927538394927979,,,,,,,,
,recreation,0.8914939165115356,,,,,,,,
https://scontent-sit4-1.cdninstagram.com/t51.2885-15/e35/12783476_547655028747680_1820756224_n.jpg,many,0.9930784702301025,Relationships,Recreation,,,Friends,Beach,,
,crowd,0.9910614490509033,,,,,,,,
,people,0.991015613079071,,,,,,,,
,group,0.9865269660949707,,,,,,,,
,school,0.9832224249839783,,,,,,,,
,education,0.981828510761261,,,,,,,,
,university,0.9468752145767212,,,,,,,,
,festival,0.9448596835136414,,,,,,,,
,child,0.9444465041160583,,,,,,,,
,woman,0.9400755167007446,,,,,,,,
,"sports fan",0.9382380843162537,,,,,,,,
,class,0.9340700507164001,,,,,,,,
,group,0.9081392288208008,,,,,,,,
,performance,0.8955817222595215,,,,,,,,
,teacher,0.8951488137245178,,,,,,,,
,adult,0.8766682147979736,,,,,,,,
,man,0.8665350675582886,,,,,,,,
,audience,0.8591294884681702,,,,,,,,
,friendship,0.8503459692001343,,,,,,,,
,concert,0.8433420658111572,,,,,,,,
https://scontent-sit4-1.cdninstagram.com/t51.2885-15/e35/12751025_956106574425495_822355940_n.jpg,child,0.9963529109954834,Relationships,,,,"Best friends",,,
,people,0.9874382019042969,,,,,,,,
,outdoors,0.975643515586853,,,,,,,,
,togetherness,0.9755366444587708,,,,,,,,
,family,0.9749137163162231,,,,,,,,
,"facial expression",0.9708554148674011,,,,,,,,
,woman,0.9701269268989563,,,,,,,,
,portrait,0.9669815301895142,,,,,,,,
,recreation,0.9617033004760742,,,,,,,,
,enjoyment,0.9501615166664124,,,,,,,,
,man,0.9479440450668335,,,,,,,,
,two,0.9443986415863037,,,,,,,,
,wear,0.9421814680099487,,,,,,,,
,daylight,0.9324277639389038,,,,,,,,
,leisure,0.9285928606987,,,,,,,,
,fun,0.9227215051651001,,,,,,,,
,adolescent,0.9014843106269836,,,,,,,,
,friendship,0.8846012353897095,,,,,,,,
,adult,0.8786482810974121,,,,,,,,
,affection,0.8747038245201111,,,,,,,,
https://scontent-sit4-1.cdninstagram.com/t51.2885-15/e35/13391091_1613803618858782_294151295_n.jpg,people,0.9969148635864258,Relationships,Entertainment,"Fashion & Beauty",,Friends,Events,"My look",
,group,0.9891563057899475,,,,,,,,
,woman,0.9821052551269531,,,,,,,,
,crowd,0.9734658002853394,,,,,,,,
,man,0.9729315042495728,,,,,,,,
,many,0.9684163928031921,,,,,,,,
,squad,0.9551751613616943,,,,,,,,
,child,0.953000009059906,,,,,,,,
,editorial,0.9345188140869141,,,,,,,,
,performance,0.9303766489028931,,,,,,,,
,festival,0.9302678108215332,,,,,,,,
,exhibition,0.9256091117858887,,,,,,,,
,recreation,0.9225903153419495,,,,,,,,
,fun,0.9142667055130005,,,,,,,,
,event,0.9085870981216431,,,,,,,,
,adult,0.9042395353317261,,,,,,,,
,education,0.9031945466995239,,,,,,,,
,teamwork,0.8967957496643066,,,,,,,,
,city,0.891106128692627,,,,,,,,
,group,0.8881478309631348,,,,,,,,
https://scontent-sit4-1.cdninstagram.com/t51.2885-15/e35/13102400_981554918618890_2133648342_n.jpg,recreation,0.9907267093658447,Relationships,"My life",,,"Best friends",Doing,,
,yoga,0.9900376796722412,,,,,,,,
,exercise,0.9887198805809021,,,,,,,,
,leisure,0.9882465600967407,,,,,,,,
,fitness,0.9806696176528931,,,,,,,,
,energetic,0.9733548164367676,,,,,,,,
,active,0.9726052284240723,,,,,,,,
,energy,0.9681822061538696,,,,,,,,
,woman,0.9657347798347473,,,,,,,,
,people,0.9654638171195984,,,,,,,,
,balance,0.9641721248626709,,,,,,,,
,motion,0.9591532945632935,,,,,,,,
,enjoyment,0.9545916318893433,,,,,,,,
,fun,0.9518195986747742,,,,,,,,
,health,0.9439634084701538,,,,,,,,
,man,0.9313477277755737,,,,,,,,
,action,0.9307249188423157,,,,,,,,
,joy,0.9218540787696838,,,,,,,,
,position,0.9138855338096619,,,,,,,,
,child,0.9122880697250366,,,,,,,,
https://scontent-sit4-1.cdninstagram.com/t51.2885-15/e35/10296882_1658856047715148_938189012_n.jpg,school,0.9904680252075195,Relationships,Entertainment,,,Friends,Events,,
,people,0.9843067526817322,,,,,,,,
,education,0.9745492935180664,,,,,,,,
,many,0.9697233438491821,,,,,,,,
,university,0.9667753577232361,,,,,,,,
,competition,0.9631447792053223,,,,,,,,
,athlete,0.9488130807876587,,,,,,,,
,woman,0.9471801519393921,,,,,,,,
,group,0.9445353150367737,,,,,,,,
,squad,0.9346154928207397,,,,,,,,
,group,0.9307818412780762,,,,,,,,
,child,0.9259777069091797,,,,,,,,
,crowd,0.9199475646018982,,,,,,,,
,festival,0.9158774018287659,,,,,,,,
,man,0.912356972694397,,,,,,,,
,game,0.9091892242431641,,,,,,,,
,adult,0.9079104661941528,,,,,,,,
,class,0.9065073728561401,,,,,,,,
,stadium,0.905327320098877,,,,,,,,
,recreation,0.888254702091217,,,,,,,,
https://scontent-sit4-1.cdninstagram.com/t51.2885-15/e35/12940284_1722736308008198_2079244733_n.jpg,girl,0.9864730834960938,Relationships,,,,"Best friends",,,
,woman,0.977817714214325,,,,,,,,
,people,0.9734482765197754,,,,,,,,
,fun,0.9654800891876221,,,,,,,,
,child,0.960191011428833,,,,,,,,
,happiness,0.958706259727478,,,,,,,,
,togetherness,0.9572415351867676,,,,,,,,
,portrait,0.9446420669555664,,,,,,,,
,young,0.9433732628822327,,,,,,,,
,outdoors,0.9412620067596436,,,,,,,,
,street,0.9411051273345947,,,,,,,,
,love,0.9370509386062622,,,,,,,,
,lifestyle,0.9312587976455688,,,,,,,,
,family,0.9307025074958801,,,,,,,,
,summer,0.9245081543922424,,,,,,,,
,two,0.9237964153289795,,,,,,,,
,brunette,0.9093213081359863,,,,,,,,
,adult,0.9056637287139893,,,,,,,,
,beautiful,0.9038978815078735,,,,,,,,
,fashion,0.8996162414550781,,,,,,,,
