url,class,score
https://scontent.cdninstagram.com/t51.2885-15/e35/13423475_262638900768630_2139570332_n.jpg,girl,0.9889194369316101
,woman,0.9798825979232788
,couple,0.9759936332702637
,nature,0.9696508646011353
,people,0.9682174921035767
,landscape,0.9538285732269287
,sunset,0.9488937854766846
,beautiful,0.9439350366592407
,sky,0.933363139629364
,young,0.9305553436279297
,love,0.9276960492134094
,man,0.9229928255081177
,portrait,0.920816957950592
,smile,0.9176121950149536
,summer,0.9042491912841797
,beach,0.8880448341369629
,cloud,0.8721833229064941
,dawn,0.8665637969970703
,light,0.8542345762252808
,family,0.8428144454956055
https://scontent.cdninstagram.com/t51.2885-15/e35/13402588_301707246883637_1820445485_n.jpg,people,0.9857515096664429
,woman,0.9752507209777832
,man,0.9634818434715271
,outdoors,0.9628208875656128
,summer,0.9570106267929077
,adult,0.9487308263778687
,group,0.9393852949142456
,collage,0.9306930899620056
,travel,0.9201723337173462
,happiness,0.919535756111145
,togetherness,0.9185839295387268
,water,0.9180103540420532
,fun,0.9158021807670593
,facial expression,0.8948931694030762
,enjoyment,0.8943615555763245
,beautiful,0.8925979733467102
,nature,0.8909538388252258
,sky,0.8809983134269714
,friendship,0.8725426197052002
,joy,0.8649581670761108
https://scontent.cdninstagram.com/t51.2885-15/e35/13422852_1738680606421057_983099477_n.jpg,paper,0.993180513381958
,business,0.992297887802124
,money,0.9577529430389404
,money,0.9476363062858582
,no person,0.9472718834877014
,finance,0.9416543245315552
,success,0.9347673654556274
,wealth,0.9169923067092896
,note,0.8974019885063171
,financial,0.8684974908828735
,isolated,0.8660266995429993
,euro,0.8646813631057739
,desktop,0.8537306785583496
,savings,0.8527134656906128
,spherical,0.8448150157928467
,data,0.8409674167633057
,isolated,0.8315839767456055
,office,0.8076642751693726
,symbol,0.8074691295623779
,laptop,0.8030439615249634
https://scontent.cdninstagram.com/t51.2885-15/e35/13391231_1728269887431700_2090498556_n.jpg,woman,0.9780217409133911
,people,0.9629307985305786
,business,0.9484493732452393
,man,0.9402240514755249
,young,0.9191641211509705
,girl,0.9038717746734619
,love,0.8938424587249756
,art,0.8679221868515015
,outdoors,0.859269917011261
,couple,0.8571748733520508
,fun,0.8497673869132996
,travel,0.8482626676559448
,light,0.8461858034133911
,child,0.8349851965904236
,portrait,0.8191375732421875
,wedding,0.8148176074028015
,adult,0.8145331740379333
,city,0.8140039443969727
,family,0.8129757642745972
,sky,0.809447169303894
https://scontent.cdninstagram.com/t51.2885-15/e35/13395141_153512351733195_2090225170_n.jpg,street,0.9852635860443115
,people,0.9681295156478882
,road,0.9611892104148865
,city,0.9387481212615967
,man,0.9309187531471252
,business,0.9159333109855652
,woman,0.9094319343566895
,traffic,0.8625967502593994
,urban,0.8145443201065063
,shopping,0.7635865211486816
,crowd,0.7556048631668091
,travel,0.7489727735519409
,market,0.7369346618652344
,transportation system,0.736259937286377
,person,0.7362149953842163
,tourist,0.7239130735397339
,event,0.7206816673278809
,car,0.7193484306335449
,group,0.7187332510948181
,squad,0.710534393787384
https://scontent.cdninstagram.com/t51.2885-15/e35/13402159_493222280878898_819826696_n.jpg,business,0.9375163912773132
,city,0.8455231189727783
,shopping,0.8398067951202393
,stock,0.8382909297943115
,people,0.8303674459457397
,food,0.8208534717559814
,collage,0.8200572729110718
,desktop,0.8093653321266174
,restaurant,0.8079286813735962
,design,0.8027501106262207
,market,0.7968931198120117
,set,0.7824186086654663
,logo,0.771710991859436
,symbol,0.7713228464126587
,illustration,0.7686452865600586
,street,0.767941951751709
,communication,0.7407816648483276
,no person,0.7317750453948975
,banner,0.7266596555709839
,flag,0.7251853942871094
https://scontent.cdninstagram.com/t51.2885-15/e35/13402546_1574160889550741_1937633256_n.jpg,beach,0.992795467376709
,girl,0.9885205030441284
,woman,0.9756391048431396
,water,0.9749782085418701
,young,0.9726214408874512
,sea,0.9673136472702026
,beautiful,0.9665545225143433
,love,0.9633293151855469
,summer,0.9564611315727234
,couple,0.9484155774116516
,smile,0.9460138082504272
,nature,0.9437924027442932
,sand,0.9417968988418579
,ocean,0.937738299369812
,fun,0.9359868764877319
,lifestyle,0.9328811168670654
,portrait,0.9262064099311829
,sky,0.9256402254104614
,vacation,0.9153155088424683
,people,0.9147558212280273
https://scontent.cdninstagram.com/t51.2885-15/e35/13259466_1796381230621871_1124797391_n.jpg,woman,0.9822883009910583
,girl,0.971684455871582
,young,0.9654306769371033
,pretty,0.9354045391082764
,people,0.9311378598213196
,summer,0.9178017973899841
,health,0.9177777767181396
,casual,0.9119296669960022
,street,0.9107726812362671
,fashion,0.9100766777992249
,lifestyle,0.9047068357467651
,child,0.9002772569656372
,adolescent,0.8992881774902344
,one,0.8819802403450012
,person,0.8740022778511047
,fun,0.873268723487854
,beautiful,0.872519850730896
,walk,0.8720412254333496
,smile,0.858545184135437
,portrait,0.8533143997192383
https://scontent.cdninstagram.com/t51.2885-15/e35/13437243_580249252148623_1642223575_n.jpg,leisure,0.9840222597122192
,fun,0.983997106552124
,summer,0.9772593975067139
,togetherness,0.9762659668922424
,young,0.97327721118927
,woman,0.973147451877594
,recreation,0.9729395508766174
,friendship,0.9704669713973999
,active,0.9683005809783936
,sand,0.9673007726669312
,health,0.9627656936645508
,water,0.9599795341491699
,fitness,0.9574963450431824
,beach,0.944061279296875
,joy,0.9362349510192871
,love,0.9257569313049316
,exercise,0.9176766276359558
,enjoyment,0.9135599732398987
,lifestyle,0.9075216054916382
,adolescent,0.9066974520683289
https://scontent.cdninstagram.com/t51.2885-15/e35/13259524_241620996195413_1595611136_n.jpg,people,0.9900490045547485
,adult,0.9751172065734863
,woman,0.9532939791679382
,collage,0.9264088273048401
,man,0.923872709274292
,bill,0.9155149459838867
,child,0.8938829898834229
,horizontal,0.8937655687332153
,portrait,0.8686506748199463
,happiness,0.86777263879776
,cheerful,0.8561255931854248
,friendship,0.852423906326294
,banner,0.8505961298942566
,education,0.8186140060424805
,business,0.8136391639709473
,celebration,0.8096612691879272
,illustration,0.80804044008255
,communication,0.80705726146698
,desktop,0.8036901950836182
,vertical,0.8002312779426575
https://scontent.cdninstagram.com/t51.2885-15/e35/13398450_303841643281409_2066006809_n.jpg,woman,0.978183925151825
,people,0.9607518911361694
,love,0.9372929334640503
,child,0.9326911568641663
,fun,0.9188475608825684
,young,0.9171240329742432
,music,0.8977456092834473
,family,0.8975370526313782
,man,0.8956536650657654
,portrait,0.8815306425094604
,adult,0.8804556727409363
,isolated,0.8732996582984924
,joy,0.8668762445449829
,togetherness,0.8636530637741089
,party,0.8596148490905762
,art,0.8507266044616699
,desktop,0.8422629237174988
,girl,0.8312400579452515
,dancing,0.8108135461807251
,light,0.8097622394561768
https://scontent.cdninstagram.com/t51.2885-15/e35/13118327_267999463545454_224075852_n.jpg,food,0.988998532295227
,no person,0.9701839685440063
,dinner,0.9594947695732117
,breakfast,0.946752667427063
,table,0.9440112113952637
,lunch,0.9381941556930542
,meal,0.9375598430633545
,meat,0.9354677796363831
,bread,0.9341531991958618
,plate,0.9301996231079102
,knife,0.9263575077056885
,beef,0.9221119284629822
,sausage,0.9201174974441528
,delicious,0.9127722978591919
,coffee,0.8956183791160583
,restaurant,0.8908886313438416
,traditional,0.8900257349014282
,wood,0.8866482973098755
,dish,0.8836007118225098
,nutrition,0.878017783164978
https://scontent.cdninstagram.com/t51.2885-15/e35/12976650_1565839913713532_1529063624_n.jpg,group,0.988298773765564
,woman,0.9879387617111206
,friendship,0.9836090803146362
,table,0.9829068183898926
,man,0.9820438623428345
,group,0.9748945832252502
,togetherness,0.9679116010665894
,student,0.9661160707473755
,teamwork,0.9641565084457397
,four,0.9554393887519836
,sit,0.9540113210678101
,multicultural,0.9244384765625
,laughing,0.9144036769866943
,restaurant,0.9060702323913574
,adolescent,0.8885806202888489
,people,0.8802483081817627
,squad,0.8720510005950928
,indoors,0.8637410402297974
,adult,0.856602132320404
,enjoyment,0.8537806272506714
https://scontent.cdninstagram.com/t51.2885-15/e35/13392844_102164776878952_1506920111_n.jpg,music,0.9545363187789917
,dancing,0.9520021080970764
,woman,0.9368966817855835
,disco,0.9258384704589844
,nightlife,0.8978652954101562
,concert,0.894278347492218
,club,0.890576958656311
,party,0.8733177185058594
,club,0.8702718019485474
,performance,0.864986002445221
,people,0.8608301877975464
,illustration,0.8571118116378784
,light,0.8421100378036499
,pop,0.8300990462303162
,stage,0.8210158944129944
,art,0.8063150644302368
,fashion,0.7992087602615356
,shadow,0.7977821826934814
,sexy,0.7976316213607788
,silhouette,0.7966673374176025
https://scontent.cdninstagram.com/t51.2885-15/e35/13267461_1799919626902642_680577479_n.jpg,dog,0.9979662895202637
,animal,0.9947081804275513
,pet,0.9937736988067627
,domestic,0.9921741485595703
,canine,0.9913133382797241
,sit,0.9908719062805176
,mammal,0.9904260635375977
,cute,0.9900957345962524
,puppy,0.9808925986289978
,portrait,0.9758405089378357
,indoors,0.96978360414505
,poodle,0.9591680765151978
,family,0.9548178315162659
,looking,0.9465113878250122
,toy,0.9456470012664795
,fur,0.9379110336303711
,one,0.9374700784683228
,funny,0.9313421845436096
,little,0.9298684597015381
,downy,0.911657452583313
https://scontent.cdninstagram.com/t51.2885-15/e35/13092448_797056197062853_585461625_n.jpg,banner,0.9368046522140503
,no person,0.9286012649536133
,business,0.9138129949569702
,paper,0.8539702892303467
,desktop,0.8476250171661377
,sky,0.8298473358154297
,stripe,0.8207607269287109
,picture frame,0.8187817335128784
,isolated,0.8141297101974487
,people,0.805077075958252
,design,0.7989698648452759
,outdoors,0.7966029644012451
,nature,0.7907005548477173
,contemporary,0.780526340007782
,card,0.7789632081985474
,travel,0.7770217657089233
,isolated,0.7666792869567871
,empty,0.7656539678573608
,illustration,0.7646915912628174
,creativity,0.7605812549591064
https://scontent.cdninstagram.com/t51.2885-15/e35/13260876_1137293912988728_877296777_n.jpg,glass,0.9946913719177246
,food,0.9916490912437439
,drink,0.9883950352668762
,refreshment,0.9750646352767944
,party,0.9725701808929443
,ice,0.9567623734474182
,restaurant,0.9515434503555298
,cocktail,0.9510282278060913
,no person,0.9497584700584412
,hot,0.9467857480049133
,table,0.9429605007171631
,alcohol,0.9393180012702942
,cold,0.9353631734848022
,lime,0.934884786605835
,meal,0.923398494720459
,fruit,0.9162297248840332
,lemon,0.9154741764068604
,beer,0.9072376489639282
,summer,0.906761646270752
,juice,0.8987736105918884
https://scontent.cdninstagram.com/t51.2885-15/e35/13408707_290014801349069_979818166_n.jpg,people,0.9709059596061707
,street,0.9477264881134033
,business,0.9283007383346558
,man,0.9218800663948059
,city,0.9069718718528748
,group,0.8767579793930054
,crowd,0.8737398982048035
,woman,0.846908688545227
,flag,0.8366385698318481
,bill,0.8346111178398132
,stock,0.806079626083374
,banner,0.7807266116142273
,wear,0.7618862986564636
,row,0.7510933876037598
,road,0.7458382844924927
,communication,0.7382588386535645
,desktop,0.7281829714775085
,education,0.715158224105835
,shopping,0.7080567479133606
,tourism,0.7056225538253784
https://scontent.cdninstagram.com/t51.2885-15/e35/13398373_1018079094914582_2081270728_n.jpg,architecture,0.9934777617454529
,city,0.9906635284423828
,water,0.9900355339050293
,sky,0.9808626174926758
,sunset,0.9804291725158691
,bridge,0.9797580242156982
,reflection,0.9753383994102478
,harbor,0.9728423357009888
,downtown,0.9682732820510864
,river,0.9669567346572876
,travel,0.9642137289047241
,cityscape,0.9629709720611572
,waterfront,0.9628914594650269
,skyline,0.9557034969329834
,urban,0.9533175826072693
,sea,0.9477866888046265
,dusk,0.9469869136810303
,bay,0.9421494007110596
,landmark,0.9202299118041992
,building,0.9160755276679993
https://scontent.cdninstagram.com/t51.2885-15/e35/12960141_511569255715316_1736927125_n.jpg,collage,0.9928463697433472
,no person,0.9814730882644653
,collection,0.9681395888328552
,woman,0.9668052196502686
,isolated,0.9632431268692017
,set,0.9630908966064453
,food,0.9593673944473267
,illustration,0.9248625636100769
,paper,0.9124741554260254
,delicious,0.8952042460441589
,nature,0.8893216848373413
,man,0.887692928314209
,health,0.8863612413406372
,people,0.8826264142990112
,dinner,0.882204532623291
,isolated,0.878307580947876
,breakfast,0.8675576448440552
,vector,0.8627258539199829
,cooking,0.8624042272567749
,isolated,0.8573039770126343
https://scontent.cdninstagram.com/t51.2885-15/e35/13248889_1258174547543515_1391001082_n.jpg,people,0.9845439195632935
,silhouette,0.9781155586242676
,crowd,0.9583861827850342
,light,0.9475395083427429
,city,0.9449655413627625
,group,0.9343839883804321
,street,0.9228484630584717
,sunset,0.9215735197067261
,man,0.9129943251609802
,flame,0.8909093141555786
,smoke,0.8881279826164246
,dawn,0.8833013772964478
,urban,0.8803534507751465
,travel,0.8764734268188477
,dusk,0.8651313781738281
,evening,0.8595497608184814
,sky,0.8314218521118164
,war,0.8310357928276062
,architecture,0.8304144740104675
,audience,0.82960045337677
https://scontent.cdninstagram.com/t51.2885-15/e35/13102332_273818069619351_1000962167_n.jpg,food,0.9976489543914795
,dinner,0.9905873537063599
,meal,0.9877362847328186
,dish,0.9866341948509216
,plate,0.983184814453125
,lunch,0.9812387228012085
,cuisine,0.9750332236289978
,vegetable,0.9712789058685303
,delicious,0.9621440172195435
,healthy,0.9538108110427856
,epicure,0.9480760097503662
,restaurant,0.9471138715744019
,meat,0.9470868110656738
,cooking,0.9428770542144775
,tasty,0.9422392249107361
,appetizer,0.9342300295829773
,hot,0.9336419105529785
,soup,0.9325253963470459
,bowl,0.9323010444641113
,diet,0.9319268465042114
https://scontent.cdninstagram.com/t51.2885-15/e35/13398573_492978840904783_791670812_n.jpg,street,0.9761514067649841
,illustration,0.970719575881958
,road,0.9540519714355469
,graphic,0.9507989883422852
,vector,0.9374727010726929
,woman,0.9323670864105225
,people,0.9258813858032227
,sketch,0.9258610606193542
,sport,0.872981607913971
,exercise,0.8552350997924805
,young,0.8536016345024109
,city,0.8482430577278137
,fun,0.8473339676856995
,marathon,0.8419396877288818
,desktop,0.839631199836731
,man,0.8237839937210083
,motion,0.8229638338088989
,art,0.8194928169250488
,person,0.812005341053009
,girl,0.8081141710281372
https://scontent.cdninstagram.com/t51.2885-15/e35/13413181_1636631456664413_1620703200_n.jpg,street,0.996680498123169
,city,0.9825732111930847
,people,0.982241690158844
,road,0.9358395338058472
,man,0.9219321012496948
,tourist,0.9166960716247559
,house,0.9156739711761475
,town,0.9114260673522949
,urban,0.9032655954360962
,family,0.8982366323471069
,woman,0.8954041004180908
,tourism,0.8952724933624268
,business,0.8655312061309814
,architecture,0.8539459109306335
,travel,0.844069242477417
,shopping,0.8228902816772461
,building,0.8159313201904297
,pavement,0.8143696784973145
,editorial,0.7994831800460815
,flag,0.7601964473724365
https://scontent.cdninstagram.com/t51.2885-15/e35/13167233_1602176556764727_582137052_n.jpg,people,0.987718939781189
,young,0.9767835140228271
,sport,0.9677159786224365
,street,0.9638702869415283
,woman,0.9630688428878784
,fun,0.9558532238006592
,child,0.9432512521743774
,man,0.9415374994277954
,exercise,0.9409817457199097
,friendship,0.9283115863800049
,lifestyle,0.9240725636482239
,city,0.90194171667099
,girl,0.9002957344055176
,motion,0.8991798162460327
,athlete,0.8974838256835938
,active,0.8890341520309448
,recreation,0.8858662843704224
,person,0.877012312412262
,adult,0.8752301931381226
,school,0.8733998537063599
https://scontent.cdninstagram.com/t51.2885-15/e35/13532056_301529143568470_2025975349_n.jpg,people,0.9642770290374756
,business,0.9417740106582642
,man,0.9289339780807495
,woman,0.9279934167861938
,restaurant,0.9107605218887329
,service,0.8629210591316223
,event,0.8566436767578125
,bar,0.8555530309677124
,table,0.8500862121582031
,group,0.8486201763153076
,party,0.83320552110672
,show,0.8236199617385864
,meeting,0.8122285604476929
,adult,0.8008067011833191
,crowd,0.7982453107833862
,coffee,0.7933570146560669
,street,0.7827030420303345
,editorial,0.779420018196106
,desktop,0.773647129535675
,communication,0.7672960162162781
https://scontent.cdninstagram.com/t51.2885-15/e35/13129776_602210139941803_219603592_n.jpg,street,0.9883925914764404
,traffic,0.9868730306625366
,blur,0.9829636812210083
,road,0.9829328060150146
,highway,0.9761849641799927
,transportation system,0.9670947790145874
,fast,0.9582232236862183
,light,0.9515513181686401
,asphalt,0.9283120632171631
,Christmas,0.9216321706771851
,illuminated,0.920035719871521
,car,0.9156749844551086
,lane,0.9083207249641418
,city,0.9058792591094971
,motion,0.8984564542770386
,expressway,0.8954089879989624
,travel,0.8951879739761353
,guidance,0.8937614560127258
,speed,0.8836771249771118
,hurry,0.8832064867019653
https://scontent.cdninstagram.com/t51.2885-15/e35/13398460_1611216005856393_1363727180_n.jpg,people,0.9732086658477783
,woman,0.96214759349823
,bill,0.9588110446929932
,isolated,0.9393298625946045
,business,0.9353995323181152
,illustration,0.9328877329826355
,banner,0.925801157951355
,desktop,0.9044792652130127
,man,0.891600489616394
,blank,0.8915383815765381
,paper,0.886804461479187
,portrait,0.8812894821166992
,child,0.8737411499023438
,young,0.8684717416763306
,adult,0.8591899275779724
,family,0.8469821810722351
,girl,0.8387221097946167
,education,0.8386165499687195
,card,0.836694061756134
,person,0.8292120695114136
https://scontent.cdninstagram.com/t51.2885-15/e35/13413289_1217942324907341_1914646198_n.jpg,woman,0.9745457172393799
,student,0.9549199342727661
,people,0.9543088674545288
,friendship,0.9417040348052979
,college,0.9370091557502747
,adolescent,0.9342784881591797
,child,0.9319467544555664
,school,0.9236158132553101
,girl,0.919937252998352
,education,0.9165594577789307
,young,0.9164841175079346
,fun,0.8920333385467529
,man,0.887355625629425
,portrait,0.8763340711593628
,collage,0.8646576404571533
,smile,0.8625493049621582
,family,0.8499952554702759
,casual,0.8425452709197998
,group,0.8322885632514954
,joy,0.8181266784667969
https://scontent.cdninstagram.com/t51.2885-15/e35/13129544_1548503502120554_812868605_n.jpg,illustration,0.9882499575614929
,vector,0.9846876859664917
,design,0.9816581010818481
,paper,0.976772129535675
,picture frame,0.9740395545959473
,graphic,0.9701998233795166
,message,0.9659440517425537
,card,0.9651373028755188
,art,0.9614192843437195
,blank,0.9529917240142822
,announcement,0.9432651996612549
,template,0.9426105618476868
,pattern,0.9419668912887573
,note,0.9361180663108826
,invitation,0.9360599517822266
,desktop,0.9338308572769165
,letter,0.9319518804550171
,memo,0.9316796064376831
,banner,0.9295952320098877
,notebook,0.9271858930587769
https://scontent.cdninstagram.com/t51.2885-15/e35/13116735_1713904222184416_1192598555_n.jpg,woman,0.9838965535163879
,young,0.9698102474212646
,beautiful,0.9661190509796143
,people,0.966107964515686
,summer,0.9555578231811523
,sunglasses,0.9469782114028931
,man,0.945799708366394
,fun,0.94538414478302
,love,0.944671630859375
,couple,0.9444141983985901
,lifestyle,0.9411322474479675
,pretty,0.9407144784927368
,attractive,0.9404901266098022
,girl,0.9345908761024475
,two,0.9310795664787292
,happiness,0.9307509660720825
,smile,0.9217426776885986
,togetherness,0.9205753207206726
,fashion,0.9196752309799194
,portrait,0.9169780611991882
https://scontent.cdninstagram.com/t51.2885-15/e35/13269537_579472235554621_237703914_n.jpg,woman,0.9877131581306458
,pretty,0.974906861782074
,young,0.9741322994232178
,fashion,0.9664145708084106
,girl,0.9662370681762695
,cute,0.9394944906234741
,adolescent,0.9315721988677979
,people,0.9200644493103027
,one,0.9165871143341064
,summer,0.9141275882720947
,luggage,0.9127097129821777
,sexy,0.9095718860626221
,beautiful,0.9095579385757446
,person,0.9035047292709351
,casual,0.9029529094696045
,portrait,0.9004380702972412
,fun,0.890710711479187
,outdoors,0.87201327085495
,lifestyle,0.8712967038154602
,travel,0.8699589371681213
https://scontent.cdninstagram.com/t51.2885-15/e35/13187938_1204696859541778_350405965_n.jpg,business,0.9470643997192383
,technology,0.9454727172851562
,hand,0.93476402759552
,people,0.9285558462142944
,image,0.8904933929443359
,spherical,0.8866469860076904
,isolated,0.8848662376403809
,education,0.8806463479995728
,desktop,0.8711891174316406
,man,0.8664133548736572
,woman,0.8627114295959473
,touch,0.8551992177963257
,picture frame,0.8525199890136719
,science,0.850843608379364
,display,0.8490341901779175
,symbol,0.8398885726928711
,screen,0.8319988250732422
,moment,0.8293535709381104
,paper,0.8265752792358398
,image,0.8161114454269409
https://scontent.cdninstagram.com/t51.2885-15/e15/13126765_816589671810152_1938715748_n.jpg,people,0.9832192659378052
,adult,0.9828668236732483
,man,0.9609150290489197
,room,0.9607100486755371
,woman,0.9570592045783997
,indoors,0.9539176821708679
,furniture,0.9522303342819214
,wear,0.9462369680404663
,coffee,0.92583167552948
,portrait,0.9176511764526367
,family,0.9058399200439453
,two,0.8945528268814087
,one,0.8836346864700317
,facial expression,0.8763200044631958
,drink,0.87395840883255
,restaurant,0.8585821390151978
,happiness,0.8308584690093994
,child,0.825084924697876
,seat,0.8170425891876221
,hotel,0.7942341566085815
https://scontent.cdninstagram.com/t51.2885-15/e35/13395163_1027041577344695_333670088_n.jpg,squad,0.9736539125442505
,people,0.971496045589447
,sport,0.9457448124885559
,field,0.921974778175354
,man,0.9100968837738037
,event,0.9064441919326782
,city,0.899114727973938
,teamwork,0.8890239596366882
,grass,0.8854033350944519
,woman,0.8822671175003052
,group,0.8739380836486816
,business,0.8524991273880005
,outdoors,0.8518350124359131
,competition,0.8422486782073975
,football,0.8365545272827148
,adult,0.8296099901199341
,collage,0.8214031457901001
,game,0.8196502923965454
,family,0.8128472566604614
,bill,0.807927131652832
https://scontent.cdninstagram.com/t51.2885-15/e35/13116741_283087158695771_200507615_n.jpg,city,0.9857116341590881
,people,0.9833213090896606
,street,0.9785370826721191
,man,0.9668028354644775
,urban,0.9536442756652832
,tourist,0.9480278491973877
,travel,0.9433802366256714
,woman,0.9402242302894592
,fun,0.9082644581794739
,tourism,0.906263530254364
,business,0.9058443307876587
,outdoors,0.9001129865646362
,group,0.8979368805885315
,young,0.8863611221313477
,road,0.8623850345611572
,shopping,0.8403316736221313
,person,0.836773157119751
,couple,0.8359031677246094
,crowd,0.8357672691345215
,two,0.8267104625701904
https://scontent.cdninstagram.com/t51.2885-15/e35/13391358_1740789529542976_1444389962_n.jpg,man,0.9532273411750793
,business,0.9504961967468262
,window,0.9468318223953247
,people,0.9451441168785095
,woman,0.9212530851364136
,indoors,0.9006097316741943
,person,0.8592376112937927
,transportation system,0.8588674664497375
,glass,0.8540471792221069
,wait,0.8380052447319031
,adult,0.835434079170227
,young,0.8343662023544312
,travel,0.8342767953872681
,isolated,0.8337781429290771
,modern,0.8244746923446655
,airport,0.8201662302017212
,inside,0.8175181746482849
,expect,0.814833402633667
,desktop,0.8143113851547241
,technology,0.8082431554794312
https://scontent.cdninstagram.com/t51.2885-15/e35/13531943_1112851538754123_1463206716_n.jpg,woman,0.9783222675323486
,water,0.9727197885513306
,nature,0.9673151969909668
,beach,0.9667667746543884
,girl,0.9604120254516602
,travel,0.9553686380386353
,summer,0.9491519331932068
,young,0.9478193521499634
,sea,0.9452710747718811
,sky,0.9164724349975586
,people,0.9035177230834961
,fashion,0.9031383991241455
,love,0.9025261402130127
,fun,0.8987095355987549
,vacation,0.897577166557312
,leisure,0.8957669734954834
,winter,0.8947066068649292
,lifestyle,0.8921806812286377
,relaxation,0.8892049789428711
,ocean,0.8867284059524536
https://scontent.cdninstagram.com/t51.2885-15/e35/13260780_176466416084595_1259002399_n.jpg,child,0.9975132942199707
,people,0.9770959615707397
,girl,0.9558627605438232
,education,0.9548913240432739
,group,0.951781153678894
,school,0.949203610420227
,friendship,0.9452210664749146
,collage,0.9312238693237305
,little,0.9221915602684021
,cute,0.9196230173110962
,fun,0.9132571220397949
,boy,0.9078468084335327
,portrait,0.9002194404602051
,woman,0.8843986988067627
,cheerful,0.8784980177879333
,sit,0.8776585459709167
,smile,0.8770205974578857
,beautiful,0.8691338300704956
,family,0.8440866470336914
,young,0.8342359066009521
https://scontent.cdninstagram.com/t51.2885-15/e35/13108976_1162177470479175_29607324_n.jpg,people,0.9659676551818848
,woman,0.9646775722503662
,collage,0.9634706974029541
,child,0.932745099067688
,portrait,0.9052152633666992
,friendship,0.8707211017608643
,adult,0.8624496459960938
,girl,0.8616812229156494
,happiness,0.8481654524803162
,young,0.8400551080703735
,isolated,0.839280366897583
,person,0.8332651257514954
,togetherness,0.8268448114395142
,set,0.8235949277877808
,cute,0.8214632272720337
,man,0.8200550079345703
,adolescent,0.814652144908905
,fun,0.8116322755813599
,sit,0.8064680695533752
,cheerful,0.780450701713562
https://scontent.cdninstagram.com/t51.2885-15/s750x750/sh0.08/e35/13183322_1053260551414848_228693024_n.jpg,drink,0.9858959913253784
,foam,0.9715324640274048
,cute,0.967953085899353
,child,0.9575494527816772
,mug,0.9496502876281738
,enjoyment,0.9448856115341187
,fun,0.9418665170669556
,beer,0.940250039100647
,young,0.9380966424942017
,smile,0.9245228171348572
,coffee,0.9181140661239624
,tea,0.915985643863678
,glass,0.9125158786773682
,people,0.9119884967803955
,woman,0.9100503921508789
,juice,0.8966213464736938
,sit,0.8854029178619385
,breakfast,0.8794352412223816
,portrait,0.8773190975189209
,cheerful,0.87451171875
https://scontent.cdninstagram.com/t51.2885-15/e35/13129415_776678769100751_605942064_n.jpg,food,0.9940953254699707
,meal,0.9815291166305542
,dinner,0.9787675142288208
,lunch,0.9778710603713989
,meat,0.9751671552658081
,dish,0.9684764742851257
,plate,0.967235803604126
,restaurant,0.9654339551925659
,no person,0.9651212692260742
,delicious,0.96349036693573
,breakfast,0.9622482061386108
,refreshment,0.9544823169708252
,hot,0.9537848234176636
,cheese,0.9475966691970825
,cooking,0.9435297846794128
,cuisine,0.9411358833312988
,tasty,0.932208240032196
,egg,0.9282156229019165
,bread,0.9251748323440552
,traditional,0.9227651357650757
https://scontent.cdninstagram.com/t51.2885-15/e35/13391093_628346500656895_922120928_n.jpg,people,0.9892117977142334
,collage,0.9672746658325195
,man,0.9539251327514648
,woman,0.9531538486480713
,exhibition,0.9177194833755493
,illustration,0.9026535153388977
,event,0.8917102217674255
,group,0.8858231902122498
,bill,0.8808983564376831
,family,0.8747349977493286
,collection,0.861670732498169
,stock,0.8608793616294861
,sale,0.8577520847320557
,adult,0.8548291325569153
,celebration,0.8433927297592163
,shopping,0.839746356010437
,market,0.8208481669425964
,art,0.8175604343414307
,business,0.8153784871101379
,wear,0.8088421821594238
https://scontent.cdninstagram.com/t51.2885-15/e35/12950377_1746828052267638_991240238_n.jpg,child,0.9848589897155762
,young,0.9745573997497559
,people,0.9686530828475952
,fun,0.9581250548362732
,girl,0.9483916759490967
,woman,0.9450753927230835
,group,0.9389951229095459
,friendship,0.9357925057411194
,lifestyle,0.9301600456237793
,smile,0.9275766015052795
,family,0.9274017810821533
,school,0.9244247078895569
,education,0.9196805357933044
,isolated,0.9192987084388733
,student,0.8996329307556152
,adolescent,0.8949453830718994
,cheerful,0.8886223435401917
,cute,0.8876508474349976
,person,0.8863519430160522
,happiness,0.8626222610473633
https://scontent.cdninstagram.com/t51.2885-15/e35/13397565_1613803405597725_2097971675_n.jpg,woman,0.9776567816734314
,young,0.9731464385986328
,friendship,0.9716346263885498
,people,0.9643439650535583
,lifestyle,0.9584510326385498
,girl,0.9531183242797852
,fun,0.9481129050254822
,leisure,0.9350894689559937
,man,0.931986927986145
,togetherness,0.9078598618507385
,outdoors,0.9058915376663208
,family,0.894410252571106
,summer,0.8913500308990479
,recreation,0.8874616622924805
,walk,0.8772562742233276
,couple,0.8761005401611328
,child,0.8747191429138184
,health,0.8744668960571289
,active,0.8725634813308716
,healthy,0.8663939237594604
https://scontent.cdninstagram.com/t51.2885-15/e35/13113871_170556436676709_1458008371_n.jpg,architecture,0.989889919757843
,building,0.9804459810256958
,sky,0.9801647663116455
,house,0.9779583215713501
,travel,0.9707382917404175
,city,0.965540885925293
,water,0.9525061845779419
,landscape,0.9474759101867676
,town,0.9468708038330078
,tourism,0.9223126769065857
,outdoors,0.9177663326263428
,illustration,0.9153186082839966
,cityscape,0.902366578578949
,sight,0.9019837379455566
,window,0.894748330116272
,business,0.8891017436981201
,people,0.8850376605987549
,scene,0.8846282958984375
,landmark,0.8836097717285156
,wall,0.8812582492828369
https://scontent.cdninstagram.com/t51.2885-15/e35/13355669_1766968990202377_1076539824_n.jpg,car,0.9809399843215942
,street,0.9754619598388672
,people,0.9738737344741821
,vehicle,0.9530889987945557
,road,0.9452029466629028
,man,0.923673152923584
,transportation system,0.9198932647705078
,city,0.8935693502426147
,traffic,0.8567752838134766
,bike,0.8394532203674316
,sport,0.837282657623291
,travel,0.8020169734954834
,urban,0.7898058891296387
,child,0.7783463597297668
,wheel,0.7777351140975952
,drive,0.7765021920204163
,woman,0.7718687057495117
,service,0.7573080062866211
,person,0.756199836730957
,hurry,0.7536434531211853
https://scontent.cdninstagram.com/t51.2885-15/e35/13257081_1019180254785392_1702327694_n.jpg,people,0.9860144257545471
,group,0.97376549243927
,man,0.9699862599372864
,woman,0.9674715995788574
,child,0.9557734727859497
,group,0.9401200413703918
,adult,0.9333227276802063
,facial expression,0.9290547370910645
,three,0.9281862378120422
,music,0.9154281616210938
,four,0.8995875716209412
,fun,0.8933948278427124
,family,0.8824068307876587
,portrait,0.8682323694229126
,adolescent,0.858932375907898
,togetherness,0.850486159324646
,friendship,0.8415881395339966
,musician,0.8405513763427734
,wear,0.8349413871765137
,enjoyment,0.8158397674560547
https://scontent.cdninstagram.com/t51.2885-15/e35/13385830_833712090098803_201664539_n.jpg,people,0.9869598150253296
,man,0.9582724571228027
,adult,0.939206063747406
,woman,0.9282480478286743
,one,0.8847841620445251
,two,0.88437819480896
,business,0.8811531066894531
,indoors,0.8792206048965454
,furniture,0.8636023998260498
,group,0.8396899700164795
,room,0.8239984512329102
,monochrome,0.8153189420700073
,street,0.8064228892326355
,chair,0.7805396318435669
,office,0.772917628288269
,actor,0.752589762210846
,group,0.7488569021224976
,education,0.748518705368042
,family,0.7128533124923706
,three,0.7005200386047363
https://scontent.cdninstagram.com/t51.2885-15/e35/13118088_1005736636182747_142258064_n.jpg,woman,0.9708124399185181
,friendship,0.9703428745269775
,girl,0.9367222189903259
,people,0.9291514158248901
,man,0.9227378368377686
,restaurant,0.921442985534668
,portrait,0.9184814095497131
,togetherness,0.9153587818145752
,student,0.9082932472229004
,family,0.8950906991958618
,collage,0.8939069509506226
,fun,0.8912684917449951
,laughing,0.882027268409729
,group,0.8780092000961304
,adolescent,0.8768966794013977
,young,0.8760719299316406
,smile,0.8589740991592407
,adult,0.8091722726821899
,happiness,0.7868837118148804
,beautiful,0.7859383225440979
https://scontent.cdninstagram.com/t51.2885-15/e35/13398657_1736445966644596_371818020_n.jpg,religion,0.9637670516967773
,people,0.9464489221572876
,child,0.9322175979614258
,woman,0.9002676010131836
,celebration,0.8968755006790161
,traditional,0.8725181818008423
,travel,0.8643696904182434
,veil,0.8613018989562988
,outdoors,0.8610665202140808
,portrait,0.8520317077636719
,group,0.8470444679260254
,fun,0.8178679943084717
,culture,0.8102376461029053
,church,0.8000075817108154
,man,0.7963378429412842
,beautiful,0.7878115177154541
,happiness,0.7873414754867554
,old,0.7829698324203491
,young,0.7817901968955994
,sky,0.7748183608055115
