url,class,score
https://scontent.cdninstagram.com/t51.2885-15/e35/13413287_967340120053751_701713413_n.jpg,man,0.9889717698097229
,people,0.9811844825744629
,adult,0.9506205320358276
,street,0.9440299272537231
,portrait,0.9419205188751221
,one,0.9335587024688721
,outdoors,0.9320041537284851
,urban,0.923151969909668
,city,0.9160323739051819
,competition,0.9121208190917969
,boy,0.9056684970855713
,guy,0.9031007289886475
,sport,0.8645974397659302
,lifestyle,0.8590493202209473
,travel,0.8446176052093506
,man,0.8365294933319092
,football,0.8305078148841858
,uniform,0.8273733854293823
,person,0.8259896039962769
,police,0.8154581785202026
https://scontent.cdninstagram.com/t51.2885-15/e35/13437417_706052436203892_1922068613_n.jpg,no person,0.9813094139099121
,technology,0.9664469957351685
,isolated,0.9621717929840088
,business,0.9555673003196716
,electronics,0.9418905973434448
,plastic,0.9206334948539734
,equipment,0.9177528619766235
,machinery,0.8801292181015015
,contemporary,0.8695405125617981
,security,0.8676436543464661
,industry,0.8538233637809753
,glazed,0.8468071222305298
,paper,0.8119673728942871
,movie,0.7865562438964844
,horizontal,0.7828875780105591
,image,0.7152444124221802
,creativity,0.7149333953857422
,illustration,0.713127076625824
,data,0.7114943265914917
,identity,0.7102150917053223
https://scontent.cdninstagram.com/t51.2885-15/e35/13398575_839201706210771_1671888325_n.jpg,fruit,0.9976351261138916
,food,0.9931541681289673
,berry,0.9922085404396057
,no person,0.9908407926559448
,grape,0.9903247356414795
,juicy,0.9897184371948242
,vine,0.9866451621055603
,grow,0.9817734956741333
,wine,0.9772900938987732
,health,0.9627431631088257
,fall,0.9421597719192505
,delicious,0.9415126442909241
,nutrition,0.9353683590888977
,pasture,0.9340336322784424
,vitamin,0.9303487539291382
,juice,0.9255380034446716
,bunch,0.9254893064498901
,leaf,0.9210265874862671
,wood,0.9154441952705383
,healthy,0.9143482446670532
https://scontent.cdninstagram.com/t51.2885-15/s750x750/sh0.08/e35/13597774_211064819290036_293079418_n.jpg,food,0.9959856271743774
,dish,0.9832885265350342
,dinner,0.9828583002090454
,delicious,0.9776294231414795
,meal,0.9774681329727173
,vegetable,0.973828911781311
,cuisine,0.969628095626831
,lunch,0.9689211845397949
,hot,0.9645601511001587
,no person,0.9494451284408569
,meat,0.9489232301712036
,plate,0.9456287622451782
,cooking,0.9447888731956482
,pork,0.9434797763824463
,mushroom,0.9341007471084595
,healthy,0.9324818849563599
,cabbage,0.9293174743652344
,tasty,0.9246388673782349
,epicure,0.9219862222671509
,restaurant,0.9211863279342651
https://scontent.cdninstagram.com/t51.2885-15/e35/13628181_104503786653884_1932943758_n.jpg,food,0.9865646362304688
,dinner,0.985531747341156
,lunch,0.9818966388702393
,no person,0.97532057762146
,delicious,0.9715986847877502
,meal,0.963732123374939
,seafood,0.9587332010269165
,fish,0.9534781575202942
,plate,0.9486304521560669
,nutrition,0.9477646350860596
,traditional,0.9460858106613159
,meat,0.9403027296066284
,dish,0.9346860647201538
,cooking,0.9295623898506165
,vegetable,0.9240560531616211
,epicure,0.9170889854431152
,cuisine,0.9132343530654907
,chicken,0.9112952351570129
,salmon,0.896298885345459
,sauce,0.8772653937339783
https://scontent.cdninstagram.com/t51.2885-15/e35/13597605_162705370814204_2015289281_n.jpg,child,0.9929425716400146
,people,0.9918104410171509
,group,0.9772958755493164
,portrait,0.9771730899810791
,education,0.9652367830276489
,boy,0.9609540700912476
,adult,0.956885576248169
,facial expression,0.9539691805839539
,man,0.9523349404335022
,wear,0.94786536693573
,school,0.9469783306121826
,boy,0.9469162225723267
,three,0.9345215559005737
,indoors,0.9156940579414368
,room,0.908430814743042
,one,0.8828961849212646
,fun,0.8710017204284668
,two,0.858396053314209
,offspring,0.8509629964828491
,happiness,0.8501196503639221
https://scontent.cdninstagram.com/t51.2885-15/e35/13557247_1731287897128543_1323418871_n.jpg,egg,0.9998946785926819
,egg yolk,0.9996424913406372
,breakfast,0.9992396831512451
,dawn,0.993374764919281
,cholesterol,0.9929548501968384
,food,0.9884900450706482
,bread,0.981116533279419
,butter,0.9783267974853516
,no person,0.9763026237487793
,delicious,0.9639620184898376
,nutrition,0.9635210037231445
,meal,0.9610580205917358
,brunch,0.9551582336425781
,lunch,0.9522479176521301
,toast,0.9518917798995972
,fried egg,0.9493414759635925
,cooking,0.9480165243148804
,plate,0.9395915269851685
,bacon,0.9384442567825317
,traditional,0.9276608228683472
https://scontent.cdninstagram.com/t51.2885-15/s480x480/e35/13266840_566120860237345_73986416_n.jpg,motion,0.9900575876235962
,action,0.9779883623123169
,backlit,0.9703831672668457
,silhouette,0.9689788818359375
,people,0.9660248756408691
,silhouette,0.9581007957458496
,competition,0.9485208988189697
,man,0.9346396327018738
,action,0.9341557025909424
,skill,0.9293628931045532
,dancing,0.9243186116218567
,fun,0.9202402830123901
,jump,0.9189023971557617
,shadow,0.9083682298660278
,recreation,0.9018517136573792
,water,0.8983253836631775
,two,0.8907206058502197
,position,0.8814901113510132
,woman,0.8710178136825562
,energy,0.8696655035018921
https://scontent.cdninstagram.com/t51.2885-15/s750x750/sh0.08/e35/13414377_301364700199340_1505713028_n.jpg,paper,0.9846489429473877
,no person,0.9778735637664795
,creativity,0.9651017785072327
,indoors,0.9562405347824097
,messy,0.949259877204895
,child,0.9449083805084229
,family,0.9155175089836121
,arts and crafts,0.9056949019432068
,love,0.8962564468383789
,fun,0.8940534591674805
,retro,0.8879064321517944
,woman,0.8763132095336914
,wood,0.87416672706604
,education,0.8416389226913452
,gloves,0.8240430355072021
,painting,0.8125137686729431
,romance,0.8074918985366821
,indulgence,0.8014543056488037
,contemporary,0.7982957363128662
,bright,0.7975173592567444
https://scontent.cdninstagram.com/t51.2885-15/e35/13473372_1084581151616416_348966034_n.jpg,meat,0.9984339475631714
,dinner,0.998375415802002
,lunch,0.9961186647415161
,food,0.9955693483352661
,beef,0.9945755004882812
,pork,0.9940029382705688
,rice,0.9926289319992065
,chicken,0.9899852871894836
,meal,0.989859402179718
,delicious,0.9879128932952881
,dish,0.9877017140388489
,no person,0.9857346415519714
,plate,0.9784125089645386
,lamb,0.9769124984741211
,poultry,0.9735108613967896
,barbecue,0.9714629650115967
,sauce,0.9707398414611816
,hot,0.9674716591835022
,vegetable,0.967413067817688
,cuisine,0.9615886211395264
https://scontent.cdninstagram.com/t51.2885-15/s640x640/sh0.08/e35/13391278_1778141055806096_384806015_n.jpg,food,0.9916270971298218
,breakfast,0.9886849522590637
,no person,0.9871710538864136
,sweet,0.9808807969093323
,delicious,0.9784759283065796
,coffee,0.9651463627815247
,bread,0.9635195732116699
,pastry,0.9634511470794678
,traditional,0.9561920166015625
,refreshment,0.9546860456466675
,sugar,0.9540578722953796
,plate,0.9520785212516785
,dawn,0.9467142820358276
,homemade,0.9455921053886414
,meal,0.9390910863876343
,baking,0.9339163303375244
,cup,0.9275190830230713
,bakery,0.9255993366241455
,chocolate,0.911849856376648
,tasty,0.9030516147613525
https://scontent.cdninstagram.com/t51.2885-15/e35/13397411_1627922617522862_1676240875_n.jpg,food,0.9960356950759888
,strawberry,0.9957879781723022
,fruit,0.9945764541625977
,sweet,0.9940376281738281
,no person,0.9891077280044556
,berry,0.9823045134544373
,delicious,0.9821869134902954
,sugar,0.9726289510726929
,gelatin,0.963549017906189
,cream,0.9529101848602295
,jam,0.9460187554359436
,epicure,0.9401995539665222
,refreshment,0.9321920275688171
,closeup,0.9313346743583679
,slice,0.9281641840934753
,cake,0.9242260456085205
,candy,0.9165177941322327
,summer,0.9153823852539062
,healthy,0.9120513200759888
,color,0.9110676050186157
https://scontent.cdninstagram.com/t51.2885-15/e35/13329039_1739045296333958_1410475567_n.jpg,people,0.9977195858955383
,group,0.9883555173873901
,adult,0.9875858426094055
,woman,0.9810186624526978
,wear,0.9544925689697266
,man,0.9502776861190796
,child,0.938658595085144
,portrait,0.9260053634643555
,family,0.9098162651062012
,festival,0.9036402702331543
,girl,0.8939813375473022
,recreation,0.8924746513366699
,celebration,0.8793764114379883
,music,0.8602160215377808
,religion,0.8502669930458069
,enjoyment,0.8497540950775146
,performance,0.8352714776992798
,offspring,0.8288092613220215
,boy,0.8203685283660889
,costume,0.8194910287857056
https://scontent.cdninstagram.com/t51.2885-15/e35/13473259_1776206939265510_592377016_n.jpg,food,0.9954656362533569
,egg,0.9952576756477356
,breakfast,0.97682124376297
,meal,0.9758510589599609
,no person,0.965962290763855
,egg yolk,0.9629446268081665
,healthy,0.9529303908348083
,cooking,0.946709394454956
,delicious,0.942958652973175
,cuisine,0.9391035437583923
,nutrition,0.9328525066375732
,traditional,0.9306139349937439
,lunch,0.9292351007461548
,diet,0.928821861743927
,plate,0.925872802734375
,vegetable,0.923820972442627
,epicure,0.920182466506958
,tasty,0.9185629487037659
,closeup,0.9178086519241333
,desktop,0.9157660007476807
https://scontent.cdninstagram.com/t51.2885-15/s750x750/sh0.08/e35/13402589_1563235727311879_984681256_n.jpg,food,0.9986221194267273
,delicious,0.9968551397323608
,dinner,0.9935314655303955
,hot,0.9919685125350952
,lunch,0.9910159111022949
,noodles,0.987910270690918
,meal,0.9869029521942139
,cuisine,0.9847100973129272
,pork,0.9805037975311279
,meat,0.9804693460464478
,dish,0.9792113304138184
,cooking,0.977104663848877
,sauce,0.9770681262016296
,traditional,0.9769154787063599
,vegetable,0.9769001007080078
,rice,0.9748916625976562
,shrimp,0.9736596345901489
,chili,0.9707863926887512
,epicure,0.9702016115188599
,seafood,0.969310998916626
https://scontent.cdninstagram.com/t51.2885-15/s480x480/e35/13398674_148503378899202_1501838178_n.jpg,food,0.9986546039581299
,soup,0.9979751706123352
,hot,0.9935813546180725
,dinner,0.9932657480239868
,meat,0.992364227771759
,meal,0.9870427846908569
,lunch,0.9854621291160583
,vegetable,0.9852914214134216
,cuisine,0.9839559197425842
,no person,0.9838985204696655
,bowl,0.9834373593330383
,dish,0.980607271194458
,traditional,0.9795942306518555
,delicious,0.9768416881561279
,cooking,0.9757823348045349
,broth,0.9755505323410034
,pork,0.9651939868927002
,noodles,0.9639703631401062
,spoon,0.955964982509613
,epicure,0.9486921429634094
https://scontent.cdninstagram.com/t51.2885-15/e35/13532088_245449359180749_391740347_n.jpg,food,0.9855960011482239
,delicious,0.9789597392082214
,no person,0.9786784052848816
,lunch,0.965840220451355
,dinner,0.9598417282104492
,plate,0.954291582107544
,meal,0.9423012137413025
,breakfast,0.9392119646072388
,homemade,0.9150373339653015
,nutrition,0.9105367064476013
,dish,0.8934326171875
,meat,0.8920464515686035
,bread,0.8917075395584106
,refreshment,0.8856008648872375
,sweet,0.879435122013092
,tasty,0.8739762902259827
,cooking,0.8724430799484253
,hot,0.863984227180481
,cuisine,0.8637435436248779
,traditional,0.8634205460548401
https://scontent.cdninstagram.com/t51.2885-15/e35/13260823_277560082587647_1788261970_n.jpg,foam,0.9968055486679077
,hot,0.9956107139587402
,coffee,0.9952084422111511
,cup,0.9918380975723267
,cappuccino,0.9915874600410461
,espresso,0.9869290590286255
,drink,0.98602294921875
,breakfast,0.9823717474937439
,caffeine,0.9821364879608154
,no person,0.9818451404571533
,dawn,0.9760146737098694
,mug,0.9643144607543945
,cream,0.9622079133987427
,break,0.9563983678817749
,milk,0.9404202103614807
,mocha,0.8842180967330933
,delicious,0.8610828518867493
,dark,0.8575742840766907
,porcelain,0.8514171838760376
,wood,0.848293662071228
https://scontent.cdninstagram.com/t51.2885-15/s640x640/sh0.08/e35/13557215_1634914506755174_169843665_n.jpg,soup,0.9992511868476868
,food,0.9963370561599731
,dinner,0.9938201904296875
,broth,0.9933991432189941
,bowl,0.9881011843681335
,lunch,0.9875881671905518
,cooking,0.9848599433898926
,delicious,0.9823096990585327
,traditional,0.9798228144645691
,dish,0.9786591529846191
,hot,0.9763287305831909
,noodles,0.9744325876235962
,cuisine,0.9712774753570557
,no person,0.9696862101554871
,meal,0.9588130712509155
,nutrition,0.9506062269210815
,meat,0.9487960338592529
,vegetable,0.948725700378418
,health,0.9419291019439697
,healthy,0.9401724338531494
https://scontent.cdninstagram.com/t51.2885-15/e35/13167387_1097226170299977_976364530_n.jpg,food,0.9984071254730225
,dinner,0.9953809976577759
,meat,0.9922690391540527
,lunch,0.991089403629303
,chicken,0.9898204803466797
,dish,0.9891132116317749
,meal,0.9884967803955078
,no person,0.986385703086853
,plate,0.9859312176704407
,delicious,0.9812226295471191
,hot,0.9806075096130371
,cuisine,0.9712808728218079
,cooking,0.9703418612480164
,pork,0.960243821144104
,tasty,0.9572761058807373
,deep,0.9564415216445923
,poultry,0.9563562870025635
,restaurant,0.9508484601974487
,sauce,0.948960542678833
,vegetable,0.9443123936653137
https://scontent.cdninstagram.com/t51.2885-15/e35/13422909_1204493816278734_738814635_n.jpg,food,0.9916672706604004
,sweet,0.9904603958129883
,delicious,0.9821054339408875
,breakfast,0.9818575382232666
,pastry,0.9798964858055115
,no person,0.9756587743759155
,sugar,0.9745781421661377
,refreshment,0.9690473079681396
,cake,0.9645248651504517
,tasty,0.954941987991333
,bakery,0.943414568901062
,dough,0.9372185468673706
,homemade,0.9289019107818604
,hot,0.9195591807365417
,bread,0.9158469438552856
,unhealthy,0.9077557921409607
,meal,0.8994324207305908
,plate,0.8967105150222778
,lunch,0.8934073448181152
,fruit,0.8789986968040466
https://scontent.cdninstagram.com/t51.2885-15/e35/13652086_1793321757617957_1485890808_n.jpg,people,0.9841180443763733
,model,0.9793865084648132
,commerce,0.9775042533874512
,fashion,0.976604700088501
,mannequin,0.971133828163147
,man,0.9692305326461792
,business,0.9621106386184692
,indoors,0.9573729038238525
,doll,0.9480862617492676
,woman,0.9398221969604492
,carnival,0.9363293647766113
,shopping,0.9298981428146362
,exhibition,0.9200435876846313
,airport,0.9163653254508972
,show,0.905075192451477
,portrait,0.9002773761749268
,luggage,0.8996087312698364
,mall,0.8930635452270508
,wear,0.8916712999343872
,chair,0.876947283744812
https://scontent.cdninstagram.com/t51.2885-15/e35/13116613_885132664946337_1590734681_n.jpg,bread,0.9969155788421631
,food,0.9966380596160889
,lunch,0.9916293621063232
,toast,0.9811104536056519
,delicious,0.9803279638290405
,dinner,0.9796841144561768
,meal,0.9749636054039001
,lettuce,0.9668002724647522
,sandwich,0.9657838344573975
,no person,0.9646617770195007
,breakfast,0.9634050726890564
,meat,0.960051953792572
,slice,0.954262375831604
,nutrition,0.9497570991516113
,healthy,0.9390546083450317
,refreshment,0.9379684329032898
,salad,0.9364330172538757
,plate,0.9260756969451904
,tasty,0.9190168380737305
,epicure,0.9167537689208984
https://scontent.cdninstagram.com/t51.2885-15/s750x750/sh0.08/e35/13385667_817799378350345_1097233641_n.jpg,coffee,0.9939173460006714
,no person,0.9879106879234314
,espresso,0.9777342081069946
,cup,0.9687432050704956
,cappuccino,0.9680063724517822
,drink,0.965570867061615
,caffeine,0.961203932762146
,breakfast,0.9611566066741943
,food,0.957470178604126
,dawn,0.952622652053833
,foam,0.9480056762695312
,hot,0.9470146894454956
,wood,0.9409818649291992
,table,0.9342973828315735
,cream,0.9083927273750305
,still life,0.9068058729171753
,mug,0.8984741568565369
,milk,0.8792141675949097
,chocolate,0.8768473863601685
,dark,0.8741490244865417
https://scontent.cdninstagram.com/t51.2885-15/e35/13266899_894480830679608_831532668_n.jpg,paper,0.9741653203964233
,money,0.9672262668609619
,business,0.9668444991111755
,money,0.950790286064148
,wealth,0.9294471144676208
,investment,0.9289901852607727
,finance,0.9286210536956787
,savings,0.9170240163803101
,family,0.896798849105835
,symbol,0.8925938606262207
,note,0.884842038154602
,desktop,0.8833054304122925
,cash,0.8740478754043579
,success,0.8647726774215698
,bank,0.8626195192337036
,no person,0.857842206954956
,financial,0.8531584739685059
,equipment,0.8450710773468018
,dollar,0.8338865041732788
,loan,0.8059966564178467
https://scontent.cdninstagram.com/t51.2885-15/e35/13266801_1206627306023581_47083340_n.jpg,people,0.9698284268379211
,skin,0.9608697295188904
,adult,0.9583413004875183
,illness,0.9551486968994141
,dermatology,0.9511861801147461
,patient,0.949988842010498
,man,0.9499304294586182
,woman,0.9357064366340637
,pain,0.9327341318130493
,health,0.9294394850730896
,medicine,0.9206417798995972
,scar,0.9188816547393799
,surgery,0.9095395803451538
,bruise,0.9056116938591003
,vertical,0.9002945423126221
,pimple,0.8972011804580688
,child,0.8947484493255615
,care,0.8798165321350098
,wound,0.8622710704803467
,portrait,0.8578671216964722
https://scontent.cdninstagram.com/t51.2885-15/e35/13277783_583915358436692_976936255_n.jpg,meat,0.9938629269599915
,dinner,0.9923335909843445
,food,0.9921790957450867
,lunch,0.9841368198394775
,meal,0.9806307554244995
,chicken,0.9750472903251648
,beef,0.9638161659240723
,plate,0.9627289772033691
,delicious,0.9622641801834106
,poultry,0.9619119167327881
,no person,0.9514890909194946
,steak,0.9486870765686035
,pork,0.9477159976959229
,dish,0.9453288316726685
,vegetable,0.9317290782928467
,sauce,0.926934003829956
,dining,0.9247963428497314
,barbecue,0.9244245290756226
,cooking,0.9195967316627502
,restaurant,0.9148197174072266
https://scontent.cdninstagram.com/l/t51.2885-15/s480x480/e35/13258847_1132928206766949_677260559_n.jpg,food,0.9971342086791992
,dinner,0.9922775030136108
,meal,0.987981915473938
,delicious,0.9858405590057373
,meat,0.9853919744491577
,no person,0.9852700233459473
,plate,0.9835165739059448
,vegetable,0.9817180633544922
,dish,0.9751195907592773
,sauce,0.9683236479759216
,lunch,0.9660639762878418
,beef,0.9658100605010986
,cuisine,0.9597909450531006
,epicure,0.9478782415390015
,tasty,0.9443843364715576
,restaurant,0.9409499168395996
,cooking,0.9406251907348633
,healthy,0.9393885135650635
,salad,0.9364014863967896
,nutrition,0.9204053282737732
https://scontent.cdninstagram.com/t51.2885-15/e35/13261005_800035233460051_1605487124_n.jpg,sign,0.9869268536567688
,business,0.985724151134491
,money,0.9836105108261108
,paper,0.9831644296646118
,wealth,0.9733600616455078
,collection,0.9726710319519043
,finance,0.9710721373558044
,set,0.9637590646743774
,money,0.9621288776397705
,sale,0.9479798674583435
,cash,0.9445866346359253
,no person,0.9369006156921387
,note,0.9325648546218872
,bank,0.9322182536125183
,abundance,0.9306290745735168
,price,0.9252464771270752
,dollar,0.9240102767944336
,savings,0.9230043888092041
,commerce,0.9165534973144531
,food,0.913724958896637
https://scontent.cdninstagram.com/t51.2885-15/s480x480/e35/13269402_1603000573344709_953176058_n.jpg,food,0.9963817596435547
,meal,0.9890096187591553
,no person,0.9887583255767822
,dinner,0.9876205921173096
,meat,0.9862611293792725
,lunch,0.9851506948471069
,potato,0.9847720861434937
,plate,0.981645405292511
,delicious,0.9682583808898926
,dish,0.9666515588760376
,poultry,0.9503709673881531
,cooking,0.9439823627471924
,dining,0.9404135942459106
,vegetable,0.9402809739112854
,hot,0.9333314895629883
,nutrition,0.9305559396743774
,chicken,0.923250675201416
,healthy,0.9213036298751831
,cuisine,0.9202818870544434
,grow,0.9079170823097229
https://scontent.cdninstagram.com/t51.2885-15/e35/13388607_257208801310546_1363967715_n.jpg,people,0.9975460767745972
,adult,0.9880262613296509
,group,0.9879767894744873
,woman,0.980991005897522
,wear,0.9527119398117065
,man,0.9491952657699585
,child,0.9372993111610413
,portrait,0.9253552556037903
,family,0.914909839630127
,girl,0.8806847333908081
,festival,0.8736838102340698
,recreation,0.8722306489944458
,religion,0.8680087327957153
,celebration,0.8586273193359375
,boy,0.8490889072418213
,music,0.8390792608261108
,offspring,0.8272948861122131
,two,0.8169824481010437
,performance,0.8110105991363525
,costume,0.8065004348754883
https://scontent.cdninstagram.com/t51.2885-15/s750x750/sh0.08/e35/13398416_111583122601000_29844460_n.jpg,ice,0.9995773434638977
,cream,0.9990362524986267
,vanilla,0.9977912306785583
,chocolate,0.9967995285987854
,sweet,0.991173267364502
,cone,0.9907104969024658
,cold,0.9875016808509827
,wafer,0.9846386909484863
,frozen,0.9830512404441833
,goody,0.9821452498435974
,indulgence,0.9815300703048706
,frozen,0.9799370765686035
,delicious,0.979850172996521
,cornet,0.9792379140853882
,caramel,0.9736682176589966
,sugar,0.972166121006012
,sorbet,0.968437910079956
,no person,0.9679741859436035
,refreshment,0.9677603840827942
,glass,0.956947922706604
https://scontent.cdninstagram.com/t51.2885-15/s480x480/e35/13408947_1213140508705615_121753312_n.jpg,woman,0.9904032945632935
,group,0.9899885058403015
,people,0.9899550676345825
,table,0.9857028126716614
,man,0.9847147464752197
,furniture,0.9843621253967285
,adult,0.9842013716697693
,group,0.979064404964447
,restaurant,0.9727597236633301
,room,0.9693669080734253
,tableware,0.9474912285804749
,indoors,0.9464007019996643
,four,0.9381536245346069
,sit,0.9351196885108948
,dining,0.9278574585914612
,chair,0.9056456089019775
,place setting,0.8973963260650635
,meal,0.8900094032287598
,child,0.8791890740394592
,daylight,0.878874659538269
https://scontent.cdninstagram.com/t51.2885-15/e35/13551746_1489408544418066_592428639_n.jpg,sweet,0.9977402091026306
,chocolate,0.99532151222229
,cake,0.9944955110549927
,homemade,0.9896755218505859
,delicious,0.987547755241394
,pastry,0.9838401079177856
,brownie,0.9802296757698059
,food,0.9790705442428589
,muffin,0.9703434705734253
,bakery,0.9695394039154053
,no person,0.9682446718215942
,fruit,0.9602423906326294
,breakfast,0.959943950176239
,unhealthy,0.9595252275466919
,sugar,0.9535481929779053
,baking,0.9490834474563599
,cream,0.949041485786438
,pie,0.9429689049720764
,plate,0.9321913719177246
,goody,0.9247294664382935
https://scontent.cdninstagram.com/t51.2885-15/e35/13561897_101682703602552_1048054359_n.jpg,food,0.996222972869873
,no person,0.9848524332046509
,meal,0.9696363806724548
,vegetable,0.9646691083908081
,lunch,0.9594305157661438
,dinner,0.9532105922698975
,delicious,0.9507015943527222
,restaurant,0.9465166330337524
,dish,0.9413846731185913
,plate,0.936082124710083
,cuisine,0.9308038949966431
,cooking,0.9233523607254028
,refreshment,0.9148727655410767
,tomato,0.9095396995544434
,tasty,0.9065229892730713
,nutrition,0.9010759592056274
,cheese,0.900469183921814
,closeup,0.8903690576553345
,grow,0.8889862298965454
,epicure,0.8849954605102539
https://scontent.cdninstagram.com/t51.2885-15/e35/13556765_1453110014715293_1716913494_n.jpg,food,0.9937878251075745
,meat,0.9887692928314209
,dish,0.9851980805397034
,meal,0.9838308095932007
,dinner,0.9825347661972046
,vegetable,0.9821227788925171
,sauce,0.981859028339386
,plate,0.9745839834213257
,cuisine,0.9698925018310547
,no person,0.9649521708488464
,lunch,0.9600162506103516
,rice,0.9534214735031128
,cooking,0.9528566598892212
,restaurant,0.9524989128112793
,pork,0.9422736167907715
,delicious,0.941641092300415
,curry,0.9392616152763367
,pepper,0.9317408800125122
,cabbage,0.9300108551979065
,bowl,0.9253363609313965
https://scontent.cdninstagram.com/t51.2885-15/e35/13108986_234697496921546_11476285_n.jpg,woman,0.9896111488342285
,girl,0.9716827273368835
,glass,0.9597165584564209
,isolated,0.9495152235031128
,beautiful,0.940953254699707
,face,0.9365844130516052
,portrait,0.9354332685470581
,young,0.9293829202651978
,lips,0.9265139102935791
,health,0.9170640707015991
,model,0.89424729347229
,sexy,0.8931031227111816
,studio,0.8927574157714844
,fashion,0.8865768909454346
,desktop,0.8709573745727539
,dark,0.8532567024230957
,person,0.8435574769973755
,glamour,0.8404843807220459
,smoke,0.8403266072273254
,bright,0.8373615741729736
https://scontent.cdninstagram.com/t51.2885-15/e35/13534468_599770420182753_1219110834_n.jpg,business,0.9822046756744385
,text,0.9430148601531982
,finance,0.917019248008728
,communication,0.90688157081604
,paper,0.8709747791290283
,sale,0.8396745920181274
,horizontal,0.8387187123298645
,identity,0.8371565341949463
,vertical,0.8297229409217834
,illustration,0.8297097682952881
,shopping,0.8273807168006897
,sign,0.8080556392669678
,success,0.7962372303009033
,internet,0.7880659103393555
,sign,0.7862937450408936
,stock,0.7852145433425903
,symbol,0.7828496694564819
,World Wide Web,0.78284752368927
,market,0.7816604375839233
,preparation,0.7676401138305664
https://scontent.cdninstagram.com/t51.2885-15/s750x750/sh0.08/e35/13413228_664312923716667_151482098_n.jpg,food,0.9969643354415894
,meal,0.9928892254829407
,meat,0.9927783012390137
,dinner,0.9919678568840027
,lunch,0.9855594038963318
,plate,0.9851799011230469
,delicious,0.9756454229354858
,no person,0.9697270393371582
,dish,0.9658557176589966
,potato,0.9648824334144592
,cuisine,0.9641170501708984
,restaurant,0.9551365971565247
,vegetable,0.9544994831085205
,pork,0.9530661106109619
,epicure,0.9510946869850159
,tasty,0.9461435079574585
,beef,0.9458324909210205
,nutrition,0.9448673725128174
,cooking,0.9358710646629333
,knife,0.9349018931388855
https://scontent.cdninstagram.com/t51.2885-15/s750x750/sh0.08/e35/13423652_822151571220045_1655551993_n.jpg,french fries,0.999549150466919
,unhealthy,0.9993614554405212
,fast,0.9987190961837769
,no person,0.9986730813980103
,ketchup,0.9977529048919678
,food,0.9911764860153198
,lunch,0.9897283911705017
,crisp,0.9863342046737671
,delicious,0.9849753975868225
,dinner,0.983484148979187
,refreshment,0.9820636510848999
,deep,0.9817293882369995
,greasy,0.9792731404304504
,junk,0.9791909456253052
,crisp,0.9633698463439941
,hot,0.9547111988067627
,beer,0.9457941055297852
,salt,0.9443317651748657
,potato,0.9443060755729675
,nutrition,0.9393982887268066
https://scontent.cdninstagram.com/t51.2885-15/s480x480/e35/13402396_1634922476835193_577458183_n.jpg,no person,0.9978582859039307
,food,0.9947840571403503
,traditional,0.9731464385986328
,delicious,0.9666913747787476
,homemade,0.9533048868179321
,plate,0.9425539970397949
,breakfast,0.9378942847251892
,baking,0.9331115484237671
,cooking,0.9280201196670532
,sugar,0.9259791374206543
,sweet,0.9219424724578857
,dinner,0.9216058254241943
,lunch,0.9194768667221069
,meal,0.9055477380752563
,nutrition,0.8962686061859131
,pancake,0.8952624201774597
,wood,0.8915810585021973
,ready,0.890173077583313
,health,0.8861311674118042
,jam,0.8848649859428406
https://scontent.cdninstagram.com/t51.2885-15/s750x750/sh0.08/e35/13269578_1155417587852099_1233239285_n.jpg,dinner,0.996158242225647
,food,0.9958399534225464
,lunch,0.9939785599708557
,meat,0.9860203266143799
,delicious,0.9839705228805542
,no person,0.9838684797286987
,meal,0.979353666305542
,chicken,0.9775561094284058
,dish,0.9688236117362976
,homemade,0.9606859087944031
,cheese,0.9574852585792542
,sauce,0.9546354413032532
,cooking,0.954544186592102
,cuisine,0.9525381326675415
,refreshment,0.9510785341262817
,plate,0.9486337304115295
,restaurant,0.9460247755050659
,appetizer,0.944453239440918
,tomato,0.9418426752090454
,nutrition,0.9400861263275146
https://scontent.cdninstagram.com/t51.2885-15/e35/13549351_509010795961359_1221232640_n.jpg,food,0.9754440784454346
,no person,0.9678588509559631
,celebration,0.9295915365219116
,cake,0.9288818836212158
,sweet,0.9043260812759399
,desktop,0.8841035962104797
,decoration,0.8788820505142212
,table,0.8752171397209167
,birthday,0.8599716424942017
,delicious,0.8495687246322632
,paper,0.840297520160675
,Christmas,0.8387365341186523
,vertical,0.8345202207565308
,plate,0.8316227197647095
,party,0.8303341269493103
,sugar,0.8273465633392334
,design,0.8202625513076782
,indoors,0.806249737739563
,pastry,0.8014042377471924
,color,0.7996307611465454
https://scontent.cdninstagram.com/t51.2885-15/e35/13098979_936813493102975_291258022_n.jpg,dumpling,0.9975366592407227
,no person,0.9970448017120361
,dough,0.996711254119873
,homemade,0.996013879776001
,food,0.9943521618843079
,flour,0.9932663440704346
,ravioli,0.99298095703125
,delicious,0.9922676086425781
,tortellini,0.9870131015777588
,cooking,0.9861441254615784
,traditional,0.9786058664321899
,pastry,0.974429726600647
,baking,0.9711307287216187
,refreshment,0.9661706686019897
,lunch,0.959397554397583
,nutrition,0.9575002193450928
,sweet,0.9540421962738037
,cuisine,0.9439916610717773
,dinner,0.9377199411392212
,wood,0.9360918998718262
https://scontent.cdninstagram.com/t51.2885-15/e35/13249641_244763372558573_431869006_n.jpg,meat,0.999272882938385
,dinner,0.9940405488014221
,steak,0.9930059313774109
,meal,0.991020679473877
,bone,0.9890586137771606
,juicy,0.9890397787094116
,food,0.9883662462234497
,barbecue,0.9878267049789429
,beef,0.9871022701263428
,plate,0.986958384513855
,poultry,0.9834891557693481
,prime,0.9803406596183777
,dish,0.9797159433364868
,pepper,0.974901556968689
,lamb,0.9735127687454224
,sauce,0.973294734954834
,restaurant,0.9727506637573242
,sirloin,0.972266674041748
,beefsteak,0.9702365398406982
,chop,0.9680461883544922
https://scontent.cdninstagram.com/t51.2885-15/e35/13437397_149817278762154_1465383925_n.jpg,no person,0.9935428500175476
,dinner,0.9895443916320801
,food,0.9875268936157227
,traditional,0.9862319231033325
,lunch,0.9817171096801758
,delicious,0.9806407690048218
,cooking,0.9748862981796265
,soup,0.9626733064651489
,nutrition,0.9616297483444214
,homemade,0.9575268626213074
,health,0.9543673992156982
,dumpling,0.9517907500267029
,dish,0.9482576847076416
,ready,0.9436190724372864
,bowl,0.9431215524673462
,broth,0.9406857490539551
,cabbage,0.9362409114837646
,boiling,0.9340949654579163
,vegetable,0.9151875376701355
,hot,0.8934862613677979
https://scontent.cdninstagram.com/l/t51.2885-15/s640x640/sh0.08/e35/13408869_622246251266962_1254123177_n.jpg,food,0.9941402077674866
,no person,0.989006757736206
,milk,0.9821624755859375
,dairy product,0.9766649007797241
,cooking,0.9741204380989075
,bowl,0.9740604162216187
,creamy,0.9504832625389099
,cream,0.9467940330505371
,vegetable,0.9453816413879395
,ingredients,0.9437366127967834
,wood,0.9435067176818848
,still life,0.9416919946670532
,knife,0.9387183785438538
,healthy,0.9382943511009216
,nutrition,0.9370015859603882
,spoon,0.931537389755249
,breakfast,0.927763044834137
,meal,0.9269587397575378
,delicious,0.9264832735061646
,cheese,0.9253627061843872
https://scontent.cdninstagram.com/t51.2885-15/e35/13380857_564717583711080_481169325_n.jpg,indoors,0.9774918556213379
,room,0.9773487448692322
,hospital,0.9653988480567932
,inside,0.9634052515029907
,surgery,0.9524021148681641
,clinic,0.9436239004135132
,medicine,0.9403824210166931
,chair,0.9353931546211243
,furniture,0.9349257946014404
,table,0.924628496170044
,medical,0.9155040383338928
,healthcare,0.9152354598045349
,hygiene,0.9030783176422119
,technology,0.9001227617263794
,desk,0.8978760242462158
,office,0.8898894786834717
,lamp,0.8720611333847046
,people,0.8701652884483337
,patient,0.8677797913551331
,seat,0.8567479848861694
https://scontent.cdninstagram.com/t51.2885-15/e35/13298020_1764710357098183_1198254352_n.jpg,no person,0.9975429177284241
,food,0.9968705773353577
,dinner,0.9898730516433716
,bowl,0.9879333972930908
,soup,0.9820116758346558
,rice,0.9811323881149292
,lunch,0.9800740480422974
,vegetable,0.9759962558746338
,grow,0.9757218956947327
,chili,0.9675467014312744
,delicious,0.9672268033027649
,dish,0.9564008712768555
,meat,0.9540643692016602
,traditional,0.9530377388000488
,parsley,0.9508816599845886
,cooking,0.9495636224746704
,hot,0.9475480318069458
,mouth-watering,0.940529465675354
,garlic,0.9301652908325195
,homemade,0.9300072193145752
https://scontent.cdninstagram.com/t51.2885-15/s750x750/sh0.08/e35/13118089_482259931983773_772106637_n.jpg,illustration,0.9876055717468262
,card,0.9734718799591064
,sphere,0.9627307653427124
,vector,0.9553404450416565
,abstract,0.9495609402656555
,ball,0.9492863416671753
,decoration,0.9238232374191284
,design,0.8997918367385864
,symbol,0.8960422873497009
,internet,0.8950399160385132
,winter,0.8925981521606445
,banner,0.8702958822250366
,business,0.8688904047012329
,shining,0.864633321762085
,presentation,0.8625646233558655
,data,0.8574997186660767
,desktop,0.8560507297515869
,ball-shaped,0.8478412628173828
,spherical,0.8388952612876892
,vector,0.8380500078201294
https://scontent.cdninstagram.com/t51.2885-15/sh0.08/e35/p750x750/13151255_1744492575833426_1424721236_n.jpg,food,0.9950437545776367
,no person,0.9890439510345459
,sweet,0.9334955215454102
,delicious,0.9289817810058594
,fruit,0.9144498705863953
,plate,0.8846200704574585
,dish,0.8842211365699768
,fish,0.8838890790939331
,sugar,0.877783477306366
,grow,0.8760330677032471
,meal,0.8740066885948181
,cooking,0.8692813515663147
,refreshment,0.8441641926765442
,dinner,0.8320279121398926
,restaurant,0.8316043019294739
,seafood,0.828118085861206
,bowl,0.8199968338012695
,vegetable,0.8134555816650391
,still life,0.8099187016487122
,traditional,0.8037307262420654
