url,class,score
https://scontent-sit4-1.cdninstagram.com/t51.2885-15/s750x750/sh0.08/e35/13473372_962108493908166_8258241_n.jpg,woman,0.9900565147399902
,people,0.9719713926315308
,man,0.9716845750808716
,portrait,0.9654703140258789
,adult,0.9624838829040527
,indoors,0.946404218673706
,business,0.9420374631881714
,togetherness,0.9164437055587769
,wear,0.8911198377609253
,looking,0.8756369352340698
,teamwork,0.8666936159133911
,group,0.858589768409729
,happiness,0.853675127029419
,girl,0.8398139476776123
,eyeglasses,0.8336136937141418
,facial expression,0.8331834077835083
,office,0.8197273015975952
,two,0.8050529360771179
,confidence,0.8031378984451294
,education,0.8011207580566406
https://scontent-sit4-1.cdninstagram.com/t51.2885-15/s750x750/sh0.08/e35/13534539_1632567940393507_217499359_n.jpg,man,0.9912903904914856
,adult,0.9887107610702515
,portrait,0.987464189529419
,people,0.9872715473175049
,wear,0.9783369898796082
,business,0.9689024686813354
,facial expression,0.9510989189147949
,two,0.944463312625885
,outfit,0.9264082908630371
,indoors,0.9168531894683838
,one,0.8891580700874329
,movie,0.8840684294700623
,looking,0.8570036292076111
,happiness,0.8496052026748657
,eyewear,0.8461143374443054
,confidence,0.8407871723175049
,actor,0.8393051624298096
,leader,0.8274464011192322
,woman,0.8229891657829285
,ceremony,0.8081140518188477
https://scontent-sit4-1.cdninstagram.com/t51.2885-15/s750x750/sh0.08/e35/13627938_1129067977114636_1185513256_n.jpg,woman,0.9819083213806152
,people,0.9716962575912476
,togetherness,0.9676862955093384
,portrait,0.9666266441345215
,happiness,0.9638183116912842
,outdoors,0.9632826447486877
,adult,0.9544006586074829
,horizontal,0.9455668926239014
,indoors,0.9254133701324463
,looking,0.9094817638397217
,enjoyment,0.9054767489433289
,cheerful,0.894330620765686
,man,0.8837186098098755
,confidence,0.8592370748519897
,wear,0.8583755493164062
,child,0.8485641479492188
,facial expression,0.8482226133346558
,love,0.8436077237129211
,friendship,0.8416507244110107
,relaxation,0.8340871334075928
https://scontent-sit4-1.cdninstagram.com/t51.2885-15/s750x750/sh0.08/e35/13649179_1136880713019799_1063303397_n.jpg,car,0.999849796295166
,transportation system,0.9995670318603516
,road,0.9985169768333435
,highway,0.9983491897583008
,vehicle,0.9981324672698975
,hurry,0.9975959062576294
,drive,0.9966217875480652
,asphalt,0.9929215908050537
,traffic,0.9929181933403015
,travel,0.9897537231445312
,fast,0.9889011383056641
,expressway,0.9799959659576416
,truck,0.974044919013977
,travel,0.9676841497421265
,blur,0.9673053026199341
,action,0.9650501608848572
,street,0.9496204853057861
,race,0.9389872550964355
,speed,0.9061928987503052
,outdoors,0.8981444835662842
https://scontent-sit4-1.cdninstagram.com/t51.2885-15/e35/13266651_1023436987746960_1972704491_n.jpg,woman,0.9829866886138916
,child,0.9796309471130371
,togetherness,0.9765475392341614
,people,0.9709863066673279
,portrait,0.9581152200698853
,adolescent,0.9355069994926453
,friendship,0.9242608547210693
,two,0.924213171005249
,love,0.9206071496009827
,facial expression,0.9180445671081543
,fun,0.9123028516769409
,interaction,0.9121034741401672
,man,0.9120696783065796
,indoors,0.9117745161056519
,family,0.9109233617782593
,education,0.900658130645752
,enjoyment,0.895966649055481
,joy,0.8945435285568237
,school,0.8861932158470154
,student,0.8595975041389465
https://scontent-sit4-1.cdninstagram.com/t51.2885-15/s640x640/e15/13734300_151245581965998_1861732844_n.jpg,people,0.994391918182373
,adult,0.9893090724945068
,restaurant,0.9814547300338745
,indoors,0.9811375141143799
,table,0.9659113883972168
,furniture,0.9620258808135986
,woman,0.9590909481048584
,child,0.9584264755249023
,education,0.9538471698760986
,coffee,0.940291166305542
,man,0.931538462638855
,food,0.9264140725135803
,drink,0.9248380661010742
,room,0.9247308969497681
,sit,0.9199648499488831
,school,0.9150757789611816
,happiness,0.9045634269714355
,portrait,0.9034205675125122
,enjoyment,0.8983081579208374
,wear,0.8942000865936279
https://scontent-sit4-1.cdninstagram.com/t51.2885-15/s750x750/sh0.08/e35/13557168_261324937576660_128476273_n.jpg,people,0.968231201171875
,bridge,0.9660251140594482
,sky,0.9633454084396362
,outdoors,0.959864616394043
,expression,0.9468487501144409
,industry,0.935779333114624
,connection,0.927939772605896
,construction,0.9189784526824951
,recreation,0.9088709354400635
,travel,0.9019790887832642
,steel,0.9003394842147827
,high,0.8849883079528809
,construction worker,0.8840427398681641
,architecture,0.8759801387786865
,equipment,0.8717538714408875
,rope,0.8710386157035828
,scaffolding,0.8665549159049988
,wire,0.8640957474708557
,transportation system,0.8575544357299805
,vehicle,0.8574458360671997
https://scontent-sit4-1.cdninstagram.com/t51.2885-15/e35/13712504_1734928686780355_2041350508_n.jpg,wear,0.9956353306770325
,fashion,0.9934567213058472
,shopping,0.9731796979904175
,dress,0.9678773880004883
,leather,0.9601571559906006
,bag,0.9521903991699219
,no person,0.9340113401412964
,accessory,0.9239476919174194
,shop,0.9112850427627563
,handle,0.8964071869850159
,purse,0.8877807855606079
,style,0.8876227140426636
,color,0.8830217719078064
,apparel,0.8731473684310913
,elegant,0.8483593463897705
,design,0.8443264961242676
,desktop,0.8442423939704895
,garment,0.8409315347671509
,fashionable,0.8406927585601807
,isolated,0.8378926515579224
https://scontent-sit4-1.cdninstagram.com/t51.2885-15/e35/13702959_1213002935400475_1116358198_n.jpg,people,0.9906290769577026
,portrait,0.9888389110565186
,adult,0.9790457487106323
,one,0.977997899055481
,girl,0.9705367088317871
,man,0.954277515411377
,landscape,0.9318442344665527
,profile,0.920595645904541
,outdoors,0.9135878086090088
,woman,0.9130200743675232
,face,0.9026594161987305
,side view,0.8933253288269043
,park,0.885669469833374
,model,0.8759745955467224
,light,0.8734303712844849
,boy,0.8698093891143799
,music,0.8651070594787598
,nature,0.8586907982826233
,backlit,0.8394371271133423
,summer,0.8114724159240723
https://scontent-sit4-1.cdninstagram.com/t51.2885-15/e35/13549471_802268596577019_1108805533_n.jpg,people,0.985346794128418
,indoors,0.9608320593833923
,adult,0.9475357532501221
,business,0.9470226764678955
,administration,0.940531313419342
,religion,0.9396796822547913
,horizontal,0.9245712757110596
,light,0.9232571125030518
,vertical,0.9196919202804565
,performance,0.918384313583374
,offense,0.9159959554672241
,spirituality,0.9044959545135498
,landscape,0.9030479788780212
,portrait,0.9002490043640137
,festival,0.8947604298591614
,election,0.8828458786010742
,no person,0.8726902008056641
,city,0.8701133728027344
,one,0.8698476552963257
,war,0.8691647052764893
https://scontent-sit4-1.cdninstagram.com/t51.2885-15/s750x750/sh0.08/e35/13573506_596381123867028_1916637664_n.jpg,woman,0.990048348903656
,portrait,0.972317099571228
,indoors,0.958461582660675
,eyeglasses,0.957573413848877
,people,0.9503061771392822
,healthcare,0.9182857275009155
,one,0.9155608415603638
,looking,0.8892619609832764
,girl,0.886722207069397
,adult,0.879431962966919
,hospital,0.8568964004516602
,medicine,0.8337228298187256
,pretty,0.8334108591079712
,laboratory,0.8293682932853699
,service,0.8237593173980713
,professional,0.8221591711044312
,diagnosis,0.80852872133255
,science,0.8030474185943604
,man,0.8030103445053101
,research,0.7913889288902283
https://scontent-sit4-1.cdninstagram.com/t51.2885-15/e35/13549554_270984949925030_761101709_n.jpg,group,0.9934568405151367
,healthcare,0.9924906492233276
,woman,0.9902271032333374
,uniform,0.9900672435760498
,nurse,0.9842151403427124
,hospital,0.9819979667663574
,adult,0.9815562963485718
,people,0.9771320819854736
,wear,0.9761728048324585
,medical practitioner,0.9732873439788818
,medicine,0.9722293615341187
,doctor,0.9696227312088013
,man,0.9687302708625793
,facial expression,0.930024266242981
,outerwear,0.9192572832107544
,indoors,0.9100780487060547
,teamwork,0.9057509899139404
,group,0.899569571018219
,confidence,0.8875154256820679
,employee,0.8872202634811401
https://scontent-sit4-1.cdninstagram.com/t51.2885-15/e35/13277719_1545689325726391_1763727166_n.jpg,woman,0.9820148348808289
,people,0.9621254205703735
,man,0.9609470367431641
,togetherness,0.9512885212898254
,education,0.9497470855712891
,indoors,0.9323851466178894
,two,0.9316108226776123
,family,0.9166191816329956
,looking,0.8976115584373474
,adolescent,0.8773388862609863
,portrait,0.875745415687561
,adult,0.8663595914840698
,child,0.8576209545135498
,fun,0.8405980467796326
,school,0.8388901948928833
,enjoyment,0.8348066210746765
,love,0.8327333331108093
,finance,0.8321201205253601
,business,0.8269838690757751
,friendship,0.8167259097099304
https://scontent-sit4-1.cdninstagram.com/t51.2885-15/s750x750/sh0.08/e35/13561968_1136086786412776_157598918_n.jpg,man,0.9858230352401733
,togetherness,0.980078399181366
,indoors,0.9761104583740234
,adult,0.9694321155548096
,woman,0.9683567881584167
,people,0.9678239822387695
,two,0.96119225025177
,love,0.9568159580230713
,wear,0.942406415939331
,facial expression,0.9300532341003418
,room,0.9243724942207336
,portrait,0.9166660308837891
,family,0.9136495590209961
,happiness,0.9126906394958496
,interaction,0.8910439610481262
,group,0.8728873133659363
,business,0.8721837401390076
,affection,0.870582103729248
,recreation,0.8687927722930908
,movie,0.8618732690811157
https://scontent-sit4-1.cdninstagram.com/t51.2885-15/e35/13531836_306033913062207_1417444642_n.jpg,underwater,0.9956974983215332
,no person,0.9929006099700928
,people,0.9754177331924438
,invertebrate,0.9719194173812866
,side view,0.9706238508224487
,water,0.9688827991485596
,water sports,0.9654724597930908
,one,0.9611057639122009
,daylight,0.9577138423919678
,wear,0.9543546438217163
,outdoors,0.9461667537689209
,exploration,0.9355411529541016
,swimming,0.9203464984893799
,wildlife,0.9110077619552612
,fish,0.8960063457489014
,adult,0.8939920663833618
,painting,0.8917340040206909
,sea,0.8907109498977661
,travel,0.8890244960784912
,ocean,0.884057879447937
https://scontent-sit4-1.cdninstagram.com/t51.2885-15/s750x750/sh0.08/e35/13534569_1176215472435135_630255577_n.jpg,car,0.9998379945755005
,vehicle,0.9993055462837219
,woman,0.9917916655540466
,transportation system,0.9853519201278687
,people,0.9797643423080444
,driver,0.9730829000473022
,steering wheel,0.9678959846496582
,convertible,0.9668293595314026
,two,0.9634296894073486
,indoors,0.9599206447601318
,travel,0.9558794498443604
,man,0.9531705975532532
,enjoyment,0.9522148966789246
,limousine,0.9503421783447266
,rave,0.9471495151519775
,fun,0.9402782320976257
,guidance,0.9361492395401001
,adult,0.9359314441680908
,three,0.9297604560852051
,outdoors,0.9200701713562012
https://scontent-sit4-1.cdninstagram.com/t51.2885-15/e35/13556984_218923305173327_1347114158_n.jpg,wear,0.984370231628418
,one,0.9709829092025757
,woman,0.9628568887710571
,portrait,0.9585170745849609
,outdoors,0.9575119614601135
,people,0.9459229707717896
,fashion,0.9427053332328796
,child,0.9066356420516968
,recreation,0.8753169775009155
,facial expression,0.8736294507980347
,summer,0.8685160875320435
,outerwear,0.8620401620864868
,family,0.8530709743499756
,school,0.8230027556419373
,education,0.8188501596450806
,adult,0.812731146812439
,looking,0.8061209321022034
,man,0.7939574718475342
,vertical,0.7931483387947083
,fashionable,0.7657443284988403
https://scontent-sit4-1.cdninstagram.com/t51.2885-15/e35/13584248_258507981196978_621932283_n.jpg,group,0.9979597926139832
,people,0.9912410974502563
,adult,0.9862541556358337
,woman,0.9850759506225586
,man,0.9708017706871033
,group,0.9649144411087036
,education,0.9609084129333496
,meeting,0.9552626609802246
,room,0.9276913404464722
,child,0.9153900146484375
,school,0.9118098020553589
,recreation,0.8938870429992676
,wear,0.8931074142456055
,four,0.8919867277145386
,five,0.8891605138778687
,portrait,0.886345386505127
,battle,0.8765528202056885
,league,0.8746337890625
,offense,0.8694149255752563
,musician,0.8635396361351013
https://scontent-sit4-1.cdninstagram.com/t51.2885-15/e35/13561622_243416742711811_1583726420_n.jpg,car,0.9979569911956787
,vehicle,0.9968597888946533
,people,0.9909451007843018
,woman,0.9825034737586975
,transportation system,0.9805220365524292
,adult,0.9770499467849731
,two,0.9692161083221436
,convertible,0.9654824733734131
,one,0.9570682644844055
,man,0.9220945835113525
,driver,0.9129065871238708
,portrait,0.9043242335319519
,retro,0.8802895545959473
,group,0.8580729961395264
,facial expression,0.8398643136024475
,wear,0.8368306756019592
,three,0.818464994430542
,monochrome,0.8110113143920898
,limousine,0.7911204099655151
,administration,0.7840654850006104
https://scontent-sit4-1.cdninstagram.com/t51.2885-15/e15/13394924_1020886761341188_1658525684_n.jpg,nature,0.9937649965286255
,underwater,0.9922158718109131
,water,0.9825882315635681
,coral,0.9706962704658508
,fish,0.966838002204895
,outdoors,0.9575403332710266
,tropical,0.9458756446838379
,fair weather,0.9436774253845215
,no person,0.9415956735610962
,travel,0.941017746925354
,deep,0.9289160966873169
,exploration,0.9257757663726807
,wildlife,0.9203029274940491
,reef,0.9158552885055542
,sun,0.9109330773353577
,submarine,0.8783032894134521
,adventure,0.8775280714035034
,sea,0.8774271607398987
,sky,0.8555257320404053
,diving,0.8532768487930298
https://scontent-sit4-1.cdninstagram.com/t51.2885-15/e35/13556983_495597020639206_2048941251_n.jpg,food,0.9890214204788208
,Christmas,0.9705602526664734
,cake,0.9607744216918945
,celebration,0.9587750434875488
,sweet,0.95830237865448
,party,0.9571212530136108
,delicious,0.952392578125
,traditional,0.9453511238098145
,candy,0.944961428642273
,chocolate,0.9388806819915771
,decoration,0.9377973079681396
,cookie,0.9268990159034729
,sugar,0.9180954098701477
,desktop,0.9170486927032471
,plate,0.9036424160003662
,tasty,0.8974766135215759
,refreshment,0.8941700458526611
,cheese,0.8933567404747009
,cream,0.8929104208946228
,collection,0.8892799615859985
https://scontent-sit4-1.cdninstagram.com/t51.2885-15/s750x750/sh0.08/e35/13534116_156698914742959_181849543_n.jpg,facial expression,0.9964704513549805
,group,0.9956510066986084
,daylight,0.9911099672317505
,people,0.988575279712677
,woman,0.9870184063911438
,interaction,0.9853473901748657
,adult,0.982263445854187
,happiness,0.977628231048584
,portrait,0.9699544906616211
,togetherness,0.9679350852966309
,group,0.9677157402038574
,man,0.9656599164009094
,friendship,0.9633359909057617
,enjoyment,0.9632787704467773
,three,0.9590966701507568
,four,0.9494120478630066
,offspring,0.9243930578231812
,child,0.9102964401245117
,adolescent,0.9034075736999512
,family,0.8969460725784302
https://scontent-sit4-1.cdninstagram.com/t51.2885-15/sh0.08/e35/p750x750/13532072_1047306548669066_1318573750_n.jpg,people,0.9844622611999512
,woman,0.9828335642814636
,portrait,0.9820417761802673
,togetherness,0.9790679216384888
,man,0.9726672768592834
,two,0.966789960861206
,love,0.961570143699646
,family,0.9556056261062622
,affection,0.9425702095031738
,facial expression,0.9424333572387695
,fun,0.9345219135284424
,happiness,0.9290443658828735
,adult,0.9269566535949707
,laughing,0.9181264638900757
,child,0.9121178388595581
,embrace,0.9064972400665283
,wear,0.9011661410331726
,eyeglasses,0.8991497159004211
,enjoyment,0.8929851055145264
,indoors,0.8823692798614502
https://scontent-sit4-1.cdninstagram.com/t51.2885-15/e35/13398545_1089445737783693_183323044_n.jpg,people,0.9957914352416992
,portrait,0.9957423210144043
,one,0.9944712519645691
,adult,0.9850225448608398
,woman,0.9821325540542603
,wear,0.9756050109863281
,outdoors,0.9319632053375244
,facial expression,0.9296025037765503
,vehicle,0.9097925424575806
,music,0.8893802762031555
,travel,0.8647407293319702
,eyewear,0.8629826307296753
,girl,0.8551374077796936
,movie,0.8313976526260376
,adolescent,0.8299952745437622
,transportation system,0.82940673828125
,recreation,0.8144456744194031
,car,0.8045099973678589
,retro,0.8002204298973083
,musician,0.7903168201446533
https://scontent-sit4-1.cdninstagram.com/t51.2885-15/e35/13551749_952149338227874_698599139_n.jpg,food,0.9927533864974976
,ravioli,0.9868184328079224
,dinner,0.9864331483840942
,delicious,0.9811866283416748
,pasta,0.9703648686408997
,cooking,0.9682556390762329
,no person,0.9656587839126587
,dumpling,0.9610350131988525
,lunch,0.9609542489051819
,tortellini,0.9553034901618958
,nutrition,0.9451769590377808
,dish,0.9378299713134766
,cuisine,0.9368234872817993
,boiling,0.9290956854820251
,traditional,0.9241877198219299
,homemade,0.9099255204200745
,health,0.9076140522956848
,meal,0.8988061547279358
,still life,0.8910383582115173
,bowl,0.8900185227394104
https://scontent-sit4-1.cdninstagram.com/t51.2885-15/e35/13744127_276333856071699_921253028_n.jpg,woman,0.9783042669296265
,people,0.9594854116439819
,adult,0.9352181553840637
,man,0.9171741604804993
,indoors,0.9023870229721069
,group,0.8973067998886108
,teacher,0.8953449130058289
,healthcare,0.894386887550354
,battle,0.8816674947738647
,recreation,0.881024956703186
,offense,0.8748501539230347
,education,0.8620320558547974
,wear,0.8614614009857178
,festival,0.8491066694259644
,enjoyment,0.8423040509223938
,sitting,0.8410332202911377
,portrait,0.8063181638717651
,rally,0.8043621778488159
,music,0.7982807159423828
,police,0.7904451489448547
https://scontent-sit4-1.cdninstagram.com/t51.2885-15/s750x750/sh0.08/e35/13584165_1040931819295973_1576059983_n.jpg,woman,0.9941877722740173
,people,0.986794650554657
,fashion,0.9824214577674866
,recreation,0.9653255939483643
,adult,0.9621371030807495
,portrait,0.9525734186172485
,fun,0.9495377540588379
,young,0.9469184875488281
,nightlife,0.9394153356552124
,pretty,0.9331146478652954
,leisure,0.9307754039764404
,party,0.9276199340820312
,friendship,0.9198698401451111
,girl,0.9142498970031738
,music,0.9129245281219482
,enjoyment,0.9052027463912964
,club,0.8952668905258179
,business,0.8923854827880859
,club,0.8902225494384766
,trendy,0.8824305534362793
https://scontent-sit4-1.cdninstagram.com/t51.2885-15/e35/13437331_263043537404317_1724058054_n.jpg,people,0.991793155670166
,adult,0.9912973642349243
,woman,0.9890419244766235
,facial expression,0.9825949668884277
,water,0.9817006587982178
,girl,0.978484570980072
,portrait,0.975095272064209
,one,0.9693760871887207
,happiness,0.9582036733627319
,swimming,0.9573588371276855
,wear,0.9425232410430908
,leisure,0.9411033391952515
,brunette,0.9385794997215271
,enjoyment,0.9298934936523438
,lifestyle,0.9216603636741638
,room,0.9157108068466187
,recreation,0.913957953453064
,outdoors,0.9058986902236938
,daylight,0.8903051614761353
,pool,0.8877267837524414
https://scontent-sit4-1.cdninstagram.com/t51.2885-15/e35/13260885_1795882843972995_1403948729_n.jpg,man,0.95896315574646
,competition,0.9499200582504272
,people,0.9393408298492432
,woman,0.9140464067459106
,adult,0.8954026699066162
,soccer,0.8754090070724487
,education,0.8730916976928711
,outdoors,0.8609675168991089
,enjoyment,0.8587107062339783
,recreation,0.8373597860336304
,fun,0.8207470178604126
,wear,0.8190138339996338
,technology,0.8079376220703125
,interaction,0.8049413561820984
,portrait,0.8006031513214111
,connection,0.791140079498291
,togetherness,0.7910422086715698
,child,0.7879674434661865
,family,0.7666834592819214
,internet,0.7574834227561951
https://scontent-sit4-1.cdninstagram.com/t51.2885-15/s750x750/sh0.08/e35/13628087_995011313953058_766031907_n.jpg,bowl,0.991723895072937
,food,0.9912211894989014
,dinner,0.9849411845207214
,lunch,0.982896089553833
,soup,0.9738562107086182
,meal,0.9676439166069031
,cooking,0.9613968133926392
,chicken,0.9500588774681091
,plate,0.9437130689620972
,vegetable,0.9400461316108704
,horizontal,0.932401180267334
,vertical,0.9250171184539795
,delicious,0.9203643798828125
,meat,0.9115110635757446
,spoon,0.8960385918617249
,pork,0.8863801956176758
,chili,0.8849962949752808
,dining,0.8748681545257568
,dishware,0.8701290488243103
,no person,0.8649097084999084
https://scontent-sit4-1.cdninstagram.com/t51.2885-15/e35/13355662_249538612094234_1970673353_n.jpg,people,0.9907934665679932
,woman,0.9786254167556763
,adult,0.9736423492431641
,portrait,0.9621775150299072
,group,0.9534244537353516
,child,0.95009446144104
,girl,0.9439698457717896
,wear,0.9245843887329102
,healthcare,0.9186316132545471
,man,0.9089796543121338
,education,0.9053318500518799
,family,0.905158519744873
,festival,0.8839985132217407
,school,0.8763298988342285
,stock,0.8669759035110474
,happiness,0.8566596508026123
,commerce,0.8371781706809998
,two,0.8351703882217407
,pride,0.8147011995315552
,industry,0.7725305557250977
https://scontent-sit4-1.cdninstagram.com/t51.2885-15/e35/13712210_1062438417139335_325369755_n.jpg,sunglasses,0.9979180097579956
,portrait,0.9961839914321899
,fashion,0.9901342988014221
,one,0.9897516965866089
,girl,0.9894200563430786
,face,0.9852287769317627
,people,0.9820829629898071
,woman,0.9803891181945801
,adult,0.976524829864502
,eyewear,0.9745162725448608
,model,0.9661815166473389
,glamour,0.9478451609611511
,eye,0.9353756904602051
,fashionable,0.9320646524429321
,beautiful,0.9268444776535034
,young,0.917150616645813
,lips,0.9093633890151978
,hair,0.9057986736297607
,hairdo,0.9036344289779663
,look,0.9019440412521362
https://scontent-sit4-1.cdninstagram.com/t51.2885-15/s750x750/sh0.08/e35/13557092_1823550237864606_328189388_n.jpg,park,0.988030195236206
,outdoors,0.9803378582000732
,motion,0.9558557271957397
,recreation,0.9494396448135376
,people,0.9484131336212158
,nature,0.9382317066192627
,active,0.9357215762138367
,water,0.9353220462799072
,leisure,0.9306173920631409
,child,0.9259875416755676
,summer,0.9109364748001099
,sport,0.8894296884536743
,lifestyle,0.8867603540420532
,travel,0.8847841024398804
,one,0.8845667243003845
,spring,0.8745630979537964
,girl,0.874001145362854
,fun,0.8602707386016846
,tree,0.8476388454437256
,landscape,0.8426129817962646
https://scontent-sit4-1.cdninstagram.com/t51.2885-15/e35/13259128_126122787804307_308622618_n.jpg,portrait,0.9841619729995728
,young,0.9724783897399902
,people,0.9723536968231201
,one,0.9531294107437134
,adult,0.9484465718269348
,face,0.9341360330581665
,cute,0.9306341409683228
,eyeglasses,0.9301424622535706
,looking,0.9276905059814453
,person,0.9272575974464417
,serious,0.9126096963882446
,business,0.9078903794288635
,man,0.9074187874794006
,desktop,0.9060101509094238
,fashion,0.9054359197616577
,isolated,0.9019805192947388
,casual,0.8976593017578125
,youth,0.8912372589111328
,child,0.8867107033729553
,attractive,0.8856189846992493
https://scontent-sit4-1.cdninstagram.com/t51.2885-15/e35/13320094_657747031040801_1194996703_n.jpg,no person,0.9777466654777527
,card,0.9442750811576843
,paper,0.9015244841575623
,luck,0.8627051115036011
,gambling,0.8472718000411987
,business,0.8399240970611572
,vacation,0.8280469179153442
,poker,0.8210905194282532
,retro,0.8090126514434814
,illustration,0.7909399271011353
,money,0.7900388836860657
,travel,0.7766046524047852
,chance,0.7727725505828857
,desktop,0.7715861797332764
,leisure,0.7583937644958496
,wealth,0.7576659917831421
,design,0.7467530965805054
,color,0.7392499446868896
,plastic,0.7323541641235352
,soccer,0.7289714813232422
https://scontent-sit4-1.cdninstagram.com/t51.2885-15/e35/13584099_259368644438984_2020256082_n.jpg,people,0.9940042495727539
,portrait,0.9939213991165161
,adult,0.9916080236434937
,wear,0.9913736581802368
,facial expression,0.9900660514831543
,two,0.9773674607276917
,man,0.9768016338348389
,woman,0.9434852004051208
,child,0.9398674964904785
,happiness,0.9348015785217285
,interaction,0.9275371432304382
,indoors,0.8968765735626221
,boy,0.8884284496307373
,togetherness,0.8839303851127625
,actor,0.8803054690361023
,one,0.8765262365341187
,confidence,0.8610734939575195
,outfit,0.8601044416427612
,affection,0.8578870892524719
,movie,0.8560491800308228
https://scontent-sit4-1.cdninstagram.com/t51.2885-15/e35/13597704_147335752337447_677989332_n.jpg,nightlife,0.9690091013908386
,bar,0.9677256941795349
,man,0.9643415212631226
,people,0.9602000713348389
,restaurant,0.9548897743225098
,adult,0.9155340194702148
,club,0.9002259969711304
,table,0.8940790891647339
,party,0.8721699714660645
,woman,0.8683578968048096
,horizontal,0.8549995422363281
,pub,0.8542048931121826
,fun,0.853239893913269
,indoors,0.8516289591789246
,display,0.8342516422271729
,audience,0.8099757432937622
,flag,0.8093857765197754
,light,0.8029369115829468
,communication,0.8024319410324097
,music,0.80134117603302
https://scontent-sit4-1.cdninstagram.com/t51.2885-15/sh0.08/e35/p750x750/13556946_207874309612858_1756127666_n.jpg,man,0.9802199602127075
,outdoors,0.9800997972488403
,portrait,0.9793176054954529
,two,0.9764237999916077
,people,0.9736063480377197
,child,0.97262042760849
,togetherness,0.9706107378005981
,woman,0.9705318212509155
,park,0.9664813876152039
,girl,0.9493981599807739
,happiness,0.9474712014198303
,adult,0.9454299807548523
,love,0.9433234930038452
,facial expression,0.9420394897460938
,friendship,0.9388474822044373
,adolescent,0.9353704452514648
,lifestyle,0.9266263246536255
,recreation,0.9262358546257019
,affection,0.9254313707351685
,daylight,0.9176368713378906
https://scontent-sit4-1.cdninstagram.com/t51.2885-15/e35/13584039_560923344088270_2083613675_n.jpg,adult,0.9876189231872559
,portrait,0.9868797063827515
,people,0.9842357635498047
,wear,0.98051518201828
,facial expression,0.9736167788505554
,man,0.9708397388458252
,brunette,0.9372440576553345
,woman,0.9306089282035828
,movie,0.9227513670921326
,business,0.9211856126785278
,festival,0.9074082374572754
,two,0.9021307229995728
,room,0.8919356465339661
,one,0.8840912580490112
,indoors,0.8718023300170898
,actor,0.8437027931213379
,sweater,0.834736704826355
,happiness,0.8210573196411133
,youth,0.8197938203811646
,fashion,0.8155535459518433
https://scontent-sit4-1.cdninstagram.com/t51.2885-15/e35/13423624_1204260059605695_1333881862_n.jpg,business,0.9046779870986938
,paper,0.8889848589897156
,people,0.8590799570083618
,money,0.8351341485977173
,healthcare,0.777619481086731
,woman,0.758344292640686
,health,0.7569265961647034
,success,0.754593014717102
,balance,0.7466237545013428
,commerce,0.7424130439758301
,environment,0.7283058166503906
,sign,0.7270439267158508
,finance,0.7114181518554688
,text,0.7058258056640625
,industry,0.6953482627868652
,number,0.6879750490188599
,education,0.6788877248764038
,loss,0.670023500919342
,symbol,0.6378187537193298
,no person,0.6360799670219421
https://scontent-sit4-1.cdninstagram.com/t51.2885-15/e35/13549496_255164341525385_192624023_n.jpg,people,0.9891493320465088
,party,0.9837363958358765
,food,0.9776449799537659
,woman,0.9733873009681702
,adult,0.9691458940505981
,group,0.9652739763259888
,celebration,0.9595063924789429
,restaurant,0.9560688734054565
,chocolate,0.9550016522407532
,drink,0.9540396928787231
,man,0.9531866312026978
,portrait,0.9449397325515747
,enjoyment,0.9433914422988892
,bar,0.9402405023574829
,candy,0.9310488104820251
,indoors,0.9257060289382935
,cake,0.9195260405540466
,child,0.9148387908935547
,delicious,0.8849697113037109
,happiness,0.8841769695281982
https://scontent-sit4-1.cdninstagram.com/t51.2885-15/e35/13385919_181120608957950_470811726_n.jpg,food,0.9871464967727661
,no person,0.9583214521408081
,plate,0.9533464908599854
,table,0.9511685371398926
,delicious,0.9258064031600952
,dinner,0.9225108623504639
,meal,0.9219505786895752
,lunch,0.9217277765274048
,restaurant,0.9189472794532776
,drink,0.9187955856323242
,traditional,0.9124393463134766
,glass,0.9019170999526978
,indoors,0.8929650783538818
,hot,0.8920313119888306
,refreshment,0.8902679681777954
,cooking,0.8807237148284912
,breakfast,0.8788613677024841
,egg,0.8599417209625244
,vegetable,0.8588736057281494
,nutrition,0.8508986234664917
https://scontent-sit4-1.cdninstagram.com/t51.2885-15/e35/13534138_1570624253233539_1904365737_n.jpg,people,0.9901812076568604
,facial expression,0.9877181053161621
,woman,0.9853929877281189
,wear,0.9747977256774902
,portrait,0.9744980335235596
,man,0.9659749865531921
,indoors,0.9647189378738403
,adult,0.9634767770767212
,two,0.9472806453704834
,daylight,0.9397108554840088
,togetherness,0.9223952293395996
,happiness,0.9194323420524597
,enjoyment,0.9120345711708069
,interaction,0.8660868406295776
,affection,0.8637157678604126
,girl,0.8480611443519592
,room,0.8392693996429443
,child,0.831978440284729
,leisure,0.8299137353897095
,outdoors,0.8294235467910767
https://scontent-sit4-1.cdninstagram.com/t51.2885-15/e35/13721269_1119401448117859_1796730874_n.jpg,food,0.9758092164993286
,woman,0.9738730192184448
,people,0.9711445569992065
,adult,0.9445366859436035
,girl,0.934482753276825
,indoors,0.924493134021759
,portrait,0.9201185703277588
,young,0.9023340940475464
,lifestyle,0.8998444080352783
,meal,0.8903428316116333
,group,0.8713618516921997
,happiness,0.8619962930679321
,smile,0.852319061756134
,lunch,0.8440552949905396
,fun,0.8408557176589966
,traditional,0.8332207202911377
,cheerful,0.8121331930160522
,table,0.8097185492515564
,person,0.8093887567520142
,collage,0.7960939407348633
https://scontent-sit4-1.cdninstagram.com/t51.2885-15/e35/13562100_935413683236270_150638569_n.jpg,woman,0.9740086793899536
,people,0.9663729667663574
,fun,0.9536635875701904
,outdoors,0.9518558979034424
,young,0.9432986974716187
,child,0.9275608658790588
,girl,0.9189454317092896
,fame,0.916718602180481
,leisure,0.9164360761642456
,event,0.9101803302764893
,recreation,0.9076213240623474
,person,0.9066673517227173
,summer,0.9048291444778442
,fashion,0.8951966762542725
,lifestyle,0.8951213359832764
,portrait,0.8838769197463989
,happiness,0.8712406158447266
,joy,0.8699766397476196
,man,0.8646807670593262
,entertainment,0.8632474541664124
https://scontent-sit4-1.cdninstagram.com/t51.2885-15/e35/13398937_513175038889658_296013796_n.jpg,food,0.9938043355941772
,no person,0.9875677824020386
,dinner,0.9838269948959351
,cooking,0.9630643129348755
,lunch,0.9584460258483887
,meal,0.9525079727172852
,traditional,0.941155195236206
,bowl,0.9396276473999023
,delicious,0.936773419380188
,meat,0.9357003569602966
,homemade,0.935394287109375
,vegetable,0.9282699227333069
,dish,0.9269775152206421
,chicken,0.9263383746147156
,plate,0.9122345447540283
,pork,0.880256175994873
,garlic,0.8801244497299194
,ready,0.8761976957321167
,tablecloth,0.8643496632575989
,beef,0.8610029220581055
https://scontent-sit4-1.cdninstagram.com/t51.2885-15/e35/13741332_612448708929749_287227815_n.jpg,woman,0.9788564443588257
,people,0.978699803352356
,restaurant,0.9748298525810242
,group,0.9575009942054749
,man,0.9568822979927063
,friendship,0.9464592933654785
,adult,0.9411667585372925
,indoors,0.9291720986366272
,coffee,0.9266266822814941
,bar,0.909926176071167
,enjoyment,0.8976359963417053
,portrait,0.8861187696456909
,drink,0.8824183940887451
,young,0.8694417476654053
,happiness,0.8633296489715576
,stock,0.8623200058937073
,togetherness,0.8587424755096436
,adolescent,0.8303530812263489
,education,0.8251060247421265
,shopping,0.8243744969367981
https://scontent-sit4-1.cdninstagram.com/t51.2885-15/e35/13437199_517288488476453_138254779_n.jpg,underwater,0.9938233494758606
,people,0.9899890422821045
,adult,0.977340817451477
,one,0.9763484001159668
,water,0.9725728034973145
,portrait,0.9701275825500488
,swimming,0.9679139852523804
,side view,0.953277587890625
,sea,0.9462463855743408
,ocean,0.9406353235244751
,recreation,0.9230580925941467
,daylight,0.9197758436203003
,fish,0.9109833240509033
,light,0.9107717275619507
,facial expression,0.8992686867713928
,water sports,0.8907290697097778
,travel,0.8832370042800903
,girl,0.8789829015731812
,school,0.8638315796852112
,exploration,0.8536542654037476
