URL,CLASS,SCORE,primary_passion_point_1,primary_passion_point_2,primary_passion_point_3,primary_passion_point_4,secondary_passion_point_1,secondary_passion_point_2,secondary_passion_point_3,secondary_passion_point_4
https://scontent.cdninstagram.com/t51.2885-15/e35/12531171_1145034885528595_1900341357_n.jpg,athlete,0.990646243,Recreation,Entertainment,,,Sports,,,
,wear,0.989077866,,,,,,,,
,people,0.988794446,,,,,,,,
,competition,0.973243833,,,,,,,,
,outfit,0.972570896,,,,,,,,
,uniform,0.967270076,,,,,,,,
,stadium,0.958705306,,,,,,,,
,adult,0.958113194,,,,,,,,
,one,0.956865788,,,,,,,,
,baseball,0.947101355,,,,,,,,
,"sports equipment",0.945507824,,,,,,,,
,football,0.932931185,,,,,,,,
,man,0.931445837,,,,,,,,
,basketball,0.918744922,,,,,,,,
,portrait,0.916965961,,,,,,,,
,recreation,0.888398468,,,,,,,,
,soccer,0.88221705,,,,,,,,
,"sports fan",0.879781246,,,,,,,,
,action,0.871954918,,,,,,,,
,music,0.83705759,,,,,,,,
https://scontent.cdninstagram.com/t51.2885-15/e35/13166635_519372244921105_464450903_n.jpg,performance,0.981672764,Relationships,"My life",,,"Best friends",Doing,,
,festival,0.976778865,,,,,,,,
,people,0.971053481,,,,,,,,
,music,0.960048914,,,,,,,,
,celebration,0.929077089,,,,,,,,
,light,0.921734214,,,,,,,,
,concert,0.909185767,,,,,,,,
,musician,0.903883994,,,,,,,,
,adult,0.900079846,,,,,,,,
,singer,0.866598189,,,,,,,,
,man,0.865923285,,,,,,,,
,club,0.859272063,,,,,,,,
,stage,0.847158313,,,,,,,,
,energy,0.784580946,,,,,,,,
,band,0.756845117,,,,,,,,
,woman,0.75099051,,,,,,,,
,group,0.747664213,,,,,,,,
,evening,0.728078961,,,,,,,,
,Christmas,0.72353828,,,,,,,,
,crowd,0.708520174,,,,,,,,
https://scontent.cdninstagram.com/t51.2885-15/e35/12934994_1609164439404677_287791927_n.jpg,street,0.985025585,"Fashion & Beauty",,,,"My look",,,
,city,0.976728976,,,,,,,,
,people,0.975888729,,,,,,,,
,urban,0.957524061,,,,,,,,
,rally,0.953457713,,,,,,,,
,travel,0.946121514,,,,,,,,
,building,0.942168295,,,,,,,,
,road,0.938788176,,,,,,,,
,architecture,0.928307652,,,,,,,,
,competition,0.920706809,,,,,,,,
,race,0.907630861,,,,,,,,
,police,0.90247345,,,,,,,,
,outdoors,0.898707747,,,,,,,,
,man,0.887996852,,,,,,,,
,landscape,0.883204937,,,,,,,,
,daylight,0.856563091,,,,,,,,
,business,0.855410814,,,,,,,,
,portrait,0.844722867,,,,,,,,
,park,0.839363456,,,,,,,,
,one,0.836555362,,,,,,,,
https://scontent.cdninstagram.com/t51.2885-15/e35/12677236_979474105474753_2075424567_n.jpg,people,0.97381109,"Fashion & Beauty","Fun Filter",,,Ootd,"Fun Filter",,
,street,0.96759665,,,,,,,,
,road,0.923532367,,,,,,,,
,business,0.917883098,,,,,,,,
,city,0.915001154,,,,,,,,
,man,0.889919281,,,,,,,,
,pavement,0.855517685,,,,,,,,
,woman,0.848633647,,,,,,,,
,police,0.832067132,,,,,,,,
,military,0.802733064,,,,,,,,
,adult,0.760381341,,,,,,,,
,building,0.713154197,,,,,,,,
,administration,0.700182021,,,,,,,,
,wear,0.694791138,,,,,,,,
,urban,0.681954443,,,,,,,,
,architecture,0.676534116,,,,,,,,
,leader,0.664762378,,,,,,,,
,outdoors,0.641357303,,,,,,,,
,offense,0.637240231,,,,,,,,
,light,0.63106066,,,,,,,,
https://scontent.cdninstagram.com/t51.2885-15/e35/12724824_115590445497740_2120089099_n.jpg,"no person",0.982026935,Undefined,,,,Undefined,,,
,illustration,0.961930752,,,,,,,,
,vector,0.959736705,,,,,,,,
,desktop,0.891494334,,,,,,,,
,woman,0.888733327,,,,,,,,
,people,0.887743294,,,,,,,,
,vertical,0.884676814,,,,,,,,
,adult,0.863611639,,,,,,,,
,sketch,0.858181894,,,,,,,,
,portrait,0.845705986,,,,,,,,
,man,0.837083936,,,,,,,,
,design,0.836487889,,,,,,,,
,eye,0.835981369,,,,,,,,
,danger,0.827148736,,,,,,,,
,fun,0.821835697,,,,,,,,
,square,0.818647087,,,,,,,,
,symbol,0.814442515,,,,,,,,
,dark,0.792047977,,,,,,,,
,Halloween,0.791891634,,,,,,,,
,pattern,0.767775297,,,,,,,,
https://scontent.cdninstagram.com/t51.2885-15/e35/12677236_979474105474753_2075424567_n.jpg,people,0.97381109,"Fashion & Beauty","Fun Filter",,,Ootd,"Fun Filter",,
,street,0.96759665,,,,,,,,
,road,0.923532367,,,,,,,,
,business,0.917883098,,,,,,,,
,city,0.915001154,,,,,,,,
,man,0.889919281,,,,,,,,
,pavement,0.855517685,,,,,,,,
,woman,0.848633647,,,,,,,,
,police,0.832067132,,,,,,,,
,military,0.802733064,,,,,,,,
,adult,0.760381341,,,,,,,,
,building,0.713154197,,,,,,,,
,administration,0.700182021,,,,,,,,
,wear,0.694791138,,,,,,,,
,urban,0.681954443,,,,,,,,
,architecture,0.676534116,,,,,,,,
,leader,0.664762378,,,,,,,,
,outdoors,0.641357303,,,,,,,,
,offense,0.637240231,,,,,,,,
,light,0.63106066,,,,,,,,
https://scontent.cdninstagram.com/t51.2885-15/e35/13525387_256907748021419_1685077235_n.jpg,car,0.999676466,,,,,,,,
,vehicle,0.999631763,,,,,,,,
,"transportation system",0.996715307,,,,,,,,
,dashboard,0.990465283,,,,,,,,
,travel,0.988289297,,,,,,,,
,driver,0.982863307,,,,,,,,
,fast,0.982039094,,,,,,,,
,"no person",0.979682505,,,,,,,,
,drive,0.974676907,,,,,,,,
,"steering wheel",0.972874403,,,,,,,,
,speed,0.971618891,,,,,,,,
,race,0.968368411,,,,,,,,
,action,0.96050024,,,,,,,,
,windshield,0.957105398,,,,,,,,
,wheel,0.956751585,,,,,,,,
,convertible,0.95305264,,,,,,,,
,hurry,0.942031085,,,,,,,,
,guidance,0.92533958,,,,,,,,
,one,0.923338354,,,,,,,,
,noon,0.920762539,,,,,,,,
https://scontent.cdninstagram.com/t51.2885-15/e35/12424948_253833034963252_776852062_n.jpg,people,0.99892807,"My life","Fashion & Beauty",,,Doing,"My look",,
,adult,0.996351898,,,,,,,,
,portrait,0.993549943,,,,,,,,
,two,0.988907635,,,,,,,,
,one,0.985418916,,,,,,,,
,man,0.979096889,,,,,,,,
,woman,0.97743094,,,,,,,,
,wear,0.973576903,,,,,,,,
,girl,0.972566962,,,,,,,,
,"facial expression",0.970787168,,,,,,,,
,monochrome,0.967872024,,,,,,,,
,wedding,0.956911325,,,,,,,,
,veil,0.949468136,,,,,,,,
,profile,0.948003292,,,,,,,,
,love,0.93591547,,,,,,,,
,art,0.930918276,,,,,,,,
,music,0.92944169,,,,,,,,
,child,0.922453463,,,,,,,,
,retro,0.917310297,,,,,,,,
,actress,0.913022876,,,,,,,,
https://scontent.cdninstagram.com/t51.2885-15/s750x750/sh0.08/e35/11925783_452603838257679_1932615757_n.jpg,people,0.992840111,,Relationships,,,,"Best friends",,
,two,0.990270138,,,,,,,,
,woman,0.982027769,,,,,,,,
,adult,0.978010654,,,,,,,,
,wear,0.970445156,,,,,,,,
,man,0.960723281,,,,,,,,
,portrait,0.959819198,,,,,,,,
,"facial expression",0.955115318,,,,,,,,
,family,0.954619825,,,,,,,,
,indoors,0.94614172,,,,,,,,
,togetherness,0.934732676,,,,,,,,
,affection,0.921912313,,,,,,,,
,love,0.919368207,,,,,,,,
,girl,0.911840379,,,,,,,,
,romance,0.895556688,,,,,,,,
,one,0.887043953,,,,,,,,
,interaction,0.88416338,,,,,,,,
,room,0.878898263,,,,,,,,
,embrace,0.87704277,,,,,,,,
,happiness,0.86820364,,,,,,,,
https://scontent.cdninstagram.com/t51.2885-15/s640x640/sh0.08/e35/12960094_259069911104512_2055162405_n.jpg,man,0.975129843,Relationships,,,,Friends,,,
,people,0.967429876,,,,,,,,
,woman,0.967119575,,,,,,,,
,sit,0.961970508,,,,,,,,
,family,0.941791177,,,,,,,,
,young,0.937721193,,,,,,,,
,portrait,0.936701179,,,,,,,,
,adult,0.927301645,,,,,,,,
,group,0.923787534,,,,,,,,
,fun,0.902412891,,,,,,,,
,friendship,0.897973955,,,,,,,,
,two,0.881111562,,,,,,,,
,three,0.868233323,,,,,,,,
,music,0.864227355,,,,,,,,
,sitting,0.863090396,,,,,,,,
,four,0.851963401,,,,,,,,
,love,0.843131542,,,,,,,,
,chair,0.841173351,,,,,,,,
,couple,0.83652091,,,,,,,,
,lifestyle,0.835242271,,,,,,,,
https://scontent.cdninstagram.com/t51.2885-15/e35/12934994_1609164439404677_287791927_n.jpg,street,0.985025585,"Fashion & Beauty",,,,"My look",,,
,city,0.976728976,,,,,,,,
,people,0.975888729,,,,,,,,
,urban,0.957524061,,,,,,,,
,rally,0.953457713,,,,,,,,
,travel,0.946121514,,,,,,,,
,building,0.942168295,,,,,,,,
,road,0.938788176,,,,,,,,
,architecture,0.928307652,,,,,,,,
,competition,0.920706809,,,,,,,,
,race,0.907630861,,,,,,,,
,police,0.90247345,,,,,,,,
,outdoors,0.898707747,,,,,,,,
,man,0.887996852,,,,,,,,
,landscape,0.883204937,,,,,,,,
,daylight,0.856563091,,,,,,,,
,business,0.855410814,,,,,,,,
,portrait,0.844722867,,,,,,,,
,park,0.839363456,,,,,,,,
,one,0.836555362,,,,,,,,
https://scontent.cdninstagram.com/t51.2885-15/e35/11374028_416583835195016_1017253835_n.jpg,business,0.978163004,"Fashion & Beauty",,,,Ootd,,,
,people,0.977744341,,,,,,,,
,adult,0.976948857,,,,,,,,
,one,0.97127986,,,,,,,,
,young,0.962692499,,,,,,,,
,sit,0.957813144,,,,,,,,
,fashion,0.952401757,,,,,,,,
,street,0.951647162,,,,,,,,
,man,0.949913383,,,,,,,,
,city,0.945469975,,,,,,,,
,outdoors,0.943720818,,,,,,,,
,urban,0.936976135,,,,,,,,
,step,0.936718762,,,,,,,,
,portrait,0.932690382,,,,,,,,
,woman,0.925505459,,,,,,,,
,lifestyle,0.924432755,,,,,,,,
,sitting,0.919269443,,,,,,,,
,wear,0.912272751,,,,,,,,
,luggage,0.889116943,,,,,,,,
,pavement,0.887643337,,,,,,,,
https://scontent.cdninstagram.com/t51.2885-15/e35/12446289_1077786265600720_984679707_n.jpg,people,0.990718007,"Fashion & Beauty",Commerce,,,"My look",Shopping,,
,adult,0.98636806,,,,,,,,
,portrait,0.977764249,,,,,,,,
,man,0.974671721,,,,,,,,
,indoors,0.958500028,,,,,,,,
,commerce,0.958313942,,,,,,,,
,business,0.956801295,,,,,,,,
,one,0.951955497,,,,,,,,
,"facial expression",0.951893151,,,,,,,,
,airport,0.950034618,,,,,,,,
,wear,0.930372119,,,,,,,,
,two,0.923359573,,,,,,,,
,woman,0.915024161,,,,,,,,
,employee,0.896184325,,,,,,,,
,room,0.893687487,,,,,,,,
,group,0.881685972,,,,,,,,
,stock,0.873656869,,,,,,,,
,vehicle,0.861095011,,,,,,,,
,outerwear,0.850945234,,,,,,,,
,telephone,0.828059137,,,,,,,,
https://scontent.cdninstagram.com/t51.2885-15/s750x750/sh0.08/e35/11849194_1485040475150779_290155074_n.jpg,group,0.998613477,Relationships,,,,Friends,,,
,group,0.991124392,,,,,,,,
,people,0.989020467,,,,,,,,
,"facial expression",0.987568021,,,,,,,,
,three,0.987528265,,,,,,,,
,four,0.985983968,,,,,,,,
,portrait,0.977641463,,,,,,,,
,interaction,0.975286961,,,,,,,,
,adult,0.973579288,,,,,,,,
,woman,0.96723491,,,,,,,,
,man,0.958946586,,,,,,,,
,five,0.949603558,,,,,,,,
,wear,0.944825888,,,,,,,,
,child,0.941120207,,,,,,,,
,togetherness,0.928471088,,,,,,,,
,happiness,0.918086767,,,,,,,,
,friendship,0.91595459,,,,,,,,
,enjoyment,0.898018658,,,,,,,,
,recreation,0.89381057,,,,,,,,
,several,0.893447042,,,,,,,,
https://scontent.cdninstagram.com/t51.2885-15/e35/11887166_913305898704621_290723836_n.jpg,beer,0.997390151,Food,Relationships,,,"Meal time","Best friends",,
,restaurant,0.995447993,,,,,,,,
,table,0.984290242,,,,,,,,
,people,0.980643511,,,,,,,,
,bar,0.97401607,,,,,,,,
,drink,0.964226007,,,,,,,,
,pub,0.963443458,,,,,,,,
,food,0.962616861,,,,,,,,
,waitress,0.962503076,,,,,,,,
,man,0.952589512,,,,,,,,
,street,0.944175959,,,,,,,,
,city,0.938168287,,,,,,,,
,group,0.935945392,,,,,,,,
,daylight,0.934919894,,,,,,,,
,festival,0.8991732,,,,,,,,
,group,0.883028746,,,,,,,,
,many,0.88245213,,,,,,,,
,diner,0.88243264,,,,,,,,
,meal,0.862703443,,,,,,,,
,outdoors,0.854764104,,,,,,,,
https://scontent.cdninstagram.com/t51.2885-15/e35/12907407_580807738767010_1669212441_n.jpg,technology,0.997890234,Entertainment,,,,Entertainment-s,,,
,computer,0.996509671,,,,,,,,
,laptop,0.994706273,,,,,,,,
,internet,0.992492437,,,,,,,,
,screen,0.975938797,,,,,,,,
,"no person",0.963905752,,,,,,,,
,business,0.95176208,,,,,,,,
,wireless,0.951279402,,,,,,,,
,keyboard,0.938107371,,,,,,,,
,monitor,0.925876319,,,,,,,,
,spherical,0.917198777,,,,,,,,
,electronics,0.913739681,,,,,,,,
,contemporary,0.90610683,,,,,,,,
,people,0.900392175,,,,,,,,
,connection,0.896565318,,,,,,,,
,display,0.871626496,,,,,,,,
,portable,0.870239437,,,,,,,,
,travel,0.86687386,,,,,,,,
,data,0.863428831,,,,,,,,
,indoors,0.859585881,,,,,,,,
https://scontent.cdninstagram.com/t51.2885-15/e35/13525387_256907748021419_1685077235_n.jpg,car,0.999676466,,,,,,,,
,vehicle,0.999631763,,,,,,,,
,"transportation system",0.996715307,,,,,,,,
,dashboard,0.990465283,,,,,,,,
,travel,0.988289297,,,,,,,,
,driver,0.982863307,,,,,,,,
,fast,0.982039094,,,,,,,,
,"no person",0.979682505,,,,,,,,
,drive,0.974676907,,,,,,,,
,"steering wheel",0.972874403,,,,,,,,
,speed,0.971618891,,,,,,,,
,race,0.968368411,,,,,,,,
,action,0.96050024,,,,,,,,
,windshield,0.957105398,,,,,,,,
,wheel,0.956751585,,,,,,,,
,convertible,0.95305264,,,,,,,,
,hurry,0.942031085,,,,,,,,
,guidance,0.92533958,,,,,,,,
,one,0.923338354,,,,,,,,
,noon,0.920762539,,,,,,,,
https://scontent.cdninstagram.com/t51.2885-15/e15/12446289_987158301333319_121968802_n.jpg,dark,0.993337512,Animals,,,,"Non Usable",,,
,blur,0.99154973,,,,,,,,
,abstract,0.967314124,,,,,,,,
,desktop,0.950775981,,,,,,,,
,design,0.918054581,,,,,,,,
,"no person",0.906644821,,,,,,,,
,art,0.87447834,,,,,,,,
,modern,0.861962318,,,,,,,,
,light,0.859139204,,,,,,,,
,illuminated,0.85899359,,,,,,,,
,decoration,0.851594746,,,,,,,,
,light,0.845634818,,,,,,,,
,line,0.845382512,,,,,,,,
,pattern,0.832874835,,,,,,,,
,indoors,0.795510828,,,,,,,,
,color,0.795188904,,,,,,,,
,focus,0.784799755,,,,,,,,
,shadow,0.761109829,,,,,,,,
,motion,0.759420753,,,,,,,,
,wallpaper,0.712842941,,,,,,,,
https://scontent.cdninstagram.com/t51.2885-15/e35/11348325_1473885549572112_909330268_n.jpg,aircraft,0.994793057,Environment,Relationships,Recreation,,"Natural beauty","Best friends",Recreation-s,
,airplane,0.989616156,,,,,,,,
,people,0.9840101,,,,,,,,
,competition,0.979804158,,,,,,,,
,vehicle,0.969912887,,,,,,,,
,landscape,0.967896104,,,,,,,,
,action,0.965072036,,,,,,,,
,festival,0.958981991,,,,,,,,
,military,0.949356914,,,,,,,,
,flag,0.940884709,,,,,,,,
,group,0.928367913,,,,,,,,
,battle,0.912412345,,,,,,,,
,war,0.910441577,,,,,,,,
,many,0.896152973,,,,,,,,
,airport,0.892654538,,,,,,,,
,city,0.887467742,,,,,,,,
,race,0.886723042,,,,,,,,
,child,0.850388885,,,,,,,,
,rally,0.847005606,,,,,,,,
,man,0.841555595,,,,,,,,
https://scontent.cdninstagram.com/t51.2885-15/e15/12917857_814110985361931_866693320_n.jpg,people,0.994208753,Relationships,"My life",Recreation,,"Best friends",Doing,Recreation-s,
,adult,0.982050478,,,,,,,,
,one,0.976706624,,,,,,,,
,woman,0.965559363,,,,,,,,
,two,0.960298657,,,,,,,,
,wear,0.957066059,,,,,,,,
,music,0.941047847,,,,,,,,
,man,0.939706564,,,,,,,,
,indoors,0.936693668,,,,,,,,
,portrait,0.932722688,,,,,,,,
,"facial expression",0.905320644,,,,,,,,
,performance,0.894079566,,,,,,,,
,recreation,0.883898199,,,,,,,,
,musician,0.882031441,,,,,,,,
,eyewear,0.846745849,,,,,,,,
,singer,0.831532359,,,,,,,,
,"side view",0.803745747,,,,,,,,
,room,0.801252723,,,,,,,,
,festival,0.797171474,,,,,,,,
,enjoyment,0.789461315,,,,,,,,
https://scontent.cdninstagram.com/t51.2885-15/e35/12142710_934315466639602_835731009_n.jpg,child,0.994601071,Cute,Entertainment,,,Cute,Entertainment-s,,
,group,0.98990798,,,,,,,,
,people,0.988438606,,,,,,,,
,girl,0.984713614,,,,,,,,
,movie,0.980075538,,,,,,,,
,woman,0.977608263,,,,,,,,
,boy,0.97690618,,,,,,,,
,portrait,0.973959208,,,,,,,,
,adult,0.963464916,,,,,,,,
,boy,0.960385919,,,,,,,,
,education,0.948609591,,,,,,,,
,man,0.942250669,,,,,,,,
,family,0.940721869,,,,,,,,
,business,0.93492949,,,,,,,,
,seat,0.93168962,,,,,,,,
,school,0.928943038,,,,,,,,
,toy,0.925981045,,,,,,,,
,class,0.920321941,,,,,,,,
,room,0.910445809,,,,,,,,
,youth,0.901851535,,,,,,,,
https://scontent.cdninstagram.com/t51.2885-15/s750x750/sh0.08/e35/11925783_452603838257679_1932615757_n.jpg,people,0.992840111,,Relationships,,,,"Best friends",,
,two,0.990270138,,,,,,,,
,woman,0.982027769,,,,,,,,
,adult,0.978010654,,,,,,,,
,wear,0.970445156,,,,,,,,
,man,0.960723281,,,,,,,,
,portrait,0.959819198,,,,,,,,
,"facial expression",0.955115318,,,,,,,,
,family,0.954619825,,,,,,,,
,indoors,0.94614172,,,,,,,,
,togetherness,0.934732676,,,,,,,,
,affection,0.921912313,,,,,,,,
,love,0.919368207,,,,,,,,
,girl,0.911840379,,,,,,,,
,romance,0.895556688,,,,,,,,
,one,0.887043953,,,,,,,,
,interaction,0.88416338,,,,,,,,
,room,0.878898263,,,,,,,,
,embrace,0.87704277,,,,,,,,
,happiness,0.86820364,,,,,,,,
https://scontent.cdninstagram.com/t51.2885-15/sh0.08/e35/p750x750/12555859_1718554458362997_1975999826_n.jpg,indoors,0.991242051,"My life",Recreation,,,Doing,Recreation-s,,
,sit,0.987309694,,,,,,,,
,sofa,0.968519807,,,,,,,,
,man,0.962796688,,,,,,,,
,sitting,0.947291076,,,,,,,,
,people,0.943094015,,,,,,,,
,relaxation,0.940347672,,,,,,,,
,adult,0.938255012,,,,,,,,
,technology,0.932611287,,,,,,,,
,family,0.906484723,,,,,,,,
,woman,0.905570745,,,,,,,,
,furniture,0.899625778,,,,,,,,
,seat,0.870863736,,,,,,,,
,vertical,0.865643442,,,,,,,,
,business,0.865103722,,,,,,,,
,looking,0.860739827,,,,,,,,
,chair,0.846664071,,,,,,,,
,enjoyment,0.843920469,,,,,,,,
,computer,0.833624005,,,,,,,,
,connection,0.824689388,,,,,,,,
https://scontent.cdninstagram.com/t51.2885-15/e15/11375958_126247651041795_1733953998_n.jpg,indoors,0.991500497,,Relationships,,,,"Best friends",,
,adult,0.977706432,,,,,,,,
,people,0.965147853,,,,,,,,
,competition,0.958531976,,,,,,,,
,election,0.951293647,,,,,,,,
,business,0.949483395,,,,,,,,
,portrait,0.942036033,,,,,,,,
,offense,0.929325104,,,,,,,,
,technology,0.908750772,,,,,,,,
,industry,0.900824904,,,,,,,,
,education,0.898572445,,,,,,,,
,room,0.895790577,,,,,,,,
,man,0.872016847,,,,,,,,
,computer,0.869352758,,,,,,,,
,document,0.85830617,,,,,,,,
,wear,0.855271995,,,,,,,,
,container,0.846683145,,,,,,,,
,"baseball cap",0.845645666,,,,,,,,
,finance,0.832386434,,,,,,,,
,warehouse,0.828309417,,,,,,,,
https://scontent.cdninstagram.com/t51.2885-15/e35/12531171_1145034885528595_1900341357_n.jpg,athlete,0.990646243,Recreation,Entertainment,,,Sports,,,
,wear,0.989077866,,,,,,,,
,people,0.988794446,,,,,,,,
,competition,0.973243833,,,,,,,,
,outfit,0.972570896,,,,,,,,
,uniform,0.967270076,,,,,,,,
,stadium,0.958705306,,,,,,,,
,adult,0.958113194,,,,,,,,
,one,0.956865788,,,,,,,,
,baseball,0.947101355,,,,,,,,
,"sports equipment",0.945507824,,,,,,,,
,football,0.932931185,,,,,,,,
,man,0.931445837,,,,,,,,
,basketball,0.918744922,,,,,,,,
,portrait,0.916965961,,,,,,,,
,recreation,0.888398468,,,,,,,,
,soccer,0.88221705,,,,,,,,
,"sports fan",0.879781246,,,,,,,,
,action,0.871954918,,,,,,,,
,music,0.83705759,,,,,,,,
https://scontent.cdninstagram.com/l/t51.2885-15/s750x750/sh0.08/e35/11378276_151605908507667_1758036370_n.jpg,wear,0.99804163,"Fashion & Beauty",,,,"My look",,,
,man,0.989454269,,,,,,,,
,fashion,0.987468004,,,,,,,,
,people,0.97274518,,,,,,,,
,tie,0.967843652,,,,,,,,
,business,0.962281346,,,,,,,,
,adult,0.953297496,,,,,,,,
,dress,0.951756656,,,,,,,,
,elegant,0.924882531,,,,,,,,
,one,0.91892767,,,,,,,,
,woman,0.908723891,,,,,,,,
,stripe,0.906843245,,,,,,,,
,"no person",0.899001956,,,,,,,,
,pants,0.893615365,,,,,,,,
,formal,0.891376853,,,,,,,,
,isolated,0.872285485,,,,,,,,
,footwear,0.871983409,,,,,,,,
,shirt,0.866757631,,,,,,,,
,indoors,0.857248187,,,,,,,,
,fashionable,0.857106924,,,,,,,,
https://scontent.cdninstagram.com/t51.2885-15/e35/13166635_519372244921105_464450903_n.jpg,performance,0.981672764,Relationships,"My life",,,"Best friends",Doing,,
,festival,0.976778865,,,,,,,,
,people,0.971053481,,,,,,,,
,music,0.960048914,,,,,,,,
,celebration,0.929077089,,,,,,,,
,light,0.921734214,,,,,,,,
,concert,0.909185767,,,,,,,,
,musician,0.903883994,,,,,,,,
,adult,0.900079846,,,,,,,,
,singer,0.866598189,,,,,,,,
,man,0.865923285,,,,,,,,
,club,0.859272063,,,,,,,,
,stage,0.847158313,,,,,,,,
,energy,0.784580946,,,,,,,,
,band,0.756845117,,,,,,,,
,woman,0.75099051,,,,,,,,
,group,0.747664213,,,,,,,,
,evening,0.728078961,,,,,,,,
,Christmas,0.72353828,,,,,,,,
,crowd,0.708520174,,,,,,,,
https://scontent.cdninstagram.com/t51.2885-15/e15/12446289_987158301333319_121968802_n.jpg,dark,0.993337512,Animals,,,,"Non Usable",,,
,blur,0.99154973,,,,,,,,
,abstract,0.967314124,,,,,,,,
,desktop,0.950775981,,,,,,,,
,design,0.918054581,,,,,,,,
,"no person",0.906644821,,,,,,,,
,art,0.87447834,,,,,,,,
,modern,0.861962318,,,,,,,,
,light,0.859139204,,,,,,,,
,illuminated,0.85899359,,,,,,,,
,decoration,0.851594746,,,,,,,,
,light,0.845634818,,,,,,,,
,line,0.845382512,,,,,,,,
,pattern,0.832874835,,,,,,,,
,indoors,0.795510828,,,,,,,,
,color,0.795188904,,,,,,,,
,focus,0.784799755,,,,,,,,
,shadow,0.761109829,,,,,,,,
,motion,0.759420753,,,,,,,,
,wallpaper,0.712842941,,,,,,,,
https://scontent.cdninstagram.com/t51.2885-15/e35/13392686_1731501633754489_1919689683_n.jpg,people,0.991450191,Relationships,Environment,"My life",,"Best friends","Natural beauty",Doing,
,adult,0.987396717,,,,,,,,
,man,0.981137574,,,,,,,,
,portrait,0.949767292,,,,,,,,
,two,0.948380828,,,,,,,,
,recreation,0.942514777,,,,,,,,
,group,0.940792441,,,,,,,,
,offense,0.939375758,,,,,,,,
,daylight,0.932101846,,,,,,,,
,weapon,0.916068196,,,,,,,,
,"facial expression",0.912736058,,,,,,,,
,outdoors,0.904967308,,,,,,,,
,gun,0.894840479,,,,,,,,
,battle,0.893996716,,,,,,,,
,woman,0.88796556,,,,,,,,
,wear,0.885954022,,,,,,,,
,police,0.885598898,,,,,,,,
,military,0.875018597,,,,,,,,
,sit,0.843883932,,,,,,,,
,education,0.839503765,,,,,,,,
https://scontent.cdninstagram.com/t51.2885-15/sh0.08/e35/p750x750/12555859_1718554458362997_1975999826_n.jpg,indoors,0.991242051,"My life",Recreation,,,Doing,Recreation-s,,
,sit,0.987309694,,,,,,,,
,sofa,0.968519807,,,,,,,,
,man,0.962796688,,,,,,,,
,sitting,0.947291076,,,,,,,,
,people,0.943094015,,,,,,,,
,relaxation,0.940347672,,,,,,,,
,adult,0.938255012,,,,,,,,
,technology,0.932611287,,,,,,,,
,family,0.906484723,,,,,,,,
,woman,0.905570745,,,,,,,,
,furniture,0.899625778,,,,,,,,
,seat,0.870863736,,,,,,,,
,vertical,0.865643442,,,,,,,,
,business,0.865103722,,,,,,,,
,looking,0.860739827,,,,,,,,
,chair,0.846664071,,,,,,,,
,enjoyment,0.843920469,,,,,,,,
,computer,0.833624005,,,,,,,,
,connection,0.824689388,,,,,,,,
https://scontent.cdninstagram.com/t51.2885-15/e35/12142710_934315466639602_835731009_n.jpg,child,0.994601071,Cute,Entertainment,,,Cute,Entertainment-s,,
,group,0.98990798,,,,,,,,
,people,0.988438606,,,,,,,,
,girl,0.984713614,,,,,,,,
,movie,0.980075538,,,,,,,,
,woman,0.977608263,,,,,,,,
,boy,0.97690618,,,,,,,,
,portrait,0.973959208,,,,,,,,
,adult,0.963464916,,,,,,,,
,boy,0.960385919,,,,,,,,
,education,0.948609591,,,,,,,,
,man,0.942250669,,,,,,,,
,family,0.940721869,,,,,,,,
,business,0.93492949,,,,,,,,
,seat,0.93168962,,,,,,,,
,school,0.928943038,,,,,,,,
,toy,0.925981045,,,,,,,,
,class,0.920321941,,,,,,,,
,room,0.910445809,,,,,,,,
,youth,0.901851535,,,,,,,,
https://scontent.cdninstagram.com/t51.2885-15/e15/12798171_988995804471187_1974885743_n.jpg,"no person",0.999557614,Recreation,,,,Recreation-s,,,
,recreation,0.997705042,,,,,,,,
,action,0.995888174,,,,,,,,
,outdoors,0.989655614,,,,,,,,
,leisure,0.988282323,,,,,,,,
,ball,0.987740517,,,,,,,,
,balloon,0.984155059,,,,,,,,
,blur,0.982602715,,,,,,,,
,daylight,0.981492043,,,,,,,,
,one,0.977505803,,,,,,,,
,sky,0.977472067,,,,,,,,
,travel,0.976625383,,,,,,,,
,"sports equipment",0.972006559,,,,,,,,
,light,0.969471812,,,,,,,,
,competition,0.968291998,,,,,,,,
,moon,0.964168251,,,,,,,,
,evening,0.961901426,,,,,,,,
,water,0.942452371,,,,,,,,
,people,0.939915955,,,,,,,,
,fun,0.939883709,,,,,,,,
https://scontent.cdninstagram.com/t51.2885-15/e15/12798171_988995804471187_1974885743_n.jpg,"no person",0.999557614,Recreation,,,,Recreation-s,,,
,recreation,0.997705042,,,,,,,,
,action,0.995888174,,,,,,,,
,outdoors,0.989655614,,,,,,,,
,leisure,0.988282323,,,,,,,,
,ball,0.987740517,,,,,,,,
,balloon,0.984155059,,,,,,,,
,blur,0.982602715,,,,,,,,
,daylight,0.981492043,,,,,,,,
,one,0.977505803,,,,,,,,
,sky,0.977472067,,,,,,,,
,travel,0.976625383,,,,,,,,
,"sports equipment",0.972006559,,,,,,,,
,light,0.969471812,,,,,,,,
,competition,0.968291998,,,,,,,,
,moon,0.964168251,,,,,,,,
,evening,0.961901426,,,,,,,,
,water,0.942452371,,,,,,,,
,people,0.939915955,,,,,,,,
,fun,0.939883709,,,,,,,,
https://scontent.cdninstagram.com/t51.2885-15/e15/11275389_913321718727462_2132519302_n.jpg,street,0.997171342,"Fashion & Beauty",,,,"My look",,,
,man,0.993163466,,,,,,,,
,urban,0.989912152,,,,,,,,
,fashion,0.988527179,,,,,,,,
,people,0.986525059,,,,,,,,
,step,0.975772679,,,,,,,,
,skateboard,0.967827916,,,,,,,,
,trendy,0.964343429,,,,,,,,
,portrait,0.963252068,,,,,,,,
,boy,0.959728539,,,,,,,,
,model,0.938988984,,,,,,,,
,child,0.933225155,,,,,,,,
,adult,0.930988073,,,,,,,,
,city,0.928991675,,,,,,,,
,one,0.921432614,,,,,,,,
,skate,0.91875571,,,,,,,,
,pants,0.91753161,,,,,,,,
,sneakers,0.913977861,,,,,,,,
,young,0.911054492,,,,,,,,
,girl,0.900767326,,,,,,,,
https://scontent.cdninstagram.com/t51.2885-15/e35/12328407_922353287885005_234344023_n.jpg,child,0.999845386,Celebrations,Food,Relationships,,"Personal Events",Dessert,"Baby family",
,people,0.981036961,,,,,,,,
,baby,0.980857849,,,,,,,,
,room,0.980297089,,,,,,,,
,little,0.974003315,,,,,,,,
,toddler,0.97104764,,,,,,,,
,one,0.968625784,,,,,,,,
,education,0.968594074,,,,,,,,
,indoors,0.963852048,,,,,,,,
,cute,0.963692784,,,,,,,,
,boy,0.962674379,,,,,,,,
,school,0.957021952,,,,,,,,
,boy,0.952080965,,,,,,,,
,happiness,0.943126798,,,,,,,,
,daylight,0.932426631,,,,,,,,
,innocence,0.930739999,,,,,,,,
,furniture,0.926982284,,,,,,,,
,portrait,0.9239344,,,,,,,,
,girl,0.907272339,,,,,,,,
,family,0.90049088,,,,,,,,
https://scontent.cdninstagram.com/t51.2885-15/e35/11348325_1473885549572112_909330268_n.jpg,aircraft,0.994793057,Environment,Relationships,Recreation,,"Natural beauty","Best friends",Recreation-s,
,airplane,0.989616156,,,,,,,,
,people,0.9840101,,,,,,,,
,competition,0.979804158,,,,,,,,
,vehicle,0.969912887,,,,,,,,
,landscape,0.967896104,,,,,,,,
,action,0.965072036,,,,,,,,
,festival,0.958981991,,,,,,,,
,military,0.949356914,,,,,,,,
,flag,0.940884709,,,,,,,,
,group,0.928367913,,,,,,,,
,battle,0.912412345,,,,,,,,
,war,0.910441577,,,,,,,,
,many,0.896152973,,,,,,,,
,airport,0.892654538,,,,,,,,
,city,0.887467742,,,,,,,,
,race,0.886723042,,,,,,,,
,child,0.850388885,,,,,,,,
,rally,0.847005606,,,,,,,,
,man,0.841555595,,,,,,,,
https://scontent.cdninstagram.com/t51.2885-15/e35/13181268_1617634558558554_433028473_n.jpg,wheelchair,0.9968642,,,,,,,,
,people,0.994719744,,,,,,,,
,wheel,0.991629422,,,,,,,,
,sitting,0.987841964,,,,,,,,
,road,0.981378496,,,,,,,,
,bike,0.97865814,,,,,,,,
,wear,0.972460032,,,,,,,,
,street,0.971849322,,,,,,,,
,child,0.969785333,,,,,,,,
,vehicle,0.968687892,,,,,,,,
,recreation,0.966578841,,,,,,,,
,"transportation system",0.965059042,,,,,,,,
,man,0.95676893,,,,,,,,
,cyclist,0.945475936,,,,,,,,
,woman,0.945397675,,,,,,,,
,adult,0.941237986,,,,,,,,
,travel,0.941194892,,,,,,,,
,one,0.926546574,,,,,,,,
,outdoors,0.925644636,,,,,,,,
,city,0.910514116,,,,,,,,
https://scontent.cdninstagram.com/t51.2885-15/e35/13181268_1617634558558554_433028473_n.jpg,wheelchair,0.9968642,,,,,,,,
,people,0.994719744,,,,,,,,
,wheel,0.991629422,,,,,,,,
,sitting,0.987841964,,,,,,,,
,road,0.981378496,,,,,,,,
,bike,0.97865814,,,,,,,,
,wear,0.972460032,,,,,,,,
,street,0.971849322,,,,,,,,
,child,0.969785333,,,,,,,,
,vehicle,0.968687892,,,,,,,,
,recreation,0.966578841,,,,,,,,
,"transportation system",0.965059042,,,,,,,,
,man,0.95676893,,,,,,,,
,cyclist,0.945475936,,,,,,,,
,woman,0.945397675,,,,,,,,
,adult,0.941237986,,,,,,,,
,travel,0.941194892,,,,,,,,
,one,0.926546574,,,,,,,,
,outdoors,0.925644636,,,,,,,,
,city,0.910514116,,,,,,,,
https://scontent.cdninstagram.com/t51.2885-15/s750x750/sh0.08/e35/11849194_1485040475150779_290155074_n.jpg,group,0.998613477,Relationships,,,,Friends,,,
,group,0.991124392,,,,,,,,
,people,0.989020467,,,,,,,,
,"facial expression",0.987568021,,,,,,,,
,three,0.987528265,,,,,,,,
,four,0.985983968,,,,,,,,
,portrait,0.977641463,,,,,,,,
,interaction,0.975286961,,,,,,,,
,adult,0.973579288,,,,,,,,
,woman,0.96723491,,,,,,,,
,man,0.958946586,,,,,,,,
,five,0.949603558,,,,,,,,
,wear,0.944825888,,,,,,,,
,child,0.941120207,,,,,,,,
,togetherness,0.928471088,,,,,,,,
,happiness,0.918086767,,,,,,,,
,friendship,0.91595459,,,,,,,,
,enjoyment,0.898018658,,,,,,,,
,recreation,0.89381057,,,,,,,,
,several,0.893447042,,,,,,,,
https://scontent.cdninstagram.com/t51.2885-15/s750x750/sh0.08/e35/12912342_996538980425507_2090540836_n.jpg,winter,0.993728757,"Fun Filter",Celebrations,"My life",,"Fun Filter","Community Events",Selfie,
,Christmas,0.993640542,,,,,,,,
,celebration,0.963219404,,,,,,,,
,"christmas tree",0.954814136,,,,,,,,
,people,0.940912008,,,,,,,,
,snow,0.93428123,,,,,,,,
,"no person",0.917004466,,,,,,,,
,one,0.911774158,,,,,,,,
,decoration,0.906319976,,,,,,,,
,light,0.900107384,,,,,,,,
,portrait,0.89777112,,,,,,,,
,tree,0.888129354,,,,,,,,
,thread,0.878512025,,,,,,,,
,festival,0.841434538,,,,,,,,
,adult,0.834279597,,,,,,,,
,"interior design",0.831224382,,,,,,,,
,landscape,0.820755839,,,,,,,,
,administration,0.800803602,,,,,,,,
,wear,0.796714842,,,,,,,,
,election,0.786755085,,,,,,,,
https://scontent.cdninstagram.com/t51.2885-15/e15/12917857_814110985361931_866693320_n.jpg,people,0.994208753,Relationships,"My life",Recreation,,"Best friends",Doing,Recreation-s,
,adult,0.982050478,,,,,,,,
,one,0.976706624,,,,,,,,
,woman,0.965559363,,,,,,,,
,two,0.960298657,,,,,,,,
,wear,0.957066059,,,,,,,,
,music,0.941047847,,,,,,,,
,man,0.939706564,,,,,,,,
,indoors,0.936693668,,,,,,,,
,portrait,0.932722688,,,,,,,,
,"facial expression",0.905320644,,,,,,,,
,performance,0.894079566,,,,,,,,
,recreation,0.883898199,,,,,,,,
,musician,0.882031441,,,,,,,,
,eyewear,0.846745849,,,,,,,,
,singer,0.831532359,,,,,,,,
,"side view",0.803745747,,,,,,,,
,room,0.801252723,,,,,,,,
,festival,0.797171474,,,,,,,,
,enjoyment,0.789461315,,,,,,,,
https://scontent.cdninstagram.com/t51.2885-15/s750x750/sh0.08/e35/12912342_996538980425507_2090540836_n.jpg,winter,0.993728757,"Fun Filter",Celebrations,"My life",,"Fun Filter","Community Events",Selfie,
,Christmas,0.993640542,,,,,,,,
,celebration,0.963219404,,,,,,,,
,"christmas tree",0.954814136,,,,,,,,
,people,0.940912008,,,,,,,,
,snow,0.93428123,,,,,,,,
,"no person",0.917004466,,,,,,,,
,one,0.911774158,,,,,,,,
,decoration,0.906319976,,,,,,,,
,light,0.900107384,,,,,,,,
,portrait,0.89777112,,,,,,,,
,tree,0.888129354,,,,,,,,
,thread,0.878512025,,,,,,,,
,festival,0.841434538,,,,,,,,
,adult,0.834279597,,,,,,,,
,"interior design",0.831224382,,,,,,,,
,landscape,0.820755839,,,,,,,,
,administration,0.800803602,,,,,,,,
,wear,0.796714842,,,,,,,,
,election,0.786755085,,,,,,,,
https://scontent.cdninstagram.com/t51.2885-15/e35/12905057_612086335611381_1263959667_n.jpg,people,0.98465544,Media,Entertainment,,,Media-s,Entertainment-s,,
,window,0.978239775,,,,,,,,
,adult,0.976276577,,,,,,,,
,indoors,0.968127131,,,,,,,,
,business,0.95525682,,,,,,,,
,city,0.953756988,,,,,,,,
,"transportation system",0.949084282,,,,,,,,
,offense,0.945496857,,,,,,,,
,bus,0.942932487,,,,,,,,
,outdoors,0.940301538,,,,,,,,
,man,0.937895656,,,,,,,,
,street,0.936394811,,,,,,,,
,horizontal,0.932527423,,,,,,,,
,"side view",0.927908003,,,,,,,,
,car,0.900114775,,,,,,,,
,train,0.898690641,,,,,,,,
,tube,0.894770861,,,,,,,,
,telephone,0.887826324,,,,,,,,
,airport,0.879493713,,,,,,,,
,technology,0.876855969,,,,,,,,
https://scontent.cdninstagram.com/t51.2885-15/e35/12446289_1077786265600720_984679707_n.jpg,people,0.990718007,"Fashion & Beauty",Commerce,,,"My look",Shopping,,
,adult,0.98636806,,,,,,,,
,portrait,0.977764249,,,,,,,,
,man,0.974671721,,,,,,,,
,indoors,0.958500028,,,,,,,,
,commerce,0.958313942,,,,,,,,
,business,0.956801295,,,,,,,,
,one,0.951955497,,,,,,,,
,"facial expression",0.951893151,,,,,,,,
,airport,0.950034618,,,,,,,,
,wear,0.930372119,,,,,,,,
,two,0.923359573,,,,,,,,
,woman,0.915024161,,,,,,,,
,employee,0.896184325,,,,,,,,
,room,0.893687487,,,,,,,,
,group,0.881685972,,,,,,,,
,stock,0.873656869,,,,,,,,
,vehicle,0.861095011,,,,,,,,
,outerwear,0.850945234,,,,,,,,
,telephone,0.828059137,,,,,,,,
https://scontent.cdninstagram.com/t51.2885-15/e35/12912266_964115266999426_1280552452_n.jpg,street,0.996268153,"Fashion & Beauty",,,,Ootd,,,
,people,0.991784871,,,,,,,,
,monochrome,0.975224018,,,,,,,,
,road,0.969461799,,,,,,,,
,adult,0.968121409,,,,,,,,
,"transportation system",0.966076255,,,,,,,,
,man,0.948337197,,,,,,,,
,police,0.932757616,,,,,,,,
,action,0.918855727,,,,,,,,
,vehicle,0.916751027,,,,,,,,
,city,0.908346057,,,,,,,,
,woman,0.888626993,,,,,,,,
,group,0.886046827,,,,,,,,
,blur,0.879337907,,,,,,,,
,administration,0.86366725,,,,,,,,
,wear,0.859243631,,,,,,,,
,car,0.835989714,,,,,,,,
,offense,0.830821216,,,,,,,,
,two,0.827673376,,,,,,,,
,one,0.822072148,,,,,,,,
https://scontent.cdninstagram.com/t51.2885-15/e35/12912266_964115266999426_1280552452_n.jpg,street,0.996268153,"Fashion & Beauty",,,,Ootd,,,
,people,0.991784871,,,,,,,,
,monochrome,0.975224018,,,,,,,,
,road,0.969461799,,,,,,,,
,adult,0.968121409,,,,,,,,
,"transportation system",0.966076255,,,,,,,,
,man,0.948337197,,,,,,,,
,police,0.932757616,,,,,,,,
,action,0.918855727,,,,,,,,
,vehicle,0.916751027,,,,,,,,
,city,0.908346057,,,,,,,,
,woman,0.888626993,,,,,,,,
,group,0.886046827,,,,,,,,
,blur,0.879337907,,,,,,,,
,administration,0.86366725,,,,,,,,
,wear,0.859243631,,,,,,,,
,car,0.835989714,,,,,,,,
,offense,0.830821216,,,,,,,,
,two,0.827673376,,,,,,,,
,one,0.822072148,,,,,,,,
https://scontent.cdninstagram.com/t51.2885-15/e15/11371261_1631852920390618_463942877_n.jpg,recreation,0.99917686,Recreation,,,,Recreation-s,,,
,snooker,0.997273684,,,,,,,,
,gambling,0.996047735,,,,,,,,
,game,0.99476254,,,,,,,,
,cue,0.990379572,,,,,,,,
,people,0.990200043,,,,,,,,
,leisure,0.990068555,,,,,,,,
,adult,0.99000442,,,,,,,,
,one,0.989701211,,,,,,,,
,casino,0.989416301,,,,,,,,
,pool,0.985637426,,,,,,,,
,competition,0.981188118,,,,,,,,
,poker,0.97796917,,,,,,,,
,club,0.966492057,,,,,,,,
,wear,0.945700645,,,,,,,,
,bar,0.942712247,,,,,,,,
,two,0.936694324,,,,,,,,
,ball,0.929021835,,,,,,,,
,group,0.908229172,,,,,,,,
,woman,0.905747294,,,,,,,,
https://scontent.cdninstagram.com/t51.2885-15/e35/11887166_913305898704621_290723836_n.jpg,beer,0.997390151,Food,Relationships,,,"Meal time","Best friends",,
,restaurant,0.995447993,,,,,,,,
,table,0.984290242,,,,,,,,
,people,0.980643511,,,,,,,,
,bar,0.97401607,,,,,,,,
,drink,0.964226007,,,,,,,,
,pub,0.963443458,,,,,,,,
,food,0.962616861,,,,,,,,
,waitress,0.962503076,,,,,,,,
,man,0.952589512,,,,,,,,
,street,0.944175959,,,,,,,,
,city,0.938168287,,,,,,,,
,group,0.935945392,,,,,,,,
,daylight,0.934919894,,,,,,,,
,festival,0.8991732,,,,,,,,
,group,0.883028746,,,,,,,,
,many,0.88245213,,,,,,,,
,diner,0.88243264,,,,,,,,
,meal,0.862703443,,,,,,,,
,outdoors,0.854764104,,,,,,,,
https://scontent.cdninstagram.com/t51.2885-15/e15/11375958_126247651041795_1733953998_n.jpg,indoors,0.991500497,,Relationships,,,,"Best friends",,
,adult,0.977706432,,,,,,,,
,people,0.965147853,,,,,,,,
,competition,0.958531976,,,,,,,,
,election,0.951293647,,,,,,,,
,business,0.949483395,,,,,,,,
,portrait,0.942036033,,,,,,,,
,offense,0.929325104,,,,,,,,
,technology,0.908750772,,,,,,,,
,industry,0.900824904,,,,,,,,
,education,0.898572445,,,,,,,,
,room,0.895790577,,,,,,,,
,man,0.872016847,,,,,,,,
,computer,0.869352758,,,,,,,,
,document,0.85830617,,,,,,,,
,wear,0.855271995,,,,,,,,
,container,0.846683145,,,,,,,,
,"baseball cap",0.845645666,,,,,,,,
,finance,0.832386434,,,,,,,,
,warehouse,0.828309417,,,,,,,,
https://scontent.cdninstagram.com/t51.2885-15/e35/12724824_115590445497740_2120089099_n.jpg,"no person",0.982026935,Undefined,,,,Undefined,,,
,illustration,0.961930752,,,,,,,,
,vector,0.959736705,,,,,,,,
,desktop,0.891494334,,,,,,,,
,woman,0.888733327,,,,,,,,
,people,0.887743294,,,,,,,,
,vertical,0.884676814,,,,,,,,
,adult,0.863611639,,,,,,,,
,sketch,0.858181894,,,,,,,,
,portrait,0.845705986,,,,,,,,
,man,0.837083936,,,,,,,,
,design,0.836487889,,,,,,,,
,eye,0.835981369,,,,,,,,
,danger,0.827148736,,,,,,,,
,fun,0.821835697,,,,,,,,
,square,0.818647087,,,,,,,,
,symbol,0.814442515,,,,,,,,
,dark,0.792047977,,,,,,,,
,Halloween,0.791891634,,,,,,,,
,pattern,0.767775297,,,,,,,,
https://scontent.cdninstagram.com/t51.2885-15/e15/11371261_1631852920390618_463942877_n.jpg,recreation,0.99917686,Recreation,,,,Recreation-s,,,
,snooker,0.997273684,,,,,,,,
,gambling,0.996047735,,,,,,,,
,game,0.99476254,,,,,,,,
,cue,0.990379572,,,,,,,,
,people,0.990200043,,,,,,,,
,leisure,0.990068555,,,,,,,,
,adult,0.99000442,,,,,,,,
,one,0.989701211,,,,,,,,
,casino,0.989416301,,,,,,,,
,pool,0.985637426,,,,,,,,
,competition,0.981188118,,,,,,,,
,poker,0.97796917,,,,,,,,
,club,0.966492057,,,,,,,,
,wear,0.945700645,,,,,,,,
,bar,0.942712247,,,,,,,,
,two,0.936694324,,,,,,,,
,ball,0.929021835,,,,,,,,
,group,0.908229172,,,,,,,,
,woman,0.905747294,,,,,,,,
https://scontent.cdninstagram.com/t51.2885-15/e15/11275389_913321718727462_2132519302_n.jpg,street,0.997171342,"Fashion & Beauty",,,,"My look",,,
,man,0.993163466,,,,,,,,
,urban,0.989912152,,,,,,,,
,fashion,0.988527179,,,,,,,,
,people,0.986525059,,,,,,,,
,step,0.975772679,,,,,,,,
,skateboard,0.967827916,,,,,,,,
,trendy,0.964343429,,,,,,,,
,portrait,0.963252068,,,,,,,,
,boy,0.959728539,,,,,,,,
,model,0.938988984,,,,,,,,
,child,0.933225155,,,,,,,,
,adult,0.930988073,,,,,,,,
,city,0.928991675,,,,,,,,
,one,0.921432614,,,,,,,,
,skate,0.91875571,,,,,,,,
,pants,0.91753161,,,,,,,,
,sneakers,0.913977861,,,,,,,,
,young,0.911054492,,,,,,,,
,girl,0.900767326,,,,,,,,
https://scontent.cdninstagram.com/l/t51.2885-15/s750x750/sh0.08/e35/11378276_151605908507667_1758036370_n.jpg,wear,0.99804163,"Fashion & Beauty",,,,"My look",,,
,man,0.989454269,,,,,,,,
,fashion,0.987468004,,,,,,,,
,people,0.97274518,,,,,,,,
,tie,0.967843652,,,,,,,,
,business,0.962281346,,,,,,,,
,adult,0.953297496,,,,,,,,
,dress,0.951756656,,,,,,,,
,elegant,0.924882531,,,,,,,,
,one,0.91892767,,,,,,,,
,woman,0.908723891,,,,,,,,
,stripe,0.906843245,,,,,,,,
,"no person",0.899001956,,,,,,,,
,pants,0.893615365,,,,,,,,
,formal,0.891376853,,,,,,,,
,isolated,0.872285485,,,,,,,,
,footwear,0.871983409,,,,,,,,
,shirt,0.866757631,,,,,,,,
,indoors,0.857248187,,,,,,,,
,fashionable,0.857106924,,,,,,,,
https://scontent.cdninstagram.com/t51.2885-15/e35/13277793_565955066917241_111786467_n.jpg,people,0.990194857,Media,,,,Media-s,,,
,man,0.985091925,,,,,,,,
,indoors,0.983132064,,,,,,,,
,adult,0.973387599,,,,,,,,
,portrait,0.963788509,,,,,,,,
,retro,0.957717657,,,,,,,,
,one,0.938177466,,,,,,,,
,dark,0.91464448,,,,,,,,
,music,0.90808934,,,,,,,,
,fashion,0.907021761,,,,,,,,
,woman,0.898643196,,,,,,,,
,wear,0.891732514,,,,,,,,
,"facial expression",0.881839395,,,,,,,,
,looking,0.873992026,,,,,,,,
,monochrome,0.853124619,,,,,,,,
,sit,0.849814534,,,,,,,,
,adolescent,0.842738509,,,,,,,,
,two,0.835735559,,,,,,,,
,fine-looking,0.833208323,,,,,,,,
,business,0.832076311,,,,,,,,
https://scontent.cdninstagram.com/t51.2885-15/e35/11374028_416583835195016_1017253835_n.jpg,business,0.978163004,"Fashion & Beauty",,,,Ootd,,,
,people,0.977744341,,,,,,,,
,adult,0.976948857,,,,,,,,
,one,0.97127986,,,,,,,,
,young,0.962692499,,,,,,,,
,sit,0.957813144,,,,,,,,
,fashion,0.952401757,,,,,,,,
,street,0.951647162,,,,,,,,
,man,0.949913383,,,,,,,,
,city,0.945469975,,,,,,,,
,outdoors,0.943720818,,,,,,,,
,urban,0.936976135,,,,,,,,
,step,0.936718762,,,,,,,,
,portrait,0.932690382,,,,,,,,
,woman,0.925505459,,,,,,,,
,lifestyle,0.924432755,,,,,,,,
,sitting,0.919269443,,,,,,,,
,wear,0.912272751,,,,,,,,
,luggage,0.889116943,,,,,,,,
,pavement,0.887643337,,,,,,,,
https://scontent.cdninstagram.com/t51.2885-15/e15/11232658_810798772349902_1491020679_n.jpg,car,0.999185801,"Fashion & Beauty","My life",,,"My look",Selfie,,
,vehicle,0.996573448,,,,,,,,
,"transportation system",0.993018746,,,,,,,,
,people,0.991817474,,,,,,,,
,driver,0.990841627,,,,,,,,
,street,0.984071851,,,,,,,,
,one,0.980790019,,,,,,,,
,portrait,0.977294445,,,,,,,,
,travel,0.967350066,,,,,,,,
,road,0.965980172,,,,,,,,
,window,0.965291619,,,,,,,,
,adult,0.964628696,,,,,,,,
,man,0.951687396,,,,,,,,
,light,0.949958444,,,,,,,,
,police,0.946688175,,,,,,,,
,city,0.921460629,,,,,,,,
,woman,0.919938743,,,,,,,,
,urban,0.91277343,,,,,,,,
,sunglasses,0.910834074,,,,,,,,
,outdoors,0.901221871,,,,,,,,
https://scontent.cdninstagram.com/t51.2885-15/e35/12407640_170750306628108_1896700765_n.jpg,people,0.999705553,"Fashion & Beauty",,,,"My look",,,
,adult,0.994549155,,,,,,,,
,portrait,0.991035283,,,,,,,,
,one,0.985040665,,,,,,,,
,man,0.983393312,,,,,,,,
,two,0.982090712,,,,,,,,
,monochrome,0.981640697,,,,,,,,
,profile,0.974796474,,,,,,,,
,wear,0.959687591,,,,,,,,
,"side view",0.933473587,,,,,,,,
,woman,0.925273299,,,,,,,,
,"facial expression",0.88461566,,,,,,,,
,child,0.881683111,,,,,,,,
,art,0.874269485,,,,,,,,
,music,0.851319551,,,,,,,,
,baby,0.839634657,,,,,,,,
,girl,0.839374304,,,,,,,,
,leader,0.805715084,,,,,,,,
,veil,0.786580324,,,,,,,,
,love,0.785607278,,,,,,,,
https://scontent.cdninstagram.com/t51.2885-15/e35/13298204_1144438058909913_1653838324_n.jpg,people,0.987215996,Commerce,"Fashion & Beauty",,,Shopping,Ootd,,
,adult,0.959725618,,,,,,,,
,one,0.934804678,,,,,,,,
,man,0.911380947,,,,,,,,
,wear,0.899253845,,,,,,,,
,portrait,0.874847293,,,,,,,,
,woman,0.872422338,,,,,,,,
,offense,0.862658143,,,,,,,,
,lid,0.83457458,,,,,,,,
,outdoors,0.819476128,,,,,,,,
,administration,0.79896462,,,,,,,,
,religion,0.79003644,,,,,,,,
,flag,0.778956294,,,,,,,,
,rally,0.766224027,,,,,,,,
,celebration,0.74824065,,,,,,,,
,rally,0.738094568,,,,,,,,
,Christmas,0.736152291,,,,,,,,
,container,0.733111858,,,,,,,,
,election,0.730399132,,,,,,,,
,battle,0.730214953,,,,,,,,
https://scontent.cdninstagram.com/t51.2885-15/e15/11232658_810798772349902_1491020679_n.jpg,car,0.999185801,"Fashion & Beauty","My life",,,"My look",Selfie,,
,vehicle,0.996573448,,,,,,,,
,"transportation system",0.993018746,,,,,,,,
,people,0.991817474,,,,,,,,
,driver,0.990841627,,,,,,,,
,street,0.984071851,,,,,,,,
,one,0.980790019,,,,,,,,
,portrait,0.977294445,,,,,,,,
,travel,0.967350066,,,,,,,,
,road,0.965980172,,,,,,,,
,window,0.965291619,,,,,,,,
,adult,0.964628696,,,,,,,,
,man,0.951687396,,,,,,,,
,light,0.949958444,,,,,,,,
,police,0.946688175,,,,,,,,
,city,0.921460629,,,,,,,,
,woman,0.919938743,,,,,,,,
,urban,0.91277343,,,,,,,,
,sunglasses,0.910834074,,,,,,,,
,outdoors,0.901221871,,,,,,,,
https://scontent.cdninstagram.com/t51.2885-15/e35/13298204_1144438058909913_1653838324_n.jpg,people,0.987215996,Commerce,"Fashion & Beauty",,,Shopping,Ootd,,
,adult,0.959725618,,,,,,,,
,one,0.934804678,,,,,,,,
,man,0.911380947,,,,,,,,
,wear,0.899253845,,,,,,,,
,portrait,0.874847293,,,,,,,,
,woman,0.872422338,,,,,,,,
,offense,0.862658143,,,,,,,,
,lid,0.83457458,,,,,,,,
,outdoors,0.819476128,,,,,,,,
,administration,0.79896462,,,,,,,,
,religion,0.79003644,,,,,,,,
,flag,0.778956294,,,,,,,,
,rally,0.766224027,,,,,,,,
,celebration,0.74824065,,,,,,,,
,rally,0.738094568,,,,,,,,
,Christmas,0.736152291,,,,,,,,
,container,0.733111858,,,,,,,,
,election,0.730399132,,,,,,,,
,battle,0.730214953,,,,,,,,
https://scontent.cdninstagram.com/t51.2885-15/e35/12905057_612086335611381_1263959667_n.jpg,people,0.98465544,Media,Entertainment,,,Media-s,Entertainment-s,,
,window,0.978239775,,,,,,,,
,adult,0.976276577,,,,,,,,
,indoors,0.968127131,,,,,,,,
,business,0.95525682,,,,,,,,
,city,0.953756988,,,,,,,,
,"transportation system",0.949084282,,,,,,,,
,offense,0.945496857,,,,,,,,
,bus,0.942932487,,,,,,,,
,outdoors,0.940301538,,,,,,,,
,man,0.937895656,,,,,,,,
,street,0.936394811,,,,,,,,
,horizontal,0.932527423,,,,,,,,
,"side view",0.927908003,,,,,,,,
,car,0.900114775,,,,,,,,
,train,0.898690641,,,,,,,,
,tube,0.894770861,,,,,,,,
,telephone,0.887826324,,,,,,,,
,airport,0.879493713,,,,,,,,
,technology,0.876855969,,,,,,,,
https://scontent.cdninstagram.com/t51.2885-15/s640x640/sh0.08/e35/12960094_259069911104512_2055162405_n.jpg,man,0.975129843,Relationships,,,,Friends,,,
,people,0.967429876,,,,,,,,
,woman,0.967119575,,,,,,,,
,sit,0.961970508,,,,,,,,
,family,0.941791177,,,,,,,,
,young,0.937721193,,,,,,,,
,portrait,0.936701179,,,,,,,,
,adult,0.927301645,,,,,,,,
,group,0.923787534,,,,,,,,
,fun,0.902412891,,,,,,,,
,friendship,0.897973955,,,,,,,,
,two,0.881111562,,,,,,,,
,three,0.868233323,,,,,,,,
,music,0.864227355,,,,,,,,
,sitting,0.863090396,,,,,,,,
,four,0.851963401,,,,,,,,
,love,0.843131542,,,,,,,,
,chair,0.841173351,,,,,,,,
,couple,0.83652091,,,,,,,,
,lifestyle,0.835242271,,,,,,,,
https://scontent.cdninstagram.com/t51.2885-15/e35/13392686_1731501633754489_1919689683_n.jpg,people,0.991450191,Relationships,Environment,"My life",,"Best friends","Natural beauty",Doing,
,adult,0.987396717,,,,,,,,
,man,0.981137574,,,,,,,,
,portrait,0.949767292,,,,,,,,
,two,0.948380828,,,,,,,,
,recreation,0.942514777,,,,,,,,
,group,0.940792441,,,,,,,,
,offense,0.939375758,,,,,,,,
,daylight,0.932101846,,,,,,,,
,weapon,0.916068196,,,,,,,,
,"facial expression",0.912736058,,,,,,,,
,outdoors,0.904967308,,,,,,,,
,gun,0.894840479,,,,,,,,
,battle,0.893996716,,,,,,,,
,woman,0.88796556,,,,,,,,
,wear,0.885954022,,,,,,,,
,police,0.885598898,,,,,,,,
,military,0.875018597,,,,,,,,
,sit,0.843883932,,,,,,,,
,education,0.839503765,,,,,,,,
https://scontent.cdninstagram.com/t51.2885-15/e35/12328407_922353287885005_234344023_n.jpg,child,0.999845386,Celebrations,Food,Relationships,,"Personal Events",Dessert,"Baby family",
,people,0.981036961,,,,,,,,
,baby,0.980857849,,,,,,,,
,room,0.980297089,,,,,,,,
,little,0.974003315,,,,,,,,
,toddler,0.97104764,,,,,,,,
,one,0.968625784,,,,,,,,
,education,0.968594074,,,,,,,,
,indoors,0.963852048,,,,,,,,
,cute,0.963692784,,,,,,,,
,boy,0.962674379,,,,,,,,
,school,0.957021952,,,,,,,,
,boy,0.952080965,,,,,,,,
,happiness,0.943126798,,,,,,,,
,daylight,0.932426631,,,,,,,,
,innocence,0.930739999,,,,,,,,
,furniture,0.926982284,,,,,,,,
,portrait,0.9239344,,,,,,,,
,girl,0.907272339,,,,,,,,
,family,0.90049088,,,,,,,,
https://scontent.cdninstagram.com/t51.2885-15/e35/13277793_565955066917241_111786467_n.jpg,people,0.990194857,Media,,,,Media-s,,,
,man,0.985091925,,,,,,,,
,indoors,0.983132064,,,,,,,,
,adult,0.973387599,,,,,,,,
,portrait,0.963788509,,,,,,,,
,retro,0.957717657,,,,,,,,
,one,0.938177466,,,,,,,,
,dark,0.91464448,,,,,,,,
,music,0.90808934,,,,,,,,
,fashion,0.907021761,,,,,,,,
,woman,0.898643196,,,,,,,,
,wear,0.891732514,,,,,,,,
,"facial expression",0.881839395,,,,,,,,
,looking,0.873992026,,,,,,,,
,monochrome,0.853124619,,,,,,,,
,sit,0.849814534,,,,,,,,
,adolescent,0.842738509,,,,,,,,
,two,0.835735559,,,,,,,,
,fine-looking,0.833208323,,,,,,,,
,business,0.832076311,,,,,,,,
https://scontent.cdninstagram.com/t51.2885-15/e35/12424948_253833034963252_776852062_n.jpg,people,0.99892807,"My life","Fashion & Beauty",,,Doing,"My look",,
,adult,0.996351898,,,,,,,,
,portrait,0.993549943,,,,,,,,
,two,0.988907635,,,,,,,,
,one,0.985418916,,,,,,,,
,man,0.979096889,,,,,,,,
,woman,0.97743094,,,,,,,,
,wear,0.973576903,,,,,,,,
,girl,0.972566962,,,,,,,,
,"facial expression",0.970787168,,,,,,,,
,monochrome,0.967872024,,,,,,,,
,wedding,0.956911325,,,,,,,,
,veil,0.949468136,,,,,,,,
,profile,0.948003292,,,,,,,,
,love,0.93591547,,,,,,,,
,art,0.930918276,,,,,,,,
,music,0.92944169,,,,,,,,
,child,0.922453463,,,,,,,,
,retro,0.917310297,,,,,,,,
,actress,0.913022876,,,,,,,,
https://scontent.cdninstagram.com/t51.2885-15/sh0.08/e35/p640x640/12139630_1499070220392631_1491551506_n.jpg,illustration,0.996682286,Entertainment,,,,Entertainment-s,,,
,vector,0.995369673,,,,,,,,
,card,0.991235912,,,,,,,,
,baby,0.984759331,,,,,,,,
,vector,0.973662913,,,,,,,,
,banner,0.973042727,,,,,,,,
,sketch,0.972267628,,,,,,,,
,template,0.969660878,,,,,,,,
,fun,0.962087393,,,,,,,,
,child,0.952414393,,,,,,,,
,cute,0.93939203,,,,,,,,
,graphic,0.937756598,,,,,,,,
,newborn,0.932088017,,,,,,,,
,page,0.927871048,,,,,,,,
,desktop,0.916558802,,,,,,,,
,design,0.912719131,,,,,,,,
,birth,0.904733777,,,,,,,,
,presentation,0.894628525,,,,,,,,
,"picture frame",0.884993434,,,,,,,,
,menu,0.877805829,,,,,,,,
https://scontent.cdninstagram.com/t51.2885-15/e35/12976433_870728189702843_529397875_n.jpg,portrait,0.998216867,Relationships,"Fun Filter",,,"Best friends","Fun Filter",,
,"facial expression",0.998108447,,,,,,,,
,people,0.997006893,,,,,,,,
,man,0.995376706,,,,,,,,
,adult,0.994115651,,,,,,,,
,wear,0.979053855,,,,,,,,
,two,0.96916157,,,,,,,,
,"facial hair",0.949539483,,,,,,,,
,movie,0.939144135,,,,,,,,
,happiness,0.933322191,,,,,,,,
,one,0.916255474,,,,,,,,
,actor,0.915589213,,,,,,,,
,mustache,0.908245027,,,,,,,,
,recreation,0.908098042,,,,,,,,
,laughing,0.885605872,,,,,,,,
,goatee,0.859041214,,,,,,,,
,outfit,0.839297235,,,,,,,,
,singer,0.824862957,,,,,,,,
,musician,0.818256259,,,,,,,,
,actress,0.79879427,,,,,,,,
https://scontent.cdninstagram.com/t51.2885-15/e35/12141947_443462769177569_807898865_n.jpg,people,0.988420606,"Fashion & Beauty",,,,"My look",,,
,one,0.98488909,,,,,,,,
,man,0.978958786,,,,,,,,
,indoors,0.977046728,,,,,,,,
,wear,0.964798093,,,,,,,,
,business,0.964179397,,,,,,,,
,adult,0.961863518,,,,,,,,
,curtain,0.950504541,,,,,,,,
,fashion,0.93161118,,,,,,,,
,portrait,0.931579709,,,,,,,,
,music,0.896602392,,,,,,,,
,performance,0.879408062,,,,,,,,
,movie,0.869241357,,,,,,,,
,"facial expression",0.866175294,,,,,,,,
,woman,0.848917484,,,,,,,,
,telephone,0.847554684,,,,,,,,
,recreation,0.830572963,,,,,,,,
,singer,0.817709148,,,,,,,,
,outfit,0.807979703,,,,,,,,
,connection,0.80455035,,,,,,,,
https://scontent.cdninstagram.com/t51.2885-15/e35/12141947_443462769177569_807898865_n.jpg,people,0.988420606,"Fashion & Beauty",,,,"My look",,,
,one,0.98488909,,,,,,,,
,man,0.978958786,,,,,,,,
,indoors,0.977046728,,,,,,,,
,wear,0.964798093,,,,,,,,
,business,0.964179397,,,,,,,,
,adult,0.961863518,,,,,,,,
,curtain,0.950504541,,,,,,,,
,fashion,0.93161118,,,,,,,,
,portrait,0.931579709,,,,,,,,
,music,0.896602392,,,,,,,,
,performance,0.879408062,,,,,,,,
,movie,0.869241357,,,,,,,,
,"facial expression",0.866175294,,,,,,,,
,woman,0.848917484,,,,,,,,
,telephone,0.847554684,,,,,,,,
,recreation,0.830572963,,,,,,,,
,singer,0.817709148,,,,,,,,
,outfit,0.807979703,,,,,,,,
,connection,0.80455035,,,,,,,,
https://scontent.cdninstagram.com/t51.2885-15/e35/12407640_170750306628108_1896700765_n.jpg,people,0.999705553,"Fashion & Beauty",,,,"My look",,,
,adult,0.994549155,,,,,,,,
,portrait,0.991035283,,,,,,,,
,one,0.985040665,,,,,,,,
,man,0.983393312,,,,,,,,
,two,0.982090712,,,,,,,,
,monochrome,0.981640697,,,,,,,,
,profile,0.974796474,,,,,,,,
,wear,0.959687591,,,,,,,,
,"side view",0.933473587,,,,,,,,
,woman,0.925273299,,,,,,,,
,"facial expression",0.88461566,,,,,,,,
,child,0.881683111,,,,,,,,
,art,0.874269485,,,,,,,,
,music,0.851319551,,,,,,,,
,baby,0.839634657,,,,,,,,
,girl,0.839374304,,,,,,,,
,leader,0.805715084,,,,,,,,
,veil,0.786580324,,,,,,,,
,love,0.785607278,,,,,,,,
https://scontent.cdninstagram.com/t51.2885-15/e35/12224454_1498699950425777_1879151584_n.jpg,people,0.97464335,Arts,Entertainment,,,Arts-s,Entertainment-s,,
,man,0.96621567,,,,,,,,
,mask,0.955567002,,,,,,,,
,art,0.944238782,,,,,,,,
,wear,0.931542516,,,,,,,,
,helmet,0.913865089,,,,,,,,
,adult,0.910681248,,,,,,,,
,illustration,0.907429039,,,,,,,,
,one,0.894269586,,,,,,,,
,portrait,0.892795563,,,,,,,,
,costume,0.882467151,,,,,,,,
,face,0.871248126,,,,,,,,
,war,0.867288768,,,,,,,,
,fear,0.836913764,,,,,,,,
,painting,0.828696549,,,,,,,,
,veil,0.826269865,,,,,,,,
,woman,0.799209595,,,,,,,,
,mask,0.793374836,,,,,,,,
,Halloween,0.786062479,,,,,,,,
,fantasy,0.778256536,,,,,,,,
https://scontent.cdninstagram.com/t51.2885-15/e35/12081080_1222474024436168_2019952461_n.jpg,weightlifting,0.997289777,Recreation,"Fashion & Beauty",,,Fitness,Ootd,,
,indoors,0.997251809,,,,,,,,
,weight,0.994994521,,,,,,,,
,strength,0.993320942,,,,,,,,
,train,0.992598534,,,,,,,,
,dumbbell,0.989379823,,,,,,,,
,barbell,0.989102006,,,,,,,,
,exercise,0.988587797,,,,,,,,
,club,0.985935092,,,,,,,,
,treadmill,0.985505939,,,,,,,,
,athlete,0.977370977,,,,,,,,
,bodybuilding,0.975383878,,,,,,,,
,strong,0.969459832,,,,,,,,
,teacher,0.959989071,,,,,,,,
,fitness,0.954689145,,,,,,,,
,muscle,0.942039251,,,,,,,,
,furniture,0.941555738,,,,,,,,
,lift,0.937740088,,,,,,,,
,bench,0.931833267,,,,,,,,
,equipment,0.924695194,,,,,,,,
https://scontent.cdninstagram.com/t51.2885-15/e35/11351931_973243519410096_63911776_n.jpg,recreation,0.98830688,"Fun Filter","Fashion & Beauty",Commerce,,"Fun Filter",Ootd,"Product/brand shots",
,wear,0.979481816,,,,,,,,
,movie,0.968999505,,,,,,,,
,adult,0.944331527,,,,,,,,
,music,0.93955338,,,,,,,,
,festival,0.915060818,,,,,,,,
,fashion,0.906349659,,,,,,,,
,actress,0.90630281,,,,,,,,
,promotion,0.897891283,,,,,,,,
,musician,0.895570397,,,,,,,,
,arrival,0.887279272,,,,,,,,
,fashionable,0.885646641,,,,,,,,
,people,0.880319834,,,,,,,,
,woman,0.878526628,,,,,,,,
,"film festival",0.877044678,,,,,,,,
,"red carpet",0.874776483,,,,,,,,
,competition,0.852566123,,,,,,,,
,television,0.842070222,,,,,,,,
,singer,0.838196933,,,,,,,,
,track,0.816022694,,,,,,,,
https://scontent.cdninstagram.com/t51.2885-15/e35/918211_1258185514196626_744685240_n.jpg,man,0.996021271,Relationships,,,,"Best friends",,,
,people,0.995998323,,,,,,,,
,two,0.990738034,,,,,,,,
,portrait,0.985736132,,,,,,,,
,adult,0.979799032,,,,,,,,
,"facial expression",0.972640276,,,,,,,,
,wear,0.970024705,,,,,,,,
,love,0.954758286,,,,,,,,
,ceremony,0.916529477,,,,,,,,
,togetherness,0.897727668,,,,,,,,
,woman,0.862471402,,,,,,,,
,interaction,0.860418379,,,,,,,,
,indoors,0.859822869,,,,,,,,
,friendship,0.858661175,,,,,,,,
,music,0.85831964,,,,,,,,
,three,0.854413271,,,,,,,,
,veil,0.841265559,,,,,,,,
,lid,0.838660717,,,,,,,,
,happiness,0.832425416,,,,,,,,
,group,0.828790784,,,,,,,,
https://scontent.cdninstagram.com/t51.2885-15/e35/13267427_1120303134708015_968679275_n.jpg,portrait,0.99472636,,,,,,,,
,sunglasses,0.989794731,,,,,,,,
,man,0.988996029,,,,,,,,
,eyeglasses,0.984145105,,,,,,,,
,eyewear,0.982819915,,,,,,,,
,people,0.982123256,,,,,,,,
,fine-looking,0.976462483,,,,,,,,
,boy,0.97505641,,,,,,,,
,one,0.955673099,,,,,,,,
,face,0.947449684,,,,,,,,
,wear,0.940470815,,,,,,,,
,cool,0.935611129,,,,,,,,
,guy,0.933629751,,,,,,,,
,trendy,0.933465242,,,,,,,,
,intelligence,0.929954112,,,,,,,,
,fashion,0.923921824,,,,,,,,
,adult,0.92058742,,,,,,,,
,fun,0.90962404,,,,,,,,
,looking,0.909302413,,,,,,,,
,child,0.902702928,,,,,,,,
https://scontent.cdninstagram.com/t51.2885-15/e35/12558559_1553907864933099_1280606995_n.jpg,portrait,0.995312929,Entertainment,,,,Entertainment-s,,,
,people,0.992096364,,,,,,,,
,woman,0.969650984,,,,,,,,
,adult,0.963404179,,,,,,,,
,child,0.931609869,,,,,,,,
,man,0.924680471,,,,,,,,
,one,0.924674511,,,,,,,,
,dark,0.914227962,,,,,,,,
,indoors,0.854905725,,,,,,,,
,face,0.849411607,,,,,,,,
,girl,0.837763429,,,,,,,,
,monochrome,0.823338509,,,,,,,,
,wear,0.807375908,,,,,,,,
,adolescent,0.803348958,,,,,,,,
,desktop,0.786103547,,,,,,,,
,art,0.780430317,,,,,,,,
,music,0.769418895,,,,,,,,
,young,0.769411922,,,,,,,,
,looking,0.754647374,,,,,,,,
,lid,0.739538789,,,,,,,,
https://scontent.cdninstagram.com/t51.2885-15/sh0.08/e35/p750x750/13181455_571144139720138_1832294290_n.jpg,car,0.970983505,"Fashion & Beauty","My life",,,"My look",Selfie,,
,people,0.968601942,,,,,,,,
,one,0.956832469,,,,,,,,
,portrait,0.94915545,,,,,,,,
,vehicle,0.938284755,,,,,,,,
,baseball,0.925399423,,,,,,,,
,"auto racing",0.922452688,,,,,,,,
,man,0.909455776,,,,,,,,
,competition,0.905909479,,,,,,,,
,wear,0.893206596,,,,,,,,
,safety,0.869663477,,,,,,,,
,outdoors,0.867510319,,,,,,,,
,looking,0.86093241,,,,,,,,
,uniform,0.850979567,,,,,,,,
,child,0.840440691,,,,,,,,
,"baseball cap",0.832723498,,,,,,,,
,outfit,0.832010865,,,,,,,,
,driver,0.816959858,,,,,,,,
,indoors,0.810792208,,,,,,,,
,cap,0.794633329,,,,,,,,
https://scontent.cdninstagram.com/t51.2885-15/e35/11351931_973243519410096_63911776_n.jpg,recreation,0.98830688,"Fun Filter","Fashion & Beauty",Commerce,,"Fun Filter",Ootd,"Product/brand shots",
,wear,0.979481816,,,,,,,,
,movie,0.968999505,,,,,,,,
,adult,0.944331527,,,,,,,,
,music,0.93955338,,,,,,,,
,festival,0.915060818,,,,,,,,
,fashion,0.906349659,,,,,,,,
,actress,0.90630281,,,,,,,,
,promotion,0.897891283,,,,,,,,
,musician,0.895570397,,,,,,,,
,arrival,0.887279272,,,,,,,,
,fashionable,0.885646641,,,,,,,,
,people,0.880319834,,,,,,,,
,woman,0.878526628,,,,,,,,
,"film festival",0.877044678,,,,,,,,
,"red carpet",0.874776483,,,,,,,,
,competition,0.852566123,,,,,,,,
,television,0.842070222,,,,,,,,
,singer,0.838196933,,,,,,,,
,track,0.816022694,,,,,,,,
https://scontent.cdninstagram.com/t51.2885-15/e35/13267427_1120303134708015_968679275_n.jpg,portrait,0.99472636,,,,,,,,
,sunglasses,0.989794731,,,,,,,,
,man,0.988996029,,,,,,,,
,eyeglasses,0.984145105,,,,,,,,
,eyewear,0.982819915,,,,,,,,
,people,0.982123256,,,,,,,,
,fine-looking,0.976462483,,,,,,,,
,boy,0.97505641,,,,,,,,
,one,0.955673099,,,,,,,,
,face,0.947449684,,,,,,,,
,wear,0.940470815,,,,,,,,
,cool,0.935611129,,,,,,,,
,guy,0.933629751,,,,,,,,
,trendy,0.933465242,,,,,,,,
,intelligence,0.929954112,,,,,,,,
,fashion,0.923921824,,,,,,,,
,adult,0.92058742,,,,,,,,
,fun,0.90962404,,,,,,,,
,looking,0.909302413,,,,,,,,
,child,0.902702928,,,,,,,,
https://scontent.cdninstagram.com/t51.2885-15/e35/12558559_1553907864933099_1280606995_n.jpg,portrait,0.995312929,Entertainment,,,,Entertainment-s,,,
,people,0.992096364,,,,,,,,
,woman,0.969650984,,,,,,,,
,adult,0.963404179,,,,,,,,
,child,0.931609869,,,,,,,,
,man,0.924680471,,,,,,,,
,one,0.924674511,,,,,,,,
,dark,0.914227962,,,,,,,,
,indoors,0.854905725,,,,,,,,
,face,0.849411607,,,,,,,,
,girl,0.837763429,,,,,,,,
,monochrome,0.823338509,,,,,,,,
,wear,0.807375908,,,,,,,,
,adolescent,0.803348958,,,,,,,,
,desktop,0.786103547,,,,,,,,
,art,0.780430317,,,,,,,,
,music,0.769418895,,,,,,,,
,young,0.769411922,,,,,,,,
,looking,0.754647374,,,,,,,,
,lid,0.739538789,,,,,,,,
https://scontent.cdninstagram.com/t51.2885-15/e35/11350725_1058881140835100_1616815693_n.jpg,people,0.985378146,"My life",Recreation,,,Doing,Recreation-s,,
,one,0.978704572,,,,,,,,
,music,0.971854031,,,,,,,,
,adult,0.970489979,,,,,,,,
,musician,0.947232425,,,,,,,,
,woman,0.939612985,,,,,,,,
,man,0.929960608,,,,,,,,
,guitar,0.922350764,,,,,,,,
,two,0.913125455,,,,,,,,
,sit,0.901657999,,,,,,,,
,wear,0.892581224,,,,,,,,
,sitting,0.884888649,,,,,,,,
,indoors,0.883608341,,,,,,,,
,portrait,0.858943939,,,,,,,,
,chair,0.835074246,,,,,,,,
,furniture,0.831232846,,,,,,,,
,instrument,0.830824673,,,,,,,,
,room,0.823449969,,,,,,,,
,monochrome,0.797968805,,,,,,,,
,piano,0.797329485,,,,,,,,
https://scontent.cdninstagram.com/t51.2885-15/e35/12976433_870728189702843_529397875_n.jpg,portrait,0.998216867,Relationships,"Fun Filter",,,"Best friends","Fun Filter",,
,"facial expression",0.998108447,,,,,,,,
,people,0.997006893,,,,,,,,
,man,0.995376706,,,,,,,,
,adult,0.994115651,,,,,,,,
,wear,0.979053855,,,,,,,,
,two,0.96916157,,,,,,,,
,"facial hair",0.949539483,,,,,,,,
,movie,0.939144135,,,,,,,,
,happiness,0.933322191,,,,,,,,
,one,0.916255474,,,,,,,,
,actor,0.915589213,,,,,,,,
,mustache,0.908245027,,,,,,,,
,recreation,0.908098042,,,,,,,,
,laughing,0.885605872,,,,,,,,
,goatee,0.859041214,,,,,,,,
,outfit,0.839297235,,,,,,,,
,singer,0.824862957,,,,,,,,
,musician,0.818256259,,,,,,,,
,actress,0.79879427,,,,,,,,
https://scontent.cdninstagram.com/t51.2885-15/e35/12144136_1203010649712271_1049627560_n.jpg,people,0.984392881,Relationships,,,,Friends,,,
,woman,0.981506765,,,,,,,,
,group,0.973886371,,,,,,,,
,man,0.971166611,,,,,,,,
,adult,0.953839421,,,,,,,,
,"facial expression",0.946469843,,,,,,,,
,music,0.944306374,,,,,,,,
,portrait,0.939014792,,,,,,,,
,wear,0.928426743,,,,,,,,
,love,0.916416109,,,,,,,,
,three,0.912915945,,,,,,,,
,group,0.901323915,,,,,,,,
,fun,0.88100791,,,,,,,,
,two,0.876773238,,,,,,,,
,four,0.876090705,,,,,,,,
,togetherness,0.865162849,,,,,,,,
,friendship,0.861454487,,,,,,,,
,musician,0.857976019,,,,,,,,
,five,0.856908619,,,,,,,,
,family,0.853453159,,,,,,,,
https://scontent.cdninstagram.com/t51.2885-15/e35/12224454_1498699950425777_1879151584_n.jpg,people,0.97464335,Arts,Entertainment,,,Arts-s,Entertainment-s,,
,man,0.96621567,,,,,,,,
,mask,0.955567002,,,,,,,,
,art,0.944238782,,,,,,,,
,wear,0.931542516,,,,,,,,
,helmet,0.913865089,,,,,,,,
,adult,0.910681248,,,,,,,,
,illustration,0.907429039,,,,,,,,
,one,0.894269586,,,,,,,,
,portrait,0.892795563,,,,,,,,
,costume,0.882467151,,,,,,,,
,face,0.871248126,,,,,,,,
,war,0.867288768,,,,,,,,
,fear,0.836913764,,,,,,,,
,painting,0.828696549,,,,,,,,
,veil,0.826269865,,,,,,,,
,woman,0.799209595,,,,,,,,
,mask,0.793374836,,,,,,,,
,Halloween,0.786062479,,,,,,,,
,fantasy,0.778256536,,,,,,,,
https://scontent.cdninstagram.com/t51.2885-15/e15/12383597_1395687290738417_1772453298_n.jpg,music,0.999511242,"My life",Recreation,,,Doing,Recreation-s,,
,instrument,0.999426603,,,,,,,,
,musician,0.999374628,,,,,,,,
,piano,0.997659326,,,,,,,,
,guitar,0.994841576,,,,,,,,
,jazz,0.994541228,,,,,,,,
,people,0.991360366,,,,,,,,
,concert,0.988859415,,,,,,,,
,one,0.980747223,,,,,,,,
,man,0.975518823,,,,,,,,
,acoustic,0.970337391,,,,,,,,
,performance,0.969276786,,,,,,,,
,pianist,0.966558039,,,,,,,,
,adult,0.966058254,,,,,,,,
,singer,0.945121765,,,,,,,,
,indoors,0.941769242,,,,,,,,
,band,0.936139345,,,,,,,,
,guitarist,0.930115819,,,,,,,,
,sound,0.91687119,,,,,,,,
,pop,0.912692428,,,,,,,,
https://scontent.cdninstagram.com/t51.2885-15/e15/12383597_1395687290738417_1772453298_n.jpg,music,0.999511242,"My life",Recreation,,,Doing,Recreation-s,,
,instrument,0.999426603,,,,,,,,
,musician,0.999374628,,,,,,,,
,piano,0.997659326,,,,,,,,
,guitar,0.994841576,,,,,,,,
,jazz,0.994541228,,,,,,,,
,people,0.991360366,,,,,,,,
,concert,0.988859415,,,,,,,,
,one,0.980747223,,,,,,,,
,man,0.975518823,,,,,,,,
,acoustic,0.970337391,,,,,,,,
,performance,0.969276786,,,,,,,,
,pianist,0.966558039,,,,,,,,
,adult,0.966058254,,,,,,,,
,singer,0.945121765,,,,,,,,
,indoors,0.941769242,,,,,,,,
,band,0.936139345,,,,,,,,
,guitarist,0.930115819,,,,,,,,
,sound,0.91687119,,,,,,,,
,pop,0.912692428,,,,,,,,
https://scontent.cdninstagram.com/t51.2885-15/e35/12353412_492048187640522_1670763558_n.jpg,snooker,0.999996066,,,,,,,,
,cue,0.999951363,,,,,,,,
,recreation,0.999839008,,,,,,,,
,game,0.999611974,,,,,,,,
,competition,0.999545813,,,,,,,,
,pool,0.999267936,,,,,,,,
,leisure,0.99925518,,,,,,,,
,ball,0.998019755,,,,,,,,
,sport,0.995770156,,,,,,,,
,mat,0.994942427,,,,,,,,
,play,0.993841171,,,,,,,,
,gambling,0.993443966,,,,,,,,
,challenge,0.992481232,,,,,,,,
,club,0.991992831,,,,,,,,
,indoors,0.979159117,,,,,,,,
,alley,0.978865564,,,,,,,,
,fun,0.977663875,,,,,,,,
,"sports equipment",0.967340469,,,,,,,,
,action,0.966766357,,,,,,,,
,one,0.965727508,,,,,,,,
https://scontent.cdninstagram.com/t51.2885-15/e35/12301319_1045505425508556_1040115157_n.jpg,Christmas,0.999339879,Commerce,Celebrations,"Fashion & Beauty",,"Product/brand shots","Community Events","My look",
,winter,0.998527467,,,,,,,,
,"no person",0.994842768,,,,,,,,
,"christmas tree",0.993065,,,,,,,,
,celebration,0.980912805,,,,,,,,
,snow,0.978444338,,,,,,,,
,illuminated,0.975430727,,,,,,,,
,festival,0.951106429,,,,,,,,
,shining,0.944073915,,,,,,,,
,sparkling,0.936139941,,,,,,,,
,outdoors,0.924235344,,,,,,,,
,snowflake,0.916707039,,,,,,,,
,light,0.914507627,,,,,,,,
,evening,0.909015298,,,,,,,,
,"New Year",0.902494669,,,,,,,,
,glisten,0.897044063,,,,,,,,
,hanging,0.894370914,,,,,,,,
,traditional,0.891246319,,,,,,,,
,bright,0.876252174,,,,,,,,
,architecture,0.860086918,,,,,,,,
https://scontent.cdninstagram.com/t51.2885-15/e35/12353412_492048187640522_1670763558_n.jpg,snooker,0.999996066,,,,,,,,
,cue,0.999951363,,,,,,,,
,recreation,0.999839008,,,,,,,,
,game,0.999611974,,,,,,,,
,competition,0.999545813,,,,,,,,
,pool,0.999267936,,,,,,,,
,leisure,0.99925518,,,,,,,,
,ball,0.998019755,,,,,,,,
,sport,0.995770156,,,,,,,,
,mat,0.994942427,,,,,,,,
,play,0.993841171,,,,,,,,
,gambling,0.993443966,,,,,,,,
,challenge,0.992481232,,,,,,,,
,club,0.991992831,,,,,,,,
,indoors,0.979159117,,,,,,,,
,alley,0.978865564,,,,,,,,
,fun,0.977663875,,,,,,,,
,"sports equipment",0.967340469,,,,,,,,
,action,0.966766357,,,,,,,,
,one,0.965727508,,,,,,,,
https://scontent.cdninstagram.com/t51.2885-15/e35/918211_1258185514196626_744685240_n.jpg,man,0.996021271,Relationships,,,,"Best friends",,,
,people,0.995998323,,,,,,,,
,two,0.990738034,,,,,,,,
,portrait,0.985736132,,,,,,,,
,adult,0.979799032,,,,,,,,
,"facial expression",0.972640276,,,,,,,,
,wear,0.970024705,,,,,,,,
,love,0.954758286,,,,,,,,
,ceremony,0.916529477,,,,,,,,
,togetherness,0.897727668,,,,,,,,
,woman,0.862471402,,,,,,,,
,interaction,0.860418379,,,,,,,,
,indoors,0.859822869,,,,,,,,
,friendship,0.858661175,,,,,,,,
,music,0.85831964,,,,,,,,
,three,0.854413271,,,,,,,,
,veil,0.841265559,,,,,,,,
,lid,0.838660717,,,,,,,,
,happiness,0.832425416,,,,,,,,
,group,0.828790784,,,,,,,,
https://scontent.cdninstagram.com/t51.2885-15/sh0.08/e35/p640x640/12139630_1499070220392631_1491551506_n.jpg,illustration,0.996682286,Entertainment,,,,Entertainment-s,,,
,vector,0.995369673,,,,,,,,
,card,0.991235912,,,,,,,,
,baby,0.984759331,,,,,,,,
,vector,0.973662913,,,,,,,,
,banner,0.973042727,,,,,,,,
,sketch,0.972267628,,,,,,,,
,template,0.969660878,,,,,,,,
,fun,0.962087393,,,,,,,,
,child,0.952414393,,,,,,,,
,cute,0.93939203,,,,,,,,
,graphic,0.937756598,,,,,,,,
,newborn,0.932088017,,,,,,,,
,page,0.927871048,,,,,,,,
,desktop,0.916558802,,,,,,,,
,design,0.912719131,,,,,,,,
,birth,0.904733777,,,,,,,,
,presentation,0.894628525,,,,,,,,
,"picture frame",0.884993434,,,,,,,,
,menu,0.877805829,,,,,,,,
https://scontent.cdninstagram.com/t51.2885-15/sh0.08/e35/p750x750/13181455_571144139720138_1832294290_n.jpg,car,0.970983505,"Fashion & Beauty","My life",,,"My look",Selfie,,
,people,0.968601942,,,,,,,,
,one,0.956832469,,,,,,,,
,portrait,0.94915545,,,,,,,,
,vehicle,0.938284755,,,,,,,,
,baseball,0.925399423,,,,,,,,
,"auto racing",0.922452688,,,,,,,,
,man,0.909455776,,,,,,,,
,competition,0.905909479,,,,,,,,
,wear,0.893206596,,,,,,,,
,safety,0.869663477,,,,,,,,
,outdoors,0.867510319,,,,,,,,
,looking,0.86093241,,,,,,,,
,uniform,0.850979567,,,,,,,,
,child,0.840440691,,,,,,,,
,"baseball cap",0.832723498,,,,,,,,
,outfit,0.832010865,,,,,,,,
,driver,0.816959858,,,,,,,,
,indoors,0.810792208,,,,,,,,
,cap,0.794633329,,,,,,,,
https://scontent.cdninstagram.com/t51.2885-15/e35/13102339_194808897578870_1527690002_n.jpg,people,0.987507463,Relationships,,,,Friends,,,
,blur,0.984805644,,,,,,,,
,"no person",0.97785008,,,,,,,,
,underwater,0.975987017,,,,,,,,
,wear,0.973539352,,,,,,,,
,one,0.965790272,,,,,,,,
,adult,0.963559747,,,,,,,,
,invertebrate,0.955310583,,,,,,,,
,art,0.952634275,,,,,,,,
,recreation,0.941905737,,,,,,,,
,light,0.939817846,,,,,,,,
,portrait,0.936215758,,,,,,,,
,music,0.936210036,,,,,,,,
,"facial expression",0.925161362,,,,,,,,
,painting,0.923764586,,,,,,,,
,abstract,0.909395576,,,,,,,,
,woman,0.903956771,,,,,,,,
,"side view",0.903953314,,,,,,,,
,action,0.89992094,,,,,,,,
,water,0.896713972,,,,,,,,
https://scontent.cdninstagram.com/t51.2885-15/e35/11350725_1058881140835100_1616815693_n.jpg,people,0.985378146,"My life",Recreation,,,Doing,Recreation-s,,
,one,0.978704572,,,,,,,,
,music,0.971854031,,,,,,,,
,adult,0.970489979,,,,,,,,
,musician,0.947232425,,,,,,,,
,woman,0.939612985,,,,,,,,
,man,0.929960608,,,,,,,,
,guitar,0.922350764,,,,,,,,
,two,0.913125455,,,,,,,,
,sit,0.901657999,,,,,,,,
,wear,0.892581224,,,,,,,,
,sitting,0.884888649,,,,,,,,
,indoors,0.883608341,,,,,,,,
,portrait,0.858943939,,,,,,,,
,chair,0.835074246,,,,,,,,
,furniture,0.831232846,,,,,,,,
,instrument,0.830824673,,,,,,,,
,room,0.823449969,,,,,,,,
,monochrome,0.797968805,,,,,,,,
,piano,0.797329485,,,,,,,,
https://scontent.cdninstagram.com/t51.2885-15/e35/12144136_1203010649712271_1049627560_n.jpg,people,0.984392881,Relationships,,,,Friends,,,
,woman,0.981506765,,,,,,,,
,group,0.973886371,,,,,,,,
,man,0.971166611,,,,,,,,
,adult,0.953839421,,,,,,,,
,"facial expression",0.946469843,,,,,,,,
,music,0.944306374,,,,,,,,
,portrait,0.939014792,,,,,,,,
,wear,0.928426743,,,,,,,,
,love,0.916416109,,,,,,,,
,three,0.912915945,,,,,,,,
,group,0.901323915,,,,,,,,
,fun,0.88100791,,,,,,,,
,two,0.876773238,,,,,,,,
,four,0.876090705,,,,,,,,
,togetherness,0.865162849,,,,,,,,
,friendship,0.861454487,,,,,,,,
,musician,0.857976019,,,,,,,,
,five,0.856908619,,,,,,,,
,family,0.853453159,,,,,,,,
https://scontent.cdninstagram.com/t51.2885-15/e35/12907407_580807738767010_1669212441_n.jpg,technology,0.997890234,Entertainment,,,,Entertainment-s,,,
,computer,0.996509671,,,,,,,,
,laptop,0.994706273,,,,,,,,
,internet,0.992492437,,,,,,,,
,screen,0.975938797,,,,,,,,
,"no person",0.963905752,,,,,,,,
,business,0.95176208,,,,,,,,
,wireless,0.951279402,,,,,,,,
,keyboard,0.938107371,,,,,,,,
,monitor,0.925876319,,,,,,,,
,spherical,0.917198777,,,,,,,,
,electronics,0.913739681,,,,,,,,
,contemporary,0.90610683,,,,,,,,
,people,0.900392175,,,,,,,,
,connection,0.896565318,,,,,,,,
,display,0.871626496,,,,,,,,
,portable,0.870239437,,,,,,,,
,travel,0.86687386,,,,,,,,
,data,0.863428831,,,,,,,,
,indoors,0.859585881,,,,,,,,
https://scontent.cdninstagram.com/t51.2885-15/e35/12081080_1222474024436168_2019952461_n.jpg,weightlifting,0.997289777,Recreation,"Fashion & Beauty",,,Fitness,Ootd,,
,indoors,0.997251809,,,,,,,,
,weight,0.994994521,,,,,,,,
,strength,0.993320942,,,,,,,,
,train,0.992598534,,,,,,,,
,dumbbell,0.989379823,,,,,,,,
,barbell,0.989102006,,,,,,,,
,exercise,0.988587797,,,,,,,,
,club,0.985935092,,,,,,,,
,treadmill,0.985505939,,,,,,,,
,athlete,0.977370977,,,,,,,,
,bodybuilding,0.975383878,,,,,,,,
,strong,0.969459832,,,,,,,,
,teacher,0.959989071,,,,,,,,
,fitness,0.954689145,,,,,,,,
,muscle,0.942039251,,,,,,,,
,furniture,0.941555738,,,,,,,,
,lift,0.937740088,,,,,,,,
,bench,0.931833267,,,,,,,,
,equipment,0.924695194,,,,,,,,
https://scontent.cdninstagram.com/t51.2885-15/e35/13102339_194808897578870_1527690002_n.jpg,people,0.987507463,Relationships,,,,Friends,,,
,blur,0.984805644,,,,,,,,
,"no person",0.97785008,,,,,,,,
,underwater,0.975987017,,,,,,,,
,wear,0.973539352,,,,,,,,
,one,0.965790272,,,,,,,,
,adult,0.963559747,,,,,,,,
,invertebrate,0.955310583,,,,,,,,
,art,0.952634275,,,,,,,,
,recreation,0.941905737,,,,,,,,
,light,0.939817846,,,,,,,,
,portrait,0.936215758,,,,,,,,
,music,0.936210036,,,,,,,,
,"facial expression",0.925161362,,,,,,,,
,painting,0.923764586,,,,,,,,
,abstract,0.909395576,,,,,,,,
,woman,0.903956771,,,,,,,,
,"side view",0.903953314,,,,,,,,
,action,0.89992094,,,,,,,,
,water,0.896713972,,,,,,,,
https://scontent.cdninstagram.com/t51.2885-15/e35/12598971_947309025353759_524565597_n.jpg,illustration,0.988795996,Entertainment,Arts,,,Entertainment-s,Arts-s,,
,sketch,0.97680819,,,,,,,,
,vector,0.963196516,,,,,,,,
,child,0.942470133,,,,,,,,
,tree,0.938360095,,,,,,,,
,nature,0.926318467,,,,,,,,
,animal,0.905725777,,,,,,,,
,design,0.900162518,,,,,,,,
,fun,0.895945132,,,,,,,,
,desktop,0.894424081,,,,,,,,
,graphic,0.88319087,,,,,,,,
,funny,0.869503021,,,,,,,,
,image,0.867600203,,,,,,,,
,card,0.8577106,,,,,,,,
,cute,0.85595715,,,,,,,,
,art,0.855347157,,,,,,,,
,summer,0.854753196,,,,,,,,
,symbol,0.837752938,,,,,,,,
,set,0.82816422,,,,,,,,
,bird,0.8138991,,,,,,,,
https://scontent.cdninstagram.com/t51.2885-15/e35/12598971_947309025353759_524565597_n.jpg,illustration,0.988795996,Entertainment,Arts,,,Entertainment-s,Arts-s,,
,sketch,0.97680819,,,,,,,,
,vector,0.963196516,,,,,,,,
,child,0.942470133,,,,,,,,
,tree,0.938360095,,,,,,,,
,nature,0.926318467,,,,,,,,
,animal,0.905725777,,,,,,,,
,design,0.900162518,,,,,,,,
,fun,0.895945132,,,,,,,,
,desktop,0.894424081,,,,,,,,
,graphic,0.88319087,,,,,,,,
,funny,0.869503021,,,,,,,,
,image,0.867600203,,,,,,,,
,card,0.8577106,,,,,,,,
,cute,0.85595715,,,,,,,,
,art,0.855347157,,,,,,,,
,summer,0.854753196,,,,,,,,
,symbol,0.837752938,,,,,,,,
,set,0.82816422,,,,,,,,
,bird,0.8138991,,,,,,,,
https://scontent.cdninstagram.com/t51.2885-15/e35/12301319_1045505425508556_1040115157_n.jpg,Christmas,0.999339879,Commerce,Celebrations,"Fashion & Beauty",,"Product/brand shots","Community Events","My look",
,winter,0.998527467,,,,,,,,
,"no person",0.994842768,,,,,,,,
,"christmas tree",0.993065,,,,,,,,
,celebration,0.980912805,,,,,,,,
,snow,0.978444338,,,,,,,,
,illuminated,0.975430727,,,,,,,,
,festival,0.951106429,,,,,,,,
,shining,0.944073915,,,,,,,,
,sparkling,0.936139941,,,,,,,,
,outdoors,0.924235344,,,,,,,,
,snowflake,0.916707039,,,,,,,,
,light,0.914507627,,,,,,,,
,evening,0.909015298,,,,,,,,
,"New Year",0.902494669,,,,,,,,
,glisten,0.897044063,,,,,,,,
,hanging,0.894370914,,,,,,,,
,traditional,0.891246319,,,,,,,,
,bright,0.876252174,,,,,,,,
,architecture,0.860086918,,,,,,,,
