url,class,score
https://scontent.cdninstagram.com/t51.2885-15/e15/13260831_1543712599268719_196294422_n.jpg,outdoors,0.9955156445503235
,woman,0.9780662059783936
,people,0.9765011072158813
,summer,0.9731670618057251
,adult,0.9644402265548706
,portrait,0.9515495300292969
,happiness,0.942781925201416
,park,0.9379305839538574
,leisure,0.9196988344192505
,fair weather,0.9193109273910522
,togetherness,0.9171268939971924
,relaxation,0.91490238904953
,modern,0.9131267070770264
,enjoyment,0.910232663154602
,daylight,0.9010627865791321
,recreation,0.8920804262161255
,man,0.887876033782959
,sky,0.8877568244934082
,vertical,0.8842960000038147
,travel,0.8686591982841492
https://scontent.cdninstagram.com/t51.2885-15/e35/13256612_1690007061266422_1283513422_n.jpg,blur,0.9792025089263916
,illuminated,0.9781639575958252
,no person,0.9665032029151917
,light,0.9654034376144409
,festival,0.9649456739425659
,travel,0.9624674320220947
,evening,0.9565168023109436
,ferris wheel,0.952976405620575
,fun,0.9441242218017578
,carousel,0.9429805278778076
,outdoors,0.9428757429122925
,exhilaration,0.9344313740730286
,carnival,0.9290033578872681
,sky,0.9288692474365234
,city,0.9134867191314697
,dusk,0.9088704586029053
,entertainment,0.8982494473457336
,fairground,0.8881210088729858
,fast,0.8760640621185303
,motion,0.8725552558898926
https://scontent.cdninstagram.com/t51.2885-15/s640x640/e15/13298200_1604064369903672_1087160108_n.jpg,indoors,0.9977121353149414
,people,0.9815210103988647
,adult,0.9793537259101868
,horizontal,0.9736292362213135
,vertical,0.9724931120872498
,side view,0.9509215354919434
,preparation,0.9367480278015137
,woman,0.9344965219497681
,man,0.9140579700469971
,creativity,0.8297562599182129
,mannequin,0.824637770652771
,craft,0.8096210956573486
,luxury,0.7963563799858093
,hanging,0.7887095808982849
,window,0.7813305854797363
,togetherness,0.7808926105499268
,business,0.7806569933891296
,child,0.7678462266921997
,door,0.7676303386688232
,horizontal,0.7639733552932739
https://scontent.cdninstagram.com/t51.2885-15/e35/13259475_169907956743494_872984569_n.jpg,no person,0.985580325126648
,business,0.9822441339492798
,identity,0.9629979729652405
,passport,0.9530691504478455
,paper,0.9314223527908325
,security,0.9190324544906616
,administration,0.9138562679290771
,visa,0.9114131927490234
,travel,0.9090197682380676
,indoors,0.906021237373352
,document,0.9021809101104736
,money,0.898881196975708
,shopping,0.897020697593689
,commerce,0.8913444876670837
,one,0.8858939409255981
,finance,0.8781939744949341
,authority,0.8496332168579102
,citizenship,0.8462505340576172
,number,0.8318174481391907
,law,0.8309909105300903
https://scontent.cdninstagram.com/t51.2885-15/e35/13181402_173219096412117_34395107_n.jpg,water,0.9897809624671936
,illuminated,0.9871968030929565
,evening,0.9862215518951416
,city,0.9835151433944702
,bridge,0.9829378128051758
,casino,0.9819339513778687
,dusk,0.9818307161331177
,travel,0.98151695728302
,architecture,0.9803695678710938
,river,0.9724828004837036
,light,0.9715611934661865
,sky,0.9696701765060425
,urban,0.9633225202560425
,reflection,0.9626318216323853
,downtown,0.953170120716095
,outdoors,0.9503151178359985
,landmark,0.9466787576675415
,hotel,0.9458779096603394
,sunset,0.9428021311759949
,no person,0.9422532320022583
https://scontent.cdninstagram.com/t51.2885-15/e35/13129672_1730390273845962_2058868702_n.jpg,sand,0.9948624968528748
,beach,0.9937461614608765
,water,0.9843878746032715
,relaxation,0.9831399917602539
,summer,0.9818338751792908
,sea,0.9759513139724731
,ocean,0.9754880666732788
,leisure,0.9751896858215332
,seashore,0.9653756618499756
,tropical,0.9647272229194641
,travel,0.9579315185546875
,vacation,0.9559065103530884
,enjoyment,0.9510699510574341
,sky,0.9406507015228271
,sun,0.9297956228256226
,fun,0.9224852323532104
,recreation,0.9201335906982422
,fair weather,0.9173264503479004
,idyllic,0.8999263048171997
,outdoors,0.8923243284225464
https://scontent.cdninstagram.com/t51.2885-15/e35/13277781_1208344809178024_663888460_n.jpg,moon,0.9653327465057373
,sky,0.9648898839950562
,dark,0.957314133644104
,no person,0.9549083709716797
,abstract,0.9519237875938416
,light,0.9495847225189209
,desktop,0.943822979927063
,evening,0.9364583492279053
,Christmas,0.9244959354400635
,winter,0.9232866168022156
,light,0.9141085743904114
,art,0.9134930968284607
,daylight,0.9118126034736633
,blur,0.9090108871459961
,festival,0.8923473954200745
,color,0.881040096282959
,outdoors,0.862165093421936
,bright,0.8594205379486084
,sea,0.8291179537773132
,wallpaper,0.826285719871521
https://scontent.cdninstagram.com/t51.2885-15/e15/12965148_1325238404159719_2115882629_n.jpg,people,0.9814027547836304
,woman,0.962835431098938
,city,0.95671546459198
,adult,0.9432176947593689
,shopping,0.9425137042999268
,group,0.9380567073822021
,man,0.935935378074646
,stock,0.9343830347061157
,street,0.9230745434761047
,tourist,0.9152659773826599
,travel,0.8967501521110535
,wear,0.8912500739097595
,luggage,0.8634021282196045
,crowd,0.8608211278915405
,commerce,0.8528869152069092
,outdoors,0.8491736650466919
,enjoyment,0.8475210666656494
,market,0.8359076380729675
,many,0.8343676328659058
,festival,0.8289780020713806
https://scontent.cdninstagram.com/t51.2885-15/e35/12445915_859513507504039_357755819_n.jpg,transportation system,0.998895525932312
,vehicle,0.9970467686653137
,traffic,0.9893414974212646
,car,0.9819608926773071
,truck,0.9800397157669067
,shipment,0.9763875007629395
,travel,0.9678878784179688
,road,0.967061460018158
,industry,0.9597957134246826
,city,0.9447540044784546
,terminal,0.9417542815208435
,business,0.9240095019340515
,urban,0.9121077060699463
,fuel,0.9100558757781982
,container,0.8950519561767578
,engine,0.8783895969390869
,International,0.8753890991210938
,aircraft,0.8734515905380249
,street,0.8667967319488525
,airport,0.866713285446167
https://scontent.cdninstagram.com/t51.2885-15/e35/13267361_135251210212222_494521885_n.jpg,girl,0.9856309294700623
,woman,0.9783502817153931
,portrait,0.9715813398361206
,people,0.968277096748352
,park,0.9635332822799683
,nature,0.9566664695739746
,landscape,0.9486234784126282
,rain,0.9434176683425903
,tree,0.9423101544380188
,outdoors,0.9385477900505066
,adult,0.9345169067382812
,light,0.9325481653213501
,brunette,0.9301283359527588
,beautiful,0.927577018737793
,model,0.9207377433776855
,summer,0.9172799587249756
,wood,0.9115962386131287
,backlit,0.8940420150756836
,one,0.8810555934906006
,fair weather,0.8699249029159546
https://scontent.cdninstagram.com/t51.2885-15/e35/13259678_1755638598013908_1805343739_n.jpg,light,0.9395569562911987
,festival,0.9248042106628418
,music,0.9016284942626953
,no person,0.8793516159057617
,performance,0.7968238592147827
,people,0.7891321778297424
,neon,0.7762163877487183
,technology,0.7615182995796204
,energy,0.7508383393287659
,business,0.7395117282867432
,concert,0.7134116888046265
,entertainment,0.6948890686035156
,stage,0.6947760581970215
,casino,0.6921656727790833
,celebration,0.662956953048706
,dark,0.6617152690887451
,abstract,0.6562644839286804
,evening,0.6460967063903809
,gambling,0.6447998285293579
,explosion,0.6351258754730225
https://scontent.cdninstagram.com/t51.2885-15/e35/13150959_129940064077206_374307016_n.jpg,architecture,0.9760817289352417
,travel,0.9741404056549072
,city,0.9636400938034058
,building,0.9614173173904419
,outdoors,0.9403188824653625
,urban,0.9391735792160034
,tourism,0.9384862184524536
,water,0.9310083985328674
,people,0.9209804534912109
,street,0.9192990660667419
,sky,0.9171157479286194
,bridge,0.915314793586731
,tourist,0.8880760669708252
,daylight,0.883944034576416
,park,0.8750786185264587
,construction,0.8716855645179749
,landmark,0.86949622631073
,tower,0.8686088919639587
,town,0.8677204847335815
,landscape,0.8360627293586731
https://scontent.cdninstagram.com/l/t51.2885-15/e35/13167411_1117718604916505_2146231921_n.jpg,no person,0.9929192066192627
,porridge,0.9738833904266357
,rice,0.9657027125358582
,bowl,0.9421139359474182
,grow,0.9350351095199585
,food,0.934067964553833
,health,0.8972798585891724
,lunch,0.8937089443206787
,dinner,0.8793928623199463
,cooking,0.8757950067520142
,salt,0.8616658449172974
,nutrition,0.8553550243377686
,vegetable,0.8377500772476196
,still life,0.8364846706390381
,meal,0.8267977237701416
,ingredients,0.8197091221809387
,traditional,0.8148624897003174
,delicious,0.8133455514907837
,pork,0.8122344017028809
,dairy product,0.7686570882797241
https://scontent.cdninstagram.com/t51.2885-15/e35/13257105_1223141497697381_832072516_n.jpg,weather,0.9927138686180115
,sky,0.9922606945037842
,air,0.9894346594810486
,desktop,0.988928496837616
,daylight,0.9879874587059021
,downy,0.9865176677703857
,nature,0.9864872694015503
,high,0.9824779629707336
,summer,0.9815387725830078
,space,0.9809966087341309
,no person,0.9794290065765381
,Heaven,0.9786481261253357
,light,0.9783352017402649
,fair weather,0.9773377180099487
,outdoors,0.9750109910964966
,color,0.9717706441879272
,environment,0.9707847833633423
,cloudy,0.9703516960144043
,light,0.9677886366844177
,atmosphere,0.9653224945068359
https://scontent.cdninstagram.com/t51.2885-15/e35/12677546_1610830482571812_1544162754_n.jpg,food,0.9924628734588623
,delicious,0.97601717710495
,traditional,0.9664943218231201
,egg,0.966145396232605
,meal,0.9649214744567871
,breakfast,0.9645317792892456
,lunch,0.9641575813293457
,no person,0.9562222957611084
,plate,0.9558160901069641
,dinner,0.9522291421890259
,restaurant,0.9482585191726685
,hot,0.9452183246612549
,cooking,0.9408712387084961
,dish,0.9386458396911621
,health,0.9161950349807739
,tea,0.9139949679374695
,coffee,0.913835883140564
,bread,0.9051092863082886
,nutrition,0.90167236328125
,cuisine,0.8953810930252075
https://scontent.cdninstagram.com/l/t51.2885-15/e35/13117810_471247873069131_470163152_n.jpg,summer,0.9847474098205566
,nature,0.9825872182846069
,sea,0.9792142510414124
,outdoors,0.978335440158844
,water,0.9773039817810059
,sky,0.9737695455551147
,beach,0.9676048755645752
,sand,0.9669666290283203
,relaxation,0.965356707572937
,travel,0.9543683528900146
,fair weather,0.9510932564735413
,freedom,0.9221311807632446
,seashore,0.9141700267791748
,leisure,0.9079362154006958
,sun,0.8885027170181274
,enjoyment,0.8877918124198914
,fun,0.8161114454269409
,woman,0.795208215713501
,tropical,0.7769337892532349
,recreation,0.7692790031433105
https://scontent.cdninstagram.com/t51.2885-15/e35/13256810_1757105177902787_311800128_n.jpg,city,0.9753447771072388
,reflection,0.9739737510681152
,water,0.9688668251037598
,no person,0.9656854867935181
,light,0.9526556730270386
,evening,0.928143322467804
,architecture,0.9278084635734558
,travel,0.9169946312904358
,sky,0.9156579375267029
,river,0.907352089881897
,cityscape,0.8983888626098633
,bridge,0.8932574987411499
,building,0.8879998922348022
,urban,0.8867523670196533
,modern,0.8863235712051392
,color,0.8648995161056519
,skyline,0.8630867004394531
,outdoors,0.8475618362426758
,sunset,0.8182570338249207
,dusk,0.816891074180603
https://scontent.cdninstagram.com/t51.2885-15/e35/13397595_1797811763781139_1589176494_n.jpg,beach,0.9960235357284546
,sea,0.9904100894927979
,seashore,0.9897533059120178
,water,0.9895819425582886
,sand,0.9886436462402344
,ocean,0.9827044606208801
,vacation,0.9808998107910156
,travel,0.9796559810638428
,summer,0.9766708612442017
,leisure,0.9766324758529663
,togetherness,0.9734600782394409
,fun,0.9642632007598877
,enjoyment,0.9589337706565857
,love,0.9534472227096558
,child,0.9467449188232422
,relaxation,0.9224563837051392
,sky,0.9153894782066345
,recreation,0.9110515713691711
,outdoors,0.9108245372772217
,two,0.9104419946670532
https://scontent.cdninstagram.com/t51.2885-15/e35/13248819_240099903012448_468051030_n.jpg,beer,0.9999417662620544
,foam,0.9989833235740662
,drink,0.9977879524230957
,lager,0.9906845092773438
,glass,0.9854291677474976
,brewery,0.9821521043777466
,alcohol,0.9808371067047119
,ale,0.9726183414459229
,cold,0.9725658893585205
,pint,0.9669803380966187
,bar,0.9611603021621704
,no person,0.9490262269973755
,pub,0.9383244514465332
,bubble,0.9311561584472656
,brew,0.9119370579719543
,liquor,0.9022473096847534
,food,0.8939394950866699
,full,0.8937152624130249
,foamy,0.8823645114898682
,gold,0.878600001335144
https://scontent.cdninstagram.com/t51.2885-15/e35/13267369_696756313796804_1598979340_n.jpg,city,0.9956490993499756
,urban,0.9935256242752075
,architecture,0.9912348985671997
,building,0.9883160591125488
,business,0.9873185753822327
,modern,0.9866236448287964
,glass,0.9820702075958252
,office,0.9799003601074219
,blur,0.9764547944068909
,travel,0.9750517010688782
,downtown,0.9687100648880005
,sky,0.9679871797561646
,reflection,0.96797776222229
,street,0.9660030603408813
,cityscape,0.9605885744094849
,futuristic,0.9584622383117676
,skyscraper,0.9455664157867432
,construction,0.935966432094574
,road,0.9350468516349792
,light,0.9347281455993652
https://scontent.cdninstagram.com/t51.2885-15/s750x750/sh0.08/e35/12677375_1701866940082255_2075225193_n.jpg,food,0.9914402961730957
,sweet,0.9907889366149902
,no person,0.9888429641723633
,delicious,0.9777319431304932
,homemade,0.9754494428634644
,sugar,0.9669552445411682
,cooking,0.9547522068023682
,cream,0.9440462589263916
,bowl,0.9428936243057251
,syrup,0.9365420937538147
,honey,0.9337202906608582
,breakfast,0.9318920373916626
,baking,0.92141193151474
,plate,0.9187849760055542
,pastry,0.9180413484573364
,fruit,0.9105278253555298
,hot,0.9065651893615723
,nutrition,0.9053292274475098
,meal,0.9039320349693298
,tasty,0.9016766548156738
https://scontent.cdninstagram.com/t51.2885-15/e35/12940111_106442543097574_358866157_n.jpg,luggage,0.999812126159668
,airport,0.9979787468910217
,departure,0.9966546893119812
,shopping,0.9894545078277588
,tram,0.9893028736114502
,indoors,0.9879727959632874
,woman,0.98476243019104
,transportation system,0.9760597944259644
,shop,0.9708024263381958
,travel,0.9689540863037109
,stock,0.9605926275253296
,business,0.9579962491989136
,terminal,0.9557839632034302
,station,0.9465324878692627
,expect,0.940926194190979
,train,0.9382959604263306
,service,0.932591438293457
,train,0.9171044826507568
,tube,0.9158525466918945
,travel,0.9074151515960693
https://scontent.cdninstagram.com/t51.2885-15/e35/13249821_632267040258798_1528282618_n.jpg,city,0.9939544200897217
,architecture,0.9904183149337769
,water,0.989550769329071
,skyscraper,0.9865192174911499
,downtown,0.9848715662956238
,skyline,0.983999490737915
,finance,0.9825377464294434
,no person,0.9769870638847351
,travel,0.9749169945716858
,building,0.9743251800537109
,cityscape,0.9733235836029053
,business,0.9668750762939453
,sky,0.9607692956924438
,office,0.9600834846496582
,waterfront,0.95350581407547
,urban,0.9462541341781616
,river,0.9433411359786987
,reflection,0.9364885091781616
,modern,0.929434061050415
,hotel,0.9247759580612183
https://scontent.cdninstagram.com/t51.2885-15/e35/12965687_613981902083958_162608623_n.jpg,tree,0.9913570880889893
,branch,0.9816709756851196
,silhouette,0.9765167832374573
,desktop,0.9712345600128174
,winter,0.9711034893989563
,wood,0.959794819355011
,landscape,0.9479571580886841
,no person,0.9467048645019531
,nature,0.9339295625686646
,abstract,0.9310905933380127
,trunk,0.9261256456375122
,art,0.9183834791183472
,season,0.8996755480766296
,bark,0.8891880512237549
,fall,0.887146532535553
,snow,0.8858770132064819
,cold,0.8847557902336121
,leaf,0.8795072436332703
,sky,0.8780170679092407
,flora,0.8667694926261902
https://scontent.cdninstagram.com/t51.2885-15/e35/13129890_885739618218216_373161303_n.jpg,winter,0.9970799684524536
,nature,0.9963157176971436
,tree,0.9951531887054443
,landscape,0.9925024509429932
,wood,0.9870026707649231
,snow,0.9857720136642456
,branch,0.9840794801712036
,season,0.976279616355896
,fair weather,0.9729735851287842
,dawn,0.9727615714073181
,weather,0.9718224406242371
,light,0.9716687798500061
,sun,0.9698025584220886
,no person,0.9685878157615662
,desktop,0.9641165733337402
,park,0.9638758897781372
,frost,0.9637287855148315
,leaf,0.962893009185791
,fall,0.9569606781005859
,outdoors,0.955195426940918
https://scontent.cdninstagram.com/t51.2885-15/e35/13248740_806985749438930_1097599448_n.jpg,drink,0.9815518856048584
,no person,0.9724524021148682
,food,0.9480661153793335
,fruit,0.9416050910949707
,cold,0.9252461791038513
,ice,0.9205083250999451
,glass,0.9028440713882446
,cocktail,0.8918797969818115
,bar,0.8828794956207275
,juice,0.8620797395706177
,party,0.8541080951690674
,sugar,0.7986983060836792
,refreshment,0.7777711153030396
,straw,0.7748959064483643
,tropical,0.7600547075271606
,table,0.7541519403457642
,summer,0.7516184449195862
,sweet,0.7480010986328125
,wood,0.727881908416748
,indoors,0.7276545763015747
https://scontent.cdninstagram.com/t51.2885-15/e35/13249961_1111455208897394_1023013615_n.jpg,restaurant,0.9986658096313477
,bar,0.9978069067001343
,pub,0.9924591779708862
,coffee,0.9821186065673828
,drink,0.9811683893203735
,indoors,0.9725460410118103
,woman,0.9664735794067383
,shopping,0.9655765891075134
,people,0.9628767967224121
,wine,0.9622941017150879
,stock,0.9553935527801514
,table,0.943074107170105
,nightlife,0.9387873411178589
,counter,0.9110121130943298
,waitress,0.9083162546157837
,bartender,0.9070966243743896
,hotel,0.8930742144584656
,waiter,0.8877823352813721
,portrait,0.8857587575912476
,tea,0.8824711441993713
https://scontent.cdninstagram.com/t51.2885-15/e35/13117875_993863730678813_556113123_n.jpg,travel,0.9910048842430115
,tropical,0.9903267621994019
,water,0.9875528812408447
,sand,0.9848124384880066
,island,0.984398365020752
,beach,0.9780768156051636
,seashore,0.9775040149688721
,idyllic,0.9765421152114868
,no person,0.9741111993789673
,relaxation,0.9684542417526245
,summer,0.9683241844177246
,exotic,0.9539833664894104
,turquoise,0.9525479674339294
,bay,0.9484567642211914
,sea,0.9459388852119446
,recreation,0.9441869258880615
,vacation,0.942881166934967
,ocean,0.9403948783874512
,leisure,0.9171397686004639
,seascape,0.9043694734573364
https://scontent.cdninstagram.com/t51.2885-15/e35/13381155_466044240262783_523647318_n.jpg,nature,0.99544358253479
,woman,0.9928816556930542
,summer,0.9924064874649048
,outdoors,0.9874659180641174
,fashion,0.9694801568984985
,fair weather,0.9643349647521973
,leisure,0.9583731889724731
,relaxation,0.9570740461349487
,grass,0.9526415467262268
,freedom,0.9356405138969421
,sky,0.9283716678619385
,girl,0.9283164739608765
,sexy,0.9275102019309998
,pretty,0.923401951789856
,sun,0.9003832340240479
,travel,0.8954669237136841
,cute,0.8906010389328003
,fun,0.8848086595535278
,enjoyment,0.8728267550468445
,beach,0.8671934604644775
https://scontent.cdninstagram.com/t51.2885-15/e35/12724691_224605017920826_1719762645_n.jpg,festival,0.9930287599563599
,music,0.9920170307159424
,celebration,0.9813433289527893
,party,0.9790037870407104
,performance,0.9782997369766235
,concert,0.9690003395080566
,Christmas,0.9614098072052002
,light,0.9611527919769287
,no person,0.9226243495941162
,motion,0.9178920984268188
,energy,0.9097262620925903
,evening,0.8938142657279968
,band,0.8699184656143188
,illuminated,0.8699139356613159
,bright,0.8615838289260864
,musician,0.8569837808609009
,club,0.8444479703903198
,stage,0.8441721796989441
,singer,0.8407508134841919
,city,0.8406692147254944
https://scontent.cdninstagram.com/t51.2885-15/e35/13437353_843518092421276_1268904749_n.jpg,sky,0.9799274206161499
,no person,0.9698147177696228
,sun,0.9661140441894531
,summer,0.957143247127533
,travel,0.9544872641563416
,fair weather,0.9499769806861877
,outdoors,0.9267802238464355
,vacation,0.923715353012085
,water,0.8974984884262085
,sunny,0.8889294266700745
,architecture,0.8852393627166748
,hotel,0.8848176002502441
,resort,0.866893470287323
,roof,0.8542360067367554
,house,0.8381827473640442
,beach,0.8305788040161133
,ocean,0.8255832195281982
,luxury,0.8158329725265503
,cloud,0.8132445812225342
,nature,0.8117731213569641
https://scontent.cdninstagram.com/t51.2885-15/e35/13392726_1551283488513737_914054058_n.jpg,sky,0.9951869249343872
,nature,0.9897114038467407
,no person,0.988484263420105
,outdoors,0.9849731922149658
,downy,0.9849227666854858
,summer,0.9841030836105347
,freedom,0.976089358329773
,fair weather,0.9751524925231934
,weather,0.9678255319595337
,Heaven,0.9645099639892578
,light,0.9633528590202332
,sun,0.9615713357925415
,daylight,0.9609447717666626
,space,0.9587793946266174
,air,0.9555586576461792
,high,0.9522303342819214
,bright,0.9492692351341248
,landscape,0.9478065967559814
,desktop,0.9381833076477051
,wind,0.936053991317749
https://scontent.cdninstagram.com/t51.2885-15/e35/13118129_572034432971011_511018399_n.jpg,beach,0.9946485161781311
,sand,0.992756187915802
,sea,0.9901241064071655
,summer,0.9888472557067871
,water,0.9870915412902832
,ocean,0.9797673225402832
,vacation,0.9730211496353149
,seashore,0.9696692228317261
,travel,0.9588515758514404
,leisure,0.9511153697967529
,relaxation,0.9468361139297485
,fair weather,0.9420648813247681
,sun,0.9370660185813904
,girl,0.9317348003387451
,woman,0.926291823387146
,nature,0.9252315759658813
,sky,0.9223624467849731
,tropical,0.9031333923339844
,fun,0.8966050148010254
,outdoors,0.8893855810165405
https://scontent.cdninstagram.com/t51.2885-15/e35/13473363_587885824750870_902744096_n.jpg,nature,0.9970733523368835
,woman,0.9940704107284546
,outdoors,0.9927905201911926
,summer,0.9902532696723938
,pretty,0.9853905439376831
,fashion,0.9832963943481445
,beautiful,0.9755685329437256
,relaxation,0.972145676612854
,cute,0.9657447338104248
,grass,0.9594522714614868
,young,0.9576742649078369
,girl,0.9488465785980225
,portrait,0.9413567781448364
,wood,0.939662754535675
,leisure,0.9347426295280457
,one,0.9309678077697754
,hair,0.9304088354110718
,people,0.9225419759750366
,model,0.9069954752922058
,park,0.9036659598350525
https://scontent.cdninstagram.com/t51.2885-15/e35/12445928_1703347996570979_2008988146_n.jpg,city,0.9790720343589783
,fog,0.9696738719940186
,religion,0.9651467800140381
,architecture,0.9597468376159668
,travel,0.957352876663208
,art,0.9570006132125854
,sky,0.9487149119377136
,building,0.9437671899795532
,no person,0.9405707716941833
,light,0.9171556234359741
,group,0.8821589946746826
,landscape,0.8792895674705505
,people,0.8736170530319214
,outdoors,0.8584035634994507
,vacation,0.8483880758285522
,winter,0.8459268808364868
,statue,0.8449894189834595
,dawn,0.8433365821838379
,sculpture,0.8334164619445801
,temple,0.830162525177002
https://scontent.cdninstagram.com/l/t51.2885-15/e35/12940231_896396913817179_1333469163_n.jpg,people,0.9969855546951294
,city,0.9843544960021973
,adult,0.9764940738677979
,man,0.9736746549606323
,street,0.9732438921928406
,fog,0.9612098932266235
,urban,0.9547557830810547
,group,0.9409694671630859
,building,0.9371455311775208
,architecture,0.9325182437896729
,pavement,0.9214900732040405
,group,0.919208288192749
,mist,0.9140602350234985
,light,0.9125887155532837
,business,0.9109022617340088
,woman,0.9087319374084473
,one,0.9034140110015869
,road,0.8970868587493896
,travel,0.8910756707191467
,dawn,0.8891340494155884
https://scontent.cdninstagram.com/t51.2885-15/e35/13108554_1565332880429891_729838479_n.jpg,cream,0.9977190494537354
,milk,0.994491696357727
,creamy,0.9932350516319275
,yogurt,0.9854800701141357
,no person,0.9832513332366943
,mint,0.9815324544906616
,fruit,0.9791086912155151
,dairy product,0.9780279994010925
,food,0.9777971506118774
,sweet,0.9768295288085938
,pudding,0.9722640514373779
,breakfast,0.9703863859176636
,drink,0.966213583946228
,leaf,0.9635142087936401
,health,0.9558792114257812
,glass,0.9552284479141235
,delicious,0.9521721601486206
,dairy,0.9516688585281372
,bowl,0.9509925842285156
,healthy,0.9497872591018677
https://scontent.cdninstagram.com/t51.2885-15/e35/12424777_227261777663451_384842440_n.jpg,food,0.9898513555526733
,no person,0.9852108955383301
,sweet,0.9849964380264282
,delicious,0.9788343906402588
,fruit,0.9739669561386108
,sugar,0.9620194435119629
,cake,0.9560319185256958
,cream,0.9468469619750977
,plate,0.9187384843826294
,nutrition,0.9100341796875
,creamy,0.9037821888923645
,candy,0.9032974243164062
,apple,0.9032078385353088
,bowl,0.9028685688972473
,cooking,0.8889765739440918
,grow,0.8827493190765381
,pastry,0.8812700510025024
,tasty,0.8798942565917969
,milk,0.8695939183235168
,baking,0.8574320077896118
https://scontent.cdninstagram.com/t51.2885-15/e35/13108565_571721906343308_144963709_n.jpg,street,0.9957709312438965
,road,0.9945840239524841
,car,0.9931200742721558
,city,0.9861782789230347
,traffic,0.9843075275421143
,transportation system,0.9826382398605347
,vehicle,0.9788225889205933
,travel,0.9724401235580444
,urban,0.947967529296875
,stock,0.9465710520744324
,police,0.9344139099121094
,business,0.9226154088973999
,commerce,0.9127606153488159
,shopping,0.9114153385162354
,light,0.9081829786300659
,no person,0.9057251214981079
,bus,0.9054443836212158
,pavement,0.8997139930725098
,building,0.8911361694335938
,offense,0.8867433071136475
https://scontent.cdninstagram.com/t51.2885-15/e35/12907387_993961847317695_1316753620_n.jpg,hanging,0.9961529970169067
,no person,0.9808738231658936
,shopping,0.9762458801269531
,stock,0.9759086966514587
,sale,0.9740227460861206
,shop,0.9463860988616943
,wood,0.9442163705825806
,market,0.9412460327148438
,merchandise,0.9278000593185425
,hanging,0.915284276008606
,wear,0.9076944589614868
,paper,0.892220675945282
,business,0.879955530166626
,rope,0.8661345839500427
,many,0.8628069162368774
,commerce,0.8625685572624207
,traditional,0.8467941284179688
,set,0.8385465741157532
,option,0.8361713886260986
,text,0.8358011245727539
https://scontent.cdninstagram.com/t51.2885-15/e35/13108655_1033053363456361_1768902027_n.jpg,water,0.9976391196250916
,summer,0.9944968223571777
,outdoors,0.9872750043869019
,sea,0.9872266054153442
,travel,0.9865726232528687
,beach,0.9864649772644043
,leisure,0.9819558262825012
,relaxation,0.9726325273513794
,vacation,0.969677746295929
,woman,0.9686466455459595
,ocean,0.9655653238296509
,recreation,0.9602345824241638
,fair weather,0.9602115154266357
,sand,0.956296443939209
,people,0.9552874565124512
,fun,0.9534354209899902
,sky,0.9525363445281982
,nature,0.9519163370132446
,sun,0.9420531988143921
,swimming,0.927731454372406
https://scontent.cdninstagram.com/t51.2885-15/e35/12917819_227276887642583_758194974_n.jpg,tube,0.9971989393234253
,airport,0.9964366555213928
,blur,0.986890435218811
,reflection,0.985916018486023
,luggage,0.968888521194458
,indoors,0.9659945964813232
,station,0.9657959342002869
,business,0.964108943939209
,terminal,0.9623132944107056
,departure,0.9598097205162048
,train,0.9584614038467407
,ice skate,0.9499468803405762
,rush,0.935610294342041
,commuter,0.9251804947853088
,building,0.919020414352417
,public,0.9019266366958618
,man,0.9014073610305786
,action,0.8989629745483398
,woman,0.8894176483154297
,competition,0.8892990350723267
https://scontent.cdninstagram.com/t51.2885-15/s750x750/sh0.08/e35/12905133_1685190271754317_1186436289_n.jpg,food,0.9956077337265015
,buckwheat,0.9899832010269165
,delicious,0.9894535541534424
,dinner,0.9869776368141174
,rice,0.9853095412254333
,bowl,0.9852943420410156
,hot,0.9816626310348511
,meal,0.9807820320129395
,nutrition,0.9773876667022705
,cooking,0.9752061367034912
,lunch,0.9750553369522095
,cuisine,0.9738069176673889
,healthy,0.9710067510604858
,traditional,0.9707823991775513
,no person,0.9665367603302002
,bean,0.9602090120315552
,vegetable,0.9591071605682373
,dish,0.957237720489502
,meat,0.9418669939041138
,chili,0.9397910833358765
https://scontent.cdninstagram.com/l/t51.2885-15/e35/13397586_245427655829329_219894007_n.jpg,nature,0.997463583946228
,grass,0.9961081743240356
,summer,0.9904810190200806
,outdoors,0.9837396740913391
,woman,0.9761263132095337
,field,0.973127007484436
,fun,0.9657464027404785
,fair weather,0.9650629758834839
,leisure,0.9634758234024048
,joy,0.962771475315094
,freedom,0.9596453905105591
,relaxation,0.9595603346824646
,girl,0.9572790861129761
,enjoyment,0.9450070261955261
,carefree,0.9415091276168823
,love,0.9248447418212891
,child,0.9202717542648315
,hayfield,0.9025928974151611
,countryside,0.8919834494590759
,cute,0.8902325630187988
https://scontent.cdninstagram.com/t51.2885-15/e35/13525368_1823814607846643_1014294802_n.jpg,window,0.9990427494049072
,chair,0.9987857937812805
,furniture,0.9978582859039307
,indoors,0.9965441823005676
,seat,0.9956512451171875
,table,0.9950640201568604
,contemporary,0.9925743341445923
,patio,0.9855000972747803
,room,0.984220564365387
,interior design,0.9821346402168274
,glass,0.981439471244812
,inside,0.9804021120071411
,luxury,0.9800660610198975
,house,0.978201150894165
,family,0.9780393242835999
,no person,0.975591242313385
,wood,0.9540345668792725
,empty,0.9435599446296692
,relaxation,0.905076265335083
,hotel,0.9001487493515015
https://scontent.cdninstagram.com/t51.2885-15/e35/12965730_800421333421702_1843026150_n.jpg,sunset,0.9919092655181885
,city,0.9878389835357666
,water,0.9858897924423218
,bridge,0.9845656156539917
,dusk,0.9741052389144897
,river,0.9717353582382202
,architecture,0.9702367782592773
,evening,0.9690660238265991
,downtown,0.9634780883789062
,no person,0.9614503383636475
,skyline,0.9537186622619629
,cityscape,0.9519363045692444
,travel,0.9465739130973816
,dawn,0.9437192678451538
,sky,0.9397789239883423
,reflection,0.9292746782302856
,light,0.9229592680931091
,urban,0.906025767326355
,skyscraper,0.8905764818191528
,building,0.8740739822387695
https://scontent.cdninstagram.com/t51.2885-15/e35/13534219_260027384359661_1658292513_n.jpg,no person,0.9776762127876282
,tea,0.94139164686203
,leaf,0.9251869916915894
,wood,0.9240090847015381
,table,0.9138652086257935
,indoors,0.9081050157546997
,cup,0.9045733213424683
,food,0.9033503532409668
,nature,0.8861900568008423
,coffee,0.8840340375900269
,breakfast,0.8677843809127808
,flower,0.8495844602584839
,vase,0.8469778895378113
,relaxation,0.8452352285385132
,flora,0.8435862064361572
,health,0.8311693072319031
,pot,0.8273657560348511
,dawn,0.8120869994163513
,bright,0.8095929622650146
,aromatherapy,0.8062984943389893
https://scontent.cdninstagram.com/t51.2885-15/e35/13381325_702434883192539_581714053_n.jpg,nature,0.9972105026245117
,summer,0.9948076009750366
,grass,0.9944706559181213
,field,0.9856897592544556
,outdoors,0.9763992428779602
,woman,0.9694213271141052
,girl,0.9611760377883911
,leisure,0.9589982032775879
,fun,0.9560010433197021
,relaxation,0.9528647661209106
,freedom,0.9492195844650269
,joy,0.9480453729629517
,hayfield,0.9396252632141113
,enjoyment,0.9264042377471924
,fair weather,0.9230900406837463
,cute,0.9117738008499146
,carefree,0.9073874950408936
,fashion,0.9048817157745361
,countryside,0.9035414457321167
,wind,0.9014323949813843
https://scontent.cdninstagram.com/t51.2885-15/s640x640/sh0.08/e35/13381187_293489820992165_2076040247_n.jpg,people,0.9888582229614258
,travel,0.9699544906616211
,city,0.9542713761329651
,bridge,0.9459242820739746
,street,0.9398984909057617
,water,0.937146782875061
,tourist,0.9263558387756348
,light,0.9134012460708618
,landscape,0.9131640195846558
,tourism,0.9090747833251953
,man,0.8942183256149292
,woman,0.8857122659683228
,outdoors,0.8847856521606445
,building,0.884526252746582
,architecture,0.87296062707901
,tree,0.864423930644989
,group,0.864118218421936
,adult,0.840752124786377
,road,0.8325222730636597
,crowd,0.819452702999115
https://scontent.cdninstagram.com/t51.2885-15/e35/13395046_491307484412690_948495821_n.jpg,nature,0.9928809404373169
,woman,0.9924893975257874
,outdoors,0.9901906251907349
,girl,0.9589320421218872
,summer,0.9580837488174438
,fashion,0.9516095519065857
,relaxation,0.9439640045166016
,leisure,0.9438703656196594
,fair weather,0.9390668272972107
,pretty,0.9282037615776062
,enjoyment,0.926773726940155
,portrait,0.9250490069389343
,grass,0.9235652685165405
,fall,0.9123719930648804
,fun,0.9010089635848999
,one,0.8982897996902466
,joy,0.8868457078933716
,carefree,0.8844529986381531
,young,0.8836035132408142
,people,0.8833833336830139
