url,class,score
https://scontent.cdninstagram.com/t51.2885-15/s750x750/sh0.08/e35/12716961_446345155555363_1030112384_n.jpg,togetherness,0.991664886
,woman,0.990417838
,indoors,0.987332582
,enjoyment,0.984409511
,meal,0.984159708
,table,0.983010828
,dining,0.981862068
,lunch,0.978975534
,restaurant,0.975107789
,friendship,0.971559227
,family,0.969010174
,happiness,0.966793776
,man,0.966418743
,furniture,0.965710402
,food,0.964861035
,sit,0.958960056
,adult,0.956341147
,cooking,0.94930625
,facial expression,0.948992848
,people,0.946677327
https://scontent.cdninstagram.com/t51.2885-15/s750x750/sh0.08/e35/12748460_1556341834684745_251689906_n.jpg,no person,0.996140838
,food,0.97213155
,delicious,0.969295084
,sugar,0.949447513
,dinner,0.947006404
,health,0.939229965
,ingredients,0.938760519
,homemade,0.937456131
,glass,0.917670727
,nutrition,0.916408062
,traditional,0.903283
,lunch,0.90266788
,refreshment,0.901201248
,unhealthy,0.886222303
,ready,0.883888245
,cooking,0.879274845
,isolated,0.878653884
,merchandise,0.86648941
,stacks,0.861247063
,taste,0.852846622
https://scontent.cdninstagram.com/t51.2885-15/e35/13534185_281194575563392_419537424_n.jpg,coffee,0.997525334
,tea,0.994618177
,woman,0.992522717
,girl,0.981017709
,cup,0.979559422
,indoors,0.976719201
,family,0.971918702
,cute,0.960295081
,portrait,0.954212725
,pretty,0.954019487
,drink,0.952747941
,enjoyment,0.947723925
,people,0.941262007
,child,0.936242342
,smile,0.934573114
,fun,0.934455872
,sit,0.93328464
,mug,0.907647312
,young,0.903758943
,togetherness,0.89050746
https://scontent.cdninstagram.com/t51.2885-15/e35/13402458_1089992421038948_1535382649_n.jpg,no person,0.99244231
,food,0.986517787
,delicious,0.975832462
,refreshment,0.95329535
,tasty,0.932715416
,breakfast,0.927398801
,isolated,0.924047053
,pastry,0.918715656
,sweet,0.917263269
,bread,0.915885329
,traditional,0.915709138
,nutrition,0.915465772
,meal,0.908448398
,bakery,0.899979055
,healthy,0.886161089
,health,0.880781651
,baking,0.880113065
,dinner,0.877634466
,cooking,0.86646831
,cake,0.865117908
https://scontent.cdninstagram.com/t51.2885-15/s750x750/sh0.08/e35/12748460_1556341834684745_251689906_n.jpg,no person,0.996140838
,food,0.97213155
,delicious,0.969295084
,sugar,0.949447513
,dinner,0.947006404
,health,0.939229965
,ingredients,0.938760519
,homemade,0.937456131
,glass,0.917670727
,nutrition,0.916408062
,traditional,0.903283
,lunch,0.90266788
,refreshment,0.901201248
,unhealthy,0.886222303
,ready,0.883888245
,cooking,0.879274845
,isolated,0.878653884
,merchandise,0.86648941
,stacks,0.861247063
,taste,0.852846622
https://scontent.cdninstagram.com/t51.2885-15/e35/13402458_1089992421038948_1535382649_n.jpg,no person,0.99244231
,food,0.986517787
,delicious,0.975832462
,refreshment,0.95329535
,tasty,0.932715416
,breakfast,0.927398801
,isolated,0.924047053
,pastry,0.918715656
,sweet,0.917263269
,bread,0.915885329
,traditional,0.915709138
,nutrition,0.915465772
,meal,0.908448398
,bakery,0.899979055
,healthy,0.886161089
,health,0.880781651
,baking,0.880113065
,dinner,0.877634466
,cooking,0.86646831
,cake,0.865117908
https://scontent.cdninstagram.com/t51.2885-15/s750x750/sh0.08/e35/12547576_953339048082081_2077582801_n.jpg,family,0.986818552
,woman,0.980627179
,child,0.979736209
,people,0.970401227
,togetherness,0.963117242
,joy,0.959695518
,fun,0.956476986
,man,0.952317715
,two,0.94599247
,adolescent,0.942914724
,love,0.935128272
,portrait,0.924961209
,laughing,0.923714161
,enjoyment,0.922283053
,happiness,0.921837211
,cute,0.917990923
,young,0.909429073
,student,0.908305407
,smile,0.901988506
,indoors,0.895096064
https://scontent.cdninstagram.com/t51.2885-15/e35/12519340_533305623497899_426881925_n.jpg,food,0.994427085
,collage,0.98477751
,meal,0.979542017
,cooking,0.970604062
,lunch,0.967069864
,dinner,0.960407019
,restaurant,0.949666023
,vegetable,0.948436022
,salad,0.941923201
,meat,0.941514373
,dish,0.922474623
,cuisine,0.919185638
,delicious,0.91343224
,nutrition,0.909460843
,chicken,0.900720954
,tasty,0.884783089
,plate,0.875898004
,healthy,0.87286365
,diet,0.869475842
,table,0.862827837
https://scontent.cdninstagram.com/t51.2885-15/s750x750/sh0.08/e35/13129449_1240257122652161_2062607558_n.jpg,woman,0.99292779
,people,0.983207345
,adult,0.981605411
,girl,0.972165704
,happiness,0.968603015
,portrait,0.957491398
,lifestyle,0.947163343
,togetherness,0.929121971
,facial expression,0.923430264
,brunette,0.916512847
,travel,0.910202861
,daylight,0.897177875
,outdoors,0.895523965
,young,0.890927553
,enjoyment,0.874070406
,indoors,0.851272643
,two,0.848168612
,smile,0.846294343
,one,0.832688868
,cheerful,0.831645131
https://scontent.cdninstagram.com/t51.2885-15/s750x750/sh0.08/e35/12716961_446345155555363_1030112384_n.jpg,togetherness,0.991664886
,woman,0.990417838
,indoors,0.987332582
,enjoyment,0.984409511
,meal,0.984159708
,table,0.983010828
,dining,0.981862068
,lunch,0.978975534
,restaurant,0.975107789
,friendship,0.971559227
,family,0.969010174
,happiness,0.966793776
,man,0.966418743
,furniture,0.965710402
,food,0.964861035
,sit,0.958960056
,adult,0.956341147
,cooking,0.94930625
,facial expression,0.948992848
,people,0.946677327
https://scontent.cdninstagram.com/t51.2885-15/e35/12547430_181455728880905_1558616098_n.jpg,meal,0.992996335
,lunch,0.989680171
,food,0.989436626
,dinner,0.98465848
,cooking,0.97656548
,restaurant,0.971140265
,meat,0.95292747
,woman,0.948070168
,table,0.915213227
,dish,0.911628366
,nutrition,0.911288023
,plate,0.900956511
,sauce,0.899697065
,people,0.865541518
,indoors,0.847406149
,cuisine,0.846413136
,hungry,0.844374895
,vegetable,0.843068123
,traditional,0.843051732
,tomato,0.840464234
https://scontent.cdninstagram.com/t51.2885-15/s750x750/sh0.08/e35/12797842_943329962441305_50759077_n.jpg,woman,0.982216954
,group,0.979768276
,restaurant,0.978061199
,man,0.975911856
,group,0.974728823
,enjoyment,0.945532084
,people,0.943192959
,four,0.940238833
,coffee,0.933842003
,celebration,0.920338452
,indoors,0.876932979
,festival,0.876556754
,drink,0.867828012
,party,0.859742224
,friendship,0.855634212
,many,0.85496223
,family,0.847727299
,togetherness,0.834301114
,dining,0.823149264
,laughing,0.808400273
https://scontent.cdninstagram.com/t51.2885-15/e35/13398765_586425121527281_334622242_n.jpg,no person,0.98865366
,food,0.984878063
,delicious,0.969222307
,bread,0.957591414
,breakfast,0.954611659
,plate,0.946112275
,lunch,0.934664845
,dinner,0.927979708
,traditional,0.923336029
,homemade,0.919852495
,cream,0.917036295
,meal,0.91564095
,coffee,0.912949204
,nutrition,0.899201035
,milk,0.898998678
,dish,0.895946562
,hot,0.895687222
,cooking,0.889162898
,health,0.885051072
,spoon,0.881219864
https://scontent.cdninstagram.com/t51.2885-15/s750x750/sh0.08/e35/12797842_943329962441305_50759077_n.jpg,woman,0.982216954
,group,0.979768276
,restaurant,0.978061199
,man,0.975911856
,group,0.974728823
,enjoyment,0.945532084
,people,0.943192959
,four,0.940238833
,coffee,0.933842003
,celebration,0.920338452
,indoors,0.876932979
,festival,0.876556754
,drink,0.867828012
,party,0.859742224
,friendship,0.855634212
,many,0.85496223
,family,0.847727299
,togetherness,0.834301114
,dining,0.823149264
,laughing,0.808400273
https://scontent.cdninstagram.com/t51.2885-15/e35/13534185_281194575563392_419537424_n.jpg,coffee,0.997525334
,tea,0.994618177
,woman,0.992522717
,girl,0.981017709
,cup,0.979559422
,indoors,0.976719201
,family,0.971918702
,cute,0.960295081
,portrait,0.954212725
,pretty,0.954019487
,drink,0.952747941
,enjoyment,0.947723925
,people,0.941262007
,child,0.936242342
,smile,0.934573114
,fun,0.934455872
,sit,0.93328464
,mug,0.907647312
,young,0.903758943
,togetherness,0.89050746
https://scontent.cdninstagram.com/t51.2885-15/sh0.08/e35/p750x750/12558333_995702580486332_163392100_n.jpg,people,0.987680674
,indoors,0.985201836
,furniture,0.980354607
,restaurant,0.970355153
,chair,0.96741432
,man,0.965204835
,seat,0.964661837
,room,0.961830914
,table,0.958438337
,interior design,0.953595459
,woman,0.952292085
,coffee,0.95171684
,adult,0.951455832
,sofa,0.932349086
,hotel,0.930461228
,portrait,0.924093187
,food,0.911193967
,business,0.882727444
,one,0.869403183
,travel,0.867267013
https://scontent.cdninstagram.com/t51.2885-15/e35/12912473_1713722425584143_1996460586_n.jpg,people,0.968084216
,outdoors,0.961099803
,travel,0.926742196
,car,0.9253425
,building,0.918404937
,modern,0.917657733
,street,0.911010325
,business,0.902915776
,architecture,0.902269721
,city,0.899703622
,transportation system,0.895639956
,road,0.893800259
,woman,0.888556361
,adult,0.888511837
,group,0.881647825
,education,0.852069676
,portrait,0.845147252
,man,0.836503029
,sky,0.825116038
,technology,0.815205753
https://scontent.cdninstagram.com/t51.2885-15/e35/12547365_177968562571421_336174446_n.jpg,woman,0.984773159
,lunch,0.978486061
,meal,0.976939976
,hungry,0.975425601
,food,0.974697471
,happiness,0.945542097
,indoors,0.942525148
,restaurant,0.940299153
,pizza,0.939233482
,girl,0.93534559
,table,0.934415221
,family,0.930231333
,enjoyment,0.927176356
,smile,0.920362175
,adult,0.919788897
,people,0.912080288
,cooking,0.907232523
,friendship,0.900582194
,fun,0.897964954
,young,0.896084547
https://scontent.cdninstagram.com/t51.2885-15/s750x750/sh0.08/e35/12353335_144976412538759_926049145_n.jpg,shopping,0.998735905
,stock,0.998398483
,market,0.996086597
,commerce,0.994226992
,booth,0.992725492
,city,0.991393209
,street,0.987880051
,neon,0.987358391
,shop,0.984764099
,tourist,0.983889759
,billboard,0.980582476
,people,0.97766459
,many,0.958116651
,crowd,0.957441807
,tourism,0.954578042
,road,0.945916772
,Broadway,0.942003846
,restaurant,0.922041655
,group,0.91948235
,sell,0.913730025
https://scontent.cdninstagram.com/t51.2885-15/e35/12912856_1690246111196094_821742115_n.jpg,woman,0.983475447
,togetherness,0.978155792
,friendship,0.9590801
,adolescent,0.954741478
,love,0.950687349
,people,0.941710234
,fun,0.937462091
,joy,0.934203506
,casual,0.931272388
,pretty,0.912144184
,child,0.90178287
,two,0.901059151
,fashion,0.89744854
,family,0.893270075
,embrace,0.86970365
,girl,0.867404938
,indoors,0.863926649
,cute,0.863829255
,laughing,0.85916996
,man,0.850289583
https://scontent.cdninstagram.com/t51.2885-15/e35/12912856_1690246111196094_821742115_n.jpg,woman,0.983475447
,togetherness,0.978155792
,friendship,0.9590801
,adolescent,0.954741478
,love,0.950687349
,people,0.941710234
,fun,0.937462091
,joy,0.934203506
,casual,0.931272388
,pretty,0.912144184
,child,0.90178287
,two,0.901059151
,fashion,0.89744854
,family,0.893270075
,embrace,0.86970365
,girl,0.867404938
,indoors,0.863926649
,cute,0.863829255
,laughing,0.85916996
,man,0.850289583
https://scontent.cdninstagram.com/t51.2885-15/e35/13388495_1747912292155768_418123273_n.jpg,food,0.993770003
,no person,0.99126029
,traditional,0.972107768
,table,0.952669501
,hot,0.951178432
,plate,0.945120037
,cooking,0.937078834
,cup,0.936459899
,still life,0.925415277
,meal,0.924474299
,restaurant,0.924185693
,tableware,0.921093166
,drink,0.916855574
,party,0.91430223
,tea,0.913639545
,delicious,0.90711236
,dinner,0.899864376
,indoors,0.856845975
,dish,0.84871614
,epicure,0.846990347
https://scontent.cdninstagram.com/t51.2885-15/s750x750/sh0.08/e35/12547576_953339048082081_2077582801_n.jpg,family,0.986818552
,woman,0.980627179
,child,0.979736209
,people,0.970401227
,togetherness,0.963117242
,joy,0.959695518
,fun,0.956476986
,man,0.952317715
,two,0.94599247
,adolescent,0.942914724
,love,0.935128272
,portrait,0.924961209
,laughing,0.923714161
,enjoyment,0.922283053
,happiness,0.921837211
,cute,0.917990923
,young,0.909429073
,student,0.908305407
,smile,0.901988506
,indoors,0.895096064
https://scontent.cdninstagram.com/t51.2885-15/s750x750/sh0.08/e35/12346077_1664067390515477_1465649258_n.jpg,child,0.979082108
,people,0.962811589
,cute,0.944810748
,woman,0.938818455
,fun,0.934687734
,kimono,0.933864117
,traditional,0.930651426
,portrait,0.923235297
,isolated,0.916503549
,desktop,0.89347744
,girl,0.880057335
,family,0.877474904
,happiness,0.87588495
,bill,0.874235988
,paper,0.873496652
,cheerful,0.870963931
,young,0.86932534
,little,0.85871768
,smile,0.853212297
,person,0.832687855
https://scontent.cdninstagram.com/t51.2885-15/e35/13398765_586425121527281_334622242_n.jpg,no person,0.98865366
,food,0.984878063
,delicious,0.969222307
,bread,0.957591414
,breakfast,0.954611659
,plate,0.946112275
,lunch,0.934664845
,dinner,0.927979708
,traditional,0.923336029
,homemade,0.919852495
,cream,0.917036295
,meal,0.91564095
,coffee,0.912949204
,nutrition,0.899201035
,milk,0.898998678
,dish,0.895946562
,hot,0.895687222
,cooking,0.889162898
,health,0.885051072
,spoon,0.881219864
https://scontent.cdninstagram.com/t51.2885-15/e35/12912473_1713722425584143_1996460586_n.jpg,people,0.968084216
,outdoors,0.961099803
,travel,0.926742196
,car,0.9253425
,building,0.918404937
,modern,0.917657733
,street,0.911010325
,business,0.902915776
,architecture,0.902269721
,city,0.899703622
,transportation system,0.895639956
,road,0.893800259
,woman,0.888556361
,adult,0.888511837
,group,0.881647825
,education,0.852069676
,portrait,0.845147252
,man,0.836503029
,sky,0.825116038
,technology,0.815205753
https://scontent.cdninstagram.com/t51.2885-15/e35/12547430_181455728880905_1558616098_n.jpg,meal,0.992996335
,lunch,0.989680171
,food,0.989436626
,dinner,0.98465848
,cooking,0.97656548
,restaurant,0.971140265
,meat,0.95292747
,woman,0.948070168
,table,0.915213227
,dish,0.911628366
,nutrition,0.911288023
,plate,0.900956511
,sauce,0.899697065
,people,0.865541518
,indoors,0.847406149
,cuisine,0.846413136
,hungry,0.844374895
,vegetable,0.843068123
,traditional,0.843051732
,tomato,0.840464234
https://scontent.cdninstagram.com/t51.2885-15/e35/12446217_996954317031675_594870573_n.jpg,food,0.996160507
,no person,0.992261171
,hot,0.986492753
,bowl,0.969604492
,cooking,0.966410279
,dinner,0.962104321
,traditional,0.961922169
,lunch,0.95683974
,dish,0.955940127
,meal,0.955068529
,vegetable,0.952863216
,tea,0.949021459
,delicious,0.947833955
,chili,0.945408642
,cuisine,0.936302006
,herb,0.930654109
,sauce,0.930552244
,grow,0.928963423
,plate,0.928633332
,healthy,0.921684146
https://scontent.cdninstagram.com/t51.2885-15/e35/12346002_1514187462212419_1775776598_n.jpg,indoors,0.986513257
,woman,0.986209035
,child,0.981986523
,people,0.98106724
,girl,0.979388356
,facial expression,0.96853888
,portrait,0.961429358
,fun,0.927194118
,adolescent,0.926535606
,room,0.925994754
,enjoyment,0.921040952
,happiness,0.919199467
,adult,0.909820437
,cute,0.902635694
,togetherness,0.89687711
,daylight,0.8821491
,friendship,0.877658248
,family,0.87528348
,two,0.874435604
,wear,0.871407509
https://scontent.cdninstagram.com/t51.2885-15/e35/12357885_1016972515030381_65724283_n.jpg,shopping,0.996972442
,stock,0.990079045
,shop,0.987105966
,people,0.972482204
,carnival,0.966629446
,market,0.959938526
,woman,0.952018738
,editorial,0.951024473
,mall,0.948065639
,commerce,0.931826472
,festival,0.917537928
,city,0.917492509
,exhibition,0.917297781
,street,0.913036585
,supermarket,0.90963155
,indoors,0.901914001
,merchandise,0.896015644
,portrait,0.892758965
,event,0.851755023
,tourist,0.849649429
https://scontent.cdninstagram.com/t51.2885-15/e35/12519340_533305623497899_426881925_n.jpg,food,0.994427085
,collage,0.98477751
,meal,0.979542017
,cooking,0.970604062
,lunch,0.967069864
,dinner,0.960407019
,restaurant,0.949666023
,vegetable,0.948436022
,salad,0.941923201
,meat,0.941514373
,dish,0.922474623
,cuisine,0.919185638
,delicious,0.91343224
,nutrition,0.909460843
,chicken,0.900720954
,tasty,0.884783089
,plate,0.875898004
,healthy,0.87286365
,diet,0.869475842
,table,0.862827837
https://scontent.cdninstagram.com/t51.2885-15/s750x750/sh0.08/e35/12523554_1283500031665788_26034207_n.jpg,food,0.993599474
,meal,0.97022301
,dinner,0.969519854
,delicious,0.967325926
,lunch,0.963700712
,no person,0.960041165
,vegetable,0.952846527
,cuisine,0.945296168
,plate,0.943656683
,cooking,0.942583442
,dish,0.939396739
,meat,0.939391494
,epicure,0.93827939
,traditional,0.93669188
,hot,0.932177305
,healthy,0.916213453
,sauce,0.91493094
,restaurant,0.909982562
,nutrition,0.906525135
,pepper,0.905654192
https://scontent.cdninstagram.com/t51.2885-15/s750x750/sh0.08/e35/12362204_501804663324732_1291648320_n.jpg,woman,0.980598986
,business,0.973218083
,people,0.970753729
,indoors,0.956693828
,man,0.947247148
,young,0.923296094
,education,0.901906371
,group,0.887106895
,adult,0.881740808
,office,0.881435633
,teamwork,0.880919695
,looking,0.842701852
,service,0.841383576
,shopping,0.832691431
,school,0.824827433
,success,0.820353389
,option,0.79144454
,formal,0.785298586
,company,0.779646754
,shop,0.774742365
https://scontent.cdninstagram.com/t51.2885-15/s750x750/sh0.08/e35/12523554_1283500031665788_26034207_n.jpg,food,0.993599474
,meal,0.97022301
,dinner,0.969519854
,delicious,0.967325926
,lunch,0.963700712
,no person,0.960041165
,vegetable,0.952846527
,cuisine,0.945296168
,plate,0.943656683
,cooking,0.942583442
,dish,0.939396739
,meat,0.939391494
,epicure,0.93827939
,traditional,0.93669188
,hot,0.932177305
,healthy,0.916213453
,sauce,0.91493094
,restaurant,0.909982562
,nutrition,0.906525135
,pepper,0.905654192
https://scontent.cdninstagram.com/t51.2885-15/e35/12523783_545168292323441_1830953051_n.jpg,table,0.989531994
,indoors,0.980200052
,furniture,0.980126739
,coffee,0.9758479
,restaurant,0.970543385
,woman,0.96984005
,room,0.965143383
,people,0.964320421
,chair,0.948433995
,tableware,0.944257498
,sit,0.935820937
,adult,0.913916588
,enjoyment,0.898440719
,seat,0.897402525
,facial expression,0.88890624
,meal,0.879037857
,lunch,0.875539541
,food,0.873467565
,girl,0.86080122
,family,0.848016858
https://scontent.cdninstagram.com/t51.2885-15/s750x750/sh0.08/e35/11848867_927733040654849_1460215948_n.jpg,snow,0.995797813
,winter,0.993546367
,cold,0.972795486
,man,0.971252561
,fun,0.957529426
,outdoors,0.932385683
,people,0.929494739
,woman,0.929189563
,child,0.92450285
,enjoyment,0.91656971
,travel,0.912937522
,recreation,0.898214698
,leisure,0.887153983
,nature,0.87768954
,ice,0.855999291
,togetherness,0.848629475
,active,0.848395169
,ice,0.822589636
,adventure,0.809818983
,action,0.802230299
https://scontent.cdninstagram.com/t51.2885-15/e35/12424876_464075827117997_1268129888_n.jpg,travel,0.989597797
,modern,0.970885396
,sky,0.962175846
,water,0.959881425
,architecture,0.955475926
,outdoors,0.94359833
,building,0.942895174
,transportation system,0.942032158
,city,0.941258311
,business,0.938800454
,urban,0.923019648
,car,0.921304166
,tourism,0.905092359
,people,0.893025875
,summer,0.888632178
,vehicle,0.883087516
,daylight,0.878592491
,vacation,0.861382902
,hotel,0.858770132
,bridge,0.856732845
https://scontent.cdninstagram.com/t51.2885-15/sh0.08/e35/p750x750/12558333_995702580486332_163392100_n.jpg,people,0.987680674
,indoors,0.985201836
,furniture,0.980354607
,restaurant,0.970355153
,chair,0.96741432
,man,0.965204835
,seat,0.964661837
,room,0.961830914
,table,0.958438337
,interior design,0.953595459
,woman,0.952292085
,coffee,0.95171684
,adult,0.951455832
,sofa,0.932349086
,hotel,0.930461228
,portrait,0.924093187
,food,0.911193967
,business,0.882727444
,one,0.869403183
,travel,0.867267013
https://scontent.cdninstagram.com/t51.2885-15/e35/12424876_464075827117997_1268129888_n.jpg,travel,0.989597797
,modern,0.970885396
,sky,0.962175846
,water,0.959881425
,architecture,0.955475926
,outdoors,0.94359833
,building,0.942895174
,transportation system,0.942032158
,city,0.941258311
,business,0.938800454
,urban,0.923019648
,car,0.921304166
,tourism,0.905092359
,people,0.893025875
,summer,0.888632178
,vehicle,0.883087516
,daylight,0.878592491
,vacation,0.861382902
,hotel,0.858770132
,bridge,0.856732845
https://scontent.cdninstagram.com/t51.2885-15/e35/12547365_177968562571421_336174446_n.jpg,woman,0.984773159
,lunch,0.978486061
,meal,0.976939976
,hungry,0.975425601
,food,0.974697471
,happiness,0.945542097
,indoors,0.942525148
,restaurant,0.940299153
,pizza,0.939233482
,girl,0.93534559
,table,0.934415221
,family,0.930231333
,enjoyment,0.927176356
,smile,0.920362175
,adult,0.919788897
,people,0.912080288
,cooking,0.907232523
,friendship,0.900582194
,fun,0.897964954
,young,0.896084547
https://scontent.cdninstagram.com/t51.2885-15/e35/12534193_934234756652996_1128152890_n.jpg,indoors,0.978013873
,cooking,0.968913794
,meal,0.968797624
,lunch,0.967011213
,people,0.959469736
,food,0.958815336
,woman,0.948473752
,enjoyment,0.931016982
,nutrition,0.930104017
,dinner,0.928798795
,child,0.907329917
,hungry,0.906400681
,meat,0.903301954
,health,0.899816751
,one,0.895360589
,wear,0.867275834
,plate,0.84133029
,family,0.836418986
,baking,0.831408679
,knife,0.790869832
https://scontent.cdninstagram.com/t51.2885-15/s640x640/sh0.08/e35/12407286_967753229971653_1148134221_n.jpg,woman,0.990636289
,city,0.966379285
,girl,0.95514518
,travel,0.951309443
,pretty,0.943191528
,architecture,0.938549161
,young,0.938447356
,urban,0.93777442
,fashion,0.937017858
,people,0.935554266
,summer,0.930677176
,beautiful,0.924860001
,portrait,0.922882318
,downtown,0.914545834
,outdoors,0.914462984
,nature,0.910928309
,sky,0.901920617
,lady,0.888860822
,building,0.885777235
,dress,0.882999837
https://scontent.cdninstagram.com/t51.2885-15/e35/12747732_957796924257976_306674136_n.jpg,dining,0.988353908
,restaurant,0.98789072
,food,0.98474133
,cutlery,0.97451067
,indoors,0.974023521
,no person,0.970252514
,tableware,0.969196439
,fork,0.963086247
,knife,0.961495519
,table,0.958132863
,dinner,0.955297351
,meal,0.942788243
,buffet,0.928796232
,lunch,0.923353553
,wine,0.920822084
,breakfast,0.920446157
,flatware,0.914376378
,place setting,0.901972175
,plate,0.898839593
,party,0.890515983
https://scontent.cdninstagram.com/t51.2885-15/s640x640/sh0.08/e35/12407286_967753229971653_1148134221_n.jpg,woman,0.990636289
,city,0.966379285
,girl,0.95514518
,travel,0.951309443
,pretty,0.943191528
,architecture,0.938549161
,young,0.938447356
,urban,0.93777442
,fashion,0.937017858
,people,0.935554266
,summer,0.930677176
,beautiful,0.924860001
,portrait,0.922882318
,downtown,0.914545834
,outdoors,0.914462984
,nature,0.910928309
,sky,0.901920617
,lady,0.888860822
,building,0.885777235
,dress,0.882999837
https://scontent.cdninstagram.com/t51.2885-15/e35/12523783_545168292323441_1830953051_n.jpg,table,0.989531994
,indoors,0.980200052
,furniture,0.980126739
,coffee,0.9758479
,restaurant,0.970543385
,woman,0.96984005
,room,0.965143383
,people,0.964320421
,chair,0.948433995
,tableware,0.944257498
,sit,0.935820937
,adult,0.913916588
,enjoyment,0.898440719
,seat,0.897402525
,facial expression,0.88890624
,meal,0.879037857
,lunch,0.875539541
,food,0.873467565
,girl,0.86080122
,family,0.848016858
https://scontent.cdninstagram.com/t51.2885-15/e35/12747732_957796924257976_306674136_n.jpg,dining,0.988353908
,restaurant,0.98789072
,food,0.98474133
,cutlery,0.97451067
,indoors,0.974023521
,no person,0.970252514
,tableware,0.969196439
,fork,0.963086247
,knife,0.961495519
,table,0.958132863
,dinner,0.955297351
,meal,0.942788243
,buffet,0.928796232
,lunch,0.923353553
,wine,0.920822084
,breakfast,0.920446157
,flatware,0.914376378
,place setting,0.901972175
,plate,0.898839593
,party,0.890515983
https://scontent.cdninstagram.com/t51.2885-15/s750x750/sh0.08/e35/12353335_144976412538759_926049145_n.jpg,shopping,0.998735905
,stock,0.998398483
,market,0.996086597
,commerce,0.994226992
,booth,0.992725492
,city,0.991393209
,street,0.987880051
,neon,0.987358391
,shop,0.984764099
,tourist,0.983889759
,billboard,0.980582476
,people,0.97766459
,many,0.958116651
,crowd,0.957441807
,tourism,0.954578042
,road,0.945916772
,Broadway,0.942003846
,restaurant,0.922041655
,group,0.91948235
,sell,0.913730025
https://scontent.cdninstagram.com/t51.2885-15/e35/12445987_1702133483336319_538660663_n.jpg,food,0.997695923
,no person,0.989382148
,meal,0.98225832
,vegetable,0.979103744
,homemade,0.967205524
,dinner,0.96381712
,glass,0.961836815
,healthy,0.960586667
,delicious,0.958041966
,lunch,0.9534266
,dish,0.952414155
,plate,0.951769829
,hot,0.950487792
,fruit,0.950447083
,cuisine,0.949178815
,refreshment,0.938378215
,nutrition,0.935068846
,potato,0.933652878
,appetizer,0.930725098
,traditional,0.928602338
https://scontent.cdninstagram.com/t51.2885-15/s750x750/sh0.08/e35/12357739_1518456961784699_494362477_n.jpg,people,0.985743761
,man,0.980573773
,child,0.972811818
,character,0.971971869
,sketch,0.963653088
,art,0.929365277
,woman,0.918750167
,girl,0.915745258
,funny,0.907253981
,humor,0.896965742
,football,0.890308857
,editorial,0.886142254
,smile,0.88514632
,fun,0.876056433
,love,0.865950704
,boy,0.85496974
,future,0.851920545
,family,0.851629853
,figure,0.848849058
,street,0.844731688
https://scontent.cdninstagram.com/t51.2885-15/e35/12445987_1702133483336319_538660663_n.jpg,food,0.997695923
,no person,0.989382148
,meal,0.98225832
,vegetable,0.979103744
,homemade,0.967205524
,dinner,0.96381712
,glass,0.961836815
,healthy,0.960586667
,delicious,0.958041966
,lunch,0.9534266
,dish,0.952414155
,plate,0.951769829
,hot,0.950487792
,fruit,0.950447083
,cuisine,0.949178815
,refreshment,0.938378215
,nutrition,0.935068846
,potato,0.933652878
,appetizer,0.930725098
,traditional,0.928602338
https://scontent.cdninstagram.com/t51.2885-15/e35/12276932_848532878577567_209252045_n.jpg,travel,0.991005421
,city,0.983959436
,water,0.972670197
,architecture,0.968847394
,urban,0.965390563
,tourism,0.964696288
,fountain,0.958972514
,business,0.954089224
,vacation,0.953988016
,building,0.950667262
,hotel,0.941958547
,tourist,0.941858888
,mall,0.941819549
,street,0.921490729
,people,0.920556545
,modern,0.913483202
,illuminated,0.910469174
,casino,0.908962488
,light,0.905249715
,no person,0.902830839
https://scontent.cdninstagram.com/t51.2885-15/e35/12545252_1045745802138055_1767158715_n.jpg,food,0.993317485
,meal,0.982854247
,dinner,0.962331057
,lunch,0.958240926
,plate,0.944767535
,restaurant,0.942836583
,people,0.939300776
,delicious,0.928759336
,cooking,0.928597808
,dish,0.914620519
,healthy,0.904311657
,meat,0.902836025
,vegetable,0.889061034
,tasty,0.8885535
,nutrition,0.885689616
,woman,0.877025485
,cuisine,0.872509718
,fork,0.863332391
,diet,0.855511606
,cheese,0.848811269
https://scontent.cdninstagram.com/t51.2885-15/s750x750/sh0.08/e35/12346077_1664067390515477_1465649258_n.jpg,child,0.979082108
,people,0.962811589
,cute,0.944810748
,woman,0.938818455
,fun,0.934687734
,kimono,0.933864117
,traditional,0.930651426
,portrait,0.923235297
,isolated,0.916503549
,desktop,0.89347744
,girl,0.880057335
,family,0.877474904
,happiness,0.87588495
,bill,0.874235988
,paper,0.873496652
,cheerful,0.870963931
,young,0.86932534
,little,0.85871768
,smile,0.853212297
,person,0.832687855
https://scontent.cdninstagram.com/t51.2885-15/e35/12534193_934234756652996_1128152890_n.jpg,indoors,0.978013873
,cooking,0.968913794
,meal,0.968797624
,lunch,0.967011213
,people,0.959469736
,food,0.958815336
,woman,0.948473752
,enjoyment,0.931016982
,nutrition,0.930104017
,dinner,0.928798795
,child,0.907329917
,hungry,0.906400681
,meat,0.903301954
,health,0.899816751
,one,0.895360589
,wear,0.867275834
,plate,0.84133029
,family,0.836418986
,baking,0.831408679
,knife,0.790869832
https://scontent.cdninstagram.com/t51.2885-15/e35/12357885_1016972515030381_65724283_n.jpg,shopping,0.996972442
,stock,0.990079045
,shop,0.987105966
,people,0.972482204
,carnival,0.966629446
,market,0.959938526
,woman,0.952018738
,editorial,0.951024473
,mall,0.948065639
,commerce,0.931826472
,festival,0.917537928
,city,0.917492509
,exhibition,0.917297781
,street,0.913036585
,supermarket,0.90963155
,indoors,0.901914001
,merchandise,0.896015644
,portrait,0.892758965
,event,0.851755023
,tourist,0.849649429
https://scontent.cdninstagram.com/t51.2885-15/s750x750/sh0.08/e35/11939500_1101974616481218_1159019397_n.jpg,woman,0.984657109
,sit,0.946573377
,lunch,0.945494413
,food,0.940986037
,meal,0.936919451
,indoors,0.935775638
,lifestyle,0.922888756
,breakfast,0.914422631
,young,0.909569502
,relaxation,0.906539559
,table,0.902739048
,people,0.89922893
,happiness,0.896290898
,cooking,0.895652771
,adult,0.892686903
,family,0.890447855
,girl,0.882013023
,dinner,0.87835753
,knife,0.873783827
,enjoyment,0.872118592
https://scontent.cdninstagram.com/t51.2885-15/s750x750/sh0.08/e35/11939500_1101974616481218_1159019397_n.jpg,woman,0.984657109
,sit,0.946573377
,lunch,0.945494413
,food,0.940986037
,meal,0.936919451
,indoors,0.935775638
,lifestyle,0.922888756
,breakfast,0.914422631
,young,0.909569502
,relaxation,0.906539559
,table,0.902739048
,people,0.89922893
,happiness,0.896290898
,cooking,0.895652771
,adult,0.892686903
,family,0.890447855
,girl,0.882013023
,dinner,0.87835753
,knife,0.873783827
,enjoyment,0.872118592
https://scontent.cdninstagram.com/t51.2885-15/s750x750/sh0.08/e35/12063119_768523126582742_1593136395_n.jpg,city,0.996891737
,skyscraper,0.991619229
,building,0.990520358
,cityscape,0.988373876
,travel,0.983568549
,business,0.982421041
,evening,0.979007483
,skyline,0.975417852
,light,0.972733855
,architecture,0.972481251
,downtown,0.968525887
,road,0.966623545
,urban,0.964382887
,hotel,0.94966805
,office,0.945759356
,street,0.938636899
,dusk,0.933267593
,illuminated,0.929995537
,festival,0.925179482
,modern,0.919295013
https://scontent.cdninstagram.com/t51.2885-15/e35/12346002_1514187462212419_1775776598_n.jpg,indoors,0.986513257
,woman,0.986209035
,child,0.981986523
,people,0.98106724
,girl,0.979388356
,facial expression,0.96853888
,portrait,0.961429358
,fun,0.927194118
,adolescent,0.926535606
,room,0.925994754
,enjoyment,0.921040952
,happiness,0.919199467
,adult,0.909820437
,cute,0.902635694
,togetherness,0.89687711
,daylight,0.8821491
,friendship,0.877658248
,family,0.87528348
,two,0.874435604
,wear,0.871407509
https://scontent.cdninstagram.com/t51.2885-15/s750x750/sh0.08/e35/12357624_710530995743550_1430158340_n.jpg,girl,0.971404195
,people,0.970056176
,woman,0.956594229
,portrait,0.928049326
,smile,0.91400826
,street,0.89897573
,shopping,0.882287562
,collage,0.879390717
,young,0.873032808
,child,0.872932613
,stock,0.869596601
,editorial,0.865891457
,telephone,0.862007499
,couple,0.861803174
,person,0.854460955
,internet,0.852777719
,computer,0.847039878
,fashion,0.845558286
,lady,0.842955649
,coffee,0.84018898
https://scontent.cdninstagram.com/t51.2885-15/s750x750/sh0.08/e35/12230953_1053839924666409_223822623_n.jpg,girl,0.990440965
,woman,0.989197195
,cute,0.983206093
,portrait,0.977168322
,pretty,0.974577844
,child,0.971268535
,people,0.957603812
,adolescent,0.956792533
,smile,0.955626965
,fun,0.937744141
,joy,0.933309317
,young,0.926562428
,fashion,0.926385283
,eye,0.904712558
,beautiful,0.903118491
,isolated,0.888803959
,face,0.885664701
,one,0.877254367
,model,0.862425566
,casual,0.860110521
https://scontent.cdninstagram.com/t51.2885-15/e35/12519262_1673180996291569_73840777_n.jpg,flower,0.998779535
,garden,0.995636463
,flora,0.978185415
,floral,0.965194404
,bouquet,0.962015748
,nature,0.960940242
,people,0.957520247
,leaf,0.952552438
,beautiful,0.944577098
,blooming,0.934685349
,woman,0.931899428
,bright,0.928434372
,decoration,0.924803853
,color,0.924354017
,park,0.922753572
,florist,0.921792388
,shopping,0.91389358
,summer,0.911477447
,tulip,0.911221147
,rose,0.909745097
https://scontent.cdninstagram.com/t51.2885-15/s750x750/sh0.08/e35/12357624_710530995743550_1430158340_n.jpg,girl,0.971404195
,people,0.970056176
,woman,0.956594229
,portrait,0.928049326
,smile,0.91400826
,street,0.89897573
,shopping,0.882287562
,collage,0.879390717
,young,0.873032808
,child,0.872932613
,stock,0.869596601
,editorial,0.865891457
,telephone,0.862007499
,couple,0.861803174
,person,0.854460955
,internet,0.852777719
,computer,0.847039878
,fashion,0.845558286
,lady,0.842955649
,coffee,0.84018898
https://scontent.cdninstagram.com/t51.2885-15/e35/11371213_905848022836543_469663454_n.jpg,woman,0.993822694
,fashion,0.993650556
,girl,0.988650322
,beautiful,0.970688581
,pretty,0.964158893
,young,0.960742593
,model,0.958099604
,glamour,0.954303563
,people,0.947856843
,lady,0.942168593
,sexy,0.941374123
,portrait,0.937963009
,dress,0.932781279
,style,0.929996133
,elegant,0.927105963
,person,0.92252171
,adult,0.877305925
,business,0.861721396
,collage,0.86052227
,smile,0.855997026
https://scontent.cdninstagram.com/t51.2885-15/e35/12446217_996954317031675_594870573_n.jpg,food,0.996160507
,no person,0.992261171
,hot,0.986492753
,bowl,0.969604492
,cooking,0.966410279
,dinner,0.962104321
,traditional,0.961922169
,lunch,0.95683974
,dish,0.955940127
,meal,0.955068529
,vegetable,0.952863216
,tea,0.949021459
,delicious,0.947833955
,chili,0.945408642
,cuisine,0.936302006
,herb,0.930654109
,sauce,0.930552244
,grow,0.928963423
,plate,0.928633332
,healthy,0.921684146
https://scontent.cdninstagram.com/t51.2885-15/e35/12547242_1525873651040435_342412126_n.jpg,shopping,0.983911991
,people,0.98317802
,street,0.974514067
,stock,0.971915364
,woman,0.965719938
,city,0.961736679
,coffee,0.938302994
,editorial,0.937392652
,exhibition,0.937312126
,commerce,0.935847759
,girl,0.921497226
,festival,0.900335431
,shop,0.894457817
,market,0.889011085
,mall,0.878645301
,indoors,0.872740626
,bar,0.858950436
,portrait,0.855989099
,recreation,0.843670964
,restaurant,0.843492031
https://scontent.cdninstagram.com/t51.2885-15/s750x750/sh0.08/e35/12230953_1053839924666409_223822623_n.jpg,girl,0.990440965
,woman,0.989197195
,cute,0.983206093
,portrait,0.977168322
,pretty,0.974577844
,child,0.971268535
,people,0.957603812
,adolescent,0.956792533
,smile,0.955626965
,fun,0.937744141
,joy,0.933309317
,young,0.926562428
,fashion,0.926385283
,eye,0.904712558
,beautiful,0.903118491
,isolated,0.888803959
,face,0.885664701
,one,0.877254367
,model,0.862425566
,casual,0.860110521
https://scontent.cdninstagram.com/t51.2885-15/e35/11371213_905848022836543_469663454_n.jpg,woman,0.993822694
,fashion,0.993650556
,girl,0.988650322
,beautiful,0.970688581
,pretty,0.964158893
,young,0.960742593
,model,0.958099604
,glamour,0.954303563
,people,0.947856843
,lady,0.942168593
,sexy,0.941374123
,portrait,0.937963009
,dress,0.932781279
,style,0.929996133
,elegant,0.927105963
,person,0.92252171
,adult,0.877305925
,business,0.861721396
,collage,0.86052227
,smile,0.855997026
https://scontent.cdninstagram.com/t51.2885-15/e35/12331427_647218992087295_966842044_n.jpg,friendship,0.993808448
,togetherness,0.991587758
,woman,0.986256599
,fun,0.975834608
,multicultural,0.97476387
,outdoors,0.97197783
,child,0.965376318
,student,0.965229154
,adolescent,0.960776091
,laughing,0.95916301
,joy,0.948345065
,man,0.936613679
,summer,0.935044169
,people,0.931606174
,enjoyment,0.929948449
,family,0.912165761
,young,0.909217715
,happiness,0.905498266
,cheerful,0.902056634
,love,0.891079485
https://scontent.cdninstagram.com/t51.2885-15/s750x750/sh0.08/e35/12362204_501804663324732_1291648320_n.jpg,woman,0.980598986
,business,0.973218083
,people,0.970753729
,indoors,0.956693828
,man,0.947247148
,young,0.923296094
,education,0.901906371
,group,0.887106895
,adult,0.881740808
,office,0.881435633
,teamwork,0.880919695
,looking,0.842701852
,service,0.841383576
,shopping,0.832691431
,school,0.824827433
,success,0.820353389
,option,0.79144454
,formal,0.785298586
,company,0.779646754
,shop,0.774742365
https://scontent.cdninstagram.com/t51.2885-15/s750x750/sh0.08/e35/11848867_927733040654849_1460215948_n.jpg,snow,0.995797813
,winter,0.993546367
,cold,0.972795486
,man,0.971252561
,fun,0.957529426
,outdoors,0.932385683
,people,0.929494739
,woman,0.929189563
,child,0.92450285
,enjoyment,0.91656971
,travel,0.912937522
,recreation,0.898214698
,leisure,0.887153983
,nature,0.87768954
,ice,0.855999291
,togetherness,0.848629475
,active,0.848395169
,ice,0.822589636
,adventure,0.809818983
,action,0.802230299
https://scontent.cdninstagram.com/t51.2885-15/e35/12545252_1045745802138055_1767158715_n.jpg,food,0.993317485
,meal,0.982854247
,dinner,0.962331057
,lunch,0.958240926
,plate,0.944767535
,restaurant,0.942836583
,people,0.939300776
,delicious,0.928759336
,cooking,0.928597808
,dish,0.914620519
,healthy,0.904311657
,meat,0.902836025
,vegetable,0.889061034
,tasty,0.8885535
,nutrition,0.885689616
,woman,0.877025485
,cuisine,0.872509718
,fork,0.863332391
,diet,0.855511606
,cheese,0.848811269
https://scontent.cdninstagram.com/t51.2885-15/e35/12547242_1525873651040435_342412126_n.jpg,shopping,0.983911991
,people,0.98317802
,street,0.974514067
,stock,0.971915364
,woman,0.965719938
,city,0.961736679
,coffee,0.938302994
,editorial,0.937392652
,exhibition,0.937312126
,commerce,0.935847759
,girl,0.921497226
,festival,0.900335431
,shop,0.894457817
,market,0.889011085
,mall,0.878645301
,indoors,0.872740626
,bar,0.858950436
,portrait,0.855989099
,recreation,0.843670964
,restaurant,0.843492031
https://scontent.cdninstagram.com/t51.2885-15/e35/12519262_1673180996291569_73840777_n.jpg,flower,0.998779535
,garden,0.995636463
,flora,0.978185415
,floral,0.965194404
,bouquet,0.962015748
,nature,0.960940242
,people,0.957520247
,leaf,0.952552438
,beautiful,0.944577098
,blooming,0.934685349
,woman,0.931899428
,bright,0.928434372
,decoration,0.924803853
,color,0.924354017
,park,0.922753572
,florist,0.921792388
,shopping,0.91389358
,summer,0.911477447
,tulip,0.911221147
,rose,0.909745097
https://scontent.cdninstagram.com/t51.2885-15/e35/12317315_410000995865673_1737723445_n.jpg,people,0.973344922
,woman,0.956877708
,fun,0.955926299
,man,0.95149529
,child,0.941422641
,celebration,0.937044621
,squad,0.908241749
,group,0.890111923
,festival,0.881003559
,sport,0.880959034
,family,0.873078585
,competition,0.867792606
,friendship,0.858374774
,recreation,0.856943607
,girl,0.852261305
,young,0.849267066
,enjoyment,0.842408478
,party,0.839781046
,happiness,0.816270471
,wear,0.81444627
https://scontent.cdninstagram.com/t51.2885-15/e35/12331427_647218992087295_966842044_n.jpg,friendship,0.993808448
,togetherness,0.991587758
,woman,0.986256599
,fun,0.975834608
,multicultural,0.97476387
,outdoors,0.97197783
,child,0.965376318
,student,0.965229154
,adolescent,0.960776091
,laughing,0.95916301
,joy,0.948345065
,man,0.936613679
,summer,0.935044169
,people,0.931606174
,enjoyment,0.929948449
,family,0.912165761
,young,0.909217715
,happiness,0.905498266
,cheerful,0.902056634
,love,0.891079485
https://scontent.cdninstagram.com/t51.2885-15/e35/13267418_190411534689476_196799603_n.jpg,indoors,0.991307855
,girl,0.991127253
,room,0.988907933
,woman,0.979473114
,meal,0.979452074
,people,0.975022674
,lifestyle,0.971738458
,cooking,0.959681988
,child,0.953008652
,food,0.925375879
,facial expression,0.92105341
,lunch,0.919380546
,adult,0.914850652
,happiness,0.908388257
,cookware,0.8968665
,portrait,0.892326295
,furniture,0.879851878
,bowl,0.878925979
,enjoyment,0.877379954
,table,0.866836786
https://scontent.cdninstagram.com/t51.2885-15/e35/12237403_1499230247040455_291169653_n.jpg,food,0.998469353
,meat,0.997357488
,meal,0.99401772
,chicken,0.989335179
,dinner,0.989111722
,no person,0.988131046
,poultry,0.986924946
,plate,0.985524297
,dish,0.982602239
,hot,0.982515574
,barbecue,0.980173349
,lunch,0.97881043
,restaurant,0.977848887
,refreshment,0.968540788
,sauce,0.963694572
,tasty,0.961036563
,cuisine,0.957048178
,potato,0.956135571
,delicious,0.950849891
,pork,0.942869246
https://scontent.cdninstagram.com/t51.2885-15/s750x750/sh0.08/e35/12357739_1518456961784699_494362477_n.jpg,people,0.985743761
,man,0.980573773
,child,0.972811818
,character,0.971971869
,sketch,0.963653088
,art,0.929365277
,woman,0.918750167
,girl,0.915745258
,funny,0.907253981
,humor,0.896965742
,football,0.890308857
,editorial,0.886142254
,smile,0.88514632
,fun,0.876056433
,love,0.865950704
,boy,0.85496974
,future,0.851920545
,family,0.851629853
,figure,0.848849058
,street,0.844731688
https://scontent.cdninstagram.com/t51.2885-15/s750x750/sh0.08/e35/12063119_768523126582742_1593136395_n.jpg,city,0.996891737
,skyscraper,0.991619229
,building,0.990520358
,cityscape,0.988373876
,travel,0.983568549
,business,0.982421041
,evening,0.979007483
,skyline,0.975417852
,light,0.972733855
,architecture,0.972481251
,downtown,0.968525887
,road,0.966623545
,urban,0.964382887
,hotel,0.94966805
,office,0.945759356
,street,0.938636899
,dusk,0.933267593
,illuminated,0.929995537
,festival,0.925179482
,modern,0.919295013
https://scontent.cdninstagram.com/t51.2885-15/e35/12346028_1064211270309483_1728221946_n.jpg,shopping,0.996024847
,market,0.994720936
,stock,0.994512141
,commerce,0.992863059
,city,0.988476157
,street,0.98112911
,shop,0.977787733
,carnival,0.972788572
,tourist,0.969801545
,people,0.967404723
,many,0.966931581
,festival,0.963996828
,exhibition,0.960365653
,crowd,0.956140876
,tourism,0.954451442
,group,0.947158873
,presentation,0.935520172
,mall,0.935293138
,business,0.929425359
,road,0.916021764
https://scontent.cdninstagram.com/t51.2885-15/s750x750/sh0.08/e35/13129449_1240257122652161_2062607558_n.jpg,woman,0.99292779
,people,0.983207345
,adult,0.981605411
,girl,0.972165704
,happiness,0.968603015
,portrait,0.957491398
,lifestyle,0.947163343
,togetherness,0.929121971
,facial expression,0.923430264
,brunette,0.916512847
,travel,0.910202861
,daylight,0.897177875
,outdoors,0.895523965
,young,0.890927553
,enjoyment,0.874070406
,indoors,0.851272643
,two,0.848168612
,smile,0.846294343
,one,0.832688868
,cheerful,0.831645131
https://scontent.cdninstagram.com/t51.2885-15/e35/12357791_446048908928332_1544688862_n.jpg,group,0.998387158
,friendship,0.99835968
,child,0.997311115
,four,0.996936321
,group,0.994752347
,laughing,0.994011521
,fun,0.993039012
,student,0.988302588
,togetherness,0.988045335
,portrait,0.987506747
,three,0.986113548
,joy,0.983227849
,woman,0.979052067
,facial expression,0.967294931
,girl,0.964940906
,boy,0.95851028
,adolescent,0.953285992
,happiness,0.952207565
,people,0.946741581
,smile,0.943530619
https://scontent.cdninstagram.com/t51.2885-15/e35/12237403_1499230247040455_291169653_n.jpg,food,0.998469353
,meat,0.997357488
,meal,0.99401772
,chicken,0.989335179
,dinner,0.989111722
,no person,0.988131046
,poultry,0.986924946
,plate,0.985524297
,dish,0.982602239
,hot,0.982515574
,barbecue,0.980173349
,lunch,0.97881043
,restaurant,0.977848887
,refreshment,0.968540788
,sauce,0.963694572
,tasty,0.961036563
,cuisine,0.957048178
,potato,0.956135571
,delicious,0.950849891
,pork,0.942869246
https://scontent.cdninstagram.com/t51.2885-15/e35/12346028_1064211270309483_1728221946_n.jpg,shopping,0.996024847
,market,0.994720936
,stock,0.994512141
,commerce,0.992863059
,city,0.988476157
,street,0.98112911
,shop,0.977787733
,carnival,0.972788572
,tourist,0.969801545
,people,0.967404723
,many,0.966931581
,festival,0.963996828
,exhibition,0.960365653
,crowd,0.956140876
,tourism,0.954451442
,group,0.947158873
,presentation,0.935520172
,mall,0.935293138
,business,0.929425359
,road,0.916021764
https://scontent.cdninstagram.com/t51.2885-15/e35/12276932_848532878577567_209252045_n.jpg,travel,0.991005421
,city,0.983959436
,water,0.972670197
,architecture,0.968847394
,urban,0.965390563
,tourism,0.964696288
,fountain,0.958972514
,business,0.954089224
,vacation,0.953988016
,building,0.950667262
,hotel,0.941958547
,tourist,0.941858888
,mall,0.941819549
,street,0.921490729
,people,0.920556545
,modern,0.913483202
,illuminated,0.910469174
,casino,0.908962488
,light,0.905249715
,no person,0.902830839
https://scontent.cdninstagram.com/t51.2885-15/s750x750/sh0.08/e35/13402756_1789972227893457_2027009329_n.jpg,ice,0.996376991
,sweet,0.987122655
,glass,0.984125972
,refreshment,0.979809165
,food,0.977941453
,fruit,0.974330544
,cold,0.965754151
,vanilla,0.963132381
,chocolate,0.955290318
,summer,0.951777458
,cream,0.951342285
,cherry,0.942694902
,no person,0.932224154
,delicious,0.932051539
,frozen,0.921436906
,cool,0.920319915
,drink,0.9120543
,wafer,0.903668404
,goody,0.898482442
,sugar,0.895301342
https://scontent.cdninstagram.com/t51.2885-15/e35/13126782_1756589527919606_1822195859_n.jpg,modern,0.984233618
,travel,0.982305467
,city,0.980593383
,urban,0.977812231
,architecture,0.974081874
,water,0.960429668
,building,0.960276365
,business,0.957542062
,hotel,0.948361695
,sky,0.944027185
,no person,0.934729576
,cityscape,0.932899594
,transportation system,0.919951141
,downtown,0.895155549
,commercial,0.891393304
,skyline,0.88611418
,office,0.882804275
,sea,0.871407151
,outdoors,0.855295062
,bridge,0.851326942
https://scontent.cdninstagram.com/t51.2885-15/e35/12357791_446048908928332_1544688862_n.jpg,group,0.998387158
,friendship,0.99835968
,child,0.997311115
,four,0.996936321
,group,0.994752347
,laughing,0.994011521
,fun,0.993039012
,student,0.988302588
,togetherness,0.988045335
,portrait,0.987506747
,three,0.986113548
,joy,0.983227849
,woman,0.979052067
,facial expression,0.967294931
,girl,0.964940906
,boy,0.95851028
,adolescent,0.953285992
,happiness,0.952207565
,people,0.946741581
,smile,0.943530619
https://scontent.cdninstagram.com/t51.2885-15/e35/13267418_190411534689476_196799603_n.jpg,indoors,0.991307855
,girl,0.991127253
,room,0.988907933
,woman,0.979473114
,meal,0.979452074
,people,0.975022674
,lifestyle,0.971738458
,cooking,0.959681988
,child,0.953008652
,food,0.925375879
,facial expression,0.92105341
,lunch,0.919380546
,adult,0.914850652
,happiness,0.908388257
,cookware,0.8968665
,portrait,0.892326295
,furniture,0.879851878
,bowl,0.878925979
,enjoyment,0.877379954
,table,0.866836786
https://scontent.cdninstagram.com/t51.2885-15/e35/12317315_410000995865673_1737723445_n.jpg,people,0.973344922
,woman,0.956877708
,fun,0.955926299
,man,0.95149529
,child,0.941422641
,celebration,0.937044621
,squad,0.908241749
,group,0.890111923
,festival,0.881003559
,sport,0.880959034
,family,0.873078585
,competition,0.867792606
,friendship,0.858374774
,recreation,0.856943607
,girl,0.852261305
,young,0.849267066
,enjoyment,0.842408478
,party,0.839781046
,happiness,0.816270471
,wear,0.81444627
https://scontent.cdninstagram.com/t51.2885-15/e35/13391257_804072003060309_2036512900_n.jpg,indoors,0.997349679
,table,0.996206701
,furniture,0.996078253
,room,0.992928088
,desk,0.989355981
,chair,0.98412019
,office,0.968942523
,seat,0.96352756
,league,0.944144726
,meeting,0.942132771
,business,0.938686967
,inside,0.936104298
,contemporary,0.923313618
,interior design,0.917977691
,modern,0.916694701
,education,0.892878115
,group,0.889318824
,conference room,0.870911598
,classroom,0.85891068
,technology,0.858127415
https://scontent.cdninstagram.com/t51.2885-15/e35/13391257_804072003060309_2036512900_n.jpg,indoors,0.997349679
,table,0.996206701
,furniture,0.996078253
,room,0.992928088
,desk,0.989355981
,chair,0.98412019
,office,0.968942523
,seat,0.96352756
,league,0.944144726
,meeting,0.942132771
,business,0.938686967
,inside,0.936104298
,contemporary,0.923313618
,interior design,0.917977691
,modern,0.916694701
,education,0.892878115
,group,0.889318824
,conference room,0.870911598
,classroom,0.85891068
,technology,0.858127415
https://scontent.cdninstagram.com/t51.2885-15/e35/13126782_1756589527919606_1822195859_n.jpg,modern,0.984233618
,travel,0.982305467
,city,0.980593383
,urban,0.977812231
,architecture,0.974081874
,water,0.960429668
,building,0.960276365
,business,0.957542062
,hotel,0.948361695
,sky,0.944027185
,no person,0.934729576
,cityscape,0.932899594
,transportation system,0.919951141
,downtown,0.895155549
,commercial,0.891393304
,skyline,0.88611418
,office,0.882804275
,sea,0.871407151
,outdoors,0.855295062
,bridge,0.851326942
https://scontent.cdninstagram.com/t51.2885-15/s750x750/sh0.08/e35/13402756_1789972227893457_2027009329_n.jpg,ice,0.996376991
,sweet,0.987122655
,glass,0.984125972
,refreshment,0.979809165
,food,0.977941453
,fruit,0.974330544
,cold,0.965754151
,vanilla,0.963132381
,chocolate,0.955290318
,summer,0.951777458
,cream,0.951342285
,cherry,0.942694902
,no person,0.932224154
,delicious,0.932051539
,frozen,0.921436906
,cool,0.920319915
,drink,0.9120543
,wafer,0.903668404
,goody,0.898482442
,sugar,0.895301342
https://scontent.cdninstagram.com/t51.2885-15/e35/13388495_1747912292155768_418123273_n.jpg,food,0.993770003
,no person,0.99126029
,traditional,0.972107768
,table,0.952669501
,hot,0.951178432
,plate,0.945120037
,cooking,0.937078834
,cup,0.936459899
,still life,0.925415277
,meal,0.924474299
,restaurant,0.924185693
,tableware,0.921093166
,drink,0.916855574
,party,0.91430223
,tea,0.913639545
,delicious,0.90711236
,dinner,0.899864376
,indoors,0.856845975
,dish,0.84871614
,epicure,0.846990347
