url,class,score
https://scontent.cdninstagram.com/t51.2885-15/e35/13423063_1738269769747466_326830172_n.jpg,man,0.9931542277336121
,portrait,0.9652702808380127
,people,0.9603164792060852
,fine-looking,0.9411338567733765
,couple,0.9310672879219055
,casual,0.9209480285644531
,guy,0.911250650882721
,two,0.9043048620223999
,young,0.8928391933441162
,outdoors,0.8909900188446045
,friendship,0.8792496919631958
,adult,0.865742564201355
,urban,0.865700900554657
,togetherness,0.8529271483421326
,love,0.8404639959335327
,looking,0.8260370492935181
,boy,0.7909688949584961
,fashion,0.7830122113227844
,wear,0.7690451145172119
,woman,0.7609703540802002
https://scontent.cdninstagram.com/t51.2885-15/e35/13402478_516617801861039_1461169819_n.jpg,man,0.9945375919342041
,fun,0.9878523349761963
,people,0.9814364910125732
,woman,0.9646821022033691
,portrait,0.9640049934387207
,child,0.9512242078781128
,young,0.9405156970024109
,adult,0.9385087490081787
,family,0.9377137422561646
,happiness,0.9368218183517456
,bill,0.9339972734451294
,togetherness,0.9240502119064331
,two,0.9213711023330688
,friendship,0.9213305711746216
,love,0.9190503358840942
,joy,0.9180114269256592
,scarf,0.9155224561691284
,affection,0.9148393869400024
,person,0.9111546277999878
,outdoors,0.90744948387146
https://scontent.cdninstagram.com/t51.2885-15/e35/12599255_809492085829837_681073888_n.jpg,woman,0.9758456945419312
,friendship,0.9664812684059143
,group,0.9486156105995178
,fun,0.9391655921936035
,people,0.9378929138183594
,young,0.9327777624130249
,isolated,0.9296841621398926
,squad,0.9278771281242371
,student,0.9239959716796875
,group,0.9211968779563904
,smile,0.9117310047149658
,business,0.9054789543151855
,girl,0.9053083658218384
,multicultural,0.9010092616081238
,portrait,0.8903058767318726
,teamwork,0.8844214081764221
,joy,0.8785374164581299
,person,0.8729081153869629
,adolescent,0.8707289695739746
,togetherness,0.8705689311027527
https://scontent.cdninstagram.com/t51.2885-15/e35/13098929_703711153064529_867588822_n.jpg,woman,0.9921489357948303
,isolated,0.9798144102096558
,portrait,0.9725420475006104
,people,0.9723997116088867
,young,0.9688445925712585
,girl,0.9491767883300781
,pretty,0.9466660618782043
,paper,0.9423373937606812
,beautiful,0.9409430623054504
,adult,0.9328163862228394
,two,0.9117121696472168
,person,0.9097294807434082
,desktop,0.9050964117050171
,fashion,0.9026813507080078
,business,0.8945193886756897
,attractive,0.8857951164245605
,smile,0.8823758959770203
,cute,0.8771661520004272
,face,0.8721818923950195
,hair,0.8637678027153015
https://scontent.cdninstagram.com/t51.2885-15/e35/12555980_232732113731949_1740508753_n.jpg,portrait,0.9738548398017883
,togetherness,0.9696445465087891
,smile,0.9577457308769226
,woman,0.9558561444282532
,love,0.9534580707550049
,friendship,0.9499184489250183
,happiness,0.9482179880142212
,man,0.942217230796814
,people,0.9407920241355896
,joy,0.9389287829399109
,two,0.9378437995910645
,embrace,0.9258399605751038
,young,0.9214032888412476
,couple,0.9051148891448975
,casual,0.9044955968856812
,fun,0.9000394344329834
,isolated,0.8916009664535522
,laughing,0.8910190463066101
,cheerful,0.8822792768478394
,adolescent,0.8753856420516968
https://scontent.cdninstagram.com/t51.2885-15/e35/13402243_1205880289444430_1480155907_n.jpg,celebration,0.9850915670394897
,illustration,0.9800806641578674
,vector,0.969889223575592
,party,0.9672162532806396
,Christmas,0.9425609707832336
,nightlife,0.9366216659545898
,desktop,0.9333633184432983
,lantern,0.9293955564498901
,dancing,0.9231712818145752
,woman,0.9085286855697632
,traditional,0.8971000909805298
,design,0.8945297002792358
,club,0.8890314102172852
,evening,0.8841683268547058
,people,0.8840473890304565
,light,0.8768450021743774
,fashion,0.8764845132827759
,card,0.8704033493995667
,fun,0.8692602515220642
,sexy,0.8680025935173035
https://scontent.cdninstagram.com/t51.2885-15/e35/10570199_161642560867051_1736452316_n.jpg,squad,0.995919942855835
,woman,0.976402223110199
,people,0.9740704298019409
,teamwork,0.9671705961227417
,friendship,0.9619389772415161
,man,0.9517937302589417
,sport,0.9498056173324585
,group,0.9458473920822144
,unity,0.9429082274436951
,group,0.9414482116699219
,young,0.941240668296814
,togetherness,0.9371562004089355
,fun,0.9313915967941284
,success,0.929588794708252
,child,0.9190199375152588
,student,0.9104456901550293
,family,0.9056396484375
,portrait,0.903811514377594
,adult,0.8890556693077087
,person,0.8888816833496094
https://scontent.cdninstagram.com/t51.2885-15/e35/12940822_709666625842727_1911542336_n.jpg,woman,0.9823002815246582
,people,0.9805778861045837
,portrait,0.9526909589767456
,friendship,0.9359140396118164
,girl,0.9345212578773499
,young,0.9260975122451782
,beautiful,0.9212889075279236
,stock,0.9138805866241455
,smile,0.9091076850891113
,pretty,0.9066293239593506
,adult,0.8987981081008911
,two,0.8922814130783081
,person,0.8913679122924805
,indoors,0.8893181681632996
,happiness,0.8888293504714966
,fashion,0.8801910877227783
,brunette,0.8765305280685425
,family,0.8747459650039673
,shopping,0.8706333637237549
,cheerful,0.8656995892524719
https://scontent.cdninstagram.com/t51.2885-15/e35/12783960_1047241355332729_349562757_n.jpg,woman,0.9858666062355042
,portrait,0.9686498641967773
,togetherness,0.9589996337890625
,fashion,0.956486701965332
,love,0.9506545662879944
,pretty,0.946718156337738
,isolated,0.9446651935577393
,people,0.9417450428009033
,adolescent,0.9396201372146606
,young,0.9366099834442139
,casual,0.927594780921936
,friendship,0.9268349409103394
,multicultural,0.9176462888717651
,joy,0.9162039756774902
,girl,0.9098086953163147
,embrace,0.9087875485420227
,fun,0.9006384611129761
,smile,0.8917769193649292
,cute,0.8859771490097046
,beautiful,0.8696690201759338
https://scontent.cdninstagram.com/t51.2885-15/e35/13256668_615082871985348_484262502_n.jpg,man,0.9652948975563049
,woman,0.9625446796417236
,love,0.9543483257293701
,togetherness,0.9506146907806396
,people,0.9416179060935974
,family,0.9416004419326782
,friendship,0.9269524812698364
,two,0.9131234884262085
,couple,0.9036761522293091
,casual,0.8957916498184204
,embrace,0.8918770551681519
,young,0.8688466548919678
,affection,0.864176332950592
,looking,0.8614039421081543
,portrait,0.8406173586845398
,happiness,0.8403120040893555
,adult,0.8375622034072876
,child,0.8330774307250977
,adolescent,0.832987904548645
,isolated,0.819002091884613
https://scontent.cdninstagram.com/t51.2885-15/e35/13402289_901088773334352_1040608117_n.jpg,sunset,0.9995013475418091
,sky,0.9960026741027832
,silhouette,0.9933483600616455
,dawn,0.9877786040306091
,sun,0.983940601348877
,dusk,0.9764233827590942
,transportation system,0.9760332107543945
,nature,0.9749192595481873
,beach,0.9747129678726196
,summer,0.9740705490112305
,travel,0.9714497327804565
,sea,0.9650628566741943
,water,0.9624300599098206
,bike,0.9618422985076904
,sitting,0.9608089923858643
,adventure,0.9566501379013062
,evening,0.9449042081832886
,landscape,0.9401683807373047
,vehicle,0.9399797916412354
,moon,0.9319697618484497
https://scontent.cdninstagram.com/t51.2885-15/e35/12446124_1011385968926181_1827279352_n.jpg,man,0.9766602516174316
,people,0.968539834022522
,woman,0.965099036693573
,young,0.9359941482543945
,two,0.9302537441253662
,outdoors,0.8989425897598267
,fun,0.8963748216629028
,love,0.8950515389442444
,adult,0.8944342136383057
,family,0.8717346787452698
,couple,0.853783130645752
,portrait,0.8235715627670288
,togetherness,0.8227726221084595
,casual,0.8219276666641235
,friendship,0.8128654360771179
,adolescent,0.807762086391449
,romance,0.8002642393112183
,fashion,0.7911334037780762
,joy,0.7831164598464966
,child,0.7812284231185913
https://scontent.cdninstagram.com/t51.2885-15/e35/12552385_663831857052877_140108378_n.jpg,student,0.9898980855941772
,woman,0.9837288856506348
,group,0.9781633615493774
,friendship,0.9724327325820923
,man,0.9637565016746521
,people,0.9576762914657593
,young,0.9521435499191284
,togetherness,0.9511521458625793
,multicultural,0.9498395919799805
,many,0.947003960609436
,isolated,0.9464534521102905
,child,0.9377419948577881
,adolescent,0.9370547533035278
,squad,0.9336096048355103
,education,0.913945198059082
,casual,0.9085886478424072
,group,0.9084516763687134
,collage,0.8996917009353638
,fun,0.8981676697731018
,family,0.8963414430618286
https://scontent.cdninstagram.com/t51.2885-15/e35/13397662_1064282500317302_978133620_n.jpg,man,0.985898494720459
,isolated,0.9839316606521606
,woman,0.9836404323577881
,joy,0.9783807992935181
,fun,0.9776986837387085
,people,0.9771836996078491
,happiness,0.976457953453064
,portrait,0.9743801951408386
,child,0.9742825031280518
,togetherness,0.9669438004493713
,laughing,0.9667429327964783
,smile,0.966407299041748
,young,0.9634045362472534
,cheerful,0.9598568677902222
,friendship,0.9576970338821411
,love,0.9549230337142944
,group,0.9379607439041138
,embrace,0.9358609914779663
,person,0.9310562014579773
,family,0.9302796721458435
https://scontent.cdninstagram.com/t51.2885-15/e35/13129978_688100121293335_320547326_n.jpg,people,0.98484206199646
,woman,0.978183388710022
,child,0.9575324654579163
,friendship,0.9514990448951721
,fun,0.9494103193283081
,man,0.9467164874076843
,group,0.9394956231117249
,young,0.9303330183029175
,girl,0.929262638092041
,collage,0.9244651794433594
,family,0.9163318872451782
,joy,0.913451075553894
,person,0.9003942012786865
,happiness,0.8901218175888062
,togetherness,0.8857948780059814
,love,0.8749842643737793
,portrait,0.8662317991256714
,smile,0.8488880395889282
,adult,0.8427289128303528
,isolated,0.8377773761749268
https://scontent.cdninstagram.com/t51.2885-15/e35/12959937_1533530473621031_146600040_n.jpg,people,0.9969196319580078
,portrait,0.9954314231872559
,facial expression,0.9827219843864441
,woman,0.9810511469841003
,adult,0.9675930738449097
,man,0.9629396200180054
,affection,0.9620219469070435
,monochrome,0.9507697820663452
,child,0.9426509737968445
,two,0.9225606918334961
,embrace,0.9156914949417114
,retro,0.8992170095443726
,adolescent,0.8791869282722473
,music,0.8342572450637817
,boy,0.8317263722419739
,wear,0.8280622959136963
,happiness,0.8214694261550903
,togetherness,0.8189289569854736
,actress,0.8142902851104736
,group,0.8049724698066711
https://scontent.cdninstagram.com/t51.2885-15/e35/13258905_1700625430190785_560012358_n.jpg,woman,0.9642136096954346
,man,0.9641486406326294
,people,0.955362856388092
,fun,0.9457486867904663
,love,0.9238408207893372
,child,0.9169156551361084
,two,0.9110096096992493
,young,0.909505307674408
,sunglasses,0.9088018536567688
,couple,0.8873375654220581
,joy,0.8654273152351379
,portrait,0.857627809047699
,outdoors,0.8473315238952637
,family,0.8365172147750854
,fashion,0.831805944442749
,togetherness,0.8314606547355652
,romance,0.823371171951294
,isolated,0.8199330568313599
,adolescent,0.7964291572570801
,girl,0.7920643091201782
https://scontent.cdninstagram.com/t51.2885-15/e35/13256912_243180629388400_17111255_n.jpg,man,0.9816707968711853
,woman,0.9811124801635742
,two,0.9801287055015564
,people,0.9793134927749634
,portrait,0.9651467800140381
,couple,0.9628329277038574
,love,0.9504426121711731
,romance,0.950363278388977
,young,0.9466640949249268
,friendship,0.937696635723114
,togetherness,0.922541081905365
,fun,0.9184517860412598
,fine-looking,0.9001120924949646
,adult,0.8762243390083313
,isolated,0.8722127079963684
,girl,0.8554034233093262
,fashion,0.8535170555114746
,smile,0.8511077165603638
,joy,0.8459099531173706
,business,0.8436141610145569
https://scontent.cdninstagram.com/t51.2885-15/e35/13525481_1641870629470572_421612075_n.jpg,woman,0.9926119446754456
,people,0.9863309860229492
,beautiful,0.9732829332351685
,young,0.9722592830657959
,friendship,0.9687545299530029
,pretty,0.9629862904548645
,portrait,0.9625064134597778
,girl,0.9577388763427734
,fun,0.9575209617614746
,adult,0.948958158493042
,happiness,0.946984052658081
,fashion,0.9469149112701416
,isolated,0.9376269578933716
,child,0.9248751401901245
,joy,0.9244786500930786
,person,0.9210326671600342
,lifestyle,0.9178778529167175
,school,0.9128125309944153
,casual,0.9123833179473877
,education,0.9121440649032593
https://scontent.cdninstagram.com/t51.2885-15/e35/11931071_798473026953257_1060165416_n.jpg,fun,0.994755208492279
,woman,0.9891772270202637
,laughing,0.9749924540519714
,joy,0.9715139865875244
,portrait,0.9696470499038696
,face,0.969307541847229
,isolated,0.9689807891845703
,people,0.9631776809692383
,girl,0.9480462074279785
,smile,0.9465364217758179
,beautiful,0.9434064626693726
,happiness,0.9407728910446167
,young,0.9407311677932739
,funny,0.9361013174057007
,desktop,0.9129281044006348
,person,0.9009495377540588
,friendship,0.900815486907959
,adolescent,0.8974207043647766
,fashion,0.8944367170333862
,surprise,0.8943721055984497
https://scontent.cdninstagram.com/t51.2885-15/e35/12934973_590666781087893_1022499163_n.jpg,woman,0.9884920120239258
,pretty,0.9613393545150757
,young,0.9611849784851074
,portrait,0.9510825872421265
,isolated,0.9387284517288208
,fashion,0.9380202889442444
,people,0.9268299341201782
,love,0.9256048202514648
,beautiful,0.9203150272369385
,friendship,0.9195303916931152
,casual,0.9145532846450806
,togetherness,0.9099391102790833
,joy,0.9004286527633667
,girl,0.8832158446311951
,cute,0.8831058740615845
,happiness,0.8703237771987915
,fun,0.8596698641777039
,multicultural,0.854716420173645
,smile,0.8534324169158936
,two,0.8426544666290283
