URL,CLASS,SCORE,PASSION,INTEREST
"allan= Error Image, Not Accessible.",,,,,
https://scontent.cdninstagram.com/t51.2885-15/s750x750/sh0.08/e35/13561734_1082744485133626_1026873758_n.jpg,people,0.9712084531784058,312312,,
,indoors,0.9656649827957153,,,
,restaurant,0.9612535238265991,,,
,woman,0.95634925365448,,,
,adult,0.9528928995132446,,,
,man,0.9272177219390869,,,
,table,0.9171769618988037,,,
,coffee,0.915176510810852,,,
,commerce,0.9094107151031494,,,
,wear,0.8897441029548645,,,
,service,0.8769314885139465,,,
,employee,0.8753266334533691,,,
,chef,0.8733921051025391,,,
,food,0.846462607383728,,,
,dining,0.8287636041641235,,,
,stock,0.819463849067688,,,
,one,0.8189542889595032,,,
,furniture,0.8099769353866577,,,
,shopping,0.8092509508132935,,,
,exhibition,0.80915766954422,,,
https://scontent.cdninstagram.com/t51.2885-15/s480x480/e35/12784024_967950033286598_1495807113_n.jpg,adult,0.9888033866882324,312321,,
,people,0.9849917888641357,,,
,woman,0.9849888682365417,,,
,"facial expression",0.9755302667617798,,,
,man,0.9688301682472229,,,
,wear,0.9670363664627075,,,
,two,0.9669150710105896,,,
,portrait,0.9576969146728516,,,
,eyewear,0.9575405120849609,,,
,happiness,0.9557301998138428,,,
,enjoyment,0.9491227269172668,,,
,room,0.9377670288085938,,,
,togetherness,0.9345830082893372,,,
,education,0.9200009107589722,,,
,technology,0.9188418388366699,,,
,group,0.9157845377922058,,,
,indoors,0.9125974178314209,,,
,university,0.8992468118667603,,,
,daylight,0.8942226767539978,,,
,eyeglasses,0.8896356821060181,,,
https://scontent.cdninstagram.com/t51.2885-15/e35/12677662_229275930748378_2081040931_n.jpg,people,0.9926917552947998,31312132,,
,adult,0.9917328357696533,,,
,woman,0.9868130683898926,,,
,illustration,0.9800523519515991,,,
,portrait,0.9774879217147827,,,
,fashion,0.9590632915496826,,,
,man,0.9479383826255798,,,
,monochrome,0.9326275587081909,,,
,couple,0.9247742891311646,,,
,vertical,0.9224187135696411,,,
,indoors,0.9197744727134705,,,
,business,0.8922967910766602,,,
,horizontal,0.8862555623054504,,,
,vector,0.8862135410308838,,,
,silhouette,0.8600871562957764,,,
,collection,0.8519963026046753,,,
,sadness,0.8486839532852173,,,
,shadow,0.8416788578033447,,,
,modern,0.8210978507995605,,,
,friendship,0.8113054633140564,,,
https://scontent.cdninstagram.com/t51.2885-15/e35/12552238_720269718110224_283451919_n.jpg,illustration,0.9591097831726074,,,
,desktop,0.956840455532074,,,
,text,0.9432965517044067,,,
,card,0.8608508110046387,,,
,time,0.8483624458312988,,,
,bill,0.8404682278633118,,,
,graphic,0.8370293378829956,,,
,medicine,0.8241448402404785,,,
,"give voice",0.813889741897583,,,
,page,0.8011500835418701,,,
,vintage,0.7941564321517944,,,
,abstract,0.7879313230514526,,,
,business,0.7830995917320251,,,
,old,0.7784908413887024,,,
,"picture frame",0.7655222415924072,,,
,medical,0.7590566277503967,,,
,symbol,0.7511862516403198,,,
,paper,0.7488580942153931,,,
,annual,0.7403897643089294,,,
,company,0.733753502368927,,,
https://scontent.cdninstagram.com/t51.2885-15/s750x750/sh0.08/e35/13643063_1041868042534008_796938353_n.jpg,"no person",0.9657856225967407,,,
,paper,0.9450933933258057,,,
,business,0.9310630559921265,,,
,indoors,0.9230492115020752,,,
,people,0.8984227776527405,,,
,man,0.8816059231758118,,,
,desktop,0.8726102113723755,,,
,room,0.8659850358963013,,,
,office,0.8526808619499207,,,
,card,0.851778507232666,,,
,family,0.8365354537963867,,,
,print,0.8360174894332886,,,
,group,0.8182498216629028,,,
,document,0.8109234571456909,,,
,woman,0.8094176650047302,,,
,adult,0.807376503944397,,,
,image,0.8032211065292358,,,
,furniture,0.8010963201522827,,,
,text,0.8007879257202148,,,
,wear,0.7980153560638428,,,
https://scontent.cdninstagram.com/t51.2885-15/e35/12142351_1704073876542441_2140127039_n.jpg,adult,0.9968549013137817,,,
,vertical,0.992018461227417,,,
,portrait,0.9913771152496338,,,
,cheerful,0.9913398027420044,,,
,people,0.9858989715576172,,,
,woman,0.9854340553283691,,,
,happiness,0.9851077795028687,,,
,confidence,0.9473804235458374,,,
,content,0.9270694851875305,,,
,bill,0.9215850830078125,,,
,exhilaration,0.9178735017776489,,,
,modern,0.9177988767623901,,,
,illustration,0.908787727355957,,,
,success,0.9077131748199463,,,
,bag,0.8678696155548096,,,
,sport,0.8599587678909302,,,
,image,0.856956422328949,,,
,communication,0.8514643907546997,,,
,fashion,0.8488212823867798,,,
,humor,0.8445022106170654,,,
https://scontent.cdninstagram.com/t51.2885-15/e35/12552210_930171603764285_597560923_n.jpg,child,0.974503755569458,,,
,people,0.8977422118186951,,,
,girl,0.8830235004425049,,,
,fun,0.876332700252533,,,
,little,0.845003604888916,,,
,woman,0.8345391750335693,,,
,young,0.8287983536720276,,,
,cute,0.8269851207733154,,,
,health,0.8137649297714233,,,
,desktop,0.8088263273239136,,,
,isolated,0.7910540699958801,,,
,summer,0.7870863676071167,,,
,family,0.7857929468154907,,,
,happiness,0.7784203290939331,,,
,portrait,0.7781088352203369,,,
,person,0.7770010232925415,,,
,love,0.7723287343978882,,,
,leisure,0.7680205702781677,,,
,baby,0.765301525592804,,,
,sit,0.7652291059494019,,,
https://scontent.cdninstagram.com/t51.2885-15/e35/1169871_828131383979208_1359088537_n.jpg,group,0.9825878143310547,,,
,woman,0.9653134346008301,,,
,man,0.9457310438156128,,,
,group,0.932986855506897,,,
,indoors,0.9083980321884155,,,
,people,0.9057778120040894,,,
,movie,0.882359504699707,,,
,sit,0.8757517337799072,,,
,adult,0.865973949432373,,,
,portrait,0.8604001998901367,,,
,business,0.8562682867050171,,,
,multicultural,0.8216807246208191,,,
,looking,0.8183623552322388,,,
,education,0.8175739049911499,,,
,family,0.7937159538269043,,,
,togetherness,0.7897909879684448,,,
,sitting,0.7847623825073242,,,
,interaction,0.7803585529327393,,,
,wear,0.7461989521980286,,,
,friendship,0.7454274892807007,,,
https://scontent.cdninstagram.com/t51.2885-15/e35/12599389_253519404990222_828024594_n.jpg,people,0.9941952228546143,,,
,adult,0.9933580160140991,,,
,woman,0.9930502772331238,,,
,vertical,0.9732544422149658,,,
,portrait,0.9691859483718872,,,
,happiness,0.9685395359992981,,,
,cheerful,0.9651244878768921,,,
,fashion,0.9199041128158569,,,
,indoors,0.9183475375175476,,,
,business,0.8983592987060547,,,
,joy,0.8808113932609558,,,
,success,0.8635702729225159,,,
,presentation,0.8617274761199951,,,
,fun,0.8513108491897583,,,
,modern,0.8481065034866333,,,
,young,0.83506840467453,,,
,dress,0.834306001663208,,,
,horizontal,0.8335850238800049,,,
,surprise,0.8210923075675964,,,
,person,0.819488525390625,,,
https://scontent.cdninstagram.com/t51.2885-15/s480x480/e35/12628014_1694068364175385_1611987707_n.jpg,people,0.9932085871696472,,,
,child,0.9875664710998535,,,
,adult,0.9615393877029419,,,
,woman,0.957634449005127,,,
,portrait,0.9544022083282471,,,
,vertical,0.9493154883384705,,,
,illustration,0.9431053996086121,,,
,bill,0.9241288304328918,,,
,man,0.9174757599830627,,,
,horizontal,0.8989159464836121,,,
,text,0.8881154656410217,,,
,sit,0.8868848085403442,,,
,communication,0.8800723552703857,,,
,paper,0.8092476725578308,,,
,indoors,0.7984166741371155,,,
,art,0.7961235642433167,,,
,vintage,0.794224739074707,,,
,family,0.7902872562408447,,,
,outdoors,0.7871048450469971,,,
,togetherness,0.7856112718582153,,,
https://scontent.cdninstagram.com/t51.2885-15/e35/1171644_185146148506583_240841976_n.jpg,woman,0.9855901002883911,,,
,friendship,0.9718171954154968,,,
,man,0.9681605696678162,,,
,togetherness,0.9469940662384033,,,
,people,0.943220853805542,,,
,adult,0.9176137447357178,,,
,group,0.9113728404045105,,,
,collage,0.9106488823890686,,,
,happiness,0.9099665880203247,,,
,fun,0.9039549827575684,,,
,young,0.8910637497901917,,,
,cheerful,0.8852272033691406,,,
,student,0.8828734159469604,,,
,multicultural,0.8824878931045532,,,
,portrait,0.8795398473739624,,,
,laughing,0.8727688789367676,,,
,four,0.8705106377601624,,,
,group,0.857373833656311,,,
,joy,0.8498777151107788,,,
,teamwork,0.8404496908187866,,,
https://scontent.cdninstagram.com/t51.2885-15/e35/12748163_153844441664736_556912360_n.jpg,paper,0.9793679714202881,,,
,paper,0.9705764055252075,,,
,print,0.9695218801498413,,,
,magazine,0.9687762260437012,,,
,text,0.9684566259384155,,,
,business,0.9521496891975403,,,
,people,0.9390863180160522,,,
,illustration,0.8859896063804626,,,
,bill,0.8623380661010742,,,
,many,0.8536873459815979,,,
,finance,0.8510268926620483,,,
,article,0.8471955060958862,,,
,desktop,0.8442893624305725,,,
,money,0.8161416053771973,,,
,group,0.7924973964691162,,,
,document,0.7882535457611084,,,
,headline,0.7587440013885498,,,
,spherical,0.7495486736297607,,,
,financial,0.7382858991622925,,,
,card,0.7334305047988892,,,
https://scontent.cdninstagram.com/t51.2885-15/s480x480/e35/12552346_612547872216499_199790567_n.jpg,people,0.9727215766906738,,,
,woman,0.9581557512283325,,,
,adult,0.9557629227638245,,,
,portrait,0.9490436315536499,,,
,man,0.9448525905609131,,,
,vertical,0.9401895999908447,,,
,indoors,0.9066556692123413,,,
,communication,0.9058159589767456,,,
,paper,0.8925467729568481,,,
,illustration,0.8621886968612671,,,
,child,0.835294246673584,,,
,old,0.8261411190032959,,,
,vintage,0.8130505084991455,,,
,card,0.8113204836845398,,,
,collection,0.8057066202163696,,,
,post,0.8005764484405518,,,
,desktop,0.7798135280609131,,,
,letter,0.772982656955719,,,
,girl,0.7637834548950195,,,
,retro,0.7602388858795166,,,
https://scontent.cdninstagram.com/t51.2885-15/e35/12298870_512237985610622_1089355065_n.jpg,woman,0.98618483543396,,,
,man,0.9739372730255127,,,
,indoors,0.9692933559417725,,,
,people,0.9579468965530396,,,
,togetherness,0.9563735723495483,,,
,adult,0.9399383664131165,,,
,happiness,0.9044134616851807,,,
,portrait,0.9027552604675293,,,
,"facial expression",0.8920670747756958,,,
,business,0.8794553279876709,,,
,laughing,0.8758511543273926,,,
,enjoyment,0.8684455752372742,,,
,wear,0.8497150540351868,,,
,friendship,0.8313940763473511,,,
,wedding,0.811164379119873,,,
,confidence,0.798342227935791,,,
,groom,0.7973778247833252,,,
,looking,0.7963080406188965,,,
,family,0.7955871224403381,,,
,love,0.7892327308654785,,,
https://scontent.cdninstagram.com/t51.2885-15/e35/12501693_1026860497336769_369620858_n.jpg,child,0.9870210886001587,,,
,touch,0.975388765335083,,,
,portable,0.967903733253479,,,
,isolated,0.96079421043396,,,
,little,0.9584264755249023,,,
,technology,0.9484484195709229,,,
,cute,0.929838240146637,,,
,appliance,0.9292414784431458,,,
,internet,0.9068024158477783,,,
,wireless,0.9008716344833374,,,
,pill,0.8910144567489624,,,
,fun,0.8889751434326172,,,
,display,0.8760104179382324,,,
,smart,0.8508233428001404,,,
,screen,0.8487035632133484,,,
,desktop,0.8348779678344727,,,
,intelligence,0.8163681030273438,,,
,computer,0.8094182014465332,,,
,paper,0.8010427951812744,,,
,funny,0.7973495125770569,,,
https://scontent.cdninstagram.com/t51.2885-15/e35/1169232_1228027130546323_1070619709_n.jpg,group,0.9962862730026245,,,
,woman,0.9935455918312073,,,
,people,0.987628698348999,,,
,ceremony,0.9853289127349854,,,
,portrait,0.985248327255249,,,
,singer,0.9805780053138733,,,
,happiness,0.9789857864379883,,,
,four,0.9757208824157715,,,
,friendship,0.9751793146133423,,,
,group,0.9743570685386658,,,
,festival,0.9701416492462158,,,
,musician,0.9696711897850037,,,
,performance,0.9685734510421753,,,
,wear,0.9659092426300049,,,
,dress,0.965251088142395,,,
,three,0.9648767709732056,,,
,music,0.9590685963630676,,,
,adult,0.9574103355407715,,,
,fashion,0.9566175937652588,,,
,party,0.9562205672264099,,,
https://scontent.cdninstagram.com/t51.2885-15/e35/927318_1670499143167483_174662154_n.jpg,woman,0.9944331049919128,,,
,group,0.9929686784744263,,,
,collection,0.9912598133087158,,,
,friendship,0.9867517948150635,,,
,fashion,0.9855145215988159,,,
,four,0.9806807041168213,,,
,group,0.9796060919761658,,,
,people,0.9765012264251709,,,
,pretty,0.9665374755859375,,,
,young,0.9654062390327454,,,
,togetherness,0.9636650681495667,,,
,three,0.9507279396057129,,,
,five,0.9468549489974976,,,
,man,0.9438649415969849,,,
,fun,0.9387912750244141,,,
,laughing,0.9354141354560852,,,
,joy,0.9308744072914124,,,
,summer,0.9308164119720459,,,
,model,0.9185742139816284,,,
,portrait,0.914577066898346,,,
https://scontent.cdninstagram.com/t51.2885-15/e35/916433_462697020602494_1201934870_n.jpg,people,0.9880660772323608,,,
,woman,0.9835701584815979,,,
,group,0.9746648073196411,,,
,man,0.9695608615875244,,,
,business,0.9353571534156799,,,
,collection,0.9331344366073608,,,
,teamwork,0.9280819296836853,,,
,child,0.9268361330032349,,,
,squad,0.9221438765525818,,,
,many,0.9122254848480225,,,
,adult,0.9079009294509888,,,
,education,0.9077634215354919,,,
,fashion,0.89750736951828,,,
,portrait,0.860190749168396,,,
,collage,0.8583086729049683,,,
,crowd,0.8553117513656616,,,
,friendship,0.8493944406509399,,,
,group,0.8453108668327332,,,
,family,0.8371517658233643,,,
,fun,0.8329014778137207,,,
https://scontent.cdninstagram.com/t51.2885-15/e35/p320x320/12677695_834892493289240_865787014_n.jpg,people,0.9917846918106079,,,
,portrait,0.9900134801864624,,,
,two,0.9876407384872437,,,
,actress,0.9667417407035828,,,
,adult,0.9661332368850708,,,
,wear,0.9613750576972961,,,
,man,0.953301727771759,,,
,actor,0.9495368003845215,,,
,"facial expression",0.9494908452033997,,,
,movie,0.9472986459732056,,,
,recreation,0.9391623735427856,,,
,woman,0.9327751994132996,,,
,family,0.9129440784454346,,,
,fashion,0.8934726715087891,,,
,happiness,0.8778955936431885,,,
,love,0.8695305585861206,,,
,togetherness,0.8619940876960754,,,
,eyewear,0.8552287817001343,,,
,group,0.8303940296173096,,,
,"red carpet",0.8262680768966675,,,
https://scontent.cdninstagram.com/t51.2885-15/e35/12555948_225712247766136_1684697532_n.jpg,template,0.9941968321800232,,,
,layout,0.9934848546981812,,,
,banner,0.9860880374908447,,,
,booklet,0.9693041443824768,,,
,vector,0.9610646963119507,,,
,card,0.9575742483139038,,,
,presentation,0.9464614391326904,,,
,label,0.9369890689849854,,,
,set,0.9352574348449707,,,
,graph,0.9351668357849121,,,
,illustration,0.9345652461051941,,,
,navigation,0.9338412284851074,,,
,"World Wide Web",0.9152799844741821,,,
,sandbank,0.9141004085540771,,,
,data,0.8914983868598938,,,
,menu,0.8906756639480591,,,
,vector,0.8905667066574097,,,
,stripe,0.8891602754592896,,,
,graphic,0.8888177275657654,,,
,diagram,0.8848586678504944,,,
https://scontent.cdninstagram.com/t51.2885-15/e35/12292866_515305945312434_957351277_n.jpg,woman,0.9815645217895508,,,
,people,0.9799373745918274,,,
,adult,0.9708939790725708,,,
,man,0.9668021202087402,,,
,indoors,0.9521102905273438,,,
,education,0.9506824016571045,,,
,child,0.9494421482086182,,,
,presentation,0.9229568243026733,,,
,horizontal,0.9201220273971558,,,
,illustration,0.9046533107757568,,,
,togetherness,0.8932709693908691,,,
,teamwork,0.8911131024360657,,,
,table,0.8878195285797119,,,
,sitting,0.8797074556350708,,,
,communication,0.8588348627090454,,,
,friendship,0.8467752933502197,,,
,portrait,0.8446033000946045,,,
,business,0.8433403968811035,,,
,league,0.835750937461853,,,
,headshot,0.8037185668945312,,,
https://scontent.cdninstagram.com/t51.2885-15/e35/13398868_290629631271976_364318777_n.jpg,woman,0.9869961738586426,,,
,man,0.9852807521820068,,,
,people,0.9773287177085876,,,
,group,0.9759649038314819,,,
,education,0.9581853151321411,,,
,indoors,0.947202205657959,,,
,adult,0.9444741010665894,,,
,desk,0.9376362562179565,,,
,teamwork,0.9375193119049072,,,
,table,0.9341187477111816,,,
,child,0.906336784362793,,,
,meeting,0.8990318775177002,,,
,teacher,0.8879659175872803,,,
,classroom,0.8860677480697632,,,
,many,0.8841679096221924,,,
,communication,0.8775715827941895,,,
,student,0.8695142269134521,,,
,business,0.8545061349868774,,,
,coffee,0.8533874154090881,,,
,audience,0.8522449731826782,,,
https://scontent.cdninstagram.com/t51.2885-15/e35/11262115_721987277901893_1180765573_n.jpg,paper,0.9863142967224121,,,
,people,0.9834152460098267,,,
,portrait,0.9831594228744507,,,
,annual,0.9809579849243164,,,
,administration,0.9723485112190247,,,
,paper,0.9681779742240906,,,
,business,0.9500934481620789,,,
,text,0.9375137090682983,,,
,print,0.9233186841011047,,,
,time,0.9221718311309814,,,
,woman,0.9104920625686646,,,
,date,0.9098943471908569,,,
,adult,0.9097793102264404,,,
,monthly,0.902052640914917,,,
,schedule,0.8982883095741272,,,
,desktop,0.8944520950317383,,,
,press,0.8921509981155396,,,
,daily,0.8874017000198364,,,
,future,0.8838616609573364,,,
,person,0.8748118877410889,,,
https://scontent.cdninstagram.com/t51.2885-15/e35/12317558_885408171572444_482460476_n.jpg,adult,0.9918084144592285,,,
,woman,0.9893165826797485,,,
,people,0.9736365675926208,,,
,presentation,0.9607268571853638,,,
,indoors,0.9600855112075806,,,
,show,0.947712779045105,,,
,business,0.9375433921813965,,,
,man,0.9266129732131958,,,
,collection,0.9130929708480835,,,
,technology,0.8963561058044434,,,
,movie,0.893201470375061,,,
,"facial expression",0.8925336599349976,,,
,group,0.8917344808578491,,,
,gown,0.8799175024032593,,,
,interaction,0.8763172626495361,,,
,sitting,0.8639414310455322,,,
,food,0.8607789874076843,,,
,portrait,0.8575786352157593,,,
,recreation,0.8572404384613037,,,
,festival,0.8507397770881653,,,
https://scontent.cdninstagram.com/t51.2885-15/e35/12552336_672475542893984_772341197_n.jpg,woman,0.9872528314590454,,,
,people,0.976150393486023,,,
,man,0.9754012823104858,,,
,indoors,0.9725673198699951,,,
,adult,0.968097448348999,,,
,teamwork,0.9618251323699951,,,
,business,0.9575406312942505,,,
,togetherness,0.9530918002128601,,,
,office,0.9279435873031616,,,
,group,0.9264889359474182,,,
,horizontal,0.9211102724075317,,,
,education,0.9105913043022156,,,
,partnership,0.9054313898086548,,,
,cooperation,0.8945326805114746,,,
,portrait,0.8706138134002686,,,
,success,0.856383204460144,,,
,looking,0.8500306606292725,,,
,sit,0.8276647329330444,,,
,communication,0.824131965637207,,,
,friendship,0.8095102310180664,,,
https://scontent.cdninstagram.com/t51.2885-15/sh0.08/e35/p750x750/1168664_1687815854835744_1330109791_n.jpg,wedding,0.9947289228439331,,,
,woman,0.9936915636062622,,,
,love,0.9911841750144958,,,
,bride,0.9897046685218811,,,
,groom,0.9827609658241272,,,
,romance,0.9810703992843628,,,
,fashion,0.9788962602615356,,,
,togetherness,0.9628657698631287,,,
,family,0.956864595413208,,,
,pretty,0.9564985036849976,,,
,two,0.9297382831573486,,,
,cute,0.9288932085037231,,,
,elegant,0.9280923008918762,,,
,glamour,0.9271765947341919,,,
,indoors,0.9186394810676575,,,
,people,0.9169572591781616,,,
,joy,0.9084210395812988,,,
,affection,0.9061615467071533,,,
,sexy,0.9050874710083008,,,
,maternity,0.9049387574195862,,,
https://scontent.cdninstagram.com/t51.2885-15/e35/12331462_1501491016821820_1983901899_n.jpg,collage,0.9940413236618042,,,
,woman,0.9883213639259338,,,
,people,0.9775374531745911,,,
,set,0.967582643032074,,,
,business,0.9625856876373291,,,
,man,0.9611572027206421,,,
,collection,0.9495248794555664,,,
,group,0.9464290142059326,,,
,presentation,0.9409983158111572,,,
,company,0.9323718547821045,,,
,communication,0.9261013865470886,,,
,girl,0.9228549003601074,,,
,adult,0.9006282687187195,,,
,person,0.8984624147415161,,,
,young,0.8962098360061646,,,
,internet,0.8948625326156616,,,
,portrait,0.8923790454864502,,,
,education,0.8839153051376343,,,
,lady,0.8725014925003052,,,
,corporate,0.8593432903289795,,,
https://scontent.cdninstagram.com/t51.2885-15/e35/929335_1727728267460838_1292511373_n.jpg,child,0.9959951639175415,,,
,indoors,0.9784326553344727,,,
,woman,0.9782936573028564,,,
,vertical,0.9697318077087402,,,
,togetherness,0.9668693542480469,,,
,people,0.9643738269805908,,,
,family,0.9584764242172241,,,
,cute,0.9584218263626099,,,
,fun,0.9546931982040405,,,
,sit,0.9509706497192383,,,
,adolescent,0.9405472278594971,,,
,joy,0.9348012208938599,,,
,horizontal,0.9342319965362549,,,
,education,0.9338082075119019,,,
,happiness,0.9324092864990234,,,
,enjoyment,0.9265142679214478,,,
,cheerful,0.9033445119857788,,,
,relaxation,0.8886951208114624,,,
,innocence,0.8873625993728638,,,
,laughing,0.865214467048645,,,
https://scontent.cdninstagram.com/t51.2885-15/e35/927860_1697835070430661_1227396195_n.jpg,woman,0.9946386814117432,,,
,indoors,0.985615611076355,,,
,people,0.9832298755645752,,,
,adult,0.9640185832977295,,,
,enjoyment,0.9487149715423584,,,
,portrait,0.9455536007881165,,,
,fashion,0.945327877998352,,,
,happiness,0.9364243745803833,,,
,horizontal,0.9358109831809998,,,
,friendship,0.9283710718154907,,,
,joy,0.917462944984436,,,
,togetherness,0.9100961685180664,,,
,drink,0.9037313461303711,,,
,cheerful,0.8987221717834473,,,
,young,0.8947717547416687,,,
,vertical,0.8943793773651123,,,
,fun,0.8916515111923218,,,
,pretty,0.8870956897735596,,,
,relaxation,0.8836812973022461,,,
,laughing,0.8776856660842896,,,
https://scontent.cdninstagram.com/t51.2885-15/e35/13249712_239048953129250_463053839_n.jpg,family,0.9973369836807251,,,
,child,0.995901346206665,,,
,togetherness,0.9887778759002686,,,
,indoors,0.9878052473068237,,,
,people,0.9874593019485474,,,
,two,0.9868274331092834,,,
,boy,0.9804474115371704,,,
,love,0.9768712520599365,,,
,room,0.9767758846282959,,,
,offspring,0.9713324308395386,,,
,woman,0.9694231748580933,,,
,maternity,0.9660544395446777,,,
,happiness,0.9655030965805054,,,
,affection,0.9652968645095825,,,
,adult,0.964645266532898,,,
,lifestyle,0.9564867615699768,,,
,cute,0.9519186019897461,,,
,"facial expression",0.9510239362716675,,,
,baby,0.9506492614746094,,,
,girl,0.9470206499099731,,,
https://scontent.cdninstagram.com/t51.2885-15/e35/10249376_1528363874127921_558153384_n.jpg,woman,0.9956700801849365,,,
,people,0.9891833066940308,,,
,portrait,0.9881352186203003,,,
,fashion,0.9785717725753784,,,
,adult,0.9743068218231201,,,
,young,0.9631211757659912,,,
,one,0.9614126682281494,,,
,wear,0.9568714499473572,,,
,two,0.9561377763748169,,,
,group,0.9535025954246521,,,
,girl,0.9497485756874084,,,
,pretty,0.9409436583518982,,,
,performance,0.9379322528839111,,,
,dress,0.9266633987426758,,,
,music,0.9173079133033752,,,
,collection,0.9122973084449768,,,
,"facial expression",0.9107444286346436,,,
,beautiful,0.9077945351600647,,,
,model,0.9010632038116455,,,
,singer,0.8897579312324524,,,
https://scontent.cdninstagram.com/t51.2885-15/e35/13355614_1073823049378205_1195613553_n.jpg,people,0.9971858859062195,,,
,many,0.9907828569412231,,,
,group,0.9780670404434204,,,
,adult,0.9780362844467163,,,
,man,0.9602912664413452,,,
,print,0.9587063789367676,,,
,business,0.9569234848022461,,,
,woman,0.9296472072601318,,,
,battle,0.9158453345298767,,,
,administration,0.9142031669616699,,,
,text,0.9126231670379639,,,
,war,0.9023547768592834,,,
,paper,0.8912875056266785,,,
,money,0.8877081871032715,,,
,portrait,0.8768369555473328,,,
,revolution,0.8753145933151245,,,
,rally,0.8743323087692261,,,
,paper,0.8579251766204834,,,
,commerce,0.8537886142730713,,,
,one,0.8466606140136719,,,
https://scontent.cdninstagram.com/t51.2885-15/e35/12362496_880316565415127_1404114277_n.jpg,collage,0.998671293258667,,,
,woman,0.995675802230835,,,
,set,0.9833500385284424,,,
,people,0.9792349338531494,,,
,girl,0.9605695605278015,,,
,young,0.9469850063323975,,,
,collection,0.942298173904419,,,
,lady,0.9354912042617798,,,
,adult,0.9312914609909058,,,
,portrait,0.9242879748344421,,,
,group,0.9191042184829712,,,
,presentation,0.9059774279594421,,,
,company,0.9059646725654602,,,
,pretty,0.8983930349349976,,,
,person,0.8901332020759583,,,
,collage,0.8734651803970337,,,
,beautiful,0.8731734156608582,,,
,business,0.8652311563491821,,,
,health,0.8650749921798706,,,
,fashion,0.8644989132881165,,,
https://scontent.cdninstagram.com/t51.2885-15/e35/12331607_1685754688305278_1139918827_n.jpg,collage,0.9968188405036926,,,
,man,0.9868062734603882,,,
,woman,0.9751051664352417,,,
,people,0.9592936038970947,,,
,group,0.9039404392242432,,,
,portrait,0.9017148017883301,,,
,set,0.8668800592422485,,,
,collection,0.8572571873664856,,,
,business,0.8348355293273926,,,
,looking,0.8332728743553162,,,
,serious,0.8233851194381714,,,
,collage,0.816712498664856,,,
,teamwork,0.8117210865020752,,,
,young,0.8054212927818298,,,
,friendship,0.8035068511962891,,,
,angry,0.7941665649414062,,,
,company,0.7808552384376526,,,
,series,0.771478533744812,,,
,internet,0.7582474946975708,,,
,education,0.7471817135810852,,,
https://scontent.cdninstagram.com/t51.2885-15/e35/12356433_657737254365961_1965015581_n.jpg,woman,0.9929362535476685,,,
,collage,0.991059422492981,,,
,business,0.9902074337005615,,,
,people,0.979131281375885,,,
,presentation,0.9704687595367432,,,
,set,0.9683785438537598,,,
,company,0.9672597646713257,,,
,teamwork,0.9611213803291321,,,
,man,0.9596004486083984,,,
,adult,0.9548575282096863,,,
,champagne,0.9390298128128052,,,
,group,0.9341444373130798,,,
,drink,0.9316580295562744,,,
,"graphic design",0.9283591508865356,,,
,communication,0.9242140054702759,,,
,friendship,0.923751711845398,,,
,internet,0.9165647625923157,,,
,wine,0.9154555797576904,,,
,many,0.9142704010009766,,,
,contemporary,0.913549542427063,,,
https://scontent.cdninstagram.com/t51.2885-15/e35/12354047_1677517219126915_1357664193_n.jpg,woman,0.9950376152992249,,,
,indoors,0.9922685623168945,,,
,togetherness,0.991401195526123,,,
,man,0.9801966547966003,,,
,people,0.971900463104248,,,
,relaxation,0.9687778949737549,,,
,enjoyment,0.9398462772369385,,,
,family,0.9348487854003906,,,
,sit,0.9337179660797119,,,
,joy,0.9274979829788208,,,
,friendship,0.926782488822937,,,
,looking,0.9203610420227051,,,
,contemporary,0.9194344282150269,,,
,energetic,0.910874605178833,,,
,laughing,0.9096744060516357,,,
,pretty,0.904354453086853,,,
,multicultural,0.9040135741233826,,,
,adolescent,0.8991222381591797,,,
,battle,0.8977173566818237,,,
,angry,0.8912859559059143,,,
https://scontent.cdninstagram.com/t51.2885-15/e35/12331756_536416549854092_1642913906_n.jpg,woman,0.986889123916626,,,
,friendship,0.9851016998291016,,,
,togetherness,0.9816864132881165,,,
,adolescent,0.9741232395172119,,,
,horizontal,0.9629502296447754,,,
,people,0.962293267250061,,,
,man,0.9570884704589844,,,
,child,0.954792857170105,,,
,student,0.944340169429779,,,
,indoors,0.9416244029998779,,,
,group,0.9385803937911987,,,
,fun,0.9352225065231323,,,
,portrait,0.9232892394065857,,,
,multicultural,0.9195144176483154,,,
,laughing,0.913735568523407,,,
,teamwork,0.9012916088104248,,,
,adult,0.8905709981918335,,,
,three,0.8896483778953552,,,
,four,0.8790668845176697,,,
,group,0.8736393451690674,,,
https://scontent.cdninstagram.com/t51.2885-15/e35/12338882_410759435787213_1546963961_n.jpg,people,0.9753915071487427,,,
,woman,0.9748035669326782,,,
,man,0.9728443622589111,,,
,adult,0.9693650007247925,,,
,group,0.9643968343734741,,,
,business,0.9592540264129639,,,
,teamwork,0.9493908882141113,,,
,indoors,0.9471696615219116,,,
,portrait,0.9434589147567749,,,
,communication,0.9371566772460938,,,
,meeting,0.9214457273483276,,,
,office,0.9180814623832703,,,
,togetherness,0.9164454340934753,,,
,group,0.9120423793792725,,,
,partnership,0.9108443260192871,,,
,horizontal,0.9046841263771057,,,
,presentation,0.8618052005767822,,,
,cooperation,0.8458203077316284,,,
,education,0.8322083950042725,,,
,squad,0.8248188495635986,,,
https://scontent.cdninstagram.com/t51.2885-15/e35/13285378_1706616469563280_117769611_n.jpg,illustration,0.9440079927444458,,,
,paper,0.8973040580749512,,,
,text,0.8889520168304443,,,
,business,0.8803189396858215,,,
,"no person",0.8716998100280762,,,
,people,0.8678299188613892,,,
,page,0.8137614727020264,,,
,bill,0.8013428449630737,,,
,man,0.7653535604476929,,,
,document,0.7546370029449463,,,
,desktop,0.7479713559150696,,,
,horizontal,0.7126756906509399,,,
,communication,0.7041473388671875,,,
,vertical,0.7034897804260254,,,
,card,0.6922940611839294,,,
,vector,0.6862423419952393,,,
,adult,0.6741113066673279,,,
,education,0.6645048260688782,,,
,woman,0.6613836288452148,,,
,symbol,0.6411055326461792,,,
https://scontent.cdninstagram.com/t51.2885-15/e35/12354089_1745422849020872_1359233885_n.jpg,woman,0.9916648268699646,,,
,togetherness,0.9601494669914246,,,
,people,0.9586358070373535,,,
,two,0.953643798828125,,,
,indoors,0.9478901624679565,,,
,man,0.9442442655563354,,,
,love,0.9368377327919006,,,
,family,0.9188566207885742,,,
,pretty,0.9068667888641357,,,
,fun,0.897017240524292,,,
,young,0.8720542788505554,,,
,casual,0.870976984500885,,,
,looking,0.8499102592468262,,,
,adult,0.8372337222099304,,,
,adolescent,0.824620246887207,,,
,student,0.8152088522911072,,,
,shopping,0.8137715458869934,,,
,joy,0.8120056390762329,,,
,happiness,0.8107250928878784,,,
,cute,0.7724379301071167,,,
https://scontent.cdninstagram.com/t51.2885-15/sh0.08/e35/p750x750/12826103_500633036803579_1272354933_n.jpg,woman,0.995356023311615,,,
,togetherness,0.97394859790802,,,
,portrait,0.9627708196640015,,,
,people,0.9506690502166748,,,
,friendship,0.9372797608375549,,,
,"facial expression",0.935981035232544,,,
,indoors,0.9340991377830505,,,
,wear,0.9289630651473999,,,
,man,0.9282882213592529,,,
,adult,0.9155027866363525,,,
,adolescent,0.9128515720367432,,,
,fashion,0.9123089909553528,,,
,two,0.9094470739364624,,,
,love,0.9092048406600952,,,
,joy,0.8840478658676147,,,
,happiness,0.8777405023574829,,,
,looking,0.8746215105056763,,,
,affection,0.854631245136261,,,
,fun,0.8445770740509033,,,
,enjoyment,0.8366814851760864,,,
https://scontent.cdninstagram.com/t51.2885-15/e35/12479643_488183608040736_1263632329_n.jpg,business,0.9528539180755615,,,
,date,0.9437637329101562,,,
,schedule,0.9301178455352783,,,
,calendar,0.9241951107978821,,,
,time,0.9175325036048889,,,
,paper,0.9150691628456116,,,
,text,0.9121856093406677,,,
,people,0.9120086431503296,,,
,illustration,0.9043292999267578,,,
,desktop,0.8962215185165405,,,
,diary,0.8903300762176514,,,
,symbol,0.872789204120636,,,
,monthly,0.8692572116851807,,,
,planner,0.8339000940322876,,,
,future,0.8226451873779297,,,
,financial,0.8224225044250488,,,
,agenda,0.8187289237976074,,,
,daily,0.8172467947006226,,,
,engagement,0.8084244728088379,,,
,number,0.8083776831626892,,,
https://scontent.cdninstagram.com/t51.2885-15/e35/12327966_963114383766691_992229531_n.jpg,people,0.9809394478797913,,,
,woman,0.9605791568756104,,,
,portrait,0.94776451587677,,,
,man,0.9477416276931763,,,
,person,0.9386464357376099,,,
,communication,0.9250801205635071,,,
,business,0.9187066555023193,,,
,populace,0.9143611788749695,,,
,spherical,0.9132063984870911,,,
,paper,0.9062014818191528,,,
,bill,0.901867687702179,,,
,desktop,0.8902313709259033,,,
,paper,0.8897106647491455,,,
,group,0.8819515109062195,,,
,adult,0.8761712908744812,,,
,text,0.8704502582550049,,,
,squad,0.8693108558654785,,,
,girl,0.860548734664917,,,
,event,0.8054409027099609,,,
,print,0.7961299419403076,,,
https://scontent.cdninstagram.com/t51.2885-15/e35/12144155_485828328283712_2073973796_n.jpg,woman,0.9820578098297119,,,
,collage,0.9788470268249512,,,
,portrait,0.9756669402122498,,,
,business,0.9733091592788696,,,
,people,0.9643579721450806,,,
,isolated,0.9448924660682678,,,
,man,0.9393685460090637,,,
,company,0.9241963624954224,,,
,adult,0.9178867340087891,,,
,group,0.899314284324646,,,
,success,0.8852728605270386,,,
,fashion,0.8803436756134033,,,
,young,0.8800191879272461,,,
,teamwork,0.8742020726203918,,,
,eyeglasses,0.8613781929016113,,,
,face,0.8594374656677246,,,
,collage,0.8509639501571655,,,
,presentation,0.8451393842697144,,,
,office,0.8447301387786865,,,
,looking,0.843390941619873,,,
https://scontent.cdninstagram.com/t51.2885-15/e35/12818904_1033044206768332_163898430_n.jpg,people,0.9696298837661743,,,
,adult,0.9465320110321045,,,
,desktop,0.9322838187217712,,,
,text,0.9281039237976074,,,
,business,0.9279248714447021,,,
,portrait,0.9250116348266602,,,
,woman,0.9045637845993042,,,
,illustration,0.8836081027984619,,,
,communication,0.8802441358566284,,,
,cheerful,0.8743323087692261,,,
,happiness,0.8728960752487183,,,
,symbol,0.852358877658844,,,
,technology,0.8461018800735474,,,
,"give voice",0.8362656831741333,,,
,bill,0.8063421249389648,,,
,horizontal,0.7855032682418823,,,
,person,0.7814842462539673,,,
,design,0.7709674835205078,,,
,success,0.7634791135787964,,,
,indoors,0.7544348239898682,,,
https://scontent.cdninstagram.com/t51.2885-15/s750x750/sh0.08/e35/13098992_1767129276849897_13701202_n.jpg,illustration,0.9642961621284485,,,
,bill,0.9615072011947632,,,
,template,0.9576922655105591,,,
,banner,0.9466415643692017,,,
,card,0.9414205551147461,,,
,vector,0.94088214635849,,,
,business,0.9389500617980957,,,
,paper,0.9330019950866699,,,
,people,0.9197756052017212,,,
,text,0.9169892072677612,,,
,"picture frame",0.9130207300186157,,,
,design,0.9028706550598145,,,
,presentation,0.8828127384185791,,,
,blank,0.8747471570968628,,,
,child,0.8457874059677124,,,
,modern,0.8359584212303162,,,
,desktop,0.8339437246322632,,,
,man,0.8306763768196106,,,
,abstract,0.8278112411499023,,,
,layout,0.8061196208000183,,,
https://scontent.cdninstagram.com/t51.2885-15/e35/12530912_1130619497004655_1105659274_n.jpg,people,0.9731323719024658,,,
,man,0.9685701727867126,,,
,paper,0.9406182765960693,,,
,portrait,0.9213517904281616,,,
,retro,0.9087717533111572,,,
,adult,0.8982367515563965,,,
,vintage,0.8874218463897705,,,
,old,0.8742512464523315,,,
,text,0.8687849044799805,,,
,person,0.8399889469146729,,,
,letter,0.8225216865539551,,,
,post,0.8213025331497192,,,
,card,0.8149433135986328,,,
,one,0.8063706159591675,,,
,business,0.7987329959869385,,,
,antique,0.7393054366111755,,,
,bill,0.7246626615524292,,,
,print,0.7244558334350586,,,
,desktop,0.7242082953453064,,,
,message,0.7122971415519714,,,
https://scontent.cdninstagram.com/t51.2885-15/e35/13183534_1627967257525645_960037268_n.jpg,child,0.9995164275169373,,,
,little,0.9897461533546448,,,
,togetherness,0.9867844581604004,,,
,cute,0.9863405823707581,,,
,fun,0.9830596446990967,,,
,family,0.9799270033836365,,,
,friendship,0.9725756645202637,,,
,collage,0.9557820558547974,,,
,joy,0.9551416635513306,,,
,people,0.9533933997154236,,,
,woman,0.9374634027481079,,,
,education,0.9369210004806519,,,
,love,0.9260436296463013,,,
,laughing,0.8936748504638672,,,
,preschool,0.8827453851699829,,,
,adolescent,0.8811017274856567,,,
,isolated,0.868155837059021,,,
,sit,0.8510369062423706,,,
,indoors,0.8426696062088013,,,
,horizontal,0.834606409072876,,,
https://scontent.cdninstagram.com/t51.2885-15/e35/12534560_1546637925652259_1575279821_n.jpg,people,0.9962176084518433,,,
,paper,0.9883422255516052,,,
,portrait,0.9864488840103149,,,
,child,0.9783082008361816,,,
,text,0.971161425113678,,,
,bill,0.9535640478134155,,,
,group,0.9361069202423096,,,
,retro,0.9228928685188293,,,
,print,0.9212437868118286,,,
,magazine,0.9211376905441284,,,
,adult,0.9073293209075928,,,
,vintage,0.9050381183624268,,,
,woman,0.9030897617340088,,,
,man,0.8949294090270996,,,
,one,0.8870185613632202,,,
,festival,0.8824646472930908,,,
,music,0.871708869934082,,,
,paper,0.8641718029975891,,,
,person,0.8575356006622314,,,
,event,0.8504928350448608,,,
https://scontent.cdninstagram.com/t51.2885-15/e35/12751022_1755353788027558_2124068611_n.jpg,business,0.9908892512321472,,,
,paper,0.9767009019851685,,,
,"no person",0.9380755424499512,,,
,people,0.924201488494873,,,
,finance,0.9107822179794312,,,
,money,0.9092856049537659,,,
,wealth,0.8736085295677185,,,
,money,0.8580682277679443,,,
,paper,0.8523406982421875,,,
,spherical,0.849966287612915,,,
,presentation,0.8494085073471069,,,
,number,0.7969766855239868,,,
,growth,0.785462498664856,,,
,information,0.7814467549324036,,,
,magazine,0.7762112617492676,,,
,adult,0.7759063243865967,,,
,savings,0.7661120295524597,,,
,communication,0.758116602897644,,,
,illustration,0.7533052563667297,,,
,commerce,0.7519301176071167,,,
