url,class,score
https://scontent.cdninstagram.com/t51.2885-15/e35/13285482_1221467637874062_1522346634_n.jpg?ig_cache_key=MTI2NTI2ODY4NTAyOTEzNzY3NQ%3D%3D.2,people,0.9962846040725708
,group,0.9734375476837158
,group,0.9732605218887329
,many,0.9588133692741394
,adult,0.9558144807815552
,woman,0.9410116672515869
,street,0.932493269443512
,wear,0.9251106977462769
,several,0.9230852127075195
,vehicle,0.9117620587348938
,administration,0.8973789215087891
,man,0.8887442946434021
,monochrome,0.8876888155937195
,child,0.8855655193328857
,war,0.8464947938919067
,military,0.8332587480545044
,police,0.80766761302948
,one,0.8019792437553406
,leader,0.7625722885131836
,outfit,0.7549881339073181
https://scontent.cdninstagram.com/t51.2885-15/e35/12783319_204077889963876_235643421_n.jpg?ig_cache_key=MTIxNDU2NzU3OTc4MTU4NjM1NQ%3D%3D.2,people,0.979179859161377
,woman,0.9602670073509216
,bridge,0.9478204250335693
,sky,0.935347855091095
,girl,0.9338324069976807
,outdoors,0.9285131096839905
,leisure,0.9282951354980469
,fun,0.92753666639328
,recreation,0.9209291934967041
,adult,0.9177707433700562
,summer,0.9013543725013733
,man,0.8930700421333313
,one,0.8844834566116333
,enjoyment,0.878208577632904
,portrait,0.8746688961982727
,travel,0.8606536388397217
,water,0.858039379119873
,child,0.8480005860328674
,boardwalk,0.8477083444595337
,vacation,0.8082481622695923
https://scontent.cdninstagram.com/t51.2885-15/e35/12965250_1248849581810167_904656760_n.jpg?ig_cache_key=MTIyODkzOTc1MjU2NjU3ODYyOA%3D%3D.2,people,0.9953323602676392
,many,0.9934900403022766
,group,0.9925001859664917
,crowd,0.9917740821838379
,concert,0.9837133884429932
,festival,0.9832572340965271
,music,0.9762528538703918
,performance,0.9722569584846497
,audience,0.9593276977539062
,rally,0.9522262215614319
,landscape,0.9389930963516235
,group,0.9373035430908203
,sports fan,0.9341475367546082
,celebration,0.9293352365493774
,adult,0.9087131023406982
,rally,0.9031664133071899
,ceremony,0.9006460905075073
,competition,0.900452733039856
,light,0.8925179243087769
,rebellion,0.8912937045097351
https://scontent.cdninstagram.com/t51.2885-15/e35/12383653_486379668220641_2115595088_n.jpg?ig_cache_key=MTIxNTY3NjI1NjgyNzYyODk2OA%3D%3D.2,nature,0.9866259098052979
,grass,0.9769693613052368
,outdoors,0.9749173521995544
,field,0.9692703485488892
,summer,0.9536581039428711
,flora,0.9365224838256836
,leaf,0.9307831525802612
,one,0.9298977851867676
,tree,0.9233149290084839
,flower,0.9230211973190308
,adult,0.9199199676513672
,people,0.9174506664276123
,wood,0.9060482978820801
,food,0.9025064706802368
,landscape,0.8957153558731079
,countryside,0.895435631275177
,environment,0.882756233215332
,garden,0.880962610244751
,growth,0.8721758127212524
,pasture,0.8679978847503662
https://scontent.cdninstagram.com/t51.2885-15/e35/13320233_1063161860398953_958272135_n.jpg?ig_cache_key=MTI3MTA5NDc2NzU0MDEzMjk5Mg%3D%3D.2,people,0.9942445158958435
,adult,0.9923111200332642
,portrait,0.9895718097686768
,woman,0.9833909273147583
,wear,0.9797630310058594
,man,0.9793329834938049
,two,0.9741353988647461
,facial expression,0.9668138027191162
,one,0.9390783309936523
,girl,0.925398051738739
,model,0.8921175003051758
,fashion,0.8850228786468506
,lifestyle,0.8479776382446289
,love,0.8373056054115295
,happiness,0.8323491811752319
,studio,0.8233365416526794
,fashionable,0.8227790594100952
,young,0.7782363891601562
,brunette,0.778175413608551
,looking,0.7740218043327332
https://scontent.cdninstagram.com/t51.2885-15/e35/12950210_462015400669574_1753359399_n.jpg?ig_cache_key=MTIzNDQ3OTA5NTcwNDA4MzY4Ng%3D%3D.2,pier,0.9888431429862976
,water,0.9858920574188232
,travel,0.9823289513587952
,sea,0.9597843885421753
,sky,0.9570230841636658
,transportation system,0.9558628797531128
,harbor,0.9466906785964966
,modern,0.9448078870773315
,no person,0.9432491064071655
,watercraft,0.9378031492233276
,architecture,0.9319970011711121
,building,0.9310048222541809
,bridge,0.9305063486099243
,outdoors,0.9277880787849426
,ocean,0.9249511957168579
,ship,0.9188427925109863
,boat,0.9172524213790894
,reflection,0.9107344150543213
,luxury,0.9100627899169922
,city,0.9030035734176636
https://scontent.cdninstagram.com/t51.2885-15/e35/12917835_246688575685003_1535944929_n.jpg?ig_cache_key=MTIyNzQyOTcyMDIyMTk2NTYxNw%3D%3D.2,street,0.9978057146072388
,road,0.996183454990387
,transportation system,0.9848549365997314
,monochrome,0.9815763235092163
,asphalt,0.9769852161407471
,guidance,0.963851273059845
,highway,0.9638171195983887
,people,0.9551644325256348
,car,0.9507437944412231
,vehicle,0.9226378202438354
,hurry,0.9160192012786865
,travel,0.9119387865066528
,traffic,0.9080238342285156
,drive,0.8986775875091553
,action,0.8951749801635742
,fast,0.8933592438697815
,pavement,0.8750891089439392
,city,0.8650347590446472
,rain,0.8603865504264832
,tree,0.8468343615531921
https://scontent.cdninstagram.com/t51.2885-15/e35/12501526_971526626299923_403355884_n.jpg?ig_cache_key=MTIyMTAxMzUzMTY2OTE5MjU3OQ%3D%3D.2,water,0.9932124614715576
,landscape,0.9926124811172485
,lake,0.9849692583084106
,tree,0.9745305776596069
,river,0.9698654413223267
,travel,0.9602500200271606
,sky,0.9550260305404663
,nature,0.9522826671600342
,outdoors,0.9495857357978821
,recreation,0.9450644850730896
,reflection,0.9409438967704773
,park,0.9353240728378296
,sea,0.9290973544120789
,leisure,0.9290198087692261
,light,0.9234168529510498
,daylight,0.9232158660888672
,people,0.9170868396759033
,boat,0.9131177663803101
,beach,0.9052560329437256
,sport,0.875639796257019
https://scontent.cdninstagram.com/t51.2885-15/e35/926205_759051360896945_1346768746_n.jpg?ig_cache_key=MTIxNDkyNjIwNzc4MDgwNjQ5Nw%3D%3D.2,people,0.988051176071167
,wood,0.9591729044914246
,adult,0.957831621170044
,woman,0.9480029344558716
,architecture,0.9250847101211548
,man,0.922598659992218
,one,0.9203524589538574
,bridge,0.9184833765029907
,business,0.9182538986206055
,indoors,0.9060438871383667
,building,0.9048714637756348
,recreation,0.9038833379745483
,daylight,0.9036257266998291
,girl,0.9022401571273804
,light,0.9000312089920044
,travel,0.8993147015571594
,leisure,0.8964536190032959
,outdoors,0.8817954063415527
,landscape,0.8622918128967285
,seat,0.8538768291473389
https://scontent.cdninstagram.com/t51.2885-15/e35/13402702_244162589297899_1245036334_n.jpg?ig_cache_key=MTI3MzE2ODM2Nzk4NjMwMjM5Mg%3D%3D.2,people,0.9841912984848022
,man,0.9719823598861694
,one,0.9521960020065308
,adult,0.9465229511260986
,music,0.9278272390365601
,indoors,0.889528751373291
,wear,0.8729315400123596
,recreation,0.8587916493415833
,aircraft,0.8415911197662354
,musician,0.8224555253982544
,business,0.810860276222229
,vehicle,0.805027961730957
,military,0.7793865203857422
,group,0.7683216333389282
,two,0.7315534353256226
,transportation system,0.7304198145866394
,monochrome,0.7293885946273804
,woman,0.72307950258255
,performance,0.7205018997192383
,airport,0.7194631099700928
https://scontent.cdninstagram.com/t51.2885-15/e35/13355505_555744201279862_61009880_n.jpg?ig_cache_key=MTI2NjY2NTY2NzY3NzI4MjA5Mg%3D%3D.2,people,0.9954944849014282
,man,0.982825517654419
,adult,0.9707747101783752
,monochrome,0.9616268277168274
,woman,0.9449721574783325
,street,0.9315118789672852
,two,0.9120458364486694
,indoors,0.871562123298645
,music,0.8702340126037598
,group,0.8631957769393921
,recreation,0.8501896858215332
,city,0.8163703680038452
,portrait,0.8073022365570068
,child,0.802497148513794
,family,0.7788662910461426
,couple,0.7732889652252197
,sit,0.7715349197387695
,group,0.7574729919433594
,room,0.7566380500793457
,wear,0.7473958134651184
https://scontent.cdninstagram.com/t51.2885-15/e35/11326259_1531358643827327_233479436_n.jpg?ig_cache_key=MTIxMjM4OTM0OTgzMDA1NzU5OQ%3D%3D.2,people,0.988522469997406
,adult,0.9572509527206421
,light,0.9053537845611572
,man,0.9022967219352722
,wear,0.9006444811820984
,group,0.8993884325027466
,vehicle,0.8958239555358887
,music,0.8915021419525146
,one,0.8853551745414734
,industry,0.863222062587738
,transportation system,0.8589868545532227
,city,0.8364771604537964
,woman,0.8243972063064575
,business,0.8060587644577026
,indoors,0.8028613328933716
,building,0.7992009520530701
,performance,0.7984119653701782
,musician,0.7923100590705872
,festival,0.786956250667572
,energy,0.7802584171295166
https://scontent.cdninstagram.com/t51.2885-15/e35/13394882_1612109272432893_1919326273_n.jpg?ig_cache_key=MTI2ODA5MDc4NjY1NjE4MTM2NQ%3D%3D.2,people,0.9904223680496216
,portrait,0.9868932962417603
,woman,0.9789577722549438
,adult,0.97333824634552
,girl,0.9708316922187805
,one,0.960959255695343
,music,0.9595990180969238
,fashion,0.9537291526794434
,monochrome,0.9457653164863586
,wear,0.9403155446052551
,street,0.9325423836708069
,model,0.9129127860069275
,musician,0.9004244804382324
,retro,0.8916144371032715
,child,0.8829381465911865
,art,0.878533124923706
,man,0.8756082653999329
,singer,0.8719939589500427
,horror,0.8706011176109314
,light,0.8672966957092285
https://scontent.cdninstagram.com/t51.2885-15/e35/12912707_1228098580534361_1234416752_n.jpg?ig_cache_key=MTIzMjcyNDE3NTAwMjk1MTAyNQ%3D%3D.2,sand,0.9959427714347839
,beach,0.9943506717681885
,water,0.989287257194519
,travel,0.9884861707687378
,leisure,0.9849424958229065
,relaxation,0.9822243452072144
,sea,0.9806833267211914
,seashore,0.9732913970947266
,summer,0.9623624086380005
,ocean,0.9585704803466797
,recreation,0.9578824043273926
,vacation,0.9507541656494141
,romance,0.9462871551513672
,enjoyment,0.9407975673675537
,sun,0.9266151189804077
,tropical,0.925966739654541
,fun,0.907949686050415
,surf,0.9062685966491699
,solitude,0.8965386748313904
,man,0.8880535364151001
https://scontent.cdninstagram.com/t51.2885-15/e35/12912272_1582442375381014_715949469_n.jpg?ig_cache_key=MTIxNzI2NzU4NjM0MzI2Mzc5Mw%3D%3D.2,woman,0.9764695167541504
,outdoors,0.974814236164093
,leisure,0.9717579483985901
,man,0.966986894607544
,sitting,0.9633457064628601
,relaxation,0.962753176689148
,sit,0.9582129716873169
,recreation,0.9341616630554199
,exercise,0.9329128265380859
,young,0.9312222599983215
,adolescent,0.9195748567581177
,people,0.9078319072723389
,one,0.9044543504714966
,enjoyment,0.9031789302825928
,fun,0.8971151113510132
,summer,0.8886083364486694
,casual,0.8850798606872559
,adult,0.8752627372741699
,energetic,0.8737409114837646
,active,0.8682935237884521
https://scontent.cdninstagram.com/t51.2885-15/e35/12976617_1759479847617757_1069052496_n.jpg?ig_cache_key=MTIzMDE2NTMyMTQ5Mjg4MDQwNg%3D%3D.2,technology,0.9653685688972473
,telephone,0.9539245367050171
,business,0.9329355955123901
,no person,0.9146236181259155
,computer,0.9090250730514526
,laptop,0.8779014348983765
,equipment,0.8671343326568604
,indoors,0.8637305498123169
,offense,0.8545611500740051
,still life,0.8415295481681824
,electronics,0.8382658958435059
,connection,0.8214603662490845
,retro,0.8213052153587341
,furniture,0.8158268332481384
,people,0.8043330311775208
,table,0.8002959489822388
,music,0.7925648093223572
,room,0.7920310497283936
,isolated,0.7866489887237549
,office,0.7550474405288696
https://scontent.cdninstagram.com/t51.2885-15/e35/12237103_1890030584556764_1270079511_n.jpg?ig_cache_key=MTIxMDkwOTc1Njk2NzI0NzY5Ng%3D%3D.2,people,0.9931639432907104
,city,0.986566424369812
,business,0.9851799011230469
,travel,0.9838074445724487
,water,0.9699515104293823
,adult,0.964436411857605
,one,0.9610323905944824
,woman,0.9561293125152588
,outdoors,0.9558920860290527
,sky,0.9547498226165771
,architecture,0.9451331496238708
,portrait,0.9433803558349609
,street,0.9386703372001648
,sea,0.9368619918823242
,building,0.9357849359512329
,vehicle,0.925345778465271
,urban,0.9235115051269531
,transportation system,0.9141527414321899
,sunset,0.9022220373153687
,girl,0.8966033458709717
https://scontent.cdninstagram.com/t51.2885-15/e35/12141857_1766677453565049_594319120_n.jpg?ig_cache_key=MTIyMzEzNTc2MTY2NDQ2NjM0Nw%3D%3D.2,water,0.9960019588470459
,no person,0.9886761903762817
,architecture,0.9866453409194946
,river,0.9866330623626709
,city,0.9842085838317871
,travel,0.9799449443817139
,reflection,0.9792721271514893
,lake,0.9761896133422852
,tree,0.9757305383682251
,sky,0.9750583171844482
,outdoors,0.9631518125534058
,daylight,0.9416812658309937
,building,0.9264316558837891
,skyline,0.8987855911254883
,bridge,0.8933753967285156
,summer,0.8913072347640991
,park,0.8855238556861877
,urban,0.8798449039459229
,nature,0.8728553056716919
,downtown,0.8567599058151245
https://scontent.cdninstagram.com/t51.2885-15/e35/13408795_1718671851722558_855023194_n.jpg?ig_cache_key=MTI2NzM1NjcxMzg5Nzg0NDQ1Mw%3D%3D.2,people,0.9925068020820618
,one,0.9885988235473633
,portrait,0.9778577089309692
,man,0.9695402979850769
,adult,0.9600305557250977
,music,0.9320154190063477
,boy,0.927191972732544
,wear,0.8961360454559326
,concert,0.8937863707542419
,recreation,0.8904266357421875
,profile,0.8746838569641113
,musician,0.8706352114677429
,telephone,0.8569605946540833
,singer,0.8461247682571411
,weapon,0.8259797692298889
,child,0.8229447603225708
,gun,0.809519350528717
,light,0.7971891164779663
,model,0.7705594301223755
,landscape,0.7554377317428589
https://scontent.cdninstagram.com/t51.2885-15/e35/12826122_1509621399346815_2141193924_n.jpg?ig_cache_key=MTIwODQ1NzY3Mjg4ODA0ODc0OQ%3D%3D.2,city,0.9975820779800415
,skyscraper,0.9968641400337219
,skyline,0.9954969882965088
,downtown,0.9941598176956177
,architecture,0.9924959540367126
,cityscape,0.9884880781173706
,reflection,0.9839655160903931
,water,0.9814252853393555
,building,0.9784629344940186
,no person,0.9778858423233032
,office,0.9775051474571228
,urban,0.9771933555603027
,finance,0.9755856394767761
,waterfront,0.9687672257423401
,business,0.9683915972709656
,sky,0.9661084413528442
,travel,0.9652200937271118
,modern,0.9439265727996826
,river,0.9358274936676025
,tower,0.9350303411483765
https://scontent.cdninstagram.com/t51.2885-15/e35/13534401_729272560508918_1997848670_n.jpg?ig_cache_key=MTI4MDE4MzIxMzM4OTk3NzgyNA%3D%3D.2,tree,0.9930004477500916
,wood,0.9928296804428101
,landscape,0.9887577891349792
,nature,0.9777826070785522
,no person,0.9617785215377808
,fog,0.9547410011291504
,environment,0.9469692707061768
,outdoors,0.9452266097068787
,weather,0.9434870481491089
,season,0.9431800842285156
,park,0.9367096424102783
,fall,0.9335824251174927
,leaf,0.9315997362136841
,mist,0.922149658203125
,scenic,0.9194937944412231
,winter,0.9174377918243408
,dawn,0.916307806968689
,branch,0.9137857556343079
,fair weather,0.9120787382125854
,light,0.9088775515556335
https://scontent.cdninstagram.com/t51.2885-15/e35/1662321_1134276489957634_2022956603_n.jpg?ig_cache_key=MTIwOTM2Nzc2MTIxNTk3MDk0Ng%3D%3D.2,people,0.9989665150642395
,adult,0.9914894104003906
,one,0.9795109033584595
,man,0.9684817790985107
,woman,0.9481909871101379
,wear,0.9438403844833374
,two,0.9392405152320862
,group,0.9389554858207703
,monochrome,0.9258514642715454
,administration,0.9202741384506226
,vehicle,0.9123013019561768
,group,0.8947714567184448
,music,0.8636153936386108
,military,0.8556982278823853
,war,0.8435502648353577
,child,0.833738386631012
,portrait,0.8336206674575806
,sit,0.8274658918380737
,transportation system,0.8228423595428467
,street,0.816779375076294
https://scontent.cdninstagram.com/t51.2885-15/e35/13414185_642319295934665_135438316_n.jpg?ig_cache_key=MTI3NDQ0OTQwODA1MTAxMDg1NA%3D%3D.2,group,0.9927504658699036
,people,0.9921445846557617
,adult,0.970883846282959
,woman,0.9558033347129822
,many,0.9555013179779053
,portrait,0.952950119972229
,leader,0.9514745473861694
,facial expression,0.9408486485481262
,administration,0.9334823489189148
,group,0.9255605936050415
,man,0.9092798233032227
,wear,0.8901100158691406
,several,0.865243673324585
,singer,0.8604474663734436
,musician,0.8595390319824219
,music,0.8483166098594666
,ceremony,0.8332351446151733
,religion,0.8171675801277161
,education,0.8095786571502686
,war,0.8041216731071472
https://scontent.cdninstagram.com/t51.2885-15/e35/13092290_1029836560437057_270931452_n.jpg?ig_cache_key=MTI0ODQ2MzUyNzMxNDA4NzA3NA%3D%3D.2,competition,0.9917057156562805
,people,0.9735009670257568
,athlete,0.9718008637428284
,adult,0.9627955555915833
,woman,0.9577044248580933
,soccer,0.9509981870651245
,ball,0.9501592516899109
,man,0.9493474364280701
,school,0.9485690593719482
,game,0.9474389553070068
,motion,0.9278185367584229
,wear,0.9249316453933716
,football,0.91798996925354
,battle,0.9124167561531067
,education,0.908756673336029
,match,0.9077905416488647
,university,0.9013831615447998
,stadium,0.8936315774917603
,championship,0.885955810546875
,sports fan,0.88469398021698
https://scontent.cdninstagram.com/t51.2885-15/e35/13259052_647185855431608_2068212358_n.jpg?ig_cache_key=MTI2Mjg3MjE4NjYwOTYyMjgzOA%3D%3D.2,portrait,0.9830083847045898
,one,0.9785298109054565
,adult,0.9724167585372925
,people,0.9703280925750732
,man,0.9640076160430908
,facial expression,0.9469448328018188
,woman,0.9334652423858643
,looking,0.9250367879867554
,wear,0.9220350980758667
,confidence,0.8778825998306274
,fashionable,0.8563863039016724
,adolescent,0.8412314653396606
,studio,0.8229585886001587
,fashion,0.8208495378494263
,indoors,0.8023990392684937
,trendy,0.7993388772010803
,casual,0.7938408851623535
,girl,0.7793592214584351
,fine-looking,0.7789843678474426
,happiness,0.7763239741325378
https://scontent.cdninstagram.com/t51.2885-15/e35/12960118_271089799893986_222305307_n.jpg?ig_cache_key=MTIzNjk3NjcwNTE0NDc3Mzg0MQ%3D%3D.2,adult,0.9747002124786377
,people,0.9697789549827576
,outdoors,0.9692457914352417
,business,0.9629895687103271
,man,0.9564034938812256
,portrait,0.943276047706604
,one,0.9390575885772705
,woman,0.9046580791473389
,young,0.8995188474655151
,street,0.8979523181915283
,person,0.8978626728057861
,urban,0.8965903520584106
,telephone,0.8949283957481384
,city,0.8704107999801636
,lifestyle,0.8646087646484375
,facial expression,0.8431334495544434
,road,0.8411284685134888
,summer,0.8382748961448669
,office,0.8366931676864624
,daylight,0.833162784576416
https://scontent.cdninstagram.com/t51.2885-15/e35/13166726_645093105638501_1729416108_n.jpg?ig_cache_key=MTI0NTUxNTcwNTI3NTAxNDE2MQ%3D%3D.2,people,0.986688494682312
,woman,0.9763412475585938
,veil,0.9744232892990112
,adult,0.966330885887146
,wear,0.9654301404953003
,facial expression,0.9563748836517334
,portrait,0.955358624458313
,man,0.9457845091819763
,group,0.9434049129486084
,daylight,0.9327308535575867
,outdoors,0.9278875589370728
,religion,0.9266694784164429
,headscarf,0.904141902923584
,child,0.8943255543708801
,festival,0.8866450786590576
,two,0.8757104873657227
,enjoyment,0.8730373382568359
,competition,0.8619884848594666
,administration,0.8525732755661011
,rally,0.8498833179473877
https://scontent.cdninstagram.com/t51.2885-15/e35/13150970_695152110588297_864740903_n.jpg?ig_cache_key=MTI0MzU2OTcyMzYwODAzMDg3Mg%3D%3D.2,man,0.9826562404632568
,adult,0.9624184370040894
,competition,0.9602503180503845
,wear,0.9438875913619995
,people,0.9189804792404175
,bill,0.8773900270462036
,banner,0.8768320083618164
,outfit,0.8641759157180786
,uniform,0.8393647074699402
,business,0.7895435094833374
,paper,0.7876511812210083
,facial expression,0.7870321273803711
,woman,0.7868952751159668
,professional,0.7598977088928223
,portrait,0.7364683151245117
,soccer,0.7330883741378784
,football,0.7249612808227539
,indoors,0.7243132591247559
,athlete,0.7082691788673401
,contemporary,0.6998358964920044
https://scontent.cdninstagram.com/t51.2885-15/e35/13108720_1618961448428208_164435372_n.jpg?ig_cache_key=MTIzODAxMzgzMDU4NTgwMTk0Mw%3D%3D.2,people,0.9913488626480103
,adult,0.9683841466903687
,wear,0.9451308250427246
,man,0.9444553256034851
,street,0.9389939308166504
,portrait,0.9331531524658203
,festival,0.930560827255249
,city,0.9244446754455566
,woman,0.9212384223937988
,urban,0.9184635877609253
,child,0.9183225631713867
,outdoors,0.9013851284980774
,road,0.8797129392623901
,rally,0.8681238293647766
,religion,0.8598902225494385
,competition,0.8499307632446289
,veil,0.8451899290084839
,lid,0.8367221355438232
,one,0.8328486680984497
,police,0.8175750970840454
https://scontent.cdninstagram.com/t51.2885-15/e35/12965733_252534918430321_782721859_n.jpg?ig_cache_key=MTIzNzMwOTY0OTMyMzQ0OTg1Mg%3D%3D.2,people,0.9740848541259766
,outdoors,0.9696791172027588
,woman,0.9466741681098938
,adult,0.9368390440940857
,business,0.9361618757247925
,fall,0.92951500415802
,one,0.9227447509765625
,city,0.9222716093063354
,water,0.9210959076881409
,urban,0.9135400056838989
,portrait,0.9050450325012207
,nature,0.8970409631729126
,building,0.8958473205566406
,street,0.887747049331665
,tree,0.8693576455116272
,leisure,0.8638886213302612
,park,0.8620351552963257
,architecture,0.8529282808303833
,young,0.8512437343597412
,girl,0.8506550788879395
https://scontent.cdninstagram.com/t51.2885-15/e35/13113978_951820674933588_1644859681_n.jpg?ig_cache_key=MTIzODQzMTEyNDE1NTY4NjIxMg%3D%3D.2,balance,0.9874783754348755
,yoga,0.9829762578010559
,people,0.9784562587738037
,exercise,0.9775257110595703
,woman,0.9763907194137573
,martial arts,0.9670307636260986
,adult,0.9567816257476807
,motion,0.9548918008804321
,meditation,0.9536442756652832
,dancing,0.9488277435302734
,chi,0.9476079940795898
,position,0.9472979307174683
,one,0.9459937810897827
,street,0.9403247237205505
,outdoors,0.9343096613883972
,urban,0.9325074553489685
,girl,0.9309616088867188
,portrait,0.9291740655899048
,active,0.9077967405319214
,energy,0.9077691435813904
https://scontent.cdninstagram.com/t51.2885-15/e35/12479073_1043278445743591_1208703442_n.jpg?ig_cache_key=MTIzNTIzMzg3NjAzNDg3MDMyMQ%3D%3D.2,water,0.993408203125
,no person,0.9876300096511841
,travel,0.9833569526672363
,architecture,0.9826892018318176
,city,0.9780195355415344
,sky,0.9533877968788147
,outdoors,0.9420058727264404
,building,0.929573655128479
,reflection,0.9258792996406555
,bridge,0.9255855083465576
,river,0.9245331287384033
,people,0.9111150503158569
,vehicle,0.9051775932312012
,business,0.9031393527984619
,pier,0.8965553045272827
,transportation system,0.8924070596694946
,watercraft,0.8738107681274414
,harbor,0.8628917932510376
,urban,0.8606568574905396
,museum,0.858637809753418
https://scontent.cdninstagram.com/t51.2885-15/e35/13099096_115820378831906_1706865855_n.jpg?ig_cache_key=MTI0NjE5MDQxNDA2MDczOTU4OA%3D%3D.2,woman,0.9738332033157349
,indoors,0.9715704917907715
,people,0.9528796672821045
,business,0.9393730163574219
,portrait,0.9191064834594727
,college,0.9126108884811401
,adult,0.9093347191810608
,intelligence,0.8946524858474731
,success,0.8892039060592651
,outdoors,0.8806759119033813
,man,0.8787338733673096
,contemporary,0.8761237263679504
,one,0.8710631132125854
,education,0.8577837944030762
,city,0.8455290794372559
,looking,0.841312050819397
,street,0.8230648040771484
,accomplishment,0.803591251373291
,student,0.8021864891052246
,university,0.8009911179542542
https://scontent.cdninstagram.com/t51.2885-15/e35/13113829_1554871081480275_675660928_n.jpg?ig_cache_key=MTI0MDk4MjI1NDA3MzA0NDA3Ng%3D%3D.2,water,0.9680432081222534
,people,0.9648984670639038
,reflection,0.9644056558609009
,man,0.9594529271125793
,outdoors,0.9427763819694519
,rain,0.9424129724502563
,leisure,0.9349069595336914
,recreation,0.92094486951828
,young,0.920149564743042
,fun,0.9068143367767334
,adult,0.9040207862854004
,woman,0.8950434923171997
,exercise,0.8636450171470642
,one,0.8544889688491821
,enjoyment,0.8490527868270874
,love,0.837365984916687
,portrait,0.8321411609649658
,city,0.8283200860023499
,summer,0.8253716230392456
,business,0.8235856294631958
https://scontent.cdninstagram.com/t51.2885-15/e35/13188067_1667942136800860_1765812083_n.jpg?ig_cache_key=MTI0Njc2MDEzMjY4OTY4MTcwMQ%3D%3D.2,woman,0.9683530330657959
,people,0.9416944980621338
,competition,0.9240429401397705
,shopping,0.9020787477493286
,man,0.9010225534439087
,street,0.8798966407775879
,wear,0.8710756897926331
,city,0.8661623001098633
,outdoors,0.8479235768318176
,commerce,0.8345209360122681
,travel,0.805579423904419
,enjoyment,0.8009275794029236
,business,0.7982966899871826
,adult,0.7980339527130127
,race,0.7956400513648987
,fun,0.7948678731918335
,child,0.7932323813438416
,togetherness,0.7784155607223511
,market,0.7570048570632935
,stock,0.7412477135658264
https://scontent.cdninstagram.com/t51.2885-15/e35/13113842_608070406009707_1103237489_n.jpg?ig_cache_key=MTIzOTU1NzUyNTE2NDQxNzAxMw%3D%3D.2,woman,0.9721169471740723
,water,0.9639717936515808
,outdoors,0.9601866006851196
,people,0.9541130065917969
,city,0.9535499811172485
,relaxation,0.9450744390487671
,adult,0.9306913614273071
,rain,0.927793025970459
,sit,0.9256031513214111
,business,0.9227718114852905
,yoga,0.9194853901863098
,leisure,0.9162695407867432
,architecture,0.91575026512146
,urban,0.9153028726577759
,nature,0.915184497833252
,summer,0.9061813354492188
,portrait,0.9048084616661072
,travel,0.8974477648735046
,young,0.8970595598220825
,street,0.892037034034729
https://scontent.cdninstagram.com/t51.2885-15/e35/13256589_1412913568734340_427338645_n.jpg?ig_cache_key=MTI2NDUyODIyNDM3OTM2MjQwOQ%3D%3D.2,portrait,0.9944764971733093
,people,0.9929997324943542
,adult,0.9916558861732483
,wear,0.9854761362075806
,two,0.9787168502807617
,woman,0.9766981601715088
,man,0.9621022939682007
,one,0.9523622989654541
,facial expression,0.9490445852279663
,girl,0.9000511169433594
,music,0.8734742403030396
,fashion,0.863386869430542
,model,0.8572429418563843
,outfit,0.8451131582260132
,dress,0.8316476345062256
,actress,0.8211063146591187
,outerwear,0.8101351261138916
,fashionable,0.803816556930542
,group,0.7889773845672607
,boy,0.785920262336731
https://scontent.cdninstagram.com/t51.2885-15/e35/13150880_1594232010893097_975236834_n.jpg?ig_cache_key=MTI0MTg5MjU2NTM0NTAwMTEyMw%3D%3D.2,people,0.970283031463623
,adult,0.9614824652671814
,portrait,0.9601367712020874
,outdoors,0.9504948258399963
,man,0.9496543407440186
,one,0.9469443559646606
,business,0.941889762878418
,water,0.9404460191726685
,reflection,0.9387831091880798
,daylight,0.8909879922866821
,urban,0.8782909512519836
,travel,0.8722964525222778
,rain,0.8625919222831726
,city,0.8501209020614624
,window,0.8325363397598267
,wear,0.8240509629249573
,building,0.8158407807350159
,office,0.8039920926094055
,looking,0.8034901022911072
,woman,0.794241189956665
https://scontent.cdninstagram.com/t51.2885-15/e35/13108870_208246709561805_851900891_n.jpg?ig_cache_key=MTI0MDMxODk4MTA3Mzk1MjU1Nw%3D%3D.2,man,0.97562175989151
,people,0.9737552404403687
,one,0.9640054702758789
,adult,0.9605740308761597
,street,0.9594785571098328
,motion,0.9320782423019409
,young,0.9288473725318909
,urban,0.9283056259155273
,business,0.9259191751480103
,exercise,0.9088317155838013
,suit,0.8900639414787292
,balance,0.8853592872619629
,city,0.8838626146316528
,briefcase,0.8786245584487915
,portrait,0.8759534358978271
,man,0.869482159614563
,modern,0.8652335405349731
,person,0.852092981338501
,outdoors,0.8367074131965637
,recreation,0.8014571666717529
https://scontent.cdninstagram.com/t51.2885-15/e35/13266836_985420891557221_30852130_n.jpg?ig_cache_key=MTI2MjY5ODk3OTEwMTQwMDg5NQ%3D%3D.2,people,0.9805628061294556
,man,0.9710059762001038
,adult,0.9626142382621765
,competition,0.9450950026512146
,wear,0.9371334314346313
,athlete,0.9342849254608154
,woman,0.9171992540359497
,indoors,0.9059101343154907
,exercise,0.9009697437286377
,vehicle,0.8949557542800903
,teamwork,0.8914307951927185
,industry,0.8885496854782104
,championship,0.8571670055389404
,group,0.8206167221069336
,race,0.8155895471572876
,one,0.8119075298309326
,squad,0.8058764338493347
,skill,0.8040854930877686
,recreation,0.7925782203674316
,grinder,0.7900800704956055
https://scontent.cdninstagram.com/t51.2885-15/e35/13113871_283367281995723_1363298344_n.jpg?ig_cache_key=MTI1MjE2MzU0NjkyMzgxODUwMg%3D%3D.2,competition,0.9940122365951538
,athlete,0.9877523183822632
,motion,0.9803226590156555
,adult,0.9801689386367798
,people,0.9796878099441528
,track and field,0.9578506946563721
,group,0.9571701288223267
,action,0.9474759101867676
,woman,0.9418443441390991
,exercise,0.9325717687606812
,man,0.9243557453155518
,recreation,0.9182623624801636
,action,0.9122574329376221
,city,0.9099184274673462
,energy,0.9029344320297241
,wear,0.8967951536178589
,race,0.8958123922348022
,teamwork,0.8825968503952026
,championship,0.8820096254348755
,many,0.8715859055519104
https://scontent.cdninstagram.com/t51.2885-15/e35/12479615_943416072442016_1862399888_n.jpg?ig_cache_key=MTIzNDY4NTg2MDQ1NDQ4OTY1Ng%3D%3D.2,water,0.9963014721870422
,travel,0.9875987768173218
,people,0.9859145879745483
,watercraft,0.9806305170059204
,bridge,0.9722641110420227
,ship,0.9676116704940796
,sea,0.964896559715271
,transportation system,0.962501049041748
,race,0.9602251052856445
,vehicle,0.9598491787910461
,pier,0.9576452374458313
,harbor,0.9481207132339478
,city,0.9471427202224731
,competition,0.9404959082603455
,architecture,0.9393742084503174
,ocean,0.9345423579216003
,landscape,0.9332419633865356
,water sports,0.9304271936416626
,recreation,0.9301351308822632
,outdoors,0.9218712449073792
https://scontent.cdninstagram.com/t51.2885-15/e35/13108942_947413278689605_1660079269_n.jpg?ig_cache_key=MTIzOTEzMTUzOTI2MDIwMjUyMg%3D%3D.2,people,0.9895452260971069
,outdoors,0.9836006164550781
,adult,0.9785802960395813
,recreation,0.977358341217041
,woman,0.970173716545105
,leisure,0.9686213731765747
,water,0.9513999819755554
,lifestyle,0.9506242275238037
,man,0.9472326636314392
,city,0.9331024885177612
,one,0.9323948621749878
,relaxation,0.9281836748123169
,business,0.9247572422027588
,park,0.9176371097564697
,summer,0.91557776927948
,urban,0.9068387150764465
,daylight,0.900930643081665
,portrait,0.8945416808128357
,sit,0.8828439712524414
,outside,0.8806511163711548
https://scontent.cdninstagram.com/t51.2885-15/e35/13118223_252239141795317_938492069_n.jpg?ig_cache_key=MTI0MzI5NDM1ODY4MzY3MjE2OQ%3D%3D.2,facial expression,0.9815548062324524
,wear,0.9777536392211914
,adult,0.9739992618560791
,people,0.9656811356544495
,man,0.9616812467575073
,woman,0.9342815279960632
,portrait,0.9313878417015076
,group,0.9248155355453491
,happiness,0.904013991355896
,accomplishment,0.8854492902755737
,competition,0.8840105533599854
,outfit,0.8705207705497742
,business,0.862639307975769
,enjoyment,0.8586258292198181
,child,0.8388159275054932
,one,0.8273124694824219
,two,0.8191014528274536
,togetherness,0.8155792355537415
,confidence,0.8148913383483887
,recreation,0.8136100769042969
https://scontent.cdninstagram.com/t51.2885-15/e35/12959952_1160153383997766_113620304_n.jpg?ig_cache_key=MTIzNjkwMzQ2MDQzMzQ1MjA1Mw%3D%3D.2,woman,0.9820815920829773
,togetherness,0.9804060459136963
,man,0.9804010391235352
,portrait,0.9713164567947388
,outdoors,0.9701751470565796
,facial expression,0.9678962230682373
,people,0.9674282073974609
,adult,0.9557722806930542
,happiness,0.9530061483383179
,two,0.9418255090713501
,friendship,0.9290626049041748
,enjoyment,0.9190428256988525
,group,0.9163340330123901
,recreation,0.9085220098495483
,wear,0.9038432836532593
,leisure,0.8998762369155884
,lifestyle,0.894675612449646
,family,0.8805173635482788
,three,0.879880428314209
,daylight,0.8714928030967712
