url,class,score,,,,,,,,
https://scontent.cdninstagram.com/t51.2885-15/e35/13385927_1787111701574993_569591002_n.jpg,people,0.9579174518585205,Commerce,"Fashion & Beauty",Recreation,,"Product/brand shots","Fashion & Beauty-s",Recreation-s,
,"transportation system",0.9430651664733887,,,,,,,,
,vehicle,0.9379655122756958,,,,,,,,
,competition,0.9235692024230957,,,,,,,,
,street,0.9180691838264465,,,,,,,,
,wheel,0.9037309885025024,,,,,,,,
,race,0.9024664163589478,,,,,,,,
,exhibition,0.8933779001235962,,,,,,,,
,road,0.8763015270233154,,,,,,,,
,man,0.8673295974731445,,,,,,,,
,bike,0.867038369178772,,,,,,,,
,sport,0.8599148988723755,,,,,,,,
,recreation,0.8306556940078735,,,,,,,,
,adult,0.8190227746963501,,,,,,,,
,travel,0.8148285150527954,,,,,,,,
,fun,0.809211015701294,,,,,,,,
,wear,0.8006945252418518,,,,,,,,
,footwear,0.7571471929550171,,,,,,,,
,leisure,0.7532861232757568,,,,,,,,
,woman,0.7502635717391968,,,,,,,,
https://scontent.cdninstagram.com/t51.2885-15/e15/13395168_1626085741038895_563073381_n.jpg,concert,0.996505081653595,Entertainment,,,,Entertainment-s,,,
,music,0.9963251352310181,,,,,,,,
,performance,0.9956116676330566,,,,,,,,
,musician,0.9949337244033813,,,,,,,,
,singer,0.992613673210144,,,,,,,,
,people,0.9824110269546509,,,,,,,,
,guitarist,0.9782459735870361,,,,,,,,
,stage,0.9778342247009277,,,,,,,,
,guitar,0.9764950275421143,,,,,,,,
,instrument,0.9740133881568909,,,,,,,,
,band,0.9726266264915466,,,,,,,,
,microphone,0.9545055627822876,,,,,,,,
,group,0.9519348740577698,,,,,,,,
,adult,0.9467830657958984,,,,,,,,
,"stringed instrument",0.9422047138214111,,,,,,,,
,bassist,0.9416772127151489,,,,,,,,
,recreation,0.910109281539917,,,,,,,,
,theater,0.9043753147125244,,,,,,,,
,festival,0.8915784358978271,,,,,,,,
,man,0.8835225105285645,,,,,,,,
https://scontent.cdninstagram.com/t51.2885-15/e35/13549644_1235692176454437_1995993588_n.jpg,underwater,0.9861642718315125,Relationships,Animals,,,Friends,Animals-s,,
,people,0.9561730623245239,,,,,,,,
,fish,0.943427324295044,,,,,,,,
,swimming,0.919832706451416,,,,,,,,
,"water sports",0.9078558683395386,,,,,,,,
,water,0.8788237571716309,,,,,,,,
,"no person",0.8784987330436707,,,,,,,,
,recreation,0.8680539727210999,,,,,,,,
,one,0.8385095596313477,,,,,,,,
,ocean,0.8264526128768921,,,,,,,,
,group,0.8198390007019043,,,,,,,,
,blower,0.8195279836654663,,,,,,,,
,music,0.8165242671966553,,,,,,,,
,exploration,0.7755630016326904,,,,,,,,
,shark,0.7645438313484192,,,,,,,,
,aquarium,0.7561038732528687,,,,,,,,
,performance,0.7403072714805603,,,,,,,,
,festival,0.7386296987533569,,,,,,,,
,man,0.734584629535675,,,,,,,,
,whale,0.7143129110336304,,,,,,,,
https://scontent.cdninstagram.com/t51.2885-15/e15/13525376_116064342156628_2073490522_n.jpg,music,0.9921400547027588,"Fashion & Beauty",Recreation,"My life",,"My look",Recreation-s,Doing,
,guitar,0.9869894981384277,,,,,,,,
,musician,0.9867215156555176,,,,,,,,
,instrument,0.9796802401542664,,,,,,,,
,indoors,0.9732881784439087,,,,,,,,
,adult,0.9671322107315063,,,,,,,,
,one,0.9667521715164185,,,,,,,,
,people,0.9564315676689148,,,,,,,,
,leisure,0.9476860761642456,,,,,,,,
,woman,0.9033015966415405,,,,,,,,
,guitarist,0.9021754264831543,,,,,,,,
,portrait,0.9009179472923279,,,,,,,,
,room,0.8866801261901855,,,,,,,,
,sit,0.8843965530395508,,,,,,,,
,relaxation,0.8752939701080322,,,,,,,,
,"stringed instrument",0.8645323514938354,,,,,,,,
,sitting,0.8644506931304932,,,,,,,,
,man,0.86408531665802,,,,,,,,
,enjoyment,0.8577039241790771,,,,,,,,
,"facial expression",0.8498715162277222,,,,,,,,
https://scontent.cdninstagram.com/t51.2885-15/e35/13116710_592922920875328_1686082930_n.jpg,bedroom,0.992150068283081,Environment,Travel,,,"Manmade beauty",Travel-s,,
,bed,0.9917824864387512,,,,,,,,
,room,0.9902442097663879,,,,,,,,
,furniture,0.9897668361663818,,,,,,,,
,window,0.9798922538757324,,,,,,,,
,indoors,0.9787347912788391,,,,,,,,
,home,0.9741674661636353,,,,,,,,
,"interior design",0.9719134569168091,,,,,,,,
,house,0.9539639949798584,,,,,,,,
,table,0.9437929391860962,,,,,,,,
,hotel,0.9410475492477417,,,,,,,,
,rug,0.9356375932693481,,,,,,,,
,family,0.9301525354385376,,,,,,,,
,lamp,0.9199796915054321,,,,,,,,
,pillow,0.9140744209289551,,,,,,,,
,chair,0.9010963439941406,,,,,,,,
,seat,0.8763608932495117,,,,,,,,
,luxury,0.8757294416427612,,,,,,,,
,sofa,0.8667575120925903,,,,,,,,
,curtain,0.8631076812744141,,,,,,,,
https://scontent.cdninstagram.com/t51.2885-15/e35/13277594_888779391232190_1359874424_n.jpg,business,0.9560530781745911,"My life",Commerce,"Fashion & Beauty",,"Here I am","Product/brand shots","My look",
,education,0.9533937573432922,,,,,,,,
,school,0.9429661631584167,,,,,,,,
,people,0.9212414026260376,,,,,,,,
,woman,0.9168746471405029,,,,,,,,
,eyeglasses,0.9110736846923828,,,,,,,,
,paper,0.9007089138031006,,,,,,,,
,portrait,0.8953183889389038,,,,,,,,
,indoors,0.8673292398452759,,,,,,,,
,office,0.8530805706977844,,,,,,,,
,cute,0.8422164916992188,,,,,,,,
,cheerful,0.825751543045044,,,,,,,,
,child,0.823113739490509,,,,,,,,
,happiness,0.8216462731361389,,,,,,,,
,adult,0.8077940940856934,,,,,,,,
,girl,0.7936121225357056,,,,,,,,
,writing,0.7913311719894409,,,,,,,,
,person,0.7910968661308289,,,,,,,,
,young,0.784839391708374,,,,,,,,
,desktop,0.7847840189933777,,,,,,,,
https://scontent.cdninstagram.com/t51.2885-15/e35/13166856_132339477171050_2025090322_n.jpg,"no person",0.9974498748779297,Environment,Travel,,,"Manmade beauty",Travel-s,,
,outdoors,0.9804204702377319,,,,,,,,
,sky,0.9795128107070923,,,,,,,,
,architecture,0.9782614707946777,,,,,,,,
,sunset,0.9740722179412842,,,,,,,,
,travel,0.9633558988571167,,,,,,,,
,evening,0.9555025100708008,,,,,,,,
,dusk,0.9527978301048279,,,,,,,,
,daylight,0.9398989677429199,,,,,,,,
,moon,0.9311015605926514,,,,,,,,
,statue,0.930288553237915,,,,,,,,
,city,0.9271616339683533,,,,,,,,
,silhouette,0.9245996475219727,,,,,,,,
,monument,0.9090081453323364,,,,,,,,
,dawn,0.9049591422080994,,,,,,,,
,tower,0.8932135105133057,,,,,,,,
,sculpture,0.8920586705207825,,,,,,,,
,sun,0.8896477818489075,,,,,,,,
,light,0.886700451374054,,,,,,,,
,backlit,0.8775407075881958,,,,,,,,
https://scontent.cdninstagram.com/t51.2885-15/e35/13249676_298994147099515_1575880531_n.jpg,woman,0.9958212375640869,"Fashion & Beauty",,,,"My look",,,
,portrait,0.9880145788192749,,,,,,,,
,girl,0.9861159920692444,,,,,,,,
,people,0.9835420846939087,,,,,,,,
,fashion,0.9730870723724365,,,,,,,,
,wear,0.9717625975608826,,,,,,,,
,one,0.9439562559127808,,,,,,,,
,indoors,0.9411572813987732,,,,,,,,
,child,0.941037654876709,,,,,,,,
,profile,0.9247965812683105,,,,,,,,
,model,0.9203667044639587,,,,,,,,
,adult,0.9159085154533386,,,,,,,,
,"side view",0.9107164144515991,,,,,,,,
,"facial expression",0.8971826434135437,,,,,,,,
,hairdo,0.8898863792419434,,,,,,,,
,glamour,0.8784146308898926,,,,,,,,
,hair,0.8510522842407227,,,,,,,,
,family,0.8467898368835449,,,,,,,,
,wedding,0.8296982049942017,,,,,,,,
,studio,0.818475604057312,,,,,,,,
https://scontent.cdninstagram.com/t51.2885-15/e35/13525348_982140981905384_1968202282_n.jpg,piano,0.9999862313270569,"Fashion & Beauty","My life",Recreation,,"My look",Doing,Recreation-s,
,music,0.9998905658721924,,,,,,,,
,musician,0.9994350671768188,,,,,,,,
,instrument,0.9992988705635071,,,,,,,,
,synthesizer,0.9990232586860657,,,,,,,,
,pianist,0.9987199306488037,,,,,,,,
,song,0.9970925450325012,,,,,,,,
,harmony,0.9957732558250427,,,,,,,,
,sound,0.9946222305297852,,,,,,,,
,jazz,0.9936268925666809,,,,,,,,
,ebony,0.9928332567214966,,,,,,,,
,rhythm,0.9915452599525452,,,,,,,,
,concert,0.9896410703659058,,,,,,,,
,keyboard,0.9889576435089111,,,,,,,,
,acoustic,0.9864779710769653,,,,,,,,
,ivory,0.9778625965118408,,,,,,,,
,one,0.9778037071228027,,,,,,,,
,people,0.9755962491035461,,,,,,,,
,chord,0.9727945327758789,,,,,,,,
,play,0.9682732820510864,,,,,,,,
https://scontent.cdninstagram.com/t51.2885-15/e35/13167324_1788996787990273_1196907251_n.jpg,wildlife,0.9865307211875916,Animals,,,,Animals-s,,,
,nature,0.9862476587295532,,,,,,,,
,"no person",0.9858063459396362,,,,,,,,
,bird,0.9844235777854919,,,,,,,,
,outdoors,0.9802718162536621,,,,,,,,
,water,0.9382452368736267,,,,,,,,
,poultry,0.9361749887466431,,,,,,,,
,tropical,0.92884361743927,,,,,,,,
,swimming,0.925199031829834,,,,,,,,
,one,0.9236788749694824,,,,,,,,
,animal,0.9163584113121033,,,,,,,,
,wild,0.9107863903045654,,,,,,,,
,zoo,0.8926403522491455,,,,,,,,
,underwater,0.882367730140686,,,,,,,,
,exotic,0.872700035572052,,,,,,,,
,color,0.8586958646774292,,,,,,,,
,fish,0.8535594940185547,,,,,,,,
,daylight,0.8125035762786865,,,,,,,,
,garden,0.7967702150344849,,,,,,,,
,environment,0.7962794899940491,,,,,,,,
https://scontent.cdninstagram.com/t51.2885-15/e35/13167348_222860768097492_2059750804_n.jpg,cattle,0.9962684512138367,Environment,Travel,,,"Natural beauty",Travel-s,,
,"no person",0.9931772947311401,,,,,,,,
,agriculture,0.9867568016052246,,,,,,,,
,mammal,0.9850194454193115,,,,,,,,
,livestock,0.9812081456184387,,,,,,,,
,pastoral,0.9782396554946899,,,,,,,,
,cow,0.9778769612312317,,,,,,,,
,travel,0.9644196629524231,,,,,,,,
,outdoors,0.9592622518539429,,,,,,,,
,vehicle,0.9554111957550049,,,,,,,,
,farm,0.9489901065826416,,,,,,,,
,landscape,0.9412068128585815,,,,,,,,
,"transportation system",0.9292507171630859,,,,,,,,
,road,0.9192475080490112,,,,,,,,
,herd,0.883745551109314,,,,,,,,
,bull,0.8801476955413818,,,,,,,,
,countryside,0.8720104694366455,,,,,,,,
,milk,0.8677971363067627,,,,,,,,
,people,0.8665844798088074,,,,,,,,
,daylight,0.8429579138755798,,,,,,,,
https://scontent.cdninstagram.com/t51.2885-15/e35/13151294_1200096286668693_121288581_n.jpg,indoors,0.9954209923744202,Commerce,Food,,,"Product/brand shots",Food-s,,
,food,0.9709441065788269,,,,,,,,
,cooking,0.9615001678466797,,,,,,,,
,people,0.9461579322814941,,,,,,,,
,stock,0.945044994354248,,,,,,,,
,shelf,0.9421418905258179,,,,,,,,
,preparation,0.9396626353263855,,,,,,,,
,industry,0.9394923448562622,,,,,,,,
,restaurant,0.9347291588783264,,,,,,,,
,counter,0.9341322183609009,,,,,,,,
,inside,0.9232986569404602,,,,,,,,
,table,0.9222184419631958,,,,,,,,
,adult,0.8932260870933533,,,,,,,,
,exhibition,0.8787075877189636,,,,,,,,
,horizontal,0.877259373664856,,,,,,,,
,oven,0.8724422454833984,,,,,,,,
,chef,0.8722875118255615,,,,,,,,
,stove,0.8716945648193359,,,,,,,,
,room,0.8704972863197327,,,,,,,,
,business,0.8686438798904419,,,,,,,,
https://scontent.cdninstagram.com/t51.2885-15/e35/13092353_272224159783919_539757246_n.jpg,wood,0.998144805431366,Environment,Animals,,,"Natural beauty",Animals-s,,
,wooden,0.9951636791229248,,,,,,,,
,nature,0.9840084314346313,,,,,,,,
,tree,0.9794126749038696,,,,,,,,
,"no person",0.967399537563324,,,,,,,,
,summer,0.9608749151229858,,,,,,,,
,bench,0.9501290321350098,,,,,,,,
,grass,0.9425312280654907,,,,,,,,
,outdoors,0.9416550993919373,,,,,,,,
,rest,0.9334597587585449,,,,,,,,
,park,0.9278848171234131,,,,,,,,
,log,0.9222744703292847,,,,,,,,
,rural,0.9206581711769104,,,,,,,,
,mammal,0.9169701337814331,,,,,,,,
,rustic,0.9062551259994507,,,,,,,,
,seat,0.8955353498458862,,,,,,,,
,leaf,0.8737819194793701,,,,,,,,
,landscape,0.8728010654449463,,,,,,,,
,color,0.8714388608932495,,,,,,,,
,family,0.8653159737586975,,,,,,,,
https://scontent.cdninstagram.com/t51.2885-15/s750x750/sh0.08/e35/13397521_486609171537393_110242978_n.jpg,group,0.9890050292015076,Relationships,Entertainment,Media,,Friends,Entertainment-s,Media-s,
,woman,0.982660174369812,,,,,,,,
,people,0.9823462963104248,,,,,,,,
,adult,0.9722989797592163,,,,,,,,
,portrait,0.9721425771713257,,,,,,,,
,music,0.9668710827827454,,,,,,,,
,wear,0.9496153593063354,,,,,,,,
,man,0.9411891102790833,,,,,,,,
,musician,0.9359598159790039,,,,,,,,
,competition,0.9235637784004211,,,,,,,,
,singer,0.9183633327484131,,,,,,,,
,"facial expression",0.9142628908157349,,,,,,,,
,group,0.9048665761947632,,,,,,,,
,vehicle,0.894797682762146,,,,,,,,
,recreation,0.8717907667160034,,,,,,,,
,performance,0.8697112798690796,,,,,,,,
,enjoyment,0.866065263748169,,,,,,,,
,many,0.8570017218589783,,,,,,,,
,concert,0.8526883125305176,,,,,,,,
,education,0.8368365168571472,,,,,,,,
https://scontent.cdninstagram.com/t51.2885-15/e15/13151343_1714767965445456_1907090642_n.jpg,house,0.9864327907562256,Environment,Travel,,,"Natural beauty",Travel-s,,
,mountain,0.9849499464035034,,,,,,,,
,"no person",0.980663537979126,,,,,,,,
,tree,0.9801985025405884,,,,,,,,
,wood,0.9727131128311157,,,,,,,,
,outdoors,0.9705229997634888,,,,,,,,
,landscape,0.9669266939163208,,,,,,,,
,home,0.9663936495780945,,,,,,,,
,building,0.9594019651412964,,,,,,,,
,travel,0.9476081132888794,,,,,,,,
,architecture,0.9441336393356323,,,,,,,,
,snow,0.9391577243804932,,,,,,,,
,daylight,0.9377470016479492,,,,,,,,
,scenic,0.9229376316070557,,,,,,,,
,evergreen,0.9196328520774841,,,,,,,,
,sky,0.9014835357666016,,,,,,,,
,light,0.9008761644363403,,,,,,,,
,family,0.8942602872848511,,,,,,,,
,winter,0.8922927379608154,,,,,,,,
,nature,0.8783144950866699,,,,,,,,
https://scontent.cdninstagram.com/t51.2885-15/e35/13129572_980134775435418_1176092066_n.jpg,"no person",0.9884592890739441,Food,,,,"Meal time",,,
,food,0.9754085540771484,,,,,,,,
,restaurant,0.9320172071456909,,,,,,,,
,stock,0.9315020442008972,,,,,,,,
,indoors,0.9137200117111206,,,,,,,,
,people,0.9108518362045288,,,,,,,,
,travel,0.893825888633728,,,,,,,,
,outdoors,0.8681919574737549,,,,,,,,
,business,0.8504111766815186,,,,,,,,
,commerce,0.8467079401016235,,,,,,,,
,dinner,0.8453806638717651,,,,,,,,
,decoration,0.8450268507003784,,,,,,,,
,meat,0.8395659923553467,,,,,,,,
,meal,0.8337876796722412,,,,,,,,
,tray,0.827302098274231,,,,,,,,
,market,0.8270198106765747,,,,,,,,
,delicious,0.8199734091758728,,,,,,,,
,shopping,0.8171329498291016,,,,,,,,
,industry,0.8023887872695923,,,,,,,,
,religion,0.801005482673645,,,,,,,,
https://scontent.cdninstagram.com/t51.2885-15/e35/13167500_244745465892887_768150071_n.jpg,people,0.9790865182876587,Relationships,,,,Friends,,,
,woman,0.978752076625824,,,,,,,,
,group,0.9726691246032715,,,,,,,,
,"facial expression",0.9640365839004517,,,,,,,,
,family,0.9531918168067932,,,,,,,,
,adult,0.9373699426651001,,,,,,,,
,friendship,0.9355355501174927,,,,,,,,
,child,0.9354596138000488,,,,,,,,
,indoors,0.9225107431411743,,,,,,,,
,portrait,0.920650064945221,,,,,,,,
,girl,0.9099137783050537,,,,,,,,
,four,0.9078580141067505,,,,,,,,
,togetherness,0.9041509032249451,,,,,,,,
,fun,0.8998797535896301,,,,,,,,
,happiness,0.8989958763122559,,,,,,,,
,wear,0.8947880268096924,,,,,,,,
,three,0.8834474086761475,,,,,,,,
,enjoyment,0.880408525466919,,,,,,,,
,room,0.8606737852096558,,,,,,,,
,laughing,0.8460166454315186,,,,,,,,
https://scontent.cdninstagram.com/t51.2885-15/e35/13129129_946188625501368_571177641_n.jpg,light,0.9764707088470459,Environment,"My life",,,"Manmade beauty","Here I am",,
,road,0.9722434878349304,,,,,,,,
,"transportation system",0.9703922271728516,,,,,,,,
,street,0.9449034929275513,,,,,,,,
,travel,0.943961501121521,,,,,,,,
,car,0.9432240724563599,,,,,,,,
,"no person",0.9393770098686218,,,,,,,,
,evening,0.926720917224884,,,,,,,,
,traffic,0.9168821573257446,,,,,,,,
,city,0.9136050939559937,,,,,,,,
,highway,0.9105517864227295,,,,,,,,
,bridge,0.9095646739006042,,,,,,,,
,blur,0.9064579010009766,,,,,,,,
,building,0.8938198089599609,,,,,,,,
,vehicle,0.8786419630050659,,,,,,,,
,motion,0.8733299970626831,,,,,,,,
,business,0.8642222285270691,,,,,,,,
,dusk,0.8528300523757935,,,,,,,,
,architecture,0.814979612827301,,,,,,,,
,guidance,0.8043153285980225,,,,,,,,
https://scontent.cdninstagram.com/t51.2885-15/e35/13126711_1699363913652209_802057528_n.jpg,people,0.9921544790267944,Relationships,Travel,,Environment,"Best friends",Travel-s,,"Manmade beauty"
,sunglasses,0.9394981861114502,,,,,,,,
,entertainment,0.9317710399627686,,,,,,,,
,group,0.9147676229476929,,,,,,,,
,famous,0.9119044542312622,,,,,,,,
,fun,0.8976305723190308,,,,,,,,
,person,0.8881475925445557,,,,,,,,
,summer,0.8862770795822144,,,,,,,,
,woman,0.8825699090957642,,,,,,,,
,fame,0.8804921507835388,,,,,,,,
,pop,0.8799710273742676,,,,,,,,
,child,0.8791368007659912,,,,,,,,
,portrait,0.8778356313705444,,,,,,,,
,outdoors,0.8751798868179321,,,,,,,,
,travel,0.8733410835266113,,,,,,,,
,adult,0.8689039945602417,,,,,,,,
,event,0.8679858446121216,,,,,,,,
,two,0.867937445640564,,,,,,,,
,girl,0.864966630935669,,,,,,,,
,vacation,0.8645684719085693,,,,,,,,
https://scontent.cdninstagram.com/t51.2885-15/e35/13117975_1079112655465848_1781227303_n.jpg,"no person",0.9923391342163086,Food,,,,Dessert,,,
,food,0.9912481904029846,,,,,,,,
,fruit,0.9892261028289795,,,,,,,,
,cake,0.9863300323486328,,,,,,,,
,sweet,0.9862639904022217,,,,,,,,
,delicious,0.9841192960739136,,,,,,,,
,cream,0.9812315106391907,,,,,,,,
,pie,0.979398250579834,,,,,,,,
,pastry,0.9745365977287292,,,,,,,,
,sugar,0.9702341556549072,,,,,,,,
,plate,0.9671057462692261,,,,,,,,
,chocolate,0.9655119776725769,,,,,,,,
,baking,0.9491844177246094,,,,,,,,
,"dairy product",0.9484392404556274,,,,,,,,
,creamy,0.9430264234542847,,,,,,,,
,grow,0.9391989707946777,,,,,,,,
,indulgence,0.935287356376648,,,,,,,,
,vanilla,0.911834180355072,,,,,,,,
,strawberry,0.9115910530090332,,,,,,,,
,berry,0.9086217880249023,,,,,,,,
https://scontent.cdninstagram.com/t51.2885-15/e35/13126850_1176701515713391_1609358293_n.jpg,city,0.9911801815032959,Travel,Environment,,,Travel-s,"Manmade beauty",,
,architecture,0.9864557981491089,,,,,,,,
,water,0.9825265407562256,,,,,,,,
,cityscape,0.9747401475906372,,,,,,,,
,building,0.9730052947998047,,,,,,,,
,river,0.972732663154602,,,,,,,,
,skyline,0.9710253477096558,,,,,,,,
,skyscraper,0.9670741558074951,,,,,,,,
,travel,0.966177225112915,,,,,,,,
,downtown,0.9625231623649597,,,,,,,,
,dusk,0.9615645408630371,,,,,,,,
,sunset,0.9593985080718994,,,,,,,,
,"no person",0.9539562463760376,,,,,,,,
,sky,0.9522042870521545,,,,,,,,
,evening,0.9478474855422974,,,,,,,,
,business,0.9381933212280273,,,,,,,,
,light,0.936122477054596,,,,,,,,
,bridge,0.9324544072151184,,,,,,,,
,urban,0.919681191444397,,,,,,,,
,reflection,0.9149936437606812,,,,,,,,
https://scontent.cdninstagram.com/t51.2885-15/e35/13151163_1053196464727293_336135631_n.jpg,water,0.9969180822372437,Environment,Travel,,,"Natural beauty",Travel-s,,
,"no person",0.9897568821907043,,,,,,,,
,travel,0.9880807399749756,,,,,,,,
,landscape,0.9859654307365417,,,,,,,,
,nature,0.9814847707748413,,,,,,,,
,mountain,0.9786348342895508,,,,,,,,
,sky,0.9538657665252686,,,,,,,,
,beach,0.9524528980255127,,,,,,,,
,outdoors,0.9488697052001953,,,,,,,,
,summer,0.94361811876297,,,,,,,,
,sea,0.9394346475601196,,,,,,,,
,seashore,0.9351433515548706,,,,,,,,
,rock,0.9249370098114014,,,,,,,,
,tree,0.9170354604721069,,,,,,,,
,lake,0.9165412187576294,,,,,,,,
,scenic,0.9139390587806702,,,,,,,,
,island,0.9098925590515137,,,,,,,,
,ocean,0.8991866111755371,,,,,,,,
,daylight,0.8976049423217773,,,,,,,,
,river,0.8550564646720886,,,,,,,,
https://scontent.cdninstagram.com/t51.2885-15/e35/13126870_1709681962623111_586700589_n.jpg,water,0.9758643507957458,Undefined,,,,Undefined,,,
,wet,0.9668390154838562,,,,,,,,
,bath,0.9527775049209595,,,,,,,,
,people,0.9450429677963257,,,,,,,,
,child,0.9415844678878784,,,,,,,,
,girl,0.9305980205535889,,,,,,,,
,soap,0.9294368028640747,,,,,,,,
,bathtub,0.9287826418876648,,,,,,,,
,shower,0.904685378074646,,,,,,,,
,bathroom,0.9016480445861816,,,,,,,,
,woman,0.9006121158599854,,,,,,,,
,water,0.887743353843689,,,,,,,,
,mud,0.8863394260406494,,,,,,,,
,Christmas,0.8761320114135742,,,,,,,,
,wash,0.8674829602241516,,,,,,,,
,art,0.8666521310806274,,,,,,,,
,indoors,0.8626202344894409,,,,,,,,
,health,0.8616303205490112,,,,,,,,
,fun,0.8531389832496643,,,,,,,,
,landscape,0.8453326225280762,,,,,,,,
https://scontent.cdninstagram.com/t51.2885-15/e35/13151115_591413574373505_1184507774_n.jpg,architecture,0.989698052406311,Environment,Travel,,,"Manmade beauty",Travel-s,,
,sky,0.9856181144714355,,,,,,,,
,travel,0.9796866178512573,,,,,,,,
,city,0.975661039352417,,,,,,,,
,building,0.974443793296814,,,,,,,,
,clock,0.972048282623291,,,,,,,,
,tower,0.9683868885040283,,,,,,,,
,outdoors,0.959172248840332,,,,,,,,
,"no person",0.9579558968544006,,,,,,,,
,landmark,0.9440625905990601,,,,,,,,
,tourism,0.9331458210945129,,,,,,,,
,urban,0.9260330200195312,,,,,,,,
,old,0.9195803999900818,,,,,,,,
,high,0.9044510126113892,,,,,,,,
,"blue sky",0.8739334940910339,,,,,,,,
,cityscape,0.871404230594635,,,,,,,,
,skyline,0.8645661473274231,,,,,,,,
,tallest,0.8601913452148438,,,,,,,,
,sightseeing,0.8489371538162231,,,,,,,,
,traditional,0.8456406593322754,,,,,,,,
https://scontent.cdninstagram.com/t51.2885-15/e35/13181287_720728751363542_1023012602_n.jpg,people,0.978237509727478,Culture,Environment,Travel,,Culture-s,"Manmade beauty",Travel-s,
,religion,0.97315514087677,,,,,,,,
,portrait,0.9341759085655212,,,,,,,,
,man,0.9286642670631409,,,,,,,,
,face,0.9238670468330383,,,,,,,,
,old,0.9090849161148071,,,,,,,,
,art,0.8950142860412598,,,,,,,,
,lid,0.8861274719238281,,,,,,,,
,tree,0.8805328011512756,,,,,,,,
,one,0.8731740713119507,,,,,,,,
,painting,0.8633031845092773,,,,,,,,
,ancient,0.8471395969390869,,,,,,,,
,adult,0.8458707332611084,,,,,,,,
,culture,0.8453436493873596,,,,,,,,
,temple,0.84429931640625,,,,,,,,
,statue,0.8400577306747437,,,,,,,,
,sculpture,0.8218621611595154,,,,,,,,
,travel,0.7931303977966309,,,,,,,,
,warrior,0.7742643356323242,,,,,,,,
,traditional,0.7702648043632507,,,,,,,,
https://scontent.cdninstagram.com/t51.2885-15/e35/13249719_240540666322890_1802040215_n.jpg,mixer,0.9988933801651001,Commerce,Technology,,,"Product/brand shots",Technology-s,,
,"phonograph record",0.9988452196121216,,,,,,,,
,sound,0.9978736639022827,,,,,,,,
,sound,0.996444821357727,,,,,,,,
,music,0.9934359788894653,,,,,,,,
,intensity,0.9915354251861572,,,,,,,,
,stereo,0.9859226942062378,,,,,,,,
,console,0.9841864109039307,,,,,,,,
,production,0.9830255508422852,,,,,,,,
,analogue,0.9824817776679993,,,,,,,,
,switch,0.9778208136558533,,,,,,,,
,technology,0.9776331186294556,,,,,,,,
,knob,0.9764207005500793,,,,,,,,
,mix,0.976401686668396,,,,,,,,
,wireless,0.9724067449569702,,,,,,,,
,panel,0.9717395901679993,,,,,,,,
,amplifier,0.971155047416687,,,,,,,,
,session,0.952685534954071,,,,,,,,
,air,0.9490237236022949,,,,,,,,
,deejay,0.9469045996665955,,,,,,,,
https://scontent.cdninstagram.com/t51.2885-15/e35/13108608_1569891419976909_2057961379_n.jpg,water,0.9815791845321655,,Environment,"Fashion & Beauty",Travel,,"Natural beauty","My look",Travel-s
,landscape,0.9729337692260742,,,,,,,,
,nature,0.9716647863388062,,,,,,,,
,travel,0.9666638374328613,,,,,,,,
,outdoors,0.9573078155517578,,,,,,,,
,beautiful,0.9549549221992493,,,,,,,,
,summer,0.9106956720352173,,,,,,,,
,tree,0.9073116779327393,,,,,,,,
,sky,0.9035566449165344,,,,,,,,
,"no person",0.8954437375068665,,,,,,,,
,rock,0.8651481866836548,,,,,,,,
,vacation,0.8583611249923706,,,,,,,,
,river,0.845788836479187,,,,,,,,
,people,0.8300119638442993,,,,,,,,
,environment,0.8266194462776184,,,,,,,,
,beach,0.8200068473815918,,,,,,,,
,daylight,0.8163474798202515,,,,,,,,
,"fair weather",0.8067061901092529,,,,,,,,
,color,0.8002385497093201,,,,,,,,
,tourism,0.7995581030845642,,,,,,,,
https://scontent.cdninstagram.com/t51.2885-15/e35/13129293_1725383841080712_1093958305_n.jpg,people,0.9890737533569336,Relationships,Environment,Travel,,"Best friends","Natural beauty",Travel-s,
,recreation,0.9860977530479431,,,,,,,,
,man,0.9780080914497375,,,,,,,,
,woman,0.9759889841079712,,,,,,,,
,girl,0.9731383323669434,,,,,,,,
,lifestyle,0.9710807204246521,,,,,,,,
,leisure,0.9692435264587402,,,,,,,,
,child,0.9684875011444092,,,,,,,,
,fun,0.9633097052574158,,,,,,,,
,adult,0.9624601602554321,,,,,,,,
,wood,0.9614676237106323,,,,,,,,
,outdoors,0.9462276101112366,,,,,,,,
,motion,0.9438297748565674,,,,,,,,
,young,0.9232958555221558,,,,,,,,
,boy,0.9144686460494995,,,,,,,,
,group,0.9129033088684082,,,,,,,,
,active,0.9093542098999023,,,,,,,,
,park,0.9003807902336121,,,,,,,,
,happiness,0.8970316648483276,,,,,,,,
,group,0.896025538444519,,,,,,,,
https://scontent.cdninstagram.com/t51.2885-15/e35/13129841_511416852316635_1102553657_n.jpg,people,0.9779230356216431,Travel,Relationships,"My life",Culture,Travel-s,"Best friends","Here I am",Culture-s
,woman,0.9472765326499939,,,,,,,,
,outdoors,0.9407583475112915,,,,,,,,
,daylight,0.9289760589599609,,,,,,,,
,child,0.9199213981628418,,,,,,,,
,wear,0.9136453866958618,,,,,,,,
,adult,0.9117269515991211,,,,,,,,
,stock,0.8921409845352173,,,,,,,,
,happiness,0.891442060470581,,,,,,,,
,portrait,0.8889503479003906,,,,,,,,
,togetherness,0.8881559371948242,,,,,,,,
,enjoyment,0.879470944404602,,,,,,,,
,shopping,0.8648995161056519,,,,,,,,
,"facial expression",0.8416060209274292,,,,,,,,
,education,0.8153679966926575,,,,,,,,
,city,0.814361572265625,,,,,,,,
,group,0.8063749670982361,,,,,,,,
,travel,0.7909862995147705,,,,,,,,
,traditional,0.7883347272872925,,,,,,,,
,family,0.785269021987915,,,,,,,,
https://scontent.cdninstagram.com/t51.2885-15/e35/13118180_1738270113077283_1488974908_n.jpg,"no person",0.9718826413154602,"My life",Travel,Culture,,"Here I am",Travel-s,Culture-s,
,pattern,0.9399197101593018,,,,,,,,
,desktop,0.9370993375778198,,,,,,,,
,outdoors,0.920496940612793,,,,,,,,
,industry,0.900635838508606,,,,,,,,
,design,0.9002115726470947,,,,,,,,
,empty,0.8921098709106445,,,,,,,,
,horizontal,0.8864706754684448,,,,,,,,
,texture,0.8821771144866943,,,,,,,,
,roof,0.8813893795013428,,,,,,,,
,old,0.8670703768730164,,,,,,,,
,line,0.8570350408554077,,,,,,,,
,architecture,0.8544281125068665,,,,,,,,
,modern,0.8493225574493408,,,,,,,,
,wood,0.8474149703979492,,,,,,,,
,rough,0.8225710391998291,,,,,,,,
,fabric,0.8080936670303345,,,,,,,,
,stone,0.7876937389373779,,,,,,,,
,row,0.7785500884056091,,,,,,,,
,contemporary,0.776520311832428,,,,,,,,
https://scontent.cdninstagram.com/t51.2885-15/e35/13130050_1787162728173489_811629223_n.jpg,"no person",0.9912633895874023,Environment,Culture,Travel,,"Manmade beauty",Culture-s,Travel-s,
,architecture,0.9896885752677917,,,,,,,,
,building,0.9775168895721436,,,,,,,,
,travel,0.9678171873092651,,,,,,,,
,daylight,0.9623650312423706,,,,,,,,
,outdoors,0.9535307288169861,,,,,,,,
,museum,0.9509326219558716,,,,,,,,
,city,0.9504593014717102,,,,,,,,
,tower,0.9436823129653931,,,,,,,,
,sky,0.9428423643112183,,,,,,,,
,religion,0.9249469041824341,,,,,,,,
,construction,0.9054996967315674,,,,,,,,
,church,0.8908712863922119,,,,,,,,
,tree,0.8826531171798706,,,,,,,,
,vehicle,0.8688528537750244,,,,,,,,
,street,0.8468731641769409,,,,,,,,
,tourism,0.8433897495269775,,,,,,,,
,park,0.8401869535446167,,,,,,,,
,bridge,0.830930233001709,,,,,,,,
,cemetery,0.7934594750404358,,,,,,,,
https://scontent.cdninstagram.com/t51.2885-15/e35/13118178_1781581408741840_1602538185_n.jpg,food,0.9916709661483765,Food,,,,"Meal time",,,
,"no person",0.9856382608413696,,,,,,,,
,meat,0.9745858907699585,,,,,,,,
,dish,0.9539470076560974,,,,,,,,
,meal,0.9503450393676758,,,,,,,,
,vegetable,0.9434890747070312,,,,,,,,
,cooking,0.9434456825256348,,,,,,,,
,dinner,0.939995527267456,,,,,,,,
,sauce,0.9385840892791748,,,,,,,,
,hot,0.9335645437240601,,,,,,,,
,bowl,0.9330331683158875,,,,,,,,
,cuisine,0.9325371980667114,,,,,,,,
,traditional,0.9275844097137451,,,,,,,,
,lunch,0.9231277704238892,,,,,,,,
,grow,0.9165698885917664,,,,,,,,
,delicious,0.9020095467567444,,,,,,,,
,rice,0.8970153331756592,,,,,,,,
,pork,0.8863154649734497,,,,,,,,
,plate,0.8766024112701416,,,,,,,,
,beef,0.869019627571106,,,,,,,,
https://scontent.cdninstagram.com/t51.2885-15/e35/13117876_1727917827461944_1961833640_n.jpg,shelf,0.9928447604179382,Commerce,Food,,,"Product/brand shots",Food-s,,
,"no person",0.9768487811088562,,,,,,,,
,indoors,0.9488937258720398,,,,,,,,
,medicine,0.9288480281829834,,,,,,,,
,stock,0.9264790415763855,,,,,,,,
,container,0.9136062860488892,,,,,,,,
,commerce,0.8840612173080444,,,,,,,,
,food,0.8630045652389526,,,,,,,,
,box,0.8625417947769165,,,,,,,,
,inside,0.8588165044784546,,,,,,,,
,plastic,0.846298098564148,,,,,,,,
,option,0.8462771773338318,,,,,,,,
,industry,0.8433937430381775,,,,,,,,
,exhibition,0.841789722442627,,,,,,,,
,bottle,0.8358618021011353,,,,,,,,
,business,0.8290665149688721,,,,,,,,
,science,0.8279213905334473,,,,,,,,
,display,0.8275735378265381,,,,,,,,
,design,0.826591432094574,,,,,,,,
,sign,0.8241024017333984,,,,,,,,
https://scontent.cdninstagram.com/t51.2885-15/e35/13183267_283793121959334_703664232_n.jpg,indoors,0.9856400489807129,"Fashion & Beauty",Food,,,"My look","Meal time",,
,woman,0.9819552302360535,,,,,,,,
,people,0.9652001857757568,,,,,,,,
,family,0.9622998237609863,,,,,,,,
,adult,0.9616397619247437,,,,,,,,
,girl,0.9498684406280518,,,,,,,,
,lifestyle,0.9491326808929443,,,,,,,,
,enjoyment,0.9481691122055054,,,,,,,,
,young,0.9406795501708984,,,,,,,,
,room,0.9339176416397095,,,,,,,,
,happiness,0.9330617189407349,,,,,,,,
,shelf,0.9218742847442627,,,,,,,,
,sit,0.9140429496765137,,,,,,,,
,child,0.9109224081039429,,,,,,,,
,beautiful,0.9017419219017029,,,,,,,,
,inside,0.8975584506988525,,,,,,,,
,person,0.8892116546630859,,,,,,,,
,cute,0.88657546043396,,,,,,,,
,drink,0.8852277994155884,,,,,,,,
,fun,0.885185956954956,,,,,,,,
https://scontent.cdninstagram.com/t51.2885-15/e35/13394877_760331830776411_1658063139_n.jpg,street,0.9950096011161804,Relationships,Travel,,,"Best friends",Travel-s,,
,city,0.9882237315177917,,,,,,,,
,people,0.9840589761734009,,,,,,,,
,road,0.972266435623169,,,,,,,,
,woman,0.9646391868591309,,,,,,,,
,pavement,0.956526517868042,,,,,,,,
,man,0.9498924016952515,,,,,,,,
,shopping,0.9430614113807678,,,,,,,,
,child,0.9415974617004395,,,,,,,,
,rally,0.931912899017334,,,,,,,,
,battle,0.9226434826850891,,,,,,,,
,offense,0.9197044372558594,,,,,,,,
,police,0.9149136543273926,,,,,,,,
,group,0.9042656421661377,,,,,,,,
,adult,0.89741051197052,,,,,,,,
,school,0.893748939037323,,,,,,,,
,luggage,0.8733838796615601,,,,,,,,
,festival,0.8714134693145752,,,,,,,,
,urban,0.8681058883666992,,,,,,,,
,motion,0.8625917434692383,,,,,,,,
https://scontent.cdninstagram.com/t51.2885-15/s750x750/sh0.08/e35/13423691_1053850991352488_648507168_n.jpg,group,0.9900989532470703,Relationships,"My life",Commerce,,Friends,"Here I am","Product/brand shots",
,child,0.9806572794914246,,,,,,,,
,group,0.9756207466125488,,,,,,,,
,woman,0.9580641984939575,,,,,,,,
,friendship,0.9566776156425476,,,,,,,,
,people,0.9557482004165649,,,,,,,,
,fun,0.9352048635482788,,,,,,,,
,education,0.9345356225967407,,,,,,,,
,school,0.9339877963066101,,,,,,,,
,adolescent,0.9186845421791077,,,,,,,,
,student,0.9174191951751709,,,,,,,,
,laughing,0.90859055519104,,,,,,,,
,man,0.9018852114677429,,,,,,,,
,portrait,0.8784530162811279,,,,,,,,
,many,0.8675651550292969,,,,,,,,
,happiness,0.859368085861206,,,,,,,,
,togetherness,0.8394339084625244,,,,,,,,
,adult,0.8330507278442383,,,,,,,,
,enjoyment,0.8326377868652344,,,,,,,,
,youth,0.8325691223144531,,,,,,,,
https://scontent.cdninstagram.com/t51.2885-15/e35/13129475_1001008236657669_289753265_n.jpg,meal,0.9908149242401123,Food,,,,"Meal time",,,
,food,0.9906359910964966,,,,,,,,
,knife,0.9863198399543762,,,,,,,,
,cooking,0.9833869934082031,,,,,,,,
,lunch,0.9773789644241333,,,,,,,,
,woman,0.9751732349395752,,,,,,,,
,salad,0.9729514122009277,,,,,,,,
,adult,0.9618445634841919,,,,,,,,
,table,0.9607964754104614,,,,,,,,
,lifestyle,0.950965166091919,,,,,,,,
,indoors,0.9491113424301147,,,,,,,,
,people,0.9484005570411682,,,,,,,,
,dinner,0.9436343312263489,,,,,,,,
,vegetable,0.9426835775375366,,,,,,,,
,bowl,0.9399962425231934,,,,,,,,
,chef,0.9361733198165894,,,,,,,,
,preparation,0.9332911968231201,,,,,,,,
,breakfast,0.9324039816856384,,,,,,,,
,plate,0.9210875630378723,,,,,,,,
,restaurant,0.9201191067695618,,,,,,,,
https://scontent.cdninstagram.com/t51.2885-15/e35/13167393_1599646977013015_928025764_n.jpg,snooker,0.9999774694442749,Recreation,"My life",,,Recreation-s,Doing,,
,cue,0.9999727010726929,,,,,,,,
,pool,0.9999248385429382,,,,,,,,
,recreation,0.999699592590332,,,,,,,,
,leisure,0.9991320967674255,,,,,,,,
,game,0.9986850023269653,,,,,,,,
,play,0.9983490705490112,,,,,,,,
,mat,0.998131513595581,,,,,,,,
,club,0.9968888163566589,,,,,,,,
,sport,0.9957833886146545,,,,,,,,
,gambling,0.9921956658363342,,,,,,,,
,fun,0.980919361114502,,,,,,,,
,ball,0.9736653566360474,,,,,,,,
,competition,0.9707357883453369,,,,,,,,
,casino,0.9560133218765259,,,,,,,,
,two,0.9427776336669922,,,,,,,,
,chance,0.9199575185775757,,,,,,,,
,one,0.9040441513061523,,,,,,,,
,table,0.9020082354545593,,,,,,,,
,bar,0.8984349966049194,,,,,,,,
https://scontent.cdninstagram.com/t51.2885-15/e35/13402647_1791550594431858_300139264_n.jpg,people,0.9931020736694336,Relationships,,,,"Best friends",,,
,woman,0.9818776249885559,,,,,,,,
,adult,0.9815194606781006,,,,,,,,
,two,0.9815148711204529,,,,,,,,
,"facial expression",0.981258749961853,,,,,,,,
,man,0.9790315628051758,,,,,,,,
,wear,0.9778757691383362,,,,,,,,
,group,0.9748194813728333,,,,,,,,
,portrait,0.9690320491790771,,,,,,,,
,three,0.9394028186798096,,,,,,,,
,indoors,0.9349417090415955,,,,,,,,
,happiness,0.9066597819328308,,,,,,,,
,eyeglasses,0.8951359987258911,,,,,,,,
,family,0.8884313106536865,,,,,,,,
,eyewear,0.8729273080825806,,,,,,,,
,"medical practitioner",0.839558482170105,,,,,,,,
,healthcare,0.8303029537200928,,,,,,,,
,togetherness,0.816828727722168,,,,,,,,
,enjoyment,0.8137927055358887,,,,,,,,
,room,0.8127120733261108,,,,,,,,
https://scontent.cdninstagram.com/t51.2885-15/e35/13261054_1819359014961178_1203357496_n.jpg,exhibition,0.972731351852417,"My life","Fashion & Beauty",,,"Here I am",Ootd,,
,indoors,0.9655946493148804,,,,,,,,
,modern,0.9569072127342224,,,,,,,,
,fashion,0.9558547735214233,,,,,,,,
,room,0.9548127055168152,,,,,,,,
,lifestyle,0.942533016204834,,,,,,,,
,woman,0.9424572587013245,,,,,,,,
,beautiful,0.9409641027450562,,,,,,,,
,adult,0.931812047958374,,,,,,,,
,people,0.9307893514633179,,,,,,,,
,model,0.9263973236083984,,,,,,,,
,design,0.9262634515762329,,,,,,,,
,style,0.9211399555206299,,,,,,,,
,inside,0.9047147631645203,,,,,,,,
,business,0.8959978818893433,,,,,,,,
,table,0.8871893882751465,,,,,,,,
,furniture,0.886410117149353,,,,,,,,
,family,0.8839400410652161,,,,,,,,
,museum,0.8837532997131348,,,,,,,,
,chair,0.8821796178817749,,,,,,,,
https://scontent.cdninstagram.com/t51.2885-15/e35/13102322_1282763195086443_4018436_n.jpg,food,0.9933019876480103,Food,,,,"Meal time",,,
,"no person",0.9902037382125854,,,,,,,,
,meat,0.9865595102310181,,,,,,,,
,dinner,0.9611775279045105,,,,,,,,
,delicious,0.959348201751709,,,,,,,,
,beef,0.9565560221672058,,,,,,,,
,pork,0.933566689491272,,,,,,,,
,cooking,0.9259287714958191,,,,,,,,
,meal,0.9181963205337524,,,,,,,,
,steak,0.9014129042625427,,,,,,,,
,grow,0.8880913853645325,,,,,,,,
,epicure,0.8751292824745178,,,,,,,,
,lamb,0.86971116065979,,,,,,,,
,dish,0.862371563911438,,,,,,,,
,closeup,0.8558366298675537,,,,,,,,
,vegetable,0.8545345664024353,,,,,,,,
,lunch,0.8437807559967041,,,,,,,,
,plate,0.8436102867126465,,,,,,,,
,blood,0.8334622383117676,,,,,,,,
,dry,0.8329724073410034,,,,,,,,
https://scontent.cdninstagram.com/t51.2885-15/s640x640/e15/13392810_199592613771710_917611856_n.jpg,people,0.9888511896133423,"Fashion & Beauty","My life",,,"My look",Selfie,,
,portrait,0.9822875261306763,,,,,,,,
,adult,0.9806294441223145,,,,,,,,
,one,0.9677724838256836,,,,,,,,
,indoors,0.917203426361084,,,,,,,,
,woman,0.9160566329956055,,,,,,,,
,man,0.9026700258255005,,,,,,,,
,education,0.8922041654586792,,,,,,,,
,business,0.8782395124435425,,,,,,,,
,"facial expression",0.8650089502334595,,,,,,,,
,technology,0.8603305220603943,,,,,,,,
,wear,0.8585004806518555,,,,,,,,
,child,0.852461576461792,,,,,,,,
,room,0.8511936664581299,,,,,,,,
,school,0.8483970761299133,,,,,,,,
,girl,0.8391653299331665,,,,,,,,
,lifestyle,0.825547993183136,,,,,,,,
,computer,0.815697193145752,,,,,,,,
,office,0.7988923788070679,,,,,,,,
,happiness,0.7943465709686279,,,,,,,,
https://scontent.cdninstagram.com/t51.2885-15/e35/13329196_1740007659588863_769581313_n.jpg,footwear,0.9998085498809814,Commerce,"Fashion & Beauty",,,"Product/brand shots","Fashion & Beauty-s",,
,foot,0.9996998310089111,,,,,,,,
,shoe,0.9995507001876831,,,,,,,,
,sneakers,0.9964137673377991,,,,,,,,
,fashion,0.989960789680481,,,,,,,,
,couple,0.986614465713501,,,,,,,,
,wear,0.9865476489067078,,,,,,,,
,woman,0.9799631834030151,,,,,,,,
,people,0.9723432064056396,,,,,,,,
,casual,0.9586700797080994,,,,,,,,
,girl,0.9584159851074219,,,,,,,,
,leather,0.9560622572898865,,,,,,,,
,sole,0.9543932676315308,,,,,,,,
,two,0.9514791965484619,,,,,,,,
,sandal,0.95103919506073,,,,,,,,
,toe,0.9388031959533691,,,,,,,,
,classic,0.9384781122207642,,,,,,,,
,child,0.937040388584137,,,,,,,,
,barefoot,0.929973840713501,,,,,,,,
,lace,0.9281797409057617,,,,,,,,
https://scontent.cdninstagram.com/t51.2885-15/e35/13380960_1743347722574733_1856366352_n.jpg,shopping,0.9999451041221619,"My life","Fashion & Beauty",Technology,,Doing,"My look",Technology-s,
,stock,0.9999318718910217,,,,,,,,
,shop,0.999862551689148,,,,,,,,
,boutique,0.9996258020401001,,,,,,,,
,mall,0.9995210766792297,,,,,,,,
,sale,0.9991413354873657,,,,,,,,
,bargain,0.9978274703025818,,,,,,,,
,shopper,0.9967789053916931,,,,,,,,
,commerce,0.9965464472770691,,,,,,,,
,market,0.9954861998558044,,,,,,,,
,wear,0.995422899723053,,,,,,,,
,merchandise,0.9954013824462891,,,,,,,,
,mannequin,0.993965744972229,,,,,,,,
,fashion,0.9918750524520874,,,,,,,,
,hanger,0.9862769246101379,,,,,,,,
,purchase,0.9847772121429443,,,,,,,,
,bag,0.9832211136817932,,,,,,,,
,exhibition,0.9831031560897827,,,,,,,,
,buyer,0.9824694991111755,,,,,,,,
,people,0.9796411991119385,,,,,,,,
https://scontent.cdninstagram.com/t51.2885-15/e35/13257149_471620193034106_1820708978_n.jpg,people,0.9812026023864746,Relationships,"My life",Commerce,,Friends,"Here I am","Product/brand shots",
,group,0.9644400477409363,,,,,,,,
,"facial expression",0.9581301212310791,,,,,,,,
,recreation,0.9513044357299805,,,,,,,,
,child,0.9328720569610596,,,,,,,,
,music,0.9274442195892334,,,,,,,,
,woman,0.9188809394836426,,,,,,,,
,wear,0.9160199165344238,,,,,,,,
,adult,0.912261426448822,,,,,,,,
,musician,0.8997852802276611,,,,,,,,
,portrait,0.8973311185836792,,,,,,,,
,many,0.8912097215652466,,,,,,,,
,festival,0.8772871494293213,,,,,,,,
,singer,0.8656202554702759,,,,,,,,
,group,0.833442211151123,,,,,,,,
,room,0.8195148706436157,,,,,,,,
,man,0.8146649599075317,,,,,,,,
,enjoyment,0.8065717220306396,,,,,,,,
,ceremony,0.8001110553741455,,,,,,,,
,family,0.7937041521072388,,,,,,,,
https://scontent.cdninstagram.com/t51.2885-15/e35/13381320_1565951620365544_1294318862_n.jpg,people,0.9919793009757996,Business,,,,Work,,,
,group,0.9550411105155945,,,,,,,,
,adult,0.937635600566864,,,,,,,,
,festival,0.9347349405288696,,,,,,,,
,class,0.9262588024139404,,,,,,,,
,journalist,0.9179660081863403,,,,,,,,
,recreation,0.9164575934410095,,,,,,,,
,education,0.9155375957489014,,,,,,,,
,exhibition,0.9104167222976685,,,,,,,,
,woman,0.9072244763374329,,,,,,,,
,man,0.904526948928833,,,,,,,,
,club,0.8888295888900757,,,,,,,,
,performance,0.8860214948654175,,,,,,,,
,energy,0.8858346939086914,,,,,,,,
,carnival,0.8729801177978516,,,,,,,,
,school,0.8717018961906433,,,,,,,,
,room,0.8702843189239502,,,,,,,,
,indoors,0.8677924871444702,,,,,,,,
,teacher,0.8670943379402161,,,,,,,,
,show,0.8564611673355103,,,,,,,,
https://scontent.cdninstagram.com/t51.2885-15/e15/13249772_239658549744095_771156353_n.jpg,industry,0.9821306467056274,Food,,,,"Drinks and snack",,,
,indoors,0.9782774448394775,,,,,,,,
,drink,0.975082516670227,,,,,,,,
,restaurant,0.9709372520446777,,,,,,,,
,technology,0.9687151312828064,,,,,,,,
,computer,0.9662165641784668,,,,,,,,
,stock,0.9605700969696045,,,,,,,,
,table,0.9587686061859131,,,,,,,,
,production,0.9586156010627747,,,,,,,,
,business,0.9502581357955933,,,,,,,,
,bar,0.9483475685119629,,,,,,,,
,food,0.9388982653617859,,,,,,,,
,service,0.934576153755188,,,,,,,,
,display,0.9313622713088989,,,,,,,,
,counter,0.9240274429321289,,,,,,,,
,people,0.9204733371734619,,,,,,,,
,wine,0.9057763814926147,,,,,,,,
,room,0.9034891128540039,,,,,,,,
,bottle,0.8980388045310974,,,,,,,,
,party,0.8944919109344482,,,,,,,,
https://scontent.cdninstagram.com/t51.2885-15/e35/13329029_270267079992152_552204922_n.jpg,food,0.9946171641349792,Food,,,,"Meal time",,,
,"no person",0.974589467048645,,,,,,,,
,dish,0.9696488380432129,,,,,,,,
,meal,0.9666388630867004,,,,,,,,
,delicious,0.9644293785095215,,,,,,,,
,meat,0.9540690183639526,,,,,,,,
,cooking,0.9478314518928528,,,,,,,,
,dinner,0.9474178552627563,,,,,,,,
,vegetable,0.94545578956604,,,,,,,,
,bowl,0.9391812682151794,,,,,,,,
,lunch,0.9348941445350647,,,,,,,,
,grow,0.9282233715057373,,,,,,,,
,"dairy product",0.9192221164703369,,,,,,,,
,pork,0.904028058052063,,,,,,,,
,hot,0.9022549390792847,,,,,,,,
,plate,0.9013998508453369,,,,,,,,
,beef,0.8954104781150818,,,,,,,,
,sauce,0.8946642875671387,,,,,,,,
,kitchenware,0.8933522701263428,,,,,,,,
,nutrition,0.8843142986297607,,,,,,,,
https://scontent.cdninstagram.com/t51.2885-15/e35/13385598_247657405605812_1254743100_n.jpg,people,0.993890643119812,Relationships,,,,Friends,,,
,group,0.9928461313247681,,,,,,,,
,woman,0.9807635545730591,,,,,,,,
,"facial expression",0.9768726229667664,,,,,,,,
,adult,0.976302444934845,,,,,,,,
,girl,0.9642477035522461,,,,,,,,
,man,0.9629224538803101,,,,,,,,
,group,0.9599881172180176,,,,,,,,
,portrait,0.9576359987258911,,,,,,,,
,happiness,0.9555615782737732,,,,,,,,
,friendship,0.9508354663848877,,,,,,,,
,fun,0.9428970217704773,,,,,,,,
,wear,0.923696756362915,,,,,,,,
,laughing,0.9223307967185974,,,,,,,,
,child,0.9188326001167297,,,,,,,,
,family,0.9142223596572876,,,,,,,,
,festival,0.9122818112373352,,,,,,,,
,room,0.8983129262924194,,,,,,,,
,enjoyment,0.8982483148574829,,,,,,,,
,togetherness,0.8976441621780396,,,,,,,,
https://scontent.cdninstagram.com/t51.2885-15/e35/13188211_1688080581453987_1298846168_n.jpg,road,0.9945961833000183,Environment,Travel,,,"Natural beauty",Travel-s,,
,travel,0.9885916113853455,,,,,,,,
,landscape,0.9849691390991211,,,,,,,,
,highway,0.9843782186508179,,,,,,,,
,mountain,0.9814342260360718,,,,,,,,
,"no person",0.9774903059005737,,,,,,,,
,sky,0.9726043939590454,,,,,,,,
,asphalt,0.9553226232528687,,,,,,,,
,"transportation system",0.9454563856124878,,,,,,,,
,desert,0.9411157369613647,,,,,,,,
,outdoors,0.9383839964866638,,,,,,,,
,guidance,0.9247959852218628,,,,,,,,
,nature,0.9185723662376404,,,,,,,,
,daylight,0.8804407119750977,,,,,,,,
,car,0.8792180418968201,,,,,,,,
,hill,0.8784207105636597,,,,,,,,
,scenic,0.8750659227371216,,,,,,,,
,travel,0.8750444650650024,,,,,,,,
,travel,0.860274076461792,,,,,,,,
,street,0.8575005531311035,,,,,,,,
https://scontent.cdninstagram.com/t51.2885-15/e35/13150944_1085395261516536_1654992423_n.jpg,graph,0.9886263608932495,"My life",Travel,,,"Here I am",Travel-s,,
,map,0.9595485329627991,,,,,,,,
,education,0.9590326547622681,,,,,,,,
,paper,0.9554738998413086,,,,,,,,
,people,0.954789400100708,,,,,,,,
,school,0.9481870532035828,,,,,,,,
,diagram,0.947767436504364,,,,,,,,
,sign,0.9399206638336182,,,,,,,,
,wear,0.9377032518386841,,,,,,,,
,"facial expression",0.9368525743484497,,,,,,,,
,graphic,0.9121240377426147,,,,,,,,
,bill,0.9087694883346558,,,,,,,,
,portrait,0.9044004678726196,,,,,,,,
,room,0.9013683795928955,,,,,,,,
,girl,0.9001204967498779,,,,,,,,
,child,0.8993515968322754,,,,,,,,
,business,0.8945440053939819,,,,,,,,
,illustration,0.8942641615867615,,,,,,,,
,painting,0.8924337029457092,,,,,,,,
,vintage,0.8917661905288696,,,,,,,,
