url,class,score,,,,,,,,
https://scontent-sit4-1.cdninstagram.com/t51.2885-15/s750x750/sh0.08/e35/13098898_528192137387542_1845628769_n.jpg,illustration,0.9969699382781982,Arts,,,,Arts-s,,,
,vector,0.9957128167152405,,,,,,,,
,graphic,0.9843589067459106,,,,,,,,
,design,0.9759566187858582,,,,,,,,
,art,0.9751878976821899,,,,,,,,
,sketch,0.9616092443466187,,,,,,,,
,sketch,0.952720046043396,,,,,,,,
,love,0.9516420364379883,,,,,,,,
,retro,0.9420652985572815,,,,,,,,
,decoration,0.9213448166847229,,,,,,,,
,woman,0.9151465892791748,,,,,,,,
,desktop,0.9143038392066956,,,,,,,,
,style,0.8985379934310913,,,,,,,,
,silhouette,0.8967626690864563,,,,,,,,
,image,0.8810882568359375,,,,,,,,
,modern,0.8678703308105469,,,,,,,,
,card,0.8674331903457642,,,,,,,,
,cute,0.867205798625946,,,,,,,,
,floral,0.86435866355896,,,,,,,,
,shape,0.8564174771308899,,,,,,,,
https://scontent-sit4-1.cdninstagram.com/t51.2885-15/e35/13181403_167140127020481_457100789_n.jpg,child,0.9963821172714233,"Fun Filter",Relationships,,,"Fun Filter","Baby family",,
,girl,0.9802212119102478,,,,,,,,
,cute,0.9757587313652039,,,,,,,,
,portrait,0.973926305770874,,,,,,,,
,flower,0.9711443185806274,,,,,,,,
,innocence,0.9600540995597839,,,,,,,,
,little,0.9506879448890686,,,,,,,,
,eye,0.9417462944984436,,,,,,,,
,beautiful,0.9253137707710266,,,,,,,,
,woman,0.9240423440933228,,,,,,,,
,face,0.9169731140136719,,,,,,,,
,baby,0.912136435508728,,,,,,,,
,people,0.8930922746658325,,,,,,,,
,fun,0.8689202070236206,,,,,,,,
,nature,0.8639883399009705,,,,,,,,
,pretty,0.8601205945014954,,,,,,,,
,fashion,0.8550868034362793,,,,,,,,
,skin,0.840369462966919,,,,,,,,
,summer,0.8117852210998535,,,,,,,,
,hair,0.8045884370803833,,,,,,,,
https://scontent-sit4-1.cdninstagram.com/t51.2885-15/e35/13627973_638118096346691_1752295230_n.jpg,"facial expression",0.9949305057525635,Relationships,,,,"Young family",,,
,woman,0.9929147958755493,,,,,,,,
,togetherness,0.9906425476074219,,,,,,,,
,indoors,0.9833223819732666,,,,,,,,
,people,0.9817315340042114,,,,,,,,
,love,0.9780582189559937,,,,,,,,
,affection,0.9761813282966614,,,,,,,,
,wear,0.9758067727088928,,,,,,,,
,happiness,0.9693360328674316,,,,,,,,
,family,0.9688239097595215,,,,,,,,
,portrait,0.9681158065795898,,,,,,,,
,two,0.9676508903503418,,,,,,,,
,adult,0.950018048286438,,,,,,,,
,enjoyment,0.9499122500419617,,,,,,,,
,man,0.9452996253967285,,,,,,,,
,embrace,0.9270042181015015,,,,,,,,
,child,0.9206382036209106,,,,,,,,
,friendship,0.9204398393630981,,,,,,,,
,leisure,0.9152640104293823,,,,,,,,
,fun,0.9138331413269043,,,,,,,,
https://scontent-sit4-1.cdninstagram.com/t51.2885-15/e35/13267610_1760432124243713_620470934_n.jpg,baby,0.9996142387390137,Relationships,,,,"Baby family",,,
,newborn,0.9995294809341431,,,,,,,,
,child,0.9990724325180054,,,,,,,,
,boy,0.9935016632080078,,,,,,,,
,people,0.9918615818023682,,,,,,,,
,portrait,0.9900636672973633,,,,,,,,
,offspring,0.9884443283081055,,,,,,,,
,innocence,0.9882968664169312,,,,,,,,
,cover,0.9866397380828857,,,,,,,,
,bed,0.9818349480628967,,,,,,,,
,infancy,0.9805067181587219,,,,,,,,
,suckling,0.9800387024879456,,,,,,,,
,love,0.9774799346923828,,,,,,,,
,two,0.97185218334198,,,,,,,,
,girl,0.9666076898574829,,,,,,,,
,"facial expression",0.9663974046707153,,,,,,,,
,family,0.9593005180358887,,,,,,,,
,toddler,0.9576537609100342,,,,,,,,
,sleep,0.9544280767440796,,,,,,,,
,happiness,0.9422479867935181,,,,,,,,
https://scontent-sit4-1.cdninstagram.com/t51.2885-15/e35/13385747_1615672948748331_218882643_n.jpg,dog,0.9999229907989502,Animals,,,,Animals-s,,,
,canine,0.9987728595733643,,,,,,,,
,pet,0.9985924959182739,,,,,,,,
,mammal,0.9961448311805725,,,,,,,,
,puppy,0.9944049119949341,,,,,,,,
,animal,0.9791061878204346,,,,,,,,
,portrait,0.973344087600708,,,,,,,,
,one,0.9622600078582764,,,,,,,,
,cute,0.954658031463623,,,,,,,,
,domestic,0.9383252859115601,,,,,,,,
,terrier,0.9261882305145264,,,,,,,,
,friendship,0.9099106788635254,,,,,,,,
,funny,0.8970502018928528,,,,,,,,
,puppy,0.8882112503051758,,,,,,,,
,indoors,0.8800677061080933,,,,,,,,
,little,0.8784297108650208,,,,,,,,
,"no person",0.8744472861289978,,,,,,,,
,breed,0.8735991716384888,,,,,,,,
,people,0.8721590042114258,,,,,,,,
,kennel,0.854248046875,,,,,,,,
https://scontent-sit4-1.cdninstagram.com/t51.2885-15/e35/13414386_1565787297048433_949536576_n.jpg,woman,0.9882768988609314,Relationships,,,,"Best friends",,,
,people,0.9872429370880127,,,,,,,,
,"facial expression",0.9860228300094604,,,,,,,,
,adult,0.9857447147369385,,,,,,,,
,man,0.98262619972229,,,,,,,,
,indoors,0.9714102745056152,,,,,,,,
,togetherness,0.9696873426437378,,,,,,,,
,happiness,0.9694079160690308,,,,,,,,
,two,0.9612908959388733,,,,,,,,
,enjoyment,0.9547910094261169,,,,,,,,
,wear,0.9436367750167847,,,,,,,,
,portrait,0.9374751448631287,,,,,,,,
,group,0.9371511936187744,,,,,,,,
,girl,0.9112960696220398,,,,,,,,
,friendship,0.9062429666519165,,,,,,,,
,child,0.896350622177124,,,,,,,,
,daylight,0.8865251541137695,,,,,,,,
,love,0.8840246200561523,,,,,,,,
,adolescent,0.8821917772293091,,,,,,,,
,family,0.8817771673202515,,,,,,,,
https://scontent-sit4-1.cdninstagram.com/t51.2885-15/e35/13385648_108227729600639_1431217580_n.jpg,dog,0.9993804693222046,Animals,,,,Pets,,,
,pet,0.9983989000320435,,,,,,,,
,canine,0.9950689077377319,,,,,,,,
,mammal,0.9944262504577637,,,,,,,,
,animal,0.9924499988555908,,,,,,,,
,cute,0.992214560508728,,,,,,,,
,puppy,0.9916476607322693,,,,,,,,
,little,0.9882628917694092,,,,,,,,
,sit,0.9840850830078125,,,,,,,,
,portrait,0.9686472415924072,,,,,,,,
,tiny,0.9580798149108887,,,,,,,,
,puppy,0.9540591239929199,,,,,,,,
,breed,0.9463648796081543,,,,,,,,
,terrier,0.9453397989273071,,,,,,,,
,one,0.9404528737068176,,,,,,,,
,purebred,0.9347460865974426,,,,,,,,
,domestic,0.931911826133728,,,,,,,,
,adorable,0.9305312633514404,,,,,,,,
,studio,0.9303840398788452,,,,,,,,
,fur,0.922612726688385,,,,,,,,
https://scontent-sit4-1.cdninstagram.com/t51.2885-15/s480x480/e35/13413259_664104620396834_823411652_n.jpg,people,0.9902889728546143,Media,Entertainment,,,Media-s,Entertainment-s,,
,group,0.9608362913131714,,,,,,,,
,shopping,0.9549247026443481,,,,,,,,
,woman,0.9500882625579834,,,,,,,,
,stock,0.949386477470398,,,,,,,,
,man,0.9383991956710815,,,,,,,,
,child,0.9341980218887329,,,,,,,,
,market,0.9145416021347046,,,,,,,,
,adult,0.9140577912330627,,,,,,,,
,celebration,0.8880496621131897,,,,,,,,
,illustration,0.8866555690765381,,,,,,,,
,many,0.8602099418640137,,,,,,,,
,fun,0.854335367679596,,,,,,,,
,family,0.8507075309753418,,,,,,,,
,wear,0.8473832607269287,,,,,,,,
,indoors,0.8310708999633789,,,,,,,,
,performance,0.8259400725364685,,,,,,,,
,costume,0.823941171169281,,,,,,,,
,sketch,0.8208191394805908,,,,,,,,
,party,0.8055310249328613,,,,,,,,
https://scontent-sit4-1.cdninstagram.com/t51.2885-15/e35/13117953_1600484683575268_413273276_n.jpg,"facial expression",0.996143102645874,Relationships,,,,Friends,,,
,people,0.9926445484161377,,,,,,,,
,interaction,0.9899784326553345,,,,,,,,
,woman,0.9895181655883789,,,,,,,,
,man,0.9878958463668823,,,,,,,,
,portrait,0.9867157340049744,,,,,,,,
,group,0.9852989912033081,,,,,,,,
,two,0.9829872846603394,,,,,,,,
,adult,0.9829089045524597,,,,,,,,
,togetherness,0.974679708480835,,,,,,,,
,daylight,0.9623754620552063,,,,,,,,
,enjoyment,0.9594523906707764,,,,,,,,
,three,0.959114670753479,,,,,,,,
,happiness,0.9519257545471191,,,,,,,,
,wear,0.9373013377189636,,,,,,,,
,love,0.9359437227249146,,,,,,,,
,friendship,0.9242271780967712,,,,,,,,
,laughing,0.9235446453094482,,,,,,,,
,affection,0.911224365234375,,,,,,,,
,family,0.8933607935905457,,,,,,,,
https://scontent-sit4-1.cdninstagram.com/t51.2885-15/e35/12905234_799159336883172_500305746_n.jpg,"no person",0.9969101548194885,Food,,,,Dessert,,,
,delicious,0.9618411660194397,,,,,,,,
,sugar,0.9539347887039185,,,,,,,,
,food,0.9490323066711426,,,,,,,,
,sweet,0.9139622449874878,,,,,,,,
,indulgence,0.9137164354324341,,,,,,,,
,cream,0.9099349975585938,,,,,,,,
,breakfast,0.907915472984314,,,,,,,,
,health,0.9028832316398621,,,,,,,,
,ingredients,0.8965983390808105,,,,,,,,
,wood,0.88492751121521,,,,,,,,
,milk,0.8773559331893921,,,,,,,,
,indoors,0.8772110939025879,,,,,,,,
,baking,0.867202639579773,,,,,,,,
,candy,0.8591853380203247,,,,,,,,
,chocolate,0.8553152084350586,,,,,,,,
,nutrition,0.8515292406082153,,,,,,,,
,nature,0.8495826721191406,,,,,,,,
,homemade,0.8452195525169373,,,,,,,,
,bright,0.8428165912628174,,,,,,,,
https://scontent-sit4-1.cdninstagram.com/t51.2885-15/e35/13129752_1564240223871762_753658549_n.jpg,stock,0.9958882331848145,Commerce,Relationships,,,Shopping,Family,,
,wear,0.9928473234176636,,,,,,,,
,"facial expression",0.9841320514678955,,,,,,,,
,people,0.9826064705848694,,,,,,,,
,group,0.97060227394104,,,,,,,,
,shopping,0.9703549146652222,,,,,,,,
,exhibition,0.9670636653900146,,,,,,,,
,adult,0.9651764631271362,,,,,,,,
,woman,0.9626057147979736,,,,,,,,
,actress,0.9613211154937744,,,,,,,,
,room,0.9586760401725769,,,,,,,,
,child,0.955074667930603,,,,,,,,
,portrait,0.9515891075134277,,,,,,,,
,indoors,0.9489858150482178,,,,,,,,
,commerce,0.9475149512290955,,,,,,,,
,recreation,0.9410006999969482,,,,,,,,
,festival,0.9382603764533997,,,,,,,,
,happiness,0.9263080358505249,,,,,,,,
,shop,0.9179238080978394,,,,,,,,
,boutique,0.9105669856071472,,,,,,,,
https://scontent-sit4-1.cdninstagram.com/t51.2885-15/e35/13398506_240201069693110_1058270809_n.jpg,"no person",0.9474633932113647,Cute,,,,Cute,,,
,face,0.9373395442962646,,,,,,,,
,toy,0.9272462129592896,,,,,,,,
,fun,0.9138692617416382,,,,,,,,
,art,0.8908268213272095,,,,,,,,
,nature,0.8715064525604248,,,,,,,,
,mask,0.870846688747406,,,,,,,,
,symbol,0.8693253993988037,,,,,,,,
,funny,0.8502360582351685,,,,,,,,
,one,0.8475480675697327,,,,,,,,
,eye,0.8434520959854126,,,,,,,,
,isolated,0.8294932842254639,,,,,,,,
,head,0.82468581199646,,,,,,,,
,man,0.8172067403793335,,,,,,,,
,color,0.816851019859314,,,,,,,,
,illustration,0.8117437362670898,,,,,,,,
,cute,0.8007524013519287,,,,,,,,
,desktop,0.7934343218803406,,,,,,,,
,bright,0.7813829183578491,,,,,,,,
,humor,0.7665679454803467,,,,,,,,
https://scontent-sit4-1.cdninstagram.com/t51.2885-15/e35/13398817_548554655329162_266079439_n.jpg,"no person",0.973834753036499,Food,,,,Dessert,,,
,food,0.970041036605835,,,,,,,,
,drink,0.9253090620040894,,,,,,,,
,coffee,0.9039523601531982,,,,,,,,
,hot,0.9017657041549683,,,,,,,,
,cup,0.8976330161094666,,,,,,,,
,table,0.8914779424667358,,,,,,,,
,travel,0.8910175561904907,,,,,,,,
,flower,0.8828222751617432,,,,,,,,
,restaurant,0.8807346224784851,,,,,,,,
,blur,0.8557040691375732,,,,,,,,
,summer,0.8509435653686523,,,,,,,,
,breakfast,0.8488160371780396,,,,,,,,
,people,0.8354393839836121,,,,,,,,
,group,0.8334733247756958,,,,,,,,
,outdoors,0.8256988525390625,,,,,,,,
,sweet,0.8172487020492554,,,,,,,,
,"still life",0.8149784803390503,,,,,,,,
,vacation,0.8148357272148132,,,,,,,,
,delicious,0.8061244487762451,,,,,,,,
https://scontent-sit4-1.cdninstagram.com/t51.2885-15/s750x750/sh0.08/e35/13129542_1746062485676763_1685054505_n.jpg,cute,0.993984580039978,"My life",,,,"With me",,,
,dog,0.9878365993499756,,,,,,,,
,little,0.972545862197876,,,,,,,,
,animal,0.9690449237823486,,,,,,,,
,pet,0.9679166078567505,,,,,,,,
,young,0.9634394645690918,,,,,,,,
,fur,0.9574549794197083,,,,,,,,
,friendship,0.953497052192688,,,,,,,,
,love,0.9382216930389404,,,,,,,,
,woman,0.9355882406234741,,,,,,,,
,hair,0.9293957352638245,,,,,,,,
,pretty,0.9252443909645081,,,,,,,,
,looking,0.9203211069107056,,,,,,,,
,downy,0.9195349216461182,,,,,,,,
,sit,0.9098340272903442,,,,,,,,
,eye,0.9037119150161743,,,,,,,,
,puppy,0.9005306363105774,,,,,,,,
,indoors,0.8982727527618408,,,,,,,,
,portrait,0.8920831680297852,,,,,,,,
,fun,0.8822587132453918,,,,,,,,
https://scontent-sit4-1.cdninstagram.com/t51.2885-15/s750x750/sh0.08/e35/13671196_1627612874220445_1477193288_n.jpg,shopping,0.9752495288848877,Relationships,,,,"Best friends",,,
,stock,0.975013017654419,,,,,,,,
,woman,0.9740880131721497,,,,,,,,
,portrait,0.969269871711731,,,,,,,,
,people,0.9631431698799133,,,,,,,,
,"facial expression",0.9606072902679443,,,,,,,,
,happiness,0.9402059316635132,,,,,,,,
,togetherness,0.9236927032470703,,,,,,,,
,two,0.9195014238357544,,,,,,,,
,street,0.9125626087188721,,,,,,,,
,city,0.9068383574485779,,,,,,,,
,enjoyment,0.9007248878479004,,,,,,,,
,wear,0.8958196640014648,,,,,,,,
,fun,0.893863320350647,,,,,,,,
,adult,0.8923020362854004,,,,,,,,
,indoors,0.879585862159729,,,,,,,,
,man,0.8545149564743042,,,,,,,,
,friendship,0.8535662889480591,,,,,,,,
,laughing,0.8507177233695984,,,,,,,,
,urban,0.8430600166320801,,,,,,,,
https://scontent-sit4-1.cdninstagram.com/t51.2885-15/e35/13694641_1098549930211351_1722886581_n.jpg,woman,0.9965207576751709,"Fun Filter",Relationships,,,"Fun Filter","Best friends",,
,girl,0.993480384349823,,,,,,,,
,portrait,0.993050217628479,,,,,,,,
,skin,0.990486741065979,,,,,,,,
,face,0.9797415733337402,,,,,,,,
,fashion,0.9778603315353394,,,,,,,,
,model,0.9768378734588623,,,,,,,,
,glamour,0.9730474352836609,,,,,,,,
,eye,0.9581204056739807,,,,,,,,
,sexy,0.957123339176178,,,,,,,,
,beautiful,0.9565243721008301,,,,,,,,
,nude,0.9518046379089355,,,,,,,,
,brunette,0.9468467235565186,,,,,,,,
,adult,0.9406875371932983,,,,,,,,
,hairdo,0.9368124008178711,,,,,,,,
,clean,0.9336450099945068,,,,,,,,
,pretty,0.9165416955947876,,,,,,,,
,hair,0.9135392904281616,,,,,,,,
,one,0.9122071266174316,,,,,,,,
,lips,0.9106890559196472,,,,,,,,
https://scontent-sit4-1.cdninstagram.com/t51.2885-15/e35/12599543_1103671696363656_1602655713_n.jpg,people,0.9330852031707764,Cute,,,,Cute,,,
,woman,0.9259543418884277,,,,,,,,
,"no person",0.8812034726142883,,,,,,,,
,family,0.877193033695221,,,,,,,,
,indoors,0.8619953393936157,,,,,,,,
,girl,0.8492298126220703,,,,,,,,
,adult,0.8354800939559937,,,,,,,,
,young,0.8340827226638794,,,,,,,,
,retro,0.8303869962692261,,,,,,,,
,traditional,0.8285805583000183,,,,,,,,
,child,0.828025221824646,,,,,,,,
,inside,0.8047051429748535,,,,,,,,
,man,0.7964457273483276,,,,,,,,
,food,0.7716513872146606,,,,,,,,
,design,0.7648493051528931,,,,,,,,
,one,0.7618075609207153,,,,,,,,
,desktop,0.7454994916915894,,,,,,,,
,house,0.7411132454872131,,,,,,,,
,elegant,0.7380571365356445,,,,,,,,
,love,0.7335891127586365,,,,,,,,
https://scontent-sit4-1.cdninstagram.com/t51.2885-15/e35/13116760_1038230732898284_1667056851_n.jpg,woman,0.9917460680007935,"Fun Filter","My life",,,"Fun Filter",Selfie,,
,fashion,0.9904791712760925,,,,,,,,
,cute,0.976652979850769,,,,,,,,
,eye,0.9733824729919434,,,,,,,,
,glamour,0.9709748029708862,,,,,,,,
,girl,0.9601288437843323,,,,,,,,
,pretty,0.9542205333709717,,,,,,,,
,portrait,0.9532285928726196,,,,,,,,
,skin,0.9474589824676514,,,,,,,,
,hair,0.9426543712615967,,,,,,,,
,model,0.92709881067276,,,,,,,,
,elegant,0.9266506433486938,,,,,,,,
,sexy,0.924087643623352,,,,,,,,
,young,0.9023785591125488,,,,,,,,
,beautiful,0.8932262659072876,,,,,,,,
,lips,0.8915504217147827,,,,,,,,
,face,0.8716808557510376,,,,,,,,
,wreath,0.8365666270256042,,,,,,,,
,nature,0.8170719146728516,,,,,,,,
,child,0.8163143396377563,,,,,,,,
https://scontent-sit4-1.cdninstagram.com/t51.2885-15/e35/13707315_612424072273932_1543373374_n.jpg,beach,0.9963303804397583,Relationships,Recreation,,,"Best friends",Beach,,
,love,0.9876554608345032,,,,,,,,
,water,0.9870765209197998,,,,,,,,
,sea,0.9856284260749817,,,,,,,,
,togetherness,0.9831069111824036,,,,,,,,
,two,0.9812088012695312,,,,,,,,
,people,0.9808616638183594,,,,,,,,
,ocean,0.9784283638000488,,,,,,,,
,seashore,0.9783100485801697,,,,,,,,
,man,0.9671564102172852,,,,,,,,
,affection,0.9558475017547607,,,,,,,,
,sand,0.9546193480491638,,,,,,,,
,woman,0.95231032371521,,,,,,,,
,vacation,0.9473870992660522,,,,,,,,
,fun,0.9462544918060303,,,,,,,,
,"facial expression",0.9460399150848389,,,,,,,,
,travel,0.9432255029678345,,,,,,,,
,enjoyment,0.9426600933074951,,,,,,,,
,happiness,0.9416823387145996,,,,,,,,
,child,0.9374365210533142,,,,,,,,
https://scontent-sit4-1.cdninstagram.com/t51.2885-15/e35/13126835_1769362649959986_1371644326_n.jpg,woman,0.9793412089347839,Relationships,Celebrations,Food,,"Young family","Personal Events",Dessert,
,people,0.9763074517250061,,,,,,,,
,child,0.9673280119895935,,,,,,,,
,family,0.967127799987793,,,,,,,,
,man,0.9555709362030029,,,,,,,,
,fun,0.9514602422714233,,,,,,,,
,love,0.9500592947006226,,,,,,,,
,adult,0.9482694268226624,,,,,,,,
,togetherness,0.9434611797332764,,,,,,,,
,group,0.9302480220794678,,,,,,,,
,portrait,0.9074082374572754,,,,,,,,
,two,0.9061881303787231,,,,,,,,
,festival,0.9056791067123413,,,,,,,,
,education,0.9004950523376465,,,,,,,,
,girl,0.9004424810409546,,,,,,,,
,celebration,0.8911081552505493,,,,,,,,
,enjoyment,0.8852489590644836,,,,,,,,
,happiness,0.8840543627738953,,,,,,,,
,friendship,0.8593928217887878,,,,,,,,
,indoors,0.8564432859420776,,,,,,,,
https://scontent-sit4-1.cdninstagram.com/t51.2885-15/e35/13394935_1021819744570513_925681088_n.jpg,creativity,0.9839463829994202,Food,,,,Dessert,,,
,color,0.9772130846977234,,,,,,,,
,brush,0.966243326663971,,,,,,,,
,rainbow,0.9606847167015076,,,,,,,,
,bright,0.9594408869743347,,,,,,,,
,motley,0.9573644399642944,,,,,,,,
,palette,0.9469925165176392,,,,,,,,
,art,0.9446508884429932,,,,,,,,
,handmade,0.9429941773414612,,,,,,,,
,color,0.9376249313354492,,,,,,,,
,pastel,0.9358952641487122,,,,,,,,
,desktop,0.927288293838501,,,,,,,,
,painting,0.9257760643959045,,,,,,,,
,"no person",0.9220086336135864,,,,,,,,
,candy,0.8984386920928955,,,,,,,,
,artistic,0.8924122452735901,,,,,,,,
,sugar,0.8918571472167969,,,,,,,,
,decoration,0.8906837701797485,,,,,,,,
,kind,0.8671932220458984,,,,,,,,
,child,0.8659757375717163,,,,,,,,
https://scontent-sit4-1.cdninstagram.com/t51.2885-15/e35/1169105_1574348396224967_1411735788_n.jpg,pet,0.9954795837402344,"My life",,,,"With me",,,
,dog,0.9952684640884399,,,,,,,,
,car,0.9835495352745056,,,,,,,,
,mammal,0.9807289838790894,,,,,,,,
,canine,0.9789330959320068,,,,,,,,
,one,0.9757772088050842,,,,,,,,
,cute,0.9675761461257935,,,,,,,,
,animal,0.9669485092163086,,,,,,,,
,puppy,0.958730936050415,,,,,,,,
,vehicle,0.9510982036590576,,,,,,,,
,little,0.9496093988418579,,,,,,,,
,portrait,0.935285210609436,,,,,,,,
,domestic,0.9343585968017578,,,,,,,,
,owner,0.9164119958877563,,,,,,,,
,adorable,0.907599687576294,,,,,,,,
,funny,0.9063997268676758,,,,,,,,
,people,0.9049960970878601,,,,,,,,
,young,0.9043761491775513,,,,,,,,
,outdoors,0.8984854221343994,,,,,,,,
,looking,0.8907138109207153,,,,,,,,
https://scontent-sit4-1.cdninstagram.com/t51.2885-15/e35/13248933_290106244657312_1044011700_n.jpg,pet,0.9928357601165771,Animals,,,,Pets,,,
,dog,0.9796314239501953,,,,,,,,
,animal,0.9773837327957153,,,,,,,,
,mammal,0.9744533896446228,,,,,,,,
,cute,0.9737521409988403,,,,,,,,
,domestic,0.9670640230178833,,,,,,,,
,portrait,0.9620774984359741,,,,,,,,
,one,0.9449735879898071,,,,,,,,
,sit,0.9421514272689819,,,,,,,,
,canine,0.9341771602630615,,,,,,,,
,young,0.932934045791626,,,,,,,,
,little,0.9167143106460571,,,,,,,,
,puppy,0.8892048001289368,,,,,,,,
,adorable,0.8758596181869507,,,,,,,,
,sleep,0.845879316329956,,,,,,,,
,downy,0.8402621150016785,,,,,,,,
,looking,0.8401015996932983,,,,,,,,
,"no person",0.8367329835891724,,,,,,,,
,desktop,0.8337686657905579,,,,,,,,
,breed,0.8335750699043274,,,,,,,,
https://scontent-sit4-1.cdninstagram.com/t51.2885-15/e35/13129356_487936231415750_336895650_n.jpg,child,0.9955233335494995,Relationships,,,,"Young family",,,
,"facial expression",0.9939950704574585,,,,,,,,
,indoors,0.9934037923812866,,,,,,,,
,togetherness,0.9895442724227905,,,,,,,,
,people,0.9866464734077454,,,,,,,,
,two,0.9845118522644043,,,,,,,,
,family,0.9833086133003235,,,,,,,,
,enjoyment,0.9826995134353638,,,,,,,,
,woman,0.982067346572876,,,,,,,,
,room,0.9752042293548584,,,,,,,,
,happiness,0.9741207957267761,,,,,,,,
,adult,0.9651693105697632,,,,,,,,
,man,0.9626855850219727,,,,,,,,
,offspring,0.9619031548500061,,,,,,,,
,three,0.9617302417755127,,,,,,,,
,fun,0.9599660634994507,,,,,,,,
,furniture,0.9532581567764282,,,,,,,,
,education,0.9517219066619873,,,,,,,,
,daylight,0.9516551494598389,,,,,,,,
,group,0.9502290487289429,,,,,,,,
https://scontent-sit4-1.cdninstagram.com/t51.2885-15/e35/13381427_1748816455397539_1937129470_n.jpg,woman,0.9906916618347168,"Fun Filter",Relationships,,,"Fun Filter",Friends,,
,portrait,0.9873520731925964,,,,,,,,
,fashion,0.9868066310882568,,,,,,,,
,glamour,0.9792909622192383,,,,,,,,
,lipstick,0.9673913717269897,,,,,,,,
,people,0.9631541967391968,,,,,,,,
,lips,0.9614478945732117,,,,,,,,
,girl,0.9608734846115112,,,,,,,,
,one,0.9593888521194458,,,,,,,,
,eye,0.9504300355911255,,,,,,,,
,model,0.9448489546775818,,,,,,,,
,adult,0.9407234787940979,,,,,,,,
,face,0.937448263168335,,,,,,,,
,"facial expression",0.9150797128677368,,,,,,,,
,pretty,0.8613468408584595,,,,,,,,
,cute,0.854897141456604,,,,,,,,
,skin,0.8480961322784424,,,,,,,,
,sexy,0.832365870475769,,,,,,,,
,look,0.8295931816101074,,,,,,,,
,fashionable,0.8095080852508545,,,,,,,,
https://scontent-sit4-1.cdninstagram.com/t51.2885-15/e35/13248900_1082553478471910_110993343_n.jpg,woman,0.9926652908325195,"My life",,,,Selfie,,,
,fashion,0.9693386554718018,,,,,,,,
,portrait,0.9648863077163696,,,,,,,,
,one,0.9626948833465576,,,,,,,,
,wear,0.9539926052093506,,,,,,,,
,adult,0.9539490342140198,,,,,,,,
,people,0.9410958290100098,,,,,,,,
,girl,0.9154996871948242,,,,,,,,
,model,0.9137680530548096,,,,,,,,
,pretty,0.8975486755371094,,,,,,,,
,sexy,0.8871380090713501,,,,,,,,
,cute,0.8764289617538452,,,,,,,,
,adolescent,0.8727236986160278,,,,,,,,
,indoors,0.8368626832962036,,,,,,,,
,glamour,0.817894458770752,,,,,,,,
,young,0.8176418542861938,,,,,,,,
,brunette,0.8163495659828186,,,,,,,,
,beautiful,0.8114783763885498,,,,,,,,
,recreation,0.8086069226264954,,,,,,,,
,looking,0.8007618188858032,,,,,,,,
https://scontent-sit4-1.cdninstagram.com/t51.2885-15/s750x750/sh0.08/e35/13320101_1736304189945463_496245092_n.jpg,love,0.9886314868927002,Relationships,,,,"Young family",,,
,affection,0.9823559522628784,,,,,,,,
,togetherness,0.9789990186691284,,,,,,,,
,two,0.9766395688056946,,,,,,,,
,people,0.9740400314331055,,,,,,,,
,embrace,0.9726226329803467,,,,,,,,
,portrait,0.9721242189407349,,,,,,,,
,man,0.9613296985626221,,,,,,,,
,woman,0.950093150138855,,,,,,,,
,"facial expression",0.9276406764984131,,,,,,,,
,interaction,0.9249775409698486,,,,,,,,
,happiness,0.9218130111694336,,,,,,,,
,fun,0.9049599766731262,,,,,,,,
,outdoors,0.898393988609314,,,,,,,,
,romance,0.8965808153152466,,,,,,,,
,girl,0.8877184391021729,,,,,,,,
,adult,0.8862087726593018,,,,,,,,
,couple,0.8707979917526245,,,,,,,,
,wear,0.8458598852157593,,,,,,,,
,laughing,0.8439062833786011,,,,,,,,
https://scontent-sit4-1.cdninstagram.com/t51.2885-15/e35/13129857_1725142981031045_337142512_n.jpg,people,0.992599368095398,Relationships,,,,"Baby family",,,
,child,0.9904919862747192,,,,,,,,
,girl,0.9898809790611267,,,,,,,,
,portrait,0.9858770370483398,,,,,,,,
,baby,0.9850567579269409,,,,,,,,
,room,0.9737467169761658,,,,,,,,
,adult,0.9718167781829834,,,,,,,,
,bed,0.964364767074585,,,,,,,,
,woman,0.9608108997344971,,,,,,,,
,boy,0.9596624374389648,,,,,,,,
,family,0.9594978094100952,,,,,,,,
,offspring,0.9515140056610107,,,,,,,,
,two,0.9491653442382812,,,,,,,,
,newborn,0.9434163570404053,,,,,,,,
,love,0.9358590841293335,,,,,,,,
,"facial expression",0.9115383625030518,,,,,,,,
,one,0.899107813835144,,,,,,,,
,medicine,0.890167236328125,,,,,,,,
,healthcare,0.8900829553604126,,,,,,,,
,furniture,0.8892403841018677,,,,,,,,
https://scontent-sit4-1.cdninstagram.com/t51.2885-15/sh0.08/e35/p750x750/13551681_1736221636661264_502446984_n.jpg,sunglasses,0.9944566488265991,"My life",,,,"With me",,,
,cute,0.9838371276855469,,,,,,,,
,friendship,0.9833742380142212,,,,,,,,
,woman,0.9807411432266235,,,,,,,,
,dog,0.9782564640045166,,,,,,,,
,young,0.9780902862548828,,,,,,,,
,love,0.9773817658424377,,,,,,,,
,summer,0.973469614982605,,,,,,,,
,fun,0.9732215404510498,,,,,,,,
,portrait,0.9669542908668518,,,,,,,,
,little,0.9566836357116699,,,,,,,,
,togetherness,0.948676347732544,,,,,,,,
,girl,0.9465723037719727,,,,,,,,
,pet,0.9265453815460205,,,,,,,,
,beautiful,0.9168229103088379,,,,,,,,
,funny,0.9038719534873962,,,,,,,,
,looking,0.8938306570053101,,,,,,,,
,people,0.8916061520576477,,,,,,,,
,joy,0.8889024257659912,,,,,,,,
,nature,0.8867828845977783,,,,,,,,
https://scontent-sit4-1.cdninstagram.com/t51.2885-15/sh0.08/e35/p750x750/13423626_1717993968468702_679615251_n.jpg,"facial expression",0.9939051270484924,Relationships,,,,"Best friends",,,
,togetherness,0.992749810218811,,,,,,,,
,love,0.9919551014900208,,,,,,,,
,people,0.9905588626861572,,,,,,,,
,woman,0.9876927137374878,,,,,,,,
,portrait,0.9848397970199585,,,,,,,,
,man,0.9818711280822754,,,,,,,,
,affection,0.9808921813964844,,,,,,,,
,two,0.9795095920562744,,,,,,,,
,happiness,0.9772302508354187,,,,,,,,
,family,0.9605754017829895,,,,,,,,
,fun,0.9506303668022156,,,,,,,,
,adult,0.9465070962905884,,,,,,,,
,child,0.9464435577392578,,,,,,,,
,embrace,0.9456892013549805,,,,,,,,
,interaction,0.9453584551811218,,,,,,,,
,romance,0.9421666264533997,,,,,,,,
,friendship,0.9409213066101074,,,,,,,,
,girl,0.9401141405105591,,,,,,,,
,enjoyment,0.9319316148757935,,,,,,,,
https://scontent-sit4-1.cdninstagram.com/t51.2885-15/sh0.08/e35/p750x750/12501854_1654026978178819_1851095571_n.jpg,woman,0.9972832202911377,Relationships,,,,Friends,,,
,togetherness,0.9964615702629089,,,,,,,,
,love,0.990861177444458,,,,,,,,
,fun,0.9894299507141113,,,,,,,,
,laughing,0.9841241836547852,,,,,,,,
,joy,0.9817146062850952,,,,,,,,
,child,0.9804288148880005,,,,,,,,
,enjoyment,0.9764553308486938,,,,,,,,
,embrace,0.9762089848518372,,,,,,,,
,affection,0.9758241772651672,,,,,,,,
,family,0.971423864364624,,,,,,,,
,girl,0.9699838161468506,,,,,,,,
,happiness,0.9695906639099121,,,,,,,,
,friendship,0.9595372676849365,,,,,,,,
,portrait,0.9556291103363037,,,,,,,,
,relaxation,0.9507449865341187,,,,,,,,
,maternity,0.95033198595047,,,,,,,,
,leisure,0.949530839920044,,,,,,,,
,indoors,0.949444591999054,,,,,,,,
,"facial expression",0.9475899338722229,,,,,,,,
https://scontent-sit4-1.cdninstagram.com/t51.2885-15/e35/13266788_1755896331313508_1319281296_n.jpg,group,0.9960864782333374,Relationships,Food,,,Friends,"Meal time",,
,people,0.9958987832069397,,,,,,,,
,group,0.9954426288604736,,,,,,,,
,restaurant,0.9939870834350586,,,,,,,,
,many,0.9865443110466003,,,,,,,,
,man,0.9757890105247498,,,,,,,,
,woman,0.9723291397094727,,,,,,,,
,adult,0.970773458480835,,,,,,,,
,several,0.9547725915908813,,,,,,,,
,table,0.9517114162445068,,,,,,,,
,coffee,0.9310106039047241,,,,,,,,
,dining,0.924567461013794,,,,,,,,
,bar,0.9183461666107178,,,,,,,,
,party,0.9007028341293335,,,,,,,,
,furniture,0.8954890966415405,,,,,,,,
,five,0.8919655084609985,,,,,,,,
,celebration,0.8872790336608887,,,,,,,,
,drink,0.8766435980796814,,,,,,,,
,four,0.8739397525787354,,,,,,,,
,crowd,0.8640924692153931,,,,,,,,
https://scontent-sit4-1.cdninstagram.com/t51.2885-15/e35/13256917_1695503570698247_630096033_n.jpg,"no person",0.9946800470352173,Commerce,,,,"Product/brand shots",,,
,text,0.9926192760467529,,,,,,,,
,typography,0.9859700202941895,,,,,,,,
,love,0.981117308139801,,,,,,,,
,conceptual,0.9746206998825073,,,,,,,,
,spherical,0.9505926370620728,,,,,,,,
,business,0.947843074798584,,,,,,,,
,bill,0.9461731910705566,,,,,,,,
,romance,0.943241536617279,,,,,,,,
,success,0.9377140998840332,,,,,,,,
,card,0.9261395931243896,,,,,,,,
,data,0.9043259024620056,,,,,,,,
,paper,0.8932374715805054,,,,,,,,
,healthcare,0.870255172252655,,,,,,,,
,internet,0.8694640398025513,,,,,,,,
,arrival,0.8672205209732056,,,,,,,,
,graphic,0.8525850772857666,,,,,,,,
,identity,0.8445338010787964,,,,,,,,
,creativity,0.8352398872375488,,,,,,,,
,optimistic,0.814376711845398,,,,,,,,
https://scontent-sit4-1.cdninstagram.com/t51.2885-15/e35/13266696_267679246916868_1168938163_n.jpg,child,0.9994080662727356,Relationships,,,,"Baby family",,,
,family,0.9880778193473816,,,,,,,,
,fun,0.9817194938659668,,,,,,,,
,boy,0.9775978326797485,,,,,,,,
,togetherness,0.9761752486228943,,,,,,,,
,little,0.9638419151306152,,,,,,,,
,people,0.9622300267219543,,,,,,,,
,cute,0.9537253379821777,,,,,,,,
,woman,0.9519820213317871,,,,,,,,
,outdoors,0.9477153420448303,,,,,,,,
,leisure,0.9442601203918457,,,,,,,,
,love,0.9389485120773315,,,,,,,,
,offspring,0.9376549124717712,,,,,,,,
,two,0.937401533126831,,,,,,,,
,laughing,0.9299244284629822,,,,,,,,
,three,0.9271906614303589,,,,,,,,
,enjoyment,0.9257849454879761,,,,,,,,
,group,0.9241224527359009,,,,,,,,
,daylight,0.9196434020996094,,,,,,,,
,happiness,0.9185150861740112,,,,,,,,
https://scontent-sit4-1.cdninstagram.com/t51.2885-15/e35/13381237_1009501229165033_932424218_n.jpg,child,0.9893428087234497,Cute,Relationships,,,Cute,"Baby family",,
,fun,0.9641565680503845,,,,,,,,
,group,0.9588015675544739,,,,,,,,
,people,0.9579165577888489,,,,,,,,
,family,0.9445750713348389,,,,,,,,
,happiness,0.9348337650299072,,,,,,,,
,man,0.9272627830505371,,,,,,,,
,woman,0.922683835029602,,,,,,,,
,togetherness,0.9100570678710938,,,,,,,,
,group,0.8963991403579712,,,,,,,,
,adult,0.8920700550079346,,,,,,,,
,boy,0.8811213374137878,,,,,,,,
,luggage,0.8786882162094116,,,,,,,,
,friendship,0.8746517896652222,,,,,,,,
,laughing,0.8634232878684998,,,,,,,,
,enjoyment,0.8619166612625122,,,,,,,,
,wear,0.8528350591659546,,,,,,,,
,daylight,0.8447479605674744,,,,,,,,
,vehicle,0.8365510106086731,,,,,,,,
,adolescent,0.8050589561462402,,,,,,,,
https://scontent-sit4-1.cdninstagram.com/t51.2885-15/e35/13725523_1595941100703055_1407771135_n.jpg,cat,0.9985785484313965,Animals,,,,Pets,,,
,pet,0.9972383975982666,,,,,,,,
,sleep,0.9965697526931763,,,,,,,,
,domestic,0.996390163898468,,,,,,,,
,animal,0.9952649474143982,,,,,,,,
,kitten,0.9873547554016113,,,,,,,,
,dog,0.9759095907211304,,,,,,,,
,cute,0.9757145643234253,,,,,,,,
,mammal,0.9699927568435669,,,,,,,,
,bed,0.9655370712280273,,,,,,,,
,sofa,0.9605594873428345,,,,,,,,
,fur,0.946580171585083,,,,,,,,
,downy,0.9442989230155945,,,,,,,,
,portrait,0.9431501626968384,,,,,,,,
,rest,0.934952437877655,,,,,,,,
,furniture,0.9289851784706116,,,,,,,,
,adorable,0.9211278557777405,,,,,,,,
,room,0.9191275835037231,,,,,,,,
,family,0.9177325963973999,,,,,,,,
,pillow,0.9148544073104858,,,,,,,,
https://scontent-sit4-1.cdninstagram.com/t51.2885-15/e35/13724548_278025569233478_1674575449_n.jpg,people,0.9924606680870056,"Fashion & Beauty",Arts,,,Ootd,Arts-s,,
,adult,0.9869338274002075,,,,,,,,
,girl,0.9824520349502563,,,,,,,,
,woman,0.9777788519859314,,,,,,,,
,portrait,0.9654990434646606,,,,,,,,
,one,0.9624420404434204,,,,,,,,
,model,0.9500628113746643,,,,,,,,
,exhibition,0.938597559928894,,,,,,,,
,lifestyle,0.938301146030426,,,,,,,,
,room,0.9346009492874146,,,,,,,,
,painting,0.9343618154525757,,,,,,,,
,museum,0.9331540465354919,,,,,,,,
,recreation,0.9295819997787476,,,,,,,,
,indoors,0.9280542135238647,,,,,,,,
,wear,0.9184906482696533,,,,,,,,
,man,0.9169763326644897,,,,,,,,
,building,0.894089937210083,,,,,,,,
,wall,0.8881006240844727,,,,,,,,
,beautiful,0.8801075220108032,,,,,,,,
,light,0.8800228834152222,,,,,,,,
https://scontent-sit4-1.cdninstagram.com/t51.2885-15/s750x750/sh0.08/e35/13402733_626549770845093_644926905_n.jpg,"facial expression",0.9955860376358032,Relationships,,,,Friends,,,
,group,0.9940481185913086,,,,,,,,
,child,0.989652156829834,,,,,,,,
,happiness,0.9861437678337097,,,,,,,,
,woman,0.9859328269958496,,,,,,,,
,portrait,0.9781447052955627,,,,,,,,
,people,0.9731748104095459,,,,,,,,
,togetherness,0.9714141488075256,,,,,,,,
,four,0.971380352973938,,,,,,,,
,school,0.9645995497703552,,,,,,,,
,enjoyment,0.9615526795387268,,,,,,,,
,family,0.9609872102737427,,,,,,,,
,indoors,0.955876350402832,,,,,,,,
,room,0.9519128799438477,,,,,,,,
,adult,0.9518404603004456,,,,,,,,
,offspring,0.9486113786697388,,,,,,,,
,group,0.9453858137130737,,,,,,,,
,three,0.9422868490219116,,,,,,,,
,girl,0.940635085105896,,,,,,,,
,education,0.9386222958564758,,,,,,,,
https://scontent-sit4-1.cdninstagram.com/t51.2885-15/e35/13117892_988688694559903_1156464244_n.jpg,people,0.9936841726303101,Relationships,,,,"Young family",,,
,child,0.9819600582122803,,,,,,,,
,two,0.9732314348220825,,,,,,,,
,outdoors,0.9706196188926697,,,,,,,,
,recreation,0.9615586400032043,,,,,,,,
,portrait,0.9615302085876465,,,,,,,,
,wear,0.9539620876312256,,,,,,,,
,school,0.935405969619751,,,,,,,,
,daylight,0.9352538585662842,,,,,,,,
,woman,0.9352011680603027,,,,,,,,
,happiness,0.9333803653717041,,,,,,,,
,enjoyment,0.9245916604995728,,,,,,,,
,man,0.911892294883728,,,,,,,,
,adult,0.9117283821105957,,,,,,,,
,street,0.9062802791595459,,,,,,,,
,togetherness,0.8972437381744385,,,,,,,,
,group,0.8945884704589844,,,,,,,,
,"facial expression",0.8942206501960754,,,,,,,,
,girl,0.866766095161438,,,,,,,,
,fun,0.8596243858337402,,,,,,,,
https://scontent-sit4-1.cdninstagram.com/t51.2885-15/s750x750/sh0.08/e35/13151357_294065240930797_1425837862_n.jpg,people,0.9887305498123169,Travel,,,,Travel-s,,,
,exhibition,0.9854259490966797,,,,,,,,
,stock,0.9838324189186096,,,,,,,,
,commerce,0.9683212041854858,,,,,,,,
,group,0.968185305595398,,,,,,,,
,restaurant,0.967649519443512,,,,,,,,
,man,0.9623453617095947,,,,,,,,
,school,0.9622753858566284,,,,,,,,
,shopping,0.9576448798179626,,,,,,,,
,bar,0.9570872783660889,,,,,,,,
,carnival,0.9549423456192017,,,,,,,,
,industry,0.9525030851364136,,,,,,,,
,adult,0.9444771409034729,,,,,,,,
,education,0.9428412318229675,,,,,,,,
,indoors,0.9418734908103943,,,,,,,,
,woman,0.9300730228424072,,,,,,,,
,business,0.9197497963905334,,,,,,,,
,grinder,0.9171242713928223,,,,,,,,
,production,0.9098266363143921,,,,,,,,
,marquee,0.9070130586624146,,,,,,,,
https://scontent-sit4-1.cdninstagram.com/t51.2885-15/e35/13774336_1033552003367042_2048178934_n.jpg,people,0.9730941653251648,"Fashion & Beauty",Arts,,,Ootd,Arts-s,,
,woman,0.9510644674301147,,,,,,,,
,art,0.9470207691192627,,,,,,,,
,music,0.9370067119598389,,,,,,,,
,beautiful,0.9245728850364685,,,,,,,,
,portrait,0.9198322296142578,,,,,,,,
,adult,0.8899766206741333,,,,,,,,
,one,0.8814470767974854,,,,,,,,
,religion,0.8798468112945557,,,,,,,,
,girl,0.866381049156189,,,,,,,,
,illustration,0.8571833968162537,,,,,,,,
,graffiti,0.8492318391799927,,,,,,,,
,fun,0.8482562303543091,,,,,,,,
,design,0.8402465581893921,,,,,,,,
,festival,0.8226692080497742,,,,,,,,
,person,0.8219165802001953,,,,,,,,
,fashion,0.8094190955162048,,,,,,,,
,color,0.8083302974700928,,,,,,,,
,performance,0.8071970343589783,,,,,,,,
,celebration,0.8064847588539124,,,,,,,,
https://scontent-sit4-1.cdninstagram.com/t51.2885-15/e35/13402609_589100191279865_108466560_n.jpg,food,0.9886829257011414,Food,,,,"Meal time",,,
,"no person",0.9712610244750977,,,,,,,,
,meal,0.9561929702758789,,,,,,,,
,delicious,0.9559396505355835,,,,,,,,
,cheese,0.9464704990386963,,,,,,,,
,vegetable,0.9390209913253784,,,,,,,,
,dinner,0.9271026849746704,,,,,,,,
,refreshment,0.9229047894477844,,,,,,,,
,lunch,0.9205763936042786,,,,,,,,
,bread,0.9172958135604858,,,,,,,,
,epicure,0.9149904251098633,,,,,,,,
,tasty,0.9115142822265625,,,,,,,,
,nutrition,0.8888924717903137,,,,,,,,
,butter,0.8833776116371155,,,,,,,,
,cooking,0.883108377456665,,,,,,,,
,baking,0.8670552968978882,,,,,,,,
,cuisine,0.8623964786529541,,,,,,,,
,dish,0.860683798789978,,,,,,,,
,homemade,0.8598344326019287,,,,,,,,
,slice,0.8495491743087769,,,,,,,,
https://scontent-sit4-1.cdninstagram.com/t51.2885-15/e35/925525_1575287822788176_612371137_n.jpg,people,0.9931735992431641,Relationships,,,,"Best friends",,,
,wear,0.9785758852958679,,,,,,,,
,adult,0.976567268371582,,,,,,,,
,man,0.9765118360519409,,,,,,,,
,woman,0.9744266271591187,,,,,,,,
,group,0.9631301164627075,,,,,,,,
,recreation,0.9534637928009033,,,,,,,,
,two,0.9274019002914429,,,,,,,,
,outdoors,0.9152411222457886,,,,,,,,
,group,0.910508394241333,,,,,,,,
,leisure,0.8789597749710083,,,,,,,,
,enjoyment,0.8786780834197998,,,,,,,,
,ceremony,0.8771241903305054,,,,,,,,
,competition,0.86839359998703,,,,,,,,
,travel,0.8548742532730103,,,,,,,,
,fun,0.8517240881919861,,,,,,,,
,road,0.8369821310043335,,,,,,,,
,street,0.8352245092391968,,,,,,,,
,lifestyle,0.8329192996025085,,,,,,,,
,religion,0.8276697397232056,,,,,,,,
https://scontent-sit4-1.cdninstagram.com/t51.2885-15/e35/13267334_1740734886212436_350873432_n.jpg,people,0.9966204166412354,Relationships,,,,"Young family",,,
,girl,0.9912455081939697,,,,,,,,
,woman,0.9909727573394775,,,,,,,,
,two,0.9826838970184326,,,,,,,,
,adult,0.9799849987030029,,,,,,,,
,portrait,0.9754427075386047,,,,,,,,
,wear,0.9644842147827148,,,,,,,,
,happiness,0.951790452003479,,,,,,,,
,man,0.9488712549209595,,,,,,,,
,lifestyle,0.9339137077331543,,,,,,,,
,indoors,0.9257738590240479,,,,,,,,
,child,0.9226463437080383,,,,,,,,
,fun,0.9214142560958862,,,,,,,,
,group,0.9133661985397339,,,,,,,,
,couple,0.8966652154922485,,,,,,,,
,family,0.884075403213501,,,,,,,,
,togetherness,0.8754264116287231,,,,,,,,
,friendship,0.8729652166366577,,,,,,,,
,love,0.8727747201919556,,,,,,,,
,"facial expression",0.8713937997817993,,,,,,,,
https://scontent-sit4-1.cdninstagram.com/t51.2885-15/e35/13381288_1704868496441262_1917680967_n.jpg,woman,0.9944848418235779,Relationships,,,,"Best friends",,,
,people,0.9842460751533508,,,,,,,,
,two,0.981450080871582,,,,,,,,
,adult,0.9805582761764526,,,,,,,,
,wear,0.9787744283676147,,,,,,,,
,outdoors,0.9751579165458679,,,,,,,,
,leisure,0.9632575511932373,,,,,,,,
,summer,0.9593738913536072,,,,,,,,
,girl,0.956169843673706,,,,,,,,
,fashion,0.9527100324630737,,,,,,,,
,fun,0.9329081773757935,,,,,,,,
,love,0.9315084218978882,,,,,,,,
,lifestyle,0.9262250661849976,,,,,,,,
,portrait,0.9242414832115173,,,,,,,,
,happiness,0.9227579236030579,,,,,,,,
,sunglasses,0.9140801429748535,,,,,,,,
,lid,0.902028501033783,,,,,,,,
,enjoyment,0.9016186594963074,,,,,,,,
,togetherness,0.8952587246894836,,,,,,,,
,dress,0.8865298628807068,,,,,,,,
https://scontent-sit4-1.cdninstagram.com/t51.2885-15/e35/13714035_327411130930555_1531021872_n.jpg,bookcase,0.9999441504478455,"My life",,,,Doing,,,
,library,0.9998193979263306,,,,,,,,
,shelf,0.999502420425415,,,,,,,,
,knowledge,0.9992176294326782,,,,,,,,
,literature,0.9981209635734558,,,,,,,,
,bookstore,0.9977691173553467,,,,,,,,
,education,0.9977375864982605,,,,,,,,
,school,0.9940529465675354,,,,,,,,
,book,0.9938310384750366,,,,,,,,
,college,0.991692304611206,,,,,,,,
,wisdom,0.9900195002555847,,,,,,,,
,study,0.9750900268554688,,,,,,,,
,university,0.9734978079795837,,,,,,,,
,research,0.9726293087005615,,,,,,,,
,back,0.9433341026306152,,,,,,,,
,hardcover,0.9205974340438843,,,,,,,,
,intelligence,0.919613242149353,,,,,,,,
,adolescent,0.91651451587677,,,,,,,,
,reference,0.9081664085388184,,,,,,,,
,pile,0.8869742155075073,,,,,,,,
https://scontent-sit4-1.cdninstagram.com/t51.2885-15/s750x750/sh0.08/e35/13385761_1177000822344733_1837959903_n.jpg,portrait,0.9914422035217285,"My life",,,,"With me",,,
,cute,0.9836825132369995,,,,,,,,
,dog,0.9793626070022583,,,,,,,,
,people,0.9716142416000366,,,,,,,,
,one,0.9665343165397644,,,,,,,,
,girl,0.9528626203536987,,,,,,,,
,little,0.9469107389450073,,,,,,,,
,woman,0.9389537572860718,,,,,,,,
,mammal,0.9377375841140747,,,,,,,,
,young,0.9363666772842407,,,,,,,,
,pet,0.9352288246154785,,,,,,,,
,funny,0.9212760925292969,,,,,,,,
,animal,0.8916507959365845,,,,,,,,
,hair,0.8876690864562988,,,,,,,,
,adult,0.8874903917312622,,,,,,,,
,fun,0.8871309757232666,,,,,,,,
,beautiful,0.8864214420318604,,,,,,,,
,canine,0.8827935457229614,,,,,,,,
,child,0.8789539337158203,,,,,,,,
,adorable,0.8781836032867432,,,,,,,,
https://scontent-sit4-1.cdninstagram.com/t51.2885-15/e35/13277687_1092667224139555_1459637998_n.jpg,child,0.9999809861183167,Relationships,Celebrations,,,Friends,"Personal Events",,
,little,0.9947736263275146,,,,,,,,
,education,0.9917622804641724,,,,,,,,
,boy,0.9911515712738037,,,,,,,,
,kindergarten,0.9906193017959595,,,,,,,,
,boy,0.9883204698562622,,,,,,,,
,cute,0.9866301417350769,,,,,,,,
,"elementary school",0.9843494892120361,,,,,,,,
,school,0.9838356375694275,,,,,,,,
,elementary,0.978992223739624,,,,,,,,
,preschool,0.978124737739563,,,,,,,,
,group,0.9753945469856262,,,,,,,,
,people,0.9667210578918457,,,,,,,,
,many,0.959240198135376,,,,,,,,
,girl,0.9564006328582764,,,,,,,,
,classroom,0.9535573720932007,,,,,,,,
,fun,0.9522634744644165,,,,,,,,
,schoolboy,0.9315604567527771,,,,,,,,
,lesson,0.9308983087539673,,,,,,,,
,game,0.9287899136543274,,,,,,,,
