url,class,score,,,,,,,,
https://scontent.cdninstagram.com/t51.2885-15/e35/p480x480/13257009_1152987851410253_1439460554_n.jpg,woman,0.9905726909637451,"Fashion & Beauty",,,,"My look",,,
,people,0.9892570972442627,,,,,,,,
,adult,0.9783756136894226,,,,,,,,
,indoors,0.976117730140686,,,,,,,,
,one,0.9691227674484253,,,,,,,,
,portrait,0.9609383940696716,,,,,,,,
,girl,0.945864200592041,,,,,,,,
,"facial expression",0.9170918464660645,,,,,,,,
,"side view",0.9117675423622131,,,,,,,,
,room,0.8876550197601318,,,,,,,,
,wear,0.8826229572296143,,,,,,,,
,sit,0.8714796304702759,,,,,,,,
,fashion,0.8649197816848755,,,,,,,,
,drink,0.8516879677772522,,,,,,,,
,furniture,0.8321363925933838,,,,,,,,
,business,0.8302832245826721,,,,,,,,
,dress,0.8120787143707275,,,,,,,,
,coffee,0.8097866773605347,,,,,,,,
,wedding,0.7979215383529663,,,,,,,,
,model,0.7822121977806091,,,,,,,,
https://scontent.cdninstagram.com/t51.2885-15/e35/13413404_145583382515101_449191897_n.jpg,"no person",0.969062864780426,Travel,,,,Travel-s,,,
,paper,0.9679258465766907,,,,,,,,
,business,0.9616155028343201,,,,,,,,
,money,0.9231487512588501,,,,,,,,
,money,0.8609094023704529,,,,,,,,
,commerce,0.8480091094970703,,,,,,,,
,indoors,0.8471606969833374,,,,,,,,
,shopping,0.8286721110343933,,,,,,,,
,finance,0.8106942176818848,,,,,,,,
,woman,0.8030920028686523,,,,,,,,
,wood,0.8006159067153931,,,,,,,,
,success,0.7945572137832642,,,,,,,,
,people,0.7836843132972717,,,,,,,,
,wealth,0.7588939666748047,,,,,,,,
,coffee,0.7530120611190796,,,,,,,,
,vertical,0.7477313280105591,,,,,,,,
,luck,0.7261407375335693,,,,,,,,
,family,0.7210620641708374,,,,,,,,
,leisure,0.7174406051635742,,,,,,,,
,finance,0.7165676355361938,,,,,,,,
https://scontent.cdninstagram.com/t51.2885-15/e35/13413404_145583382515101_449191897_n.jpg,"no person",0.969062864780426,Travel,,,,Travel-s,,,
,paper,0.9679258465766907,,,,,,,,
,business,0.9616155028343201,,,,,,,,
,money,0.9231487512588501,,,,,,,,
,money,0.8609094023704529,,,,,,,,
,commerce,0.8480091094970703,,,,,,,,
,indoors,0.8471606969833374,,,,,,,,
,shopping,0.8286721110343933,,,,,,,,
,finance,0.8106942176818848,,,,,,,,
,woman,0.8030920028686523,,,,,,,,
,wood,0.8006159067153931,,,,,,,,
,success,0.7945572137832642,,,,,,,,
,people,0.7836843132972717,,,,,,,,
,wealth,0.7588939666748047,,,,,,,,
,coffee,0.7530120611190796,,,,,,,,
,vertical,0.7477313280105591,,,,,,,,
,luck,0.7261407375335693,,,,,,,,
,family,0.7210620641708374,,,,,,,,
,leisure,0.7174406051635742,,,,,,,,
,finance,0.7165676355361938,,,,,,,,
https://scontent.cdninstagram.com/t51.2885-15/s750x750/sh0.08/e35/13260891_1024840207593860_73679370_n.jpg,woman,0.9936256408691406,"Fashion & Beauty",,,,"My look",,,
,fashion,0.9914778470993042,,,,,,,,
,portrait,0.9862574338912964,,,,,,,,
,girl,0.985663115978241,,,,,,,,
,model,0.9783331155776978,,,,,,,,
,one,0.9595481157302856,,,,,,,,
,dress,0.9509080052375793,,,,,,,,
,pretty,0.941261887550354,,,,,,,,
,people,0.9374094605445862,,,,,,,,
,adult,0.9371085166931152,,,,,,,,
,wear,0.9272859692573547,,,,,,,,
,glamour,0.923983097076416,,,,,,,,
,beautiful,0.9132400751113892,,,,,,,,
,young,0.9060013294219971,,,,,,,,
,cute,0.9011971354484558,,,,,,,,
,outdoors,0.8963807821273804,,,,,,,,
,sexy,0.8857057094573975,,,,,,,,
,brunette,0.8856727480888367,,,,,,,,
,hair,0.8768386244773865,,,,,,,,
,lifestyle,0.8736447691917419,,,,,,,,
https://scontent.cdninstagram.com/t51.2885-15/e35/13256980_1570858516545637_693782511_n.jpg,woman,0.9926699995994568,"Fashion & Beauty",,,,"My look",,,
,one,0.9892714023590088,,,,,,,,
,adult,0.9854795932769775,,,,,,,,
,people,0.9838696122169495,,,,,,,,
,outdoors,0.9813444018363953,,,,,,,,
,fashion,0.9691824913024902,,,,,,,,
,portrait,0.9630999565124512,,,,,,,,
,girl,0.962390661239624,,,,,,,,
,wear,0.9594383835792542,,,,,,,,
,dress,0.9592593908309937,,,,,,,,
,recreation,0.9416357278823853,,,,,,,,
,summer,0.92818284034729,,,,,,,,
,beautiful,0.9272069334983826,,,,,,,,
,skirt,0.9181772470474243,,,,,,,,
,leisure,0.9072091579437256,,,,,,,,
,model,0.9064556360244751,,,,,,,,
,business,0.9031322002410889,,,,,,,,
,lifestyle,0.9030958414077759,,,,,,,,
,young,0.895309329032898,,,,,,,,
,brunette,0.8907217979431152,,,,,,,,
https://scontent.cdninstagram.com/t51.2885-15/s750x750/sh0.08/e35/13258900_900314663429105_1419434519_n.jpg,fashion,0.9726184606552124,Commerce,,,,"Product/brand shots",,,
,watch,0.970229983329773,,,,,,,,
,pocket,0.9645512104034424,,,,,,,,
,wear,0.9596392512321472,,,,,,,,
,jewelry,0.9388972520828247,,,,,,,,
,sewing,0.9331636428833008,,,,,,,,
,thread,0.9312673807144165,,,,,,,,
,time,0.9284262657165527,,,,,,,,
,love,0.919895350933075,,,,,,,,
,desktop,0.908130407333374,,,,,,,,
,"alarm clock",0.9054614901542664,,,,,,,,
,business,0.9025887250900269,,,,,,,,
,"no person",0.9007460474967957,,,,,,,,
,wristwatch,0.8951463103294373,,,,,,,,
,clock,0.8915950655937195,,,,,,,,
,needle,0.8915780782699585,,,,,,,,
,vintage,0.8873737454414368,,,,,,,,
,closeup,0.8833153247833252,,,,,,,,
,bracelet,0.8825136423110962,,,,,,,,
,color,0.8797032237052917,,,,,,,,
https://scontent.cdninstagram.com/t51.2885-15/e35/13259495_1717593721817607_912892559_n.jpg,"no person",0.9888967871665955,Food,,,,"Meal time",,,
,food,0.9877399802207947,,,,,,,,
,"still life",0.961954653263092,,,,,,,,
,grow,0.9612250924110413,,,,,,,,
,cooking,0.9520791172981262,,,,,,,,
,"dairy product",0.9483499526977539,,,,,,,,
,cutlery,0.9463655948638916,,,,,,,,
,kitchenware,0.9459574818611145,,,,,,,,
,flatware,0.9284240007400513,,,,,,,,
,egg,0.9272469282150269,,,,,,,,
,dish,0.926676332950592,,,,,,,,
,pan,0.9195603132247925,,,,,,,,
,tableware,0.9141655564308167,,,,,,,,
,"frying pan",0.896243691444397,,,,,,,,
,bread,0.8952423334121704,,,,,,,,
,meal,0.8936222791671753,,,,,,,,
,bowl,0.8914715051651001,,,,,,,,
,hot,0.8833038806915283,,,,,,,,
,wood,0.8753787279129028,,,,,,,,
,breakfast,0.865158200263977,,,,,,,,
https://scontent.cdninstagram.com/t51.2885-15/e35/13167214_294022804262364_606989036_n.jpg,"no person",0.9933878183364868,Food,,,,"Meal time",,,
,food,0.9904087781906128,,,,,,,,
,dinner,0.9734972715377808,,,,,,,,
,meat,0.9719052314758301,,,,,,,,
,beef,0.970906674861908,,,,,,,,
,delicious,0.9559701085090637,,,,,,,,
,pork,0.9496588706970215,,,,,,,,
,lunch,0.9446530342102051,,,,,,,,
,bread,0.9381797909736633,,,,,,,,
,meal,0.9244284629821777,,,,,,,,
,plate,0.910710334777832,,,,,,,,
,dish,0.9035779237747192,,,,,,,,
,knife,0.8989933133125305,,,,,,,,
,grow,0.8941221833229065,,,,,,,,
,cooking,0.8936811685562134,,,,,,,,
,traditional,0.8694304823875427,,,,,,,,
,vegetable,0.8500029444694519,,,,,,,,
,homemade,0.8486894369125366,,,,,,,,
,potato,0.8465529680252075,,,,,,,,
,pepper,0.8458884358406067,,,,,,,,
https://scontent.cdninstagram.com/t51.2885-15/sh0.08/e35/p750x750/13259635_1034242266657295_1416254220_n.jpg,people,0.9931608438491821,"My life",,,,Selfie,,,
,portrait,0.9923222064971924,,,,,,,,
,woman,0.981703519821167,,,,,,,,
,one,0.981370210647583,,,,,,,,
,adult,0.9791187047958374,,,,,,,,
,girl,0.9766928553581238,,,,,,,,
,wear,0.9764019846916199,,,,,,,,
,scarf,0.9682003855705261,,,,,,,,
,winter,0.9385355710983276,,,,,,,,
,fashion,0.9319062829017639,,,,,,,,
,"facial expression",0.9171655178070068,,,,,,,,
,veil,0.9090961217880249,,,,,,,,
,knitwear,0.9046303629875183,,,,,,,,
,model,0.8901407718658447,,,,,,,,
,sweater,0.8703355193138123,,,,,,,,
,lid,0.8643777370452881,,,,,,,,
,dress,0.8256893157958984,,,,,,,,
,cold,0.8137994408607483,,,,,,,,
,child,0.803245484828949,,,,,,,,
,outerwear,0.7800704836845398,,,,,,,,
https://scontent.cdninstagram.com/t51.2885-15/sh0.08/e35/p750x750/13259635_1034242266657295_1416254220_n.jpg,people,0.9931608438491821,"My life",,,,Selfie,,,
,portrait,0.9923222064971924,,,,,,,,
,woman,0.981703519821167,,,,,,,,
,one,0.981370210647583,,,,,,,,
,adult,0.9791187047958374,,,,,,,,
,girl,0.9766928553581238,,,,,,,,
,wear,0.9764019846916199,,,,,,,,
,scarf,0.9682003855705261,,,,,,,,
,winter,0.9385355710983276,,,,,,,,
,fashion,0.9319062829017639,,,,,,,,
,"facial expression",0.9171655178070068,,,,,,,,
,veil,0.9090961217880249,,,,,,,,
,knitwear,0.9046303629875183,,,,,,,,
,model,0.8901407718658447,,,,,,,,
,sweater,0.8703355193138123,,,,,,,,
,lid,0.8643777370452881,,,,,,,,
,dress,0.8256893157958984,,,,,,,,
,cold,0.8137994408607483,,,,,,,,
,child,0.803245484828949,,,,,,,,
,outerwear,0.7800704836845398,,,,,,,,
https://scontent.cdninstagram.com/t51.2885-15/e35/13256980_1570858516545637_693782511_n.jpg,woman,0.9926699995994568,"Fashion & Beauty",,,,"My look",,,
,one,0.9892714023590088,,,,,,,,
,adult,0.9854795932769775,,,,,,,,
,people,0.9838696122169495,,,,,,,,
,outdoors,0.9813444018363953,,,,,,,,
,fashion,0.9691824913024902,,,,,,,,
,portrait,0.9630999565124512,,,,,,,,
,girl,0.962390661239624,,,,,,,,
,wear,0.9594383835792542,,,,,,,,
,dress,0.9592593908309937,,,,,,,,
,recreation,0.9416357278823853,,,,,,,,
,summer,0.92818284034729,,,,,,,,
,beautiful,0.9272069334983826,,,,,,,,
,skirt,0.9181772470474243,,,,,,,,
,leisure,0.9072091579437256,,,,,,,,
,model,0.9064556360244751,,,,,,,,
,business,0.9031322002410889,,,,,,,,
,lifestyle,0.9030958414077759,,,,,,,,
,young,0.895309329032898,,,,,,,,
,brunette,0.8907217979431152,,,,,,,,
https://scontent.cdninstagram.com/t51.2885-15/s750x750/sh0.08/e35/13380817_499765226886871_206591283_n.jpg,tableware,0.9991135001182556,Food,,,,"Meal time",,,
,cutlery,0.9989783763885498,,,,,,,,
,fork,0.9984660148620605,,,,,,,,
,flatware,0.9983831644058228,,,,,,,,
,knife,0.9983035922050476,,,,,,,,
,dining,0.997742772102356,,,,,,,,
,dinner,0.9967413544654846,,,,,,,,
,"place setting",0.9955640435218811,,,,,,,,
,food,0.9935908317565918,,,,,,,,
,wine,0.9934878349304199,,,,,,,,
,"no person",0.9918328523635864,,,,,,,,
,silverware,0.9892241358757019,,,,,,,,
,lunch,0.9889224767684937,,,,,,,,
,plate,0.985720157623291,,,,,,,,
,table,0.9820255041122437,,,,,,,,
,meal,0.9769567847251892,,,,,,,,
,restaurant,0.9742660522460938,,,,,,,,
,napkin,0.9719550609588623,,,,,,,,
,tablecloth,0.9662398099899292,,,,,,,,
,grow,0.9583238363265991,,,,,,,,
https://scontent.cdninstagram.com/t51.2885-15/e35/13183413_831447923627069_339211551_n.jpg,cream,0.9867303967475891,Food,,,,Dessert,,,
,sweet,0.9858624935150146,,,,,,,,
,delicious,0.9811419248580933,,,,,,,,
,cake,0.9808382391929626,,,,,,,,
,sugar,0.9777061939239502,,,,,,,,
,fruit,0.9670792818069458,,,,,,,,
,strawberry,0.9652873277664185,,,,,,,,
,"no person",0.9617035984992981,,,,,,,,
,creamy,0.9529525637626648,,,,,,,,
,chocolate,0.9495936632156372,,,,,,,,
,pastry,0.9476917386054993,,,,,,,,
,berry,0.9398987293243408,,,,,,,,
,candy,0.9319089651107788,,,,,,,,
,food,0.931414008140564,,,,,,,,
,raspberry,0.9291627407073975,,,,,,,,
,indulgence,0.9275136590003967,,,,,,,,
,baking,0.9209691286087036,,,,,,,,
,bakery,0.8984248638153076,,,,,,,,
,refreshment,0.8966497778892517,,,,,,,,
,homemade,0.8866835832595825,,,,,,,,
https://scontent.cdninstagram.com/t51.2885-15/e35/13381336_1798333573728928_231741721_n.jpg,child,0.9999759793281555,Relationships,,,,"Young family",,,
,little,0.998931348323822,,,,,,,,
,cute,0.9988822937011719,,,,,,,,
,fun,0.9978881478309631,,,,,,,,
,family,0.9907221794128418,,,,,,,,
,joy,0.9896640777587891,,,,,,,,
,precious,0.9872820377349854,,,,,,,,
,boy,0.9826438426971436,,,,,,,,
,innocence,0.9731379747390747,,,,,,,,
,baby,0.9709063768386841,,,,,,,,
,laughing,0.9581369161605835,,,,,,,,
,preschool,0.9528754949569702,,,,,,,,
,togetherness,0.9485998749732971,,,,,,,,
,love,0.9482648372650146,,,,,,,,
,girl,0.9375081062316895,,,,,,,,
,enjoyment,0.9230132102966309,,,,,,,,
,indoors,0.9167193174362183,,,,,,,,
,toddler,0.9099755883216858,,,,,,,,
,play,0.9002297520637512,,,,,,,,
,two,0.8805224299430847,,,,,,,,
https://scontent.cdninstagram.com/t51.2885-15/e35/13413288_1790161001218963_2030234483_n.jpg,casino,0.9906283617019653,Food,"My life",Commerce,,Dessert,"Here I am","Product/brand shots",
,"no person",0.9838254451751709,,,,,,,,
,hotel,0.9823360443115234,,,,,,,,
,luxury,0.9797637462615967,,,,,,,,
,restaurant,0.9781249761581421,,,,,,,,
,gambling,0.9780856370925903,,,,,,,,
,neon,0.9777446985244751,,,,,,,,
,stock,0.9776850938796997,,,,,,,,
,travel,0.9739476442337036,,,,,,,,
,vacation,0.9606927633285522,,,,,,,,
,tourist,0.9554898738861084,,,,,,,,
,people,0.9548298120498657,,,,,,,,
,bar,0.9495524764060974,,,,,,,,
,"interior design",0.949522078037262,,,,,,,,
,architecture,0.9489665031433105,,,,,,,,
,business,0.9478317499160767,,,,,,,,
,shopping,0.9419883489608765,,,,,,,,
,tourism,0.9413858652114868,,,,,,,,
,evening,0.9404313564300537,,,,,,,,
,commerce,0.9396970272064209,,,,,,,,
https://scontent.cdninstagram.com/t51.2885-15/sh0.08/e35/p750x750/12965838_105773253164006_260051348_n.jpg,girl,0.994544267654419,"Fashion & Beauty","My life",,,"My look",Selfie,,
,woman,0.9930392503738403,,,,,,,,
,portrait,0.9881646633148193,,,,,,,,
,people,0.9808474183082581,,,,,,,,
,fashion,0.9664342403411865,,,,,,,,
,model,0.9519013166427612,,,,,,,,
,wedding,0.9486642479896545,,,,,,,,
,pretty,0.9479565620422363,,,,,,,,
,eye,0.9308965802192688,,,,,,,,
,indoors,0.928067684173584,,,,,,,,
,cute,0.9273030757904053,,,,,,,,
,sexy,0.9192056059837341,,,,,,,,
,brunette,0.9172638654708862,,,,,,,,
,one,0.9162689447402954,,,,,,,,
,face,0.9118736386299133,,,,,,,,
,beautiful,0.9095375537872314,,,,,,,,
,hair,0.8967306613922119,,,,,,,,
,child,0.8954535126686096,,,,,,,,
,dress,0.8900299668312073,,,,,,,,
,studio,0.8856621980667114,,,,,,,,
https://scontent.cdninstagram.com/t51.2885-15/e35/13167475_830703203702851_933551113_n.jpg,food,0.9907627105712891,Food,,,,"Meal time",,,
,bread,0.9895164966583252,,,,,,,,
,"no person",0.9889960289001465,,,,,,,,
,soup,0.9858976602554321,,,,,,,,
,bowl,0.9848048686981201,,,,,,,,
,dinner,0.9725339412689209,,,,,,,,
,hot,0.9705977439880371,,,,,,,,
,lunch,0.964444100856781,,,,,,,,
,creamy,0.9513256549835205,,,,,,,,
,grow,0.9483519792556763,,,,,,,,
,dish,0.9453327655792236,,,,,,,,
,homemade,0.9435271620750427,,,,,,,,
,cream,0.9423269033432007,,,,,,,,
,appetizer,0.9312305450439453,,,,,,,,
,traditional,0.9251434803009033,,,,,,,,
,cooking,0.9232240319252014,,,,,,,,
,delicious,0.9018183350563049,,,,,,,,
,meal,0.8987735509872437,,,,,,,,
,spoon,0.8960015177726746,,,,,,,,
,vegetable,0.8955850601196289,,,,,,,,
https://scontent.cdninstagram.com/t51.2885-15/e35/13151264_1143849918993093_1736966122_n.jpg,woman,0.9955595135688782,"Fashion & Beauty",,,,Ootd,,,
,fashion,0.9924346208572388,,,,,,,,
,pretty,0.9673367738723755,,,,,,,,
,glamour,0.9642943739891052,,,,,,,,
,sexy,0.9642053842544556,,,,,,,,
,girl,0.9441710710525513,,,,,,,,
,portrait,0.9341317415237427,,,,,,,,
,model,0.9233090877532959,,,,,,,,
,wear,0.913449227809906,,,,,,,,
,cute,0.9113748669624329,,,,,,,,
,young,0.9011515378952026,,,,,,,,
,elegant,0.8827129006385803,,,,,,,,
,one,0.8794344663619995,,,,,,,,
,dress,0.8686946630477905,,,,,,,,
,contemporary,0.8463954925537109,,,,,,,,
,hair,0.8281906843185425,,,,,,,,
,looking,0.8130311965942383,,,,,,,,
,skirt,0.8079215884208679,,,,,,,,
,studio,0.8027852773666382,,,,,,,,
,casual,0.7951815128326416,,,,,,,,
https://scontent.cdninstagram.com/t51.2885-15/e35/12976464_1587447091584049_1201931174_n.jpg,paper,0.9857903718948364,Business,,,,Business-s,,,
,number,0.9835901260375977,,,,,,,,
,document,0.960956335067749,,,,,,,,
,label,0.9578673839569092,,,,,,,,
,page,0.9573971033096313,,,,,,,,
,presentation,0.9509822130203247,,,,,,,,
,booklet,0.9378505945205688,,,,,,,,
,template,0.9311448335647583,,,,,,,,
,business,0.9235131740570068,,,,,,,,
,information,0.9219619035720825,,,,,,,,
,card,0.9187963008880615,,,,,,,,
,order,0.9123051762580872,,,,,,,,
,form,0.9103042483329773,,,,,,,,
,promotion,0.8847570419311523,,,,,,,,
,diagram,0.8822553753852844,,,,,,,,
,identity,0.878371000289917,,,,,,,,
,banner,0.8636655807495117,,,,,,,,
,origami,0.8617100715637207,,,,,,,,
,text,0.8580977916717529,,,,,,,,
,administration,0.8542089462280273,,,,,,,,
https://scontent.cdninstagram.com/t51.2885-15/e35/13151264_1143849918993093_1736966122_n.jpg,woman,0.9955595135688782,"Fashion & Beauty",,,,Ootd,,,
,fashion,0.9924346208572388,,,,,,,,
,pretty,0.9673367738723755,,,,,,,,
,glamour,0.9642943739891052,,,,,,,,
,sexy,0.9642053842544556,,,,,,,,
,girl,0.9441710710525513,,,,,,,,
,portrait,0.9341317415237427,,,,,,,,
,model,0.9233090877532959,,,,,,,,
,wear,0.913449227809906,,,,,,,,
,cute,0.9113748669624329,,,,,,,,
,young,0.9011515378952026,,,,,,,,
,elegant,0.8827129006385803,,,,,,,,
,one,0.8794344663619995,,,,,,,,
,dress,0.8686946630477905,,,,,,,,
,contemporary,0.8463954925537109,,,,,,,,
,hair,0.8281906843185425,,,,,,,,
,looking,0.8130311965942383,,,,,,,,
,skirt,0.8079215884208679,,,,,,,,
,studio,0.8027852773666382,,,,,,,,
,casual,0.7951815128326416,,,,,,,,
https://scontent.cdninstagram.com/t51.2885-15/e35/13181272_1574035649593617_956490067_n.jpg,food,0.9618196487426758,Food,,,,"Meal time",,,
,paper,0.9525051116943359,,,,,,,,
,chocolate,0.9391721487045288,,,,,,,,
,"no person",0.9247296452522278,,,,,,,,
,love,0.9239898324012756,,,,,,,,
,indoors,0.9103147983551025,,,,,,,,
,cake,0.8885905742645264,,,,,,,,
,celebration,0.8711512088775635,,,,,,,,
,delicious,0.8663140535354614,,,,,,,,
,sugar,0.8612205982208252,,,,,,,,
,romance,0.8443719148635864,,,,,,,,
,indulgence,0.8430510759353638,,,,,,,,
,vertical,0.8201817274093628,,,,,,,,
,sweet,0.8169502019882202,,,,,,,,
,wedding,0.8074093461036682,,,,,,,,
,coffee,0.7845289707183838,,,,,,,,
,woman,0.7737362384796143,,,,,,,,
,fruit,0.7694726586341858,,,,,,,,
,cream,0.7649484872817993,,,,,,,,
,birthday,0.762738823890686,,,,,,,,
https://scontent.cdninstagram.com/t51.2885-15/e35/13129695_1890244311202315_1414885017_n.jpg,table,0.989690899848938,"Fashion & Beauty",,,,"My look",,,
,coffee,0.9871780872344971,,,,,,,,
,sit,0.9849401712417603,,,,,,,,
,woman,0.9823982119560242,,,,,,,,
,indoors,0.9805079698562622,,,,,,,,
,people,0.970881462097168,,,,,,,,
,tea,0.9655283689498901,,,,,,,,
,breakfast,0.947909951210022,,,,,,,,
,one,0.9347869157791138,,,,,,,,
,portrait,0.9230488538742065,,,,,,,,
,drink,0.9230338335037231,,,,,,,,
,room,0.9208338260650635,,,,,,,,
,enjoyment,0.9148387908935547,,,,,,,,
,cup,0.913576602935791,,,,,,,,
,family,0.9082512855529785,,,,,,,,
,furniture,0.9043657779693604,,,,,,,,
,relaxation,0.9005833864212036,,,,,,,,
,adult,0.8974511623382568,,,,,,,,
,girl,0.8857827186584473,,,,,,,,
,leisure,0.8826233744621277,,,,,,,,
https://scontent.cdninstagram.com/t51.2885-15/e35/13126838_1072184382822854_1605054098_n.jpg,people,0.969440221786499,Cute,"Fashion & Beauty",,,Cute,Ootd,,
,costume,0.9640316963195801,,,,,,,,
,mask,0.950489342212677,,,,,,,,
,Halloween,0.9387937188148499,,,,,,,,
,woman,0.9297463297843933,,,,,,,,
,festival,0.923615574836731,,,,,,,,
,fashion,0.9182599782943726,,,,,,,,
,party,0.9082756042480469,,,,,,,,
,dress,0.9034026861190796,,,,,,,,
,fun,0.9029908180236816,,,,,,,,
,wear,0.8970922231674194,,,,,,,,
,mask,0.8848413228988647,,,,,,,,
,theater,0.8743593692779541,,,,,,,,
,man,0.8597968816757202,,,,,,,,
,movie,0.8589365482330322,,,,,,,,
,performance,0.8525376319885254,,,,,,,,
,art,0.8348415493965149,,,,,,,,
,adult,0.833828330039978,,,,,,,,
,celebration,0.8336849212646484,,,,,,,,
,person,0.8154428005218506,,,,,,,,
https://scontent.cdninstagram.com/t51.2885-15/e35/13166886_260699420949942_743905978_n.jpg,food,0.9948372840881348,Food,,,,"Meal time",,,
,dinner,0.9909907579421997,,,,,,,,
,lunch,0.9876536130905151,,,,,,,,
,"no person",0.9870010614395142,,,,,,,,
,soup,0.9745821952819824,,,,,,,,
,hot,0.9674787521362305,,,,,,,,
,meat,0.9633182883262634,,,,,,,,
,vegetable,0.9615781307220459,,,,,,,,
,delicious,0.9551703929901123,,,,,,,,
,cooking,0.9505056142807007,,,,,,,,
,meal,0.9486716985702515,,,,,,,,
,grow,0.9413599967956543,,,,,,,,
,dish,0.9410812854766846,,,,,,,,
,bread,0.923794686794281,,,,,,,,
,potato,0.9197281002998352,,,,,,,,
,plate,0.9172155857086182,,,,,,,,
,homemade,0.9163638353347778,,,,,,,,
,traditional,0.9139770269393921,,,,,,,,
,nutrition,0.9137061834335327,,,,,,,,
,parsley,0.9120326042175293,,,,,,,,
https://scontent.cdninstagram.com/t51.2885-15/e35/13259495_1717593721817607_912892559_n.jpg,"no person",0.9888967871665955,Food,,,,"Meal time",,,
,food,0.9877399802207947,,,,,,,,
,"still life",0.961954653263092,,,,,,,,
,grow,0.9612250924110413,,,,,,,,
,cooking,0.9520791172981262,,,,,,,,
,"dairy product",0.9483499526977539,,,,,,,,
,cutlery,0.9463655948638916,,,,,,,,
,kitchenware,0.9459574818611145,,,,,,,,
,flatware,0.9284240007400513,,,,,,,,
,egg,0.9272469282150269,,,,,,,,
,dish,0.926676332950592,,,,,,,,
,pan,0.9195603132247925,,,,,,,,
,tableware,0.9141655564308167,,,,,,,,
,"frying pan",0.896243691444397,,,,,,,,
,bread,0.8952423334121704,,,,,,,,
,meal,0.8936222791671753,,,,,,,,
,bowl,0.8914715051651001,,,,,,,,
,hot,0.8833038806915283,,,,,,,,
,wood,0.8753787279129028,,,,,,,,
,breakfast,0.865158200263977,,,,,,,,
https://scontent.cdninstagram.com/t51.2885-15/e35/13108804_1556151484687433_696785421_n.jpg,woman,0.993079662322998,"Fashion & Beauty",,,,Ootd,,,
,fashion,0.986032247543335,,,,,,,,
,girl,0.9702445268630981,,,,,,,,
,portrait,0.9680358171463013,,,,,,,,
,people,0.9670175313949585,,,,,,,,
,one,0.9433048963546753,,,,,,,,
,street,0.9408496618270874,,,,,,,,
,model,0.9241366386413574,,,,,,,,
,adult,0.9216747283935547,,,,,,,,
,outdoors,0.9183169603347778,,,,,,,,
,dress,0.9028348326683044,,,,,,,,
,pretty,0.8825191259384155,,,,,,,,
,skirt,0.8729814291000366,,,,,,,,
,sexy,0.8726100921630859,,,,,,,,
,city,0.8647753000259399,,,,,,,,
,recreation,0.8496302366256714,,,,,,,,
,glamour,0.8488349914550781,,,,,,,,
,urban,0.8048852682113647,,,,,,,,
,young,0.8039522767066956,,,,,,,,
,wear,0.7914361953735352,,,,,,,,
https://scontent.cdninstagram.com/t51.2885-15/e35/13167475_830703203702851_933551113_n.jpg,food,0.9907627105712891,Food,,,,"Meal time",,,
,bread,0.9895164966583252,,,,,,,,
,"no person",0.9889960289001465,,,,,,,,
,soup,0.9858976602554321,,,,,,,,
,bowl,0.9848048686981201,,,,,,,,
,dinner,0.9725339412689209,,,,,,,,
,hot,0.9705977439880371,,,,,,,,
,lunch,0.964444100856781,,,,,,,,
,creamy,0.9513256549835205,,,,,,,,
,grow,0.9483519792556763,,,,,,,,
,dish,0.9453327655792236,,,,,,,,
,homemade,0.9435271620750427,,,,,,,,
,cream,0.9423269033432007,,,,,,,,
,appetizer,0.9312305450439453,,,,,,,,
,traditional,0.9251434803009033,,,,,,,,
,cooking,0.9232240319252014,,,,,,,,
,delicious,0.9018183350563049,,,,,,,,
,meal,0.8987735509872437,,,,,,,,
,spoon,0.8960015177726746,,,,,,,,
,vegetable,0.8955850601196289,,,,,,,,
https://scontent.cdninstagram.com/t51.2885-15/e35/12940728_1715574408713224_1112103471_n.jpg,strawberry,0.9952334761619568,Food,,,,Dessert,,,
,"no person",0.9946194887161255,,,,,,,,
,fruit,0.9924259185791016,,,,,,,,
,sweet,0.9892829656600952,,,,,,,,
,sugar,0.9887723326683044,,,,,,,,
,berry,0.9881446361541748,,,,,,,,
,delicious,0.987401008605957,,,,,,,,
,cream,0.9870187044143677,,,,,,,,
,jam,0.9846839308738708,,,,,,,,
,breakfast,0.9834280610084534,,,,,,,,
,homemade,0.966766357421875,,,,,,,,
,cake,0.9665675163269043,,,,,,,,
,food,0.9652172327041626,,,,,,,,
,creamy,0.9627125263214111,,,,,,,,
,chocolate,0.955460786819458,,,,,,,,
,pudding,0.9505233764648438,,,,,,,,
,pastry,0.9493151903152466,,,,,,,,
,marmalade,0.9399569630622864,,,,,,,,
,baking,0.9375483989715576,,,,,,,,
,gelatin,0.9302290678024292,,,,,,,,
https://scontent.cdninstagram.com/t51.2885-15/e35/13129807_611548465659665_1258359287_n.jpg,"no person",0.9900763034820557,Food,,,,Dessert,,,
,delicious,0.9881444573402405,,,,,,,,
,cream,0.9871189594268799,,,,,,,,
,chocolate,0.976636528968811,,,,,,,,
,scoop,0.9710419178009033,,,,,,,,
,sweet,0.9685580730438232,,,,,,,,
,"dairy product",0.9668528437614441,,,,,,,,
,vanilla,0.9602476358413696,,,,,,,,
,creamy,0.9600287675857544,,,,,,,,
,sugar,0.958530843257904,,,,,,,,
,indulgence,0.9554622769355774,,,,,,,,
,food,0.9499321579933167,,,,,,,,
,milk,0.9373236894607544,,,,,,,,
,baking,0.923791766166687,,,,,,,,
,ice,0.9185879826545715,,,,,,,,
,sorbet,0.9179527759552002,,,,,,,,
,cup,0.8738329410552979,,,,,,,,
,homemade,0.8724570274353027,,,,,,,,
,frozen,0.8696635365486145,,,,,,,,
,goody,0.8394284844398499,,,,,,,,
https://scontent.cdninstagram.com/t51.2885-15/e35/13298010_1615691465387773_890696239_n.jpg,"no person",0.9830382466316223,Food,,,,"Drinks and snack",,,
,health,0.9540934562683105,,,,,,,,
,aromatherapy,0.9322817921638489,,,,,,,,
,flower,0.9299982190132141,,,,,,,,
,treatment,0.9228216409683228,,,,,,,,
,food,0.9170112609863281,,,,,,,,
,healthy,0.907025933265686,,,,,,,,
,bamboo,0.9069298505783081,,,,,,,,
,luxury,0.8949429988861084,,,,,,,,
,traditional,0.879088819026947,,,,,,,,
,"still life",0.8675050735473633,,,,,,,,
,bowl,0.8671233654022217,,,,,,,,
,candle,0.8652307391166687,,,,,,,,
,table,0.8549421429634094,,,,,,,,
,sweet,0.8514456152915955,,,,,,,,
,delicious,0.8509663343429565,,,,,,,,
,therapy,0.8437848091125488,,,,,,,,
,leaf,0.8264269232749939,,,,,,,,
,bath,0.8236124515533447,,,,,,,,
,wood,0.8236098289489746,,,,,,,,
https://scontent.cdninstagram.com/t51.2885-15/e35/12965891_1304649659549467_1750357686_n.jpg,food,0.9951350688934326,Food,,,,"Meal time",,,
,pan,0.9947226643562317,,,,,,,,
,cooking,0.9943340420722961,,,,,,,,
,meat,0.9897640347480774,,,,,,,,
,hot,0.9873479604721069,,,,,,,,
,dinner,0.9855548143386841,,,,,,,,
,soup,0.9849761128425598,,,,,,,,
,meal,0.9767707586288452,,,,,,,,
,stove,0.9754520654678345,,,,,,,,
,"no person",0.973372757434845,,,,,,,,
,vegetable,0.9675636291503906,,,,,,,,
,"frying pan",0.9665096998214722,,,,,,,,
,lunch,0.9660193920135498,,,,,,,,
,homemade,0.9574711322784424,,,,,,,,
,cuisine,0.9356640577316284,,,,,,,,
,chicken,0.9327890872955322,,,,,,,,
,pot,0.9281919002532959,,,,,,,,
,delicious,0.9274710416793823,,,,,,,,
,dish,0.9144610166549683,,,,,,,,
,onion,0.9131082892417908,,,,,,,,
https://scontent.cdninstagram.com/t51.2885-15/e35/12599198_495320823988243_1187541502_n.jpg,people,0.9951358437538147,"Fashion & Beauty",,,,Ootd,,,
,woman,0.9912641048431396,,,,,,,,
,girl,0.9870157837867737,,,,,,,,
,portrait,0.9829494953155518,,,,,,,,
,one,0.978696346282959,,,,,,,,
,adult,0.9747529029846191,,,,,,,,
,dress,0.9666473269462585,,,,,,,,
,fashion,0.9570404291152954,,,,,,,,
,model,0.9533207416534424,,,,,,,,
,skirt,0.9240220785140991,,,,,,,,
,street,0.9099497199058533,,,,,,,,
,brunette,0.8963038921356201,,,,,,,,
,music,0.8930407762527466,,,,,,,,
,outdoors,0.8871748447418213,,,,,,,,
,wear,0.8843852281570435,,,,,,,,
,sexy,0.8785783052444458,,,,,,,,
,hair,0.8662291765213013,,,,,,,,
,recreation,0.8568077087402344,,,,,,,,
,actress,0.8410054445266724,,,,,,,,
,glamour,0.8303978443145752,,,,,,,,
https://scontent.cdninstagram.com/t51.2885-15/sh0.08/e35/p750x750/12965838_105773253164006_260051348_n.jpg,girl,0.994544267654419,"Fashion & Beauty","My life",,,"My look",Selfie,,
,woman,0.9930392503738403,,,,,,,,
,portrait,0.9881646633148193,,,,,,,,
,people,0.9808474183082581,,,,,,,,
,fashion,0.9664342403411865,,,,,,,,
,model,0.9519013166427612,,,,,,,,
,wedding,0.9486642479896545,,,,,,,,
,pretty,0.9479565620422363,,,,,,,,
,eye,0.9308965802192688,,,,,,,,
,indoors,0.928067684173584,,,,,,,,
,cute,0.9273030757904053,,,,,,,,
,sexy,0.9192056059837341,,,,,,,,
,brunette,0.9172638654708862,,,,,,,,
,one,0.9162689447402954,,,,,,,,
,face,0.9118736386299133,,,,,,,,
,beautiful,0.9095375537872314,,,,,,,,
,hair,0.8967306613922119,,,,,,,,
,child,0.8954535126686096,,,,,,,,
,dress,0.8900299668312073,,,,,,,,
,studio,0.8856621980667114,,,,,,,,
https://scontent.cdninstagram.com/t51.2885-15/e35/12501629_1593918260925335_339124517_n.jpg,tea,0.9995183944702148,Food,,,,"Drinks and snack",,,
,teapot,0.9988242387771606,,,,,,,,
,drink,0.9983835220336914,,,,,,,,
,hot,0.9975550770759583,,,,,,,,
,cup,0.9967800378799438,,,,,,,,
,herbal,0.9885785579681396,,,,,,,,
,pot,0.9861184358596802,,,,,,,,
,teacup,0.985973596572876,,,,,,,,
,breakfast,0.9835437536239624,,,,,,,,
,dawn,0.9825738668441772,,,,,,,,
,kettle,0.9807314872741699,,,,,,,,
,saucer,0.9771624803543091,,,,,,,,
,table,0.9755153656005859,,,,,,,,
,coffee,0.9749045372009277,,,,,,,,
,traditional,0.9739791750907898,,,,,,,,
,wooden,0.9726361036300659,,,,,,,,
,wood,0.9703333377838135,,,,,,,,
,mug,0.9687812328338623,,,,,,,,
,liquid,0.9687741994857788,,,,,,,,
,medicine,0.962873101234436,,,,,,,,
https://scontent.cdninstagram.com/t51.2885-15/e35/13116783_226864134352095_320267967_n.jpg,"no person",0.9994329214096069,Food,Commerce,,,"Drinks and snack","Product/brand shots",,
,coffee,0.9983961582183838,,,,,,,,
,cappuccino,0.9934877753257751,,,,,,,,
,caffeine,0.984764814376831,,,,,,,,
,espresso,0.9833766222000122,,,,,,,,
,dawn,0.9821444749832153,,,,,,,,
,breakfast,0.9807015657424927,,,,,,,,
,milk,0.9733418226242065,,,,,,,,
,drink,0.9670262336730957,,,,,,,,
,indoors,0.9492892026901245,,,,,,,,
,full,0.9266110062599182,,,,,,,,
,one,0.9211510419845581,,,,,,,,
,delicious,0.9150824546813965,,,,,,,,
,foam,0.9112390279769897,,,,,,,,
,sugar,0.9100504517555237,,,,,,,,
,love,0.9089370965957642,,,,,,,,
,mocha,0.9050891399383545,,,,,,,,
,hot,0.897285521030426,,,,,,,,
,food,0.8971548080444336,,,,,,,,
,cup,0.8925817012786865,,,,,,,,
https://scontent.cdninstagram.com/t51.2885-15/e35/12501629_1593918260925335_339124517_n.jpg,tea,0.9995183944702148,Food,,,,"Drinks and snack",,,
,teapot,0.9988242387771606,,,,,,,,
,drink,0.9983835220336914,,,,,,,,
,hot,0.9975550770759583,,,,,,,,
,cup,0.9967800378799438,,,,,,,,
,herbal,0.9885785579681396,,,,,,,,
,pot,0.9861184358596802,,,,,,,,
,teacup,0.985973596572876,,,,,,,,
,breakfast,0.9835437536239624,,,,,,,,
,dawn,0.9825738668441772,,,,,,,,
,kettle,0.9807314872741699,,,,,,,,
,saucer,0.9771624803543091,,,,,,,,
,table,0.9755153656005859,,,,,,,,
,coffee,0.9749045372009277,,,,,,,,
,traditional,0.9739791750907898,,,,,,,,
,wooden,0.9726361036300659,,,,,,,,
,wood,0.9703333377838135,,,,,,,,
,mug,0.9687812328338623,,,,,,,,
,liquid,0.9687741994857788,,,,,,,,
,medicine,0.962873101234436,,,,,,,,
https://scontent.cdninstagram.com/t51.2885-15/e35/12724634_1671794799731779_1987305020_n.jpg,food,0.9937591552734375,Food,Commerce,,,Dessert,"Product/brand shots",,
,fruit,0.992723286151886,,,,,,,,
,strawberry,0.9918763637542725,,,,,,,,
,healthy,0.9898204803466797,,,,,,,,
,health,0.9842411279678345,,,,,,,,
,delicious,0.9800780415534973,,,,,,,,
,sweet,0.9799400568008423,,,,,,,,
,berry,0.9789542555809021,,,,,,,,
,diet,0.9752635955810547,,,,,,,,
,juicy,0.974170446395874,,,,,,,,
,nutrition,0.9710273742675781,,,,,,,,
,freshness,0.9683912992477417,,,,,,,,
,bowl,0.9626418352127075,,,,,,,,
,leaf,0.9591299295425415,,,,,,,,
,refreshment,0.9479660391807556,,,,,,,,
,tasty,0.9456468820571899,,,,,,,,
,"no person",0.9344899654388428,,,,,,,,
,closeup,0.9116367101669312,,,,,,,,
,breakfast,0.9089009165763855,,,,,,,,
,epicure,0.8953545689582825,,,,,,,,
https://scontent.cdninstagram.com/t51.2885-15/e35/13116837_528285704026008_1216634853_n.jpg,dinner,0.993112325668335,Food,,,,"Meal time",,,
,lunch,0.986393928527832,,,,,,,,
,delicious,0.9848885536193848,,,,,,,,
,food,0.984432578086853,,,,,,,,
,"no person",0.9843266010284424,,,,,,,,
,meat,0.9746861457824707,,,,,,,,
,meal,0.9732708930969238,,,,,,,,
,vegetable,0.9709179997444153,,,,,,,,
,dish,0.9691190719604492,,,,,,,,
,parsley,0.9655849933624268,,,,,,,,
,cooking,0.9616595506668091,,,,,,,,
,sauce,0.954670786857605,,,,,,,,
,beef,0.953899621963501,,,,,,,,
,plate,0.9499372839927673,,,,,,,,
,traditional,0.9480727910995483,,,,,,,,
,nutrition,0.9432121515274048,,,,,,,,
,cuisine,0.9421337842941284,,,,,,,,
,pork,0.9412226676940918,,,,,,,,
,dining,0.9358839988708496,,,,,,,,
,epicure,0.9293173551559448,,,,,,,,
https://scontent.cdninstagram.com/t51.2885-15/e35/13166886_260699420949942_743905978_n.jpg,food,0.9948372840881348,Food,,,,"Meal time",,,
,dinner,0.9909907579421997,,,,,,,,
,lunch,0.9876536130905151,,,,,,,,
,"no person",0.9870010614395142,,,,,,,,
,soup,0.9745821952819824,,,,,,,,
,hot,0.9674787521362305,,,,,,,,
,meat,0.9633182883262634,,,,,,,,
,vegetable,0.9615781307220459,,,,,,,,
,delicious,0.9551703929901123,,,,,,,,
,cooking,0.9505056142807007,,,,,,,,
,meal,0.9486716985702515,,,,,,,,
,grow,0.9413599967956543,,,,,,,,
,dish,0.9410812854766846,,,,,,,,
,bread,0.923794686794281,,,,,,,,
,potato,0.9197281002998352,,,,,,,,
,plate,0.9172155857086182,,,,,,,,
,homemade,0.9163638353347778,,,,,,,,
,traditional,0.9139770269393921,,,,,,,,
,nutrition,0.9137061834335327,,,,,,,,
,parsley,0.9120326042175293,,,,,,,,
https://scontent.cdninstagram.com/t51.2885-15/e35/12918052_440042199537781_2031630677_n.jpg,"no person",0.9933720827102661,Food,,,,"Meal time",,,
,food,0.9898378849029541,,,,,,,,
,dinner,0.9734556674957275,,,,,,,,
,delicious,0.970592200756073,,,,,,,,
,grow,0.9578891396522522,,,,,,,,
,cooking,0.9491759538650513,,,,,,,,
,lunch,0.9484337568283081,,,,,,,,
,dish,0.9411666989326477,,,,,,,,
,traditional,0.9351999759674072,,,,,,,,
,hot,0.9331008195877075,,,,,,,,
,cutlery,0.9286832809448242,,,,,,,,
,bread,0.9273744225502014,,,,,,,,
,meal,0.9088844060897827,,,,,,,,
,meat,0.9064237475395203,,,,,,,,
,homemade,0.8857036232948303,,,,,,,,
,vegetable,0.8853575587272644,,,,,,,,
,plate,0.8851286172866821,,,,,,,,
,nutrition,0.8765064477920532,,,,,,,,
,soup,0.8761518001556396,,,,,,,,
,health,0.8733333945274353,,,,,,,,
https://scontent.cdninstagram.com/t51.2885-15/e35/p480x480/13257009_1152987851410253_1439460554_n.jpg,woman,0.9905726909637451,"Fashion & Beauty",,,,"My look",,,
,people,0.9892570972442627,,,,,,,,
,adult,0.9783756136894226,,,,,,,,
,indoors,0.976117730140686,,,,,,,,
,one,0.9691227674484253,,,,,,,,
,portrait,0.9609383940696716,,,,,,,,
,girl,0.945864200592041,,,,,,,,
,"facial expression",0.9170918464660645,,,,,,,,
,"side view",0.9117675423622131,,,,,,,,
,room,0.8876550197601318,,,,,,,,
,wear,0.8826229572296143,,,,,,,,
,sit,0.8714796304702759,,,,,,,,
,fashion,0.8649197816848755,,,,,,,,
,drink,0.8516879677772522,,,,,,,,
,furniture,0.8321363925933838,,,,,,,,
,business,0.8302832245826721,,,,,,,,
,dress,0.8120787143707275,,,,,,,,
,coffee,0.8097866773605347,,,,,,,,
,wedding,0.7979215383529663,,,,,,,,
,model,0.7822121977806091,,,,,,,,
https://scontent.cdninstagram.com/t51.2885-15/e35/12724634_1671794799731779_1987305020_n.jpg,food,0.9937591552734375,Food,Commerce,,,Dessert,"Product/brand shots",,
,fruit,0.992723286151886,,,,,,,,
,strawberry,0.9918763637542725,,,,,,,,
,healthy,0.9898204803466797,,,,,,,,
,health,0.9842411279678345,,,,,,,,
,delicious,0.9800780415534973,,,,,,,,
,sweet,0.9799400568008423,,,,,,,,
,berry,0.9789542555809021,,,,,,,,
,diet,0.9752635955810547,,,,,,,,
,juicy,0.974170446395874,,,,,,,,
,nutrition,0.9710273742675781,,,,,,,,
,freshness,0.9683912992477417,,,,,,,,
,bowl,0.9626418352127075,,,,,,,,
,leaf,0.9591299295425415,,,,,,,,
,refreshment,0.9479660391807556,,,,,,,,
,tasty,0.9456468820571899,,,,,,,,
,"no person",0.9344899654388428,,,,,,,,
,closeup,0.9116367101669312,,,,,,,,
,breakfast,0.9089009165763855,,,,,,,,
,epicure,0.8953545689582825,,,,,,,,
https://scontent.cdninstagram.com/t51.2885-15/e35/12135192_1148395501861034_942098787_n.jpg,people,0.9686628580093384,"Fashion & Beauty",Entertainment,,,Ootd,Entertainment-s,,
,one,0.9512248039245605,,,,,,,,
,fashion,0.9512231349945068,,,,,,,,
,adult,0.9410994052886963,,,,,,,,
,indoors,0.9310518503189087,,,,,,,,
,wear,0.9296087026596069,,,,,,,,
,woman,0.9211121797561646,,,,,,,,
,man,0.9160540699958801,,,,,,,,
,sit,0.9152426719665527,,,,,,,,
,model,0.8983900547027588,,,,,,,,
,art,0.892069399356842,,,,,,,,
,portrait,0.8885875940322876,,,,,,,,
,music,0.8705282211303711,,,,,,,,
,design,0.8630748391151428,,,,,,,,
,veil,0.8458058834075928,,,,,,,,
,robot,0.8436015844345093,,,,,,,,
,sexy,0.8301368951797485,,,,,,,,
,light,0.816396951675415,,,,,,,,
,"no person",0.8157703876495361,,,,,,,,
,fantasy,0.8107227683067322,,,,,,,,
https://scontent.cdninstagram.com/t51.2885-15/e35/12976464_1587447091584049_1201931174_n.jpg,paper,0.9857903718948364,Business,,,,Business-s,,,
,number,0.9835901260375977,,,,,,,,
,document,0.960956335067749,,,,,,,,
,label,0.9578673839569092,,,,,,,,
,page,0.9573971033096313,,,,,,,,
,presentation,0.9509822130203247,,,,,,,,
,booklet,0.9378505945205688,,,,,,,,
,template,0.9311448335647583,,,,,,,,
,business,0.9235131740570068,,,,,,,,
,information,0.9219619035720825,,,,,,,,
,card,0.9187963008880615,,,,,,,,
,order,0.9123051762580872,,,,,,,,
,form,0.9103042483329773,,,,,,,,
,promotion,0.8847570419311523,,,,,,,,
,diagram,0.8822553753852844,,,,,,,,
,identity,0.878371000289917,,,,,,,,
,banner,0.8636655807495117,,,,,,,,
,origami,0.8617100715637207,,,,,,,,
,text,0.8580977916717529,,,,,,,,
,administration,0.8542089462280273,,,,,,,,
https://scontent.cdninstagram.com/t51.2885-15/e35/13413288_1790161001218963_2030234483_n.jpg,casino,0.9906283617019653,Food,"My life",Commerce,,Dessert,"Here I am","Product/brand shots",
,"no person",0.9838254451751709,,,,,,,,
,hotel,0.9823360443115234,,,,,,,,
,luxury,0.9797637462615967,,,,,,,,
,restaurant,0.9781249761581421,,,,,,,,
,gambling,0.9780856370925903,,,,,,,,
,neon,0.9777446985244751,,,,,,,,
,stock,0.9776850938796997,,,,,,,,
,travel,0.9739476442337036,,,,,,,,
,vacation,0.9606927633285522,,,,,,,,
,tourist,0.9554898738861084,,,,,,,,
,people,0.9548298120498657,,,,,,,,
,bar,0.9495524764060974,,,,,,,,
,"interior design",0.949522078037262,,,,,,,,
,architecture,0.9489665031433105,,,,,,,,
,business,0.9478317499160767,,,,,,,,
,shopping,0.9419883489608765,,,,,,,,
,tourism,0.9413858652114868,,,,,,,,
,evening,0.9404313564300537,,,,,,,,
,commerce,0.9396970272064209,,,,,,,,
https://scontent.cdninstagram.com/t51.2885-15/sh0.08/e35/p750x750/12519538_208592932848049_1727408736_n.jpg,woman,0.9918166399002075,"Fashion & Beauty","My life",,,"My look",Selfie,,
,girl,0.980783224105835,,,,,,,,
,portrait,0.9787198305130005,,,,,,,,
,fashion,0.9685895442962646,,,,,,,,
,people,0.95864337682724,,,,,,,,
,model,0.9379792213439941,,,,,,,,
,"facial expression",0.9296367168426514,,,,,,,,
,brunette,0.9270626306533813,,,,,,,,
,sexy,0.9164153337478638,,,,,,,,
,pretty,0.9100097417831421,,,,,,,,
,eye,0.9076404571533203,,,,,,,,
,cute,0.9009755849838257,,,,,,,,
,glamour,0.8807957172393799,,,,,,,,
,adolescent,0.862680196762085,,,,,,,,
,lips,0.8419948220252991,,,,,,,,
,one,0.8385182619094849,,,,,,,,
,face,0.8365588188171387,,,,,,,,
,child,0.8253998756408691,,,,,,,,
,adult,0.8179649710655212,,,,,,,,
,hair,0.810226559638977,,,,,,,,
https://scontent.cdninstagram.com/t51.2885-15/e35/12135192_1148395501861034_942098787_n.jpg,people,0.9686628580093384,"Fashion & Beauty",Entertainment,,,Ootd,Entertainment-s,,
,one,0.9512248039245605,,,,,,,,
,fashion,0.9512231349945068,,,,,,,,
,adult,0.9410994052886963,,,,,,,,
,indoors,0.9310518503189087,,,,,,,,
,wear,0.9296087026596069,,,,,,,,
,woman,0.9211121797561646,,,,,,,,
,man,0.9160540699958801,,,,,,,,
,sit,0.9152426719665527,,,,,,,,
,model,0.8983900547027588,,,,,,,,
,art,0.892069399356842,,,,,,,,
,portrait,0.8885875940322876,,,,,,,,
,music,0.8705282211303711,,,,,,,,
,design,0.8630748391151428,,,,,,,,
,veil,0.8458058834075928,,,,,,,,
,robot,0.8436015844345093,,,,,,,,
,sexy,0.8301368951797485,,,,,,,,
,light,0.816396951675415,,,,,,,,
,"no person",0.8157703876495361,,,,,,,,
,fantasy,0.8107227683067322,,,,,,,,
https://scontent.cdninstagram.com/t51.2885-15/s750x750/sh0.08/e35/13260891_1024840207593860_73679370_n.jpg,woman,0.9936256408691406,"Fashion & Beauty",,,,"My look",,,
,fashion,0.9914778470993042,,,,,,,,
,portrait,0.9862574338912964,,,,,,,,
,girl,0.985663115978241,,,,,,,,
,model,0.9783331155776978,,,,,,,,
,one,0.9595481157302856,,,,,,,,
,dress,0.9509080052375793,,,,,,,,
,pretty,0.941261887550354,,,,,,,,
,people,0.9374094605445862,,,,,,,,
,adult,0.9371085166931152,,,,,,,,
,wear,0.9272859692573547,,,,,,,,
,glamour,0.923983097076416,,,,,,,,
,beautiful,0.9132400751113892,,,,,,,,
,young,0.9060013294219971,,,,,,,,
,cute,0.9011971354484558,,,,,,,,
,outdoors,0.8963807821273804,,,,,,,,
,sexy,0.8857057094573975,,,,,,,,
,brunette,0.8856727480888367,,,,,,,,
,hair,0.8768386244773865,,,,,,,,
,lifestyle,0.8736447691917419,,,,,,,,
https://scontent.cdninstagram.com/t51.2885-15/e35/12965891_1304649659549467_1750357686_n.jpg,food,0.9951350688934326,Food,,,,"Meal time",,,
,pan,0.9947226643562317,,,,,,,,
,cooking,0.9943340420722961,,,,,,,,
,meat,0.9897640347480774,,,,,,,,
,hot,0.9873479604721069,,,,,,,,
,dinner,0.9855548143386841,,,,,,,,
,soup,0.9849761128425598,,,,,,,,
,meal,0.9767707586288452,,,,,,,,
,stove,0.9754520654678345,,,,,,,,
,"no person",0.973372757434845,,,,,,,,
,vegetable,0.9675636291503906,,,,,,,,
,"frying pan",0.9665096998214722,,,,,,,,
,lunch,0.9660193920135498,,,,,,,,
,homemade,0.9574711322784424,,,,,,,,
,cuisine,0.9356640577316284,,,,,,,,
,chicken,0.9327890872955322,,,,,,,,
,pot,0.9281919002532959,,,,,,,,
,delicious,0.9274710416793823,,,,,,,,
,dish,0.9144610166549683,,,,,,,,
,onion,0.9131082892417908,,,,,,,,
https://scontent.cdninstagram.com/t51.2885-15/e35/12940728_1715574408713224_1112103471_n.jpg,strawberry,0.9952334761619568,Food,,,,Dessert,,,
,"no person",0.9946194887161255,,,,,,,,
,fruit,0.9924259185791016,,,,,,,,
,sweet,0.9892829656600952,,,,,,,,
,sugar,0.9887723326683044,,,,,,,,
,berry,0.9881446361541748,,,,,,,,
,delicious,0.987401008605957,,,,,,,,
,cream,0.9870187044143677,,,,,,,,
,jam,0.9846839308738708,,,,,,,,
,breakfast,0.9834280610084534,,,,,,,,
,homemade,0.966766357421875,,,,,,,,
,cake,0.9665675163269043,,,,,,,,
,food,0.9652172327041626,,,,,,,,
,creamy,0.9627125263214111,,,,,,,,
,chocolate,0.955460786819458,,,,,,,,
,pudding,0.9505233764648438,,,,,,,,
,pastry,0.9493151903152466,,,,,,,,
,marmalade,0.9399569630622864,,,,,,,,
,baking,0.9375483989715576,,,,,,,,
,gelatin,0.9302290678024292,,,,,,,,
https://scontent.cdninstagram.com/t51.2885-15/sh0.08/e35/p750x750/12519538_208592932848049_1727408736_n.jpg,woman,0.9918166399002075,"Fashion & Beauty","My life",,,"My look",Selfie,,
,girl,0.980783224105835,,,,,,,,
,portrait,0.9787198305130005,,,,,,,,
,fashion,0.9685895442962646,,,,,,,,
,people,0.95864337682724,,,,,,,,
,model,0.9379792213439941,,,,,,,,
,"facial expression",0.9296367168426514,,,,,,,,
,brunette,0.9270626306533813,,,,,,,,
,sexy,0.9164153337478638,,,,,,,,
,pretty,0.9100097417831421,,,,,,,,
,eye,0.9076404571533203,,,,,,,,
,cute,0.9009755849838257,,,,,,,,
,glamour,0.8807957172393799,,,,,,,,
,adolescent,0.862680196762085,,,,,,,,
,lips,0.8419948220252991,,,,,,,,
,one,0.8385182619094849,,,,,,,,
,face,0.8365588188171387,,,,,,,,
,child,0.8253998756408691,,,,,,,,
,adult,0.8179649710655212,,,,,,,,
,hair,0.810226559638977,,,,,,,,
https://scontent.cdninstagram.com/t51.2885-15/s750x750/sh0.08/e35/13258900_900314663429105_1419434519_n.jpg,fashion,0.9726184606552124,Commerce,,,,"Product/brand shots",,,
,watch,0.970229983329773,,,,,,,,
,pocket,0.9645512104034424,,,,,,,,
,wear,0.9596392512321472,,,,,,,,
,jewelry,0.9388972520828247,,,,,,,,
,sewing,0.9331636428833008,,,,,,,,
,thread,0.9312673807144165,,,,,,,,
,time,0.9284262657165527,,,,,,,,
,love,0.919895350933075,,,,,,,,
,desktop,0.908130407333374,,,,,,,,
,"alarm clock",0.9054614901542664,,,,,,,,
,business,0.9025887250900269,,,,,,,,
,"no person",0.9007460474967957,,,,,,,,
,wristwatch,0.8951463103294373,,,,,,,,
,clock,0.8915950655937195,,,,,,,,
,needle,0.8915780782699585,,,,,,,,
,vintage,0.8873737454414368,,,,,,,,
,closeup,0.8833153247833252,,,,,,,,
,bracelet,0.8825136423110962,,,,,,,,
,color,0.8797032237052917,,,,,,,,
https://scontent.cdninstagram.com/t51.2885-15/e35/12383370_963500960413310_869223886_n.jpg,people,0.9922604560852051,Relationships,Cute,,,Friends,Cute,,
,soccer,0.9813807010650635,,,,,,,,
,child,0.9745932817459106,,,,,,,,
,football,0.9733038544654846,,,,,,,,
,competition,0.9524083137512207,,,,,,,,
,wear,0.9492955207824707,,,,,,,,
,recreation,0.9441195726394653,,,,,,,,
,man,0.9439529180526733,,,,,,,,
,woman,0.9413083791732788,,,,,,,,
,exhibition,0.9404581189155579,,,,,,,,
,adult,0.9243693351745605,,,,,,,,
,portrait,0.9189833998680115,,,,,,,,
,ball,0.9131160974502563,,,,,,,,
,religion,0.902591347694397,,,,,,,,
,art,0.9002139568328857,,,,,,,,
,"facial expression",0.8846938610076904,,,,,,,,
,group,0.8812110424041748,,,,,,,,
,sculpture,0.87909996509552,,,,,,,,
,girl,0.8673205375671387,,,,,,,,
,festival,0.8666739463806152,,,,,,,,
https://scontent.cdninstagram.com/t51.2885-15/e35/12976497_138034826597649_691288003_n.jpg,"no person",0.9945511221885681,Food,Commerce,,,"Meal time","Product/brand shots",,
,cup,0.9921579957008362,,,,,,,,
,tea,0.9899209141731262,,,,,,,,
,coffee,0.9828550815582275,,,,,,,,
,drink,0.9807995557785034,,,,,,,,
,hot,0.9579363465309143,,,,,,,,
,breakfast,0.9507538080215454,,,,,,,,
,food,0.9401332139968872,,,,,,,,
,traditional,0.9082872867584229,,,,,,,,
,porcelain,0.8972129821777344,,,,,,,,
,dawn,0.896661639213562,,,,,,,,
,mug,0.8944579362869263,,,,,,,,
,"still life",0.8818116188049316,,,,,,,,
,espresso,0.8693152666091919,,,,,,,,
,restaurant,0.8661072850227356,,,,,,,,
,container,0.8569141626358032,,,,,,,,
,indoors,0.8457197546958923,,,,,,,,
,color,0.8434435725212097,,,,,,,,
,steam,0.8374321460723877,,,,,,,,
,table,0.8278558850288391,,,,,,,,
https://scontent.cdninstagram.com/t51.2885-15/sh0.08/e35/p750x750/12424918_977187009074319_1141157539_n.jpg,"no person",0.9274032115936279,"My life",Commerce,Food,,"Here I am","Product/brand shots",Dessert,
,text,0.9212416410446167,,,,,,,,
,hanging,0.8909671306610107,,,,,,,,
,people,0.8633126616477966,,,,,,,,
,indoors,0.8615343570709229,,,,,,,,
,art,0.8464676141738892,,,,,,,,
,decoration,0.8387483358383179,,,,,,,,
,business,0.8374580144882202,,,,,,,,
,bill,0.826162576675415,,,,,,,,
,design,0.8104516863822937,,,,,,,,
,retro,0.7923804521560669,,,,,,,,
,empty,0.7794588804244995,,,,,,,,
,exhibition,0.7740744352340698,,,,,,,,
,"picture frame",0.7683030366897583,,,,,,,,
,adult,0.7669951319694519,,,,,,,,
,sign,0.7642553448677063,,,,,,,,
,one,0.7640771269798279,,,,,,,,
,light,0.760174036026001,,,,,,,,
,desktop,0.7570139169692993,,,,,,,,
,entertainment,0.7570080161094666,,,,,,,,
https://scontent.cdninstagram.com/t51.2885-15/e35/13129807_611548465659665_1258359287_n.jpg,"no person",0.9900763034820557,Food,,,,Dessert,,,
,delicious,0.9881444573402405,,,,,,,,
,cream,0.9871189594268799,,,,,,,,
,chocolate,0.976636528968811,,,,,,,,
,scoop,0.9710419178009033,,,,,,,,
,sweet,0.9685580730438232,,,,,,,,
,"dairy product",0.9668528437614441,,,,,,,,
,vanilla,0.9602476358413696,,,,,,,,
,creamy,0.9600287675857544,,,,,,,,
,sugar,0.958530843257904,,,,,,,,
,indulgence,0.9554622769355774,,,,,,,,
,food,0.9499321579933167,,,,,,,,
,milk,0.9373236894607544,,,,,,,,
,baking,0.923791766166687,,,,,,,,
,ice,0.9185879826545715,,,,,,,,
,sorbet,0.9179527759552002,,,,,,,,
,cup,0.8738329410552979,,,,,,,,
,homemade,0.8724570274353027,,,,,,,,
,frozen,0.8696635365486145,,,,,,,,
,goody,0.8394284844398499,,,,,,,,
https://scontent.cdninstagram.com/t51.2885-15/e35/12530863_555038904665244_1354667304_n.jpg,food,0.991706371307373,Food,,,,"Meal time",,,
,dinner,0.9867762327194214,,,,,,,,
,meal,0.9783052206039429,,,,,,,,
,"no person",0.9772173762321472,,,,,,,,
,lunch,0.975732684135437,,,,,,,,
,plate,0.9744358062744141,,,,,,,,
,dish,0.9699823260307312,,,,,,,,
,hot,0.9692530632019043,,,,,,,,
,table,0.9564303159713745,,,,,,,,
,vegetable,0.9549490213394165,,,,,,,,
,bowl,0.954087495803833,,,,,,,,
,cooking,0.9533839225769043,,,,,,,,
,restaurant,0.9527500867843628,,,,,,,,
,soup,0.9482877254486084,,,,,,,,
,dining,0.947825014591217,,,,,,,,
,cuisine,0.947364330291748,,,,,,,,
,traditional,0.9437118172645569,,,,,,,,
,epicure,0.930076003074646,,,,,,,,
,delicious,0.9139375686645508,,,,,,,,
,spoon,0.9075086712837219,,,,,,,,
https://scontent.cdninstagram.com/t51.2885-15/e35/13167214_294022804262364_606989036_n.jpg,"no person",0.9933878183364868,Food,,,,"Meal time",,,
,food,0.9904087781906128,,,,,,,,
,dinner,0.9734972715377808,,,,,,,,
,meat,0.9719052314758301,,,,,,,,
,beef,0.970906674861908,,,,,,,,
,delicious,0.9559701085090637,,,,,,,,
,pork,0.9496588706970215,,,,,,,,
,lunch,0.9446530342102051,,,,,,,,
,bread,0.9381797909736633,,,,,,,,
,meal,0.9244284629821777,,,,,,,,
,plate,0.910710334777832,,,,,,,,
,dish,0.9035779237747192,,,,,,,,
,knife,0.8989933133125305,,,,,,,,
,grow,0.8941221833229065,,,,,,,,
,cooking,0.8936811685562134,,,,,,,,
,traditional,0.8694304823875427,,,,,,,,
,vegetable,0.8500029444694519,,,,,,,,
,homemade,0.8486894369125366,,,,,,,,
,potato,0.8465529680252075,,,,,,,,
,pepper,0.8458884358406067,,,,,,,,
https://scontent.cdninstagram.com/t51.2885-15/e35/13355466_581233555386756_984232390_n.jpg,woman,0.9927893877029419,Relationships,,,,"Best friends",,,
,child,0.9896979331970215,,,,,,,,
,togetherness,0.9854175448417664,,,,,,,,
,people,0.9797452688217163,,,,,,,,
,fun,0.9797349572181702,,,,,,,,
,love,0.9716978073120117,,,,,,,,
,two,0.9682204723358154,,,,,,,,
,indoors,0.9629291296005249,,,,,,,,
,cute,0.959898829460144,,,,,,,,
,friendship,0.9576995372772217,,,,,,,,
,girl,0.9478441476821899,,,,,,,,
,family,0.943949818611145,,,,,,,,
,joy,0.9395408034324646,,,,,,,,
,adolescent,0.9378769993782043,,,,,,,,
,pretty,0.9216526746749878,,,,,,,,
,enjoyment,0.9202117323875427,,,,,,,,
,portrait,0.9160966873168945,,,,,,,,
,affection,0.9127244353294373,,,,,,,,
,fashion,0.9099454879760742,,,,,,,,
,little,0.8811280727386475,,,,,,,,
https://scontent.cdninstagram.com/t51.2885-15/e35/13329150_1625318147690671_1912886357_n.jpg,woman,0.9943127632141113,Food,"Fashion & Beauty",,,"Drinks and snack","My look",,
,sit,0.9880082607269287,,,,,,,,
,leisure,0.9786994457244873,,,,,,,,
,outdoors,0.972891092300415,,,,,,,,
,summer,0.9668302536010742,,,,,,,,
,relaxation,0.9590997695922852,,,,,,,,
,water,0.9379465579986572,,,,,,,,
,enjoyment,0.9375576972961426,,,,,,,,
,pretty,0.9371984601020813,,,,,,,,
,travel,0.9233297109603882,,,,,,,,
,coffee,0.9192055463790894,,,,,,,,
,people,0.9182153940200806,,,,,,,,
,adolescent,0.9168152213096619,,,,,,,,
,one,0.8865492939949036,,,,,,,,
,young,0.8732457160949707,,,,,,,,
,cute,0.8689643144607544,,,,,,,,
,girl,0.8670854568481445,,,,,,,,
,"fair weather",0.8641612529754639,,,,,,,,
,casual,0.8621723651885986,,,,,,,,
,portrait,0.8560664653778076,,,,,,,,
https://scontent.cdninstagram.com/t51.2885-15/e35/13181272_1574035649593617_956490067_n.jpg,food,0.9618196487426758,Food,,,,"Meal time",,,
,paper,0.9525051116943359,,,,,,,,
,chocolate,0.9391721487045288,,,,,,,,
,"no person",0.9247296452522278,,,,,,,,
,love,0.9239898324012756,,,,,,,,
,indoors,0.9103147983551025,,,,,,,,
,cake,0.8885905742645264,,,,,,,,
,celebration,0.8711512088775635,,,,,,,,
,delicious,0.8663140535354614,,,,,,,,
,sugar,0.8612205982208252,,,,,,,,
,romance,0.8443719148635864,,,,,,,,
,indulgence,0.8430510759353638,,,,,,,,
,vertical,0.8201817274093628,,,,,,,,
,sweet,0.8169502019882202,,,,,,,,
,wedding,0.8074093461036682,,,,,,,,
,coffee,0.7845289707183838,,,,,,,,
,woman,0.7737362384796143,,,,,,,,
,fruit,0.7694726586341858,,,,,,,,
,cream,0.7649484872817993,,,,,,,,
,birthday,0.762738823890686,,,,,,,,
https://scontent.cdninstagram.com/t51.2885-15/e35/13116783_226864134352095_320267967_n.jpg,"no person",0.9994329214096069,Food,Commerce,,,"Drinks and snack","Product/brand shots",,
,coffee,0.9983961582183838,,,,,,,,
,cappuccino,0.9934877753257751,,,,,,,,
,caffeine,0.984764814376831,,,,,,,,
,espresso,0.9833766222000122,,,,,,,,
,dawn,0.9821444749832153,,,,,,,,
,breakfast,0.9807015657424927,,,,,,,,
,milk,0.9733418226242065,,,,,,,,
,drink,0.9670262336730957,,,,,,,,
,indoors,0.9492892026901245,,,,,,,,
,full,0.9266110062599182,,,,,,,,
,one,0.9211510419845581,,,,,,,,
,delicious,0.9150824546813965,,,,,,,,
,foam,0.9112390279769897,,,,,,,,
,sugar,0.9100504517555237,,,,,,,,
,love,0.9089370965957642,,,,,,,,
,mocha,0.9050891399383545,,,,,,,,
,hot,0.897285521030426,,,,,,,,
,food,0.8971548080444336,,,,,,,,
,cup,0.8925817012786865,,,,,,,,
https://scontent.cdninstagram.com/t51.2885-15/e35/13116837_528285704026008_1216634853_n.jpg,dinner,0.993112325668335,Food,,,,"Meal time",,,
,lunch,0.986393928527832,,,,,,,,
,delicious,0.9848885536193848,,,,,,,,
,food,0.984432578086853,,,,,,,,
,"no person",0.9843266010284424,,,,,,,,
,meat,0.9746861457824707,,,,,,,,
,meal,0.9732708930969238,,,,,,,,
,vegetable,0.9709179997444153,,,,,,,,
,dish,0.9691190719604492,,,,,,,,
,parsley,0.9655849933624268,,,,,,,,
,cooking,0.9616595506668091,,,,,,,,
,sauce,0.954670786857605,,,,,,,,
,beef,0.953899621963501,,,,,,,,
,plate,0.9499372839927673,,,,,,,,
,traditional,0.9480727910995483,,,,,,,,
,nutrition,0.9432121515274048,,,,,,,,
,cuisine,0.9421337842941284,,,,,,,,
,pork,0.9412226676940918,,,,,,,,
,dining,0.9358839988708496,,,,,,,,
,epicure,0.9293173551559448,,,,,,,,
https://scontent.cdninstagram.com/t51.2885-15/e35/12530863_555038904665244_1354667304_n.jpg,food,0.991706371307373,Food,,,,"Meal time",,,
,dinner,0.9867762327194214,,,,,,,,
,meal,0.9783052206039429,,,,,,,,
,"no person",0.9772173762321472,,,,,,,,
,lunch,0.975732684135437,,,,,,,,
,plate,0.9744358062744141,,,,,,,,
,dish,0.9699823260307312,,,,,,,,
,hot,0.9692530632019043,,,,,,,,
,table,0.9564303159713745,,,,,,,,
,vegetable,0.9549490213394165,,,,,,,,
,bowl,0.954087495803833,,,,,,,,
,cooking,0.9533839225769043,,,,,,,,
,restaurant,0.9527500867843628,,,,,,,,
,soup,0.9482877254486084,,,,,,,,
,dining,0.947825014591217,,,,,,,,
,cuisine,0.947364330291748,,,,,,,,
,traditional,0.9437118172645569,,,,,,,,
,epicure,0.930076003074646,,,,,,,,
,delicious,0.9139375686645508,,,,,,,,
,spoon,0.9075086712837219,,,,,,,,
https://scontent.cdninstagram.com/t51.2885-15/e35/12976497_138034826597649_691288003_n.jpg,"no person",0.9945511221885681,Food,Commerce,,,"Meal time","Product/brand shots",,
,cup,0.9921579957008362,,,,,,,,
,tea,0.9899209141731262,,,,,,,,
,coffee,0.9828550815582275,,,,,,,,
,drink,0.9807995557785034,,,,,,,,
,hot,0.9579363465309143,,,,,,,,
,breakfast,0.9507538080215454,,,,,,,,
,food,0.9401332139968872,,,,,,,,
,traditional,0.9082872867584229,,,,,,,,
,porcelain,0.8972129821777344,,,,,,,,
,dawn,0.896661639213562,,,,,,,,
,mug,0.8944579362869263,,,,,,,,
,"still life",0.8818116188049316,,,,,,,,
,espresso,0.8693152666091919,,,,,,,,
,restaurant,0.8661072850227356,,,,,,,,
,container,0.8569141626358032,,,,,,,,
,indoors,0.8457197546958923,,,,,,,,
,color,0.8434435725212097,,,,,,,,
,steam,0.8374321460723877,,,,,,,,
,table,0.8278558850288391,,,,,,,,
https://scontent.cdninstagram.com/t51.2885-15/e35/13183413_831447923627069_339211551_n.jpg,cream,0.9867303967475891,Food,,,,Dessert,,,
,sweet,0.9858624935150146,,,,,,,,
,delicious,0.9811419248580933,,,,,,,,
,cake,0.9808382391929626,,,,,,,,
,sugar,0.9777061939239502,,,,,,,,
,fruit,0.9670792818069458,,,,,,,,
,strawberry,0.9652873277664185,,,,,,,,
,"no person",0.9617035984992981,,,,,,,,
,creamy,0.9529525637626648,,,,,,,,
,chocolate,0.9495936632156372,,,,,,,,
,pastry,0.9476917386054993,,,,,,,,
,berry,0.9398987293243408,,,,,,,,
,candy,0.9319089651107788,,,,,,,,
,food,0.931414008140564,,,,,,,,
,raspberry,0.9291627407073975,,,,,,,,
,indulgence,0.9275136590003967,,,,,,,,
,baking,0.9209691286087036,,,,,,,,
,bakery,0.8984248638153076,,,,,,,,
,refreshment,0.8966497778892517,,,,,,,,
,homemade,0.8866835832595825,,,,,,,,
https://scontent.cdninstagram.com/t51.2885-15/e35/13126838_1072184382822854_1605054098_n.jpg,people,0.969440221786499,Cute,"Fashion & Beauty",,,Cute,Ootd,,
,costume,0.9640316963195801,,,,,,,,
,mask,0.950489342212677,,,,,,,,
,Halloween,0.9387937188148499,,,,,,,,
,woman,0.9297463297843933,,,,,,,,
,festival,0.923615574836731,,,,,,,,
,fashion,0.9182599782943726,,,,,,,,
,party,0.9082756042480469,,,,,,,,
,dress,0.9034026861190796,,,,,,,,
,fun,0.9029908180236816,,,,,,,,
,wear,0.8970922231674194,,,,,,,,
,mask,0.8848413228988647,,,,,,,,
,theater,0.8743593692779541,,,,,,,,
,man,0.8597968816757202,,,,,,,,
,movie,0.8589365482330322,,,,,,,,
,performance,0.8525376319885254,,,,,,,,
,art,0.8348415493965149,,,,,,,,
,adult,0.833828330039978,,,,,,,,
,celebration,0.8336849212646484,,,,,,,,
,person,0.8154428005218506,,,,,,,,
https://scontent.cdninstagram.com/t51.2885-15/e35/13129695_1890244311202315_1414885017_n.jpg,table,0.989690899848938,"Fashion & Beauty",,,,"My look",,,
,coffee,0.9871780872344971,,,,,,,,
,sit,0.9849401712417603,,,,,,,,
,woman,0.9823982119560242,,,,,,,,
,indoors,0.9805079698562622,,,,,,,,
,people,0.970881462097168,,,,,,,,
,tea,0.9655283689498901,,,,,,,,
,breakfast,0.947909951210022,,,,,,,,
,one,0.9347869157791138,,,,,,,,
,portrait,0.9230488538742065,,,,,,,,
,drink,0.9230338335037231,,,,,,,,
,room,0.9208338260650635,,,,,,,,
,enjoyment,0.9148387908935547,,,,,,,,
,cup,0.913576602935791,,,,,,,,
,family,0.9082512855529785,,,,,,,,
,furniture,0.9043657779693604,,,,,,,,
,relaxation,0.9005833864212036,,,,,,,,
,adult,0.8974511623382568,,,,,,,,
,girl,0.8857827186584473,,,,,,,,
,leisure,0.8826233744621277,,,,,,,,
https://scontent.cdninstagram.com/t51.2885-15/e35/13108804_1556151484687433_696785421_n.jpg,woman,0.993079662322998,"Fashion & Beauty",,,,Ootd,,,
,fashion,0.986032247543335,,,,,,,,
,girl,0.9702445268630981,,,,,,,,
,portrait,0.9680358171463013,,,,,,,,
,people,0.9670175313949585,,,,,,,,
,one,0.9433048963546753,,,,,,,,
,street,0.9408496618270874,,,,,,,,
,model,0.9241366386413574,,,,,,,,
,adult,0.9216747283935547,,,,,,,,
,outdoors,0.9183169603347778,,,,,,,,
,dress,0.9028348326683044,,,,,,,,
,pretty,0.8825191259384155,,,,,,,,
,skirt,0.8729814291000366,,,,,,,,
,sexy,0.8726100921630859,,,,,,,,
,city,0.8647753000259399,,,,,,,,
,recreation,0.8496302366256714,,,,,,,,
,glamour,0.8488349914550781,,,,,,,,
,urban,0.8048852682113647,,,,,,,,
,young,0.8039522767066956,,,,,,,,
,wear,0.7914361953735352,,,,,,,,
https://scontent.cdninstagram.com/t51.2885-15/e35/12383370_963500960413310_869223886_n.jpg,people,0.9922604560852051,Relationships,Cute,,,Friends,Cute,,
,soccer,0.9813807010650635,,,,,,,,
,child,0.9745932817459106,,,,,,,,
,football,0.9733038544654846,,,,,,,,
,competition,0.9524083137512207,,,,,,,,
,wear,0.9492955207824707,,,,,,,,
,recreation,0.9441195726394653,,,,,,,,
,man,0.9439529180526733,,,,,,,,
,woman,0.9413083791732788,,,,,,,,
,exhibition,0.9404581189155579,,,,,,,,
,adult,0.9243693351745605,,,,,,,,
,portrait,0.9189833998680115,,,,,,,,
,ball,0.9131160974502563,,,,,,,,
,religion,0.902591347694397,,,,,,,,
,art,0.9002139568328857,,,,,,,,
,"facial expression",0.8846938610076904,,,,,,,,
,group,0.8812110424041748,,,,,,,,
,sculpture,0.87909996509552,,,,,,,,
,girl,0.8673205375671387,,,,,,,,
,festival,0.8666739463806152,,,,,,,,
https://scontent.cdninstagram.com/t51.2885-15/e35/12599198_495320823988243_1187541502_n.jpg,people,0.9951358437538147,"Fashion & Beauty",,,,Ootd,,,
,woman,0.9912641048431396,,,,,,,,
,girl,0.9870157837867737,,,,,,,,
,portrait,0.9829494953155518,,,,,,,,
,one,0.978696346282959,,,,,,,,
,adult,0.9747529029846191,,,,,,,,
,dress,0.9666473269462585,,,,,,,,
,fashion,0.9570404291152954,,,,,,,,
,model,0.9533207416534424,,,,,,,,
,skirt,0.9240220785140991,,,,,,,,
,street,0.9099497199058533,,,,,,,,
,brunette,0.8963038921356201,,,,,,,,
,music,0.8930407762527466,,,,,,,,
,outdoors,0.8871748447418213,,,,,,,,
,wear,0.8843852281570435,,,,,,,,
,sexy,0.8785783052444458,,,,,,,,
,hair,0.8662291765213013,,,,,,,,
,recreation,0.8568077087402344,,,,,,,,
,actress,0.8410054445266724,,,,,,,,
,glamour,0.8303978443145752,,,,,,,,
https://scontent.cdninstagram.com/t51.2885-15/e35/12976181_1525933431048112_426490531_n.jpg,food,0.9904849529266357,Food,Commerce,,,"Meal time","Product/brand shots",,
,wood,0.9874863624572754,,,,,,,,
,"no person",0.9762665033340454,,,,,,,,
,wooden,0.9612745642662048,,,,,,,,
,knife,0.934617280960083,,,,,,,,
,old,0.917660653591156,,,,,,,,
,desktop,0.916775107383728,,,,,,,,
,traditional,0.9024789333343506,,,,,,,,
,paper,0.8948702812194824,,,,,,,,
,vertical,0.8922356367111206,,,,,,,,
,indoors,0.8827933073043823,,,,,,,,
,table,0.8782399296760559,,,,,,,,
,horizontal,0.8643231987953186,,,,,,,,
,healthy,0.8631682395935059,,,,,,,,
,board,0.8604811429977417,,,,,,,,
,cheese,0.8582998514175415,,,,,,,,
,wine,0.8524457812309265,,,,,,,,
,group,0.8381890654563904,,,,,,,,
,various,0.8314415216445923,,,,,,,,
,cooking,0.8290201425552368,,,,,,,,
https://scontent.cdninstagram.com/t51.2885-15/e35/13388486_232900273761028_2126312923_n.jpg,child,0.990802526473999,"Fashion & Beauty","My life",,,"My look",Selfie,,
,girl,0.9900459051132202,,,,,,,,
,portrait,0.9899728894233704,,,,,,,,
,people,0.9858980178833008,,,,,,,,
,one,0.9847203493118286,,,,,,,,
,happiness,0.975089967250824,,,,,,,,
,brunette,0.9741705060005188,,,,,,,,
,wear,0.9573321342468262,,,,,,,,
,"facial expression",0.9491113424301147,,,,,,,,
,woman,0.947178840637207,,,,,,,,
,youth,0.9397945404052734,,,,,,,,
,cute,0.9393274784088135,,,,,,,,
,face,0.9369231462478638,,,,,,,,
,adult,0.9301333427429199,,,,,,,,
,little,0.9202054738998413,,,,,,,,
,lifestyle,0.9019894599914551,,,,,,,,
,beautiful,0.9014159440994263,,,,,,,,
,innocence,0.8935735821723938,,,,,,,,
,youth,0.8930622935295105,,,,,,,,
,fun,0.8758487105369568,,,,,,,,
https://scontent.cdninstagram.com/t51.2885-15/e35/13267398_251235268571988_1321439045_n.jpg,people,0.9860858917236328,"Fashion & Beauty",Environment,,,"My look","Natural beauty",,
,woman,0.9752955436706543,,,,,,,,
,adult,0.9624514579772949,,,,,,,,
,one,0.9603936076164246,,,,,,,,
,tree,0.9579765796661377,,,,,,,,
,garden,0.9574766755104065,,,,,,,,
,girl,0.9547436237335205,,,,,,,,
,flower,0.9409774541854858,,,,,,,,
,leisure,0.9385119080543518,,,,,,,,
,outdoors,0.9222241640090942,,,,,,,,
,portrait,0.9194462299346924,,,,,,,,
,park,0.8962054252624512,,,,,,,,
,telephone,0.8818569183349609,,,,,,,,
,relaxation,0.8816554546356201,,,,,,,,
,recreation,0.8674054145812988,,,,,,,,
,dress,0.8572756052017212,,,,,,,,
,summer,0.8518916368484497,,,,,,,,
,family,0.8446378111839294,,,,,,,,
,chair,0.8299325108528137,,,,,,,,
,yard,0.8186326026916504,,,,,,,,
https://scontent.cdninstagram.com/t51.2885-15/e35/12976181_1525933431048112_426490531_n.jpg,food,0.9904849529266357,Food,Commerce,,,"Meal time","Product/brand shots",,
,wood,0.9874863624572754,,,,,,,,
,"no person",0.9762665033340454,,,,,,,,
,wooden,0.9612745642662048,,,,,,,,
,knife,0.934617280960083,,,,,,,,
,old,0.917660653591156,,,,,,,,
,desktop,0.916775107383728,,,,,,,,
,traditional,0.9024789333343506,,,,,,,,
,paper,0.8948702812194824,,,,,,,,
,vertical,0.8922356367111206,,,,,,,,
,indoors,0.8827933073043823,,,,,,,,
,table,0.8782399296760559,,,,,,,,
,horizontal,0.8643231987953186,,,,,,,,
,healthy,0.8631682395935059,,,,,,,,
,board,0.8604811429977417,,,,,,,,
,cheese,0.8582998514175415,,,,,,,,
,wine,0.8524457812309265,,,,,,,,
,group,0.8381890654563904,,,,,,,,
,various,0.8314415216445923,,,,,,,,
,cooking,0.8290201425552368,,,,,,,,
https://scontent.cdninstagram.com/t51.2885-15/e35/13298245_626999970802645_591139729_n.jpg,sunset,0.9986242651939392,Recreation,,,,Beach,,,
,sun,0.9978326559066772,,,,,,,,
,beach,0.9973132610321045,,,,,,,,
,dawn,0.9927589893341064,,,,,,,,
,sea,0.9916304349899292,,,,,,,,
,water,0.9872316122055054,,,,,,,,
,ocean,0.9793822765350342,,,,,,,,
,people,0.9790663719177246,,,,,,,,
,silhouette,0.9755218029022217,,,,,,,,
,girl,0.974084734916687,,,,,,,,
,light,0.9703458547592163,,,,,,,,
,backlit,0.9677104949951172,,,,,,,,
,evening,0.9629220366477966,,,,,,,,
,landscape,0.9627401828765869,,,,,,,,
,sky,0.9593359231948853,,,,,,,,
,recreation,0.9579798579216003,,,,,,,,
,leisure,0.9563168883323669,,,,,,,,
,"fair weather",0.9509762525558472,,,,,,,,
,seashore,0.9398471117019653,,,,,,,,
,woman,0.9344713687896729,,,,,,,,
https://scontent.cdninstagram.com/t51.2885-15/e35/12918052_440042199537781_2031630677_n.jpg,"no person",0.9933720827102661,Food,,,,"Meal time",,,
,food,0.9898378849029541,,,,,,,,
,dinner,0.9734556674957275,,,,,,,,
,delicious,0.970592200756073,,,,,,,,
,grow,0.9578891396522522,,,,,,,,
,cooking,0.9491759538650513,,,,,,,,
,lunch,0.9484337568283081,,,,,,,,
,dish,0.9411666989326477,,,,,,,,
,traditional,0.9351999759674072,,,,,,,,
,hot,0.9331008195877075,,,,,,,,
,cutlery,0.9286832809448242,,,,,,,,
,bread,0.9273744225502014,,,,,,,,
,meal,0.9088844060897827,,,,,,,,
,meat,0.9064237475395203,,,,,,,,
,homemade,0.8857036232948303,,,,,,,,
,vegetable,0.8853575587272644,,,,,,,,
,plate,0.8851286172866821,,,,,,,,
,nutrition,0.8765064477920532,,,,,,,,
,soup,0.8761518001556396,,,,,,,,
,health,0.8733333945274353,,,,,,,,
https://scontent.cdninstagram.com/t51.2885-15/e35/13355466_581233555386756_984232390_n.jpg,woman,0.9927893877029419,Relationships,,,,"Best friends",,,
,child,0.9896979331970215,,,,,,,,
,togetherness,0.9854175448417664,,,,,,,,
,people,0.9797452688217163,,,,,,,,
,fun,0.9797349572181702,,,,,,,,
,love,0.9716978073120117,,,,,,,,
,two,0.9682204723358154,,,,,,,,
,indoors,0.9629291296005249,,,,,,,,
,cute,0.959898829460144,,,,,,,,
,friendship,0.9576995372772217,,,,,,,,
,girl,0.9478441476821899,,,,,,,,
,family,0.943949818611145,,,,,,,,
,joy,0.9395408034324646,,,,,,,,
,adolescent,0.9378769993782043,,,,,,,,
,pretty,0.9216526746749878,,,,,,,,
,enjoyment,0.9202117323875427,,,,,,,,
,portrait,0.9160966873168945,,,,,,,,
,affection,0.9127244353294373,,,,,,,,
,fashion,0.9099454879760742,,,,,,,,
,little,0.8811280727386475,,,,,,,,
https://scontent.cdninstagram.com/t51.2885-15/e35/13298010_1615691465387773_890696239_n.jpg,"no person",0.9830382466316223,Food,,,,"Drinks and snack",,,
,health,0.9540934562683105,,,,,,,,
,aromatherapy,0.9322817921638489,,,,,,,,
,flower,0.9299982190132141,,,,,,,,
,treatment,0.9228216409683228,,,,,,,,
,food,0.9170112609863281,,,,,,,,
,healthy,0.907025933265686,,,,,,,,
,bamboo,0.9069298505783081,,,,,,,,
,luxury,0.8949429988861084,,,,,,,,
,traditional,0.879088819026947,,,,,,,,
,"still life",0.8675050735473633,,,,,,,,
,bowl,0.8671233654022217,,,,,,,,
,candle,0.8652307391166687,,,,,,,,
,table,0.8549421429634094,,,,,,,,
,sweet,0.8514456152915955,,,,,,,,
,delicious,0.8509663343429565,,,,,,,,
,therapy,0.8437848091125488,,,,,,,,
,leaf,0.8264269232749939,,,,,,,,
,bath,0.8236124515533447,,,,,,,,
,wood,0.8236098289489746,,,,,,,,
https://scontent.cdninstagram.com/t51.2885-15/sh0.08/e35/p750x750/13398551_491360390988832_80300218_n.jpg,summer,0.9967052936553955,"Fashion & Beauty",Recreation,Environment,,Ootd,Beach,"Natural beauty",
,woman,0.9880115985870361,,,,,,,,
,leisure,0.9857149124145508,,,,,,,,
,sexy,0.9797242879867554,,,,,,,,
,beach,0.9789069890975952,,,,,,,,
,girl,0.9709783792495728,,,,,,,,
,relaxation,0.9683977961540222,,,,,,,,
,recreation,0.9622969627380371,,,,,,,,
,bikini,0.954895555973053,,,,,,,,
,sand,0.9522278904914856,,,,,,,,
,vacation,0.9469234943389893,,,,,,,,
,"fair weather",0.9384353756904602,,,,,,,,
,sunglasses,0.9348700642585754,,,,,,,,
,tropical,0.9336914420127869,,,,,,,,
,fashion,0.931591272354126,,,,,,,,
,outdoors,0.9281643629074097,,,,,,,,
,nature,0.9178857803344727,,,,,,,,
,enjoyment,0.9142460823059082,,,,,,,,
,brunette,0.9056942462921143,,,,,,,,
,pretty,0.9000546932220459,,,,,,,,
https://scontent.cdninstagram.com/t51.2885-15/e35/13402684_816801405116941_1384618592_n.jpg,winter,0.9840989112854004,Recreation,Travel,,,Recreation-s,Travel-s,,
,water,0.9681048393249512,,,,,,,,
,snow,0.9640932083129883,,,,,,,,
,people,0.9622622728347778,,,,,,,,
,woman,0.948769211769104,,,,,,,,
,leisure,0.9468367099761963,,,,,,,,
,girl,0.9438743591308594,,,,,,,,
,sky,0.9396591186523438,,,,,,,,
,adult,0.9328463673591614,,,,,,,,
,travel,0.930392861366272,,,,,,,,
,cold,0.9259865283966064,,,,,,,,
,child,0.9062210321426392,,,,,,,,
,fun,0.9055888652801514,,,,,,,,
,recreation,0.904145359992981,,,,,,,,
,outdoors,0.8910548686981201,,,,,,,,
,beach,0.8901411294937134,,,,,,,,
,vacation,0.8889647126197815,,,,,,,,
,man,0.8856415748596191,,,,,,,,
,reflection,0.8850586414337158,,,,,,,,
,landscape,0.8773645162582397,,,,,,,,
https://scontent.cdninstagram.com/t51.2885-15/e35/13329150_1625318147690671_1912886357_n.jpg,woman,0.9943127632141113,Food,"Fashion & Beauty",,,"Drinks and snack","My look",,
,sit,0.9880082607269287,,,,,,,,
,leisure,0.9786994457244873,,,,,,,,
,outdoors,0.972891092300415,,,,,,,,
,summer,0.9668302536010742,,,,,,,,
,relaxation,0.9590997695922852,,,,,,,,
,water,0.9379465579986572,,,,,,,,
,enjoyment,0.9375576972961426,,,,,,,,
,pretty,0.9371984601020813,,,,,,,,
,travel,0.9233297109603882,,,,,,,,
,coffee,0.9192055463790894,,,,,,,,
,people,0.9182153940200806,,,,,,,,
,adolescent,0.9168152213096619,,,,,,,,
,one,0.8865492939949036,,,,,,,,
,young,0.8732457160949707,,,,,,,,
,cute,0.8689643144607544,,,,,,,,
,girl,0.8670854568481445,,,,,,,,
,"fair weather",0.8641612529754639,,,,,,,,
,casual,0.8621723651885986,,,,,,,,
,portrait,0.8560664653778076,,,,,,,,
https://scontent.cdninstagram.com/t51.2885-15/e35/13388486_232900273761028_2126312923_n.jpg,child,0.990802526473999,"Fashion & Beauty","My life",,,"My look",Selfie,,
,girl,0.9900459051132202,,,,,,,,
,portrait,0.9899728894233704,,,,,,,,
,people,0.9858980178833008,,,,,,,,
,one,0.9847203493118286,,,,,,,,
,happiness,0.975089967250824,,,,,,,,
,brunette,0.9741705060005188,,,,,,,,
,wear,0.9573321342468262,,,,,,,,
,"facial expression",0.9491113424301147,,,,,,,,
,woman,0.947178840637207,,,,,,,,
,youth,0.9397945404052734,,,,,,,,
,cute,0.9393274784088135,,,,,,,,
,face,0.9369231462478638,,,,,,,,
,adult,0.9301333427429199,,,,,,,,
,little,0.9202054738998413,,,,,,,,
,lifestyle,0.9019894599914551,,,,,,,,
,beautiful,0.9014159440994263,,,,,,,,
,innocence,0.8935735821723938,,,,,,,,
,youth,0.8930622935295105,,,,,,,,
,fun,0.8758487105369568,,,,,,,,
https://scontent.cdninstagram.com/t51.2885-15/e35/13267398_251235268571988_1321439045_n.jpg,people,0.9860858917236328,"Fashion & Beauty",Environment,,,"My look","Natural beauty",,
,woman,0.9752955436706543,,,,,,,,
,adult,0.9624514579772949,,,,,,,,
,one,0.9603936076164246,,,,,,,,
,tree,0.9579765796661377,,,,,,,,
,garden,0.9574766755104065,,,,,,,,
,girl,0.9547436237335205,,,,,,,,
,flower,0.9409774541854858,,,,,,,,
,leisure,0.9385119080543518,,,,,,,,
,outdoors,0.9222241640090942,,,,,,,,
,portrait,0.9194462299346924,,,,,,,,
,park,0.8962054252624512,,,,,,,,
,telephone,0.8818569183349609,,,,,,,,
,relaxation,0.8816554546356201,,,,,,,,
,recreation,0.8674054145812988,,,,,,,,
,dress,0.8572756052017212,,,,,,,,
,summer,0.8518916368484497,,,,,,,,
,family,0.8446378111839294,,,,,,,,
,chair,0.8299325108528137,,,,,,,,
,yard,0.8186326026916504,,,,,,,,
https://scontent.cdninstagram.com/t51.2885-15/e35/13408883_1405353669490107_1722478072_n.jpg,beach,0.9957996606826782,Relationships,Recreation,Environment,,"Best friends",Beach,"Natural beauty",
,sea,0.9887176752090454,,,,,,,,
,seashore,0.9820293188095093,,,,,,,,
,ocean,0.9815742373466492,,,,,,,,
,girl,0.9708985686302185,,,,,,,,
,water,0.9697248935699463,,,,,,,,
,sunset,0.9681199789047241,,,,,,,,
,people,0.9632676243782043,,,,,,,,
,sky,0.9532279968261719,,,,,,,,
,landscape,0.9511815309524536,,,,,,,,
,travel,0.9504309296607971,,,,,,,,
,togetherness,0.9377312660217285,,,,,,,,
,woman,0.9356166124343872,,,,,,,,
,leisure,0.9311379194259644,,,,,,,,
,sand,0.9307379126548767,,,,,,,,
,vacation,0.9275832176208496,,,,,,,,
,lifestyle,0.9260485172271729,,,,,,,,
,summer,0.9255407452583313,,,,,,,,
,love,0.9072970151901245,,,,,,,,
,child,0.9059826135635376,,,,,,,,
https://scontent.cdninstagram.com/t51.2885-15/e35/13402684_816801405116941_1384618592_n.jpg,winter,0.9840989112854004,Recreation,Travel,,,Recreation-s,Travel-s,,
,water,0.9681048393249512,,,,,,,,
,snow,0.9640932083129883,,,,,,,,
,people,0.9622622728347778,,,,,,,,
,woman,0.948769211769104,,,,,,,,
,leisure,0.9468367099761963,,,,,,,,
,girl,0.9438743591308594,,,,,,,,
,sky,0.9396591186523438,,,,,,,,
,adult,0.9328463673591614,,,,,,,,
,travel,0.930392861366272,,,,,,,,
,cold,0.9259865283966064,,,,,,,,
,child,0.9062210321426392,,,,,,,,
,fun,0.9055888652801514,,,,,,,,
,recreation,0.904145359992981,,,,,,,,
,outdoors,0.8910548686981201,,,,,,,,
,beach,0.8901411294937134,,,,,,,,
,vacation,0.8889647126197815,,,,,,,,
,man,0.8856415748596191,,,,,,,,
,reflection,0.8850586414337158,,,,,,,,
,landscape,0.8773645162582397,,,,,,,,
https://scontent.cdninstagram.com/t51.2885-15/e35/13298245_626999970802645_591139729_n.jpg,sunset,0.9986242651939392,Recreation,,,,Beach,,,
,sun,0.9978326559066772,,,,,,,,
,beach,0.9973132610321045,,,,,,,,
,dawn,0.9927589893341064,,,,,,,,
,sea,0.9916304349899292,,,,,,,,
,water,0.9872316122055054,,,,,,,,
,ocean,0.9793822765350342,,,,,,,,
,people,0.9790663719177246,,,,,,,,
,silhouette,0.9755218029022217,,,,,,,,
,girl,0.974084734916687,,,,,,,,
,light,0.9703458547592163,,,,,,,,
,backlit,0.9677104949951172,,,,,,,,
,evening,0.9629220366477966,,,,,,,,
,landscape,0.9627401828765869,,,,,,,,
,sky,0.9593359231948853,,,,,,,,
,recreation,0.9579798579216003,,,,,,,,
,leisure,0.9563168883323669,,,,,,,,
,"fair weather",0.9509762525558472,,,,,,,,
,seashore,0.9398471117019653,,,,,,,,
,woman,0.9344713687896729,,,,,,,,
https://scontent.cdninstagram.com/t51.2885-15/sh0.08/e35/p750x750/13398551_491360390988832_80300218_n.jpg,summer,0.9967052936553955,"Fashion & Beauty",Recreation,Environment,,Ootd,Beach,"Natural beauty",
,woman,0.9880115985870361,,,,,,,,
,leisure,0.9857149124145508,,,,,,,,
,sexy,0.9797242879867554,,,,,,,,
,beach,0.9789069890975952,,,,,,,,
,girl,0.9709783792495728,,,,,,,,
,relaxation,0.9683977961540222,,,,,,,,
,recreation,0.9622969627380371,,,,,,,,
,bikini,0.954895555973053,,,,,,,,
,sand,0.9522278904914856,,,,,,,,
,vacation,0.9469234943389893,,,,,,,,
,"fair weather",0.9384353756904602,,,,,,,,
,sunglasses,0.9348700642585754,,,,,,,,
,tropical,0.9336914420127869,,,,,,,,
,fashion,0.931591272354126,,,,,,,,
,outdoors,0.9281643629074097,,,,,,,,
,nature,0.9178857803344727,,,,,,,,
,enjoyment,0.9142460823059082,,,,,,,,
,brunette,0.9056942462921143,,,,,,,,
,pretty,0.9000546932220459,,,,,,,,
https://scontent.cdninstagram.com/t51.2885-15/s750x750/sh0.08/e35/13381383_1620942271556565_660736309_n.jpg,food,0.9938408136367798,Food,,,,"Meal time",,,
,dinner,0.9878803491592407,,,,,,,,
,"no person",0.9828437566757202,,,,,,,,
,lunch,0.9808698892593384,,,,,,,,
,meat,0.9708020091056824,,,,,,,,
,delicious,0.9693197011947632,,,,,,,,
,meal,0.9685635566711426,,,,,,,,
,traditional,0.9539976119995117,,,,,,,,
,dish,0.9520044326782227,,,,,,,,
,bread,0.9494911432266235,,,,,,,,
,vegetable,0.9456043243408203,,,,,,,,
,chicken,0.9405727386474609,,,,,,,,
,plate,0.9392600059509277,,,,,,,,
,parsley,0.9381217956542969,,,,,,,,
,cooking,0.9369338750839233,,,,,,,,
,hot,0.9317283034324646,,,,,,,,
,cuisine,0.9242324829101562,,,,,,,,
,nutrition,0.9229251146316528,,,,,,,,
,potato,0.9084779620170593,,,,,,,,
,homemade,0.9060368537902832,,,,,,,,
https://scontent.cdninstagram.com/t51.2885-15/e35/13408883_1405353669490107_1722478072_n.jpg,beach,0.9957996606826782,Relationships,Recreation,Environment,,"Best friends",Beach,"Natural beauty",
,sea,0.9887176752090454,,,,,,,,
,seashore,0.9820293188095093,,,,,,,,
,ocean,0.9815742373466492,,,,,,,,
,girl,0.9708985686302185,,,,,,,,
,water,0.9697248935699463,,,,,,,,
,sunset,0.9681199789047241,,,,,,,,
,people,0.9632676243782043,,,,,,,,
,sky,0.9532279968261719,,,,,,,,
,landscape,0.9511815309524536,,,,,,,,
,travel,0.9504309296607971,,,,,,,,
,togetherness,0.9377312660217285,,,,,,,,
,woman,0.9356166124343872,,,,,,,,
,leisure,0.9311379194259644,,,,,,,,
,sand,0.9307379126548767,,,,,,,,
,vacation,0.9275832176208496,,,,,,,,
,lifestyle,0.9260485172271729,,,,,,,,
,summer,0.9255407452583313,,,,,,,,
,love,0.9072970151901245,,,,,,,,
,child,0.9059826135635376,,,,,,,,
https://scontent.cdninstagram.com/t51.2885-15/e35/13398383_1006663919424804_843920124_n.jpg,food,0.9944041967391968,Food,,,,"Meal time",,,
,meal,0.9828767776489258,,,,,,,,
,vegetable,0.9696153402328491,,,,,,,,
,plate,0.9662918448448181,,,,,,,,
,meat,0.9660763144493103,,,,,,,,
,"no person",0.9612845778465271,,,,,,,,
,dish,0.9601624011993408,,,,,,,,
,restaurant,0.9515613317489624,,,,,,,,
,grow,0.9480301141738892,,,,,,,,
,delicious,0.947184681892395,,,,,,,,
,dinner,0.9444769620895386,,,,,,,,
,sauce,0.9382473826408386,,,,,,,,
,epicure,0.9372071027755737,,,,,,,,
,lunch,0.9326515793800354,,,,,,,,
,cuisine,0.931996762752533,,,,,,,,
,tasty,0.9153375625610352,,,,,,,,
,healthy,0.9133597612380981,,,,,,,,
,fruit,0.906733512878418,,,,,,,,
,refreshment,0.9042108058929443,,,,,,,,
,slice,0.9011036157608032,,,,,,,,
https://scontent.cdninstagram.com/t51.2885-15/e35/13398383_1006663919424804_843920124_n.jpg,food,0.9944041967391968,Food,,,,"Meal time",,,
,meal,0.9828767776489258,,,,,,,,
,vegetable,0.9696153402328491,,,,,,,,
,plate,0.9662918448448181,,,,,,,,
,meat,0.9660763144493103,,,,,,,,
,"no person",0.9612845778465271,,,,,,,,
,dish,0.9601624011993408,,,,,,,,
,restaurant,0.9515613317489624,,,,,,,,
,grow,0.9480301141738892,,,,,,,,
,delicious,0.947184681892395,,,,,,,,
,dinner,0.9444769620895386,,,,,,,,
,sauce,0.9382473826408386,,,,,,,,
,epicure,0.9372071027755737,,,,,,,,
,lunch,0.9326515793800354,,,,,,,,
,cuisine,0.931996762752533,,,,,,,,
,tasty,0.9153375625610352,,,,,,,,
,healthy,0.9133597612380981,,,,,,,,
,fruit,0.906733512878418,,,,,,,,
,refreshment,0.9042108058929443,,,,,,,,
,slice,0.9011036157608032,,,,,,,,
https://scontent.cdninstagram.com/t51.2885-15/sh0.08/e35/p750x750/12424918_977187009074319_1141157539_n.jpg,"no person",0.9274032115936279,"My life",Commerce,Food,,"Here I am","Product/brand shots",Dessert,
,text,0.9212416410446167,,,,,,,,
,hanging,0.8909671306610107,,,,,,,,
,people,0.8633126616477966,,,,,,,,
,indoors,0.8615343570709229,,,,,,,,
,art,0.8464676141738892,,,,,,,,
,decoration,0.8387483358383179,,,,,,,,
,business,0.8374580144882202,,,,,,,,
,bill,0.826162576675415,,,,,,,,
,design,0.8104516863822937,,,,,,,,
,retro,0.7923804521560669,,,,,,,,
,empty,0.7794588804244995,,,,,,,,
,exhibition,0.7740744352340698,,,,,,,,
,"picture frame",0.7683030366897583,,,,,,,,
,adult,0.7669951319694519,,,,,,,,
,sign,0.7642553448677063,,,,,,,,
,one,0.7640771269798279,,,,,,,,
,light,0.760174036026001,,,,,,,,
,desktop,0.7570139169692993,,,,,,,,
,entertainment,0.7570080161094666,,,,,,,,
https://scontent.cdninstagram.com/t51.2885-15/s750x750/sh0.08/e35/13380817_499765226886871_206591283_n.jpg,tableware,0.9991135001182556,Food,,,,"Meal time",,,
,cutlery,0.9989783763885498,,,,,,,,
,fork,0.9984660148620605,,,,,,,,
,flatware,0.9983831644058228,,,,,,,,
,knife,0.9983035922050476,,,,,,,,
,dining,0.997742772102356,,,,,,,,
,dinner,0.9967413544654846,,,,,,,,
,"place setting",0.9955640435218811,,,,,,,,
,food,0.9935908317565918,,,,,,,,
,wine,0.9934878349304199,,,,,,,,
,"no person",0.9918328523635864,,,,,,,,
,silverware,0.9892241358757019,,,,,,,,
,lunch,0.9889224767684937,,,,,,,,
,plate,0.985720157623291,,,,,,,,
,table,0.9820255041122437,,,,,,,,
,meal,0.9769567847251892,,,,,,,,
,restaurant,0.9742660522460938,,,,,,,,
,napkin,0.9719550609588623,,,,,,,,
,tablecloth,0.9662398099899292,,,,,,,,
,grow,0.9583238363265991,,,,,,,,
https://scontent.cdninstagram.com/t51.2885-15/e35/13381336_1798333573728928_231741721_n.jpg,child,0.9999759793281555,Relationships,,,,"Young family",,,
,little,0.998931348323822,,,,,,,,
,cute,0.9988822937011719,,,,,,,,
,fun,0.9978881478309631,,,,,,,,
,family,0.9907221794128418,,,,,,,,
,joy,0.9896640777587891,,,,,,,,
,precious,0.9872820377349854,,,,,,,,
,boy,0.9826438426971436,,,,,,,,
,innocence,0.9731379747390747,,,,,,,,
,baby,0.9709063768386841,,,,,,,,
,laughing,0.9581369161605835,,,,,,,,
,preschool,0.9528754949569702,,,,,,,,
,togetherness,0.9485998749732971,,,,,,,,
,love,0.9482648372650146,,,,,,,,
,girl,0.9375081062316895,,,,,,,,
,enjoyment,0.9230132102966309,,,,,,,,
,indoors,0.9167193174362183,,,,,,,,
,toddler,0.9099755883216858,,,,,,,,
,play,0.9002297520637512,,,,,,,,
,two,0.8805224299430847,,,,,,,,
https://scontent.cdninstagram.com/t51.2885-15/e35/13414405_180633789005807_164053560_n.jpg,food,0.9917097091674805,Food,,,,Dessert,,,
,"no person",0.9813299179077148,,,,,,,,
,sweet,0.9760726094245911,,,,,,,,
,bowl,0.9744582176208496,,,,,,,,
,desktop,0.9634583592414856,,,,,,,,
,fruit,0.962044358253479,,,,,,,,
,delicious,0.9585757851600647,,,,,,,,
,color,0.9575304985046387,,,,,,,,
,candy,0.9539928436279297,,,,,,,,
,closeup,0.9538500308990479,,,,,,,,
,confection,0.9525803327560425,,,,,,,,
,sugar,0.951439619064331,,,,,,,,
,batch,0.950519859790802,,,,,,,,
,healthy,0.9403026103973389,,,,,,,,
,pile,0.933600902557373,,,,,,,,
,many,0.9333885908126831,,,,,,,,
,round,0.922993004322052,,,,,,,,
,health,0.9176968336105347,,,,,,,,
,nutrition,0.9110690355300903,,,,,,,,
,refreshment,0.9066358804702759,,,,,,,,
