url,class,score
https://scontent.cdninstagram.com/t51.2885-15/e35/13413338_1204465106244005_145116462_n.jpg,people,0.9872040748596191
,adult,0.9866880178451538
,woman,0.9709293842315674
,technology,0.9586020708084106
,vertical,0.9437160491943359
,indoors,0.9422829747200012
,portrait,0.9421781301498413
,recreation,0.919821560382843
,horizontal,0.9183378219604492
,sign,0.9179291725158691
,business,0.9157435297966003
,happiness,0.9147281646728516
,cheerful,0.9013804793357849
,communication,0.8981384038925171
,relaxation,0.8912285566329956
,internet,0.8818643093109131
,image,0.8344783782958984
,enjoyment,0.8317877054214478
,sport,0.8305258750915527
,World Wide Web,0.8235374689102173
https://scontent.cdninstagram.com/t51.2885-15/sh0.08/e35/p640x640/13556867_874748102669379_396752734_n.jpg,World Wide Web,0.9889417886734009
,illustration,0.9887544512748718
,square,0.9802849292755127
,vector,0.9794119596481323
,label,0.9770621061325073
,template,0.9756110906600952
,shadow,0.9618686437606812
,page,0.9609427452087402
,banner,0.9605202674865723
,internet,0.9591977596282959
,flat,0.9564542770385742
,design,0.9539320468902588
,image,0.9511706233024597
,menu,0.9435064792633057
,vector,0.9419239163398743
,business,0.9295302033424377
,symbol,0.9200924038887024
,navigation,0.9196262359619141
,form,0.9158543348312378
,shape,0.8954537510871887
https://scontent.cdninstagram.com/t51.2885-15/s750x750/sh0.08/e35/13532050_1326781347336025_1712155834_n.jpg,no person,0.9876035451889038
,dark,0.9077509641647339
,one,0.8887976408004761
,shining,0.8873884081840515
,science,0.8770463466644287
,moon,0.8735476136207581
,space,0.8504622578620911
,glass,0.8443231582641602
,Christmas,0.8363727331161499
,astronomy,0.8359792232513428
,isolated,0.8276106119155884
,bright,0.8230212926864624
,reflection,0.7874059081077576
,success,0.7832316160202026
,business,0.7719756364822388
,isolated,0.7698522806167603
,sky,0.7661644220352173
,winter,0.7640045881271362
,sparkling,0.748660147190094
,glazed,0.7428600788116455
https://scontent.cdninstagram.com/t51.2885-15/s480x480/e35/13531824_1218240621527999_136176454_n.jpg,people,0.9287600517272949
,technology,0.9183885455131531
,adult,0.9060479998588562
,computer,0.9052414894104004
,indoors,0.8945649862289429
,business,0.8894667029380798
,internet,0.8863012790679932
,World Wide Web,0.8563898801803589
,communication,0.8552646040916443
,display,0.8418920636177063
,screen,0.8359862565994263
,woman,0.7954899668693542
,horizontal,0.7673196792602539
,laptop,0.75596022605896
,pill,0.7553980350494385
,portrait,0.7408689260482788
,landscape,0.73930823802948
,telephone,0.720583975315094
,connection,0.7148463726043701
,graph,0.7147670388221741
https://scontent.cdninstagram.com/t51.2885-15/e15/13413457_494020520787004_267018036_n.jpg,indoors,0.9955196380615234
,paper,0.9330655932426453
,man,0.9312529563903809
,serious,0.9293456673622131
,people,0.9288355112075806
,business,0.9283303022384644
,looking,0.9254729747772217
,horizontal,0.9152940511703491
,woman,0.9101197719573975
,vertical,0.9017014503479004
,research,0.890600860118866
,window,0.8369278907775879
,one,0.8362322449684143
,adult,0.8236895799636841
,intelligence,0.8178494572639465
,education,0.8095595836639404
,identity,0.8000125885009766
,contemplation,0.785838782787323
,empty,0.7790815830230713
,technology,0.7675924301147461
https://scontent.cdninstagram.com/t51.2885-15/e35/13391119_1717500071822401_1313040168_n.jpg,people,0.972346842288971
,woman,0.9636006355285645
,indoors,0.9584121704101562
,money,0.9484661817550659
,commerce,0.9326859712600708
,business,0.9296083450317383
,telephone,0.9175145626068115
,connection,0.9145121574401855
,man,0.9134269952774048
,touch,0.8878874778747559
,adult,0.8837690353393555
,finance,0.8804446458816528
,competition,0.8672063946723938
,travel,0.86021888256073
,internet,0.8522919416427612
,one,0.8428071737289429
,shopping,0.8406936526298523
,electronics,0.8304259777069092
,support,0.8154810667037964
,technology,0.8020058274269104
https://scontent.cdninstagram.com/t51.2885-15/e35/13584231_1091555660915853_977822549_n.jpg,business,0.9862532019615173
,finance,0.9842761158943176
,money,0.9744769930839539
,commerce,0.9569385051727295
,financial,0.9276560544967651
,money,0.9255245923995972
,technology,0.9182441830635071
,wealth,0.9154303669929504
,investment,0.9078883528709412
,screen,0.8989416360855103
,display,0.8950062990188599
,computer,0.894160807132721
,success,0.8910306096076965
,paper,0.8846181035041809
,economy,0.875577986240387
,gain,0.8689188957214355
,savings,0.8649933934211731
,no person,0.8545162677764893
,office,0.8512476682662964
,internet,0.8484448194503784
https://scontent.cdninstagram.com/t51.2885-15/sh0.08/e35/p640x640/13408738_535892893264159_919103197_n.jpg,people,0.9850655794143677
,woman,0.9838473796844482
,recreation,0.9575128555297852
,adult,0.9517601728439331
,fun,0.9434128999710083
,editorial,0.9363515377044678
,young,0.9355937242507935
,portrait,0.929334282875061
,cheerful,0.9266381859779358
,person,0.9248034358024597
,happiness,0.9242576360702515
,girl,0.9173118472099304
,actor,0.9035473465919495
,outdoors,0.8994786739349365
,fashion,0.8987874388694763
,summer,0.8973767757415771
,pretty,0.8969328999519348
,actress,0.8941198587417603
,lifestyle,0.8878495693206787
,joy,0.8863976001739502
https://scontent.cdninstagram.com/t51.2885-15/e15/p640x640/13402249_1624252144559057_2093312229_n.jpg,woman,0.9827866554260254
,people,0.9753373861312866
,portrait,0.9739899635314941
,group,0.9651060104370117
,adult,0.9427698850631714
,man,0.9249942898750305
,togetherness,0.9206418395042419
,happiness,0.9066619277000427
,friendship,0.9039714336395264
,facial expression,0.9014923572540283
,family,0.8808121681213379
,adolescent,0.8528429269790649
,wear,0.844765305519104
,child,0.8360961079597473
,enjoyment,0.8306095004081726
,laughing,0.8290945291519165
,indoors,0.827863335609436
,outdoors,0.7739109992980957
,three,0.7675216197967529
,fun,0.7497719526290894
https://scontent.cdninstagram.com/t51.2885-15/e15/13381031_1540536506254094_3037891_n.jpg,people,0.9839527606964111
,adult,0.9650077223777771
,celebration,0.9597582817077637
,portrait,0.9456058740615845
,woman,0.9254238605499268
,person,0.9036834836006165
,man,0.8990742564201355
,girl,0.8978447914123535
,beautiful,0.8947485685348511
,one,0.887596845626831
,fun,0.8721157312393188
,party,0.849797248840332
,desktop,0.8497362732887268
,sport,0.8450738191604614
,competition,0.8354737758636475
,game,0.8322120308876038
,music,0.8218201994895935
,happiness,0.8154455423355103
,cheerful,0.8143957257270813
,sports fan,0.8125865459442139
https://scontent.cdninstagram.com/t51.2885-15/e35/13561657_1690330064562121_636961868_n.jpg,multicultural,0.989090085029602
,teamwork,0.9889826774597168
,woman,0.9861937761306763
,student,0.982945442199707
,group,0.9713196754455566
,education,0.9695608615875244
,togetherness,0.9607661366462708
,man,0.9448889493942261
,squad,0.9377470016479492
,success,0.936927318572998
,friendship,0.9358725547790527
,group,0.9249230027198792
,college,0.9143942594528198
,cooperation,0.9139336943626404
,school,0.9043188691139221
,communication,0.8815503120422363
,sitting,0.8654836416244507
,four,0.8626893162727356
,partnership,0.8593392372131348
,adolescent,0.857876181602478
https://scontent.cdninstagram.com/t51.2885-15/e35/13380910_563891843798443_1742654513_n.jpg,group,0.990097165107727
,woman,0.98203444480896
,adult,0.9765889644622803
,man,0.9747157692909241
,people,0.9727045297622681
,child,0.9548232555389404
,group,0.9547230005264282
,four,0.9489371180534363
,facial expression,0.9415005445480347
,three,0.9410257339477539
,portrait,0.9408454298973083
,boy,0.9202414751052856
,family,0.9040379524230957
,room,0.9003671407699585
,five,0.8983328938484192
,education,0.8939629793167114
,offspring,0.8753186464309692
,wear,0.8724485635757446
,girl,0.8600397109985352
,happiness,0.8587220907211304
https://scontent.cdninstagram.com/t51.2885-15/s640x640/e15/13597686_1769028973340443_1729649227_n.jpg,group,0.9801573753356934
,many,0.9788313508033752
,crowd,0.9734222888946533
,people,0.9624189138412476
,school,0.9497178792953491
,rally,0.9402844905853271
,election,0.9385251998901367
,education,0.9364125728607178
,woman,0.933728814125061
,offense,0.9323195815086365
,sports fan,0.9310890436172485
,festival,0.9249703884124756
,adult,0.9240386486053467
,police,0.9220423102378845
,competition,0.9034340381622314
,man,0.8659332990646362
,candidate,0.8634553551673889
,politician,0.8554261922836304
,rebellion,0.8521825075149536
,rally,0.8488903641700745
https://scontent.cdninstagram.com/t51.2885-15/s640x640/e15/13285487_1050852018341091_2062226009_n.jpg,performance,0.9980478882789612
,music,0.9959756731987
,concert,0.9942669868469238
,singer,0.9920517802238464
,musician,0.9872620701789856
,people,0.9736724495887756
,microphone,0.9538906812667847
,adult,0.9513037800788879
,pop,0.946866512298584
,stage,0.9428418874740601
,festival,0.942063570022583
,portrait,0.9262098670005798
,one,0.8837908506393433
,woman,0.8603922724723816
,band,0.8583284616470337
,wear,0.8370658755302429
,rap,0.7932515144348145
,retro,0.7764511108398438
,recreation,0.7489719390869141
,man,0.7469787001609802
https://scontent.cdninstagram.com/t51.2885-15/e35/13398362_1633701290283907_1473170345_n.jpg,people,0.9913866519927979
,exhibition,0.9788644313812256
,stock,0.975176215171814
,indoors,0.9713371992111206
,adult,0.9677652716636658
,woman,0.9673324823379517
,shopping,0.9566061496734619
,shop,0.9438523054122925
,man,0.9229847192764282
,portrait,0.9025667309761047
,fashion,0.8983135223388672
,commerce,0.8829495906829834
,merchandise,0.8679679036140442
,wear,0.8644554018974304
,presentation,0.8577263355255127
,business,0.8469235897064209
,option,0.8416767716407776
,carnival,0.8362539410591125
,child,0.8324942588806152
,city,0.8299437165260315
https://scontent.cdninstagram.com/t51.2885-15/e35/13534182_201833546879184_1286814210_n.jpg,option,0.985484778881073
,people,0.982568621635437
,woman,0.9822775721549988
,shopping,0.9760594367980957
,adult,0.9698341488838196
,stock,0.9673678874969482
,shop,0.9588459134101868
,indoors,0.9551748037338257
,choose,0.9551357626914978
,merchandise,0.8968521356582642
,lifestyle,0.8656527400016785
,bargain,0.8623442649841309
,technology,0.8573745489120483
,cooking,0.8535521030426025
,cheerful,0.8274340033531189
,communication,0.8237773776054382
,family,0.8237611055374146
,counter,0.8212978839874268
,shelf,0.8182684183120728
,wear,0.8137123584747314
https://scontent.cdninstagram.com/t51.2885-15/s750x750/sh0.08/e35/13392649_297967890543373_144979604_n.jpg,food,0.967532753944397
,dinner,0.942202627658844
,soup,0.9368014335632324
,dish,0.921379566192627
,bowl,0.9187771081924438
,lunch,0.9133760929107666
,meal,0.9124892950057983
,delicious,0.9113632440567017
,traditional,0.9097808599472046
,cooking,0.9075391292572021
,cuisine,0.8974622488021851
,hot,0.8879959583282471
,desktop,0.879269003868103
,meat,0.8544691205024719
,vegetable,0.841582179069519
,healthy,0.8325719833374023
,tasty,0.8287407159805298
,restaurant,0.8214441537857056
,plate,0.8156079053878784
,no person,0.801080048084259
https://scontent.cdninstagram.com/t51.2885-15/e35/13181336_122010011551024_553723550_n.jpg,no person,0.9956638813018799
,technology,0.957426905632019
,people,0.9481626152992249
,one,0.9464917778968811
,recreation,0.9411804676055908
,business,0.9349640607833862
,industry,0.9243862628936768
,vehicle,0.9028011560440063
,electronics,0.8912496566772461
,indoors,0.8895073533058167
,luggage,0.8850126266479492
,security,0.8804420232772827
,travel,0.8779189586639404
,military,0.8669440746307373
,competition,0.8631422519683838
,action,0.8583630919456482
,police,0.8551298379898071
,connection,0.8521567583084106
,man,0.8451315760612488
,equipment,0.8443188071250916
https://scontent.cdninstagram.com/t51.2885-15/s320x320/e35/13256627_247021365662985_2021639258_n.jpg,production,0.9905022382736206
,industry,0.9828418493270874
,container,0.9796569347381592
,no person,0.9710747599601746
,technology,0.9708064198493958
,grinder,0.9667160511016846
,furniture,0.9544302225112915
,indoors,0.9290087223052979
,box,0.9272443056106567
,medicine,0.9229380488395691
,one,0.9084213972091675
,room,0.907077968120575
,stock,0.9044672846794128
,vehicle,0.8894853591918945
,storage,0.8868265151977539
,equipment,0.8790318965911865
,business,0.878453254699707
,family,0.8770239353179932
,machine,0.8751018047332764
,house,0.867844820022583
https://scontent.cdninstagram.com/t51.2885-15/sh0.08/e35/p750x750/13277727_244182812621164_79752271_n.jpg,happiness,0.9832547903060913
,technology,0.9678844809532166
,people,0.9648762941360474
,woman,0.9633574485778809
,computer,0.9557133913040161
,adult,0.9551305770874023
,indoors,0.9496707320213318
,internet,0.9445601105690002
,togetherness,0.9425593614578247
,shopping,0.9379379153251648
,fun,0.9262392520904541
,cheerful,0.9216437339782715
,enjoyment,0.9149770140647888
,man,0.8987107276916504
,friendship,0.8966115713119507
,connection,0.8914876580238342
,two,0.8825439810752869
,couple,0.8802179098129272
,child,0.8745309710502625
,laughing,0.8696978688240051
https://scontent.cdninstagram.com/t51.2885-15/e35/13277730_224216207960822_2032142052_n.jpg,illustration,0.9800525307655334
,vector,0.9568771719932556
,no person,0.9436453580856323
,people,0.9308135509490967
,picture frame,0.9291101694107056
,card,0.910493791103363
,banner,0.9064621925354004
,set,0.9055389761924744
,adult,0.9038223028182983
,design,0.8958109617233276
,retro,0.8923152089118958
,collection,0.8776599764823914
,graphic design,0.8651768565177917
,horizontal,0.8557579517364502
,paper,0.8471057415008545
,man,0.8447522521018982
,label,0.8398808836936951
,outdoors,0.8389774560928345
,indoors,0.8328158855438232
,template,0.8308602571487427
https://scontent.cdninstagram.com/t51.2885-15/s640x640/sh0.08/e35/13256930_1040332079348142_1526515006_n.jpg,people,0.9814534187316895
,man,0.9790576696395874
,one,0.9650884866714478
,mask,0.96013343334198
,lid,0.9571347236633301
,portrait,0.9530256390571594
,fashion,0.9416202902793884
,dark,0.9385071992874146
,face,0.9376479387283325
,anonymous,0.9328960180282593
,adult,0.9307886958122253
,fun,0.9306259751319885
,Halloween,0.9073253870010376
,woman,0.9047520756721497
,disguise,0.8965909481048584
,eye,0.8896269798278809
,indoors,0.8876558542251587
,young,0.8840748071670532
,retro,0.8748546838760376
,funny,0.8686536550521851
https://scontent.cdninstagram.com/t51.2885-15/s640x640/e15/13395129_1080574351996608_928490636_n.jpg,people,0.9719641208648682
,group,0.9663116931915283
,woman,0.9622288942337036
,man,0.9505709409713745
,group,0.9369168281555176
,adult,0.9179472327232361
,portrait,0.8960586786270142
,celebration,0.8956332802772522
,restaurant,0.8848857879638672
,shopping,0.8530702590942383
,music,0.8426682949066162
,enjoyment,0.8358983993530273
,many,0.8034287691116333
,city,0.7916760444641113
,singer,0.7865731716156006
,drink,0.773452877998352
,dancing,0.7662530541419983
,party,0.7642630338668823
,indoors,0.7636739611625671
,crowd,0.7594563961029053
https://scontent.cdninstagram.com/t51.2885-15/sh0.08/e35/p750x750/13398395_293930717608775_2118668978_n.jpg,food,0.9973614811897278
,dinner,0.9830325841903687
,meal,0.9816675186157227
,meat,0.9803972244262695
,no person,0.978036642074585
,delicious,0.9749746322631836
,grow,0.972174346446991
,lunch,0.9711720943450928
,vegetable,0.9694882035255432
,dish,0.9631228446960449
,chicken,0.956764817237854
,cooking,0.9514273405075073
,cuisine,0.9448673129081726
,rice,0.9447223544120789
,traditional,0.9432898759841919
,pork,0.9430650472640991
,seafood,0.9381281137466431
,plate,0.935418963432312
,hot,0.9299074411392212
,fish,0.9268630743026733
https://scontent.cdninstagram.com/t51.2885-15/e35/13260897_1325949234099492_1759535739_n.jpg,ceremony,0.9981896281242371
,recreation,0.988545298576355
,wear,0.9877553582191467
,wedding,0.9872704744338989
,woman,0.9836374521255493
,movie,0.9790446758270264
,groom,0.9786535501480103
,bride,0.9765595197677612
,actress,0.9765163064002991
,people,0.9765098690986633
,portrait,0.9754567742347717
,facial expression,0.9712930917739868
,veil,0.9702742099761963
,red carpet,0.9696434736251831
,dinner jacket,0.9694079160690308
,festival,0.967461347579956
,gown,0.9616144299507141
,two,0.9510793685913086
,man,0.9496709108352661
,award,0.9472051858901978
https://scontent.cdninstagram.com/t51.2885-15/s640x640/e15/13320041_1037393056309511_1504140267_n.jpg,people,0.9897627234458923
,adult,0.9896554946899414
,portrait,0.9825115203857422
,child,0.9798182249069214
,woman,0.9707437753677368
,indoors,0.9690135717391968
,horizontal,0.9632867574691772
,music,0.956965446472168
,enjoyment,0.9475394487380981
,happiness,0.9413676261901855
,fun,0.9354623556137085
,togetherness,0.9343277215957642
,man,0.9157142639160156
,wear,0.8986072540283203
,instrument,0.8864478468894958
,facial expression,0.881159245967865
,festival,0.872417688369751
,party,0.8689734935760498
,musician,0.8590142726898193
,family,0.8522217273712158
https://scontent.cdninstagram.com/t51.2885-15/e35/13423695_276298992723027_530346690_n.jpg,technology,0.9861352443695068
,screen,0.986115574836731
,internet,0.9680548906326294
,computer,0.9525551795959473
,business,0.9499567747116089
,laptop,0.9432348012924194
,touch,0.941180408000946
,communication,0.9293206334114075
,World Wide Web,0.9236422777175903
,people,0.9224061965942383
,telephone,0.9131993651390076
,blank,0.8682894706726074
,desktop,0.8506875038146973
,isolated,0.8483166694641113
,monitor,0.845852792263031
,woman,0.8421226739883423
,adult,0.8408985733985901
,multimedia,0.8365813493728638
,set,0.8353457450866699
,connection,0.8176342248916626
https://scontent.cdninstagram.com/t51.2885-15/e35/13437219_258520641173236_1004886347_n.jpg,illustration,0.9682821035385132
,set,0.9616504907608032
,vector,0.9604381918907166
,collection,0.9371305704116821
,square,0.9340351819992065
,no person,0.9295658469200134
,collage,0.90851891040802
,card,0.8813534379005432
,internet,0.8781611919403076
,image,0.8675233125686646
,technology,0.8620907664299011
,vector,0.8577913641929626
,isolated,0.8543259501457214
,business,0.8418540358543396
,symbol,0.8377105593681335
,design,0.8353866338729858
,food,0.8148126602172852
,paper,0.807924747467041
,screen,0.8053367137908936
,picture frame,0.7939251661300659
https://scontent.cdninstagram.com/t51.2885-15/e35/13437426_1715601042040775_1461231353_n.jpg,celebration,0.9761162400245667
,people,0.97059166431427
,happiness,0.9476867914199829
,fun,0.9474830031394958
,child,0.9461655616760254
,gift,0.9377852082252502
,cheerful,0.9376821517944336
,woman,0.9271551370620728
,indoors,0.925670325756073
,friendship,0.924010694026947
,family,0.9192325472831726
,horizontal,0.914615273475647
,enjoyment,0.8850106000900269
,Christmas,0.8771741390228271
,party,0.8674997091293335
,vertical,0.8626818060874939
,adult,0.860155463218689
,cute,0.8407411575317383
,shopping,0.8404672741889954
,portrait,0.8369101285934448
https://scontent.cdninstagram.com/t51.2885-15/e35/13380854_1777863252451132_1806698511_n.jpg,electronics,0.9863571524620056
,technology,0.9767948389053345
,business,0.9706379175186157
,telephone,0.9577776193618774
,equipment,0.9394993185997009
,no person,0.9387487173080444
,display,0.9297353029251099
,modern,0.9247350096702576
,contemporary,0.9206525087356567
,indoors,0.9139212369918823
,portable,0.9062103033065796
,one,0.9016463756561279
,connection,0.8970043659210205
,blur,0.8655698299407959
,office,0.8655654788017273
,screen,0.8618886470794678
,wireless,0.8587537407875061
,computer,0.8574100732803345
,machinery,0.8511830568313599
,device,0.8384100198745728
https://scontent.cdninstagram.com/t51.2885-15/sh0.08/e35/p640x640/13261049_1589911864672689_485840735_n.jpg,illustration,0.9909522533416748
,man,0.9613156318664551
,art,0.9604986906051636
,people,0.952967643737793
,adult,0.9340744018554688
,woman,0.9265257716178894
,sport,0.9162861108779907
,bill,0.9030047655105591
,graphic,0.8977978825569153
,mystery,0.877789318561554
,light,0.855402410030365
,music,0.845578134059906
,design,0.8446744680404663
,strength,0.8197212815284729
,football,0.8186377882957458
,fun,0.8159217834472656
,desktop,0.8101418018341064
,outdoors,0.8070303201675415
,dancing,0.8033560514450073
,dancer,0.7893346548080444
https://scontent.cdninstagram.com/t51.2885-15/s640x640/e15/13392906_1743714319250539_1638439692_n.jpg,people,0.9900722503662109
,adult,0.989019513130188
,man,0.9778190851211548
,woman,0.9756151437759399
,drink,0.9725068807601929
,group,0.9563957452774048
,indoors,0.9488304853439331
,restaurant,0.9444353580474854
,bar,0.9212504625320435
,business,0.9178206324577332
,table,0.9166796207427979
,wear,0.9096574783325195
,coffee,0.9080818891525269
,portrait,0.907808244228363
,room,0.8882426619529724
,office,0.8609369993209839
,furniture,0.8558046817779541
,medicine,0.853797197341919
,technology,0.8531910181045532
,food,0.8526862859725952
https://scontent.cdninstagram.com/t51.2885-15/sh0.08/e35/p750x750/13298223_913974072046342_1403879308_n.jpg,togetherness,0.9753445386886597
,woman,0.9621098041534424
,group,0.9514559507369995
,happiness,0.9499307870864868
,enjoyment,0.9474131464958191
,friendship,0.9411590099334717
,laughing,0.9349108934402466
,facial expression,0.9346939921379089
,family,0.9307084679603577
,man,0.9298279285430908
,people,0.9295319318771362
,child,0.9288634061813354
,portrait,0.9240036606788635
,fun,0.9228494167327881
,love,0.8859264254570007
,three,0.8625583648681641
,joy,0.8483074307441711
,indoors,0.844117283821106
,adult,0.8404487371444702
,daylight,0.8384954929351807
https://scontent.cdninstagram.com/t51.2885-15/e15/13257044_1722657924640793_2103030050_n.jpg,woman,0.9947203397750854
,indoors,0.989888608455658
,fashion,0.9830073714256287
,people,0.9701365828514099
,wear,0.9587857723236084
,man,0.9505213499069214
,portrait,0.9427874684333801
,sexy,0.9353354573249817
,two,0.9205030202865601
,pretty,0.9114525318145752
,togetherness,0.9076303243637085
,love,0.906847357749939
,glamour,0.9009912014007568
,facial expression,0.882962167263031
,contemporary,0.868101954460144
,adult,0.8658781051635742
,looking,0.8565352559089661
,enjoyment,0.8501582145690918
,jewelry,0.8476635813713074
,music,0.8453717231750488
https://scontent.cdninstagram.com/t51.2885-15/e35/13181366_1041325325947666_2110771333_n.jpg,lens,0.9998911619186401
,viewfinder,0.9943456649780273
,zoom,0.9928247928619385
,shutter,0.9917798042297363
,technology,0.9886766672134399
,aperture,0.9806715250015259
,equipment,0.9726688861846924
,optics,0.9709185361862183
,video recording,0.9679287672042847
,flash,0.9649145603179932
,old,0.9594100117683411
,analogue,0.9570937752723694
,electronics,0.9489357471466064
,isolated,0.9392671585083008
,tripod,0.9345543384552002
,vintage,0.9333910346031189
,camcorder,0.9292502403259277
,snapshot,0.9269133806228638
,classic,0.9193096160888672
,movie,0.9174779653549194
https://scontent.cdninstagram.com/t51.2885-15/sh0.08/e35/p640x640/13561667_503664946504896_820899508_n.jpg,nightlife,0.9971593618392944
,club,0.9882243871688843
,fun,0.9852288961410522
,exhilaration,0.9838588237762451
,enjoyment,0.9683818817138672
,party,0.9573321342468262
,disco,0.9513189792633057
,people,0.9485085606575012
,vertical,0.9343814849853516
,woman,0.9333748817443848
,club,0.9311121702194214
,entertainment,0.9293092489242554
,adult,0.9251302480697632
,fashion,0.9184990525245667
,music,0.9136183261871338
,dancing,0.9046409130096436
,joy,0.8868706822395325
,recreation,0.8687337636947632
,funky,0.8608411550521851
,celebration,0.8573746681213379
https://scontent.cdninstagram.com/t51.2885-15/e35/13534301_1619151341710351_1913078250_n.jpg,food,0.9912763833999634
,meal,0.9776190519332886
,cooking,0.9619393348693848
,restaurant,0.9575908184051514
,lunch,0.9563398361206055
,woman,0.9562423229217529
,traditional,0.9547079205513
,dinner,0.9422430992126465
,people,0.9344619512557983
,man,0.9168539643287659
,meat,0.9107027053833008
,chef,0.9088879823684692
,delicious,0.8872674107551575
,table,0.8765608072280884
,culture,0.8700404763221741
,plate,0.8541545867919922
,salad,0.8540064096450806
,cake,0.8439371585845947
,beef,0.8391249179840088
,vegetable,0.8304990530014038
https://scontent.cdninstagram.com/t51.2885-15/e35/13259570_1552355208400443_572882693_n.jpg,no person,0.995823860168457
,sky,0.9905354380607605
,sunset,0.9720548391342163
,abstract,0.9712643623352051
,storm,0.9705505967140198
,dark,0.962482213973999
,outdoors,0.959466278553009
,nature,0.9587262868881226
,weather,0.954006016254425
,daylight,0.9534489512443542
,evening,0.9455190896987915
,landscape,0.9421392679214478
,dusk,0.9353857040405273
,desktop,0.9283051490783691
,color,0.9180271029472351
,art,0.9156643748283386
,meteorology,0.9154943227767944
,space,0.9021002054214478
,wallpaper,0.898239016532898
,light,0.8965314626693726
https://scontent.cdninstagram.com/t51.2885-15/e35/13556900_510602769128490_323497044_n.jpg,food,0.980790376663208
,soup,0.9128879308700562
,meal,0.878453254699707
,vegetable,0.8763777017593384
,horizontal,0.8718019723892212
,meat,0.8544934391975403
,plate,0.8404364585876465
,cooking,0.8348481059074402
,vertical,0.8255985975265503
,heat,0.8223617076873779
,dinner,0.8204284906387329
,no person,0.811310350894928
,desktop,0.8084553480148315
,bread,0.799999475479126
,lunch,0.7990237474441528
,bowl,0.7952625155448914
,hot,0.7797724604606628
,seafood,0.7786828279495239
,chicken,0.7757662534713745
,isolated,0.7732362747192383
https://scontent.cdninstagram.com/t51.2885-15/e35/13642879_1004268776308006_66314534_n.jpg,teamwork,0.9907211065292358
,group,0.9856977462768555
,group,0.9838292002677917
,squad,0.9835752248764038
,business,0.9798994064331055
,meeting,0.9671027660369873
,man,0.9663873910903931
,success,0.9540979862213135
,woman,0.9410476684570312
,partnership,0.9403771162033081
,corporate,0.9386647343635559
,actor,0.9307061433792114
,league,0.9282760620117188
,cooperation,0.9238555431365967
,people,0.9145134687423706
,company,0.8904640674591064
,leadership,0.8882014751434326
,colleague,0.8723365068435669
,staff,0.868659496307373
,adult,0.8651468753814697
https://scontent.cdninstagram.com/t51.2885-15/e35/13561597_150877498655773_1557715118_n.jpg,people,0.9903591871261597
,woman,0.9809199571609497
,friendship,0.946408212184906
,party,0.9364460706710815
,group,0.9333438277244568
,fun,0.9127840995788574
,beautiful,0.912691593170166
,fashion,0.908984363079071
,adult,0.9050687551498413
,event,0.887061357498169
,religion,0.8862332105636597
,music,0.8817506432533264
,celebration,0.8778323531150818
,young,0.8765461444854736
,collection,0.8679022789001465
,girl,0.8659741282463074
,shopping,0.8610943555831909
,entertainment,0.8594529628753662
,man,0.8554368019104004
,wear,0.8548142910003662
https://scontent.cdninstagram.com/t51.2885-15/s750x750/sh0.08/e35/13534338_162750047473778_704022396_n.jpg,mammal,0.9950239658355713
,pet,0.9921392798423767
,cat,0.9884800910949707
,domestic,0.9820423722267151
,cute,0.9755055904388428
,one,0.9750851392745972
,no person,0.9732123613357544
,animal,0.9723412990570068
,portrait,0.9445735216140747
,little,0.9156882166862488
,fur,0.9152568578720093
,breed,0.8998799920082092
,dog,0.8984462022781372
,canine,0.871957540512085
,paw,0.8717347383499146
,kitten,0.8705053329467773
,two,0.8666609525680542
,adorable,0.8571054935455322
,sit,0.853165864944458
,nature,0.8357741236686707
https://scontent.cdninstagram.com/t51.2885-15/e35/13532005_1757646377806124_977101146_n.jpg,technology,0.9784121513366699
,business,0.9774231910705566
,computer,0.973395824432373
,internet,0.9536484479904175
,people,0.9474341869354248
,data,0.924692690372467
,data,0.9059107303619385
,security,0.8841903209686279
,screen,0.8733218908309937
,offense,0.8600656986236572
,World Wide Web,0.846428394317627
,desktop,0.8325979709625244
,access,0.8271915912628174
,man,0.8223773241043091
,adult,0.8210550546646118
,image,0.8196831941604614
,symbol,0.794887125492096
,modern,0.7812312841415405
,office,0.777267336845398
,communication,0.7589608430862427
https://scontent.cdninstagram.com/t51.2885-15/s640x640/sh0.08/e35/13597627_1571124893183304_204211526_n.jpg,gold,0.9571762681007385
,illustration,0.9498063325881958
,casino,0.9277960658073425
,fun,0.9205736517906189
,symbol,0.9170430898666382
,sign,0.9146993160247803
,no person,0.911838173866272
,retro,0.9087216854095459
,travel,0.9085423946380615
,desktop,0.905596137046814
,design,0.9044848680496216
,light,0.8967918753623962
,round,0.892558217048645
,entertainment,0.8907631039619446
,gambling,0.887311577796936
,luck,0.8854717016220093
,music,0.8521045446395874
,vector,0.8428516387939453
,bill,0.8416019678115845
,abstract,0.8403606414794922
https://scontent.cdninstagram.com/t51.2885-15/sh0.08/e35/p640x640/13643541_1695311834053513_747149491_n.jpg,outdoors,0.9376736283302307
,text,0.9205635190010071
,travel,0.9181108474731445
,vertical,0.9144799709320068
,horizontal,0.9047355651855469
,no person,0.8999650478363037
,road,0.8870614767074585
,people,0.8763084411621094
,guidance,0.8649098873138428
,travel,0.8593471050262451
,business,0.8585308790206909
,paper,0.8444406986236572
,child,0.8387334942817688
,education,0.7924826741218567
,communication,0.7689803242683411
,symbol,0.7664391994476318
,guidance,0.7618945240974426
,fun,0.7526316046714783
,nature,0.7524874806404114
,illustration,0.7521475553512573
https://scontent.cdninstagram.com/t51.2885-15/sh0.08/e35/p750x750/13628061_568465699998448_179781179_n.jpg,indoors,0.9942276477813721
,woman,0.9916841983795166
,pretty,0.973869800567627
,business,0.9646410942077637
,contemporary,0.9315569400787354
,people,0.9081225395202637
,young,0.9072771072387695
,shopping,0.8922814130783081
,telephone,0.8892637491226196
,fashion,0.8868660926818848
,tube,0.8832200765609741
,looking,0.8794912099838257
,sexy,0.871446967124939
,technology,0.8711453676223755
,internet,0.8692176342010498
,cute,0.858478307723999
,wireless,0.8516089916229248
,multicultural,0.8513110280036926
,horizontal,0.8225454688072205
,casual,0.8072820901870728
https://scontent.cdninstagram.com/t51.2885-15/sh0.08/e35/p640x640/13525553_153288811757182_493521185_n.jpg,people,0.9646236896514893
,adult,0.9562243223190308
,man,0.9194038510322571
,outdoors,0.882851243019104
,heat,0.8596874475479126
,flame,0.8535408973693848
,motion,0.8480690717697144
,transportation system,0.8461912274360657
,car,0.845138669013977
,uniform,0.8292902708053589
,football,0.8205970525741577
,competition,0.8199766874313354
,light,0.817040205001831
,woman,0.814734935760498
,business,0.8107966780662537
,energy,0.7841755151748657
,sport,0.7800930738449097
,technology,0.7718859910964966
,city,0.7673753499984741
,celebration,0.7587683796882629
https://scontent.cdninstagram.com/t51.2885-15/sh0.08/e35/p640x640/13549565_260152454363035_1188131173_n.jpg,flower,0.9956775903701782
,nature,0.9869625568389893
,leaf,0.952610969543457
,beautiful,0.9470211267471313
,girl,0.9439408183097839
,flora,0.9409903287887573
,child,0.9384931325912476
,summer,0.9382773637771606
,woman,0.9359718561172485
,bouquet,0.930654764175415
,cute,0.927680253982544
,young,0.9271620512008667
,little,0.9122565984725952
,garden,0.9090003967285156
,pretty,0.9063044786453247
,smile,0.8998251557350159
,blooming,0.8664129972457886
,portrait,0.863766074180603
,floral,0.8595080971717834
,tulip,0.8494852781295776
https://scontent.cdninstagram.com/t51.2885-15/sh0.08/e35/p640x640/13636192_523827514476297_1229752690_n.jpg,people,0.9893519282341003
,many,0.9600557684898376
,business,0.9550726413726807
,group,0.9450778961181641
,paper,0.9425151348114014
,print,0.9302247762680054
,adult,0.9196933507919312
,magazine,0.9084258079528809
,text,0.9069056510925293
,paper,0.8882573843002319
,war,0.8627932071685791
,woman,0.8470840454101562
,landscape,0.8377664685249329
,book,0.8367248773574829
,commerce,0.8224136829376221
,portrait,0.8184418082237244
,money,0.8024519085884094
,administration,0.7760828137397766
,battle,0.776039719581604
,museum,0.764073371887207
https://scontent.cdninstagram.com/t51.2885-15/s640x640/e15/13531857_1041380925968827_1386095852_n.jpg,music,0.9943267107009888
,performance,0.992053747177124
,concert,0.9902767539024353
,musician,0.9864053726196289
,singer,0.9800583124160767
,people,0.9753351211547852
,stage,0.9679287672042847
,festival,0.9532613754272461
,microphone,0.9430539608001709
,band,0.9382676482200623
,audience,0.9363836646080017
,adult,0.9120274782180786
,energy,0.8850010633468628
,light,0.865497350692749
,instrument,0.8626399040222168
,one,0.8579447269439697
,man,0.8531873226165771
,guitar,0.8419383764266968
,business,0.835774302482605
,guitarist,0.8145685195922852
