url,class,score,,,,,,,,
https://scontent.cdninstagram.com/t51.2885-15/e35/13116625_139889013083335_1279075281_n.jpg,"no person",0.9946403503417969,,,,,,,,
,food,0.9913041591644287,,,,,,,,
,delicious,0.9880584478378296,,,,,,,,
,homemade,0.9734801054000854,,,,,,,,
,pastry,0.9631646871566772,,,,,,,,
,sugar,0.9570438265800476,,,,,,,,
,sweet,0.954033613204956,,,,,,,,
,grow,0.9536272287368774,,,,,,,,
,plate,0.9532129168510437,,,,,,,,
,breakfast,0.95114666223526,,,,,,,,
,lunch,0.9468522071838379,,,,,,,,
,meal,0.9360644221305847,,,,,,,,
,cream,0.9358624219894409,,,,,,,,
,nutrition,0.933754026889801,,,,,,,,
,pie,0.9271130561828613,,,,,,,,
,baking,0.927047610282898,,,,,,,,
,dinner,0.9178324341773987,,,,,,,,
,refreshment,0.9079207181930542,,,,,,,,
,cake,0.9070550203323364,,,,,,,,
,cooking,0.903119683265686,,,,,,,,
https://scontent.cdninstagram.com/t51.2885-15/e35/12331911_1533108997008618_1932071887_n.jpg,"no person",0.987399697303772,Food,,,,Self-preparation,,,
,vertical,0.9652692675590515,,,,,,,,
,health,0.9638671875,,,,,,,,
,indoors,0.9625651836395264,,,,,,,,
,leaf,0.9609309434890747,,,,,,,,
,food,0.9596390724182129,,,,,,,,
,horizontal,0.9426448941230774,,,,,,,,
,cooking,0.9346843957901001,,,,,,,,
,dinner,0.9303017854690552,,,,,,,,
,ingredients,0.9296603202819824,,,,,,,,
,lunch,0.9254863262176514,,,,,,,,
,nutrition,0.9095838665962219,,,,,,,,
,vegetable,0.9045177698135376,,,,,,,,
,spaghetti,0.902991771697998,,,,,,,,
,pasta,0.8943271636962891,,,,,,,,
,garlic,0.86719810962677,,,,,,,,
,nature,0.8488907814025879,,,,,,,,
,preparation,0.8449708819389343,,,,,,,,
,traditional,0.8392400741577148,,,,,,,,
,wood,0.8269646167755127,,,,,,,,
https://scontent.cdninstagram.com/t51.2885-15/e35/11910272_1621080711485152_1955537549_n.jpg,soup,0.9935925006866455,Food,,,,"Drinks and snack",,,
,food,0.9932865500450134,,,,,,,,
,"no person",0.9927181005477905,,,,,,,,
,dinner,0.9855704307556152,,,,,,,,
,grow,0.9825985431671143,,,,,,,,
,bread,0.9766402244567871,,,,,,,,
,vegetable,0.975313663482666,,,,,,,,
,homemade,0.9734364748001099,,,,,,,,
,lunch,0.9723509550094604,,,,,,,,
,spoon,0.9587622880935669,,,,,,,,
,parsley,0.954379141330719,,,,,,,,
,delicious,0.9542298913002014,,,,,,,,
,appetizer,0.9519426226615906,,,,,,,,
,bowl,0.9503862261772156,,,,,,,,
,cream,0.9473602771759033,,,,,,,,
,meal,0.9411279559135437,,,,,,,,
,dish,0.9389397501945496,,,,,,,,
,traditional,0.9356404542922974,,,,,,,,
,nutrition,0.9326761364936829,,,,,,,,
,cooking,0.9326332211494446,,,,,,,,
https://scontent.cdninstagram.com/t51.2885-15/e35/12142107_189904134680526_553894468_n.jpg,landscape,0.9926624298095703,"My life",,,,"My world today",,,
,sky,0.9910174608230591,,,,,,,,
,"no person",0.9836055040359497,,,,,,,,
,weather,0.9800522327423096,,,,,,,,
,daylight,0.9791179299354553,,,,,,,,
,travel,0.9772588014602661,,,,,,,,
,light,0.9770512580871582,,,,,,,,
,atmosphere,0.9751887321472168,,,,,,,,
,scenic,0.9617583751678467,,,,,,,,
,"fair weather",0.958277702331543,,,,,,,,
,airplane,0.9515565037727356,,,,,,,,
,outdoors,0.9455994367599487,,,,,,,,
,winter,0.9389967918395996,,,,,,,,
,environment,0.9352680444717407,,,,,,,,
,sun,0.934649646282196,,,,,,,,
,window,0.9336550235748291,,,,,,,,
,art,0.9215577840805054,,,,,,,,
,water,0.9024000763893127,,,,,,,,
,aircraft,0.8898980617523193,,,,,,,,
,"transportation system",0.8882319927215576,,,,,,,,
https://scontent.cdninstagram.com/t51.2885-15/e35/13267338_1122514984436836_1865901190_n.jpg,veil,0.9999731779098511,Celebrations,,,,"Personal Events",,,
,bride,0.9999436140060425,,,,,,,,
,wedding,0.9998816251754761,,,,,,,,
,bridal,0.9989851713180542,,,,,,,,
,marriage,0.9978113770484924,,,,,,,,
,ceremony,0.9973926544189453,,,,,,,,
,bouquet,0.9944378733634949,,,,,,,,
,groom,0.9943198561668396,,,,,,,,
,woman,0.9941951632499695,,,,,,,,
,reception,0.984871506690979,,,,,,,,
,engagement,0.981911838054657,,,,,,,,
,love,0.9782109260559082,,,,,,,,
,indoors,0.9740733504295349,,,,,,,,
,happiness,0.9718316793441772,,,,,,,,
,portrait,0.9704316854476929,,,,,,,,
,newlywed,0.9649397134780884,,,,,,,,
,dress,0.9630237817764282,,,,,,,,
,girl,0.9613745212554932,,,,,,,,
,celebration,0.9557778835296631,,,,,,,,
,people,0.949863076210022,,,,,,,,
https://scontent.cdninstagram.com/t51.2885-15/e35/13181360_1675027956047882_576372904_n.jpg,wedding,0.9989115595817566,Celebrations,,,,"Personal Events",,,
,bride,0.9958364963531494,,,,,,,,
,groom,0.9955946207046509,,,,,,,,
,veil,0.9941847324371338,,,,,,,,
,ceremony,0.9941420555114746,,,,,,,,
,woman,0.9758279323577881,,,,,,,,
,marriage,0.9737099409103394,,,,,,,,
,celebration,0.9562966227531433,,,,,,,,
,people,0.9512122869491577,,,,,,,,
,bridal,0.9461097717285156,,,,,,,,
,reception,0.9450522065162659,,,,,,,,
,man,0.9401012659072876,,,,,,,,
,love,0.9373149871826172,,,,,,,,
,engagement,0.9351218938827515,,,,,,,,
,bouquet,0.9341650009155273,,,,,,,,
,family,0.9114856719970703,,,,,,,,
,indoors,0.904256284236908,,,,,,,,
,adult,0.8988741636276245,,,,,,,,
,portrait,0.8933542966842651,,,,,,,,
,happiness,0.8859850168228149,,,,,,,,
https://scontent.cdninstagram.com/t51.2885-15/e35/12976684_1016915485067373_221690920_n.jpg,leaf,0.9979383945465088,Environment,,,,"Natural beauty",,,
,flora,0.9949533939361572,,,,,,,,
,growth,0.9854369163513184,,,,,,,,
,environment,0.9851545095443726,,,,,,,,
,nature,0.985089898109436,,,,,,,,
,"no person",0.9726522564888,,,,,,,,
,garden,0.9644433856010437,,,,,,,,
,summer,0.9459350109100342,,,,,,,,
,tropical,0.9417703151702881,,,,,,,,
,agriculture,0.941158652305603,,,,,,,,
,flower,0.9381055235862732,,,,,,,,
,ecology,0.9370275139808655,,,,,,,,
,growth,0.9302003383636475,,,,,,,,
,purity,0.9268701672554016,,,,,,,,
,lush,0.9249779582023621,,,,,,,,
,closeup,0.9241079092025757,,,,,,,,
,freshness,0.919670581817627,,,,,,,,
,color,0.8994951248168945,,,,,,,,
,rain,0.8859274983406067,,,,,,,,
,outdoors,0.8764048218727112,,,,,,,,
https://scontent.cdninstagram.com/t51.2885-15/e35/11909210_732848530177943_756957964_n.jpg,food,0.9902064800262451,Food,,,,Self-preparation,,,
,kind,0.9865052700042725,,,,,,,,
,"no person",0.9752942323684692,,,,,,,,
,delicious,0.9628318548202515,,,,,,,,
,meat,0.9368727207183838,,,,,,,,
,ham,0.9348390102386475,,,,,,,,
,set,0.9342095851898193,,,,,,,,
,assortment,0.9324411153793335,,,,,,,,
,dinner,0.9163082838058472,,,,,,,,
,epicure,0.9134244918823242,,,,,,,,
,desktop,0.9066867232322693,,,,,,,,
,ingredients,0.9057015180587769,,,,,,,,
,pork,0.9042161703109741,,,,,,,,
,market,0.8960558176040649,,,,,,,,
,rice,0.8845982551574707,,,,,,,,
,nutrition,0.877607524394989,,,,,,,,
,traditional,0.8753506541252136,,,,,,,,
,fish,0.8692343235015869,,,,,,,,
,health,0.868862509727478,,,,,,,,
,variation,0.8656365871429443,,,,,,,,
https://scontent.cdninstagram.com/t51.2885-15/s750x750/sh0.08/e35/12080644_1664623613752538_1633717668_n.jpg,people,0.9854555726051331,Cute,,,,Cute,,,
,group,0.9660128355026245,,,,,,,,
,exhibition,0.9647738933563232,,,,,,,,
,museum,0.9475866556167603,,,,,,,,
,man,0.9472744464874268,,,,,,,,
,show,0.9327883720397949,,,,,,,,
,art,0.8918914198875427,,,,,,,,
,business,0.8901170492172241,,,,,,,,
,toy,0.8773393630981445,,,,,,,,
,model,0.849785566329956,,,,,,,,
,science,0.8386242389678955,,,,,,,,
,adult,0.8288334608078003,,,,,,,,
,stage,0.8118180632591248,,,,,,,,
,child,0.8089528679847717,,,,,,,,
,leader,0.7971484065055847,,,,,,,,
,many,0.7896026372909546,,,,,,,,
,sculpture,0.787165641784668,,,,,,,,
,woman,0.769985020160675,,,,,,,,
,portrait,0.7666524648666382,,,,,,,,
,family,0.7597097158432007,,,,,,,,
https://scontent.cdninstagram.com/t51.2885-15/s640x640/sh0.08/e35/12132962_973446909383563_1074517712_n.jpg,fish,0.9999793767929077,Animals,,,,Pets,,,
,underwater,0.9999712705612183,,,,,,,,
,aquarium,0.9999572038650513,,,,,,,,
,goldfish,0.9999204874038696,,,,,,,,
,tank,0.9998100996017456,,,,,,,,
,swimming,0.9995280504226685,,,,,,,,
,fishbowl,0.9978612661361694,,,,,,,,
,carp,0.9965136051177979,,,,,,,,
,water,0.9963060617446899,,,,,,,,
,ocean,0.9906738996505737,,,,,,,,
,"no person",0.9781649112701416,,,,,,,,
,aquatic,0.9777653217315674,,,,,,,,
,wildlife,0.9738643169403076,,,,,,,,
,fin,0.9697109460830688,,,,,,,,
,sea,0.9694317579269409,,,,,,,,
,marine,0.9691072702407837,,,,,,,,
,deep,0.9621498584747314,,,,,,,,
,tropical,0.9591673016548157,,,,,,,,
,exotic,0.9558772444725037,,,,,,,,
,freshwater,0.9519752264022827,,,,,,,,
https://scontent.cdninstagram.com/t51.2885-15/e35/12716983_929034550498004_1246637118_n.jpg,tree,0.978818416595459,Environment,,,,"Manmade beauty",,,
,celebration,0.9602950811386108,,,,,,,,
,flower,0.9579018354415894,,,,,,,,
,Christmas,0.9530328512191772,,,,,,,,
,winter,0.9441660642623901,,,,,,,,
,season,0.9379594326019287,,,,,,,,
,decoration,0.9212353229522705,,,,,,,,
,bright,0.9037169218063354,,,,,,,,
,light,0.9005687236785889,,,,,,,,
,"no person",0.8846827745437622,,,,,,,,
,desktop,0.8841299414634705,,,,,,,,
,branch,0.8620930910110474,,,,,,,,
,design,0.8572050333023071,,,,,,,,
,festival,0.8561991453170776,,,,,,,,
,art,0.8531162738800049,,,,,,,,
,snow,0.8494434356689453,,,,,,,,
,traditional,0.8454910516738892,,,,,,,,
,gold,0.8307410478591919,,,,,,,,
,color,0.8203951120376587,,,,,,,,
,symbol,0.807317852973938,,,,,,,,
https://scontent.cdninstagram.com/t51.2885-15/e35/13437154_1047337435349416_723112123_n.jpg,food,0.9957209825515747,Food,,,,"Meal time",,,
,meal,0.9907450675964355,,,,,,,,
,plate,0.9850161075592041,,,,,,,,
,dinner,0.9848363995552063,,,,,,,,
,dish,0.9800615310668945,,,,,,,,
,meat,0.9792094230651855,,,,,,,,
,lunch,0.9786005020141602,,,,,,,,
,collage,0.9757393598556519,,,,,,,,
,cuisine,0.9724283218383789,,,,,,,,
,restaurant,0.9708081483840942,,,,,,,,
,delicious,0.9637133479118347,,,,,,,,
,tasty,0.9606863260269165,,,,,,,,
,epicure,0.9571866989135742,,,,,,,,
,vegetable,0.9536516666412354,,,,,,,,
,sauce,0.9457735419273376,,,,,,,,
,refreshment,0.9455621242523193,,,,,,,,
,healthy,0.9424605369567871,,,,,,,,
,chicken,0.9392030835151672,,,,,,,,
,cooking,0.9390010237693787,,,,,,,,
,rice,0.9348564743995667,,,,,,,,
https://scontent.cdninstagram.com/t51.2885-15/s480x480/e35/12749824_482461001956110_815479249_n.jpg,illustration,0.9564192295074463,Commerce,,,,Promotions,,,
,"give voice",0.9404721260070801,,,,,,,,
,business,0.9200338125228882,,,,,,,,
,desktop,0.9172625541687012,,,,,,,,
,conceptual,0.8978646993637085,,,,,,,,
,text,0.8788728713989258,,,,,,,,
,people,0.8705105185508728,,,,,,,,
,service,0.8575220108032227,,,,,,,,
,creativity,0.8296502828598022,,,,,,,,
,woman,0.8253881931304932,,,,,,,,
,success,0.8246104121208191,,,,,,,,
,symbol,0.8208613991737366,,,,,,,,
,success,0.8030986785888672,,,,,,,,
,man,0.7883490920066833,,,,,,,,
,vector,0.7848801612854004,,,,,,,,
,isolated,0.7847321033477783,,,,,,,,
,graphic,0.7641888856887817,,,,,,,,
,inspiration,0.7625744342803955,,,,,,,,
,motivation,0.7608027458190918,,,,,,,,
,art,0.743545413017273,,,,,,,,
https://scontent.cdninstagram.com/t51.2885-15/e35/12940893_1168309046521469_1809685218_n.jpg,"World Wide Web",0.9847599864006042,Commerce,,,,"Product/brand shots",,,
,layout,0.9829521775245667,,,,,,,,
,template,0.9732726812362671,,,,,,,,
,business,0.9722935557365417,,,,,,,,
,number,0.9715520739555359,,,,,,,,
,set,0.9656819701194763,,,,,,,,
,banner,0.9620585441589355,,,,,,,,
,symbol,0.9508419036865234,,,,,,,,
,illustration,0.9425296783447266,,,,,,,,
,card,0.9402614831924438,,,,,,,,
,label,0.9397188425064087,,,,,,,,
,booklet,0.9384725093841553,,,,,,,,
,navigation,0.9343684911727905,,,,,,,,
,vector,0.9331806898117065,,,,,,,,
,information,0.9323427081108093,,,,,,,,
,presentation,0.9277600049972534,,,,,,,,
,internet,0.9259786605834961,,,,,,,,
,page,0.9016554951667786,,,,,,,,
,graph,0.900149405002594,,,,,,,,
,data,0.892859697341919,,,,,,,,
https://scontent.cdninstagram.com/t51.2885-15/e35/11881604_475662939307759_50330464_n.jpg,flora,0.9939753413200378,Environment,,,,"Manmade beauty",,,
,leaf,0.9936851263046265,,,,,,,,
,growth,0.9859174489974976,,,,,,,,
,growth,0.977766752243042,,,,,,,,
,garden,0.9736412763595581,,,,,,,,
,nature,0.9718900918960571,,,,,,,,
,ivy,0.9716808795928955,,,,,,,,
,food,0.9628894329071045,,,,,,,,
,agriculture,0.9596671462059021,,,,,,,,
,vegetable,0.9587057828903198,,,,,,,,
,desktop,0.9475104212760925,,,,,,,,
,closeup,0.9435519576072693,,,,,,,,
,summer,0.9418269395828247,,,,,,,,
,color,0.9319232702255249,,,,,,,,
,farm,0.9316089749336243,,,,,,,,
,"no person",0.9285439252853394,,,,,,,,
,freshness,0.9134472608566284,,,,,,,,
,vine,0.9123332500457764,,,,,,,,
,botanical,0.9042863845825195,,,,,,,,
,branch,0.9012594819068909,,,,,,,,
https://scontent.cdninstagram.com/t51.2885-15/e35/11363983_175046439500531_639365438_n.jpg,wildlife,0.9958562850952148,Animals,,,,Animals-s,,,
,nature,0.9950891137123108,,,,,,,,
,tree,0.9934512376785278,,,,,,,,
,bird,0.9934500455856323,,,,,,,,
,tropical,0.9921897649765015,,,,,,,,
,wild,0.9771896600723267,,,,,,,,
,outdoors,0.9722367525100708,,,,,,,,
,"no person",0.970216691493988,,,,,,,,
,animal,0.9520609378814697,,,,,,,,
,exotic,0.9514244794845581,,,,,,,,
,leaf,0.9479953050613403,,,,,,,,
,rainforest,0.9325424432754517,,,,,,,,
,avian,0.92481529712677,,,,,,,,
,wood,0.9177498817443848,,,,,,,,
,wing,0.9033567905426025,,,,,,,,
,beak,0.9017319083213806,,,,,,,,
,jungle,0.8768606185913086,,,,,,,,
,feather,0.8639804124832153,,,,,,,,
,songbird,0.8587131500244141,,,,,,,,
,parrot,0.8572578430175781,,,,,,,,
https://scontent.cdninstagram.com/t51.2885-15/e35/11199408_946123952114175_1348391176_n.jpg,scoop,0.9988871812820435,Food,,,,Dessert,,,
,cream,0.9968799352645874,,,,,,,,
,vanilla,0.9968434572219849,,,,,,,,
,creamy,0.9941699504852295,,,,,,,,
,"no person",0.9927114248275757,,,,,,,,
,delicious,0.991734504699707,,,,,,,,
,milk,0.9895390272140503,,,,,,,,
,frozen,0.9851315021514893,,,,,,,,
,"dairy product",0.9838877320289612,,,,,,,,
,sweet,0.9834425449371338,,,,,,,,
,ice,0.9760291576385498,,,,,,,,
,sorbet,0.9737450480461121,,,,,,,,
,dairy,0.9697504639625549,,,,,,,,
,cold,0.9513431787490845,,,,,,,,
,food,0.9495777487754822,,,,,,,,
,strawberry,0.9439816474914551,,,,,,,,
,wafer,0.9122841358184814,,,,,,,,
,sugar,0.9112496376037598,,,,,,,,
,waffle,0.9097387194633484,,,,,,,,
,nutrition,0.9036190509796143,,,,,,,,
https://scontent.cdninstagram.com/t51.2885-15/e15/11917813_511942298971190_1917796080_n.jpg,people,0.9848971366882324,Animals,,,,Pets,,,
,indoors,0.9810765981674194,,,,,,,,
,wear,0.9792625904083252,,,,,,,,
,adult,0.9635440111160278,,,,,,,,
,painting,0.9625147581100464,,,,,,,,
,light,0.9597888588905334,,,,,,,,
,room,0.9456799030303955,,,,,,,,
,art,0.9344683289527893,,,,,,,,
,action,0.927460789680481,,,,,,,,
,exhibition,0.9174690842628479,,,,,,,,
,motion,0.9039292335510254,,,,,,,,
,one,0.8969841599464417,,,,,,,,
,furniture,0.8925248980522156,,,,,,,,
,container,0.8881564736366272,,,,,,,,
,blur,0.8834903240203857,,,,,,,,
,museum,0.8827857375144958,,,,,,,,
,food,0.8752570152282715,,,,,,,,
,man,0.8710551261901855,,,,,,,,
,wall,0.8650198578834534,,,,,,,,
,"picture frame",0.8479516506195068,,,,,,,,
https://scontent.cdninstagram.com/t51.2885-15/s320x320/e35/12339045_760166874089486_572579448_n.jpg,vertical,0.9831639528274536,Commerce,,,,"Product/brand shots",,,
,business,0.9411431550979614,,,,,,,,
,text,0.9263981580734253,,,,,,,,
,illustration,0.9108996987342834,,,,,,,,
,luck,0.9041693210601807,,,,,,,,
,bill,0.9038742780685425,,,,,,,,
,wealth,0.8950622081756592,,,,,,,,
,identity,0.8941709995269775,,,,,,,,
,symbol,0.8727619051933289,,,,,,,,
,stock,0.8664039373397827,,,,,,,,
,people,0.8641691207885742,,,,,,,,
,paper,0.8546633124351501,,,,,,,,
,design,0.8502690196037292,,,,,,,,
,"no person",0.8428670167922974,,,,,,,,
,gambling,0.8396601676940918,,,,,,,,
,sale,0.8283617496490479,,,,,,,,
,patriotism,0.8189995288848877,,,,,,,,
,celebration,0.8089532852172852,,,,,,,,
,finance,0.8068369626998901,,,,,,,,
,editorial,0.7995849847793579,,,,,,,,
https://scontent.cdninstagram.com/t51.2885-15/s750x750/sh0.08/e35/12446006_1512239409081368_107343407_n.jpg,woman,0.9833067655563354,,,,,,,,
,girl,0.9789327383041382,,,,,,,,
,fashion,0.9779881238937378,,,,,,,,
,people,0.9687901139259338,,,,,,,,
,wear,0.9661124348640442,,,,,,,,
,nude,0.946403443813324,,,,,,,,
,adult,0.9321511387825012,,,,,,,,
,one,0.9288985729217529,,,,,,,,
,indoors,0.9084358215332031,,,,,,,,
,color,0.9046252965927124,,,,,,,,
,vehicle,0.9038486480712891,,,,,,,,
,car,0.8975116014480591,,,,,,,,
,man,0.8940798044204712,,,,,,,,
,foot,0.8936752080917358,,,,,,,,
,child,0.8863525390625,,,,,,,,
,body,0.875694751739502,,,,,,,,
,nude,0.8573541641235352,,,,,,,,
,beautiful,0.8419827818870544,,,,,,,,
,maternity,0.8348125219345093,,,,,,,,
,erotic,0.8329236507415771,,,,,,,,
https://scontent.cdninstagram.com/t51.2885-15/e35/13151003_2008242232734977_1115741349_n.jpg,food,0.9937297701835632,,,,,,,,
,lettuce,0.990574836730957,,,,,,,,
,meat,0.9857029914855957,,,,,,,,
,sandwich,0.9850205183029175,,,,,,,,
,plate,0.9842826128005981,,,,,,,,
,bread,0.981776237487793,,,,,,,,
,meal,0.9806298017501831,,,,,,,,
,refreshment,0.9768284559249878,,,,,,,,
,lunch,0.9748119711875916,,,,,,,,
,vegetable,0.9729087352752686,,,,,,,,
,tomato,0.9707839488983154,,,,,,,,
,cheese,0.9701695442199707,,,,,,,,
,salad,0.9646390676498413,,,,,,,,
,freshness,0.9579439163208008,,,,,,,,
,kebab,0.9551659226417542,,,,,,,,
,dinner,0.9525022506713867,,,,,,,,
,slice,0.9502511620521545,,,,,,,,
,beef,0.9462711811065674,,,,,,,,
,barbecue,0.945995569229126,,,,,,,,
,vertical,0.9446364641189575,,,,,,,,
https://scontent.cdninstagram.com/t51.2885-15/s750x750/sh0.08/e35/10576119_986735768034953_1930071521_n.jpg,light,0.9889246225357056,"My life",,,,"My world today",,,
,city,0.9818739891052246,,,,,,,,
,landscape,0.9756395816802979,,,,,,,,
,building,0.960425853729248,,,,,,,,
,street,0.9603829383850098,,,,,,,,
,evening,0.9437174797058105,,,,,,,,
,architecture,0.9388712644577026,,,,,,,,
,urban,0.9315762519836426,,,,,,,,
,sky,0.9315282702445984,,,,,,,,
,travel,0.9241749048233032,,,,,,,,
,dusk,0.9142657518386841,,,,,,,,
,moon,0.909608006477356,,,,,,,,
,energy,0.8961391448974609,,,,,,,,
,reflection,0.886594295501709,,,,,,,,
,motion,0.8857274651527405,,,,,,,,
,blur,0.8795666694641113,,,,,,,,
,sunset,0.8581790924072266,,,,,,,,
,dark,0.8372285962104797,,,,,,,,
,downtown,0.8295469284057617,,,,,,,,
,bridge,0.8276609182357788,,,,,,,,
https://scontent.cdninstagram.com/t51.2885-15/s750x750/sh0.08/e35/13741232_1056084124476263_1318680819_n.jpg,goldfish,0.9999634027481079,Animals,,,,Pets,,,
,aquarium,0.9999252557754517,,,,,,,,
,fish,0.9999229907989502,,,,,,,,
,underwater,0.9999045133590698,,,,,,,,
,tank,0.9994013905525208,,,,,,,,
,fishbowl,0.9993641376495361,,,,,,,,
,swimming,0.9985295534133911,,,,,,,,
,carp,0.9960317611694336,,,,,,,,
,water,0.994664192199707,,,,,,,,
,pet,0.9946619272232056,,,,,,,,
,freshwater,0.9906138181686401,,,,,,,,
,aquatic,0.9890748262405396,,,,,,,,
,fin,0.9858689308166504,,,,,,,,
,"no person",0.9748337268829346,,,,,,,,
,"side view",0.9741443395614624,,,,,,,,
,nature,0.9716266393661499,,,,,,,,
,animal,0.9615963101387024,,,,,,,,
,sea,0.9590861797332764,,,,,,,,
,deep,0.9560439586639404,,,,,,,,
,tropical,0.9503268003463745,,,,,,,,
https://scontent.cdninstagram.com/t51.2885-15/e35/925838_1683464001918130_1599651473_n.jpg,food,0.9960216283798218,Food,,,,"Meal time",,,
,rice,0.9886934161186218,,,,,,,,
,dinner,0.9883134365081787,,,,,,,,
,lunch,0.983993411064148,,,,,,,,
,meal,0.9779804944992065,,,,,,,,
,"no person",0.9774222373962402,,,,,,,,
,plate,0.9762240648269653,,,,,,,,
,delicious,0.9739383459091187,,,,,,,,
,dish,0.9694278240203857,,,,,,,,
,vegetable,0.9669022560119629,,,,,,,,
,meat,0.96539306640625,,,,,,,,
,chicken,0.962177038192749,,,,,,,,
,cuisine,0.9438861608505249,,,,,,,,
,hot,0.9297114610671997,,,,,,,,
,curry,0.9239981174468994,,,,,,,,
,cooking,0.9222025275230408,,,,,,,,
,restaurant,0.9164444208145142,,,,,,,,
,traditional,0.9157625436782837,,,,,,,,
,nutrition,0.9141585230827332,,,,,,,,
,pork,0.9122352600097656,,,,,,,,
https://scontent.cdninstagram.com/t51.2885-15/e35/13704333_1087634507993356_602150970_n.jpg,dinner,0.9961733222007751,Food,,,,"Meal time",,,
,lunch,0.9932353496551514,,,,,,,,
,food,0.9895906448364258,,,,,,,,
,plate,0.986120343208313,,,,,,,,
,meal,0.9856483936309814,,,,,,,,
,delicious,0.9813580513000488,,,,,,,,
,chicken,0.9755986928939819,,,,,,,,
,vegetable,0.9730600118637085,,,,,,,,
,lettuce,0.9719741344451904,,,,,,,,
,dish,0.9707537889480591,,,,,,,,
,meat,0.9647101163864136,,,,,,,,
,salad,0.955561637878418,,,,,,,,
,fish,0.9496800303459167,,,,,,,,
,nutrition,0.945163369178772,,,,,,,,
,fillet,0.9423404932022095,,,,,,,,
,tomato,0.9405443668365479,,,,,,,,
,epicure,0.9405128955841064,,,,,,,,
,barbecue,0.9398553371429443,,,,,,,,
,dining,0.9390895366668701,,,,,,,,
,restaurant,0.9287261366844177,,,,,,,,
https://scontent.cdninstagram.com/t51.2885-15/e35/11373680_106188583065519_1848998775_n.jpg,light,0.972604513168335,"My life",Environment,,,"My world today","Manmade beauty",,
,sunset,0.9482160806655884,,,,,,,,
,abstract,0.9395484924316406,,,,,,,,
,sun,0.9182823300361633,,,,,,,,
,art,0.9110777378082275,,,,,,,,
,dawn,0.8868792057037354,,,,,,,,
,luminescence,0.8841604590415955,,,,,,,,
,desktop,0.8826203346252441,,,,,,,,
,design,0.8784574270248413,,,,,,,,
,color,0.8742001056671143,,,,,,,,
,flame,0.8651642799377441,,,,,,,,
,bright,0.8632282018661499,,,,,,,,
,texture,0.8574178218841553,,,,,,,,
,sky,0.8526446223258972,,,,,,,,
,dark,0.8454349040985107,,,,,,,,
,landscape,0.834334135055542,,,,,,,,
,light,0.822891354560852,,,,,,,,
,"no person",0.8187071084976196,,,,,,,,
,reflection,0.8151675462722778,,,,,,,,
,nature,0.7931143045425415,,,,,,,,
https://scontent.cdninstagram.com/t51.2885-15/e35/10453783_197817460589461_1300288109_n.jpg,window,0.9925295114517212,Environment,,,,"Manmade beauty",,,
,architecture,0.9836446046829224,,,,,,,,
,glass,0.9828290343284607,,,,,,,,
,modern,0.9805482625961304,,,,,,,,
,building,0.964796781539917,,,,,,,,
,business,0.9635600447654724,,,,,,,,
,office,0.950878918170929,,,,,,,,
,"no person",0.9501147866249084,,,,,,,,
,house,0.9390426874160767,,,,,,,,
,expression,0.9368109703063965,,,,,,,,
,construction,0.9250965714454651,,,,,,,,
,contemporary,0.9209364652633667,,,,,,,,
,light,0.9103285074234009,,,,,,,,
,estate,0.905427098274231,,,,,,,,
,indoors,0.8880245685577393,,,,,,,,
,urban,0.8784692883491516,,,,,,,,
,outdoors,0.8733380436897278,,,,,,,,
,real,0.8705644607543945,,,,,,,,
,property,0.8700051307678223,,,,,,,,
,daylight,0.8685888051986694,,,,,,,,
https://scontent.cdninstagram.com/t51.2885-15/e35/11820473_437558013099087_327974323_n.jpg,dawn,0.9921519756317139,"My life",Environment,,,"My world today","Natural beauty",,
,sunset,0.9863892793655396,,,,,,,,
,fog,0.9856369495391846,,,,,,,,
,reflection,0.984480082988739,,,,,,,,
,water,0.9838868379592896,,,,,,,,
,sun,0.978269100189209,,,,,,,,
,lake,0.9764285087585449,,,,,,,,
,landscape,0.9713759422302246,,,,,,,,
,"no person",0.9693499803543091,,,,,,,,
,city,0.9634603261947632,,,,,,,,
,river,0.950233519077301,,,,,,,,
,sky,0.9465945959091187,,,,,,,,
,architecture,0.9206234216690063,,,,,,,,
,urban,0.903364896774292,,,,,,,,
,travel,0.9009039402008057,,,,,,,,
,mist,0.8989123702049255,,,,,,,,
,weather,0.8962188959121704,,,,,,,,
,light,0.8793286085128784,,,,,,,,
,boat,0.8772106170654297,,,,,,,,
,nature,0.8719683885574341,,,,,,,,
https://scontent.cdninstagram.com/t51.2885-15/e35/11849975_901394343268944_1150203004_n.jpg,leaf,0.9932700991630554,Food,,,,Self-preparation,,,
,collage,0.9846657514572144,,,,,,,,
,isolated,0.9825472831726074,,,,,,,,
,pot,0.9809927344322205,,,,,,,,
,nature,0.9808263778686523,,,,,,,,
,flora,0.9805598258972168,,,,,,,,
,herb,0.9640448093414307,,,,,,,,
,desktop,0.9527164697647095,,,,,,,,
,bud,0.9430707693099976,,,,,,,,
,grass,0.9415555000305176,,,,,,,,
,collection,0.9269843697547913,,,,,,,,
,symbol,0.9097299575805664,,,,,,,,
,food,0.8938974142074585,,,,,,,,
,salad,0.8816617727279663,,,,,,,,
,set,0.8756370544433594,,,,,,,,
,lettuce,0.8690800666809082,,,,,,,,
,"no person",0.8686021566390991,,,,,,,,
,herbal,0.8551318645477295,,,,,,,,
,cannabis,0.8471068143844604,,,,,,,,
,healthcare,0.835728645324707,,,,,,,,
https://scontent.cdninstagram.com/t51.2885-15/s320x320/e35/10632429_1028463820545682_870245969_n.jpg,illustration,0.9877653121948242,Arts,,,,Motivational,,,
,vector,0.9866739511489868,,,,,,,,
,vector,0.9547150731086731,,,,,,,,
,design,0.9541235566139221,,,,,,,,
,desktop,0.9498845338821411,,,,,,,,
,set,0.948855996131897,,,,,,,,
,pattern,0.9393975138664246,,,,,,,,
,graphic,0.9244064688682556,,,,,,,,
,love,0.9234987497329712,,,,,,,,
,"no person",0.9123796224594116,,,,,,,,
,decoration,0.9013316631317139,,,,,,,,
,heart,0.8976150751113892,,,,,,,,
,element,0.8951846361160278,,,,,,,,
,cute,0.890945553779602,,,,,,,,
,symbol,0.8840034008026123,,,,,,,,
,medicine,0.8647511005401611,,,,,,,,
,collection,0.852570652961731,,,,,,,,
,card,0.8384189009666443,,,,,,,,
,shape,0.835146427154541,,,,,,,,
,wallpaper,0.8224853277206421,,,,,,,,
https://scontent.cdninstagram.com/t51.2885-15/e35/12145131_1057507780934850_726664230_n.jpg,collage,0.9730653762817383,Food,,,,"Meal time",,,
,food,0.9476916790008545,,,,,,,,
,desktop,0.9428851008415222,,,,,,,,
,"no person",0.9418075084686279,,,,,,,,
,delicious,0.9328199625015259,,,,,,,,
,health,0.9041167497634888,,,,,,,,
,fruit,0.8953759670257568,,,,,,,,
,bright,0.8888909816741943,,,,,,,,
,vegetable,0.8865184783935547,,,,,,,,
,refreshment,0.8834595084190369,,,,,,,,
,summer,0.8726699352264404,,,,,,,,
,Halloween,0.8658612966537476,,,,,,,,
,fall,0.8614992499351501,,,,,,,,
,healthy,0.8580031394958496,,,,,,,,
,collection,0.850956916809082,,,,,,,,
,color,0.8496864438056946,,,,,,,,
,nutrition,0.8432252407073975,,,,,,,,
,set,0.8386690616607666,,,,,,,,
,tasty,0.8340110778808594,,,,,,,,
,sweet,0.8339830636978149,,,,,,,,
https://scontent.cdninstagram.com/t51.2885-15/e35/11374392_920225654704123_1517955801_n.jpg,food,0.9861186146736145,Food,,,,"Meal time",,,
,dinner,0.9825131893157959,,,,,,,,
,lunch,0.9793850183486938,,,,,,,,
,"no person",0.9791073799133301,,,,,,,,
,pasta,0.9693413376808167,,,,,,,,
,meal,0.9655110836029053,,,,,,,,
,delicious,0.9474225044250488,,,,,,,,
,plate,0.9447935819625854,,,,,,,,
,nutrition,0.939176082611084,,,,,,,,
,dish,0.9358362555503845,,,,,,,,
,fork,0.9126490354537964,,,,,,,,
,vegetable,0.8972722291946411,,,,,,,,
,meat,0.8951318264007568,,,,,,,,
,cooking,0.8895151615142822,,,,,,,,
,noodles,0.8858166933059692,,,,,,,,
,cuisine,0.8809683322906494,,,,,,,,
,health,0.8660608530044556,,,,,,,,
,healthy,0.8592078685760498,,,,,,,,
,traditional,0.8499689102172852,,,,,,,,
,tasty,0.8409968018531799,,,,,,,,
https://scontent.cdninstagram.com/t51.2885-15/e35/12534463_177242932638221_875904260_n.jpg,decoration,0.9797598719596863,Undefined,,,,Undefined,,,
,"no person",0.9686275720596313,,,,,,,,
,Christmas,0.9650802612304688,,,,,,,,
,celebration,0.9404584169387817,,,,,,,,
,desktop,0.9324191212654114,,,,,,,,
,retro,0.9193115234375,,,,,,,,
,symbol,0.9117611646652222,,,,,,,,
,winter,0.9056767225265503,,,,,,,,
,design,0.9047766923904419,,,,,,,,
,traditional,0.8975642919540405,,,,,,,,
,ancient,0.8948007822036743,,,,,,,,
,art,0.8943213224411011,,,,,,,,
,dragon,0.8863034248352051,,,,,,,,
,travel,0.8683948516845703,,,,,,,,
,pattern,0.8648942708969116,,,,,,,,
,vintage,0.862712025642395,,,,,,,,
,wear,0.8624123334884644,,,,,,,,
,gold,0.8439103364944458,,,,,,,,
,ornate,0.8203427791595459,,,,,,,,
,wood,0.8129715919494629,,,,,,,,
https://scontent.cdninstagram.com/t51.2885-15/e35/11373936_1097172223643814_926321988_n.jpg,"no person",0.9843649864196777,,,,,,,,
,number,0.9566465616226196,,,,,,,,
,business,0.9299571514129639,,,,,,,,
,paper,0.8819968700408936,,,,,,,,
,desktop,0.8578910827636719,,,,,,,,
,isolated,0.8528538942337036,,,,,,,,
,money,0.8186157941818237,,,,,,,,
,symbol,0.8162473440170288,,,,,,,,
,success,0.7794650197029114,,,,,,,,
,equipment,0.7792172431945801,,,,,,,,
,indoors,0.7713687419891357,,,,,,,,
,gambling,0.7539215087890625,,,,,,,,
,technology,0.7515740394592285,,,,,,,,
,one,0.7451383471488953,,,,,,,,
,wealth,0.7444453239440918,,,,,,,,
,plastic,0.7391972541809082,,,,,,,,
,color,0.7339740991592407,,,,,,,,
,horizontal,0.7298679351806641,,,,,,,,
,computer,0.723141074180603,,,,,,,,
,closeup,0.722903847694397,,,,,,,,
https://scontent.cdninstagram.com/t51.2885-15/e35/12093460_181923215477192_1418485597_n.jpg,food,0.9814364910125732,Arts,,,,Arts-s,,,
,"no person",0.9777836799621582,,,,,,,,
,vertical,0.9060459733009338,,,,,,,,
,homemade,0.8957548141479492,,,,,,,,
,traditional,0.8890171647071838,,,,,,,,
,delicious,0.8869686126708984,,,,,,,,
,nature,0.8692638278007507,,,,,,,,
,sweet,0.8584413528442383,,,,,,,,
,one,0.8541269302368164,,,,,,,,
,decoration,0.8420339226722717,,,,,,,,
,"still life",0.8401597738265991,,,,,,,,
,health,0.8347335457801819,,,,,,,,
,desktop,0.8295663595199585,,,,,,,,
,indoors,0.8251199722290039,,,,,,,,
,handmade,0.8019484877586365,,,,,,,,
,grow,0.7930780053138733,,,,,,,,
,celebration,0.7857480049133301,,,,,,,,
,cake,0.781974196434021,,,,,,,,
,family,0.7788760662078857,,,,,,,,
,sugar,0.7773546576499939,,,,,,,,
https://scontent.cdninstagram.com/t51.2885-15/s750x750/sh0.08/e35/11881645_189946764669717_1551362567_n.jpg,fashion,0.9986679553985596,Commerce,,,,"Product/brand shots",,,
,dress,0.9962080717086792,,,,,,,,
,wear,0.9925142526626587,,,,,,,,
,style,0.9908802509307861,,,,,,,,
,elegant,0.9858713746070862,,,,,,,,
,garment,0.9825772047042847,,,,,,,,
,style,0.980826735496521,,,,,,,,
,design,0.9743263721466064,,,,,,,,
,collection,0.9731263518333435,,,,,,,,
,beautiful,0.9695025682449341,,,,,,,,
,mannequin,0.9661481380462646,,,,,,,,
,woman,0.9649999141693115,,,,,,,,
,glamour,0.9587929248809814,,,,,,,,
,model,0.9537310600280762,,,,,,,,
,fabric,0.95253586769104,,,,,,,,
,textile,0.9513183832168579,,,,,,,,
,modern,0.9428155422210693,,,,,,,,
,pretty,0.9228827953338623,,,,,,,,
,desktop,0.918097972869873,,,,,,,,
,silk,0.9166610240936279,,,,,,,,
https://scontent.cdninstagram.com/t51.2885-15/e35/12139668_1084986998179788_1420719530_n.jpg,monochrome,0.9802353382110596,"Fun Filter",,,,"Fun Filter",,,
,woman,0.9523988962173462,,,,,,,,
,people,0.9444652795791626,,,,,,,,
,glass,0.8974065780639648,,,,,,,,
,monochrome,0.8965542316436768,,,,,,,,
,love,0.8933582901954651,,,,,,,,
,man,0.8875513672828674,,,,,,,,
,one,0.8761180639266968,,,,,,,,
,indoors,0.8726373910903931,,,,,,,,
,"black and white",0.8681045174598694,,,,,,,,
,wedding,0.8430137038230896,,,,,,,,
,glass,0.8366063833236694,,,,,,,,
,water,0.829776406288147,,,,,,,,
,blur,0.824592649936676,,,,,,,,
,adult,0.8163980841636658,,,,,,,,
,sepia,0.8129382133483887,,,,,,,,
,elegant,0.8044708967208862,,,,,,,,
,mirror,0.7686114311218262,,,,,,,,
,retro,0.7678215503692627,,,,,,,,
,dark,0.7653391361236572,,,,,,,,
https://scontent.cdninstagram.com/t51.2885-15/e35/11078976_939080686199363_829052422_n.jpg,hot,0.9910617470741272,Food,,,,Dessert,,,
,"no person",0.9873492121696472,,,,,,,,
,food,0.9835795164108276,,,,,,,,
,soup,0.9760177135467529,,,,,,,,
,tea,0.9751566648483276,,,,,,,,
,breakfast,0.9735338687896729,,,,,,,,
,coffee,0.9659217596054077,,,,,,,,
,cup,0.9637223482131958,,,,,,,,
,delicious,0.9609681367874146,,,,,,,,
,cooking,0.9537538290023804,,,,,,,,
,traditional,0.9503901600837708,,,,,,,,
,bowl,0.948606550693512,,,,,,,,
,health,0.9444994926452637,,,,,,,,
,dinner,0.9315869808197021,,,,,,,,
,lunch,0.927158772945404,,,,,,,,
,taste,0.922910213470459,,,,,,,,
,dawn,0.9214539527893066,,,,,,,,
,warmly,0.9193108081817627,,,,,,,,
,spoon,0.9144443273544312,,,,,,,,
,nutrition,0.9052645564079285,,,,,,,,
https://scontent.cdninstagram.com/t51.2885-15/e35/11925591_720352608097325_1648060704_n.jpg,nature,0.974048912525177,Arts,,,,Motivational,,,
,desktop,0.9705069065093994,,,,,,,,
,abstract,0.9469324350357056,,,,,,,,
,bright,0.9218941926956177,,,,,,,,
,"no person",0.9189020395278931,,,,,,,,
,vector,0.9145795702934265,,,,,,,,
,winter,0.9063829779624939,,,,,,,,
,underwater,0.9007598161697388,,,,,,,,
,decoration,0.8996551632881165,,,,,,,,
,illustration,0.8900814652442932,,,,,,,,
,cold,0.8821746110916138,,,,,,,,
,wallpaper,0.8760243058204651,,,,,,,,
,card,0.861653745174408,,,,,,,,
,design,0.8476089239120483,,,,,,,,
,Christmas,0.8336697816848755,,,,,,,,
,space,0.81987464427948,,,,,,,,
,pattern,0.8064520359039307,,,,,,,,
,sky,0.8054155111312866,,,,,,,,
,color,0.8019742369651794,,,,,,,,
,season,0.79375821352005,,,,,,,,
https://scontent.cdninstagram.com/t51.2885-15/e35/12081299_528229780663489_974082994_n.jpg,food,0.9971598386764526,Food,,,,"Meal time",,,
,"no person",0.9884322881698608,,,,,,,,
,cooking,0.9678772687911987,,,,,,,,
,grow,0.9674738049507141,,,,,,,,
,sweet,0.9633299112319946,,,,,,,,
,"still life",0.9591183662414551,,,,,,,,
,delicious,0.9460572004318237,,,,,,,,
,"dairy product",0.9400188326835632,,,,,,,,
,closeup,0.9393781423568726,,,,,,,,
,dish,0.9368014335632324,,,,,,,,
,fruit,0.9355162978172302,,,,,,,,
,desktop,0.9313689470291138,,,,,,,,
,traditional,0.9035319089889526,,,,,,,,
,meal,0.8974170684814453,,,,,,,,
,dumpling,0.8944029808044434,,,,,,,,
,homemade,0.8872063159942627,,,,,,,,
,health,0.8845356702804565,,,,,,,,
,bowl,0.8825947642326355,,,,,,,,
,vegetable,0.8825289607048035,,,,,,,,
,milk,0.877041220664978,,,,,,,,
https://scontent.cdninstagram.com/t51.2885-15/e35/13151339_137335600003503_172523620_n.jpg,veil,0.9999657273292542,Celebrations,,,,"Personal Events",,,
,wedding,0.9998841881752014,,,,,,,,
,bride,0.9998588562011719,,,,,,,,
,bridal,0.9980859756469727,,,,,,,,
,woman,0.9962866306304932,,,,,,,,
,marriage,0.995334804058075,,,,,,,,
,groom,0.9934173822402954,,,,,,,,
,ceremony,0.9836626052856445,,,,,,,,
,fashion,0.9788274765014648,,,,,,,,
,indoors,0.9776066541671753,,,,,,,,
,engagement,0.9754396080970764,,,,,,,,
,love,0.9658184051513672,,,,,,,,
,elegant,0.9391359090805054,,,,,,,,
,portrait,0.9388437271118164,,,,,,,,
,happiness,0.9379892349243164,,,,,,,,
,glamour,0.9338856935501099,,,,,,,,
,girl,0.9266952276229858,,,,,,,,
,luxury,0.9188108444213867,,,,,,,,
,reception,0.9153781533241272,,,,,,,,
,young,0.9150949716567993,,,,,,,,
https://scontent.cdninstagram.com/t51.2885-15/e35/12277552_1522634978054252_1602089374_n.jpg,water,0.993138313293457,"My life",Environment,,,"My world today","Natural beauty",,
,travel,0.9899585247039795,,,,,,,,
,landscape,0.9887188076972961,,,,,,,,
,"no person",0.9866209030151367,,,,,,,,
,mountain,0.9818757176399231,,,,,,,,
,sky,0.9788568019866943,,,,,,,,
,sea,0.9781259298324585,,,,,,,,
,seashore,0.9768953323364258,,,,,,,,
,island,0.9734212756156921,,,,,,,,
,beach,0.9701973795890808,,,,,,,,
,summer,0.9633904695510864,,,,,,,,
,nature,0.9618242383003235,,,,,,,,
,tree,0.9504848718643188,,,,,,,,
,lake,0.9487813711166382,,,,,,,,
,bay,0.9444214105606079,,,,,,,,
,ocean,0.9316524863243103,,,,,,,,
,seascape,0.9286012649536133,,,,,,,,
,outdoors,0.9261792898178101,,,,,,,,
,scenic,0.9240540862083435,,,,,,,,
,daylight,0.9069222211837769,,,,,,,,
https://scontent.cdninstagram.com/t51.2885-15/e35/924328_154512354917518_1733667454_n.jpg,food,0.9968684911727905,Food,,,,"Meal time",,,
,dinner,0.9908270835876465,,,,,,,,
,meal,0.9848213195800781,,,,,,,,
,vegetable,0.9842431545257568,,,,,,,,
,cuisine,0.984168291091919,,,,,,,,
,lunch,0.9840108156204224,,,,,,,,
,chili,0.9815570116043091,,,,,,,,
,bowl,0.9800434708595276,,,,,,,,
,meat,0.979416012763977,,,,,,,,
,delicious,0.9790891408920288,,,,,,,,
,dish,0.9785037040710449,,,,,,,,
,hot,0.9716672897338867,,,,,,,,
,soup,0.9680367708206177,,,,,,,,
,sauce,0.9678424596786499,,,,,,,,
,tasty,0.9590285420417786,,,,,,,,
,epicure,0.956356406211853,,,,,,,,
,restaurant,0.9562363624572754,,,,,,,,
,plate,0.9556256532669067,,,,,,,,
,cooking,0.9543769955635071,,,,,,,,
,pepper,0.951429009437561,,,,,,,,
https://scontent.cdninstagram.com/t51.2885-15/e35/12918376_1731050087117040_968715354_n.jpg,time,0.999785304069519,Commerce,,,,"Product/brand shots",,,
,clock,0.9992001056671143,,,,,,,,
,watch,0.9986088275909424,,,,,,,,
,minute,0.9952195882797241,,,,,,,,
,timer,0.988491952419281,,,,,,,,
,wristwatch,0.9884418249130249,,,,,,,,
,precision,0.9882261753082275,,,,,,,,
,late,0.9871163368225098,,,,,,,,
,deadline,0.9846382141113281,,,,,,,,
,"no person",0.9805650115013123,,,,,,,,
,number,0.979167103767395,,,,,,,,
,business,0.9743393659591675,,,,,,,,
,"alarm clock",0.9703513383865356,,,,,,,,
,antique,0.9565315842628479,,,,,,,,
,accuracy,0.955690324306488,,,,,,,,
,countdown,0.9517217874526978,,,,,,,,
,wrist,0.9493508338928223,,,,,,,,
,retro,0.9493134021759033,,,,,,,,
,urgency,0.9453691244125366,,,,,,,,
,timepiece,0.9379217624664307,,,,,,,,
https://scontent.cdninstagram.com/t51.2885-15/e35/12556037_916089515165417_2131040123_n.jpg,leaf,0.9850496053695679,Arts,,,,Motivational,,,
,desktop,0.9849680662155151,,,,,,,,
,abstract,0.9825800061225891,,,,,,,,
,texture,0.9778051376342773,,,,,,,,
,pattern,0.9767371416091919,,,,,,,,
,design,0.9640334844589233,,,,,,,,
,flora,0.9563295841217041,,,,,,,,
,wallpaper,0.9228570461273193,,,,,,,,
,closeup,0.9176720380783081,,,,,,,,
,nature,0.9158143997192383,,,,,,,,
,"no person",0.9116207361221313,,,,,,,,
,background,0.9057613611221313,,,,,,,,
,growth,0.8994032144546509,,,,,,,,
,dew,0.8839199542999268,,,,,,,,
,bright,0.8814253211021423,,,,,,,,
,element,0.8769090175628662,,,,,,,,
,art,0.8657903075218201,,,,,,,,
,color,0.8563194274902344,,,,,,,,
,illustration,0.8510788083076477,,,,,,,,
,"picture frame",0.8390457630157471,,,,,,,,
https://scontent.cdninstagram.com/t51.2885-15/e35/13743409_152505028489242_65899022_n.jpg,business,0.993346095085144,,,,,,,,
,sign,0.9909278154373169,,,,,,,,
,success,0.989522397518158,,,,,,,,
,banner,0.9865342378616333,,,,,,,,
,text,0.9863038659095764,,,,,,,,
,symbol,0.9743547439575195,,,,,,,,
,accomplishment,0.9676851630210876,,,,,,,,
,finance,0.9600201845169067,,,,,,,,
,illustration,0.9541188478469849,,,,,,,,
,money,0.9498963356018066,,,,,,,,
,support,0.946381151676178,,,,,,,,
,patriotism,0.9430077075958252,,,,,,,,
,flag,0.9419847726821899,,,,,,,,
,communication,0.9403510093688965,,,,,,,,
,paper,0.9117158055305481,,,,,,,,
,financial,0.911004900932312,,,,,,,,
,desktop,0.9066187143325806,,,,,,,,
,market,0.9056909680366516,,,,,,,,
,sign,0.9023659229278564,,,,,,,,
,commerce,0.9020774364471436,,,,,,,,
https://scontent.cdninstagram.com/t51.2885-15/e35/13627930_1042707789099864_129991695_n.jpg,dinner,0.9942271709442139,Food,,,,"Meal time",,,
,food,0.9925280809402466,,,,,,,,
,meat,0.9911877512931824,,,,,,,,
,lunch,0.9892828464508057,,,,,,,,
,lettuce,0.9845196604728699,,,,,,,,
,meal,0.9834222197532654,,,,,,,,
,plate,0.9797148704528809,,,,,,,,
,delicious,0.9758434295654297,,,,,,,,
,salad,0.9692894220352173,,,,,,,,
,beef,0.9686071872711182,,,,,,,,
,vegetable,0.9629919528961182,,,,,,,,
,tomato,0.9606409072875977,,,,,,,,
,barbecue,0.956386387348175,,,,,,,,
,dish,0.9518581628799438,,,,,,,,
,steak,0.9447517395019531,,,,,,,,
,chicken,0.9436618089675903,,,,,,,,
,nutrition,0.9397455453872681,,,,,,,,
,pork,0.9366180896759033,,,,,,,,
,fillet,0.9342113733291626,,,,,,,,
,epicure,0.9331788420677185,,,,,,,,
https://scontent.cdninstagram.com/t51.2885-15/e35/11850090_1006637086035894_1834608199_n.jpg,illustration,0.9862347841262817,Commerce,,,,Promotions,,,
,business,0.9228065013885498,,,,,,,,
,vector,0.9173989295959473,,,,,,,,
,horizontal,0.9148918390274048,,,,,,,,
,vector,0.9106320142745972,,,,,,,,
,technology,0.8958821892738342,,,,,,,,
,vertical,0.8933875560760498,,,,,,,,
,box,0.8714884519577026,,,,,,,,
,indoors,0.8646607398986816,,,,,,,,
,sketch,0.8573116660118103,,,,,,,,
,people,0.8523255586624146,,,,,,,,
,square,0.8342407941818237,,,,,,,,
,communication,0.8334814310073853,,,,,,,,
,office,0.8324394226074219,,,,,,,,
,shopping,0.8106390833854675,,,,,,,,
,symbol,0.8077750205993652,,,,,,,,
,image,0.8011351823806763,,,,,,,,
,man,0.773389458656311,,,,,,,,
,adult,0.7724069356918335,,,,,,,,
,paper,0.7398632764816284,,,,,,,,
