url,class,score,,,,,,,,
https://scontent.cdninstagram.com/t51.2885-15/e35/13551582_1707578056173691_1879413788_n.jpg,yoga,0.9947948455810547,Recreation,Relationships,,,Recreation-s,"Best friends",,
,woman,0.9824298620223999,,,,,,,,
,adult,0.9655976295471191,,,,,,,,
,mat,0.963707447052002,,,,,,,,
,exercise,0.9587175846099854,,,,,,,,
,Pilate,0.9584925770759583,,,,,,,,
,gymnastics,0.9573472738265991,,,,,,,,
,leisure,0.9554755687713623,,,,,,,,
,balance,0.9547128677368164,,,,,,,,
,girl,0.952694296836853,,,,,,,,
,people,0.9443508982658386,,,,,,,,
,lifestyle,0.9305314421653748,,,,,,,,
,fitness,0.9166715145111084,,,,,,,,
,recreation,0.9141448736190796,,,,,,,,
,barefoot,0.9074305295944214,,,,,,,,
,floor,0.9063167572021484,,,,,,,,
,position,0.9061341285705566,,,,,,,,
,relaxation,0.8996278643608093,,,,,,,,
,concentration,0.8953702449798584,,,,,,,,
,energy,0.886146068572998,,,,,,,,
https://scontent.cdninstagram.com/t51.2885-15/s640x640/sh0.08/e35/13422844_1771785159724197_1443968777_n.jpg,exercise,0.9924654960632324,Recreation,,,,Recreation-s,,,
,gymnastics,0.9909597635269165,,,,,,,,
,balance,0.9906660318374634,,,,,,,,
,skill,0.9812023639678955,,,,,,,,
,yoga,0.9741395711898804,,,,,,,,
,woman,0.9736318588256836,,,,,,,,
,ballet,0.9727096557617188,,,,,,,,
,athlete,0.9724275469779968,,,,,,,,
,active,0.9686367511749268,,,,,,,,
,motion,0.9671519994735718,,,,,,,,
,fitness,0.9571536779403687,,,,,,,,
,dancer,0.9553223848342896,,,,,,,,
,position,0.9534226655960083,,,,,,,,
,agility,0.9532172083854675,,,,,,,,
,flexibility,0.9514623880386353,,,,,,,,
,indoors,0.9503748416900635,,,,,,,,
,dancing,0.9463773965835571,,,,,,,,
,"ballet dancer",0.9456137418746948,,,,,,,,
,leotard,0.9452303051948547,,,,,,,,
,Pilate,0.9426369667053223,,,,,,,,
https://scontent.cdninstagram.com/l/t51.2885-15/s640x640/sh0.08/e35/13381051_138934276510594_1746057792_n.jpg,motion,0.9811450839042664,Recreation,,,,Recreation-s,,,
,adult,0.9790123701095581,,,,,,,,
,exercise,0.9691455364227295,,,,,,,,
,gymnastics,0.9671906232833862,,,,,,,,
,woman,0.9667341709136963,,,,,,,,
,athlete,0.9641119241714478,,,,,,,,
,people,0.9588291645050049,,,,,,,,
,leisure,0.9542805552482605,,,,,,,,
,girl,0.9481433033943176,,,,,,,,
,energy,0.9464625120162964,,,,,,,,
,portrait,0.9417311549186707,,,,,,,,
,yoga,0.9303762912750244,,,,,,,,
,indoors,0.9270574450492859,,,,,,,,
,balance,0.926755428314209,,,,,,,,
,one,0.925223708152771,,,,,,,,
,dancer,0.9091988801956177,,,,,,,,
,position,0.9052523374557495,,,,,,,,
,agility,0.9047995805740356,,,,,,,,
,recreation,0.8998790979385376,,,,,,,,
,brunette,0.8994747400283813,,,,,,,,
https://scontent.cdninstagram.com/t51.2885-15/e35/13525535_298727127183550_1007680491_n.jpg,woman,0.9901769161224365,Recreation,,,,Recreation-s,,,
,yoga,0.9881722927093506,,,,,,,,
,adult,0.9717637300491333,,,,,,,,
,people,0.962705135345459,,,,,,,,
,gymnastics,0.9614138007164001,,,,,,,,
,leisure,0.9594406485557556,,,,,,,,
,recreation,0.9593917727470398,,,,,,,,
,mat,0.952674150466919,,,,,,,,
,girl,0.9515610337257385,,,,,,,,
,one,0.9454605579376221,,,,,,,,
,barefoot,0.9360524415969849,,,,,,,,
,Pilate,0.933066725730896,,,,,,,,
,concentration,0.9317909479141235,,,,,,,,
,relaxation,0.9244999885559082,,,,,,,,
,exercise,0.9113893508911133,,,,,,,,
,balance,0.905663251876831,,,,,,,,
,lifestyle,0.8875524401664734,,,,,,,,
,wear,0.8835753202438354,,,,,,,,
,position,0.8832358121871948,,,,,,,,
,young,0.8742836713790894,,,,,,,,
https://scontent.cdninstagram.com/t51.2885-15/e35/13414328_1057181721009896_982464062_n.jpg,ball-shaped,0.9927822947502136,Food,,,,"Drinks and snack",,,
,planet,0.9878882169723511,,,,,,,,
,people,0.9797791242599487,,,,,,,,
,International,0.9687488675117493,,,,,,,,
,spherical,0.9664671421051025,,,,,,,,
,travel,0.9564366340637207,,,,,,,,
,map,0.9532284736633301,,,,,,,,
,portrait,0.9517365097999573,,,,,,,,
,festival,0.9498351812362671,,,,,,,,
,child,0.9493908882141113,,,,,,,,
,universe,0.9442819952964783,,,,,,,,
,girl,0.9361549615859985,,,,,,,,
,one,0.9333183765411377,,,,,,,,
,sphere,0.9250069856643677,,,,,,,,
,ball,0.9239170551300049,,,,,,,,
,light,0.9112392067909241,,,,,,,,
,environment,0.910411536693573,,,,,,,,
,woman,0.9080444574356079,,,,,,,,
,city,0.9076645374298096,,,,,,,,
,street,0.8986612558364868,,,,,,,,
https://scontent.cdninstagram.com/t51.2885-15/s640x640/sh0.08/e35/13636103_168588580221541_1157111025_n.jpg,exercise,0.9914480447769165,Recreation,,,,Recreation-s,,,
,yoga,0.9859918355941772,,,,,,,,
,woman,0.981450080871582,,,,,,,,
,gymnastics,0.976491391658783,,,,,,,,
,sport,0.9754313230514526,,,,,,,,
,fitness,0.9739356637001038,,,,,,,,
,balance,0.9656192064285278,,,,,,,,
,adult,0.9546796083450317,,,,,,,,
,recreation,0.9478029608726501,,,,,,,,
,girl,0.9456853866577148,,,,,,,,
,active,0.9455406069755554,,,,,,,,
,leisure,0.9451267719268799,,,,,,,,
,slender,0.9448976516723633,,,,,,,,
,mat,0.9399533271789551,,,,,,,,
,action,0.9336012005805969,,,,,,,,
,position,0.9335049390792847,,,,,,,,
,athlete,0.9273940324783325,,,,,,,,
,strength,0.9186077117919922,,,,,,,,
,aerobics,0.9132007360458374,,,,,,,,
,body,0.9073362946510315,,,,,,,,
https://scontent.cdninstagram.com/t51.2885-15/e35/13643512_1050732885008915_1055666022_n.jpg,woman,0.9904028177261353,Recreation,,,,Recreation-s,,,
,sexy,0.9684969186782837,,,,,,,,
,fashion,0.9404654502868652,,,,,,,,
,thin,0.923794150352478,,,,,,,,
,indoors,0.9009425640106201,,,,,,,,
,yoga,0.9000946283340454,,,,,,,,
,lingerie,0.8952681422233582,,,,,,,,
,leisure,0.8908052444458008,,,,,,,,
,people,0.8811966180801392,,,,,,,,
,thin,0.866809606552124,,,,,,,,
,wear,0.8578794002532959,,,,,,,,
,exercise,0.8541810512542725,,,,,,,,
,nude,0.8483446836471558,,,,,,,,
,erotic,0.8378495573997498,,,,,,,,
,pretty,0.8324371576309204,,,,,,,,
,fitness,0.8256924748420715,,,,,,,,
,recreation,0.8218361139297485,,,,,,,,
,relaxation,0.8066386580467224,,,,,,,,
,dancing,0.8062689900398254,,,,,,,,
,girl,0.7936743497848511,,,,,,,,
https://scontent.cdninstagram.com/t51.2885-15/s640x640/sh0.08/e35/13380949_290481257952859_66227723_n.jpg,gymnastics,0.9872061014175415,Recreation,,,,Recreation-s,,,
,exercise,0.9823281764984131,,,,,,,,
,balance,0.9809573888778687,,,,,,,,
,woman,0.9789687395095825,,,,,,,,
,dancer,0.9707639217376709,,,,,,,,
,yoga,0.9612983465194702,,,,,,,,
,slender,0.9576312303543091,,,,,,,,
,athlete,0.9554343223571777,,,,,,,,
,position,0.9511735439300537,,,,,,,,
,handstand,0.9439753890037537,,,,,,,,
,agility,0.9439524412155151,,,,,,,,
,adult,0.9437718987464905,,,,,,,,
,"ballet dancer",0.9435257911682129,,,,,,,,
,leisure,0.9425570964813232,,,,,,,,
,dancing,0.939376175403595,,,,,,,,
,energy,0.9376701712608337,,,,,,,,
,girl,0.9300180673599243,,,,,,,,
,motion,0.9287986755371094,,,,,,,,
,leotard,0.9287286996841431,,,,,,,,
,flexibility,0.924363374710083,,,,,,,,
https://scontent.cdninstagram.com/t51.2885-15/s750x750/sh0.08/e35/13355428_517539478430569_19138972_n.jpg,floor,0.9898878335952759,Recreation,,,,Recreation-s,,,
,exercise,0.9893149733543396,,,,,,,,
,yoga,0.989081084728241,,,,,,,,
,gymnastics,0.985390305519104,,,,,,,,
,indoors,0.978028416633606,,,,,,,,
,woman,0.9760045409202576,,,,,,,,
,adult,0.9751024842262268,,,,,,,,
,room,0.9742504954338074,,,,,,,,
,athlete,0.971380352973938,,,,,,,,
,leisure,0.9713736176490784,,,,,,,,
,mat,0.9700127840042114,,,,,,,,
,motion,0.9658858776092529,,,,,,,,
,balance,0.9630898237228394,,,,,,,,
,people,0.9625779986381531,,,,,,,,
,handstand,0.962319016456604,,,,,,,,
,energy,0.9620816707611084,,,,,,,,
,Pilate,0.9600926637649536,,,,,,,,
,lifestyle,0.9562907218933105,,,,,,,,
,strength,0.9529296159744263,,,,,,,,
,recreation,0.9501111507415771,,,,,,,,
https://scontent.cdninstagram.com/t51.2885-15/e35/13437439_1770000036579165_1725715253_n.jpg,woman,0.9938840866088867,Recreation,,,,Recreation-s,,,
,sexy,0.9717052578926086,,,,,,,,
,young,0.9678332805633545,,,,,,,,
,exercise,0.9651232361793518,,,,,,,,
,girl,0.9623900651931763,,,,,,,,
,leisure,0.9595911502838135,,,,,,,,
,adult,0.951249361038208,,,,,,,,
,body,0.9508553743362427,,,,,,,,
,indoors,0.9481103420257568,,,,,,,,
,beautiful,0.9437810778617859,,,,,,,,
,fitness,0.9383081197738647,,,,,,,,
,fashion,0.9367256164550781,,,,,,,,
,attractive,0.9323996305465698,,,,,,,,
,thin,0.928843080997467,,,,,,,,
,one,0.9282350540161133,,,,,,,,
,slender,0.9222832918167114,,,,,,,,
,lifestyle,0.9169889688491821,,,,,,,,
,wear,0.9164525866508484,,,,,,,,
,pretty,0.9115228652954102,,,,,,,,
,people,0.9036554098129272,,,,,,,,
https://scontent.cdninstagram.com/t51.2885-15/s750x750/sh0.08/e35/13408859_275550792835517_1259802001_n.jpg,exercise,0.9984323978424072,Recreation,,,,Recreation-s,,,
,handstand,0.9949628114700317,,,,,,,,
,yoga,0.9934922456741333,,,,,,,,
,balance,0.993248701095581,,,,,,,,
,gymnastics,0.9931021332740784,,,,,,,,
,fitness,0.9924088716506958,,,,,,,,
,flexibility,0.9852721691131592,,,,,,,,
,active,0.9844255447387695,,,,,,,,
,aerobics,0.9837834239006042,,,,,,,,
,strength,0.9790619611740112,,,,,,,,
,indoors,0.9777836799621582,,,,,,,,
,agility,0.9755334854125977,,,,,,,,
,athlete,0.9741699695587158,,,,,,,,
,woman,0.9719390273094177,,,,,,,,
,"ballet dancer",0.9711997509002686,,,,,,,,
,ballet,0.9677510261535645,,,,,,,,
,motion,0.9671651721000671,,,,,,,,
,action,0.9668964743614197,,,,,,,,
,health,0.9634495973587036,,,,,,,,
,Pilate,0.9602178335189819,,,,,,,,
https://scontent.cdninstagram.com/t51.2885-15/s750x750/sh0.08/e35/13269470_1045631312185874_632164801_n.jpg,gymnastics,0.996833860874176,Recreation,,,,Recreation-s,,,
,exercise,0.9959508180618286,,,,,,,,
,active,0.9939984679222107,,,,,,,,
,balance,0.9931989908218384,,,,,,,,
,ballet,0.9926263093948364,,,,,,,,
,yoga,0.9925142526626587,,,,,,,,
,fitness,0.9922489523887634,,,,,,,,
,aerobics,0.9908808469772339,,,,,,,,
,Pilate,0.9877686500549316,,,,,,,,
,flexibility,0.9835802316665649,,,,,,,,
,sport,0.9834269285202026,,,,,,,,
,ballerina,0.9787888526916504,,,,,,,,
,woman,0.9772621989250183,,,,,,,,
,leisure,0.9761676788330078,,,,,,,,
,slender,0.9749503135681152,,,,,,,,
,motion,0.9703773260116577,,,,,,,,
,dancer,0.9677040576934814,,,,,,,,
,"ballet dancer",0.9671069383621216,,,,,,,,
,energy,0.967022716999054,,,,,,,,
,health,0.9664289355278015,,,,,,,,
https://scontent.cdninstagram.com/t51.2885-15/e35/13355590_251756545192532_106422264_n.jpg,balance,0.9984885454177856,Recreation,,,,Recreation-s,,,
,gymnastics,0.9980207681655884,,,,,,,,
,adult,0.9935954809188843,,,,,,,,
,agility,0.9906719923019409,,,,,,,,
,athlete,0.9896420240402222,,,,,,,,
,wear,0.9864016771316528,,,,,,,,
,recreation,0.9858723878860474,,,,,,,,
,people,0.9857828617095947,,,,,,,,
,woman,0.9809054136276245,,,,,,,,
,one,0.98042893409729,,,,,,,,
,mat,0.9800833463668823,,,,,,,,
,skill,0.9773101210594177,,,,,,,,
,yoga,0.976864218711853,,,,,,,,
,dancer,0.9749881029129028,,,,,,,,
,acrobat,0.9743354320526123,,,,,,,,
,exercise,0.9690746068954468,,,,,,,,
,concentration,0.9624691009521484,,,,,,,,
,position,0.9603128433227539,,,,,,,,
,performance,0.9601179361343384,,,,,,,,
,handstand,0.9585217237472534,,,,,,,,
https://scontent.cdninstagram.com/t51.2885-15/e35/13285377_1001945426542019_700762542_n.jpg,exercise,0.9974471926689148,Recreation,,,,Recreation-s,,,
,sport,0.9956603646278381,,,,,,,,
,gymnastics,0.9922984838485718,,,,,,,,
,strength,0.9914852380752563,,,,,,,,
,train,0.9911905527114868,,,,,,,,
,yoga,0.9911901950836182,,,,,,,,
,athlete,0.9893703460693359,,,,,,,,
,fitness,0.9781147241592407,,,,,,,,
,train,0.9755056500434875,,,,,,,,
,club,0.9735836386680603,,,,,,,,
,girl,0.9670299291610718,,,,,,,,
,mat,0.9641929864883423,,,,,,,,
,concentration,0.9617832899093628,,,,,,,,
,body,0.9605497717857361,,,,,,,,
,teacher,0.9597574472427368,,,,,,,,
,strong,0.9572967290878296,,,,,,,,
,energy,0.955034613609314,,,,,,,,
,exhibition,0.954943835735321,,,,,,,,
,brawny,0.9514491558074951,,,,,,,,
,woman,0.9511812925338745,,,,,,,,
https://scontent.cdninstagram.com/t51.2885-15/e35/13408942_1684908508476453_1838411336_n.jpg,woman,0.9841680526733398,Recreation,,,,Recreation-s,,,
,floor,0.9785495400428772,,,,,,,,
,floor,0.9622023105621338,,,,,,,,
,family,0.9619093537330627,,,,,,,,
,indoors,0.9488062262535095,,,,,,,,
,girl,0.941979169845581,,,,,,,,
,one,0.9288970232009888,,,,,,,,
,people,0.9240864515304565,,,,,,,,
,adult,0.9194098711013794,,,,,,,,
,young,0.9171901941299438,,,,,,,,
,wood,0.9084961414337158,,,,,,,,
,exercise,0.90254807472229,,,,,,,,
,leisure,0.8856014013290405,,,,,,,,
,portrait,0.8802863359451294,,,,,,,,
,recreation,0.8799378871917725,,,,,,,,
,wear,0.8741186857223511,,,,,,,,
,house,0.8523561954498291,,,,,,,,
,yoga,0.8392902612686157,,,,,,,,
,fitness,0.8385094404220581,,,,,,,,
,active,0.834930419921875,,,,,,,,
https://scontent.cdninstagram.com/t51.2885-15/e35/13285385_1623532717964062_245903248_n.jpg,body,0.9862070083618164,Recreation,,,,Recreation-s,,,
,strength,0.9775484800338745,,,,,,,,
,health,0.9725045561790466,,,,,,,,
,exercise,0.9702126979827881,,,,,,,,
,sexy,0.9678134918212891,,,,,,,,
,woman,0.9659358263015747,,,,,,,,
,nude,0.9517595767974854,,,,,,,,
,slender,0.9488304853439331,,,,,,,,
,weight,0.9441665410995483,,,,,,,,
,thin,0.9441511631011963,,,,,,,,
,nude,0.9301770925521851,,,,,,,,
,fitness,0.9299052953720093,,,,,,,,
,thin,0.9228918552398682,,,,,,,,
,girl,0.9203792810440063,,,,,,,,
,brawny,0.9150313138961792,,,,,,,,
,gymnastics,0.9027959108352661,,,,,,,,
,athlete,0.9022927284240723,,,,,,,,
,people,0.8901663422584534,,,,,,,,
,active,0.8812547922134399,,,,,,,,
,beautiful,0.8680187463760376,,,,,,,,
https://scontent.cdninstagram.com/t51.2885-15/e35/13398530_959695617484692_1456555309_n.jpg,water,0.9981094002723694,Recreation,Environment,Travel,,Recreation-s,"Natural beauty",Travel-s,
,tropical,0.9972911477088928,,,,,,,,
,beach,0.9964847564697266,,,,,,,,
,sand,0.994499146938324,,,,,,,,
,travel,0.9936360120773315,,,,,,,,
,relaxation,0.9903813600540161,,,,,,,,
,vacation,0.9891085624694824,,,,,,,,
,summer,0.9874930381774902,,,,,,,,
,ocean,0.9871714115142822,,,,,,,,
,sea,0.984249472618103,,,,,,,,
,seashore,0.9824815392494202,,,,,,,,
,leisure,0.9820400476455688,,,,,,,,
,idyllic,0.9641422033309937,,,,,,,,
,recreation,0.9638885259628296,,,,,,,,
,exotic,0.9608705639839172,,,,,,,,
,paradise,0.9594337344169617,,,,,,,,
,island,0.9589307308197021,,,,,,,,
,sun,0.9546915292739868,,,,,,,,
,enjoyment,0.9433908462524414,,,,,,,,
,woman,0.9424083828926086,,,,,,,,
https://scontent.cdninstagram.com/t51.2885-15/s640x640/sh0.08/e35/13423506_257616614595886_1143633339_n.jpg,balance,0.998238742351532,Recreation,,,,Recreation-s,,,
,gymnastics,0.9975351095199585,,,,,,,,
,exercise,0.9974696636199951,,,,,,,,
,handstand,0.9970852136611938,,,,,,,,
,agility,0.994351863861084,,,,,,,,
,athlete,0.9937583208084106,,,,,,,,
,motion,0.9935638904571533,,,,,,,,
,yoga,0.9900857210159302,,,,,,,,
,flexibility,0.9887896180152893,,,,,,,,
,dancer,0.9847954511642456,,,,,,,,
,acrobat,0.981243908405304,,,,,,,,
,skill,0.9798872470855713,,,,,,,,
,"ballet dancer",0.9777214527130127,,,,,,,,
,energy,0.9763760566711426,,,,,,,,
,adult,0.9743370413780212,,,,,,,,
,strength,0.9735844135284424,,,,,,,,
,concentration,0.9689798355102539,,,,,,,,
,position,0.9679310917854309,,,,,,,,
,indoors,0.9611227512359619,,,,,,,,
,action,0.9578899145126343,,,,,,,,
https://scontent.cdninstagram.com/t51.2885-15/e35/13381378_1737058793238498_86496038_n.jpg,bed,0.9993900656700134,Recreation,,,,Recreation-s,,,
,bedroom,0.9992794990539551,,,,,,,,
,furniture,0.9942178726196289,,,,,,,,
,"hotel room",0.9929261207580566,,,,,,,,
,indoors,0.9907047748565674,,,,,,,,
,room,0.9898742437362671,,,,,,,,
,hotel,0.9802567362785339,,,,,,,,
,people,0.9757587909698486,,,,,,,,
,"double bed",0.975280225276947,,,,,,,,
,reclining,0.9663091897964478,,,,,,,,
,dawn,0.950986385345459,,,,,,,,
,man,0.9504626393318176,,,,,,,,
,pillow,0.9492706060409546,,,,,,,,
,adult,0.9356437921524048,,,,,,,,
,headboard,0.9342364072799683,,,,,,,,
,family,0.929721474647522,,,,,,,,
,woman,0.9292066097259521,,,,,,,,
,relaxation,0.9223519563674927,,,,,,,,
,home,0.9186760187149048,,,,,,,,
,seat,0.9165464639663696,,,,,,,,
https://scontent.cdninstagram.com/t51.2885-15/e35/13385705_950296218427072_1543722829_n.jpg,recreation,0.9943250417709351,Recreation,Environment,Travel,,Recreation-s,"Natural beauty",Travel-s,
,leisure,0.9910833835601807,,,,,,,,
,relaxation,0.9903870820999146,,,,,,,,
,water,0.9889746904373169,,,,,,,,
,tropical,0.9876304864883423,,,,,,,,
,travel,0.9742404222488403,,,,,,,,
,woman,0.9653177857398987,,,,,,,,
,yoga,0.9516783952713013,,,,,,,,
,lifestyle,0.9467658400535583,,,,,,,,
,summer,0.9464375972747803,,,,,,,,
,vacation,0.9339641332626343,,,,,,,,
,resort,0.9319462776184082,,,,,,,,
,girl,0.9218883514404297,,,,,,,,
,balance,0.9194745421409607,,,,,,,,
,beach,0.9133442640304565,,,,,,,,
,sea,0.9014972448348999,,,,,,,,
,people,0.8901418447494507,,,,,,,,
,ocean,0.8884477019309998,,,,,,,,
,body,0.887643039226532,,,,,,,,
,exercise,0.8857672810554504,,,,,,,,
https://scontent.cdninstagram.com/t51.2885-15/e35/13277521_1699751766942499_326024437_n.jpg,mat,0.9928979873657227,Recreation,,,,Recreation-s,,,
,concentration,0.9903061389923096,,,,,,,,
,yoga,0.9860661625862122,,,,,,,,
,gymnastics,0.9820959568023682,,,,,,,,
,woman,0.9808038473129272,,,,,,,,
,exercise,0.9790397882461548,,,,,,,,
,skill,0.9764230847358704,,,,,,,,
,adult,0.9762336015701294,,,,,,,,
,balance,0.9741068482398987,,,,,,,,
,girl,0.9706557989120483,,,,,,,,
,sport,0.9651131629943848,,,,,,,,
,people,0.9551419019699097,,,,,,,,
,class,0.9536476135253906,,,,,,,,
,indoors,0.9516003131866455,,,,,,,,
,strength,0.9410542249679565,,,,,,,,
,body,0.9351389408111572,,,,,,,,
,stretch,0.9341049194335938,,,,,,,,
,Pilate,0.9315624833106995,,,,,,,,
,athlete,0.9302518367767334,,,,,,,,
,floor,0.9223291873931885,,,,,,,,
https://scontent.cdninstagram.com/t51.2885-15/e35/13388613_1243255975686463_93482284_n.jpg,exercise,0.9973655939102173,Recreation,,,,Recreation-s,,,
,yoga,0.993928074836731,,,,,,,,
,gymnastics,0.992756724357605,,,,,,,,
,balance,0.9908252358436584,,,,,,,,
,active,0.9829949140548706,,,,,,,,
,agility,0.982293963432312,,,,,,,,
,fitness,0.980040431022644,,,,,,,,
,motion,0.9719533920288086,,,,,,,,
,flexibility,0.96882164478302,,,,,,,,
,sport,0.9661654233932495,,,,,,,,
,ballet,0.9628349542617798,,,,,,,,
,woman,0.9610437154769897,,,,,,,,
,body,0.9461450576782227,,,,,,,,
,girl,0.9399897456169128,,,,,,,,
,handstand,0.938413143157959,,,,,,,,
,aerobics,0.9376355409622192,,,,,,,,
,athlete,0.937247633934021,,,,,,,,
,stretch,0.9364300966262817,,,,,,,,
,acrobat,0.9313769340515137,,,,,,,,
,dancer,0.9280432462692261,,,,,,,,
https://scontent.cdninstagram.com/t51.2885-15/e35/13395110_1039738186111213_926681811_n.jpg,woman,0.9742356538772583,Arts,,,,Arts-s,,,
,girl,0.9647482633590698,,,,,,,,
,maternity,0.9624274969100952,,,,,,,,
,beads,0.9547301530838013,,,,,,,,
,ma,0.9545484185218811,,,,,,,,
,body,0.9529335498809814,,,,,,,,
,love,0.9499637484550476,,,,,,,,
,fashion,0.9454345107078552,,,,,,,,
,people,0.9428293704986572,,,,,,,,
,jewelry,0.9358584880828857,,,,,,,,
,birth,0.9329640865325928,,,,,,,,
,flower,0.9288923740386963,,,,,,,,
,medicine,0.9280132055282593,,,,,,,,
,abdomen,0.9272155165672302,,,,,,,,
,care,0.9218745231628418,,,,,,,,
,skin,0.9169174432754517,,,,,,,,
,stomach,0.9111053943634033,,,,,,,,
,desktop,0.9065996408462524,,,,,,,,
,tattoo,0.9058191180229187,,,,,,,,
,traditional,0.9002207517623901,,,,,,,,
https://scontent.cdninstagram.com/t51.2885-15/s640x640/e15/13549389_1823280134567160_1444998046_n.jpg,water,0.9979981184005737,"My life",Relationships,Recreation,,"With me","Best friends",Beach,
,beach,0.9902441501617432,,,,,,,,
,leisure,0.9894763231277466,,,,,,,,
,fun,0.9838377237319946,,,,,,,,
,recreation,0.983481764793396,,,,,,,,
,sand,0.9827689528465271,,,,,,,,
,travel,0.9763739109039307,,,,,,,,
,child,0.9693543910980225,,,,,,,,
,relaxation,0.9565479755401611,,,,,,,,
,enjoyment,0.9533776044845581,,,,,,,,
,one,0.9437693953514099,,,,,,,,
,seashore,0.9412394762039185,,,,,,,,
,sea,0.9393162131309509,,,,,,,,
,man,0.9392852187156677,,,,,,,,
,adolescent,0.9372129440307617,,,,,,,,
,dog,0.9158763885498047,,,,,,,,
,outdoors,0.912134051322937,,,,,,,,
,people,0.9099969267845154,,,,,,,,
,vacation,0.9088776111602783,,,,,,,,
,summer,0.900831937789917,,,,,,,,
https://scontent.cdninstagram.com/t51.2885-15/e35/13385901_570937519753524_1521372142_n.jpg,balance,0.9950244426727295,Recreation,,,,Recreation-s,,,
,exercise,0.9935407042503357,,,,,,,,
,yoga,0.992971658706665,,,,,,,,
,gymnastics,0.9929556846618652,,,,,,,,
,sport,0.9870496392250061,,,,,,,,
,strength,0.9832546710968018,,,,,,,,
,concentration,0.9827008247375488,,,,,,,,
,athlete,0.9754582643508911,,,,,,,,
,mat,0.9744253158569336,,,,,,,,
,fitness,0.9720537662506104,,,,,,,,
,woman,0.9715865850448608,,,,,,,,
,body,0.9675000905990601,,,,,,,,
,active,0.9583984613418579,,,,,,,,
,energy,0.9577189683914185,,,,,,,,
,recreation,0.9562429189682007,,,,,,,,
,girl,0.9557420015335083,,,,,,,,
,adult,0.9512613415718079,,,,,,,,
,Pilate,0.9466531872749329,,,,,,,,
,stretch,0.9453510046005249,,,,,,,,
,aerobics,0.9402710199356079,,,,,,,,
https://scontent.cdninstagram.com/t51.2885-15/s750x750/sh0.08/e35/13423077_1077887465627798_1726619128_n.jpg,yoga,0.9970806837081909,Recreation,,,,Recreation-s,,,
,exercise,0.9896745681762695,,,,,,,,
,woman,0.984806478023529,,,,,,,,
,gymnastics,0.983615517616272,,,,,,,,
,balance,0.9807672500610352,,,,,,,,
,fitness,0.9791281819343567,,,,,,,,
,people,0.9790372252464294,,,,,,,,
,position,0.9788777232170105,,,,,,,,
,adult,0.9774645566940308,,,,,,,,
,body,0.96623694896698,,,,,,,,
,girl,0.9639638066291809,,,,,,,,
,athlete,0.9632100462913513,,,,,,,,
,Pilate,0.9598369598388672,,,,,,,,
,ballerina,0.9560279846191406,,,,,,,,
,recreation,0.9555238485336304,,,,,,,,
,barefoot,0.9548587799072266,,,,,,,,
,one,0.9539587497711182,,,,,,,,
,meditation,0.9506229758262634,,,,,,,,
,action,0.9494971036911011,,,,,,,,
,ballet,0.9451419115066528,,,,,,,,
https://scontent.cdninstagram.com/t51.2885-15/s750x750/sh0.08/e35/13437248_1347303491951241_2004363551_n.jpg,exercise,0.9966508746147156,Recreation,,,,Recreation-s,,,
,balance,0.9961869716644287,,,,,,,,
,yoga,0.9952908754348755,,,,,,,,
,gymnastics,0.9942175149917603,,,,,,,,
,flexibility,0.9899088144302368,,,,,,,,
,agility,0.9875794649124146,,,,,,,,
,ballet,0.9856659173965454,,,,,,,,
,woman,0.976224422454834,,,,,,,,
,position,0.9761452674865723,,,,,,,,
,dancer,0.9759291410446167,,,,,,,,
,dancing,0.9752240180969238,,,,,,,,
,fitness,0.9722115993499756,,,,,,,,
,skill,0.9721879959106445,,,,,,,,
,handstand,0.9710534811019897,,,,,,,,
,strength,0.9614355564117432,,,,,,,,
,athlete,0.9603948593139648,,,,,,,,
,ballerina,0.9591318964958191,,,,,,,,
,active,0.9555538892745972,,,,,,,,
,action,0.9537864923477173,,,,,,,,
,recreation,0.9537431597709656,,,,,,,,
https://scontent.cdninstagram.com/t51.2885-15/e35/13658640_680526558763273_432748296_n.jpg,"no person",0.9871770143508911,Food,,,,Dessert,,,
,yogurt,0.9832345843315125,,,,,,,,
,fruit,0.9826058149337769,,,,,,,,
,"dairy product",0.9802552461624146,,,,,,,,
,food,0.9713184833526611,,,,,,,,
,breakfast,0.9692620038986206,,,,,,,,
,milk,0.9685677289962769,,,,,,,,
,health,0.9675785899162292,,,,,,,,
,summer,0.964544415473938,,,,,,,,
,bowl,0.9606068730354309,,,,,,,,
,sweet,0.9589293003082275,,,,,,,,
,strawberry,0.9504688382148743,,,,,,,,
,berry,0.9442355036735535,,,,,,,,
,ice,0.9377219676971436,,,,,,,,
,nutrition,0.9333652853965759,,,,,,,,
,spoon,0.930928647518158,,,,,,,,
,delicious,0.9307863712310791,,,,,,,,
,cold,0.8958583474159241,,,,,,,,
,frozen,0.8900344371795654,,,,,,,,
,cream,0.8850741386413574,,,,,,,,
https://scontent.cdninstagram.com/t51.2885-15/e15/13381301_968895493226417_1115750519_n.jpg,indoors,0.9991810321807861,,Recreation,,,,Recreation-s,,
,floor,0.9967138767242432,,,,,,,,
,room,0.9907436966896057,,,,,,,,
,woman,0.9805627465248108,,,,,,,,
,adult,0.9730008840560913,,,,,,,,
,furniture,0.9696927070617676,,,,,,,,
,people,0.9675092101097107,,,,,,,,
,inside,0.9611855745315552,,,,,,,,
,window,0.9496579766273499,,,,,,,,
,museum,0.9473943710327148,,,,,,,,
,exhibition,0.9377195835113525,,,,,,,,
,man,0.9366800785064697,,,,,,,,
,sofa,0.9320434927940369,,,,,,,,
,ceiling,0.9188482761383057,,,,,,,,
,recreation,0.9182524085044861,,,,,,,,
,portrait,0.8974825739860535,,,,,,,,
,empty,0.8837358951568604,,,,,,,,
,class,0.8760275840759277,,,,,,,,
,leisure,0.8630383014678955,,,,,,,,
,girl,0.8577312231063843,,,,,,,,
https://scontent.cdninstagram.com/t51.2885-15/e35/13597804_1062608907165690_141063057_n.jpg,woman,0.9958704113960266,"Fashion & Beauty",,,,"My look",,,
,girl,0.9928176403045654,,,,,,,,
,fashion,0.9891605973243713,,,,,,,,
,sexy,0.9865261316299438,,,,,,,,
,beautiful,0.9847995638847351,,,,,,,,
,model,0.9830456972122192,,,,,,,,
,lingerie,0.9822819232940674,,,,,,,,
,indoors,0.9809089303016663,,,,,,,,
,pretty,0.9783464670181274,,,,,,,,
,brunette,0.9769544005393982,,,,,,,,
,adult,0.9768615961074829,,,,,,,,
,glamour,0.9747264385223389,,,,,,,,
,one,0.9706449508666992,,,,,,,,
,portrait,0.969791054725647,,,,,,,,
,dress,0.9674827456474304,,,,,,,,
,young,0.9641834497451782,,,,,,,,
,people,0.9625958800315857,,,,,,,,
,long,0.9586396813392639,,,,,,,,
,hair,0.9513696432113647,,,,,,,,
,underwear,0.9480112195014954,,,,,,,,
https://scontent.cdninstagram.com/t51.2885-15/e35/13398849_103903863368565_1999798612_n.jpg,water,0.9963415861129761,Recreation,Environment,Travel,,Recreation-s,"Natural beauty",Travel-s,
,beach,0.9921369552612305,,,,,,,,
,travel,0.9874817132949829,,,,,,,,
,ocean,0.9860612154006958,,,,,,,,
,tropical,0.9856066107749939,,,,,,,,
,sea,0.9796047210693359,,,,,,,,
,vacation,0.9778850078582764,,,,,,,,
,sand,0.9765190482139587,,,,,,,,
,seashore,0.9750580191612244,,,,,,,,
,summer,0.9687744975090027,,,,,,,,
,relaxation,0.9601595997810364,,,,,,,,
,island,0.950539767742157,,,,,,,,
,leisure,0.946164608001709,,,,,,,,
,recreation,0.9448158740997314,,,,,,,,
,paradise,0.9392400979995728,,,,,,,,
,bikini,0.8996347188949585,,,,,,,,
,idyllic,0.8988955020904541,,,,,,,,
,girl,0.8900308609008789,,,,,,,,
,nature,0.888241171836853,,,,,,,,
,tan,0.865687370300293,,,,,,,,
https://scontent.cdninstagram.com/t51.2885-15/e15/13381173_844245982372793_63707244_n.jpg,portrait,0.9898116588592529,Relationships,,,,Friends,,,
,woman,0.984023928642273,,,,,,,,
,"facial expression",0.981773853302002,,,,,,,,
,people,0.9816905856132507,,,,,,,,
,happiness,0.9797499179840088,,,,,,,,
,adult,0.9764466285705566,,,,,,,,
,group,0.9740355610847473,,,,,,,,
,togetherness,0.9735727310180664,,,,,,,,
,man,0.973434329032898,,,,,,,,
,child,0.957842230796814,,,,,,,,
,indoors,0.9531770348548889,,,,,,,,
,school,0.9346416592597961,,,,,,,,
,daylight,0.9320942163467407,,,,,,,,
,adolescent,0.9282315373420715,,,,,,,,
,friendship,0.922884464263916,,,,,,,,
,two,0.9188531637191772,,,,,,,,
,laughing,0.9179497957229614,,,,,,,,
,education,0.9144371747970581,,,,,,,,
,enjoyment,0.8975142240524292,,,,,,,,
,girl,0.89690762758255,,,,,,,,
https://scontent.cdninstagram.com/t51.2885-15/e15/13394941_289172154753571_1945338367_n.jpg,people,0.991405725479126,,Relationships,,,,"Best friends",,
,woman,0.9907741546630859,,,,,,,,
,"facial expression",0.9892919063568115,,,,,,,,
,portrait,0.9861103296279907,,,,,,,,
,togetherness,0.982674241065979,,,,,,,,
,two,0.9723412394523621,,,,,,,,
,man,0.9713636636734009,,,,,,,,
,happiness,0.9702060222625732,,,,,,,,
,fun,0.9678826332092285,,,,,,,,
,adult,0.966521143913269,,,,,,,,
,enjoyment,0.9662103056907654,,,,,,,,
,love,0.9578830003738403,,,,,,,,
,friendship,0.9529489874839783,,,,,,,,
,brunette,0.950057864189148,,,,,,,,
,adolescent,0.9492285847663879,,,,,,,,
,wear,0.9483789801597595,,,,,,,,
,child,0.9348053932189941,,,,,,,,
,daylight,0.9345748424530029,,,,,,,,
,affection,0.932622492313385,,,,,,,,
,interaction,0.9270260334014893,,,,,,,,
https://scontent.cdninstagram.com/t51.2885-15/e35/13628184_1003124333137560_622006899_n.jpg,competition,0.9929998517036438,Entertainment,Recreation,,,Events,Recreation-s,,
,soccer,0.9815410375595093,,,,,,,,
,athlete,0.9777782559394836,,,,,,,,
,people,0.9709643125534058,,,,,,,,
,stadium,0.935767650604248,,,,,,,,
,football,0.9343838691711426,,,,,,,,
,ball,0.930221676826477,,,,,,,,
,game,0.9279571771621704,,,,,,,,
,match,0.9255950450897217,,,,,,,,
,adult,0.873390793800354,,,,,,,,
,goal,0.8727519512176514,,,,,,,,
,group,0.869452714920044,,,,,,,,
,championship,0.8569951057434082,,,,,,,,
,"sports equipment",0.8567698001861572,,,,,,,,
,man,0.8508332967758179,,,,,,,,
,action,0.8462091684341431,,,,,,,,
,city,0.8414499759674072,,,,,,,,
,fun,0.8376196026802063,,,,,,,,
,cricket,0.8089698553085327,,,,,,,,
,"sports fan",0.8087060451507568,,,,,,,,
https://scontent.cdninstagram.com/t51.2885-15/e35/13298032_1772368722996983_2119519080_n.jpg,woman,0.9955729246139526,Relationships,Environment,Travel,,"Best friends","Natural beauty",Travel-s,
,togetherness,0.992149829864502,,,,,,,,
,two,0.9854502081871033,,,,,,,,
,outdoors,0.9852579832077026,,,,,,,,
,happiness,0.9843803644180298,,,,,,,,
,girl,0.9821428656578064,,,,,,,,
,people,0.9816544055938721,,,,,,,,
,love,0.9810303449630737,,,,,,,,
,adult,0.9781789779663086,,,,,,,,
,affection,0.9772161841392517,,,,,,,,
,travel,0.9769108891487122,,,,,,,,
,lifestyle,0.9755651354789734,,,,,,,,
,enjoyment,0.967042088508606,,,,,,,,
,man,0.9636605978012085,,,,,,,,
,leisure,0.9633708000183105,,,,,,,,
,summer,0.9627906084060669,,,,,,,,
,"facial expression",0.9604327082633972,,,,,,,,
,portrait,0.9495774507522583,,,,,,,,
,fun,0.9394212961196899,,,,,,,,
,vacation,0.9380571246147156,,,,,,,,
https://scontent.cdninstagram.com/t51.2885-15/e35/13298252_1225353177521438_876324227_n.jpg,sand,0.9954385757446289,Environment,Recreation,Relationships,Travel,"Natural beauty",Beach,Friends,Travel-s
,beach,0.9916234016418457,,,,,,,,
,water,0.9909343719482422,,,,,,,,
,leisure,0.9905033707618713,,,,,,,,
,travel,0.9814760684967041,,,,,,,,
,recreation,0.9800516366958618,,,,,,,,
,fun,0.9789769053459167,,,,,,,,
,summer,0.9770060777664185,,,,,,,,
,enjoyment,0.974422812461853,,,,,,,,
,tropical,0.9705756306648254,,,,,,,,
,seashore,0.9549403190612793,,,,,,,,
,sea,0.9372051954269409,,,,,,,,
,relaxation,0.9341877698898315,,,,,,,,
,vacation,0.9280761480331421,,,,,,,,
,ocean,0.9171925783157349,,,,,,,,
,sun,0.9112673997879028,,,,,,,,
,sky,0.8977818489074707,,,,,,,,
,"fair weather",0.8762181997299194,,,,,,,,
,child,0.8663607835769653,,,,,,,,
,idyllic,0.8481785655021667,,,,,,,,
https://scontent.cdninstagram.com/t51.2885-15/e35/13380846_231490057233756_290399280_n.jpg,woman,0.9949930906295776,Recreation,,,,Recreation-s,,,
,summer,0.9746154546737671,,,,,,,,
,yoga,0.973426342010498,,,,,,,,
,leisure,0.9708846807479858,,,,,,,,
,travel,0.957805871963501,,,,,,,,
,fitness,0.9574166536331177,,,,,,,,
,exercise,0.9560219049453735,,,,,,,,
,people,0.953824520111084,,,,,,,,
,water,0.9476457238197327,,,,,,,,
,girl,0.9468564391136169,,,,,,,,
,recreation,0.9467846155166626,,,,,,,,
,outdoors,0.9397043585777283,,,,,,,,
,beach,0.9372198581695557,,,,,,,,
,sexy,0.9353913068771362,,,,,,,,
,relaxation,0.928828239440918,,,,,,,,
,health,0.9267081618309021,,,,,,,,
,meditation,0.9184554815292358,,,,,,,,
,active,0.9154484272003174,,,,,,,,
,"fair weather",0.9148516654968262,,,,,,,,
,sky,0.9147204160690308,,,,,,,,
https://scontent.cdninstagram.com/t51.2885-15/e35/13260886_502807449912228_1397426178_n.jpg,beach,0.9936952590942383,Relationships,Recreation,Environment,Travel,"Best friends",Beach,"Natural beauty",Travel-s
,travel,0.9816609621047974,,,,,,,,
,sand,0.979854941368103,,,,,,,,
,water,0.9790841341018677,,,,,,,,
,sea,0.9750578999519348,,,,,,,,
,seashore,0.9726115465164185,,,,,,,,
,vacation,0.9691100120544434,,,,,,,,
,summer,0.9623035192489624,,,,,,,,
,ocean,0.9551811814308167,,,,,,,,
,leisure,0.9512125253677368,,,,,,,,
,people,0.9468971490859985,,,,,,,,
,fun,0.9401108026504517,,,,,,,,
,woman,0.9296132326126099,,,,,,,,
,recreation,0.924556314945221,,,,,,,,
,girl,0.921392560005188,,,,,,,,
,outdoors,0.9115342497825623,,,,,,,,
,lifestyle,0.8996219635009766,,,,,,,,
,relaxation,0.8913440704345703,,,,,,,,
,child,0.8897666931152344,,,,,,,,
,sky,0.8848446607589722,,,,,,,,
https://scontent.cdninstagram.com/t51.2885-15/e35/13561507_1167994886554803_1730464622_n.jpg,sport,0.9868742823600769,Recreation,,,,Recreation-s,,,
,exercise,0.985680103302002,,,,,,,,
,woman,0.9787317514419556,,,,,,,,
,gymnastics,0.9777439832687378,,,,,,,,
,yoga,0.9708085060119629,,,,,,,,
,girl,0.970363974571228,,,,,,,,
,indoors,0.9689663648605347,,,,,,,,
,body,0.9650577306747437,,,,,,,,
,fitness,0.9613108038902283,,,,,,,,
,strength,0.9466000199317932,,,,,,,,
,active,0.9390554428100586,,,,,,,,
,people,0.9307736158370972,,,,,,,,
,balance,0.9204481244087219,,,,,,,,
,weight,0.9105558395385742,,,,,,,,
,adult,0.8945286273956299,,,,,,,,
,flexibility,0.8908631801605225,,,,,,,,
,brawny,0.8814449310302734,,,,,,,,
,athlete,0.8813049793243408,,,,,,,,
,train,0.8766169548034668,,,,,,,,
,health,0.8662023544311523,,,,,,,,
https://scontent.cdninstagram.com/t51.2885-15/e35/13298065_661426877331737_115316218_n.jpg,people,0.970582127571106,,Relationships,,,,"Best friends",,
,child,0.954163670539856,,,,,,,,
,fun,0.9462947845458984,,,,,,,,
,woman,0.9426434636116028,,,,,,,,
,man,0.9321963787078857,,,,,,,,
,portrait,0.9302641749382019,,,,,,,,
,school,0.9127813577651978,,,,,,,,
,recreation,0.8997734189033508,,,,,,,,
,competition,0.8857275247573853,,,,,,,,
,friendship,0.8856278657913208,,,,,,,,
,adult,0.8829747438430786,,,,,,,,
,young,0.8769622445106506,,,,,,,,
,girl,0.8756915330886841,,,,,,,,
,education,0.8752948641777039,,,,,,,,
,boy,0.8620942831039429,,,,,,,,
,group,0.8562410473823547,,,,,,,,
,wear,0.8446264266967773,,,,,,,,
,city,0.8330069780349731,,,,,,,,
,lifestyle,0.8244930505752563,,,,,,,,
,adolescent,0.8210036158561707,,,,,,,,
https://scontent.cdninstagram.com/t51.2885-15/e35/13398876_1358312854183378_1214223013_n.jpg,water,0.9979223012924194,Environment,Recreation,Travel,,"Natural beauty",Recreation-s,Travel-s,Beach
,beach,0.9968764185905457,,,,,,,,
,tropical,0.9959108233451843,,,,,,,,
,travel,0.9915269613265991,,,,,,,,
,vacation,0.9898478984832764,,,,,,,,
,ocean,0.9891817569732666,,,,,,,,
,sand,0.9890977740287781,,,,,,,,
,summer,0.9853627681732178,,,,,,,,
,sea,0.9852361679077148,,,,,,,,
,relaxation,0.9781724810600281,,,,,,,,
,island,0.9754108190536499,,,,,,,,
,seashore,0.9705105423927307,,,,,,,,
,paradise,0.9626288414001465,,,,,,,,
,leisure,0.9486836194992065,,,,,,,,
,recreation,0.9473133087158203,,,,,,,,
,sun,0.9429291486740112,,,,,,,,
,exotic,0.9252591729164124,,,,,,,,
,tan,0.9175558090209961,,,,,,,,
,idyllic,0.9167836904525757,,,,,,,,
,nature,0.9107910394668579,,,,,,,,
https://scontent.cdninstagram.com/t51.2885-15/s640x640/sh0.08/e35/13534233_163891960691820_1271146416_n.jpg,athlete,0.99571692943573,,Recreation,,,,Recreation-s,,
,exercise,0.9931387901306152,,,,,,,,
,gymnastics,0.9884849190711975,,,,,,,,
,strength,0.9859368801116943,,,,,,,,
,club,0.9839751720428467,,,,,,,,
,class,0.96954345703125,,,,,,,,
,competition,0.9692893028259277,,,,,,,,
,teacher,0.9572587013244629,,,,,,,,
,sport,0.9547223448753357,,,,,,,,
,energy,0.9497566223144531,,,,,,,,
,recreation,0.9464266300201416,,,,,,,,
,people,0.9371082782745361,,,,,,,,
,exhibition,0.9355694055557251,,,,,,,,
,train,0.9347946047782898,,,,,,,,
,indoors,0.9233094453811646,,,,,,,,
,weightlifting,0.9230408668518066,,,,,,,,
,concentration,0.9168701171875,,,,,,,,
,muscle,0.9070534706115723,,,,,,,,
,effort,0.906248927116394,,,,,,,,
,strong,0.9047051072120667,,,,,,,,
https://scontent.cdninstagram.com/t51.2885-15/e35/13329165_1746294372322633_1905800170_n.jpg,vehicle,0.9969183206558228,Relationships,Recreation,Travel,Transportation,"Best friends",Recreation-s,Travel-s,Transportation-s
,bike,0.9949117302894592,,,,,,,,
,people,0.993751049041748,,,,,,,,
,"transportation system",0.9875016212463379,,,,,,,,
,wheel,0.9843560457229614,,,,,,,,
,adult,0.9816838502883911,,,,,,,,
,man,0.9813917875289917,,,,,,,,
,sitting,0.9775457382202148,,,,,,,,
,recreation,0.9597108364105225,,,,,,,,
,road,0.9569677114486694,,,,,,,,
,adventure,0.9521769285202026,,,,,,,,
,daylight,0.9469329118728638,,,,,,,,
,leisure,0.9311469197273254,,,,,,,,
,one,0.9288486242294312,,,,,,,,
,biker,0.9234892129898071,,,,,,,,
,drive,0.9207375049591064,,,,,,,,
,enjoyment,0.9084062576293945,,,,,,,,
,outdoors,0.9057048559188843,,,,,,,,
,woman,0.9050365090370178,,,,,,,,
,two,0.8902370929718018,,,,,,,,
https://scontent.cdninstagram.com/t51.2885-15/s750x750/sh0.08/e35/13561600_1770928869811598_343359217_n.jpg,yoga,0.9940145015716553,Recreation,,,,Recreation-s,,,
,barefoot,0.9847418069839478,,,,,,,,
,woman,0.9836118221282959,,,,,,,,
,girl,0.9814600944519043,,,,,,,,
,body,0.9807978272438049,,,,,,,,
,balance,0.9694879055023193,,,,,,,,
,sexy,0.9620087146759033,,,,,,,,
,model,0.9607418775558472,,,,,,,,
,mat,0.9591978788375854,,,,,,,,
,gymnastics,0.9456385374069214,,,,,,,,
,slender,0.9455844163894653,,,,,,,,
,brunette,0.9448757171630859,,,,,,,,
,portrait,0.9422863721847534,,,,,,,,
,relaxation,0.9421135187149048,,,,,,,,
,adult,0.9408000111579895,,,,,,,,
,nude,0.9373657703399658,,,,,,,,
,position,0.9368962049484253,,,,,,,,
,beautiful,0.9352372288703918,,,,,,,,
,one,0.9288402795791626,,,,,,,,
,people,0.9224238395690918,,,,,,,,
https://scontent.cdninstagram.com/t51.2885-15/e35/13573591_592972230862808_1469148042_n.jpg,yoga,0.9982233047485352,Recreation,,,,Recreation-s,,,
,gymnastics,0.997492790222168,,,,,,,,
,balance,0.991923451423645,,,,,,,,
,exercise,0.9914848804473877,,,,,,,,
,flexibility,0.9904677867889404,,,,,,,,
,woman,0.9883919954299927,,,,,,,,
,Pilate,0.9876881241798401,,,,,,,,
,mat,0.9870332479476929,,,,,,,,
,aerobics,0.9808574318885803,,,,,,,,
,ballet,0.9742780923843384,,,,,,,,
,girl,0.9656836986541748,,,,,,,,
,ballerina,0.9588401913642883,,,,,,,,
,concentration,0.9576600193977356,,,,,,,,
,meditation,0.9564774036407471,,,,,,,,
,sport,0.9545749425888062,,,,,,,,
,floor,0.9541065692901611,,,,,,,,
,stretch,0.9511815309524536,,,,,,,,
,class,0.94296795129776,,,,,,,,
,strength,0.9396576881408691,,,,,,,,
,adult,0.9350454211235046,,,,,,,,
https://scontent.cdninstagram.com/t51.2885-15/e35/13557035_879498128843809_1207620612_n.jpg,people,0.9932824373245239,Relationships,Recreation,,,"Best friends",Recreation-s,,
,adult,0.9900972843170166,,,,,,,,
,indoors,0.9858726859092712,,,,,,,,
,athlete,0.9855761528015137,,,,,,,,
,woman,0.9812760353088379,,,,,,,,
,gymnastics,0.980958104133606,,,,,,,,
,room,0.9683307409286499,,,,,,,,
,yoga,0.9566293358802795,,,,,,,,
,recreation,0.9553676843643188,,,,,,,,
,class,0.9534072875976562,,,,,,,,
,girl,0.9466682076454163,,,,,,,,
,concentration,0.9465712904930115,,,,,,,,
,train,0.9461577534675598,,,,,,,,
,one,0.9459216594696045,,,,,,,,
,mat,0.944243848323822,,,,,,,,
,two,0.9437963962554932,,,,,,,,
,man,0.9409772753715515,,,,,,,,
,exercise,0.935198187828064,,,,,,,,
,wear,0.9337463974952698,,,,,,,,
,floor,0.9245193004608154,,,,,,,,
https://scontent.cdninstagram.com/t51.2885-15/e35/13562006_1144542072271214_915693089_n.jpg,exercise,0.9983621835708618,Relationships,Recreation,,,"Best friends",Recreation-s,,
,gymnastics,0.9945826530456543,,,,,,,,
,athlete,0.9944612383842468,,,,,,,,
,yoga,0.9942244291305542,,,,,,,,
,strength,0.991108775138855,,,,,,,,
,sport,0.9895695447921753,,,,,,,,
,club,0.987871527671814,,,,,,,,
,fitness,0.9873377084732056,,,,,,,,
,mat,0.9856864213943481,,,,,,,,
,train,0.9766759276390076,,,,,,,,
,body,0.9765075445175171,,,,,,,,
,brawny,0.9747586846351624,,,,,,,,
,Pilate,0.9709329605102539,,,,,,,,
,muscle,0.9684568047523499,,,,,,,,
,strong,0.9636819958686829,,,,,,,,
,train,0.962010383605957,,,,,,,,
,indoors,0.959761381149292,,,,,,,,
,handstand,0.9590736627578735,,,,,,,,
,concentration,0.9585864543914795,,,,,,,,
,class,0.9582650661468506,,,,,,,,
https://scontent.cdninstagram.com/t51.2885-15/e35/13534322_288290078186756_1902195669_n.jpg,woman,0.9842264652252197,Recreation,,,,Recreation-s,,,
,girl,0.9634347558021545,,,,,,,,
,yoga,0.960094690322876,,,,,,,,
,people,0.9339308738708496,,,,,,,,
,beautiful,0.904221773147583,,,,,,,,
,young,0.9037116765975952,,,,,,,,
,leisure,0.8923746943473816,,,,,,,,
,recreation,0.8837100267410278,,,,,,,,
,exercise,0.8817400932312012,,,,,,,,
,gymnastics,0.8792563676834106,,,,,,,,
,pretty,0.8739966154098511,,,,,,,,
,body,0.8664209246635437,,,,,,,,
,adult,0.8662739992141724,,,,,,,,
,child,0.8417779207229614,,,,,,,,
,fitness,0.8237215280532837,,,,,,,,
,fashion,0.8226205706596375,,,,,,,,
,cute,0.8138909339904785,,,,,,,,
,portrait,0.8133547902107239,,,,,,,,
,sexy,0.8109519481658936,,,,,,,,
,balance,0.8061939477920532,,,,,,,,
https://scontent.cdninstagram.com/t51.2885-15/e35/13534069_1717394311856422_1467121756_n.jpg,"no person",0.992721438407898,Food,,,,"Meal time",,,
,lunch,0.9916881322860718,,,,,,,,
,food,0.9899880886077881,,,,,,,,
,dinner,0.9860224723815918,,,,,,,,
,delicious,0.9817947149276733,,,,,,,,
,lettuce,0.977381706237793,,,,,,,,
,fish,0.9682073593139648,,,,,,,,
,meal,0.9574258327484131,,,,,,,,
,seafood,0.9532976150512695,,,,,,,,
,vegetable,0.9371434450149536,,,,,,,,
,meat,0.9340403079986572,,,,,,,,
,nutrition,0.9281173944473267,,,,,,,,
,bread,0.9254188537597656,,,,,,,,
,cooking,0.9160231351852417,,,,,,,,
,cheese,0.9102224111557007,,,,,,,,
,plate,0.8915513753890991,,,,,,,,
,salmon,0.8896014094352722,,,,,,,,
,traditional,0.8804467916488647,,,,,,,,
,dining,0.8794441223144531,,,,,,,,
,"french fries",0.8788881301879883,,,,,,,,
https://scontent.cdninstagram.com/t51.2885-15/e35/13398556_550069868533180_1623546695_n.jpg,leisure,0.9747477769851685,Recreation,,,,Recreation-s,,,
,dancer,0.9695044755935669,,,,,,,,
,adult,0.9678167104721069,,,,,,,,
,motion,0.9630419611930847,,,,,,,,
,woman,0.9624626040458679,,,,,,,,
,dancing,0.9621459245681763,,,,,,,,
,exercise,0.9576624631881714,,,,,,,,
,competition,0.9544599652290344,,,,,,,,
,gymnastics,0.9534375667572021,,,,,,,,
,recreation,0.9512717723846436,,,,,,,,
,sport,0.9490552544593811,,,,,,,,
,balance,0.9472061395645142,,,,,,,,
,one,0.9437259435653687,,,,,,,,
,girl,0.9303666353225708,,,,,,,,
,people,0.9275119304656982,,,,,,,,
,position,0.925040066242218,,,,,,,,
,active,0.9215660095214844,,,,,,,,
,athlete,0.9114956855773926,,,,,,,,
,sexy,0.9111713171005249,,,,,,,,
,wear,0.9067211151123047,,,,,,,,
