url,class,score,,,,,,,,
https://scontent.cdninstagram.com/t51.2885-15/sh0.08/e35/p750x750/13414257_1614248472218723_570248139_n.jpg,nature,0.9979639053344727,Environment,"Fashion & Beauty",,,"Natural beauty","My look",,
,park,0.9942865371704102,,,,,,,,
,woman,0.9876022338867188,,,,,,,,
,grass,0.9844702482223511,,,,,,,,
,girl,0.9843161106109619,,,,,,,,
,fall,0.9835985898971558,,,,,,,,
,outdoors,0.9807881116867065,,,,,,,,
,tree,0.9772982597351074,,,,,,,,
,summer,0.9756276607513428,,,,,,,,
,portrait,0.9745759963989258,,,,,,,,
,fashion,0.974214494228363,,,,,,,,
,wood,0.9722853899002075,,,,,,,,
,dress,0.9599711894989014,,,,,,,,
,"fair weather",0.9527593851089478,,,,,,,,
,relaxation,0.9475787878036499,,,,,,,,
,model,0.9379935264587402,,,,,,,,
,people,0.9374713897705078,,,,,,,,
,hair,0.9285346269607544,,,,,,,,
,flower,0.920871376991272,,,,,,,,
,leaf,0.9093334078788757,,,,,,,,
https://scontent.cdninstagram.com/t51.2885-15/e15/12797787_565611210268832_164630663_n.jpg,landscape,0.9881007671356201,Environment,Travel,,,"Natural beauty",Travel-s,,
,tree,0.9860900640487671,,,,,,,,
,wood,0.9853706359863281,,,,,,,,
,nature,0.9812021255493164,,,,,,,,
,"no person",0.9761489629745483,,,,,,,,
,outdoors,0.9714257717132568,,,,,,,,
,water,0.9567368030548096,,,,,,,,
,fog,0.9438401460647583,,,,,,,,
,sky,0.9401456117630005,,,,,,,,
,environment,0.9357686042785645,,,,,,,,
,travel,0.934408962726593,,,,,,,,
,lake,0.9237486124038696,,,,,,,,
,park,0.9232439994812012,,,,,,,,
,scenic,0.9215583801269531,,,,,,,,
,dawn,0.9068434238433838,,,,,,,,
,river,0.900081992149353,,,,,,,,
,reflection,0.8933910727500916,,,,,,,,
,summer,0.8884893655776978,,,,,,,,
,leaf,0.8816719651222229,,,,,,,,
,mist,0.8799929022789001,,,,,,,,
https://scontent.cdninstagram.com/t51.2885-15/sh0.08/e35/p750x750/13414167_147604755648216_140353335_n.jpg,fashion,0.996901273727417,"Fashion & Beauty",,,,"My look",,,
,shopping,0.9958456754684448,,,,,,,,
,stock,0.9924606084823608,,,,,,,,
,woman,0.9825749397277832,,,,,,,,
,shop,0.9792516231536865,,,,,,,,
,girl,0.978364109992981,,,,,,,,
,model,0.9780619144439697,,,,,,,,
,mall,0.9776613116264343,,,,,,,,
,boutique,0.9773222804069519,,,,,,,,
,dress,0.9755774736404419,,,,,,,,
,street,0.9734755754470825,,,,,,,,
,wear,0.9711665511131287,,,,,,,,
,portrait,0.9630419015884399,,,,,,,,
,people,0.9627305269241333,,,,,,,,
,city,0.9526333808898926,,,,,,,,
,mannequin,0.9409891366958618,,,,,,,,
,exhibition,0.93758225440979,,,,,,,,
,bag,0.9354016184806824,,,,,,,,
,glamour,0.917910635471344,,,,,,,,
,market,0.9156124591827393,,,,,,,,
https://scontent.cdninstagram.com/t51.2885-15/s750x750/sh0.08/e35/13391191_1030619950320024_1506560865_n.jpg,student,0.985878586769104,Relationships,,,,Friends,,,
,woman,0.9828406572341919,,,,,,,,
,group,0.9758883714675903,,,,,,,,
,portrait,0.9670904874801636,,,,,,,,
,friendship,0.9668453931808472,,,,,,,,
,adolescent,0.9635806083679199,,,,,,,,
,people,0.9445229768753052,,,,,,,,
,man,0.9418566226959229,,,,,,,,
,togetherness,0.9402126669883728,,,,,,,,
,outdoors,0.9354195594787598,,,,,,,,
,child,0.9275104999542236,,,,,,,,
,education,0.9202702045440674,,,,,,,,
,university,0.9130112528800964,,,,,,,,
,fun,0.9124234914779663,,,,,,,,
,laughing,0.9019261002540588,,,,,,,,
,family,0.8999446630477905,,,,,,,,
,school,0.8952102065086365,,,,,,,,
,group,0.8885698318481445,,,,,,,,
,girl,0.870801568031311,,,,,,,,
,sit,0.869957447052002,,,,,,,,
https://scontent.cdninstagram.com/t51.2885-15/sh0.08/e35/p750x750/12729485_1707074979564255_1730079329_n.jpg,beach,0.99730384349823,"Fashion & Beauty",Travel,,,"My look",Travel-s,,
,summer,0.9968239068984985,,,,,,,,
,sea,0.9965127110481262,,,,,,,,
,nature,0.9938258528709412,,,,,,,,
,ocean,0.9917857646942139,,,,,,,,
,water,0.9905705451965332,,,,,,,,
,sand,0.9901779890060425,,,,,,,,
,girl,0.9734045267105103,,,,,,,,
,leisure,0.9713559150695801,,,,,,,,
,"fair weather",0.9702367186546326,,,,,,,,
,vacation,0.9663927555084229,,,,,,,,
,seashore,0.9645808339118958,,,,,,,,
,sun,0.9610381126403809,,,,,,,,
,outdoors,0.9602218866348267,,,,,,,,
,relaxation,0.9580917358398438,,,,,,,,
,woman,0.9571003913879395,,,,,,,,
,freedom,0.9543375968933105,,,,,,,,
,fun,0.9518831372261047,,,,,,,,
,travel,0.9464322328567505,,,,,,,,
,joy,0.9386070966720581,,,,,,,,
https://scontent.cdninstagram.com/t51.2885-15/s750x750/sh0.08/e35/12530757_1177217505641321_246704061_n.jpg,woman,0.994221568107605,"Fashion & Beauty",,,,"My look",,,
,fashion,0.989804744720459,,,,,,,,
,girl,0.9883947372436523,,,,,,,,
,lingerie,0.9790658950805664,,,,,,,,
,sexy,0.9782529473304749,,,,,,,,
,bed,0.9751564264297485,,,,,,,,
,nude,0.9712624549865723,,,,,,,,
,glamour,0.9640457034111023,,,,,,,,
,model,0.9638420343399048,,,,,,,,
,bedroom,0.9637439250946045,,,,,,,,
,brunette,0.9370102882385254,,,,,,,,
,portrait,0.9348167181015015,,,,,,,,
,erotic,0.9312634468078613,,,,,,,,
,pretty,0.9212016463279724,,,,,,,,
,beautiful,0.9145551919937134,,,,,,,,
,elegant,0.9122178554534912,,,,,,,,
,indoors,0.9068588018417358,,,,,,,,
,love,0.9031301736831665,,,,,,,,
,long,0.89827561378479,,,,,,,,
,dress,0.8944321870803833,,,,,,,,
https://scontent.cdninstagram.com/t51.2885-15/sh0.08/e35/p750x750/12825870_1797017353860384_1159570983_n.jpg,people,0.9950878024101257,Recreation,Animals,,,Recreation-s,Animals-s,,
,cavalry,0.9940711855888367,,,,,,,,
,sitting,0.9901343584060669,,,,,,,,
,mammal,0.9884641170501709,,,,,,,,
,one,0.9853314161300659,,,,,,,,
,adult,0.9817177057266235,,,,,,,,
,competition,0.9782243967056274,,,,,,,,
,man,0.9659298658370972,,,,,,,,
,recreation,0.9487535953521729,,,,,,,,
,horse,0.9428128004074097,,,,,,,,
,woman,0.938467264175415,,,,,,,,
,cattle,0.9357086420059204,,,,,,,,
,two,0.9264090061187744,,,,,,,,
,rodeo,0.9155842065811157,,,,,,,,
,action,0.9124491214752197,,,,,,,,
,motion,0.9113287925720215,,,,,,,,
,livestock,0.90992671251297,,,,,,,,
,wear,0.9034819006919861,,,,,,,,
,equestrian,0.8952405452728271,,,,,,,,
,action,0.8941024541854858,,,,,,,,
https://scontent.cdninstagram.com/t51.2885-15/e35/12328323_330826493708482_813410506_n.jpg,woman,0.9924238920211792,Relationships,,,,"Best friends",,,
,indoors,0.9887728095054626,,,,,,,,
,people,0.9778608679771423,,,,,,,,
,man,0.9678280353546143,,,,,,,,
,two,0.9640533924102783,,,,,,,,
,family,0.9589060544967651,,,,,,,,
,adult,0.9476630687713623,,,,,,,,
,togetherness,0.9349888563156128,,,,,,,,
,"facial expression",0.9263947606086731,,,,,,,,
,room,0.9148798584938049,,,,,,,,
,wear,0.8993321657180786,,,,,,,,
,looking,0.871934175491333,,,,,,,,
,love,0.8478846549987793,,,,,,,,
,enjoyment,0.8378579616546631,,,,,,,,
,"side view",0.8346415758132935,,,,,,,,
,relaxation,0.8218028545379639,,,,,,,,
,affection,0.8066315650939941,,,,,,,,
,romance,0.8033954501152039,,,,,,,,
,furniture,0.7805589437484741,,,,,,,,
,sit,0.7786461114883423,,,,,,,,
https://scontent.cdninstagram.com/t51.2885-15/e35/12976376_955356214559935_1063684498_n.jpg,sea,0.9937189817428589,Environment,,,,"Natural beauty",,,
,water,0.9934506416320801,,,,,,,,
,beach,0.9928969740867615,,,,,,,,
,ocean,0.9915953874588013,,,,,,,,
,seashore,0.9911695122718811,,,,,,,,
,foam,0.990993320941925,,,,,,,,
,wave,0.9906373023986816,,,,,,,,
,surf,0.9891300201416016,,,,,,,,
,sand,0.9888423681259155,,,,,,,,
,nature,0.9827385544776917,,,,,,,,
,summer,0.9725292921066284,,,,,,,,
,landscape,0.9679643511772156,,,,,,,,
,travel,0.9654797315597534,,,,,,,,
,"fair weather",0.9646358489990234,,,,,,,,
,shore,0.9636879563331604,,,,,,,,
,sky,0.9518729448318481,,,,,,,,
,vacation,0.9501825571060181,,,,,,,,
,"no person",0.9462482333183289,,,,,,,,
,scenic,0.9332401156425476,,,,,,,,
,desktop,0.9320111870765686,,,,,,,,
https://scontent.cdninstagram.com/t51.2885-15/s750x750/sh0.08/e35/12446273_1693731487552162_64265469_n.jpg,people,0.9922186732292175,"Fashion & Beauty",Travel,Environment,,"My look",Travel-s,"Natural beauty",
,flower,0.9860306978225708,,,,,,,,
,girl,0.9805006980895996,,,,,,,,
,tree,0.976193904876709,,,,,,,,
,woman,0.9732812643051147,,,,,,,,
,park,0.9639145135879517,,,,,,,,
,portrait,0.9255094528198242,,,,,,,,
,landscape,0.9174049496650696,,,,,,,,
,adult,0.9154630303382874,,,,,,,,
,nature,0.8925643563270569,,,,,,,,
,festival,0.8876730799674988,,,,,,,,
,cherry,0.8806711435317993,,,,,,,,
,winter,0.8778090476989746,,,,,,,,
,city,0.8705779910087585,,,,,,,,
,street,0.8669432997703552,,,,,,,,
,child,0.8355474472045898,,,,,,,,
,branch,0.8258591294288635,,,,,,,,
,beautiful,0.8211804628372192,,,,,,,,
,outdoors,0.8100183606147766,,,,,,,,
,smile,0.799559473991394,,,,,,,,
https://scontent.cdninstagram.com/t51.2885-15/e35/12317688_1660619380875593_903024336_n.jpg,group,0.9837706089019775,Relationships,Gifts,,,Friends,Gifts-s,,
,woman,0.982781708240509,,,,,,,,
,"facial expression",0.9747064709663391,,,,,,,,
,togetherness,0.9617565870285034,,,,,,,,
,child,0.9585034251213074,,,,,,,,
,adult,0.9582207798957825,,,,,,,,
,happiness,0.9574840068817139,,,,,,,,
,friendship,0.9572542309761047,,,,,,,,
,four,0.9534305334091187,,,,,,,,
,man,0.9529439806938171,,,,,,,,
,people,0.9529439210891724,,,,,,,,
,group,0.9421495795249939,,,,,,,,
,girl,0.9252513647079468,,,,,,,,
,family,0.9247878789901733,,,,,,,,
,indoors,0.915442705154419,,,,,,,,
,laughing,0.9109547734260559,,,,,,,,
,portrait,0.9043070077896118,,,,,,,,
,room,0.9027378559112549,,,,,,,,
,enjoyment,0.8983927965164185,,,,,,,,
,offspring,0.8919835686683655,,,,,,,,
https://scontent.cdninstagram.com/t51.2885-15/e35/12728387_975504815831181_485307278_n.jpg,group,0.9946262240409851,Relationships,,,,Family,,,
,child,0.9878590703010559,,,,,,,,
,people,0.9778423309326172,,,,,,,,
,portrait,0.9746665954589844,,,,,,,,
,four,0.9706448316574097,,,,,,,,
,woman,0.9693942070007324,,,,,,,,
,group,0.9627849459648132,,,,,,,,
,"facial expression",0.9611208438873291,,,,,,,,
,five,0.9567384719848633,,,,,,,,
,boy,0.9546933174133301,,,,,,,,
,happiness,0.9510308504104614,,,,,,,,
,girl,0.9455500841140747,,,,,,,,
,friendship,0.9439910650253296,,,,,,,,
,school,0.9407298564910889,,,,,,,,
,togetherness,0.9308923482894897,,,,,,,,
,adult,0.9244426488876343,,,,,,,,
,offspring,0.9217588305473328,,,,,,,,
,wear,0.9151387214660645,,,,,,,,
,sibling,0.9130686521530151,,,,,,,,
,man,0.9087045788764954,,,,,,,,
https://scontent.cdninstagram.com/t51.2885-15/e35/13422821_1753840474839404_1282900773_n.jpg,outdoors,0.9856078624725342,Relationships,,,,"Best friends",,,
,woman,0.9687055349349976,,,,,,,,
,nature,0.9656362533569336,,,,,,,,
,togetherness,0.9621535539627075,,,,,,,,
,people,0.9587576389312744,,,,,,,,
,love,0.9512314796447754,,,,,,,,
,summer,0.9266684055328369,,,,,,,,
,man,0.9257434010505676,,,,,,,,
,leisure,0.925293505191803,,,,,,,,
,affection,0.9214409589767456,,,,,,,,
,park,0.9173057675361633,,,,,,,,
,child,0.9132851362228394,,,,,,,,
,grass,0.9080657958984375,,,,,,,,
,two,0.9072888493537903,,,,,,,,
,"facial expression",0.9057179689407349,,,,,,,,
,portrait,0.9029184579849243,,,,,,,,
,relaxation,0.8978161811828613,,,,,,,,
,romance,0.8886902332305908,,,,,,,,
,daylight,0.8874204158782959,,,,,,,,
,happiness,0.8834133148193359,,,,,,,,
https://scontent.cdninstagram.com/t51.2885-15/e35/12070762_1095243023876542_416636322_n.jpg,desktop,0.9722105264663696,Abstract,,,,Abstract,,,
,design,0.954143762588501,,,,,,,,
,abstract,0.9525922536849976,,,,,,,,
,shape,0.9336223602294922,,,,,,,,
,decoration,0.9328138828277588,,,,,,,,
,graphic,0.9278901815414429,,,,,,,,
,pattern,0.9238637685775757,,,,,,,,
,illustration,0.9232019186019897,,,,,,,,
,art,0.8892149925231934,,,,,,,,
,texture,0.8884532451629639,,,,,,,,
,color,0.887980043888092,,,,,,,,
,celebration,0.8809713125228882,,,,,,,,
,style,0.8794892430305481,,,,,,,,
,bright,0.8708678483963013,,,,,,,,
,modern,0.8668696284294128,,,,,,,,
,symbol,0.8616647720336914,,,,,,,,
,line,0.8574098348617554,,,,,,,,
,"no person",0.8263305425643921,,,,,,,,
,fashion,0.8245347738265991,,,,,,,,
,retro,0.8069244623184204,,,,,,,,
https://scontent.cdninstagram.com/t51.2885-15/e35/12716747_221349551543260_729210411_n.jpg,horse,0.9976972341537476,Recreation,"My life",Animals,,Recreation-s,Doing,Animals-s,
,cavalry,0.9937037825584412,,,,,,,,
,competition,0.9922391176223755,,,,,,,,
,sitting,0.9916123151779175,,,,,,,,
,equestrian,0.9846383333206177,,,,,,,,
,jockey,0.9785288572311401,,,,,,,,
,people,0.9785218238830566,,,,,,,,
,rider,0.9732828140258789,,,,,,,,
,ride,0.9722877740859985,,,,,,,,
,recreation,0.9588351845741272,,,,,,,,
,motion,0.957602858543396,,,,,,,,
,saddle,0.9536176919937134,,,,,,,,
,racehorse,0.9530686140060425,,,,,,,,
,race,0.9515752196311951,,,,,,,,
,gambling,0.9487407207489014,,,,,,,,
,mammal,0.9378275871276855,,,,,,,,
,sport,0.9377737641334534,,,,,,,,
,man,0.937218189239502,,,,,,,,
,award,0.9354696273803711,,,,,,,,
,hurry,0.9343863725662231,,,,,,,,
https://scontent.cdninstagram.com/t51.2885-15/sh0.08/e35/p750x750/12331863_101916870180921_1234283916_n.jpg,woman,0.996106743812561,"Fashion & Beauty",,,,"My look",,,
,fashion,0.9904824495315552,,,,,,,,
,pretty,0.9760051965713501,,,,,,,,
,sexy,0.9696230292320251,,,,,,,,
,glamour,0.963265597820282,,,,,,,,
,elegant,0.9486039876937866,,,,,,,,
,cute,0.9334458112716675,,,,,,,,
,young,0.9079937934875488,,,,,,,,
,love,0.903203010559082,,,,,,,,
,contemporary,0.8866722583770752,,,,,,,,
,sit,0.8861889243125916,,,,,,,,
,maternity,0.878220796585083,,,,,,,,
,girl,0.8768688440322876,,,,,,,,
,long,0.8637962341308594,,,,,,,,
,hair,0.8632366061210632,,,,,,,,
,model,0.8440293073654175,,,,,,,,
,seduction,0.8420860767364502,,,,,,,,
,skin,0.8127878904342651,,,,,,,,
,portrait,0.8042812347412109,,,,,,,,
,luxury,0.7990666627883911,,,,,,,,
https://scontent.cdninstagram.com/t51.2885-15/e35/12917943_225074751213474_1218843286_n.jpg,mammal,0.9988749027252197,Animals,,,,Animals-s,,,
,livestock,0.9977598786354065,,,,,,,,
,one,0.9965072274208069,,,,,,,,
,cattle,0.9957795739173889,,,,,,,,
,agriculture,0.9903320074081421,,,,,,,,
,cavalry,0.9899805784225464,,,,,,,,
,"no person",0.9895567297935486,,,,,,,,
,farm,0.9877986907958984,,,,,,,,
,two,0.976178765296936,,,,,,,,
,people,0.9754092693328857,,,,,,,,
,agriculture,0.9602741003036499,,,,,,,,
,adult,0.9592645168304443,,,,,,,,
,daylight,0.9562249779701233,,,,,,,,
,cowboy,0.9533984065055847,,,,,,,,
,stable,0.9450732469558716,,,,,,,,
,"cow pen",0.9289534091949463,,,,,,,,
,outdoors,0.9183377623558044,,,,,,,,
,cow,0.890377402305603,,,,,,,,
,barn,0.889373779296875,,,,,,,,
,bull,0.8809618353843689,,,,,,,,
https://scontent.cdninstagram.com/t51.2885-15/e35/12912275_1009774552449679_67669266_n.jpg,portrait,0.9830946922302246,"Fashion & Beauty",,,,"My look",,,
,people,0.9813947081565857,,,,,,,,
,woman,0.9801961183547974,,,,,,,,
,young,0.9629389643669128,,,,,,,,
,city,0.9621365666389465,,,,,,,,
,girl,0.9556879997253418,,,,,,,,
,urban,0.9504050612449646,,,,,,,,
,window,0.9497727155685425,,,,,,,,
,business,0.9484144449234009,,,,,,,,
,hair,0.9431338310241699,,,,,,,,
,one,0.9415866732597351,,,,,,,,
,adult,0.9411200284957886,,,,,,,,
,outdoors,0.9212285280227661,,,,,,,,
,pretty,0.9059703350067139,,,,,,,,
,fashion,0.8988685607910156,,,,,,,,
,relaxation,0.8753265738487244,,,,,,,,
,cute,0.875299334526062,,,,,,,,
,model,0.8695081472396851,,,,,,,,
,alone,0.8665858507156372,,,,,,,,
,light,0.8575925827026367,,,,,,,,
https://scontent.cdninstagram.com/t51.2885-15/sh0.08/e35/p750x750/13329031_1069998966379299_1326953527_n.jpg,beach,0.9973801374435425,"Fashion & Beauty",Recreation,,,"My look",Beach,,
,sea,0.9969145059585571,,,,,,,,
,water,0.9966384172439575,,,,,,,,
,ocean,0.9917222261428833,,,,,,,,
,summer,0.9869023561477661,,,,,,,,
,nature,0.9859150052070618,,,,,,,,
,woman,0.9840762615203857,,,,,,,,
,travel,0.9821499586105347,,,,,,,,
,sand,0.9743880033493042,,,,,,,,
,girl,0.9639492034912109,,,,,,,,
,seashore,0.9568390250205994,,,,,,,,
,sky,0.9534746408462524,,,,,,,,
,sun,0.9458238482475281,,,,,,,,
,relaxation,0.9405596852302551,,,,,,,,
,vacation,0.933753490447998,,,,,,,,
,leisure,0.9325642585754395,,,,,,,,
,love,0.9128879308700562,,,,,,,,
,sexy,0.908676266670227,,,,,,,,
,"fair weather",0.9064615964889526,,,,,,,,
,enjoyment,0.8964841365814209,,,,,,,,
https://scontent.cdninstagram.com/t51.2885-15/sh0.08/e35/p750x750/12950451_262000810803776_715400252_n.jpg,woman,0.9933397173881531,"Fashion & Beauty","My life",,,"My look",Selfie,,
,portrait,0.9889059662818909,,,,,,,,
,fashion,0.9870386123657227,,,,,,,,
,girl,0.9836419224739075,,,,,,,,
,people,0.9605690240859985,,,,,,,,
,model,0.9558995962142944,,,,,,,,
,scarf,0.9534809589385986,,,,,,,,
,glamour,0.9379478693008423,,,,,,,,
,sexy,0.927495002746582,,,,,,,,
,eye,0.9272942543029785,,,,,,,,
,one,0.923637866973877,,,,,,,,
,winter,0.921978235244751,,,,,,,,
,pretty,0.9129328727722168,,,,,,,,
,wear,0.9029228091239929,,,,,,,,
,lips,0.8930696845054626,,,,,,,,
,cute,0.8904905319213867,,,,,,,,
,adult,0.8829574584960938,,,,,,,,
,face,0.8771282434463501,,,,,,,,
,brunette,0.8693360686302185,,,,,,,,
,hair,0.8532426357269287,,,,,,,,
https://scontent.cdninstagram.com/t51.2885-15/sh0.08/e35/p750x750/12393684_738024026329565_1783285460_n.jpg,people,0.9963561296463013,Relationships,"My life",,,"Best friends",Doing,,
,man,0.9704872369766235,,,,,,,,
,adult,0.9650462865829468,,,,,,,,
,festival,0.9649316072463989,,,,,,,,
,light,0.9631350040435791,,,,,,,,
,music,0.9527787566184998,,,,,,,,
,group,0.9497311115264893,,,,,,,,
,religion,0.9461807012557983,,,,,,,,
,recreation,0.9439109563827515,,,,,,,,
,group,0.9346508979797363,,,,,,,,
,two,0.9270238876342773,,,,,,,,
,flame,0.905817985534668,,,,,,,,
,performance,0.9055079817771912,,,,,,,,
,energy,0.8968085646629333,,,,,,,,
,action,0.8959375023841858,,,,,,,,
,three,0.8899062871932983,,,,,,,,
,many,0.8843762874603271,,,,,,,,
,musician,0.8774449825286865,,,,,,,,
,woman,0.8770490884780884,,,,,,,,
,candle,0.875433623790741,,,,,,,,
https://scontent.cdninstagram.com/t51.2885-15/e35/12783910_1099477133437886_845364721_n.jpg,water,0.9924982786178589,Recreation,,,,Recreation-s,,,
,nature,0.9726449251174927,,,,,,,,
,swimming,0.9722782373428345,,,,,,,,
,lake,0.961756706237793,,,,,,,,
,pool,0.9402432441711426,,,,,,,,
,park,0.9266825914382935,,,,,,,,
,pool,0.9264922738075256,,,,,,,,
,tropical,0.9217320680618286,,,,,,,,
,jungle,0.9163627624511719,,,,,,,,
,outdoors,0.9114280343055725,,,,,,,,
,summer,0.9032410383224487,,,,,,,,
,wildlife,0.8823294639587402,,,,,,,,
,bird,0.877538800239563,,,,,,,,
,river,0.8768651485443115,,,,,,,,
,tree,0.8745684623718262,,,,,,,,
,reflection,0.8547796607017517,,,,,,,,
,travel,0.8535690307617188,,,,,,,,
,exotic,0.8438475131988525,,,,,,,,
,garden,0.8415468335151672,,,,,,,,
,wood,0.8358325958251953,,,,,,,,
https://scontent.cdninstagram.com/t51.2885-15/e35/12383431_590073307815976_1041125807_n.jpg,man,0.9907282590866089,Relationships,Travel,,,"Best friends",Travel-s,,
,woman,0.9884032607078552,,,,,,,,
,togetherness,0.9881548881530762,,,,,,,,
,affection,0.9837849736213684,,,,,,,,
,"facial expression",0.980804443359375,,,,,,,,
,love,0.9781390428543091,,,,,,,,
,outdoors,0.9735231399536133,,,,,,,,
,embrace,0.9699369072914124,,,,,,,,
,happiness,0.9660276770591736,,,,,,,,
,people,0.9633266925811768,,,,,,,,
,leisure,0.9593758583068848,,,,,,,,
,beach,0.9560676217079163,,,,,,,,
,two,0.9549570083618164,,,,,,,,
,romance,0.9528800249099731,,,,,,,,
,enjoyment,0.9498339891433716,,,,,,,,
,vacation,0.9440780878067017,,,,,,,,
,water,0.9425479769706726,,,,,,,,
,brunette,0.9320946931838989,,,,,,,,
,adult,0.930211067199707,,,,,,,,
,portrait,0.9288017153739929,,,,,,,,
https://scontent.cdninstagram.com/t51.2885-15/e35/13398774_1712151289048186_1945866283_n.jpg,people,0.9797953367233276,Relationships,,,,Family,,,
,woman,0.9667863845825195,,,,,,,,
,group,0.9655367136001587,,,,,,,,
,man,0.9497108459472656,,,,,,,,
,group,0.9409162998199463,,,,,,,,
,adult,0.9408173561096191,,,,,,,,
,family,0.8936014771461487,,,,,,,,
,many,0.8856035470962524,,,,,,,,
,happiness,0.8801844716072083,,,,,,,,
,"facial expression",0.87199866771698,,,,,,,,
,enjoyment,0.8713547587394714,,,,,,,,
,portrait,0.8584229946136475,,,,,,,,
,outdoors,0.8520218133926392,,,,,,,,
,girl,0.8474464416503906,,,,,,,,
,togetherness,0.8451557755470276,,,,,,,,
,sit,0.8421239852905273,,,,,,,,
,lifestyle,0.8115200996398926,,,,,,,,
,fun,0.806648313999176,,,,,,,,
,chair,0.8042712211608887,,,,,,,,
,furniture,0.7971007823944092,,,,,,,,
https://scontent.cdninstagram.com/t51.2885-15/e35/12751285_1674162096189044_364060908_n.jpg,Christmas,0.9947538375854492,Celebrations,,,,"Personal Events",,,
,people,0.9932371377944946,,,,,,,,
,candle,0.9908294677734375,,,,,,,,
,light,0.9897401332855225,,,,,,,,
,celebration,0.9860074520111084,,,,,,,,
,flame,0.9709324836730957,,,,,,,,
,festival,0.9442909955978394,,,,,,,,
,illuminated,0.9150434732437134,,,,,,,,
,city,0.914268970489502,,,,,,,,
,candlelight,0.911842942237854,,,,,,,,
,blur,0.8870893120765686,,,,,,,,
,party,0.8861258625984192,,,,,,,,
,vigil,0.8837116360664368,,,,,,,,
,dark,0.8772785067558289,,,,,,,,
,evening,0.872866153717041,,,,,,,,
,gold,0.8488049507141113,,,,,,,,
,"christmas tree",0.8447074294090271,,,,,,,,
,building,0.8431122303009033,,,,,,,,
,decoration,0.8297092914581299,,,,,,,,
,religion,0.8237245082855225,,,,,,,,
https://scontent.cdninstagram.com/t51.2885-15/e35/12445862_868910633217306_1326944211_n.jpg,woman,0.989871621131897,"Fashion & Beauty","My life",,,"My look",Selfie,,
,people,0.9751127362251282,,,,,,,,
,girl,0.9743586778640747,,,,,,,,
,portrait,0.9708095788955688,,,,,,,,
,cute,0.962357759475708,,,,,,,,
,pretty,0.9607799649238586,,,,,,,,
,child,0.9478892087936401,,,,,,,,
,fashion,0.9419962167739868,,,,,,,,
,indoors,0.939280092716217,,,,,,,,
,adolescent,0.928442656993866,,,,,,,,
,one,0.9048144221305847,,,,,,,,
,looking,0.8758922815322876,,,,,,,,
,enjoyment,0.86720871925354,,,,,,,,
,joy,0.8653860092163086,,,,,,,,
,eye,0.8618231415748596,,,,,,,,
,fun,0.8558980822563171,,,,,,,,
,model,0.8531541228294373,,,,,,,,
,young,0.8366498947143555,,,,,,,,
,daylight,0.829448401927948,,,,,,,,
,"facial expression",0.8267706632614136,,,,,,,,
https://scontent.cdninstagram.com/t51.2885-15/sh0.08/e35/p750x750/12338912_731025757031608_1329191911_n.jpg,two,0.9884741306304932,Relationships,"Fashion & Beauty",,,Family,Ootd,,
,people,0.9856284856796265,,,,,,,,
,wedding,0.9848114252090454,,,,,,,,
,woman,0.9836409687995911,,,,,,,,
,dress,0.9824053049087524,,,,,,,,
,adult,0.9783061742782593,,,,,,,,
,portrait,0.9733280539512634,,,,,,,,
,wear,0.9711977243423462,,,,,,,,
,bride,0.9608079195022583,,,,,,,,
,love,0.9586560726165771,,,,,,,,
,family,0.9491848945617676,,,,,,,,
,indoors,0.9391100406646729,,,,,,,,
,girl,0.9357666969299316,,,,,,,,
,fashion,0.9343270063400269,,,,,,,,
,room,0.9173997640609741,,,,,,,,
,togetherness,0.9004769325256348,,,,,,,,
,happiness,0.8906958103179932,,,,,,,,
,"facial expression",0.8786115646362305,,,,,,,,
,man,0.8659821152687073,,,,,,,,
,marriage,0.8562551736831665,,,,,,,,
https://scontent.cdninstagram.com/t51.2885-15/e35/12783213_638400296313167_1740324451_n.jpg,indoors,0.9979293942451477,Food,,,,"Meal time",,,
,woman,0.9952483177185059,,,,,,,,
,furniture,0.9952312707901001,,,,,,,,
,table,0.9925730228424072,,,,,,,,
,room,0.9856182336807251,,,,,,,,
,restaurant,0.9854674935340881,,,,,,,,
,adult,0.9826724529266357,,,,,,,,
,coffee,0.9802712202072144,,,,,,,,
,tableware,0.979346513748169,,,,,,,,
,people,0.9713025093078613,,,,,,,,
,dining,0.960365891456604,,,,,,,,
,togetherness,0.9589833617210388,,,,,,,,
,chair,0.958782434463501,,,,,,,,
,man,0.9538618326187134,,,,,,,,
,kitchenware,0.9492120742797852,,,,,,,,
,"facial expression",0.9471349716186523,,,,,,,,
,sit,0.9424774646759033,,,,,,,,
,seat,0.9386147856712341,,,,,,,,
,sitting,0.9354951977729797,,,,,,,,
,counter,0.9296160936355591,,,,,,,,
https://scontent.cdninstagram.com/t51.2885-15/e35/12331612_938272182921959_1721399573_n.jpg,people,0.9949071407318115,Relationships,Environment,,,"Best friends","Natural beauty",,
,love,0.9933567047119141,,,,,,,,
,two,0.9873446226119995,,,,,,,,
,man,0.9852311611175537,,,,,,,,
,sunset,0.9830762147903442,,,,,,,,
,adult,0.9821473360061646,,,,,,,,
,romance,0.9757007956504822,,,,,,,,
,portrait,0.9661258459091187,,,,,,,,
,interaction,0.9659888744354248,,,,,,,,
,woman,0.9626311659812927,,,,,,,,
,wedding,0.9614095687866211,,,,,,,,
,girl,0.9340804219245911,,,,,,,,
,backlit,0.9298931360244751,,,,,,,,
,togetherness,0.9293090105056763,,,,,,,,
,kiss,0.9281761646270752,,,,,,,,
,outdoors,0.9179689288139343,,,,,,,,
,affection,0.9170809984207153,,,,,,,,
,engagement,0.8817621469497681,,,,,,,,
,wear,0.8810075521469116,,,,,,,,
,blur,0.8766123056411743,,,,,,,,
https://scontent.cdninstagram.com/t51.2885-15/e35/12479340_1546734458977954_2125658041_n.jpg,portrait,0.9933562278747559,Relationships,,,,"Best friends",,,
,girl,0.9907681345939636,,,,,,,,
,people,0.9887421131134033,,,,,,,,
,woman,0.968501091003418,,,,,,,,
,happiness,0.9615514278411865,,,,,,,,
,child,0.9434698820114136,,,,,,,,
,adult,0.9358779788017273,,,,,,,,
,love,0.9309013485908508,,,,,,,,
,fun,0.9219348430633545,,,,,,,,
,two,0.9212930202484131,,,,,,,,
,togetherness,0.9137813448905945,,,,,,,,
,"facial expression",0.9111267328262329,,,,,,,,
,wear,0.8984003067016602,,,,,,,,
,friendship,0.8928350210189819,,,,,,,,
,brunette,0.8870333433151245,,,,,,,,
,beautiful,0.8843115568161011,,,,,,,,
,winter,0.872882068157196,,,,,,,,
,family,0.8426159620285034,,,,,,,,
,group,0.838854968547821,,,,,,,,
,park,0.838241457939148,,,,,,,,
https://scontent.cdninstagram.com/t51.2885-15/sh0.08/e35/p750x750/12917820_1039786962763005_703532675_n.jpg,woman,0.9811928868293762,Food,,,,"Drinks and snack",,,
,young,0.9748318791389465,,,,,,,,
,fashion,0.9568206071853638,,,,,,,,
,hand,0.9404429197311401,,,,,,,,
,desktop,0.9378153681755066,,,,,,,,
,person,0.9273694157600403,,,,,,,,
,business,0.9267979860305786,,,,,,,,
,casual,0.9227174520492554,,,,,,,,
,adult,0.9144723415374756,,,,,,,,
,beautiful,0.9060090184211731,,,,,,,,
,girl,0.9034603834152222,,,,,,,,
,people,0.9031192064285278,,,,,,,,
,lifestyle,0.8976064324378967,,,,,,,,
,work,0.8877074718475342,,,,,,,,
,elegant,0.8867080807685852,,,,,,,,
,one,0.8836133480072021,,,,,,,,
,isolated,0.882905900478363,,,,,,,,
,pretty,0.8654204607009888,,,,,,,,
,human,0.8526427745819092,,,,,,,,
,family,0.8495826721191406,,,,,,,,
https://scontent.cdninstagram.com/t51.2885-15/sh0.08/e35/p750x750/12276913_462510553953397_647332994_n.jpg,woman,0.9940671920776367,"Fashion & Beauty",,,,Ootd,,,
,fashion,0.9868268966674805,,,,,,,,
,girl,0.973278284072876,,,,,,,,
,dress,0.9525632858276367,,,,,,,,
,portrait,0.9488246440887451,,,,,,,,
,wear,0.9319188594818115,,,,,,,,
,people,0.9232468605041504,,,,,,,,
,glamour,0.9220218658447266,,,,,,,,
,model,0.9203066825866699,,,,,,,,
,pretty,0.9194071888923645,,,,,,,,
,retro,0.9179034233093262,,,,,,,,
,traditional,0.9033665657043457,,,,,,,,
,sexy,0.8894991874694824,,,,,,,,
,vintage,0.8792368769645691,,,,,,,,
,art,0.8672802448272705,,,,,,,,
,cute,0.8649191856384277,,,,,,,,
,indoors,0.8616353273391724,,,,,,,,
,elegant,0.8548927307128906,,,,,,,,
,beautiful,0.8414878845214844,,,,,,,,
,sit,0.8347556591033936,,,,,,,,
https://scontent.cdninstagram.com/t51.2885-15/sh0.08/e35/p750x750/13398487_1734206636818608_617375029_n.jpg,woman,0.9898580312728882,"Fashion & Beauty",,,,"My look",,,
,wedding,0.986477255821228,,,,,,,,
,dress,0.9798702001571655,,,,,,,,
,girl,0.9783526062965393,,,,,,,,
,bride,0.9760621786117554,,,,,,,,
,fashion,0.970878005027771,,,,,,,,
,window,0.9703536629676819,,,,,,,,
,people,0.96802818775177,,,,,,,,
,portrait,0.9572004079818726,,,,,,,,
,model,0.9567885398864746,,,,,,,,
,adult,0.925557017326355,,,,,,,,
,indoors,0.9246698021888733,,,,,,,,
,beautiful,0.9215611219406128,,,,,,,,
,glamour,0.907140851020813,,,,,,,,
,door,0.894420862197876,,,,,,,,
,love,0.8905525207519531,,,,,,,,
,pretty,0.8862304091453552,,,,,,,,
,bridal,0.8817844390869141,,,,,,,,
,sexy,0.8728411197662354,,,,,,,,
,one,0.8721040487289429,,,,,,,,
https://scontent.cdninstagram.com/t51.2885-15/sh0.08/e35/p750x750/13166964_1794472324122504_1410038615_n.jpg,man,0.9950878620147705,Relationships,Environment,,,"Best friends",Landmarks,,
,people,0.9919543266296387,,,,,,,,
,adult,0.9897289276123047,,,,,,,,
,water,0.9780591726303101,,,,,,,,
,romance,0.9665459394454956,,,,,,,,
,daylight,0.9661263227462769,,,,,,,,
,"facial expression",0.9596140384674072,,,,,,,,
,love,0.9586735367774963,,,,,,,,
,sea,0.956659197807312,,,,,,,,
,portrait,0.9550080299377441,,,,,,,,
,outdoors,0.9527329802513123,,,,,,,,
,two,0.9527059197425842,,,,,,,,
,travel,0.9494667053222656,,,,,,,,
,"side view",0.9491111040115356,,,,,,,,
,togetherness,0.9360728859901428,,,,,,,,
,interaction,0.9318243265151978,,,,,,,,
,woman,0.928912878036499,,,,,,,,
,ocean,0.9288192987442017,,,,,,,,
,wear,0.9186968803405762,,,,,,,,
,affection,0.913779616355896,,,,,,,,
https://scontent.cdninstagram.com/t51.2885-15/sh0.08/e35/p750x750/13108806_1041029172639265_2078661773_n.jpg,horse,0.9837231636047363,Animals,Recreation,"My life",,Animals-s,Recreation-s,Doing,
,people,0.9809904098510742,,,,,,,,
,competition,0.9729846715927124,,,,,,,,
,cavalry,0.9662864208221436,,,,,,,,
,mammal,0.9660611152648926,,,,,,,,
,sitting,0.9558939933776855,,,,,,,,
,man,0.9410736560821533,,,,,,,,
,jockey,0.9284476041793823,,,,,,,,
,award,0.9263902902603149,,,,,,,,
,equestrian,0.9108390808105469,,,,,,,,
,ride,0.9052308797836304,,,,,,,,
,adult,0.9042726755142212,,,,,,,,
,action,0.8705477714538574,,,,,,,,
,racehorse,0.8644356727600098,,,,,,,,
,race,0.8616255521774292,,,,,,,,
,recreation,0.8555428981781006,,,,,,,,
,motion,0.8528239727020264,,,,,,,,
,leader,0.8394449949264526,,,,,,,,
,outfit,0.8359390497207642,,,,,,,,
,equine,0.8130282759666443,,,,,,,,
https://scontent.cdninstagram.com/t51.2885-15/e35/12934852_1562964384001306_1253147116_n.jpg,hanging,0.9995403289794922,Arts,,,,Arts-s,,,
,lamp,0.9937626719474792,,,,,,,,
,decoration,0.9907443523406982,,,,,,,,
,glass,0.989712119102478,,,,,,,,
,brass,0.9777666330337524,,,,,,,,
,antique,0.972781240940094,,,,,,,,
,design,0.968606173992157,,,,,,,,
,"no person",0.966977059841156,,,,,,,,
,old,0.9630883932113647,,,,,,,,
,gold,0.9625985622406006,,,,,,,,
,light,0.9621800184249878,,,,,,,,
,traditional,0.9605362415313721,,,,,,,,
,souvenir,0.9604908227920532,,,,,,,,
,ornate,0.9584107995033264,,,,,,,,
,religion,0.9551634192466736,,,,,,,,
,art,0.9408812522888184,,,,,,,,
,shining,0.9408283233642578,,,,,,,,
,bronze,0.9339087605476379,,,,,,,,
,lantern,0.9334535598754883,,,,,,,,
,bell,0.933119535446167,,,,,,,,
https://scontent.cdninstagram.com/t51.2885-15/sh0.08/e35/p750x750/12339048_618493778290825_245740034_n.jpg,fashion,0.9887385368347168,"Fashion & Beauty",,,,Ootd,,,
,woman,0.9846880435943604,,,,,,,,
,people,0.9748031497001648,,,,,,,,
,wear,0.9594922065734863,,,,,,,,
,shopping,0.9527934789657593,,,,,,,,
,glamour,0.9319561123847961,,,,,,,,
,portrait,0.9312525391578674,,,,,,,,
,adult,0.9288936257362366,,,,,,,,
,model,0.9219800233840942,,,,,,,,
,one,0.9098942279815674,,,,,,,,
,dress,0.8813052177429199,,,,,,,,
,luxury,0.875249981880188,,,,,,,,
,pretty,0.8669064044952393,,,,,,,,
,enjoyment,0.865543007850647,,,,,,,,
,girl,0.8635551929473877,,,,,,,,
,outdoors,0.8562763929367065,,,,,,,,
,young,0.8404586911201477,,,,,,,,
,fashionable,0.8400099873542786,,,,,,,,
,indoors,0.8384183645248413,,,,,,,,
,casual,0.8242232203483582,,,,,,,,
https://scontent.cdninstagram.com/t51.2885-15/e35/13166899_561041324076044_1061250429_n.jpg,adult,0.9813879728317261,"My life",Commerce,Food,,"Here I am","Product/brand shots","Drinks and snack",
,indoors,0.9795038104057312,,,,,,,,
,furniture,0.9731417298316956,,,,,,,,
,window,0.9587398767471313,,,,,,,,
,woman,0.9439838528633118,,,,,,,,
,people,0.9296947121620178,,,,,,,,
,house,0.9272074103355408,,,,,,,,
,outdoors,0.9201828241348267,,,,,,,,
,door,0.9198443293571472,,,,,,,,
,sit,0.9026836156845093,,,,,,,,
,table,0.9011677503585815,,,,,,,,
,architecture,0.9007725715637207,,,,,,,,
,wood,0.8847240209579468,,,,,,,,
,chair,0.878751277923584,,,,,,,,
,desk,0.8700568079948425,,,,,,,,
,seat,0.8589434623718262,,,,,,,,
,education,0.8526842594146729,,,,,,,,
,"side view",0.85029137134552,,,,,,,,
,family,0.8379824161529541,,,,,,,,
,classroom,0.8148439526557922,,,,,,,,
https://scontent.cdninstagram.com/t51.2885-15/e35/13248771_649272041890661_203065807_n.jpg,woman,0.9861588478088379,Relationships,"My life",Commerce,,"Best friends","Here I am","Product/brand shots",
,man,0.9751558303833008,,,,,,,,
,sit,0.9749288558959961,,,,,,,,
,restaurant,0.9652509689331055,,,,,,,,
,indoors,0.9627163410186768,,,,,,,,
,education,0.961205244064331,,,,,,,,
,adult,0.9538071155548096,,,,,,,,
,people,0.9529995322227478,,,,,,,,
,coffee,0.9431414604187012,,,,,,,,
,furniture,0.9220198392868042,,,,,,,,
,table,0.9218258857727051,,,,,,,,
,chair,0.8990482091903687,,,,,,,,
,togetherness,0.8989417552947998,,,,,,,,
,bar,0.8477555513381958,,,,,,,,
,enjoyment,0.8438896536827087,,,,,,,,
,seat,0.8282712697982788,,,,,,,,
,sitting,0.8272367715835571,,,,,,,,
,relaxation,0.8162518739700317,,,,,,,,
,group,0.8099607229232788,,,,,,,,
,school,0.8098882436752319,,,,,,,,
https://scontent.cdninstagram.com/t51.2885-15/e35/12905135_479018762300066_1123792166_n.jpg,people,0.9976516366004944,Environment,Travel,,,"Natural beauty",Travel-s,,
,market,0.9833871722221375,,,,,,,,
,shopping,0.9616751670837402,,,,,,,,
,festival,0.9532727003097534,,,,,,,,
,commerce,0.9455146789550781,,,,,,,,
,group,0.9429060220718384,,,,,,,,
,adult,0.9404168128967285,,,,,,,,
,stock,0.9379668831825256,,,,,,,,
,woman,0.9354262351989746,,,,,,,,
,merchant,0.9140375852584839,,,,,,,,
,sell,0.9131035804748535,,,,,,,,
,ceremony,0.9095420837402344,,,,,,,,
,street,0.9090235233306885,,,,,,,,
,booth,0.8977187871932983,,,,,,,,
,restaurant,0.8933366537094116,,,,,,,,
,city,0.8916988968849182,,,,,,,,
,many,0.8899524807929993,,,,,,,,
,religion,0.8683868646621704,,,,,,,,
,container,0.8643616437911987,,,,,,,,
,celebration,0.8641467094421387,,,,,,,,
https://scontent.cdninstagram.com/t51.2885-15/e35/12965738_998786296843486_469558752_n.jpg,people,0.9759502410888672,Recreation,,,,Recreation-s,,,
,recreation,0.968543529510498,,,,,,,,
,water,0.9577934741973877,,,,,,,,
,adult,0.9572669863700867,,,,,,,,
,one,0.93739914894104,,,,,,,,
,woman,0.9341135025024414,,,,,,,,
,leisure,0.928850531578064,,,,,,,,
,fun,0.8818967342376709,,,,,,,,
,girl,0.8795446753501892,,,,,,,,
,outdoors,0.8645728826522827,,,,,,,,
,travel,0.8479411602020264,,,,,,,,
,swimming,0.8352969884872437,,,,,,,,
,daylight,0.8236072063446045,,,,,,,,
,summer,0.8177839517593384,,,,,,,,
,enjoyment,0.8014693260192871,,,,,,,,
,two,0.8009071350097656,,,,,,,,
,"no person",0.798607587814331,,,,,,,,
,"swimming pool",0.7926854491233826,,,,,,,,
,vehicle,0.7915229797363281,,,,,,,,
,reclining,0.7913148403167725,,,,,,,,
https://scontent.cdninstagram.com/t51.2885-15/e35/13129972_1145931135428144_1846509719_n.jpg,building,0.980949342250824,"My life",Commerce,,,"Here I am","Product/brand shots",,
,architecture,0.977057695388794,,,,,,,,
,sign,0.958304762840271,,,,,,,,
,urban,0.9556331634521484,,,,,,,,
,old,0.9552497863769531,,,,,,,,
,city,0.9525437355041504,,,,,,,,
,"no person",0.9495875835418701,,,,,,,,
,business,0.9405498504638672,,,,,,,,
,industry,0.9291924238204956,,,,,,,,
,travel,0.927992582321167,,,,,,,,
,street,0.9273809194564819,,,,,,,,
,stock,0.9240828156471252,,,,,,,,
,house,0.9113829135894775,,,,,,,,
,wall,0.8948730826377869,,,,,,,,
,retro,0.8743036985397339,,,,,,,,
,sign,0.8655908703804016,,,,,,,,
,sign,0.8613358736038208,,,,,,,,
,design,0.858627438545227,,,,,,,,
,text,0.8584479093551636,,,,,,,,
,window,0.8522205948829651,,,,,,,,
https://scontent.cdninstagram.com/t51.2885-15/e35/13126763_951718014947060_1258130087_n.jpg,group,0.9876577258110046,Relationships,,,,Friends,,,
,adult,0.9853924512863159,,,,,,,,
,woman,0.9749648571014404,,,,,,,,
,people,0.9711751341819763,,,,,,,,
,man,0.9697225093841553,,,,,,,,
,indoors,0.96587073802948,,,,,,,,
,room,0.9652395844459534,,,,,,,,
,portrait,0.9569177627563477,,,,,,,,
,"facial expression",0.9512614011764526,,,,,,,,
,office,0.9505730867385864,,,,,,,,
,group,0.9428467154502869,,,,,,,,
,business,0.9371271133422852,,,,,,,,
,happiness,0.9288134574890137,,,,,,,,
,wear,0.9263150691986084,,,,,,,,
,teamwork,0.9187420010566711,,,,,,,,
,meeting,0.9037682414054871,,,,,,,,
,education,0.8923874497413635,,,,,,,,
,school,0.8899097442626953,,,,,,,,
,employee,0.888552725315094,,,,,,,,
,togetherness,0.8830748796463013,,,,,,,,
https://scontent.cdninstagram.com/t51.2885-15/sh0.08/e35/p750x750/12964996_487561661443813_1232322758_n.jpg,woman,0.9929662346839905,Relationships,,,,"Best friends",,,
,love,0.9876157641410828,,,,,,,,
,people,0.9815559983253479,,,,,,,,
,togetherness,0.9813060164451599,,,,,,,,
,man,0.9753812551498413,,,,,,,,
,fun,0.9608014822006226,,,,,,,,
,child,0.958939790725708,,,,,,,,
,portrait,0.9578565359115601,,,,,,,,
,affection,0.9544247388839722,,,,,,,,
,indoors,0.9504507780075073,,,,,,,,
,joy,0.950041651725769,,,,,,,,
,two,0.9459719657897949,,,,,,,,
,car,0.9440504312515259,,,,,,,,
,happiness,0.934107780456543,,,,,,,,
,enjoyment,0.9319925308227539,,,,,,,,
,girl,0.9302744269371033,,,,,,,,
,laughing,0.923878014087677,,,,,,,,
,cute,0.9039640426635742,,,,,,,,
,outdoors,0.9017512798309326,,,,,,,,
,family,0.8938305377960205,,,,,,,,
https://scontent.cdninstagram.com/t51.2885-15/e35/13181551_474514509414094_1020824800_n.jpg,child,0.9995554089546204,Relationships,,,,"Baby family",,,
,baby,0.9979904294013977,,,,,,,,
,little,0.9962801933288574,,,,,,,,
,cute,0.9950084686279297,,,,,,,,
,innocence,0.9817675352096558,,,,,,,,
,fun,0.9814571142196655,,,,,,,,
,toddler,0.969575047492981,,,,,,,,
,precious,0.9505527019500732,,,,,,,,
,girl,0.9463770389556885,,,,,,,,
,newborn,0.9454793930053711,,,,,,,,
,joy,0.9333125352859497,,,,,,,,
,boy,0.9313525557518005,,,,,,,,
,love,0.9244159460067749,,,,,,,,
,indoors,0.9109741449356079,,,,,,,,
,people,0.9077476263046265,,,,,,,,
,family,0.9048717021942139,,,,,,,,
,portrait,0.880467414855957,,,,,,,,
,sit,0.8735820651054382,,,,,,,,
,confection,0.868953287601471,,,,,,,,
,adorable,0.8652238845825195,,,,,,,,
https://scontent.cdninstagram.com/t51.2885-15/sh0.08/e35/p750x750/13129852_237477183283326_1655986913_n.jpg,woman,0.9963051676750183,"Fashion & Beauty","My life",,,"My look",Selfie,,
,portrait,0.9741644263267517,,,,,,,,
,people,0.9685655832290649,,,,,,,,
,"facial expression",0.9595377445220947,,,,,,,,
,pretty,0.9527446031570435,,,,,,,,
,one,0.9496980905532837,,,,,,,,
,fashion,0.9477375149726868,,,,,,,,
,wear,0.9452294111251831,,,,,,,,
,indoors,0.932193398475647,,,,,,,,
,girl,0.9197312593460083,,,,,,,,
,leisure,0.9192873239517212,,,,,,,,
,enjoyment,0.9152732491493225,,,,,,,,
,relaxation,0.9145925045013428,,,,,,,,
,adolescent,0.9102891087532043,,,,,,,,
,outdoors,0.891433596611023,,,,,,,,
,cute,0.8913557529449463,,,,,,,,
,brunette,0.8714203834533691,,,,,,,,
,joy,0.8543411493301392,,,,,,,,
,happiness,0.8525100946426392,,,,,,,,
,adult,0.8384786248207092,,,,,,,,
https://scontent.cdninstagram.com/t51.2885-15/e35/13108756_583965735094723_1746525666_n.jpg,sea,0.993492841720581,Environment,,,,"Natural beauty",,,
,water,0.9931657314300537,,,,,,,,
,travel,0.9910836219787598,,,,,,,,
,"no person",0.985194206237793,,,,,,,,
,seashore,0.9846687316894531,,,,,,,,
,ocean,0.9769892692565918,,,,,,,,
,beach,0.9758099317550659,,,,,,,,
,sky,0.9731388092041016,,,,,,,,
,landscape,0.9480788111686707,,,,,,,,
,daylight,0.9427415132522583,,,,,,,,
,outdoors,0.9389283657073975,,,,,,,,
,island,0.9310747385025024,,,,,,,,
,city,0.9247593879699707,,,,,,,,
,watercraft,0.9232990741729736,,,,,,,,
,architecture,0.9141801595687866,,,,,,,,
,summer,0.9004888534545898,,,,,,,,
,bay,0.8890191912651062,,,,,,,,
,vacation,0.8858108520507812,,,,,,,,
,scenic,0.8856874108314514,,,,,,,,
,harbor,0.8834253549575806,,,,,,,,
https://scontent.cdninstagram.com/t51.2885-15/sh0.08/e35/p750x750/13423462_1006804522701136_379098303_n.jpg,woman,0.9835473895072937,Animals,Recreation,,,Animals-s,Recreation-s,,
,cavalry,0.9730782508850098,,,,,,,,
,outdoors,0.9668161869049072,,,,,,,,
,portrait,0.9660365581512451,,,,,,,,
,girl,0.9646148085594177,,,,,,,,
,nature,0.9474790096282959,,,,,,,,
,beautiful,0.9455235004425049,,,,,,,,
,people,0.939999520778656,,,,,,,,
,young,0.9390116930007935,,,,,,,,
,leisure,0.9309717416763306,,,,,,,,
,mammal,0.9190962314605713,,,,,,,,
,adult,0.918550431728363,,,,,,,,
,sitting,0.917955756187439,,,,,,,,
,fall,0.913048505783081,,,,,,,,
,one,0.908463180065155,,,,,,,,
,two,0.8824472427368164,,,,,,,,
,hair,0.8805236220359802,,,,,,,,
,friendship,0.8768760561943054,,,,,,,,
,equestrian,0.8767874240875244,,,,,,,,
,cute,0.8730511665344238,,,,,,,,
https://scontent.cdninstagram.com/t51.2885-15/sh0.08/e35/p640x640/12934834_1707526912861073_2105376390_n.jpg,door,0.9938029050827026,"Fashion & Beauty",,,,Ootd,,,
,door,0.9924365282058716,,,,,,,,
,people,0.9845439195632935,,,,,,,,
,one,0.9801040291786194,,,,,,,,
,woman,0.977302074432373,,,,,,,,
,outdoors,0.9772405624389648,,,,,,,,
,entrance,0.9754904508590698,,,,,,,,
,architecture,0.973667323589325,,,,,,,,
,adult,0.9648151397705078,,,,,,,,
,fashion,0.9458204507827759,,,,,,,,
,step,0.9450355768203735,,,,,,,,
,wear,0.9270068407058716,,,,,,,,
,portrait,0.9182291626930237,,,,,,,,
,girl,0.9003682136535645,,,,,,,,
,man,0.8986506462097168,,,,,,,,
,street,0.898641049861908,,,,,,,,
,building,0.8883658051490784,,,,,,,,
,daylight,0.8870341777801514,,,,,,,,
,two,0.8653889894485474,,,,,,,,
,wall,0.8594601154327393,,,,,,,,
https://scontent.cdninstagram.com/t51.2885-15/sh0.08/e35/p750x750/13248814_1009022175801096_1035053354_n.jpg,people,0.9840373992919922,"Fashion & Beauty",Entertainment,,,Ootd,Events,,
,wear,0.9820482730865479,,,,,,,,
,dress,0.9743629693984985,,,,,,,,
,fashion,0.9592585563659668,,,,,,,,
,woman,0.95653235912323,,,,,,,,
,adult,0.9456037282943726,,,,,,,,
,ceremony,0.940819501876831,,,,,,,,
,veil,0.9329771995544434,,,,,,,,
,portrait,0.9316699504852295,,,,,,,,
,one,0.9195795655250549,,,,,,,,
,glamour,0.8914564847946167,,,,,,,,
,wedding,0.8798635601997375,,,,,,,,
,outdoors,0.8761007189750671,,,,,,,,
,travel,0.8672810196876526,,,,,,,,
,model,0.860612690448761,,,,,,,,
,fashionable,0.8295870423316956,,,,,,,,
,luxury,0.8277220726013184,,,,,,,,
,gown,0.8265300989151001,,,,,,,,
,actress,0.814538836479187,,,,,,,,
,home,0.808806836605072,,,,,,,,
https://scontent.cdninstagram.com/t51.2885-15/e35/12338491_1509325362704503_869053371_n.jpg,woman,0.9888479709625244,"Fashion & Beauty","My life",,,"My look",Selfie,,
,fashion,0.9705556631088257,,,,,,,,
,portrait,0.9501957893371582,,,,,,,,
,pretty,0.9378288984298706,,,,,,,,
,long,0.9352067112922668,,,,,,,,
,sexy,0.9272937178611755,,,,,,,,
,girl,0.9219763278961182,,,,,,,,
,people,0.919648289680481,,,,,,,,
,hair,0.9168627262115479,,,,,,,,
,glamour,0.9076658487319946,,,,,,,,
,one,0.9057837128639221,,,,,,,,
,"facial expression",0.8968732357025146,,,,,,,,
,brunette,0.8931944966316223,,,,,,,,
,skin,0.8917732238769531,,,,,,,,
,eye,0.8864036798477173,,,,,,,,
,model,0.883197009563446,,,,,,,,
,wear,0.874742865562439,,,,,,,,
,cute,0.8688561916351318,,,,,,,,
,actress,0.8259695768356323,,,,,,,,
,young,0.8213343620300293,,,,,,,,
