url,class,score
https://scontent.cdninstagram.com/t51.2885-15/e35/13385689_1197624853614752_444114640_n.jpg,water,0.995150208
,bridge,0.984842479
,landscape,0.978145897
,no person,0.972777843
,river,0.970237136
,nature,0.965740681
,sea,0.963557422
,outdoors,0.956663489
,lake,0.956640959
,sky,0.9516536
,weather,0.94728291
,fog,0.937815905
,beach,0.929276943
,pier,0.916628599
,travel,0.915856838
,reflection,0.913961291
,ocean,0.901935339
,summer,0.90000999
,seashore,0.888445616
,winter,0.884414375
https://scontent.cdninstagram.com/t51.2885-15/e35/13397670_927971064015205_641446509_n.jpg,rice,0.999428034
,food,0.998386085
,delicious,0.99408865
,dinner,0.993391931
,vegetable,0.987350345
,meal,0.986051798
,lunch,0.984843612
,pork,0.979130924
,stir,0.978138328
,bean,0.975369513
,dish,0.973821819
,no person,0.972500563
,plate,0.970129609
,cooking,0.965356231
,nutrition,0.955033183
,chili,0.954204559
,traditional,0.953238308
,meat,0.953151107
,cuisine,0.94906044
,beef,0.937892079
https://scontent.cdninstagram.com/t51.2885-15/e35/13398657_1708227609443387_1894694770_n.jpg,desktop,0.958687663
,food,0.958521307
,row,0.944780707
,no person,0.928076446
,color,0.925035
,inside,0.922723413
,market,0.915812492
,traditional,0.904439986
,stock,0.903103054
,indoors,0.897536755
,shelf,0.877518475
,plastic,0.875492454
,building,0.873409986
,culture,0.86059761
,design,0.853639841
,sale,0.851993382
,decoration,0.834164381
,pattern,0.82900095
,glass,0.82887423
,light,0.827653468
https://scontent.cdninstagram.com/t51.2885-15/e35/13422989_243908409325902_385038675_n.jpg,heart,0.98629868
,love,0.974012971
,symbol,0.950460196
,paper,0.949746847
,romance,0.941453695
,business,0.912093759
,card,0.898208141
,label,0.894432664
,people,0.877829015
,price,0.862138629
,text,0.854466736
,sticky,0.828966141
,declaration,0.80920428
,sign,0.807594061
,note,0.805256069
,no person,0.784783721
,design,0.780507624
,shape,0.771290302
,notebook,0.76927948
,romantic,0.752922654
https://scontent.cdninstagram.com/t51.2885-15/e35/13422989_243908409325902_385038675_n.jpg,heart,0.98629868
,love,0.974012971
,symbol,0.950460196
,paper,0.949746847
,romance,0.941453695
,business,0.912093759
,card,0.898208141
,label,0.894432664
,people,0.877829015
,price,0.862138629
,text,0.854466736
,sticky,0.828966141
,declaration,0.80920428
,sign,0.807594061
,note,0.805256069
,no person,0.784783721
,design,0.780507624
,shape,0.771290302
,notebook,0.76927948
,romantic,0.752922654
https://scontent.cdninstagram.com/t51.2885-15/e35/13392779_886587734800277_619052380_n.jpg,cat,0.999701619
,kitten,0.998344481
,pet,0.997715473
,domestic,0.992944777
,cute,0.98990941
,animal,0.978711069
,fur,0.978599727
,mammal,0.976191759
,young,0.975111961
,portrait,0.974058986
,friendship,0.971829057
,sit,0.970932364
,veterinarian,0.969926953
,looking,0.969433427
,whisker,0.968057334
,little,0.967936218
,downy,0.967823505
,tabby,0.960149527
,eye,0.95960772
,adorable,0.946349859
https://scontent.cdninstagram.com/t51.2885-15/e35/13402187_1737831743157479_193470996_n.jpg,template,0.997542977
,layout,0.997232139
,banner,0.992455781
,form,0.983246744
,sequence,0.981103063
,stripe,0.977813601
,heading,0.972901821
,page,0.969458818
,check,0.963116288
,label,0.962192595
,set,0.952770352
,navigation,0.949106336
,number,0.942765296
,step,0.924449086
,information,0.916422188
,monthly,0.916322589
,booklet,0.906838357
,step,0.903911591
,variation,0.901096582
,World Wide Web,0.898681402
https://scontent.cdninstagram.com/t51.2885-15/e35/13388460_179632409106766_1610156186_n.jpg,light,0.990151286
,transportation system,0.978036582
,car,0.977328181
,street,0.9756639
,city,0.971699238
,road,0.969907403
,people,0.966060519
,vehicle,0.949327588
,building,0.934317589
,airport,0.930686414
,travel,0.92531836
,urban,0.923528254
,landscape,0.917233825
,business,0.908962607
,bridge,0.908762813
,no person,0.899650037
,reflection,0.881283164
,industry,0.878254414
,hotel,0.877295852
,museum,0.865652621
https://scontent.cdninstagram.com/t51.2885-15/e35/13385689_1197624853614752_444114640_n.jpg,water,0.995150208
,bridge,0.984842479
,landscape,0.978145897
,no person,0.972777843
,river,0.970237136
,nature,0.965740681
,sea,0.963557422
,outdoors,0.956663489
,lake,0.956640959
,sky,0.9516536
,weather,0.94728291
,fog,0.937815905
,beach,0.929276943
,pier,0.916628599
,travel,0.915856838
,reflection,0.913961291
,ocean,0.901935339
,summer,0.90000999
,seashore,0.888445616
,winter,0.884414375
https://scontent.cdninstagram.com/t51.2885-15/e35/13397670_927971064015205_641446509_n.jpg,rice,0.999428034
,food,0.998386085
,delicious,0.99408865
,dinner,0.993391931
,vegetable,0.987350345
,meal,0.986051798
,lunch,0.984843612
,pork,0.979130924
,stir,0.978138328
,bean,0.975369513
,dish,0.973821819
,no person,0.972500563
,plate,0.970129609
,cooking,0.965356231
,nutrition,0.955033183
,chili,0.954204559
,traditional,0.953238308
,meat,0.953151107
,cuisine,0.94906044
,beef,0.937892079
https://scontent.cdninstagram.com/t51.2885-15/e35/13388460_179632409106766_1610156186_n.jpg,light,0.990151286
,transportation system,0.978036582
,car,0.977328181
,street,0.9756639
,city,0.971699238
,road,0.969907403
,people,0.966060519
,vehicle,0.949327588
,building,0.934317589
,airport,0.930686414
,travel,0.92531836
,urban,0.923528254
,landscape,0.917233825
,business,0.908962607
,bridge,0.908762813
,no person,0.899650037
,reflection,0.881283164
,industry,0.878254414
,hotel,0.877295852
,museum,0.865652621
https://scontent.cdninstagram.com/t51.2885-15/e35/13258927_276950369317833_1828748826_n.jpg,no person,0.990842581
,architecture,0.969205141
,city,0.958792329
,travel,0.957302451
,street,0.943304658
,bench,0.923479021
,water,0.923070014
,outdoors,0.918783903
,light,0.899512887
,building,0.898576498
,modern,0.875597596
,urban,0.868138075
,hotel,0.867994905
,business,0.863210678
,sunset,0.860575795
,transportation system,0.855780721
,reflection,0.849849343
,downtown,0.842477798
,road,0.837713301
,evening,0.832829893
https://scontent.cdninstagram.com/t51.2885-15/e35/13423449_1028098980609210_1426196113_n.jpg,no person,0.990826368
,wood,0.989018798
,architecture,0.977734804
,fence,0.966436744
,outdoors,0.946741462
,pattern,0.946129918
,nature,0.937547445
,construction,0.934639931
,design,0.918316424
,leaf,0.91098702
,building,0.908227324
,desktop,0.908218682
,tree,0.900738895
,landscape,0.899615884
,light,0.897457898
,texture,0.89549458
,old,0.895371675
,iron,0.894895792
,wall,0.894526839
,expression,0.885816097
https://scontent.cdninstagram.com/t51.2885-15/s480x480/e35/13414162_1629148300745117_642796653_n.jpg,illustration,0.992976427
,sketch,0.9789235
,man,0.958810329
,vector,0.957176328
,art,0.884187937
,graphic,0.867444515
,isolated,0.860998631
,fun,0.847486198
,funny,0.84436357
,character,0.839381933
,retro,0.839045882
,business,0.83578217
,game,0.832347274
,education,0.825369656
,people,0.815120816
,squad,0.811528325
,humor,0.803437948
,cute,0.801506162
,child,0.791853309
,school,0.775995076
https://scontent.cdninstagram.com/t51.2885-15/e35/13258927_276950369317833_1828748826_n.jpg,no person,0.990842581
,architecture,0.969205141
,city,0.958792329
,travel,0.957302451
,street,0.943304658
,bench,0.923479021
,water,0.923070014
,outdoors,0.918783903
,light,0.899512887
,building,0.898576498
,modern,0.875597596
,urban,0.868138075
,hotel,0.867994905
,business,0.863210678
,sunset,0.860575795
,transportation system,0.855780721
,reflection,0.849849343
,downtown,0.842477798
,road,0.837713301
,evening,0.832829893
https://scontent.cdninstagram.com/t51.2885-15/e35/11385158_1708529412753463_378596939_n.jpg,science,0.998604178
,biology,0.998070121
,cellular telephone,0.996946692
,health,0.995566368
,medicine,0.992344856
,food,0.991523385
,moon,0.99148494
,spread,0.990559816
,bacteria,0.990114748
,disease,0.98840034
,medical,0.985656857
,solar,0.984787285
,fruit,0.982720971
,round,0.980790257
,microbiology,0.976966143
,embryo,0.975175858
,no person,0.974152505
,desktop,0.971792102
,infection,0.969339252
,closeup,0.968111694
https://scontent.cdninstagram.com/t51.2885-15/e35/13385653_155401468209829_1441423088_n.jpg,paper,0.966212034
,no person,0.963774145
,business,0.950620651
,indoors,0.923831701
,food,0.906378627
,vertical,0.869740546
,travel,0.843481421
,retro,0.840761185
,Christmas,0.83659482
,money,0.818409681
,drink,0.81795156
,traditional,0.815074444
,celebration,0.80928719
,milk,0.803963542
,coffee,0.802073181
,plastic,0.794886827
,success,0.793396592
,luxury,0.788675666
,shopping,0.788315058
,people,0.78406918
https://scontent.cdninstagram.com/t51.2885-15/e35/13391321_1119779928082787_1047693647_n.jpg,stock,0.996580303
,bar,0.996356726
,shelf,0.995557129
,drink,0.982904136
,container,0.980363727
,bottle,0.975120008
,commerce,0.970490575
,market,0.962512732
,merchandise,0.937487483
,business,0.935022235
,shopping,0.930427611
,liquor,0.911929607
,shop,0.910245538
,restaurant,0.908646405
,people,0.900933862
,industry,0.899513423
,no person,0.897200286
,group,0.879422903
,indoors,0.866298378
,many,0.859252095
https://scontent.cdninstagram.com/t51.2885-15/e35/13385653_155401468209829_1441423088_n.jpg,paper,0.966212034
,no person,0.963774145
,business,0.950620651
,indoors,0.923831701
,food,0.906378627
,vertical,0.869740546
,travel,0.843481421
,retro,0.840761185
,Christmas,0.83659482
,money,0.818409681
,drink,0.81795156
,traditional,0.815074444
,celebration,0.80928719
,milk,0.803963542
,coffee,0.802073181
,plastic,0.794886827
,success,0.793396592
,luxury,0.788675666
,shopping,0.788315058
,people,0.78406918
https://scontent.cdninstagram.com/t51.2885-15/e35/13392901_843323449106805_270284802_n.jpg,light,0.983791411
,street,0.983573318
,car,0.982418358
,road,0.969778776
,architecture,0.968898237
,no person,0.960154831
,transportation system,0.951987624
,city,0.948610902
,travel,0.944012046
,building,0.937151849
,urban,0.921037078
,vehicle,0.915629625
,indoors,0.899083495
,home,0.871415257
,tunnel,0.864657998
,museum,0.853250265
,airport,0.851430535
,tube,0.847954631
,finance,0.845947266
,business,0.843391061
https://scontent.cdninstagram.com/t51.2885-15/e15/13259121_130304464051292_790484131_n.jpg,girl,0.985143661
,woman,0.98267436
,people,0.98223114
,outdoors,0.98164016
,portrait,0.977749467
,nature,0.960053086
,park,0.951662064
,summer,0.945233524
,one,0.936463594
,child,0.933749497
,adult,0.928173423
,hair,0.901098371
,fall,0.891463757
,fair weather,0.883355975
,fashion,0.882006943
,beautiful,0.877578259
,model,0.874006271
,young,0.872176051
,leisure,0.860032737
,relaxation,0.837260425
https://scontent.cdninstagram.com/t51.2885-15/e35/13391321_1119779928082787_1047693647_n.jpg,stock,0.996580303
,bar,0.996356726
,shelf,0.995557129
,drink,0.982904136
,container,0.980363727
,bottle,0.975120008
,commerce,0.970490575
,market,0.962512732
,merchandise,0.937487483
,business,0.935022235
,shopping,0.930427611
,liquor,0.911929607
,shop,0.910245538
,restaurant,0.908646405
,people,0.900933862
,industry,0.899513423
,no person,0.897200286
,group,0.879422903
,indoors,0.866298378
,many,0.859252095
https://scontent.cdninstagram.com/t51.2885-15/e35/13398657_1708227609443387_1894694770_n.jpg,desktop,0.958687663
,food,0.958521307
,row,0.944780707
,no person,0.928076446
,color,0.925035
,inside,0.922723413
,market,0.915812492
,traditional,0.904439986
,stock,0.903103054
,indoors,0.897536755
,shelf,0.877518475
,plastic,0.875492454
,building,0.873409986
,culture,0.86059761
,design,0.853639841
,sale,0.851993382
,decoration,0.834164381
,pattern,0.82900095
,glass,0.82887423
,light,0.827653468
https://scontent.cdninstagram.com/t51.2885-15/e35/13402187_1737831743157479_193470996_n.jpg,template,0.997542977
,layout,0.997232139
,banner,0.992455781
,form,0.983246744
,sequence,0.981103063
,stripe,0.977813601
,heading,0.972901821
,page,0.969458818
,check,0.963116288
,label,0.962192595
,set,0.952770352
,navigation,0.949106336
,number,0.942765296
,step,0.924449086
,information,0.916422188
,monthly,0.916322589
,booklet,0.906838357
,step,0.903911591
,variation,0.901096582
,World Wide Web,0.898681402
https://scontent.cdninstagram.com/t51.2885-15/e35/13392779_886587734800277_619052380_n.jpg,cat,0.999701619
,kitten,0.998344481
,pet,0.997715473
,domestic,0.992944777
,cute,0.98990941
,animal,0.978711069
,fur,0.978599727
,mammal,0.976191759
,young,0.975111961
,portrait,0.974058986
,friendship,0.971829057
,sit,0.970932364
,veterinarian,0.969926953
,looking,0.969433427
,whisker,0.968057334
,little,0.967936218
,downy,0.967823505
,tabby,0.960149527
,eye,0.95960772
,adorable,0.946349859
https://scontent.cdninstagram.com/t51.2885-15/e15/13266803_1013028828744913_77858271_n.jpg,people,0.996519446
,adult,0.987721205
,woman,0.963157535
,city,0.947308779
,child,0.939431965
,man,0.93741107
,portrait,0.934514761
,street,0.931892395
,market,0.920987248
,shopping,0.911652267
,stock,0.907301605
,group,0.895986438
,election,0.893421054
,road,0.89111048
,education,0.869424105
,festival,0.860253513
,sell,0.85653913
,offense,0.849563003
,celebration,0.844432116
,shop,0.82901895
https://scontent.cdninstagram.com/t51.2885-15/s640x640/e15/13248873_632185223623700_96039389_n.jpg,no person,0.989007294
,sky,0.971676171
,dark,0.952917218
,outdoors,0.938672483
,moon,0.904546738
,travel,0.901282191
,airplane,0.852327883
,people,0.847602129
,light,0.842109919
,landscape,0.837006748
,competition,0.813939631
,nature,0.798945546
,action,0.791180134
,dusk,0.783460021
,weather,0.779762268
,danger,0.778067827
,horizontal,0.777445912
,space,0.773423433
,storm,0.767609477
,soccer,0.76455456
https://scontent.cdninstagram.com/t51.2885-15/s640x640/e15/13248873_632185223623700_96039389_n.jpg,no person,0.989007294
,sky,0.971676171
,dark,0.952917218
,outdoors,0.938672483
,moon,0.904546738
,travel,0.901282191
,airplane,0.852327883
,people,0.847602129
,light,0.842109919
,landscape,0.837006748
,competition,0.813939631
,nature,0.798945546
,action,0.791180134
,dusk,0.783460021
,weather,0.779762268
,danger,0.778067827
,horizontal,0.777445912
,space,0.773423433
,storm,0.767609477
,soccer,0.76455456
https://scontent.cdninstagram.com/t51.2885-15/e35/13248847_250510838644536_2108284467_n.jpg,stock,0.965101004
,no person,0.963848352
,chocolate,0.96204567
,option,0.936208308
,indoors,0.934446573
,sale,0.932919025
,display,0.92755264
,food,0.924828649
,shop,0.916086793
,shopping,0.915245712
,shelf,0.903503478
,sweet,0.882179737
,kind,0.878803015
,desktop,0.873554289
,box,0.872277737
,color,0.870120049
,commerce,0.856387496
,sugar,0.851449609
,candy,0.8486408
,luxury,0.842659414
https://scontent.cdninstagram.com/t51.2885-15/s480x480/e35/13398672_1769640979917181_2029055375_n.jpg,no person,0.972966492
,technology,0.959175229
,science,0.914818406
,telephone,0.909197807
,business,0.894300938
,conceptual,0.86907053
,access,0.845725775
,color,0.842918813
,one,0.83597976
,illustration,0.830355108
,medicine,0.829808831
,people,0.82739073
,art,0.824771702
,desktop,0.818479657
,design,0.817441821
,symbol,0.813877761
,abstract,0.81312716
,bright,0.812067032
,internet,0.811172485
,shining,0.808152556
https://scontent.cdninstagram.com/t51.2885-15/s480x480/e35/13398672_1769640979917181_2029055375_n.jpg,no person,0.972966492
,technology,0.959175229
,science,0.914818406
,telephone,0.909197807
,business,0.894300938
,conceptual,0.86907053
,access,0.845725775
,color,0.842918813
,one,0.83597976
,illustration,0.830355108
,medicine,0.829808831
,people,0.82739073
,art,0.824771702
,desktop,0.818479657
,design,0.817441821
,symbol,0.813877761
,abstract,0.81312716
,bright,0.812067032
,internet,0.811172485
,shining,0.808152556
https://scontent.cdninstagram.com/t51.2885-15/e35/13259032_688139141326175_1910828897_n.jpg,no person,0.987743556
,indoors,0.948486567
,wear,0.898142517
,two,0.893521309
,family,0.862072706
,winter,0.851472378
,business,0.850850463
,vehicle,0.849242687
,one,0.837697029
,leisure,0.829148233
,recreation,0.822041631
,fashion,0.821179211
,health,0.819045484
,luxury,0.800098419
,bright,0.795985222
,equipment,0.793986082
,travel,0.788957953
,man,0.787547112
,horizontal,0.768843532
,healthcare,0.767367065
https://scontent.cdninstagram.com/t51.2885-15/e35/13392901_843323449106805_270284802_n.jpg,light,0.983791411
,street,0.983573318
,car,0.982418358
,road,0.969778776
,architecture,0.968898237
,no person,0.960154831
,transportation system,0.951987624
,city,0.948610902
,travel,0.944012046
,building,0.937151849
,urban,0.921037078
,vehicle,0.915629625
,indoors,0.899083495
,home,0.871415257
,tunnel,0.864657998
,museum,0.853250265
,airport,0.851430535
,tube,0.847954631
,finance,0.845947266
,business,0.843391061
https://scontent.cdninstagram.com/t51.2885-15/e35/13256774_280355255642392_13787446_n.jpg,rice,0.988836646
,food,0.985603452
,no person,0.980313659
,traditional,0.964222431
,milk,0.964163899
,delicious,0.962439954
,breakfast,0.952067614
,hot,0.950720727
,meal,0.928006649
,plate,0.922302663
,bowl,0.917471647
,table,0.915462017
,tea,0.911028624
,sweet,0.904313803
,nutrition,0.902701497
,coffee,0.899115324
,lunch,0.887998164
,drink,0.879334271
,dish,0.875276566
,health,0.870726109
https://scontent.cdninstagram.com/t51.2885-15/e35/13167195_676008562547967_1832844367_n.jpg,child,0.98866415
,girl,0.988044322
,people,0.972750902
,beautiful,0.965600491
,woman,0.942079246
,portrait,0.937834501
,young,0.937135935
,school,0.932501316
,toy,0.932001352
,fun,0.912611783
,person,0.910697699
,education,0.908779621
,color,0.905484378
,mirror,0.896581411
,play,0.896089613
,cute,0.894210219
,class,0.874000132
,smile,0.870223045
,model,0.866456509
,art,0.855630815
https://scontent.cdninstagram.com/t51.2885-15/e35/13259052_100540613701336_490369298_n.jpg,wear,0.964571118
,people,0.957872272
,business,0.954672813
,fashion,0.953787804
,adult,0.936706781
,one,0.935112
,woman,0.932026505
,family,0.909903526
,man,0.906273663
,bed,0.903613806
,technology,0.902989209
,telephone,0.901172996
,indoors,0.886994004
,computer,0.885138631
,girl,0.883129478
,isolated,0.877009273
,portrait,0.870240808
,education,0.84416914
,gloves,0.840215862
,laptop,0.83970058
https://scontent.cdninstagram.com/t51.2885-15/e35/13269357_925230840937694_1064912528_n.jpg,no person,0.993200004
,breakfast,0.984026432
,delicious,0.98155582
,food,0.979783177
,sweet,0.961241364
,dairy product,0.948445201
,nutrition,0.947785199
,honey,0.929667056
,dawn,0.925397277
,fruit,0.925300121
,creamy,0.922164142
,sugar,0.921984196
,egg,0.920549333
,milk,0.912395775
,ready,0.911366463
,taste,0.905825853
,homemade,0.904121459
,cooking,0.902907848
,bowl,0.901750922
,cream,0.893589973
https://scontent.cdninstagram.com/t51.2885-15/s750x750/sh0.08/e35/13269378_1152974741434228_1518068635_n.jpg,child,0.99645716
,girl,0.994946957
,woman,0.991507888
,people,0.988263726
,indoors,0.986431003
,portrait,0.985847116
,facial expression,0.954887509
,cute,0.953040004
,fashion,0.933919311
,eye,0.931564689
,model,0.919044256
,one,0.918143272
,enjoyment,0.908964515
,fun,0.901213527
,innocence,0.901201367
,monochrome,0.882544994
,face,0.87300694
,daylight,0.872706711
,adolescent,0.859632254
,elementary school,0.852926433
https://scontent.cdninstagram.com/t51.2885-15/s480x480/e35/13414162_1629148300745117_642796653_n.jpg,illustration,0.992976427
,sketch,0.9789235
,man,0.958810329
,vector,0.957176328
,art,0.884187937
,graphic,0.867444515
,isolated,0.860998631
,fun,0.847486198
,funny,0.84436357
,character,0.839381933
,retro,0.839045882
,business,0.83578217
,game,0.832347274
,education,0.825369656
,people,0.815120816
,squad,0.811528325
,humor,0.803437948
,cute,0.801506162
,child,0.791853309
,school,0.775995076
https://scontent.cdninstagram.com/t51.2885-15/e15/13167190_774149982684538_1616606223_n.jpg,performance,0.984718084
,festival,0.983709276
,music,0.972667098
,concert,0.954349816
,stage,0.934399366
,band,0.887434781
,celebration,0.851078629
,musician,0.830862284
,singer,0.793948591
,energy,0.783067822
,party,0.70678091
,people,0.681052089
,light,0.673292339
,group,0.668677092
,audience,0.661977947
,show,0.633180737
,film festival,0.594427943
,design,0.592438221
,Christmas,0.585747421
,city,0.58499229
https://scontent.cdninstagram.com/t51.2885-15/e15/13266803_1013028828744913_77858271_n.jpg,people,0.996519446
,adult,0.987721205
,woman,0.963157535
,city,0.947308779
,child,0.939431965
,man,0.93741107
,portrait,0.934514761
,street,0.931892395
,market,0.920987248
,shopping,0.911652267
,stock,0.907301605
,group,0.895986438
,election,0.893421054
,road,0.89111048
,education,0.869424105
,festival,0.860253513
,sell,0.85653913
,offense,0.849563003
,celebration,0.844432116
,shop,0.82901895
https://scontent.cdninstagram.com/t51.2885-15/e35/13261027_613787685436327_595483524_n.jpg,glass,0.986542344
,drink,0.977136016
,ice,0.967784286
,juice,0.955705762
,cold,0.952972293
,no person,0.939153612
,summer,0.901984096
,cocktail,0.879842937
,alcohol,0.878453135
,cup,0.864403784
,liquid,0.859122634
,liquor,0.840239286
,fruit,0.832010508
,homemade,0.816585064
,outdoors,0.814625442
,refreshment,0.814426899
,punch,0.813486874
,food,0.800640464
,tea,0.798891246
,water,0.797073483
https://scontent.cdninstagram.com/t51.2885-15/e35/13320126_789166114517149_1763695993_n.jpg,horizontal,0.983888388
,no person,0.967813969
,illustration,0.956100345
,donation,0.95444876
,medicine,0.953470707
,illness,0.948074222
,science,0.946070671
,text,0.932982862
,business,0.929232359
,education,0.924586356
,disease,0.912153423
,form,0.911175489
,page,0.897055984
,desktop,0.859613955
,abstract,0.85625422
,sign,0.839779377
,offense,0.801354706
,identity,0.796104133
,conceptual,0.795659781
,paper,0.792676747
https://scontent.cdninstagram.com/t51.2885-15/s750x750/sh0.08/e35/13423516_1132087306861292_189732964_n.jpg,portrait,0.988560677
,child,0.9856866
,people,0.983728409
,woman,0.975255132
,two,0.956124425
,education,0.955801785
,wear,0.955544055
,movie,0.955294609
,school,0.942220569
,girl,0.934648275
,group,0.928160787
,fun,0.927140474
,facial expression,0.926687121
,festival,0.911373854
,adult,0.911183834
,happiness,0.909104049
,enjoyment,0.900632083
,youth,0.892846346
,music,0.883360207
,recreation,0.880879283
https://scontent.cdninstagram.com/t51.2885-15/sh0.08/e35/p750x750/13248875_611678132320691_1333287149_n.jpg,child,0.992240787
,family,0.983892143
,shopping,0.976510644
,stock,0.975597203
,indoors,0.965756416
,people,0.959355474
,fun,0.946230888
,market,0.938401699
,girl,0.928561687
,cute,0.922344804
,toy,0.915518999
,shop,0.90948081
,little,0.898090243
,supermarket,0.891900301
,woman,0.886715531
,shelf,0.881775439
,happiness,0.879130602
,food,0.869722605
,option,0.867517829
,boy,0.853787005
https://scontent.cdninstagram.com/t51.2885-15/e35/13267610_1719123418343494_1181949274_n.jpg,text,0.974406958
,calligraphy,0.970329523
,book,0.958315134
,almanac,0.941814661
,illustration,0.938783109
,paper,0.920029044
,desktop,0.919205725
,calendar,0.918748736
,handwriting,0.903170228
,time,0.902119875
,vintage,0.900251448
,diary,0.899966121
,letter,0.889870167
,education,0.881314993
,monthly,0.867714942
,language,0.857839406
,annual,0.857636571
,give voice,0.851930201
,alphabet,0.85119307
,date,0.849671185
https://scontent.cdninstagram.com/t51.2885-15/e35/13320126_789166114517149_1763695993_n.jpg,horizontal,0.983888388
,no person,0.967813969
,illustration,0.956100345
,donation,0.95444876
,medicine,0.953470707
,illness,0.948074222
,science,0.946070671
,text,0.932982862
,business,0.929232359
,education,0.924586356
,disease,0.912153423
,form,0.911175489
,page,0.897055984
,desktop,0.859613955
,abstract,0.85625422
,sign,0.839779377
,offense,0.801354706
,identity,0.796104133
,conceptual,0.795659781
,paper,0.792676747
https://scontent.cdninstagram.com/t51.2885-15/s750x750/sh0.08/e35/13269378_1152974741434228_1518068635_n.jpg,child,0.99645716
,girl,0.994946957
,woman,0.991507888
,people,0.988263726
,indoors,0.986431003
,portrait,0.985847116
,facial expression,0.954887509
,cute,0.953040004
,fashion,0.933919311
,eye,0.931564689
,model,0.919044256
,one,0.918143272
,enjoyment,0.908964515
,fun,0.901213527
,innocence,0.901201367
,monochrome,0.882544994
,face,0.87300694
,daylight,0.872706711
,adolescent,0.859632254
,elementary school,0.852926433
https://scontent.cdninstagram.com/t51.2885-15/e15/13259121_130304464051292_790484131_n.jpg,girl,0.985143661
,woman,0.98267436
,people,0.98223114
,outdoors,0.98164016
,portrait,0.977749467
,nature,0.960053086
,park,0.951662064
,summer,0.945233524
,one,0.936463594
,child,0.933749497
,adult,0.928173423
,hair,0.901098371
,fall,0.891463757
,fair weather,0.883355975
,fashion,0.882006943
,beautiful,0.877578259
,model,0.874006271
,young,0.872176051
,leisure,0.860032737
,relaxation,0.837260425
https://scontent.cdninstagram.com/t51.2885-15/e35/13256774_280355255642392_13787446_n.jpg,rice,0.988836646
,food,0.985603452
,no person,0.980313659
,traditional,0.964222431
,milk,0.964163899
,delicious,0.962439954
,breakfast,0.952067614
,hot,0.950720727
,meal,0.928006649
,plate,0.922302663
,bowl,0.917471647
,table,0.915462017
,tea,0.911028624
,sweet,0.904313803
,nutrition,0.902701497
,coffee,0.899115324
,lunch,0.887998164
,drink,0.879334271
,dish,0.875276566
,health,0.870726109
https://scontent.cdninstagram.com/t51.2885-15/e35/13267368_1165794803454787_936332748_n.jpg,food,0.952756286
,vertical,0.916366041
,text,0.905088186
,business,0.892163038
,no person,0.857131124
,bill,0.85263741
,sign,0.833867967
,people,0.823483825
,festival,0.821488559
,indoors,0.800063491
,desktop,0.796637654
,drink,0.795960188
,traditional,0.790117621
,meal,0.785905838
,illustration,0.781857252
,restaurant,0.776163816
,chef,0.768968403
,meat,0.743855953
,celebration,0.739402354
,symbol,0.739099264
https://scontent.cdninstagram.com/t51.2885-15/e35/11385158_1708529412753463_378596939_n.jpg,science,0.998604178
,biology,0.998070121
,cellular telephone,0.996946692
,health,0.995566368
,medicine,0.992344856
,food,0.991523385
,moon,0.99148494
,spread,0.990559816
,bacteria,0.990114748
,disease,0.98840034
,medical,0.985656857
,solar,0.984787285
,fruit,0.982720971
,round,0.980790257
,microbiology,0.976966143
,embryo,0.975175858
,no person,0.974152505
,desktop,0.971792102
,infection,0.969339252
,closeup,0.968111694
https://scontent.cdninstagram.com/t51.2885-15/e35/13402435_1622984344684336_1285832985_n.jpg,indoors,0.967738688
,people,0.956588745
,family,0.951648235
,housework,0.922583699
,woman,0.905814886
,room,0.902173638
,service,0.894263923
,man,0.891237617
,business,0.879990816
,adult,0.870016158
,job,0.856289029
,floor,0.84180212
,table,0.8390764
,wood,0.836907625
,house,0.833420277
,one,0.819995403
,girl,0.819562793
,paper,0.818950832
,dust,0.81414777
,office,0.809031546
https://scontent.cdninstagram.com/t51.2885-15/e35/13402435_1622984344684336_1285832985_n.jpg,indoors,0.967738688
,people,0.956588745
,family,0.951648235
,housework,0.922583699
,woman,0.905814886
,room,0.902173638
,service,0.894263923
,man,0.891237617
,business,0.879990816
,adult,0.870016158
,job,0.856289029
,floor,0.84180212
,table,0.8390764
,wood,0.836907625
,house,0.833420277
,one,0.819995403
,girl,0.819562793
,paper,0.818950832
,dust,0.81414777
,office,0.809031546
https://scontent.cdninstagram.com/t51.2885-15/sh0.08/e35/p750x750/13277785_476728562530617_1951654427_n.jpg,cat,0.99828434
,pet,0.99775511
,kitten,0.99583447
,cute,0.995664597
,animal,0.995043099
,mammal,0.99219346
,domestic,0.991729975
,little,0.981451154
,portrait,0.980545282
,adorable,0.967142224
,sit,0.965003371
,funny,0.956414461
,fur,0.956316113
,eye,0.952831388
,downy,0.94712472
,looking,0.946500897
,baby,0.944396436
,breed,0.939051032
,dog,0.935082555
,purebred,0.932581425
https://scontent.cdninstagram.com/t51.2885-15/e35/13248873_285004518502294_2057012265_n.jpg,furniture,0.998357415
,indoors,0.998340011
,room,0.997489691
,chair,0.99584651
,seat,0.995617867
,window,0.994827271
,interior design,0.99241966
,table,0.980720997
,contemporary,0.979791403
,lamp,0.976035297
,sofa,0.972495675
,luxury,0.954104066
,floor,0.952599645
,minimalist,0.945530891
,family,0.94235456
,lobby,0.931660175
,hotel,0.92527771
,modern,0.918634534
,home,0.917159557
,light,0.904065609
https://scontent.cdninstagram.com/t51.2885-15/e35/13187986_1008623212553908_661768214_n.jpg,horizontal,0.984582365
,adult,0.975070715
,people,0.972232342
,man,0.968091011
,togetherness,0.963521004
,vertical,0.960573554
,woman,0.949727058
,indoors,0.942923427
,outdoors,0.935895264
,focus,0.875912309
,portrait,0.869113445
,sitting,0.841346979
,celebration,0.823735774
,love,0.814808249
,headshot,0.813451052
,formalwear,0.810871124
,couple,0.809826672
,fashion,0.804628134
,business,0.783645213
,friendship,0.780842781
https://scontent.cdninstagram.com/t51.2885-15/e15/13260959_1112914032098909_1383381406_n.jpg,concert,0.995237947
,music,0.99388814
,performance,0.98707217
,stage,0.98595494
,festival,0.9733814
,energy,0.972795904
,light,0.970262527
,audience,0.968292117
,landscape,0.941890121
,people,0.92454046
,party,0.916528344
,flame,0.913974762
,club,0.911433637
,musician,0.895059586
,group,0.884287834
,crowd,0.882223129
,building,0.879598975
,spotlight,0.878610015
,motion,0.870844483
,singer,0.865845084
https://scontent.cdninstagram.com/t51.2885-15/e35/13259032_688139141326175_1910828897_n.jpg,no person,0.987743556
,indoors,0.948486567
,wear,0.898142517
,two,0.893521309
,family,0.862072706
,winter,0.851472378
,business,0.850850463
,vehicle,0.849242687
,one,0.837697029
,leisure,0.829148233
,recreation,0.822041631
,fashion,0.821179211
,health,0.819045484
,luxury,0.800098419
,bright,0.795985222
,equipment,0.793986082
,travel,0.788957953
,man,0.787547112
,horizontal,0.768843532
,healthcare,0.767367065
https://scontent.cdninstagram.com/t51.2885-15/e35/13187986_1008623212553908_661768214_n.jpg,horizontal,0.984582365
,adult,0.975070715
,people,0.972232342
,man,0.968091011
,togetherness,0.963521004
,vertical,0.960573554
,woman,0.949727058
,indoors,0.942923427
,outdoors,0.935895264
,focus,0.875912309
,portrait,0.869113445
,sitting,0.841346979
,celebration,0.823735774
,love,0.814808249
,headshot,0.813451052
,formalwear,0.810871124
,couple,0.809826672
,fashion,0.804628134
,business,0.783645213
,friendship,0.780842781
https://scontent.cdninstagram.com/t51.2885-15/sh0.08/e35/p750x750/13277785_476728562530617_1951654427_n.jpg,cat,0.99828434
,pet,0.99775511
,kitten,0.99583447
,cute,0.995664597
,animal,0.995043099
,mammal,0.99219346
,domestic,0.991729975
,little,0.981451154
,portrait,0.980545282
,adorable,0.967142224
,sit,0.965003371
,funny,0.956414461
,fur,0.956316113
,eye,0.952831388
,downy,0.94712472
,looking,0.946500897
,baby,0.944396436
,breed,0.939051032
,dog,0.935082555
,purebred,0.932581425
https://scontent.cdninstagram.com/t51.2885-15/e35/13261027_613787685436327_595483524_n.jpg,glass,0.986542344
,drink,0.977136016
,ice,0.967784286
,juice,0.955705762
,cold,0.952972293
,no person,0.939153612
,summer,0.901984096
,cocktail,0.879842937
,alcohol,0.878453135
,cup,0.864403784
,liquid,0.859122634
,liquor,0.840239286
,fruit,0.832010508
,homemade,0.816585064
,outdoors,0.814625442
,refreshment,0.814426899
,punch,0.813486874
,food,0.800640464
,tea,0.798891246
,water,0.797073483
https://scontent.cdninstagram.com/t51.2885-15/e35/13099099_621778697975547_1170495945_n.jpg,adult,0.992790937
,people,0.990995526
,motion,0.983140051
,competition,0.978125513
,outdoors,0.940584421
,athlete,0.931374192
,sports equipment,0.92839694
,man,0.920887589
,wear,0.915491521
,child,0.911342978
,ball,0.896310449
,soccer,0.884499609
,fun,0.884070396
,sport,0.869651914
,stadium,0.869194269
,football,0.866746545
,uniform,0.861155868
,hurry,0.85301435
,portrait,0.831158996
,energy,0.830373526
https://scontent.cdninstagram.com/t51.2885-15/e15/13260959_1112914032098909_1383381406_n.jpg,concert,0.995237947
,music,0.99388814
,performance,0.98707217
,stage,0.98595494
,festival,0.9733814
,energy,0.972795904
,light,0.970262527
,audience,0.968292117
,landscape,0.941890121
,people,0.92454046
,party,0.916528344
,flame,0.913974762
,club,0.911433637
,musician,0.895059586
,group,0.884287834
,crowd,0.882223129
,building,0.879598975
,spotlight,0.878610015
,motion,0.870844483
,singer,0.865845084
https://scontent.cdninstagram.com/t51.2885-15/e35/13259052_100540613701336_490369298_n.jpg,wear,0.964571118
,people,0.957872272
,business,0.954672813
,fashion,0.953787804
,adult,0.936706781
,one,0.935112
,woman,0.932026505
,family,0.909903526
,man,0.906273663
,bed,0.903613806
,technology,0.902989209
,telephone,0.901172996
,indoors,0.886994004
,computer,0.885138631
,girl,0.883129478
,isolated,0.877009273
,portrait,0.870240808
,education,0.84416914
,gloves,0.840215862
,laptop,0.83970058
https://scontent.cdninstagram.com/t51.2885-15/e35/13181275_812851645515651_841544131_n.jpg,no person,0.988685131
,template,0.978779674
,label,0.97426331
,navigation,0.964156806
,graphic design,0.951155245
,layout,0.946741879
,stripe,0.933013797
,page,0.924909949
,identity,0.923423171
,data,0.914225578
,World Wide Web,0.911669612
,banner,0.900949359
,business,0.898202419
,presentation,0.890273631
,vector,0.865253925
,paper,0.863897085
,tag,0.855239868
,order,0.838893771
,set,0.8346138
,number,0.830495179
https://scontent.cdninstagram.com/t51.2885-15/e35/13423449_1028098980609210_1426196113_n.jpg,no person,0.990826368
,wood,0.989018798
,architecture,0.977734804
,fence,0.966436744
,outdoors,0.946741462
,pattern,0.946129918
,nature,0.937547445
,construction,0.934639931
,design,0.918316424
,leaf,0.91098702
,building,0.908227324
,desktop,0.908218682
,tree,0.900738895
,landscape,0.899615884
,light,0.897457898
,texture,0.89549458
,old,0.895371675
,iron,0.894895792
,wall,0.894526839
,expression,0.885816097
https://scontent.cdninstagram.com/t51.2885-15/e35/13092275_1616636381989562_1282958419_n.jpg,indoors,0.989147425
,room,0.984480619
,furniture,0.978778958
,no person,0.960004807
,family,0.959903061
,table,0.950522542
,drink,0.946836948
,food,0.940704584
,house,0.931916356
,cup,0.929043293
,window,0.927097619
,breakfast,0.912976861
,chair,0.909555316
,milk,0.908666015
,lifestyle,0.894020081
,inside,0.886364937
,coffee,0.87447226
,container,0.87369895
,home,0.87159431
,seat,0.862358332
https://scontent.cdninstagram.com/t51.2885-15/e35/13267610_1719123418343494_1181949274_n.jpg,text,0.974406958
,calligraphy,0.970329523
,book,0.958315134
,almanac,0.941814661
,illustration,0.938783109
,paper,0.920029044
,desktop,0.919205725
,calendar,0.918748736
,handwriting,0.903170228
,time,0.902119875
,vintage,0.900251448
,diary,0.899966121
,letter,0.889870167
,education,0.881314993
,monthly,0.867714942
,language,0.857839406
,annual,0.857636571
,give voice,0.851930201
,alphabet,0.85119307
,date,0.849671185
https://scontent.cdninstagram.com/t51.2885-15/e35/13257130_1741087636174813_423198522_n.jpg,food,0.993586242
,dinner,0.991185188
,no person,0.987699568
,meat,0.987272441
,delicious,0.986948371
,plate,0.982068658
,meal,0.981032372
,poultry,0.973259687
,dish,0.967084944
,lunch,0.96191895
,cooking,0.954048514
,baking,0.9482283
,dining,0.947386742
,restaurant,0.94594264
,sauce,0.939972997
,potato,0.923661053
,chicken,0.920192599
,nutrition,0.911799192
,slice,0.908104658
,tasty,0.900285363
https://scontent.cdninstagram.com/t51.2885-15/e15/13167190_774149982684538_1616606223_n.jpg,performance,0.984718084
,festival,0.983709276
,music,0.972667098
,concert,0.954349816
,stage,0.934399366
,band,0.887434781
,celebration,0.851078629
,musician,0.830862284
,singer,0.793948591
,energy,0.783067822
,party,0.70678091
,people,0.681052089
,light,0.673292339
,group,0.668677092
,audience,0.661977947
,show,0.633180737
,film festival,0.594427943
,design,0.592438221
,Christmas,0.585747421
,city,0.58499229
https://scontent.cdninstagram.com/t51.2885-15/e35/13259120_237893243241395_2101453633_n.jpg,cream,0.997829914
,cake,0.99089092
,no person,0.990518868
,sweet,0.989911079
,delicious,0.989899933
,sugar,0.98521769
,chocolate,0.984630466
,creamy,0.980743706
,pudding,0.96623075
,indulgence,0.965819597
,custard,0.961321712
,vanilla,0.949729979
,baking,0.946853995
,pastry,0.944082737
,mousse,0.941951573
,plate,0.940875292
,food,0.939307451
,strawberry,0.927992344
,bakery,0.924071789
,temptation,0.922073245
https://scontent.cdninstagram.com/t51.2885-15/e35/13248847_250510838644536_2108284467_n.jpg,stock,0.965101004
,no person,0.963848352
,chocolate,0.96204567
,option,0.936208308
,indoors,0.934446573
,sale,0.932919025
,display,0.92755264
,food,0.924828649
,shop,0.916086793
,shopping,0.915245712
,shelf,0.903503478
,sweet,0.882179737
,kind,0.878803015
,desktop,0.873554289
,box,0.872277737
,color,0.870120049
,commerce,0.856387496
,sugar,0.851449609
,candy,0.8486408
,luxury,0.842659414
https://scontent.cdninstagram.com/t51.2885-15/e35/13167195_676008562547967_1832844367_n.jpg,child,0.98866415
,girl,0.988044322
,people,0.972750902
,beautiful,0.965600491
,woman,0.942079246
,portrait,0.937834501
,young,0.937135935
,school,0.932501316
,toy,0.932001352
,fun,0.912611783
,person,0.910697699
,education,0.908779621
,color,0.905484378
,mirror,0.896581411
,play,0.896089613
,cute,0.894210219
,class,0.874000132
,smile,0.870223045
,model,0.866456509
,art,0.855630815
https://scontent.cdninstagram.com/t51.2885-15/e35/13269357_925230840937694_1064912528_n.jpg,no person,0.993200004
,breakfast,0.984026432
,delicious,0.98155582
,food,0.979783177
,sweet,0.961241364
,dairy product,0.948445201
,nutrition,0.947785199
,honey,0.929667056
,dawn,0.925397277
,fruit,0.925300121
,creamy,0.922164142
,sugar,0.921984196
,egg,0.920549333
,milk,0.912395775
,ready,0.911366463
,taste,0.905825853
,homemade,0.904121459
,cooking,0.902907848
,bowl,0.901750922
,cream,0.893589973
https://scontent.cdninstagram.com/t51.2885-15/e35/13129742_1710662889204253_38878_n.jpg,illustration,0.957087457
,sketch,0.922441125
,sketch,0.910260677
,vector,0.910153389
,symbol,0.887919188
,desktop,0.870936096
,business,0.85348618
,technology,0.852588415
,graphic,0.846776009
,design,0.845223427
,people,0.828551292
,image,0.815955281
,man,0.81542933
,art,0.813845158
,paper,0.806269407
,scribble,0.802775204
,no person,0.797507465
,gear,0.785075188
,pencil,0.781931996
,education,0.736633062
https://scontent.cdninstagram.com/t51.2885-15/sh0.08/e35/p750x750/13248875_611678132320691_1333287149_n.jpg,child,0.992240787
,family,0.983892143
,shopping,0.976510644
,stock,0.975597203
,indoors,0.965756416
,people,0.959355474
,fun,0.946230888
,market,0.938401699
,girl,0.928561687
,cute,0.922344804
,toy,0.915518999
,shop,0.90948081
,little,0.898090243
,supermarket,0.891900301
,woman,0.886715531
,shelf,0.881775439
,happiness,0.879130602
,food,0.869722605
,option,0.867517829
,boy,0.853787005
https://scontent.cdninstagram.com/t51.2885-15/s750x750/sh0.08/e35/13423516_1132087306861292_189732964_n.jpg,portrait,0.988560677
,child,0.9856866
,people,0.983728409
,woman,0.975255132
,two,0.956124425
,education,0.955801785
,wear,0.955544055
,movie,0.955294609
,school,0.942220569
,girl,0.934648275
,group,0.928160787
,fun,0.927140474
,facial expression,0.926687121
,festival,0.911373854
,adult,0.911183834
,happiness,0.909104049
,enjoyment,0.900632083
,youth,0.892846346
,music,0.883360207
,recreation,0.880879283
https://scontent.cdninstagram.com/t51.2885-15/e35/13092275_1616636381989562_1282958419_n.jpg,indoors,0.989147425
,room,0.984480619
,furniture,0.978778958
,no person,0.960004807
,family,0.959903061
,table,0.950522542
,drink,0.946836948
,food,0.940704584
,house,0.931916356
,cup,0.929043293
,window,0.927097619
,breakfast,0.912976861
,chair,0.909555316
,milk,0.908666015
,lifestyle,0.894020081
,inside,0.886364937
,coffee,0.87447226
,container,0.87369895
,home,0.87159431
,seat,0.862358332
https://scontent.cdninstagram.com/t51.2885-15/e35/13118126_1711124495836396_1204386620_n.jpg,people,0.989376783
,one,0.973919034
,adult,0.961168408
,chair,0.948877692
,wear,0.900651217
,man,0.880594015
,woman,0.877607226
,portrait,0.871551633
,museum,0.858488321
,music,0.843954384
,seat,0.83399868
,room,0.823430181
,furniture,0.813542128
,two,0.796620905
,exhibition,0.795204639
,performance,0.781762838
,vehicle,0.772069097
,fashion,0.766756773
,city,0.738412559
,model,0.738359094
https://scontent.cdninstagram.com/t51.2885-15/e35/13167328_1404025783237903_506967175_n.jpg,woman,0.994991779
,hand,0.985711813
,people,0.982046068
,conceptual,0.953584433
,palm,0.95341301
,girl,0.953360558
,one,0.950137377
,adult,0.941381931
,stop,0.940725088
,touch,0.929128706
,support,0.915946484
,medicine,0.915650249
,indoors,0.910185814
,skin,0.903300524
,two,0.901182532
,aid,0.900167465
,finger,0.898965061
,child,0.879682779
,love,0.873239994
,healthcare,0.869392753
https://scontent.cdninstagram.com/t51.2885-15/e35/13257130_1741087636174813_423198522_n.jpg,food,0.993586242
,dinner,0.991185188
,no person,0.987699568
,meat,0.987272441
,delicious,0.986948371
,plate,0.982068658
,meal,0.981032372
,poultry,0.973259687
,dish,0.967084944
,lunch,0.96191895
,cooking,0.954048514
,baking,0.9482283
,dining,0.947386742
,restaurant,0.94594264
,sauce,0.939972997
,potato,0.923661053
,chicken,0.920192599
,nutrition,0.911799192
,slice,0.908104658
,tasty,0.900285363
https://scontent.cdninstagram.com/t51.2885-15/e35/13118126_1711124495836396_1204386620_n.jpg,people,0.989376783
,one,0.973919034
,adult,0.961168408
,chair,0.948877692
,wear,0.900651217
,man,0.880594015
,woman,0.877607226
,portrait,0.871551633
,museum,0.858488321
,music,0.843954384
,seat,0.83399868
,room,0.823430181
,furniture,0.813542128
,two,0.796620905
,exhibition,0.795204639
,performance,0.781762838
,vehicle,0.772069097
,fashion,0.766756773
,city,0.738412559
,model,0.738359094
https://scontent.cdninstagram.com/t51.2885-15/e35/13267368_1165794803454787_936332748_n.jpg,food,0.952756286
,vertical,0.916366041
,text,0.905088186
,business,0.892163038
,no person,0.857131124
,bill,0.85263741
,sign,0.833867967
,people,0.823483825
,festival,0.821488559
,indoors,0.800063491
,desktop,0.796637654
,drink,0.795960188
,traditional,0.790117621
,meal,0.785905838
,illustration,0.781857252
,restaurant,0.776163816
,chef,0.768968403
,meat,0.743855953
,celebration,0.739402354
,symbol,0.739099264
https://scontent.cdninstagram.com/t51.2885-15/e35/13117788_807470789353044_903342569_n.jpg,train,0.999589324
,railway,0.998721302
,tube,0.998052001
,train,0.996424079
,tramway,0.992396295
,public,0.990581214
,transportation system,0.989417017
,tram,0.988797426
,station,0.978323102
,travel,0.967748761
,commuter,0.962841868
,bus,0.960126996
,vehicle,0.955827594
,no person,0.953817606
,city,0.944548607
,cable car,0.942976117
,indoors,0.936306894
,platform,0.928270102
,railway,0.925380588
,business,0.922092319
https://scontent.cdninstagram.com/t51.2885-15/e35/13129233_259669724382361_1868561644_n.jpg,vertical,0.980273604
,business,0.923515081
,horizontal,0.923175812
,technology,0.902474165
,science,0.895183086
,focus,0.869459152
,time,0.868750393
,communication,0.853991985
,number,0.853851199
,indoors,0.839749575
,people,0.831479192
,finance,0.807824373
,data,0.785604835
,futuristic,0.778893113
,illustration,0.773467183
,radiography,0.771178961
,modern,0.771172881
,abstract,0.764500082
,text,0.758844733
,education,0.753144026
https://scontent.cdninstagram.com/t51.2885-15/e35/13181275_812851645515651_841544131_n.jpg,no person,0.988685131
,template,0.978779674
,label,0.97426331
,navigation,0.964156806
,graphic design,0.951155245
,layout,0.946741879
,stripe,0.933013797
,page,0.924909949
,identity,0.923423171
,data,0.914225578
,World Wide Web,0.911669612
,banner,0.900949359
,business,0.898202419
,presentation,0.890273631
,vector,0.865253925
,paper,0.863897085
,tag,0.855239868
,order,0.838893771
,set,0.8346138
,number,0.830495179
https://scontent.cdninstagram.com/t51.2885-15/e35/13248873_285004518502294_2057012265_n.jpg,furniture,0.998357415
,indoors,0.998340011
,room,0.997489691
,chair,0.99584651
,seat,0.995617867
,window,0.994827271
,interior design,0.99241966
,table,0.980720997
,contemporary,0.979791403
,lamp,0.976035297
,sofa,0.972495675
,luxury,0.954104066
,floor,0.952599645
,minimalist,0.945530891
,family,0.94235456
,lobby,0.931660175
,hotel,0.92527771
,modern,0.918634534
,home,0.917159557
,light,0.904065609
https://scontent.cdninstagram.com/t51.2885-15/e35/13259120_237893243241395_2101453633_n.jpg,cream,0.997829914
,cake,0.99089092
,no person,0.990518868
,sweet,0.989911079
,delicious,0.989899933
,sugar,0.98521769
,chocolate,0.984630466
,creamy,0.980743706
,pudding,0.96623075
,indulgence,0.965819597
,custard,0.961321712
,vanilla,0.949729979
,baking,0.946853995
,pastry,0.944082737
,mousse,0.941951573
,plate,0.940875292
,food,0.939307451
,strawberry,0.927992344
,bakery,0.924071789
,temptation,0.922073245
https://scontent.cdninstagram.com/t51.2885-15/sh0.08/e35/p640x640/13129409_613073722194009_1277034657_n.jpg,illustration,0.997288823
,vector,0.99143374
,vector,0.971527815
,label,0.967383981
,banner,0.953896582
,image,0.930446804
,symbol,0.911350787
,abstract,0.871430337
,design,0.866882622
,collection,0.863534272
,template,0.862664819
,modern,0.860281229
,desktop,0.854012966
,bill,0.828651488
,shape,0.825012565
,ball,0.81503129
,presentation,0.812190175
,decoration,0.806384087
,wheel,0.794441581
,text,0.78203094
https://scontent.cdninstagram.com/t51.2885-15/e35/13129742_1710662889204253_38878_n.jpg,illustration,0.957087457
,sketch,0.922441125
,sketch,0.910260677
,vector,0.910153389
,symbol,0.887919188
,desktop,0.870936096
,business,0.85348618
,technology,0.852588415
,graphic,0.846776009
,design,0.845223427
,people,0.828551292
,image,0.815955281
,man,0.81542933
,art,0.813845158
,paper,0.806269407
,scribble,0.802775204
,no person,0.797507465
,gear,0.785075188
,pencil,0.781931996
,education,0.736633062
https://scontent.cdninstagram.com/t51.2885-15/e35/13117788_807470789353044_903342569_n.jpg,train,0.999589324
,railway,0.998721302
,tube,0.998052001
,train,0.996424079
,tramway,0.992396295
,public,0.990581214
,transportation system,0.989417017
,tram,0.988797426
,station,0.978323102
,travel,0.967748761
,commuter,0.962841868
,bus,0.960126996
,vehicle,0.955827594
,no person,0.953817606
,city,0.944548607
,cable car,0.942976117
,indoors,0.936306894
,platform,0.928270102
,railway,0.925380588
,business,0.922092319
https://scontent.cdninstagram.com/t51.2885-15/e35/13129977_501391800071226_81918617_n.jpg,child,0.995945215
,portrait,0.992422998
,people,0.984533072
,woman,0.971578479
,girl,0.971555233
,facial expression,0.949905396
,wear,0.940170288
,daylight,0.913753092
,innocence,0.911224782
,outdoors,0.883275628
,one,0.880414367
,veil,0.865885377
,boy,0.849959373
,indoors,0.84063822
,adult,0.836110175
,enjoyment,0.814527571
,youth,0.766610384
,adolescent,0.733133554
,family,0.715064168
,happiness,0.712881744
https://scontent.cdninstagram.com/t51.2885-15/sh0.08/e35/p640x640/13129409_613073722194009_1277034657_n.jpg,illustration,0.997288823
,vector,0.99143374
,vector,0.971527815
,label,0.967383981
,banner,0.953896582
,image,0.930446804
,symbol,0.911350787
,abstract,0.871430337
,design,0.866882622
,collection,0.863534272
,template,0.862664819
,modern,0.860281229
,desktop,0.854012966
,bill,0.828651488
,shape,0.825012565
,ball,0.81503129
,presentation,0.812190175
,decoration,0.806384087
,wheel,0.794441581
,text,0.78203094
https://scontent.cdninstagram.com/t51.2885-15/e35/13167328_1404025783237903_506967175_n.jpg,woman,0.994991779
,hand,0.985711813
,people,0.982046068
,conceptual,0.953584433
,palm,0.95341301
,girl,0.953360558
,one,0.950137377
,adult,0.941381931
,stop,0.940725088
,touch,0.929128706
,support,0.915946484
,medicine,0.915650249
,indoors,0.910185814
,skin,0.903300524
,two,0.901182532
,aid,0.900167465
,finger,0.898965061
,child,0.879682779
,love,0.873239994
,healthcare,0.869392753
https://scontent.cdninstagram.com/t51.2885-15/e35/13129233_259669724382361_1868561644_n.jpg,vertical,0.980273604
,business,0.923515081
,horizontal,0.923175812
,technology,0.902474165
,science,0.895183086
,focus,0.869459152
,time,0.868750393
,communication,0.853991985
,number,0.853851199
,indoors,0.839749575
,people,0.831479192
,finance,0.807824373
,data,0.785604835
,futuristic,0.778893113
,illustration,0.773467183
,radiography,0.771178961
,modern,0.771172881
,abstract,0.764500082
,text,0.758844733
,education,0.753144026
https://scontent.cdninstagram.com/t51.2885-15/e35/13167325_548733541972264_1836871303_n.jpg,calendar,0.998777747
,time,0.99756521
,annual,0.996398449
,date,0.995370209
,monthly,0.994056702
,schedule,0.993771195
,planner,0.991281331
,almanac,0.991132438
,agenda,0.989461303
,daily,0.988638699
,diary,0.988420248
,reminder,0.979900599
,engagement,0.979274392
,diary,0.970881581
,business,0.956261158
,graph,0.951554418
,number,0.94523114
,no person,0.933409631
,page,0.92636174
,document,0.921505272
https://scontent.cdninstagram.com/t51.2885-15/e35/13099099_621778697975547_1170495945_n.jpg,adult,0.992790937
,people,0.990995526
,motion,0.983140051
,competition,0.978125513
,outdoors,0.940584421
,athlete,0.931374192
,sports equipment,0.92839694
,man,0.920887589
,wear,0.915491521
,child,0.911342978
,ball,0.896310449
,soccer,0.884499609
,fun,0.884070396
,sport,0.869651914
,stadium,0.869194269
,football,0.866746545
,uniform,0.861155868
,hurry,0.85301435
,portrait,0.831158996
,energy,0.830373526
https://scontent.cdninstagram.com/t51.2885-15/sh0.08/e35/p750x750/13116547_1684029318525683_1789066554_n.jpg,woman,0.993794322
,girl,0.98418355
,fashion,0.981074095
,portrait,0.977344394
,pretty,0.974459052
,cute,0.970720172
,eye,0.965074539
,young,0.964663744
,hair,0.962744653
,model,0.948030472
,skin,0.943000793
,beautiful,0.940879285
,glamour,0.936339259
,face,0.931473136
,sexy,0.927910507
,child,0.910823643
,people,0.907997608
,adolescent,0.903189778
,long,0.891865015
,lips,0.87803936
https://scontent.cdninstagram.com/t51.2885-15/sh0.08/e35/p750x750/13116547_1684029318525683_1789066554_n.jpg,woman,0.993794322
,girl,0.98418355
,fashion,0.981074095
,portrait,0.977344394
,pretty,0.974459052
,cute,0.970720172
,eye,0.965074539
,young,0.964663744
,hair,0.962744653
,model,0.948030472
,skin,0.943000793
,beautiful,0.940879285
,glamour,0.936339259
,face,0.931473136
,sexy,0.927910507
,child,0.910823643
,people,0.907997608
,adolescent,0.903189778
,long,0.891865015
,lips,0.87803936
https://scontent.cdninstagram.com/t51.2885-15/e35/13129977_501391800071226_81918617_n.jpg,child,0.995945215
,portrait,0.992422998
,people,0.984533072
,woman,0.971578479
,girl,0.971555233
,facial expression,0.949905396
,wear,0.940170288
,daylight,0.913753092
,innocence,0.911224782
,outdoors,0.883275628
,one,0.880414367
,veil,0.865885377
,boy,0.849959373
,indoors,0.84063822
,adult,0.836110175
,enjoyment,0.814527571
,youth,0.766610384
,adolescent,0.733133554
,family,0.715064168
,happiness,0.712881744
https://scontent.cdninstagram.com/t51.2885-15/e35/13098883_1074620262596654_1779239487_n.jpg,vector,0.994253814
,symbol,0.99134618
,image,0.982855916
,telephone,0.980465651
,flat,0.973647714
,internet,0.955736101
,pictogram,0.940947413
,lock,0.939413249
,clock,0.939249277
,microphone,0.931050301
,arrow,0.929886103
,set,0.926975608
,calculator,0.92508924
,application,0.922199488
,post,0.907300293
,sign,0.907171726
,monitor,0.898428202
,vector,0.892549515
,app,0.888369262
,speaker,0.881090283
https://scontent.cdninstagram.com/t51.2885-15/e35/13129569_971514809628731_2010577223_n.jpg,train,0.999949098
,railway,0.99989599
,tube,0.999686778
,train,0.999659002
,station,0.999045908
,public,0.998932362
,transportation system,0.998915672
,commuter,0.997903466
,tramway,0.996025026
,travel,0.993507147
,bus,0.99291265
,rider,0.989271998
,tram,0.989149213
,vehicle,0.984119177
,departure,0.983166337
,terminal,0.978610277
,wagon,0.978003621
,platform,0.972952127
,railway,0.967129827
,tube,0.960763872
https://scontent.cdninstagram.com/t51.2885-15/e35/13129569_971514809628731_2010577223_n.jpg,train,0.999949098
,railway,0.99989599
,tube,0.999686778
,train,0.999659002
,station,0.999045908
,public,0.998932362
,transportation system,0.998915672
,commuter,0.997903466
,tramway,0.996025026
,travel,0.993507147
,bus,0.99291265
,rider,0.989271998
,tram,0.989149213
,vehicle,0.984119177
,departure,0.983166337
,terminal,0.978610277
,wagon,0.978003621
,platform,0.972952127
,railway,0.967129827
,tube,0.960763872
https://scontent.cdninstagram.com/t51.2885-15/e35/13098883_1074620262596654_1779239487_n.jpg,vector,0.994253814
,symbol,0.99134618
,image,0.982855916
,telephone,0.980465651
,flat,0.973647714
,internet,0.955736101
,pictogram,0.940947413
,lock,0.939413249
,clock,0.939249277
,microphone,0.931050301
,arrow,0.929886103
,set,0.926975608
,calculator,0.92508924
,application,0.922199488
,post,0.907300293
,sign,0.907171726
,monitor,0.898428202
,vector,0.892549515
,app,0.888369262
,speaker,0.881090283
https://scontent.cdninstagram.com/t51.2885-15/e35/13129418_470724503133047_1878870283_n.jpg,child,0.998500586
,people,0.979309142
,wear,0.954511523
,indoors,0.952923059
,one,0.95105505
,cute,0.945869803
,innocence,0.945586681
,portrait,0.945346653
,woman,0.935691595
,little,0.935226142
,winter,0.932428062
,facial expression,0.9296875
,boy,0.907795668
,adolescent,0.899954438
,fun,0.886909008
,scarf,0.878782868
,leisure,0.855250776
,relaxation,0.844117403
,looking,0.839020252
,enjoyment,0.836509526
https://scontent.cdninstagram.com/t51.2885-15/e35/13167325_548733541972264_1836871303_n.jpg,calendar,0.998777747
,time,0.99756521
,annual,0.996398449
,date,0.995370209
,monthly,0.994056702
,schedule,0.993771195
,planner,0.991281331
,almanac,0.991132438
,agenda,0.989461303
,daily,0.988638699
,diary,0.988420248
,reminder,0.979900599
,engagement,0.979274392
,diary,0.970881581
,business,0.956261158
,graph,0.951554418
,number,0.94523114
,no person,0.933409631
,page,0.92636174
,document,0.921505272
https://scontent.cdninstagram.com/t51.2885-15/e35/13129418_470724503133047_1878870283_n.jpg,child,0.998500586
,people,0.979309142
,wear,0.954511523
,indoors,0.952923059
,one,0.95105505
,cute,0.945869803
,innocence,0.945586681
,portrait,0.945346653
,woman,0.935691595
,little,0.935226142
,winter,0.932428062
,facial expression,0.9296875
,boy,0.907795668
,adolescent,0.899954438
,fun,0.886909008
,scarf,0.878782868
,leisure,0.855250776
,relaxation,0.844117403
,looking,0.839020252
,enjoyment,0.836509526
