url,class,score,,,,,,,,
https://scontent-sit4-1.cdninstagram.com/t51.2885-15/e15/13277831_626801527469442_2015558_n.jpg,light,0.984929621219635,Entertainment,,,,Destinations,,,
,calamity,0.981048583984375,,,,,,,,
,car,0.9788105487823486,,,,,,,,
,vehicle,0.9745867252349854,,,,,,,,
,road,0.9704544544219971,,,,,,,,
,accident,0.9691614508628845,,,,,,,,
,offense,0.9676185846328735,,,,,,,,
,street,0.9614241123199463,,,,,,,,
,"transportation system",0.9584672451019287,,,,,,,,
,storm,0.9569876194000244,,,,,,,,
,police,0.9561861753463745,,,,,,,,
,people,0.9456393718719482,,,,,,,,
,city,0.941879153251648,,,,,,,,
,"no person",0.9394615888595581,,,,,,,,
,flood,0.9393343329429626,,,,,,,,
,weather,0.9286746978759766,,,,,,,,
,battle,0.9266210794448853,,,,,,,,
,rain,0.9204729795455933,,,,,,,,
,urban,0.9062458872795105,,,,,,,,
,blur,0.905724287033081,,,,,,,,
https://scontent-sit4-1.cdninstagram.com/t51.2885-15/e35/12424788_740939342709303_846273153_n.jpg,water,0.9939676523208618,Entertainment,,,,Destinations,,,
,"no person",0.9794979095458984,,,,,,,,
,lake,0.9788494110107422,,,,,,,,
,tree,0.9750956296920776,,,,,,,,
,river,0.9721478223800659,,,,,,,,
,travel,0.952937662601471,,,,,,,,
,landscape,0.943260908126831,,,,,,,,
,daylight,0.9393898844718933,,,,,,,,
,outdoors,0.9357231855392456,,,,,,,,
,sky,0.9322201609611511,,,,,,,,
,summer,0.9236413836479187,,,,,,,,
,nature,0.9154388904571533,,,,,,,,
,reflection,0.899836540222168,,,,,,,,
,recreation,0.8553005456924438,,,,,,,,
,watercraft,0.8524183034896851,,,,,,,,
,island,0.8513835668563843,,,,,,,,
,architecture,0.8109071254730225,,,,,,,,
,beach,0.8066226243972778,,,,,,,,
,city,0.7925204038619995,,,,,,,,
,seashore,0.7864476442337036,,,,,,,,
https://scontent-sit4-1.cdninstagram.com/t51.2885-15/e35/13118036_225417594505348_999332454_n.jpg,water,0.9943739175796509,"My life",Environment,,,"My world today","Natural beauty",,
,landscape,0.9905198812484741,,,,,,,,
,dawn,0.9900027513504028,,,,,,,,
,sunset,0.9856858253479004,,,,,,,,
,lake,0.9804592132568359,,,,,,,,
,beach,0.9696109294891357,,,,,,,,
,sea,0.9671932458877563,,,,,,,,
,river,0.9639939665794373,,,,,,,,
,fog,0.9582316875457764,,,,,,,,
,reflection,0.9573524594306946,,,,,,,,
,"no person",0.9519237875938416,,,,,,,,
,light,0.9383137226104736,,,,,,,,
,seashore,0.9321328997612,,,,,,,,
,evening,0.9299373626708984,,,,,,,,
,weather,0.9287148714065552,,,,,,,,
,sun,0.9285086989402771,,,,,,,,
,sky,0.9211351871490479,,,,,,,,
,ocean,0.9200844764709473,,,,,,,,
,storm,0.909363865852356,,,,,,,,
,tree,0.8967365026473999,,,,,,,,
https://scontent-sit4-1.cdninstagram.com/t51.2885-15/s750x750/sh0.08/e35/13167291_602225456598985_1402610116_n.jpg,child,0.9987473487854004,"My life",,,,Selfie,,,
,baby,0.987364649772644,,,,,,,,
,boy,0.9813168048858643,,,,,,,,
,cute,0.9770811796188354,,,,,,,,
,people,0.9764562249183655,,,,,,,,
,girl,0.9586302638053894,,,,,,,,
,family,0.951364278793335,,,,,,,,
,love,0.9455772042274475,,,,,,,,
,little,0.9412038326263428,,,,,,,,
,innocence,0.9370782971382141,,,,,,,,
,portrait,0.9230987429618835,,,,,,,,
,toddler,0.9222534894943237,,,,,,,,
,happiness,0.9201955795288086,,,,,,,,
,fun,0.9058071374893188,,,,,,,,
,togetherness,0.8790457248687744,,,,,,,,
,indoors,0.8648709058761597,,,,,,,,
,sit,0.861172080039978,,,,,,,,
,offspring,0.8573040962219238,,,,,,,,
,confection,0.8451626300811768,,,,,,,,
,joy,0.8248622417449951,,,,,,,,
https://scontent-sit4-1.cdninstagram.com/t51.2885-15/e35/10802581_955757644512753_986679875_n.jpg,food,0.9940509796142578,Food,,,,"Meal time",,,
,"no person",0.9933719635009766,,,,,,,,
,delicious,0.9800857901573181,,,,,,,,
,cream,0.9752398729324341,,,,,,,,
,"dairy product",0.9644476175308228,,,,,,,,
,fruit,0.9632993340492249,,,,,,,,
,creamy,0.9615838527679443,,,,,,,,
,sweet,0.9562406539916992,,,,,,,,
,grow,0.9397921562194824,,,,,,,,
,vanilla,0.9359419345855713,,,,,,,,
,plate,0.9198607206344604,,,,,,,,
,sugar,0.8964099884033203,,,,,,,,
,sauce,0.8843251466751099,,,,,,,,
,closeup,0.8787874579429626,,,,,,,,
,cooking,0.877307653427124,,,,,,,,
,baking,0.8758432865142822,,,,,,,,
,restaurant,0.8754572868347168,,,,,,,,
,cake,0.8738881349563599,,,,,,,,
,slice,0.868287205696106,,,,,,,,
,milk,0.8673955202102661,,,,,,,,
https://scontent-sit4-1.cdninstagram.com/t51.2885-15/e35/12747687_979027455478450_1684341602_n.jpg,food,0.9938936233520508,Food,,,,"Meal time",,,
,"no person",0.9811058044433594,,,,,,,,
,fruit,0.9698898196220398,,,,,,,,
,"still life",0.9671286344528198,,,,,,,,
,plate,0.9463379383087158,,,,,,,,
,sweet,0.9439064264297485,,,,,,,,
,drink,0.9377056956291199,,,,,,,,
,salt,0.9367262125015259,,,,,,,,
,glass,0.9363316297531128,,,,,,,,
,sugar,0.9225629568099976,,,,,,,,
,delicious,0.9200802445411682,,,,,,,,
,health,0.902527928352356,,,,,,,,
,luxury,0.8933499455451965,,,,,,,,
,dish,0.8907249569892883,,,,,,,,
,meal,0.881183385848999,,,,,,,,
,chocolate,0.8763024806976318,,,,,,,,
,healthy,0.8650858998298645,,,,,,,,
,"dairy product",0.8505104780197144,,,,,,,,
,grow,0.8487723469734192,,,,,,,,
,party,0.844624400138855,,,,,,,,
https://scontent-sit4-1.cdninstagram.com/t51.2885-15/e35/12976207_1075633092493903_1712673480_n.jpg,child,0.9988864660263062,Food,,,,"Meal time",,,
,indoors,0.9829872250556946,,,,,,,,
,boy,0.9820612072944641,,,,,,,,
,room,0.9719899892807007,,,,,,,,
,family,0.969719648361206,,,,,,,,
,togetherness,0.9692853689193726,,,,,,,,
,happiness,0.9666078090667725,,,,,,,,
,girl,0.9651795029640198,,,,,,,,
,people,0.9626976251602173,,,,,,,,
,offspring,0.9571040868759155,,,,,,,,
,woman,0.9462816715240479,,,,,,,,
,meal,0.9402590990066528,,,,,,,,
,sit,0.9350295662879944,,,,,,,,
,enjoyment,0.9315920472145081,,,,,,,,
,"facial expression",0.9302296042442322,,,,,,,,
,food,0.9284371137619019,,,,,,,,
,adult,0.9182165265083313,,,,,,,,
,furniture,0.916924238204956,,,,,,,,
,boy,0.9115030765533447,,,,,,,,
,fun,0.9099491834640503,,,,,,,,
https://scontent-sit4-1.cdninstagram.com/t51.2885-15/e35/12547394_1680567882213909_1882839421_n.jpg,business,0.9794490337371826,Commerce,,,,Promotions,,,
,"no person",0.9725502729415894,,,,,,,,
,finance,0.9160871505737305,,,,,,,,
,text,0.9113699197769165,,,,,,,,
,paper,0.9112192392349243,,,,,,,,
,communication,0.902454674243927,,,,,,,,
,money,0.889083981513977,,,,,,,,
,money,0.8851038813591003,,,,,,,,
,people,0.8794148564338684,,,,,,,,
,rally,0.866326093673706,,,,,,,,
,sign,0.848256528377533,,,,,,,,
,industry,0.846571147441864,,,,,,,,
,commerce,0.8377023935317993,,,,,,,,
,sale,0.8299208879470825,,,,,,,,
,wealth,0.8270480632781982,,,,,,,,
,travel,0.8161844611167908,,,,,,,,
,vertical,0.8064585328102112,,,,,,,,
,illustration,0.8028196692466736,,,,,,,,
,horizontal,0.8022710084915161,,,,,,,,
,technology,0.8021333813667297,,,,,,,,
https://scontent-sit4-1.cdninstagram.com/t51.2885-15/e35/12907200_1672956266311579_708669099_n.jpg,water,0.9971608519554138,Environment,,,,"Natural beauty",,,
,river,0.9829939603805542,,,,,,,,
,watercraft,0.9828723669052124,,,,,,,,
,landscape,0.9827637672424316,,,,,,,,
,tree,0.9779157638549805,,,,,,,,
,lake,0.9756174087524414,,,,,,,,
,travel,0.9741008877754211,,,,,,,,
,"no person",0.9738487005233765,,,,,,,,
,vehicle,0.952337384223938,,,,,,,,
,reflection,0.947729229927063,,,,,,,,
,sea,0.9465677738189697,,,,,,,,
,boat,0.9435663223266602,,,,,,,,
,seashore,0.9434390068054199,,,,,,,,
,"transportation system",0.9428711533546448,,,,,,,,
,sky,0.9297458529472351,,,,,,,,
,daylight,0.9186082482337952,,,,,,,,
,outdoors,0.9153223037719727,,,,,,,,
,environment,0.9057363271713257,,,,,,,,
,island,0.8922337293624878,,,,,,,,
,nature,0.8880861401557922,,,,,,,,
https://scontent-sit4-1.cdninstagram.com/t51.2885-15/e35/12145108_205744123122641_1611058444_n.jpg,blur,0.9481915831565857,Relationships,,,,"Best friends",,,
,people,0.9324387907981873,,,,,,,,
,rain,0.9280532598495483,,,,,,,,
,abstract,0.9237829446792603,,,,,,,,
,paper,0.9210439920425415,,,,,,,,
,art,0.8976833820343018,,,,,,,,
,motion,0.8864963054656982,,,,,,,,
,"no person",0.8833713531494141,,,,,,,,
,indoors,0.879175066947937,,,,,,,,
,outdoors,0.8770942091941833,,,,,,,,
,travel,0.8731564879417419,,,,,,,,
,adult,0.8713194131851196,,,,,,,,
,street,0.8684749603271484,,,,,,,,
,wear,0.8616065979003906,,,,,,,,
,man,0.8569654226303101,,,,,,,,
,canvas,0.856365978717804,,,,,,,,
,painting,0.8393926024436951,,,,,,,,
,color,0.8376600742340088,,,,,,,,
,urban,0.8365678787231445,,,,,,,,
,landscape,0.8334132432937622,,,,,,,,
https://scontent-sit4-1.cdninstagram.com/t51.2885-15/e35/12724796_437634363092797_1761898560_n.jpg,milk,0.9919652938842773,Food,,,,Dessert,,,
,egg,0.9900882244110107,,,,,,,,
,breakfast,0.9874579310417175,,,,,,,,
,"no person",0.982606053352356,,,,,,,,
,food,0.981390118598938,,,,,,,,
,coffee,0.9649100303649902,,,,,,,,
,cup,0.9633091688156128,,,,,,,,
,bowl,0.9407252073287964,,,,,,,,
,dawn,0.9379324316978455,,,,,,,,
,delicious,0.9377772808074951,,,,,,,,
,ingredients,0.9270734190940857,,,,,,,,
,"egg yolk",0.9229840040206909,,,,,,,,
,nutrition,0.9159982800483704,,,,,,,,
,health,0.9074001312255859,,,,,,,,
,cooking,0.901974081993103,,,,,,,,
,drink,0.898216962814331,,,,,,,,
,wood,0.8980687260627747,,,,,,,,
,sweet,0.8918125629425049,,,,,,,,
,healthy,0.8790619373321533,,,,,,,,
,butter,0.8786916732788086,,,,,,,,
https://scontent-sit4-1.cdninstagram.com/t51.2885-15/e35/12362574_450712578470350_820592622_n.jpg,business,0.9227858781814575,Food,,,,Dessert,,,
,"no person",0.9170439839363098,,,,,,,,
,indoors,0.9132489562034607,,,,,,,,
,paper,0.912496030330658,,,,,,,,
,child,0.9060407876968384,,,,,,,,
,Christmas,0.8997670412063599,,,,,,,,
,internet,0.8957816362380981,,,,,,,,
,ball-shaped,0.8927083611488342,,,,,,,,
,woman,0.8924747705459595,,,,,,,,
,wood,0.8834794759750366,,,,,,,,
,people,0.8803079128265381,,,,,,,,
,food,0.8724104166030884,,,,,,,,
,writing,0.8670184016227722,,,,,,,,
,connection,0.8613317608833313,,,,,,,,
,one,0.8575457334518433,,,,,,,,
,sphere,0.8563203811645508,,,,,,,,
,spherical,0.8502875566482544,,,,,,,,
,electronics,0.8427181839942932,,,,,,,,
,contemporary,0.835485577583313,,,,,,,,
,technology,0.8353657722473145,,,,,,,,
https://scontent-sit4-1.cdninstagram.com/t51.2885-15/e35/12797672_799530936818337_1105359660_n.jpg,"no person",0.9939489364624023,Food,,,,"Meal time",,,
,food,0.9876967668533325,,,,,,,,
,dumpling,0.9733232259750366,,,,,,,,
,dough,0.9685772657394409,,,,,,,,
,flour,0.956771969795227,,,,,,,,
,cooking,0.9442204833030701,,,,,,,,
,delicious,0.9321289658546448,,,,,,,,
,sugar,0.9200783967971802,,,,,,,,
,homemade,0.9179784059524536,,,,,,,,
,baking,0.9143394231796265,,,,,,,,
,sweet,0.8949968814849854,,,,,,,,
,wood,0.8924756646156311,,,,,,,,
,round,0.8881704211235046,,,,,,,,
,"still life",0.8852015733718872,,,,,,,,
,traditional,0.8799813985824585,,,,,,,,
,bamboo,0.8696938157081604,,,,,,,,
,"dairy product",0.8643910884857178,,,,,,,,
,milk,0.846262514591217,,,,,,,,
,steamer,0.8459262251853943,,,,,,,,
,grow,0.800674557685852,,,,,,,,
https://scontent-sit4-1.cdninstagram.com/t51.2885-15/s750x750/sh0.08/e35/12357619_1667398106863075_142932977_n.jpg,child,0.9964972138404846,Relationships,,,,Friends,,,
,people,0.9900137186050415,,,,,,,,
,family,0.9870638847351074,,,,,,,,
,home,0.9682430028915405,,,,,,,,
,environment,0.9668731689453125,,,,,,,,
,adult,0.9635804295539856,,,,,,,,
,group,0.9601181745529175,,,,,,,,
,man,0.959486722946167,,,,,,,,
,daylight,0.9574611186981201,,,,,,,,
,landscape,0.9522171020507812,,,,,,,,
,outdoors,0.9458801746368408,,,,,,,,
,wood,0.9354813098907471,,,,,,,,
,boy,0.9351422786712646,,,,,,,,
,road,0.9338247776031494,,,,,,,,
,three,0.9330123066902161,,,,,,,,
,tree,0.9224855899810791,,,,,,,,
,calamity,0.921433687210083,,,,,,,,
,woman,0.9192119240760803,,,,,,,,
,religion,0.9111502766609192,,,,,,,,
,park,0.9080816507339478,,,,,,,,
https://scontent-sit4-1.cdninstagram.com/t51.2885-15/e35/12783894_970937782987456_114359430_n.jpg,document,0.9840397238731384,Arts,,,,Motivational,,,
,number,0.9783713221549988,,,,,,,,
,paper,0.9777476787567139,,,,,,,,
,business,0.9773104786872864,,,,,,,,
,annual,0.9755805730819702,,,,,,,,
,time,0.9703080654144287,,,,,,,,
,"no person",0.9682983756065369,,,,,,,,
,page,0.9569070339202881,,,,,,,,
,form,0.951176106929779,,,,,,,,
,text,0.9385859370231628,,,,,,,,
,data,0.9280835390090942,,,,,,,,
,law,0.9244118928909302,,,,,,,,
,schedule,0.9137669801712036,,,,,,,,
,calendar,0.9096769094467163,,,,,,,,
,data,0.8982861042022705,,,,,,,,
,administration,0.8853473663330078,,,,,,,,
,money,0.8483527302742004,,,,,,,,
,study,0.8421789407730103,,,,,,,,
,horizontal,0.8276339769363403,,,,,,,,
,sign,0.8247050046920776,,,,,,,,
https://scontent-sit4-1.cdninstagram.com/t51.2885-15/e35/12677600_185670891797967_1539373570_n.jpg,water,0.9949662089347839,Environment,,,,"Natural beauty",,,
,river,0.9934006333351135,,,,,,,,
,"no person",0.9902715682983398,,,,,,,,
,lake,0.9862481355667114,,,,,,,,
,landscape,0.9828147888183594,,,,,,,,
,tree,0.980019211769104,,,,,,,,
,travel,0.9706584215164185,,,,,,,,
,nature,0.9682478904724121,,,,,,,,
,reflection,0.9677568674087524,,,,,,,,
,sky,0.9618083834648132,,,,,,,,
,canal,0.9582004547119141,,,,,,,,
,bridge,0.956096351146698,,,,,,,,
,outdoors,0.9433423280715942,,,,,,,,
,wood,0.9240753650665283,,,,,,,,
,grass,0.8860398530960083,,,,,,,,
,summer,0.8765753507614136,,,,,,,,
,rain,0.8602768182754517,,,,,,,,
,pool,0.8388276100158691,,,,,,,,
,cloud,0.8372739553451538,,,,,,,,
,riverbank,0.82079017162323,,,,,,,,
https://scontent-sit4-1.cdninstagram.com/t51.2885-15/e35/13774894_1665000363821525_710272088_n.jpg,hijab,0.999066174030304,Relationships,,,,Friends,,,
,headscarf,0.9972241520881653,,,,,,,,
,woman,0.9897686839103699,,,,,,,,
,veil,0.9875578880310059,,,,,,,,
,scarf,0.9728195667266846,,,,,,,,
,girl,0.9490007758140564,,,,,,,,
,portrait,0.9489263296127319,,,,,,,,
,traditional,0.9346632361412048,,,,,,,,
,people,0.9318364262580872,,,,,,,,
,child,0.9266597628593445,,,,,,,,
,"facial expression",0.9080944061279297,,,,,,,,
,fun,0.892236590385437,,,,,,,,
,wear,0.8900686502456665,,,,,,,,
,happiness,0.8865387439727783,,,,,,,,
,laughing,0.8749383687973022,,,,,,,,
,love,0.8633381724357605,,,,,,,,
,adult,0.8557606935501099,,,,,,,,
,young,0.8485910892486572,,,,,,,,
,cute,0.8441450595855713,,,,,,,,
,religion,0.8379243612289429,,,,,,,,
https://scontent-sit4-1.cdninstagram.com/l/t51.2885-15/e35/1390268_958141424270189_523753668_n.jpg,woman,0.974231481552124,Commerce,,,,Promotions,,,
,paper,0.9578036069869995,,,,,,,,
,people,0.9405907988548279,,,,,,,,
,man,0.9314093589782715,,,,,,,,
,child,0.9011213779449463,,,,,,,,
,family,0.8679131269454956,,,,,,,,
,box,0.8451153039932251,,,,,,,,
,indoors,0.8436288833618164,,,,,,,,
,togetherness,0.8335942029953003,,,,,,,,
,adolescent,0.7919284105300903,,,,,,,,
,service,0.7847691178321838,,,,,,,,
,business,0.7789492607116699,,,,,,,,
,portrait,0.77820885181427,,,,,,,,
,winter,0.7778811454772949,,,,,,,,
,love,0.7726516127586365,,,,,,,,
,adult,0.7687814831733704,,,,,,,,
,education,0.7676771283149719,,,,,,,,
,retro,0.7632640600204468,,,,,,,,
,bill,0.755710244178772,,,,,,,,
,card,0.7502570152282715,,,,,,,,
https://scontent-sit4-1.cdninstagram.com/t51.2885-15/e35/12317351_805162282962769_1127391582_n.jpg,street,0.9886157512664795,"My life",,,,"My world today",,,
,road,0.9881196022033691,,,,,,,,
,"transportation system",0.9786405563354492,,,,,,,,
,city,0.9738798141479492,,,,,,,,
,vehicle,0.9718413352966309,,,,,,,,
,travel,0.9708513021469116,,,,,,,,
,car,0.9700158834457397,,,,,,,,
,"no person",0.9598004817962646,,,,,,,,
,outdoors,0.9458308219909668,,,,,,,,
,urban,0.9367780089378357,,,,,,,,
,traffic,0.9346847534179688,,,,,,,,
,landscape,0.92436683177948,,,,,,,,
,bus,0.9163755774497986,,,,,,,,
,town,0.9157770872116089,,,,,,,,
,sky,0.9056026935577393,,,,,,,,
,building,0.8950258493423462,,,,,,,,
,tree,0.8777532577514648,,,,,,,,
,architecture,0.8574841022491455,,,,,,,,
,business,0.856151819229126,,,,,,,,
,tourism,0.8414442539215088,,,,,,,,
https://scontent-sit4-1.cdninstagram.com/t51.2885-15/e35/12356556_1518595218438062_508310417_n.jpg,sign,0.9870960712432861,Commerce,,,,Commerce-s,,,
,street,0.9623057842254639,,,,,,,,
,sign,0.9565609693527222,,,,,,,,
,text,0.9497768878936768,,,,,,,,
,sign,0.9446794390678406,,,,,,,,
,road,0.9240872859954834,,,,,,,,
,people,0.9203234910964966,,,,,,,,
,bill,0.9116496443748474,,,,,,,,
,business,0.9026319980621338,,,,,,,,
,information,0.9017565250396729,,,,,,,,
,message,0.8983149528503418,,,,,,,,
,symbol,0.8791738748550415,,,,,,,,
,offense,0.8679524660110474,,,,,,,,
,message,0.8587328195571899,,,,,,,,
,arrow,0.8574652671813965,,,,,,,,
,building,0.8467627167701721,,,,,,,,
,education,0.8394942283630371,,,,,,,,
,city,0.8347983360290527,,,,,,,,
,vintage,0.8240008354187012,,,,,,,,
,communication,0.8186545372009277,,,,,,,,
https://scontent-sit4-1.cdninstagram.com/t51.2885-15/e35/13551675_1560080237629900_1918848677_n.jpg,label,0.966081976890564,Commerce,,,,"Product/brand shots",,,
,symbol,0.9323688745498657,,,,,,,,
,medicine,0.9199687242507935,,,,,,,,
,"no person",0.912943959236145,,,,,,,,
,illustration,0.870815634727478,,,,,,,,
,bottle,0.8516825437545776,,,,,,,,
,sign,0.8498153686523438,,,,,,,,
,treatment,0.8451967239379883,,,,,,,,
,box,0.8449026346206665,,,,,,,,
,wood,0.8432108163833618,,,,,,,,
,packaging,0.8420568704605103,,,,,,,,
,cure,0.8371115326881409,,,,,,,,
,care,0.8288394212722778,,,,,,,,
,health,0.8065142631530762,,,,,,,,
,sign,0.7998379468917847,,,,,,,,
,desktop,0.7925591468811035,,,,,,,,
,business,0.7909326553344727,,,,,,,,
,vector,0.7808936238288879,,,,,,,,
,healthcare,0.7747853994369507,,,,,,,,
,warning,0.76101154088974,,,,,,,,
https://scontent-sit4-1.cdninstagram.com/t51.2885-15/e35/12346132_1528144500845075_611119911_n.jpg,illustration,0.9650497436523438,Undefined,,,,Undefined,,,
,symbol,0.9586890339851379,,,,,,,,
,vector,0.9445618391036987,,,,,,,,
,art,0.9235487580299377,,,,,,,,
,people,0.9134973287582397,,,,,,,,
,image,0.9085227847099304,,,,,,,,
,sign,0.9049570560455322,,,,,,,,
,leisure,0.903038740158081,,,,,,,,
,silhouette,0.9017626047134399,,,,,,,,
,retro,0.8991842269897461,,,,,,,,
,design,0.8960978984832764,,,,,,,,
,shape,0.8826916813850403,,,,,,,,
,desktop,0.8796838521957397,,,,,,,,
,poker,0.8660870790481567,,,,,,,,
,graphic,0.8640892505645752,,,,,,,,
,man,0.8618507981300354,,,,,,,,
,recreation,0.8539601564407349,,,,,,,,
,"no person",0.846747636795044,,,,,,,,
,luck,0.8437957763671875,,,,,,,,
,card,0.8434923887252808,,,,,,,,
https://scontent-sit4-1.cdninstagram.com/t51.2885-15/e35/13694884_541597009374900_1118055520_n.jpg,wheel,0.9999437928199768,Commerce,,,,"Product/brand shots",,,
,bike,0.9991303086280823,,,,,,,,
,bicycle,0.9924869537353516,,,,,,,,
,cyclist,0.9905540347099304,,,,,,,,
,"transportation system",0.9796823263168335,,,,,,,,
,wheel,0.9723637104034424,,,,,,,,
,spoke,0.9572504758834839,,,,,,,,
,biker,0.9450880289077759,,,,,,,,
,vehicle,0.9442956447601318,,,,,,,,
,saddle,0.9353013038635254,,,,,,,,
,handlebar,0.9270710945129395,,,,,,,,
,seat,0.901044487953186,,,,,,,,
,"no person",0.8844192624092102,,,,,,,,
,equipment,0.8840416669845581,,,,,,,,
,sitting,0.8832694292068481,,,,,,,,
,road,0.8829300403594971,,,,,,,,
,pedal,0.8805036544799805,,,,,,,,
,recreation,0.8575725555419922,,,,,,,,
,brake,0.8429350852966309,,,,,,,,
,people,0.8365993499755859,,,,,,,,
https://scontent-sit4-1.cdninstagram.com/t51.2885-15/e35/12328525_1751508435083513_1345781622_n.jpg,"no person",0.9916647672653198,Food,,,,"Meal time",,,
,food,0.9904254674911499,,,,,,,,
,baking,0.9749621748924255,,,,,,,,
,meal,0.9348037242889404,,,,,,,,
,delicious,0.9346633553504944,,,,,,,,
,chicken,0.9249259829521179,,,,,,,,
,pastry,0.9228949546813965,,,,,,,,
,dinner,0.9197903871536255,,,,,,,,
,oven,0.9106452465057373,,,,,,,,
,cooking,0.9091958999633789,,,,,,,,
,meat,0.907057523727417,,,,,,,,
,dough,0.8947972059249878,,,,,,,,
,poultry,0.893336296081543,,,,,,,,
,"frying pan",0.8852086067199707,,,,,,,,
,bakery,0.88506019115448,,,,,,,,
,pan,0.8830909729003906,,,,,,,,
,lunch,0.8830300569534302,,,,,,,,
,hot,0.8792362213134766,,,,,,,,
,cuisine,0.872197151184082,,,,,,,,
,breakfast,0.8644812107086182,,,,,,,,
https://scontent-sit4-1.cdninstagram.com/l/t51.2885-15/e35/12356476_1544559035856706_1878567812_n.jpg,woman,0.9871964454650879,Relationships,,,,"Best friends",,,
,togetherness,0.9618233442306519,,,,,,,,
,education,0.9584951400756836,,,,,,,,
,indoors,0.9539002180099487,,,,,,,,
,man,0.9439606666564941,,,,,,,,
,child,0.9290229082107544,,,,,,,,
,multicultural,0.9229624271392822,,,,,,,,
,people,0.9080374240875244,,,,,,,,
,family,0.8924604654312134,,,,,,,,
,love,0.8881262540817261,,,,,,,,
,sit,0.887313961982727,,,,,,,,
,adolescent,0.8872991800308228,,,,,,,,
,college,0.8777056336402893,,,,,,,,
,student,0.8746941089630127,,,,,,,,
,school,0.872582197189331,,,,,,,,
,horizontal,0.859024167060852,,,,,,,,
,university,0.8549171090126038,,,,,,,,
,two,0.8513457775115967,,,,,,,,
,adult,0.8385798931121826,,,,,,,,
,casual,0.8132822513580322,,,,,,,,
https://scontent-sit4-1.cdninstagram.com/t51.2885-15/e35/1530872_906667682785132_1075939590_n.jpg,"no person",0.9948744177818298,Environment,,,,"Natural beauty",,,
,landscape,0.9941454529762268,,,,,,,,
,water,0.9938963651657104,,,,,,,,
,lake,0.9884441494941711,,,,,,,,
,river,0.9871659874916077,,,,,,,,
,tree,0.9757133722305298,,,,,,,,
,outdoors,0.9538459777832031,,,,,,,,
,travel,0.9476118087768555,,,,,,,,
,daylight,0.9456255435943604,,,,,,,,
,golf,0.9380948543548584,,,,,,,,
,reflection,0.9181957244873047,,,,,,,,
,nature,0.9133142232894897,,,,,,,,
,sky,0.9083399772644043,,,,,,,,
,park,0.8976680040359497,,,,,,,,
,pool,0.8976471424102783,,,,,,,,
,fog,0.8894898891448975,,,,,,,,
,mist,0.8860365152359009,,,,,,,,
,dawn,0.874565839767456,,,,,,,,
,wood,0.8663599491119385,,,,,,,,
,scenic,0.8652893304824829,,,,,,,,
https://scontent-sit4-1.cdninstagram.com/t51.2885-15/e35/13329006_699753656829346_1858901273_n.jpg,"no person",0.9938291311264038,Commerce,,,,"Product/brand shots",,,
,water,0.9915387630462646,,,,,,,,
,travel,0.9856743812561035,,,,,,,,
,wood,0.9846115112304688,,,,,,,,
,seat,0.9735535383224487,,,,,,,,
,chair,0.9636683464050293,,,,,,,,
,leisure,0.9562799334526062,,,,,,,,
,summer,0.9554345607757568,,,,,,,,
,outdoors,0.9528186321258545,,,,,,,,
,recreation,0.9416313171386719,,,,,,,,
,pier,0.9380249977111816,,,,,,,,
,sea,0.9362286329269409,,,,,,,,
,"transportation system",0.9159548282623291,,,,,,,,
,ocean,0.9113763570785522,,,,,,,,
,luxury,0.9086416363716125,,,,,,,,
,lake,0.9072885513305664,,,,,,,,
,daylight,0.8988083600997925,,,,,,,,
,relaxation,0.8958700895309448,,,,,,,,
,vacation,0.894281268119812,,,,,,,,
,wooden,0.8915015459060669,,,,,,,,
https://scontent-sit4-1.cdninstagram.com/t51.2885-15/e35/13260874_1716578291933499_384008509_n.jpg,food,0.9985142350196838,Food,,,,"Meal time",,,
,rice,0.9929560422897339,,,,,,,,
,vegetable,0.9907952547073364,,,,,,,,
,dinner,0.9851694107055664,,,,,,,,
,meal,0.9847362041473389,,,,,,,,
,dish,0.9823336601257324,,,,,,,,
,plate,0.9732672572135925,,,,,,,,
,cuisine,0.973064661026001,,,,,,,,
,lunch,0.9717513918876648,,,,,,,,
,bowl,0.9551099538803101,,,,,,,,
,cooking,0.9476667046546936,,,,,,,,
,delicious,0.9467201828956604,,,,,,,,
,pepper,0.9454036951065063,,,,,,,,
,hot,0.9429644346237183,,,,,,,,
,restaurant,0.9415162801742554,,,,,,,,
,meat,0.9403186440467834,,,,,,,,
,healthy,0.9306584000587463,,,,,,,,
,epicure,0.9240396022796631,,,,,,,,
,tasty,0.9190720319747925,,,,,,,,
,diet,0.9178335666656494,,,,,,,,
https://scontent-sit4-1.cdninstagram.com/t51.2885-15/e35/12353823_769888276450433_1217765143_n.jpg,food,0.9976491332054138,Food,,,,Dessert,,,
,"no person",0.9938044548034668,,,,,,,,
,grow,0.9903537034988403,,,,,,,,
,sugar,0.9678651690483093,,,,,,,,
,sweet,0.9676817059516907,,,,,,,,
,cream,0.9601380825042725,,,,,,,,
,plate,0.956730842590332,,,,,,,,
,dish,0.9477214813232422,,,,,,,,
,fruit,0.9432926177978516,,,,,,,,
,fish,0.9406002163887024,,,,,,,,
,delicious,0.9361262321472168,,,,,,,,
,"dairy product",0.9350793361663818,,,,,,,,
,"still life",0.9290734529495239,,,,,,,,
,cake,0.9283638000488281,,,,,,,,
,slice,0.9215513467788696,,,,,,,,
,health,0.9175819754600525,,,,,,,,
,chocolate,0.9153923988342285,,,,,,,,
,vegetable,0.9067082405090332,,,,,,,,
,seafood,0.8937270045280457,,,,,,,,
,herb,0.8903470039367676,,,,,,,,
https://scontent-sit4-1.cdninstagram.com/t51.2885-15/e35/925706_243556159320182_1186987209_n.jpg,office,0.9930593967437744,Environment,"My life",,,"Manmade beauty","My world today",,
,architecture,0.9916309118270874,,,,,,,,
,business,0.9911187291145325,,,,,,,,
,city,0.9882788062095642,,,,,,,,
,downtown,0.9862697124481201,,,,,,,,
,building,0.9839584827423096,,,,,,,,
,skyscraper,0.9785547256469727,,,,,,,,
,sky,0.9781503081321716,,,,,,,,
,modern,0.9745280742645264,,,,,,,,
,window,0.9740846157073975,,,,,,,,
,tallest,0.9686651229858398,,,,,,,,
,urban,0.9673773050308228,,,,,,,,
,finance,0.9609168767929077,,,,,,,,
,glass,0.9608579874038696,,,,,,,,
,"no person",0.9511023759841919,,,,,,,,
,cityscape,0.9299020767211914,,,,,,,,
,tower,0.9291811585426331,,,,,,,,
,high,0.9226230382919312,,,,,,,,
,outdoors,0.9214262962341309,,,,,,,,
,contemporary,0.9190988540649414,,,,,,,,
https://scontent-sit4-1.cdninstagram.com/t51.2885-15/e35/12819061_1532632910366620_962915683_n.jpg,water,0.9979054927825928,Environment,,,,"Manmade beauty",,,
,bridge,0.9964550733566284,,,,,,,,
,"no person",0.9912625551223755,,,,,,,,
,pier,0.9912281036376953,,,,,,,,
,travel,0.9814146757125854,,,,,,,,
,river,0.9754352569580078,,,,,,,,
,sunset,0.9697346687316895,,,,,,,,
,sky,0.9633680582046509,,,,,,,,
,architecture,0.9561076164245605,,,,,,,,
,outdoors,0.9475658535957336,,,,,,,,
,city,0.9472049474716187,,,,,,,,
,dawn,0.9438529014587402,,,,,,,,
,lake,0.9362640976905823,,,,,,,,
,sea,0.932916522026062,,,,,,,,
,"transportation system",0.93101966381073,,,,,,,,
,light,0.9213370084762573,,,,,,,,
,jetty,0.9212856292724609,,,,,,,,
,reflection,0.919226884841919,,,,,,,,
,harbor,0.914555549621582,,,,,,,,
,landscape,0.9002025127410889,,,,,,,,
https://scontent-sit4-1.cdninstagram.com/t51.2885-15/e35/12558849_162088270833677_859592452_n.jpg,water,0.9944257736206055,Environment,,,,"Manmade beauty",,,
,river,0.989829421043396,,,,,,,,
,landscape,0.9825441837310791,,,,,,,,
,bridge,0.9801307916641235,,,,,,,,
,travel,0.972843587398529,,,,,,,,
,nature,0.9707956910133362,,,,,,,,
,tree,0.9640169143676758,,,,,,,,
,"no person",0.9630451202392578,,,,,,,,
,wood,0.9601576924324036,,,,,,,,
,fall,0.9600212574005127,,,,,,,,
,sky,0.9431180953979492,,,,,,,,
,outdoors,0.9268583059310913,,,,,,,,
,canal,0.9210268259048462,,,,,,,,
,reflection,0.9157636165618896,,,,,,,,
,house,0.9096553325653076,,,,,,,,
,lake,0.9069710373878479,,,,,,,,
,architecture,0.9003059267997742,,,,,,,,
,scenic,0.884501576423645,,,,,,,,
,building,0.8785198926925659,,,,,,,,
,winter,0.8774335384368896,,,,,,,,
https://scontent-sit4-1.cdninstagram.com/t51.2885-15/e35/12556118_214850558857456_462955658_n.jpg,paper,0.9753237366676331,Commerce,,,,Promotions,,,
,business,0.9647626876831055,,,,,,,,
,money,0.9460114240646362,,,,,,,,
,card,0.9314651489257812,,,,,,,,
,text,0.9312623739242554,,,,,,,,
,"no person",0.9302711486816406,,,,,,,,
,finance,0.8994489908218384,,,,,,,,
,success,0.8772733807563782,,,,,,,,
,symbol,0.8536679744720459,,,,,,,,
,desktop,0.8510611057281494,,,,,,,,
,wealth,0.8495750427246094,,,,,,,,
,financial,0.8241037130355835,,,,,,,,
,box,0.8227596282958984,,,,,,,,
,note,0.815081000328064,,,,,,,,
,luck,0.794594407081604,,,,,,,,
,money,0.7944210171699524,,,,,,,,
,cash,0.7860230207443237,,,,,,,,
,market,0.7815195322036743,,,,,,,,
,sign,0.7562140822410583,,,,,,,,
,commerce,0.7344077825546265,,,,,,,,
https://scontent-sit4-1.cdninstagram.com/t51.2885-15/e35/12407425_200167460337415_531490800_n.jpg,paper,0.9633527994155884,Commerce,,,,Promotions,,,
,business,0.9601001143455505,,,,,,,,
,illustration,0.9332742691040039,,,,,,,,
,"no person",0.9219940900802612,,,,,,,,
,text,0.8623710870742798,,,,,,,,
,technology,0.8267641663551331,,,,,,,,
,desktop,0.8222635984420776,,,,,,,,
,data,0.8192577362060547,,,,,,,,
,card,0.811365008354187,,,,,,,,
,symbol,0.8015520572662354,,,,,,,,
,image,0.8010181188583374,,,,,,,,
,identity,0.799146294593811,,,,,,,,
,document,0.7919102907180786,,,,,,,,
,finance,0.776452898979187,,,,,,,,
,data,0.7695873975753784,,,,,,,,
,abstract,0.7630326747894287,,,,,,,,
,shopping,0.7588945627212524,,,,,,,,
,design,0.7406469583511353,,,,,,,,
,money,0.7391822934150696,,,,,,,,
,internet,0.7219061851501465,,,,,,,,
https://scontent-sit4-1.cdninstagram.com/t51.2885-15/e35/13269524_1740593132849429_533776115_n.jpg,child,0.9993046522140503,"My life",,,,Selfie,,,
,baby,0.9964406490325928,,,,,,,,
,little,0.9843282699584961,,,,,,,,
,cute,0.9838149547576904,,,,,,,,
,innocence,0.98182213306427,,,,,,,,
,toddler,0.9741225242614746,,,,,,,,
,boy,0.9707459211349487,,,,,,,,
,portrait,0.968377947807312,,,,,,,,
,people,0.9608686566352844,,,,,,,,
,one,0.9355573654174805,,,,,,,,
,girl,0.9339398145675659,,,,,,,,
,fun,0.9321126937866211,,,,,,,,
,confection,0.9277558922767639,,,,,,,,
,newborn,0.925199031829834,,,,,,,,
,family,0.914915919303894,,,,,,,,
,adorable,0.9041029214859009,,,,,,,,
,happiness,0.8769369721412659,,,,,,,,
,offspring,0.8553614616394043,,,,,,,,
,joy,0.8528249859809875,,,,,,,,
,precious,0.833127498626709,,,,,,,,
https://scontent-sit4-1.cdninstagram.com/t51.2885-15/e35/12950379_268901186779711_540212971_n.jpg,food,0.9960576891899109,Food,,,,"Meal time",,,
,"no person",0.9893379211425781,,,,,,,,
,refreshment,0.9669021964073181,,,,,,,,
,delicious,0.9428843259811401,,,,,,,,
,meal,0.9388437271118164,,,,,,,,
,cooking,0.9271669983863831,,,,,,,,
,tasty,0.9265692830085754,,,,,,,,
,desktop,0.9220737218856812,,,,,,,,
,cuisine,0.9201909303665161,,,,,,,,
,closeup,0.9199228286743164,,,,,,,,
,plate,0.9128679037094116,,,,,,,,
,healthy,0.9090878963470459,,,,,,,,
,dish,0.9079772233963013,,,,,,,,
,sweet,0.9027729034423828,,,,,,,,
,homemade,0.8968161344528198,,,,,,,,
,traditional,0.8947854042053223,,,,,,,,
,meat,0.8842929601669312,,,,,,,,
,fruit,0.882439136505127,,,,,,,,
,dinner,0.8802850246429443,,,,,,,,
,nutrition,0.8782573938369751,,,,,,,,
https://scontent-sit4-1.cdninstagram.com/t51.2885-15/e35/12935108_1251018614926439_230517860_n.jpg,people,0.9797288179397583,Commerce,,,,Promotions,,,
,woman,0.9745604991912842,,,,,,,,
,outdoors,0.9559710025787354,,,,,,,,
,shopping,0.9147207736968994,,,,,,,,
,education,0.9125972986221313,,,,,,,,
,portrait,0.8928881883621216,,,,,,,,
,adult,0.8902935981750488,,,,,,,,
,family,0.8801735639572144,,,,,,,,
,leisure,0.8722821474075317,,,,,,,,
,enjoyment,0.8485380411148071,,,,,,,,
,one,0.8411237001419067,,,,,,,,
,street,0.8305093050003052,,,,,,,,
,business,0.8296719789505005,,,,,,,,
,school,0.8231877088546753,,,,,,,,
,wear,0.8197647929191589,,,,,,,,
,stock,0.8180543184280396,,,,,,,,
,coffee,0.8173210620880127,,,,,,,,
,university,0.8081439733505249,,,,,,,,
,commerce,0.7906321287155151,,,,,,,,
,food,0.7903937697410583,,,,,,,,
https://scontent-sit4-1.cdninstagram.com/t51.2885-15/e35/12783890_161448927572548_849496751_n.jpg,wood,0.9891457557678223,Undefined,,,,Undefined,,,
,garden,0.9735974073410034,,,,,,,,
,leaf,0.9726518988609314,,,,,,,,
,wooden,0.9712399244308472,,,,,,,,
,tree,0.9667744636535645,,,,,,,,
,nature,0.966463029384613,,,,,,,,
,"no person",0.9610464572906494,,,,,,,,
,outdoors,0.942935585975647,,,,,,,,
,summer,0.936017632484436,,,,,,,,
,rural,0.9357467889785767,,,,,,,,
,flora,0.9335101842880249,,,,,,,,
,farm,0.923564076423645,,,,,,,,
,tropical,0.9089099168777466,,,,,,,,
,landscape,0.9073418378829956,,,,,,,,
,house,0.8961721658706665,,,,,,,,
,travel,0.8897709846496582,,,,,,,,
,traditional,0.878890335559845,,,,,,,,
,country,0.8730940818786621,,,,,,,,
,park,0.8730530142784119,,,,,,,,
,color,0.8641362190246582,,,,,,,,
https://scontent-sit4-1.cdninstagram.com/t51.2885-15/e35/12446108_1662230744066057_831888975_n.jpg,food,0.9956842064857483,,,,,,,,
,"no person",0.9936997294425964,,,,,,,,
,delicious,0.9559265971183777,,,,,,,,
,cooking,0.939128041267395,,,,,,,,
,meal,0.9371693730354309,,,,,,,,
,sweet,0.9031137824058533,,,,,,,,
,dish,0.8953883647918701,,,,,,,,
,fruit,0.8905714750289917,,,,,,,,
,homemade,0.8849013447761536,,,,,,,,
,dinner,0.8788000345230103,,,,,,,,
,lunch,0.8683024048805237,,,,,,,,
,cuisine,0.8672268986701965,,,,,,,,
,tasty,0.8650926351547241,,,,,,,,
,nutrition,0.8572070598602295,,,,,,,,
,epicure,0.855164647102356,,,,,,,,
,hot,0.8499522805213928,,,,,,,,
,plate,0.8462698459625244,,,,,,,,
,vegetable,0.84307861328125,,,,,,,,
,sugar,0.8380157947540283,,,,,,,,
,refreshment,0.8325288891792297,,,,,,,,
https://scontent-sit4-1.cdninstagram.com/t51.2885-15/e35/929374_974630219286954_1995544498_n.jpg,old,0.9902471303939819,Arts,,,,Arts-s,,,
,post,0.9898526668548584,,,,,,,,
,paper,0.9898103475570679,,,,,,,,
,collection,0.9834761619567871,,,,,,,,
,symbol,0.9687445163726807,,,,,,,,
,vintage,0.9680156707763672,,,,,,,,
,spherical,0.9590352773666382,,,,,,,,
,retro,0.9576534628868103,,,,,,,,
,correspondence,0.9560445547103882,,,,,,,,
,stamp,0.9556723237037659,,,,,,,,
,antique,0.9548734426498413,,,,,,,,
,communication,0.9545093178749084,,,,,,,,
,letter,0.948969841003418,,,,,,,,
,postal,0.9298678636550903,,,,,,,,
,postmark,0.9295980930328369,,,,,,,,
,country,0.9125342965126038,,,,,,,,
,philately,0.9104655981063843,,,,,,,,
,democracy,0.9094948768615723,,,,,,,,
,map,0.8946897387504578,,,,,,,,
,ancient,0.8921316862106323,,,,,,,,
https://scontent-sit4-1.cdninstagram.com/t51.2885-15/e35/12292764_334051043385584_1107059694_n.jpg,people,0.9895676374435425,Business,,,,Business-s,,,
,room,0.9755845069885254,,,,,,,,
,indoors,0.9607034921646118,,,,,,,,
,museum,0.9491062164306641,,,,,,,,
,group,0.9456838369369507,,,,,,,,
,commerce,0.9343186616897583,,,,,,,,
,adult,0.933584451675415,,,,,,,,
,man,0.9191879034042358,,,,,,,,
,prosperity,0.9187241792678833,,,,,,,,
,administration,0.9128321409225464,,,,,,,,
,offense,0.9078836441040039,,,,,,,,
,city,0.9078067541122437,,,,,,,,
,meeting,0.9070959091186523,,,,,,,,
,portrait,0.9044527411460876,,,,,,,,
,business,0.9006223678588867,,,,,,,,
,exhibition,0.8858613967895508,,,,,,,,
,woman,0.8811987638473511,,,,,,,,
,employee,0.8788104057312012,,,,,,,,
,election,0.8756347894668579,,,,,,,,
,leader,0.8725654482841492,,,,,,,,
https://scontent-sit4-1.cdninstagram.com/t51.2885-15/e35/13392687_221766134877221_387915090_n.jpg,tree,0.9958081245422363,Environment,,,,"Natural beauty",,,
,garden,0.9872886538505554,,,,,,,,
,leaf,0.9848682880401611,,,,,,,,
,nature,0.9829847812652588,,,,,,,,
,park,0.9822269678115845,,,,,,,,
,landscape,0.976832389831543,,,,,,,,
,flora,0.975717306137085,,,,,,,,
,summer,0.9754123091697693,,,,,,,,
,wood,0.9746593832969666,,,,,,,,
,"no person",0.968612790107727,,,,,,,,
,outdoors,0.9670989513397217,,,,,,,,
,grass,0.9568178653717041,,,,,,,,
,lush,0.946365237236023,,,,,,,,
,environment,0.9446935653686523,,,,,,,,
,season,0.9367929100990295,,,,,,,,
,flower,0.9285041689872742,,,,,,,,
,"fair weather",0.9195522665977478,,,,,,,,
,scenic,0.9180518388748169,,,,,,,,
,guidance,0.9083594679832458,,,,,,,,
,travel,0.9065773487091064,,,,,,,,
https://scontent-sit4-1.cdninstagram.com/t51.2885-15/e35/12120432_768234486611197_478079455_n.jpg,paper,0.957303524017334,Commerce,,,,"Product/brand shots",,,
,illustration,0.9533878564834595,,,,,,,,
,text,0.9331129789352417,,,,,,,,
,card,0.9131472110748291,,,,,,,,
,food,0.9092723727226257,,,,,,,,
,vintage,0.9087914228439331,,,,,,,,
,desktop,0.887667715549469,,,,,,,,
,letter,0.8876348733901978,,,,,,,,
,symbol,0.881798505783081,,,,,,,,
,tourism,0.8732813000679016,,,,,,,,
,travel,0.8638815879821777,,,,,,,,
,horizontal,0.8578400611877441,,,,,,,,
,old,0.8444523811340332,,,,,,,,
,vertical,0.8337773084640503,,,,,,,,
,retro,0.8283323049545288,,,,,,,,
,candy,0.8276679515838623,,,,,,,,
,"no person",0.8206865191459656,,,,,,,,
,people,0.805250883102417,,,,,,,,
,collection,0.8021348714828491,,,,,,,,
,communication,0.7997633218765259,,,,,,,,
https://scontent-sit4-1.cdninstagram.com/t51.2885-15/e35/13707193_590180941159239_1209860104_n.jpg,adult,0.979106068611145,Commerce,Media,,,"Product/brand shots",Media-s,,
,people,0.9720460176467896,,,,,,,,
,portrait,0.9589288234710693,,,,,,,,
,man,0.9544185400009155,,,,,,,,
,education,0.9507665634155273,,,,,,,,
,group,0.9503728151321411,,,,,,,,
,woman,0.9349685907363892,,,,,,,,
,bill,0.9209718704223633,,,,,,,,
,school,0.9118109941482544,,,,,,,,
,"facial expression",0.8949568271636963,,,,,,,,
,child,0.8879615068435669,,,,,,,,
,soccer,0.8772635459899902,,,,,,,,
,business,0.8477396965026855,,,,,,,,
,sign,0.8429394960403442,,,,,,,,
,competition,0.8311704993247986,,,,,,,,
,victory,0.8204549551010132,,,,,,,,
,award,0.8204376697540283,,,,,,,,
,flag,0.7683860659599304,,,,,,,,
,indoors,0.7640285491943359,,,,,,,,
,text,0.7552773356437683,,,,,,,,
https://scontent-sit4-1.cdninstagram.com/t51.2885-15/e35/927629_1764313887121308_1265731985_n.jpg,food,0.9979556798934937,Food,,,,"Meal time",,,
,meal,0.987756609916687,,,,,,,,
,plate,0.9721530675888062,,,,,,,,
,cuisine,0.9719549417495728,,,,,,,,
,hot,0.9676897525787354,,,,,,,,
,"no person",0.9666985869407654,,,,,,,,
,refreshment,0.9632836580276489,,,,,,,,
,lunch,0.9608802795410156,,,,,,,,
,bread,0.9600554704666138,,,,,,,,
,dish,0.9588474035263062,,,,,,,,
,vegetable,0.9530643224716187,,,,,,,,
,tasty,0.9525513648986816,,,,,,,,
,delicious,0.9497537612915039,,,,,,,,
,cheese,0.9427560567855835,,,,,,,,
,restaurant,0.9420541524887085,,,,,,,,
,dinner,0.9417432546615601,,,,,,,,
,cooking,0.9340715408325195,,,,,,,,
,homemade,0.9289450645446777,,,,,,,,
,table,0.9283519983291626,,,,,,,,
,epicure,0.9283180236816406,,,,,,,,
https://scontent-sit4-1.cdninstagram.com/t51.2885-15/e35/13712562_1736750213229951_119971253_n.jpg,ice,0.9830049276351929,Food,,,,Dessert,,,
,"no person",0.9754999876022339,,,,,,,,
,scoop,0.9707968235015869,,,,,,,,
,cream,0.9637378454208374,,,,,,,,
,cold,0.961706280708313,,,,,,,,
,summer,0.9602662324905396,,,,,,,,
,food,0.9592511653900146,,,,,,,,
,milk,0.9500656127929688,,,,,,,,
,cup,0.9323723316192627,,,,,,,,
,health,0.9142426252365112,,,,,,,,
,delicious,0.9063531160354614,,,,,,,,
,taste,0.8914374113082886,,,,,,,,
,sweet,0.8905725479125977,,,,,,,,
,sorbet,0.8812010884284973,,,,,,,,
,frozen,0.8797924518585205,,,,,,,,
,creamy,0.8730413913726807,,,,,,,,
,relish,0.8525310158729553,,,,,,,,
,glass,0.8258487582206726,,,,,,,,
,coffee,0.8235342502593994,,,,,,,,
,leaf,0.819070041179657,,,,,,,,
https://scontent-sit4-1.cdninstagram.com/t51.2885-15/e35/13256732_242240032803710_1268082293_n.jpg,text,0.9986939430236816,Arts,,,,Motivational,,,
,"give voice",0.9958215951919556,,,,,,,,
,book,0.9949846267700195,,,,,,,,
,page,0.9874558448791504,,,,,,,,
,scripture,0.9866210222244263,,,,,,,,
,knowledge,0.9865578413009644,,,,,,,,
,paper,0.9834612607955933,,,,,,,,
,data,0.9768555164337158,,,,,,,,
,study,0.975031852722168,,,,,,,,
,print,0.9735294580459595,,,,,,,,
,testament,0.9720406532287598,,,,,,,,
,business,0.9692937135696411,,,,,,,,
,dictionary,0.9663980007171631,,,,,,,,
,education,0.9661995768547058,,,,,,,,
,definition,0.9659098982810974,,,,,,,,
,data,0.9656346440315247,,,,,,,,
,Gospel,0.9627362489700317,,,,,,,,
,document,0.9567270278930664,,,,,,,,
,poetry,0.9529781341552734,,,,,,,,
,desktop,0.9515838623046875,,,,,,,,
https://scontent-sit4-1.cdninstagram.com/t51.2885-15/e35/12362386_830401137070086_24298855_n.jpg,road,0.9923455715179443,Environment,,,,Environment-s,,,
,city,0.9920980930328369,,,,,,,,
,"transportation system",0.9860444068908691,,,,,,,,
,travel,0.9844921231269836,,,,,,,,
,building,0.981019139289856,,,,,,,,
,traffic,0.9772356748580933,,,,,,,,
,car,0.9766489863395691,,,,,,,,
,urban,0.9727701544761658,,,,,,,,
,highway,0.9649807214736938,,,,,,,,
,street,0.9631856679916382,,,,,,,,
,cityscape,0.9585696458816528,,,,,,,,
,business,0.958209753036499,,,,,,,,
,skyscraper,0.9556499719619751,,,,,,,,
,architecture,0.9532652497291565,,,,,,,,
,skyline,0.9515510201454163,,,,,,,,
,vehicle,0.9447317123413086,,,,,,,,
,"no person",0.943646252155304,,,,,,,,
,downtown,0.94339919090271,,,,,,,,
,modern,0.9401552677154541,,,,,,,,
,bridge,0.9205892086029053,,,,,,,,
