url,class,score
https://scontent-sit4-1.cdninstagram.com/t51.2885-15/e35/13561507_1064599633617025_401654636_n.jpg,invertebrate,0.9920969009399414
,insect,0.990669310092926
,food,0.9867658615112305
,one,0.9800695776939392
,no person,0.9754320383071899
,still life,0.9431354999542236
,nature,0.9315513372421265
,grow,0.9276462197303772
,wildlife,0.9141863584518433
,daylight,0.886296272277832
,antenna,0.8862233757972717
,biology,0.8739157915115356
,butterfly,0.8733842372894287
,flour,0.8547998666763306
,wood,0.8382877707481384
,blur,0.8171745538711548
,texture,0.8129340410232544
,science,0.8080772161483765
,egg,0.8056222796440125
,people,0.8008806705474854
https://scontent-sit4-1.cdninstagram.com/t51.2885-15/e35/13721150_1766443530301119_396086071_n.jpg,light,0.9891679286956787
,indoors,0.9660561084747314
,people,0.9638005495071411
,no person,0.9512790441513062
,architecture,0.9287413358688354
,city,0.9162964224815369
,dark,0.9147934317588806
,room,0.895418643951416
,building,0.8739774227142334
,lamp,0.8734594583511353
,art,0.8470847606658936
,window,0.8421832323074341
,travel,0.8375167846679688
,tube,0.8354141712188721
,shadow,0.8268743753433228
,urban,0.8122903108596802
,vehicle,0.8093069791793823
,step,0.8021659255027771
,street,0.7957389950752258
,museum,0.7901932001113892
https://scontent-sit4-1.cdninstagram.com/t51.2885-15/e35/13402199_1076296542436779_405520992_n.jpg,no person,0.9913980960845947
,ice,0.955367922782898
,glass,0.9237070083618164
,cold,0.912778913974762
,travel,0.8697815537452698
,drink,0.8597571849822998
,city,0.8541688919067383
,one,0.84662264585495
,luxury,0.8415812253952026
,outdoors,0.822187602519989
,people,0.8139724731445312
,container,0.8061044812202454
,landscape,0.7946063876152039
,street,0.7905082106590271
,light,0.7768125534057617
,building,0.7721476554870605
,architecture,0.762962281703949
,evening,0.7593971490859985
,summer,0.7222446203231812
,vacation,0.710547924041748
https://scontent-sit4-1.cdninstagram.com/t51.2885-15/e35/13423481_1615360638779526_1074146972_n.jpg,no person,0.9895551800727844
,food,0.9648067951202393
,one,0.9600557088851929
,sugar,0.9556825757026672
,grow,0.9428068399429321
,delicious,0.9357376098632812
,fish,0.8943507671356201
,invertebrate,0.8614000082015991
,baking,0.8610936403274536
,cake,0.8523876667022705
,dairy product,0.8508071899414062
,still life,0.8466922640800476
,chocolate,0.8449700474739075
,people,0.8425458669662476
,blur,0.8334338665008545
,indoors,0.8321568965911865
,three,0.8292547464370728
,nature,0.8248119354248047
,water,0.8205609321594238
,sweet,0.817600667476654
https://scontent-sit4-1.cdninstagram.com/t51.2885-15/e35/13422961_1613006255656392_240949907_n.jpg,container,0.9618225693702698
,plastic,0.9598811268806458
,drink,0.9482165575027466
,hygiene,0.9388758540153503
,clean,0.934647798538208
,family,0.9088730216026306
,no person,0.9015361070632935
,liquid,0.8864064812660217
,bucket,0.8688398599624634
,waste,0.858657717704773
,color,0.8498990535736084
,glass,0.8488859534263611
,garbage,0.8484852313995361
,business,0.840009331703186
,desktop,0.8296478986740112
,sanitary,0.8270612359046936
,people,0.8216005563735962
,bathroom,0.8198288679122925
,clean,0.818598747253418
,vertical,0.8138701915740967
https://scontent-sit4-1.cdninstagram.com/t51.2885-15/e35/13732160_1563176853986948_1419138360_n.jpg,food,0.9906237125396729
,dinner,0.9763140678405762
,dish,0.9723912477493286
,lunch,0.9691311120986938
,plate,0.9690454006195068
,meal,0.9667446613311768
,no person,0.9613739252090454
,egg,0.9608012437820435
,delicious,0.9567392468452454
,vegetable,0.9467288851737976
,cooking,0.9438090324401855
,hot,0.933405876159668
,cuisine,0.9333902597427368
,fish,0.926529586315155
,restaurant,0.9262980222702026
,soup,0.9213221073150635
,nutrition,0.9135150909423828
,sauce,0.9077463150024414
,meat,0.9002096056938171
,spoon,0.898707389831543
https://scontent-sit4-1.cdninstagram.com/t51.2885-15/e35/13320040_107132986379467_1326175105_n.jpg,aquarium,0.9991716146469116
,fish,0.9983099699020386
,underwater,0.9981629848480225
,swimming,0.9930499196052551
,water,0.9881882667541504
,goldfish,0.9854475855827332
,no person,0.9506014585494995
,action,0.9468949437141418
,blur,0.9444925785064697
,ocean,0.9272099733352661
,fishbowl,0.9270292520523071
,sea,0.9268776178359985
,nature,0.926796555519104
,tank,0.9141106009483337
,one,0.8985819816589355
,motion,0.8852455019950867
,swimmer,0.8720217943191528
,people,0.8566052913665771
,fin,0.8473215103149414
,indoors,0.8224606513977051
https://scontent-sit4-1.cdninstagram.com/t51.2885-15/e35/13712700_1784434745101402_39277054_n.jpg,no person,0.9939555525779724
,food,0.9927083253860474
,plate,0.9658454656600952
,delicious,0.9651867151260376
,homemade,0.9561298489570618
,dinner,0.9319080114364624
,pancake,0.9304116368293762
,sweet,0.9226416945457458
,breakfast,0.9200329780578613
,meal,0.9140298962593079
,hot,0.9130546450614929
,fruit,0.9080501198768616
,nutrition,0.9035316109657288
,dish,0.8995262384414673
,refreshment,0.8957430124282837
,lunch,0.8929026126861572
,baking,0.8661649823188782
,cooking,0.8615381717681885
,restaurant,0.8541153073310852
,tasty,0.8539928197860718
https://scontent-sit4-1.cdninstagram.com/t51.2885-15/e35/13392691_1017291141700315_939494841_n.jpg,aquarium,0.9996726512908936
,underwater,0.9996664524078369
,fish,0.9995167255401611
,swimming,0.9992452263832092
,water,0.9989345073699951
,tank,0.9968068599700928
,goldfish,0.9954059720039368
,ocean,0.992159903049469
,sea,0.9911466836929321
,no person,0.9874003529548645
,wildlife,0.9826884269714355
,action,0.9738264679908752
,tropical,0.9737592935562134
,aquatic,0.9727233648300171
,animal,0.9692578315734863
,travel,0.961363673210144
,diving,0.9601142406463623
,marine,0.9538928270339966
,outdoors,0.9466672539710999
,reflection,0.9455894231796265
https://scontent-sit4-1.cdninstagram.com/t51.2885-15/e35/13696961_1748038772112748_1286489996_n.jpg,beer,0.999992311000824
,drink,0.9909807443618774
,brewery,0.9882112741470337
,lager,0.9834311008453369
,pub,0.982309103012085
,bar,0.9755406975746155
,bottle,0.9607141017913818
,no person,0.959644079208374
,alcohol,0.9498645663261414
,ale,0.9485846757888794
,liquor,0.9478259086608887
,pint,0.938287079334259
,foam,0.9280357360839844
,stout,0.9143171906471252
,container,0.9032632112503052
,cola,0.903060257434845
,still life,0.8987715244293213
,glass,0.8902215957641602
,beer bottle,0.8731785416603088
,beer glass,0.8675714731216431
https://scontent-sit4-1.cdninstagram.com/t51.2885-15/e35/13651740_1746741288940176_1669392207_n.jpg,window,0.9770463705062866
,no person,0.9714037179946899
,light,0.9639581441879272
,shadow,0.9407756924629211
,room,0.9394391775131226
,indoors,0.9352577328681946
,dark,0.9197632670402527
,reflection,0.9195800423622131
,architecture,0.9061769247055054
,security,0.8775339126586914
,door,0.8720430135726929
,business,0.8579897880554199
,silhouette,0.848609209060669
,people,0.8416018486022949
,abandoned,0.8065388202667236
,eerie,0.7998242378234863
,jail,0.7954633235931396
,travel,0.7779173851013184
,building,0.7749390602111816
,museum,0.7722934484481812
https://scontent-sit4-1.cdninstagram.com/t51.2885-15/s640x640/e15/13658882_545409172315013_2089719670_n.jpg,pool,0.9992712736129761
,water,0.9953666925430298
,no person,0.9903417229652405
,swimming pool,0.9882630109786987
,summer,0.9816778302192688
,leisure,0.9779921770095825
,luxury,0.9766145944595337
,swimming,0.974530816078186
,garden,0.9710432291030884
,architecture,0.9689779281616211
,modern,0.9689759016036987
,tropical,0.9671244621276855
,outdoors,0.9626072645187378
,hotel,0.9607884287834167
,nature,0.9540419578552246
,travel,0.9410524368286133
,poolside,0.9408142566680908
,tree,0.940645694732666
,park,0.940036416053772
,recreation,0.9356956481933594
https://scontent-sit4-1.cdninstagram.com/t51.2885-15/e35/13712616_2070697139822330_935348594_n.jpg,rice,0.9936394691467285
,food,0.9918251633644104
,dinner,0.9884939193725586
,lunch,0.9807342290878296
,delicious,0.9770500659942627
,plate,0.9742010831832886
,no person,0.9689821600914001
,meal,0.96406090259552
,dish,0.9562902450561523
,vegetable,0.9534822702407837
,meat,0.9333686232566833
,risotto,0.9303320646286011
,fish,0.9197483062744141
,seafood,0.9195816516876221
,traditional,0.9127134084701538
,cooking,0.9126720428466797
,nutrition,0.9125733375549316
,cuisine,0.9041601419448853
,mouth-watering,0.9033005237579346
,chicken,0.9016284942626953
https://scontent-sit4-1.cdninstagram.com/t51.2885-15/e35/13355529_563208540518021_1372229687_n.jpg,nature,0.992695689201355
,no person,0.9845727682113647
,fish,0.9827077388763428
,water,0.9654676914215088
,underwater,0.957944393157959
,tropical,0.9503549337387085
,aquarium,0.941582202911377
,outdoors,0.9331414699554443
,one,0.9320942163467407
,animal,0.9086829423904419
,wildlife,0.9031732082366943
,flower,0.895695686340332
,sea,0.8806061744689941
,bright,0.880029559135437
,summer,0.8708372116088867
,beautiful,0.8618359565734863
,swimming,0.8564791679382324
,light,0.8539606332778931
,color,0.8395518660545349
,goldfish,0.8336068391799927
https://scontent-sit4-1.cdninstagram.com/t51.2885-15/e35/13422963_539757366212654_1623375476_n.jpg,television,0.998954176902771
,no person,0.9944870471954346
,technology,0.9824485182762146
,music,0.9823274612426758
,industry,0.9704517722129822
,screen,0.9662630558013916
,recreation,0.9646751880645752
,indoors,0.9645293951034546
,display,0.9561989307403564
,business,0.9555484056472778
,electronics,0.9491637945175171
,festival,0.9419575929641724
,medicine,0.931981086730957
,performance,0.9309484362602234
,people,0.9296315312385559
,interior design,0.9169792532920837
,exhibition,0.9144259691238403
,healthcare,0.9143928289413452
,movie,0.9137152433395386
,science,0.9130828380584717
https://scontent-sit4-1.cdninstagram.com/t51.2885-15/e35/13437423_1405969612752294_212656077_n.jpg,food,0.9945586323738098
,seafood,0.990363359451294
,dinner,0.9894930124282837
,fish,0.9873554706573486
,lunch,0.983396053314209
,plate,0.9727047681808472
,meal,0.9726491570472717
,no person,0.9718078374862671
,delicious,0.9670146107673645
,pasta,0.9648288488388062
,dish,0.9626573920249939
,shellfish,0.9603511095046997
,vegetable,0.9529724717140198
,salmon,0.9501568675041199
,mouth-watering,0.9490059614181519
,sauce,0.9391053915023804
,herb,0.93403160572052
,grow,0.931546688079834
,cuisine,0.9306122660636902
,epicure,0.9286986589431763
https://scontent-sit4-1.cdninstagram.com/t51.2885-15/e35/13397449_238576193195113_941663879_n.jpg,milk,0.9938515424728394
,no person,0.9930206537246704
,cream,0.9865633249282837
,delicious,0.9678001999855042
,vanilla,0.9666624665260315
,cold,0.9604467153549194
,creamy,0.9589332938194275
,ice,0.9562091827392578
,coffee,0.9551492929458618
,pudding,0.9493169784545898
,glass,0.9469079971313477
,cup,0.9463237524032593
,foam,0.9446759819984436
,dairy product,0.9356802701950073
,indoors,0.9333722591400146
,cinnamon,0.9325737953186035
,food,0.9309400916099548
,breakfast,0.9299978017807007
,shake,0.9251766204833984
,sugar,0.9203305244445801
https://scontent-sit4-1.cdninstagram.com/t51.2885-15/e35/13549526_215793328814501_764217745_n.jpg,beer,0.9999825358390808
,lager,0.9988771677017212
,drink,0.9984036087989807
,foam,0.9983825087547302
,brewery,0.998366117477417
,pint,0.9974327087402344
,pub,0.9967272877693176
,glass,0.9946491718292236
,alcohol,0.9928995966911316
,bar,0.991080105304718
,ale,0.9903557896614075
,mug,0.9903279542922974
,cold,0.9884600639343262
,brew,0.9853821992874146
,beer glass,0.9820981025695801
,refreshment,0.9801232814788818
,frosty,0.9765199422836304
,full,0.975199282169342
,stout,0.9751115441322327
,liquor,0.9744177460670471
https://scontent-sit4-1.cdninstagram.com/t51.2885-15/e35/13584015_144049792683636_945796343_n.jpg,no person,0.9788549542427063
,food,0.9718139171600342
,business,0.9605960845947266
,indoors,0.9581560492515564
,internet,0.936877965927124
,coffee,0.9059504270553589
,technology,0.902934193611145
,still life,0.8964367508888245
,travel,0.8910397291183472
,connection,0.8709555864334106
,finance,0.8624004125595093
,paper,0.8473705649375916
,money,0.8443878889083862
,finance,0.8416827917098999
,vehicle,0.8297011852264404
,telephone,0.821302056312561
,people,0.8195962309837341
,commerce,0.8143317699432373
,computer,0.8055377006530762
,option,0.7967806458473206
https://scontent-sit4-1.cdninstagram.com/t51.2885-15/e35/13557078_594744520687013_240553565_n.jpg,food,0.9889592528343201
,soup,0.9869755506515503
,no person,0.9839907884597778
,hot,0.9805493950843811
,bowl,0.9728213548660278
,spoon,0.9702867269515991
,dish,0.9691425561904907
,vegetable,0.9548255205154419
,cream,0.9547577500343323
,dinner,0.9545881152153015
,lunch,0.9444547891616821
,cooking,0.9436099529266357
,appetizer,0.9266750812530518
,cup,0.9258002042770386
,wood,0.9251171350479126
,tableware,0.9239928722381592
,delicious,0.9238986968994141
,bread,0.9220587015151978
,plate,0.9188841581344604
,meal,0.9186731576919556
https://scontent-sit4-1.cdninstagram.com/t51.2885-15/e35/13643455_520901104764340_672701418_n.jpg,box,0.9859925508499146
,no person,0.9810957312583923
,business,0.978584885597229
,container,0.9735444784164429
,paper,0.9707304239273071
,money,0.9382290840148926
,people,0.9335964918136597
,one,0.9212424755096436
,administration,0.9146151542663574
,indoors,0.9125131368637085
,finance,0.9115565419197083
,shopping,0.8991548418998718
,finance,0.8632698655128479
,post,0.8594579696655273
,commerce,0.8492683172225952
,military,0.8471710681915283
,bundle,0.8285781145095825
,mail,0.8259903192520142
,pack,0.8256427049636841
,man,0.82480788230896
https://scontent-sit4-1.cdninstagram.com/t51.2885-15/e35/13320310_614416692049963_875128798_n.jpg,building,0.9818873405456543
,home,0.9778560400009155
,house,0.9758795499801636
,people,0.9729438424110413
,daylight,0.9627654552459717
,no person,0.9602620601654053
,architecture,0.9339869022369385
,outdoors,0.9317802786827087
,landscape,0.9274120330810547
,environment,0.9165527820587158
,travel,0.9074809551239014
,street,0.9025965929031372
,museum,0.8847048282623291
,vehicle,0.8820971846580505
,calamity,0.8806461095809937
,light,0.8781768679618835
,tree,0.8751524686813354
,park,0.8690788745880127
,mammal,0.8636598587036133
,adult,0.8624985218048096
https://scontent-sit4-1.cdninstagram.com/t51.2885-15/e35/13402522_103729186722937_2048418870_n.jpg,no person,0.9918934106826782
,food,0.9873412251472473
,soup,0.9867696166038513
,hot,0.9811931848526001
,bowl,0.9770204424858093
,spoon,0.9739455580711365
,cream,0.9674187302589417
,cup,0.9576749801635742
,creamy,0.9497925639152527
,dish,0.9449273347854614
,tableware,0.937970757484436
,dinner,0.935143232345581
,bread,0.9338670969009399
,grow,0.9332827925682068
,still life,0.9329842329025269
,wood,0.9324905872344971
,vegetable,0.930884599685669
,parsley,0.9243807792663574
,cooking,0.924196720123291
,delicious,0.9240813255310059
https://scontent-sit4-1.cdninstagram.com/t51.2885-15/e35/13573619_471477393041224_554731659_n.jpg,food,0.9965105056762695
,sweet,0.977313756942749
,no person,0.9766879677772522
,delicious,0.9723923206329346
,refreshment,0.9704768657684326
,meal,0.9604140520095825
,breakfast,0.9567353129386902
,plate,0.9553917050361633
,sugar,0.9528013467788696
,pastry,0.9525738954544067
,tasty,0.9518567323684692
,homemade,0.9414900541305542
,traditional,0.9397878646850586
,lunch,0.9380509853363037
,cuisine,0.9335294961929321
,closeup,0.933301568031311
,hot,0.9302473068237305
,nutrition,0.9234734773635864
,cooking,0.9226940274238586
,appetizer,0.9106684923171997
https://scontent-sit4-1.cdninstagram.com/t51.2885-15/e35/13385860_960974304019799_1170219024_n.jpg,no person,0.9594995379447937
,color,0.8834642767906189
,woman,0.8821742534637451
,wear,0.8582384586334229
,girl,0.8562740683555603
,fashion,0.8297231793403625
,people,0.8290604948997498
,roll,0.8224204778671265
,education,0.819538950920105
,school,0.8165735006332397
,indoors,0.7910346984863281
,painting,0.7787004709243774
,wood,0.777122437953949
,business,0.7534921169281006
,child,0.7474062442779541
,illustration,0.7415213584899902
,desktop,0.7356959581375122
,adult,0.7278050780296326
,color,0.723783016204834
,design,0.7066574692726135
https://scontent-sit4-1.cdninstagram.com/t51.2885-15/e35/13712219_1122643841134769_572624555_n.jpg,plastic,0.9802284836769104
,no person,0.973975419998169
,color,0.9582573175430298
,desktop,0.9073144197463989
,isolated,0.8985178470611572
,design,0.8637824654579163
,number,0.8626714944839478
,container,0.86073899269104
,closeup,0.8176524639129639
,paper,0.8159732818603516
,illustration,0.8154430985450745
,party,0.81243896484375
,toy,0.8107901811599731
,cool,0.8047453165054321
,drink,0.8010321259498596
,family,0.7976546287536621
,cold,0.7756575345993042
,fun,0.7735772728919983
,symbol,0.7723299860954285
,bright,0.769699215888977
https://scontent-sit4-1.cdninstagram.com/t51.2885-15/e35/13398808_260523564307139_760076402_n.jpg,coffee,0.9983193874359131
,cup,0.9939884543418884
,breakfast,0.9922565221786499
,drink,0.9916964173316956
,table,0.9900139570236206
,hot,0.9896637201309204
,espresso,0.9892014265060425
,no person,0.9848611354827881
,mug,0.9807128310203552
,dawn,0.9785594940185547
,tea,0.9714819192886353
,wood,0.968955397605896
,caffeine,0.9643996953964233
,saucer,0.9607203006744385
,cappuccino,0.9563343524932861
,traditional,0.9497181177139282
,glass,0.9354081153869629
,tablecloth,0.9304094314575195
,break,0.9276237487792969
,foam,0.9269571304321289
https://scontent-sit4-1.cdninstagram.com/t51.2885-15/e35/13551748_872785522866004_32760560_n.jpg,drink,0.9933072328567505
,no person,0.9847652316093445
,glass,0.9819481372833252
,bottle,0.9757591485977173
,alcohol,0.9595102667808533
,container,0.9556797742843628
,bar,0.9343867301940918
,liquor,0.927984356880188
,beer,0.9267978668212891
,whisky,0.913253903388977
,food,0.9066641330718994
,cold,0.8877721428871155
,medicine,0.8735301494598389
,luxury,0.8688713312149048
,ice,0.8665114641189575
,indoors,0.8660839796066284
,liquid,0.8647206425666809
,wine,0.8617008924484253
,tea,0.8515164852142334
,party,0.8365069627761841
https://scontent-sit4-1.cdninstagram.com/t51.2885-15/e35/13381283_1046963062006366_269377574_n.jpg,food,0.9979243874549866
,hot,0.9956367015838623
,healthy,0.9927881956100464
,cuisine,0.9871731996536255
,cooking,0.9837468862533569
,bowl,0.9805536270141602
,closeup,0.9771750569343567
,meal,0.9740837812423706
,herb,0.9729995727539062
,pepper,0.9728991985321045
,no person,0.9632555246353149
,health,0.9621318578720093
,traditional,0.9601691961288452
,spice,0.9568838477134705
,dish,0.9566338658332825
,chili,0.9558958411216736
,vegetable,0.9447486996650696
,meat,0.9351001977920532
,dinner,0.9338783025741577
,diet,0.9310049414634705
https://scontent-sit4-1.cdninstagram.com/t51.2885-15/e35/13768395_999307423523492_1599351545_n.jpg,no person,0.9873450994491577
,paper,0.8692181706428528
,business,0.8659109473228455
,education,0.8613064289093018
,healthcare,0.8457165956497192
,one,0.8443788290023804
,industry,0.8316432237625122
,many,0.8271747827529907
,two,0.8159700632095337
,health,0.8002700805664062
,three,0.7910730242729187
,number,0.7460974454879761
,indoors,0.7445203065872192
,text,0.7275331020355225
,information,0.6949574947357178
,recreation,0.6854283809661865
,presentation,0.6617871522903442
,data,0.6496751308441162
,cure,0.6460790038108826
,medicine,0.6338019967079163
https://scontent-sit4-1.cdninstagram.com/t51.2885-15/e35/13398727_1107532435972803_1178400678_n.jpg,people,0.9906842708587646
,indoors,0.9871240258216858
,woman,0.9818310141563416
,facial expression,0.9773199558258057
,two,0.9455335140228271
,enjoyment,0.9340583682060242
,man,0.9316928386688232
,child,0.9111338257789612
,family,0.9103193283081055
,adult,0.9008153676986694
,wear,0.8919783234596252
,togetherness,0.8913460373878479
,furniture,0.8660264015197754
,grow,0.8336701989173889
,food,0.822018563747406
,three,0.8083021640777588
,drink,0.8058052062988281
,portrait,0.8017193675041199
,love,0.7736558318138123
,coffee,0.7664567828178406
https://scontent-sit4-1.cdninstagram.com/t51.2885-15/e35/13584039_1419544538071961_663294146_n.jpg,street,0.9931603670120239
,car,0.989481508731842
,festival,0.9871041774749756
,road,0.9870850443840027
,travel,0.9821372628211975
,light,0.9746935367584229
,neon,0.9698845148086548
,traffic,0.9644516706466675
,evening,0.9613916873931885
,nightlife,0.9495670795440674
,music,0.9488494992256165
,city,0.9437179565429688
,blur,0.938730776309967
,illuminated,0.9350389838218689
,transportation system,0.9250508546829224
,celebration,0.9175243973731995
,casino,0.914452075958252
,show,0.9085192084312439
,Christmas,0.902366578578949
,action,0.9020236134529114
https://scontent-sit4-1.cdninstagram.com/t51.2885-15/e35/13636082_315320222139120_37419618_n.jpg,sweet,0.9972792863845825
,cream,0.9948917627334595
,food,0.9945628643035889
,cake,0.9943137168884277
,chocolate,0.9871683120727539
,delicious,0.9832112789154053
,goody,0.9818704128265381
,sugar,0.9811678528785706
,plate,0.9791899919509888
,pastry,0.969662606716156
,no person,0.9673967361450195
,pie,0.9669663906097412
,refreshment,0.9650028347969055
,fruit,0.9603846073150635
,vanilla,0.954262375831604
,party,0.950961709022522
,epicure,0.9503719806671143
,tasty,0.9469671249389648
,tart,0.943062424659729
,bakery,0.9389762878417969
https://scontent-sit4-1.cdninstagram.com/t51.2885-15/e35/13724692_786758798105996_1191070157_n.jpg,food,0.9977575540542603
,meal,0.9938898086547852
,cuisine,0.9920332431793213
,dinner,0.9904717206954956
,dish,0.9875346422195435
,lunch,0.9852208495140076
,hot,0.9849367737770081
,cooking,0.9816639423370361
,meat,0.9813457727432251
,sauce,0.9811408519744873
,plate,0.9804660677909851
,restaurant,0.9793713092803955
,healthy,0.979244589805603
,tasty,0.9752553105354309
,delicious,0.9733151197433472
,vegetable,0.9714300632476807
,rice,0.9699503779411316
,traditional,0.9676921963691711
,refreshment,0.9633713960647583
,epicure,0.9617832899093628
https://scontent-sit4-1.cdninstagram.com/t51.2885-15/e35/13628507_1775378249364551_1751048460_n.jpg,city,0.9966933727264404
,town,0.9875518083572388
,cityscape,0.9867188930511475
,house,0.9830430150032043
,aerial,0.978035569190979
,skyline,0.9767904281616211
,roof,0.976581335067749
,architecture,0.9733073711395264
,church,0.9724587798118591
,panorama,0.963259756565094
,urban,0.9630059003829956
,travel,0.9533678293228149
,landscape,0.9532748460769653
,no person,0.9372992515563965
,building,0.9351460933685303
,sight,0.9219639301300049
,castle,0.8907272815704346
,panoramic,0.8789212703704834
,hill,0.8659027814865112
,tree,0.8637905120849609
https://scontent-sit4-1.cdninstagram.com/t51.2885-15/e35/13391302_1042466082495296_1910009935_n.jpg,food,0.9892607927322388
,sweet,0.9834169149398804
,cream,0.9832342267036438
,chocolate,0.9813551902770996
,cake,0.981009840965271
,plate,0.974780797958374
,no person,0.9700928330421448
,sugar,0.9511498212814331
,fruit,0.9490441083908081
,decoration,0.9467170238494873
,desktop,0.9436535835266113
,cup,0.9402503967285156
,pastry,0.9357906579971313
,delicious,0.9330838918685913
,Christmas,0.9260464906692505
,party,0.9152108430862427
,celebration,0.8981983065605164
,berry,0.8981205821037292
,spoon,0.8939827084541321
,tea,0.8794713020324707
https://scontent-sit4-1.cdninstagram.com/t51.2885-15/e35/13707352_625857367583152_1223686595_n.jpg,food,0.9960890412330627
,no person,0.989600419998169
,rice,0.984502375125885
,delicious,0.9786779880523682
,dinner,0.9732662439346313
,plate,0.9639225602149963
,lunch,0.9451632499694824
,meal,0.9380015134811401
,cooking,0.9304181337356567
,health,0.9299162030220032
,dish,0.9280999302864075
,traditional,0.9129672050476074
,restaurant,0.9109218120574951
,nutrition,0.8959147930145264
,dining,0.8941784501075745
,meat,0.8881254196166992
,vegetable,0.8813798427581787
,fish,0.8778472542762756
,cuisine,0.8583635091781616
,pork,0.8511412143707275
https://scontent-sit4-1.cdninstagram.com/t51.2885-15/e35/13658531_497408983796309_1610751815_n.jpg,food,0.993869423866272
,plate,0.9901677370071411
,egg,0.9835564494132996
,meal,0.9798639416694641
,breakfast,0.971205472946167
,delicious,0.9677523374557495
,dish,0.9571837186813354
,healthy,0.9548202753067017
,dinner,0.9507484436035156
,lunch,0.9477662444114685
,cuisine,0.9476382732391357
,no person,0.946797251701355
,epicure,0.9417693018913269
,restaurant,0.9348260164260864
,nutrition,0.9157147407531738
,diet,0.9116455912590027
,cooking,0.9115087985992432
,closeup,0.9099196195602417
,slice,0.9073508381843567
,refreshment,0.9066256284713745
https://scontent-sit4-1.cdninstagram.com/t51.2885-15/e35/13573636_300301446983448_619019905_n.jpg,competition,0.986765444278717
,football,0.9791883230209351
,soccer,0.973816990852356
,championship,0.9297195672988892
,travel,0.9246840476989746
,business,0.9238647222518921
,people,0.9204739332199097
,International,0.9020992517471313
,editorial,0.8968744874000549
,city,0.8965609669685364
,no person,0.8910002708435059
,outdoors,0.8674309253692627
,sport,0.8608847856521606
,sign,0.8460940718650818
,festival,0.8409990072250366
,action,0.8380908966064453
,symbol,0.8314214944839478
,gambling,0.8247389793395996
,traditional,0.8222153782844543
,squad,0.8214833736419678
https://scontent-sit4-1.cdninstagram.com/t51.2885-15/e35/13627916_1720263921557931_1266577942_n.jpg,food,0.9952592849731445
,meal,0.9849914908409119
,chicken,0.9811084866523743
,dish,0.9806119203567505
,dinner,0.9805797338485718
,meat,0.9786299467086792
,vegetable,0.9714740514755249
,lunch,0.9680407047271729
,cuisine,0.9660046100616455
,sauce,0.9642633199691772
,delicious,0.9610923528671265
,hot,0.9576503038406372
,plate,0.953455924987793
,cooking,0.939077615737915
,poultry,0.9385868906974792
,no person,0.9383468627929688
,restaurant,0.9326065182685852
,pork,0.9214693903923035
,seafood,0.9178544878959656
,epicure,0.9172619581222534
https://scontent-sit4-1.cdninstagram.com/t51.2885-15/e35/13402593_488488061354757_2075783329_n.jpg,food,0.9890130758285522
,meal,0.960698127746582
,plate,0.9562785625457764
,desktop,0.9385629892349243
,cuisine,0.9371588826179504
,closeup,0.9321607351303101
,epicure,0.9264522790908813
,dish,0.9181810021400452
,healthy,0.9139894843101501
,dinner,0.9095207452774048
,table,0.9052501320838928
,vegetable,0.89826500415802
,cooking,0.8970539569854736
,delicious,0.8748257160186768
,hot,0.8694998025894165
,restaurant,0.8515530824661255
,tasty,0.850513219833374
,meat,0.8491730093955994
,lunch,0.8490294218063354
,refreshment,0.8470458388328552
https://scontent-sit4-1.cdninstagram.com/t51.2885-15/e35/13827425_335109016821026_595145794_n.jpg,glass,0.9735155701637268
,no person,0.9685086011886597
,futuristic,0.9659871459007263
,building,0.9593659043312073
,architecture,0.9547268152236938
,business,0.9473547339439392
,airport,0.9447605013847351
,ceiling,0.943406343460083
,window,0.9324363470077515
,technology,0.930056095123291
,reflection,0.9282851219177246
,light,0.927886962890625
,city,0.9215813875198364
,modern,0.9190876483917236
,urban,0.9105372428894043
,perspective,0.9077903628349304
,desktop,0.9016992449760437
,construction,0.8967381715774536
,steel,0.8840124607086182
,office,0.874638557434082
https://scontent-sit4-1.cdninstagram.com/t51.2885-15/e35/13636078_558882944292017_523936133_n.jpg,indoors,0.9829849004745483
,table,0.9804309010505676
,people,0.9755628108978271
,adult,0.9620528221130371
,furniture,0.9606765508651733
,man,0.9605994820594788
,meal,0.9550356864929199
,family,0.9513894319534302
,food,0.9450576305389404
,room,0.9428030848503113
,sit,0.9241336584091187
,child,0.9221194982528687
,lunch,0.9193446636199951
,woman,0.9177411794662476
,facial expression,0.9140052795410156
,drink,0.8962517976760864
,restaurant,0.8955202102661133
,enjoyment,0.895405650138855
,knife,0.8838140964508057
,preparation,0.8794911503791809
https://scontent-sit4-1.cdninstagram.com/t51.2885-15/e35/13473377_993995647386249_177631698_n.jpg,footwear,0.9995874166488647
,foot,0.9985073804855347
,wear,0.9980636835098267
,shoe,0.9957215785980225
,people,0.9921606779098511
,fashion,0.989281415939331
,adult,0.9778778553009033
,leather,0.9764933586120605
,one,0.9743392467498779
,two,0.9610922336578369
,man,0.9532630443572998
,girl,0.9483090043067932
,sneakers,0.9428985118865967
,competition,0.9384589195251465
,urban,0.9376158118247986
,child,0.9217369556427002
,woman,0.9091589450836182
,color,0.9083232283592224
,style,0.9041928648948669
,fashionable,0.9029635190963745
https://scontent-sit4-1.cdninstagram.com/t51.2885-15/e35/13652088_271384273219708_1090297260_n.jpg,skewer,0.9997032284736633
,barbecue,0.9988311529159546
,kebab,0.9971402883529663
,meat,0.9949385523796082
,food,0.993267297744751
,hot,0.9932650327682495
,meal,0.9898618459701538
,heat,0.9894726276397705
,picnic,0.9842735528945923
,stick,0.9822971820831299
,flame,0.9816056489944458
,charcoal,0.9770431518554688
,dinner,0.9753398895263672
,cuisine,0.9752302765846252
,chicken,0.9718381762504578
,tasty,0.971361517906189
,cooking,0.9676656723022461
,traditional,0.9672999382019043
,steak,0.9623761773109436
,skewer,0.9615765810012817
https://scontent-sit4-1.cdninstagram.com/t51.2885-15/e35/13739571_155768624853869_300530665_n.jpg,tree,0.9714285135269165
,no person,0.9687061309814453
,light,0.9412358999252319
,garden,0.9287773966789246
,people,0.9243309497833252
,agriculture,0.9135776162147522
,travel,0.9079583287239075
,farm,0.9065135717391968
,wood,0.9014192223548889
,art,0.8979239463806152
,building,0.8889454007148743
,architecture,0.888358473777771
,fence,0.888262152671814
,leaf,0.8720674514770508
,religion,0.8713790774345398
,landscape,0.869959831237793
,old,0.8696056604385376
,outdoors,0.8587985634803772
,park,0.8547135591506958
,silhouette,0.8525514602661133
https://scontent-sit4-1.cdninstagram.com/t51.2885-15/e35/13402449_1031294243628200_2049398627_n.jpg,architecture,0.9966301918029785
,glass,0.9945204257965088
,building,0.9924089312553406
,business,0.9920480251312256
,office,0.9919712543487549
,skyscraper,0.9919313192367554
,tallest,0.9875392913818359
,sky,0.985843300819397
,city,0.9831618666648865
,modern,0.9807834625244141
,window,0.9791766405105591
,no person,0.9768508672714233
,downtown,0.9736610651016235
,contemporary,0.9728600382804871
,urban,0.9657611846923828
,finance,0.9589120149612427
,technology,0.9548146724700928
,expression,0.9532530307769775
,reflection,0.949576735496521
,high,0.9330208897590637
https://scontent-sit4-1.cdninstagram.com/t51.2885-15/e35/13408972_921380617984424_1039185540_n.jpg,tree,0.9968831539154053
,garden,0.9899967908859253
,flower,0.9869734048843384
,no person,0.9760103225708008
,resort,0.9756177663803101
,patio,0.974992036819458
,hotel,0.9715657830238342
,flora,0.9686858654022217
,chair,0.9621486663818359
,tropical,0.9585551619529724
,palm,0.9566168785095215
,luxury,0.956565260887146
,nature,0.9533382654190063
,landscape,0.9511368274688721
,leaf,0.9479429721832275
,summer,0.9409069418907166
,pool,0.940172016620636
,travel,0.9368004202842712
,house,0.9344024658203125
,island,0.9182376861572266
