url,class,score,,,,,,,,
https://scontent-sit4-1.cdninstagram.com/t51.2885-15/s480x480/e35/11373921_125573011119240_615220080_n.jpg,flag,0.9991856813430786,Celebrations,,,,"Community Events",,,
,wind,0.9961342811584473,,,,,,,,
,banner,0.9890546798706055,,,,,,,,
,country,0.9882051944732666,,,,,,,,
,symbol,0.9863487482070923,,,,,,,,
,wave,0.9656320214271545,,,,,,,,
,silk,0.9382674694061279,,,,,,,,
,freedom,0.9317452907562256,,,,,,,,
,illustration,0.9311834573745728,,,,,,,,
,national,0.9310370683670044,,,,,,,,
,patriotism,0.929747462272644,,,,,,,,
,isolated,0.89211106300354,,,,,,,,
,pride,0.8888448476791382,,,,,,,,
,ripple,0.8796945810317993,,,,,,,,
,official,0.8539093136787415,,,,,,,,
,sign,0.8529938459396362,,,,,,,,
,democracy,0.8361698389053345,,,,,,,,
,pride,0.8219348788261414,,,,,,,,
,populace,0.8216614127159119,,,,,,,,
,emblem,0.8015880584716797,,,,,,,,
https://scontent-sit4-1.cdninstagram.com/t51.2885-15/e35/11909146_154674241538111_832383702_n.jpg,statue,0.9562987685203552,Religion,Culture,"My life",,Religion-s,Culture-s,Doing,
,art,0.9544621109962463,,,,,,,,
,woman,0.9334574937820435,,,,,,,,
,sculpture,0.933340847492218,,,,,,,,
,man,0.9313007593154907,,,,,,,,
,people,0.9137548208236694,,,,,,,,
,religion,0.8964298963546753,,,,,,,,
,monument,0.8912697434425354,,,,,,,,
,travel,0.8910788297653198,,,,,,,,
,marble,0.8831353187561035,,,,,,,,
,style,0.872794508934021,,,,,,,,
,old,0.864365816116333,,,,,,,,
,church,0.860160231590271,,,,,,,,
,god,0.8572139739990234,,,,,,,,
,gown,0.8560329079627991,,,,,,,,
,architecture,0.8521829843521118,,,,,,,,
,saint,0.8450180292129517,,,,,,,,
,ancient,0.8446952700614929,,,,,,,,
,city,0.8289578557014465,,,,,,,,
,holy,0.8152009844779968,,,,,,,,
https://scontent-sit4-1.cdninstagram.com/t51.2885-15/e35/12345793_1665022540403261_2050426011_n.jpg,people,0.9932727813720703,Media,Entertainment,,,Media-s,Events,,
,politician,0.984310507774353,,,,,,,,
,portrait,0.9780559539794922,,,,,,,,
,administration,0.9747312068939209,,,,,,,,
,leader,0.9739918112754822,,,,,,,,
,one,0.9615169763565063,,,,,,,,
,actor,0.949772298336029,,,,,,,,
,business,0.9467551708221436,,,,,,,,
,election,0.9207593202590942,,,,,,,,
,man,0.9148963689804077,,,,,,,,
,adult,0.9089353680610657,,,,,,,,
,ceremony,0.9013117551803589,,,,,,,,
,candidate,0.8903169631958008,,,,,,,,
,award,0.8877865672111511,,,,,,,,
,chair,0.8818303346633911,,,,,,,,
,festival,0.8712893724441528,,,,,,,,
,movie,0.858528733253479,,,,,,,,
,league,0.8434803485870361,,,,,,,,
,democracy,0.8281660079956055,,,,,,,,
,International,0.8063673973083496,,,,,,,,
https://scontent-sit4-1.cdninstagram.com/t51.2885-15/e35/12568802_173712383001467_22968396_n.jpg,drink,0.9965664148330688,Food,,,,"Meal time",,,
,beer,0.9923145771026611,,,,,,,,
,people,0.9908846616744995,,,,,,,,
,adult,0.9896062612533569,,,,,,,,
,man,0.9866478443145752,,,,,,,,
,coffee,0.981037974357605,,,,,,,,
,enjoyment,0.9612711668014526,,,,,,,,
,portrait,0.9596805572509766,,,,,,,,
,room,0.9576001763343811,,,,,,,,
,"facial expression",0.9543544054031372,,,,,,,,
,indoors,0.9527284502983093,,,,,,,,
,woman,0.9433441162109375,,,,,,,,
,family,0.940457820892334,,,,,,,,
,two,0.9259121417999268,,,,,,,,
,cup,0.9192416071891785,,,,,,,,
,alcohol,0.9178586006164551,,,,,,,,
,happiness,0.9100931286811829,,,,,,,,
,bar,0.9031139612197876,,,,,,,,
,sit,0.8945003151893616,,,,,,,,
,food,0.8736674189567566,,,,,,,,
https://scontent-sit4-1.cdninstagram.com/t51.2885-15/s750x750/sh0.08/e35/12107670_1635832503365555_1423124808_n.jpg,food,0.9946210384368896,Food,,,,"Meal time",,,
,meal,0.9791757464408875,,,,,,,,
,dish,0.9714854955673218,,,,,,,,
,dinner,0.9704042673110962,,,,,,,,
,pasta,0.9694991111755371,,,,,,,,
,cuisine,0.9694554209709167,,,,,,,,
,delicious,0.9643117785453796,,,,,,,,
,healthy,0.9641225934028625,,,,,,,,
,lunch,0.9573959112167358,,,,,,,,
,nutrition,0.9571583271026611,,,,,,,,
,bowl,0.9519037008285522,,,,,,,,
,spaghetti,0.9506060481071472,,,,,,,,
,cooking,0.9501839876174927,,,,,,,,
,tasty,0.9473873972892761,,,,,,,,
,hot,0.9456803798675537,,,,,,,,
,sauce,0.9420859813690186,,,,,,,,
,noodles,0.93708336353302,,,,,,,,
,traditional,0.9338259696960449,,,,,,,,
,health,0.9326926469802856,,,,,,,,
,plate,0.928898811340332,,,,,,,,
https://scontent-sit4-1.cdninstagram.com/t51.2885-15/s640x640/sh0.08/e35/12825861_1017591041617339_1696020443_n.jpg,sweet,0.9916043281555176,Food,,,,Dessert,,,
,cream,0.9909677505493164,,,,,,,,
,fruit,0.987035870552063,,,,,,,,
,delicious,0.9858620166778564,,,,,,,,
,berry,0.9841817617416382,,,,,,,,
,food,0.9837942123413086,,,,,,,,
,pie,0.9772705435752869,,,,,,,,
,refreshment,0.9701404571533203,,,,,,,,
,pastry,0.9699277281761169,,,,,,,,
,cake,0.9668280482292175,,,,,,,,
,"no person",0.9644895792007446,,,,,,,,
,creamy,0.9602736234664917,,,,,,,,
,chocolate,0.9582533240318298,,,,,,,,
,sugar,0.9582169055938721,,,,,,,,
,strawberry,0.9551627039909363,,,,,,,,
,jam,0.9507541656494141,,,,,,,,
,raspberry,0.9471832513809204,,,,,,,,
,"dairy product",0.94415283203125,,,,,,,,
,syrup,0.9436722993850708,,,,,,,,
,plate,0.942762017250061,,,,,,,,
https://scontent-sit4-1.cdninstagram.com/t51.2885-15/e35/1170242_1622437401373262_291616555_n.jpg,business,0.9794460535049438,Commerce,,,,"Product/brand shots",,,
,money,0.9249818325042725,,,,,,,,
,paper,0.913349986076355,,,,,,,,
,note,0.9048106670379639,,,,,,,,
,"no person",0.8881303071975708,,,,,,,,
,wealth,0.8607454895973206,,,,,,,,
,finance,0.8417154550552368,,,,,,,,
,education,0.8349668979644775,,,,,,,,
,family,0.8292891979217529,,,,,,,,
,house,0.8193063735961914,,,,,,,,
,money,0.8044627904891968,,,,,,,,
,travel,0.7989131212234497,,,,,,,,
,commerce,0.7955568432807922,,,,,,,,
,building,0.7782579660415649,,,,,,,,
,cash,0.7721754312515259,,,,,,,,
,architecture,0.7634153366088867,,,,,,,,
,symbol,0.7503725290298462,,,,,,,,
,bank,0.7451361417770386,,,,,,,,
,tourism,0.7437962889671326,,,,,,,,
,illustration,0.7432011365890503,,,,,,,,
https://scontent-sit4-1.cdninstagram.com/t51.2885-15/e35/11849979_1592306697660791_793914435_n.jpg,"no person",0.9816550612449646,Food,,,,Dessert,,,
,knife,0.9648728370666504,,,,,,,,
,food,0.9613536596298218,,,,,,,,
,milk,0.9527679681777954,,,,,,,,
,paper,0.9451446533203125,,,,,,,,
,table,0.9436978101730347,,,,,,,,
,"dairy product",0.9410866498947144,,,,,,,,
,business,0.938292384147644,,,,,,,,
,wood,0.9135619401931763,,,,,,,,
,drink,0.91044682264328,,,,,,,,
,indoors,0.9009604454040527,,,,,,,,
,luxury,0.8999947309494019,,,,,,,,
,delicious,0.8951534628868103,,,,,,,,
,"still life",0.892959475517273,,,,,,,,
,breakfast,0.8702893853187561,,,,,,,,
,health,0.86859130859375,,,,,,,,
,traditional,0.8587421178817749,,,,,,,,
,creamy,0.8445674180984497,,,,,,,,
,coffee,0.8355470895767212,,,,,,,,
,soap,0.8233673572540283,,,,,,,,
https://scontent-sit4-1.cdninstagram.com/t51.2885-15/e35/11379313_919794504754403_59667719_n.jpg,"no person",0.9949665069580078,Food,,,,"Meal time",,,
,rice,0.9902975559234619,,,,,,,,
,food,0.9890419840812683,,,,,,,,
,dinner,0.9856449365615845,,,,,,,,
,soup,0.9766833782196045,,,,,,,,
,lunch,0.975468635559082,,,,,,,,
,traditional,0.9735491275787354,,,,,,,,
,bowl,0.9697707295417786,,,,,,,,
,dish,0.9540717005729675,,,,,,,,
,homemade,0.9539117813110352,,,,,,,,
,creamy,0.9485710859298706,,,,,,,,
,delicious,0.9447556734085083,,,,,,,,
,parsley,0.9410426616668701,,,,,,,,
,hot,0.9405122995376587,,,,,,,,
,vegetable,0.9352008700370789,,,,,,,,
,cooking,0.929474949836731,,,,,,,,
,meal,0.9233032464981079,,,,,,,,
,nutrition,0.9213886260986328,,,,,,,,
,bread,0.9136179685592651,,,,,,,,
,spoon,0.9056041240692139,,,,,,,,
https://scontent-sit4-1.cdninstagram.com/t51.2885-15/s640x640/sh0.08/e35/12568276_919658238131122_2108505583_n.jpg,food,0.9967018365859985,Food,,,,"Meal time",,,
,meat,0.992129921913147,,,,,,,,
,dinner,0.9889394640922546,,,,,,,,
,"no person",0.9826207756996155,,,,,,,,
,plate,0.9793416261672974,,,,,,,,
,meal,0.9718121290206909,,,,,,,,
,vegetable,0.9704086780548096,,,,,,,,
,poultry,0.9686665534973145,,,,,,,,
,lunch,0.9679199457168579,,,,,,,,
,dish,0.9667706489562988,,,,,,,,
,delicious,0.9655166864395142,,,,,,,,
,potato,0.9529939889907837,,,,,,,,
,cooking,0.9464758038520813,,,,,,,,
,beef,0.9407333135604858,,,,,,,,
,nutrition,0.9398748278617859,,,,,,,,
,chicken,0.9361542463302612,,,,,,,,
,grow,0.9346420168876648,,,,,,,,
,restaurant,0.9243407249450684,,,,,,,,
,"root vegetable",0.9232512712478638,,,,,,,,
,parsley,0.9196875095367432,,,,,,,,
https://scontent-sit4-1.cdninstagram.com/t51.2885-15/e35/12628099_829244807183935_1730179780_n.jpg,water,0.9918027520179749,Environment,Travel,,,"Manmade beauty",Travel-s,,
,travel,0.990689754486084,,,,,,,,
,city,0.9817963242530823,,,,,,,,
,river,0.9815002679824829,,,,,,,,
,architecture,0.9716540575027466,,,,,,,,
,boat,0.9603728652000427,,,,,,,,
,building,0.9595425128936768,,,,,,,,
,sky,0.9593048095703125,,,,,,,,
,tourism,0.9592045545578003,,,,,,,,
,"no person",0.9563463926315308,,,,,,,,
,church,0.946471095085144,,,,,,,,
,watercraft,0.9460583329200745,,,,,,,,
,old,0.9457519054412842,,,,,,,,
,outdoors,0.9361976385116577,,,,,,,,
,sight,0.9358765482902527,,,,,,,,
,town,0.9356914162635803,,,,,,,,
,reflection,0.9231448173522949,,,,,,,,
,sea,0.9202219247817993,,,,,,,,
,bridge,0.917080819606781,,,,,,,,
,urban,0.9102002382278442,,,,,,,,
https://scontent-sit4-1.cdninstagram.com/t51.2885-15/e35/12093825_494796367349700_1000532404_n.jpg,chocolate,0.9966316223144531,Food,,,,Dessert,,,
,sweet,0.9945260286331177,,,,,,,,
,cream,0.9939666390419006,,,,,,,,
,cake,0.9863882660865784,,,,,,,,
,food,0.9800496697425842,,,,,,,,
,delicious,0.9749624729156494,,,,,,,,
,vanilla,0.9745004773139954,,,,,,,,
,sugar,0.9706382751464844,,,,,,,,
,"no person",0.9674688577651978,,,,,,,,
,fruit,0.9660228490829468,,,,,,,,
,plate,0.9644438624382019,,,,,,,,
,pastry,0.961795449256897,,,,,,,,
,creamy,0.9597195386886597,,,,,,,,
,coffee,0.9573342204093933,,,,,,,,
,cup,0.9373955726623535,,,,,,,,
,berry,0.9371420741081238,,,,,,,,
,goody,0.9363764524459839,,,,,,,,
,indulgence,0.9263429641723633,,,,,,,,
,epicure,0.9194124937057495,,,,,,,,
,bakery,0.9185543656349182,,,,,,,,
https://scontent-sit4-1.cdninstagram.com/t51.2885-15/s640x640/sh0.08/e35/11850130_881448625265607_1123295737_n.jpg,business,0.9818558096885681,Commerce,Technology,,,"Product/brand shots",Technology-s,,
,telephone,0.9817266464233398,,,,,,,,
,touch,0.9815239906311035,,,,,,,,
,computer,0.9757096171379089,,,,,,,,
,technology,0.9723744988441467,,,,,,,,
,internet,0.9677820205688477,,,,,,,,
,screen,0.9674885272979736,,,,,,,,
,laptop,0.9656492471694946,,,,,,,,
,display,0.9623668193817139,,,,,,,,
,wireless,0.9552311897277832,,,,,,,,
,electronics,0.9442595839500427,,,,,,,,
,device,0.9374459981918335,,,,,,,,
,data,0.9258044958114624,,,,,,,,
,"no person",0.924562931060791,,,,,,,,
,portable,0.9217129349708557,,,,,,,,
,pill,0.9153566360473633,,,,,,,,
,identity,0.9082076549530029,,,,,,,,
,communication,0.8874455094337463,,,,,,,,
,pad,0.8847821950912476,,,,,,,,
,keyboard,0.8785421848297119,,,,,,,,
https://scontent-sit4-1.cdninstagram.com/t51.2885-15/e35/11906371_884891001600921_1860830286_n.jpg,coffee,0.9873762726783752,Food,Commerce,,,Dessert,"Product/brand shots",,
,chocolate,0.9818800687789917,,,,,,,,
,"no person",0.9800050854682922,,,,,,,,
,delicious,0.9792995452880859,,,,,,,,
,cake,0.9761607646942139,,,,,,,,
,cream,0.9746384024620056,,,,,,,,
,breakfast,0.9706557989120483,,,,,,,,
,sugar,0.9669508934020996,,,,,,,,
,baking,0.9631973505020142,,,,,,,,
,sweet,0.9608592391014099,,,,,,,,
,food,0.9587539434432983,,,,,,,,
,tea,0.9410622119903564,,,,,,,,
,homemade,0.9341350793838501,,,,,,,,
,cup,0.9231538772583008,,,,,,,,
,jam,0.8852299451828003,,,,,,,,
,drink,0.8788610696792603,,,,,,,,
,dark,0.8769370913505554,,,,,,,,
,dawn,0.8754004836082458,,,,,,,,
,creamy,0.8726271390914917,,,,,,,,
,indoors,0.8676174879074097,,,,,,,,
https://scontent-sit4-1.cdninstagram.com/t51.2885-15/e35/12627965_231079097225604_1213385381_n.jpg,food,0.9954308271408081,Food,,,,"Meal time",,,
,dinner,0.993553638458252,,,,,,,,
,"no person",0.9893100261688232,,,,,,,,
,meat,0.9846311807632446,,,,,,,,
,lunch,0.9782145619392395,,,,,,,,
,plate,0.9743810296058655,,,,,,,,
,delicious,0.9715968370437622,,,,,,,,
,meal,0.9700378775596619,,,,,,,,
,dish,0.9591410160064697,,,,,,,,
,potato,0.9558591842651367,,,,,,,,
,cooking,0.9480128288269043,,,,,,,,
,dining,0.9458540678024292,,,,,,,,
,pork,0.9397066831588745,,,,,,,,
,knife,0.9363836050033569,,,,,,,,
,chicken,0.935082197189331,,,,,,,,
,vegetable,0.9321726560592651,,,,,,,,
,poultry,0.9306542873382568,,,,,,,,
,traditional,0.9212127923965454,,,,,,,,
,nutrition,0.9135732650756836,,,,,,,,
,cuisine,0.9129812717437744,,,,,,,,
https://scontent-sit4-1.cdninstagram.com/t51.2885-15/e35/11906152_906782952732020_1948922039_n.jpg,food,0.9913038015365601,Food,,,,"Meal time",,,
,dinner,0.9860949516296387,,,,,,,,
,lunch,0.9765907526016235,,,,,,,,
,"no person",0.972453236579895,,,,,,,,
,delicious,0.9589656591415405,,,,,,,,
,restaurant,0.9538160562515259,,,,,,,,
,meal,0.9526084661483765,,,,,,,,
,plate,0.9424175024032593,,,,,,,,
,"french fries",0.9373872876167297,,,,,,,,
,vegetable,0.9306048154830933,,,,,,,,
,potato,0.9290595054626465,,,,,,,,
,chicken,0.9285777807235718,,,,,,,,
,traditional,0.9151128530502319,,,,,,,,
,parsley,0.9093083143234253,,,,,,,,
,dish,0.9050386548042297,,,,,,,,
,hot,0.9028050899505615,,,,,,,,
,meat,0.8972342014312744,,,,,,,,
,fast,0.8904222846031189,,,,,,,,
,cooking,0.8826361894607544,,,,,,,,
,refreshment,0.873584508895874,,,,,,,,
https://scontent-sit4-1.cdninstagram.com/t51.2885-15/e35/11374187_1463135027328879_1122960854_n.jpg,"no person",0.9957034587860107,Food,,,,Dessert,,,
,food,0.9903428554534912,,,,,,,,
,delicious,0.9870630502700806,,,,,,,,
,breakfast,0.9863880276679993,,,,,,,,
,sugar,0.9685419797897339,,,,,,,,
,baking,0.9618872404098511,,,,,,,,
,plate,0.9583293199539185,,,,,,,,
,sweet,0.9537221193313599,,,,,,,,
,grow,0.9524770975112915,,,,,,,,
,cream,0.9515260457992554,,,,,,,,
,cake,0.9493968486785889,,,,,,,,
,bread,0.9475998878479004,,,,,,,,
,fruit,0.9403851628303528,,,,,,,,
,homemade,0.9400887489318848,,,,,,,,
,nutrition,0.9372882843017578,,,,,,,,
,toast,0.9243170022964478,,,,,,,,
,slice,0.9221574068069458,,,,,,,,
,lunch,0.9204545021057129,,,,,,,,
,dawn,0.9198720455169678,,,,,,,,
,pie,0.9192386269569397,,,,,,,,
https://scontent-sit4-1.cdninstagram.com/t51.2885-15/e35/12716947_470223636502809_722476592_n.jpg,architecture,0.9955170154571533,Environment,Travel,,,"Manmade beauty",Travel-s,,
,travel,0.9936774373054504,,,,,,,,
,"no person",0.9855258464813232,,,,,,,,
,outdoors,0.9809620380401611,,,,,,,,
,column,0.9719557166099548,,,,,,,,
,sky,0.9671330451965332,,,,,,,,
,building,0.9660794734954834,,,,,,,,
,monument,0.9629546403884888,,,,,,,,
,city,0.9579576253890991,,,,,,,,
,support,0.9459003210067749,,,,,,,,
,sculpture,0.9436768293380737,,,,,,,,
,statue,0.9418977499008179,,,,,,,,
,old,0.9220730066299438,,,,,,,,
,tourism,0.9211797714233398,,,,,,,,
,fountain,0.9184072017669678,,,,,,,,
,administration,0.9152559041976929,,,,,,,,
,ancient,0.9133977890014648,,,,,,,,
,landmark,0.9128726720809937,,,,,,,,
,tower,0.9064617156982422,,,,,,,,
,water,0.8943437933921814,,,,,,,,
https://scontent-sit4-1.cdninstagram.com/t51.2885-15/e35/12568113_1574159362907806_1667751089_n.jpg,food,0.9960635304450989,Food,,,,"Meal time",,,
,dinner,0.9934333562850952,,,,,,,,
,lunch,0.9890873432159424,,,,,,,,
,meal,0.9799591302871704,,,,,,,,
,plate,0.9789742231369019,,,,,,,,
,delicious,0.9743201732635498,,,,,,,,
,dish,0.9721660017967224,,,,,,,,
,"no person",0.9666081666946411,,,,,,,,
,sauce,0.9628853797912598,,,,,,,,
,vegetable,0.9621785283088684,,,,,,,,
,pasta,0.9591288566589355,,,,,,,,
,cuisine,0.9558355212211609,,,,,,,,
,restaurant,0.950859546661377,,,,,,,,
,fish,0.9386793375015259,,,,,,,,
,spaghetti,0.9262474775314331,,,,,,,,
,epicure,0.9260985851287842,,,,,,,,
,cooking,0.923545241355896,,,,,,,,
,tomato,0.9155045747756958,,,,,,,,
,meat,0.9150943756103516,,,,,,,,
,fork,0.9129209518432617,,,,,,,,
https://scontent-sit4-1.cdninstagram.com/t51.2885-15/e35/13266923_1057392997674204_363497516_n.jpg,food,0.9935976266860962,Food,,,,"Meal time",,,
,meat,0.9747024774551392,,,,,,,,
,meal,0.9730979800224304,,,,,,,,
,lunch,0.9574075937271118,,,,,,,,
,cuisine,0.9509446620941162,,,,,,,,
,dinner,0.9475090503692627,,,,,,,,
,delicious,0.9440954923629761,,,,,,,,
,dish,0.9423395395278931,,,,,,,,
,"no person",0.9418023824691772,,,,,,,,
,plate,0.9377303719520569,,,,,,,,
,vegetable,0.936249315738678,,,,,,,,
,epicure,0.9267736673355103,,,,,,,,
,hot,0.9241621494293213,,,,,,,,
,tasty,0.9138704538345337,,,,,,,,
,tomato,0.9090249538421631,,,,,,,,
,healthy,0.9081525802612305,,,,,,,,
,traditional,0.905232310295105,,,,,,,,
,restaurant,0.9051164388656616,,,,,,,,
,sauce,0.8967255353927612,,,,,,,,
,fish,0.8954489231109619,,,,,,,,
https://scontent-sit4-1.cdninstagram.com/t51.2885-15/e35/12093603_506848286170036_325263106_n.jpg,"no person",0.9812594652175903,Food,,,,"Drinks and snack",,,
,desktop,0.9261341094970703,,,,,,,,
,food,0.9211797118186951,,,,,,,,
,treatment,0.9173133969306946,,,,,,,,
,health,0.9035741090774536,,,,,,,,
,traditional,0.8636761903762817,,,,,,,,
,sweet,0.8621280789375305,,,,,,,,
,cookie,0.8385459780693054,,,,,,,,
,isolated,0.8112286329269409,,,,,,,,
,delicious,0.8094523549079895,,,,,,,,
,color,0.8085787892341614,,,,,,,,
,relaxation,0.806340217590332,,,,,,,,
,candy,0.7797521352767944,,,,,,,,
,sugar,0.7641611099243164,,,,,,,,
,aromatherapy,0.7610994577407837,,,,,,,,
,wood,0.7537678480148315,,,,,,,,
,medicine,0.7444802522659302,,,,,,,,
,"still life",0.7345889806747437,,,,,,,,
,coffee,0.7338435649871826,,,,,,,,
,luxury,0.7298583388328552,,,,,,,,
https://scontent-sit4-1.cdninstagram.com/t51.2885-15/e35/12816826_1511835055791900_1404586779_n.jpg,"no person",0.9928381443023682,Food,,,,"Meal time",,,
,food,0.9838957786560059,,,,,,,,
,dinner,0.9834423065185547,,,,,,,,
,soup,0.9788740873336792,,,,,,,,
,lunch,0.9751230478286743,,,,,,,,
,parsley,0.9744656682014465,,,,,,,,
,bowl,0.9644832611083984,,,,,,,,
,delicious,0.95188307762146,,,,,,,,
,hot,0.9480302333831787,,,,,,,,
,cooking,0.9479702711105347,,,,,,,,
,meat,0.9366530776023865,,,,,,,,
,vegetable,0.9349389672279358,,,,,,,,
,dish,0.9219444394111633,,,,,,,,
,grow,0.9169368743896484,,,,,,,,
,spoon,0.9168335795402527,,,,,,,,
,meal,0.9091684818267822,,,,,,,,
,nutrition,0.907378077507019,,,,,,,,
,health,0.9071716070175171,,,,,,,,
,stew,0.9035904407501221,,,,,,,,
,beef,0.9025509357452393,,,,,,,,
https://scontent-sit4-1.cdninstagram.com/t51.2885-15/e35/11325755_763020063808271_2119624353_n.jpg,food,0.9936720728874207,Food,,,,"Meal time",,,
,bowl,0.982338011264801,,,,,,,,
,hot,0.9802789688110352,,,,,,,,
,soup,0.9784172773361206,,,,,,,,
,traditional,0.9736144542694092,,,,,,,,
,"no person",0.9732978343963623,,,,,,,,
,cooking,0.9677688479423523,,,,,,,,
,dish,0.9675951600074768,,,,,,,,
,dinner,0.9614180326461792,,,,,,,,
,meal,0.9527461528778076,,,,,,,,
,vegetable,0.9458738565444946,,,,,,,,
,plate,0.9436159729957581,,,,,,,,
,"still life",0.9427776336669922,,,,,,,,
,cuisine,0.9346967935562134,,,,,,,,
,lunch,0.9328881502151489,,,,,,,,
,wood,0.9314219355583191,,,,,,,,
,meat,0.9280271530151367,,,,,,,,
,egg,0.9249021410942078,,,,,,,,
,table,0.9172841310501099,,,,,,,,
,delicious,0.91234290599823,,,,,,,,
https://scontent-sit4-1.cdninstagram.com/t51.2885-15/e35/12728673_1697450227143606_1400800100_n.jpg,thread,0.9727144241333008,Commerce,Food,,,"Product/brand shots",Food-s,,
,Christmas,0.9625905752182007,,,,,,,,
,"no person",0.9522799253463745,,,,,,,,
,celebration,0.9438599348068237,,,,,,,,
,bow,0.9288050532341003,,,,,,,,
,gift,0.9282189607620239,,,,,,,,
,box,0.9271381497383118,,,,,,,,
,gold,0.909459114074707,,,,,,,,
,symbol,0.9082062244415283,,,,,,,,
,decoration,0.9037682414054871,,,,,,,,
,shining,0.8818660974502563,,,,,,,,
,desktop,0.8802280426025391,,,,,,,,
,luxury,0.8463693857192993,,,,,,,,
,ornate,0.8037905097007751,,,,,,,,
,shopping,0.8030825853347778,,,,,,,,
,paper,0.7853965759277344,,,,,,,,
,birthday,0.763481080532074,,,,,,,,
,color,0.7502355575561523,,,,,,,,
,winter,0.7358335852622986,,,,,,,,
,bright,0.6925444602966309,,,,,,,,
https://scontent-sit4-1.cdninstagram.com/t51.2885-15/e35/12716731_1689209664658759_896772159_n.jpg,dinner,0.9964573383331299,Food,,,,"Meal time",,,
,"no person",0.9932818412780762,,,,,,,,
,food,0.9923866987228394,,,,,,,,
,lunch,0.9878271818161011,,,,,,,,
,meat,0.9871925115585327,,,,,,,,
,delicious,0.9760682582855225,,,,,,,,
,beef,0.9756460189819336,,,,,,,,
,potato,0.9696214199066162,,,,,,,,
,"french fries",0.9577705264091492,,,,,,,,
,traditional,0.9526768922805786,,,,,,,,
,cooking,0.9519339799880981,,,,,,,,
,pork,0.946650505065918,,,,,,,,
,juicy,0.9413015246391296,,,,,,,,
,meal,0.9368255138397217,,,,,,,,
,health,0.9227888584136963,,,,,,,,
,grow,0.9170680046081543,,,,,,,,
,nutrition,0.9153302907943726,,,,,,,,
,lamb,0.9146956205368042,,,,,,,,
,bread,0.9136464595794678,,,,,,,,
,vegetable,0.9132295846939087,,,,,,,,
https://scontent-sit4-1.cdninstagram.com/t51.2885-15/e35/12750183_176250086085446_1059539528_n.jpg,travel,0.9934253692626953,Travel,Environment,,,Travel-s,"Manmade beauty",,
,architecture,0.9897959232330322,,,,,,,,
,river,0.9847233295440674,,,,,,,,
,building,0.9784339666366577,,,,,,,,
,parliament,0.9769598245620728,,,,,,,,
,tourism,0.9705220460891724,,,,,,,,
,sky,0.9647725820541382,,,,,,,,
,administration,0.9580909013748169,,,,,,,,
,city,0.9560878276824951,,,,,,,,
,water,0.9515262842178345,,,,,,,,
,"no person",0.9479056596755981,,,,,,,,
,old,0.9466687440872192,,,,,,,,
,landmark,0.941340982913971,,,,,,,,
,castle,0.9388952255249023,,,,,,,,
,sight,0.9297038316726685,,,,,,,,
,historic,0.9117275476455688,,,,,,,,
,outdoors,0.9047960042953491,,,,,,,,
,sightseeing,0.9014631509780884,,,,,,,,
,town,0.8911268711090088,,,,,,,,
,landmark,0.8907077312469482,,,,,,,,
https://scontent-sit4-1.cdninstagram.com/t51.2885-15/e35/11363836_1455583088081623_1408565548_n.jpg,food,0.9895192384719849,Food,,,,"Meal time",,,
,"no person",0.9865394234657288,,,,,,,,
,meal,0.954993724822998,,,,,,,,
,hot,0.9499471783638,,,,,,,,
,breakfast,0.9426019191741943,,,,,,,,
,table,0.9403488636016846,,,,,,,,
,plate,0.9340580105781555,,,,,,,,
,traditional,0.9232954978942871,,,,,,,,
,lunch,0.8994973301887512,,,,,,,,
,delicious,0.8982571363449097,,,,,,,,
,cutlery,0.8981550931930542,,,,,,,,
,spoon,0.8966281414031982,,,,,,,,
,restaurant,0.896396279335022,,,,,,,,
,tableware,0.8842863440513611,,,,,,,,
,fork,0.8746129274368286,,,,,,,,
,dinner,0.8735215663909912,,,,,,,,
,dish,0.8677138090133667,,,,,,,,
,dawn,0.8605285882949829,,,,,,,,
,drink,0.8594377040863037,,,,,,,,
,refreshment,0.8593039512634277,,,,,,,,
https://scontent-sit4-1.cdninstagram.com/t51.2885-15/e35/13277832_980386055390539_1664170488_n.jpg,"no person",0.9938205480575562,Food,,,,"Meal time",,,
,delicious,0.9892432689666748,,,,,,,,
,food,0.9817420244216919,,,,,,,,
,dinner,0.9811570644378662,,,,,,,,
,lunch,0.9741742610931396,,,,,,,,
,nutrition,0.9466269612312317,,,,,,,,
,plate,0.9446182250976562,,,,,,,,
,cooking,0.9421916007995605,,,,,,,,
,chicken,0.9372561573982239,,,,,,,,
,traditional,0.9351714849472046,,,,,,,,
,meal,0.9286961555480957,,,,,,,,
,pork,0.9211196303367615,,,,,,,,
,baking,0.9197028875350952,,,,,,,,
,health,0.9111850261688232,,,,,,,,
,dish,0.9099708199501038,,,,,,,,
,meat,0.9049012660980225,,,,,,,,
,ready,0.9047086238861084,,,,,,,,
,taste,0.9046895503997803,,,,,,,,
,dining,0.9024568796157837,,,,,,,,
,breakfast,0.9019782543182373,,,,,,,,
https://scontent-sit4-1.cdninstagram.com/t51.2885-15/e35/13167421_488087651395122_1178513586_n.jpg,food,0.9872881770133972,Food,,,,"Meal time",,,
,dinner,0.9853082895278931,,,,,,,,
,traditional,0.9751832485198975,,,,,,,,
,lunch,0.9750479459762573,,,,,,,,
,delicious,0.9706681966781616,,,,,,,,
,"no person",0.9655541181564331,,,,,,,,
,hot,0.9551714658737183,,,,,,,,
,soup,0.9546775817871094,,,,,,,,
,dish,0.9480583667755127,,,,,,,,
,bowl,0.9423414468765259,,,,,,,,
,cooking,0.9414423704147339,,,,,,,,
,nutrition,0.9207571148872375,,,,,,,,
,health,0.9143930673599243,,,,,,,,
,plate,0.9134612083435059,,,,,,,,
,cuisine,0.9126455783843994,,,,,,,,
,vegetable,0.9121510982513428,,,,,,,,
,meal,0.9099538326263428,,,,,,,,
,closeup,0.9094060659408569,,,,,,,,
,healthy,0.9064232110977173,,,,,,,,
,chicken,0.8992360830307007,,,,,,,,
https://scontent-sit4-1.cdninstagram.com/t51.2885-15/e35/12783408_550937895066527_650797536_n.jpg,rice,0.9982141852378845,Food,,,,"Meal time",,,
,food,0.99802565574646,,,,,,,,
,cuisine,0.9927067160606384,,,,,,,,
,dinner,0.9902105331420898,,,,,,,,
,meal,0.9901236295700073,,,,,,,,
,meat,0.9886807203292847,,,,,,,,
,bowl,0.9884734153747559,,,,,,,,
,lunch,0.9875325560569763,,,,,,,,
,dish,0.9864724278450012,,,,,,,,
,hot,0.9782623648643494,,,,,,,,
,delicious,0.9733172655105591,,,,,,,,
,soup,0.9732968807220459,,,,,,,,
,cooking,0.972375750541687,,,,,,,,
,pork,0.9716758728027344,,,,,,,,
,traditional,0.9673665761947632,,,,,,,,
,healthy,0.9672653675079346,,,,,,,,
,chicken,0.9672092199325562,,,,,,,,
,pepper,0.9626226425170898,,,,,,,,
,vegetable,0.9601951837539673,,,,,,,,
,diet,0.957290768623352,,,,,,,,
https://scontent-sit4-1.cdninstagram.com/t51.2885-15/e35/12728554_1521419828159669_614344843_n.jpg,architecture,0.9951930642127991,Environment,Travel,,,"Manmade beauty",Travel-s,,
,travel,0.9911911487579346,,,,,,,,
,city,0.9817842245101929,,,,,,,,
,building,0.9812185764312744,,,,,,,,
,ancient,0.9755961894989014,,,,,,,,
,castle,0.9725799560546875,,,,,,,,
,old,0.9662435054779053,,,,,,,,
,"no person",0.9660422801971436,,,,,,,,
,square,0.9638833999633789,,,,,,,,
,outdoors,0.9605360627174377,,,,,,,,
,tourism,0.9599973559379578,,,,,,,,
,sky,0.9537461996078491,,,,,,,,
,street,0.9486662149429321,,,,,,,,
,urban,0.9423436522483826,,,,,,,,
,landmark,0.9313089847564697,,,,,,,,
,baroque,0.9259750247001648,,,,,,,,
,administration,0.9194591045379639,,,,,,,,
,house,0.9177261590957642,,,,,,,,
,facade,0.9174336194992065,,,,,,,,
,museum,0.9128328561782837,,,,,,,,
https://scontent-sit4-1.cdninstagram.com/t51.2885-15/e35/12501752_529829497184517_410668295_n.jpg,food,0.9960454106330872,Environment,,,,"Manmade beauty",,,
,"no person",0.9871150851249695,,,,,,,,
,meat,0.9863271713256836,,,,,,,,
,dinner,0.9802989363670349,,,,,,,,
,poultry,0.9727864861488342,,,,,,,,
,chicken,0.9610185623168945,,,,,,,,
,cooking,0.9564030170440674,,,,,,,,
,meal,0.9485055208206177,,,,,,,,
,vegetable,0.9396387934684753,,,,,,,,
,restaurant,0.934217095375061,,,,,,,,
,dish,0.9296020269393921,,,,,,,,
,plate,0.9285012483596802,,,,,,,,
,knife,0.9219246506690979,,,,,,,,
,delicious,0.9039793610572815,,,,,,,,
,grow,0.9035937786102295,,,,,,,,
,lunch,0.9016780257225037,,,,,,,,
,beef,0.894673228263855,,,,,,,,
,pork,0.8935486078262329,,,,,,,,
,onion,0.8913085460662842,,,,,,,,
,wine,0.8731594085693359,,,,,,,,
https://scontent-sit4-1.cdninstagram.com/t51.2885-15/e35/12106244_1667815760123206_1897743460_n.jpg,indoors,0.9859192371368408,Food,,,,Dessert,,,
,people,0.9779231548309326,,,,,,,,
,man,0.9736748933792114,,,,,,,,
,family,0.9574213027954102,,,,,,,,
,table,0.943025529384613,,,,,,,,
,adult,0.9420607089996338,,,,,,,,
,one,0.9386184215545654,,,,,,,,
,portrait,0.933665931224823,,,,,,,,
,food,0.9277273416519165,,,,,,,,
,enjoyment,0.8944939374923706,,,,,,,,
,happiness,0.8864462375640869,,,,,,,,
,coffee,0.8719744682312012,,,,,,,,
,meal,0.870734691619873,,,,,,,,
,restaurant,0.8598287105560303,,,,,,,,
,room,0.856870174407959,,,,,,,,
,sit,0.8460557460784912,,,,,,,,
,child,0.8421028852462769,,,,,,,,
,lifestyle,0.8379666805267334,,,,,,,,
,fun,0.8372983932495117,,,,,,,,
,cooking,0.7962819337844849,,,,,,,,
https://scontent-sit4-1.cdninstagram.com/t51.2885-15/e35/12292850_199322463739424_1039791384_n.jpg,"no person",0.9962670803070068,Food,,,,"Meal time",,,
,dinner,0.9932705163955688,,,,,,,,
,lunch,0.9899181127548218,,,,,,,,
,food,0.986080527305603,,,,,,,,
,delicious,0.9731679558753967,,,,,,,,
,pork,0.9519681930541992,,,,,,,,
,meal,0.9505254030227661,,,,,,,,
,cooking,0.944197416305542,,,,,,,,
,meat,0.9433363676071167,,,,,,,,
,nutrition,0.9400073289871216,,,,,,,,
,bacon,0.9397875070571899,,,,,,,,
,chicken,0.9388440251350403,,,,,,,,
,breakfast,0.9358382821083069,,,,,,,,
,bread,0.9341847896575928,,,,,,,,
,vegetable,0.9281096458435059,,,,,,,,
,health,0.9131587743759155,,,,,,,,
,dining,0.9126594066619873,,,,,,,,
,plate,0.9094934463500977,,,,,,,,
,ingredients,0.908858597278595,,,,,,,,
,ham,0.9042584896087646,,,,,,,,
https://scontent-sit4-1.cdninstagram.com/t51.2885-15/e35/13167289_1278364185511023_1855176990_n.jpg,food,0.9944952726364136,Food,,,,"Meal time",,,
,dinner,0.9900108575820923,,,,,,,,
,lunch,0.9850748777389526,,,,,,,,
,meal,0.980760395526886,,,,,,,,
,delicious,0.975600004196167,,,,,,,,
,vegetable,0.9738407731056213,,,,,,,,
,dish,0.9728219509124756,,,,,,,,
,cuisine,0.9711729288101196,,,,,,,,
,rice,0.9645543694496155,,,,,,,,
,traditional,0.9570127129554749,,,,,,,,
,egg,0.9569677114486694,,,,,,,,
,cooking,0.9559604525566101,,,,,,,,
,meat,0.9542126655578613,,,,,,,,
,plate,0.9499590396881104,,,,,,,,
,hot,0.9485782384872437,,,,,,,,
,bowl,0.9465246796607971,,,,,,,,
,"no person",0.9407292604446411,,,,,,,,
,epicure,0.938454270362854,,,,,,,,
,onion,0.9255467057228088,,,,,,,,
,nutrition,0.9238488674163818,,,,,,,,
https://scontent-sit4-1.cdninstagram.com/t51.2885-15/e35/12716567_232722543732437_622024358_n.jpg,water,0.9937161207199097,Environment,Travel,,,"Manmade beauty",Travel-s,,
,sea,0.9861133098602295,,,,,,,,
,harbor,0.98600172996521,,,,,,,,
,city,0.9810205698013306,,,,,,,,
,seashore,0.977963387966156,,,,,,,,
,town,0.9692432880401611,,,,,,,,
,watercraft,0.9655696153640747,,,,,,,,
,travel,0.9640302658081055,,,,,,,,
,"no person",0.9615188837051392,,,,,,,,
,pier,0.9527738690376282,,,,,,,,
,ship,0.95194011926651,,,,,,,,
,boat,0.9431766271591187,,,,,,,,
,port,0.9319543838500977,,,,,,,,
,beach,0.9237295389175415,,,,,,,,
,cityscape,0.9196373224258423,,,,,,,,
,river,0.9185785055160522,,,,,,,,
,landscape,0.9178812503814697,,,,,,,,
,architecture,0.9162743091583252,,,,,,,,
,"transportation system",0.9024627804756165,,,,,,,,
,house,0.9004981517791748,,,,,,,,
https://scontent-sit4-1.cdninstagram.com/t51.2885-15/s750x750/sh0.08/e35/11906275_916459021723859_2064822176_n.jpg,season,0.9785322546958923,Celebrations,Arts,,,"Community Events",Arts-s,,
,desktop,0.9720070958137512,,,,,,,,
,vector,0.9703752994537354,,,,,,,,
,celebration,0.9678080677986145,,,,,,,,
,decoration,0.9547050595283508,,,,,,,,
,design,0.9539366960525513,,,,,,,,
,winter,0.9523460865020752,,,,,,,,
,illustration,0.9504712820053101,,,,,,,,
,greeting,0.9466240406036377,,,,,,,,
,bill,0.9396181106567383,,,,,,,,
,snow,0.9391162395477295,,,,,,,,
,symbol,0.9383611679077148,,,,,,,,
,card,0.9250293970108032,,,,,,,,
,nature,0.9213560223579407,,,,,,,,
,art,0.9205477237701416,,,,,,,,
,Christmas,0.9150882959365845,,,,,,,,
,summer,0.8963806629180908,,,,,,,,
,vacation,0.8917498588562012,,,,,,,,
,banner,0.8910178542137146,,,,,,,,
,bright,0.8867727518081665,,,,,,,,
https://scontent-sit4-1.cdninstagram.com/t51.2885-15/e35/11881598_382152675328165_1817187085_n.jpg,food,0.9835129976272583,"My life",Commerce,Food,,"Here I am","Product/brand shots",Food-s,
,dinner,0.9724018573760986,,,,,,,,
,restaurant,0.962688684463501,,,,,,,,
,lunch,0.9538486003875732,,,,,,,,
,meal,0.9526554346084595,,,,,,,,
,traditional,0.9354737997055054,,,,,,,,
,cuisine,0.9304323196411133,,,,,,,,
,epicure,0.9230232238769531,,,,,,,,
,bowl,0.9165774583816528,,,,,,,,
,cooking,0.9149103164672852,,,,,,,,
,delicious,0.9143555760383606,,,,,,,,
,dish,0.9118247032165527,,,,,,,,
,"no person",0.9090076684951782,,,,,,,,
,seafood,0.9057040810585022,,,,,,,,
,plate,0.9038175344467163,,,,,,,,
,table,0.9034833312034607,,,,,,,,
,healthy,0.895788848400116,,,,,,,,
,appetizer,0.8948737978935242,,,,,,,,
,wood,0.8944224119186401,,,,,,,,
,dining,0.8943317532539368,,,,,,,,
https://scontent-sit4-1.cdninstagram.com/t51.2885-15/e35/11849468_737918239643087_1364829799_n.jpg,water,0.9909892082214355,Environment,Travel,,,"Natural beauty",Travel-s,,
,mountain,0.9888770580291748,,,,,,,,
,"no person",0.9864250421524048,,,,,,,,
,landscape,0.9759894609451294,,,,,,,,
,lake,0.9756473302841187,,,,,,,,
,travel,0.9688376784324646,,,,,,,,
,tree,0.9356405138969421,,,,,,,,
,nature,0.9244015216827393,,,,,,,,
,outdoors,0.9165081977844238,,,,,,,,
,snow,0.9149186611175537,,,,,,,,
,wood,0.914702296257019,,,,,,,,
,scenic,0.9126335382461548,,,,,,,,
,river,0.9054508805274963,,,,,,,,
,reflection,0.8965405821800232,,,,,,,,
,valley,0.8817847967147827,,,,,,,,
,sky,0.8755373358726501,,,,,,,,
,fjord,0.8742110729217529,,,,,,,,
,daylight,0.8703429698944092,,,,,,,,
,lakeside,0.8547277450561523,,,,,,,,
,seashore,0.8337631821632385,,,,,,,,
https://scontent-sit4-1.cdninstagram.com/t51.2885-15/e35/11875279_950788148301013_561520018_n.jpg,food,0.9964247345924377,Food,,,,"Meal time",,,
,"no person",0.9850136637687683,,,,,,,,
,dinner,0.9761567115783691,,,,,,,,
,vegetable,0.9709423780441284,,,,,,,,
,soup,0.9660449028015137,,,,,,,,
,meat,0.9660356044769287,,,,,,,,
,delicious,0.9657230973243713,,,,,,,,
,meal,0.9614353179931641,,,,,,,,
,dish,0.9563583135604858,,,,,,,,
,cooking,0.9508112668991089,,,,,,,,
,lunch,0.9480752348899841,,,,,,,,
,pork,0.9455428123474121,,,,,,,,
,bowl,0.9447803497314453,,,,,,,,
,plate,0.9344583749771118,,,,,,,,
,cuisine,0.9273681044578552,,,,,,,,
,grow,0.9238812923431396,,,,,,,,
,traditional,0.9139158725738525,,,,,,,,
,hot,0.9041410088539124,,,,,,,,
,restaurant,0.9032204747200012,,,,,,,,
,egg,0.9016382694244385,,,,,,,,
https://scontent-sit4-1.cdninstagram.com/l/t51.2885-15/e35/13256912_1135950906425352_1681266705_n.jpg,food,0.9930761456489563,Food,,,,"Meal time",,,
,dinner,0.9880013465881348,,,,,,,,
,lunch,0.9860776662826538,,,,,,,,
,"no person",0.9828333854675293,,,,,,,,
,meal,0.9684075117111206,,,,,,,,
,plate,0.9674762487411499,,,,,,,,
,dish,0.9671921730041504,,,,,,,,
,delicious,0.9639848470687866,,,,,,,,
,meat,0.9599975347518921,,,,,,,,
,bowl,0.9564684629440308,,,,,,,,
,pasta,0.9485700130462646,,,,,,,,
,cooking,0.9455369710922241,,,,,,,,
,vegetable,0.9391533732414246,,,,,,,,
,cuisine,0.9374788403511047,,,,,,,,
,nutrition,0.9372878074645996,,,,,,,,
,noodles,0.9294945001602173,,,,,,,,
,sauce,0.9242984652519226,,,,,,,,
,beef,0.9133132100105286,,,,,,,,
,grow,0.9057466983795166,,,,,,,,
,restaurant,0.9046825170516968,,,,,,,,
https://scontent-sit4-1.cdninstagram.com/t51.2885-15/e35/12519569_787831114650291_1670806917_n.jpg,architecture,0.9984566569328308,Environment,Travel,,,"Manmade beauty",Travel-s,,
,church,0.9889183044433594,,,,,,,,
,old,0.988048791885376,,,,,,,,
,building,0.9877488613128662,,,,,,,,
,travel,0.9843810796737671,,,,,,,,
,Gothic,0.9801062345504761,,,,,,,,
,city,0.9767965078353882,,,,,,,,
,tower,0.9738061428070068,,,,,,,,
,Kremlin,0.9728285074234009,,,,,,,,
,castle,0.9727191925048828,,,,,,,,
,sky,0.9726375341415405,,,,,,,,
,"no person",0.9661872386932373,,,,,,,,
,ancient,0.9648557901382446,,,,,,,,
,outdoors,0.9638800024986267,,,,,,,,
,Orthodox,0.9607625603675842,,,,,,,,
,brick,0.9548170566558838,,,,,,,,
,cathedral,0.9529862403869629,,,,,,,,
,religion,0.9483480453491211,,,,,,,,
,town,0.946149468421936,,,,,,,,
,fortress,0.9419143199920654,,,,,,,,
https://scontent-sit4-1.cdninstagram.com/t51.2885-15/e35/12331397_806349799474406_1365249460_n.jpg,food,0.9946622252464294,Food,,,,"Meal time",,,
,dinner,0.9822649955749512,,,,,,,,
,meal,0.9741466045379639,,,,,,,,
,delicious,0.9729750752449036,,,,,,,,
,lunch,0.9727327823638916,,,,,,,,
,dish,0.9693357944488525,,,,,,,,
,cuisine,0.9654496908187866,,,,,,,,
,plate,0.9638767242431641,,,,,,,,
,rice,0.9606224894523621,,,,,,,,
,vegetable,0.9590480327606201,,,,,,,,
,healthy,0.9565687775611877,,,,,,,,
,"no person",0.9461960792541504,,,,,,,,
,cooking,0.9450839757919312,,,,,,,,
,bowl,0.9323428869247437,,,,,,,,
,epicure,0.9320201277732849,,,,,,,,
,traditional,0.9302772283554077,,,,,,,,
,nutrition,0.9260148406028748,,,,,,,,
,bamboo,0.9245392084121704,,,,,,,,
,chili,0.9210741519927979,,,,,,,,
,tasty,0.9209653735160828,,,,,,,,
https://scontent-sit4-1.cdninstagram.com/t51.2885-15/e35/1516228_457086344480959_238373952_n.jpg,food,0.9906947612762451,Food,,,,"Meal time",,,
,dinner,0.9825031757354736,,,,,,,,
,delicious,0.9818897247314453,,,,,,,,
,lunch,0.979320764541626,,,,,,,,
,meal,0.9762917160987854,,,,,,,,
,plate,0.9670268297195435,,,,,,,,
,meat,0.9646857976913452,,,,,,,,
,nutrition,0.9578039646148682,,,,,,,,
,healthy,0.9539458751678467,,,,,,,,
,dish,0.9532642364501953,,,,,,,,
,beef,0.9485079646110535,,,,,,,,
,cuisine,0.9400365352630615,,,,,,,,
,"no person",0.9399331212043762,,,,,,,,
,traditional,0.9318253397941589,,,,,,,,
,health,0.931717038154602,,,,,,,,
,tasty,0.9229477643966675,,,,,,,,
,diet,0.9202086925506592,,,,,,,,
,chicken,0.9177919626235962,,,,,,,,
,breakfast,0.9161577820777893,,,,,,,,
,cooking,0.9140956997871399,,,,,,,,
https://scontent-sit4-1.cdninstagram.com/t51.2885-15/e35/13150957_1722621498020680_676518741_n.jpg,food,0.9977744221687317,Food,,,,"Meal time",,,
,"no person",0.9887017011642456,,,,,,,,
,meat,0.9868171215057373,,,,,,,,
,meal,0.9863590002059937,,,,,,,,
,dinner,0.975306510925293,,,,,,,,
,delicious,0.9718359708786011,,,,,,,,
,plate,0.9711780548095703,,,,,,,,
,lunch,0.9681336879730225,,,,,,,,
,vegetable,0.9600658416748047,,,,,,,,
,dish,0.9508700370788574,,,,,,,,
,hot,0.9475060701370239,,,,,,,,
,rice,0.9438306093215942,,,,,,,,
,traditional,0.9429000616073608,,,,,,,,
,cuisine,0.9331750869750977,,,,,,,,
,cooking,0.9249152541160583,,,,,,,,
,restaurant,0.9234539866447449,,,,,,,,
,healthy,0.9216574430465698,,,,,,,,
,epicure,0.9187653660774231,,,,,,,,
,grow,0.9139405488967896,,,,,,,,
,"still life",0.908871054649353,,,,,,,,
https://scontent-sit4-1.cdninstagram.com/t51.2885-15/e35/12106282_532119813611152_173478925_n.jpg,dinner,0.9948042631149292,Food,,,,"Meal time",,,
,food,0.9929322004318237,,,,,,,,
,lunch,0.9902828931808472,,,,,,,,
,meat,0.9890361428260803,,,,,,,,
,"no person",0.9801592826843262,,,,,,,,
,delicious,0.9799987077713013,,,,,,,,
,beef,0.9788684844970703,,,,,,,,
,cooking,0.9756193161010742,,,,,,,,
,meal,0.9729491472244263,,,,,,,,
,dish,0.9671503305435181,,,,,,,,
,pork,0.9532954692840576,,,,,,,,
,cuisine,0.9461358785629272,,,,,,,,
,vegetable,0.941930890083313,,,,,,,,
,dining,0.9402196407318115,,,,,,,,
,hot,0.9341426491737366,,,,,,,,
,pepper,0.932374119758606,,,,,,,,
,nutrition,0.932243824005127,,,,,,,,
,potato,0.9219340085983276,,,,,,,,
,plate,0.9216569662094116,,,,,,,,
,rice,0.9175285696983337,,,,,,,,
https://scontent-sit4-1.cdninstagram.com/t51.2885-15/e35/11909309_879013765481485_723263970_n.jpg,recreation,0.9345523118972778,Relationships,,,,Friends,,,
,people,0.9340144395828247,,,,,,,,
,competition,0.9298281073570251,,,,,,,,
,music,0.9219158887863159,,,,,,,,
,exercise,0.9178531169891357,,,,,,,,
,street,0.9040799140930176,,,,,,,,
,motion,0.9038941860198975,,,,,,,,
,man,0.8929935693740845,,,,,,,,
,skateboard,0.8889407515525818,,,,,,,,
,race,0.8873476386070251,,,,,,,,
,woman,0.8872674703598022,,,,,,,,
,marathon,0.8581286668777466,,,,,,,,
,road,0.8533405065536499,,,,,,,,
,festival,0.8475583791732788,,,,,,,,
,group,0.8462765216827393,,,,,,,,
,police,0.8363677859306335,,,,,,,,
,fitness,0.8357468843460083,,,,,,,,
,family,0.8283751010894775,,,,,,,,
,runner,0.8222974538803101,,,,,,,,
,child,0.8197590112686157,,,,,,,,
https://scontent-sit4-1.cdninstagram.com/t51.2885-15/e35/13256931_246701769022950_935701917_n.jpg,pizza,0.999881386756897,Food,,,,"Meal time",,,
,pepperoni,0.9966479539871216,,,,,,,,
,cheese,0.996167004108429,,,,,,,,
,dough,0.9960525035858154,,,,,,,,
,food,0.9956539869308472,,,,,,,,
,crust,0.9953713417053223,,,,,,,,
,dinner,0.9952785968780518,,,,,,,,
,fast,0.9949218034744263,,,,,,,,
,lunch,0.9936187267303467,,,,,,,,
,pan,0.993316650390625,,,,,,,,
,mozzarella,0.9932607412338257,,,,,,,,
,ham,0.9860347509384155,,,,,,,,
,hot,0.9849071502685547,,,,,,,,
,sauce,0.983357310295105,,,,,,,,
,delicious,0.9783692359924316,,,,,,,,
,baking,0.9767317771911621,,,,,,,,
,meal,0.9764173626899719,,,,,,,,
,meat,0.9727252721786499,,,,,,,,
,salami,0.9720081090927124,,,,,,,,
,"no person",0.969950795173645,,,,,,,,
