[
{"media": {"caption_is_edited": false, "code": "BIGkFBDglwi", "date": 1469059086, "dimensions": {"width": 640, "height": 640}, "usertags": {"nodes": []}, "comments_disabled": false, "comments": {"count": 2, "page_info": {"has_previous_page": false, "start_cursor": null, "end_cursor": null, "has_next_page": false}, "nodes": [{"text": "This is nice :)", "created_at": 1469060931.0, "id": "17858402920051655", "user": {"username": "syncfab", "profile_pic_url": "https://scontent-sit4-1.cdninstagram.com/t51.2885-19/s150x150/13256672_476815415855118_679586465_a.jpg", "id": "1402002395"}}, {"text": "Awesome \ud83d\udc4d", "created_at": 1469123291.0, "id": "17858429791051655", "user": {"username": "ecocompanion", "profile_pic_url": "https://scontent-sit4-1.cdninstagram.com/t51.2885-19/11312309_480161712131395_573093431_a.jpg", "id": "1988485979"}}]}, "id": "1298884216947366946", "caption": "A birdwatcher carries his equipment across the bridge at Chinese gardens #instasg #singapore #nature #naturelover #birdwatcher #photography #equipment #bridge #garden #androidography #instagramers", "likes": {"count": 38, "viewer_has_liked": false, "nodes": [{"user": {"username": "nlpignite", "profile_pic_url": "https://scontent-sit4-1.cdninstagram.com/t51.2885-19/s150x150/13098859_504981716364422_1103701087_a.jpg", "id": "3195169935"}}, {"user": {"username": "frayyefreefolowers4every", "profile_pic_url": "https://scontent-sit4-1.cdninstagram.com/t51.2885-19/s150x150/12277357_1619305734997837_1508864374_a.jpg", "id": "1169958392"}}, {"user": {"username": "kevnzworld", "profile_pic_url": "https://scontent-sit4-1.cdninstagram.com/t51.2885-19/s150x150/10644037_1579523202366125_839281316_a.jpg", "id": "2155511738"}}, {"user": {"username": "marco_dioguardi", "profile_pic_url": "https://scontent-sit4-1.cdninstagram.com/t51.2885-19/s150x150/12599041_583430415146380_1353932769_a.jpg", "id": "544792175"}}, {"user": {"username": "brsmart40", "profile_pic_url": "https://scontent-sit4-1.cdninstagram.com/t51.2885-19/s150x150/13129861_233048957058652_1183438980_a.jpg", "id": "460476211"}}, {"user": {"username": "preetiskhatri", "profile_pic_url": "https://scontent-sit4-1.cdninstagram.com/t51.2885-19/s150x150/13740989_623224017829229_1740640213_a.jpg", "id": "511980318"}}, {"user": {"username": "footloops.sg", "profile_pic_url": "https://scontent-sit4-1.cdninstagram.com/t51.2885-19/11348366_783887571726884_1704899304_a.jpg", "id": "1900102608"}}, {"user": {"username": "natashakayyyy", "profile_pic_url": "https://scontent-sit4-1.cdninstagram.com/t51.2885-19/s150x150/13628187_155143931561611_887176438_a.jpg", "id": "1108449075"}}, {"user": {"username": "carmenwong0818", "profile_pic_url": "https://scontent-sit4-1.cdninstagram.com/t51.2885-19/s150x150/13557312_473833806154177_566386634_a.jpg", "id": "513932082"}}, {"user": {"username": "caleb_john", "profile_pic_url": "https://scontent-sit4-1.cdninstagram.com/t51.2885-19/11849825_856695677753666_1497174078_a.jpg", "id": "15964895"}}]}, "owner": {"username": "garima2104", "is_unpublished": false, "requested_by_viewer": false, "followed_by_viewer": false, "blocked_by_viewer": false, "profile_pic_url": "https://scontent-sit4-1.cdninstagram.com/t51.2885-19/s150x150/10311254_1687226731560850_2139165167_a.jpg", "full_name": "Garima Midha", "has_blocked_viewer": false, "id": "2327577611", "is_private": false}, "is_video": false, "is_ad": false, "display_src": "https://scontent-sit4-1.cdninstagram.com/t51.2885-15/s640x640/sh0.08/e35/13744176_136164196817585_601189844_n.jpg?ig_cache_key=MTI5ODg4NDIxNjk0NzM2Njk0Ng%3D%3D.2", "location": {"id": "240525346", "has_public_page": true, "name": "Chinese Garden , Jurong East"}}, "permalink": "https://www.instagram.com/p/BIGkFBDglwi/"},
{"media": {"caption_is_edited": false, "code": "BIG6svEAuk8", "date": 1469070946, "dimensions": {"width": 480, "height": 351}, "usertags": {"nodes": []}, "comments_disabled": false, "comments": {"count": 0, "page_info": {"has_previous_page": false, "start_cursor": null, "end_cursor": null, "has_next_page": false}, "nodes": []}, "id": "1298983703430752572", "caption": "Street art of the green corridor #instasg #singapore #greencorridor #streetart #artist #artlover #culture #pretty #wanderlust #androidography #instagramers #igers", "likes": {"count": 5, "viewer_has_liked": false, "nodes": [{"user": {"username": "iwanderrr", "profile_pic_url": "https://scontent-sit4-1.cdninstagram.com/t51.2885-19/s150x150/13694631_628388604006504_1309466941_a.jpg", "id": "328195914"}}, {"user": {"username": "triinbooks", "profile_pic_url": "https://scontent-sit4-1.cdninstagram.com/t51.2885-19/s150x150/13248753_1107900149271994_800408003_a.jpg", "id": "7467150"}}, {"user": {"username": "kevnzworld", "profile_pic_url": "https://scontent-sit4-1.cdninstagram.com/t51.2885-19/s150x150/10644037_1579523202366125_839281316_a.jpg", "id": "2155511738"}}, {"user": {"username": "preetiskhatri", "profile_pic_url": "https://scontent-sit4-1.cdninstagram.com/t51.2885-19/s150x150/13740989_623224017829229_1740640213_a.jpg", "id": "511980318"}}, {"user": {"username": "carmenwong0818", "profile_pic_url": "https://scontent-sit4-1.cdninstagram.com/t51.2885-19/s150x150/13557312_473833806154177_566386634_a.jpg", "id": "513932082"}}]}, "owner": {"username": "garima2104", "is_unpublished": false, "requested_by_viewer": false, "followed_by_viewer": false, "blocked_by_viewer": false, "profile_pic_url": "https://scontent-sit4-1.cdninstagram.com/t51.2885-19/s150x150/10311254_1687226731560850_2139165167_a.jpg", "full_name": "Garima Midha", "has_blocked_viewer": false, "id": "2327577611", "is_private": false}, "is_video": false, "is_ad": false, "display_src": "https://scontent-sit4-1.cdninstagram.com/t51.2885-15/s480x480/e35/13712248_1148090598591629_1459279976_n.jpg?ig_cache_key=MTI5ODk4MzcwMzQzMDc1MjU3Mg%3D%3D.2", "location": null}, "permalink": "https://www.instagram.com/p/BIG6svEAuk8/"},
{"media": {"caption_is_edited": false, "code": "BIJPX-vAxUx", "date": 1469148895, "dimensions": {"width": 1080, "height": 1350}, "usertags": {"nodes": []}, "comments_disabled": false, "comments": {"count": 2, "page_info": {"has_previous_page": false, "start_cursor": null, "end_cursor": null, "has_next_page": false}, "nodes": [{"text": "Not straight and fit enough for a sexy man.", "created_at": 1469151825.0, "id": "17859012634056860", "user": {"username": "carmenwong0818", "profile_pic_url": "https://scontent-sit4-1.cdninstagram.com/t51.2885-19/s150x150/13557312_473833806154177_566386634_a.jpg", "id": "513932082"}}, {"text": "The design is very detail and careful.", "created_at": 1469151857.0, "id": "17859012667056860", "user": {"username": "carmenwong0818", "profile_pic_url": "https://scontent-sit4-1.cdninstagram.com/t51.2885-19/s150x150/13557312_473833806154177_566386634_a.jpg", "id": "513932082"}}]}, "id": "1299637586079454513", "caption": "Bob the builder travelling with us on the mrt #instasg #singapore #mrt #funny #androidography #clothes #bobthebuilder #haha", "likes": {"count": 7, "viewer_has_liked": false, "nodes": [{"user": {"username": "rdrnd", "profile_pic_url": "https://scontent-sit4-1.cdninstagram.com/t51.2885-19/s150x150/13355449_1058779684216212_682933287_a.jpg", "id": "2299761259"}}, {"user": {"username": "garima2104", "profile_pic_url": "https://scontent-sit4-1.cdninstagram.com/t51.2885-19/s150x150/10311254_1687226731560850_2139165167_a.jpg", "id": "2327577611"}}, {"user": {"username": "themichaelp85", "profile_pic_url": "https://scontent-sit4-1.cdninstagram.com/t51.2885-19/s150x150/11374374_984568158233261_1415985627_a.jpg", "id": "1732753611"}}, {"user": {"username": "honeydarlenebabe", "profile_pic_url": "https://scontent-sit4-1.cdninstagram.com/t51.2885-19/s150x150/13712638_617434791748839_713067613_a.jpg", "id": "1677162510"}}, {"user": {"username": "maybelinesim", "profile_pic_url": "https://scontent-sit4-1.cdninstagram.com/t51.2885-19/s150x150/13706814_557000367839374_980867090_a.jpg", "id": "9565783"}}, {"user": {"username": "heylunch", "profile_pic_url": "https://scontent-sit4-1.cdninstagram.com/t51.2885-19/s150x150/13743518_510571322473953_392849784_a.jpg", "id": "1119109111"}}, {"user": {"username": "goodselfiemx", "profile_pic_url": "https://scontent-sit4-1.cdninstagram.com/t51.2885-19/s150x150/12917953_781468075316857_399775806_a.jpg", "id": "174703022"}}]}, "owner": {"username": "garima2104", "is_unpublished": false, "requested_by_viewer": false, "followed_by_viewer": false, "blocked_by_viewer": false, "profile_pic_url": "https://scontent-sit4-1.cdninstagram.com/t51.2885-19/s150x150/10311254_1687226731560850_2139165167_a.jpg", "full_name": "Garima Midha", "has_blocked_viewer": false, "id": "2327577611", "is_private": false}, "is_video": false, "is_ad": false, "display_src": "https://scontent-sit4-1.cdninstagram.com/t51.2885-15/e35/13721042_699704506837009_1726556877_n.jpg?ig_cache_key=MTI5OTYzNzU4NjA3OTQ1NDUxMw%3D%3D.2", "location": null}, "permalink": "https://www.instagram.com/p/BIJPX-vAxUx/"},
{"media": {"caption_is_edited": false, "code": "BIJa50fgkOT", "date": 1469154939, "dimensions": {"width": 1080, "height": 1017}, "usertags": {"nodes": []}, "comments_disabled": false, "comments": {"count": 2, "page_info": {"has_previous_page": false, "start_cursor": null, "end_cursor": null, "has_next_page": false}, "nodes": [{"text": "Superb!", "created_at": 1469157509.0, "id": "17859580171051410", "user": {"username": "iru_guest_house", "profile_pic_url": "https://scontent-sit4-1.cdninstagram.com/t51.2885-19/s150x150/11821881_767599510033094_1070157105_a.jpg", "id": "1693322092"}}, {"text": "Fab!", "created_at": 1469340276.0, "id": "17859664978051410", "user": {"username": "travelphotogallery", "profile_pic_url": "https://scontent-sit4-1.cdninstagram.com/t51.2885-19/s150x150/13735965_1016975878418280_277295513_a.jpg", "id": "3562647889"}}]}, "id": "1299688290055766931", "caption": "Dear deers of India. #instasg #travellife #traveldairies #memories #wanderlust #instagramers #androidography #igers #nature #naturelover #wildlife #deer #forest #india #animal #wild #animallover", "likes": {"count": 44, "viewer_has_liked": false, "nodes": [{"user": {"username": "myterrariumtales", "profile_pic_url": "https://scontent-sit4-1.cdninstagram.com/t51.2885-19/s150x150/13628277_142302336203563_1116583057_a.jpg", "id": "2217553"}}, {"user": {"username": "royal_luxury_traveler", "profile_pic_url": "https://scontent-sit4-1.cdninstagram.com/t51.2885-19/13561608_584692181702746_2123272568_a.jpg", "id": "3162650212"}}, {"user": {"username": "michelnserra", "profile_pic_url": "https://scontent-sit4-1.cdninstagram.com/t51.2885-19/s150x150/11886997_607823716022963_1411135886_a.jpg", "id": "436395324"}}, {"user": {"username": "m0rrree_fo110weerrs", "profile_pic_url": "https://scontent-sit4-1.cdninstagram.com/t51.2885-19/s150x150/13687036_1176698705729030_89476355_a.jpg", "id": "1634852665"}}, {"user": {"username": "kaio.oliveira3", "profile_pic_url": "https://scontent-sit4-1.cdninstagram.com/t51.2885-19/s150x150/13743261_115508135553829_212256652_a.jpg", "id": "3557715431"}}, {"user": {"username": "jacobkeitel", "profile_pic_url": "https://scontent-sit4-1.cdninstagram.com/t51.2885-19/s150x150/13722299_596910667137340_1600891630_a.jpg", "id": "263883414"}}, {"user": {"username": "thefrenchinkorea", "profile_pic_url": "https://scontent-sit4-1.cdninstagram.com/t51.2885-19/s150x150/13722273_1737700629816061_1421590189_a.jpg", "id": "3455234257"}}, {"user": {"username": "naturebynathan", "profile_pic_url": "https://scontent-sit4-1.cdninstagram.com/t51.2885-19/s150x150/13385693_256198558076494_932472880_a.jpg", "id": "2913120683"}}, {"user": {"username": "ap.613", "profile_pic_url": "https://scontent-sit4-1.cdninstagram.com/t51.2885-19/s150x150/13658839_1710066819247112_1462715788_a.jpg", "id": "232526044"}}, {"user": {"username": "nana_530", "profile_pic_url": "https://scontent-sit4-1.cdninstagram.com/t51.2885-19/s150x150/13694799_1646701492316036_797315440_a.jpg", "id": "2051621741"}}]}, "owner": {"username": "garima2104", "is_unpublished": false, "requested_by_viewer": false, "followed_by_viewer": false, "blocked_by_viewer": false, "profile_pic_url": "https://scontent-sit4-1.cdninstagram.com/t51.2885-19/s150x150/10311254_1687226731560850_2139165167_a.jpg", "full_name": "Garima Midha", "has_blocked_viewer": false, "id": "2327577611", "is_private": false}, "is_video": false, "is_ad": false, "display_src": "https://scontent-sit4-1.cdninstagram.com/t51.2885-15/e35/13696953_1569115210060237_1993370007_n.jpg?ig_cache_key=MTI5OTY4ODI5MDA1NTc2NjkzMQ%3D%3D.2", "location": null}, "permalink": "https://www.instagram.com/p/BIJa50fgkOT/"},
{"media": {"caption_is_edited": false, "code": "BIJ22sGgjox", "date": 1469169593, "dimensions": {"width": 1080, "height": 1080}, "usertags": {"nodes": []}, "comments_disabled": false, "comments": {"count": 2, "page_info": {"has_previous_page": false, "start_cursor": null, "end_cursor": null, "has_next_page": false}, "nodes": [{"text": "Super nice!", "created_at": 1469170339.0, "id": "17858909227017112", "user": {"username": "ljpphotography", "profile_pic_url": "https://scontent-sit4-1.cdninstagram.com/t51.2885-19/s150x150/13150978_776745322461132_1252782140_a.jpg", "id": "241790846"}}, {"text": "Awesome post", "created_at": 1469173196.0, "id": "17858910142017112", "user": {"username": "_.m.a.z.u.r.e.n.k.o._", "profile_pic_url": "https://scontent-sit4-1.cdninstagram.com/t51.2885-19/s150x150/13736086_1740401812843536_1766259089_a.jpg", "id": "3174407043"}}]}, "id": "1299811220190280241", "caption": "To dip or not to dip that's the question.#instasg #singapore #nature #naturelover #birdwatcher #androidography #igers #life #bird #duck #birdography #instagramers", "likes": {"count": 26, "viewer_has_liked": false, "nodes": [{"user": {"username": "oahu.sand.art", "profile_pic_url": "https://scontent-sit4-1.cdninstagram.com/t51.2885-19/s150x150/12328302_1531041807204255_271582912_a.jpg", "id": "3079020894"}}, {"user": {"username": "jonfross", "profile_pic_url": "https://scontent-sit4-1.cdninstagram.com/t51.2885-19/s150x150/12826130_773075629493268_1161903155_a.jpg", "id": "22024073"}}, {"user": {"username": "edenpa", "profile_pic_url": "https://scontent-sit4-1.cdninstagram.com/t51.2885-19/s150x150/13694506_134928690276595_57132033_a.jpg", "id": "320590237"}}, {"user": {"username": "ala_anuprieva_photo", "profile_pic_url": "https://scontent-sit4-1.cdninstagram.com/t51.2885-19/s150x150/13151195_626965707461093_114622383_a.jpg", "id": "2980682566"}}, {"user": {"username": "joharprasetio", "profile_pic_url": "https://scontent-sit4-1.cdninstagram.com/t51.2885-19/s150x150/13696474_1465196783505829_509744539_a.jpg", "id": "1563127597"}}, {"user": {"username": "sharani.shao", "profile_pic_url": "https://scontent-sit4-1.cdninstagram.com/t51.2885-19/s150x150/13534332_909579779168531_1906022265_a.jpg", "id": "288423684"}}, {"user": {"username": "got.heart", "profile_pic_url": "https://scontent-sit4-1.cdninstagram.com/t51.2885-19/10852965_874851282546336_1799921109_a.jpg", "id": "1157417528"}}, {"user": {"username": "wihakayda_sihu", "profile_pic_url": "https://scontent-sit4-1.cdninstagram.com/t51.2885-19/10808801_1527646217489509_517612785_a.jpg", "id": "217213053"}}, {"user": {"username": "bluendorphine", "profile_pic_url": "https://scontent-sit4-1.cdninstagram.com/t51.2885-19/s150x150/13355391_517339861785960_566592775_a.jpg", "id": "3296218926"}}, {"user": {"username": "jack_martin_n_la", "profile_pic_url": "https://scontent-sit4-1.cdninstagram.com/t51.2885-19/s150x150/12751389_962068687210529_1272351633_a.jpg", "id": "2321983818"}}]}, "owner": {"username": "garima2104", "is_unpublished": false, "requested_by_viewer": false, "followed_by_viewer": false, "blocked_by_viewer": false, "profile_pic_url": "https://scontent-sit4-1.cdninstagram.com/t51.2885-19/s150x150/10311254_1687226731560850_2139165167_a.jpg", "full_name": "Garima Midha", "has_blocked_viewer": false, "id": "2327577611", "is_private": false}, "is_video": false, "is_ad": false, "display_src": "https://scontent-sit4-1.cdninstagram.com/t51.2885-15/e35/13736903_546969715510420_1011389911_n.jpg?ig_cache_key=MTI5OTgxMTIyMDE5MDI4MDI0MQ%3D%3D.2", "location": null}, "permalink": "https://www.instagram.com/p/BIJ22sGgjox/"},
{"media": {"caption_is_edited": false, "code": "BIKIi9DAT2U", "date": 1469178869, "dimensions": {"width": 1080, "height": 1080}, "usertags": {"nodes": []}, "comments_disabled": false, "comments": {"count": 0, "page_info": {"has_previous_page": false, "start_cursor": null, "end_cursor": null, "has_next_page": false}, "nodes": []}, "id": "1299889028832771476", "caption": "Kids wait for me.#instasg #singapore #nature #naturelover #instagramers #androidography #igers #life #forest #walk #kids #india", "likes": {"count": 22, "viewer_has_liked": false, "nodes": [{"user": {"username": "tamprads", "profile_pic_url": "https://scontent-sit4-1.cdninstagram.com/t51.2885-19/s150x150/13628203_155393501533551_538865497_a.jpg", "id": "1697193673"}}, {"user": {"username": "superb_t_shirt", "profile_pic_url": "https://scontent-sit4-1.cdninstagram.com/t51.2885-19/s150x150/12912279_940574966040895_720737446_a.jpg", "id": "1924015967"}}, {"user": {"username": "techsometv", "profile_pic_url": "https://scontent-sit4-1.cdninstagram.com/t51.2885-19/s150x150/12446328_203609466678149_1210071648_a.jpg", "id": "1529245099"}}, {"user": {"username": "garima2104", "profile_pic_url": "https://scontent-sit4-1.cdninstagram.com/t51.2885-19/s150x150/10311254_1687226731560850_2139165167_a.jpg", "id": "2327577611"}}, {"user": {"username": "denisamodel", "profile_pic_url": "https://scontent-sit4-1.cdninstagram.com/t51.2885-19/s150x150/13109025_1014476728622245_574072796_a.jpg", "id": "1532625839"}}, {"user": {"username": "lillealbe", "profile_pic_url": "https://scontent-sit4-1.cdninstagram.com/t51.2885-19/s150x150/12749933_581828568634423_1380017251_a.jpg", "id": "238399272"}}, {"user": {"username": "caleb_john", "profile_pic_url": "https://scontent-sit4-1.cdninstagram.com/t51.2885-19/11849825_856695677753666_1497174078_a.jpg", "id": "15964895"}}, {"user": {"username": "jillglasscock", "profile_pic_url": "https://scontent-sit4-1.cdninstagram.com/t51.2885-19/s150x150/13473347_1739946886246933_853911784_a.jpg", "id": "3439725918"}}, {"user": {"username": "ntempo", "profile_pic_url": "https://scontent-sit4-1.cdninstagram.com/t51.2885-19/10362312_1455414244698593_648313417_a.jpg", "id": "709447"}}]}, "owner": {"username": "garima2104", "is_unpublished": false, "requested_by_viewer": false, "followed_by_viewer": false, "blocked_by_viewer": false, "profile_pic_url": "https://scontent-sit4-1.cdninstagram.com/t51.2885-19/s150x150/10311254_1687226731560850_2139165167_a.jpg", "full_name": "Garima Midha", "has_blocked_viewer": false, "id": "2327577611", "is_private": false}, "is_video": false, "is_ad": false, "display_src": "https://scontent-sit4-1.cdninstagram.com/t51.2885-15/e35/13721245_1026273547487229_1094076184_n.jpg?ig_cache_key=MTI5OTg4OTAyODgzMjc3MTQ3Ng%3D%3D.2", "location": null}, "permalink": "https://www.instagram.com/p/BIKIi9DAT2U/"},
{"media": {"caption_is_edited": false, "code": "BIM55hSAhgi", "date": 1469271853, "dimensions": {"width": 640, "height": 601}, "usertags": {"nodes": []}, "comments_disabled": false, "comments": {"count": 4, "page_info": {"has_previous_page": false, "start_cursor": null, "end_cursor": null, "has_next_page": false}, "nodes": [{"text": "Hoping to go here in September \ud83d\ude0a", "created_at": 1469275132.0, "id": "17849635603091156", "user": {"username": "louisejraggett", "profile_pic_url": "https://scontent-sit4-1.cdninstagram.com/t51.2885-19/s150x150/13402531_1364400003586377_1683464977_a.jpg", "id": "265287032"}}, {"text": "It's not taj. ...poor man's taj...bibi ka makbara aurangabad", "created_at": 1469278905.0, "id": "17849637340091156", "user": {"username": "garima2104", "profile_pic_url": "https://scontent-sit4-1.cdninstagram.com/t51.2885-19/s150x150/10311254_1687226731560850_2139165167_a.jpg", "id": "2327577611"}}, {"text": "I had no idea that existed! It's beautiful. I was blown away by the TM, still one of my top \"knock your socks off\" things I've seen.", "created_at": 1469282489.0, "id": "17849638807091156", "user": {"username": "littleang83", "profile_pic_url": "https://scontent-sit4-1.cdninstagram.com/t51.2885-19/10632337_1489009891350260_1001129078_a.jpg", "id": "223520296"}}, {"text": "Yup it is....definitely lives up to reputation.", "created_at": 1469283740.0, "id": "17849639365091156", "user": {"username": "garima2104", "profile_pic_url": "https://scontent-sit4-1.cdninstagram.com/t51.2885-19/s150x150/10311254_1687226731560850_2139165167_a.jpg", "id": "2327577611"}}]}, "id": "1300669033800144930", "caption": "Monuments of India.#india #igers #instagramers #wanderlust #traveldairies #memories #monuments #architecture #androidography #splendid #history #tomb", "likes": {"count": 16, "viewer_has_liked": false, "nodes": [{"user": {"username": "nittynattyme", "profile_pic_url": "https://scontent-sit4-1.cdninstagram.com/t51.2885-19/10953743_964394080239386_1631904481_a.jpg", "id": "23130091"}}, {"user": {"username": "nicolamullett", "profile_pic_url": "https://scontent-sit4-1.cdninstagram.com/t51.2885-19/s150x150/13642869_484579228406778_1119399463_a.jpg", "id": "321755066"}}, {"user": {"username": "tamprads", "profile_pic_url": "https://scontent-sit4-1.cdninstagram.com/t51.2885-19/s150x150/13628203_155393501533551_538865497_a.jpg", "id": "1697193673"}}, {"user": {"username": "louisejraggett", "profile_pic_url": "https://scontent-sit4-1.cdninstagram.com/t51.2885-19/s150x150/13402531_1364400003586377_1683464977_a.jpg", "id": "265287032"}}, {"user": {"username": "pallavi5051", "profile_pic_url": "https://scontent-sit4-1.cdninstagram.com/t51.2885-19/s150x150/13102346_1717902841830982_1872483030_a.jpg", "id": "2288202152"}}, {"user": {"username": "__madseason__", "profile_pic_url": "https://scontent-sit4-1.cdninstagram.com/t51.2885-19/s150x150/13743069_1357511274264318_1405185867_a.jpg", "id": "13338400"}}, {"user": {"username": "stex_panels", "profile_pic_url": "https://scontent-sit4-1.cdninstagram.com/t51.2885-19/s150x150/13696403_1144399638952377_1242408913_a.jpg", "id": "3572957859"}}, {"user": {"username": "sarahjfoxbahamas", "profile_pic_url": "https://scontent-sit4-1.cdninstagram.com/t51.2885-19/s150x150/13722113_619987978161626_1930764774_a.jpg", "id": "979478908"}}, {"user": {"username": "nathaliaespinalm", "profile_pic_url": "https://scontent-sit4-1.cdninstagram.com/t51.2885-19/s150x150/13696620_172609953151598_1569918378_a.jpg", "id": "176238711"}}, {"user": {"username": "alexandramauritzen", "profile_pic_url": "https://scontent-sit4-1.cdninstagram.com/t51.2885-19/s150x150/12750047_600152623467259_1195191863_a.jpg", "id": "20152271"}}]}, "owner": {"username": "garima2104", "is_unpublished": false, "requested_by_viewer": false, "followed_by_viewer": false, "blocked_by_viewer": false, "profile_pic_url": "https://scontent-sit4-1.cdninstagram.com/t51.2885-19/s150x150/10311254_1687226731560850_2139165167_a.jpg", "full_name": "Garima Midha", "has_blocked_viewer": false, "id": "2327577611", "is_private": false}, "is_video": false, "is_ad": false, "display_src": "https://scontent-sit4-1.cdninstagram.com/t51.2885-15/s640x640/sh0.08/e35/13767682_519326358272937_343636162_n.jpg?ig_cache_key=MTMwMDY2OTAzMzgwMDE0NDkzMA%3D%3D.2", "location": null}, "permalink": "https://www.instagram.com/p/BIM55hSAhgi/"},
{"media": {"caption_is_edited": false, "code": "BINHtTagR10", "date": 1469279093, "dimensions": {"width": 1080, "height": 717}, "usertags": {"nodes": []}, "comments_disabled": false, "comments": {"count": 0, "page_info": {"has_previous_page": false, "start_cursor": null, "end_cursor": null, "has_next_page": false}, "nodes": []}, "id": "1300729766927736180", "caption": "Mushrooms of Singapore #instasg #singapore #nature #naturelover #mushrooms #wild #instagramers #androidography #igers", "likes": {"count": 8, "viewer_has_liked": false, "nodes": [{"user": {"username": "nittynattyme", "profile_pic_url": "https://scontent-sit4-1.cdninstagram.com/t51.2885-19/10953743_964394080239386_1631904481_a.jpg", "id": "23130091"}}, {"user": {"username": "dansplants", "profile_pic_url": "https://scontent-sit4-1.cdninstagram.com/t51.2885-19/11313781_1522917011331942_748837893_a.jpg", "id": "1214232526"}}, {"user": {"username": "thechillmom", "profile_pic_url": "https://scontent-sit4-1.cdninstagram.com/t51.2885-19/s150x150/12301320_1009395195807256_1442095840_a.jpg", "id": "42050086"}}, {"user": {"username": "gunjantiwari78", "profile_pic_url": "https://scontent-sit4-1.cdninstagram.com/t51.2885-19/11357012_815838355178730_1094718928_a.jpg", "id": "1255149345"}}, {"user": {"username": "sj_moussa", "profile_pic_url": "https://scontent-sit4-1.cdninstagram.com/t51.2885-19/s150x150/13774358_1617764341847283_968231359_a.jpg", "id": "417141006"}}, {"user": {"username": "alle_valencia", "profile_pic_url": "https://scontent-sit4-1.cdninstagram.com/t51.2885-19/s150x150/13649384_1770742173211160_1374039665_a.jpg", "id": "1352848862"}}, {"user": {"username": "photogones", "profile_pic_url": "https://scontent-sit4-1.cdninstagram.com/l/t51.2885-19/s150x150/12965136_925635247557339_519049174_a.jpg", "id": "2151367486"}}, {"user": {"username": "dreamowelove", "profile_pic_url": "https://scontent-sit4-1.cdninstagram.com/t51.2885-19/s150x150/13118231_700781686765515_871130970_a.jpg", "id": "2325112761"}}]}, "owner": {"username": "garima2104", "is_unpublished": false, "requested_by_viewer": false, "followed_by_viewer": false, "blocked_by_viewer": false, "profile_pic_url": "https://scontent-sit4-1.cdninstagram.com/t51.2885-19/s150x150/10311254_1687226731560850_2139165167_a.jpg", "full_name": "Garima Midha", "has_blocked_viewer": false, "id": "2327577611", "is_private": false}, "is_video": false, "is_ad": false, "display_src": "https://scontent-sit4-1.cdninstagram.com/t51.2885-15/e35/13741445_137509090017087_1762503263_n.jpg?ig_cache_key=MTMwMDcyOTc2NjkyNzczNjE4MA%3D%3D.2", "location": null}, "permalink": "https://www.instagram.com/p/BINHtTagR10/"},
{"media": {"caption_is_edited": false, "code": "BIOmjeGAjMr", "date": 1469328819, "dimensions": {"width": 1080, "height": 1080}, "usertags": {"nodes": []}, "comments_disabled": false, "comments": {"count": 0, "page_info": {"has_previous_page": false, "start_cursor": null, "end_cursor": null, "has_next_page": false}, "nodes": []}, "id": "1301146905618821931", "caption": "Glorious morning walking towards gardens by the bay.#instasg #singapore #marinabaysands #gardensbythebay #walk #wanderlust #explore #androidography #igers #life #everyday #nature #singaporeflyer", "likes": {"count": 21, "viewer_has_liked": false, "nodes": [{"user": {"username": "arz77", "profile_pic_url": "https://scontent-sit4-1.cdninstagram.com/t51.2885-19/s150x150/13150922_1693312194240075_1976880893_a.jpg", "id": "180436999"}}, {"user": {"username": "rustichouseinteriors", "profile_pic_url": "https://scontent-sit4-1.cdninstagram.com/t51.2885-19/s150x150/12230834_967767456625780_794208429_a.jpg", "id": "1972866215"}}, {"user": {"username": "soneal13", "profile_pic_url": "https://scontent-sit4-1.cdninstagram.com/t51.2885-19/11005279_1589983571216035_1275067979_a.jpg", "id": "190406327"}}, {"user": {"username": "intheknowexperiences", "profile_pic_url": "https://scontent-sit4-1.cdninstagram.com/t51.2885-19/s150x150/13267385_1752557755028088_468462639_a.jpg", "id": "1427982787"}}, {"user": {"username": "zoeyvero", "profile_pic_url": "https://scontent-sit4-1.cdninstagram.com/t51.2885-19/10607983_620881824695429_731051364_a.jpg", "id": "183576034"}}, {"user": {"username": "untitledshot", "profile_pic_url": "https://scontent-sit4-1.cdninstagram.com/t51.2885-19/s150x150/13556860_611798358978784_1531811539_a.jpg", "id": "32155882"}}, {"user": {"username": "tiyosiyolo", "profile_pic_url": "https://scontent-sit4-1.cdninstagram.com/t51.2885-19/11856861_1649067442000301_1589678808_a.jpg", "id": "5145754"}}, {"user": {"username": "aisypooh", "profile_pic_url": "https://scontent-sit4-1.cdninstagram.com/t51.2885-19/s150x150/13658733_266192380411011_1908058967_a.jpg", "id": "312485776"}}, {"user": {"username": "chris_barba", "profile_pic_url": "https://scontent-sit4-1.cdninstagram.com/t51.2885-19/s150x150/13561528_247198428996652_1893138764_a.jpg", "id": "5517091"}}, {"user": {"username": "svilla", "profile_pic_url": "https://scontent-sit4-1.cdninstagram.com/t51.2885-19/s150x150/12523614_986049628145382_1437331352_a.jpg", "id": "76146"}}]}, "owner": {"username": "garima2104", "is_unpublished": false, "requested_by_viewer": false, "followed_by_viewer": false, "blocked_by_viewer": false, "profile_pic_url": "https://scontent-sit4-1.cdninstagram.com/t51.2885-19/s150x150/10311254_1687226731560850_2139165167_a.jpg", "full_name": "Garima Midha", "has_blocked_viewer": false, "id": "2327577611", "is_private": false}, "is_video": false, "is_ad": false, "display_src": "https://scontent-sit4-1.cdninstagram.com/t51.2885-15/e35/13725551_1006826826096666_887899565_n.jpg?ig_cache_key=MTMwMTE0NjkwNTYxODgyMTkzMQ%3D%3D.2", "location": null}, "permalink": "https://www.instagram.com/p/BIOmjeGAjMr/"},
{"media": {"caption_is_edited": false, "code": "BIOsAoaAzml", "date": 1469331680, "dimensions": {"width": 1080, "height": 608}, "usertags": {"nodes": []}, "comments_disabled": false, "comments": {"count": 0, "page_info": {"has_previous_page": false, "start_cursor": null, "end_cursor": null, "has_next_page": false}, "nodes": []}, "id": "1301170899789232549", "caption": "Orchids at the gardens by the bay.#instasg #singapore #nature #naturelover #flora #androidography #gardensbythebay #igers #instagramers #wanderlust #explore", "likes": {"count": 16, "viewer_has_liked": false, "nodes": [{"user": {"username": "ivan.l.photography", "profile_pic_url": "https://scontent-sit4-1.cdninstagram.com/t51.2885-19/s150x150/12716573_868920093220678_1085110357_a.jpg", "id": "2303548337"}}, {"user": {"username": "matic0512", "profile_pic_url": "https://scontent-sit4-1.cdninstagram.com/t51.2885-19/s150x150/12917942_792242500913279_393903986_a.jpg", "id": "2361956445"}}, {"user": {"username": "offgrid_entrepreneur", "profile_pic_url": "https://scontent-sit4-1.cdninstagram.com/t51.2885-19/s150x150/11910423_819775398149818_653359252_a.jpg", "id": "2972466211"}}, {"user": {"username": "dhyki_saputra_16", "profile_pic_url": "https://scontent-sit4-1.cdninstagram.com/t51.2885-19/s150x150/12912630_245744732446273_850447043_a.jpg", "id": "1792338522"}}, {"user": {"username": "micr0spark", "profile_pic_url": "https://scontent-sit4-1.cdninstagram.com/t51.2885-19/s150x150/13187939_1181202458631450_297409508_a.jpg", "id": "314461512"}}, {"user": {"username": "k13kyle", "profile_pic_url": "https://scontent-sit4-1.cdninstagram.com/t51.2885-19/11325107_673511112754377_213414367_a.jpg", "id": "4686034"}}, {"user": {"username": "ericasaw", "profile_pic_url": "https://scontent-sit4-1.cdninstagram.com/t51.2885-19/s150x150/13388474_278418899174933_369603353_a.jpg", "id": "7673312"}}, {"user": {"username": "travelsland", "profile_pic_url": "https://scontent-sit4-1.cdninstagram.com/t51.2885-19/s150x150/13129925_2019470581612164_1367184409_a.jpg", "id": "1703616289"}}, {"user": {"username": "deggius7", "profile_pic_url": "https://scontent-sit4-1.cdninstagram.com/t51.2885-19/s150x150/13534225_281964622158646_639492354_a.jpg", "id": "1425076051"}}, {"user": {"username": "mellebonplan", "profile_pic_url": "https://scontent-sit4-1.cdninstagram.com/t51.2885-19/10950520_1663100753934217_1090191581_a.jpg", "id": "582047041"}}]}, "owner": {"username": "garima2104", "is_unpublished": false, "requested_by_viewer": false, "followed_by_viewer": false, "blocked_by_viewer": false, "profile_pic_url": "https://scontent-sit4-1.cdninstagram.com/t51.2885-19/s150x150/10311254_1687226731560850_2139165167_a.jpg", "full_name": "Garima Midha", "has_blocked_viewer": false, "id": "2327577611", "is_private": false}, "is_video": false, "is_ad": false, "display_src": "https://scontent-sit4-1.cdninstagram.com/t51.2885-15/e35/13736001_414842162019318_500911118_n.jpg?ig_cache_key=MTMwMTE3MDg5OTc4OTIzMjU0OQ%3D%3D.2", "location": {"id": "6301631", "has_public_page": true, "name": "Flower Dome, Gardens by the Bay"}}, "permalink": "https://www.instagram.com/p/BIOsAoaAzml/"},
{"media": {"caption_is_edited": false, "code": "BIO2qgQAvRM", "date": 1469337266, "dimensions": {"width": 1080, "height": 1350}, "usertags": {"nodes": []}, "comments_disabled": false, "comments": {"count": 1, "page_info": {"has_previous_page": false, "start_cursor": null, "end_cursor": null, "has_next_page": false}, "nodes": [{"text": "\ud83d\udc4d", "created_at": 1469340016.0, "id": "17849745577098983", "user": {"username": "greenlife_clothing", "profile_pic_url": "https://scontent-sit4-1.cdninstagram.com/t51.2885-19/11419215_1466451383647363_1437634666_a.jpg", "id": "29898076"}}]}, "id": "1301217757714641996", "caption": "Amazing cloud forest #instasg #singapore #nature #naturelover #gardensbythebay #waterfall #cold #igers #androidography #instagramers", "likes": {"count": 27, "viewer_has_liked": false, "nodes": [{"user": {"username": "devdas2016", "profile_pic_url": "https://scontent-sit4-1.cdninstagram.com/t51.2885-19/s150x150/12383627_215260915476852_1109430264_a.jpg", "id": "2536714138"}}, {"user": {"username": "hashtagyourupload", "profile_pic_url": "https://scontent-sit4-1.cdninstagram.com/t51.2885-19/s150x150/13108949_242699966087425_161560640_a.jpg", "id": "3097607458"}}, {"user": {"username": "greenlife_clothing", "profile_pic_url": "https://scontent-sit4-1.cdninstagram.com/t51.2885-19/11419215_1466451383647363_1437634666_a.jpg", "id": "29898076"}}, {"user": {"username": "nlpignite", "profile_pic_url": "https://scontent-sit4-1.cdninstagram.com/t51.2885-19/s150x150/13098859_504981716364422_1103701087_a.jpg", "id": "3195169935"}}, {"user": {"username": "01_akatsuki_07", "profile_pic_url": "https://scontent-sit4-1.cdninstagram.com/t51.2885-19/s150x150/13694720_850664395066455_1723821237_a.jpg", "id": "1943554638"}}, {"user": {"username": "dylanmagaster", "profile_pic_url": "https://scontent-sit4-1.cdninstagram.com/t51.2885-19/s150x150/11374247_552912868194399_896516753_a.jpg", "id": "24542544"}}, {"user": {"username": "elisaalevas", "profile_pic_url": "https://scontent-sit4-1.cdninstagram.com/t51.2885-19/s150x150/11356647_892145717536895_1162288285_a.jpg", "id": "304315627"}}, {"user": {"username": "essen_sen", "profile_pic_url": "https://scontent-sit4-1.cdninstagram.com/t51.2885-19/11192814_1449575245334774_1441032793_a.jpg", "id": "1647564176"}}, {"user": {"username": "spelledwithan_e", "profile_pic_url": "https://scontent-sit4-1.cdninstagram.com/t51.2885-19/11351826_1657708707783517_182798396_a.jpg", "id": "253182933"}}, {"user": {"username": "beatricerossi1", "profile_pic_url": "https://scontent-sit4-1.cdninstagram.com/t51.2885-19/s150x150/13744163_918293914947822_1627812759_a.jpg", "id": "223995152"}}]}, "owner": {"username": "garima2104", "is_unpublished": false, "requested_by_viewer": false, "followed_by_viewer": false, "blocked_by_viewer": false, "profile_pic_url": "https://scontent-sit4-1.cdninstagram.com/t51.2885-19/s150x150/10311254_1687226731560850_2139165167_a.jpg", "full_name": "Garima Midha", "has_blocked_viewer": false, "id": "2327577611", "is_private": false}, "is_video": false, "is_ad": false, "display_src": "https://scontent-sit4-1.cdninstagram.com/t51.2885-15/e35/13736992_728553903914459_1025789599_n.jpg?ig_cache_key=MTMwMTIxNzc1NzcxNDY0MTk5Ng%3D%3D.2", "location": {"id": "1023547194", "has_public_page": true, "name": "Cloud Forest Dome at Gardens by the Bay, Singapore"}}, "permalink": "https://www.instagram.com/p/BIO2qgQAvRM/"},
{"media": {"caption_is_edited": false, "code": "BIO9O1XA49J", "date": 1469340709, "dimensions": {"width": 1080, "height": 1350}, "usertags": {"nodes": []}, "comments_disabled": false, "comments": {"count": 0, "page_info": {"has_previous_page": false, "start_cursor": null, "end_cursor": null, "has_next_page": false}, "nodes": []}, "id": "1301246642560929609", "caption": "Interesting stuff at the cloud forest #instasg #singapore #nature #gardensbythebay #beautiful #naturelover #natureporn #androidography #igers #instagramers", "likes": {"count": 21, "viewer_has_liked": false, "nodes": [{"user": {"username": "brsmart40", "profile_pic_url": "https://scontent-sit4-1.cdninstagram.com/t51.2885-19/s150x150/13129861_233048957058652_1183438980_a.jpg", "id": "460476211"}}, {"user": {"username": "umenomai", "profile_pic_url": "https://scontent-sit4-1.cdninstagram.com/t51.2885-19/s150x150/12905207_724644061011269_1840762103_a.jpg", "id": "2092904872"}}, {"user": {"username": "dave.riches", "profile_pic_url": "https://scontent-sit4-1.cdninstagram.com/t51.2885-19/11377611_1092364870778243_2032016268_a.jpg", "id": "1786269317"}}, {"user": {"username": "dianyunita_16", "profile_pic_url": "https://scontent-sit4-1.cdninstagram.com/t51.2885-19/13392816_923012694474320_2002783560_a.jpg", "id": "2231328425"}}, {"user": {"username": "alistr12", "profile_pic_url": "https://scontent-sit4-1.cdninstagram.com/t51.2885-19/s150x150/12269841_520350324791803_1490322773_a.jpg", "id": "1597149613"}}, {"user": {"username": "readandcreate_", "profile_pic_url": "https://scontent-sit4-1.cdninstagram.com/t51.2885-19/s150x150/13398624_512557385618950_414030268_a.jpg", "id": "1831366727"}}, {"user": {"username": "matteocartaphoto", "profile_pic_url": "https://scontent-sit4-1.cdninstagram.com/t51.2885-19/s150x150/11378411_1880861165471713_831360559_a.jpg", "id": "2023036799"}}, {"user": {"username": "bluendorphine", "profile_pic_url": "https://scontent-sit4-1.cdninstagram.com/t51.2885-19/s150x150/13355391_517339861785960_566592775_a.jpg", "id": "3296218926"}}, {"user": {"username": "xabath", "profile_pic_url": "https://scontent-sit4-1.cdninstagram.com/t51.2885-19/s150x150/13259126_119659595118519_1315874997_a.jpg", "id": "3126885829"}}, {"user": {"username": "never.looked.better", "profile_pic_url": "https://scontent-sit4-1.cdninstagram.com/t51.2885-19/s150x150/13108673_1013996345336327_1609072900_a.jpg", "id": "1024007081"}}]}, "owner": {"username": "garima2104", "is_unpublished": false, "requested_by_viewer": false, "followed_by_viewer": false, "blocked_by_viewer": false, "profile_pic_url": "https://scontent-sit4-1.cdninstagram.com/t51.2885-19/s150x150/10311254_1687226731560850_2139165167_a.jpg", "full_name": "Garima Midha", "has_blocked_viewer": false, "id": "2327577611", "is_private": false}, "is_video": false, "is_ad": false, "display_src": "https://scontent-sit4-1.cdninstagram.com/t51.2885-15/e35/13703026_631282537038410_1653243954_n.jpg?ig_cache_key=MTMwMTI0NjY0MjU2MDkyOTYwOQ%3D%3D.2", "location": {"id": "1023547194", "has_public_page": true, "name": "Cloud Forest Dome at Gardens by the Bay, Singapore"}}, "permalink": "https://www.instagram.com/p/BIO9O1XA49J/"},
{"media": {"caption_is_edited": false, "code": "BIPOz_Eg4FQ", "date": 1469349926, "dimensions": {"width": 1080, "height": 1080}, "usertags": {"nodes": []}, "comments_disabled": false, "comments": {"count": 0, "page_info": {"has_previous_page": false, "start_cursor": null, "end_cursor": null, "has_next_page": false}, "nodes": []}, "id": "1301323962399293776", "caption": "Dragon boat race on the marina channel#instasg #singapore #nature #marinabaysands #boat #dragonboat #race #spectator #androidography #igers #life #sunday", "likes": {"count": 12, "viewer_has_liked": false, "nodes": [{"user": {"username": "brsmart40", "profile_pic_url": "https://scontent-sit4-1.cdninstagram.com/t51.2885-19/s150x150/13129861_233048957058652_1183438980_a.jpg", "id": "460476211"}}, {"user": {"username": "diyaa80", "profile_pic_url": "https://scontent-sit4-1.cdninstagram.com/t51.2885-19/s150x150/13696811_153878385018522_717554767_a.jpg", "id": "3528744743"}}, {"user": {"username": "tamprads", "profile_pic_url": "https://scontent-sit4-1.cdninstagram.com/t51.2885-19/s150x150/13628203_155393501533551_538865497_a.jpg", "id": "1697193673"}}, {"user": {"username": "fadeevevgeny", "profile_pic_url": "https://scontent-sit4-1.cdninstagram.com/t51.2885-19/s150x150/13573524_1798960607057300_78298722_a.jpg", "id": "404926844"}}, {"user": {"username": "ahmad_ehtemali", "profile_pic_url": "https://scontent-sit4-1.cdninstagram.com/t51.2885-19/10899264_658227237632542_1071166111_a.jpg", "id": "544598471"}}, {"user": {"username": "thechillmom", "profile_pic_url": "https://scontent-sit4-1.cdninstagram.com/t51.2885-19/s150x150/12301320_1009395195807256_1442095840_a.jpg", "id": "42050086"}}, {"user": {"username": "so.larisa", "profile_pic_url": "https://scontent-sit4-1.cdninstagram.com/t51.2885-19/s150x150/13774605_1780160052228949_96412319_a.jpg", "id": "458185356"}}, {"user": {"username": "villabaliluxury", "profile_pic_url": "https://scontent-sit4-1.cdninstagram.com/t51.2885-19/s150x150/12965245_847380222074856_68822297_a.jpg", "id": "1757607818"}}, {"user": {"username": "wini1121", "profile_pic_url": "https://scontent-sit4-1.cdninstagram.com/t51.2885-19/s150x150/11326573_401767313356515_2100093699_a.jpg", "id": "363624139"}}, {"user": {"username": "botanist.barbie", "profile_pic_url": "https://scontent-sit4-1.cdninstagram.com/t51.2885-19/s150x150/13129265_899603826811786_1910669461_a.jpg", "id": "1919690764"}}]}, "owner": {"username": "garima2104", "is_unpublished": false, "requested_by_viewer": false, "followed_by_viewer": false, "blocked_by_viewer": false, "profile_pic_url": "https://scontent-sit4-1.cdninstagram.com/t51.2885-19/s150x150/10311254_1687226731560850_2139165167_a.jpg", "full_name": "Garima Midha", "has_blocked_viewer": false, "id": "2327577611", "is_private": false}, "is_video": false, "is_ad": false, "display_src": "https://scontent-sit4-1.cdninstagram.com/t51.2885-15/e35/13774844_1095129270553936_1412146827_n.jpg?ig_cache_key=MTMwMTMyMzk2MjM5OTI5Mzc3Ng%3D%3D.2", "location": null}, "permalink": "https://www.instagram.com/p/BIPOz_Eg4FQ/"},
{"media": {"caption_is_edited": false, "code": "BIPfLUKAl46", "date": 1469358506, "dimensions": {"width": 1080, "height": 1350}, "usertags": {"nodes": []}, "comments_disabled": false, "comments": {"count": 0, "page_info": {"has_previous_page": false, "start_cursor": null, "end_cursor": null, "has_next_page": false}, "nodes": []}, "id": "1301395934332214842", "caption": "Beautiful flowers of gardens by the bay you just keep looking.#instasg #singapore #nature #naturelover #flowers #gardensbythebay #lovepink #wanderlust #instagramers #todaysadventure#beautiful", "likes": {"count": 17, "viewer_has_liked": false, "nodes": [{"user": {"username": "sebnix", "profile_pic_url": "https://scontent-sit4-1.cdninstagram.com/t51.2885-19/s150x150/13259550_287742861565734_229832912_a.jpg", "id": "4403625"}}, {"user": {"username": "phil.camera", "profile_pic_url": "https://scontent-sit4-1.cdninstagram.com/t51.2885-19/11250234_659705964144625_2139117152_a.jpg", "id": "1654404422"}}, {"user": {"username": "dinavouciuc", "profile_pic_url": "https://scontent-sit4-1.cdninstagram.com/t51.2885-19/s150x150/12530863_1775270012758045_222075337_a.jpg", "id": "512649734"}}, {"user": {"username": "bxjb80", "profile_pic_url": "https://scontent-sit4-1.cdninstagram.com/t51.2885-19/11917986_1004182739645906_1763277690_a.jpg", "id": "1104472939"}}, {"user": {"username": "stacey.katz.photography", "profile_pic_url": "https://scontent-sit4-1.cdninstagram.com/t51.2885-19/s150x150/11848896_823507241102933_786732699_a.jpg", "id": "15051559"}}, {"user": {"username": "drammenertopp", "profile_pic_url": "https://scontent-sit4-1.cdninstagram.com/t51.2885-19/s150x150/12093777_451623421708060_1350619889_a.jpg", "id": "1920429805"}}, {"user": {"username": "davidevii", "profile_pic_url": "https://scontent-sit4-1.cdninstagram.com/t51.2885-19/s150x150/13561691_148440205560462_825688044_a.jpg", "id": "7041262"}}, {"user": {"username": "glenn.arvor", "profile_pic_url": "https://scontent-sit4-1.cdninstagram.com/t51.2885-19/s150x150/13671240_1747234192184021_931491752_a.jpg", "id": "561083593"}}, {"user": {"username": "stefanvlieger", "profile_pic_url": "https://scontent-sit4-1.cdninstagram.com/t51.2885-19/s150x150/13744268_1637340029915975_694081839_a.jpg", "id": "30969721"}}, {"user": {"username": "samurice_singapore", "profile_pic_url": "https://scontent-sit4-1.cdninstagram.com/t51.2885-19/s150x150/13118297_876838935754781_1124404465_a.jpg", "id": "3221614495"}}]}, "owner": {"username": "garima2104", "is_unpublished": false, "requested_by_viewer": false, "followed_by_viewer": false, "blocked_by_viewer": false, "profile_pic_url": "https://scontent-sit4-1.cdninstagram.com/t51.2885-19/s150x150/10311254_1687226731560850_2139165167_a.jpg", "full_name": "Garima Midha", "has_blocked_viewer": false, "id": "2327577611", "is_private": false}, "is_video": false, "is_ad": false, "display_src": "https://scontent-sit4-1.cdninstagram.com/t51.2885-15/e35/13743128_258998577819668_511282960_n.jpg?ig_cache_key=MTMwMTM5NTkzNDMzMjIxNDg0Mg%3D%3D.2", "location": null}, "permalink": "https://www.instagram.com/p/BIPfLUKAl46/"},
{"media": {"caption_is_edited": true, "code": "BIQ7WNUAJ5o", "date": 1469406830, "dimensions": {"width": 1080, "height": 1080}, "usertags": {"nodes": []}, "comments_disabled": false, "comments": {"count": 2, "page_info": {"has_previous_page": false, "start_cursor": null, "end_cursor": null, "has_next_page": false}, "nodes": [{"text": "Great!", "created_at": 1469408705.0, "id": "17858932930031590", "user": {"username": "michellebrowsbh", "profile_pic_url": "https://scontent-sit4-1.cdninstagram.com/t51.2885-19/11917868_725657904229693_281198027_a.jpg", "id": "48660726"}}, {"text": "lovely pictures! \ud83d\ude0d", "created_at": 1469739550.0, "id": "17859106528031590", "user": {"username": "societyofsnobs", "profile_pic_url": "https://scontent-sit4-1.cdninstagram.com/t51.2885-19/s150x150/13627938_202049110192286_214330410_a.jpg", "id": "244074396"}}]}, "id": "1301801303176945256", "caption": "Photographers at work.#instasg #instagramers #instasgsunday10pm #instasgsundayiger #igers #androidography #marinabaysands #photographer #gardensbythebay #rain #instaview", "likes": {"count": 29, "viewer_has_liked": false, "nodes": [{"user": {"username": "villabaliluxury", "profile_pic_url": "https://scontent-sit4-1.cdninstagram.com/t51.2885-19/s150x150/12965245_847380222074856_68822297_a.jpg", "id": "1757607818"}}, {"user": {"username": "maknaway", "profile_pic_url": "https://scontent-sit4-1.cdninstagram.com/t51.2885-19/s150x150/13394894_982115815219907_985894361_a.jpg", "id": "2082368852"}}, {"user": {"username": "didiksrahadi", "profile_pic_url": "https://scontent-sit4-1.cdninstagram.com/t51.2885-19/11373549_1430497990592781_24295720_a.jpg", "id": "32323149"}}, {"user": {"username": "rhindustriesltd", "profile_pic_url": "https://scontent-sit4-1.cdninstagram.com/t51.2885-19/s150x150/12930729_794153997385360_1153425224_a.jpg", "id": "3107258108"}}, {"user": {"username": "michellebrowsbh", "profile_pic_url": "https://scontent-sit4-1.cdninstagram.com/t51.2885-19/11917868_725657904229693_281198027_a.jpg", "id": "48660726"}}, {"user": {"username": "kylegriffin__", "profile_pic_url": "https://scontent-sit4-1.cdninstagram.com/t51.2885-19/s150x150/12918396_565443140301150_596748937_a.jpg", "id": "144002733"}}, {"user": {"username": "tinywaistco", "profile_pic_url": "https://scontent-sit4-1.cdninstagram.com/t51.2885-19/s150x150/13380871_1149850495066384_1252673076_a.jpg", "id": "3120536571"}}, {"user": {"username": "victorl0", "profile_pic_url": "https://scontent-sit4-1.cdninstagram.com/t51.2885-19/s150x150/12224697_1649491182005583_171158408_a.jpg", "id": "2479803"}}, {"user": {"username": "theminimalistminx", "profile_pic_url": "https://scontent-sit4-1.cdninstagram.com/t51.2885-19/s150x150/12224530_727496644050239_28638517_a.jpg", "id": "2208978165"}}, {"user": {"username": "rlauren_6", "profile_pic_url": "https://scontent-sit4-1.cdninstagram.com/t51.2885-19/s150x150/13642918_492854017574352_246624226_a.jpg", "id": "2036655987"}}]}, "owner": {"username": "garima2104", "is_unpublished": false, "requested_by_viewer": false, "followed_by_viewer": false, "blocked_by_viewer": false, "profile_pic_url": "https://scontent-sit4-1.cdninstagram.com/t51.2885-19/s150x150/10311254_1687226731560850_2139165167_a.jpg", "full_name": "Garima Midha", "has_blocked_viewer": false, "id": "2327577611", "is_private": false}, "is_video": false, "is_ad": false, "display_src": "https://scontent-sit4-1.cdninstagram.com/t51.2885-15/e35/13714229_1643409165977249_1338720413_n.jpg?ig_cache_key=MTMwMTgwMTMwMzE3Njk0NTI1Ng%3D%3D.2", "location": {"id": "1023547194", "has_public_page": true, "name": "Cloud Forest Dome at Gardens by the Bay, Singapore"}}, "permalink": "https://www.instagram.com/p/BIQ7WNUAJ5o/"},
{"media": {"caption_is_edited": false, "code": "BIRMADng5mY", "date": 1469415561, "dimensions": {"width": 1080, "height": 934}, "usertags": {"nodes": []}, "comments_disabled": false, "comments": {"count": 0, "page_info": {"has_previous_page": false, "start_cursor": null, "end_cursor": null, "has_next_page": false}, "nodes": []}, "id": "1301874547729078680", "caption": "Colourful windmills on a bright and sunny day.#instasg #singapore #wanderlust #instagramers #androidography #igers #windmill #colorful #marinabarrage #movement", "likes": {"count": 10, "viewer_has_liked": false, "nodes": [{"user": {"username": "pallavi5051", "profile_pic_url": "https://scontent-sit4-1.cdninstagram.com/t51.2885-19/s150x150/13102346_1717902841830982_1872483030_a.jpg", "id": "2288202152"}}, {"user": {"username": "brsmart40", "profile_pic_url": "https://scontent-sit4-1.cdninstagram.com/t51.2885-19/s150x150/13129861_233048957058652_1183438980_a.jpg", "id": "460476211"}}, {"user": {"username": "niachristy", "profile_pic_url": "https://scontent-sit4-1.cdninstagram.com/t51.2885-19/11055566_856795271023282_367498795_a.jpg", "id": "4974016"}}, {"user": {"username": "preetiskhatri", "profile_pic_url": "https://scontent-sit4-1.cdninstagram.com/t51.2885-19/s150x150/13740989_623224017829229_1740640213_a.jpg", "id": "511980318"}}, {"user": {"username": "soda.photography", "profile_pic_url": "https://scontent-sit4-1.cdninstagram.com/t51.2885-19/s150x150/12501975_1733313173553497_1496364665_a.jpg", "id": "290767016"}}, {"user": {"username": "jimmyhudgell", "profile_pic_url": "https://scontent-sit4-1.cdninstagram.com/t51.2885-19/s150x150/12237113_931017663645318_1993616589_a.jpg", "id": "1621901650"}}, {"user": {"username": "carmenwong0818", "profile_pic_url": "https://scontent-sit4-1.cdninstagram.com/t51.2885-19/s150x150/13557312_473833806154177_566386634_a.jpg", "id": "513932082"}}, {"user": {"username": "cartha_", "profile_pic_url": "https://scontent-sit4-1.cdninstagram.com/t51.2885-19/s150x150/13551802_632417086923761_185676278_a.jpg", "id": "146219096"}}, {"user": {"username": "myworldjourney", "profile_pic_url": "https://scontent-sit4-1.cdninstagram.com/t51.2885-19/s150x150/13649301_1188092324576307_2112630101_a.jpg", "id": "2026831987"}}, {"user": {"username": "tamprads", "profile_pic_url": "https://scontent-sit4-1.cdninstagram.com/t51.2885-19/s150x150/13628203_155393501533551_538865497_a.jpg", "id": "1697193673"}}]}, "owner": {"username": "garima2104", "is_unpublished": false, "requested_by_viewer": false, "followed_by_viewer": false, "blocked_by_viewer": false, "profile_pic_url": "https://scontent-sit4-1.cdninstagram.com/t51.2885-19/s150x150/10311254_1687226731560850_2139165167_a.jpg", "full_name": "Garima Midha", "has_blocked_viewer": false, "id": "2327577611", "is_private": false}, "is_video": false, "is_ad": false, "display_src": "https://scontent-sit4-1.cdninstagram.com/t51.2885-15/e35/13739591_1118602348198201_1706075678_n.jpg?ig_cache_key=MTMwMTg3NDU0NzcyOTA3ODY4MA%3D%3D.2", "location": null}, "permalink": "https://www.instagram.com/p/BIRMADng5mY/"},
{"media": {"caption_is_edited": false, "code": "BIRbbjiARSu", "date": 1469423651, "dimensions": {"width": 1080, "height": 1080}, "usertags": {"nodes": []}, "comments_disabled": false, "comments": {"count": 0, "page_info": {"has_previous_page": false, "start_cursor": null, "end_cursor": null, "has_next_page": false}, "nodes": []}, "id": "1301942408119915694", "caption": "Throngs at the flower dome #instasg #singapore #nature #naturelover #igers #instagramers #wanderlust #explore #androidography #gardensbythebay #weekend", "likes": {"count": 7, "viewer_has_liked": false, "nodes": [{"user": {"username": "ahmad_ehtemali", "profile_pic_url": "https://scontent-sit4-1.cdninstagram.com/t51.2885-19/10899264_658227237632542_1071166111_a.jpg", "id": "544598471"}}, {"user": {"username": "brsmart40", "profile_pic_url": "https://scontent-sit4-1.cdninstagram.com/t51.2885-19/s150x150/13129861_233048957058652_1183438980_a.jpg", "id": "460476211"}}, {"user": {"username": "dina_listya", "profile_pic_url": "https://scontent-sit4-1.cdninstagram.com/t51.2885-19/s150x150/13722109_1134760033229459_1205561994_a.jpg", "id": "1819539115"}}, {"user": {"username": "matic0512", "profile_pic_url": "https://scontent-sit4-1.cdninstagram.com/t51.2885-19/s150x150/12917942_792242500913279_393903986_a.jpg", "id": "2361956445"}}, {"user": {"username": "jessicam_pr", "profile_pic_url": "https://scontent-sit4-1.cdninstagram.com/t51.2885-19/s150x150/12070751_200796060301947_983387870_a.jpg", "id": "271314800"}}, {"user": {"username": "sextantapp", "profile_pic_url": "https://scontent-sit4-1.cdninstagram.com/t51.2885-19/s150x150/12568065_142749559434237_228840314_a.jpg", "id": "2340730913"}}, {"user": {"username": "ksaitor", "profile_pic_url": "https://scontent-sit4-1.cdninstagram.com/l/t51.2885-19/s150x150/12724963_551471495034052_124687505_a.jpg", "id": "813588392"}}]}, "owner": {"username": "garima2104", "is_unpublished": false, "requested_by_viewer": false, "followed_by_viewer": false, "blocked_by_viewer": false, "profile_pic_url": "https://scontent-sit4-1.cdninstagram.com/t51.2885-19/s150x150/10311254_1687226731560850_2139165167_a.jpg", "full_name": "Garima Midha", "has_blocked_viewer": false, "id": "2327577611", "is_private": false}, "is_video": false, "is_ad": false, "display_src": "https://scontent-sit4-1.cdninstagram.com/t51.2885-15/e35/13643540_998303863619318_1920661601_n.jpg?ig_cache_key=MTMwMTk0MjQwODExOTkxNTY5NA%3D%3D.2", "location": {"id": "6301631", "has_public_page": true, "name": "Flower Dome, Gardens by the Bay"}}, "permalink": "https://www.instagram.com/p/BIRbbjiARSu/"},
{"media": {"caption_is_edited": false, "code": "BIRtJRwAyic", "date": 1469432938, "dimensions": {"width": 1080, "height": 1080}, "usertags": {"nodes": []}, "comments_disabled": false, "comments": {"count": 1, "page_info": {"has_previous_page": false, "start_cursor": null, "end_cursor": null, "has_next_page": false}, "nodes": [{"text": "Beautiful Shot\ud83d\ude0d", "created_at": 1469856163.0, "id": "17859216787031529", "user": {"username": "deepkemwal", "profile_pic_url": "https://scontent-sit4-1.cdninstagram.com/t51.2885-19/s150x150/13744986_1587499888209400_2064608219_a.jpg", "id": "381455040"}}]}, "id": "1302020316914198684", "caption": "Flowers make everyone smile. Have a happy day#instasg #singapore #nature #naturelover #natureporn #flowers #gardensbythebay #lovepink #wanderlust #instagramers #todaysadventure #beautiful #androidography #igers #gardensbythebay", "likes": {"count": 23, "viewer_has_liked": false, "nodes": [{"user": {"username": "heiiidiii", "profile_pic_url": "https://scontent-sit4-1.cdninstagram.com/t51.2885-19/s150x150/13116689_939894462775036_163144217_a.jpg", "id": "47090638"}}, {"user": {"username": "julianne.yoga", "profile_pic_url": "https://scontent-sit4-1.cdninstagram.com/t51.2885-19/s150x150/13117972_1731816500435640_1415111745_a.jpg", "id": "179113547"}}, {"user": {"username": "facuthormann", "profile_pic_url": "https://scontent-sit4-1.cdninstagram.com/t51.2885-19/s150x150/13129573_484974221709547_1638299757_a.jpg", "id": "510245226"}}, {"user": {"username": "kajzachief", "profile_pic_url": "https://scontent-sit4-1.cdninstagram.com/t51.2885-19/11939673_656938857775475_1030769285_a.jpg", "id": "184219445"}}, {"user": {"username": "mariahmcalpin", "profile_pic_url": "https://scontent-sit4-1.cdninstagram.com/t51.2885-19/s150x150/13743326_1045831132132211_8053279_a.jpg", "id": "27899994"}}, {"user": {"username": "photojuli", "profile_pic_url": "https://scontent-sit4-1.cdninstagram.com/l/t51.2885-19/s150x150/13735853_901496843327922_662738878_a.jpg", "id": "225328158"}}, {"user": {"username": "stary93", "profile_pic_url": "https://scontent-sit4-1.cdninstagram.com/t51.2885-19/s150x150/13732214_1774202176149924_858596413_a.jpg", "id": "277699515"}}, {"user": {"username": "johny_string", "profile_pic_url": "https://scontent-sit4-1.cdninstagram.com/t51.2885-19/s150x150/13628501_942004815907871_338893810_a.jpg", "id": "1647497127"}}, {"user": {"username": "martindaviesphotography", "profile_pic_url": "https://scontent-sit4-1.cdninstagram.com/t51.2885-19/s150x150/12912614_163379227389264_1783620101_a.jpg", "id": "2760061892"}}, {"user": {"username": "j0hnnych3ng", "profile_pic_url": "https://scontent-sit4-1.cdninstagram.com/t51.2885-19/s150x150/13408895_1081813728555970_1482171079_a.jpg", "id": "513032"}}]}, "owner": {"username": "garima2104", "is_unpublished": false, "requested_by_viewer": false, "followed_by_viewer": false, "blocked_by_viewer": false, "profile_pic_url": "https://scontent-sit4-1.cdninstagram.com/t51.2885-19/s150x150/10311254_1687226731560850_2139165167_a.jpg", "full_name": "Garima Midha", "has_blocked_viewer": false, "id": "2327577611", "is_private": false}, "is_video": false, "is_ad": false, "display_src": "https://scontent-sit4-1.cdninstagram.com/t51.2885-15/e35/13745231_122914734813879_1532912085_n.jpg?ig_cache_key=MTMwMjAyMDMxNjkxNDE5ODY4NA%3D%3D.2", "location": null}, "permalink": "https://www.instagram.com/p/BIRtJRwAyic/"},
{"media": {"caption_is_edited": false, "code": "BISL4-7AW6i", "date": 1469449058, "dimensions": {"width": 1080, "height": 1080}, "usertags": {"nodes": []}, "comments_disabled": false, "comments": {"count": 0, "page_info": {"has_previous_page": false, "start_cursor": null, "end_cursor": null, "has_next_page": false}, "nodes": []}, "id": "1302155536627756706", "caption": "Walking n clicking two of my favourite things.#instasg #singapore #marinabarrage #wanderlust #instagramers #androidography #igers #life #everyday #nature #buildingsofsingapore #architecture", "likes": {"count": 6, "viewer_has_liked": false, "nodes": [{"user": {"username": "cosmintudoran", "profile_pic_url": "https://scontent-sit4-1.cdninstagram.com/t51.2885-19/10995243_815511381817439_1805564243_a.jpg", "id": "501088"}}, {"user": {"username": "melliecbee", "profile_pic_url": "https://scontent-sit4-1.cdninstagram.com/t51.2885-19/s150x150/12725070_1681941308725294_1217226264_a.jpg", "id": "472032660"}}, {"user": {"username": "diyaa80", "profile_pic_url": "https://scontent-sit4-1.cdninstagram.com/t51.2885-19/s150x150/13696811_153878385018522_717554767_a.jpg", "id": "3528744743"}}, {"user": {"username": "preetiskhatri", "profile_pic_url": "https://scontent-sit4-1.cdninstagram.com/t51.2885-19/s150x150/13740989_623224017829229_1740640213_a.jpg", "id": "511980318"}}, {"user": {"username": "jaz_poh", "profile_pic_url": "https://scontent-sit4-1.cdninstagram.com/t51.2885-19/s150x150/12362046_1689206364699989_1032075618_a.jpg", "id": "4951096"}}, {"user": {"username": "acarolinafernands", "profile_pic_url": "https://scontent-sit4-1.cdninstagram.com/t51.2885-19/s150x150/13731391_1599616893670524_40727542_a.jpg", "id": "471537200"}}]}, "owner": {"username": "garima2104", "is_unpublished": false, "requested_by_viewer": false, "followed_by_viewer": false, "blocked_by_viewer": false, "profile_pic_url": "https://scontent-sit4-1.cdninstagram.com/t51.2885-19/s150x150/10311254_1687226731560850_2139165167_a.jpg", "full_name": "Garima Midha", "has_blocked_viewer": false, "id": "2327577611", "is_private": false}, "is_video": false, "is_ad": false, "display_src": "https://scontent-sit4-1.cdninstagram.com/t51.2885-15/e35/13712556_1394007727281450_49508667_n.jpg?ig_cache_key=MTMwMjE1NTUzNjYyNzc1NjcwNg%3D%3D.2", "location": null}, "permalink": "https://www.instagram.com/p/BISL4-7AW6i/"},
{"media": {"caption_is_edited": false, "code": "BITsLXcA8zF", "date": 1469499540, "dimensions": {"width": 1080, "height": 1080}, "usertags": {"nodes": []}, "comments_disabled": false, "comments": {"count": 2, "page_info": {"has_previous_page": false, "start_cursor": null, "end_cursor": null, "has_next_page": false}, "nodes": [{"text": "Stop posting instagram and come to the office @garima2104 \ud83d\ude02", "created_at": 1469499692.0, "id": "17849932726109684", "user": {"username": "jennifernoviana", "profile_pic_url": "https://scontent-sit4-1.cdninstagram.com/t51.2885-19/s150x150/13355609_1569110236723030_1265793446_a.jpg", "id": "323045979"}}, {"text": "Almost there. .....haha", "created_at": 1469499744.0, "id": "17849932756109684", "user": {"username": "garima2104", "profile_pic_url": "https://scontent-sit4-1.cdninstagram.com/t51.2885-19/s150x150/10311254_1687226731560850_2139165167_a.jpg", "id": "2327577611"}}]}, "id": "1302579012367011013", "caption": "Single poppy in the woods\n#instasg #singapore #nature #naturelover #natureporn #flowers #gardensbythebay #androidography #forest #plant #igers #explore", "likes": {"count": 18, "viewer_has_liked": false, "nodes": [{"user": {"username": "myeye89", "profile_pic_url": "https://scontent-sit4-1.cdninstagram.com/t51.2885-19/s150x150/13534157_1366333013383770_994934035_a.jpg", "id": "1816716646"}}, {"user": {"username": "nicolamullett", "profile_pic_url": "https://scontent-sit4-1.cdninstagram.com/t51.2885-19/s150x150/13642869_484579228406778_1119399463_a.jpg", "id": "321755066"}}, {"user": {"username": "fotobiryukovaa", "profile_pic_url": "https://scontent-sit4-1.cdninstagram.com/t51.2885-19/s150x150/13549440_163215507425578_57380393_a.jpg", "id": "1802671991"}}, {"user": {"username": "t_rosemarie", "profile_pic_url": "https://scontent-sit4-1.cdninstagram.com/t51.2885-19/s150x150/13721097_158112914596794_1265432603_a.jpg", "id": "1400634545"}}, {"user": {"username": "got.heart", "profile_pic_url": "https://scontent-sit4-1.cdninstagram.com/t51.2885-19/10852965_874851282546336_1799921109_a.jpg", "id": "1157417528"}}, {"user": {"username": "fernandes_arranjos", "profile_pic_url": "https://scontent-sit4-1.cdninstagram.com/t51.2885-19/s150x150/13423030_144131366008182_1800822331_a.jpg", "id": "1292360263"}}, {"user": {"username": "matty_chaps", "profile_pic_url": "https://scontent-sit4-1.cdninstagram.com/t51.2885-19/s150x150/13722293_609619069210051_874240691_a.jpg", "id": "25778112"}}, {"user": {"username": "caleb_john", "profile_pic_url": "https://scontent-sit4-1.cdninstagram.com/t51.2885-19/11849825_856695677753666_1497174078_a.jpg", "id": "15964895"}}, {"user": {"username": "ding_ovo_ding", "profile_pic_url": "https://scontent-sit4-1.cdninstagram.com/t51.2885-19/11055765_882245781817650_1447044632_a.jpg", "id": "1456067757"}}, {"user": {"username": "anhidrita", "profile_pic_url": "https://scontent-sit4-1.cdninstagram.com/t51.2885-19/s150x150/13696463_1561792710790593_1829291114_a.jpg", "id": "262099590"}}]}, "owner": {"username": "garima2104", "is_unpublished": false, "requested_by_viewer": false, "followed_by_viewer": false, "blocked_by_viewer": false, "profile_pic_url": "https://scontent-sit4-1.cdninstagram.com/t51.2885-19/s150x150/10311254_1687226731560850_2139165167_a.jpg", "full_name": "Garima Midha", "has_blocked_viewer": false, "id": "2327577611", "is_private": false}, "is_video": false, "is_ad": false, "display_src": "https://scontent-sit4-1.cdninstagram.com/t51.2885-15/e35/13696674_1028713187224463_1477099865_n.jpg?ig_cache_key=MTMwMjU3OTAxMjM2NzAxMTAxMw%3D%3D.2", "location": null}, "permalink": "https://www.instagram.com/p/BITsLXcA8zF/"},
{"media": {"caption_is_edited": false, "code": "BIUDne_AGJA", "date": 1469511829, "dimensions": {"width": 1080, "height": 1080}, "usertags": {"nodes": []}, "comments_disabled": false, "comments": {"count": 0, "page_info": {"has_previous_page": false, "start_cursor": null, "end_cursor": null, "has_next_page": false}, "nodes": []}, "id": "1302682099685286464", "caption": "Beauty is everywhere #instasg #singapore #nature #naturelover #natureporn #androidography #igers #life #trees #instagramers", "likes": {"count": 13, "viewer_has_liked": false, "nodes": [{"user": {"username": "preetiskhatri", "profile_pic_url": "https://scontent-sit4-1.cdninstagram.com/t51.2885-19/s150x150/13740989_623224017829229_1740640213_a.jpg", "id": "511980318"}}, {"user": {"username": "brsmart40", "profile_pic_url": "https://scontent-sit4-1.cdninstagram.com/t51.2885-19/s150x150/13129861_233048957058652_1183438980_a.jpg", "id": "460476211"}}, {"user": {"username": "linagranrot", "profile_pic_url": "https://scontent-sit4-1.cdninstagram.com/t51.2885-19/s150x150/13768269_1681215948870280_1136134880_a.jpg", "id": "48441744"}}, {"user": {"username": "dapperspider", "profile_pic_url": "https://scontent-sit4-1.cdninstagram.com/t51.2885-19/s150x150/13549507_147657105655051_250520410_a.jpg", "id": "2543516383"}}, {"user": {"username": "lisutravels", "profile_pic_url": "https://scontent-sit4-1.cdninstagram.com/t51.2885-19/s150x150/13118318_150272442042860_1146973330_a.jpg", "id": "3164495150"}}, {"user": {"username": "towzonglin", "profile_pic_url": "https://scontent-sit4-1.cdninstagram.com/t51.2885-19/s150x150/10601811_933652640005292_807117420_a.jpg", "id": "833449101"}}, {"user": {"username": "nice_guy_91", "profile_pic_url": "https://scontent-sit4-1.cdninstagram.com/t51.2885-19/s150x150/13745006_1752640688322994_341896704_a.jpg", "id": "2076237129"}}, {"user": {"username": "stefanoaccardo", "profile_pic_url": "https://scontent-sit4-1.cdninstagram.com/t51.2885-19/s150x150/12093627_1673173932925545_558590407_a.jpg", "id": "13588520"}}, {"user": {"username": "onyx_flame", "profile_pic_url": "https://scontent-sit4-1.cdninstagram.com/t51.2885-19/s150x150/12534529_1713581785551899_1869187051_a.jpg", "id": "1546851884"}}, {"user": {"username": "tim_briatore", "profile_pic_url": "https://scontent-sit4-1.cdninstagram.com/t51.2885-19/s150x150/11326203_396639887192288_1042434990_a.jpg", "id": "40003487"}}]}, "owner": {"username": "garima2104", "is_unpublished": false, "requested_by_viewer": false, "followed_by_viewer": false, "blocked_by_viewer": false, "profile_pic_url": "https://scontent-sit4-1.cdninstagram.com/t51.2885-19/s150x150/10311254_1687226731560850_2139165167_a.jpg", "full_name": "Garima Midha", "has_blocked_viewer": false, "id": "2327577611", "is_private": false}, "is_video": false, "is_ad": false, "display_src": "https://scontent-sit4-1.cdninstagram.com/t51.2885-15/e35/13734467_136818260087495_1403301389_n.jpg?ig_cache_key=MTMwMjY4MjA5OTY4NTI4NjQ2NA%3D%3D.2", "location": null}, "permalink": "https://www.instagram.com/p/BIUDne_AGJA/"},
{"media": {"caption_is_edited": false, "code": "BIUe4RfAYSQ", "date": 1469526122, "dimensions": {"width": 1080, "height": 638}, "usertags": {"nodes": []}, "comments_disabled": false, "comments": {"count": 0, "page_info": {"has_previous_page": false, "start_cursor": null, "end_cursor": null, "has_next_page": false}, "nodes": []}, "id": "1302802000676750480", "caption": "The domes of gardens by the bay #instasg #singapore #nature #naturelover #natureporn #androidography #igers #gardensbythebay #walk #wanderlust #explore #instagramers", "likes": {"count": 13, "viewer_has_liked": false, "nodes": [{"user": {"username": "rashinko", "profile_pic_url": "https://scontent-sit4-1.cdninstagram.com/t51.2885-19/s150x150/13712527_330852463912619_1086727895_a.jpg", "id": "275137503"}}, {"user": {"username": "hi_1102", "profile_pic_url": "https://scontent-sit4-1.cdninstagram.com/t51.2885-19/s150x150/13712205_534744783382413_78379448_a.jpg", "id": "1814379838"}}, {"user": {"username": "diyaa80", "profile_pic_url": "https://scontent-sit4-1.cdninstagram.com/t51.2885-19/s150x150/13696811_153878385018522_717554767_a.jpg", "id": "3528744743"}}, {"user": {"username": "enigmasuites", "profile_pic_url": "https://scontent-sit4-1.cdninstagram.com/t51.2885-19/11264735_799453903499003_1185345715_a.jpg", "id": "1288284396"}}, {"user": {"username": "sergeevnaekaterinka", "profile_pic_url": "https://scontent-sit4-1.cdninstagram.com/t51.2885-19/s150x150/13651880_1325292147482688_686947920_a.jpg", "id": "1280985863"}}, {"user": {"username": "thechillmom", "profile_pic_url": "https://scontent-sit4-1.cdninstagram.com/t51.2885-19/s150x150/12301320_1009395195807256_1442095840_a.jpg", "id": "42050086"}}, {"user": {"username": "myworldinandout", "profile_pic_url": "https://scontent-sit4-1.cdninstagram.com/t51.2885-19/s150x150/13414243_1798375870392132_476843426_a.jpg", "id": "1907732525"}}, {"user": {"username": "herman.lubis", "profile_pic_url": "https://scontent-sit4-1.cdninstagram.com/t51.2885-19/s150x150/12960163_224239047948278_1318873507_a.jpg", "id": "1781865343"}}, {"user": {"username": "loumjm", "profile_pic_url": "https://scontent-sit4-1.cdninstagram.com/t51.2885-19/s150x150/13473167_1065962473495480_1681578956_a.jpg", "id": "204910851"}}, {"user": {"username": "meglan8", "profile_pic_url": "https://scontent-sit4-1.cdninstagram.com/t51.2885-19/10299785_430870497084317_163886731_a.jpg", "id": "6229061"}}]}, "owner": {"username": "garima2104", "is_unpublished": false, "requested_by_viewer": false, "followed_by_viewer": false, "blocked_by_viewer": false, "profile_pic_url": "https://scontent-sit4-1.cdninstagram.com/t51.2885-19/s150x150/10311254_1687226731560850_2139165167_a.jpg", "full_name": "Garima Midha", "has_blocked_viewer": false, "id": "2327577611", "is_private": false}, "is_video": false, "is_ad": false, "display_src": "https://scontent-sit4-1.cdninstagram.com/t51.2885-15/e35/13743290_1767177150234386_1084745088_n.jpg?ig_cache_key=MTMwMjgwMjAwMDY3Njc1MDQ4MA%3D%3D.2", "location": null}, "permalink": "https://www.instagram.com/p/BIUe4RfAYSQ/"},
{"media": {"caption_is_edited": false, "code": "BIV1M6oANXW", "date": 1469571380, "dimensions": {"width": 1080, "height": 1080}, "usertags": {"nodes": []}, "comments_disabled": false, "comments": {"count": 1, "page_info": {"has_previous_page": false, "start_cursor": null, "end_cursor": null, "has_next_page": false}, "nodes": [{"text": "Make your page make gains \ud83e\udd13 \u27a1\ufe0f #Boost_Your_Insta_Now601", "created_at": 1469571406.0, "id": "17860510591054547", "user": {"username": "_pysieek_", "profile_pic_url": "https://scontent-sit4-1.cdninstagram.com/t51.2885-19/s150x150/11202452_524645781022081_2114011292_a.jpg", "id": "1641754126"}}]}, "id": "1303181651240605142", "caption": "Somethings are just beautiful.happy to gaze #instasg #singapore #nature #naturelover #natureporn #flowers #gardensbythebay #androidography #igers #life #beauty #explore", "likes": {"count": 15, "viewer_has_liked": false, "nodes": [{"user": {"username": "nittynattyme", "profile_pic_url": "https://scontent-sit4-1.cdninstagram.com/t51.2885-19/10953743_964394080239386_1631904481_a.jpg", "id": "23130091"}}, {"user": {"username": "tamprads", "profile_pic_url": "https://scontent-sit4-1.cdninstagram.com/t51.2885-19/s150x150/13628203_155393501533551_538865497_a.jpg", "id": "1697193673"}}, {"user": {"username": "lindsay.hundley", "profile_pic_url": "https://scontent-sit4-1.cdninstagram.com/t51.2885-19/s150x150/13395061_1637011533288643_1482574297_a.jpg", "id": "1736640161"}}, {"user": {"username": "daveblakephoto", "profile_pic_url": "https://scontent-sit4-1.cdninstagram.com/t51.2885-19/s150x150/13116761_125320224542352_885083011_a.jpg", "id": "51045883"}}, {"user": {"username": "edelbohne94", "profile_pic_url": "https://scontent-sit4-1.cdninstagram.com/t51.2885-19/s150x150/13694635_811097465657238_1976236504_a.jpg", "id": "1438456643"}}, {"user": {"username": "rubisonfire", "profile_pic_url": "https://scontent-sit4-1.cdninstagram.com/t51.2885-19/s150x150/916052_947516955340598_1084437671_a.jpg", "id": "2366064227"}}, {"user": {"username": "marcogarciaphotographer", "profile_pic_url": "https://scontent-sit4-1.cdninstagram.com/t51.2885-19/s150x150/12362212_443547985829619_81135608_a.jpg", "id": "190371251"}}, {"user": {"username": "caleb_john", "profile_pic_url": "https://scontent-sit4-1.cdninstagram.com/t51.2885-19/11849825_856695677753666_1497174078_a.jpg", "id": "15964895"}}, {"user": {"username": "muacibaby", "profile_pic_url": "https://scontent-sit4-1.cdninstagram.com/t51.2885-19/s150x150/13266925_254310114927795_1833594930_a.jpg", "id": "4411844"}}, {"user": {"username": "joshedgarphotography", "profile_pic_url": "https://scontent-sit4-1.cdninstagram.com/t51.2885-19/11372316_925341904196471_268506194_a.jpg", "id": "1902919604"}}]}, "owner": {"username": "garima2104", "is_unpublished": false, "requested_by_viewer": false, "followed_by_viewer": false, "blocked_by_viewer": false, "profile_pic_url": "https://scontent-sit4-1.cdninstagram.com/t51.2885-19/s150x150/10311254_1687226731560850_2139165167_a.jpg", "full_name": "Garima Midha", "has_blocked_viewer": false, "id": "2327577611", "is_private": false}, "is_video": false, "is_ad": false, "display_src": "https://scontent-sit4-1.cdninstagram.com/t51.2885-15/e35/13706904_178431852573340_1064299334_n.jpg?ig_cache_key=MTMwMzE4MTY1MTI0MDYwNTE0Mg%3D%3D.2", "location": null}, "permalink": "https://www.instagram.com/p/BIV1M6oANXW/"}
]