[
{"media": {"caption_is_edited": false, "code": "BH7kSZdBzt1", "date": 1468690097, "dimensions": {"width": 1080, "height": 1080}, "usertags": {"nodes": []}, "comments_disabled": false, "comments": {"count": 0, "page_info": {"has_previous_page": false, "start_cursor": null, "end_cursor": null, "has_next_page": false}, "nodes": []}, "id": "1295788911754689397", "caption": "Take me\u2708", "likes": {"count": 10, "viewer_has_liked": false, "nodes": [{"user": {"username": "chanelogy", "profile_pic_url": "https://scontent.cdninstagram.com/t51.2885-19/s150x150/13642870_278916619130538_256046042_a.jpg", "id": "554238087"}}, {"user": {"username": "jjjamezzz", "profile_pic_url": "https://scontent.cdninstagram.com/t51.2885-19/s150x150/11887279_679639972135636_1505190102_a.jpg", "id": "2741934"}}, {"user": {"username": "doro_thyy", "profile_pic_url": "https://scontent.cdninstagram.com/t51.2885-19/s150x150/13743262_1714209665497684_1407147526_a.jpg", "id": "1417493597"}}, {"user": {"username": "emma_bchen", "profile_pic_url": "https://scontent.cdninstagram.com/t51.2885-19/s150x150/13628254_531859393683826_1795843931_a.jpg", "id": "383252797"}}, {"user": {"username": "w_tsung", "profile_pic_url": "https://scontent.cdninstagram.com/t51.2885-19/s150x150/13557105_886832681462217_1826017684_a.jpg", "id": "1634110218"}}, {"user": {"username": "_ohayo_u", "profile_pic_url": "https://scontent.cdninstagram.com/t51.2885-19/s150x150/13108840_1717928535161849_1092920970_a.jpg", "id": "43742525"}}, {"user": {"username": "adamgoldwaters", "profile_pic_url": "https://scontent.cdninstagram.com/t51.2885-19/s150x150/13556834_291327651258015_1386808031_a.jpg", "id": "401468633"}}, {"user": {"username": "iscocorosie", "profile_pic_url": "https://scontent.cdninstagram.com/t51.2885-19/s150x150/13388494_1042005635837028_1618380989_a.jpg", "id": "690192675"}}, {"user": {"username": "tazslacker", "profile_pic_url": "https://scontent.cdninstagram.com/t51.2885-19/s150x150/13256696_895453347232835_522862842_a.jpg", "id": "25220269"}}]}, "owner": {"username": "gg21yd", "is_unpublished": false, "requested_by_viewer": false, "followed_by_viewer": false, "blocked_by_viewer": false, "profile_pic_url": "https://scontent.cdninstagram.com/t51.2885-19/10004379_687115798024340_823579241_a.jpg", "full_name": "Soohye", "has_blocked_viewer": false, "id": "262227316", "is_private": false}, "is_video": false, "is_ad": false, "display_src": "https://scontent.cdninstagram.com/t51.2885-15/e35/13715196_1785785218322211_499240007_n.jpg?ig_cache_key=MTI5NTc4ODkxMTc1NDY4OTM5Nw%3D%3D.2", "location": null}, "permalink": "https://www.instagram.com/p/BH7kSZdBzt1/"},
{"media": {"caption_is_edited": false, "code": "BHPmYL4h-3k", "date": 1467214798, "dimensions": {"width": 1080, "height": 1080}, "usertags": {"nodes": []}, "comments_disabled": false, "comments": {"count": 0, "page_info": {"has_previous_page": false, "start_cursor": null, "end_cursor": null, "has_next_page": false}, "nodes": []}, "id": "1283413206618336740", "caption": "\ud83c\udfb5\ud83d\udc83\u270c\ud83d\ude0a\ud83c\udfa4", "likes": {"count": 7, "viewer_has_liked": false, "nodes": [{"user": {"username": "lyny0304", "profile_pic_url": "https://scontent.cdninstagram.com/t51.2885-19/s150x150/13394903_1142543169125234_447774792_a.jpg", "id": "1183792777"}}, {"user": {"username": "wyx.95", "profile_pic_url": "https://scontent.cdninstagram.com/t51.2885-19/s150x150/13725616_1740171422861314_27933989_a.jpg", "id": "174437804"}}, {"user": {"username": "yoki_guo", "profile_pic_url": "https://scontent.cdninstagram.com/t51.2885-19/s150x150/13437376_298220850517732_978796124_a.jpg", "id": "209828943"}}, {"user": {"username": "ikon_dayo", "profile_pic_url": "https://scontent.cdninstagram.com/t51.2885-19/s150x150/13573423_321890638142692_1262930309_a.jpg", "id": "229933730"}}, {"user": {"username": "zmonstar", "profile_pic_url": "https://scontent.cdninstagram.com/t51.2885-19/s150x150/13129111_214636138922655_318818335_a.jpg", "id": "2410053"}}, {"user": {"username": "tazslacker", "profile_pic_url": "https://scontent.cdninstagram.com/t51.2885-19/s150x150/13256696_895453347232835_522862842_a.jpg", "id": "25220269"}}, {"user": {"username": "prexixi", "profile_pic_url": "https://scontent.cdninstagram.com/t51.2885-19/s150x150/13109127_1266083896754624_817208194_a.jpg", "id": "23494275"}}]}, "owner": {"username": "gg21yd", "is_unpublished": false, "requested_by_viewer": false, "followed_by_viewer": false, "blocked_by_viewer": false, "profile_pic_url": "https://scontent.cdninstagram.com/t51.2885-19/10004379_687115798024340_823579241_a.jpg", "full_name": "Soohye", "has_blocked_viewer": false, "id": "262227316", "is_private": false}, "is_video": false, "is_ad": false, "display_src": "https://scontent.cdninstagram.com/t51.2885-15/e35/13557065_1146705205370880_2128408297_n.jpg?ig_cache_key=MTI4MzQxMzIwNjYxODMzNjc0MA%3D%3D.2", "location": null}, "permalink": "https://www.instagram.com/p/BHPmYL4h-3k/"},
{"media": {"caption_is_edited": true, "code": "BHUj4jYBxgB", "date": 1467381262, "dimensions": {"width": 1080, "height": 1080}, "usertags": {"nodes": []}, "comments_disabled": false, "comments": {"count": 0, "page_info": {"has_previous_page": false, "start_cursor": null, "end_cursor": null, "has_next_page": false}, "nodes": []}, "id": "1284809611610101761", "caption": "finally hv time to watch finish #\ub610\uc624\ud574\uc601 awesome show with awesome script and cast and great chemistry. One of e best kdrama tis yr\ud83d\ude0d gonna miss them.", "likes": {"count": 3, "viewer_has_liked": false, "nodes": [{"user": {"username": "nahaintgscr", "profile_pic_url": "https://scontent.cdninstagram.com/t51.2885-19/s150x150/13704217_1654091071578516_884810543_a.jpg", "id": "1769633604"}}, {"user": {"username": "detectivemeli", "profile_pic_url": "https://scontent.cdninstagram.com/t51.2885-19/11375274_1479350689048525_978633140_a.jpg", "id": "499818947"}}, {"user": {"username": "yaqi0907", "profile_pic_url": "https://scontent.cdninstagram.com/t51.2885-19/s150x150/13402587_1760222820880370_2060569698_a.jpg", "id": "1507952323"}}]}, "owner": {"username": "gg21yd", "is_unpublished": false, "requested_by_viewer": false, "followed_by_viewer": false, "blocked_by_viewer": false, "profile_pic_url": "https://scontent.cdninstagram.com/t51.2885-19/10004379_687115798024340_823579241_a.jpg", "full_name": "Soohye", "has_blocked_viewer": false, "id": "262227316", "is_private": false}, "is_video": false, "is_ad": false, "display_src": "https://scontent.cdninstagram.com/t51.2885-15/e35/13531935_1729250864015598_582815368_n.jpg?ig_cache_key=MTI4NDgwOTYxMTYxMDEwMTc2MQ%3D%3D.2", "location": null}, "permalink": "https://www.instagram.com/p/BHUj4jYBxgB/"},
{"media": {"caption_is_edited": false, "code": "BHVI2QphLaB", "date": 1467400642, "video_views": 5, "video_url": "https://scontent.cdninstagram.com/t50.2886-16/13598128_1737296043212834_940714402_n.mp4", "usertags": {"nodes": []}, "comments_disabled": false, "comments": {"count": 0, "page_info": {"has_previous_page": false, "start_cursor": null, "end_cursor": null, "has_next_page": false}, "nodes": []}, "id": "1284972181784409729", "caption": "Wow tats pretty fast Goal hahahah.", "likes": {"count": 0, "viewer_has_liked": false, "nodes": []}, "location": null, "owner": {"username": "gg21yd", "is_unpublished": false, "requested_by_viewer": false, "followed_by_viewer": false, "blocked_by_viewer": false, "profile_pic_url": "https://scontent.cdninstagram.com/t51.2885-19/10004379_687115798024340_823579241_a.jpg", "full_name": "Soohye", "has_blocked_viewer": false, "id": "262227316", "is_private": false}, "is_video": true, "is_ad": false, "display_src": "https://scontent.cdninstagram.com/t51.2885-15/s640x640/e15/13561663_1604519823211450_2008013740_n.jpg?ig_cache_key=MTI4NDk3MjE4MTc4NDQwOTcyOQ%3D%3D.2", "dimensions": {"width": 640, "height": 360}}, "permalink": "https://www.instagram.com/p/BHVI2QphLaB/"},
{"media": {"caption_is_edited": false, "code": "BHVK2L9hb2o", "date": 1467401690, "video_views": 2, "video_url": "https://scontent.cdninstagram.com/t50.2886-16/13593375_101675470268059_833583091_n.mp4", "usertags": {"nodes": []}, "comments_disabled": false, "comments": {"count": 0, "page_info": {"has_previous_page": false, "start_cursor": null, "end_cursor": null, "has_next_page": false}, "nodes": []}, "id": "1284980972844334504", "caption": "Wow so fast equalised it. Lolxx", "likes": {"count": 0, "viewer_has_liked": false, "nodes": []}, "location": null, "owner": {"username": "gg21yd", "is_unpublished": false, "requested_by_viewer": false, "followed_by_viewer": false, "blocked_by_viewer": false, "profile_pic_url": "https://scontent.cdninstagram.com/t51.2885-19/10004379_687115798024340_823579241_a.jpg", "full_name": "Soohye", "has_blocked_viewer": false, "id": "262227316", "is_private": false}, "is_video": true, "is_ad": false, "display_src": "https://scontent.cdninstagram.com/t51.2885-15/s640x640/e15/13549407_582230318625589_155921827_n.jpg?ig_cache_key=MTI4NDk4MDk3Mjg0NDMzNDUwNA%3D%3D.2", "dimensions": {"width": 640, "height": 360}}, "permalink": "https://www.instagram.com/p/BHVK2L9hb2o/"},
{"media": {"caption_is_edited": false, "code": "BHVPn5eB1dS", "date": 1467404194, "video_views": 4, "video_url": "https://scontent.cdninstagram.com/t50.2886-16/13583057_1710335325893067_1725835157_n.mp4", "usertags": {"nodes": []}, "comments_disabled": false, "comments": {"count": 0, "page_info": {"has_previous_page": false, "start_cursor": null, "end_cursor": null, "has_next_page": false}, "nodes": []}, "id": "1285001981148485458", "caption": "So much space to score. Lolxxx.", "likes": {"count": 3, "viewer_has_liked": false, "nodes": [{"user": {"username": "pai.damei", "profile_pic_url": "https://scontent.cdninstagram.com/t51.2885-19/s150x150/13398747_1261385520541080_975174331_a.jpg", "id": "470306071"}}, {"user": {"username": "iscocorosie", "profile_pic_url": "https://scontent.cdninstagram.com/t51.2885-19/s150x150/13388494_1042005635837028_1618380989_a.jpg", "id": "690192675"}}, {"user": {"username": "iam._shn", "profile_pic_url": "https://scontent.cdninstagram.com/t51.2885-19/s150x150/12445964_1611005149225828_1826439490_a.jpg", "id": "1482168397"}}]}, "location": null, "owner": {"username": "gg21yd", "is_unpublished": false, "requested_by_viewer": false, "followed_by_viewer": false, "blocked_by_viewer": false, "profile_pic_url": "https://scontent.cdninstagram.com/t51.2885-19/10004379_687115798024340_823579241_a.jpg", "full_name": "Soohye", "has_blocked_viewer": false, "id": "262227316", "is_private": false}, "is_video": true, "is_ad": false, "display_src": "https://scontent.cdninstagram.com/t51.2885-15/s640x640/e15/13551826_984810411588759_741479924_n.jpg?ig_cache_key=MTI4NTAwMTk4MTE0ODQ4NTQ1OA%3D%3D.2", "dimensions": {"width": 640, "height": 360}}, "permalink": "https://www.instagram.com/p/BHVPn5eB1dS/"},
{"media": {"caption_is_edited": false, "code": "BHVS-GdhkPy", "date": 1467405949, "video_views": 9, "video_url": "https://scontent.cdninstagram.com/t50.2886-16/13561408_146983752373600_1072156453_n.mp4", "usertags": {"nodes": []}, "comments_disabled": false, "comments": {"count": 1, "page_info": {"has_previous_page": false, "start_cursor": null, "end_cursor": null, "has_next_page": false}, "nodes": [{"text": "\u7f8e\u7ffb\u4e86 \ud83d\udc6f\ud83d\udc6f @gg21yd @euniesama", "created_at": 1467422234.0, "id": "17858737678044779", "user": {"username": "dqzusqs", "profile_pic_url": "https://scontent.cdninstagram.com/t51.2885-19/917847_748057078663986_1121770198_a.jpg", "id": "2619337390"}}]}, "id": "1285016701066691570", "caption": "Gd bye belgium", "likes": {"count": 5, "viewer_has_liked": false, "nodes": [{"user": {"username": "vincozheng", "profile_pic_url": "https://scontent.cdninstagram.com/t51.2885-19/s150x150/13116819_1064748546918898_2074615772_a.jpg", "id": "1053955300"}}, {"user": {"username": "___.shannn", "profile_pic_url": "https://scontent.cdninstagram.com/t51.2885-19/s150x150/13712186_1731407477109491_1089438692_a.jpg", "id": "926251765"}}, {"user": {"username": "dqzusqs", "profile_pic_url": "https://scontent.cdninstagram.com/t51.2885-19/917847_748057078663986_1121770198_a.jpg", "id": "2619337390"}}, {"user": {"username": "19zzzhang", "profile_pic_url": "https://scontent.cdninstagram.com/t51.2885-19/s150x150/13636033_647025385461210_1461387404_a.jpg", "id": "379392341"}}, {"user": {"username": "zmonstar", "profile_pic_url": "https://scontent.cdninstagram.com/t51.2885-19/s150x150/13129111_214636138922655_318818335_a.jpg", "id": "2410053"}}]}, "location": null, "owner": {"username": "gg21yd", "is_unpublished": false, "requested_by_viewer": false, "followed_by_viewer": false, "blocked_by_viewer": false, "profile_pic_url": "https://scontent.cdninstagram.com/t51.2885-19/10004379_687115798024340_823579241_a.jpg", "full_name": "Soohye", "has_blocked_viewer": false, "id": "262227316", "is_private": false}, "is_video": true, "is_ad": false, "display_src": "https://scontent.cdninstagram.com/t51.2885-15/s640x640/e15/13561531_1044356292328828_1347738957_n.jpg?ig_cache_key=MTI4NTAxNjcwMTA2NjY5MTU3MA%3D%3D.2", "dimensions": {"width": 640, "height": 360}}, "permalink": "https://www.instagram.com/p/BHVS-GdhkPy/"},
{"media": {"caption_is_edited": true, "code": "BHXFCPchISg", "date": 1467465752, "dimensions": {"width": 1080, "height": 1080}, "usertags": {"nodes": []}, "comments_disabled": false, "comments": {"count": 0, "page_info": {"has_previous_page": false, "start_cursor": null, "end_cursor": null, "has_next_page": false}, "nodes": []}, "id": "1285518362893649056", "caption": "Pretty addictive song. Have been watching their variety show all along so i kn how hard they practiced to achieve ytd's performance. So proud for them\ud83d\udc4d\ud83d\ude4c\ud83d\udc4f\ud83d\udc83\ud83d\ude46 #unnies #shutup #unniesslamdunk #swag #welldone #hotdebut", "likes": {"count": 1, "viewer_has_liked": false, "nodes": [{"user": {"username": "nadhifatiaraa", "profile_pic_url": "https://scontent.cdninstagram.com/t51.2885-19/s150x150/13712831_872129059558276_1735019074_a.jpg", "id": "193505209"}}]}, "owner": {"username": "gg21yd", "is_unpublished": false, "requested_by_viewer": false, "followed_by_viewer": false, "blocked_by_viewer": false, "profile_pic_url": "https://scontent.cdninstagram.com/t51.2885-19/10004379_687115798024340_823579241_a.jpg", "full_name": "Soohye", "has_blocked_viewer": false, "id": "262227316", "is_private": false}, "is_video": false, "is_ad": false, "display_src": "https://scontent.cdninstagram.com/t51.2885-15/e35/13531833_201924313542172_1911095615_n.jpg?ig_cache_key=MTI4NTUxODM2Mjg5MzY0OTA1Ng%3D%3D.2", "location": null}, "permalink": "https://www.instagram.com/p/BHXFCPchISg/"},
{"media": {"caption_is_edited": true, "code": "BHXG_oFB9PV", "date": 1467466779, "dimensions": {"width": 1080, "height": 1080}, "usertags": {"nodes": []}, "comments_disabled": false, "comments": {"count": 0, "page_info": {"has_previous_page": false, "start_cursor": null, "end_cursor": null, "has_next_page": false}, "nodes": []}, "id": "1285526979277738965", "caption": "Off to bed soon. Nervous for tis match. lets break e curse tonight. Gd night for now, cya later.", "likes": {"count": 1, "viewer_has_liked": false, "nodes": [{"user": {"username": "yanmingz", "profile_pic_url": "https://scontent.cdninstagram.com/t51.2885-19/s150x150/13397653_1687729758156829_1214545871_a.jpg", "id": "602490475"}}]}, "owner": {"username": "gg21yd", "is_unpublished": false, "requested_by_viewer": false, "followed_by_viewer": false, "blocked_by_viewer": false, "profile_pic_url": "https://scontent.cdninstagram.com/t51.2885-19/10004379_687115798024340_823579241_a.jpg", "full_name": "Soohye", "has_blocked_viewer": false, "id": "262227316", "is_private": false}, "is_video": false, "is_ad": false, "display_src": "https://scontent.cdninstagram.com/t51.2885-15/e35/13525377_1051873221558902_116884313_n.jpg?ig_cache_key=MTI4NTUyNjk3OTI3NzczODk2NQ%3D%3D.2", "location": null}, "permalink": "https://www.instagram.com/p/BHXG_oFB9PV/"},
{"media": {"caption_is_edited": false, "code": "BHXsWMmBJ6r", "date": 1467486363, "dimensions": {"width": 1080, "height": 1080}, "usertags": {"nodes": []}, "comments_disabled": false, "comments": {"count": 0, "page_info": {"has_previous_page": false, "start_cursor": null, "end_cursor": null, "has_next_page": false}, "nodes": []}, "id": "1285691258035281579", "caption": "Lets go germany\u26bd\ud83d\udcaa\ud83d\ude4c", "likes": {"count": 1, "viewer_has_liked": false, "nodes": [{"user": {"username": "bugsbunny777", "profile_pic_url": "https://scontent.cdninstagram.com/t51.2885-19/11375255_1625542254378537_1992990537_a.jpg", "id": "209620456"}}]}, "owner": {"username": "gg21yd", "is_unpublished": false, "requested_by_viewer": false, "followed_by_viewer": false, "blocked_by_viewer": false, "profile_pic_url": "https://scontent.cdninstagram.com/t51.2885-19/10004379_687115798024340_823579241_a.jpg", "full_name": "Soohye", "has_blocked_viewer": false, "id": "262227316", "is_private": false}, "is_video": false, "is_ad": false, "display_src": "https://scontent.cdninstagram.com/t51.2885-15/e35/13584313_195997887464973_239057196_n.jpg?ig_cache_key=MTI4NTY5MTI1ODAzNTI4MTU3OQ%3D%3D.2", "location": null}, "permalink": "https://www.instagram.com/p/BHXsWMmBJ6r/"},
{"media": {"caption_is_edited": false, "code": "BHX1z-xBNKc", "date": 1467491325, "video_views": 10, "video_url": "https://scontent.cdninstagram.com/t50.2886-16/13572630_1727034110847674_1290859775_n.mp4", "usertags": {"nodes": []}, "comments_disabled": false, "comments": {"count": 0, "page_info": {"has_previous_page": false, "start_cursor": null, "end_cursor": null, "has_next_page": false}, "nodes": []}, "id": "1285732887190360732", "caption": "Yes!!! Goal! slay them all! whooo!", "likes": {"count": 0, "viewer_has_liked": false, "nodes": []}, "location": null, "owner": {"username": "gg21yd", "is_unpublished": false, "requested_by_viewer": false, "followed_by_viewer": false, "blocked_by_viewer": false, "profile_pic_url": "https://scontent.cdninstagram.com/t51.2885-19/10004379_687115798024340_823579241_a.jpg", "full_name": "Soohye", "has_blocked_viewer": false, "id": "262227316", "is_private": false}, "is_video": true, "is_ad": false, "display_src": "https://scontent.cdninstagram.com/t51.2885-15/s640x640/e15/13556773_508772052653551_1689008556_n.jpg?ig_cache_key=MTI4NTczMjg4NzE5MDM2MDczMg%3D%3D.2", "dimensions": {"width": 640, "height": 360}}, "permalink": "https://www.instagram.com/p/BHX1z-xBNKc/"},
{"media": {"caption_is_edited": false, "code": "BHX5k-nBqnv", "date": 1467493300, "dimensions": {"width": 1080, "height": 1080}, "usertags": {"nodes": []}, "comments_disabled": false, "comments": {"count": 0, "page_info": {"has_previous_page": false, "start_cursor": null, "end_cursor": null, "has_next_page": false}, "nodes": []}, "id": "1285749448416602607", "caption": "Extra time! Jia you!\u26bd\u26bd\ud83d\udcaa\ud83d\udcaa\ud83d\udcaa", "likes": {"count": 0, "viewer_has_liked": false, "nodes": []}, "owner": {"username": "gg21yd", "is_unpublished": false, "requested_by_viewer": false, "followed_by_viewer": false, "blocked_by_viewer": false, "profile_pic_url": "https://scontent.cdninstagram.com/t51.2885-19/10004379_687115798024340_823579241_a.jpg", "full_name": "Soohye", "has_blocked_viewer": false, "id": "262227316", "is_private": false}, "is_video": false, "is_ad": false, "display_src": "https://scontent.cdninstagram.com/t51.2885-15/e35/13556861_1741917249412453_1769314384_n.jpg?ig_cache_key=MTI4NTc0OTQ0ODQxNjYwMjYwNw%3D%3D.2", "location": null}, "permalink": "https://www.instagram.com/p/BHX5k-nBqnv/"},
{"media": {"caption_is_edited": false, "code": "BHX9o3tBbCK", "date": 1467495429, "dimensions": {"width": 1080, "height": 1080}, "usertags": {"nodes": []}, "comments_disabled": false, "comments": {"count": 0, "page_info": {"has_previous_page": false, "start_cursor": null, "end_cursor": null, "has_next_page": false}, "nodes": []}, "id": "1285767308064960650", "caption": "Penalities shootout now! Lets gogogo\u26bd\ud83d\udcaa", "likes": {"count": 0, "viewer_has_liked": false, "nodes": []}, "owner": {"username": "gg21yd", "is_unpublished": false, "requested_by_viewer": false, "followed_by_viewer": false, "blocked_by_viewer": false, "profile_pic_url": "https://scontent.cdninstagram.com/t51.2885-19/10004379_687115798024340_823579241_a.jpg", "full_name": "Soohye", "has_blocked_viewer": false, "id": "262227316", "is_private": false}, "is_video": false, "is_ad": false, "display_src": "https://scontent.cdninstagram.com/t51.2885-15/e35/13597603_143930652677930_1529525569_n.jpg?ig_cache_key=MTI4NTc2NzMwODA2NDk2MDY1MA%3D%3D.2", "location": null}, "permalink": "https://www.instagram.com/p/BHX9o3tBbCK/"},
{"media": {"caption_is_edited": true, "code": "BHX_l0eBLSD", "date": 1467496452, "video_views": 6, "video_url": "https://scontent.cdninstagram.com/t50.2886-16/13563890_207039336359205_1738728390_n.mp4", "usertags": {"nodes": []}, "comments_disabled": false, "comments": {"count": 0, "page_info": {"has_previous_page": false, "start_cursor": null, "end_cursor": null, "has_next_page": false}, "nodes": []}, "id": "1285775894526604419", "caption": "Won!!! lets go to #semifinals #euro2016 #germany", "likes": {"count": 1, "viewer_has_liked": false, "nodes": [{"user": {"username": "bugsbunny777", "profile_pic_url": "https://scontent.cdninstagram.com/t51.2885-19/11375255_1625542254378537_1992990537_a.jpg", "id": "209620456"}}]}, "location": null, "owner": {"username": "gg21yd", "is_unpublished": false, "requested_by_viewer": false, "followed_by_viewer": false, "blocked_by_viewer": false, "profile_pic_url": "https://scontent.cdninstagram.com/t51.2885-19/10004379_687115798024340_823579241_a.jpg", "full_name": "Soohye", "has_blocked_viewer": false, "id": "262227316", "is_private": false}, "is_video": true, "is_ad": false, "display_src": "https://scontent.cdninstagram.com/t51.2885-15/s640x640/e15/13584315_1735064793431658_1344145605_n.jpg?ig_cache_key=MTI4NTc3NTg5NDUyNjYwNDQxOQ%3D%3D.2", "dimensions": {"width": 640, "height": 640}}, "permalink": "https://www.instagram.com/p/BHX_l0eBLSD/"},
{"media": {"caption_is_edited": true, "code": "BHX_wnmhZLv", "date": 1467496541, "video_views": 6, "video_url": "https://scontent.cdninstagram.com/t50.2886-16/13572206_267652243591317_591517999_n.mp4", "usertags": {"nodes": []}, "comments_disabled": false, "comments": {"count": 0, "page_info": {"has_previous_page": false, "start_cursor": null, "end_cursor": null, "has_next_page": false}, "nodes": []}, "id": "1285776636624868079", "caption": "Well done my boys! Reali a long tough match! Whoooo! #euro2016 #germany", "likes": {"count": 1, "viewer_has_liked": false, "nodes": [{"user": {"username": "bugsbunny777", "profile_pic_url": "https://scontent.cdninstagram.com/t51.2885-19/11375255_1625542254378537_1992990537_a.jpg", "id": "209620456"}}]}, "location": null, "owner": {"username": "gg21yd", "is_unpublished": false, "requested_by_viewer": false, "followed_by_viewer": false, "blocked_by_viewer": false, "profile_pic_url": "https://scontent.cdninstagram.com/t51.2885-19/10004379_687115798024340_823579241_a.jpg", "full_name": "Soohye", "has_blocked_viewer": false, "id": "262227316", "is_private": false}, "is_video": true, "is_ad": false, "display_src": "https://scontent.cdninstagram.com/t51.2885-15/s640x640/e15/13557114_743022549172954_1749455867_n.jpg?ig_cache_key=MTI4NTc3NjYzNjYyNDg2ODA3OQ%3D%3D.2", "dimensions": {"width": 640, "height": 360}}, "permalink": "https://www.instagram.com/p/BHX_wnmhZLv/"},
{"media": {"caption_is_edited": true, "code": "BHX_6dah2qy", "date": 1467496621, "video_views": 7, "video_url": "https://scontent.cdninstagram.com/t50.2886-16/13567997_1551436885166224_700683963_n.mp4", "usertags": {"nodes": []}, "comments_disabled": false, "comments": {"count": 0, "page_info": {"has_previous_page": false, "start_cursor": null, "end_cursor": null, "has_next_page": false}, "nodes": []}, "id": "1285777312881011378", "caption": "Perfect save no.1 by my fav goalkeeper #neuer #germany #euro2016", "likes": {"count": 1, "viewer_has_liked": false, "nodes": [{"user": {"username": "bugsbunny777", "profile_pic_url": "https://scontent.cdninstagram.com/t51.2885-19/11375255_1625542254378537_1992990537_a.jpg", "id": "209620456"}}]}, "location": null, "owner": {"username": "gg21yd", "is_unpublished": false, "requested_by_viewer": false, "followed_by_viewer": false, "blocked_by_viewer": false, "profile_pic_url": "https://scontent.cdninstagram.com/t51.2885-19/10004379_687115798024340_823579241_a.jpg", "full_name": "Soohye", "has_blocked_viewer": false, "id": "262227316", "is_private": false}, "is_video": true, "is_ad": false, "display_src": "https://scontent.cdninstagram.com/t51.2885-15/s640x640/e15/13584108_830760847058199_1436383923_n.jpg?ig_cache_key=MTI4NTc3NzMxMjg4MTAxMTM3OA%3D%3D.2", "dimensions": {"width": 640, "height": 360}}, "permalink": "https://www.instagram.com/p/BHX_6dah2qy/"},
{"media": {"caption_is_edited": true, "code": "BHYADXrB6Y9", "date": 1467496694, "video_views": 11, "video_url": "https://scontent.cdninstagram.com/t50.2886-16/13572239_290391814645658_1723569202_n.mp4", "usertags": {"nodes": []}, "comments_disabled": false, "comments": {"count": 0, "page_info": {"has_previous_page": false, "start_cursor": null, "end_cursor": null, "has_next_page": false}, "nodes": []}, "id": "1285777925190690365", "caption": "Perfect save no.2! Thank you neuer\u26bd #euro2016 #germany #neuer", "likes": {"count": 5, "viewer_has_liked": false, "nodes": [{"user": {"username": "oppa_daidai", "profile_pic_url": "https://scontent.cdninstagram.com/t51.2885-19/s150x150/13525567_155656254851827_149891752_a.jpg", "id": "220510839"}}, {"user": {"username": "jingjhangg", "profile_pic_url": "https://scontent.cdninstagram.com/t51.2885-19/s150x150/13534616_1712304939029542_1434391271_a.jpg", "id": "325594436"}}, {"user": {"username": "bugsbunny777", "profile_pic_url": "https://scontent.cdninstagram.com/t51.2885-19/11375255_1625542254378537_1992990537_a.jpg", "id": "209620456"}}, {"user": {"username": "fafafalam", "profile_pic_url": "https://scontent.cdninstagram.com/t51.2885-19/s150x150/1171851_903036959794946_85198600_a.jpg", "id": "8950759"}}, {"user": {"username": "helloitssissil", "profile_pic_url": "https://scontent.cdninstagram.com/t51.2885-19/s150x150/12976666_1614848118835054_234990377_a.jpg", "id": "871546847"}}]}, "location": null, "owner": {"username": "gg21yd", "is_unpublished": false, "requested_by_viewer": false, "followed_by_viewer": false, "blocked_by_viewer": false, "profile_pic_url": "https://scontent.cdninstagram.com/t51.2885-19/10004379_687115798024340_823579241_a.jpg", "full_name": "Soohye", "has_blocked_viewer": false, "id": "262227316", "is_private": false}, "is_video": true, "is_ad": false, "display_src": "https://scontent.cdninstagram.com/t51.2885-15/s640x640/e15/13525386_304829653183314_757542320_n.jpg?ig_cache_key=MTI4NTc3NzkyNTE5MDY5MDM2NQ%3D%3D.2", "dimensions": {"width": 640, "height": 360}}, "permalink": "https://www.instagram.com/p/BHYADXrB6Y9/"},
{"media": {"caption_is_edited": true, "code": "BHYAmwZBbRr", "date": 1467496984, "dimensions": {"width": 1080, "height": 1080}, "usertags": {"nodes": []}, "comments_disabled": false, "comments": {"count": 0, "page_info": {"has_previous_page": false, "start_cursor": null, "end_cursor": null, "has_next_page": false}, "nodes": []}, "id": "1285780356913804395", "caption": "Too excited to go back to slp. Such epic and exciting match! Reali well done all my boys! So happy they finally beat italy \ud83d\udc83\u26bd #euro2016 #germany", "likes": {"count": 7, "viewer_has_liked": false, "nodes": [{"user": {"username": "jyu_502", "profile_pic_url": "https://scontent.cdninstagram.com/t51.2885-19/s150x150/13181424_1537656989875508_523994333_a.jpg", "id": "204578475"}}, {"user": {"username": "vincozheng", "profile_pic_url": "https://scontent.cdninstagram.com/t51.2885-19/s150x150/13116819_1064748546918898_2074615772_a.jpg", "id": "1053955300"}}, {"user": {"username": "jingjhangg", "profile_pic_url": "https://scontent.cdninstagram.com/t51.2885-19/s150x150/13534616_1712304939029542_1434391271_a.jpg", "id": "325594436"}}, {"user": {"username": "bugsbunny777", "profile_pic_url": "https://scontent.cdninstagram.com/t51.2885-19/11375255_1625542254378537_1992990537_a.jpg", "id": "209620456"}}, {"user": {"username": "chewchormeng", "profile_pic_url": "https://scontent.cdninstagram.com/t51.2885-19/s150x150/13150870_1699410620308392_5367925_a.jpg", "id": "459382688"}}, {"user": {"username": "fafafalam", "profile_pic_url": "https://scontent.cdninstagram.com/t51.2885-19/s150x150/1171851_903036959794946_85198600_a.jpg", "id": "8950759"}}, {"user": {"username": "helloitssissil", "profile_pic_url": "https://scontent.cdninstagram.com/t51.2885-19/s150x150/12976666_1614848118835054_234990377_a.jpg", "id": "871546847"}}]}, "owner": {"username": "gg21yd", "is_unpublished": false, "requested_by_viewer": false, "followed_by_viewer": false, "blocked_by_viewer": false, "profile_pic_url": "https://scontent.cdninstagram.com/t51.2885-19/10004379_687115798024340_823579241_a.jpg", "full_name": "Soohye", "has_blocked_viewer": false, "id": "262227316", "is_private": false}, "is_video": false, "is_ad": false, "display_src": "https://scontent.cdninstagram.com/t51.2885-15/e35/13561712_553644554817670_182096948_n.jpg?ig_cache_key=MTI4NTc4MDM1NjkxMzgwNDM5NQ%3D%3D.2", "location": null}, "permalink": "https://www.instagram.com/p/BHYAmwZBbRr/"},
{"media": {"caption_is_edited": false, "code": "BHe8ZSHhSZS", "date": 1467729658, "dimensions": {"width": 1080, "height": 1080}, "usertags": {"nodes": []}, "comments_disabled": false, "comments": {"count": 0, "page_info": {"has_previous_page": false, "start_cursor": null, "end_cursor": null, "has_next_page": false}, "nodes": []}, "id": "1287732163705644626", "caption": "\u60f3\u5ff5\u90a3\u90e8\u620f\u5267\u65f6\u5c31\u542c\u5b83\u7684ost\ud83d\ude0a first wk without #ohhaeyoungagain \ud83d\ude1e", "likes": {"count": 3, "viewer_has_liked": false, "nodes": [{"user": {"username": "alu_uuuuu", "profile_pic_url": "https://scontent.cdninstagram.com/t51.2885-19/s150x150/13181516_1092352094157256_1762533551_a.jpg", "id": "3249293030"}}, {"user": {"username": "felyciachew", "profile_pic_url": "https://scontent.cdninstagram.com/t51.2885-19/s150x150/13113698_487761308085105_1949869578_a.jpg", "id": "526025020"}}, {"user": {"username": "k.r.i.s.me", "profile_pic_url": "https://scontent.cdninstagram.com/t51.2885-19/s150x150/13584118_871342352996382_536010500_a.jpg", "id": "1456080928"}}]}, "owner": {"username": "gg21yd", "is_unpublished": false, "requested_by_viewer": false, "followed_by_viewer": false, "blocked_by_viewer": false, "profile_pic_url": "https://scontent.cdninstagram.com/t51.2885-19/10004379_687115798024340_823579241_a.jpg", "full_name": "Soohye", "has_blocked_viewer": false, "id": "262227316", "is_private": false}, "is_video": false, "is_ad": false, "display_src": "https://scontent.cdninstagram.com/t51.2885-15/e35/13628156_1199856426702001_1579356065_n.jpg?ig_cache_key=MTI4NzczMjE2MzcwNTY0NDYyNg%3D%3D.2", "location": null}, "permalink": "https://www.instagram.com/p/BHe8ZSHhSZS/"},
{"media": {"caption_is_edited": false, "code": "BHhGQP_hg_N", "date": 1467801935, "dimensions": {"width": 1080, "height": 1080}, "usertags": {"nodes": []}, "comments_disabled": false, "comments": {"count": 0, "page_info": {"has_previous_page": false, "start_cursor": null, "end_cursor": null, "has_next_page": false}, "nodes": []}, "id": "1288338473367244749", "caption": "Casual lunch date with mummy\ud83d\ude0d\ud83d\ude00", "likes": {"count": 11, "viewer_has_liked": false, "nodes": [{"user": {"username": "kelicelee", "profile_pic_url": "https://scontent.cdninstagram.com/t51.2885-19/s150x150/12599321_700860936723297_167538297_a.jpg", "id": "5542160"}}, {"user": {"username": "fifi_lens", "profile_pic_url": "https://scontent.cdninstagram.com/t51.2885-19/s150x150/13129716_495825870542070_157003785_a.jpg", "id": "3193729336"}}, {"user": {"username": "leelijuan", "profile_pic_url": "https://scontent.cdninstagram.com/t51.2885-19/12107700_1662801040664796_1404099808_a.jpg", "id": "4009379"}}, {"user": {"username": "a.n.n.i.e_lin", "profile_pic_url": "https://scontent.cdninstagram.com/t51.2885-19/s150x150/13658838_505135833017205_1189066471_a.jpg", "id": "181921051"}}, {"user": {"username": "bianghbr", "profile_pic_url": "https://scontent.cdninstagram.com/t51.2885-19/s150x150/13328941_1113014665406595_603265238_a.jpg", "id": "921256223"}}, {"user": {"username": "horse_bbb", "profile_pic_url": "https://scontent.cdninstagram.com/t51.2885-19/s150x150/13551675_136597560099652_583587495_a.jpg", "id": "311674953"}}, {"user": {"username": "teosaibuay", "profile_pic_url": "https://scontent.cdninstagram.com/t51.2885-19/11820444_1729497493936015_1917292801_a.jpg", "id": "977210178"}}, {"user": {"username": "zmonstar", "profile_pic_url": "https://scontent.cdninstagram.com/t51.2885-19/s150x150/13129111_214636138922655_318818335_a.jpg", "id": "2410053"}}, {"user": {"username": "timothy_yeo__god_is_my_life", "profile_pic_url": "https://scontent.cdninstagram.com/t51.2885-19/s150x150/13739607_304379209896491_1366965889_a.jpg", "id": "43116729"}}, {"user": {"username": "tazslacker", "profile_pic_url": "https://scontent.cdninstagram.com/t51.2885-19/s150x150/13256696_895453347232835_522862842_a.jpg", "id": "25220269"}}]}, "owner": {"username": "gg21yd", "is_unpublished": false, "requested_by_viewer": false, "followed_by_viewer": false, "blocked_by_viewer": false, "profile_pic_url": "https://scontent.cdninstagram.com/t51.2885-19/10004379_687115798024340_823579241_a.jpg", "full_name": "Soohye", "has_blocked_viewer": false, "id": "262227316", "is_private": false}, "is_video": false, "is_ad": false, "display_src": "https://scontent.cdninstagram.com/t51.2885-15/e35/13597743_1568761293427909_641227514_n.jpg?ig_cache_key=MTI4ODMzODQ3MzM2NzI0NDc0OQ%3D%3D.2", "location": null}, "permalink": "https://www.instagram.com/p/BHhGQP_hg_N/"},
{"media": {"caption_is_edited": false, "code": "BHhe3YoBVzW", "date": 1467814839, "dimensions": {"width": 1080, "height": 1080}, "usertags": {"nodes": []}, "comments_disabled": false, "comments": {"count": 1, "page_info": {"has_previous_page": false, "start_cursor": null, "end_cursor": null, "has_next_page": false}, "nodes": [{"text": "\ud83d\udc99\ud83d\udc99 @gg21yd @lucyluxinyi", "created_at": 1467890244.0, "id": "17858548759009781", "user": {"username": "yyfk7", "profile_pic_url": "https://scontent.cdninstagram.com/t51.2885-19/12556094_490381057816849_65229270_a.jpg", "id": "2692288392"}}]}, "id": "1288446715812469974", "caption": "Cya! Power nap now\ud83d\ude00", "likes": {"count": 6, "viewer_has_liked": false, "nodes": [{"user": {"username": "emma_bchen", "profile_pic_url": "https://scontent.cdninstagram.com/t51.2885-19/s150x150/13628254_531859393683826_1795843931_a.jpg", "id": "383252797"}}, {"user": {"username": "caoruiling_jjj", "profile_pic_url": "https://scontent.cdninstagram.com/t51.2885-19/s150x150/13694340_1618596058432168_1622670337_a.jpg", "id": "1578528682"}}, {"user": {"username": "yyfk7", "profile_pic_url": "https://scontent.cdninstagram.com/t51.2885-19/12556094_490381057816849_65229270_a.jpg", "id": "2692288392"}}, {"user": {"username": "lp_0111", "profile_pic_url": "https://scontent.cdninstagram.com/t51.2885-19/s150x150/13113797_1074761102580840_856054942_a.jpg", "id": "1291767619"}}, {"user": {"username": "tazslacker", "profile_pic_url": "https://scontent.cdninstagram.com/t51.2885-19/s150x150/13256696_895453347232835_522862842_a.jpg", "id": "25220269"}}, {"user": {"username": "chewchormeng", "profile_pic_url": "https://scontent.cdninstagram.com/t51.2885-19/s150x150/13150870_1699410620308392_5367925_a.jpg", "id": "459382688"}}]}, "owner": {"username": "gg21yd", "is_unpublished": false, "requested_by_viewer": false, "followed_by_viewer": false, "blocked_by_viewer": false, "profile_pic_url": "https://scontent.cdninstagram.com/t51.2885-19/10004379_687115798024340_823579241_a.jpg", "full_name": "Soohye", "has_blocked_viewer": false, "id": "262227316", "is_private": false}, "is_video": false, "is_ad": false, "display_src": "https://scontent.cdninstagram.com/t51.2885-15/e35/13597738_634244303394384_683820656_n.jpg?ig_cache_key=MTI4ODQ0NjcxNTgxMjQ2OTk3NA%3D%3D.2", "location": null}, "permalink": "https://www.instagram.com/p/BHhe3YoBVzW/"},
{"media": {"caption_is_edited": false, "code": "BHkAhX_h1fO", "date": 1467899593, "dimensions": {"width": 1080, "height": 1080}, "usertags": {"nodes": []}, "comments_disabled": false, "comments": {"count": 0, "page_info": {"has_previous_page": false, "start_cursor": null, "end_cursor": null, "has_next_page": false}, "nodes": []}, "id": "1289157686839433166", "caption": "Cant wait for tis match later! Off for my power nap now! Cya my boys! \u26bd", "likes": {"count": 1, "viewer_has_liked": false, "nodes": [{"user": {"username": "bugsbunny777", "profile_pic_url": "https://scontent.cdninstagram.com/t51.2885-19/11375255_1625542254378537_1992990537_a.jpg", "id": "209620456"}}]}, "owner": {"username": "gg21yd", "is_unpublished": false, "requested_by_viewer": false, "followed_by_viewer": false, "blocked_by_viewer": false, "profile_pic_url": "https://scontent.cdninstagram.com/t51.2885-19/10004379_687115798024340_823579241_a.jpg", "full_name": "Soohye", "has_blocked_viewer": false, "id": "262227316", "is_private": false}, "is_video": false, "is_ad": false, "display_src": "https://scontent.cdninstagram.com/t51.2885-15/e35/13551737_1651826471811519_1331970326_n.jpg?ig_cache_key=MTI4OTE1NzY4NjgzOTQzMzE2Ng%3D%3D.2", "location": null}, "permalink": "https://www.instagram.com/p/BHkAhX_h1fO/"},
{"media": {"caption_is_edited": false, "code": "BHkjxodBfHO", "date": 1467918076, "dimensions": {"width": 1080, "height": 1080}, "usertags": {"nodes": []}, "comments_disabled": false, "comments": {"count": 0, "page_info": {"has_previous_page": false, "start_cursor": null, "end_cursor": null, "has_next_page": false}, "nodes": []}, "id": "1289312735653654990", "caption": "Lets gogogo\u26bd", "likes": {"count": 1, "viewer_has_liked": false, "nodes": [{"user": {"username": "jaclynsathantho", "profile_pic_url": "https://scontent.cdninstagram.com/t51.2885-19/s150x150/13696885_495076407370381_349742461_a.jpg", "id": "34990320"}}]}, "owner": {"username": "gg21yd", "is_unpublished": false, "requested_by_viewer": false, "followed_by_viewer": false, "blocked_by_viewer": false, "profile_pic_url": "https://scontent.cdninstagram.com/t51.2885-19/10004379_687115798024340_823579241_a.jpg", "full_name": "Soohye", "has_blocked_viewer": false, "id": "262227316", "is_private": false}, "is_video": false, "is_ad": false, "display_src": "https://scontent.cdninstagram.com/t51.2885-15/e35/13561583_154719734948341_1680911960_n.jpg?ig_cache_key=MTI4OTMxMjczNTY1MzY1NDk5MA%3D%3D.2", "location": null}, "permalink": "https://www.instagram.com/p/BHkjxodBfHO/"},
{"media": {"caption_is_edited": false, "code": "BHkmxI2hltZ", "date": 1467919645, "video_views": 9, "video_url": "https://scontent.cdninstagram.com/t50.2886-16/13614674_1329933483688023_265796897_n.mp4", "usertags": {"nodes": []}, "comments_disabled": false, "comments": {"count": 0, "page_info": {"has_previous_page": false, "start_cursor": null, "end_cursor": null, "has_next_page": false}, "nodes": []}, "id": "1289325895861295961", "caption": "another Great save\ud83d\ude0d\u26bd", "likes": {"count": 0, "viewer_has_liked": false, "nodes": []}, "location": null, "owner": {"username": "gg21yd", "is_unpublished": false, "requested_by_viewer": false, "followed_by_viewer": false, "blocked_by_viewer": false, "profile_pic_url": "https://scontent.cdninstagram.com/t51.2885-19/10004379_687115798024340_823579241_a.jpg", "full_name": "Soohye", "has_blocked_viewer": false, "id": "262227316", "is_private": false}, "is_video": true, "is_ad": false, "display_src": "https://scontent.cdninstagram.com/t51.2885-15/s640x640/e15/13628200_1031442620237249_550514895_n.jpg?ig_cache_key=MTI4OTMyNTg5NTg2MTI5NTk2MQ%3D%3D.2", "dimensions": {"width": 640, "height": 640}}, "permalink": "https://www.instagram.com/p/BHkmxI2hltZ/"},
{"media": {"caption_is_edited": false, "code": "BHkrKC4BJKZ", "date": 1467921946, "dimensions": {"width": 1080, "height": 1080}, "usertags": {"nodes": []}, "comments_disabled": false, "comments": {"count": 0, "page_info": {"has_previous_page": false, "start_cursor": null, "end_cursor": null, "has_next_page": false}, "nodes": []}, "id": "1289345199616856729", "caption": "2nd half. Lets go! Come on Slay them!", "likes": {"count": 0, "viewer_has_liked": false, "nodes": []}, "owner": {"username": "gg21yd", "is_unpublished": false, "requested_by_viewer": false, "followed_by_viewer": false, "blocked_by_viewer": false, "profile_pic_url": "https://scontent.cdninstagram.com/t51.2885-19/10004379_687115798024340_823579241_a.jpg", "full_name": "Soohye", "has_blocked_viewer": false, "id": "262227316", "is_private": false}, "is_video": false, "is_ad": false, "display_src": "https://scontent.cdninstagram.com/t51.2885-15/e35/13643626_528789940643209_271640135_n.jpg?ig_cache_key=MTI4OTM0NTE5OTYxNjg1NjcyOQ%3D%3D.2", "location": null}, "permalink": "https://www.instagram.com/p/BHkrKC4BJKZ/"},
{"media": {"caption_is_edited": false, "code": "BHkz2K4BQQq", "date": 1467926502, "dimensions": {"width": 1080, "height": 1080}, "usertags": {"nodes": []}, "comments_disabled": false, "comments": {"count": 0, "page_info": {"has_previous_page": false, "start_cursor": null, "end_cursor": null, "has_next_page": false}, "nodes": []}, "id": "1289383416235885610", "caption": "Gdbye germany\u26bd\ud83d\ude2d\ud83d\ude2d\ud83d\ude16\ud83d\ude1f\ud83d\ude2d tonight's squad definitely not their best squad as they hv so many key players injuried and out of match. Hai. Cya soon my boys\u26bd", "likes": {"count": 2, "viewer_has_liked": false, "nodes": [{"user": {"username": "_yiijun", "profile_pic_url": "https://scontent.cdninstagram.com/t51.2885-19/s150x150/13712261_168632783547673_2009596257_a.jpg", "id": "1158893258"}}, {"user": {"username": "chewchormeng", "profile_pic_url": "https://scontent.cdninstagram.com/t51.2885-19/s150x150/13150870_1699410620308392_5367925_a.jpg", "id": "459382688"}}]}, "owner": {"username": "gg21yd", "is_unpublished": false, "requested_by_viewer": false, "followed_by_viewer": false, "blocked_by_viewer": false, "profile_pic_url": "https://scontent.cdninstagram.com/t51.2885-19/10004379_687115798024340_823579241_a.jpg", "full_name": "Soohye", "has_blocked_viewer": false, "id": "262227316", "is_private": false}, "is_video": false, "is_ad": false, "display_src": "https://scontent.cdninstagram.com/t51.2885-15/e35/13557096_1168518849872767_2121123260_n.jpg?ig_cache_key=MTI4OTM4MzQxNjIzNTg4NTYxMA%3D%3D.2", "location": null}, "permalink": "https://www.instagram.com/p/BHkz2K4BQQq/"},
{"media": {"caption_is_edited": false, "code": "BHk02wUhTiX", "date": 1467927031, "dimensions": {"width": 1080, "height": 1080}, "usertags": {"nodes": []}, "comments_disabled": false, "comments": {"count": 0, "page_info": {"has_previous_page": false, "start_cursor": null, "end_cursor": null, "has_next_page": false}, "nodes": []}, "id": "1289387854489008279", "caption": "Too sad for their match loss, need some emo ost song now.", "likes": {"count": 1, "viewer_has_liked": false, "nodes": [{"user": {"username": "_yiijun", "profile_pic_url": "https://scontent.cdninstagram.com/t51.2885-19/s150x150/13712261_168632783547673_2009596257_a.jpg", "id": "1158893258"}}]}, "owner": {"username": "gg21yd", "is_unpublished": false, "requested_by_viewer": false, "followed_by_viewer": false, "blocked_by_viewer": false, "profile_pic_url": "https://scontent.cdninstagram.com/t51.2885-19/10004379_687115798024340_823579241_a.jpg", "full_name": "Soohye", "has_blocked_viewer": false, "id": "262227316", "is_private": false}, "is_video": false, "is_ad": false, "display_src": "https://scontent.cdninstagram.com/t51.2885-15/e35/13549493_559354004237020_1879818447_n.jpg?ig_cache_key=MTI4OTM4Nzg1NDQ4OTAwODI3OQ%3D%3D.2", "location": null}, "permalink": "https://www.instagram.com/p/BHk02wUhTiX/"},
{"media": {"caption_is_edited": false, "code": "BHn6eZDh0kf", "date": 1468030641, "dimensions": {"width": 1080, "height": 1080}, "usertags": {"nodes": []}, "comments_disabled": false, "comments": {"count": 0, "page_info": {"has_previous_page": false, "start_cursor": null, "end_cursor": null, "has_next_page": false}, "nodes": []}, "id": "1290256993449625887", "caption": "Someone trying to photobomb me \ud83d\ude02", "likes": {"count": 3, "viewer_has_liked": false, "nodes": [{"user": {"username": "prexixi", "profile_pic_url": "https://scontent.cdninstagram.com/t51.2885-19/s150x150/13109127_1266083896754624_817208194_a.jpg", "id": "23494275"}}, {"user": {"username": "jinhao_quek", "profile_pic_url": "https://scontent.cdninstagram.com/t51.2885-19/s150x150/13658416_645291808961330_2051247158_a.jpg", "id": "2083372"}}, {"user": {"username": "teosaibuay", "profile_pic_url": "https://scontent.cdninstagram.com/t51.2885-19/11820444_1729497493936015_1917292801_a.jpg", "id": "977210178"}}]}, "owner": {"username": "gg21yd", "is_unpublished": false, "requested_by_viewer": false, "followed_by_viewer": false, "blocked_by_viewer": false, "profile_pic_url": "https://scontent.cdninstagram.com/t51.2885-19/10004379_687115798024340_823579241_a.jpg", "full_name": "Soohye", "has_blocked_viewer": false, "id": "262227316", "is_private": false}, "is_video": false, "is_ad": false, "display_src": "https://scontent.cdninstagram.com/t51.2885-15/e35/13561721_801906176612201_1354802000_n.jpg?ig_cache_key=MTI5MDI1Njk5MzQ0OTYyNTg4Nw%3D%3D.2", "location": null}, "permalink": "https://www.instagram.com/p/BHn6eZDh0kf/"},
{"media": {"caption_is_edited": false, "code": "BHn6yrDhvFK", "date": 1468030807, "dimensions": {"width": 1080, "height": 1080}, "usertags": {"nodes": []}, "comments_disabled": false, "comments": {"count": 1, "page_info": {"has_previous_page": false, "start_cursor": null, "end_cursor": null, "has_next_page": false}, "nodes": [{"text": "Wow your shades look very cool:) @gg21yd", "created_at": 1469928312.0, "id": "17859041428041660", "user": {"username": "smartyboy18", "profile_pic_url": "https://scontent.cdninstagram.com/t51.2885-19/s150x150/12383421_1084785751576967_2000269499_a.jpg", "id": "1556463739"}}]}, "id": "1290258387166490954", "caption": "take tog la. No need photobomb until so xinku\ud83d\ude02\ud83d\ude02\ud83d\ude09", "likes": {"count": 4, "viewer_has_liked": false, "nodes": [{"user": {"username": "smartyboy18", "profile_pic_url": "https://scontent.cdninstagram.com/t51.2885-19/s150x150/12383421_1084785751576967_2000269499_a.jpg", "id": "1556463739"}}, {"user": {"username": "vellerie_sihui", "profile_pic_url": "https://scontent.cdninstagram.com/t51.2885-19/s150x150/13392743_1634298490220990_85906198_a.jpg", "id": "519252504"}}, {"user": {"username": "jinhao_quek", "profile_pic_url": "https://scontent.cdninstagram.com/t51.2885-19/s150x150/13658416_645291808961330_2051247158_a.jpg", "id": "2083372"}}, {"user": {"username": "elibirdy", "profile_pic_url": "https://scontent.cdninstagram.com/t51.2885-19/s150x150/13329188_1712735365647422_931193689_a.jpg", "id": "232332062"}}]}, "owner": {"username": "gg21yd", "is_unpublished": false, "requested_by_viewer": false, "followed_by_viewer": false, "blocked_by_viewer": false, "profile_pic_url": "https://scontent.cdninstagram.com/t51.2885-19/10004379_687115798024340_823579241_a.jpg", "full_name": "Soohye", "has_blocked_viewer": false, "id": "262227316", "is_private": false}, "is_video": false, "is_ad": false, "display_src": "https://scontent.cdninstagram.com/t51.2885-15/e35/13649165_270384283318696_119841240_n.jpg?ig_cache_key=MTI5MDI1ODM4NzE2NjQ5MDk1NA%3D%3D.2", "location": null}, "permalink": "https://www.instagram.com/p/BHn6yrDhvFK/"},
{"media": {"caption_is_edited": false, "code": "BHn6_kBBTPS", "date": 1468030912, "dimensions": {"width": 1080, "height": 1080}, "usertags": {"nodes": []}, "comments_disabled": false, "comments": {"count": 0, "page_info": {"has_previous_page": false, "start_cursor": null, "end_cursor": null, "has_next_page": false}, "nodes": []}, "id": "1290259272961438674", "caption": "cravings satisfied! \ud83d\ude00\u270c", "likes": {"count": 10, "viewer_has_liked": false, "nodes": [{"user": {"username": "vellerie_sihui", "profile_pic_url": "https://scontent.cdninstagram.com/t51.2885-19/s150x150/13392743_1634298490220990_85906198_a.jpg", "id": "519252504"}}, {"user": {"username": "felyciachew", "profile_pic_url": "https://scontent.cdninstagram.com/t51.2885-19/s150x150/13113698_487761308085105_1949869578_a.jpg", "id": "526025020"}}, {"user": {"username": "its_really_rayyy", "profile_pic_url": "https://scontent.cdninstagram.com/t51.2885-19/s150x150/12599092_679223205553308_1166982456_a.jpg", "id": "40400917"}}, {"user": {"username": "coreneneo", "profile_pic_url": "https://scontent.cdninstagram.com/t51.2885-19/s150x150/13549632_1770210953259004_1659722312_a.jpg", "id": "1944849454"}}, {"user": {"username": "prexixi", "profile_pic_url": "https://scontent.cdninstagram.com/t51.2885-19/s150x150/13109127_1266083896754624_817208194_a.jpg", "id": "23494275"}}, {"user": {"username": "yanmingz", "profile_pic_url": "https://scontent.cdninstagram.com/t51.2885-19/s150x150/13397653_1687729758156829_1214545871_a.jpg", "id": "602490475"}}, {"user": {"username": "gracechankayan", "profile_pic_url": "https://scontent.cdninstagram.com/t51.2885-19/11336191_748794045233002_145721320_a.jpg", "id": "323330501"}}, {"user": {"username": "teosaibuay", "profile_pic_url": "https://scontent.cdninstagram.com/t51.2885-19/11820444_1729497493936015_1917292801_a.jpg", "id": "977210178"}}, {"user": {"username": "jinhao_quek", "profile_pic_url": "https://scontent.cdninstagram.com/t51.2885-19/s150x150/13658416_645291808961330_2051247158_a.jpg", "id": "2083372"}}, {"user": {"username": "elibirdy", "profile_pic_url": "https://scontent.cdninstagram.com/t51.2885-19/s150x150/13329188_1712735365647422_931193689_a.jpg", "id": "232332062"}}]}, "owner": {"username": "gg21yd", "is_unpublished": false, "requested_by_viewer": false, "followed_by_viewer": false, "blocked_by_viewer": false, "profile_pic_url": "https://scontent.cdninstagram.com/t51.2885-19/10004379_687115798024340_823579241_a.jpg", "full_name": "Soohye", "has_blocked_viewer": false, "id": "262227316", "is_private": false}, "is_video": false, "is_ad": false, "display_src": "https://scontent.cdninstagram.com/t51.2885-15/e35/13561623_1631293503855218_1325800025_n.jpg?ig_cache_key=MTI5MDI1OTI3Mjk2MTQzODY3NA%3D%3D.2", "location": null}, "permalink": "https://www.instagram.com/p/BHn6_kBBTPS/"},
{"media": {"caption_is_edited": false, "code": "BHoDN21honn", "date": 1468035224, "dimensions": {"width": 1080, "height": 1080}, "usertags": {"nodes": []}, "comments_disabled": false, "comments": {"count": 0, "page_info": {"has_previous_page": false, "start_cursor": null, "end_cursor": null, "has_next_page": false}, "nodes": []}, "id": "1290295439614446055", "caption": "while waiting for my fav pork chop curry rice\ud83d\ude0d\ud83d\ude0d", "likes": {"count": 2, "viewer_has_liked": false, "nodes": [{"user": {"username": "lukina_chan", "profile_pic_url": "https://scontent.cdninstagram.com/t51.2885-19/s150x150/13573642_1772851552959621_1564619106_a.jpg", "id": "2254318095"}}, {"user": {"username": "vellerie_sihui", "profile_pic_url": "https://scontent.cdninstagram.com/t51.2885-19/s150x150/13392743_1634298490220990_85906198_a.jpg", "id": "519252504"}}]}, "owner": {"username": "gg21yd", "is_unpublished": false, "requested_by_viewer": false, "followed_by_viewer": false, "blocked_by_viewer": false, "profile_pic_url": "https://scontent.cdninstagram.com/t51.2885-19/10004379_687115798024340_823579241_a.jpg", "full_name": "Soohye", "has_blocked_viewer": false, "id": "262227316", "is_private": false}, "is_video": false, "is_ad": false, "display_src": "https://scontent.cdninstagram.com/t51.2885-15/e35/13643458_215225808877975_940650149_n.jpg?ig_cache_key=MTI5MDI5NTQzOTYxNDQ0NjA1NQ%3D%3D.2", "location": null}, "permalink": "https://www.instagram.com/p/BHoDN21honn/"},
{"media": {"caption_is_edited": false, "code": "BHoc44-hQJd", "date": 1468048684, "dimensions": {"width": 1080, "height": 1080}, "usertags": {"nodes": []}, "comments_disabled": false, "comments": {"count": 0, "page_info": {"has_previous_page": false, "start_cursor": null, "end_cursor": null, "has_next_page": false}, "nodes": []}, "id": "1290408348013101661", "caption": "usual tai tai hightea session with my aunts. Lolxxx", "likes": {"count": 14, "viewer_has_liked": false, "nodes": [{"user": {"username": "mervynqie", "profile_pic_url": "https://scontent.cdninstagram.com/t51.2885-19/s150x150/13721046_596679240491496_1195073043_a.jpg", "id": "10921017"}}, {"user": {"username": "yulin_princess", "profile_pic_url": "https://scontent.cdninstagram.com/t51.2885-19/s150x150/13534323_1091875917550910_1632687111_a.jpg", "id": "574455513"}}, {"user": {"username": "jinyeli5677", "profile_pic_url": "https://scontent.cdninstagram.com/t51.2885-19/s150x150/13259077_1102450853134722_1205232519_a.jpg", "id": "2188936967"}}, {"user": {"username": "lukina_chan", "profile_pic_url": "https://scontent.cdninstagram.com/t51.2885-19/s150x150/13573642_1772851552959621_1564619106_a.jpg", "id": "2254318095"}}, {"user": {"username": "mikaruan", "profile_pic_url": "https://scontent.cdninstagram.com/t51.2885-19/s150x150/13584211_1030157283739156_1148758383_a.jpg", "id": "1001741283"}}, {"user": {"username": "candiceeemm", "profile_pic_url": "https://scontent.cdninstagram.com/t51.2885-19/s150x150/13694904_1125221840868422_1181343113_a.jpg", "id": "969179104"}}, {"user": {"username": "zhaolucas", "profile_pic_url": "https://scontent.cdninstagram.com/t51.2885-19/s150x150/13658733_1587640984864418_506392252_a.jpg", "id": "1260586111"}}, {"user": {"username": "scottiecosmos", "profile_pic_url": "https://scontent.cdninstagram.com/t51.2885-19/s150x150/13732168_1090695397677366_1408451002_a.jpg", "id": "1798357965"}}, {"user": {"username": "vellerie_sihui", "profile_pic_url": "https://scontent.cdninstagram.com/t51.2885-19/s150x150/13392743_1634298490220990_85906198_a.jpg", "id": "519252504"}}, {"user": {"username": "teosaibuay", "profile_pic_url": "https://scontent.cdninstagram.com/t51.2885-19/11820444_1729497493936015_1917292801_a.jpg", "id": "977210178"}}]}, "owner": {"username": "gg21yd", "is_unpublished": false, "requested_by_viewer": false, "followed_by_viewer": false, "blocked_by_viewer": false, "profile_pic_url": "https://scontent.cdninstagram.com/t51.2885-19/10004379_687115798024340_823579241_a.jpg", "full_name": "Soohye", "has_blocked_viewer": false, "id": "262227316", "is_private": false}, "is_video": false, "is_ad": false, "display_src": "https://scontent.cdninstagram.com/t51.2885-15/e35/13636093_1119163371473031_807783917_n.jpg?ig_cache_key=MTI5MDQwODM0ODAxMzEwMTY2MQ%3D%3D.2", "location": null}, "permalink": "https://www.instagram.com/p/BHoc44-hQJd/"},
{"media": {"caption_is_edited": true, "code": "BHolmMfB4YU", "date": 1468053249, "dimensions": {"width": 1080, "height": 1080}, "usertags": {"nodes": []}, "comments_disabled": false, "comments": {"count": 5, "page_info": {"has_previous_page": false, "start_cursor": null, "end_cursor": null, "has_next_page": false}, "nodes": [{"text": "@gg21yd , isn't at Jalan besar \u526a\u5200\u526a\u5496\u54e9\u996d\uff1f", "created_at": 1468062276.0, "id": "17850142705075981", "user": {"username": "teosaibuay", "profile_pic_url": "https://scontent.cdninstagram.com/t51.2885-19/11820444_1729497493936015_1917292801_a.jpg", "id": "977210178"}}, {"text": "@teosaibuay nope. Tis one at maxwell", "created_at": 1468062527.0, "id": "17850142822075981", "user": {"username": "gg21yd", "profile_pic_url": "https://scontent.cdninstagram.com/t51.2885-19/10004379_687115798024340_823579241_a.jpg", "id": "262227316"}}, {"text": "@gg21yd oh, this also my favourite stall", "created_at": 1468062769.0, "id": "17850142942075981", "user": {"username": "teosaibuay", "profile_pic_url": "https://scontent.cdninstagram.com/t51.2885-19/11820444_1729497493936015_1917292801_a.jpg", "id": "977210178"}}, {"text": "@teosaibuay \ud83d\ude04\ud83d\udc4d", "created_at": 1468066097.0, "id": "17850144196075981", "user": {"username": "gg21yd", "profile_pic_url": "https://scontent.cdninstagram.com/t51.2885-19/10004379_687115798024340_823579241_a.jpg", "id": "262227316"}}, {"text": "Outstanding!", "created_at": 1468092282.0, "id": "17850159880075981", "user": {"username": "scottiecosmos", "profile_pic_url": "https://scontent.cdninstagram.com/t51.2885-19/s150x150/13732168_1090695397677366_1408451002_a.jpg", "id": "1798357965"}}]}, "id": "1290446645708162580", "caption": "my fav pork chop curry rice\ud83d\ude0d\ud83d\ude0d\ud83d\ude0d", "likes": {"count": 19, "viewer_has_liked": false, "nodes": [{"user": {"username": "lukina_chan", "profile_pic_url": "https://scontent.cdninstagram.com/t51.2885-19/s150x150/13573642_1772851552959621_1564619106_a.jpg", "id": "2254318095"}}, {"user": {"username": "zhaolucas", "profile_pic_url": "https://scontent.cdninstagram.com/t51.2885-19/s150x150/13658733_1587640984864418_506392252_a.jpg", "id": "1260586111"}}, {"user": {"username": "linglynnechen", "profile_pic_url": "https://scontent.cdninstagram.com/t51.2885-19/s150x150/13774335_1422335764447158_1049608782_a.jpg", "id": "432891218"}}, {"user": {"username": "zaben.b", "profile_pic_url": "https://scontent.cdninstagram.com/t51.2885-19/s150x150/12446108_954005241303075_1212252212_a.jpg", "id": "2236538975"}}, {"user": {"username": "zhaofuckingzhenhao", "profile_pic_url": "https://scontent.cdninstagram.com/t51.2885-19/s150x150/12905204_1730244933918912_389412671_a.jpg", "id": "648760144"}}, {"user": {"username": "scottiecosmos", "profile_pic_url": "https://scontent.cdninstagram.com/t51.2885-19/s150x150/13732168_1090695397677366_1408451002_a.jpg", "id": "1798357965"}}, {"user": {"username": "vellerie_sihui", "profile_pic_url": "https://scontent.cdninstagram.com/t51.2885-19/s150x150/13392743_1634298490220990_85906198_a.jpg", "id": "519252504"}}, {"user": {"username": "zmonstar", "profile_pic_url": "https://scontent.cdninstagram.com/t51.2885-19/s150x150/13129111_214636138922655_318818335_a.jpg", "id": "2410053"}}, {"user": {"username": "teosaibuay", "profile_pic_url": "https://scontent.cdninstagram.com/t51.2885-19/11820444_1729497493936015_1917292801_a.jpg", "id": "977210178"}}, {"user": {"username": "yanmingz", "profile_pic_url": "https://scontent.cdninstagram.com/t51.2885-19/s150x150/13397653_1687729758156829_1214545871_a.jpg", "id": "602490475"}}]}, "owner": {"username": "gg21yd", "is_unpublished": false, "requested_by_viewer": false, "followed_by_viewer": false, "blocked_by_viewer": false, "profile_pic_url": "https://scontent.cdninstagram.com/t51.2885-19/10004379_687115798024340_823579241_a.jpg", "full_name": "Soohye", "has_blocked_viewer": false, "id": "262227316", "is_private": false}, "is_video": false, "is_ad": false, "display_src": "https://scontent.cdninstagram.com/t51.2885-15/e35/13649342_1063711156999435_456929161_n.jpg?ig_cache_key=MTI5MDQ0NjY0NTcwODE2MjU4MA%3D%3D.2", "location": null}, "permalink": "https://www.instagram.com/p/BHolmMfB4YU/"},
{"media": {"caption_is_edited": false, "code": "BH7jAf-h3m7", "date": 1468689426, "dimensions": {"width": 1080, "height": 1080}, "usertags": {"nodes": []}, "comments_disabled": false, "comments": {"count": 0, "page_info": {"has_previous_page": false, "start_cursor": null, "end_cursor": null, "has_next_page": false}, "nodes": []}, "id": "1295783283762100667", "caption": "Say hi to my new bestie\ud83d\ude02\ud83d\ude02", "likes": {"count": 1, "viewer_has_liked": false, "nodes": [{"user": {"username": "tazslacker", "profile_pic_url": "https://scontent.cdninstagram.com/t51.2885-19/s150x150/13256696_895453347232835_522862842_a.jpg", "id": "25220269"}}]}, "owner": {"username": "gg21yd", "is_unpublished": false, "requested_by_viewer": false, "followed_by_viewer": false, "blocked_by_viewer": false, "profile_pic_url": "https://scontent.cdninstagram.com/t51.2885-19/10004379_687115798024340_823579241_a.jpg", "full_name": "Soohye", "has_blocked_viewer": false, "id": "262227316", "is_private": false}, "is_video": false, "is_ad": false, "display_src": "https://scontent.cdninstagram.com/t51.2885-15/e35/13715045_221316168263035_40188411_n.jpg?ig_cache_key=MTI5NTc4MzI4Mzc2MjEwMDY2Nw%3D%3D.2", "location": null}, "permalink": "https://www.instagram.com/p/BH7jAf-h3m7/"},
{"media": {"caption_is_edited": false, "code": "BH7jL0VBJNp", "date": 1468689519, "dimensions": {"width": 1080, "height": 1080}, "usertags": {"nodes": []}, "comments_disabled": false, "comments": {"count": 0, "page_info": {"has_previous_page": false, "start_cursor": null, "end_cursor": null, "has_next_page": false}, "nodes": []}, "id": "1295784061528478569", "caption": "Interesting dinner", "likes": {"count": 3, "viewer_has_liked": false, "nodes": [{"user": {"username": "felyciachew", "profile_pic_url": "https://scontent.cdninstagram.com/t51.2885-19/s150x150/13113698_487761308085105_1949869578_a.jpg", "id": "526025020"}}, {"user": {"username": "teosaibuay", "profile_pic_url": "https://scontent.cdninstagram.com/t51.2885-19/11820444_1729497493936015_1917292801_a.jpg", "id": "977210178"}}, {"user": {"username": "tazslacker", "profile_pic_url": "https://scontent.cdninstagram.com/t51.2885-19/s150x150/13256696_895453347232835_522862842_a.jpg", "id": "25220269"}}]}, "owner": {"username": "gg21yd", "is_unpublished": false, "requested_by_viewer": false, "followed_by_viewer": false, "blocked_by_viewer": false, "profile_pic_url": "https://scontent.cdninstagram.com/t51.2885-19/10004379_687115798024340_823579241_a.jpg", "full_name": "Soohye", "has_blocked_viewer": false, "id": "262227316", "is_private": false}, "is_video": false, "is_ad": false, "display_src": "https://scontent.cdninstagram.com/t51.2885-15/e35/13774231_1185024041528256_1133528824_n.jpg?ig_cache_key=MTI5NTc4NDA2MTUyODQ3ODU2OQ%3D%3D.2", "location": null}, "permalink": "https://www.instagram.com/p/BH7jL0VBJNp/"},
{"media": {"caption_is_edited": false, "code": "BH7jdWhhXwW", "date": 1468689662, "dimensions": {"width": 1080, "height": 1080}, "usertags": {"nodes": []}, "comments_disabled": false, "comments": {"count": 0, "page_info": {"has_previous_page": false, "start_cursor": null, "end_cursor": null, "has_next_page": false}, "nodes": []}, "id": "1295785266476579862", "caption": "Soup is so yummy but abit salty. Lolxx. Not a fan of egg yolk but tis one is so damn gd! It's my first time not scare to eat egg yolk and even fell in love with it.", "likes": {"count": 5, "viewer_has_liked": false, "nodes": [{"user": {"username": "elibirdy", "profile_pic_url": "https://scontent.cdninstagram.com/t51.2885-19/s150x150/13329188_1712735365647422_931193689_a.jpg", "id": "232332062"}}, {"user": {"username": "coreneneo", "profile_pic_url": "https://scontent.cdninstagram.com/t51.2885-19/s150x150/13549632_1770210953259004_1659722312_a.jpg", "id": "1944849454"}}, {"user": {"username": "ivanjuntian", "profile_pic_url": "https://scontent.cdninstagram.com/t51.2885-19/s150x150/13584067_1215696771776848_1913881943_a.jpg", "id": "266966480"}}, {"user": {"username": "teosaibuay", "profile_pic_url": "https://scontent.cdninstagram.com/t51.2885-19/11820444_1729497493936015_1917292801_a.jpg", "id": "977210178"}}, {"user": {"username": "tazslacker", "profile_pic_url": "https://scontent.cdninstagram.com/t51.2885-19/s150x150/13256696_895453347232835_522862842_a.jpg", "id": "25220269"}}]}, "owner": {"username": "gg21yd", "is_unpublished": false, "requested_by_viewer": false, "followed_by_viewer": false, "blocked_by_viewer": false, "profile_pic_url": "https://scontent.cdninstagram.com/t51.2885-19/10004379_687115798024340_823579241_a.jpg", "full_name": "Soohye", "has_blocked_viewer": false, "id": "262227316", "is_private": false}, "is_video": false, "is_ad": false, "display_src": "https://scontent.cdninstagram.com/t51.2885-15/e35/13696399_1748610505419946_1496819929_n.jpg?ig_cache_key=MTI5NTc4NTI2NjQ3NjU3OTg2Mg%3D%3D.2", "location": null}, "permalink": "https://www.instagram.com/p/BH7jdWhhXwW/"},
{"media": {"caption_is_edited": false, "code": "BH7jwudBuir", "date": 1468689821, "dimensions": {"width": 1080, "height": 1080}, "usertags": {"nodes": []}, "comments_disabled": false, "comments": {"count": 0, "page_info": {"has_previous_page": false, "start_cursor": null, "end_cursor": null, "has_next_page": false}, "nodes": []}, "id": "1295786597841037483", "caption": "Tourist mode on todae\ud83d\ude02\ud83d\ude00", "likes": {"count": 5, "viewer_has_liked": false, "nodes": [{"user": {"username": "vellerie_sihui", "profile_pic_url": "https://scontent.cdninstagram.com/t51.2885-19/s150x150/13392743_1634298490220990_85906198_a.jpg", "id": "519252504"}}, {"user": {"username": "chanelogy", "profile_pic_url": "https://scontent.cdninstagram.com/t51.2885-19/s150x150/13642870_278916619130538_256046042_a.jpg", "id": "554238087"}}, {"user": {"username": "felyciachew", "profile_pic_url": "https://scontent.cdninstagram.com/t51.2885-19/s150x150/13113698_487761308085105_1949869578_a.jpg", "id": "526025020"}}, {"user": {"username": "coreneneo", "profile_pic_url": "https://scontent.cdninstagram.com/t51.2885-19/s150x150/13549632_1770210953259004_1659722312_a.jpg", "id": "1944849454"}}, {"user": {"username": "tazslacker", "profile_pic_url": "https://scontent.cdninstagram.com/t51.2885-19/s150x150/13256696_895453347232835_522862842_a.jpg", "id": "25220269"}}]}, "owner": {"username": "gg21yd", "is_unpublished": false, "requested_by_viewer": false, "followed_by_viewer": false, "blocked_by_viewer": false, "profile_pic_url": "https://scontent.cdninstagram.com/t51.2885-19/10004379_687115798024340_823579241_a.jpg", "full_name": "Soohye", "has_blocked_viewer": false, "id": "262227316", "is_private": false}, "is_video": false, "is_ad": false, "display_src": "https://scontent.cdninstagram.com/t51.2885-15/e35/13696414_1070783706349574_534054753_n.jpg?ig_cache_key=MTI5NTc4NjU5Nzg0MTAzNzQ4Mw%3D%3D.2", "location": null}, "permalink": "https://www.instagram.com/p/BH7jwudBuir/"},
{"media": {"caption_is_edited": false, "code": "BH7kGjyhrUa", "dimensions": {"width": 1080, "height": 1080}, "usertags": {"nodes": []}, "comments_disabled": false, "comments": {"count": 0, "page_info": {"has_previous_page": false, "start_cursor": null, "end_cursor": null, "has_next_page": false}, "nodes": []}, "id": "1295788098219062554", "date": 1468690000, "likes": {"count": 6, "viewer_has_liked": false, "nodes": [{"user": {"username": "vellerie_sihui", "profile_pic_url": "https://scontent.cdninstagram.com/t51.2885-19/s150x150/13392743_1634298490220990_85906198_a.jpg", "id": "519252504"}}, {"user": {"username": "chanelogy", "profile_pic_url": "https://scontent.cdninstagram.com/t51.2885-19/s150x150/13642870_278916619130538_256046042_a.jpg", "id": "554238087"}}, {"user": {"username": "felyciachew", "profile_pic_url": "https://scontent.cdninstagram.com/t51.2885-19/s150x150/13113698_487761308085105_1949869578_a.jpg", "id": "526025020"}}, {"user": {"username": "chewchormeng", "profile_pic_url": "https://scontent.cdninstagram.com/t51.2885-19/s150x150/13150870_1699410620308392_5367925_a.jpg", "id": "459382688"}}, {"user": {"username": "zmonstar", "profile_pic_url": "https://scontent.cdninstagram.com/t51.2885-19/s150x150/13129111_214636138922655_318818335_a.jpg", "id": "2410053"}}, {"user": {"username": "tazslacker", "profile_pic_url": "https://scontent.cdninstagram.com/t51.2885-19/s150x150/13256696_895453347232835_522862842_a.jpg", "id": "25220269"}}]}, "owner": {"username": "gg21yd", "is_unpublished": false, "requested_by_viewer": false, "followed_by_viewer": false, "blocked_by_viewer": false, "profile_pic_url": "https://scontent.cdninstagram.com/t51.2885-19/10004379_687115798024340_823579241_a.jpg", "full_name": "Soohye", "has_blocked_viewer": false, "id": "262227316", "is_private": false}, "is_video": false, "is_ad": false, "display_src": "https://scontent.cdninstagram.com/t51.2885-15/e35/13707089_747609905380933_259049314_n.jpg?ig_cache_key=MTI5NTc4ODA5ODIxOTA2MjU1NA%3D%3D.2", "location": null}, "permalink": "https://www.instagram.com/p/BH7kGjyhrUa/"},
{"media": {"caption_is_edited": false, "code": "BH7keDLhAkO", "date": 1468690192, "dimensions": {"width": 1080, "height": 1080}, "usertags": {"nodes": []}, "comments_disabled": false, "comments": {"count": 0, "page_info": {"has_previous_page": false, "start_cursor": null, "end_cursor": null, "has_next_page": false}, "nodes": []}, "id": "1295789712472279310", "caption": "Thank you\ud83d\ude18\ud83d\ude18\ud83d\ude18 @coreneneo", "likes": {"count": 10, "viewer_has_liked": false, "nodes": [{"user": {"username": "jjjamezzz", "profile_pic_url": "https://scontent.cdninstagram.com/t51.2885-19/s150x150/11887279_679639972135636_1505190102_a.jpg", "id": "2741934"}}, {"user": {"username": "iamycw_", "profile_pic_url": "https://scontent.cdninstagram.com/t51.2885-19/s150x150/13734341_1179721975411461_805549039_a.jpg", "id": "1213123520"}}, {"user": {"username": "emilydududu", "profile_pic_url": "https://scontent.cdninstagram.com/t51.2885-19/s150x150/13102528_548590341989374_1156501048_a.jpg", "id": "509855721"}}, {"user": {"username": "dennis19890520", "profile_pic_url": "https://scontent.cdninstagram.com/t51.2885-19/s150x150/11910525_1622437964643422_637603950_a.jpg", "id": "1178061918"}}, {"user": {"username": "coreneneo", "profile_pic_url": "https://scontent.cdninstagram.com/t51.2885-19/s150x150/13549632_1770210953259004_1659722312_a.jpg", "id": "1944849454"}}, {"user": {"username": "queenyso", "profile_pic_url": "https://scontent.cdninstagram.com/t51.2885-19/s150x150/13150857_1704252819836313_1910318522_a.jpg", "id": "1249169"}}, {"user": {"username": "realyuho", "profile_pic_url": "https://scontent.cdninstagram.com/t51.2885-19/s150x150/12530961_595382943961175_1031078559_a.jpg", "id": "258756773"}}, {"user": {"username": "zbyluck", "profile_pic_url": "https://scontent.cdninstagram.com/t51.2885-19/s150x150/13437292_1739367946302107_1625654738_a.jpg", "id": "1941446198"}}, {"user": {"username": "tazslacker", "profile_pic_url": "https://scontent.cdninstagram.com/t51.2885-19/s150x150/13256696_895453347232835_522862842_a.jpg", "id": "25220269"}}]}, "owner": {"username": "gg21yd", "is_unpublished": false, "requested_by_viewer": false, "followed_by_viewer": false, "blocked_by_viewer": false, "profile_pic_url": "https://scontent.cdninstagram.com/t51.2885-19/10004379_687115798024340_823579241_a.jpg", "full_name": "Soohye", "has_blocked_viewer": false, "id": "262227316", "is_private": false}, "is_video": false, "is_ad": false, "display_src": "https://scontent.cdninstagram.com/t51.2885-15/e35/13694400_1801083720178095_29325188_n.jpg?ig_cache_key=MTI5NTc4OTcxMjQ3MjI3OTMxMA%3D%3D.2", "location": null}, "permalink": "https://www.instagram.com/p/BH7keDLhAkO/"},
{"media": {"caption_is_edited": true, "code": "BIAVI_vh0Eg", "date": 1468849928, "dimensions": {"width": 1080, "height": 1080}, "usertags": {"nodes": []}, "comments_disabled": false, "comments": {"count": 1, "page_info": {"has_previous_page": false, "start_cursor": null, "end_cursor": null, "has_next_page": false}, "nodes": [{"text": "This is wonderful :)", "created_at": 1468888861.0, "id": "17859335512000483", "user": {"username": "doris_dg", "profile_pic_url": "https://scontent.cdninstagram.com/t51.2885-19/s150x150/13402629_610128315813689_1317082682_a.jpg", "id": "213813067"}}]}, "id": "1297129669858378016", "caption": "Goodbye to tis 7pm #kdrama #\ud30c\ub791\uc0c8\uc758\uc9d1 on chn u! Gonna miss tis couple\ud83d\ude0d", "likes": {"count": 34, "viewer_has_liked": false, "nodes": [{"user": {"username": "7_7zoo", "profile_pic_url": "https://scontent.cdninstagram.com/t51.2885-19/s150x150/12383223_1655276244762037_1116838943_a.jpg", "id": "2604565743"}}, {"user": {"username": "joy.jiangzy", "profile_pic_url": "https://scontent.cdninstagram.com/t51.2885-19/s150x150/11850241_444501322419187_1431553088_a.jpg", "id": "17177744"}}, {"user": {"username": "joshq111", "profile_pic_url": "https://scontent.cdninstagram.com/t51.2885-19/s150x150/12383214_1718631905050759_2142197958_a.jpg", "id": "2540566306"}}, {"user": {"username": "realxya", "profile_pic_url": "https://scontent.cdninstagram.com/t51.2885-19/11906329_960233084022564_1448528159_a.jpg", "id": "279929330"}}, {"user": {"username": "doris_dg", "profile_pic_url": "https://scontent.cdninstagram.com/t51.2885-19/s150x150/13402629_610128315813689_1317082682_a.jpg", "id": "213813067"}}, {"user": {"username": "timothy_yeo__god_is_my_life", "profile_pic_url": "https://scontent.cdninstagram.com/t51.2885-19/s150x150/13739607_304379209896491_1366965889_a.jpg", "id": "43116729"}}, {"user": {"username": "itscty", "profile_pic_url": "https://scontent.cdninstagram.com/t51.2885-19/s150x150/13380820_1787096001523502_950879831_a.jpg", "id": "994608789"}}, {"user": {"username": "tazslacker", "profile_pic_url": "https://scontent.cdninstagram.com/t51.2885-19/s150x150/13256696_895453347232835_522862842_a.jpg", "id": "25220269"}}, {"user": {"username": "felyciachew", "profile_pic_url": "https://scontent.cdninstagram.com/t51.2885-19/s150x150/13113698_487761308085105_1949869578_a.jpg", "id": "526025020"}}, {"user": {"username": "zmonstar", "profile_pic_url": "https://scontent.cdninstagram.com/t51.2885-19/s150x150/13129111_214636138922655_318818335_a.jpg", "id": "2410053"}}]}, "owner": {"username": "gg21yd", "is_unpublished": false, "requested_by_viewer": false, "followed_by_viewer": false, "blocked_by_viewer": false, "profile_pic_url": "https://scontent.cdninstagram.com/t51.2885-19/10004379_687115798024340_823579241_a.jpg", "full_name": "Soohye", "has_blocked_viewer": false, "id": "262227316", "is_private": false}, "is_video": false, "is_ad": false, "display_src": "https://scontent.cdninstagram.com/t51.2885-15/e35/13704122_1719135658335909_130032939_n.jpg?ig_cache_key=MTI5NzEyOTY2OTg1ODM3ODAxNg%3D%3D.2", "location": null}, "permalink": "https://www.instagram.com/p/BIAVI_vh0Eg/"},
{"media": {"caption_is_edited": true, "code": "BIAWXwdB1iN", "date": 1468850573, "dimensions": {"width": 1080, "height": 1080}, "usertags": {"nodes": []}, "comments_disabled": false, "comments": {"count": 4, "page_info": {"has_previous_page": false, "start_cursor": null, "end_cursor": null, "has_next_page": false}, "nodes": [{"text": "#\u559c\u6b22 @yunxi_s", "created_at": 1469271226.0, "id": "17859357286055721", "user": {"username": "guser0209", "profile_pic_url": "https://scontent.cdninstagram.com/t51.2885-19/13109116_1720598821521278_1034023238_a.jpg", "id": "3171373972"}}, {"text": "\ud83d\udc9d @gg21yd @timwongtinyan", "created_at": 1469683599.0, "id": "17859579292055721", "user": {"username": "sqxxqxx", "profile_pic_url": "https://scontent.cdninstagram.com/t51.2885-19/1209510_1092298844136774_1157861383_a.jpg", "id": "2463081142"}}, {"text": "\ud83c\udf3b\ud83c\udf3b\ud83c\udf3b @gg21yd @95_xuebin", "created_at": 1469800174.0, "id": "17859706489055721", "user": {"username": "carol5166_viola", "profile_pic_url": "https://scontent.cdninstagram.com/t51.2885-19/12141912_525210850971896_1452066638_a.jpg", "id": "2248725199"}}, {"text": "\ud83c\udf3b\ud83c\udf3b@gg21yd \ud83d\udc97 @yiranwangr", "created_at": 1469872300.0, "id": "17859754960055721", "user": {"username": "ethel_yang.0781", "profile_pic_url": "https://scontent.cdninstagram.com/t51.2885-19/12317410_926117910808018_1167872171_a.jpg", "id": "2299781327"}}]}, "id": "1297135082280540301", "caption": "Finally complete tis #kdrama #\ub9c8\ub140\ubcf4\uac10 , bittersweet ending, another child actress grow up le\ud83d\udc4f\ud83d\ude0d", "likes": {"count": 38, "viewer_has_liked": false, "nodes": [{"user": {"username": "joshq111", "profile_pic_url": "https://scontent.cdninstagram.com/t51.2885-19/s150x150/12383214_1718631905050759_2142197958_a.jpg", "id": "2540566306"}}, {"user": {"username": "wy961014wy", "profile_pic_url": "https://scontent.cdninstagram.com/t51.2885-19/s150x150/13118320_1548287265475249_1507044302_a.jpg", "id": "1275680598"}}, {"user": {"username": "yuyuhan95", "profile_pic_url": "https://scontent.cdninstagram.com/t51.2885-19/s150x150/13671778_1044086925627193_1085681260_a.jpg", "id": "1611016431"}}, {"user": {"username": "chanelogy", "profile_pic_url": "https://scontent.cdninstagram.com/t51.2885-19/s150x150/13642870_278916619130538_256046042_a.jpg", "id": "554238087"}}, {"user": {"username": "a.n.n.i.e_lin", "profile_pic_url": "https://scontent.cdninstagram.com/t51.2885-19/s150x150/13658838_505135833017205_1189066471_a.jpg", "id": "181921051"}}, {"user": {"username": "chili_scarlett", "profile_pic_url": "https://scontent.cdninstagram.com/t51.2885-19/10958293_1557068584540804_231746155_a.jpg", "id": "1492220448"}}, {"user": {"username": "___.shannn", "profile_pic_url": "https://scontent.cdninstagram.com/t51.2885-19/s150x150/13712186_1731407477109491_1089438692_a.jpg", "id": "926251765"}}, {"user": {"username": "itscty", "profile_pic_url": "https://scontent.cdninstagram.com/t51.2885-19/s150x150/13380820_1787096001523502_950879831_a.jpg", "id": "994608789"}}, {"user": {"username": "tazslacker", "profile_pic_url": "https://scontent.cdninstagram.com/t51.2885-19/s150x150/13256696_895453347232835_522862842_a.jpg", "id": "25220269"}}, {"user": {"username": "felyciachew", "profile_pic_url": "https://scontent.cdninstagram.com/t51.2885-19/s150x150/13113698_487761308085105_1949869578_a.jpg", "id": "526025020"}}]}, "owner": {"username": "gg21yd", "is_unpublished": false, "requested_by_viewer": false, "followed_by_viewer": false, "blocked_by_viewer": false, "profile_pic_url": "https://scontent.cdninstagram.com/t51.2885-19/10004379_687115798024340_823579241_a.jpg", "full_name": "Soohye", "has_blocked_viewer": false, "id": "262227316", "is_private": false}, "is_video": false, "is_ad": false, "display_src": "https://scontent.cdninstagram.com/t51.2885-15/e35/13743337_253977791650829_1872680030_n.jpg?ig_cache_key=MTI5NzEzNTA4MjI4MDU0MDMwMQ%3D%3D.2", "location": null}, "permalink": "https://www.instagram.com/p/BIAWXwdB1iN/"},
{"media": {"caption_is_edited": false, "code": "BIgbvyLhJvl", "date": 1469927133, "dimensions": {"width": 1080, "height": 1080}, "usertags": {"nodes": []}, "comments_disabled": false, "comments": {"count": 0, "page_info": {"has_previous_page": false, "start_cursor": null, "end_cursor": null, "has_next_page": false}, "nodes": []}, "id": "1306165922888981477", "caption": "After ten days of \"horror\" finally it's done. Now left painting of e whole hse. Wheee", "likes": {"count": 4, "viewer_has_liked": false, "nodes": [{"user": {"username": "bugsbunny777", "profile_pic_url": "https://scontent.cdninstagram.com/t51.2885-19/11375255_1625542254378537_1992990537_a.jpg", "id": "209620456"}}, {"user": {"username": "tazslacker", "profile_pic_url": "https://scontent.cdninstagram.com/t51.2885-19/s150x150/13256696_895453347232835_522862842_a.jpg", "id": "25220269"}}, {"user": {"username": "angelinebest", "profile_pic_url": "https://scontent.cdninstagram.com/t51.2885-19/s150x150/12353347_523250127834777_294793150_a.jpg", "id": "349529330"}}, {"user": {"username": "teosaibuay", "profile_pic_url": "https://scontent.cdninstagram.com/t51.2885-19/11820444_1729497493936015_1917292801_a.jpg", "id": "977210178"}}]}, "owner": {"username": "gg21yd", "is_unpublished": false, "requested_by_viewer": false, "followed_by_viewer": false, "blocked_by_viewer": false, "profile_pic_url": "https://scontent.cdninstagram.com/t51.2885-19/10004379_687115798024340_823579241_a.jpg", "full_name": "Soohye", "has_blocked_viewer": false, "id": "262227316", "is_private": false}, "is_video": false, "is_ad": false, "display_src": "https://scontent.cdninstagram.com/t51.2885-15/e35/13712777_315235445486194_1269416596_n.jpg?ig_cache_key=MTMwNjE2NTkyMjg4ODk4MTQ3Nw%3D%3D.2", "location": null}, "permalink": "https://www.instagram.com/p/BIgbvyLhJvl/"},
{"media": {"caption_is_edited": true, "code": "BIgb6ithr6J", "date": 1469927221, "dimensions": {"width": 1080, "height": 1080}, "usertags": {"nodes": []}, "comments_disabled": false, "comments": {"count": 0, "page_info": {"has_previous_page": false, "start_cursor": null, "end_cursor": null, "has_next_page": false}, "nodes": []}, "id": "1306166662193921673", "caption": "Due to painting. Early morning kena \"chased\" out of hse. Hahaha. Shall hv some hotcakes and morning coffee! Horror part 2 already started todae! \ud83d\udc4f", "likes": {"count": 3, "viewer_has_liked": false, "nodes": [{"user": {"username": "tazslacker", "profile_pic_url": "https://scontent.cdninstagram.com/t51.2885-19/s150x150/13256696_895453347232835_522862842_a.jpg", "id": "25220269"}}, {"user": {"username": "angelinebest", "profile_pic_url": "https://scontent.cdninstagram.com/t51.2885-19/s150x150/12353347_523250127834777_294793150_a.jpg", "id": "349529330"}}, {"user": {"username": "teosaibuay", "profile_pic_url": "https://scontent.cdninstagram.com/t51.2885-19/11820444_1729497493936015_1917292801_a.jpg", "id": "977210178"}}]}, "owner": {"username": "gg21yd", "is_unpublished": false, "requested_by_viewer": false, "followed_by_viewer": false, "blocked_by_viewer": false, "profile_pic_url": "https://scontent.cdninstagram.com/t51.2885-19/10004379_687115798024340_823579241_a.jpg", "full_name": "Soohye", "has_blocked_viewer": false, "id": "262227316", "is_private": false}, "is_video": false, "is_ad": false, "display_src": "https://scontent.cdninstagram.com/t51.2885-15/e35/13774354_1027504550661124_124772153_n.jpg?ig_cache_key=MTMwNjE2NjY2MjE5MzkyMTY3Mw%3D%3D.2", "location": null}, "permalink": "https://www.instagram.com/p/BIgb6ithr6J/"},
{"media": {"caption_is_edited": false, "code": "BIgcYfRBVbr", "date": 1469927466, "dimensions": {"width": 1080, "height": 1080}, "usertags": {"nodes": []}, "comments_disabled": false, "comments": {"count": 0, "page_info": {"has_previous_page": false, "start_cursor": null, "end_cursor": null, "has_next_page": false}, "nodes": []}, "id": "1306168720078755563", "caption": "Officially Gdbye my lovely temp toilet and \"red carpet!\" Lolxxx.", "likes": {"count": 4, "viewer_has_liked": false, "nodes": [{"user": {"username": "bugsbunny777", "profile_pic_url": "https://scontent.cdninstagram.com/t51.2885-19/11375255_1625542254378537_1992990537_a.jpg", "id": "209620456"}}, {"user": {"username": "pampan93", "profile_pic_url": "https://scontent.cdninstagram.com/t51.2885-19/s150x150/13739458_570329546472283_189335684_a.jpg", "id": "3440796666"}}, {"user": {"username": "tazslacker", "profile_pic_url": "https://scontent.cdninstagram.com/t51.2885-19/s150x150/13256696_895453347232835_522862842_a.jpg", "id": "25220269"}}, {"user": {"username": "angelinebest", "profile_pic_url": "https://scontent.cdninstagram.com/t51.2885-19/s150x150/12353347_523250127834777_294793150_a.jpg", "id": "349529330"}}]}, "owner": {"username": "gg21yd", "is_unpublished": false, "requested_by_viewer": false, "followed_by_viewer": false, "blocked_by_viewer": false, "profile_pic_url": "https://scontent.cdninstagram.com/t51.2885-19/10004379_687115798024340_823579241_a.jpg", "full_name": "Soohye", "has_blocked_viewer": false, "id": "262227316", "is_private": false}, "is_video": false, "is_ad": false, "display_src": "https://scontent.cdninstagram.com/t51.2885-15/e35/13715231_1724120507828424_44666759_n.jpg?ig_cache_key=MTMwNjE2ODcyMDA3ODc1NTU2Mw%3D%3D.2", "location": null}, "permalink": "https://www.instagram.com/p/BIgcYfRBVbr/"},
{"media": {"caption_is_edited": false, "code": "BIgdFXwhL2A", "date": 1469927834, "dimensions": {"width": 1080, "height": 1080}, "usertags": {"nodes": []}, "comments_disabled": false, "comments": {"count": 0, "page_info": {"has_previous_page": false, "start_cursor": null, "end_cursor": null, "has_next_page": false}, "nodes": []}, "id": "1306171804393717120", "caption": "Happy sunday\u270c\ud83d\udc83\ud83c\udf7b", "likes": {"count": 10, "viewer_has_liked": false, "nodes": [{"user": {"username": "coreneneo", "profile_pic_url": "https://scontent.cdninstagram.com/t51.2885-19/s150x150/13549632_1770210953259004_1659722312_a.jpg", "id": "1944849454"}}, {"user": {"username": "bugsbunny777", "profile_pic_url": "https://scontent.cdninstagram.com/t51.2885-19/11375255_1625542254378537_1992990537_a.jpg", "id": "209620456"}}, {"user": {"username": "yeahph", "profile_pic_url": "https://scontent.cdninstagram.com/t51.2885-19/s150x150/13745164_1757550501197631_2087811358_a.jpg", "id": "11630607"}}, {"user": {"username": "jacksont_11", "profile_pic_url": "https://scontent.cdninstagram.com/t51.2885-19/s150x150/12231018_841663209295595_727212099_a.jpg", "id": "53508840"}}, {"user": {"username": "tazslacker", "profile_pic_url": "https://scontent.cdninstagram.com/t51.2885-19/s150x150/13256696_895453347232835_522862842_a.jpg", "id": "25220269"}}, {"user": {"username": "zmonstar", "profile_pic_url": "https://scontent.cdninstagram.com/t51.2885-19/s150x150/13129111_214636138922655_318818335_a.jpg", "id": "2410053"}}, {"user": {"username": "angelinebest", "profile_pic_url": "https://scontent.cdninstagram.com/t51.2885-19/s150x150/12353347_523250127834777_294793150_a.jpg", "id": "349529330"}}, {"user": {"username": "jinhao_quek", "profile_pic_url": "https://scontent.cdninstagram.com/t51.2885-19/s150x150/13658416_645291808961330_2051247158_a.jpg", "id": "2083372"}}, {"user": {"username": "smartyboy18", "profile_pic_url": "https://scontent.cdninstagram.com/t51.2885-19/s150x150/12383421_1084785751576967_2000269499_a.jpg", "id": "1556463739"}}, {"user": {"username": "teosaibuay", "profile_pic_url": "https://scontent.cdninstagram.com/t51.2885-19/11820444_1729497493936015_1917292801_a.jpg", "id": "977210178"}}]}, "owner": {"username": "gg21yd", "is_unpublished": false, "requested_by_viewer": false, "followed_by_viewer": false, "blocked_by_viewer": false, "profile_pic_url": "https://scontent.cdninstagram.com/t51.2885-19/10004379_687115798024340_823579241_a.jpg", "full_name": "Soohye", "has_blocked_viewer": false, "id": "262227316", "is_private": false}, "is_video": false, "is_ad": false, "display_src": "https://scontent.cdninstagram.com/t51.2885-15/e35/13707084_319208935078359_2144540418_n.jpg?ig_cache_key=MTMwNjE3MTgwNDM5MzcxNzEyMA%3D%3D.2", "location": null}, "permalink": "https://www.instagram.com/p/BIgdFXwhL2A/"},
{"media": {"caption_is_edited": false, "code": "BIhSiLzhxyS", "date": 1469955857, "dimensions": {"width": 1080, "height": 1080}, "usertags": {"nodes": []}, "comments_disabled": false, "comments": {"count": 0, "page_info": {"has_previous_page": false, "start_cursor": null, "end_cursor": null, "has_next_page": false}, "nodes": []}, "id": "1306406880889216146", "caption": "\ud83d\ude4c\u270c\ud83d\ude0d", "likes": {"count": 1, "viewer_has_liked": false, "nodes": [{"user": {"username": "s.c127", "profile_pic_url": "https://scontent.cdninstagram.com/t51.2885-19/s150x150/13636072_728692663938359_883649508_a.jpg", "id": "274216181"}}]}, "owner": {"username": "gg21yd", "is_unpublished": false, "requested_by_viewer": false, "followed_by_viewer": false, "blocked_by_viewer": false, "profile_pic_url": "https://scontent.cdninstagram.com/t51.2885-19/10004379_687115798024340_823579241_a.jpg", "full_name": "Soohye", "has_blocked_viewer": false, "id": "262227316", "is_private": false}, "is_video": false, "is_ad": false, "display_src": "https://scontent.cdninstagram.com/t51.2885-15/e35/13740921_1077758575640327_1447920850_n.jpg?ig_cache_key=MTMwNjQwNjg4MDg4OTIxNjE0Ng%3D%3D.2", "location": null}, "permalink": "https://www.instagram.com/p/BIhSiLzhxyS/"},
{"media": {"caption_is_edited": false, "code": "BIiERYgBVIO", "date": 1469981934, "dimensions": {"width": 1080, "height": 1080}, "usertags": {"nodes": []}, "comments_disabled": false, "comments": {"count": 0, "page_info": {"has_previous_page": false, "start_cursor": null, "end_cursor": null, "has_next_page": false}, "nodes": []}, "id": "1306625628615037454", "caption": "Miss u so much, finally after two wks get to slp on my own bed again!\ud83d\ude0d\ud83d\ude0d so tired. Gd night all. And hapoy bd to fany! \ud83d\udc83\ud83d\ude18", "likes": {"count": 5, "viewer_has_liked": false, "nodes": [{"user": {"username": "s.c127", "profile_pic_url": "https://scontent.cdninstagram.com/t51.2885-19/s150x150/13636072_728692663938359_883649508_a.jpg", "id": "274216181"}}, {"user": {"username": "queenyso", "profile_pic_url": "https://scontent.cdninstagram.com/t51.2885-19/s150x150/13150857_1704252819836313_1910318522_a.jpg", "id": "1249169"}}, {"user": {"username": "tazslacker", "profile_pic_url": "https://scontent.cdninstagram.com/t51.2885-19/s150x150/13256696_895453347232835_522862842_a.jpg", "id": "25220269"}}, {"user": {"username": "timothy_yeo__god_is_my_life", "profile_pic_url": "https://scontent.cdninstagram.com/t51.2885-19/s150x150/13739607_304379209896491_1366965889_a.jpg", "id": "43116729"}}, {"user": {"username": "oppa_daidai", "profile_pic_url": "https://scontent.cdninstagram.com/t51.2885-19/s150x150/13525567_155656254851827_149891752_a.jpg", "id": "220510839"}}]}, "owner": {"username": "gg21yd", "is_unpublished": false, "requested_by_viewer": false, "followed_by_viewer": false, "blocked_by_viewer": false, "profile_pic_url": "https://scontent.cdninstagram.com/t51.2885-19/10004379_687115798024340_823579241_a.jpg", "full_name": "Soohye", "has_blocked_viewer": false, "id": "262227316", "is_private": false}, "is_video": false, "is_ad": false, "display_src": "https://scontent.cdninstagram.com/t51.2885-15/e35/13735993_620697438107928_1077963709_n.jpg?ig_cache_key=MTMwNjYyNTYyODYxNTAzNzQ1NA%3D%3D.2", "location": null}, "permalink": "https://www.instagram.com/p/BIiERYgBVIO/"},
{"media": {"caption_is_edited": true, "code": "BIiFUcsBMgs", "date": 1469982484, "dimensions": {"width": 1080, "height": 1080}, "usertags": {"nodes": [{"y": 0.78333336, "x": 0.38472223, "user": {"username": "xolovestephi"}}]}, "comments_disabled": false, "comments": {"count": 1, "page_info": {"has_previous_page": false, "start_cursor": null, "end_cursor": null, "has_next_page": false}, "nodes": [{"text": "#^_^ @zhuzhuzhu18", "created_at": 1470025699.0, "id": "17850006841084965", "user": {"username": "dd7___11", "profile_pic_url": "https://scontent.cdninstagram.com/t51.2885-19/1599933_1542670946052747_1912536730_a.jpg", "id": "2482364421"}}]}, "id": "1306630237316237356", "caption": "Happy birthday @xolovestephi ! May all your wishes come true! Stay happy and healthy always! And thanks for coming to singapore that day\ud83d\ude0d\ud83d\ude18 #happybirthday #birthdaygirl #tiffany #fany #eyesmile #801 #MYday", "likes": {"count": 8, "viewer_has_liked": false, "nodes": [{"user": {"username": "dd7___11", "profile_pic_url": "https://scontent.cdninstagram.com/t51.2885-19/1599933_1542670946052747_1912536730_a.jpg", "id": "2482364421"}}, {"user": {"username": "queenyso", "profile_pic_url": "https://scontent.cdninstagram.com/t51.2885-19/s150x150/13150857_1704252819836313_1910318522_a.jpg", "id": "1249169"}}, {"user": {"username": "timothy_yeo__god_is_my_life", "profile_pic_url": "https://scontent.cdninstagram.com/t51.2885-19/s150x150/13739607_304379209896491_1366965889_a.jpg", "id": "43116729"}}, {"user": {"username": "shaunlimsy", "profile_pic_url": "https://scontent.cdninstagram.com/t51.2885-19/s150x150/12132929_1502800696710448_1712866146_a.jpg", "id": "2190549711"}}, {"user": {"username": "moonwhatt", "profile_pic_url": "https://scontent.cdninstagram.com/t51.2885-19/s150x150/13696877_586508311528948_1482877600_a.jpg", "id": "1514303707"}}, {"user": {"username": "evamarr97", "profile_pic_url": "https://scontent.cdninstagram.com/t51.2885-19/s150x150/12568723_1398944853738449_1601779045_a.jpg", "id": "1145830765"}}, {"user": {"username": "thepi_kingsai", "profile_pic_url": "https://scontent.cdninstagram.com/t51.2885-19/s150x150/13551752_154578221612576_1858770797_a.jpg", "id": "1413488225"}}, {"user": {"username": "elloh_martinez_hp", "profile_pic_url": "https://scontent.cdninstagram.com/t51.2885-19/13745032_994920863959538_1742363122_a.jpg", "id": "1539953203"}}]}, "owner": {"username": "gg21yd", "is_unpublished": false, "requested_by_viewer": false, "followed_by_viewer": false, "blocked_by_viewer": false, "profile_pic_url": "https://scontent.cdninstagram.com/t51.2885-19/10004379_687115798024340_823579241_a.jpg", "full_name": "Soohye", "has_blocked_viewer": false, "id": "262227316", "is_private": false}, "is_video": false, "is_ad": false, "display_src": "https://scontent.cdninstagram.com/t51.2885-15/e35/13736952_658028657679111_1857645108_n.jpg?ig_cache_key=MTMwNjYzMDIzNzMxNjIzNzM1Ng%3D%3D.2", "location": null}, "permalink": "https://www.instagram.com/p/BIiFUcsBMgs/"}
]