[
{"media": {"caption_is_edited": false, "code": "BIT-b_WgIA6", "date": 1469509113, "dimensions": {"width": 1080, "height": 810}, "usertags": {"nodes": []}, "comments_disabled": false, "comments": {"count": 0, "page_info": {"has_previous_page": false, "start_cursor": null, "end_cursor": null, "has_next_page": false}, "nodes": []}, "id": "1302659319573020730", "caption": "Week 30 Day 2 Lunch", "likes": {"count": 0, "viewer_has_liked": false, "nodes": []}, "owner": {"username": "rachel_low0623", "is_unpublished": false, "requested_by_viewer": false, "followed_by_viewer": false, "blocked_by_viewer": false, "profile_pic_url": "https://scontent.cdninstagram.com/t51.2885-19/s150x150/12331389_1653329674933610_1352620729_a.jpg", "full_name": "Rachel", "has_blocked_viewer": false, "id": "411410334", "is_private": false}, "is_video": false, "is_ad": false, "display_src": "https://scontent.cdninstagram.com/t51.2885-15/e35/13704123_1213037642041407_810205817_n.jpg?ig_cache_key=MTMwMjY1OTMxOTU3MzAyMDczMA%3D%3D.2", "location": null}, "permalink": "https://www.instagram.com/p/BIT-b_WgIA6/"},
{"media": {"caption_is_edited": false, "code": "BG-ZmtBhT-T", "date": 1466637676, "dimensions": {"width": 1080, "height": 1080}, "usertags": {"nodes": []}, "comments_disabled": false, "comments": {"count": 0, "page_info": {"has_previous_page": false, "start_cursor": null, "end_cursor": null, "has_next_page": false}, "nodes": []}, "id": "1278571955066584979", "caption": "All I wish for my birthday this year \u2b50\ufe0f", "likes": {"count": 1, "viewer_has_liked": false, "nodes": [{"user": {"username": "emily_leongch", "profile_pic_url": "https://scontent.cdninstagram.com/t51.2885-19/s150x150/12393876_1743161862574130_1679583430_a.jpg", "id": "1592670"}}]}, "owner": {"username": "rachel_low0623", "is_unpublished": false, "requested_by_viewer": false, "followed_by_viewer": false, "blocked_by_viewer": false, "profile_pic_url": "https://scontent.cdninstagram.com/t51.2885-19/s150x150/12331389_1653329674933610_1352620729_a.jpg", "full_name": "Rachel", "has_blocked_viewer": false, "id": "411410334", "is_private": false}, "is_video": false, "is_ad": false, "display_src": "https://scontent.cdninstagram.com/t51.2885-15/e35/13423504_1637427359910148_858639753_n.jpg?ig_cache_key=MTI3ODU3MTk1NTA2NjU4NDk3OQ%3D%3D.2", "location": null}, "permalink": "https://www.instagram.com/p/BG-ZmtBhT-T/"},
{"media": {"caption_is_edited": false, "code": "BG_AivBBT_e", "date": 1466658090, "dimensions": {"width": 1080, "height": 1080}, "usertags": {"nodes": []}, "comments_disabled": false, "comments": {"count": 0, "page_info": {"has_previous_page": false, "start_cursor": null, "end_cursor": null, "has_next_page": false}, "nodes": []}, "id": "1278743206141706206", "caption": "Week 25 Day 4 Lunch", "likes": {"count": 0, "viewer_has_liked": false, "nodes": []}, "owner": {"username": "rachel_low0623", "is_unpublished": false, "requested_by_viewer": false, "followed_by_viewer": false, "blocked_by_viewer": false, "profile_pic_url": "https://scontent.cdninstagram.com/t51.2885-19/s150x150/12331389_1653329674933610_1352620729_a.jpg", "full_name": "Rachel", "has_blocked_viewer": false, "id": "411410334", "is_private": false}, "is_video": false, "is_ad": false, "display_src": "https://scontent.cdninstagram.com/t51.2885-15/e35/13531967_738611732909200_500040988_n.jpg?ig_cache_key=MTI3ODc0MzIwNjE0MTcwNjIwNg%3D%3D.2", "location": null}, "permalink": "https://www.instagram.com/p/BG_AivBBT_e/"},
{"media": {"caption_is_edited": false, "code": "BHCouhZAmGz", "date": 1466779822, "dimensions": {"width": 1080, "height": 1080}, "usertags": {"nodes": []}, "comments_disabled": false, "comments": {"count": 0, "page_info": {"has_previous_page": false, "start_cursor": null, "end_cursor": null, "has_next_page": false}, "nodes": []}, "id": "1279764362936082867", "caption": "Week 25 Day 5 Dinner", "likes": {"count": 0, "viewer_has_liked": false, "nodes": []}, "owner": {"username": "rachel_low0623", "is_unpublished": false, "requested_by_viewer": false, "followed_by_viewer": false, "blocked_by_viewer": false, "profile_pic_url": "https://scontent.cdninstagram.com/t51.2885-19/s150x150/12331389_1653329674933610_1352620729_a.jpg", "full_name": "Rachel", "has_blocked_viewer": false, "id": "411410334", "is_private": false}, "is_video": false, "is_ad": false, "display_src": "https://scontent.cdninstagram.com/t51.2885-15/e35/13473103_266148803745503_895030431_n.jpg?ig_cache_key=MTI3OTc2NDM2MjkzNjA4Mjg2Nw%3D%3D.2", "location": null}, "permalink": "https://www.instagram.com/p/BHCouhZAmGz/"},
{"media": {"caption_is_edited": false, "code": "BHf9yS2gOq6", "date": 1467763941, "dimensions": {"width": 1080, "height": 1080}, "usertags": {"nodes": []}, "comments_disabled": false, "comments": {"count": 0, "page_info": {"has_previous_page": false, "start_cursor": null, "end_cursor": null, "has_next_page": false}, "nodes": []}, "id": "1288019755504036538", "caption": "Week 27 Day 3 Lunch", "likes": {"count": 0, "viewer_has_liked": false, "nodes": []}, "owner": {"username": "rachel_low0623", "is_unpublished": false, "requested_by_viewer": false, "followed_by_viewer": false, "blocked_by_viewer": false, "profile_pic_url": "https://scontent.cdninstagram.com/t51.2885-19/s150x150/12331389_1653329674933610_1352620729_a.jpg", "full_name": "Rachel", "has_blocked_viewer": false, "id": "411410334", "is_private": false}, "is_video": false, "is_ad": false, "display_src": "https://scontent.cdninstagram.com/t51.2885-15/e35/13534477_1033649133397382_1064744836_n.jpg?ig_cache_key=MTI4ODAxOTc1NTUwNDAzNjUzOA%3D%3D.2", "location": null}, "permalink": "https://www.instagram.com/p/BHf9yS2gOq6/"},
{"media": {"caption_is_edited": false, "code": "BHf-L5YgcXc", "date": 1467764151, "dimensions": {"width": 1080, "height": 1080}, "usertags": {"nodes": []}, "comments_disabled": false, "comments": {"count": 0, "page_info": {"has_previous_page": false, "start_cursor": null, "end_cursor": null, "has_next_page": false}, "nodes": []}, "id": "1288021514863625692", "caption": "Week 27 Day 4 Lunch - finally got to eat this \ud83d\ude1b\ud83d\ude1b\ud83d\ude1b", "likes": {"count": 0, "viewer_has_liked": false, "nodes": []}, "owner": {"username": "rachel_low0623", "is_unpublished": false, "requested_by_viewer": false, "followed_by_viewer": false, "blocked_by_viewer": false, "profile_pic_url": "https://scontent.cdninstagram.com/t51.2885-19/s150x150/12331389_1653329674933610_1352620729_a.jpg", "full_name": "Rachel", "has_blocked_viewer": false, "id": "411410334", "is_private": false}, "is_video": false, "is_ad": false, "display_src": "https://scontent.cdninstagram.com/t51.2885-15/e35/13573484_205873093147288_718590909_n.jpg?ig_cache_key=MTI4ODAyMTUxNDg2MzYyNTY5Mg%3D%3D.2", "location": null}, "permalink": "https://www.instagram.com/p/BHf-L5YgcXc/"},
{"media": {"caption_is_edited": false, "code": "BHo1zvPg3RX", "date": 1468061749, "dimensions": {"width": 1080, "height": 1350}, "usertags": {"nodes": []}, "comments_disabled": false, "comments": {"count": 0, "page_info": {"has_previous_page": false, "start_cursor": null, "end_cursor": null, "has_next_page": false}, "nodes": []}, "id": "1290517945126188119", "caption": "Week 27 Day 6 Dinner: my favorite bee hoon slice fish soup", "likes": {"count": 0, "viewer_has_liked": false, "nodes": []}, "owner": {"username": "rachel_low0623", "is_unpublished": false, "requested_by_viewer": false, "followed_by_viewer": false, "blocked_by_viewer": false, "profile_pic_url": "https://scontent.cdninstagram.com/t51.2885-19/s150x150/12331389_1653329674933610_1352620729_a.jpg", "full_name": "Rachel", "has_blocked_viewer": false, "id": "411410334", "is_private": false}, "is_video": false, "is_ad": false, "display_src": "https://scontent.cdninstagram.com/t51.2885-15/e35/13643503_260341864344572_1512522140_n.jpg?ig_cache_key=MTI5MDUxNzk0NTEyNjE4ODExOQ%3D%3D.2", "location": null}, "permalink": "https://www.instagram.com/p/BHo1zvPg3RX/"},
{"media": {"caption_is_edited": false, "code": "BHqKqW5A7ZQ", "date": 1468106236, "dimensions": {"width": 1080, "height": 810}, "usertags": {"nodes": []}, "comments_disabled": false, "comments": {"count": 0, "page_info": {"has_previous_page": false, "start_cursor": null, "end_cursor": null, "has_next_page": false}, "nodes": []}, "id": "1290891134457067088", "caption": "Looking forward to my first Muay Thai class this afternoon", "likes": {"count": 1, "viewer_has_liked": false, "nodes": [{"user": {"username": "sngsoocheng", "profile_pic_url": "https://scontent.cdninstagram.com/t51.2885-19/s150x150/13129450_1057462037630634_1458909892_a.jpg", "id": "3182612193"}}]}, "owner": {"username": "rachel_low0623", "is_unpublished": false, "requested_by_viewer": false, "followed_by_viewer": false, "blocked_by_viewer": false, "profile_pic_url": "https://scontent.cdninstagram.com/t51.2885-19/s150x150/12331389_1653329674933610_1352620729_a.jpg", "full_name": "Rachel", "has_blocked_viewer": false, "id": "411410334", "is_private": false}, "is_video": false, "is_ad": false, "display_src": "https://scontent.cdninstagram.com/t51.2885-15/e35/13636271_1807377716148502_1294306348_n.jpg?ig_cache_key=MTI5MDg5MTEzNDQ1NzA2NzA4OA%3D%3D.2", "location": null}, "permalink": "https://www.instagram.com/p/BHqKqW5A7ZQ/"},
{"media": {"caption_is_edited": false, "code": "BHqN4KTAhIK", "date": 1468107922, "dimensions": {"width": 1080, "height": 1350}, "usertags": {"nodes": []}, "comments_disabled": false, "comments": {"count": 0, "page_info": {"has_previous_page": false, "start_cursor": null, "end_cursor": null, "has_next_page": false}, "nodes": []}, "id": "1290905277146731018", "caption": "Added my favourite Everbest sweater to complete my dress code for my Muay Thai class", "likes": {"count": 1, "viewer_has_liked": false, "nodes": [{"user": {"username": "sngsoocheng", "profile_pic_url": "https://scontent.cdninstagram.com/t51.2885-19/s150x150/13129450_1057462037630634_1458909892_a.jpg", "id": "3182612193"}}]}, "owner": {"username": "rachel_low0623", "is_unpublished": false, "requested_by_viewer": false, "followed_by_viewer": false, "blocked_by_viewer": false, "profile_pic_url": "https://scontent.cdninstagram.com/t51.2885-19/s150x150/12331389_1653329674933610_1352620729_a.jpg", "full_name": "Rachel", "has_blocked_viewer": false, "id": "411410334", "is_private": false}, "is_video": false, "is_ad": false, "display_src": "https://scontent.cdninstagram.com/t51.2885-15/e35/13658688_863945110376837_255270533_n.jpg?ig_cache_key=MTI5MDkwNTI3NzE0NjczMTAxOA%3D%3D.2", "location": null}, "permalink": "https://www.instagram.com/p/BHqN4KTAhIK/"},
{"media": {"caption_is_edited": false, "code": "BHrl7QegsOH", "date": 1468154085, "dimensions": {"width": 1080, "height": 810}, "usertags": {"nodes": []}, "comments_disabled": false, "comments": {"count": 0, "page_info": {"has_previous_page": false, "start_cursor": null, "end_cursor": null, "has_next_page": false}, "nodes": []}, "id": "1291292518033572743", "caption": "Week 27 Day 7 Dinner", "likes": {"count": 0, "viewer_has_liked": false, "nodes": []}, "owner": {"username": "rachel_low0623", "is_unpublished": false, "requested_by_viewer": false, "followed_by_viewer": false, "blocked_by_viewer": false, "profile_pic_url": "https://scontent.cdninstagram.com/t51.2885-19/s150x150/12331389_1653329674933610_1352620729_a.jpg", "full_name": "Rachel", "has_blocked_viewer": false, "id": "411410334", "is_private": false}, "is_video": false, "is_ad": false, "display_src": "https://scontent.cdninstagram.com/t51.2885-15/e35/13636171_1761784130725662_699026268_n.jpg?ig_cache_key=MTI5MTI5MjUxODAzMzU3Mjc0Mw%3D%3D.2", "location": null}, "permalink": "https://www.instagram.com/p/BHrl7QegsOH/"},
{"media": {"caption_is_edited": false, "code": "BHtWOTnA8Cn", "date": 1468212961, "dimensions": {"width": 1080, "height": 1350}, "usertags": {"nodes": []}, "comments_disabled": false, "comments": {"count": 0, "page_info": {"has_previous_page": false, "start_cursor": null, "end_cursor": null, "has_next_page": false}, "nodes": []}, "id": "1291786408276770983", "caption": "Week 28 Day 1 Lunch: full of mushrooms & pork", "likes": {"count": 0, "viewer_has_liked": false, "nodes": []}, "owner": {"username": "rachel_low0623", "is_unpublished": false, "requested_by_viewer": false, "followed_by_viewer": false, "blocked_by_viewer": false, "profile_pic_url": "https://scontent.cdninstagram.com/t51.2885-19/s150x150/12331389_1653329674933610_1352620729_a.jpg", "full_name": "Rachel", "has_blocked_viewer": false, "id": "411410334", "is_private": false}, "is_video": false, "is_ad": false, "display_src": "https://scontent.cdninstagram.com/t51.2885-15/e35/13652069_1762347950675150_1181474475_n.jpg?ig_cache_key=MTI5MTc4NjQwODI3Njc3MDk4Mw%3D%3D.2", "location": null}, "permalink": "https://www.instagram.com/p/BHtWOTnA8Cn/"},
{"media": {"caption_is_edited": false, "code": "BHuD69LAWsh", "date": 1468236920, "dimensions": {"width": 1080, "height": 810}, "usertags": {"nodes": []}, "comments_disabled": false, "comments": {"count": 0, "page_info": {"has_previous_page": false, "start_cursor": null, "end_cursor": null, "has_next_page": false}, "nodes": []}, "id": "1291987388653988641", "caption": "Week 27 Day 1 Dinner : the most beautiful and tasty sambal kang kong", "likes": {"count": 0, "viewer_has_liked": false, "nodes": []}, "owner": {"username": "rachel_low0623", "is_unpublished": false, "requested_by_viewer": false, "followed_by_viewer": false, "blocked_by_viewer": false, "profile_pic_url": "https://scontent.cdninstagram.com/t51.2885-19/s150x150/12331389_1653329674933610_1352620729_a.jpg", "full_name": "Rachel", "has_blocked_viewer": false, "id": "411410334", "is_private": false}, "is_video": false, "is_ad": false, "display_src": "https://scontent.cdninstagram.com/t51.2885-15/e35/13652200_556014331243814_1657099319_n.jpg?ig_cache_key=MTI5MTk4NzM4ODY1Mzk4ODY0MQ%3D%3D.2", "location": null}, "permalink": "https://www.instagram.com/p/BHuD69LAWsh/"},
{"media": {"caption_is_edited": false, "code": "BHv7V8-Am0F", "date": 1468299531, "dimensions": {"width": 1080, "height": 1350}, "usertags": {"nodes": []}, "comments_disabled": false, "comments": {"count": 0, "page_info": {"has_previous_page": false, "start_cursor": null, "end_cursor": null, "has_next_page": false}, "nodes": []}, "id": "1292512611396644101", "caption": "Week 27 Day 2 Lunch", "likes": {"count": 0, "viewer_has_liked": false, "nodes": []}, "owner": {"username": "rachel_low0623", "is_unpublished": false, "requested_by_viewer": false, "followed_by_viewer": false, "blocked_by_viewer": false, "profile_pic_url": "https://scontent.cdninstagram.com/t51.2885-19/s150x150/12331389_1653329674933610_1352620729_a.jpg", "full_name": "Rachel", "has_blocked_viewer": false, "id": "411410334", "is_private": false}, "is_video": false, "is_ad": false, "display_src": "https://scontent.cdninstagram.com/t51.2885-15/e35/13636243_151679261921717_787660721_n.jpg?ig_cache_key=MTI5MjUxMjYxMTM5NjY0NDEwMQ%3D%3D.2", "location": null}, "permalink": "https://www.instagram.com/p/BHv7V8-Am0F/"},
{"media": {"caption_is_edited": false, "code": "BHw5aizg4LY", "date": 1468332075, "dimensions": {"width": 1080, "height": 810}, "usertags": {"nodes": []}, "comments_disabled": false, "comments": {"count": 0, "page_info": {"has_previous_page": false, "start_cursor": null, "end_cursor": null, "has_next_page": false}, "nodes": []}, "id": "1292785605784339160", "caption": "Week 28 Day 6 Dinner : Fried noodles with boiled bean spourts", "likes": {"count": 0, "viewer_has_liked": false, "nodes": []}, "owner": {"username": "rachel_low0623", "is_unpublished": false, "requested_by_viewer": false, "followed_by_viewer": false, "blocked_by_viewer": false, "profile_pic_url": "https://scontent.cdninstagram.com/t51.2885-19/s150x150/12331389_1653329674933610_1352620729_a.jpg", "full_name": "Rachel", "has_blocked_viewer": false, "id": "411410334", "is_private": false}, "is_video": false, "is_ad": false, "display_src": "https://scontent.cdninstagram.com/t51.2885-15/e35/13651786_653339104822937_751886420_n.jpg?ig_cache_key=MTI5Mjc4NTYwNTc4NDMzOTE2MA%3D%3D.2", "location": null}, "permalink": "https://www.instagram.com/p/BHw5aizg4LY/"},
{"media": {"caption_is_edited": false, "code": "BHx_4TdAj-Z", "date": 1468369019, "dimensions": {"width": 1080, "height": 810}, "usertags": {"nodes": []}, "comments_disabled": false, "comments": {"count": 0, "page_info": {"has_previous_page": false, "start_cursor": null, "end_cursor": null, "has_next_page": false}, "nodes": []}, "id": "1293095514140721049", "caption": "Week 28 Day 3 Breakfast: purple sweet potatoes", "likes": {"count": 0, "viewer_has_liked": false, "nodes": []}, "owner": {"username": "rachel_low0623", "is_unpublished": false, "requested_by_viewer": false, "followed_by_viewer": false, "blocked_by_viewer": false, "profile_pic_url": "https://scontent.cdninstagram.com/t51.2885-19/s150x150/12331389_1653329674933610_1352620729_a.jpg", "full_name": "Rachel", "has_blocked_viewer": false, "id": "411410334", "is_private": false}, "is_video": false, "is_ad": false, "display_src": "https://scontent.cdninstagram.com/t51.2885-15/e35/13651823_1799016563650498_1426191194_n.jpg?ig_cache_key=MTI5MzA5NTUxNDE0MDcyMTA0OQ%3D%3D.2", "location": null}, "permalink": "https://www.instagram.com/p/BHx_4TdAj-Z/"},
{"media": {"caption_is_edited": false, "code": "BHyhzOgglcm", "date": 1468386803, "dimensions": {"width": 1080, "height": 810}, "usertags": {"nodes": []}, "comments_disabled": false, "comments": {"count": 0, "page_info": {"has_previous_page": false, "start_cursor": null, "end_cursor": null, "has_next_page": false}, "nodes": []}, "id": "1293244698814732070", "caption": "Week 28 Day 3 Lunch : just love the grilled fish", "likes": {"count": 0, "viewer_has_liked": false, "nodes": []}, "owner": {"username": "rachel_low0623", "is_unpublished": false, "requested_by_viewer": false, "followed_by_viewer": false, "blocked_by_viewer": false, "profile_pic_url": "https://scontent.cdninstagram.com/t51.2885-19/s150x150/12331389_1653329674933610_1352620729_a.jpg", "full_name": "Rachel", "has_blocked_viewer": false, "id": "411410334", "is_private": false}, "is_video": false, "is_ad": false, "display_src": "https://scontent.cdninstagram.com/t51.2885-15/e35/13694352_1052983024780689_1160442094_n.jpg?ig_cache_key=MTI5MzI0NDY5ODgxNDczMjA3MA%3D%3D.2", "location": null}, "permalink": "https://www.instagram.com/p/BHyhzOgglcm/"},
{"media": {"caption_is_edited": false, "code": "BHzSdsXAe_S", "date": 1468412317, "dimensions": {"width": 1080, "height": 810}, "usertags": {"nodes": []}, "comments_disabled": false, "comments": {"count": 0, "page_info": {"has_previous_page": false, "start_cursor": null, "end_cursor": null, "has_next_page": false}, "nodes": []}, "id": "1293458723318132690", "caption": "Week 28 Day 3 Dinner: Adding Pasta, Celery to my diet", "likes": {"count": 0, "viewer_has_liked": false, "nodes": []}, "owner": {"username": "rachel_low0623", "is_unpublished": false, "requested_by_viewer": false, "followed_by_viewer": false, "blocked_by_viewer": false, "profile_pic_url": "https://scontent.cdninstagram.com/t51.2885-19/s150x150/12331389_1653329674933610_1352620729_a.jpg", "full_name": "Rachel", "has_blocked_viewer": false, "id": "411410334", "is_private": false}, "is_video": false, "is_ad": false, "display_src": "https://scontent.cdninstagram.com/t51.2885-15/e35/13712534_994173670697098_1563314539_n.jpg?ig_cache_key=MTI5MzQ1ODcyMzMxODEzMjY5MA%3D%3D.2", "location": null}, "permalink": "https://www.instagram.com/p/BHzSdsXAe_S/"},
{"media": {"caption_is_edited": false, "code": "BH0foIUAj3D", "date": 1468452772, "dimensions": {"width": 1080, "height": 1080}, "usertags": {"nodes": []}, "comments_disabled": false, "comments": {"count": 0, "page_info": {"has_previous_page": false, "start_cursor": null, "end_cursor": null, "has_next_page": false}, "nodes": []}, "id": "1293798090108714435", "caption": "Karata the giant \ud83c\udf60", "likes": {"count": 0, "viewer_has_liked": false, "nodes": []}, "owner": {"username": "rachel_low0623", "is_unpublished": false, "requested_by_viewer": false, "followed_by_viewer": false, "blocked_by_viewer": false, "profile_pic_url": "https://scontent.cdninstagram.com/t51.2885-19/s150x150/12331389_1653329674933610_1352620729_a.jpg", "full_name": "Rachel", "has_blocked_viewer": false, "id": "411410334", "is_private": false}, "is_video": false, "is_ad": false, "display_src": "https://scontent.cdninstagram.com/t51.2885-15/e35/13712705_511112185743946_1788135704_n.jpg?ig_cache_key=MTI5Mzc5ODA5MDEwODcxNDQzNQ%3D%3D.2", "location": null}, "permalink": "https://www.instagram.com/p/BH0foIUAj3D/"},
{"media": {"caption_is_edited": false, "code": "BH1GjQXgjt-", "date": 1468473180, "dimensions": {"width": 750, "height": 937}, "usertags": {"nodes": []}, "comments_disabled": false, "comments": {"count": 0, "page_info": {"has_previous_page": false, "start_cursor": null, "end_cursor": null, "has_next_page": false}, "nodes": []}, "id": "1293969278973918078", "caption": "Week 28 Day 3 Lunch", "likes": {"count": 0, "viewer_has_liked": false, "nodes": []}, "owner": {"username": "rachel_low0623", "is_unpublished": false, "requested_by_viewer": false, "followed_by_viewer": false, "blocked_by_viewer": false, "profile_pic_url": "https://scontent.cdninstagram.com/t51.2885-19/s150x150/12331389_1653329674933610_1352620729_a.jpg", "full_name": "Rachel", "has_blocked_viewer": false, "id": "411410334", "is_private": false}, "is_video": false, "is_ad": false, "display_src": "https://scontent.cdninstagram.com/t51.2885-15/sh0.08/e35/p750x750/13731091_252406018474550_671070098_n.jpg?ig_cache_key=MTI5Mzk2OTI3ODk3MzkxODA3OA%3D%3D.2", "location": null}, "permalink": "https://www.instagram.com/p/BH1GjQXgjt-/"},
{"media": {"caption_is_edited": false, "code": "BH1ytLng9AR", "date": 1468496330, "dimensions": {"width": 1080, "height": 1080}, "usertags": {"nodes": []}, "comments_disabled": false, "comments": {"count": 0, "page_info": {"has_previous_page": false, "start_cursor": null, "end_cursor": null, "has_next_page": false}, "nodes": []}, "id": "1294163475115003921", "caption": "Week 28 Day 4 Dinner : chicken soup mee sua with sambal kang kong & cute meatball", "likes": {"count": 1, "viewer_has_liked": false, "nodes": [{"user": {"username": "sammyblackfitness", "profile_pic_url": "https://scontent.cdninstagram.com/t51.2885-19/11296865_871936096229960_1856031568_a.jpg", "id": "496399362"}}]}, "owner": {"username": "rachel_low0623", "is_unpublished": false, "requested_by_viewer": false, "followed_by_viewer": false, "blocked_by_viewer": false, "profile_pic_url": "https://scontent.cdninstagram.com/t51.2885-19/s150x150/12331389_1653329674933610_1352620729_a.jpg", "full_name": "Rachel", "has_blocked_viewer": false, "id": "411410334", "is_private": false}, "is_video": false, "is_ad": false, "display_src": "https://scontent.cdninstagram.com/t51.2885-15/e35/13671930_572623042910015_1241533602_n.jpg?ig_cache_key=MTI5NDE2MzQ3NTExNTAwMzkyMQ%3D%3D.2", "location": null}, "permalink": "https://www.instagram.com/p/BH1ytLng9AR/"},
{"media": {"caption_is_edited": false, "code": "BH843kKgbzf", "date": 1468734441, "dimensions": {"width": 1080, "height": 810}, "usertags": {"nodes": []}, "comments_disabled": false, "comments": {"count": 0, "page_info": {"has_previous_page": false, "start_cursor": null, "end_cursor": null, "has_next_page": false}, "nodes": []}, "id": "1296160901782682847", "caption": "Week 28 Day 7 Lunch. Grilled Dory Fish from kopitam Northpoint for $3.80", "likes": {"count": 1, "viewer_has_liked": false, "nodes": [{"user": {"username": "sammyblackfitness", "profile_pic_url": "https://scontent.cdninstagram.com/t51.2885-19/11296865_871936096229960_1856031568_a.jpg", "id": "496399362"}}]}, "owner": {"username": "rachel_low0623", "is_unpublished": false, "requested_by_viewer": false, "followed_by_viewer": false, "blocked_by_viewer": false, "profile_pic_url": "https://scontent.cdninstagram.com/t51.2885-19/s150x150/12331389_1653329674933610_1352620729_a.jpg", "full_name": "Rachel", "has_blocked_viewer": false, "id": "411410334", "is_private": false}, "is_video": false, "is_ad": false, "display_src": "https://scontent.cdninstagram.com/t51.2885-15/e35/13774209_822786967836519_1281683654_n.jpg?ig_cache_key=MTI5NjE2MDkwMTc4MjY4Mjg0Nw%3D%3D.2", "location": null}, "permalink": "https://www.instagram.com/p/BH843kKgbzf/"},
{"media": {"caption_is_edited": false, "code": "BH9kJuNAMnT", "date": 1468757135, "dimensions": {"width": 1080, "height": 1350}, "usertags": {"nodes": []}, "comments_disabled": false, "comments": {"count": 0, "page_info": {"has_previous_page": false, "start_cursor": null, "end_cursor": null, "has_next_page": false}, "nodes": []}, "id": "1296351265512540627", "caption": "Hope I can keep the lead", "likes": {"count": 0, "viewer_has_liked": false, "nodes": []}, "owner": {"username": "rachel_low0623", "is_unpublished": false, "requested_by_viewer": false, "followed_by_viewer": false, "blocked_by_viewer": false, "profile_pic_url": "https://scontent.cdninstagram.com/t51.2885-19/s150x150/12331389_1653329674933610_1352620729_a.jpg", "full_name": "Rachel", "has_blocked_viewer": false, "id": "411410334", "is_private": false}, "is_video": false, "is_ad": false, "display_src": "https://scontent.cdninstagram.com/t51.2885-15/e35/13712546_1744219542511816_1540313855_n.jpg?ig_cache_key=MTI5NjM1MTI2NTUxMjU0MDYyNw%3D%3D.2", "location": null}, "permalink": "https://www.instagram.com/p/BH9kJuNAMnT/"},
{"media": {"caption_is_edited": false, "code": "BH9lRvwABIi", "date": 1468757725, "dimensions": {"width": 1080, "height": 1350}, "usertags": {"nodes": []}, "comments_disabled": false, "comments": {"count": 1, "page_info": {"has_previous_page": false, "start_cursor": null, "end_cursor": null, "has_next_page": false}, "nodes": [{"text": "#3MStepUp2016", "created_at": 1469284841.0, "id": "17859844135010517", "user": {"username": "rachel_low0623", "profile_pic_url": "https://scontent.cdninstagram.com/t51.2885-19/s150x150/12331389_1653329674933610_1352620729_a.jpg", "id": "411410334"}}]}, "id": "1296356214975762978", "caption": "#3m50", "likes": {"count": 0, "viewer_has_liked": false, "nodes": []}, "owner": {"username": "rachel_low0623", "is_unpublished": false, "requested_by_viewer": false, "followed_by_viewer": false, "blocked_by_viewer": false, "profile_pic_url": "https://scontent.cdninstagram.com/t51.2885-19/s150x150/12331389_1653329674933610_1352620729_a.jpg", "full_name": "Rachel", "has_blocked_viewer": false, "id": "411410334", "is_private": false}, "is_video": false, "is_ad": false, "display_src": "https://scontent.cdninstagram.com/t51.2885-15/e35/13702928_1749640865323943_363605426_n.jpg?ig_cache_key=MTI5NjM1NjIxNDk3NTc2Mjk3OA%3D%3D.2", "location": null}, "permalink": "https://www.instagram.com/p/BH9lRvwABIi/"},
{"media": {"caption_is_edited": false, "code": "BH_YKZrgUgC", "date": 1468817958, "dimensions": {"width": 1080, "height": 1350}, "usertags": {"nodes": []}, "comments_disabled": false, "comments": {"count": 0, "page_info": {"has_previous_page": false, "start_cursor": null, "end_cursor": null, "has_next_page": false}, "nodes": []}, "id": "1296861485590464514", "caption": "Week 29 Day 1 Lunch", "likes": {"count": 0, "viewer_has_liked": false, "nodes": []}, "owner": {"username": "rachel_low0623", "is_unpublished": false, "requested_by_viewer": false, "followed_by_viewer": false, "blocked_by_viewer": false, "profile_pic_url": "https://scontent.cdninstagram.com/t51.2885-19/s150x150/12331389_1653329674933610_1352620729_a.jpg", "full_name": "Rachel", "has_blocked_viewer": false, "id": "411410334", "is_private": false}, "is_video": false, "is_ad": false, "display_src": "https://scontent.cdninstagram.com/t51.2885-15/e35/13739624_1650008081986019_1618838791_n.jpg?ig_cache_key=MTI5Njg2MTQ4NTU5MDQ2NDUxNA%3D%3D.2", "location": null}, "permalink": "https://www.instagram.com/p/BH_YKZrgUgC/"},
{"media": {"caption_is_edited": false, "code": "BIAEVKlgfHI", "date": 1468841114, "dimensions": {"width": 1080, "height": 1350}, "usertags": {"nodes": []}, "comments_disabled": false, "comments": {"count": 0, "page_info": {"has_previous_page": false, "start_cursor": null, "end_cursor": null, "has_next_page": false}, "nodes": []}, "id": "1297055739344449992", "caption": "Managed to snap shot the jet", "likes": {"count": 0, "viewer_has_liked": false, "nodes": []}, "owner": {"username": "rachel_low0623", "is_unpublished": false, "requested_by_viewer": false, "followed_by_viewer": false, "blocked_by_viewer": false, "profile_pic_url": "https://scontent.cdninstagram.com/t51.2885-19/s150x150/12331389_1653329674933610_1352620729_a.jpg", "full_name": "Rachel", "has_blocked_viewer": false, "id": "411410334", "is_private": false}, "is_video": false, "is_ad": false, "display_src": "https://scontent.cdninstagram.com/t51.2885-15/e35/13721228_1759427197628998_1938114722_n.jpg?ig_cache_key=MTI5NzA1NTczOTM0NDQ0OTk5Mg%3D%3D.2", "location": null}, "permalink": "https://www.instagram.com/p/BIAEVKlgfHI/"},
{"media": {"caption_is_edited": false, "code": "BIAEd57AqQX", "date": 1468841186, "dimensions": {"width": 1080, "height": 810}, "usertags": {"nodes": []}, "comments_disabled": false, "comments": {"count": 0, "page_info": {"has_previous_page": false, "start_cursor": null, "end_cursor": null, "has_next_page": false}, "nodes": []}, "id": "1297056339926885399", "caption": "Week 29 Day 1 Dinner: All the controlled eating for the whole day because of this", "likes": {"count": 0, "viewer_has_liked": false, "nodes": []}, "owner": {"username": "rachel_low0623", "is_unpublished": false, "requested_by_viewer": false, "followed_by_viewer": false, "blocked_by_viewer": false, "profile_pic_url": "https://scontent.cdninstagram.com/t51.2885-19/s150x150/12331389_1653329674933610_1352620729_a.jpg", "full_name": "Rachel", "has_blocked_viewer": false, "id": "411410334", "is_private": false}, "is_video": false, "is_ad": false, "display_src": "https://scontent.cdninstagram.com/t51.2885-15/e35/13734281_1080091655409639_1492709650_n.jpg?ig_cache_key=MTI5NzA1NjMzOTkyNjg4NTM5OQ%3D%3D.2", "location": null}, "permalink": "https://www.instagram.com/p/BIAEd57AqQX/"},
{"media": {"caption_is_edited": false, "code": "BIB-cRxAknn", "date": 1468905136, "dimensions": {"width": 1080, "height": 810}, "usertags": {"nodes": []}, "comments_disabled": false, "comments": {"count": 0, "page_info": {"has_previous_page": false, "start_cursor": null, "end_cursor": null, "has_next_page": false}, "nodes": []}, "id": "1297592789764295143", "caption": "Week 29 Day 2 Lunch: So much noodles that it overflowed", "likes": {"count": 0, "viewer_has_liked": false, "nodes": []}, "owner": {"username": "rachel_low0623", "is_unpublished": false, "requested_by_viewer": false, "followed_by_viewer": false, "blocked_by_viewer": false, "profile_pic_url": "https://scontent.cdninstagram.com/t51.2885-19/s150x150/12331389_1653329674933610_1352620729_a.jpg", "full_name": "Rachel", "has_blocked_viewer": false, "id": "411410334", "is_private": false}, "is_video": false, "is_ad": false, "display_src": "https://scontent.cdninstagram.com/t51.2885-15/e35/13704076_305630819776260_529703402_n.jpg?ig_cache_key=MTI5NzU5Mjc4OTc2NDI5NTE0Mw%3D%3D.2", "location": null}, "permalink": "https://www.instagram.com/p/BIB-cRxAknn/"},
{"media": {"caption_is_edited": false, "code": "BID9tORgtk8", "date": 1468971859, "dimensions": {"width": 1080, "height": 810}, "usertags": {"nodes": []}, "comments_disabled": false, "comments": {"count": 0, "page_info": {"has_previous_page": false, "start_cursor": null, "end_cursor": null, "has_next_page": false}, "nodes": []}, "id": "1298152506152638780", "caption": "Week 29 Day 2 Lunch; Big red bean bun", "likes": {"count": 0, "viewer_has_liked": false, "nodes": []}, "owner": {"username": "rachel_low0623", "is_unpublished": false, "requested_by_viewer": false, "followed_by_viewer": false, "blocked_by_viewer": false, "profile_pic_url": "https://scontent.cdninstagram.com/t51.2885-19/s150x150/12331389_1653329674933610_1352620729_a.jpg", "full_name": "Rachel", "has_blocked_viewer": false, "id": "411410334", "is_private": false}, "is_video": false, "is_ad": false, "display_src": "https://scontent.cdninstagram.com/t51.2885-15/e35/13696798_1868308333396818_1326871879_n.jpg?ig_cache_key=MTI5ODE1MjUwNjE1MjYzODc4MA%3D%3D.2", "location": null}, "permalink": "https://www.instagram.com/p/BID9tORgtk8/"},
{"media": {"caption_is_edited": false, "code": "BIEhktQApsm", "date": 1468990664, "dimensions": {"width": 1080, "height": 810}, "usertags": {"nodes": []}, "comments_disabled": false, "comments": {"count": 0, "page_info": {"has_previous_page": false, "start_cursor": null, "end_cursor": null, "has_next_page": false}, "nodes": []}, "id": "1298310250612562726", "caption": "Week 29 Day 3 Lunch : looks healthy but no so because of the mini hotdogs", "likes": {"count": 0, "viewer_has_liked": false, "nodes": []}, "owner": {"username": "rachel_low0623", "is_unpublished": false, "requested_by_viewer": false, "followed_by_viewer": false, "blocked_by_viewer": false, "profile_pic_url": "https://scontent.cdninstagram.com/t51.2885-19/s150x150/12331389_1653329674933610_1352620729_a.jpg", "full_name": "Rachel", "has_blocked_viewer": false, "id": "411410334", "is_private": false}, "is_video": false, "is_ad": false, "display_src": "https://scontent.cdninstagram.com/t51.2885-15/e35/13721118_1328478520498993_530869374_n.jpg?ig_cache_key=MTI5ODMxMDI1MDYxMjU2MjcyNg%3D%3D.2", "location": null}, "permalink": "https://www.instagram.com/p/BIEhktQApsm/"},
{"media": {"caption_is_edited": false, "code": "BIKYclqABlW", "date": 1469187205, "dimensions": {"width": 1080, "height": 1080}, "usertags": {"nodes": []}, "comments_disabled": false, "comments": {"count": 0, "page_info": {"has_previous_page": false, "start_cursor": null, "end_cursor": null, "has_next_page": false}, "nodes": []}, "id": "1299958960144521558", "caption": "Gearing up for Ang Ku Kueh preparation", "likes": {"count": 1, "viewer_has_liked": false, "nodes": [{"user": {"username": "sngsoocheng", "profile_pic_url": "https://scontent.cdninstagram.com/t51.2885-19/s150x150/13129450_1057462037630634_1458909892_a.jpg", "id": "3182612193"}}]}, "owner": {"username": "rachel_low0623", "is_unpublished": false, "requested_by_viewer": false, "followed_by_viewer": false, "blocked_by_viewer": false, "profile_pic_url": "https://scontent.cdninstagram.com/t51.2885-19/s150x150/12331389_1653329674933610_1352620729_a.jpg", "full_name": "Rachel", "has_blocked_viewer": false, "id": "411410334", "is_private": false}, "is_video": false, "is_ad": false, "display_src": "https://scontent.cdninstagram.com/t51.2885-15/e35/13745215_633901106762199_164020749_n.jpg?ig_cache_key=MTI5OTk1ODk2MDE0NDUyMTU1OA%3D%3D.2", "location": null}, "permalink": "https://www.instagram.com/p/BIKYclqABlW/"},
{"media": {"caption_is_edited": false, "code": "BINTcIpAzaJ", "date": 1469285243, "dimensions": {"width": 1080, "height": 1080}, "usertags": {"nodes": []}, "comments_disabled": false, "comments": {"count": 0, "page_info": {"has_previous_page": false, "start_cursor": null, "end_cursor": null, "has_next_page": false}, "nodes": []}, "id": "1300781363687011977", "caption": "#3mstepup2016", "likes": {"count": 0, "viewer_has_liked": false, "nodes": []}, "owner": {"username": "rachel_low0623", "is_unpublished": false, "requested_by_viewer": false, "followed_by_viewer": false, "blocked_by_viewer": false, "profile_pic_url": "https://scontent.cdninstagram.com/t51.2885-19/s150x150/12331389_1653329674933610_1352620729_a.jpg", "full_name": "Rachel", "has_blocked_viewer": false, "id": "411410334", "is_private": false}, "is_video": false, "is_ad": false, "display_src": "https://scontent.cdninstagram.com/t51.2885-15/e35/13642866_522293857955451_187752623_n.jpg?ig_cache_key=MTMwMDc4MTM2MzY4NzAxMTk3Nw%3D%3D.2", "location": null}, "permalink": "https://www.instagram.com/p/BINTcIpAzaJ/"},
{"media": {"caption_is_edited": false, "code": "BIORrbeAVPM", "date": 1469317875, "dimensions": {"width": 1080, "height": 810}, "usertags": {"nodes": []}, "comments_disabled": false, "comments": {"count": 0, "page_info": {"has_previous_page": false, "start_cursor": null, "end_cursor": null, "has_next_page": false}, "nodes": []}, "id": "1301055093579273164", "caption": "Week 29 Day 7 Breakfast: Steamed Yam in its most original taste (without sugar)", "likes": {"count": 1, "viewer_has_liked": false, "nodes": [{"user": {"username": "sngsoocheng", "profile_pic_url": "https://scontent.cdninstagram.com/t51.2885-19/s150x150/13129450_1057462037630634_1458909892_a.jpg", "id": "3182612193"}}]}, "owner": {"username": "rachel_low0623", "is_unpublished": false, "requested_by_viewer": false, "followed_by_viewer": false, "blocked_by_viewer": false, "profile_pic_url": "https://scontent.cdninstagram.com/t51.2885-19/s150x150/12331389_1653329674933610_1352620729_a.jpg", "full_name": "Rachel", "has_blocked_viewer": false, "id": "411410334", "is_private": false}, "is_video": false, "is_ad": false, "display_src": "https://scontent.cdninstagram.com/t51.2885-15/e35/13712121_275208326177140_1627188446_n.jpg?ig_cache_key=MTMwMTA1NTA5MzU3OTI3MzE2NA%3D%3D.2", "location": null}, "permalink": "https://www.instagram.com/p/BIORrbeAVPM/"},
{"media": {"caption_is_edited": false, "code": "BIPAD_zAYPc", "date": 1469342193, "dimensions": {"width": 1080, "height": 810}, "usertags": {"nodes": []}, "comments_disabled": false, "comments": {"count": 0, "page_info": {"has_previous_page": false, "start_cursor": null, "end_cursor": null, "has_next_page": false}, "nodes": []}, "id": "1301259091993265116", "caption": "Bitter gourd season", "likes": {"count": 1, "viewer_has_liked": false, "nodes": [{"user": {"username": "emily_leongch", "profile_pic_url": "https://scontent.cdninstagram.com/t51.2885-19/s150x150/12393876_1743161862574130_1679583430_a.jpg", "id": "1592670"}}]}, "owner": {"username": "rachel_low0623", "is_unpublished": false, "requested_by_viewer": false, "followed_by_viewer": false, "blocked_by_viewer": false, "profile_pic_url": "https://scontent.cdninstagram.com/t51.2885-19/s150x150/12331389_1653329674933610_1352620729_a.jpg", "full_name": "Rachel", "has_blocked_viewer": false, "id": "411410334", "is_private": false}, "is_video": false, "is_ad": false, "display_src": "https://scontent.cdninstagram.com/t51.2885-15/e35/13696530_256079401443251_784679089_n.jpg?ig_cache_key=MTMwMTI1OTA5MTk5MzI2NTExNg%3D%3D.2", "location": null}, "permalink": "https://www.instagram.com/p/BIPAD_zAYPc/"},
{"media": {"caption_is_edited": false, "code": "BIPZwn6gH59", "date": 1469355666, "dimensions": {"width": 1080, "height": 810}, "usertags": {"nodes": []}, "comments_disabled": false, "comments": {"count": 0, "page_info": {"has_previous_page": false, "start_cursor": null, "end_cursor": null, "has_next_page": false}, "nodes": []}, "id": "1301372109888454269", "caption": "Week 29 Day 7 Dinner", "likes": {"count": 0, "viewer_has_liked": false, "nodes": []}, "owner": {"username": "rachel_low0623", "is_unpublished": false, "requested_by_viewer": false, "followed_by_viewer": false, "blocked_by_viewer": false, "profile_pic_url": "https://scontent.cdninstagram.com/t51.2885-19/s150x150/12331389_1653329674933610_1352620729_a.jpg", "full_name": "Rachel", "has_blocked_viewer": false, "id": "411410334", "is_private": false}, "is_video": false, "is_ad": false, "display_src": "https://scontent.cdninstagram.com/t51.2885-15/e35/13741497_1223813647652607_1857555931_n.jpg?ig_cache_key=MTMwMTM3MjEwOTg4ODQ1NDI2OQ%3D%3D.2", "location": null}, "permalink": "https://www.instagram.com/p/BIPZwn6gH59/"},
{"media": {"caption_is_edited": false, "code": "BIQ6LhOgafF", "date": 1469406218, "dimensions": {"width": 640, "height": 800}, "usertags": {"nodes": []}, "comments_disabled": false, "comments": {"count": 0, "page_info": {"has_previous_page": false, "start_cursor": null, "end_cursor": null, "has_next_page": false}, "nodes": []}, "id": "1301796170598819781", "caption": "Week 29 vs 28: weekly calories intake cut down 867 calories despite 5 nights of curry and 2 dine in @Swensons", "likes": {"count": 1, "viewer_has_liked": false, "nodes": [{"user": {"username": "sngsoocheng", "profile_pic_url": "https://scontent.cdninstagram.com/t51.2885-19/s150x150/13129450_1057462037630634_1458909892_a.jpg", "id": "3182612193"}}]}, "owner": {"username": "rachel_low0623", "is_unpublished": false, "requested_by_viewer": false, "followed_by_viewer": false, "blocked_by_viewer": false, "profile_pic_url": "https://scontent.cdninstagram.com/t51.2885-19/s150x150/12331389_1653329674933610_1352620729_a.jpg", "full_name": "Rachel", "has_blocked_viewer": false, "id": "411410334", "is_private": false}, "is_video": false, "is_ad": false, "display_src": "https://scontent.cdninstagram.com/t51.2885-15/sh0.08/e35/p640x640/13628190_559020877618406_1824564814_n.jpg?ig_cache_key=MTMwMTc5NjE3MDU5ODgxOTc4MQ%3D%3D.2", "location": null}, "permalink": "https://www.instagram.com/p/BIQ6LhOgafF/"},
{"media": {"caption_is_edited": false, "code": "BIQ6eDUAROV", "date": 1469406370, "dimensions": {"width": 1080, "height": 810}, "usertags": {"nodes": []}, "comments_disabled": false, "comments": {"count": 0, "page_info": {"has_previous_page": false, "start_cursor": null, "end_cursor": null, "has_next_page": false}, "nodes": []}, "id": "1301797444148859797", "caption": "Week 30 Day 1 Breakfast: Homemade Yam paste with pumpkin, healthy but bland taste becoz without coconut oil", "likes": {"count": 0, "viewer_has_liked": false, "nodes": []}, "owner": {"username": "rachel_low0623", "is_unpublished": false, "requested_by_viewer": false, "followed_by_viewer": false, "blocked_by_viewer": false, "profile_pic_url": "https://scontent.cdninstagram.com/t51.2885-19/s150x150/12331389_1653329674933610_1352620729_a.jpg", "full_name": "Rachel", "has_blocked_viewer": false, "id": "411410334", "is_private": false}, "is_video": false, "is_ad": false, "display_src": "https://scontent.cdninstagram.com/t51.2885-15/e35/13743458_275961089431581_1176522522_n.jpg?ig_cache_key=MTMwMTc5NzQ0NDE0ODg1OTc5Nw%3D%3D.2", "location": null}, "permalink": "https://www.instagram.com/p/BIQ6eDUAROV/"},
{"media": {"caption_is_edited": false, "code": "BIRcTWTARWA", "date": 1469424108, "dimensions": {"width": 1080, "height": 1350}, "usertags": {"nodes": []}, "comments_disabled": false, "comments": {"count": 0, "page_info": {"has_previous_page": false, "start_cursor": null, "end_cursor": null, "has_next_page": false}, "nodes": []}, "id": "1301946242200311168", "caption": "Week 30 Day 1 Lunch", "likes": {"count": 0, "viewer_has_liked": false, "nodes": []}, "owner": {"username": "rachel_low0623", "is_unpublished": false, "requested_by_viewer": false, "followed_by_viewer": false, "blocked_by_viewer": false, "profile_pic_url": "https://scontent.cdninstagram.com/t51.2885-19/s150x150/12331389_1653329674933610_1352620729_a.jpg", "full_name": "Rachel", "has_blocked_viewer": false, "id": "411410334", "is_private": false}, "is_video": false, "is_ad": false, "display_src": "https://scontent.cdninstagram.com/t51.2885-15/e35/13658614_313651498973811_1514979733_n.jpg?ig_cache_key=MTMwMTk0NjI0MjIwMDMxMTE2OA%3D%3D.2", "location": null}, "permalink": "https://www.instagram.com/p/BIRcTWTARWA/"},
{"media": {"caption_is_edited": false, "code": "BIWDsG6A_Qv", "dimensions": {"width": 1080, "height": 810}, "usertags": {"nodes": []}, "comments_disabled": false, "comments": {"count": 0, "page_info": {"has_previous_page": false, "start_cursor": null, "end_cursor": null, "has_next_page": false}, "nodes": []}, "id": "1303245367382635567", "date": 1469578976, "likes": {"count": 0, "viewer_has_liked": false, "nodes": []}, "owner": {"username": "rachel_low0623", "is_unpublished": false, "requested_by_viewer": false, "followed_by_viewer": false, "blocked_by_viewer": false, "profile_pic_url": "https://scontent.cdninstagram.com/t51.2885-19/s150x150/12331389_1653329674933610_1352620729_a.jpg", "full_name": "Rachel", "has_blocked_viewer": false, "id": "411410334", "is_private": false}, "is_video": false, "is_ad": false, "display_src": "https://scontent.cdninstagram.com/t51.2885-15/e35/13724643_1052892838121117_533497006_n.jpg?ig_cache_key=MTMwMzI0NTM2NzM4MjYzNTU2Nw%3D%3D.2", "location": null}, "permalink": "https://www.instagram.com/p/BIWDsG6A_Qv/"},
{"media": {"caption_is_edited": false, "code": "BIWllR9A4ky", "date": 1469596745, "dimensions": {"width": 1080, "height": 810}, "usertags": {"nodes": []}, "comments_disabled": false, "comments": {"count": 0, "page_info": {"has_previous_page": false, "start_cursor": null, "end_cursor": null, "has_next_page": false}, "nodes": []}, "id": "1303394431789140274", "caption": "Week 30 Day 3 Lunch", "likes": {"count": 0, "viewer_has_liked": false, "nodes": []}, "owner": {"username": "rachel_low0623", "is_unpublished": false, "requested_by_viewer": false, "followed_by_viewer": false, "blocked_by_viewer": false, "profile_pic_url": "https://scontent.cdninstagram.com/t51.2885-19/s150x150/12331389_1653329674933610_1352620729_a.jpg", "full_name": "Rachel", "has_blocked_viewer": false, "id": "411410334", "is_private": false}, "is_video": false, "is_ad": false, "display_src": "https://scontent.cdninstagram.com/t51.2885-15/e35/13704091_1075275569229042_275321012_n.jpg?ig_cache_key=MTMwMzM5NDQzMTc4OTE0MDI3NA%3D%3D.2", "location": null}, "permalink": "https://www.instagram.com/p/BIWllR9A4ky/"},
{"media": {"caption_is_edited": false, "code": "BIZGmPcgOpV", "date": 1469681164, "dimensions": {"width": 1080, "height": 810}, "usertags": {"nodes": []}, "comments_disabled": false, "comments": {"count": 0, "page_info": {"has_previous_page": false, "start_cursor": null, "end_cursor": null, "has_next_page": false}, "nodes": []}, "id": "1304102583303989845", "caption": "Week 30 Day 4 Lunch", "likes": {"count": 0, "viewer_has_liked": false, "nodes": []}, "owner": {"username": "rachel_low0623", "is_unpublished": false, "requested_by_viewer": false, "followed_by_viewer": false, "blocked_by_viewer": false, "profile_pic_url": "https://scontent.cdninstagram.com/t51.2885-19/s150x150/12331389_1653329674933610_1352620729_a.jpg", "full_name": "Rachel", "has_blocked_viewer": false, "id": "411410334", "is_private": false}, "is_video": false, "is_ad": false, "display_src": "https://scontent.cdninstagram.com/t51.2885-15/e35/13724730_1215915241762115_446623513_n.jpg?ig_cache_key=MTMwNDEwMjU4MzMwMzk4OTg0NQ%3D%3D.2", "location": null}, "permalink": "https://www.instagram.com/p/BIZGmPcgOpV/"},
{"media": {"caption_is_edited": false, "code": "BIZ5NFdAEet", "date": 1469707696, "dimensions": {"width": 1080, "height": 1080}, "usertags": {"nodes": []}, "comments_disabled": false, "comments": {"count": 0, "page_info": {"has_previous_page": false, "start_cursor": null, "end_cursor": null, "has_next_page": false}, "nodes": []}, "id": "1304325154960066477", "caption": "Week 30 Day 4 Dinner : 1/2 Dumpling and Pineapple & egg yolk pastry (206 kcal)", "likes": {"count": 0, "viewer_has_liked": false, "nodes": []}, "owner": {"username": "rachel_low0623", "is_unpublished": false, "requested_by_viewer": false, "followed_by_viewer": false, "blocked_by_viewer": false, "profile_pic_url": "https://scontent.cdninstagram.com/t51.2885-19/s150x150/12331389_1653329674933610_1352620729_a.jpg", "full_name": "Rachel", "has_blocked_viewer": false, "id": "411410334", "is_private": false}, "is_video": false, "is_ad": false, "display_src": "https://scontent.cdninstagram.com/t51.2885-15/e35/13706798_845909638873545_1781795214_n.jpg?ig_cache_key=MTMwNDMyNTE1NDk2MDA2NjQ3Nw%3D%3D.2", "location": null}, "permalink": "https://www.instagram.com/p/BIZ5NFdAEet/"},
{"media": {"caption_is_edited": false, "code": "BIbJnsyA74y", "date": 1469749857, "dimensions": {"width": 1080, "height": 1080}, "usertags": {"nodes": []}, "comments_disabled": false, "comments": {"count": 0, "page_info": {"has_previous_page": false, "start_cursor": null, "end_cursor": null, "has_next_page": false}, "nodes": []}, "id": "1304678827615829554", "caption": "Week 30 Day 5 Breakfast: Char Siew Soh from Santarina Aunt No. 2", "likes": {"count": 0, "viewer_has_liked": false, "nodes": []}, "owner": {"username": "rachel_low0623", "is_unpublished": false, "requested_by_viewer": false, "followed_by_viewer": false, "blocked_by_viewer": false, "profile_pic_url": "https://scontent.cdninstagram.com/t51.2885-19/s150x150/12331389_1653329674933610_1352620729_a.jpg", "full_name": "Rachel", "has_blocked_viewer": false, "id": "411410334", "is_private": false}, "is_video": false, "is_ad": false, "display_src": "https://scontent.cdninstagram.com/t51.2885-15/e35/13827209_262417467474704_296826602_n.jpg?ig_cache_key=MTMwNDY3ODgyNzYxNTgyOTU1NA%3D%3D.2", "location": null}, "permalink": "https://www.instagram.com/p/BIbJnsyA74y/"},
{"media": {"caption_is_edited": false, "code": "BIcHf1kg1S_", "date": 1469782299, "dimensions": {"width": 1080, "height": 810}, "usertags": {"nodes": []}, "comments_disabled": false, "comments": {"count": 0, "page_info": {"has_previous_page": false, "start_cursor": null, "end_cursor": null, "has_next_page": false}, "nodes": []}, "id": "1304950966180861119", "caption": "The beautiful scenery from my office window", "likes": {"count": 0, "viewer_has_liked": false, "nodes": []}, "owner": {"username": "rachel_low0623", "is_unpublished": false, "requested_by_viewer": false, "followed_by_viewer": false, "blocked_by_viewer": false, "profile_pic_url": "https://scontent.cdninstagram.com/t51.2885-19/s150x150/12331389_1653329674933610_1352620729_a.jpg", "full_name": "Rachel", "has_blocked_viewer": false, "id": "411410334", "is_private": false}, "is_video": false, "is_ad": false, "display_src": "https://scontent.cdninstagram.com/t51.2885-15/e35/13706904_1135548009899920_22263876_n.jpg?ig_cache_key=MTMwNDk1MDk2NjE4MDg2MTExOQ%3D%3D.2", "location": null}, "permalink": "https://www.instagram.com/p/BIcHf1kg1S_/"},
{"media": {"caption_is_edited": true, "code": "BId-O6zAgqX", "date": 1469844550, "dimensions": {"width": 1080, "height": 810}, "usertags": {"nodes": []}, "comments_disabled": false, "comments": {"count": 0, "page_info": {"has_previous_page": false, "start_cursor": null, "end_cursor": null, "has_next_page": false}, "nodes": []}, "id": "1305473171096472215", "caption": "Week 30 Day 6 Breakfast : Sweeten the weekend with red bean paste with walnuts", "likes": {"count": 0, "viewer_has_liked": false, "nodes": []}, "owner": {"username": "rachel_low0623", "is_unpublished": false, "requested_by_viewer": false, "followed_by_viewer": false, "blocked_by_viewer": false, "profile_pic_url": "https://scontent.cdninstagram.com/t51.2885-19/s150x150/12331389_1653329674933610_1352620729_a.jpg", "full_name": "Rachel", "has_blocked_viewer": false, "id": "411410334", "is_private": false}, "is_video": false, "is_ad": false, "display_src": "https://scontent.cdninstagram.com/t51.2885-15/e35/13745214_2049796068579514_2114480229_n.jpg?ig_cache_key=MTMwNTQ3MzE3MTA5NjQ3MjIxNQ%3D%3D.2", "location": null}, "permalink": "https://www.instagram.com/p/BId-O6zAgqX/"},
{"media": {"caption_is_edited": false, "code": "BIeYp2tAGg5", "date": 1469858403, "dimensions": {"width": 1080, "height": 1080}, "usertags": {"nodes": []}, "comments_disabled": false, "comments": {"count": 0, "page_info": {"has_previous_page": false, "start_cursor": null, "end_cursor": null, "has_next_page": false}, "nodes": []}, "id": "1305589371335895097", "caption": "Week 30 Day 6 Lunch: just love the peanut soup", "likes": {"count": 0, "viewer_has_liked": false, "nodes": []}, "owner": {"username": "rachel_low0623", "is_unpublished": false, "requested_by_viewer": false, "followed_by_viewer": false, "blocked_by_viewer": false, "profile_pic_url": "https://scontent.cdninstagram.com/t51.2885-19/s150x150/12331389_1653329674933610_1352620729_a.jpg", "full_name": "Rachel", "has_blocked_viewer": false, "id": "411410334", "is_private": false}, "is_video": false, "is_ad": false, "display_src": "https://scontent.cdninstagram.com/t51.2885-15/e35/13704233_124524704654524_1732475986_n.jpg?ig_cache_key=MTMwNTU4OTM3MTMzNTg5NTA5Nw%3D%3D.2", "location": null}, "permalink": "https://www.instagram.com/p/BIeYp2tAGg5/"},
{"media": {"caption_is_edited": false, "code": "BIfI4iSg4Gm", "date": 1469883689, "dimensions": {"width": 1080, "height": 1080}, "usertags": {"nodes": []}, "comments_disabled": false, "comments": {"count": 0, "page_info": {"has_previous_page": false, "start_cursor": null, "end_cursor": null, "has_next_page": false}, "nodes": []}, "id": "1305801486441349542", "caption": "Week 30 Day 6 Dinner", "likes": {"count": 0, "viewer_has_liked": false, "nodes": []}, "owner": {"username": "rachel_low0623", "is_unpublished": false, "requested_by_viewer": false, "followed_by_viewer": false, "blocked_by_viewer": false, "profile_pic_url": "https://scontent.cdninstagram.com/t51.2885-19/s150x150/12331389_1653329674933610_1352620729_a.jpg", "full_name": "Rachel", "has_blocked_viewer": false, "id": "411410334", "is_private": false}, "is_video": false, "is_ad": false, "display_src": "https://scontent.cdninstagram.com/t51.2885-15/e35/13707062_1230945310262472_2101776332_n.jpg?ig_cache_key=MTMwNTgwMTQ4NjQ0MTM0OTU0Mg%3D%3D.2", "location": null}, "permalink": "https://www.instagram.com/p/BIfI4iSg4Gm/"},
{"media": {"caption_is_edited": false, "code": "BIhahMNgldz", "date": 1469960044, "dimensions": {"width": 1080, "height": 1080}, "usertags": {"nodes": []}, "comments_disabled": false, "comments": {"count": 0, "page_info": {"has_previous_page": false, "start_cursor": null, "end_cursor": null, "has_next_page": false}, "nodes": []}, "id": "1306441996977723251", "caption": "Week 30 Day 7 Dinner", "likes": {"count": 0, "viewer_has_liked": false, "nodes": []}, "owner": {"username": "rachel_low0623", "is_unpublished": false, "requested_by_viewer": false, "followed_by_viewer": false, "blocked_by_viewer": false, "profile_pic_url": "https://scontent.cdninstagram.com/t51.2885-19/s150x150/12331389_1653329674933610_1352620729_a.jpg", "full_name": "Rachel", "has_blocked_viewer": false, "id": "411410334", "is_private": false}, "is_video": false, "is_ad": false, "display_src": "https://scontent.cdninstagram.com/t51.2885-15/e35/13715230_1192836607405460_1288838675_n.jpg?ig_cache_key=MTMwNjQ0MTk5Njk3NzcyMzI1MQ%3D%3D.2", "location": null}, "permalink": "https://www.instagram.com/p/BIhahMNgldz/"},
{"media": {"caption_is_edited": false, "code": "BIjaHFvA-ml", "date": 1470026939, "dimensions": {"width": 1080, "height": 1350}, "usertags": {"nodes": []}, "comments_disabled": false, "comments": {"count": 0, "page_info": {"has_previous_page": false, "start_cursor": null, "end_cursor": null, "has_next_page": false}, "nodes": []}, "id": "1307003153270696357", "caption": "Week 31 Day 1 Lunch", "likes": {"count": 0, "viewer_has_liked": false, "nodes": []}, "owner": {"username": "rachel_low0623", "is_unpublished": false, "requested_by_viewer": false, "followed_by_viewer": false, "blocked_by_viewer": false, "profile_pic_url": "https://scontent.cdninstagram.com/t51.2885-19/s150x150/12331389_1653329674933610_1352620729_a.jpg", "full_name": "Rachel", "has_blocked_viewer": false, "id": "411410334", "is_private": false}, "is_video": false, "is_ad": false, "display_src": "https://scontent.cdninstagram.com/t51.2885-15/e35/13721042_1796676307230195_991028411_n.jpg?ig_cache_key=MTMwNzAwMzE1MzI3MDY5NjM1Nw%3D%3D.2", "location": null}, "permalink": "https://www.instagram.com/p/BIjaHFvA-ml/"}
]