url,class,score
<<<<<<< HEAD
https://scontent.cdninstagram.com/t51.2885-15/e35/13380962_1738208239802286_932413163_n.jpg?ig_cache_key=MTI2NTY5MDk0MzAyOTg2OTEzMA%3D%3D.2,man,0.993088961
,people,0.984853745
,adult,0.967487514
,portrait,0.960493922
,group,0.951147437
,indoors,0.922115624
,group,0.832398891
,education,0.830817819
,stock,0.818483829
,employee,0.807177007
,friendship,0.799963117
,woman,0.792779088
,business,0.790503144
,two,0.7897892
,industry,0.783071935
,looking,0.774411321
,service,0.773514032
,casual,0.772595525
,bar,0.76403594
,commerce,0.763839304
https://scontent.cdninstagram.com/t51.2885-15/e35/13257022_1094353893970732_213554405_n.jpg?ig_cache_key=MTI1NTcwMzg3ODkyMTk3NjIzMg%3D%3D.2,food,0.993467152
,seafood,0.9803828
,cooking,0.975998878
,crab,0.972151995
,no person,0.967677474
,hot,0.967326403
,cuisine,0.962613821
,healthy,0.958787799
,meal,0.956608474
,shellfish,0.955447137
,delicious,0.954764843
,restaurant,0.953901172
,dinner,0.953010559
,epicure,0.950491667
,crustacean,0.950211525
,lobster,0.947033882
,nutrition,0.933563709
,desktop,0.933406532
,closeup,0.929050922
,meat,0.924908996
https://scontent.cdninstagram.com/l/t51.2885-15/e35/13525457_255565248157477_1941736225_n.jpg?ig_cache_key=MTI3ODg4NDA2NDkzMjc1NjA3OQ%3D%3D.2,funny,0.991805673
,humor,0.990418911
,cute,0.980193734
,dog,0.971646547
,animal,0.971175075
,fun,0.966365755
,portrait,0.954124093
,little,0.950461328
,pet,0.943939447
,joke,0.917565048
,isolated,0.913341999
,puppy,0.903636575
,friendship,0.901434422
,young,0.897461057
,looking,0.894993603
,terrier,0.883859515
,lid,0.877567053
,vertical,0.87038362
,indoors,0.869140089
,sit,0.864420176
https://scontent.cdninstagram.com/t51.2885-15/e35/13395156_1731619360441680_1341965090_n.jpg?ig_cache_key=MTI3ODA1MzkzNTg1MTYwMDUyNg%3D%3D.2,food,0.99548912
,delicious,0.973283887
,dinner,0.972196996
,no person,0.967068315
,healthy,0.958515227
,meal,0.95706737
,traditional,0.953026772
,lunch,0.945084512
,desktop,0.943549871
,fish,0.93864727
,seafood,0.935322404
,plate,0.934449971
,dish,0.931991816
,epicure,0.931430101
,cuisine,0.92403543
,meat,0.923203588
,cooking,0.916307211
,tasty,0.915853024
,health,0.907986164
,hot,0.904925168
https://scontent.cdninstagram.com/t51.2885-15/e35/13408894_135911590148696_528681320_n.jpg?ig_cache_key=MTI2NjUzNDkzODQ5NjgyNjA4NQ%3D%3D.2,dinner,0.997028947
,lunch,0.995168149
,food,0.994094908
,meal,0.992675543
,plate,0.99011749
,sauce,0.983385921
,cuisine,0.982996762
,dish,0.982025921
,delicious,0.979592562
,meat,0.977248549
,restaurant,0.974568903
,epicure,0.971736431
,beef,0.96445179
,tasty,0.961814046
,healthy,0.959153235
,traditional,0.958862901
,spaghetti,0.957795501
,pasta,0.948510289
,fork,0.947091341
,closeup,0.942113459
https://scontent.cdninstagram.com/t51.2885-15/e35/13151343_728643483943916_165567038_n.jpg?ig_cache_key=MTI1MDQwNTY2NTU3NDg0NTAxNA%3D%3D.2,dinner,0.988023996
,lunch,0.982908547
,pasta,0.980241835
,food,0.975241005
,delicious,0.966441333
,meal,0.951662242
,cooking,0.948945761
,no person,0.943832636
,dish,0.942392111
,egg,0.940937757
,cheese,0.93619585
,plate,0.929316759
,cuisine,0.928318143
,sauce,0.915128112
,noodles,0.911237001
,nutrition,0.908893108
,dining,0.904146552
,traditional,0.901456714
,fork,0.888961196
,hot,0.877607942
https://scontent.cdninstagram.com/t51.2885-15/e35/13269449_584618211709394_2123679390_n.jpg?ig_cache_key=MTI2NTAyMjQyMDI5NzI4NDQyNw%3D%3D.2,food,0.998458028
,dinner,0.996400535
,soup,0.994820237
,hot,0.994368374
,meal,0.991817236
,cuisine,0.991432369
,dish,0.991064072
,mushroom,0.98918581
,meat,0.988296866
,traditional,0.986974537
,delicious,0.985426366
,vegetable,0.985114813
,lunch,0.984883547
,bowl,0.981214106
,sauce,0.978257656
,cooking,0.976778805
,pork,0.976610899
,onion,0.974027157
,chili,0.972388387
,beef,0.972367942
https://scontent.cdninstagram.com/t51.2885-15/e35/12976398_229155127441719_521702215_n.jpg?ig_cache_key=MTIzNTI0NDY2NzkzOTQyMDcxNA%3D%3D.2,tree,0.996740222
,park,0.97027272
,landscape,0.957430243
,people,0.92457521
,nature,0.92431891
,branch,0.919085741
,road,0.910030365
,guidance,0.892438948
,season,0.889457703
,environment,0.888624668
,winter,0.876565397
,snow,0.858626366
,alone,0.855434299
,walk,0.853870928
,outdoors,0.844187975
,street,0.837469518
,travel,0.837059259
,solo,0.836247444
,sight,0.834666491
,man,0.829565287
https://scontent.cdninstagram.com/t51.2885-15/e35/12959983_989883251107499_1316599829_n.jpg?ig_cache_key=MTIzNzY1OTU1NTIyNzg1OTc0MA%3D%3D.2,culture,0.974273086
,traditional,0.963500917
,roof,0.96323514
,decoration,0.955527544
,temple,0.952054739
,desktop,0.946210504
,flower,0.943921924
,building,0.943102062
,old,0.932583988
,wood,0.930795908
,architecture,0.929122806
,design,0.928119063
,house,0.923554301
,classic,0.921472669
,travel,0.916423559
,style,0.911010325
,art,0.888071895
,tourism,0.883319378
,vintage,0.861932635
,beautiful,0.856335521
https://scontent.cdninstagram.com/t51.2885-15/e35/12960067_107560772987086_821729521_n.jpg?ig_cache_key=MTIzODgyNjU0NjUwNDQ5NzI0Ng%3D%3D.2,tree,0.993846059
,people,0.977903247
,traditional,0.965064168
,kimono,0.945723176
,couple,0.945693374
,woman,0.926675498
,man,0.921141982
,wedding,0.919652581
,flower,0.919036686
,dress,0.918702483
,family,0.912495852
,travel,0.907431662
,love,0.905535698
,wood,0.902617335
,religion,0.893691123
,cherry,0.881017804
,culture,0.868774176
,two,0.866298795
,landscape,0.862356484
,ceremony,0.853862643
https://scontent.cdninstagram.com/t51.2885-15/e35/12912300_262509327422780_558086923_n.jpg?ig_cache_key=MTIzMzc4MjY2ODc3MjYwNDc5MA%3D%3D.2,people,0.975305974
,business,0.911487937
,industry,0.899548531
,stock,0.87120676
,technology,0.867156625
,display,0.856734395
,man,0.842835426
,adult,0.839518666
,market,0.810767829
,commerce,0.80842936
,indoors,0.806494534
,computer,0.800544977
,television,0.790436983
,city,0.78379488
,portrait,0.767928898
,service,0.75908637
,woman,0.748976946
,shopping,0.736502886
,street,0.730380058
,work,0.727235436
https://scontent.cdninstagram.com/t51.2885-15/e35/13266914_248430725513988_1588258802_n.jpg?ig_cache_key=MTI1NjQ1ODA4MDUxNDMwODc4Mg%3D%3D.2,sunset,0.991993308
,sky,0.986409545
,landscape,0.9776721
,nature,0.977115512
,storm,0.975799978
,dawn,0.972886622
,silhouette,0.971351624
,sun,0.97021246
,light,0.956100464
,smoke,0.948268533
,cloud,0.946639717
,weather,0.946627855
,tree,0.9447065
,dark,0.937809467
,evening,0.923143744
,flame,0.912883699
,dusk,0.907066345
,rain,0.890939593
,dramatic,0.88593936
,fair weather,0.88199532
https://scontent.cdninstagram.com/t51.2885-15/e35/13402572_481768242025385_2086044332_n.jpg?ig_cache_key=MTI3NzU1MDMwODgxNjk0MzIzNw%3D%3D.2,food,0.99753654
,meal,0.994393528
,dinner,0.986489058
,cooking,0.983608246
,plate,0.980078638
,lunch,0.977603674
,table,0.976575971
,restaurant,0.974229574
,meat,0.966218412
,dish,0.964010119
,cuisine,0.954708278
,epicure,0.941928387
,tasty,0.940421402
,healthy,0.934936464
,delicious,0.92823875
,vegetable,0.928221405
,desktop,0.926738203
,fork,0.906804919
,closeup,0.903800488
,dining,0.899265826
https://scontent.cdninstagram.com/t51.2885-15/e35/12960062_248880042133679_1640842292_n.jpg?ig_cache_key=MTIzNDYyNDUwODEwNzI1ODY4OA%3D%3D.2,give voice,0.994529963
,text,0.992296815
,cloud,0.962919593
,conceptual,0.950792193
,business,0.939148366
,definition,0.924078703
,desktop,0.881787181
,education,0.877918839
,management,0.868730426
,success,0.841124415
,label,0.837741137
,weight,0.837213039
,behavior,0.833831668
,tag,0.826186657
,motivation,0.825064421
,abstract,0.815716863
,page,0.813243985
,communication,0.808837116
,vision,0.805082202
,data,0.803778529
https://scontent.cdninstagram.com/t51.2885-15/e35/13398807_1718388125115614_1059547006_n.jpg?ig_cache_key=MTI2NjQ2OTI2MjE4ODk2ODIzMA%3D%3D.2,food,0.995609045
,sesame,0.991904736
,burger,0.977017999
,refreshment,0.975455642
,delicious,0.97423476
,meal,0.971956313
,bun,0.967266202
,bread,0.966160238
,unhealthy,0.954852819
,tasty,0.951397002
,dinner,0.936879396
,traditional,0.921930313
,closeup,0.921711922
,no person,0.917529225
,nutrition,0.913698077
,sandwich,0.906363487
,cuisine,0.905326307
,desktop,0.905281901
,lunch,0.896655321
,cake,0.887521625
https://scontent.cdninstagram.com/t51.2885-15/e35/13269485_1024881887588045_905786662_n.jpg?ig_cache_key=MTI1NDIwMTU5MTA0MDkzMjYxMw%3D%3D.2,computer,0.99394536
,screen,0.989714622
,technology,0.988948822
,monitor,0.986530602
,laptop,0.983402491
,internet,0.968617082
,display,0.960835814
,business,0.936796427
,keyboard,0.909794569
,wireless,0.878706217
,indoors,0.877459228
,modern,0.871566951
,electronics,0.870969176
,coffee,0.858716011
,data,0.852525949
,no person,0.850924373
,World Wide Web,0.83661437
,office,0.827734828
,system,0.823127449
,broad,0.815984845
https://scontent.cdninstagram.com/t51.2885-15/e35/13381072_1788233571408027_1542366761_n.jpg?ig_cache_key=MTI3ODMwMzA5MTE4MjYzMTM4MQ%3D%3D.2,food,0.994439304
,meal,0.984918773
,lunch,0.980594277
,delicious,0.979937017
,no person,0.976102114
,dinner,0.975497842
,hot,0.973029971
,meat,0.97245878
,cuisine,0.959455013
,traditional,0.959148049
,tasty,0.950172663
,beef,0.948716462
,closeup,0.944158435
,egg,0.941739619
,epicure,0.939197183
,refreshment,0.93285346
,cooking,0.930967569
,pepper,0.92069149
,desktop,0.920401931
,plate,0.920170009
https://scontent.cdninstagram.com/t51.2885-15/e35/12976207_1640367649608088_1036332963_n.jpg?ig_cache_key=MTIzNTg3NjA1MzY4MzYzMjcxNg%3D%3D.2,church,0.958831906
,religion,0.95152247
,architecture,0.947067082
,Gothic,0.935228229
,old,0.919603229
,cathedral,0.907044828
,building,0.906882524
,tower,0.905667663
,religious,0.903419614
,landmark,0.900301278
,sky,0.900025189
,no person,0.874184787
,winter,0.86865592
,travel,0.858883023
,Gothic,0.838603377
,traditional,0.836617231
,sight,0.830770493
,monument,0.827271819
,cross,0.824470341
,culture,0.81256938
https://scontent.cdninstagram.com/t51.2885-15/e35/12905257_707588879384248_2001160392_n.jpg?ig_cache_key=MTIzMzM1MTg0MDA4MzA0ODkzMg%3D%3D.2,food,0.987799644
,market,0.976483703
,traditional,0.967209756
,sale,0.966070175
,cooking,0.953554869
,chicken,0.951335847
,meat,0.936513305
,cuisine,0.929870009
,delicious,0.923267722
,meal,0.921326995
,culture,0.912287951
,vegetable,0.909703612
,dinner,0.909178197
,booth,0.905772984
,healthy,0.903113186
,gold,0.887845039
,hot,0.88015759
,tasty,0.873171806
,lunch,0.869676769
,barbecue,0.8675313
https://scontent.cdninstagram.com/t51.2885-15/e35/13277513_311353072529276_1341907175_n.jpg?ig_cache_key=MTI2NTg0MzQwNTc4NzMzMTQ3Mg%3D%3D.2,food,0.995773911
,vegetable,0.982709348
,healthy,0.982062101
,cooking,0.967113614
,meal,0.96600759
,cuisine,0.96291995
,diet,0.951940298
,dinner,0.945183098
,closeup,0.94501698
,desktop,0.942982793
,dish,0.94094491
,salad,0.940519094
,pepper,0.937982202
,nutrition,0.93777287
,restaurant,0.933781147
,hot,0.91628468
,delicious,0.915397048
,epicure,0.904101014
,tasty,0.897572517
,traditional,0.897548199
https://scontent.cdninstagram.com/t51.2885-15/e35/13249880_244025389307781_1731468917_n.jpg?ig_cache_key=MTI2MDU2MTE2MzI3NjA4OTg3NA%3D%3D.2,food,0.998221219
,cooking,0.996351957
,dinner,0.995838702
,meal,0.993687034
,cuisine,0.992061496
,lunch,0.991398096
,pasta,0.982773364
,delicious,0.982383907
,dish,0.981761217
,noodles,0.980973125
,hot,0.980857968
,traditional,0.977272809
,tasty,0.971398771
,restaurant,0.96925652
,spaghetti,0.968445897
,meat,0.966363251
,epicure,0.965516746
,pan,0.962519646
,healthy,0.961987078
,nutrition,0.959405661
https://scontent.cdninstagram.com/t51.2885-15/e35/13092259_1028972720515334_546573779_n.jpg?ig_cache_key=MTIzODM5MjI1MTA2MzMwMjM1MQ%3D%3D.2,dinner,0.990635157
,food,0.990631938
,lunch,0.983772635
,meal,0.976958752
,delicious,0.973098457
,plate,0.957668662
,dish,0.956928194
,vegetable,0.95099932
,meat,0.94683075
,no person,0.946354151
,cuisine,0.92239511
,healthy,0.918263912
,sauce,0.917508185
,nutrition,0.914834976
,dining,0.914439678
,beef,0.914067268
,epicure,0.911614895
,cooking,0.910887957
,pork,0.905144811
,tomato,0.888334274
https://scontent.cdninstagram.com/t51.2885-15/e35/13113773_1739214172958558_957415638_n.jpg?ig_cache_key=MTIzODk3MjIyMTUxMDc0NDI3NA%3D%3D.2,coffee,0.998227715
,espresso,0.993797839
,cup,0.991045594
,saucer,0.990850687
,drink,0.989603937
,cappuccino,0.989319503
,breakfast,0.986238778
,mug,0.978922486
,foam,0.978459716
,hot,0.977517009
,caffeine,0.976277649
,dawn,0.975521028
,perfume,0.959100485
,milk,0.952096224
,food,0.937920332
,desktop,0.925809264
,refreshment,0.92275393
,chocolate,0.917126536
,sweet,0.908981204
,cream,0.908202648
https://scontent.cdninstagram.com/t51.2885-15/e35/12912619_264808000525255_342019672_n.jpg?ig_cache_key=MTIyODY1NjA3MzQ4NTQxNjU3MQ%3D%3D.2,man,0.986745238
,people,0.98648417
,indoors,0.949600816
,adult,0.93667829
,portrait,0.92221725
,room,0.911939144
,sit,0.899648786
,business,0.891998887
,mirror,0.891050577
,woman,0.888038397
,chair,0.875368774
,two,0.85837853
,one,0.843520403
,restaurant,0.834355831
,television,0.824316263
,seat,0.823644042
,window,0.812267542
,table,0.788404465
,couple,0.78756249
,furniture,0.773183227
https://scontent.cdninstagram.com/t51.2885-15/e35/12907181_473206596212190_982108504_n.jpg?ig_cache_key=MTIzMDI5MTI5MDczODQ4OTM2NQ%3D%3D.2,food,0.996039212
,meal,0.98707366
,dinner,0.984210849
,cuisine,0.979031563
,healthy,0.973216593
,hot,0.971416831
,restaurant,0.97066772
,lunch,0.969148993
,dish,0.96832943
,delicious,0.968191624
,epicure,0.968096673
,vegetable,0.967650652
,plate,0.966042876
,tasty,0.964434326
,traditional,0.959501505
,desktop,0.953392506
,meat,0.94725287
,refreshment,0.944853783
,pepper,0.939185739
,cooking,0.933585286
https://scontent.cdninstagram.com/t51.2885-15/e35/13256663_1737007773237510_1868149431_n.jpg?ig_cache_key=MTI1NTEzMzYxODc0OTY2NzU4NQ%3D%3D.2,man,0.990434587
,bar,0.990142584
,group,0.988031149
,table,0.982818246
,group,0.978520274
,restaurant,0.97822386
,people,0.976812363
,four,0.965929508
,recreation,0.959869623
,friendship,0.957229853
,woman,0.956304073
,indoors,0.955944061
,pub,0.94469732
,leisure,0.94405663
,beer,0.943443656
,adult,0.940784276
,fun,0.917732
,nightlife,0.914787292
,enjoyment,0.914307296
,club,0.913500905
https://scontent.cdninstagram.com/t51.2885-15/e35/13391168_815830251852591_49908165_n.jpg?ig_cache_key=MTI2NTk2MjQ3MDgyODc2NzQ5MQ%3D%3D.2,food,0.995332479
,dinner,0.995266914
,meal,0.991211534
,meat,0.990959823
,lunch,0.988061905
,dish,0.986168861
,plate,0.983481824
,vegetable,0.981314778
,cuisine,0.980369568
,parsley,0.972853601
,sauce,0.971586347
,healthy,0.970858932
,epicure,0.970124185
,delicious,0.969868064
,chicken,0.966843724
,tasty,0.962893963
,beef,0.951215744
,hot,0.94995153
,pork,0.949061275
,restaurant,0.947730184
https://scontent.cdninstagram.com/t51.2885-15/e35/13259590_965607340225861_1449257381_n.jpg?ig_cache_key=MTI1Nzg0MjM5MDg0NDY2ODYzMA%3D%3D.2,seafood,0.995486379
,food,0.992710233
,fish,0.991279244
,shellfish,0.983151317
,mussel,0.981600761
,dinner,0.979972839
,epicure,0.979746282
,lemon,0.978230357
,healthy,0.973577499
,restaurant,0.971439004
,delicious,0.969147205
,meal,0.965726495
,bivalve,0.965224028
,oyster,0.962970912
,cuisine,0.96048218
,plate,0.958434105
,dish,0.951326847
,marine,0.946534157
,luxury,0.945627391
,lunch,0.93998909
https://scontent.cdninstagram.com/t51.2885-15/e35/13167454_709565439183060_1149828218_n.jpg?ig_cache_key=MTI1MDAxODM4OTg2NjkzNjg2NA%3D%3D.2,food,0.993789852
,meal,0.99197948
,dinner,0.991554618
,lunch,0.986209512
,plate,0.977730691
,meat,0.976611674
,epicure,0.96905452
,steak,0.968171299
,delicious,0.964512706
,vegetable,0.962419391
,cuisine,0.955726743
,fillet,0.953907251
,dish,0.951394081
,healthy,0.945468962
,nutrition,0.937809229
,closeup,0.934388876
,no person,0.931125581
,salad,0.929817677
,tasty,0.926077068
,restaurant,0.921927989
https://scontent.cdninstagram.com/t51.2885-15/e35/13298093_1093046594091640_185809698_n.jpg?ig_cache_key=MTI2NDE3NDc3MzA4NDcxNTM1Nw%3D%3D.2,dinner,0.994238138
,meat,0.992096961
,lunch,0.982884645
,delicious,0.978331566
,food,0.978171468
,no person,0.977861047
,beef,0.977454662
,juicy,0.966325164
,cooking,0.948303223
,duck,0.948111653
,meal,0.943636894
,nutrition,0.942782342
,dining,0.939948559
,pork,0.936054945
,dish,0.913634658
,chicken,0.905424416
,hot,0.905315816
,pepper,0.899937391
,steak,0.893757463
,roasting,0.890781283
https://scontent.cdninstagram.com/t51.2885-15/e35/12976482_559617187542715_1923278962_n.jpg?ig_cache_key=MTIyODI4OTI2NjM0MTczODk2OA%3D%3D.2,people,0.991530895
,portrait,0.991489768
,eyeglasses,0.974877
,man,0.966479063
,adult,0.965671182
,actor,0.958034754
,business,0.95759058
,one,0.953636289
,office,0.907613754
,smile,0.896708786
,eyewear,0.886497498
,young,0.860372066
,monochrome,0.855934918
,person,0.826321721
,professional,0.824956596
,fashion,0.814625382
,guy,0.813379169
,tie,0.81032747
,face,0.808246374
,model,0.804955125
https://scontent.cdninstagram.com/t51.2885-15/e35/13437261_1202216513143839_1496676169_n.jpg?ig_cache_key=MTI3NzI5NDE0NjEyMDk0MDE3Ng%3D%3D.2,food,0.992234945
,no person,0.985225439
,dinner,0.983962893
,meal,0.971660316
,lunch,0.971359313
,plate,0.965115905
,dish,0.963129997
,cooking,0.953828216
,delicious,0.953730762
,meat,0.923434496
,potato,0.920230985
,nutrition,0.910142899
,healthy,0.90895021
,cuisine,0.905543566
,baking,0.896621227
,hot,0.891165376
,vegetable,0.890233934
,chicken,0.888734221
,tasty,0.885110259
,restaurant,0.883529663
https://scontent.cdninstagram.com/t51.2885-15/e35/12965755_1072076689531259_317581163_n.jpg?ig_cache_key=MTIzMzg3MjE1NTkxNzc3NzMzNw%3D%3D.2,water,0.991997957
,river,0.981505752
,travel,0.969817758
,nature,0.967914879
,architecture,0.96195972
,bridge,0.961306155
,stone,0.948705196
,old,0.946551383
,landscape,0.938101768
,sky,0.935783982
,city,0.930206776
,rain,0.930148125
,tourism,0.922427177
,wall,0.921901464
,building,0.920848846
,flood,0.919270754
,summer,0.903249204
,dam,0.899970651
,town,0.897129297
,sight,0.895003021
https://scontent.cdninstagram.com/t51.2885-15/e35/13092424_1100101290011997_1166385197_n.jpg?ig_cache_key=MTIzNjg1MTgxNDQxODcwODU0MQ%3D%3D.2,sweet,0.992760956
,fruit,0.984916031
,berry,0.983024478
,sugar,0.97621572
,food,0.974715292
,delicious,0.974138796
,no person,0.969616413
,cake,0.964939117
,cream,0.963097692
,strawberry,0.962081194
,breakfast,0.961856484
,refreshment,0.958136737
,pastry,0.947803855
,chocolate,0.947123528
,plate,0.932857871
,raspberry,0.91133821
,goody,0.900604963
,decoration,0.898207843
,closeup,0.895538926
,gelatin,0.893941641
https://scontent.cdninstagram.com/t51.2885-15/e35/13398980_1038033086276011_1276775599_n.jpg?ig_cache_key=MTI3MDkxMzY0MTAzNzI2NTU0NQ%3D%3D.2,food,0.995966434
,dinner,0.994526148
,hot,0.991349876
,cuisine,0.988473058
,meat,0.986077011
,meal,0.984580159
,delicious,0.982001066
,dish,0.981434226
,lunch,0.97984457
,cooking,0.978548229
,vegetable,0.977155149
,beef,0.976564884
,pork,0.972690701
,noodles,0.969888628
,traditional,0.962679565
,healthy,0.958886385
,epicure,0.958309293
,tasty,0.958208561
,plate,0.953218222
,bowl,0.952896595
https://scontent.cdninstagram.com/t51.2885-15/e35/13423662_968915766556356_1893531810_n.jpg?ig_cache_key=MTI2Nzk4NjYwODUyNzM0MjEwNA%3D%3D.2,tree,0.995682359
,palm,0.993682504
,beach,0.972232819
,sun,0.969237328
,summer,0.968174338
,tropical,0.966477513
,nature,0.960575223
,guidance,0.946352243
,no person,0.944725037
,travel,0.943422735
,vacation,0.941198826
,hotel,0.932367444
,shadow,0.932355225
,fair weather,0.926164269
,walk,0.907179534
,landscape,0.906080604
,island,0.904004216
,dawn,0.890518188
,wood,0.88515234
,outdoors,0.88233608
https://scontent.cdninstagram.com/t51.2885-15/e35/13116609_1254619857888970_1004673552_n.jpg?ig_cache_key=MTI0OTMwNTk2NzY4NjQxNzI1Ng%3D%3D.2,rice,0.999757826
,dinner,0.99724257
,food,0.99464035
,lunch,0.992055357
,meal,0.989621401
,meat,0.989359558
,delicious,0.979564846
,dish,0.979333162
,traditional,0.973930001
,beef,0.970661521
,vegetable,0.969187379
,cuisine,0.967199802
,plate,0.966552913
,dining,0.959741592
,cooking,0.958978653
,no person,0.942229271
,epicure,0.941719651
,pepper,0.940721154
,pork,0.937367916
,nutrition,0.933746576
https://scontent.cdninstagram.com/t51.2885-15/e35/13397530_151990225215251_708423847_n.jpg?ig_cache_key=MTI3MjkwOTk0NTU0NDIxMDg1MA%3D%3D.2,dinner,0.994418859
,food,0.99441874
,lunch,0.991366982
,delicious,0.990577698
,hot,0.98232013
,cuisine,0.981949925
,meal,0.981542408
,dish,0.980983555
,plate,0.975701272
,sauce,0.973399043
,traditional,0.971657991
,cooking,0.970277429
,noodles,0.963379025
,tasty,0.962501168
,epicure,0.96041137
,restaurant,0.954091489
,no person,0.952657282
,meat,0.952649951
,healthy,0.951475918
,pork,0.949673176
https://scontent.cdninstagram.com/t51.2885-15/e35/13391298_1630565473928421_1607026960_n.jpg?ig_cache_key=MTI3Njc2MjYwODcxMTA3MjE1OQ%3D%3D.2,slice,0.982310116
,no person,0.981075287
,food,0.977826595
,meat,0.977640033
,dinner,0.95825243
,salmon,0.951428354
,fish,0.949889183
,sushi,0.94359535
,traditional,0.930890799
,slice,0.930074632
,epicure,0.927627146
,desktop,0.926375508
,seafood,0.924756408
,fillet,0.924660921
,delicious,0.921028137
,board,0.920842767
,isolated,0.919587612
,pork,0.919006765
,wood,0.914923549
,health,0.91089797
https://scontent.cdninstagram.com/t51.2885-15/e35/13150936_1541498486155155_1515352723_n.jpg?ig_cache_key=MTI0NTY5NjQzNzY4NTY4MDU5MQ%3D%3D.2,flora,0.987454772
,leaf,0.960287631
,hand,0.956616282
,desktop,0.951042652
,nature,0.945418119
,bud,0.944015443
,perfume,0.93505156
,bouquet,0.928887129
,herb,0.913241982
,spice,0.902475476
,flower,0.900759935
,closeup,0.869896889
,symbol,0.869808435
,isolated,0.866376162
,growth,0.855510116
,fragrant,0.849944115
,cluster,0.846841395
,decoration,0.840147078
,aromatic,0.837947845
,herbal,0.83446753
https://scontent.cdninstagram.com/t51.2885-15/e35/13395039_194983847568849_1101148238_n.jpg?ig_cache_key=MTI2OTYxNzIwNDQ0NTkzNjYwMg%3D%3D.2,car,0.999389172
,vehicle,0.9970752
,transportation system,0.990110874
,drive,0.988528609
,street,0.988490939
,road,0.98820591
,people,0.982949078
,traffic,0.979392886
,city,0.972761691
,competition,0.965041637
,truck,0.955528021
,wheel,0.952844024
,driver,0.949273348
,urban,0.947690129
,show,0.940991163
,tree,0.933361173
,race,0.929381132
,hurry,0.925026119
,wheel,0.91969496
,travel,0.918390632
https://scontent.cdninstagram.com/t51.2885-15/e35/13183453_828177467288529_2017669709_n.jpg?ig_cache_key=MTI0MzkxMDg4NTY0Njg5MTg2OA%3D%3D.2,business,0.990931988
,paper,0.98880434
,money,0.986787975
,finance,0.979370117
,money,0.97722584
,wealth,0.959779501
,dollar,0.954357982
,financial,0.950442851
,cash,0.949040174
,sign,0.931827068
,bank,0.931304634
,economy,0.925257683
,success,0.904901862
,hand,0.899862766
,desktop,0.898814917
,savings,0.885697722
,symbol,0.88214004
,shopping,0.867954612
,pay,0.861138463
,commerce,0.853694916
https://scontent.cdninstagram.com/t51.2885-15/e35/12976469_1566929753601628_646427230_n.jpg?ig_cache_key=MTIyNzg1MzU1NDU4NDc0NjQ2NA%3D%3D.2,bridge,0.992642283
,city,0.991419971
,travel,0.985685825
,urban,0.984855771
,transportation system,0.983120561
,street,0.982387364
,architecture,0.979234874
,light,0.974059463
,train,0.973694682
,train,0.972596407
,building,0.96375978
,tube,0.961054742
,road,0.960380197
,modern,0.957534552
,sky,0.953666031
,traffic,0.953544378
,railway,0.945878148
,evening,0.920450687
,reflection,0.916892886
,water,0.912822366
https://scontent.cdninstagram.com/t51.2885-15/e35/13129266_1105943496135003_1337130734_n.jpg?ig_cache_key=MTIzOTgzMjI0MTMyNDUyMjExNw%3D%3D.2,rice,0.997245789
,food,0.993034363
,seafood,0.992628753
,fish,0.992620409
,sushi,0.992391706
,healthy,0.988642931
,salmon,0.987912655
,meal,0.984936714
,dinner,0.981891155
,seaweed,0.980042815
,lunch,0.971990943
,cuisine,0.96803546
,traditional,0.96752429
,diet,0.956668139
,epicure,0.954061389
,plate,0.952365756
,delicious,0.95121634
,no person,0.941205263
,restaurant,0.933940887
,shrimp,0.933415413
https://scontent.cdninstagram.com/t51.2885-15/e35/13402492_1763818530525259_791705890_n.jpg?ig_cache_key=MTI3MDMyMjk4MDYwMDc3MjkzMw%3D%3D.2,food,0.996258736
,dinner,0.991591573
,meal,0.990110517
,cuisine,0.986425459
,hot,0.982637048
,dish,0.979250193
,cooking,0.979185283
,delicious,0.978415489
,lunch,0.977962375
,meat,0.977325082
,vegetable,0.976308823
,soup,0.973320007
,epicure,0.97126925
,healthy,0.97081399
,restaurant,0.963644028
,beef,0.959018409
,traditional,0.957244754
,bowl,0.955210686
,tasty,0.948310494
,plate,0.947050035
https://scontent.cdninstagram.com/t51.2885-15/e35/13151252_579702458865129_1201630280_n.jpg?ig_cache_key=MTI0OTk5Mjg1NDgzNTEzMzAyMw%3D%3D.2,food,0.991640925
,delicious,0.965851009
,no person,0.963754356
,dinner,0.962368608
,meal,0.957937002
,lunch,0.957761765
,traditional,0.953467727
,cuisine,0.943661988
,plate,0.943395674
,refreshment,0.931937337
,dish,0.928469241
,vegetable,0.918920159
,tasty,0.910915613
,cooking,0.907754838
,epicure,0.903772116
,healthy,0.903592467
,hot,0.902308464
,nutrition,0.894957483
,closeup,0.840014696
,gold,0.827720046
https://scontent.cdninstagram.com/t51.2885-15/e35/13320296_861215373983459_1155967276_n.jpg?ig_cache_key=MTI3MDI3ODM0Mjc3OTE3MzU0Mw%3D%3D.2,food,0.994976997
,no person,0.984678864
,delicious,0.984202921
,dinner,0.972772062
,lunch,0.967971087
,refreshment,0.96670109
,bread,0.965686679
,meal,0.964596152
,traditional,0.962351918
,tasty,0.95532465
,nutrition,0.950558424
,homemade,0.938371778
,epicure,0.93343091
,healthy,0.929582596
,crisp,0.927844346
,plate,0.925759435
,diet,0.925570726
,cooking,0.922219872
,appetizer,0.915430248
,breakfast,0.915254116
https://scontent.cdninstagram.com/t51.2885-15/e35/13102489_1726575437561190_1398991228_n.jpg?ig_cache_key=MTIzOTY3MTYzMDM5MzM0MjIyMQ%3D%3D.2,people,0.983056545
,food,0.965390742
,candle,0.958441257
,restaurant,0.957817912
,market,0.949739516
,celebration,0.948918939
,man,0.937786102
,flame,0.929139256
,group,0.895126283
,festival,0.893577754
,traditional,0.886786819
,religion,0.881125093
,table,0.87800014
,woman,0.876385212
,culture,0.873995841
,party,0.86117512
,meal,0.855514467
,street,0.830225229
,city,0.82654196
,Christmas,0.826254368
https://scontent.cdninstagram.com/t51.2885-15/e35/13130038_647941635354001_1027041815_n.jpg?ig_cache_key=MTI0MTM0NjI2MjY1MzU2NTcyNA%3D%3D.2,people,0.972129583
,man,0.956194878
,woman,0.950433135
,city,0.927370548
,landscape,0.921095252
,girl,0.902047753
,couple,0.888055623
,travel,0.875535131
,nature,0.871974945
,adult,0.871745229
,young,0.870720863
,business,0.858352423
,portrait,0.84992981
,fun,0.849727392
,street,0.844263077
,family,0.835234046
,outdoors,0.828772128
,beautiful,0.824851394
,vacation,0.806760192
,sky,0.804883838
https://scontent.cdninstagram.com/t51.2885-15/e35/13167306_155152481553933_1613295860_n.jpg?ig_cache_key=MTI0Mzg5NDQyNDQzODE0MzM5Mw%3D%3D.2,coffee,0.999705672
,espresso,0.998083115
,cappuccino,0.997929454
,foam,0.997417808
,dawn,0.996165991
,breakfast,0.996095836
,hot,0.994176626
,cup,0.992681563
,caffeine,0.992655873
,drink,0.987390876
,saucer,0.986522079
,dark,0.977629304
,mug,0.977592409
,mocha,0.964084864
,sugar,0.960446477
,perfume,0.956527114
,milk,0.951320767
,no person,0.949960768
,isolated,0.945398331
,break,0.933604479
https://scontent.cdninstagram.com/t51.2885-15/e35/13151121_1571399803158242_651846989_n.jpg?ig_cache_key=MTI0NzAyMDI3MTk0MDQ5OTk0Nw%3D%3D.2,restaurant,0.965141475
,food,0.961689353
,table,0.955441236
,desktop,0.93300581
,drink,0.920735359
,meal,0.912398696
,dinner,0.905911922
,set,0.893514395
,party,0.879530311
,cooking,0.872198164
,indoors,0.858022213
,dining,0.849076152
,hot,0.844078422
,plate,0.833079636
,woman,0.813105762
,people,0.806969881
,bar,0.800808907
,tray,0.791464686
,lunch,0.790662885
,design,0.768542886
=======
https://scontent.cdninstagram.com/t51.2885-15/e35/13380962_1738208239802286_932413163_n.jpg?ig_cache_key=MTI2NTY5MDk0MzAyOTg2OTEzMA%3D%3D.2,man,0.993088960647583
,people,0.9848537445068359
,adult,0.9674875140190125
,portrait,0.9604939222335815
,group,0.9511474370956421
,indoors,0.9221156239509583
,group,0.8323988914489746
,education,0.8308178186416626
,stock,0.818483829498291
,employee,0.8071770071983337
,friendship,0.799963116645813
,woman,0.7927790880203247
,business,0.7905031442642212
,two,0.7897891998291016
,industry,0.7830719351768494
,looking,0.7744113206863403
,service,0.7735140323638916
,casual,0.7725955247879028
,bar,0.7640359401702881
,commerce,0.7638393044471741
https://scontent.cdninstagram.com/t51.2885-15/e35/13257022_1094353893970732_213554405_n.jpg?ig_cache_key=MTI1NTcwMzg3ODkyMTk3NjIzMg%3D%3D.2,food,0.9934671521186829
,seafood,0.9803828001022339
,cooking,0.9759988784790039
,crab,0.9721519947052002
,no person,0.9676774740219116
,hot,0.9673264026641846
,cuisine,0.9626138210296631
,healthy,0.9587877988815308
,meal,0.9566084742546082
,shellfish,0.9554471373558044
,delicious,0.9547648429870605
,restaurant,0.9539011716842651
,dinner,0.9530105590820312
,epicure,0.9504916667938232
,crustacean,0.9502115249633789
,lobster,0.9470338821411133
,nutrition,0.9335637092590332
,desktop,0.9334065318107605
,closeup,0.9290509223937988
,meat,0.9249089956283569
https://scontent.cdninstagram.com/l/t51.2885-15/e35/13525457_255565248157477_1941736225_n.jpg?ig_cache_key=MTI3ODg4NDA2NDkzMjc1NjA3OQ%3D%3D.2,funny,0.9918056726455688
,humor,0.9904189109802246
,cute,0.9801937341690063
,dog,0.9716465473175049
,animal,0.9711750745773315
,fun,0.9663657546043396
,portrait,0.9541240930557251
,little,0.9504613280296326
,pet,0.9439394474029541
,joke,0.9175650477409363
,isolated,0.9133419990539551
,puppy,0.9036365747451782
,friendship,0.9014344215393066
,young,0.8974610567092896
,looking,0.8949936032295227
,terrier,0.8838595151901245
,lid,0.8775670528411865
,vertical,0.870383620262146
,indoors,0.869140088558197
,sit,0.8644201755523682
https://scontent.cdninstagram.com/t51.2885-15/e35/13395156_1731619360441680_1341965090_n.jpg?ig_cache_key=MTI3ODA1MzkzNTg1MTYwMDUyNg%3D%3D.2,food,0.9954891204833984
,delicious,0.9732838869094849
,dinner,0.9721969962120056
,no person,0.9670683145523071
,healthy,0.9585152268409729
,meal,0.9570673704147339
,traditional,0.9530267715454102
,lunch,0.9450845122337341
,desktop,0.9435498714447021
,fish,0.9386472702026367
,seafood,0.9353224039077759
,plate,0.9344499707221985
,dish,0.9319918155670166
,epicure,0.9314301013946533
,cuisine,0.9240354299545288
,meat,0.9232035875320435
,cooking,0.9163072109222412
,tasty,0.9158530235290527
,health,0.9079861640930176
,hot,0.9049251675605774
https://scontent.cdninstagram.com/t51.2885-15/e35/13408894_135911590148696_528681320_n.jpg?ig_cache_key=MTI2NjUzNDkzODQ5NjgyNjA4NQ%3D%3D.2,dinner,0.9970289468765259
,lunch,0.995168149471283
,food,0.9940949082374573
,meal,0.9926755428314209
,plate,0.9901174902915955
,sauce,0.9833859205245972
,cuisine,0.9829967617988586
,dish,0.9820259213447571
,delicious,0.9795925617218018
,meat,0.9772485494613647
,restaurant,0.9745689034461975
,epicure,0.9717364311218262
,beef,0.964451789855957
,tasty,0.9618140459060669
,healthy,0.9591532349586487
,traditional,0.9588629007339478
,spaghetti,0.9577955007553101
,pasta,0.9485102891921997
,fork,0.9470913410186768
,closeup,0.94211345911026
https://scontent.cdninstagram.com/t51.2885-15/e35/13151343_728643483943916_165567038_n.jpg?ig_cache_key=MTI1MDQwNTY2NTU3NDg0NTAxNA%3D%3D.2,dinner,0.9880239963531494
,lunch,0.9829085469245911
,pasta,0.9802418351173401
,food,0.9752410054206848
,delicious,0.9664413332939148
,meal,0.9516622424125671
,cooking,0.9489457607269287
,no person,0.9438326358795166
,dish,0.942392110824585
,egg,0.9409377574920654
,cheese,0.9361958503723145
,plate,0.9293167591094971
,cuisine,0.9283181428909302
,sauce,0.9151281118392944
,noodles,0.9112370014190674
,nutrition,0.9088931083679199
,dining,0.9041465520858765
,traditional,0.9014567136764526
,fork,0.8889611959457397
,hot,0.8776079416275024
https://scontent.cdninstagram.com/t51.2885-15/e35/13269449_584618211709394_2123679390_n.jpg?ig_cache_key=MTI2NTAyMjQyMDI5NzI4NDQyNw%3D%3D.2,food,0.9984580278396606
,dinner,0.9964005351066589
,soup,0.994820237159729
,hot,0.9943683743476868
,meal,0.9918172359466553
,cuisine,0.9914323687553406
,dish,0.9910640716552734
,mushroom,0.9891858100891113
,meat,0.9882968664169312
,traditional,0.9869745373725891
,delicious,0.9854263663291931
,vegetable,0.9851148128509521
,lunch,0.9848835468292236
,bowl,0.9812141060829163
,sauce,0.9782576560974121
,cooking,0.9767788052558899
,pork,0.9766108989715576
,onion,0.974027156829834
,chili,0.9723883867263794
,beef,0.9723679423332214
https://scontent.cdninstagram.com/t51.2885-15/e35/13395156_1731619360441680_1341965090_n.jpg?ig_cache_key=MTI3ODA1MzkzNTg1MTYwMDUyNg%3D%3D.2,food,0.9954891204833984
,delicious,0.9732838869094849
,dinner,0.9721969962120056
,no person,0.9670683145523071
,healthy,0.9585152268409729
,meal,0.9570673704147339
,traditional,0.9530267715454102
,lunch,0.9450845122337341
,desktop,0.9435498714447021
,fish,0.9386472702026367
,seafood,0.9353224039077759
,plate,0.9344499707221985
,dish,0.9319918155670166
,epicure,0.9314301013946533
,cuisine,0.9240354299545288
,meat,0.9232035875320435
,cooking,0.9163072109222412
,tasty,0.9158530235290527
,health,0.9079861640930176
,hot,0.9049251675605774
https://scontent.cdninstagram.com/t51.2885-15/e35/12976398_229155127441719_521702215_n.jpg?ig_cache_key=MTIzNTI0NDY2NzkzOTQyMDcxNA%3D%3D.2,tree,0.9967402219772339
,park,0.9702727198600769
,landscape,0.9574302434921265
,people,0.9245752096176147
,nature,0.9243189096450806
,branch,0.9190857410430908
,road,0.9100303649902344
,guidance,0.8924389481544495
,season,0.8894577026367188
,environment,0.8886246681213379
,winter,0.8765653967857361
,snow,0.8586263656616211
,alone,0.8554342985153198
,walk,0.8538709282875061
,outdoors,0.8441879749298096
,street,0.8374695181846619
,travel,0.8370592594146729
,solo,0.836247444152832
,sight,0.8346664905548096
,man,0.8295652866363525
https://scontent.cdninstagram.com/t51.2885-15/e35/12959983_989883251107499_1316599829_n.jpg?ig_cache_key=MTIzNzY1OTU1NTIyNzg1OTc0MA%3D%3D.2,culture,0.9742730855941772
,traditional,0.9635009169578552
,roof,0.9632351398468018
,decoration,0.9555275440216064
,temple,0.9520547389984131
,desktop,0.946210503578186
,flower,0.9439219236373901
,building,0.9431020617485046
,old,0.9325839877128601
,wood,0.9307959079742432
,architecture,0.929122805595398
,design,0.9281190633773804
,house,0.9235543012619019
,classic,0.9214726686477661
,travel,0.9164235591888428
,style,0.9110103249549866
,art,0.8880718946456909
,tourism,0.8833193778991699
,vintage,0.861932635307312
,beautiful,0.8563355207443237
https://scontent.cdninstagram.com/t51.2885-15/e35/13269449_584618211709394_2123679390_n.jpg?ig_cache_key=MTI2NTAyMjQyMDI5NzI4NDQyNw%3D%3D.2,food,0.9984580278396606
,dinner,0.9964005351066589
,soup,0.994820237159729
,hot,0.9943683743476868
,meal,0.9918172359466553
,cuisine,0.9914323687553406
,dish,0.9910640716552734
,mushroom,0.9891858100891113
,meat,0.9882968664169312
,traditional,0.9869745373725891
,delicious,0.9854263663291931
,vegetable,0.9851148128509521
,lunch,0.9848835468292236
,bowl,0.9812141060829163
,sauce,0.9782576560974121
,cooking,0.9767788052558899
,pork,0.9766108989715576
,onion,0.974027156829834
,chili,0.9723883867263794
,beef,0.9723679423332214
https://scontent.cdninstagram.com/t51.2885-15/e35/12960067_107560772987086_821729521_n.jpg?ig_cache_key=MTIzODgyNjU0NjUwNDQ5NzI0Ng%3D%3D.2,tree,0.99384605884552
,people,0.9779032468795776
,traditional,0.9650641679763794
,kimono,0.9457231760025024
,couple,0.9456933736801147
,woman,0.9266754984855652
,man,0.9211419820785522
,wedding,0.9196525812149048
,flower,0.9190366864204407
,dress,0.9187024831771851
,family,0.9124958515167236
,travel,0.9074316620826721
,love,0.9055356979370117
,wood,0.902617335319519
,religion,0.8936911225318909
,cherry,0.881017804145813
,culture,0.8687741756439209
,two,0.8662987947463989
,landscape,0.8623564839363098
,ceremony,0.8538626432418823
https://scontent.cdninstagram.com/t51.2885-15/e35/12912300_262509327422780_558086923_n.jpg?ig_cache_key=MTIzMzc4MjY2ODc3MjYwNDc5MA%3D%3D.2,people,0.97530597448349
,business,0.9114879369735718
,industry,0.8995485305786133
,stock,0.8712067604064941
,technology,0.8671566247940063
,display,0.8567343950271606
,man,0.8428354263305664
,adult,0.839518666267395
,market,0.8107678294181824
,commerce,0.8084293603897095
,indoors,0.8064945340156555
,computer,0.8005449771881104
,television,0.7904369831085205
,city,0.7837948799133301
,portrait,0.7679288983345032
,service,0.7590863704681396
,woman,0.7489769458770752
,shopping,0.7365028858184814
,street,0.7303800582885742
,work,0.7272354364395142
https://scontent.cdninstagram.com/t51.2885-15/e35/13266914_248430725513988_1588258802_n.jpg?ig_cache_key=MTI1NjQ1ODA4MDUxNDMwODc4Mg%3D%3D.2,sunset,0.9919933080673218
,sky,0.9864095449447632
,landscape,0.9776721000671387
,nature,0.9771155118942261
,storm,0.9757999777793884
,dawn,0.9728866219520569
,silhouette,0.9713516235351562
,sun,0.970212459564209
,light,0.9561004638671875
,smoke,0.9482685327529907
,cloud,0.9466397166252136
,weather,0.9466278553009033
,tree,0.9447064995765686
,dark,0.9378094673156738
,evening,0.923143744468689
,flame,0.9128836989402771
,dusk,0.9070663452148438
,rain,0.8909395933151245
,dramatic,0.885939359664917
,fair weather,0.8819953203201294
https://scontent.cdninstagram.com/l/t51.2885-15/e35/13525457_255565248157477_1941736225_n.jpg?ig_cache_key=MTI3ODg4NDA2NDkzMjc1NjA3OQ%3D%3D.2,funny,0.9918056726455688
,humor,0.9904189109802246
,cute,0.9801937341690063
,dog,0.9716465473175049
,animal,0.9711750745773315
,fun,0.9663657546043396
,portrait,0.9541240930557251
,little,0.9504613280296326
,pet,0.9439394474029541
,joke,0.9175650477409363
,isolated,0.9133419990539551
,puppy,0.9036365747451782
,friendship,0.9014344215393066
,young,0.8974610567092896
,looking,0.8949936032295227
,terrier,0.8838595151901245
,lid,0.8775670528411865
,vertical,0.870383620262146
,indoors,0.869140088558197
,sit,0.8644201755523682
https://scontent.cdninstagram.com/t51.2885-15/e35/13402572_481768242025385_2086044332_n.jpg?ig_cache_key=MTI3NzU1MDMwODgxNjk0MzIzNw%3D%3D.2,food,0.9975365400314331
,meal,0.994393527507782
,dinner,0.9864890575408936
,cooking,0.9836082458496094
,plate,0.9800786375999451
,lunch,0.9776036739349365
,table,0.9765759706497192
,restaurant,0.9742295742034912
,meat,0.9662184119224548
,dish,0.9640101194381714
,cuisine,0.9547082781791687
,epicure,0.9419283866882324
,tasty,0.9404214024543762
,healthy,0.9349364638328552
,delicious,0.9282387495040894
,vegetable,0.9282214045524597
,desktop,0.9267382025718689
,fork,0.9068049192428589
,closeup,0.9038004875183105
,dining,0.8992658257484436
https://scontent.cdninstagram.com/t51.2885-15/e35/13402572_481768242025385_2086044332_n.jpg?ig_cache_key=MTI3NzU1MDMwODgxNjk0MzIzNw%3D%3D.2,food,0.9975365400314331
,meal,0.994393527507782
,dinner,0.9864890575408936
,cooking,0.9836082458496094
,plate,0.9800786375999451
,lunch,0.9776036739349365
,table,0.9765759706497192
,restaurant,0.9742295742034912
,meat,0.9662184119224548
,dish,0.9640101194381714
,cuisine,0.9547082781791687
,epicure,0.9419283866882324
,tasty,0.9404214024543762
,healthy,0.9349364638328552
,delicious,0.9282387495040894
,vegetable,0.9282214045524597
,desktop,0.9267382025718689
,fork,0.9068049192428589
,closeup,0.9038004875183105
,dining,0.8992658257484436
https://scontent.cdninstagram.com/t51.2885-15/e35/12960062_248880042133679_1640842292_n.jpg?ig_cache_key=MTIzNDYyNDUwODEwNzI1ODY4OA%3D%3D.2,give voice,0.9945299625396729
,text,0.9922968149185181
,cloud,0.9629195928573608
,conceptual,0.9507921934127808
,business,0.9391483664512634
,definition,0.9240787029266357
,desktop,0.8817871809005737
,education,0.8779188394546509
,management,0.8687304258346558
,success,0.841124415397644
,label,0.8377411365509033
,weight,0.8372130393981934
,behavior,0.8338316679000854
,tag,0.8261866569519043
,motivation,0.8250644207000732
,abstract,0.8157168626785278
,page,0.8132439851760864
,communication,0.8088371157646179
,vision,0.8050822019577026
,data,0.8037785291671753
https://scontent.cdninstagram.com/t51.2885-15/e35/12960062_248880042133679_1640842292_n.jpg?ig_cache_key=MTIzNDYyNDUwODEwNzI1ODY4OA%3D%3D.2,give voice,0.9945299625396729
,text,0.9922968149185181
,cloud,0.9629195928573608
,conceptual,0.9507921934127808
,business,0.9391483664512634
,definition,0.9240787029266357
,desktop,0.8817871809005737
,education,0.8779188394546509
,management,0.8687304258346558
,success,0.841124415397644
,label,0.8377411365509033
,weight,0.8372130393981934
,behavior,0.8338316679000854
,tag,0.8261866569519043
,motivation,0.8250644207000732
,abstract,0.8157168626785278
,page,0.8132439851760864
,communication,0.8088371157646179
,vision,0.8050822019577026
,data,0.8037785291671753
https://scontent.cdninstagram.com/t51.2885-15/e35/13398807_1718388125115614_1059547006_n.jpg?ig_cache_key=MTI2NjQ2OTI2MjE4ODk2ODIzMA%3D%3D.2,food,0.9956090450286865
,sesame,0.9919047355651855
,burger,0.9770179986953735
,refreshment,0.975455641746521
,delicious,0.9742347598075867
,meal,0.9719563126564026
,bun,0.9672662019729614
,bread,0.966160237789154
,unhealthy,0.954852819442749
,tasty,0.9513970017433167
,dinner,0.9368793964385986
,traditional,0.9219303131103516
,closeup,0.9217119216918945
,no person,0.9175292253494263
,nutrition,0.9136980772018433
,sandwich,0.9063634872436523
,cuisine,0.9053263068199158
,desktop,0.9052819013595581
,lunch,0.8966553211212158
,cake,0.8875216245651245
https://scontent.cdninstagram.com/t51.2885-15/e35/13398807_1718388125115614_1059547006_n.jpg?ig_cache_key=MTI2NjQ2OTI2MjE4ODk2ODIzMA%3D%3D.2,food,0.9956090450286865
,sesame,0.9919047355651855
,burger,0.9770179986953735
,refreshment,0.975455641746521
,delicious,0.9742347598075867
,meal,0.9719563126564026
,bun,0.9672662019729614
,bread,0.966160237789154
,unhealthy,0.954852819442749
,tasty,0.9513970017433167
,dinner,0.9368793964385986
,traditional,0.9219303131103516
,closeup,0.9217119216918945
,no person,0.9175292253494263
,nutrition,0.9136980772018433
,sandwich,0.9063634872436523
,cuisine,0.9053263068199158
,desktop,0.9052819013595581
,lunch,0.8966553211212158
,cake,0.8875216245651245
https://scontent.cdninstagram.com/t51.2885-15/e35/13269485_1024881887588045_905786662_n.jpg?ig_cache_key=MTI1NDIwMTU5MTA0MDkzMjYxMw%3D%3D.2,computer,0.9939453601837158
,screen,0.9897146224975586
,technology,0.9889488220214844
,monitor,0.986530601978302
,laptop,0.9834024906158447
,internet,0.9686170816421509
,display,0.9608358144760132
,business,0.9367964267730713
,keyboard,0.9097945690155029
,wireless,0.8787062168121338
,indoors,0.8774592280387878
,modern,0.8715669512748718
,electronics,0.8709691762924194
,coffee,0.8587160110473633
,data,0.8525259494781494
,no person,0.8509243726730347
,World Wide Web,0.8366143703460693
,office,0.8277348279953003
,system,0.8231274485588074
,broad,0.815984845161438
https://scontent.cdninstagram.com/t51.2885-15/e35/13381072_1788233571408027_1542366761_n.jpg?ig_cache_key=MTI3ODMwMzA5MTE4MjYzMTM4MQ%3D%3D.2,food,0.9944393038749695
,meal,0.9849187731742859
,lunch,0.980594277381897
,delicious,0.9799370169639587
,no person,0.9761021137237549
,dinner,0.975497841835022
,hot,0.9730299711227417
,meat,0.9724587798118591
,cuisine,0.9594550132751465
,traditional,0.9591480493545532
,tasty,0.9501726627349854
,beef,0.9487164616584778
,closeup,0.9441584348678589
,egg,0.9417396187782288
,epicure,0.9391971826553345
,refreshment,0.9328534603118896
,cooking,0.9309675693511963
,pepper,0.9206914901733398
,desktop,0.920401930809021
,plate,0.9201700091362
https://scontent.cdninstagram.com/t51.2885-15/e35/12976207_1640367649608088_1036332963_n.jpg?ig_cache_key=MTIzNTg3NjA1MzY4MzYzMjcxNg%3D%3D.2,church,0.9588319063186646
,religion,0.9515224695205688
,architecture,0.9470670819282532
,Gothic,0.9352282285690308
,old,0.9196032285690308
,cathedral,0.9070448279380798
,building,0.9068825244903564
,tower,0.9056676626205444
,religious,0.9034196138381958
,landmark,0.9003012776374817
,sky,0.9000251889228821
,no person,0.874184787273407
,winter,0.8686559200286865
,travel,0.8588830232620239
,Gothic,0.8386033773422241
,traditional,0.8366172313690186
,sight,0.8307704925537109
,monument,0.8272718191146851
,cross,0.8244703412055969
,culture,0.8125693798065186
https://scontent.cdninstagram.com/t51.2885-15/e35/12905257_707588879384248_2001160392_n.jpg?ig_cache_key=MTIzMzM1MTg0MDA4MzA0ODkzMg%3D%3D.2,food,0.9877996444702148
,market,0.9764837026596069
,traditional,0.9672097563743591
,sale,0.9660701751708984
,cooking,0.9535548686981201
,chicken,0.9513358473777771
,meat,0.9365133047103882
,cuisine,0.9298700094223022
,delicious,0.9232677221298218
,meal,0.9213269948959351
,culture,0.9122879505157471
,vegetable,0.9097036123275757
,dinner,0.9091781973838806
,booth,0.9057729840278625
,healthy,0.9031131863594055
,gold,0.8878450393676758
,hot,0.8801575899124146
,tasty,0.8731718063354492
,lunch,0.8696767687797546
,barbecue,0.8675312995910645
https://scontent.cdninstagram.com/t51.2885-15/e35/12976207_1640367649608088_1036332963_n.jpg?ig_cache_key=MTIzNTg3NjA1MzY4MzYzMjcxNg%3D%3D.2,church,0.9588319063186646
,religion,0.9515224695205688
,architecture,0.9470670819282532
,Gothic,0.9352282285690308
,old,0.9196032285690308
,cathedral,0.9070448279380798
,building,0.9068825244903564
,tower,0.9056676626205444
,religious,0.9034196138381958
,landmark,0.9003012776374817
,sky,0.9000251889228821
,no person,0.874184787273407
,winter,0.8686559200286865
,travel,0.8588830232620239
,Gothic,0.8386033773422241
,traditional,0.8366172313690186
,sight,0.8307704925537109
,monument,0.8272718191146851
,cross,0.8244703412055969
,culture,0.8125693798065186
https://scontent.cdninstagram.com/t51.2885-15/e35/13408894_135911590148696_528681320_n.jpg?ig_cache_key=MTI2NjUzNDkzODQ5NjgyNjA4NQ%3D%3D.2,dinner,0.9970289468765259
,lunch,0.995168149471283
,food,0.9940949082374573
,meal,0.9926755428314209
,plate,0.9901174902915955
,sauce,0.9833859205245972
,cuisine,0.9829967617988586
,dish,0.9820259213447571
,delicious,0.9795925617218018
,meat,0.9772485494613647
,restaurant,0.9745689034461975
,epicure,0.9717364311218262
,beef,0.964451789855957
,tasty,0.9618140459060669
,healthy,0.9591532349586487
,traditional,0.9588629007339478
,spaghetti,0.9577955007553101
,pasta,0.9485102891921997
,fork,0.9470913410186768
,closeup,0.94211345911026
https://scontent.cdninstagram.com/t51.2885-15/e35/13266914_248430725513988_1588258802_n.jpg?ig_cache_key=MTI1NjQ1ODA4MDUxNDMwODc4Mg%3D%3D.2,sunset,0.9919933080673218
,sky,0.9864095449447632
,landscape,0.9776721000671387
,nature,0.9771155118942261
,storm,0.9757999777793884
,dawn,0.9728866219520569
,silhouette,0.9713516235351562
,sun,0.970212459564209
,light,0.9561004638671875
,smoke,0.9482685327529907
,cloud,0.9466397166252136
,weather,0.9466278553009033
,tree,0.9447064995765686
,dark,0.9378094673156738
,evening,0.923143744468689
,flame,0.9128836989402771
,dusk,0.9070663452148438
,rain,0.8909395933151245
,dramatic,0.885939359664917
,fair weather,0.8819953203201294
https://scontent.cdninstagram.com/t51.2885-15/e35/13277513_311353072529276_1341907175_n.jpg?ig_cache_key=MTI2NTg0MzQwNTc4NzMzMTQ3Mg%3D%3D.2,food,0.9957739114761353
,vegetable,0.9827093482017517
,healthy,0.9820621013641357
,cooking,0.9671136140823364
,meal,0.9660075902938843
,cuisine,0.9629199504852295
,diet,0.9519402980804443
,dinner,0.9451830983161926
,closeup,0.9450169801712036
,desktop,0.9429827928543091
,dish,0.9409449100494385
,salad,0.9405190944671631
,pepper,0.9379822015762329
,nutrition,0.9377728700637817
,restaurant,0.9337811470031738
,hot,0.9162846803665161
,delicious,0.915397047996521
,epicure,0.9041010141372681
,tasty,0.8975725173950195
,traditional,0.8975481986999512
https://scontent.cdninstagram.com/t51.2885-15/e35/13257022_1094353893970732_213554405_n.jpg?ig_cache_key=MTI1NTcwMzg3ODkyMTk3NjIzMg%3D%3D.2,food,0.9934671521186829
,seafood,0.9803828001022339
,cooking,0.9759988784790039
,crab,0.9721519947052002
,no person,0.9676774740219116
,hot,0.9673264026641846
,cuisine,0.9626138210296631
,healthy,0.9587877988815308
,meal,0.9566084742546082
,shellfish,0.9554471373558044
,delicious,0.9547648429870605
,restaurant,0.9539011716842651
,dinner,0.9530105590820312
,epicure,0.9504916667938232
,crustacean,0.9502115249633789
,lobster,0.9470338821411133
,nutrition,0.9335637092590332
,desktop,0.9334065318107605
,closeup,0.9290509223937988
,meat,0.9249089956283569
https://scontent.cdninstagram.com/t51.2885-15/e35/13249880_244025389307781_1731468917_n.jpg?ig_cache_key=MTI2MDU2MTE2MzI3NjA4OTg3NA%3D%3D.2,food,0.998221218585968
,cooking,0.996351957321167
,dinner,0.9958387017250061
,meal,0.9936870336532593
,cuisine,0.9920614957809448
,lunch,0.9913980960845947
,pasta,0.9827733635902405
,delicious,0.9823839068412781
,dish,0.9817612171173096
,noodles,0.9809731245040894
,hot,0.9808579683303833
,traditional,0.9772728085517883
,tasty,0.9713987708091736
,restaurant,0.9692565202713013
,spaghetti,0.968445897102356
,meat,0.966363251209259
,epicure,0.9655167460441589
,pan,0.962519645690918
,healthy,0.9619870781898499
,nutrition,0.9594056606292725
https://scontent.cdninstagram.com/t51.2885-15/e35/13092259_1028972720515334_546573779_n.jpg?ig_cache_key=MTIzODM5MjI1MTA2MzMwMjM1MQ%3D%3D.2,dinner,0.9906351566314697
,food,0.9906319379806519
,lunch,0.9837726354598999
,meal,0.9769587516784668
,delicious,0.9730984568595886
,plate,0.957668662071228
,dish,0.9569281935691833
,vegetable,0.9509993195533752
,meat,0.9468307495117188
,no person,0.9463541507720947
,cuisine,0.9223951101303101
,healthy,0.9182639122009277
,sauce,0.9175081849098206
,nutrition,0.9148349761962891
,dining,0.9144396781921387
,beef,0.914067268371582
,epicure,0.9116148948669434
,cooking,0.9108879566192627
,pork,0.9051448106765747
,tomato,0.8883342742919922
https://scontent.cdninstagram.com/t51.2885-15/e35/13113773_1739214172958558_957415638_n.jpg?ig_cache_key=MTIzODk3MjIyMTUxMDc0NDI3NA%3D%3D.2,coffee,0.9982277154922485
,espresso,0.9937978386878967
,cup,0.9910455942153931
,saucer,0.9908506870269775
,drink,0.9896039366722107
,cappuccino,0.9893195033073425
,breakfast,0.9862387776374817
,mug,0.9789224863052368
,foam,0.9784597158432007
,hot,0.9775170087814331
,caffeine,0.9762776494026184
,dawn,0.9755210280418396
,perfume,0.9591004848480225
,milk,0.9520962238311768
,food,0.937920331954956
,desktop,0.9258092641830444
,refreshment,0.9227539300918579
,chocolate,0.9171265363693237
,sweet,0.908981204032898
,cream,0.9082026481628418
https://scontent.cdninstagram.com/t51.2885-15/e35/12912619_264808000525255_342019672_n.jpg?ig_cache_key=MTIyODY1NjA3MzQ4NTQxNjU3MQ%3D%3D.2,man,0.9867452383041382
,people,0.986484169960022
,indoors,0.9496008157730103
,adult,0.9366782903671265
,portrait,0.9222172498703003
,room,0.9119391441345215
,sit,0.8996487855911255
,business,0.8919988870620728
,mirror,0.8910505771636963
,woman,0.8880383968353271
,chair,0.8753687739372253
,two,0.858378529548645
,one,0.8435204029083252
,restaurant,0.8343558311462402
,television,0.8243162631988525
,seat,0.8236440420150757
,window,0.812267541885376
,table,0.7884044647216797
,couple,0.7875624895095825
,furniture,0.7731832265853882
https://scontent.cdninstagram.com/t51.2885-15/e35/12907181_473206596212190_982108504_n.jpg?ig_cache_key=MTIzMDI5MTI5MDczODQ4OTM2NQ%3D%3D.2,food,0.9960392117500305
,meal,0.9870736598968506
,dinner,0.9842108488082886
,cuisine,0.9790315628051758
,healthy,0.9732165932655334
,hot,0.9714168310165405
,restaurant,0.9706677198410034
,lunch,0.9691489934921265
,dish,0.9683294296264648
,delicious,0.9681916236877441
,epicure,0.9680966734886169
,vegetable,0.9676506519317627
,plate,0.9660428762435913
,tasty,0.9644343256950378
,traditional,0.9595015048980713
,desktop,0.953392505645752
,meat,0.9472528696060181
,refreshment,0.9448537826538086
,pepper,0.9391857385635376
,cooking,0.9335852861404419
https://scontent.cdninstagram.com/t51.2885-15/e35/13151343_728643483943916_165567038_n.jpg?ig_cache_key=MTI1MDQwNTY2NTU3NDg0NTAxNA%3D%3D.2,dinner,0.9880239963531494
,lunch,0.9829085469245911
,pasta,0.9802418351173401
,food,0.9752410054206848
,delicious,0.9664413332939148
,meal,0.9516622424125671
,cooking,0.9489457607269287
,no person,0.9438326358795166
,dish,0.942392110824585
,egg,0.9409377574920654
,cheese,0.9361958503723145
,plate,0.9293167591094971
,cuisine,0.9283181428909302
,sauce,0.9151281118392944
,noodles,0.9112370014190674
,nutrition,0.9088931083679199
,dining,0.9041465520858765
,traditional,0.9014567136764526
,fork,0.8889611959457397
,hot,0.8776079416275024
https://scontent.cdninstagram.com/t51.2885-15/e35/13256663_1737007773237510_1868149431_n.jpg?ig_cache_key=MTI1NTEzMzYxODc0OTY2NzU4NQ%3D%3D.2,man,0.9904345870018005
,bar,0.9901425838470459
,group,0.9880311489105225
,table,0.9828182458877563
,group,0.9785202741622925
,restaurant,0.9782238602638245
,people,0.9768123626708984
,four,0.9659295082092285
,recreation,0.9598696231842041
,friendship,0.9572298526763916
,woman,0.9563040733337402
,indoors,0.9559440612792969
,pub,0.9446973204612732
,leisure,0.9440566301345825
,beer,0.9434436559677124
,adult,0.9407842755317688
,fun,0.9177320003509521
,nightlife,0.9147872924804688
,enjoyment,0.9143072962760925
,club,0.9135009050369263
https://scontent.cdninstagram.com/t51.2885-15/e35/12976398_229155127441719_521702215_n.jpg?ig_cache_key=MTIzNTI0NDY2NzkzOTQyMDcxNA%3D%3D.2,tree,0.9967402219772339
,park,0.9702727198600769
,landscape,0.9574302434921265
,people,0.9245752096176147
,nature,0.9243189096450806
,branch,0.9190857410430908
,road,0.9100303649902344
,guidance,0.8924389481544495
,season,0.8894577026367188
,environment,0.8886246681213379
,winter,0.8765653967857361
,snow,0.8586263656616211
,alone,0.8554342985153198
,walk,0.8538709282875061
,outdoors,0.8441879749298096
,street,0.8374695181846619
,travel,0.8370592594146729
,solo,0.836247444152832
,sight,0.8346664905548096
,man,0.8295652866363525
https://scontent.cdninstagram.com/t51.2885-15/e35/12912619_264808000525255_342019672_n.jpg?ig_cache_key=MTIyODY1NjA3MzQ4NTQxNjU3MQ%3D%3D.2,man,0.9867452383041382
,people,0.986484169960022
,indoors,0.9496008157730103
,adult,0.9366782903671265
,portrait,0.9222172498703003
,room,0.9119391441345215
,sit,0.8996487855911255
,business,0.8919988870620728
,mirror,0.8910505771636963
,woman,0.8880383968353271
,chair,0.8753687739372253
,two,0.858378529548645
,one,0.8435204029083252
,restaurant,0.8343558311462402
,television,0.8243162631988525
,seat,0.8236440420150757
,window,0.812267541885376
,table,0.7884044647216797
,couple,0.7875624895095825
,furniture,0.7731832265853882
https://scontent.cdninstagram.com/t51.2885-15/e35/13391168_815830251852591_49908165_n.jpg?ig_cache_key=MTI2NTk2MjQ3MDgyODc2NzQ5MQ%3D%3D.2,food,0.9953324794769287
,dinner,0.9952669143676758
,meal,0.9912115335464478
,meat,0.9909598231315613
,lunch,0.9880619049072266
,dish,0.9861688613891602
,plate,0.9834818243980408
,vegetable,0.9813147783279419
,cuisine,0.9803695678710938
,parsley,0.9728536009788513
,sauce,0.9715863466262817
,healthy,0.9708589315414429
,epicure,0.9701241850852966
,delicious,0.9698680639266968
,chicken,0.9668437242507935
,tasty,0.9628939628601074
,beef,0.9512157440185547
,hot,0.9499515295028687
,pork,0.9490612745285034
,restaurant,0.9477301836013794
https://scontent.cdninstagram.com/t51.2885-15/e35/12960067_107560772987086_821729521_n.jpg?ig_cache_key=MTIzODgyNjU0NjUwNDQ5NzI0Ng%3D%3D.2,tree,0.99384605884552
,people,0.9779032468795776
,traditional,0.9650641679763794
,kimono,0.9457231760025024
,couple,0.9456933736801147
,woman,0.9266754984855652
,man,0.9211419820785522
,wedding,0.9196525812149048
,flower,0.9190366864204407
,dress,0.9187024831771851
,family,0.9124958515167236
,travel,0.9074316620826721
,love,0.9055356979370117
,wood,0.902617335319519
,religion,0.8936911225318909
,cherry,0.881017804145813
,culture,0.8687741756439209
,two,0.8662987947463989
,landscape,0.8623564839363098
,ceremony,0.8538626432418823
https://scontent.cdninstagram.com/t51.2885-15/e35/12905257_707588879384248_2001160392_n.jpg?ig_cache_key=MTIzMzM1MTg0MDA4MzA0ODkzMg%3D%3D.2,food,0.9877996444702148
,market,0.9764837026596069
,traditional,0.9672097563743591
,sale,0.9660701751708984
,cooking,0.9535548686981201
,chicken,0.9513358473777771
,meat,0.9365133047103882
,cuisine,0.9298700094223022
,delicious,0.9232677221298218
,meal,0.9213269948959351
,culture,0.9122879505157471
,vegetable,0.9097036123275757
,dinner,0.9091781973838806
,booth,0.9057729840278625
,healthy,0.9031131863594055
,gold,0.8878450393676758
,hot,0.8801575899124146
,tasty,0.8731718063354492
,lunch,0.8696767687797546
,barbecue,0.8675312995910645
https://scontent.cdninstagram.com/t51.2885-15/e35/13259590_965607340225861_1449257381_n.jpg?ig_cache_key=MTI1Nzg0MjM5MDg0NDY2ODYzMA%3D%3D.2,seafood,0.9954863786697388
,food,0.9927102327346802
,fish,0.9912792444229126
,shellfish,0.9831513166427612
,mussel,0.9816007614135742
,dinner,0.9799728393554688
,epicure,0.9797462821006775
,lemon,0.978230357170105
,healthy,0.9735774993896484
,restaurant,0.971439003944397
,delicious,0.9691472053527832
,meal,0.9657264947891235
,bivalve,0.965224027633667
,oyster,0.9629709124565125
,cuisine,0.9604821801185608
,plate,0.9584341049194336
,dish,0.951326847076416
,marine,0.9465341567993164
,luxury,0.9456273913383484
,lunch,0.9399890899658203
https://scontent.cdninstagram.com/t51.2885-15/e35/13092259_1028972720515334_546573779_n.jpg?ig_cache_key=MTIzODM5MjI1MTA2MzMwMjM1MQ%3D%3D.2,dinner,0.9906351566314697
,food,0.9906319379806519
,lunch,0.9837726354598999
,meal,0.9769587516784668
,delicious,0.9730984568595886
,plate,0.957668662071228
,dish,0.9569281935691833
,vegetable,0.9509993195533752
,meat,0.9468307495117188
,no person,0.9463541507720947
,cuisine,0.9223951101303101
,healthy,0.9182639122009277
,sauce,0.9175081849098206
,nutrition,0.9148349761962891
,dining,0.9144396781921387
,beef,0.914067268371582
,epicure,0.9116148948669434
,cooking,0.9108879566192627
,pork,0.9051448106765747
,tomato,0.8883342742919922
https://scontent.cdninstagram.com/t51.2885-15/e35/13277513_311353072529276_1341907175_n.jpg?ig_cache_key=MTI2NTg0MzQwNTc4NzMzMTQ3Mg%3D%3D.2,food,0.9957739114761353
,vegetable,0.9827093482017517
,healthy,0.9820621013641357
,cooking,0.9671136140823364
,meal,0.9660075902938843
,cuisine,0.9629199504852295
,diet,0.9519402980804443
,dinner,0.9451830983161926
,closeup,0.9450169801712036
,desktop,0.9429827928543091
,dish,0.9409449100494385
,salad,0.9405190944671631
,pepper,0.9379822015762329
,nutrition,0.9377728700637817
,restaurant,0.9337811470031738
,hot,0.9162846803665161
,delicious,0.915397047996521
,epicure,0.9041010141372681
,tasty,0.8975725173950195
,traditional,0.8975481986999512
https://scontent.cdninstagram.com/t51.2885-15/e35/13256663_1737007773237510_1868149431_n.jpg?ig_cache_key=MTI1NTEzMzYxODc0OTY2NzU4NQ%3D%3D.2,man,0.9904345870018005
,bar,0.9901425838470459
,group,0.9880311489105225
,table,0.9828182458877563
,group,0.9785202741622925
,restaurant,0.9782238602638245
,people,0.9768123626708984
,four,0.9659295082092285
,recreation,0.9598696231842041
,friendship,0.9572298526763916
,woman,0.9563040733337402
,indoors,0.9559440612792969
,pub,0.9446973204612732
,leisure,0.9440566301345825
,beer,0.9434436559677124
,adult,0.9407842755317688
,fun,0.9177320003509521
,nightlife,0.9147872924804688
,enjoyment,0.9143072962760925
,club,0.9135009050369263
https://scontent.cdninstagram.com/t51.2885-15/e35/13167454_709565439183060_1149828218_n.jpg?ig_cache_key=MTI1MDAxODM4OTg2NjkzNjg2NA%3D%3D.2,food,0.9937898516654968
,meal,0.9919794797897339
,dinner,0.9915546178817749
,lunch,0.986209511756897
,plate,0.9777306914329529
,meat,0.9766116738319397
,epicure,0.9690545201301575
,steak,0.9681712985038757
,delicious,0.9645127058029175
,vegetable,0.9624193906784058
,cuisine,0.9557267427444458
,fillet,0.9539072513580322
,dish,0.9513940811157227
,healthy,0.9454689621925354
,nutrition,0.9378092288970947
,closeup,0.9343888759613037
,no person,0.9311255812644958
,salad,0.9298176765441895
,tasty,0.9260770678520203
,restaurant,0.9219279885292053
https://scontent.cdninstagram.com/t51.2885-15/e35/13391168_815830251852591_49908165_n.jpg?ig_cache_key=MTI2NTk2MjQ3MDgyODc2NzQ5MQ%3D%3D.2,food,0.9953324794769287
,dinner,0.9952669143676758
,meal,0.9912115335464478
,meat,0.9909598231315613
,lunch,0.9880619049072266
,dish,0.9861688613891602
,plate,0.9834818243980408
,vegetable,0.9813147783279419
,cuisine,0.9803695678710938
,parsley,0.9728536009788513
,sauce,0.9715863466262817
,healthy,0.9708589315414429
,epicure,0.9701241850852966
,delicious,0.9698680639266968
,chicken,0.9668437242507935
,tasty,0.9628939628601074
,beef,0.9512157440185547
,hot,0.9499515295028687
,pork,0.9490612745285034
,restaurant,0.9477301836013794
https://scontent.cdninstagram.com/t51.2885-15/e35/12907181_473206596212190_982108504_n.jpg?ig_cache_key=MTIzMDI5MTI5MDczODQ4OTM2NQ%3D%3D.2,food,0.9960392117500305
,meal,0.9870736598968506
,dinner,0.9842108488082886
,cuisine,0.9790315628051758
,healthy,0.9732165932655334
,hot,0.9714168310165405
,restaurant,0.9706677198410034
,lunch,0.9691489934921265
,dish,0.9683294296264648
,delicious,0.9681916236877441
,epicure,0.9680966734886169
,vegetable,0.9676506519317627
,plate,0.9660428762435913
,tasty,0.9644343256950378
,traditional,0.9595015048980713
,desktop,0.953392505645752
,meat,0.9472528696060181
,refreshment,0.9448537826538086
,pepper,0.9391857385635376
,cooking,0.9335852861404419
https://scontent.cdninstagram.com/t51.2885-15/e35/13249880_244025389307781_1731468917_n.jpg?ig_cache_key=MTI2MDU2MTE2MzI3NjA4OTg3NA%3D%3D.2,food,0.998221218585968
,cooking,0.996351957321167
,dinner,0.9958387017250061
,meal,0.9936870336532593
,cuisine,0.9920614957809448
,lunch,0.9913980960845947
,pasta,0.9827733635902405
,delicious,0.9823839068412781
,dish,0.9817612171173096
,noodles,0.9809731245040894
,hot,0.9808579683303833
,traditional,0.9772728085517883
,tasty,0.9713987708091736
,restaurant,0.9692565202713013
,spaghetti,0.968445897102356
,meat,0.966363251209259
,epicure,0.9655167460441589
,pan,0.962519645690918
,healthy,0.9619870781898499
,nutrition,0.9594056606292725
https://scontent.cdninstagram.com/t51.2885-15/e35/12959983_989883251107499_1316599829_n.jpg?ig_cache_key=MTIzNzY1OTU1NTIyNzg1OTc0MA%3D%3D.2,culture,0.9742730855941772
,traditional,0.9635009169578552
,roof,0.9632351398468018
,decoration,0.9555275440216064
,temple,0.9520547389984131
,desktop,0.946210503578186
,flower,0.9439219236373901
,building,0.9431020617485046
,old,0.9325839877128601
,wood,0.9307959079742432
,architecture,0.929122805595398
,design,0.9281190633773804
,house,0.9235543012619019
,classic,0.9214726686477661
,travel,0.9164235591888428
,style,0.9110103249549866
,art,0.8880718946456909
,tourism,0.8833193778991699
,vintage,0.861932635307312
,beautiful,0.8563355207443237
https://scontent.cdninstagram.com/t51.2885-15/e35/13269485_1024881887588045_905786662_n.jpg?ig_cache_key=MTI1NDIwMTU5MTA0MDkzMjYxMw%3D%3D.2,computer,0.9939453601837158
,screen,0.9897146224975586
,technology,0.9889488220214844
,monitor,0.986530601978302
,laptop,0.9834024906158447
,internet,0.9686170816421509
,display,0.9608358144760132
,business,0.9367964267730713
,keyboard,0.9097945690155029
,wireless,0.8787062168121338
,indoors,0.8774592280387878
,modern,0.8715669512748718
,electronics,0.8709691762924194
,coffee,0.8587160110473633
,data,0.8525259494781494
,no person,0.8509243726730347
,World Wide Web,0.8366143703460693
,office,0.8277348279953003
,system,0.8231274485588074
,broad,0.815984845161438
https://scontent.cdninstagram.com/t51.2885-15/e35/13259590_965607340225861_1449257381_n.jpg?ig_cache_key=MTI1Nzg0MjM5MDg0NDY2ODYzMA%3D%3D.2,seafood,0.9954863786697388
,food,0.9927102327346802
,fish,0.9912792444229126
,shellfish,0.9831513166427612
,mussel,0.9816007614135742
,dinner,0.9799728393554688
,epicure,0.9797462821006775
,lemon,0.978230357170105
,healthy,0.9735774993896484
,restaurant,0.971439003944397
,delicious,0.9691472053527832
,meal,0.9657264947891235
,bivalve,0.965224027633667
,oyster,0.9629709124565125
,cuisine,0.9604821801185608
,plate,0.9584341049194336
,dish,0.951326847076416
,marine,0.9465341567993164
,luxury,0.9456273913383484
,lunch,0.9399890899658203
https://scontent.cdninstagram.com/t51.2885-15/e35/13380962_1738208239802286_932413163_n.jpg?ig_cache_key=MTI2NTY5MDk0MzAyOTg2OTEzMA%3D%3D.2,man,0.993088960647583
,people,0.9848537445068359
,adult,0.9674875140190125
,portrait,0.9604939222335815
,group,0.9511474370956421
,indoors,0.9221156239509583
,group,0.8323988914489746
,education,0.8308178186416626
,stock,0.818483829498291
,employee,0.8071770071983337
,friendship,0.799963116645813
,woman,0.7927790880203247
,business,0.7905031442642212
,two,0.7897891998291016
,industry,0.7830719351768494
,looking,0.7744113206863403
,service,0.7735140323638916
,casual,0.7725955247879028
,bar,0.7640359401702881
,commerce,0.7638393044471741
https://scontent.cdninstagram.com/t51.2885-15/e35/13298093_1093046594091640_185809698_n.jpg?ig_cache_key=MTI2NDE3NDc3MzA4NDcxNTM1Nw%3D%3D.2,dinner,0.9942381381988525
,meat,0.9920969605445862
,lunch,0.9828846454620361
,delicious,0.9783315658569336
,food,0.9781714677810669
,no person,0.9778610467910767
,beef,0.977454662322998
,juicy,0.9663251638412476
,cooking,0.94830322265625
,duck,0.9481116533279419
,meal,0.9436368942260742
,nutrition,0.9427823424339294
,dining,0.939948558807373
,pork,0.9360549449920654
,dish,0.9136346578598022
,chicken,0.9054244160652161
,hot,0.9053158164024353
,pepper,0.8999373912811279
,steak,0.8937574625015259
,roasting,0.8907812833786011
https://scontent.cdninstagram.com/t51.2885-15/e35/12976482_559617187542715_1923278962_n.jpg?ig_cache_key=MTIyODI4OTI2NjM0MTczODk2OA%3D%3D.2,people,0.9915308952331543
,portrait,0.9914897680282593
,eyeglasses,0.9748769998550415
,man,0.9664790630340576
,adult,0.965671181678772
,actor,0.9580347537994385
,business,0.9575905799865723
,one,0.9536362886428833
,office,0.9076137542724609
,smile,0.8967087864875793
,eyewear,0.8864974975585938
,young,0.8603720664978027
,monochrome,0.8559349179267883
,person,0.8263217210769653
,professional,0.8249565958976746
,fashion,0.8146253824234009
,guy,0.813379168510437
,tie,0.8103274703025818
,face,0.808246374130249
,model,0.8049551248550415
https://scontent.cdninstagram.com/t51.2885-15/e35/13437261_1202216513143839_1496676169_n.jpg?ig_cache_key=MTI3NzI5NDE0NjEyMDk0MDE3Ng%3D%3D.2,food,0.9922349452972412
,no person,0.9852254390716553
,dinner,0.983962893486023
,meal,0.971660315990448
,lunch,0.9713593125343323
,plate,0.9651159048080444
,dish,0.963129997253418
,cooking,0.9538282155990601
,delicious,0.9537307620048523
,meat,0.9234344959259033
,potato,0.9202309846878052
,nutrition,0.9101428985595703
,healthy,0.9089502096176147
,cuisine,0.9055435657501221
,baking,0.8966212272644043
,hot,0.8911653757095337
,vegetable,0.8902339339256287
,chicken,0.8887342214584351
,tasty,0.8851102590560913
,restaurant,0.8835296630859375
https://scontent.cdninstagram.com/t51.2885-15/e35/13298093_1093046594091640_185809698_n.jpg?ig_cache_key=MTI2NDE3NDc3MzA4NDcxNTM1Nw%3D%3D.2,dinner,0.9942381381988525
,meat,0.9920969605445862
,lunch,0.9828846454620361
,delicious,0.9783315658569336
,food,0.9781714677810669
,no person,0.9778610467910767
,beef,0.977454662322998
,juicy,0.9663251638412476
,cooking,0.94830322265625
,duck,0.9481116533279419
,meal,0.9436368942260742
,nutrition,0.9427823424339294
,dining,0.939948558807373
,pork,0.9360549449920654
,dish,0.9136346578598022
,chicken,0.9054244160652161
,hot,0.9053158164024353
,pepper,0.8999373912811279
,steak,0.8937574625015259
,roasting,0.8907812833786011
https://scontent.cdninstagram.com/t51.2885-15/e35/12965755_1072076689531259_317581163_n.jpg?ig_cache_key=MTIzMzg3MjE1NTkxNzc3NzMzNw%3D%3D.2,water,0.9919979572296143
,river,0.9815057516098022
,travel,0.9698177576065063
,nature,0.967914879322052
,architecture,0.961959719657898
,bridge,0.9613061547279358
,stone,0.9487051963806152
,old,0.9465513825416565
,landscape,0.9381017684936523
,sky,0.9357839822769165
,city,0.9302067756652832
,rain,0.9301481246948242
,tourism,0.9224271774291992
,wall,0.9219014644622803
,building,0.9208488464355469
,flood,0.9192707538604736
,summer,0.903249204158783
,dam,0.8999706506729126
,town,0.8971292972564697
,sight,0.8950030207633972
https://scontent.cdninstagram.com/t51.2885-15/e35/13381072_1788233571408027_1542366761_n.jpg?ig_cache_key=MTI3ODMwMzA5MTE4MjYzMTM4MQ%3D%3D.2,food,0.9944393038749695
,meal,0.9849187731742859
,lunch,0.980594277381897
,delicious,0.9799370169639587
,no person,0.9761021137237549
,dinner,0.975497841835022
,hot,0.9730299711227417
,meat,0.9724587798118591
,cuisine,0.9594550132751465
,traditional,0.9591480493545532
,tasty,0.9501726627349854
,beef,0.9487164616584778
,closeup,0.9441584348678589
,egg,0.9417396187782288
,epicure,0.9391971826553345
,refreshment,0.9328534603118896
,cooking,0.9309675693511963
,pepper,0.9206914901733398
,desktop,0.920401930809021
,plate,0.9201700091362
https://scontent.cdninstagram.com/t51.2885-15/e35/12912300_262509327422780_558086923_n.jpg?ig_cache_key=MTIzMzc4MjY2ODc3MjYwNDc5MA%3D%3D.2,people,0.97530597448349
,business,0.9114879369735718
,industry,0.8995485305786133
,stock,0.8712067604064941
,technology,0.8671566247940063
,display,0.8567343950271606
,man,0.8428354263305664
,adult,0.839518666267395
,market,0.8107678294181824
,commerce,0.8084293603897095
,indoors,0.8064945340156555
,computer,0.8005449771881104
,television,0.7904369831085205
,city,0.7837948799133301
,portrait,0.7679288983345032
,service,0.7590863704681396
,woman,0.7489769458770752
,shopping,0.7365028858184814
,street,0.7303800582885742
,work,0.7272354364395142
https://scontent.cdninstagram.com/t51.2885-15/e35/13092424_1100101290011997_1166385197_n.jpg?ig_cache_key=MTIzNjg1MTgxNDQxODcwODU0MQ%3D%3D.2,sweet,0.992760956287384
,fruit,0.9849160313606262
,berry,0.9830244779586792
,sugar,0.9762157201766968
,food,0.9747152924537659
,delicious,0.9741387963294983
,no person,0.9696164131164551
,cake,0.9649391174316406
,cream,0.9630976915359497
,strawberry,0.9620811939239502
,breakfast,0.961856484413147
,refreshment,0.9581367373466492
,pastry,0.9478038549423218
,chocolate,0.9471235275268555
,plate,0.932857871055603
,raspberry,0.911338210105896
,goody,0.9006049633026123
,decoration,0.8982078433036804
,closeup,0.8955389261245728
,gelatin,0.8939416408538818
https://scontent.cdninstagram.com/t51.2885-15/e35/13092424_1100101290011997_1166385197_n.jpg?ig_cache_key=MTIzNjg1MTgxNDQxODcwODU0MQ%3D%3D.2,sweet,0.992760956287384
,fruit,0.9849160313606262
,berry,0.9830244779586792
,sugar,0.9762157201766968
,food,0.9747152924537659
,delicious,0.9741387963294983
,no person,0.9696164131164551
,cake,0.9649391174316406
,cream,0.9630976915359497
,strawberry,0.9620811939239502
,breakfast,0.961856484413147
,refreshment,0.9581367373466492
,pastry,0.9478038549423218
,chocolate,0.9471235275268555
,plate,0.932857871055603
,raspberry,0.911338210105896
,goody,0.9006049633026123
,decoration,0.8982078433036804
,closeup,0.8955389261245728
,gelatin,0.8939416408538818
https://scontent.cdninstagram.com/t51.2885-15/e35/12965755_1072076689531259_317581163_n.jpg?ig_cache_key=MTIzMzg3MjE1NTkxNzc3NzMzNw%3D%3D.2,water,0.9919979572296143
,river,0.9815057516098022
,travel,0.9698177576065063
,nature,0.967914879322052
,architecture,0.961959719657898
,bridge,0.9613061547279358
,stone,0.9487051963806152
,old,0.9465513825416565
,landscape,0.9381017684936523
,sky,0.9357839822769165
,city,0.9302067756652832
,rain,0.9301481246948242
,tourism,0.9224271774291992
,wall,0.9219014644622803
,building,0.9208488464355469
,flood,0.9192707538604736
,summer,0.903249204158783
,dam,0.8999706506729126
,town,0.8971292972564697
,sight,0.8950030207633972
https://scontent.cdninstagram.com/t51.2885-15/e35/13398980_1038033086276011_1276775599_n.jpg?ig_cache_key=MTI3MDkxMzY0MTAzNzI2NTU0NQ%3D%3D.2,food,0.9959664344787598
,dinner,0.9945261478424072
,hot,0.9913498759269714
,cuisine,0.9884730577468872
,meat,0.9860770106315613
,meal,0.9845801591873169
,delicious,0.9820010662078857
,dish,0.9814342260360718
,lunch,0.9798445701599121
,cooking,0.9785482287406921
,vegetable,0.9771551489830017
,beef,0.976564884185791
,pork,0.9726907014846802
,noodles,0.9698886275291443
,traditional,0.9626795649528503
,healthy,0.9588863849639893
,epicure,0.9583092927932739
,tasty,0.9582085609436035
,plate,0.9532182216644287
,bowl,0.9528965950012207
https://scontent.cdninstagram.com/t51.2885-15/e35/13423662_968915766556356_1893531810_n.jpg?ig_cache_key=MTI2Nzk4NjYwODUyNzM0MjEwNA%3D%3D.2,tree,0.9956823587417603
,palm,0.9936825037002563
,beach,0.9722328186035156
,sun,0.9692373275756836
,summer,0.9681743383407593
,tropical,0.9664775133132935
,nature,0.9605752229690552
,guidance,0.9463522434234619
,no person,0.9447250366210938
,travel,0.9434227347373962
,vacation,0.9411988258361816
,hotel,0.9323674440383911
,shadow,0.9323552250862122
,fair weather,0.9261642694473267
,walk,0.9071795344352722
,landscape,0.9060806035995483
,island,0.9040042161941528
,dawn,0.8905181884765625
,wood,0.8851523399353027
,outdoors,0.8823360800743103
https://scontent.cdninstagram.com/t51.2885-15/e35/13116609_1254619857888970_1004673552_n.jpg?ig_cache_key=MTI0OTMwNTk2NzY4NjQxNzI1Ng%3D%3D.2,rice,0.9997578263282776
,dinner,0.9972425699234009
,food,0.9946403503417969
,lunch,0.992055356502533
,meal,0.9896214008331299
,meat,0.9893595576286316
,delicious,0.9795648455619812
,dish,0.9793331623077393
,traditional,0.9739300012588501
,beef,0.9706615209579468
,vegetable,0.9691873788833618
,cuisine,0.9671998023986816
,plate,0.9665529131889343
,dining,0.9597415924072266
,cooking,0.9589786529541016
,no person,0.9422292709350586
,epicure,0.941719651222229
,pepper,0.9407211542129517
,pork,0.9373679161071777
,nutrition,0.9337465763092041
https://scontent.cdninstagram.com/t51.2885-15/e35/13397530_151990225215251_708423847_n.jpg?ig_cache_key=MTI3MjkwOTk0NTU0NDIxMDg1MA%3D%3D.2,dinner,0.9944188594818115
,food,0.994418740272522
,lunch,0.991366982460022
,delicious,0.9905776977539062
,hot,0.9823201298713684
,cuisine,0.9819499254226685
,meal,0.9815424084663391
,dish,0.980983555316925
,plate,0.9757012724876404
,sauce,0.9733990430831909
,traditional,0.9716579914093018
,cooking,0.9702774286270142
,noodles,0.9633790254592896
,tasty,0.9625011682510376
,epicure,0.9604113698005676
,restaurant,0.954091489315033
,no person,0.9526572823524475
,meat,0.9526499509811401
,healthy,0.9514759182929993
,pork,0.9496731758117676
https://scontent.cdninstagram.com/t51.2885-15/e35/13391298_1630565473928421_1607026960_n.jpg?ig_cache_key=MTI3Njc2MjYwODcxMTA3MjE1OQ%3D%3D.2,slice,0.9823101162910461
,no person,0.9810752868652344
,food,0.9778265953063965
,meat,0.9776400327682495
,dinner,0.9582524299621582
,salmon,0.9514283537864685
,fish,0.9498891830444336
,sushi,0.9435953497886658
,traditional,0.9308907985687256
,slice,0.9300746321678162
,epicure,0.9276271462440491
,desktop,0.9263755083084106
,seafood,0.9247564077377319
,fillet,0.9246609210968018
,delicious,0.9210281372070312
,board,0.9208427667617798
,isolated,0.9195876121520996
,pork,0.9190067648887634
,wood,0.9149235486984253
,health,0.910897970199585
https://scontent.cdninstagram.com/t51.2885-15/e35/12976482_559617187542715_1923278962_n.jpg?ig_cache_key=MTIyODI4OTI2NjM0MTczODk2OA%3D%3D.2,people,0.9915308952331543
,portrait,0.9914897680282593
,eyeglasses,0.9748769998550415
,man,0.9664790630340576
,adult,0.965671181678772
,actor,0.9580347537994385
,business,0.9575905799865723
,one,0.9536362886428833
,office,0.9076137542724609
,smile,0.8967087864875793
,eyewear,0.8864974975585938
,young,0.8603720664978027
,monochrome,0.8559349179267883
,person,0.8263217210769653
,professional,0.8249565958976746
,fashion,0.8146253824234009
,guy,0.813379168510437
,tie,0.8103274703025818
,face,0.808246374130249
,model,0.8049551248550415
https://scontent.cdninstagram.com/t51.2885-15/e35/13150936_1541498486155155_1515352723_n.jpg?ig_cache_key=MTI0NTY5NjQzNzY4NTY4MDU5MQ%3D%3D.2,flora,0.9874547719955444
,leaf,0.9602876305580139
,hand,0.9566162824630737
,desktop,0.951042652130127
,nature,0.945418119430542
,bud,0.9440154433250427
,perfume,0.9350515604019165
,bouquet,0.928887128829956
,herb,0.913241982460022
,spice,0.9024754762649536
,flower,0.9007599353790283
,closeup,0.8698968887329102
,symbol,0.8698084354400635
,isolated,0.8663761615753174
,growth,0.8555101156234741
,fragrant,0.8499441146850586
,cluster,0.8468413949012756
,decoration,0.840147078037262
,aromatic,0.8379478454589844
,herbal,0.8344675302505493
https://scontent.cdninstagram.com/t51.2885-15/e35/13395039_194983847568849_1101148238_n.jpg?ig_cache_key=MTI2OTYxNzIwNDQ0NTkzNjYwMg%3D%3D.2,car,0.9993891716003418
,vehicle,0.9970752000808716
,transportation system,0.9901108741760254
,drive,0.9885286092758179
,street,0.9884909391403198
,road,0.9882059097290039
,people,0.9829490780830383
,traffic,0.9793928861618042
,city,0.9727616906166077
,competition,0.9650416374206543
,truck,0.9555280208587646
,wheel,0.9528440237045288
,driver,0.9492733478546143
,urban,0.9476901292800903
,show,0.9409911632537842
,tree,0.9333611726760864
,race,0.9293811321258545
,hurry,0.9250261187553406
,wheel,0.9196949601173401
,travel,0.9183906316757202
https://scontent.cdninstagram.com/t51.2885-15/e35/13397530_151990225215251_708423847_n.jpg?ig_cache_key=MTI3MjkwOTk0NTU0NDIxMDg1MA%3D%3D.2,dinner,0.9944188594818115
,food,0.994418740272522
,lunch,0.991366982460022
,delicious,0.9905776977539062
,hot,0.9823201298713684
,cuisine,0.9819499254226685
,meal,0.9815424084663391
,dish,0.980983555316925
,plate,0.9757012724876404
,sauce,0.9733990430831909
,traditional,0.9716579914093018
,cooking,0.9702774286270142
,noodles,0.9633790254592896
,tasty,0.9625011682510376
,epicure,0.9604113698005676
,restaurant,0.954091489315033
,no person,0.9526572823524475
,meat,0.9526499509811401
,healthy,0.9514759182929993
,pork,0.9496731758117676
https://scontent.cdninstagram.com/t51.2885-15/e35/13113773_1739214172958558_957415638_n.jpg?ig_cache_key=MTIzODk3MjIyMTUxMDc0NDI3NA%3D%3D.2,coffee,0.9982277154922485
,espresso,0.9937978386878967
,cup,0.9910455942153931
,saucer,0.9908506870269775
,drink,0.9896039366722107
,cappuccino,0.9893195033073425
,breakfast,0.9862387776374817
,mug,0.9789224863052368
,foam,0.9784597158432007
,hot,0.9775170087814331
,caffeine,0.9762776494026184
,dawn,0.9755210280418396
,perfume,0.9591004848480225
,milk,0.9520962238311768
,food,0.937920331954956
,desktop,0.9258092641830444
,refreshment,0.9227539300918579
,chocolate,0.9171265363693237
,sweet,0.908981204032898
,cream,0.9082026481628418
https://scontent.cdninstagram.com/t51.2885-15/e35/13183453_828177467288529_2017669709_n.jpg?ig_cache_key=MTI0MzkxMDg4NTY0Njg5MTg2OA%3D%3D.2,business,0.9909319877624512
,paper,0.9888043403625488
,money,0.9867879748344421
,finance,0.9793701171875
,money,0.9772258400917053
,wealth,0.9597795009613037
,dollar,0.9543579816818237
,financial,0.9504428505897522
,cash,0.9490401744842529
,sign,0.9318270683288574
,bank,0.9313046336174011
,economy,0.925257682800293
,success,0.9049018621444702
,hand,0.8998627662658691
,desktop,0.8988149166107178
,savings,0.8856977224349976
,symbol,0.882140040397644
,shopping,0.8679546117782593
,pay,0.8611384630203247
,commerce,0.8536949157714844
https://scontent.cdninstagram.com/t51.2885-15/e35/12976469_1566929753601628_646427230_n.jpg?ig_cache_key=MTIyNzg1MzU1NDU4NDc0NjQ2NA%3D%3D.2,bridge,0.9926422834396362
,city,0.9914199709892273
,travel,0.9856858253479004
,urban,0.9848557710647583
,transportation system,0.9831205606460571
,street,0.982387363910675
,architecture,0.9792348742485046
,light,0.9740594625473022
,train,0.9736946821212769
,train,0.9725964069366455
,building,0.9637597799301147
,tube,0.9610547423362732
,road,0.9603801965713501
,modern,0.9575345516204834
,sky,0.9536660313606262
,traffic,0.9535443782806396
,railway,0.9458781480789185
,evening,0.9204506874084473
,reflection,0.9168928861618042
,water,0.9128223657608032
https://scontent.cdninstagram.com/t51.2885-15/e35/13129266_1105943496135003_1337130734_n.jpg?ig_cache_key=MTIzOTgzMjI0MTMyNDUyMjExNw%3D%3D.2,rice,0.9972457885742188
,food,0.9930343627929688
,seafood,0.9926287531852722
,fish,0.9926204085350037
,sushi,0.9923917055130005
,healthy,0.9886429309844971
,salmon,0.987912654876709
,meal,0.9849367141723633
,dinner,0.9818911552429199
,seaweed,0.9800428152084351
,lunch,0.9719909429550171
,cuisine,0.9680354595184326
,traditional,0.9675242900848389
,diet,0.9566681385040283
,epicure,0.9540613889694214
,plate,0.9523657560348511
,delicious,0.9512163400650024
,no person,0.9412052631378174
,restaurant,0.9339408874511719
,shrimp,0.933415412902832
https://scontent.cdninstagram.com/t51.2885-15/e35/13402492_1763818530525259_791705890_n.jpg?ig_cache_key=MTI3MDMyMjk4MDYwMDc3MjkzMw%3D%3D.2,food,0.9962587356567383
,dinner,0.9915915727615356
,meal,0.9901105165481567
,cuisine,0.9864254593849182
,hot,0.9826370477676392
,dish,0.9792501926422119
,cooking,0.9791852831840515
,delicious,0.9784154891967773
,lunch,0.9779623746871948
,meat,0.9773250818252563
,vegetable,0.9763088226318359
,soup,0.9733200073242188
,epicure,0.9712692499160767
,healthy,0.9708139896392822
,restaurant,0.9636440277099609
,beef,0.9590184092521667
,traditional,0.9572447538375854
,bowl,0.9552106857299805
,tasty,0.9483104944229126
,plate,0.9470500349998474
https://scontent.cdninstagram.com/t51.2885-15/e35/13423662_968915766556356_1893531810_n.jpg?ig_cache_key=MTI2Nzk4NjYwODUyNzM0MjEwNA%3D%3D.2,tree,0.9956823587417603
,palm,0.9936825037002563
,beach,0.9722328186035156
,sun,0.9692373275756836
,summer,0.9681743383407593
,tropical,0.9664775133132935
,nature,0.9605752229690552
,guidance,0.9463522434234619
,no person,0.9447250366210938
,travel,0.9434227347373962
,vacation,0.9411988258361816
,hotel,0.9323674440383911
,shadow,0.9323552250862122
,fair weather,0.9261642694473267
,walk,0.9071795344352722
,landscape,0.9060806035995483
,island,0.9040042161941528
,dawn,0.8905181884765625
,wood,0.8851523399353027
,outdoors,0.8823360800743103
https://scontent.cdninstagram.com/t51.2885-15/e35/13151252_579702458865129_1201630280_n.jpg?ig_cache_key=MTI0OTk5Mjg1NDgzNTEzMzAyMw%3D%3D.2,food,0.9916409254074097
,delicious,0.9658510088920593
,no person,0.9637543559074402
,dinner,0.9623686075210571
,meal,0.9579370021820068
,lunch,0.9577617645263672
,traditional,0.9534677267074585
,cuisine,0.9436619877815247
,plate,0.9433956742286682
,refreshment,0.9319373369216919
,dish,0.9284692406654358
,vegetable,0.9189201593399048
,tasty,0.9109156131744385
,cooking,0.9077548384666443
,epicure,0.9037721157073975
,healthy,0.9035924673080444
,hot,0.902308464050293
,nutrition,0.8949574828147888
,closeup,0.8400146961212158
,gold,0.827720046043396
https://scontent.cdninstagram.com/t51.2885-15/e35/13320296_861215373983459_1155967276_n.jpg?ig_cache_key=MTI3MDI3ODM0Mjc3OTE3MzU0Mw%3D%3D.2,food,0.9949769973754883
,no person,0.9846788644790649
,delicious,0.9842029213905334
,dinner,0.9727720618247986
,lunch,0.9679710865020752
,refreshment,0.966701090335846
,bread,0.9656866788864136
,meal,0.964596152305603
,traditional,0.96235191822052
,tasty,0.955324649810791
,nutrition,0.9505584239959717
,homemade,0.9383717775344849
,epicure,0.9334309101104736
,healthy,0.9295825958251953
,crisp,0.9278443455696106
,plate,0.9257594347000122
,diet,0.9255707263946533
,cooking,0.9222198724746704
,appetizer,0.9154302477836609
,breakfast,0.9152541160583496
https://scontent.cdninstagram.com/t51.2885-15/e35/13102489_1726575437561190_1398991228_n.jpg?ig_cache_key=MTIzOTY3MTYzMDM5MzM0MjIyMQ%3D%3D.2,people,0.9830565452575684
,food,0.9653907418251038
,candle,0.9584412574768066
,restaurant,0.9578179121017456
,market,0.9497395157814026
,celebration,0.9489189386367798
,man,0.9377861022949219
,flame,0.929139256477356
,group,0.8951262831687927
,festival,0.8935777544975281
,traditional,0.8867868185043335
,religion,0.8811250925064087
,table,0.8780001401901245
,woman,0.8763852119445801
,culture,0.873995840549469
,party,0.8611751198768616
,meal,0.8555144667625427
,street,0.8302252292633057
,city,0.8265419602394104
,Christmas,0.8262543678283691
https://scontent.cdninstagram.com/t51.2885-15/e35/13402492_1763818530525259_791705890_n.jpg?ig_cache_key=MTI3MDMyMjk4MDYwMDc3MjkzMw%3D%3D.2,food,0.9962587356567383
,dinner,0.9915915727615356
,meal,0.9901105165481567
,cuisine,0.9864254593849182
,hot,0.9826370477676392
,dish,0.9792501926422119
,cooking,0.9791852831840515
,delicious,0.9784154891967773
,lunch,0.9779623746871948
,meat,0.9773250818252563
,vegetable,0.9763088226318359
,soup,0.9733200073242188
,epicure,0.9712692499160767
,healthy,0.9708139896392822
,restaurant,0.9636440277099609
,beef,0.9590184092521667
,traditional,0.9572447538375854
,bowl,0.9552106857299805
,tasty,0.9483104944229126
,plate,0.9470500349998474
https://scontent.cdninstagram.com/t51.2885-15/e35/13130038_647941635354001_1027041815_n.jpg?ig_cache_key=MTI0MTM0NjI2MjY1MzU2NTcyNA%3D%3D.2,people,0.9721295833587646
,man,0.9561948776245117
,woman,0.9504331350326538
,city,0.927370548248291
,landscape,0.9210952520370483
,girl,0.9020477533340454
,couple,0.8880556225776672
,travel,0.8755351305007935
,nature,0.8719749450683594
,adult,0.871745228767395
,young,0.8707208633422852
,business,0.8583524227142334
,portrait,0.8499298095703125
,fun,0.8497273921966553
,street,0.8442630767822266
,family,0.8352340459823608
,outdoors,0.8287721276283264
,beautiful,0.824851393699646
,vacation,0.8067601919174194
,sky,0.8048838376998901
https://scontent.cdninstagram.com/t51.2885-15/e35/13129266_1105943496135003_1337130734_n.jpg?ig_cache_key=MTIzOTgzMjI0MTMyNDUyMjExNw%3D%3D.2,rice,0.9972457885742188
,food,0.9930343627929688
,seafood,0.9926287531852722
,fish,0.9926204085350037
,sushi,0.9923917055130005
,healthy,0.9886429309844971
,salmon,0.987912654876709
,meal,0.9849367141723633
,dinner,0.9818911552429199
,seaweed,0.9800428152084351
,lunch,0.9719909429550171
,cuisine,0.9680354595184326
,traditional,0.9675242900848389
,diet,0.9566681385040283
,epicure,0.9540613889694214
,plate,0.9523657560348511
,delicious,0.9512163400650024
,no person,0.9412052631378174
,restaurant,0.9339408874511719
,shrimp,0.933415412902832
https://scontent.cdninstagram.com/t51.2885-15/e35/13102489_1726575437561190_1398991228_n.jpg?ig_cache_key=MTIzOTY3MTYzMDM5MzM0MjIyMQ%3D%3D.2,people,0.9830565452575684
,food,0.9653907418251038
,candle,0.9584412574768066
,restaurant,0.9578179121017456
,market,0.9497395157814026
,celebration,0.9489189386367798
,man,0.9377861022949219
,flame,0.929139256477356
,group,0.8951262831687927
,festival,0.8935777544975281
,traditional,0.8867868185043335
,religion,0.8811250925064087
,table,0.8780001401901245
,woman,0.8763852119445801
,culture,0.873995840549469
,party,0.8611751198768616
,meal,0.8555144667625427
,street,0.8302252292633057
,city,0.8265419602394104
,Christmas,0.8262543678283691
https://scontent.cdninstagram.com/t51.2885-15/e35/13398980_1038033086276011_1276775599_n.jpg?ig_cache_key=MTI3MDkxMzY0MTAzNzI2NTU0NQ%3D%3D.2,food,0.9959664344787598
,dinner,0.9945261478424072
,hot,0.9913498759269714
,cuisine,0.9884730577468872
,meat,0.9860770106315613
,meal,0.9845801591873169
,delicious,0.9820010662078857
,dish,0.9814342260360718
,lunch,0.9798445701599121
,cooking,0.9785482287406921
,vegetable,0.9771551489830017
,beef,0.976564884185791
,pork,0.9726907014846802
,noodles,0.9698886275291443
,traditional,0.9626795649528503
,healthy,0.9588863849639893
,epicure,0.9583092927932739
,tasty,0.9582085609436035
,plate,0.9532182216644287
,bowl,0.9528965950012207
https://scontent.cdninstagram.com/t51.2885-15/e35/13167306_155152481553933_1613295860_n.jpg?ig_cache_key=MTI0Mzg5NDQyNDQzODE0MzM5Mw%3D%3D.2,coffee,0.9997056722640991
,espresso,0.9980831146240234
,cappuccino,0.9979294538497925
,foam,0.9974178075790405
,dawn,0.9961659908294678
,breakfast,0.9960958361625671
,hot,0.9941766262054443
,cup,0.9926815629005432
,caffeine,0.992655873298645
,drink,0.9873908758163452
,saucer,0.9865220785140991
,dark,0.9776293039321899
,mug,0.977592408657074
,mocha,0.9640848636627197
,sugar,0.9604464769363403
,perfume,0.9565271139144897
,milk,0.9513207674026489
,no person,0.9499607682228088
,isolated,0.9453983306884766
,break,0.9336044788360596
https://scontent.cdninstagram.com/t51.2885-15/e35/13320296_861215373983459_1155967276_n.jpg?ig_cache_key=MTI3MDI3ODM0Mjc3OTE3MzU0Mw%3D%3D.2,food,0.9949769973754883
,no person,0.9846788644790649
,delicious,0.9842029213905334
,dinner,0.9727720618247986
,lunch,0.9679710865020752
,refreshment,0.966701090335846
,bread,0.9656866788864136
,meal,0.964596152305603
,traditional,0.96235191822052
,tasty,0.955324649810791
,nutrition,0.9505584239959717
,homemade,0.9383717775344849
,epicure,0.9334309101104736
,healthy,0.9295825958251953
,crisp,0.9278443455696106
,plate,0.9257594347000122
,diet,0.9255707263946533
,cooking,0.9222198724746704
,appetizer,0.9154302477836609
,breakfast,0.9152541160583496
https://scontent.cdninstagram.com/t51.2885-15/e35/13167306_155152481553933_1613295860_n.jpg?ig_cache_key=MTI0Mzg5NDQyNDQzODE0MzM5Mw%3D%3D.2,coffee,0.9997056722640991
,espresso,0.9980831146240234
,cappuccino,0.9979294538497925
,foam,0.9974178075790405
,dawn,0.9961659908294678
,breakfast,0.9960958361625671
,hot,0.9941766262054443
,cup,0.9926815629005432
,caffeine,0.992655873298645
,drink,0.9873908758163452
,saucer,0.9865220785140991
,dark,0.9776293039321899
,mug,0.977592408657074
,mocha,0.9640848636627197
,sugar,0.9604464769363403
,perfume,0.9565271139144897
,milk,0.9513207674026489
,no person,0.9499607682228088
,isolated,0.9453983306884766
,break,0.9336044788360596
https://scontent.cdninstagram.com/t51.2885-15/e35/12976469_1566929753601628_646427230_n.jpg?ig_cache_key=MTIyNzg1MzU1NDU4NDc0NjQ2NA%3D%3D.2,bridge,0.9926422834396362
,city,0.9914199709892273
,travel,0.9856858253479004
,urban,0.9848557710647583
,transportation system,0.9831205606460571
,street,0.982387363910675
,architecture,0.9792348742485046
,light,0.9740594625473022
,train,0.9736946821212769
,train,0.9725964069366455
,building,0.9637597799301147
,tube,0.9610547423362732
,road,0.9603801965713501
,modern,0.9575345516204834
,sky,0.9536660313606262
,traffic,0.9535443782806396
,railway,0.9458781480789185
,evening,0.9204506874084473
,reflection,0.9168928861618042
,water,0.9128223657608032
https://scontent.cdninstagram.com/t51.2885-15/e35/13167454_709565439183060_1149828218_n.jpg?ig_cache_key=MTI1MDAxODM4OTg2NjkzNjg2NA%3D%3D.2,food,0.9937898516654968
,meal,0.9919794797897339
,dinner,0.9915546178817749
,lunch,0.986209511756897
,plate,0.9777306914329529
,meat,0.9766116738319397
,epicure,0.9690545201301575
,steak,0.9681712985038757
,delicious,0.9645127058029175
,vegetable,0.9624193906784058
,cuisine,0.9557267427444458
,fillet,0.9539072513580322
,dish,0.9513940811157227
,healthy,0.9454689621925354
,nutrition,0.9378092288970947
,closeup,0.9343888759613037
,no person,0.9311255812644958
,salad,0.9298176765441895
,tasty,0.9260770678520203
,restaurant,0.9219279885292053
https://scontent.cdninstagram.com/t51.2885-15/e35/13391298_1630565473928421_1607026960_n.jpg?ig_cache_key=MTI3Njc2MjYwODcxMTA3MjE1OQ%3D%3D.2,slice,0.9823101162910461
,no person,0.9810752868652344
,food,0.9778265953063965
,meat,0.9776400327682495
,dinner,0.9582524299621582
,salmon,0.9514283537864685
,fish,0.9498891830444336
,sushi,0.9435953497886658
,traditional,0.9308907985687256
,slice,0.9300746321678162
,epicure,0.9276271462440491
,desktop,0.9263755083084106
,seafood,0.9247564077377319
,fillet,0.9246609210968018
,delicious,0.9210281372070312
,board,0.9208427667617798
,isolated,0.9195876121520996
,pork,0.9190067648887634
,wood,0.9149235486984253
,health,0.910897970199585
https://scontent.cdninstagram.com/t51.2885-15/e35/13151121_1571399803158242_651846989_n.jpg?ig_cache_key=MTI0NzAyMDI3MTk0MDQ5OTk0Nw%3D%3D.2,restaurant,0.9651414752006531
,food,0.9616893529891968
,table,0.9554412364959717
,desktop,0.9330058097839355
,drink,0.9207353591918945
,meal,0.9123986959457397
,dinner,0.905911922454834
,set,0.8935143947601318
,party,0.8795303106307983
,cooking,0.8721981644630432
,indoors,0.8580222129821777
,dining,0.8490761518478394
,hot,0.8440784215927124
,plate,0.8330796360969543
,woman,0.8131057620048523
,people,0.8069698810577393
,bar,0.8008089065551758
,tray,0.7914646863937378
,lunch,0.7906628847122192
,design,0.7685428857803345
https://scontent.cdninstagram.com/t51.2885-15/e35/13183453_828177467288529_2017669709_n.jpg?ig_cache_key=MTI0MzkxMDg4NTY0Njg5MTg2OA%3D%3D.2,business,0.9909319877624512
,paper,0.9888043403625488
,money,0.9867879748344421
,finance,0.9793701171875
,money,0.9772258400917053
,wealth,0.9597795009613037
,dollar,0.9543579816818237
,financial,0.9504428505897522
,cash,0.9490401744842529
,sign,0.9318270683288574
,bank,0.9313046336174011
,economy,0.925257682800293
,success,0.9049018621444702
,hand,0.8998627662658691
,desktop,0.8988149166107178
,savings,0.8856977224349976
,symbol,0.882140040397644
,shopping,0.8679546117782593
,pay,0.8611384630203247
,commerce,0.8536949157714844
https://scontent.cdninstagram.com/t51.2885-15/e35/13116609_1254619857888970_1004673552_n.jpg?ig_cache_key=MTI0OTMwNTk2NzY4NjQxNzI1Ng%3D%3D.2,rice,0.9997578263282776
,dinner,0.9972425699234009
,food,0.9946403503417969
,lunch,0.992055356502533
,meal,0.9896214008331299
,meat,0.9893595576286316
,delicious,0.9795648455619812
,dish,0.9793331623077393
,traditional,0.9739300012588501
,beef,0.9706615209579468
,vegetable,0.9691873788833618
,cuisine,0.9671998023986816
,plate,0.9665529131889343
,dining,0.9597415924072266
,cooking,0.9589786529541016
,no person,0.9422292709350586
,epicure,0.941719651222229
,pepper,0.9407211542129517
,pork,0.9373679161071777
,nutrition,0.9337465763092041
https://scontent.cdninstagram.com/t51.2885-15/e35/13151121_1571399803158242_651846989_n.jpg?ig_cache_key=MTI0NzAyMDI3MTk0MDQ5OTk0Nw%3D%3D.2,restaurant,0.9651414752006531
,food,0.9616893529891968
,table,0.9554412364959717
,desktop,0.9330058097839355
,drink,0.9207353591918945
,meal,0.9123986959457397
,dinner,0.905911922454834
,set,0.8935143947601318
,party,0.8795303106307983
,cooking,0.8721981644630432
,indoors,0.8580222129821777
,dining,0.8490761518478394
,hot,0.8440784215927124
,plate,0.8330796360969543
,woman,0.8131057620048523
,people,0.8069698810577393
,bar,0.8008089065551758
,tray,0.7914646863937378
,lunch,0.7906628847122192
,design,0.7685428857803345
https://scontent.cdninstagram.com/t51.2885-15/e35/13150936_1541498486155155_1515352723_n.jpg?ig_cache_key=MTI0NTY5NjQzNzY4NTY4MDU5MQ%3D%3D.2,flora,0.9874547719955444
,leaf,0.9602876305580139
,hand,0.9566162824630737
,desktop,0.951042652130127
,nature,0.945418119430542
,bud,0.9440154433250427
,perfume,0.9350515604019165
,bouquet,0.928887128829956
,herb,0.913241982460022
,spice,0.9024754762649536
,flower,0.9007599353790283
,closeup,0.8698968887329102
,symbol,0.8698084354400635
,isolated,0.8663761615753174
,growth,0.8555101156234741
,fragrant,0.8499441146850586
,cluster,0.8468413949012756
,decoration,0.840147078037262
,aromatic,0.8379478454589844
,herbal,0.8344675302505493
https://scontent.cdninstagram.com/t51.2885-15/e35/13437261_1202216513143839_1496676169_n.jpg?ig_cache_key=MTI3NzI5NDE0NjEyMDk0MDE3Ng%3D%3D.2,food,0.9922349452972412
,no person,0.9852254390716553
,dinner,0.983962893486023
,meal,0.971660315990448
,lunch,0.9713593125343323
,plate,0.9651159048080444
,dish,0.963129997253418
,cooking,0.9538282155990601
,delicious,0.9537307620048523
,meat,0.9234344959259033
,potato,0.9202309846878052
,nutrition,0.9101428985595703
,healthy,0.9089502096176147
,cuisine,0.9055435657501221
,baking,0.8966212272644043
,hot,0.8911653757095337
,vegetable,0.8902339339256287
,chicken,0.8887342214584351
,tasty,0.8851102590560913
,restaurant,0.8835296630859375
https://scontent.cdninstagram.com/t51.2885-15/e35/13130038_647941635354001_1027041815_n.jpg?ig_cache_key=MTI0MTM0NjI2MjY1MzU2NTcyNA%3D%3D.2,people,0.9721295833587646
,man,0.9561948776245117
,woman,0.9504331350326538
,city,0.927370548248291
,landscape,0.9210952520370483
,girl,0.9020477533340454
,couple,0.8880556225776672
,travel,0.8755351305007935
,nature,0.8719749450683594
,adult,0.871745228767395
,young,0.8707208633422852
,business,0.8583524227142334
,portrait,0.8499298095703125
,fun,0.8497273921966553
,street,0.8442630767822266
,family,0.8352340459823608
,outdoors,0.8287721276283264
,beautiful,0.824851393699646
,vacation,0.8067601919174194
,sky,0.8048838376998901
https://scontent.cdninstagram.com/t51.2885-15/e35/13395039_194983847568849_1101148238_n.jpg?ig_cache_key=MTI2OTYxNzIwNDQ0NTkzNjYwMg%3D%3D.2,car,0.9993891716003418
,vehicle,0.9970752000808716
,transportation system,0.9901108741760254
,drive,0.9885286092758179
,street,0.9884909391403198
,road,0.9882059097290039
,people,0.9829490780830383
,traffic,0.9793928861618042
,city,0.9727616906166077
,competition,0.9650416374206543
,truck,0.9555280208587646
,wheel,0.9528440237045288
,driver,0.9492733478546143
,urban,0.9476901292800903
,show,0.9409911632537842
,tree,0.9333611726760864
,race,0.9293811321258545
,hurry,0.9250261187553406
,wheel,0.9196949601173401
,travel,0.9183906316757202
https://scontent.cdninstagram.com/t51.2885-15/e35/13151252_579702458865129_1201630280_n.jpg?ig_cache_key=MTI0OTk5Mjg1NDgzNTEzMzAyMw%3D%3D.2,food,0.9916409254074097
,delicious,0.9658510088920593
,no person,0.9637543559074402
,dinner,0.9623686075210571
,meal,0.9579370021820068
,lunch,0.9577617645263672
,traditional,0.9534677267074585
,cuisine,0.9436619877815247
,plate,0.9433956742286682
,refreshment,0.9319373369216919
,dish,0.9284692406654358
,vegetable,0.9189201593399048
,tasty,0.9109156131744385
,cooking,0.9077548384666443
,epicure,0.9037721157073975
,healthy,0.9035924673080444
,hot,0.902308464050293
,nutrition,0.8949574828147888
,closeup,0.8400146961212158
,gold,0.827720046043396
>>>>>>> origin/dev-billy-neuro
