url,class,score
https://scontent.cdninstagram.com/t51.2885-15/s480x480/e35/12331944_1649304615347704_1904833157_n.jpg?ig_cache_key=MTEzMDA5MTgzOTAxODg1ODI5Mw%3D%3D.2,desktop,0.9636675119400024
,paper,0.9423748254776001
,text,0.9188332557678223
,illustration,0.8948569893836975
,abstract,0.8875306844711304
,design,0.8748916387557983
,card,0.867184042930603
,sign,0.8667325973510742
,pattern,0.8636739253997803
,love,0.8591328859329224
,graphic,0.8187532424926758
,decoration,0.8187251687049866
,art,0.814998984336853
,romantic,0.8081024885177612
,invitation,0.7975893020629883
,blank,0.7939797639846802
,color,0.7894861698150635
,business,0.7759107351303101
,vintage,0.74894779920578
,texture,0.7409626245498657
https://scontent.cdninstagram.com/t51.2885-15/e15/10731822_543231795839406_1918703254_n.jpg?ig_cache_key=MTE1NDQzNDMwODM4NDU4NTQ5Mw%3D%3D.2,food,0.9823727607727051
,woman,0.9551905989646912
,no person,0.9233385324478149
,people,0.9175827503204346
,drink,0.8929240703582764
,fruit,0.886227011680603
,glass,0.8791560530662537
,summer,0.8722874522209167
,traditional,0.8649936318397522
,indoors,0.8562057018280029
,cooking,0.8469704389572144
,one,0.8428357839584351
,delicious,0.8381363153457642
,wood,0.8321218490600586
,sweet,0.8288305997848511
,adult,0.818813681602478
,hand,0.8185768127441406
,homemade,0.8136427402496338
,restaurant,0.8125907182693481
,child,0.8104144930839539
https://scontent.cdninstagram.com/t51.2885-15/e15/12298889_480901985425355_1753944841_n.jpg?ig_cache_key=MTEzOTg5ODExNzIwNzQ1NTAzOA%3D%3D.2,blur,0.9918928146362305
,music,0.9897023439407349
,people,0.9841246604919434
,concert,0.9739242196083069
,musician,0.9717768430709839
,performance,0.9673741459846497
,woman,0.9603145122528076
,indoors,0.9560059309005737
,adult,0.9530336260795593
,one,0.9501886367797852
,action,0.9394762516021729
,stage,0.9344956874847412
,man,0.9323306679725647
,no person,0.9234911203384399
,light,0.9203493595123291
,pop,0.917927086353302
,food,0.9150094985961914
,singer,0.9036377668380737
,club,0.8967446684837341
,festival,0.8955137729644775
https://scontent.cdninstagram.com/t51.2885-15/e35/12237616_1524900227835150_1894287041_n.jpg?ig_cache_key=MTEyODMwNTY1Mjc3NjEzNzg5OQ%3D%3D.2,food,0.9972112774848938
,dinner,0.9905596971511841
,meal,0.9827579259872437
,meat,0.9826486110687256
,lunch,0.9782537817955017
,dish,0.9780644178390503
,vegetable,0.9753323197364807
,plate,0.9698794484138489
,grow,0.9668028354644775
,restaurant,0.9552299976348877
,no person,0.9549968242645264
,delicious,0.9497678279876709
,cuisine,0.9386881589889526
,beef,0.9305435419082642
,cooking,0.9163677096366882
,pork,0.9097741842269897
,nutrition,0.9007964134216309
,tomato,0.8964261412620544
,onion,0.8841344118118286
,parsley,0.8820894360542297
https://scontent.cdninstagram.com/t51.2885-15/s750x750/sh0.08/e35/13392697_1241492962535329_361678899_n.jpg?ig_cache_key=MTI3ODMyNTExMTA1MzE4NjA1Mg%3D%3D.2,meat,0.9938514232635498
,food,0.9938086271286011
,meal,0.9927194714546204
,dinner,0.9912951588630676
,dish,0.9853115081787109
,plate,0.9842568635940552
,lunch,0.9831509590148926
,chicken,0.9752711057662964
,cuisine,0.9742369651794434
,cooking,0.9735828042030334
,epicure,0.9706973433494568
,delicious,0.9690506458282471
,barbecue,0.9667786359786987
,healthy,0.9622283577919006
,tasty,0.9615275859832764
,pepper,0.9590393304824829
,hot,0.9582273960113525
,vegetable,0.9530186653137207
,potato,0.9491691589355469
,sauce,0.9400659203529358
https://scontent.cdninstagram.com/t51.2885-15/e35/13422892_840239619442179_396651643_n.jpg?ig_cache_key=MTI3NDYyOTA0MTU5NzAxOTMxNw%3D%3D.2,food,0.9969784021377563
,no person,0.9870765209197998
,bread,0.9824793338775635
,meat,0.9808452725410461
,lunch,0.9759377837181091
,meal,0.9758321046829224
,dinner,0.9744993448257446
,delicious,0.9705204963684082
,plate,0.9602981805801392
,refreshment,0.9362883567810059
,beef,0.9360029101371765
,dish,0.9273766279220581
,nutrition,0.9235060214996338
,healthy,0.9230556488037109
,epicure,0.920585036277771
,vegetable,0.9169827699661255
,cooking,0.9159246683120728
,tasty,0.9112045764923096
,pork,0.9105422496795654
,grow,0.9074491262435913
https://scontent.cdninstagram.com/t51.2885-15/e35/12547704_1531579240504687_1671228549_n.jpg?ig_cache_key=MTE2ODkzMjI3NDI2ODg5NDU4Ng%3D%3D.2,food,0.9889141321182251
,no person,0.9866763353347778
,dish,0.9463496208190918
,dinner,0.942720353603363
,meal,0.9422268271446228
,plate,0.9376752376556396
,cooking,0.9279555082321167
,grow,0.9224773645401001
,vegetable,0.9188340902328491
,lunch,0.9179514646530151
,delicious,0.9058473110198975
,still life,0.9055643081665039
,restaurant,0.8890608549118042
,seafood,0.8863760232925415
,flatware,0.8622627258300781
,cuisine,0.8617265224456787
,fish,0.8539450764656067
,epicure,0.8429320454597473
,meat,0.8419438600540161
,traditional,0.8392845988273621
https://scontent.cdninstagram.com/t51.2885-15/e35/917853_182537272104276_1830487014_n.jpg?ig_cache_key=MTE2OTY1OTY3ODQwMjYzOTQxMw%3D%3D.2,food,0.9974715709686279
,cheese,0.9821633100509644
,meal,0.9769231081008911
,no person,0.9758062362670898
,refreshment,0.9653542041778564
,delicious,0.9632046818733215
,homemade,0.9593900442123413
,lunch,0.9591131210327148
,slice,0.9566855430603027
,pizza,0.9561147689819336
,cooking,0.9473585486412048
,dinner,0.9457736015319824
,hot,0.9397818446159363
,baking,0.9391821622848511
,meat,0.9381442070007324
,dish,0.9351179599761963
,tasty,0.9295752644538879
,sweet,0.9285820722579956
,plate,0.927574634552002
,cuisine,0.926032543182373
https://scontent.cdninstagram.com/t51.2885-15/e35/10401855_1696503163928455_81311733_n.jpg?ig_cache_key=MTE1NzMwMjA3NDQ1NjI0MTM4Mg%3D%3D.2,woman,0.9932634234428406
,people,0.9820312261581421
,girl,0.9699637293815613
,bracelet,0.9643908739089966
,fashion,0.9602522253990173
,wear,0.9588034749031067
,hand,0.9441380500793457
,adult,0.9394106268882751
,one,0.9287265539169312
,gloves,0.9267239570617676
,jewelry,0.9172911643981934
,friendship,0.9075038433074951
,fun,0.8838578462600708
,young,0.8782539367675781
,child,0.8754253387451172
,unity,0.8650818467140198
,two,0.8521822094917297
,love,0.8493838310241699
,person,0.8321998119354248
,togetherness,0.831428050994873
https://scontent.cdninstagram.com/t51.2885-15/e35/12393973_1679183098989770_1959752107_n.jpg?ig_cache_key=MTE1MzUzMTM2NTc3NDk0NzkzNw%3D%3D.2,no person,0.9984315633773804
,Christmas,0.9905797243118286
,winter,0.9635207653045654
,celebration,0.9492757320404053
,wear,0.9466016292572021
,food,0.9464703798294067
,indoors,0.941412091255188
,still life,0.929267406463623
,interior design,0.9259342551231384
,chocolate,0.9234013557434082
,thread,0.9229555726051331
,love,0.9160667657852173
,luxury,0.9020268321037292
,candy,0.8978603482246399
,one,0.8871526718139648
,shining,0.8774065971374512
,romance,0.8599333763122559
,delicious,0.8568098545074463
,sugar,0.8549841046333313
,decoration,0.8404964208602905
https://scontent.cdninstagram.com/t51.2885-15/e35/12269857_990272201014530_104497178_n.jpg?ig_cache_key=MTEzNzM4MzE5NzIxOTg0NTk1MQ%3D%3D.2,jewelry,0.9949506521224976
,woman,0.9946466088294983
,fashion,0.9927685856819153
,wear,0.9916866421699524
,portrait,0.9865390658378601
,facial expression,0.9804357290267944
,necklace,0.9703869223594666
,veil,0.9674681425094604
,people,0.9608020782470703
,festival,0.9221424460411072
,scarf,0.9160088300704956
,girl,0.9084279537200928
,glamour,0.8776530623435974
,adult,0.8746707439422607
,happiness,0.8601821660995483
,model,0.8355691432952881
,love,0.8168432712554932
,fashionable,0.8090726137161255
,winter,0.8015996217727661
,eye,0.7984417080879211
https://scontent.cdninstagram.com/t51.2885-15/e35/13329092_1054650744610293_2067139426_n.jpg?ig_cache_key=MTI2MjkyMjg1OTEyMzY2ODE3Mw%3D%3D.2,food,0.9907673597335815
,no person,0.9841123223304749
,cooking,0.9702948927879333
,cuisine,0.9655330181121826
,dinner,0.9611955881118774
,delicious,0.958533525466919
,hot,0.9572426080703735
,epicure,0.9557061791419983
,meal,0.9537671804428101
,lunch,0.9489603042602539
,traditional,0.9453455209732056
,meat,0.9444883465766907
,plate,0.9295833110809326
,dish,0.9286674857139587
,healthy,0.916870653629303
,closeup,0.9105282425880432
,seafood,0.9082889556884766
,nutrition,0.9061715602874756
,spice,0.9057207107543945
,restaurant,0.9013806581497192
https://scontent.cdninstagram.com/t51.2885-15/e35/12353250_1220827794597945_814819181_n.jpg?ig_cache_key=MTEzNTk3NzA2MjcyNjIwMjU2MQ%3D%3D.2,chocolate,0.9952505826950073
,no person,0.9937448501586914
,sugar,0.9860862493515015
,sweet,0.9837191104888916
,food,0.9831676483154297
,delicious,0.9747962951660156
,homemade,0.9675732851028442
,cookie,0.9669779539108276
,baking,0.9666010141372681
,cake,0.9604873061180115
,candy,0.9582393765449524
,cup,0.9515905380249023
,breakfast,0.9459938406944275
,pastry,0.9456067085266113
,coffee,0.9396533370018005
,unhealthy,0.9283370971679688
,still life,0.9161926507949829
,slice,0.9144623875617981
,indulgence,0.9114653468132019
,bakery,0.9080876111984253
https://scontent.cdninstagram.com/t51.2885-15/sh0.08/e35/p750x750/13414180_1245332718810125_538910968_n.jpg?ig_cache_key=MTI3ODEyNzE5MzIwNTYwMTcyOQ%3D%3D.2,business,0.9437976479530334
,woman,0.936518132686615
,fashion,0.9298747777938843
,dark,0.9163997173309326
,chocolate,0.8984977006912231
,isolated,0.8797035217285156
,candy,0.8793536424636841
,application,0.8712416291236877
,desktop,0.8692770004272461
,broken,0.8573517203330994
,luxury,0.8485736846923828
,elegant,0.8482539057731628
,set,0.8315883874893188
,kind,0.8192542791366577
,addiction,0.7838500738143921
,no person,0.7810810804367065
,indoors,0.7768254280090332
,man,0.7756085991859436
,people,0.7734354734420776
,box,0.7320237159729004
https://scontent.cdninstagram.com/t51.2885-15/e35/12383597_1679678015633940_1536691603_n.jpg?ig_cache_key=MTE2OTY1ODgyMDY1OTA4Mjc4MA%3D%3D.2,food,0.9941211938858032
,bread,0.9892030954360962
,no person,0.9885411262512207
,lunch,0.9812114238739014
,delicious,0.9773284196853638
,dinner,0.964114248752594
,sandwich,0.9633525609970093
,refreshment,0.957122802734375
,meat,0.9536795020103455
,meal,0.9531620740890503
,bun,0.9505600929260254
,breakfast,0.945794939994812
,cheese,0.9414130449295044
,nutrition,0.938616931438446
,lettuce,0.919394850730896
,plate,0.917714536190033
,homemade,0.9140547513961792
,vegetable,0.9014601707458496
,table,0.897842288017273
,tomato,0.8950405120849609
https://scontent.cdninstagram.com/t51.2885-15/e35/12093394_799794586792917_2068693315_n.jpg?ig_cache_key=MTE3MTA0Njc0NDQ0MTA1ODY3Ng%3D%3D.2,agriculture,0.986309289932251
,nature,0.9851481914520264
,landscape,0.9818074703216553
,flora,0.9804186224937439
,field,0.9756720066070557
,farm,0.9672470688819885
,summer,0.965782880783081
,rural,0.9607371687889099
,growth,0.9572436809539795
,flower,0.9552874565124512
,garden,0.9461543560028076
,leaf,0.9416745901107788
,sight,0.9405479431152344
,plantation,0.9343831539154053
,scene,0.9321383237838745
,row,0.9270093441009521
,scenic,0.9219198226928711
,countryside,0.9196527004241943
,outdoors,0.915942907333374
,crop,0.9144959449768066
https://scontent.cdninstagram.com/t51.2885-15/e35/12357833_436415716566062_1015954891_n.jpg?ig_cache_key=MTE0OTM5NjM1OTU2MTQ0MjYzOA%3D%3D.2,no person,0.9937404990196228
,food,0.9930044412612915
,hot,0.9681382179260254
,dinner,0.965545654296875
,meal,0.9537081122398376
,delicious,0.9500925540924072
,plate,0.9497616291046143
,cooking,0.9478093385696411
,lunch,0.9472709894180298
,wood,0.9427198171615601
,dish,0.9305387735366821
,bread,0.9258603453636169
,traditional,0.909838080406189
,homemade,0.9050697088241577
,pepper,0.9035435318946838
,still life,0.8983579874038696
,knife,0.8909853100776672
,mouth-watering,0.8901280164718628
,breakfast,0.8894268870353699
,cuisine,0.8890874981880188
https://scontent.cdninstagram.com/t51.2885-15/e35/13408813_257969614567587_415038731_n.jpg?ig_cache_key=MTI3NDYzMDQ4MjA4ODc4NTEyNg%3D%3D.2,food,0.9895850419998169
,no person,0.9779446125030518
,knife,0.9660325050354004
,delicious,0.9645712375640869
,meat,0.959868311882019
,beef,0.9568830728530884
,dinner,0.9491093158721924
,plate,0.9478026628494263
,lunch,0.9458610415458679
,bread,0.9374268054962158
,slice,0.9309182167053223
,baking,0.9299736022949219
,breakfast,0.929786205291748
,homemade,0.9279365539550781
,meal,0.9251669645309448
,pork,0.9130333662033081
,grow,0.9032795429229736
,dish,0.8996249437332153
,cooking,0.8914486169815063
,traditional,0.8591947555541992
https://scontent.cdninstagram.com/t51.2885-15/e35/12534667_1712681515612270_944062985_n.jpg?ig_cache_key=MTE3MTA2NTc5NTE0NTk4ODAyMQ%3D%3D.2,transportation system,0.9990614056587219
,vehicle,0.9967410564422607
,car,0.9914286136627197
,travel,0.9900485277175903
,helicopter,0.983765721321106
,fast,0.983304500579834
,commuter,0.9758521914482117
,driver,0.971575915813446
,travel,0.9687374234199524
,airplane,0.9672625064849854
,traffic,0.9608521461486816
,drive,0.9605318307876587
,people,0.9573532938957214
,aircraft,0.9570308327674866
,street,0.9500587582588196
,bus,0.9459798336029053
,window,0.9402000904083252
,speed,0.9340872168540955
,auto racing,0.9333469867706299
,airport,0.9172400832176208
https://scontent.cdninstagram.com/t51.2885-15/e35/13402439_1627384184241064_350817248_n.jpg?ig_cache_key=MTI3OTA3OTgwODk1NzUxMDY4Mw%3D%3D.2,people,0.9882810711860657
,adult,0.9678492546081543
,travel,0.9514104127883911
,group,0.9509559869766235
,woman,0.9507150650024414
,recreation,0.9391682147979736
,two,0.9286864995956421
,outdoors,0.9210995435714722
,wear,0.8994225263595581
,city,0.8790323734283447
,man,0.8665373921394348
,leisure,0.8660405874252319
,water,0.8616989254951477
,vehicle,0.8487964272499084
,enjoyment,0.8480856418609619
,vacation,0.8360656499862671
,daylight,0.8348898887634277
,tourist,0.8327481746673584
,tourism,0.8304249048233032
,three,0.8268747329711914
https://scontent.cdninstagram.com/t51.2885-15/e35/13261043_1716415508629549_117354712_n.jpg?ig_cache_key=MTI1NDQ1ODc2MzY4NDQ0MzE1MQ%3D%3D.2,no person,0.9928117990493774
,food,0.9901069402694702
,fish,0.9838939905166626
,dinner,0.9832503199577332
,seafood,0.9758190512657166
,lunch,0.9725558757781982
,still life,0.9613512754440308
,delicious,0.9610539674758911
,grow,0.9601360559463501
,skewer,0.9495257139205933
,cooking,0.9442620277404785
,meal,0.9421850442886353
,chicken,0.9391307830810547
,vegetable,0.9280838370323181
,mouth-watering,0.9264649748802185
,dish,0.925629734992981
,plate,0.924095869064331
,dining,0.9222819209098816
,nutrition,0.8908389210700989
,meat,0.8898511528968811
https://scontent.cdninstagram.com/t51.2885-15/e35/13329176_459072487630315_1592562575_n.jpg?ig_cache_key=MTI2MjE5MjE4MDEyNzY5MTg4NQ%3D%3D.2,no person,0.9959256649017334
,food,0.9943054914474487
,bread,0.9797345399856567
,delicious,0.9773015975952148
,traditional,0.9532347917556763
,lunch,0.9465385675430298
,homemade,0.9438104629516602
,refreshment,0.9194260835647583
,grow,0.9079467058181763
,meal,0.9066799879074097
,baking,0.9065253734588623
,dinner,0.9023827314376831
,health,0.9016152024269104
,hot,0.8969293236732483
,dairy product,0.8913410902023315
,dough,0.8881028890609741
,wood,0.8873841166496277
,breakfast,0.8765509128570557
,nutrition,0.8686797022819519
,cooking,0.8664308786392212
https://scontent.cdninstagram.com/t51.2885-15/e35/13129215_1072855586086625_999004302_n.jpg?ig_cache_key=MTI0NDc0NzkwODc0NzE5NjA4Mg%3D%3D.2,food,0.9944608807563782
,dinner,0.9877647757530212
,meal,0.9876335859298706
,cuisine,0.9849789142608643
,plate,0.9837852716445923
,dish,0.9835584163665771
,meat,0.9831278324127197
,lunch,0.9809150695800781
,healthy,0.9638375043869019
,sauce,0.9631019830703735
,restaurant,0.9591763019561768
,cooking,0.9551832675933838
,pork,0.95476233959198
,vegetable,0.9515571594238281
,epicure,0.9511605501174927
,no person,0.9511556625366211
,traditional,0.9468612670898438
,tasty,0.9457844495773315
,delicious,0.9443598985671997
,hot,0.9359242916107178
https://scontent.cdninstagram.com/t51.2885-15/e35/13380926_290591014616793_322756399_n.jpg?ig_cache_key=MTI2NDIzNTI0MDEzNTE2MTUyOQ%3D%3D.2,water,0.9689241647720337
,no person,0.9541235566139221
,mammal,0.9511087536811829
,people,0.9433465600013733
,landscape,0.9413446187973022
,environment,0.9255383014678955
,calamity,0.9245269298553467
,tree,0.9100850224494934
,vehicle,0.8977034091949463
,grass,0.8899559378623962
,river,0.8874199986457825
,house,0.8833895921707153
,recreation,0.8802183866500854
,park,0.8789420127868652
,rain,0.874984860420227
,accident,0.8720415830612183
,outdoors,0.8673276901245117
,military,0.8663429021835327
,travel,0.8571211099624634
,building,0.8465266227722168
https://scontent.cdninstagram.com/t51.2885-15/e35/13108813_937815929672797_815052389_n.jpg?ig_cache_key=MTI1NDQ1NzgwNjgzNzg3MjYxMQ%3D%3D.2,dinner,0.9900853037834167
,lunch,0.9888647794723511
,food,0.9871915578842163
,chicken,0.9857975840568542
,no person,0.9804126024246216
,meal,0.9686523675918579
,meat,0.9613353610038757
,poultry,0.9519157409667969
,delicious,0.951444149017334
,dish,0.9474234580993652
,plate,0.9443048238754272
,fish,0.9310981631278992
,seafood,0.9260057210922241
,restaurant,0.9253072738647461
,sauce,0.9135470390319824
,cooking,0.912442684173584
,vegetable,0.9031896591186523
,french fries,0.9007740020751953
,nutrition,0.8956395983695984
,dining,0.8929413557052612
https://scontent.cdninstagram.com/t51.2885-15/e35/13256628_761305167304950_807932310_n.jpg?ig_cache_key=MTI1NDQ2MDAzOTYxNjg4NTgyNA%3D%3D.2,food,0.9981186389923096
,meat,0.9974069595336914
,no person,0.9933953881263733
,dinner,0.9920796155929565
,beef,0.9901518821716309
,meal,0.9841915965080261
,pork,0.9810426235198975
,grow,0.9806106090545654
,plate,0.9796496629714966
,dish,0.9758075475692749
,lunch,0.9755451679229736
,lamb,0.9672013521194458
,poultry,0.9664996862411499
,sauce,0.9661584496498108
,barbecue,0.9647954702377319
,delicious,0.962516188621521
,chicken,0.96095871925354
,restaurant,0.9608027935028076
,red meat,0.9557465314865112
,cooking,0.9398194551467896
https://scontent.cdninstagram.com/t51.2885-15/e35/13183350_172226499842114_408711128_n.jpg?ig_cache_key=MTI1NTIzMzgyNTE0NDQwMzYxMQ%3D%3D.2,pizza,0.9958559274673462
,cheese,0.9952424764633179
,food,0.9952166676521301
,crust,0.9900361895561218
,refreshment,0.9898258447647095
,meal,0.9894606471061707
,mozzarella,0.9840760827064514
,lunch,0.9783316850662231
,tasty,0.9778938293457031
,dough,0.9770207405090332
,pan,0.9759087562561035
,dinner,0.9703710079193115
,pie,0.9692870378494263
,cuisine,0.9663357138633728
,slice,0.9663126468658447
,delicious,0.9645764827728271
,homemade,0.9631774425506592
,sauce,0.9614216089248657
,restaurant,0.9490116834640503
,unhealthy,0.9476569294929504
https://scontent.cdninstagram.com/t51.2885-15/e35/13257111_292414111093075_1294535244_n.jpg?ig_cache_key=MTI2MjE4NTkxMjAwODgwMDIzNA%3D%3D.2,architecture,0.9957364201545715
,building,0.982877254486084
,travel,0.9808573722839355
,arch,0.9757022857666016
,no person,0.9751901030540466
,Gothic,0.9738245010375977
,old,0.9685467481613159
,ancient,0.9660595655441284
,gate,0.9443808794021606
,castle,0.9441980123519897
,church,0.9435081481933594
,wall,0.9261687994003296
,city,0.9218564629554749
,tourism,0.9218384027481079
,religion,0.9194210767745972
,outdoors,0.9085500240325928
,stone,0.9063805341720581
,street,0.8971244096755981
,monastery,0.897120475769043
,culture,0.8960390686988831
https://scontent.cdninstagram.com/t51.2885-15/e35/13256934_240284926348487_550025013_n.jpg?ig_cache_key=MTI1NTIzMjE0NjgyNzIxMjM2Mg%3D%3D.2,food,0.9917395710945129
,no person,0.9840582013130188
,dinner,0.9807457327842712
,lunch,0.9727703332901001
,chicken,0.9689711928367615
,vegetable,0.9647250771522522
,plate,0.9605900645256042
,meal,0.9575685858726501
,grow,0.9537028074264526
,dish,0.9446752071380615
,meat,0.941184937953949
,delicious,0.9318158626556396
,cooking,0.9223728179931641
,restaurant,0.9115370512008667
,poultry,0.9002717733383179
,deep,0.8895951509475708
,hot,0.8878127336502075
,nutrition,0.8876687288284302
,appetizer,0.878528356552124
,sauce,0.8623678684234619
https://scontent.cdninstagram.com/t51.2885-15/e35/12357366_1657090124542756_188490399_n.jpg?ig_cache_key=MTE0ODYxMzg1MzYzMTMxMzY2Ng%3D%3D.2,no person,0.9961857795715332
,food,0.9887505173683167
,tortilla,0.9691821336746216
,salsa,0.9591900706291199
,dinner,0.9462838172912598
,homemade,0.9406534433364868
,dip,0.9386316537857056
,vegetable,0.9381668567657471
,meal,0.9376546740531921
,lunch,0.9352797269821167
,hot,0.9279525279998779
,chili,0.9246988296508789
,cooking,0.9238777160644531
,delicious,0.9238656759262085
,meat,0.9236907958984375
,bowl,0.922515869140625
,sauce,0.919624924659729
,traditional,0.9143500328063965
,bread,0.9118659496307373
,appetizer,0.9108437299728394
https://scontent.cdninstagram.com/t51.2885-15/e35/1208349_211967155804532_331059180_n.jpg?ig_cache_key=MTE1MjA3MDQwNTQ3ODUxMTcyMQ%3D%3D.2,food,0.9968122243881226
,rice,0.9949445724487305
,dinner,0.9922223091125488
,lunch,0.986183226108551
,meat,0.9821231365203857
,delicious,0.981456458568573
,meal,0.9801937937736511
,dish,0.9749866127967834
,no person,0.9734311699867249
,plate,0.9680641889572144
,vegetable,0.9630539417266846
,cooking,0.9564625024795532
,pork,0.9488810300827026
,cuisine,0.9469775557518005
,epicure,0.9456458687782288
,restaurant,0.9452725648880005
,chicken,0.9452182054519653
,sauce,0.9340643882751465
,nutrition,0.9333065152168274
,dining,0.9143692255020142
https://scontent.cdninstagram.com/t51.2885-15/e15/12317907_578777198942064_1156288314_n.jpg?ig_cache_key=MTEzMjUwMjAwNjEyOTg0OTkzNw%3D%3D.2,food,0.989970862865448
,party,0.9858980774879456
,restaurant,0.9735409021377563
,cake,0.9731922149658203
,sweet,0.9728925228118896
,celebration,0.9646336436271667
,cooking,0.9604145288467407
,no person,0.9569544196128845
,traditional,0.9561555981636047
,drink,0.9498346447944641
,pan,0.949571967124939
,table,0.9494466781616211
,plate,0.94603431224823
,tea,0.943976879119873
,indoors,0.9315498471260071
,sugar,0.9206966757774353
,dining,0.9186131358146667
,chocolate,0.9112909436225891
,cup,0.9080361127853394
,chef,0.8930436372756958
https://scontent.cdninstagram.com/t51.2885-15/e35/13397701_1113923565334365_952468754_n.jpg?ig_cache_key=MTI3MzgxOTEyODg2ODIwNjE1Mw%3D%3D.2,drink,0.9926964044570923
,no person,0.9904545545578003
,glass,0.9877362251281738
,liquid,0.9766680598258972
,food,0.9732572436332703
,cocktail,0.9644968509674072
,cold,0.9636996984481812
,juice,0.9632503986358643
,fruit,0.950258731842041
,party,0.9350766539573669
,refreshment,0.9350666999816895
,alcohol,0.9348059296607971
,bar,0.9268831014633179
,tropical,0.9153995513916016
,lime,0.8977237343788147
,lemon,0.8955619931221008
,healthy,0.8951342105865479
,cool,0.8806756138801575
,sweet,0.8741618990898132
,wood,0.8579354286193848
