url,class,score
https://scontent-sit4-1.cdninstagram.com/t51.2885-15/s480x480/e35/13249961_1035204763239378_1844846469_n.jpg,illustration,0.971377432346344
,desktop,0.9683016538619995
,isolated,0.9588100910186768
,text,0.9518688917160034
,design,0.9463291168212891
,art,0.9406554698944092
,graphic,0.9378084540367126
,symbol,0.9360834360122681
,abstract,0.9239434003829956
,no person,0.9218038320541382
,business,0.90322345495224
,sign,0.8940768241882324
,science,0.8909199237823486
,decoration,0.88810133934021
,element,0.8736687898635864
,pattern,0.8700461983680725
,education,0.8684241771697998
,vector,0.851315975189209
,horizontal,0.8333263397216797
,people,0.8329900503158569
https://scontent-sit4-1.cdninstagram.com/t51.2885-15/s640x640/e15/13413441_883552908433301_730079819_n.jpg,portrait,0.9966850280761719
,people,0.9962437152862549
,man,0.986392617225647
,adult,0.9862351417541504
,one,0.9749894142150879
,light,0.9596251249313354
,offense,0.8959574699401855
,boy,0.891804575920105
,wear,0.867374837398529
,indoors,0.8498678803443909
,facial expression,0.8428164720535278
,concentration,0.8372589349746704
,music,0.8324095010757446
,model,0.8065046668052673
,musician,0.7913445234298706
,face,0.7892777323722839
,festival,0.7623956799507141
,leader,0.7618002891540527
,room,0.7476525902748108
,dark,0.7403653860092163
https://scontent-sit4-1.cdninstagram.com/t51.2885-15/s640x640/e15/13736024_919248514869433_1208813085_n.jpg,audience,0.9886612892150879
,music,0.9834184050559998
,celebration,0.976190447807312
,stadium,0.9751954078674316
,party,0.9739081859588623
,illuminated,0.9716871380805969
,concert,0.97110915184021
,festival,0.9677123427391052
,light,0.9583526253700256
,performance,0.9414361715316772
,blur,0.9406441450119019
,motion,0.9396472573280334
,rave,0.9360526204109192
,crowd,0.9307031631469727
,evening,0.9272961616516113
,soccer,0.9209415912628174
,energy,0.9204859733581543
,club,0.91916823387146
,flame,0.9098621606826782
,people,0.9093292355537415
https://scontent-sit4-1.cdninstagram.com/t51.2885-15/e35/13707266_1102520143173272_1721487917_n.jpg,food,0.9375067949295044
,round,0.931084394454956
,desktop,0.9272698163986206
,nature,0.9149528741836548
,space,0.9051806926727295
,sweet,0.8977535367012024
,no person,0.8908390998840332
,design,0.8885186314582825
,isolated,0.8845105171203613
,color,0.8829237222671509
,bright,0.8705433011054993
,drop,0.8599463701248169
,delicious,0.8536655306816101
,lollipop,0.8525124192237854
,summer,0.8511393070220947
,refreshment,0.8508554697036743
,sugar,0.8462775945663452
,illustration,0.8455626964569092
,round,0.8407726287841797
,art,0.8389180302619934
https://scontent-sit4-1.cdninstagram.com/t51.2885-15/e15/13266911_822706424530210_475465598_n.jpg,performance,0.9971646070480347
,stage,0.996772289276123
,music,0.9966616630554199
,musician,0.9962096214294434
,people,0.9950925707817078
,instrument,0.9943085312843323
,group,0.9940313100814819
,concert,0.9917266368865967
,singer,0.9828522205352783
,room,0.9677774906158447
,microphone,0.9644777774810791
,adult,0.9605693817138672
,stringed instrument,0.9535963535308838
,meeting,0.9530411958694458
,audience,0.9525143504142761
,guitar,0.9335261583328247
,man,0.9276351928710938
,leader,0.9274044036865234
,theater,0.9187663197517395
,festival,0.9135062098503113
https://scontent-sit4-1.cdninstagram.com/t51.2885-15/s640x640/sh0.08/e35/13267517_1138476126204094_2102113153_n.jpg,give voice,0.9858347177505493
,text,0.9560638666152954
,business,0.935760498046875
,conceptual,0.9243985414505005
,cloud,0.9172741174697876
,desktop,0.9041380882263184
,abstract,0.8832050561904907
,internet,0.8648799657821655
,education,0.8572759628295898
,typographic,0.8569159507751465
,management,0.8381977677345276
,design,0.8371731042861938
,tag,0.832952082157135
,data,0.8152379989624023
,vision,0.8101097345352173
,invention,0.7923753261566162
,research,0.7921983003616333
,strategy,0.7852793335914612
,online,0.780779242515564
,creativity,0.7691184878349304
https://scontent-sit4-1.cdninstagram.com/t51.2885-15/e35/13423558_299875623688712_1653979697_n.jpg,tropical,0.9946355819702148
,food,0.9906005859375
,fruit,0.9859243631362915
,nutrition,0.9842832088470459
,exotic,0.9814935922622681
,no person,0.979602575302124
,delicious,0.9792609214782715
,health,0.9695472121238708
,healthy,0.9539191722869873
,ingredients,0.9384973049163818
,nature,0.9341518878936768
,taste,0.9213295578956604
,leaf,0.9194538593292236
,summer,0.918038010597229
,tasty,0.91572105884552
,pineapple,0.9151322841644287
,juicy,0.9129637479782104
,sweet,0.9107191562652588
,pulp,0.9094971418380737
,diet,0.9019119739532471
https://scontent-sit4-1.cdninstagram.com/t51.2885-15/e35/13188182_473726022822452_989053498_n.jpg,no person,0.9935637712478638
,delicious,0.9721535444259644
,food,0.9716603755950928
,breakfast,0.9689264297485352
,dairy product,0.934831976890564
,egg,0.9339519143104553
,bread,0.9180471897125244
,traditional,0.9083870649337769
,homemade,0.9037379026412964
,wood,0.8917079567909241
,milk,0.8882490396499634
,nutrition,0.8879097700119019
,lunch,0.8872948288917542
,baking,0.8722087144851685
,butter,0.8646576404571533
,cooking,0.8613935708999634
,cream,0.8611671924591064
,ingredients,0.8533850908279419
,sugar,0.8397983312606812
,toast,0.8290903568267822
https://scontent-sit4-1.cdninstagram.com/t51.2885-15/e35/13267352_1739620982988038_1596259066_n.jpg,coffee,0.9990209341049194
,foam,0.9956250190734863
,cappuccino,0.9954639673233032
,espresso,0.9949780702590942
,cup,0.9948844909667969
,breakfast,0.9936686158180237
,caffeine,0.9932584762573242
,drink,0.9918304681777954
,dawn,0.9901677370071411
,hot,0.9841717481613159
,no person,0.9820376634597778
,mug,0.9775046110153198
,milk,0.9615429639816284
,cream,0.957945704460144
,saucer,0.9570422172546387
,mocha,0.9532443881034851
,break,0.9401555061340332
,spoon,0.9177253246307373
,perfume,0.9158101081848145
,porcelain,0.9146208167076111
https://scontent-sit4-1.cdninstagram.com/t51.2885-15/e35/13534484_1723629291250644_1893874533_n.jpg,no person,0.9892932176589966
,food,0.983860969543457
,lunch,0.97646164894104
,dinner,0.9705880284309387
,delicious,0.9702011346817017
,meal,0.9510293006896973
,nutrition,0.9422175288200378
,traditional,0.9343216419219971
,hot,0.9309220314025879
,homemade,0.9264815449714661
,cuisine,0.9209014177322388
,dish,0.920825719833374
,cooking,0.9149350523948669
,meat,0.9147551655769348
,rice,0.9055359363555908
,vegetable,0.901256263256073
,chicken,0.8990800380706787
,parsley,0.8970023393630981
,sauce,0.8908067941665649
,breakfast,0.8763728141784668
https://scontent-sit4-1.cdninstagram.com/t51.2885-15/e35/13188017_1730053837252880_690137747_n.jpg,card,0.9814965724945068
,desktop,0.9754260778427124
,illustration,0.9721111059188843
,vector,0.9491081833839417
,text,0.9483566284179688
,design,0.9430602788925171
,box,0.9206488132476807
,paper,0.9205052852630615
,label,0.9194787740707397
,greeting,0.9093504548072815
,bill,0.9061135053634644
,color,0.8995890617370605
,decoration,0.8955086469650269
,banner,0.8892847299575806
,container,0.8863797187805176
,celebration,0.8794870376586914
,blank,0.8755687475204468
,graphic,0.8744642734527588
,note,0.8683137893676758
,birthday,0.8573075532913208
https://scontent-sit4-1.cdninstagram.com/t51.2885-15/e35/13402685_1187951924570343_1862323895_n.jpg,salmon,0.9992777109146118
,fish,0.998583197593689
,sushi,0.9968469142913818
,seafood,0.9915875196456909
,sashimi,0.9893760681152344
,no person,0.989171028137207
,food,0.9703600406646729
,rice,0.9692781567573547
,slice,0.9595754742622375
,trout,0.9469808340072632
,dinner,0.9441531896591187
,ready,0.9434588551521301
,wasabi,0.9383476972579956
,tuna,0.9313021898269653
,fillet,0.9296140670776367
,meat,0.925682008266449
,steak,0.9201630353927612
,traditional,0.8972905874252319
,delicious,0.8846291899681091
,seaweed,0.8722556829452515
https://scontent-sit4-1.cdninstagram.com/t51.2885-15/e35/13525358_1768479530063042_1144367437_n.jpg,people,0.9901339411735535
,adult,0.9624481797218323
,woman,0.9560148119926453
,group,0.9278329610824585
,man,0.9261559247970581
,one,0.9260619878768921
,wear,0.9055360555648804
,two,0.898015558719635
,religion,0.8925619125366211
,veil,0.8857218027114868
,festival,0.8822566270828247
,indoors,0.881784975528717
,girl,0.8793961405754089
,sculpture,0.8758231401443481
,portrait,0.8733588457107544
,child,0.8618561029434204
,museum,0.8526569604873657
,commerce,0.8384279012680054
,competition,0.8346623182296753
,recreation,0.8244683742523193
https://scontent-sit4-1.cdninstagram.com/t51.2885-15/s640x640/e15/13549467_132716803822701_21234693_n.jpg,fish,0.9918780326843262
,goldfish,0.9797937870025635
,underwater,0.974163293838501
,no person,0.9501018524169922
,water,0.9495431780815125
,flame,0.9240281581878662
,invertebrate,0.9195489883422852
,aquarium,0.9175846576690674
,swimming,0.9157297611236572
,carp,0.9047377109527588
,sea,0.8597168922424316
,smoke,0.8427830934524536
,food,0.8412172198295593
,painting,0.8389559984207153
,action,0.8316705226898193
,daylight,0.8264193534851074
,tank,0.7997537851333618
,desktop,0.7860244512557983
,ocean,0.7707414627075195
,outdoors,0.7680641412734985
https://scontent-sit4-1.cdninstagram.com/t51.2885-15/e35/13707307_352617355069341_1307669379_n.jpg,cake,0.9971143007278442
,birthday,0.9932689666748047
,no person,0.9914108514785767
,sweet,0.9909162521362305
,chocolate,0.9873396754264832
,sugar,0.9847942590713501
,pastry,0.9839547872543335
,baking,0.9815155267715454
,food,0.9734541773796082
,bakery,0.9718945026397705
,sprinkles,0.9710649251937866
,cream,0.9710272550582886
,celebration,0.9707446098327637
,party,0.9684709310531616
,delicious,0.964963436126709
,candy,0.9562046527862549
,cookie,0.9423627257347107
,indulgence,0.9230915307998657
,goody,0.9209712743759155
,unhealthy,0.9206406474113464
https://scontent-sit4-1.cdninstagram.com/t51.2885-15/e35/13391341_1758491731059108_530512538_n.jpg,business,0.981921911239624
,text,0.9793508052825928
,symbol,0.9615533351898193
,illustration,0.9448139667510986
,image,0.9316296577453613
,desktop,0.9199910163879395
,alphabet,0.9057820439338684
,sign,0.9035167098045349
,design,0.897003173828125
,give voice,0.8942904472351074
,letter,0.8908507823944092
,internet,0.8844418525695801
,World Wide Web,0.8745739459991455
,data,0.8641579151153564
,typography,0.8603466749191284
,sign,0.8583301305770874
,graphic,0.8439991474151611
,type,0.8357715606689453
,service,0.8343103528022766
,communication,0.8241893649101257
https://scontent-sit4-1.cdninstagram.com/t51.2885-15/e35/13256854_723079307834222_1328098981_n.jpg,beer,0.9999816417694092
,foam,0.9981290102005005
,glass,0.9979382753372192
,drink,0.9976530075073242
,alcohol,0.9975531101226807
,brewery,0.9966681599617004
,lager,0.9961503744125366
,pub,0.9944325685501099
,cold,0.9943093061447144
,pint,0.9936420917510986
,bar,0.9904272556304932
,frosty,0.984826922416687
,party,0.9847860336303711
,beer glass,0.9825394749641418
,ale,0.9818540811538696
,refreshment,0.9713999032974243
,full,0.9701739549636841
,liquor,0.9646309614181519
,no person,0.9580155611038208
,gold,0.9570009708404541
https://scontent-sit4-1.cdninstagram.com/t51.2885-15/e35/13414246_1730428317231580_1620808646_n.jpg,food,0.9895753860473633
,one,0.9767817258834839
,people,0.9662584066390991
,indoors,0.9612969756126404
,woman,0.9518738389015198
,adult,0.9410144090652466
,no person,0.9362314343452454
,delicious,0.9267095327377319
,man,0.9143356084823608
,hand,0.883144736289978
,meal,0.8756071329116821
,nutrition,0.875260055065155
,lunch,0.8718006610870361
,beer,0.8708847165107727
,unhealthy,0.8672420382499695
,cooking,0.8614028692245483
,hungry,0.8611882925033569
,breakfast,0.8547143936157227
,wear,0.8531657457351685
,family,0.8530694246292114
https://scontent-sit4-1.cdninstagram.com/t51.2885-15/e35/13277681_103246340098611_1206876041_n.jpg,no person,0.9740311503410339
,sunset,0.9723821878433228
,water,0.9625775218009949
,dawn,0.958237886428833
,landscape,0.9305360317230225
,sun,0.9235429763793945
,smoke,0.9164749383926392
,light,0.9145934581756592
,evening,0.9142653942108154
,nature,0.9107205867767334
,travel,0.909014880657196
,outdoors,0.9029640555381775
,fog,0.9004207849502563
,sky,0.8823122382164001
,city,0.8818570971488953
,dusk,0.8785310983657837
,architecture,0.810987651348114
,fair weather,0.8070544004440308
,pollution,0.7924103736877441
,river,0.7922885417938232
https://scontent-sit4-1.cdninstagram.com/t51.2885-15/e35/13166945_1061206410618079_977851520_n.jpg,technology,0.9768924713134766
,display,0.9575612545013428
,electronics,0.9556439518928528
,no person,0.9457433223724365
,machinery,0.9425745010375977
,device,0.9385244846343994
,telephone,0.9227167963981628
,equipment,0.9198307394981384
,connection,0.9166232347488403
,telecommunication,0.912524938583374
,business,0.9060580730438232
,internet,0.9011040329933167
,control,0.8813741207122803
,power,0.8759671449661255
,switch,0.8572304248809814
,service,0.8412048816680908
,screen,0.8411375284194946
,plastic,0.840187668800354
,appliance,0.8287606239318848
,computer,0.8277246356010437
https://scontent-sit4-1.cdninstagram.com/t51.2885-15/e35/13743131_267751536936673_274114378_n.jpg,no person,0.978774905204773
,food,0.9624841213226318
,cream,0.9612478613853455
,delicious,0.9524871110916138
,sweet,0.9346002340316772
,traditional,0.9299372434616089
,creamy,0.9296371936798096
,milk,0.924997866153717
,plate,0.9172866940498352
,breakfast,0.9140099287033081
,cheese,0.9084953665733337
,cake,0.8977646827697754
,summer,0.8824741840362549
,pudding,0.8666120767593384
,homemade,0.8643321990966797
,fruit,0.8536166548728943
,sugar,0.8345982432365417
,epicure,0.8323202133178711
,custard,0.8207724690437317
,nutrition,0.8053727149963379
https://scontent-sit4-1.cdninstagram.com/t51.2885-15/e35/13380825_248521745516181_818807300_n.jpg,food,0.9969545602798462
,plate,0.9897269010543823
,meal,0.9854298830032349
,meat,0.9801574945449829
,delicious,0.9800918102264404
,no person,0.9773968458175659
,dinner,0.9771050810813904
,dish,0.9680907726287842
,sauce,0.9650579690933228
,epicure,0.9646275043487549
,restaurant,0.963670551776886
,beef,0.962217390537262
,vegetable,0.9592397809028625
,lunch,0.9558559656143188
,grow,0.9502551555633545
,steak,0.9419261813163757
,cuisine,0.9264956712722778
,slice,0.9239424467086792
,pepper,0.9211323857307434
,dining,0.9198563098907471
https://scontent-sit4-1.cdninstagram.com/t51.2885-15/e35/13707434_1218856401520036_1868503272_n.jpg,no person,0.9928956031799316
,dinner,0.9900505542755127
,lunch,0.9875757694244385
,food,0.9869706630706787
,delicious,0.9856626391410828
,nutrition,0.9638068675994873
,breakfast,0.9564930200576782
,meal,0.9558212757110596
,traditional,0.9499599933624268
,cooking,0.9411225318908691
,plate,0.9338289499282837
,fish,0.9324947595596313
,dining,0.9220306277275085
,seafood,0.9102558493614197
,homemade,0.9041804075241089
,vegetable,0.9033633470535278
,epicure,0.899238109588623
,leaf,0.8967546224594116
,salmon,0.8962106704711914
,health,0.8959836959838867
https://scontent-sit4-1.cdninstagram.com/t51.2885-15/e35/13285310_277972275885771_1182717544_n.jpg,people,0.9841793775558472
,exhibition,0.9705746173858643
,commerce,0.9464231729507446
,festival,0.9340947866439819
,city,0.9246471524238586
,child,0.9153772592544556
,shopping,0.915167510509491
,group,0.914283037185669
,vehicle,0.904511570930481
,motion,0.8988452553749084
,market,0.8871619701385498
,carnival,0.8866729736328125
,street,0.8753799200057983
,action,0.830113410949707
,adult,0.8268752098083496
,fun,0.8138643503189087
,wear,0.8129788637161255
,stock,0.8063337206840515
,man,0.7904893159866333
,scooter,0.7895349860191345
https://scontent-sit4-1.cdninstagram.com/t51.2885-15/e35/13408923_680329568772197_1356577285_n.jpg,no person,0.99772047996521
,baking,0.9943984746932983
,traditional,0.987533450126648
,delicious,0.9871505498886108
,dough,0.986078143119812
,bread,0.9841304421424866
,homemade,0.9824956655502319
,flour,0.9798867702484131
,breakfast,0.976542055606842
,food,0.9725805521011353
,sugar,0.9688829779624939
,nutrition,0.9548064470291138
,bakery,0.9506317973136902
,round,0.949170708656311
,doughnut,0.9413747191429138
,jam,0.937298059463501
,health,0.9367510080337524
,merchandise,0.9320687055587769
,wheat,0.9257126450538635
,pastry,0.914886474609375
https://scontent-sit4-1.cdninstagram.com/t51.2885-15/e35/13258845_286140841724066_750893864_n.jpg,train,0.9837398529052734
,athlete,0.9703378677368164
,exercise,0.9673513174057007
,people,0.9637117385864258
,weightlifting,0.9536955952644348
,sport,0.9513217210769653
,indoors,0.9455269575119019
,industry,0.9147249460220337
,portrait,0.9096410870552063
,strength,0.8946342468261719
,grinder,0.893335223197937
,club,0.8901768922805786
,model,0.8881583213806152
,barbell,0.8819069862365723
,weight,0.8797295093536377
,airport,0.8725994229316711
,business,0.872560977935791
,vehicle,0.8670400977134705
,competition,0.8496589660644531
,lift,0.8491798639297485
https://scontent-sit4-1.cdninstagram.com/t51.2885-15/e35/13150995_1062593703813854_1921309496_n.jpg,food,0.9936463832855225
,no person,0.9893893599510193
,delicious,0.9857574105262756
,sweet,0.9778902530670166
,chocolate,0.9756938219070435
,cream,0.9733114242553711
,plate,0.9574447870254517
,sugar,0.9550341367721558
,epicure,0.9428586959838867
,vanilla,0.9382012486457825
,refreshment,0.9346007108688354
,caramel,0.9326381087303162
,fruit,0.9317284822463989
,homemade,0.9152578115463257
,traditional,0.9094489812850952
,sauce,0.9089945554733276
,tasty,0.9017964601516724
,indulgence,0.9004680514335632
,restaurant,0.8977866768836975
,cake,0.8966626524925232
https://scontent-sit4-1.cdninstagram.com/t51.2885-15/e35/13394893_573933809450478_750198273_n.jpg,lettuce,0.9964182376861572
,lunch,0.9871984124183655
,fast,0.9855892658233643
,bread,0.9816454648971558
,no person,0.9801974296569824
,dinner,0.9785711765289307
,food,0.9782648086547852
,tomato,0.9769761562347412
,ketchup,0.9760710597038269
,delicious,0.9739943742752075
,beef,0.9667750597000122
,sandwich,0.9643587470054626
,burger,0.9588000774383545
,unhealthy,0.9558936357498169
,nutrition,0.9558700323104858
,french fries,0.9558160901069641
,cheese,0.9495020508766174
,meal,0.9425623416900635
,meat,0.9414633512496948
,vegetable,0.9404252767562866
https://scontent-sit4-1.cdninstagram.com/t51.2885-15/e35/13423684_1212191055458273_444370176_n.jpg,beer,0.9999996423721313
,foam,0.9999788403511047
,lager,0.999927818775177
,pint,0.9996520280838013
,brewery,0.9996474981307983
,ale,0.9994717836380005
,foamy,0.9980926513671875
,frosty,0.9978682994842529
,cold,0.9977840781211853
,pub,0.9977787137031555
,glass,0.9975382089614868
,drink,0.9968258142471313
,amber,0.9962848424911499
,alcohol,0.9953306913375854
,stout,0.9944216012954712
,outline,0.9941643476486206
,beer glass,0.9937745928764343
,liquor,0.9934511780738831
,bar,0.993140459060669
,full,0.9904089570045471
https://scontent-sit4-1.cdninstagram.com/t51.2885-15/e35/13721280_977474472365752_316531394_n.jpg,food,0.9886678457260132
,breakfast,0.9882845878601074
,coffee,0.9848183393478394
,dawn,0.9842727184295654
,no person,0.9667925238609314
,knife,0.9666438102722168
,milk,0.9655284881591797
,drink,0.9588072896003723
,plate,0.9554466009140015
,delicious,0.9521965980529785
,cup,0.9455143809318542
,hot,0.942558765411377
,cream,0.9402815103530884
,table,0.93265700340271
,traditional,0.9318099021911621
,lunch,0.9158242344856262
,meal,0.9105974435806274
,restaurant,0.9012912511825562
,wood,0.8983158469200134
,sweet,0.896969199180603
https://scontent-sit4-1.cdninstagram.com/t51.2885-15/e35/13102560_1321083094573810_1288178411_n.jpg,food,0.9976532459259033
,meal,0.987760066986084
,dinner,0.9871921539306641
,cuisine,0.9773141145706177
,restaurant,0.9769830703735352
,vegetable,0.9755446910858154
,plate,0.9735032320022583
,lunch,0.9712278842926025
,cooking,0.9674171209335327
,dish,0.966528058052063
,no person,0.960239589214325
,hot,0.9575039744377136
,delicious,0.9517296552658081
,epicure,0.9438426494598389
,tasty,0.9396786689758301
,diet,0.9338771104812622
,healthy,0.9332625865936279
,meat,0.9295951724052429
,traditional,0.9275469779968262
,sauce,0.9267479181289673
https://scontent-sit4-1.cdninstagram.com/t51.2885-15/e35/13381146_101462620279260_1688941253_n.jpg,food,0.9978377819061279
,meal,0.9856114387512207
,cuisine,0.9835086464881897
,dish,0.9786545634269714
,hot,0.9782116413116455
,vegetable,0.975936770439148
,plate,0.9740517139434814
,traditional,0.9715080261230469
,dinner,0.9708669185638428
,healthy,0.9699310660362244
,no person,0.9677929878234863
,bowl,0.966461181640625
,lunch,0.9643272161483765
,epicure,0.958480715751648
,cooking,0.9567604064941406
,restaurant,0.956239640712738
,table,0.9530433416366577
,delicious,0.9519342184066772
,rice,0.9507747888565063
,diet,0.945868194103241
https://scontent-sit4-1.cdninstagram.com/t51.2885-15/e35/13320210_1571628173131405_1768958003_n.jpg,food,0.9956005215644836
,dinner,0.9896341562271118
,meal,0.9889258742332458
,lunch,0.9843848943710327
,plate,0.9794673323631287
,delicious,0.9778485298156738
,vegetable,0.9769009351730347
,dish,0.9692569971084595
,salad,0.9624778032302856
,meat,0.9608442187309265
,epicure,0.9432946443557739
,restaurant,0.9391093254089355
,healthy,0.9369783997535706
,lettuce,0.9362009763717651
,sauce,0.9332151412963867
,no person,0.9295631051063538
,nutrition,0.9295156002044678
,cuisine,0.923410177230835
,diet,0.9142459630966187
,closeup,0.9120239019393921
https://scontent-sit4-1.cdninstagram.com/t51.2885-15/e35/13183553_613454378804851_547659183_n.jpg,food,0.9980396032333374
,pasta,0.9890018105506897
,dinner,0.988497257232666
,meal,0.9872350692749023
,vegetable,0.985888659954071
,delicious,0.98053377866745
,lunch,0.9797618389129639
,dish,0.9794642925262451
,restaurant,0.9767747521400452
,cuisine,0.9759052991867065
,no person,0.975394070148468
,noodles,0.9698410034179688
,cooking,0.9690077304840088
,plate,0.96640944480896
,spaghetti,0.9573483467102051
,sauce,0.9517450332641602
,traditional,0.9470398426055908
,epicure,0.9465205669403076
,healthy,0.9368124008178711
,tasty,0.935014009475708
https://scontent-sit4-1.cdninstagram.com/t51.2885-15/e35/13259080_1751044288515995_854925238_n.jpg,water,0.9944466352462769
,no person,0.9838089942932129
,lake,0.9805786609649658
,tree,0.9738353490829468
,river,0.9720113277435303
,reflection,0.9660025835037231
,fog,0.9448942542076111
,travel,0.9444686770439148
,landscape,0.9413187503814697
,outdoors,0.923438549041748
,mist,0.9112787246704102
,nature,0.9104143381118774
,city,0.8644571304321289
,park,0.8416149616241455
,dawn,0.8312984704971313
,summer,0.8256374001502991
,pool,0.8243762254714966
,fall,0.822829008102417
,bridge,0.8182665705680847
,rain,0.7900716662406921
https://scontent-sit4-1.cdninstagram.com/t51.2885-15/e35/13391318_644085059072665_931953690_n.jpg,food,0.9947512149810791
,sweet,0.9873948693275452
,refreshment,0.9726213216781616
,no person,0.9707171320915222
,delicious,0.9695907831192017
,traditional,0.9663189649581909
,gold,0.9611285328865051
,sugar,0.9574065804481506
,desktop,0.9570744633674622
,cake,0.9547725915908813
,fruit,0.9520567655563354
,homemade,0.9441545009613037
,candy,0.9437444806098938
,closeup,0.9382413625717163
,pastry,0.9361953735351562
,tasty,0.9316073656082153
,celebration,0.9290980696678162
,color,0.924598217010498
,decoration,0.9203692674636841
,meal,0.9197989106178284
https://scontent-sit4-1.cdninstagram.com/t51.2885-15/e35/13266693_1201647179892448_263889397_n.jpg,food,0.9974284172058105
,meal,0.9756036400794983
,plate,0.9619815349578857
,bowl,0.9609705209732056
,fruit,0.9589700102806091
,vegetable,0.9515906572341919
,refreshment,0.9486072063446045
,tomato,0.9371618628501892
,sweet,0.9306650161743164
,restaurant,0.9288146495819092
,freshness,0.9247841835021973
,yogurt,0.9229502081871033
,epicure,0.9199340343475342
,dish,0.9139244556427002
,meat,0.9066274166107178
,lunch,0.9041382074356079
,dinner,0.9022589921951294
,healthy,0.887527585029602
,tasty,0.8851462602615356
,table,0.8837407231330872
https://scontent-sit4-1.cdninstagram.com/t51.2885-15/e35/13380991_1548281108815131_1858834163_n.jpg,water,0.9967196583747864
,beach,0.9875463247299194
,travel,0.9829310178756714
,no person,0.9804406762123108
,sea,0.9694130420684814
,sand,0.968024492263794
,ocean,0.9625508785247803
,summer,0.9602030515670776
,nature,0.9540890455245972
,sky,0.9518892765045166
,seashore,0.9439696073532104
,sun,0.9379094839096069
,seascape,0.9349302649497986
,island,0.926762580871582
,tropical,0.9216518402099609
,landscape,0.9196996688842773
,fair weather,0.9172629117965698
,outdoors,0.901961088180542
,sunset,0.8710748553276062
,relaxation,0.865844190120697
https://scontent-sit4-1.cdninstagram.com/t51.2885-15/e35/13741037_255099531549336_38742700_n.jpg,illustration,0.972142219543457
,no person,0.9654806852340698
,indoors,0.9399254322052002
,business,0.9244564771652222
,group,0.9232835173606873
,people,0.9210439920425415
,desktop,0.9116708040237427
,design,0.8999100923538208
,graphic,0.8917601108551025
,abstract,0.8901418447494507
,furniture,0.870659351348877
,art,0.862016499042511
,chair,0.8598655462265015
,man,0.8576233983039856
,seat,0.8539594411849976
,table,0.8360007405281067
,vector,0.8337621688842773
,travel,0.8305150866508484
,modern,0.8274967670440674
,color,0.8273972272872925
https://scontent-sit4-1.cdninstagram.com/t51.2885-15/e35/13534225_298232630513948_1998941874_n.jpg,skewer,0.9963454008102417
,dinner,0.9929251670837402
,food,0.9927012920379639
,kebab,0.9887160062789917
,meal,0.9871606826782227
,chicken,0.9836000204086304
,lunch,0.9815787076950073
,delicious,0.980277419090271
,restaurant,0.9796617031097412
,barbecue,0.9788776636123657
,vegetable,0.9787369966506958
,cuisine,0.9776774644851685
,meat,0.9774081707000732
,cooking,0.9767907857894897
,dish,0.975985050201416
,no person,0.9687336683273315
,hot,0.9660556316375732
,epicure,0.9633527994155884
,tasty,0.9604873657226562
,traditional,0.9600976705551147
https://scontent-sit4-1.cdninstagram.com/t51.2885-15/e35/13721269_1096627680383800_784913131_n.jpg,food,0.9941442608833313
,restaurant,0.9622852206230164
,meal,0.9599945545196533
,dinner,0.955646276473999
,meat,0.9524242877960205
,delicious,0.9475703239440918
,traditional,0.9448117017745972
,no person,0.9398777484893799
,cooking,0.9383490085601807
,epicure,0.9381771683692932
,table,0.9283261895179749
,plate,0.9277542233467102
,cuisine,0.9172219634056091
,refreshment,0.9096828699111938
,lunch,0.9079987406730652
,drink,0.9057961702346802
,tasty,0.9045838117599487
,dish,0.89040207862854
,hot,0.8873016834259033
,vegetable,0.8810352087020874
https://scontent-sit4-1.cdninstagram.com/t51.2885-15/e35/13183345_1074380402607926_1951515095_n.jpg,industry,0.9954714775085449
,crane,0.9847686886787415
,watercraft,0.9761516451835632
,no person,0.9560496807098389
,business,0.9555275440216064
,vehicle,0.9522814750671387
,commerce,0.9517159461975098
,expression,0.9490929841995239
,transportation system,0.9468510150909424
,machine,0.9425269365310669
,harbor,0.9396898150444031
,heavy,0.9272401332855225
,city,0.9229825735092163
,building,0.9082783460617065
,water,0.9002580642700195
,outdoors,0.8863480091094971
,sky,0.8840346336364746
,container,0.8836934566497803
,crane,0.8739886283874512
,pier,0.8733986616134644
https://scontent-sit4-1.cdninstagram.com/t51.2885-15/e35/13266894_1617459715247999_1323674107_n.jpg,market,0.9991456866264343
,shopping,0.9980014562606812
,stock,0.9955157041549683
,commerce,0.9935510158538818
,shop,0.9931560754776001
,sale,0.9930185079574585
,sell,0.9892112016677856
,supermarket,0.985460638999939
,stall,0.98235684633255
,booth,0.9765145778656006
,bargain,0.9687469005584717
,marketplace,0.9684410095214844
,presentation,0.9640847444534302
,pineapple,0.9633382558822632
,grow,0.9587429761886597
,people,0.9503201246261597
,fruit,0.9416681528091431
,stand,0.941084623336792
,food,0.9375773668289185
,local,0.9293509721755981
https://scontent-sit4-1.cdninstagram.com/t51.2885-15/e35/13534551_1624914184493615_497926235_n.jpg,food,0.99000084400177
,meal,0.9563562273979187
,dish,0.9541866779327393
,healthy,0.9519716501235962
,cuisine,0.9497891664505005
,dinner,0.9456418752670288
,plate,0.9423539042472839
,delicious,0.9300457835197449
,lunch,0.9289193153381348
,restaurant,0.9254707098007202
,cooking,0.92368483543396
,tasty,0.9193875789642334
,epicure,0.9183542728424072
,pasta,0.9113140106201172
,sauce,0.910544753074646
,vegetable,0.903319239616394
,nutrition,0.895797848701477
,traditional,0.8841195702552795
,pepper,0.8816843032836914
,no person,0.8816815614700317
https://scontent-sit4-1.cdninstagram.com/t51.2885-15/e35/13736919_997884400331415_1432841708_n.jpg,tree,0.9961291551589966
,landscape,0.9822829961776733
,summer,0.979834794998169
,no person,0.9682491421699524
,travel,0.9668673276901245
,park,0.9561581611633301
,sun,0.9507829546928406
,nature,0.9471372365951538
,leaf,0.9363901615142822
,tropical,0.9317646026611328
,sky,0.9265638589859009
,wood,0.9224236011505127
,outdoors,0.9210500121116638
,fair weather,0.9208840727806091
,grass,0.9090968370437622
,recreation,0.9069459438323975
,daylight,0.9031435251235962
,idyllic,0.892780601978302
,garden,0.8695954084396362
,water,0.868232250213623
https://scontent-sit4-1.cdninstagram.com/t51.2885-15/e35/13277817_138676969875979_376356777_n.jpg,food,0.9962133169174194
,vegetable,0.9750912189483643
,meal,0.9701777696609497
,dish,0.967507004737854
,delicious,0.9622079133987427
,plate,0.9605287909507751
,rice,0.9564276337623596
,dinner,0.955485463142395
,cuisine,0.9553130865097046
,no person,0.9518936276435852
,hot,0.9434846043586731
,lunch,0.9424624443054199
,healthy,0.9417955875396729
,closeup,0.9319065809249878
,chili,0.9198745489120483
,tasty,0.9125394821166992
,grow,0.9093952178955078
,seafood,0.9019009470939636
,epicure,0.8986471891403198
,nutrition,0.8903632164001465
https://scontent-sit4-1.cdninstagram.com/t51.2885-15/e35/13183526_1281401931887314_1314041333_n.jpg,food,0.9967563152313232
,no person,0.9826411008834839
,meat,0.9517346620559692
,meal,0.9507850408554077
,cuisine,0.9492760896682739
,dinner,0.9460177421569824
,plate,0.9423003196716309
,dish,0.938696026802063
,restaurant,0.9382038712501526
,cooking,0.9367471933364868
,epicure,0.9359628558158875
,delicious,0.927483320236206
,pepper,0.9272764921188354
,hot,0.9268951416015625
,healthy,0.910507321357727
,vegetable,0.8991330862045288
,lunch,0.8938372135162354
,garlic,0.8756364583969116
,sauce,0.8734662532806396
,salad,0.8597410321235657
https://scontent-sit4-1.cdninstagram.com/t51.2885-15/e35/13117791_430220493815060_5015459_n.jpg,food,0.9935399293899536
,no person,0.9811404943466187
,sweet,0.9611575603485107
,delicious,0.9577136039733887
,meal,0.9482095241546631
,breakfast,0.9422796964645386
,cake,0.9405232071876526
,baking,0.9313003420829773
,plate,0.9243345260620117
,cooking,0.9237684011459351
,sugar,0.9107447862625122
,homemade,0.8966563940048218
,traditional,0.8959552645683289
,honey,0.8942165970802307
,epicure,0.8848546743392944
,tasty,0.8784598112106323
,nutrition,0.8651949167251587
,fruit,0.8600354194641113
,cinnamon,0.8589361906051636
,table,0.8567360639572144
