url,class,score
https://scontent-sit4-1.cdninstagram.com/t51.2885-15/s480x480/e35/12599192_210977659279829_515369454_n.jpg,luxury,0.9909510612487793
,relaxation,0.9905251264572144
,no person,0.9820334911346436
,indoors,0.9754990339279175
,elegant,0.9369925856590271
,candle,0.9263218641281128
,lamp,0.9187420010566711
,simplicity,0.9131249785423279
,glass,0.906173586845398
,aromatherapy,0.8989726305007935
,table,0.8984511494636536
,vertical,0.8888726830482483
,soap,0.8784748315811157
,comfort,0.8701343536376953
,contemporary,0.8658703565597534
,perfume,0.8553773164749146
,interior design,0.8537366390228271
,family,0.8533468246459961
,glass,0.8491812944412231
,empty,0.8464490175247192
https://scontent-sit4-1.cdninstagram.com/t51.2885-15/s320x320/e35/12479073_1542660349363765_265186855_n.jpg,wear,0.9928866624832153
,leisure,0.9789566993713379
,people,0.9780123829841614
,woman,0.9741374850273132
,adult,0.9661003351211548
,one,0.9609732627868652
,relaxation,0.9510195255279541
,man,0.9439963102340698
,indoors,0.9219832420349121
,outdoors,0.9147567749023438
,cotton,0.9101170897483826
,reclining,0.9091603755950928
,wood,0.8890979290008545
,no person,0.8867242336273193
,textile,0.886489987373352
,thread,0.8842582702636719
,fabric,0.8823809027671814
,pattern,0.880401611328125
,pants,0.8714942932128906
,furniture,0.8705546855926514
https://scontent-sit4-1.cdninstagram.com/t51.2885-15/e35/12751543_963156383733860_1405461740_n.jpg,shower,0.9980868101119995
,baby,0.9975495338439941
,toy,0.995954155921936
,announcement,0.9941294193267822
,cute,0.9935709238052368
,birthday,0.9895226359367371
,love,0.9874091744422913
,fun,0.9792417287826538
,child,0.9778385162353516
,heart,0.9777652025222778
,pattern,0.977515459060669
,sketch,0.97711181640625
,sewing,0.974005937576294
,newborn,0.9692244529724121
,birth,0.9671499729156494
,pacifier,0.9620290994644165
,scrapbook,0.9556719064712524
,stitch,0.9530107975006104
,teddy,0.9522327184677124
,infantile,0.9521005153656006
https://scontent-sit4-1.cdninstagram.com/t51.2885-15/s320x320/e35/12935031_1711557375798600_347035254_n.jpg,people,0.9971792697906494
,veil,0.9952353239059448
,child,0.9951992034912109
,lid,0.9945966005325317
,facial expression,0.9928041696548462
,two,0.989639163017273
,portrait,0.9880568385124207
,togetherness,0.9764453172683716
,wear,0.9760112166404724
,boy,0.9759607315063477
,happiness,0.9725049734115601
,woman,0.9709435701370239
,outdoors,0.9636118412017822
,three,0.9611837863922119
,daylight,0.9596502780914307
,group,0.959283709526062
,family,0.9557857513427734
,adult,0.9543852806091309
,man,0.9484544396400452
,boy,0.9484443664550781
https://scontent-sit4-1.cdninstagram.com/t51.2885-15/e35/12783227_929144060514157_1347864639_n.jpg,illustration,0.9804998636245728
,toy,0.9428294897079468
,no person,0.9300326108932495
,cute,0.9255874752998352
,desktop,0.924385130405426
,sketch,0.9153625965118408
,technology,0.9148091077804565
,love,0.9127616882324219
,fun,0.9114596843719482
,vector,0.8993031978607178
,design,0.8802740573883057
,baby,0.8771289587020874
,image,0.8687928915023804
,computer,0.867394208908081
,graphic,0.8636165261268616
,internet,0.8610913157463074
,card,0.8594056367874146
,color,0.8501976132392883
,child,0.8417894840240479
,isolated,0.835237443447113
https://scontent-sit4-1.cdninstagram.com/t51.2885-15/s640x640/sh0.08/e35/12965756_1695908283999234_1246891571_n.jpg,no person,0.9894390106201172
,food,0.9799582958221436
,delicious,0.9569821357727051
,dinner,0.9496384859085083
,lunch,0.9475864171981812
,bread,0.9323429465293884
,fish,0.9079774618148804
,grow,0.891272246837616
,lettuce,0.8910443782806396
,sandwich,0.8846139907836914
,meal,0.8766844868659973
,health,0.874058723449707
,nutrition,0.870620846748352
,seafood,0.8590861558914185
,cheese,0.8503983020782471
,vegetable,0.8354510068893433
,meat,0.8336744904518127
,refreshment,0.8286569118499756
,ingredients,0.8094966411590576
,traditional,0.7982463836669922
https://scontent-sit4-1.cdninstagram.com/t51.2885-15/e15/11252802_1639319109624284_364042985_n.jpg,people,0.989655613899231
,group,0.9770009517669678
,child,0.9745609760284424
,daylight,0.9727414846420288
,city,0.9691546559333801
,woman,0.9632880091667175
,festival,0.9561308026313782
,man,0.947037935256958
,adult,0.9445527791976929
,outdoors,0.9392058849334717
,religion,0.9346468448638916
,motion,0.9200558662414551
,family,0.906060516834259
,togetherness,0.8947539925575256
,wear,0.8883355259895325
,enjoyment,0.8838221430778503
,street,0.8838077783584595
,road,0.8829954862594604
,vehicle,0.8727373480796814
,rally,0.869595468044281
https://scontent-sit4-1.cdninstagram.com/t51.2885-15/e35/10608063_1525621984399522_586350886_n.jpg,child,0.9997783899307251
,family,0.9890490174293518
,people,0.9879539012908936
,indoors,0.9827926754951477
,fun,0.9780784845352173
,enjoyment,0.9725271463394165
,happiness,0.9720427393913269
,wear,0.9701513051986694
,boy,0.9699414968490601
,education,0.9658464193344116
,boy,0.9555174112319946
,recreation,0.9546440839767456
,togetherness,0.9508349299430847
,game,0.9474236965179443
,room,0.9454526901245117
,portrait,0.9445575475692749
,lifestyle,0.9422628283500671
,woman,0.9411271810531616
,adult,0.9371529817581177
,facial expression,0.9312134981155396
https://scontent-sit4-1.cdninstagram.com/t51.2885-15/s750x750/sh0.08/e35/12407442_569270989897513_1607855892_n.jpg,portrait,0.9946503639221191
,woman,0.989798903465271
,indoors,0.9895315170288086
,people,0.989006757736206
,adult,0.9813276529312134
,girl,0.9640804529190063
,happiness,0.963975191116333
,one,0.9521626234054565
,facial expression,0.9415333271026611
,eyeglasses,0.9396583437919617
,office,0.9124152064323425
,brunette,0.9099564552307129
,business,0.9059282541275024
,smile,0.9013651013374329
,window,0.8934692144393921
,confidence,0.8913909792900085
,pretty,0.8823537826538086
,fashion,0.8778492212295532
,lifestyle,0.8743466734886169
,wear,0.8591816425323486
https://scontent-sit4-1.cdninstagram.com/t51.2885-15/s750x750/sh0.08/e35/12950460_1608469932811257_618832161_n.jpg,people,0.9874593019485474
,portrait,0.9829245209693909
,child,0.9764877557754517
,woman,0.9607419967651367
,happiness,0.960141122341156
,family,0.9596904516220093
,togetherness,0.9418403506278992
,adult,0.9385787844657898
,two,0.9377402067184448
,fun,0.9236517548561096
,indoors,0.9219542145729065
,man,0.9198944568634033
,interaction,0.9115089178085327
,enjoyment,0.9094733595848083
,group,0.8969134092330933
,girl,0.869376540184021
,joy,0.8540267944335938
,love,0.8533351421356201
,education,0.84758460521698
,laughing,0.8419307470321655
https://scontent-sit4-1.cdninstagram.com/t51.2885-15/e15/10894977_462711467230388_1861655176_n.jpg,child,0.9985143542289734
,indoors,0.9749274253845215
,people,0.9679691791534424
,little,0.9671720266342163
,family,0.9623166918754578
,boy,0.9555878639221191
,one,0.9490153789520264
,cute,0.9489152431488037
,boy,0.9440569281578064
,fun,0.938603401184082
,lifestyle,0.9304991960525513
,enjoyment,0.9292187094688416
,room,0.9235599040985107
,drink,0.9228140711784363
,youth,0.9055159091949463
,baby,0.9000449180603027
,happiness,0.8898454904556274
,innocence,0.8867632150650024
,toddler,0.8814058303833008
,sit,0.8795413970947266
https://scontent-sit4-1.cdninstagram.com/t51.2885-15/e35/11326054_494920887334604_249938646_n.jpg,food,0.9968024492263794
,no person,0.9958412051200867
,dairy product,0.9915340542793274
,plate,0.9905065298080444
,sweet,0.9891854524612427
,tableware,0.9868136644363403
,grow,0.9865608215332031
,fruit,0.9812861680984497
,cream,0.978406548500061
,cutlery,0.9748936891555786
,cake,0.9697287082672119
,chocolate,0.9678674936294556
,flatware,0.961006760597229
,still life,0.9607372879981995
,pastry,0.9505996704101562
,delicious,0.9465361833572388
,slice,0.9362142086029053
,cup,0.9280632138252258
,sugar,0.9208924174308777
,dish,0.9195761680603027
https://scontent-sit4-1.cdninstagram.com/t51.2885-15/e15/11138028_765977520183343_1310175719_n.jpg,sofa,0.9994786977767944
,furniture,0.997414231300354
,room,0.9966692924499512
,seat,0.9965627193450928
,interior design,0.990153968334198
,indoors,0.989377498626709
,chair,0.9797219038009644
,inside,0.9770907163619995
,family,0.9705818891525269
,contemporary,0.96968674659729
,house,0.9690419435501099
,cushion,0.9683594703674316
,upholstery,0.9676485061645508
,rug,0.9674117565155029
,armchair,0.9503549337387085
,settee,0.9482158422470093
,apartment,0.9352817535400391
,divan,0.9307209849357605
,minimalist,0.9283242225646973
,home,0.9119186401367188
https://scontent-sit4-1.cdninstagram.com/t51.2885-15/e15/11205741_849061505165727_1938118475_n.jpg,child,0.9998482465744019
,toothbrush,0.9994721412658691
,toothpaste,0.9990201592445374
,brush,0.9882373809814453
,enjoyment,0.9872646331787109
,facial expression,0.9846800565719604
,boy,0.9815777540206909
,fun,0.9762459993362427
,cute,0.9740725159645081
,healthcare,0.9654350280761719
,innocence,0.9618382453918457
,indoors,0.9599297046661377
,people,0.9560175538063049
,dentistry,0.9493091106414795
,one,0.948471188545227
,boy,0.9483770728111267
,portrait,0.9448201656341553
,teeth,0.9286885261535645
,candy,0.9170791506767273
,elementary school,0.9127543568611145
https://scontent-sit4-1.cdninstagram.com/t51.2885-15/e35/12519574_198176230548555_1912935053_n.jpg,no person,0.9764999747276306
,illustration,0.968562126159668
,business,0.9604231119155884
,internet,0.952194333076477
,graphic design,0.9517219066619873
,connection,0.9508464932441711
,communication,0.9318335056304932
,cloud,0.9277207255363464
,sky,0.9263932704925537
,teamwork,0.9156935214996338
,data,0.9126312136650085
,forecast,0.90224289894104
,unity,0.8941318988800049
,simplicity,0.8895276784896851
,growth,0.8885809779167175
,nature,0.8848059177398682
,creativity,0.876591682434082
,discussion,0.8738135099411011
,sketch,0.8703436851501465
,symbol,0.8583168983459473
https://scontent-sit4-1.cdninstagram.com/t51.2885-15/e35/13534399_901576216638812_186096186_n.jpg,sketch,0.9983842968940735
,man,0.9926578998565674
,character,0.9874884486198425
,illustration,0.9826021790504456
,funny,0.9451924562454224
,cute,0.8959323763847351
,fun,0.8883472681045532
,people,0.8757596015930176
,intelligence,0.8682180643081665
,figure,0.8653973340988159
,business,0.8591036796569824
,graphic design,0.8585853576660156
,robot,0.8424192667007446
,hello,0.8305946588516235
,isolated,0.8054971098899841
,art,0.7960472106933594
,service,0.7681100368499756
,child,0.7405751943588257
,humor,0.7393416166305542
,creativity,0.715061366558075
https://scontent-sit4-1.cdninstagram.com/t51.2885-15/e15/11190200_766674636784576_228004900_n.jpg,no person,0.9983356595039368
,summer,0.9946955442428589
,outdoors,0.9909120798110962
,hanging,0.988303542137146
,nature,0.9815409183502197
,motley,0.9746221899986267
,wood,0.960782527923584
,fun,0.9480842351913452
,tropical,0.9477883577346802
,fair weather,0.9410948157310486
,leisure,0.9404991865158081
,travel,0.9382065534591675
,recreation,0.9380171895027161
,woman,0.9361851215362549
,traditional,0.9350808262825012
,leaf,0.9315690994262695
,bright,0.9265974760055542
,stripe,0.8841879367828369
,people,0.883056104183197
,child,0.8775817155838013
https://scontent-sit4-1.cdninstagram.com/t51.2885-15/e35/12965265_1091670304231141_854143591_n.jpg,no person,0.9606090784072876
,paper,0.9580668807029724
,table,0.9422178268432617
,empty,0.9073421955108643
,desktop,0.8927704095840454
,indoors,0.872317373752594
,business,0.8352937698364258
,wood,0.8343043923377991
,laptop,0.8342620134353638
,traditional,0.8196625709533691
,food,0.8174777030944824
,retro,0.8152529001235962
,luxury,0.8117671012878418
,blank,0.809080958366394
,drink,0.8016602993011475
,color,0.8010223507881165
,family,0.7756860256195068
,design,0.7607311010360718
,napkin,0.7491434812545776
,wooden,0.7441993951797485
https://scontent-sit4-1.cdninstagram.com/t51.2885-15/e35/11356776_1640726672841581_519748861_n.jpg,child,0.9962342381477356
,education,0.9720871448516846
,people,0.9693628549575806
,celebration,0.9420938491821289
,school,0.9317960739135742
,family,0.9085685014724731
,indoors,0.8968874216079712
,boy,0.8889350891113281
,fun,0.8849785327911377
,cute,0.8450431823730469
,little,0.8353174924850464
,table,0.8205050230026245
,happiness,0.8185750246047974
,elementary school,0.8042677044868469
,enjoyment,0.8032786846160889
,sit,0.7906943559646606
,gift,0.7871924042701721
,man,0.7813530564308167
,woman,0.7725529670715332
,Christmas,0.7718218564987183
https://scontent-sit4-1.cdninstagram.com/t51.2885-15/e35/13167447_513749415481278_1274463232_n.jpg,smell,0.9906210899353027
,vertical,0.9896673560142517
,treatment,0.9890131950378418
,bottle,0.9859765768051147
,care,0.9819069504737854
,medicine,0.9816309213638306
,Cologne,0.9764315485954285
,aromatherapy,0.9683732986450195
,hygiene,0.9670412540435791
,container,0.9656747579574585
,horizontal,0.9609213471412659
,hygiene,0.9607841968536377
,still life,0.9594355821609497
,luxury,0.9573377370834351
,indoors,0.9536871910095215
,square,0.9506396055221558
,pamper,0.9501762986183167
,toiletries,0.9472412467002869
,soap,0.9205842614173889
,relaxation,0.9073370695114136
https://scontent-sit4-1.cdninstagram.com/t51.2885-15/e35/12918437_604305769718350_77657424_n.jpg,no person,0.9833166003227234
,business,0.9817732572555542
,food,0.978309154510498
,container,0.9651234149932861
,text,0.9575977325439453
,can,0.9526880979537964
,stock,0.9479653835296631
,jar,0.9470741748809814
,spread,0.9426872730255127
,finance,0.924124002456665
,desktop,0.9203110933303833
,market,0.9156121015548706
,preserve,0.9152089357376099
,sign,0.9093243479728699
,box,0.905295729637146
,indoors,0.8947856426239014
,money,0.8903411626815796
,paper,0.8899664878845215
,editorial,0.8894364833831787
,grow,0.8688931465148926
https://scontent-sit4-1.cdninstagram.com/t51.2885-15/e35/1530618_215234475477271_1677218120_n.jpg,child,0.9959136247634888
,people,0.9898571968078613
,woman,0.9818965792655945
,girl,0.9810575246810913
,happiness,0.9702974557876587
,adult,0.968685507774353
,facial expression,0.9685604572296143
,portrait,0.9682735800743103
,family,0.9606919288635254
,two,0.9601216316223145
,youth,0.9589744210243225
,group,0.9544500112533569
,offspring,0.9475280046463013
,boy,0.9389660954475403
,indoors,0.9389627575874329
,man,0.9314451217651367
,enjoyment,0.9232742786407471
,room,0.915086030960083
,togetherness,0.9109678268432617
,boy,0.9097501039505005
https://scontent-sit4-1.cdninstagram.com/t51.2885-15/e35/13151046_1747423782208133_1810293895_n.jpg,no person,0.9730265140533447
,treatment,0.9717164635658264
,luxury,0.9183162450790405
,vertical,0.9130997657775879
,care,0.9105613231658936
,indoors,0.9038863182067871
,decoration,0.8813871145248413
,horizontal,0.8733426332473755
,glass,0.8632494807243347
,square,0.8321835994720459
,relaxation,0.8320696353912354
,still life,0.8313777446746826
,option,0.830349326133728
,romance,0.8196118474006653
,container,0.790019154548645
,love,0.7825354337692261
,wedding,0.7774754762649536
,pamper,0.7667989730834961
,merchandise,0.7510268688201904
,bottle,0.7324090600013733
https://scontent-sit4-1.cdninstagram.com/t51.2885-15/e35/12816831_769912606442287_806253485_n.jpg,food,0.9958144426345825
,sweet,0.9914647340774536
,breakfast,0.9841997027397156
,delicious,0.9834875464439392
,no person,0.9803916215896606
,sugar,0.9795630574226379
,chocolate,0.971633791923523
,coffee,0.9711427688598633
,pastry,0.9693554639816284
,hot,0.9633496999740601
,refreshment,0.9633054733276367
,cake,0.9593782424926758
,plate,0.9541192054748535
,homemade,0.9514815807342529
,dawn,0.944938600063324
,cup,0.9415955543518066
,traditional,0.9407936334609985
,table,0.9397883415222168
,cream,0.9333219528198242
,indulgence,0.9267111420631409
https://scontent-sit4-1.cdninstagram.com/t51.2885-15/e35/13402515_100262990406998_976390570_n.jpg,people,0.983441948890686
,man,0.9833124876022339
,adult,0.9735605716705322
,woman,0.9664913415908813
,portrait,0.9407607913017273
,group,0.9356749057769775
,event,0.9119291305541992
,performance,0.8938958644866943
,communication,0.891921877861023
,horizontal,0.889488697052002
,indoors,0.881537675857544
,person,0.8769161701202393
,bar,0.8618003129959106
,group,0.8578215837478638
,crowd,0.8472498655319214
,squad,0.844123363494873
,audience,0.8339460492134094
,music,0.830329179763794
,waiter,0.8244750499725342
,service,0.8158471584320068
https://scontent-sit4-1.cdninstagram.com/t51.2885-15/e15/11255478_365917573602324_1302831929_n.jpg,child,0.9912843704223633
,coffee,0.98035728931427
,family,0.975483775138855
,portrait,0.9631535410881042
,people,0.9618936777114868
,happiness,0.9439598321914673
,drink,0.9406065344810486
,togetherness,0.9299056529998779
,enjoyment,0.9192541837692261
,group,0.9096143245697021
,fun,0.9059157967567444
,two,0.9025930166244507
,sit,0.9003218412399292
,woman,0.8615245223045349
,lifestyle,0.8584448099136353
,girl,0.8420261740684509
,laughing,0.8393144607543945
,cheerful,0.8365150690078735
,friendship,0.8198849558830261
,three,0.8032625317573547
https://scontent-sit4-1.cdninstagram.com/t51.2885-15/e35/11373577_1494090817550945_937874580_n.jpg,food,0.9962201118469238
,meat,0.995810329914093
,dinner,0.9886778593063354
,meal,0.9862657785415649
,beef,0.9826170206069946
,no person,0.9807929396629333
,pork,0.973156213760376
,dish,0.9707328677177429
,delicious,0.9660453200340271
,plate,0.9637372493743896
,lunch,0.9629289507865906
,restaurant,0.9596697092056274
,poultry,0.9589551687240601
,sauce,0.9563406705856323
,chicken,0.9531835913658142
,vegetable,0.9525142312049866
,cuisine,0.9416939616203308
,barbecue,0.9373188018798828
,cooking,0.934080958366394
,steak,0.9248402118682861
https://scontent-sit4-1.cdninstagram.com/t51.2885-15/e35/13151039_597590970417902_770742404_n.jpg,text,0.9836055636405945
,business,0.9676191806793213
,give voice,0.946125328540802
,tag,0.9070243835449219
,World Wide Web,0.878953754901886
,data,0.8753679990768433
,page,0.8752479553222656
,paper,0.8689939975738525
,desktop,0.868291974067688
,conceptual,0.8599547147750854
,company,0.8492919206619263
,service,0.8473224639892578
,information,0.8452190160751343
,communication,0.8384051322937012
,management,0.8380521535873413
,bill,0.8376865386962891
,design,0.8350895643234253
,graphic,0.8339706659317017
,typography,0.8308194279670715
,internet,0.8080349564552307
https://scontent-sit4-1.cdninstagram.com/t51.2885-15/e35/13108647_1599058747077146_1700921300_n.jpg,paper,0.9805055856704712
,business,0.9696856737136841
,box,0.9271228313446045
,money,0.9192521572113037
,abundance,0.9148663282394409
,indoors,0.908959150314331
,finance,0.878282368183136
,thread,0.8698762655258179
,vertical,0.8694858551025391
,still life,0.869294285774231
,wealth,0.8658015727996826
,luxury,0.8609987497329712
,collection,0.8433195352554321
,office,0.8317595720291138
,shopping,0.8306989073753357
,bottle,0.8286381959915161
,square,0.8130972981452942
,number,0.8100605010986328
,savings,0.804126501083374
,no person,0.786907434463501
https://scontent-sit4-1.cdninstagram.com/t51.2885-15/e35/11899718_1612803162306352_877747324_n.jpg,no person,0.9972270727157593
,food,0.9809450507164001
,delicious,0.9748709201812744
,traditional,0.9537419676780701
,health,0.9526171684265137
,dinner,0.9470809698104858
,lunch,0.9299506545066833
,nutrition,0.9067493677139282
,wood,0.9058346748352051
,bread,0.9012190103530884
,indoors,0.8919512033462524
,cooking,0.8871597647666931
,breakfast,0.8791206479072571
,leaf,0.8758259415626526
,homemade,0.8742913007736206
,beef,0.8735527992248535
,hot,0.8716201782226562
,indulgence,0.870942234992981
,unhealthy,0.8679341077804565
,ingredients,0.8644310235977173
https://scontent-sit4-1.cdninstagram.com/t51.2885-15/e35/12145531_696169980517473_1685830656_n.jpg,seafood,0.9985126852989197
,food,0.9979711771011353
,shellfish,0.9972404837608337
,fish,0.9944359064102173
,crustacean,0.992849588394165
,cooking,0.9882495403289795
,pan,0.9873088598251343
,crab,0.9835171699523926
,shrimp,0.9773000478744507
,no person,0.9740242958068848
,frying pan,0.971272349357605
,meal,0.971156895160675
,dinner,0.9682977199554443
,lobster,0.9655197262763977
,claw,0.9595847725868225
,prawn,0.9581361413002014
,epicure,0.956519603729248
,delicious,0.955016016960144
,shell,0.9544046521186829
,hot,0.9411077499389648
https://scontent-sit4-1.cdninstagram.com/t51.2885-15/e35/13102338_991453497618944_1724919378_n.jpg,no person,0.9887120723724365
,food,0.9846365451812744
,cup,0.9720860123634338
,drink,0.9718737602233887
,wood,0.970319390296936
,still life,0.9535351395606995
,glass,0.9532126188278198
,health,0.9438462853431702
,desktop,0.9378552436828613
,nutrition,0.9360473155975342
,ingredients,0.9345107078552246
,dark,0.9333031177520752
,fruit,0.9116523265838623
,delicious,0.9100093841552734
,coffee,0.9045147895812988
,bowl,0.901145339012146
,taste,0.8973470330238342
,energy,0.8790000081062317
,breakfast,0.8772336840629578
,wooden,0.8732811212539673
https://scontent-sit4-1.cdninstagram.com/t51.2885-15/e35/10375843_783961048403536_1299998761_n.jpg,no person,0.9976352453231812
,leather,0.9966521859169006
,fashion,0.9963319301605225
,wear,0.9958418607711792
,luggage,0.9937718510627747
,bag,0.9937154054641724
,isolated,0.9915289878845215
,zip up,0.9894592761993408
,elegant,0.9871777296066284
,nylon,0.9868009090423584
,casual,0.9807595610618591
,safety,0.9597823619842529
,plastic,0.9508545398712158
,protection,0.9452334642410278
,backpack,0.9415704011917114
,handle,0.9326856732368469
,design,0.9264456033706665
,travel,0.9218592643737793
,security,0.9114075899124146
,style,0.9070106148719788
https://scontent-sit4-1.cdninstagram.com/t51.2885-15/e35/13113927_269044100103762_1589097267_n.jpg,horizontal,0.9790000915527344
,still life,0.9563767910003662
,indoors,0.9479140043258667
,box,0.9429051876068115
,technology,0.9366568326950073
,business,0.9278075695037842
,vertical,0.9261773228645325
,container,0.9209144115447998
,data,0.8931199312210083
,simplicity,0.8851292729377747
,square,0.8792959451675415
,internet,0.87018883228302
,glazed,0.8700031638145447
,creativity,0.8579314351081848
,paper,0.8530369997024536
,wealth,0.8257746696472168
,love,0.8213536739349365
,connection,0.7966755628585815
,order,0.7948935031890869
,illustration,0.7889324426651001
https://scontent-sit4-1.cdninstagram.com/t51.2885-15/e35/12139699_108737556148870_234188041_n.jpg,food,0.9962154626846313
,dinner,0.9955201148986816
,no person,0.9947962164878845
,lunch,0.9928730726242065
,meat,0.9902713894844055
,meal,0.9884470105171204
,beef,0.9784108400344849
,delicious,0.9761730432510376
,sauce,0.9650129079818726
,nutrition,0.9616203308105469
,vegetable,0.9575815796852112
,parsley,0.9542943239212036
,plate,0.9541127681732178
,dish,0.9500013589859009
,cooking,0.9463622570037842
,pork,0.937286376953125
,cuisine,0.9353563785552979
,pasta,0.9319158792495728
,tomato,0.9259017109870911
,traditional,0.9229041337966919
https://scontent-sit4-1.cdninstagram.com/t51.2885-15/e35/13129541_580024078828902_1718151647_n.jpg,food,0.995952844619751
,dinner,0.9864314794540405
,meal,0.9841582775115967
,plate,0.9814527034759521
,dish,0.9784014225006104
,lunch,0.9757229089736938
,cuisine,0.9745590686798096
,delicious,0.9676456451416016
,healthy,0.9660098552703857
,epicure,0.965238094329834
,tasty,0.9620969295501709
,vegetable,0.9574193954467773
,traditional,0.9490666389465332
,meat,0.9423961639404297
,cooking,0.9340704679489136
,diet,0.9280209541320801
,no person,0.9238170385360718
,restaurant,0.9199151992797852
,sauce,0.919377326965332
,closeup,0.9183955192565918
https://scontent-sit4-1.cdninstagram.com/t51.2885-15/e15/11350816_946627702047358_354668991_n.jpg,bird,0.9930127859115601
,nature,0.9903892278671265
,wildlife,0.9791100025177002
,no person,0.9771146774291992
,outdoors,0.9615447521209717
,wild,0.9477748274803162
,animal,0.9046297073364258
,beak,0.8869445323944092
,feather,0.8807780742645264
,summer,0.8770644068717957
,ornithology,0.8325657844543457
,food,0.830872654914856
,birdwatching,0.8284207582473755
,one,0.8170638084411621
,leaf,0.8158386945724487
,crow,0.7789280414581299
,wood,0.7716112732887268
,tropical,0.7661261558532715
,grass,0.7636772394180298
,horizontal,0.7408042550086975
https://scontent-sit4-1.cdninstagram.com/t51.2885-15/e35/11917929_165825830422657_662345943_n.jpg,food,0.9963778853416443
,plate,0.9755891561508179
,vegetable,0.9746523499488831
,dish,0.969714879989624
,sauce,0.968945324420929
,meal,0.9667032957077026
,noodles,0.9609448313713074
,egg,0.9558422565460205
,dinner,0.9545680284500122
,restaurant,0.9515514373779297
,lunch,0.949077844619751
,bowl,0.9487109780311584
,meat,0.942030668258667
,traditional,0.9303773641586304
,cuisine,0.9234479665756226
,epicure,0.9198407530784607
,rice,0.9177907109260559
,hot,0.9136289358139038
,delicious,0.9068537950515747
,cooking,0.9055389165878296
https://scontent-sit4-1.cdninstagram.com/t51.2885-15/e35/12965242_1568391256793320_138503060_n.jpg,box,0.9683961868286133
,case,0.9002120494842529
,desktop,0.877781867980957
,business,0.8772470355033875
,design,0.8706254959106445
,vintage,0.8681259751319885
,people,0.8623166680335999
,container,0.8478482961654663
,no person,0.8278158903121948
,toy,0.8227521777153015
,leisure,0.8216879367828369
,money,0.8042246103286743
,illustration,0.801190197467804
,transportation system,0.7872834801673889
,wood,0.7785710096359253
,luggage,0.7544442415237427
,retro,0.7498339414596558
,decoration,0.7189522981643677
,color,0.708724856376648
,technology,0.6979330778121948
https://scontent-sit4-1.cdninstagram.com/t51.2885-15/e35/1516059_916160015116941_827968893_n.jpg,child,0.998681902885437
,family,0.9926355481147766
,people,0.9811185598373413
,boy,0.9739964008331299
,outdoors,0.9385738372802734
,education,0.9267711639404297
,portrait,0.9213603734970093
,fun,0.9157546162605286
,recreation,0.9137225151062012
,game,0.8941147327423096
,group,0.8941015601158142
,little,0.8911712169647217
,rally,0.8730870485305786
,street,0.8722276091575623
,school,0.8669018745422363
,man,0.8640354871749878
,landscape,0.8496640920639038
,happiness,0.8442384004592896
,boy,0.8387877941131592
,enjoyment,0.8384262323379517
https://scontent-sit4-1.cdninstagram.com/t51.2885-15/e35/13166930_1022787104474969_1808575926_n.jpg,horizontal,0.9480017423629761
,fashion,0.9270017147064209
,scissors,0.9266920685768127
,luxury,0.9150006771087646
,still life,0.9101666212081909
,jewelry,0.8599560260772705
,indoors,0.8577051162719727
,antique,0.8413299322128296
,equipment,0.8381417989730835
,square,0.8270606994628906
,old,0.8239997625350952
,sharp,0.8082971572875977
,glazed,0.8047502636909485
,shining,0.7942159175872803
,creativity,0.784691572189331
,skill,0.7819082736968994
,craft,0.77433842420578
,arts and crafts,0.7665878534317017
,vertical,0.7384271621704102
,decoration,0.7349839210510254
https://scontent-sit4-1.cdninstagram.com/t51.2885-15/e35/12445871_120960724972088_1693670305_n.jpg,food,0.9735621809959412
,sweet,0.9521529078483582
,Christmas,0.9511024951934814
,no person,0.9508992433547974
,delicious,0.9449237585067749
,decoration,0.9321935176849365
,chocolate,0.9274967908859253
,berry,0.9254086017608643
,fruit,0.9249337911605835
,cake,0.9091205596923828
,desktop,0.8986467719078064
,cookie,0.8963069915771484
,refreshment,0.8897900581359863
,traditional,0.8885942697525024
,celebration,0.867429792881012
,epicure,0.8572731018066406
,candy,0.8525684475898743
,sugar,0.84915691614151
,strawberry,0.8380697965621948
,winter,0.8365070819854736
https://scontent-sit4-1.cdninstagram.com/t51.2885-15/e35/13118211_1271502379561200_1516011116_n.jpg,food,0.9906615018844604
,dinner,0.9729316234588623
,meal,0.9662110805511475
,dish,0.9593304395675659
,meat,0.9591600894927979
,cooking,0.955340564250946
,lunch,0.9531707763671875
,hot,0.9526638984680176
,delicious,0.9519986510276794
,plate,0.947272539138794
,no person,0.9395511150360107
,bowl,0.9320045113563538
,cuisine,0.9315453171730042
,traditional,0.9267721772193909
,sauce,0.9261043071746826
,epicure,0.9229839444160461
,vegetable,0.9051791429519653
,beef,0.904603898525238
,soup,0.8996919393539429
,restaurant,0.8994814157485962
https://scontent-sit4-1.cdninstagram.com/t51.2885-15/e35/13129847_617689228386322_171111786_n.jpg,business,0.9599100947380066
,number,0.9559859037399292
,money,0.936255156993866
,wealth,0.9297565817832947
,finance,0.9280622005462646
,people,0.9133335947990417
,vertical,0.9000401496887207
,desktop,0.8898904323577881
,adult,0.8893285989761353
,illustration,0.8797763586044312
,identity,0.871067464351654
,World Wide Web,0.8523963689804077
,communication,0.8516262769699097
,symbol,0.841981053352356
,vector,0.838293194770813
,card,0.827365517616272
,set,0.8260378837585449
,paper,0.8238979578018188
,money,0.8157213926315308
,template,0.8155305981636047
https://scontent-sit4-1.cdninstagram.com/t51.2885-15/e35/11849881_1115094925184458_2053555781_n.jpg,seafood,0.9967392086982727
,market,0.9946898221969604
,food,0.9919980764389038
,fish,0.987808108329773
,grow,0.9662151336669922
,stall,0.9619156718254089
,lobster,0.9573729634284973
,stock,0.9535106420516968
,basket,0.9492332935333252
,restaurant,0.9490867257118225
,cooking,0.9455748796463013
,people,0.9428583383560181
,presentation,0.9324525594711304
,sell,0.911328136920929
,group,0.9109623432159424
,shellfish,0.9067341089248657
,sale,0.9021289944648743
,delicious,0.8903425931930542
,booth,0.8881093859672546
,no person,0.8808378577232361
https://scontent-sit4-1.cdninstagram.com/t51.2885-15/e35/11899501_1640549489548689_450131201_n.jpg,food,0.9828392863273621
,child,0.978737473487854
,meal,0.9562363028526306
,dinner,0.9313220977783203
,people,0.9254533052444458
,lunch,0.9157125949859619
,cooking,0.9133614301681519
,collage,0.9085022211074829
,table,0.9081646203994751
,healthy,0.9020342230796814
,dish,0.8938709497451782
,meat,0.8905072212219238
,delicious,0.8773303031921387
,plate,0.8755578398704529
,portrait,0.8717305660247803
,indoors,0.8667863607406616
,person,0.8630392551422119
,hungry,0.8618154525756836
,tasty,0.8617459535598755
,nutrition,0.8595592975616455
https://scontent-sit4-1.cdninstagram.com/t51.2885-15/e35/11357474_1463458483969982_1983677833_n.jpg,people,0.9851915836334229
,adult,0.9770270586013794
,girl,0.9654015302658081
,competition,0.9480955004692078
,woman,0.9477524161338806
,recreation,0.9432201385498047
,wear,0.9365512132644653
,athlete,0.9354279637336731
,park,0.9244636297225952
,child,0.8968709707260132
,outdoors,0.893193244934082
,two,0.888604462146759
,ball,0.8866739273071289
,lifestyle,0.8737741708755493
,group,0.8668075799942017
,daylight,0.8588317632675171
,leisure,0.8582051396369934
,boy,0.8538999557495117
,motion,0.8441816568374634
,uniform,0.8436834812164307
https://scontent-sit4-1.cdninstagram.com/t51.2885-15/e35/13151221_1197966360237388_986163818_n.jpg,nature,0.9880639314651489
,water,0.9799004793167114
,no person,0.9751967191696167
,leaf,0.9608255624771118
,summer,0.959132730960846
,wood,0.9569001197814941
,tree,0.9541087746620178
,park,0.9507632255554199
,garden,0.9469249844551086
,outdoors,0.9460815191268921
,flora,0.9430042505264282
,travel,0.9399760961532593
,tropical,0.9208313822746277
,growth,0.9068949222564697
,environment,0.9039421081542969
,landscape,0.9012539386749268
,river,0.8879504203796387
,recreation,0.8740983605384827
,daylight,0.8740963935852051
,wet,0.8666989803314209
