url,class,score
https://scontent-sit4-1.cdninstagram.com/t51.2885-15/s640x640/e15/13768073_499144233624125_490616908_n.jpg,empty,0.9938094615936279
,road,0.9873838424682617
,transportation system,0.985171914100647
,no person,0.9798665642738342
,asphalt,0.9728015661239624
,contemporary,0.9713473320007324
,street,0.9711010456085205
,daylight,0.9538847208023071
,modern,0.9488434791564941
,building,0.9452346563339233
,traffic,0.9428520202636719
,room,0.9382834434509277
,highway,0.9359469413757324
,absence,0.9294041991233826
,light,0.9173128008842468
,pavement,0.9103665351867676
,urban,0.9075108766555786
,business,0.9058105945587158
,car,0.9056966304779053
,blur,0.9025100469589233
https://scontent-sit4-1.cdninstagram.com/t51.2885-15/e35/13402310_413236948846914_852622_n.jpg,portrait,0.9934465289115906
,people,0.9909073710441589
,child,0.9855526089668274
,adult,0.9565871357917786
,happiness,0.9547792077064514
,headshot,0.9537206888198853
,woman,0.947367787361145
,contemplation,0.9380683898925781
,vertical,0.9357506036758423
,cute,0.9288812875747681
,innocence,0.9183861613273621
,fashion,0.911837100982666
,facial expression,0.9057042598724365
,adolescent,0.8968981504440308
,outdoors,0.8870923519134521
,horizontal,0.8741265535354614
,wear,0.8588687181472778
,relaxation,0.8500661849975586
,cheerful,0.8488142490386963
,fun,0.8440322875976562
https://scontent-sit4-1.cdninstagram.com/t51.2885-15/e35/13381156_1559621194339611_1131251658_n.jpg,competition,0.9908053278923035
,basketball,0.9801137447357178
,athlete,0.9738717079162598
,recreation,0.9698752760887146
,people,0.9597724080085754
,wear,0.949237585067749
,school,0.9343938827514648
,ball,0.9147039651870728
,football,0.9138749837875366
,music,0.9132543802261353
,adult,0.9107334613800049
,festival,0.9105427861213684
,woman,0.9100713729858398
,soccer,0.9086325168609619
,stadium,0.9033253192901611
,education,0.9026211500167847
,singer,0.8679184913635254
,red carpet,0.8618443608283997
,award,0.8515455722808838
,musician,0.8454933166503906
https://scontent-sit4-1.cdninstagram.com/t51.2885-15/s750x750/sh0.08/e35/13437399_274694099550700_1317251756_n.jpg,woman,0.9936510920524597
,screen,0.9797012805938721
,internet,0.9655953049659729
,portrait,0.9651280641555786
,business,0.9600101113319397
,technology,0.9573382139205933
,communication,0.9541817307472229
,touch,0.9504027366638184
,computer,0.9488769769668579
,people,0.9442698955535889
,man,0.942680835723877
,girl,0.9422497153282166
,telephone,0.9376544952392578
,window,0.9243197441101074
,smile,0.9076465368270874
,pretty,0.9014220237731934
,young,0.8972380757331848
,window,0.8937869071960449
,smart,0.8916025161743164
,looking,0.8772749304771423
https://scontent-sit4-1.cdninstagram.com/t51.2885-15/e35/13414275_734650960008038_1414515257_n.jpg,competition,0.9956086277961731
,athlete,0.9867069125175476
,landscape,0.9620290994644165
,people,0.9537895917892456
,tennis,0.9407535195350647
,ball,0.9382388591766357
,basketball,0.9367029666900635
,festival,0.9307973384857178
,International,0.9239758253097534
,game,0.9223540425300598
,award,0.9171323776245117
,music,0.9164152145385742
,tennis match,0.9137064218521118
,championship,0.9125211238861084
,race,0.9090338945388794
,adult,0.9027398824691772
,vehicle,0.8989390134811401
,recreation,0.8962509632110596
,race,0.8885741829872131
,tournament,0.8878542184829712
https://scontent-sit4-1.cdninstagram.com/t51.2885-15/s750x750/sh0.08/e35/13398402_1588539554778013_1950285262_n.jpg,woman,0.9900491237640381
,communication,0.9651666283607483
,adult,0.9651614427566528
,people,0.9630154371261597
,technology,0.9581341743469238
,man,0.9571685791015625
,internet,0.9557173252105713
,group,0.9553515911102295
,computer,0.924238920211792
,business,0.9151628017425537
,teamwork,0.9134105443954468
,horizontal,0.904502809047699
,indoors,0.9040272235870361
,collage,0.8993917107582092
,screen,0.8942253589630127
,portrait,0.8932168483734131
,isolated,0.8722760677337646
,friendship,0.8642052412033081
,togetherness,0.8589869737625122
,looking,0.858832597732544
https://scontent-sit4-1.cdninstagram.com/t51.2885-15/e35/13395042_484570381754246_1785395124_n.jpg,competition,0.9755772948265076
,people,0.9724730849266052
,adult,0.964816689491272
,landscape,0.9617830514907837
,group,0.9585829973220825
,election,0.9533437490463257
,music,0.9434146881103516
,race,0.9409945011138916
,education,0.940741777420044
,woman,0.9389981031417847
,school,0.9314773082733154
,man,0.9286233186721802
,candidate,0.9208191633224487
,festival,0.9059957265853882
,athlete,0.8939406275749207
,portrait,0.8836376667022705
,soccer,0.8599211573600769
,performance,0.857114315032959
,action,0.8402286171913147
,vehicle,0.8393163084983826
https://scontent-sit4-1.cdninstagram.com/t51.2885-15/e35/13397599_153646768384809_672510641_n.jpg,group,0.9909245371818542
,woman,0.988126277923584
,happiness,0.9798893928527832
,man,0.9700683355331421
,togetherness,0.9678912162780762
,portrait,0.9544504880905151
,group,0.9484190940856934
,people,0.9434552192687988
,smile,0.9426031112670898
,student,0.9424335956573486
,adult,0.9377532005310059
,facial expression,0.935315728187561
,laughing,0.9350411891937256
,friendship,0.9097183346748352
,education,0.9086883068084717
,teamwork,0.8918955326080322
,lifestyle,0.8780844807624817
,looking,0.8692737817764282
,three,0.8675665855407715
,adolescent,0.8639123439788818
https://scontent-sit4-1.cdninstagram.com/t51.2885-15/e35/13398904_251445711894384_1074839518_n.jpg,people,0.9945845603942871
,group,0.9872691631317139
,adult,0.9863470792770386
,education,0.9827117919921875
,bill,0.9810153245925903
,school,0.9726587533950806
,woman,0.9694786667823792
,sign,0.9549436569213867
,billboard,0.9533353447914124
,man,0.9430160522460938
,many,0.9361302852630615
,portrait,0.907523512840271
,presentation,0.8862570524215698
,road,0.8784788250923157
,sign,0.8765888214111328
,music,0.86338210105896
,text,0.8553270697593689
,transportation system,0.8461313247680664
,vehicle,0.8391207456588745
,banner,0.8314251899719238
https://scontent-sit4-1.cdninstagram.com/t51.2885-15/e35/13398737_632197043605271_496642078_n.jpg,woman,0.988707423210144
,facial expression,0.9867419004440308
,people,0.9864771366119385
,man,0.9760935306549072
,portrait,0.9745553135871887
,wear,0.9696256518363953
,indoors,0.9600483775138855
,adult,0.9594817161560059
,two,0.9560037851333618
,togetherness,0.9481650590896606
,interaction,0.9395285248756409
,daylight,0.9297805428504944
,affection,0.8899357318878174
,enjoyment,0.8885197639465332
,girl,0.888122022151947
,love,0.8844815492630005
,happiness,0.865088701248169
,leisure,0.8388208150863647
,friendship,0.8376266360282898
,family,0.8358670473098755
https://scontent-sit4-1.cdninstagram.com/t51.2885-15/e35/13398719_262911347407289_682271117_n.jpg,group,0.9861459136009216
,people,0.9793094396591187
,woman,0.9531905651092529
,man,0.9374773502349854
,adult,0.93244469165802
,room,0.923301100730896
,wear,0.9123717546463013
,exhibition,0.8795400857925415
,many,0.8635082244873047
,family,0.8341375589370728
,administration,0.825856626033783
,election,0.8146448731422424
,music,0.8133983612060547
,group,0.8102723360061646
,business,0.8032935261726379
,portrait,0.8015656471252441
,education,0.7823402881622314
,indoors,0.7574875354766846
,performance,0.7556630373001099
,dress,0.7478907108306885
https://scontent-sit4-1.cdninstagram.com/t51.2885-15/e35/13422822_620247144847236_1741343932_n.jpg,man,0.9752156734466553
,indoors,0.9676631093025208
,people,0.9653249979019165
,horizontal,0.9328756332397461
,adult,0.9328628778457642
,sit,0.906546950340271
,music,0.873357892036438
,business,0.8716260194778442
,sitting,0.8584835529327393
,election,0.8486779928207397
,administration,0.815801739692688
,woman,0.8109942674636841
,communication,0.784125566482544
,chair,0.7386714816093445
,serious,0.7356674075126648
,musician,0.7279489040374756
,technology,0.7227159142494202
,togetherness,0.7121807336807251
,looking,0.7066075205802917
,side view,0.7045944929122925
https://scontent-sit4-1.cdninstagram.com/t51.2885-15/e35/13402737_805065322962131_227572431_n.jpg,league,0.9863406419754028
,meeting,0.9841939210891724
,leader,0.9753566980361938
,election,0.9716899394989014
,politician,0.9688453674316406
,landscape,0.9682714939117432
,business,0.9658049941062927
,candidate,0.9642930030822754
,administration,0.959408164024353
,press conference,0.9554638862609863
,people,0.9509832859039307
,education,0.9469821453094482
,Congress,0.9362738132476807
,convention,0.918155312538147
,chair,0.916234016418457
,group,0.9147430062294006
,school,0.9084954261779785
,television,0.9036374688148499
,industry,0.8999749422073364
,healthcare,0.8860197067260742
https://scontent-sit4-1.cdninstagram.com/t51.2885-15/e35/13423624_1147959245225787_443371694_n.jpg,group,0.9972083568572998
,group,0.990153431892395
,woman,0.9823912382125854
,squad,0.9817167520523071
,man,0.981381893157959
,togetherness,0.9684216380119324
,portrait,0.9676951169967651
,teamwork,0.9657814502716064
,education,0.9651013612747192
,people,0.9593695402145386
,school,0.9572869539260864
,friendship,0.9523845911026001
,adult,0.9510523080825806
,sitting,0.9369251728057861
,student,0.9217926263809204
,multicultural,0.9154382348060608
,happiness,0.9137002229690552
,university,0.8946250677108765
,four,0.8938082456588745
,facial expression,0.8844050765037537
https://scontent-sit4-1.cdninstagram.com/t51.2885-15/e35/13391228_478362549027144_499533958_n.jpg,television,0.997105598449707
,screen,0.9859545230865479
,technology,0.9753704071044922
,computer,0.9689728021621704
,people,0.9660014510154724
,display,0.9613367319107056
,room,0.9483959674835205
,family,0.9423385858535767
,indoors,0.9368758201599121
,adult,0.9357771873474121
,furniture,0.9310789108276367
,communication,0.9252610206604004
,man,0.9247562885284424
,education,0.9206737875938416
,business,0.9097861051559448
,table,0.90116286277771
,woman,0.8984633684158325
,monitor,0.8925371766090393
,telephone,0.8894338607788086
,movie,0.8847919702529907
https://scontent-sit4-1.cdninstagram.com/t51.2885-15/e35/13561993_652156941604895_593478946_n.jpg,internet,0.9861952066421509
,screen,0.9852560758590698
,touch,0.9831984043121338
,computer,0.9769587516784668
,business,0.9760160446166992
,technology,0.9741690158843994
,communication,0.972054123878479
,woman,0.9593042731285095
,electronics,0.9505424499511719
,people,0.9497915506362915
,man,0.9486250877380371
,telephone,0.9453302621841431
,pill,0.9417069554328918
,group,0.9398335814476013
,contemporary,0.9183441400527954
,portable,0.911363959312439
,display,0.9042235612869263
,television,0.9030941724777222
,multimedia,0.9013327360153198
,collage,0.8938363790512085
https://scontent-sit4-1.cdninstagram.com/t51.2885-15/e35/13392657_1572523316381475_839992879_n.jpg,group,0.9985437393188477
,man,0.9946836233139038
,group,0.9926673173904419
,portrait,0.9884980320930481
,teamwork,0.984494686126709
,togetherness,0.9837546348571777
,woman,0.9791693091392517
,adult,0.978246808052063
,happiness,0.9719961881637573
,friendship,0.9681233167648315
,people,0.9666363000869751
,student,0.9664369821548462
,education,0.9618549346923828
,school,0.9603092670440674
,four,0.9603025317192078
,squad,0.9547340273857117
,facial expression,0.9544845819473267
,laughing,0.9468224048614502
,three,0.9464266896247864
,indoors,0.9270747303962708
https://scontent-sit4-1.cdninstagram.com/t51.2885-15/e35/13414394_1736482973277790_46556283_n.jpg,people,0.9898228645324707
,indoors,0.9884339570999146
,child,0.9849318265914917
,horizontal,0.9771897792816162
,adult,0.9648493528366089
,woman,0.9555763006210327
,image,0.9548615217208862
,vertical,0.9256784915924072
,portrait,0.9256321787834167
,business,0.9109393954277039
,square,0.9060288071632385
,technology,0.9058966040611267
,communication,0.900059700012207
,headshot,0.897384762763977
,contemplation,0.8959637880325317
,happiness,0.8873991966247559
,cheerful,0.8733439445495605
,togetherness,0.8539266586303711
,window,0.8401004076004028
,office,0.8360452651977539
https://scontent-sit4-1.cdninstagram.com/t51.2885-15/e35/13392690_1730861490490755_604446752_n.jpg,group,0.9993867874145508
,group,0.9919203519821167
,woman,0.9900069236755371
,friendship,0.9851984977722168
,student,0.9821135401725769
,education,0.9813570976257324
,portrait,0.9808856248855591
,man,0.9802179336547852
,university,0.9754685163497925
,squad,0.9749660491943359
,multicultural,0.9727481007575989
,four,0.9720060229301453
,togetherness,0.9714627265930176
,school,0.9713923335075378
,people,0.9683314561843872
,teamwork,0.9633946418762207
,academic,0.9589222073554993
,laughing,0.9576320648193359
,adult,0.9561276435852051
,happiness,0.9561042785644531
https://scontent-sit4-1.cdninstagram.com/t51.2885-15/e35/13774824_268476320199190_925158281_n.jpg,woman,0.9914141893386841
,people,0.979896068572998
,indoors,0.9653599262237549
,adult,0.9626715183258057
,portrait,0.9593873023986816
,horizontal,0.9490929841995239
,cheerful,0.9487603306770325
,happiness,0.9441220760345459
,adolescent,0.9299231171607971
,friendship,0.9297865033149719
,joy,0.9225108623504639
,enjoyment,0.9054303169250488
,fun,0.896448016166687
,cute,0.8825387954711914
,fashion,0.8671479225158691
,young,0.8654805421829224
,looking,0.8558059334754944
,pretty,0.8483015298843384
,family,0.848020076751709
,togetherness,0.8477932214736938
https://scontent-sit4-1.cdninstagram.com/t51.2885-15/e35/13392797_151137218637234_827572524_n.jpg,man,0.9782649278640747
,sunglasses,0.9664736986160278
,people,0.96266770362854
,portrait,0.9318004846572876
,competition,0.929887056350708
,eyewear,0.9111555814743042
,indoors,0.9034224152565002
,adult,0.9028000831604004
,eyeglasses,0.8962793946266174
,business,0.8800726532936096
,election,0.8614100217819214
,education,0.8541254997253418
,wear,0.8436213135719299
,recreation,0.8416503071784973
,rally,0.8186323046684265
,race,0.8119217157363892
,auto racing,0.7835189700126648
,facial expression,0.7806763648986816
,soccer,0.7762800455093384
,championship,0.773619532585144
https://scontent-sit4-1.cdninstagram.com/t51.2885-15/e35/13534607_261944567513103_827155796_n.jpg,group,0.9945385456085205
,people,0.9838223457336426
,portrait,0.978638231754303
,woman,0.9733392000198364
,collage,0.9689579010009766
,squad,0.962497353553772
,many,0.9599114656448364
,group,0.9542617797851562
,man,0.953990638256073
,adult,0.9381427764892578
,teamwork,0.9254145622253418
,crowd,0.8893989324569702
,business,0.8823869228363037
,leader,0.880148708820343
,person,0.8541876077651978
,bill,0.8540166616439819
,friendship,0.8390111923217773
,education,0.8339307308197021
,support,0.8305546641349792
,meeting,0.8178409337997437
https://scontent-sit4-1.cdninstagram.com/t51.2885-15/e35/13722111_174836546266418_1877083858_n.jpg,woman,0.9959162473678589
,portrait,0.9921271800994873
,people,0.9890352487564087
,adult,0.9879207015037537
,cheerful,0.9866158962249756
,indoors,0.9863582849502563
,happiness,0.9812443256378174
,horizontal,0.9797696471214294
,headshot,0.9646790027618408
,facial expression,0.9374632239341736
,child,0.935143232345581
,friendship,0.9228014349937439
,business,0.9177113771438599
,confidence,0.9030041694641113
,adolescent,0.8964582681655884
,togetherness,0.8854882717132568
,cute,0.8835234642028809
,looking,0.869805097579956
,education,0.869641900062561
,vertical,0.8616893291473389
https://scontent-sit4-1.cdninstagram.com/t51.2885-15/e35/13713961_1084691568278446_1139422656_n.jpg,woman,0.9755344390869141
,portrait,0.9740819931030273
,adult,0.9549776911735535
,girl,0.9546545147895813
,people,0.9352468252182007
,one,0.9313606023788452
,beautiful,0.9146970510482788
,model,0.9038487672805786
,fashion,0.8831055164337158
,young,0.8742478489875793
,retro,0.8634757995605469
,desktop,0.8569560050964355
,brunette,0.8317992687225342
,dress,0.8226525783538818
,gown,0.8150577545166016
,studio,0.8097069263458252
,sexy,0.8076357841491699
,happiness,0.7966787815093994
,cute,0.7912275791168213
,indoors,0.7894840240478516
https://scontent-sit4-1.cdninstagram.com/t51.2885-15/e35/13534135_125173717911019_257277617_n.jpg,internet,0.9912471175193787
,technology,0.9888230562210083
,screen,0.9873439073562622
,communication,0.9868518114089966
,computer,0.9805449843406677
,touch,0.9694522023200989
,business,0.9669780731201172
,people,0.9582163095474243
,man,0.9578970074653625
,telephone,0.9569152593612671
,World Wide Web,0.9476500749588013
,pill,0.9432961344718933
,display,0.9384121894836426
,electronics,0.9316412210464478
,multimedia,0.9292725324630737
,woman,0.9276059865951538
,modern,0.912604570388794
,television,0.8987523913383484
,adult,0.8930002450942993
,device,0.8909594416618347
https://scontent-sit4-1.cdninstagram.com/t51.2885-15/e35/13402156_575752342605649_306795119_n.jpg,business,0.9828355312347412
,people,0.976861834526062
,group,0.9662013053894043
,leader,0.9436142444610596
,adult,0.9313013553619385
,city,0.927395224571228
,woman,0.9230364561080933
,meeting,0.9094579219818115
,man,0.9040932655334473
,office,0.8982400298118591
,room,0.8908630609512329
,administration,0.8904072046279907
,commerce,0.886944055557251
,building,0.8772550821304321
,prosperity,0.850938618183136
,many,0.8467840552330017
,election,0.839704155921936
,daylight,0.8349275588989258
,airport,0.8109970092773438
,wear,0.8055993914604187
https://scontent-sit4-1.cdninstagram.com/t51.2885-15/e35/13768163_299707010375275_1586580353_n.jpg,group,0.9943815469741821
,people,0.9905810356140137
,woman,0.9851273894309998
,adult,0.9784927368164062
,man,0.9709481000900269
,portrait,0.9661625623703003
,many,0.9535131454467773
,business,0.9268267154693604
,group,0.8953813910484314
,paper,0.8888072371482849
,bill,0.8635259866714478
,music,0.8549133539199829
,exhibition,0.8419958353042603
,four,0.837800145149231
,family,0.8337934017181396
,sit,0.8314465284347534
,indoors,0.8277342915534973
,child,0.7959511280059814
,three,0.7857112884521484
,education,0.7781963348388672
https://scontent-sit4-1.cdninstagram.com/t51.2885-15/e35/13643621_1753501318269232_1605569798_n.jpg,World Wide Web,0.9770468473434448
,layout,0.9749494194984436
,template,0.9725170135498047
,banner,0.971823513507843
,set,0.965526282787323
,people,0.9515633583068848
,presentation,0.9500609636306763
,portrait,0.942669689655304
,page,0.9169613122940063
,woman,0.9167064428329468
,heading,0.9023385643959045
,headshot,0.899328887462616
,adult,0.8904289603233337
,interface,0.8537975549697876
,stripe,0.8218575716018677
,identity,0.8149735927581787
,adolescent,0.8069285154342651
,friendship,0.7792571783065796
,horizontal,0.761581301689148
,picture frame,0.748989999294281
https://scontent-sit4-1.cdninstagram.com/t51.2885-15/e35/13694523_1157531887623592_296660378_n.jpg,woman,0.9892706871032715
,people,0.9882445931434631
,group,0.984460711479187
,collection,0.9827057719230652
,fashion,0.9614458084106445
,exhibition,0.9533418416976929
,stock,0.9438701868057251
,adult,0.9406284093856812
,editorial,0.9398682117462158
,dress,0.9196892976760864
,shopping,0.9141513109207153
,portrait,0.909815788269043
,music,0.907265305519104
,recreation,0.9065538048744202
,indoors,0.8905901908874512
,man,0.8868571519851685
,friendship,0.8842070698738098
,shop,0.8840579986572266
,fame,0.8809539675712585
,actress,0.879879355430603
https://scontent-sit4-1.cdninstagram.com/t51.2885-15/e35/13388741_1057381057680056_1546726578_n.jpg,man,0.9921747446060181
,people,0.9882223606109619
,portrait,0.986628532409668
,facial expression,0.9862498044967651
,adult,0.962689995765686
,happiness,0.9444767236709595
,child,0.9266114234924316
,enjoyment,0.9059934616088867
,daylight,0.9040151834487915
,wear,0.902911365032196
,two,0.8969374895095825
,boy,0.8917847871780396
,fun,0.8836950063705444
,indoors,0.8679653406143188
,family,0.8496710062026978
,laughing,0.8463718891143799
,togetherness,0.8324354887008667
,adolescent,0.8093966245651245
,leisure,0.8025617599487305
,woman,0.7968342304229736
https://scontent-sit4-1.cdninstagram.com/t51.2885-15/e35/13534196_1072054452889296_1194906438_n.jpg,people,0.9967615008354187
,group,0.99055016040802
,uniform,0.9731369018554688
,military,0.9688810110092163
,man,0.968609631061554
,child,0.9666070938110352
,woman,0.9582477807998657
,adult,0.9550893306732178
,army,0.9450015425682068
,soldier,0.9359079599380493
,wear,0.9169506430625916
,education,0.9130971431732178
,group,0.9074476957321167
,war,0.9044722318649292
,several,0.9036813974380493
,portrait,0.9002231359481812
,bill,0.8983621001243591
,many,0.8836145997047424
,vehicle,0.8665512800216675
,boy,0.8514436483383179
https://scontent-sit4-1.cdninstagram.com/t51.2885-15/e35/13473102_1615212488793796_1945440634_n.jpg,child,0.9929380416870117
,friendship,0.990900993347168
,togetherness,0.9888742566108704
,cheerful,0.9883642196655273
,man,0.9875227212905884
,happiness,0.9874814748764038
,people,0.9722305536270142
,education,0.9652354717254639
,portrait,0.9650002121925354
,adolescent,0.9639650583267212
,adult,0.9594622850418091
,indoors,0.9571236968040466
,woman,0.9516129493713379
,horizontal,0.9501904249191284
,enjoyment,0.9185900688171387
,teamwork,0.8996904492378235
,exhilaration,0.8954599499702454
,sitting,0.8935511112213135
,school,0.8922500610351562
,pride,0.8774293661117554
https://scontent-sit4-1.cdninstagram.com/t51.2885-15/e35/13561910_1836736483220837_1975748546_n.jpg,group,0.9972853660583496
,portrait,0.985388994216919
,people,0.9777656197547913
,education,0.959957480430603
,man,0.9576426148414612
,woman,0.9564100503921509
,school,0.936722993850708
,adult,0.9331387281417847
,university,0.9131631851196289
,friendship,0.885969877243042
,group,0.8843214511871338
,child,0.8708295822143555
,leader,0.8624452352523804
,smile,0.8501182794570923
,togetherness,0.841648519039154
,laughing,0.8262342810630798
,squad,0.7965778112411499
,happiness,0.7882204055786133
,many,0.7717750072479248
,rally,0.7516529560089111
https://scontent-sit4-1.cdninstagram.com/t51.2885-15/e35/13557191_571897042981675_87192912_n.jpg,group,0.9975634217262268
,people,0.9925895929336548
,portrait,0.9908651113510132
,man,0.9853593111038208
,many,0.9781244993209839
,group,0.977091908454895
,adult,0.9660854339599609
,woman,0.9627691507339478
,leader,0.929558277130127
,rally,0.9177123308181763
,crowd,0.9083921909332275
,police,0.8944759368896484
,squad,0.8876839280128479
,education,0.8522035479545593
,election,0.8356994986534119
,administration,0.835342288017273
,school,0.8208017945289612
,offense,0.8178756237030029
,teamwork,0.7998595237731934
,competition,0.7914283275604248
https://scontent-sit4-1.cdninstagram.com/t51.2885-15/e35/13395007_868829763222714_1340687135_n.jpg,communication,0.9887064695358276
,woman,0.9881188273429871
,technology,0.9815196990966797
,internet,0.9793514013290405
,man,0.9686766266822815
,computer,0.9679052829742432
,business,0.9678069353103638
,adult,0.9659762382507324
,people,0.9598082304000854
,indoors,0.9572763442993164
,teamwork,0.9442303776741028
,group,0.9246343374252319
,connection,0.9144752025604248
,horizontal,0.9063478708267212
,office,0.8867213726043701
,headshot,0.8681477904319763
,telephone,0.8517775535583496
,togetherness,0.8490296602249146
,contemporary,0.830574631690979
,portrait,0.8296232223510742
https://scontent-sit4-1.cdninstagram.com/t51.2885-15/e35/13423046_1001854466572947_805554459_n.jpg,people,0.9511398077011108
,no person,0.9313915371894836
,travel,0.9243738651275635
,sign,0.921557605266571
,tourism,0.9132473468780518
,landscape,0.9113950729370117
,banner,0.9094405770301819
,business,0.9056780338287354
,vehicle,0.9036164879798889
,soccer,0.9015922546386719
,competition,0.8943741321563721
,football,0.8871382474899292
,recreation,0.8852288722991943
,commerce,0.8833786845207214
,food,0.8783186674118042
,bill,0.8770955801010132
,adult,0.8706697225570679
,card,0.8690050840377808
,mammal,0.8588385581970215
,movie,0.853631854057312
https://scontent-sit4-1.cdninstagram.com/t51.2885-15/e35/13714051_1573319129630865_1862975207_n.jpg,people,0.9985273480415344
,group,0.9982613325119019
,music,0.9981175661087036
,adult,0.9945895671844482
,musician,0.9881043434143066
,woman,0.9865084886550903
,man,0.9857039451599121
,paper,0.9826988577842712
,many,0.9818862676620483
,print,0.9775440692901611
,war,0.9739116430282593
,performance,0.9561694860458374
,portrait,0.9558345675468445
,concert,0.9503365159034729
,singer,0.9490714073181152
,museum,0.942089319229126
,bill,0.939167320728302
,journalist,0.9387680292129517
,exhibition,0.9327325820922852
,art,0.9128901958465576
https://scontent-sit4-1.cdninstagram.com/t51.2885-15/e35/13712264_539751289564056_943827276_n.jpg,people,0.9905804991722107
,music,0.9795200824737549
,adult,0.9748249053955078
,woman,0.9734814763069153
,performance,0.9480884075164795
,musician,0.9336075782775879
,singer,0.9317755103111267
,festival,0.9154336452484131
,man,0.9121942520141602
,group,0.9051945209503174
,bill,0.8964888453483582
,city,0.8897982835769653
,street,0.8859373331069946
,wear,0.8658784627914429
,concert,0.8632403016090393
,portrait,0.8531664609909058
,celebration,0.852129340171814
,stage,0.8360933661460876
,band,0.833578884601593
,motion,0.8294875025749207
https://scontent-sit4-1.cdninstagram.com/t51.2885-15/e35/13385923_1107374212634354_279895006_n.jpg,people,0.9978336095809937
,woman,0.9949236512184143
,print,0.9924144148826599
,adult,0.9921220541000366
,portrait,0.9811644554138184
,administration,0.9637740254402161
,group,0.9614704847335815
,man,0.9589684009552002
,retro,0.9462367296218872
,war,0.9457664489746094
,museum,0.9450018405914307
,paper,0.9364936351776123
,paper,0.9216375350952148
,magazine,0.9076979160308838
,music,0.9061890840530396
,journalist,0.9030067920684814
,business,0.901674747467041
,illustration,0.8902777433395386
,text,0.8838270902633667
,person,0.8829141855239868
https://scontent-sit4-1.cdninstagram.com/t51.2885-15/e35/13704325_855739784557122_1247072104_n.jpg,people,0.9924767017364502
,adult,0.9876595139503479
,woman,0.9831130504608154
,group,0.9815596342086792
,man,0.9737827777862549
,wear,0.969748854637146
,two,0.9528985619544983
,music,0.948322057723999
,three,0.9236490726470947
,facial expression,0.91742342710495
,indoors,0.9172428250312805
,portrait,0.9139460921287537
,education,0.8944573998451233
,cooperation,0.8744494915008545
,business,0.8740924596786499
,musician,0.8708917498588562
,family,0.8702014684677124
,togetherness,0.8658067584037781
,teamwork,0.8620691299438477
,performance,0.8475210666656494
https://scontent-sit4-1.cdninstagram.com/t51.2885-15/e35/13423079_569409686571705_1560241789_n.jpg,people,0.9665735363960266
,rally,0.9540873765945435
,bill,0.9507255554199219
,competition,0.9235328435897827
,road,0.9142428040504456
,banner,0.9139671325683594
,event,0.9022915363311768
,street,0.8873140811920166
,vehicle,0.8759191632270813
,battle,0.7963622212409973
,offense,0.7943711280822754
,police,0.786353588104248
,rally,0.7826530337333679
,man,0.7725517153739929
,populace,0.768467128276825
,action,0.7672886848449707
,picket,0.7492703795433044
,woman,0.7383848428726196
,freedom,0.735489547252655
,adult,0.7303587198257446
https://scontent-sit4-1.cdninstagram.com/t51.2885-15/e35/13525427_1722726454655038_172503195_n.jpg,people,0.9785454273223877
,woman,0.9738194346427917
,communication,0.9667959213256836
,technology,0.9626952409744263
,display,0.9516979455947876
,computer,0.9476407766342163
,group,0.9458284378051758
,internet,0.9413573741912842
,young,0.9405680298805237
,laptop,0.9282639026641846
,adult,0.9229114055633545
,screen,0.9168781638145447
,business,0.9076358079910278
,friendship,0.8946638107299805
,cheerful,0.8903424143791199
,modern,0.8871196508407593
,television,0.8809563517570496
,education,0.8762686848640442
,adolescent,0.8755769729614258
,telephone,0.8673077821731567
https://scontent-sit4-1.cdninstagram.com/t51.2885-15/e35/13712357_306760759673323_438268150_n.jpg,child,0.9969817399978638
,togetherness,0.9789299964904785
,horizontal,0.97432541847229
,friendship,0.9698817729949951
,fun,0.9673236608505249
,family,0.9617580771446228
,happiness,0.9609620571136475
,woman,0.9601957201957703
,laughing,0.959143340587616
,people,0.9518827795982361
,enjoyment,0.9507098197937012
,joy,0.948261559009552
,portrait,0.9481858015060425
,adolescent,0.9371964931488037
,cheerful,0.9333099722862244
,cute,0.9272761940956116
,education,0.9143697023391724
,indoors,0.8819712400436401
,multicultural,0.8704794049263
,man,0.8663530945777893
https://scontent-sit4-1.cdninstagram.com/t51.2885-15/e35/13706946_746354348800242_1733364817_n.jpg,people,0.9945218563079834
,group,0.9925243854522705
,portrait,0.9910380840301514
,woman,0.9897806644439697
,adult,0.9866048097610474
,collection,0.9836316108703613
,music,0.9822802543640137
,editorial,0.9754951000213623
,festival,0.968143105506897
,bill,0.9637186527252197
,exhibition,0.961043119430542
,actress,0.9455398321151733
,fashion,0.9443686008453369
,performance,0.9442180395126343
,fame,0.9388734102249146
,singer,0.9371029138565063
,party,0.9365392923355103
,event,0.9350266456604004
,musician,0.9328552484512329
,collage,0.9308298826217651
https://scontent-sit4-1.cdninstagram.com/t51.2885-15/e35/13355587_1318148031548532_1812857302_n.jpg,woman,0.9940345883369446
,music,0.9918690323829651
,people,0.9916139841079712
,portrait,0.9844576120376587
,adult,0.9816691279411316
,musician,0.981252908706665
,man,0.9665226936340332
,recreation,0.9651715159416199
,group,0.9595643281936646
,singer,0.9568254947662354
,administration,0.9451736211776733
,bill,0.9287916421890259
,festival,0.9227685928344727
,performance,0.9219222068786621
,business,0.9213471412658691
,fashion,0.908366322517395
,retro,0.9014898538589478
,wear,0.8989071846008301
,actress,0.8953100442886353
,text,0.8851087689399719
https://scontent-sit4-1.cdninstagram.com/t51.2885-15/e35/13707058_954665928012898_45830143_n.jpg,adult,0.9904689788818359
,people,0.9803928136825562
,woman,0.978520393371582
,portrait,0.9428796768188477
,text,0.9331210851669312
,bill,0.9250891804695129
,recreation,0.8946292400360107
,education,0.8888790607452393
,music,0.8857544660568237
,presentation,0.8716132640838623
,business,0.8459763526916504
,magazine,0.8378826975822449
,school,0.8267662525177002
,illustration,0.816758394241333
,festival,0.8120334148406982
,sign,0.8054256439208984
,modern,0.788719892501831
,man,0.7862650752067566
,technology,0.754277229309082
,science,0.7417433261871338
https://scontent-sit4-1.cdninstagram.com/t51.2885-15/e35/13694345_1747008805560132_259215617_n.jpg,people,0.99273681640625
,adult,0.9926826357841492
,man,0.9772351980209351
,portrait,0.977067232131958
,computer,0.9624353647232056
,two,0.960163950920105
,room,0.9516122937202454
,laptop,0.9429417848587036
,music,0.9423931837081909
,business,0.9398391842842102
,musician,0.9300651550292969
,woman,0.9264832139015198
,education,0.9261913299560547
,group,0.9190455675125122
,indoors,0.9185832738876343
,one,0.9140171408653259
,wear,0.9127894639968872
,technology,0.9108608961105347
,singer,0.8745396137237549
,interaction,0.8738229274749756
https://scontent-sit4-1.cdninstagram.com/t51.2885-15/e35/13724610_1404098012939588_181204054_n.jpg,screen,0.9960171580314636
,computer,0.9935132265090942
,television,0.9891037940979004
,technology,0.9880020618438721
,portrait,0.9846550226211548
,people,0.9844645857810974
,monitor,0.9661989808082581
,adult,0.9652596712112427
,woman,0.9579799175262451
,internet,0.951366126537323
,laptop,0.9443793296813965
,one,0.9443017244338989
,girl,0.9349222779273987
,window,0.9238300919532776
,display,0.9155684113502502
,business,0.9087204933166504
,family,0.8506263494491577
,smile,0.8483671545982361
,modern,0.8435967564582825
,beautiful,0.8356099128723145
