url,class,score
https://scontent-sit4-1.cdninstagram.com/t51.2885-15/s640x640/e15/13422947_292919554379539_788347308_n.jpg,dog,0.9995083808898926
,canine,0.9962280988693237
,pet,0.993406355381012
,cute,0.9926811456680298
,animal,0.9894171953201294
,puppy,0.9887465834617615
,mammal,0.988107442855835
,domestic,0.9830440282821655
,sit,0.9712796807289124
,purebred,0.9693675637245178
,no person,0.9692997932434082
,looking,0.9673694968223572
,breed,0.9664413332939148
,portrait,0.9635669589042664
,obedience,0.9620941877365112
,funny,0.9590160846710205
,sitting,0.9537363052368164
,bulldog,0.9515084028244019
,adorable,0.9484050273895264
,studio,0.9462461471557617
https://scontent-sit4-1.cdninstagram.com/t51.2885-15/s640x640/e15/13525415_908787189247919_415339355_n.jpg,dog,0.9995365142822266
,canine,0.9975267648696899
,mammal,0.9942874908447266
,pet,0.9899551868438721
,one,0.9820806384086609
,people,0.9762880802154541
,furniture,0.9709769487380981
,room,0.9700208902359009
,no person,0.9694101810455322
,portrait,0.9658648371696472
,indoors,0.9573097229003906
,puppy,0.9478553533554077
,adult,0.940847635269165
,sit,0.9322768449783325
,exhibition,0.9203526377677917
,painting,0.9185241460800171
,sadness,0.9179909229278564
,pug,0.9166632890701294
,animal,0.9161871671676636
,chair,0.9144693613052368
https://scontent-sit4-1.cdninstagram.com/t51.2885-15/s640x640/e15/13636101_1759228094320854_1109553722_n.jpg,adult,0.9756890535354614
,people,0.9724352359771729
,woman,0.9692280292510986
,portrait,0.948827862739563
,education,0.946922779083252
,indoors,0.9310977458953857
,business,0.9054006934165955
,school,0.9035300016403198
,happiness,0.8845504522323608
,office,0.880164623260498
,man,0.8775825500488281
,technology,0.8725885152816772
,girl,0.855388879776001
,facial expression,0.8423120379447937
,wear,0.8419466018676758
,room,0.8272043466567993
,computer,0.8086063265800476
,stock,0.7880085706710815
,daylight,0.7821325063705444
,commerce,0.7815220355987549
https://scontent-sit4-1.cdninstagram.com/t51.2885-15/e35/13696436_530783693780647_876637974_n.jpg,woman,0.9897173643112183
,business,0.947845458984375
,young,0.9215905666351318
,people,0.9142197370529175
,pretty,0.9128029942512512
,education,0.9040988683700562
,paper,0.9021427631378174
,isolated,0.9003424644470215
,college,0.9001654386520386
,student,0.8813775181770325
,looking,0.8800805807113647
,girl,0.8409037590026855
,writing,0.8405400514602661
,indoors,0.8405278325080872
,coffee,0.8376925587654114
,success,0.8366948962211609
,adolescent,0.8278673887252808
,office,0.8218268156051636
,contemporary,0.8153610229492188
,adult,0.8137061595916748
https://scontent-sit4-1.cdninstagram.com/t51.2885-15/e35/13722190_752603538227089_113286985_n.jpg,business,0.9833593368530273
,text,0.9597653150558472
,people,0.9560803771018982
,education,0.9494651556015015
,illustration,0.9348480701446533
,chalkboard,0.9131746292114258
,school,0.9094120860099792
,horizontal,0.9058470726013184
,sign,0.9017840623855591
,desktop,0.8999178409576416
,solution,0.8867441415786743
,guidance,0.8728058338165283
,display,0.8647555112838745
,adult,0.8504774570465088
,creativity,0.8499120473861694
,bill,0.8458373546600342
,man,0.829704999923706
,success,0.8223133087158203
,communication,0.8200981020927429
,success,0.8194420337677002
https://scontent-sit4-1.cdninstagram.com/t51.2885-15/e35/12976346_507910646059527_979966530_n.jpg,fun,0.9678111672401428
,no person,0.9627618193626404
,child,0.9597172737121582
,cake,0.94559645652771
,celebration,0.9402655363082886
,table,0.929850697517395
,party,0.9268699884414673
,birthday,0.9136438369750977
,cute,0.8972339630126953
,design,0.8969719409942627
,decoration,0.895190954208374
,vacation,0.8850537538528442
,chair,0.8828732371330261
,Christmas,0.8759055137634277
,funny,0.8744219541549683
,candle,0.8615946173667908
,little,0.8413141965866089
,food,0.8355557918548584
,toy,0.8340314626693726
,indoors,0.8238465785980225
https://scontent-sit4-1.cdninstagram.com/t51.2885-15/e35/13167479_567480306765604_895397887_n.jpg,container,0.9627245664596558
,no person,0.9580112099647522
,glass,0.9493720531463623
,food,0.9440183639526367
,box,0.9413390159606934
,desktop,0.9304986000061035
,wood,0.8747084140777588
,collection,0.8641059398651123
,hot,0.8630183935165405
,family,0.8529678583145142
,fruit,0.8486044406890869
,corn,0.8391209840774536
,drink,0.8302943110466003
,candle,0.8301211595535278
,bottle,0.8284933567047119
,traditional,0.8241626024246216
,full,0.8195146322250366
,set,0.8061109781265259
,jar,0.790817141532898
,table,0.7806666493415833
https://scontent-sit4-1.cdninstagram.com/t51.2885-15/s750x750/sh0.08/e35/12930994_1718392405113134_1404818268_n.jpg,people,0.9726786017417908
,education,0.9485629200935364
,portrait,0.9415512084960938
,woman,0.933621883392334
,man,0.9156023263931274
,child,0.9149999618530273
,young,0.9122186303138733
,adult,0.9054639935493469
,person,0.9039722084999084
,business,0.9018952250480652
,girl,0.875104546546936
,school,0.8582602739334106
,indoors,0.8383175134658813
,cheerful,0.8186146020889282
,technology,0.8185749650001526
,face,0.813058614730835
,happiness,0.8099080920219421
,youth,0.8069391250610352
,smile,0.8000997304916382
,cute,0.7982810735702515
https://scontent-sit4-1.cdninstagram.com/t51.2885-15/e35/13256758_1037797122923069_1897156954_n.jpg,soccer,0.9903097152709961
,competition,0.9792309999465942
,stadium,0.9735770225524902
,football,0.9734341502189636
,people,0.944090723991394
,champion,0.9365618228912354
,ball,0.934719443321228
,man,0.9260327816009521
,one,0.8819611072540283
,game,0.881193995475769
,victory,0.8725390434265137
,portrait,0.8678247928619385
,sports fan,0.8264710903167725
,match,0.8045041561126709
,athlete,0.8014413714408875
,adult,0.7960500121116638
,recreation,0.7865620851516724
,audience,0.7825944423675537
,music,0.771856963634491
,celebration,0.7588801383972168
https://scontent-sit4-1.cdninstagram.com/t51.2885-15/e35/12940299_508624039326734_406068783_n.jpg,child,0.9958664178848267
,togetherness,0.9895375967025757
,family,0.9871463179588318
,woman,0.9864790439605713
,indoors,0.9812273383140564
,fun,0.9469534754753113
,people,0.9455287456512451
,cute,0.9453082084655762
,maternity,0.9438297748565674
,love,0.940372109413147
,enjoyment,0.9331216812133789
,little,0.9157849550247192
,affection,0.9150853157043457
,man,0.8993363380432129
,sit,0.8981743454933167
,two,0.8897868394851685
,boy,0.8874490261077881
,joy,0.886555016040802
,laughing,0.8693154454231262
,looking,0.8684122562408447
https://scontent-sit4-1.cdninstagram.com/t51.2885-15/e35/13712367_1585108081783131_1189284600_n.jpg,food,0.9928750991821289
,dinner,0.9841163158416748
,bowl,0.983005702495575
,soup,0.9822453260421753
,lunch,0.9746924042701721
,vegetable,0.9738701581954956
,healthy,0.9692212343215942
,cuisine,0.9649558067321777
,no person,0.9620463848114014
,meal,0.9584720134735107
,appetizer,0.9566880464553833
,dish,0.9551061987876892
,delicious,0.9474958181381226
,cooking,0.943776547908783
,health,0.9384638071060181
,traditional,0.9360793828964233
,diet,0.9360017776489258
,nutrition,0.925202488899231
,spoon,0.9234659671783447
,closeup,0.9193665981292725
https://scontent-sit4-1.cdninstagram.com/t51.2885-15/e35/13561624_643400839142337_1573073890_n.jpg,dog,0.9802539348602295
,man,0.9686453938484192
,fun,0.9159408807754517
,young,0.9115642309188843
,people,0.9099910259246826
,pet,0.9045789837837219
,canine,0.8771101832389832
,indoors,0.8653770685195923
,puppy,0.8524320125579834
,funny,0.8520581722259521
,looking,0.8449106216430664
,person,0.8402725458145142
,security,0.826710045337677
,little,0.8213337659835815
,one,0.8157323002815247
,control,0.809401273727417
,sitting,0.8055402040481567
,sit,0.8016929030418396
,toy,0.8013274073600769
,portrait,0.7974889278411865
https://scontent-sit4-1.cdninstagram.com/t51.2885-15/e35/13651856_792902244185614_254170561_n.jpg,people,0.9633351564407349
,woman,0.9602391719818115
,man,0.9587128162384033
,indoors,0.9441513419151306
,adult,0.9357922077178955
,portrait,0.9258368611335754
,business,0.9221903085708618
,group,0.9044604301452637
,technology,0.874767541885376
,friendship,0.8433288335800171
,togetherness,0.8327285051345825
,education,0.8297972679138184
,horizontal,0.8295361995697021
,student,0.8267992734909058
,competition,0.7995058298110962
,happiness,0.7782745361328125
,teamwork,0.7758226990699768
,communication,0.7732506394386292
,group,0.7483108043670654
,computer,0.7294926643371582
https://scontent-sit4-1.cdninstagram.com/t51.2885-15/e35/13696743_1841215589440317_1768049582_n.jpg,wall,0.9620171785354614
,woman,0.9569886922836304
,indoors,0.9474947452545166
,family,0.9404924511909485
,people,0.9264994859695435
,young,0.9241571426391602
,inside,0.9101833701133728
,man,0.9097203016281128
,business,0.8916664123535156
,contemporary,0.8873594999313354
,fashion,0.8744442462921143
,empty,0.872510552406311
,one,0.8716845512390137
,room,0.8561768531799316
,adult,0.8460475206375122
,desktop,0.8292485475540161
,model,0.8249011039733887
,design,0.8183523416519165
,window,0.8140031099319458
,portrait,0.8068047761917114
https://scontent-sit4-1.cdninstagram.com/t51.2885-15/e35/13712305_1752970524985589_1451258148_n.jpg,paper,0.9592236280441284
,education,0.9254894256591797
,literature,0.9245033264160156
,no person,0.9229104518890381
,recycling,0.9105516672134399
,order,0.9072965383529663
,page,0.8835586905479431
,plastic,0.8783451318740845
,clean,0.8711298108100891
,business,0.8577464818954468
,collection,0.8473657965660095
,blank,0.846358597278595
,isolated,0.8350849151611328
,data,0.8306589126586914
,isolated,0.8256499767303467
,color,0.8238781094551086
,booklet,0.7930335402488708
,desktop,0.7902585864067078
,book,0.7824605703353882
,number,0.7728891372680664
https://scontent-sit4-1.cdninstagram.com/t51.2885-15/e35/13248839_1720566494857747_1018521436_n.jpg,no person,0.9213898181915283
,illustration,0.9201679229736328
,design,0.9120321869850159
,desktop,0.9098000526428223
,bright,0.9068347215652466
,technology,0.9012932777404785
,vector,0.8835696578025818
,dark,0.8821861743927002
,business,0.8716856837272644
,abstract,0.8695536851882935
,electronics,0.8131741285324097
,modern,0.8099990487098694
,glazed,0.7841291427612305
,graphic,0.780016303062439
,pattern,0.7749764323234558
,style,0.772063136100769
,steel,0.7690884470939636
,shining,0.7689844369888306
,contemporary,0.7640566825866699
,light,0.7619233727455139
https://scontent-sit4-1.cdninstagram.com/t51.2885-15/e35/13398569_145609125851936_1683073088_n.jpg,woman,0.9649609923362732
,people,0.9446232318878174
,child,0.9332998991012573
,girl,0.9209500551223755
,young,0.9195188283920288
,man,0.9186598062515259
,fashion,0.8798046112060547
,fun,0.8689379692077637
,summer,0.864766001701355
,love,0.8630472421646118
,outdoors,0.860025942325592
,street,0.8368745446205139
,pretty,0.8277832865715027
,family,0.8252966403961182
,couple,0.8194618225097656
,leisure,0.8095405101776123
,adult,0.808707594871521
,health,0.7965906262397766
,boy,0.7906398177146912
,one,0.7852429151535034
https://scontent-sit4-1.cdninstagram.com/t51.2885-15/e35/13129866_170564950009873_953360050_n.jpg,food,0.9408634901046753
,group,0.9058289527893066
,people,0.8958730697631836
,woman,0.8673021793365479
,many,0.8624109029769897
,no person,0.8453608751296997
,desktop,0.8217204213142395
,traditional,0.8115109801292419
,health,0.8095793724060059
,wood,0.7894673347473145
,child,0.772942066192627
,one,0.7534800171852112
,bread,0.7509218454360962
,delicious,0.7295798063278198
,indoors,0.7287777662277222
,fruit,0.719587504863739
,young,0.715918242931366
,two,0.7047967910766602
,isolated,0.702347993850708
,man,0.6849614381790161
https://scontent-sit4-1.cdninstagram.com/t51.2885-15/e35/13671116_320244018310079_1882135888_n.jpg,people,0.9736891984939575
,group,0.9690912961959839
,man,0.9517921209335327
,portrait,0.9252653121948242
,city,0.9098016023635864
,street,0.9087443351745605
,woman,0.8913582563400269
,group,0.8888517618179321
,stock,0.8710028529167175
,coffee,0.8649120330810547
,adult,0.8540592789649963
,music,0.8342233300209045
,commerce,0.8333771228790283
,road,0.8186705708503723
,drink,0.8177051544189453
,vehicle,0.8096797466278076
,wear,0.8021129965782166
,three,0.8020975589752197
,crowd,0.7892963886260986
,recreation,0.7727371454238892
https://scontent-sit4-1.cdninstagram.com/t51.2885-15/e35/13402592_209051856155490_1924941735_n.jpg,people,0.9849851131439209
,woman,0.9801715016365051
,portrait,0.9791163206100464
,two,0.973129153251648
,man,0.9650775790214539
,family,0.9375972747802734
,togetherness,0.9337512254714966
,adult,0.932361364364624
,three,0.9253731966018677
,happiness,0.9218060970306396
,friendship,0.916409969329834
,group,0.9116950035095215
,fun,0.8999410271644592
,love,0.8971188068389893
,enjoyment,0.8902474641799927
,child,0.884044885635376
,adolescent,0.8647792339324951
,laughing,0.8510591983795166
,facial expression,0.8452379703521729
,embrace,0.8422094583511353
https://scontent-sit4-1.cdninstagram.com/t51.2885-15/e35/13183551_1608021249487778_1270619199_n.jpg,no person,0.9965441226959229
,paper,0.9891248345375061
,delicious,0.9570382833480835
,food,0.9490117430686951
,business,0.9048309326171875
,breakfast,0.8971613049507141
,health,0.8760154247283936
,nutrition,0.8489729166030884
,butter,0.8413555026054382
,sugar,0.8350049257278442
,isolated,0.8346630930900574
,baking,0.8321002721786499
,sticky,0.8233731985092163
,sweet,0.812938928604126
,success,0.7878568172454834
,cooking,0.7649791836738586
,unhealthy,0.7609655261039734
,indulgence,0.7508101463317871
,dairy product,0.7498478889465332
,isolated,0.7488013505935669
https://scontent-sit4-1.cdninstagram.com/t51.2885-15/e35/13129524_123411178063128_44786710_n.jpg,group,0.9709936380386353
,woman,0.9663445949554443
,education,0.9650295972824097
,man,0.9621700048446655
,table,0.9548355340957642
,people,0.9428215622901917
,adult,0.9411087036132812
,group,0.927625298500061
,classroom,0.9141242504119873
,child,0.895546019077301
,teamwork,0.8817060589790344
,school,0.871523916721344
,room,0.8710787892341614
,togetherness,0.8646798133850098
,desk,0.8404076099395752
,computer,0.8390641212463379
,squad,0.8327137231826782
,communication,0.830536961555481
,sit,0.8251593112945557
,teacher,0.8181676864624023
https://scontent-sit4-1.cdninstagram.com/t51.2885-15/e35/13651976_1216032775085001_437068406_n.jpg,drink,0.9754378199577332
,beer,0.9698818922042847
,man,0.9522790908813477
,woman,0.9417104125022888
,group,0.9336992502212524
,people,0.9329939484596252
,group,0.9174151420593262
,friendship,0.9047658443450928
,alcohol,0.8993120193481445
,coffee,0.8864122629165649
,bar,0.8805281519889832
,adult,0.8303528428077698
,happiness,0.8278717994689941
,portrait,0.8160028457641602
,bottle,0.798210620880127
,three,0.7891881465911865
,cheerful,0.7884483337402344
,business,0.7633495330810547
,family,0.7533856630325317
,enjoyment,0.7530752420425415
https://scontent-sit4-1.cdninstagram.com/t51.2885-15/e35/13256809_1007778699310719_1218758416_n.jpg,indoors,0.98297119140625
,wear,0.9766987562179565
,woman,0.9619806408882141
,people,0.9599643349647522
,facial expression,0.9572752714157104
,one,0.9540325403213501
,dog,0.9529314041137695
,room,0.9418632984161377
,portrait,0.9276362657546997
,adult,0.9255321025848389
,furniture,0.9201815128326416
,two,0.8949720859527588
,canine,0.8724156618118286
,footwear,0.8713065981864929
,child,0.8491369485855103
,enjoyment,0.8449188470840454
,family,0.8364272117614746
,fashion,0.8314478397369385
,looking,0.8171716928482056
,girl,0.8162522912025452
https://scontent-sit4-1.cdninstagram.com/t51.2885-15/e35/13423599_973397909423744_6404044_n.jpg,relaxation,0.9748613834381104
,water,0.9742839932441711
,leisure,0.9705451726913452
,sea,0.9647477865219116
,beach,0.963335394859314
,summer,0.9603944420814514
,travel,0.954479992389679
,vacation,0.9428828358650208
,ocean,0.9300670623779297
,nature,0.9261489510536194
,recreation,0.9207714796066284
,lifestyle,0.9082099199295044
,sky,0.899835467338562
,woman,0.8948355913162231
,tropical,0.8907038569450378
,fun,0.8894702196121216
,people,0.8892438411712646
,sand,0.8765314817428589
,seashore,0.8552964925765991
,bench,0.8511365652084351
https://scontent-sit4-1.cdninstagram.com/t51.2885-15/e35/13151141_130762863996226_1612140388_n.jpg,chocolate,0.9925785064697266
,no person,0.9884026646614075
,cream,0.9825758934020996
,ice,0.9729537963867188
,delicious,0.9559175968170166
,food,0.9546453952789307
,sweet,0.9543923139572144
,cone,0.9477989673614502
,vanilla,0.935494065284729
,caramel,0.9268275499343872
,milk,0.9106752276420593
,glass,0.9095994234085083
,sugar,0.9092625379562378
,candy,0.9058389663696289
,goody,0.9028512239456177
,indulgence,0.8844774961471558
,isolated,0.8713908195495605
,cold,0.8649048805236816
,cup,0.8443006277084351
,wafer,0.8324140310287476
https://scontent-sit4-1.cdninstagram.com/t51.2885-15/e35/13649354_1016285688468337_419442769_n.jpg,woman,0.9592689275741577
,people,0.9559375047683716
,man,0.9416182637214661
,two,0.9201955795288086
,young,0.8968175649642944
,happiness,0.8678697943687439
,couple,0.8541026711463928
,group,0.8527202606201172
,portrait,0.8438427448272705
,traditional,0.8414403796195984
,love,0.8392081260681152
,pretty,0.8306208848953247
,togetherness,0.8232300281524658
,culture,0.8161270618438721
,friendship,0.8101911544799805
,fun,0.8075151443481445
,business,0.8050894737243652
,pride,0.8045254349708557
,cheerful,0.8009564280509949
,joy,0.7892413139343262
https://scontent-sit4-1.cdninstagram.com/t51.2885-15/e35/13658393_468798549989459_76450403_n.jpg,technology,0.9723230600357056
,business,0.9681788682937622
,people,0.938761830329895
,screen,0.933426022529602
,communication,0.9004889726638794
,light,0.9003957509994507
,investor,0.8893908262252808
,display,0.8821064829826355
,illuminated,0.8618631362915039
,computer,0.8521382212638855
,science,0.8366685509681702
,horizontal,0.8258256316184998
,man,0.8252283334732056
,internet,0.8039119243621826
,indoors,0.8037043213844299
,television,0.7909457683563232
,market,0.7841882705688477
,desktop,0.7478777170181274
,commerce,0.7472845315933228
,adult,0.7399791479110718
https://scontent-sit4-1.cdninstagram.com/t51.2885-15/e35/13696563_272028889856111_1113768071_n.jpg,restaurant,0.97928786277771
,drink,0.9698785543441772
,food,0.9688370227813721
,bar,0.9641566872596741
,woman,0.9619603753089905
,people,0.9508298635482788
,table,0.9411972165107727
,meal,0.9373195767402649
,lunch,0.9278854727745056
,indoors,0.8884986639022827
,wine,0.888340175151825
,coffee,0.8850342035293579
,breakfast,0.8808550834655762
,tea,0.8775599002838135
,chocolate,0.8758151531219482
,dinner,0.868314266204834
,person,0.8681052923202515
,traditional,0.8660813570022583
,enjoyment,0.8630646467208862
,sit,0.8567595481872559
https://scontent-sit4-1.cdninstagram.com/t51.2885-15/e35/13628371_946710995440794_1100257511_n.jpg,woman,0.9770117998123169
,people,0.9755319952964783
,drink,0.9482378363609314
,coffee,0.9401484727859497
,young,0.9327509999275208
,friendship,0.9105073809623718
,tea,0.8856719732284546
,happiness,0.8854365944862366
,smile,0.8839694857597351
,fun,0.8823691606521606
,portrait,0.8753261566162109
,two,0.8645706176757812
,cheerful,0.8608994483947754
,girl,0.8499619364738464
,man,0.8436761498451233
,adult,0.8428817391395569
,joy,0.8399460315704346
,enjoyment,0.8337016105651855
,group,0.831567108631134
,pretty,0.8262049555778503
https://scontent-sit4-1.cdninstagram.com/t51.2885-15/e35/13181387_224440281263167_1219212052_n.jpg,milk,0.9832944869995117
,dairy,0.9831593036651611
,food,0.9829202890396118
,no person,0.9739844799041748
,cheese,0.9711630344390869
,slice,0.9691290855407715
,delicious,0.9437220096588135
,slice,0.9429277181625366
,breakfast,0.9311245679855347
,desktop,0.9252259135246277
,refreshment,0.9104663133621216
,butter,0.903881847858429
,board,0.9027841091156006
,health,0.898798942565918
,epicure,0.8986272811889648
,healthy,0.8972368836402893
,sweet,0.8910316228866577
,nutrition,0.8879940509796143
,traditional,0.8836328983306885
,tasty,0.8663414716720581
https://scontent-sit4-1.cdninstagram.com/t51.2885-15/e35/13658340_1109701225777294_1164109528_n.jpg,man,0.9812408089637756
,woman,0.9791716933250427
,togetherness,0.9389083385467529
,people,0.9373288750648499
,young,0.9346170425415039
,casual,0.9335333704948425
,love,0.9287174940109253
,two,0.917969822883606
,family,0.9140890836715698
,outdoors,0.909782886505127
,friendship,0.8916013240814209
,portrait,0.8821039795875549
,couple,0.8751524090766907
,multicultural,0.8482139110565186
,fun,0.8443410396575928
,joy,0.8374906778335571
,pretty,0.8320148587226868
,student,0.8293740749359131
,adolescent,0.8265976309776306
,looking,0.816605806350708
https://scontent-sit4-1.cdninstagram.com/t51.2885-15/e35/13643099_532880190247351_1145858432_n.jpg,cat,0.9998441934585571
,animal,0.9989764094352722
,kitten,0.9909005165100098
,cute,0.9892751574516296
,fur,0.9869775176048279
,stripe,0.9860048294067383
,pet,0.9830787181854248
,mammal,0.9780380129814148
,domestic,0.9677215218544006
,desktop,0.9647042751312256
,downy,0.9573286771774292
,eye,0.9551544785499573
,funny,0.9496034979820251
,adorable,0.9477840662002563
,tail,0.9435317516326904
,little,0.9419783353805542
,hair,0.9395976066589355
,young,0.9391485452651978
,sleep,0.9383608102798462
,pretty,0.9351480007171631
https://scontent-sit4-1.cdninstagram.com/t51.2885-15/e35/13671869_1752034448372800_822736685_n.jpg,people,0.9660104513168335
,indoors,0.9557808637619019
,exhibition,0.9530534744262695
,adult,0.9133973121643066
,man,0.9126017689704895
,commerce,0.912021279335022
,woman,0.8968257904052734
,competition,0.8913775682449341
,police,0.8908692598342896
,hospital,0.8876286149024963
,military,0.8609055280685425
,league,0.8549954295158386
,healthcare,0.8547986745834351
,uniform,0.845472514629364
,room,0.8419413566589355
,education,0.8358147144317627
,meeting,0.8334208726882935
,vehicle,0.8323944211006165
,industry,0.8283294439315796
,restaurant,0.8257627487182617
https://scontent-sit4-1.cdninstagram.com/t51.2885-15/e35/13827426_826680037434739_1958622398_n.jpg,restaurant,0.9922265410423279
,stock,0.9919100403785706
,bar,0.9894521236419678
,commerce,0.9748517274856567
,shopping,0.9620327949523926
,business,0.9573798775672913
,shop,0.9404645562171936
,food,0.9340330362319946
,people,0.9218330979347229
,competition,0.9216146469116211
,indoors,0.9197564125061035
,diner,0.9092150926589966
,soccer,0.8807254433631897
,service,0.8662965893745422
,market,0.8626407384872437
,exhibition,0.8520194292068481
,merchandise,0.8502313494682312
,adult,0.8439188003540039
,pub,0.8414851427078247
,coffee,0.8280771970748901
https://scontent-sit4-1.cdninstagram.com/t51.2885-15/e35/13118128_1130138673673774_749411712_n.jpg,illustration,0.9776366949081421
,people,0.9608872532844543
,vector,0.9475313425064087
,woman,0.9400326013565063
,adult,0.9304836988449097
,desktop,0.9052714109420776
,sport,0.9005701541900635
,horizontal,0.8935050964355469
,display,0.8732749223709106
,man,0.8556373119354248
,business,0.8411910533905029
,portrait,0.840696394443512
,happiness,0.8405671119689941
,competition,0.835721492767334
,young,0.8068797588348389
,technology,0.8035376667976379
,family,0.7995806932449341
,modern,0.7919064164161682
,graphic,0.7878903150558472
,success,0.7783834934234619
https://scontent-sit4-1.cdninstagram.com/t51.2885-15/e35/12918450_574493486065007_1049626773_n.jpg,Easter,0.9765127897262573
,traditional,0.963147759437561
,decoration,0.9620374441146851
,no person,0.9501094818115234
,celebration,0.9436728954315186
,desktop,0.9420057535171509
,fun,0.9368441104888916
,season,0.9022088050842285
,egg,0.9017598032951355
,cute,0.8959769010543823
,box,0.8833479881286621
,food,0.870363712310791
,color,0.8700611591339111
,little,0.8668643236160278
,design,0.8628870248794556
,glass,0.8614767789840698
,toy,0.8588906526565552
,child,0.8539825081825256
,gift,0.8489735126495361
,luck,0.8489016890525818
https://scontent-sit4-1.cdninstagram.com/t51.2885-15/e35/13584026_118674068567179_493579831_n.jpg,food,0.9932955503463745
,dinner,0.9866796731948853
,meal,0.979656457901001
,delicious,0.9768648147583008
,lunch,0.9711897373199463
,cooking,0.9656221270561218
,healthy,0.9585061073303223
,restaurant,0.957561731338501
,cuisine,0.952536940574646
,dish,0.9495408535003662
,tasty,0.9462600946426392
,plate,0.944595456123352
,nutrition,0.9437927007675171
,epicure,0.9429442882537842
,meat,0.9408053755760193
,traditional,0.9282791018486023
,cheese,0.9254720211029053
,sauce,0.9188528060913086
,vegetable,0.9185965061187744
,refreshment,0.9116828441619873
https://scontent-sit4-1.cdninstagram.com/t51.2885-15/e35/13658413_1943674549192380_1048625528_n.jpg,business,0.9800295829772949
,station,0.9570602178573608
,indoors,0.9511371850967407
,airport,0.9445916414260864
,woman,0.9305616617202759
,transportation system,0.9277912378311157
,tube,0.9223717451095581
,stock,0.9068392515182495
,technology,0.8933920860290527
,train,0.88779616355896
,horizontal,0.886690080165863
,people,0.8866338133811951
,expect,0.8830664157867432
,finance,0.8479973077774048
,departure,0.8432196378707886
,growth,0.8399064540863037
,market,0.8376672863960266
,office,0.8373448848724365
,success,0.8309816718101501
,education,0.8279446363449097
https://scontent-sit4-1.cdninstagram.com/t51.2885-15/e35/13102417_1572871503005402_1973868009_n.jpg,people,0.9763131141662598
,woman,0.9419743418693542
,fun,0.9387248158454895
,man,0.9351266622543335
,child,0.9254517555236816
,family,0.9057990312576294
,recreation,0.8933748602867126
,fashion,0.8857917785644531
,young,0.8765276670455933
,crowd,0.8593644499778748
,show,0.8557135462760925
,victory,0.8549622297286987
,billboard,0.8490647077560425
,group,0.8382989168167114
,friendship,0.8355249166488647
,travel,0.8328627347946167
,shopping,0.8262629508972168
,many,0.8100900650024414
,love,0.8090524673461914
,enjoyment,0.7997286319732666
https://scontent-sit4-1.cdninstagram.com/t51.2885-15/e35/13129111_579206248920648_967023880_n.jpg,man,0.9849832057952881
,woman,0.9835340976715088
,illustration,0.9821592569351196
,people,0.9799520373344421
,vector,0.9731006622314453
,adult,0.9629480838775635
,child,0.9291023015975952
,girl,0.9193474054336548
,sketch,0.915483832359314
,retro,0.9029799699783325
,love,0.9020025730133057
,art,0.8911563158035278
,fun,0.8865638971328735
,young,0.8784275054931641
,cute,0.8591947555541992
,fashion,0.8537367582321167
,silhouette,0.8451281785964966
,card,0.8337699174880981
,person,0.8306812644004822
,boy,0.8291457295417786
https://scontent-sit4-1.cdninstagram.com/t51.2885-15/e35/13116617_1752972414937949_427286816_n.jpg,woman,0.9922250509262085
,outdoors,0.9823849201202393
,nature,0.9820963740348816
,summer,0.9810354709625244
,grass,0.9744843244552612
,people,0.9741672873497009
,girl,0.96635901927948
,happiness,0.9662630558013916
,two,0.9649945497512817
,relaxation,0.9598723649978638
,adult,0.9573354721069336
,young,0.9564607739448547
,leisure,0.9562962651252747
,beautiful,0.9536243081092834
,park,0.9464636445045471
,lifestyle,0.9459797143936157
,basket,0.945744514465332
,togetherness,0.9446178674697876
,picnic,0.9423030614852905
,joy,0.9403265714645386
https://scontent-sit4-1.cdninstagram.com/t51.2885-15/e35/13643503_1749370932001907_1939479614_n.jpg,food,0.9947869777679443
,no person,0.9747457504272461
,cooking,0.9689372777938843
,delicious,0.9646708369255066
,dinner,0.9633313417434692
,meat,0.9614143371582031
,beef,0.9532189965248108
,meal,0.9498022794723511
,health,0.9453485012054443
,healthy,0.9436500072479248
,plate,0.9410287141799927
,traditional,0.9386100769042969
,pork,0.9344601035118103
,lunch,0.9324252009391785
,dish,0.9171412587165833
,tasty,0.9160628318786621
,cuisine,0.9141741991043091
,epicure,0.9125386476516724
,sweet,0.9119124412536621
,refreshment,0.9014570713043213
https://scontent-sit4-1.cdninstagram.com/t51.2885-15/e35/13774346_806528706150330_1382440120_n.jpg,woman,0.9705811738967896
,outdoors,0.9613631963729858
,graduation,0.9568493962287903
,people,0.9439154267311096
,smile,0.9436706304550171
,young,0.9404244422912598
,nature,0.9390490055084229
,cheerful,0.9364709854125977
,grass,0.9351848363876343
,happiness,0.9327074885368347
,park,0.9252674579620361
,education,0.9186602830886841
,family,0.9181485176086426
,man,0.9116021394729614
,girl,0.9112932682037354
,beautiful,0.9042025208473206
,school,0.899803876876831
,child,0.897409200668335
,university,0.8966490030288696
,fun,0.8936959505081177
https://scontent-sit4-1.cdninstagram.com/t51.2885-15/e35/13643581_1764186513858275_465600664_n.jpg,child,0.9763753414154053
,no person,0.9320586323738098
,fun,0.9312262535095215
,symbol,0.9148186445236206
,traditional,0.8962714672088623
,toy,0.8908133506774902
,funny,0.8752785921096802
,isolated,0.8370261192321777
,cute,0.8329840898513794
,festival,0.8301823735237122
,celebration,0.7997802495956421
,Easter,0.7851583957672119
,illustration,0.7792361378669739
,character,0.764092206954956
,finance,0.7639358043670654
,sign,0.7533449530601501
,sketch,0.746565580368042
,play,0.7430155277252197
,image,0.7371546030044556
,color,0.7356382608413696
https://scontent-sit4-1.cdninstagram.com/t51.2885-15/e35/13628057_905989066190794_209887712_n.jpg,stock,0.9955253601074219
,architecture,0.99056077003479
,commerce,0.9820505380630493
,business,0.9813651442527771
,shopping,0.9779750108718872
,finance,0.9620187282562256
,city,0.9506433010101318
,street,0.9501798152923584
,shop,0.9493650197982788
,recession,0.9218766689300537
,travel,0.9180145263671875
,museum,0.9133173823356628
,horizontal,0.9042143225669861
,bar,0.9006404876708984
,indoors,0.896440863609314
,offense,0.8925489187240601
,prosperity,0.8902603387832642
,finance,0.8826382160186768
,telephone,0.8790205121040344
,soccer,0.8672242760658264
https://scontent-sit4-1.cdninstagram.com/t51.2885-15/e35/12976280_1415324088767065_1499538135_n.jpg,people,0.9914562106132507
,competition,0.9906214475631714
,fun,0.9844329357147217
,child,0.974958598613739
,food,0.9709075093269348
,portrait,0.9628140926361084
,woman,0.961815595626831
,man,0.9591149091720581
,adult,0.9585279226303101
,enjoyment,0.9568737745285034
,drink,0.9112111330032349
,race,0.8930466175079346
,soccer,0.8874856233596802
,candy,0.8872237205505371
,shopping,0.8823392391204834
,person,0.869231104850769
,funny,0.8684174418449402
,stock,0.8585173487663269
,indoors,0.8583929538726807
,entertainment,0.8496874570846558
https://scontent-sit4-1.cdninstagram.com/t51.2885-15/e35/13129909_583809871773919_210804272_n.jpg,food,0.998286247253418
,meal,0.9959561824798584
,restaurant,0.9937677383422852
,dinner,0.9860905408859253
,dish,0.9837150573730469
,table,0.9832698106765747
,plate,0.9818163514137268
,lunch,0.9782359600067139
,tableware,0.9664568901062012
,dining,0.9651357531547546
,cooking,0.9602590203285217
,hot,0.9525383710861206
,meat,0.9472988843917847
,cuisine,0.9453248977661133
,no person,0.9380050897598267
,chicken,0.9313326478004456
,vegetable,0.9256548285484314
,cutlery,0.920653223991394
,epicure,0.9195386171340942
,buffet,0.9128315448760986
