url,class,score
https://scontent-sit4-1.cdninstagram.com/t51.2885-15/e35/13392793_1111686162226488_244526332_n.jpg,text,0.9944410920143127
,business,0.9755901098251343
,message,0.9720370769500732
,communication,0.9593594074249268
,sign,0.9452281594276428
,sign,0.9391536712646484
,outdoors,0.926233172416687
,education,0.9117113351821899
,writing,0.9014341831207275
,horizontal,0.8993874192237854
,cloud,0.8699800968170166
,success,0.8692253828048706
,bill,0.8626551628112793
,data,0.8546454906463623
,motivation,0.8454892635345459
,information,0.8428664207458496
,finance,0.842745840549469
,inspiration,0.836440920829773
,advice,0.8245254755020142
,guidance,0.822796106338501
https://scontent-sit4-1.cdninstagram.com/t51.2885-15/e35/13694716_1060647234049918_152362316_n.jpg,sky,0.988495945930481
,city,0.9840283393859863
,architecture,0.9767429232597351
,business,0.9743156433105469
,no person,0.9716842770576477
,people,0.964113712310791
,building,0.963388204574585
,skyscraper,0.9567979574203491
,outdoors,0.9520714282989502
,travel,0.949976921081543
,office,0.9412559270858765
,light,0.9199975728988647
,downtown,0.9076066613197327
,urban,0.9058921933174133
,cityscape,0.9030396342277527
,street,0.887783408164978
,daylight,0.8803513646125793
,glass,0.8732587099075317
,reflection,0.8728111386299133
,silhouette,0.8562623262405396
https://scontent-sit4-1.cdninstagram.com/t51.2885-15/e35/12940967_1710295529240418_529837880_n.jpg,flower,0.9915854930877686
,leaf,0.9901777505874634
,lotus,0.9880257844924927
,flora,0.9826438426971436
,nature,0.9783313274383545
,pool,0.9707194566726685
,garden,0.9702683687210083
,no person,0.9657646417617798
,blooming,0.965382993221283
,summer,0.9621268510818481
,lily,0.9550723433494568
,waterlily,0.9539604187011719
,petal,0.9490625262260437
,tropical,0.9489805698394775
,aquatic,0.9359225034713745
,exotic,0.9240605235099792
,park,0.9155081510543823
,swimming,0.8871498107910156
,beautiful,0.883781909942627
,Zen,0.8686490654945374
https://scontent-sit4-1.cdninstagram.com/t51.2885-15/e35/11017653_950446995051463_654715860_n.jpg,child,0.9927883148193359
,people,0.9815235733985901
,woman,0.963057279586792
,portrait,0.9541261196136475
,girl,0.9536771774291992
,one,0.9336643218994141
,wear,0.9264248609542847
,indoors,0.9205529689788818
,cute,0.9141860008239746
,facial expression,0.8898972272872925
,outdoors,0.8867837190628052
,fun,0.8841080665588379
,adolescent,0.8585916757583618
,fashion,0.856147050857544
,adult,0.855650782585144
,boy,0.823034942150116
,innocence,0.8175113201141357
,music,0.8116309642791748
,enjoyment,0.8109509944915771
,two,0.8102856874465942
https://scontent-sit4-1.cdninstagram.com/t51.2885-15/e35/13181347_605300059632781_403878172_n.jpg,car,0.9976444244384766
,blur,0.9966809749603271
,hurry,0.9959656000137329
,action,0.989208459854126
,fast,0.9880784153938293
,asphalt,0.9873580932617188
,transportation system,0.9717901945114136
,road,0.963794469833374
,pavement,0.9492728114128113
,vehicle,0.9489933252334595
,race,0.9404784440994263
,drive,0.936192512512207
,track,0.8880688548088074
,auto racing,0.88052898645401
,traffic,0.8751499056816101
,blacktop,0.8573902249336243
,championship,0.8352568745613098
,motion,0.8338195085525513
,street,0.8250311613082886
,competition,0.8188226819038391
https://scontent-sit4-1.cdninstagram.com/t51.2885-15/e35/13249914_1731403570470752_577837679_n.jpg,people,0.9794410467147827
,man,0.9723169803619385
,one,0.969914436340332
,portrait,0.9630936980247498
,no person,0.9232273697853088
,business,0.9171275496482849
,adult,0.9147225618362427
,sun,0.9131873846054077
,monochrome,0.9120590686798096
,technology,0.89388507604599
,outdoors,0.8848586082458496
,music,0.8210699558258057
,travel,0.8107931613922119
,street,0.8097760677337646
,water,0.8076839447021484
,sky,0.7982273697853088
,light,0.7804931402206421
,window,0.7548518180847168
,landscape,0.7519906759262085
,fashion,0.7511739730834961
https://scontent-sit4-1.cdninstagram.com/l/t51.2885-15/e35/13109050_256650181346451_555689085_n.jpg,leaf,0.9953173398971558
,nature,0.9898453950881958
,flora,0.9891955852508545
,flower,0.9839563965797424
,no person,0.979683518409729
,garden,0.9732468128204346
,lotus,0.9679580926895142
,tropical,0.9664571285247803
,summer,0.9607073068618774
,exotic,0.9518637657165527
,blooming,0.9424967169761658
,environment,0.9361791014671326
,lily,0.9347704648971558
,outdoors,0.9329097270965576
,closeup,0.9296479821205139
,growth,0.9224223494529724
,petal,0.9100998044013977
,pool,0.9060654640197754
,park,0.8914573788642883
,botanical,0.8857095241546631
https://scontent-sit4-1.cdninstagram.com/t51.2885-15/e35/12501822_708829692592008_1268543344_n.jpg,people,0.9085540771484375
,music,0.8801686763763428
,desktop,0.8771171569824219
,flag,0.874744176864624
,man,0.8603687286376953
,illustration,0.8477736711502075
,competition,0.8401602506637573
,performance,0.8400692343711853
,modern,0.8335328102111816
,fun,0.8284838199615479
,festival,0.8046994209289551
,graphic,0.7950686812400818
,person,0.7797617316246033
,business,0.7793116569519043
,color,0.7772642374038696
,art,0.7726798057556152
,fashion,0.763090193271637
,young,0.7590559720993042
,technology,0.757739782333374
,sport,0.7566393613815308
https://scontent-sit4-1.cdninstagram.com/t51.2885-15/e35/12724678_1566336653695511_1464018721_n.jpg,illuminated,0.9834946990013123
,dark,0.9694165587425232
,Christmas,0.9450278282165527
,light,0.9247351288795471
,blur,0.9232547283172607
,bright,0.9050701856613159
,no person,0.8788321614265442
,light,0.8781790733337402
,luminescence,0.8775484561920166
,focus,0.8598700761795044
,celebration,0.8582984209060669
,desktop,0.8580474853515625
,telephone,0.8223073482513428
,design,0.8146023750305176
,shining,0.8034403324127197
,abstract,0.8017010688781738
,lamp,0.7955691814422607
,evening,0.7772138714790344
,illustration,0.7665163278579712
,color,0.7630664110183716
https://scontent-sit4-1.cdninstagram.com/t51.2885-15/e35/13355448_1409092035783102_209322873_n.jpg,dark,0.9469055533409119
,no person,0.9379834532737732
,desktop,0.9363110065460205
,design,0.9150530099868774
,abstract,0.897000253200531
,creativity,0.8795062303543091
,illustration,0.8792951107025146
,art,0.8546921014785767
,decoration,0.8448922634124756
,business,0.8425700068473816
,pattern,0.8318307399749756
,illuminated,0.8223782777786255
,horizontal,0.8186349868774414
,wallpaper,0.8183128237724304
,text,0.8142033815383911
,shape,0.7890214323997498
,image,0.7712375521659851
,technology,0.7602895498275757
,indoors,0.7480657696723938
,nature,0.7453885078430176
https://scontent-sit4-1.cdninstagram.com/t51.2885-15/e35/12918467_864038490392177_1688950677_n.jpg,music,0.9854816198348999
,festival,0.9810613393783569
,performance,0.9681835174560547
,city,0.9553065299987793
,laser,0.9473251700401306
,bridge,0.9467748403549194
,light,0.9461133480072021
,concert,0.9403600692749023
,blur,0.9296597242355347
,evening,0.928963303565979
,architecture,0.9288747310638428
,no person,0.9277459383010864
,water,0.9145323038101196
,travel,0.9137949347496033
,illuminated,0.9104324579238892
,urban,0.902228593826294
,river,0.8964114785194397
,building,0.859927237033844
,motion,0.8558635115623474
,downtown,0.85509192943573
https://scontent-sit4-1.cdninstagram.com/t51.2885-15/e35/13437309_669408153216467_1743690079_n.jpg,woman,0.9931195974349976
,people,0.961574912071228
,portrait,0.9593576192855835
,outdoors,0.9567278623580933
,nature,0.9526309370994568
,girl,0.9415483474731445
,one,0.933830976486206
,facial expression,0.9211636185646057
,relaxation,0.9092015027999878
,leisure,0.9026085138320923
,summer,0.8967550992965698
,brunette,0.8852072358131409
,fair weather,0.8807300329208374
,pretty,0.8710927367210388
,adult,0.8683153390884399
,daylight,0.8681010007858276
,enjoyment,0.8661730289459229
,landscape,0.8613138198852539
,fashion,0.8583837151527405
,adolescent,0.8481143712997437
https://scontent-sit4-1.cdninstagram.com/t51.2885-15/e35/12912711_1689562411332537_1852659485_n.jpg,template,0.9974859356880188
,World Wide Web,0.9889228343963623
,page,0.988403856754303
,layout,0.9882945418357849
,label,0.986242949962616
,form,0.9855225086212158
,navigation,0.9827006459236145
,tag,0.9749339818954468
,banner,0.9736626148223877
,check,0.9733736515045166
,menu,0.9720617532730103
,set,0.9597083330154419
,site,0.9553200006484985
,stripe,0.9511148929595947
,heading,0.9465587139129639
,presentation,0.9415922164916992
,comparison,0.9392072558403015
,vector,0.934677243232727
,number,0.9302866458892822
,information,0.9266024827957153
https://scontent-sit4-1.cdninstagram.com/t51.2885-15/e35/12501858_1693515510917235_1759867490_n.jpg,people,0.9845699071884155
,outdoors,0.976641058921814
,one,0.9708417057991028
,portrait,0.9680355787277222
,nature,0.9627581834793091
,man,0.9555507898330688
,adult,0.9376084804534912
,elderly,0.9231857657432556
,elder,0.9070446491241455
,landscape,0.8972929120063782
,summer,0.8851533532142639
,outside,0.881896436214447
,park,0.8590875864028931
,travel,0.8561742305755615
,leisure,0.8439852595329285
,tree,0.8417282104492188
,smile,0.8263239860534668
,wear,0.8232182264328003
,family,0.8039675951004028
,old,0.8023169636726379
https://scontent-sit4-1.cdninstagram.com/t51.2885-15/e35/13259536_282395502095934_75589977_n.jpg,monochrome,0.9950293302536011
,street,0.9755562543869019
,cemetery,0.9684323072433472
,black and white,0.9484180808067322
,old,0.9394413232803345
,stone,0.9330770969390869
,beach,0.929701566696167
,dof,0.9273502826690674
,city,0.9268892407417297
,grave,0.9196091890335083
,still life,0.9188481569290161
,nature,0.9169689416885376
,no person,0.9077915549278259
,water,0.9059385657310486
,tombstone,0.9018137454986572
,travel,0.8929895162582397
,vintage,0.8928606510162354
,rock,0.8807621002197266
,wood,0.871186375617981
,landscape,0.8670520782470703
https://scontent-sit4-1.cdninstagram.com/t51.2885-15/e35/13422947_1559354871033757_12584294_n.jpg,people,0.9881783127784729
,outdoors,0.985375702381134
,woman,0.9806286096572876
,one,0.9726139307022095
,portrait,0.9645380973815918
,girl,0.9635589122772217
,adult,0.9533876180648804
,child,0.91666179895401
,facial expression,0.896111786365509
,wear,0.8954612016677856
,daylight,0.8951507210731506
,leisure,0.8944956064224243
,street,0.8896600008010864
,travel,0.8850159645080566
,enjoyment,0.8822195529937744
,fashion,0.8760762214660645
,young,0.8627575635910034
,city,0.848831057548523
,home,0.841796875
,fun,0.8395671248435974
https://scontent-sit4-1.cdninstagram.com/t51.2885-15/e35/13395078_198764747187690_1828783785_n.jpg,child,0.9981821775436401
,cute,0.9884040355682373
,little,0.984083890914917
,outdoors,0.9776773452758789
,toy,0.9723873138427734
,baby,0.9701342582702637
,innocence,0.9662870168685913
,fun,0.9652313590049744
,happiness,0.9481305480003357
,girl,0.942936897277832
,park,0.9422705769538879
,summer,0.9413855075836182
,nature,0.9377727508544922
,grass,0.9369403123855591
,toddler,0.9230834245681763
,leisure,0.9224147796630859
,sit,0.9104996919631958
,joy,0.9091751575469971
,family,0.9078992605209351
,love,0.9023140668869019
https://scontent-sit4-1.cdninstagram.com/t51.2885-15/e35/12976140_224235271274883_1372923609_n.jpg,man,0.9806016683578491
,outdoors,0.9778772592544556
,people,0.974066972732544
,nature,0.9530737400054932
,leisure,0.9500877857208252
,one,0.942469596862793
,relaxation,0.9330494999885559
,adult,0.9225691556930542
,summer,0.91977858543396
,woman,0.9115477800369263
,portrait,0.9070392847061157
,flower,0.9018133878707886
,park,0.8865017890930176
,enjoyment,0.8835395574569702
,landscape,0.8704371452331543
,casual,0.8537496328353882
,sit,0.8389093279838562
,business,0.8342638611793518
,blur,0.8173812627792358
,grass,0.8106006383895874
https://scontent-sit4-1.cdninstagram.com/t51.2885-15/e35/13116822_381186632056479_1921548889_n.jpg,architecture,0.9754656553268433
,travel,0.971410870552063
,city,0.9699821472167969
,sky,0.9662275314331055
,water,0.9536641836166382
,building,0.9527590274810791
,no person,0.9433936476707458
,business,0.9424853324890137
,bridge,0.9399079084396362
,vehicle,0.9345701932907104
,outdoors,0.9332326650619507
,transportation system,0.9286130666732788
,modern,0.9249993562698364
,urban,0.9205378293991089
,people,0.9097908735275269
,street,0.8873513340950012
,museum,0.8864126205444336
,cityscape,0.8794422745704651
,daylight,0.8739510774612427
,office,0.8711038827896118
https://scontent-sit4-1.cdninstagram.com/t51.2885-15/e35/13320034_240737539640574_1961932728_n.jpg,no person,0.9759323596954346
,vehicle,0.936867892742157
,light,0.9345714449882507
,energy,0.9264020919799805
,water,0.9248394966125488
,people,0.9245948195457458
,spacecraft,0.904289722442627
,action,0.8844841122627258
,one,0.8792982697486877
,landscape,0.8788598775863647
,moon,0.8658204078674316
,travel,0.8638961911201477
,motion,0.8570578098297119
,abstract,0.8465015888214111
,science,0.84383225440979
,competition,0.8360002040863037
,outdoors,0.8192581534385681
,astronomy,0.8072576522827148
,ocean,0.806466817855835
,art,0.8012816905975342
https://scontent-sit4-1.cdninstagram.com/t51.2885-15/e35/13355431_205565916504199_1135909420_n.jpg,people,0.9844781160354614
,vintage,0.9781109094619751
,historic,0.9749778509140015
,old,0.968359649181366
,portrait,0.9675272107124329
,ancient,0.9660207033157349
,antique,0.9647549986839294
,retro,0.9612576961517334
,adult,0.9366616010665894
,postcard,0.9364603757858276
,man,0.935667097568512
,letter,0.9213899374008179
,paper,0.9159108400344849
,note,0.9088476896286011
,person,0.9024031162261963
,art,0.9015642404556274
,envelope,0.8982589244842529
,money,0.8967499732971191
,bank,0.8883271217346191
,stamp,0.8726680278778076
https://scontent-sit4-1.cdninstagram.com/t51.2885-15/e35/13108614_235170836849990_1894368042_n.jpg,city,0.9839070439338684
,travel,0.9781172275543213
,architecture,0.9750828742980957
,modern,0.9723358154296875
,urban,0.9719829559326172
,business,0.9713443517684937
,building,0.9680886268615723
,sky,0.9550158977508545
,reflection,0.9541881680488586
,office,0.9458553194999695
,transportation system,0.9239844083786011
,water,0.9192742109298706
,downtown,0.9189193248748779
,skyline,0.9171252846717834
,no person,0.9056988954544067
,cityscape,0.9039464592933655
,airport,0.9008946418762207
,street,0.8990163803100586
,skyscraper,0.888744592666626
,park,0.8835862874984741
https://scontent-sit4-1.cdninstagram.com/t51.2885-15/e35/13329244_1728367987411774_622227576_n.jpg,window,0.9858306646347046
,indoors,0.9854393601417542
,people,0.9850813150405884
,man,0.9832712411880493
,portrait,0.983167290687561
,adult,0.9736078977584839
,seat,0.9607399702072144
,one,0.9415498971939087
,facial expression,0.9332718849182129
,wear,0.9282569885253906
,light,0.9131906628608704
,window,0.888210654258728
,woman,0.8863179683685303
,furniture,0.8753541707992554
,daylight,0.8660924434661865
,sitting,0.8576844930648804
,travel,0.8529905676841736
,sit,0.850030779838562
,blur,0.8497521877288818
,outdoors,0.836518406867981
https://scontent-sit4-1.cdninstagram.com/t51.2885-15/e35/13394868_1713668232222077_59424165_n.jpg,water,0.9862032532691956
,nature,0.9698154330253601
,outdoors,0.9686987400054932
,people,0.959984540939331
,summer,0.9529625177383423
,no person,0.9356434345245361
,landscape,0.934018611907959
,woman,0.9339051246643066
,yoga,0.9282877445220947
,travel,0.9257515668869019
,girl,0.9229424595832825
,recreation,0.9195272922515869
,one,0.9111317992210388
,adult,0.9054486751556396
,relaxation,0.904370129108429
,leisure,0.903390109539032
,leaf,0.8966718316078186
,flower,0.8921359777450562
,grass,0.8907555341720581
,sky,0.8803303241729736
https://scontent-sit4-1.cdninstagram.com/t51.2885-15/e35/13714062_527100797482611_1907379009_n.jpg,architecture,0.9929066896438599
,building,0.9851095080375671
,street,0.9839127063751221
,travel,0.9817553162574768
,city,0.9786454439163208
,no person,0.9706640839576721
,outdoors,0.958776593208313
,urban,0.958203911781311
,town,0.9358826875686646
,car,0.9358440637588501
,daylight,0.9321619272232056
,road,0.927405595779419
,house,0.9253627061843872
,facade,0.9216924905776978
,modern,0.9184949994087219
,tourism,0.9181675910949707
,hotel,0.8960708379745483
,business,0.8956883549690247
,transportation system,0.8949224352836609
,stock,0.8885689973831177
https://scontent-sit4-1.cdninstagram.com/t51.2885-15/e35/13584159_246781955704711_1395848742_n.jpg,transportation system,0.9918221235275269
,road,0.985555112361908
,vehicle,0.9842639565467834
,travel,0.9826164245605469
,no person,0.9801818132400513
,car,0.9779547452926636
,street,0.9778873920440674
,traffic,0.9757447242736816
,city,0.9486798048019409
,highway,0.9463471174240112
,blur,0.8964642286300659
,outdoors,0.8928046822547913
,business,0.8828311562538147
,sky,0.8659582138061523
,action,0.8555833101272583
,urban,0.8456549644470215
,bridge,0.8408814668655396
,truck,0.8354538679122925
,building,0.8274826407432556
,downtown,0.8010706901550293
https://scontent-sit4-1.cdninstagram.com/t51.2885-15/e35/13721117_102471136863706_711849727_n.jpg,child,0.9995983242988586
,little,0.9966941475868225
,cute,0.9959827661514282
,baby,0.9907512664794922
,innocence,0.9818691611289978
,girl,0.9750692844390869
,fun,0.971072256565094
,teddy,0.9642636775970459
,outdoors,0.9525026679039001
,pretty,0.9504976272583008
,toy,0.9485362768173218
,toddler,0.9433859586715698
,sit,0.9379124641418457
,people,0.9311769008636475
,joy,0.9301997423171997
,family,0.9263595342636108
,preschool,0.9239481687545776
,happiness,0.9212108850479126
,love,0.9147434234619141
,beautiful,0.91322922706604
https://scontent-sit4-1.cdninstagram.com/t51.2885-15/e35/13437158_1758070737746797_1196582883_n.jpg,people,0.9895284175872803
,one,0.9848336577415466
,adult,0.9753084182739258
,recreation,0.9666491150856018
,mountain,0.9620991349220276
,landscape,0.9597251415252686
,man,0.9488762617111206
,daylight,0.9486433267593384
,outdoors,0.9450207948684692
,action,0.937230110168457
,tree,0.907915472984314
,no person,0.9041333198547363
,travel,0.9029139876365662
,climb,0.8993271589279175
,adventure,0.8947979807853699
,rock,0.8901642560958862
,motion,0.8862535357475281
,hill,0.8766234517097473
,climber,0.8549867868423462
,solitude,0.8538151979446411
https://scontent-sit4-1.cdninstagram.com/t51.2885-15/e35/13166666_524121024459550_1804351970_n.jpg,travel,0.9675037264823914
,vacation,0.9592503905296326
,water,0.9575822353363037
,people,0.9530378580093384
,recreation,0.9491740465164185
,leisure,0.9467219114303589
,summer,0.9453623294830322
,fun,0.9318664073944092
,resort,0.930107057094574
,outdoors,0.9218654036521912
,tourism,0.9159488677978516
,sky,0.9129624962806702
,beach,0.9086683988571167
,ocean,0.8918329477310181
,architecture,0.8863306641578674
,sea,0.8707714080810547
,tourist,0.8544459342956543
,city,0.854022204875946
,tropical,0.8510966300964355
,building,0.8498243093490601
https://scontent-sit4-1.cdninstagram.com/t51.2885-15/e35/13696692_1162201300488330_1636049459_n.jpg,water,0.9907398223876953
,travel,0.9865906238555908
,evening,0.9776207208633423
,city,0.9749201536178589
,architecture,0.9748589992523193
,dusk,0.9689012169837952
,hotel,0.9667147397994995
,reflection,0.9651073217391968
,no person,0.9617106914520264
,sky,0.9570144414901733
,building,0.9448379278182983
,river,0.9448087215423584
,illuminated,0.9422118663787842
,sunset,0.9375756978988647
,light,0.9364678263664246
,fountain,0.9350113868713379
,urban,0.9329092502593994
,bridge,0.9250481128692627
,outdoors,0.923410177230835
,downtown,0.9042476415634155
https://scontent-sit4-1.cdninstagram.com/t51.2885-15/e35/13249698_248719515494735_127838073_n.jpg,people,0.9970685839653015
,vehicle,0.9936588406562805
,adult,0.9931837320327759
,transportation system,0.9878398180007935
,watercraft,0.9877606630325317
,man,0.9835302829742432
,indoors,0.9784674644470215
,woman,0.9737915992736816
,two,0.9686225652694702
,one,0.9664317965507507
,wear,0.9557957649230957
,recreation,0.9496572017669678
,furniture,0.9445691108703613
,seat,0.9421848058700562
,travel,0.9364306926727295
,room,0.9308984279632568
,group,0.9304846525192261
,aircraft,0.9245446920394897
,ship,0.9179595112800598
,portrait,0.9126807451248169
https://scontent-sit4-1.cdninstagram.com/t51.2885-15/e35/13109067_1114804235244277_525522733_n.jpg,city,0.984739363193512
,architecture,0.984355092048645
,modern,0.9778099060058594
,downtown,0.9722995758056641
,street,0.9699269533157349
,urban,0.9645358324050903
,building,0.9622770547866821
,skyline,0.9600483179092407
,skyscraper,0.9532876014709473
,monochrome,0.9522746801376343
,no person,0.950221061706543
,bridge,0.9461221694946289
,cityscape,0.9459391236305237
,travel,0.9430717825889587
,office,0.9368109703063965
,business,0.9309675693511963
,sky,0.8959132432937622
,road,0.8957768678665161
,transportation system,0.8880205750465393
,car,0.8648449778556824
https://scontent-sit4-1.cdninstagram.com/t51.2885-15/e35/13092465_1058782740845131_1227791228_n.jpg,step,0.9946258068084717
,architecture,0.988964319229126
,building,0.9764901399612427
,glass,0.9624780416488647
,modern,0.9622692465782166
,city,0.9574041962623596
,construction,0.9523108005523682
,urban,0.9520049095153809
,business,0.9466831088066101
,expression,0.9465502500534058
,people,0.939487099647522
,futuristic,0.9260515570640564
,office,0.920166015625
,no person,0.9107946157455444
,steel,0.9045666456222534
,travel,0.900784432888031
,perspective,0.8950756192207336
,window,0.8905807733535767
,handrail,0.8832504153251648
,light,0.8686525225639343
https://scontent-sit4-1.cdninstagram.com/t51.2885-15/e35/13092223_210200929363764_361446827_n.jpg,people,0.9453170299530029
,city,0.9358370304107666
,bridge,0.9318709969520569
,urban,0.9134271144866943
,travel,0.8890050053596497
,sky,0.8866148591041565
,energy,0.8858329057693481
,airport,0.8845250606536865
,water,0.8755097389221191
,building,0.8706973195075989
,street,0.8649808168411255
,construction,0.8641597032546997
,transportation system,0.8579212427139282
,business,0.8524815440177917
,architecture,0.851241409778595
,vehicle,0.8459619283676147
,expression,0.8239222764968872
,monochrome,0.8230574131011963
,light,0.8030314445495605
,industry,0.800947368144989
https://scontent-sit4-1.cdninstagram.com/t51.2885-15/e35/13388544_633084573511038_440953126_n.jpg,travel,0.9787164926528931
,people,0.9690504670143127
,mountain,0.9482050538063049
,adult,0.9449014067649841
,sky,0.9380538463592529
,landscape,0.9356397390365601
,summer,0.9276013374328613
,outdoors,0.9260350465774536
,woman,0.9253095388412476
,one,0.9214149713516235
,two,0.9186102747917175
,man,0.9155591726303101
,nature,0.9075314998626709
,leisure,0.9052486419677734
,recreation,0.8946772813796997
,vacation,0.8876901865005493
,furniture,0.887526273727417
,wood,0.8623538017272949
,water,0.8614509105682373
,relaxation,0.8571226596832275
https://scontent-sit4-1.cdninstagram.com/t51.2885-15/e35/13398996_1648201465500636_1037512475_n.jpg,bridge,0.9844161868095398
,no person,0.9792799353599548
,architecture,0.9772945046424866
,travel,0.957750141620636
,building,0.9460918307304382
,wood,0.9290868043899536
,construction,0.9121326208114624
,old,0.903400182723999
,city,0.8871467113494873
,sky,0.876126229763031
,outdoors,0.8738479614257812
,urban,0.8675761222839355
,transportation system,0.8644577264785767
,ancient,0.8629263639450073
,landmark,0.8588913679122925
,vintage,0.8361237049102783
,water,0.8338649272918701
,tree,0.8284355401992798
,tourism,0.8280117511749268
,road,0.8246974945068359
https://scontent-sit4-1.cdninstagram.com/t51.2885-15/e35/13248914_925891820855225_330265149_n.jpg,city,0.9938696622848511
,skyscraper,0.9935709238052368
,skyline,0.9906643033027649
,downtown,0.9885836243629456
,travel,0.9861928224563599
,architecture,0.985661506652832
,business,0.9855446815490723
,building,0.9819812774658203
,cityscape,0.9807409644126892
,sky,0.9788650274276733
,finance,0.9776775240898132
,office,0.9718354940414429
,waterfront,0.9699945449829102
,urban,0.9653069972991943
,water,0.9590709209442139
,harbor,0.9505001306533813
,modern,0.9438941478729248
,daylight,0.929259181022644
,financial,0.9215449094772339
,pier,0.9178215265274048
https://scontent-sit4-1.cdninstagram.com/t51.2885-15/e35/12940745_1678543275732313_1435195575_n.jpg,downtown,0.9972493052482605
,architecture,0.9972312450408936
,skyscraper,0.9947639107704163
,city,0.9945420622825623
,cityscape,0.989428699016571
,building,0.9854947328567505
,skyline,0.9852660894393921
,business,0.9830793142318726
,travel,0.9825515747070312
,office,0.9807397127151489
,sky,0.9791265726089478
,finance,0.9689072966575623
,modern,0.9683015942573547
,tallest,0.9662679433822632
,urban,0.9607124328613281
,tower,0.9546254873275757
,outdoors,0.9236825108528137
,no person,0.9224039912223816
,hotel,0.9170818328857422
,district,0.9098482728004456
https://scontent-sit4-1.cdninstagram.com/t51.2885-15/e35/13534182_571313783047696_1076896816_n.jpg,tree,0.9983133673667908
,branch,0.9973264932632446
,no person,0.9861675500869751
,nature,0.98249751329422
,sky,0.9812176823616028
,wood,0.980340301990509
,season,0.9774903655052185
,winter,0.9728800058364868
,trunk,0.972557544708252
,leaf,0.9680130481719971
,environment,0.9539757966995239
,flora,0.952492356300354
,desktop,0.9504090547561646
,landscape,0.9494314193725586
,alone,0.9476250410079956
,fall,0.9457885026931763
,weather,0.9338683485984802
,twigs,0.9299862384796143
,bark,0.9199802875518799
,outdoors,0.9144104719161987
https://scontent-sit4-1.cdninstagram.com/t51.2885-15/e35/12950473_229806520719350_1192815005_n.jpg,city,0.995726466178894
,downtown,0.9916092157363892
,urban,0.9902263879776001
,evening,0.9889272451400757
,traffic,0.9862061738967896
,building,0.9861487150192261
,business,0.9854930639266968
,street,0.9851548671722412
,skyscraper,0.9832378625869751
,travel,0.9831535816192627
,dusk,0.9821773171424866
,cityscape,0.9801282286643982
,road,0.9788213968276978
,illuminated,0.9734058380126953
,modern,0.9708907604217529
,architecture,0.9703436493873596
,light,0.9681626558303833
,skyline,0.9675582647323608
,bridge,0.962554395198822
,tower,0.9436500668525696
https://scontent-sit4-1.cdninstagram.com/t51.2885-15/e35/13422839_521936964660271_2036667099_n.jpg,flower,0.9965678453445435
,garden,0.9904119968414307
,flora,0.9890927076339722
,nature,0.9874553680419922
,summer,0.9821898937225342
,no person,0.9818161725997925
,blooming,0.9741197824478149
,leaf,0.9707890748977661
,petal,0.9638875722885132
,floral,0.9617881774902344
,growth,0.9584168195724487
,color,0.9544121026992798
,shrub,0.9540319442749023
,violet,0.9532895088195801
,lavender,0.9402441382408142
,outdoors,0.9380056858062744
,bright,0.9317997694015503
,tree,0.9282609224319458
,season,0.9229795932769775
,branch,0.9206897020339966
https://scontent-sit4-1.cdninstagram.com/t51.2885-15/e35/13551601_1050736128349128_1799499655_n.jpg,child,0.9984579086303711
,girl,0.996598482131958
,cute,0.9931522607803345
,toy,0.9920883178710938
,little,0.9905155897140503
,teddy,0.9885479211807251
,baby,0.9882633686065674
,smile,0.981150209903717
,portrait,0.9804872274398804
,beautiful,0.9670151472091675
,people,0.9653705358505249
,play,0.9576428532600403
,fun,0.9554525017738342
,adorable,0.9526844024658203
,face,0.951789379119873
,innocence,0.9480431079864502
,toddler,0.9478417634963989
,happiness,0.9440746307373047
,model,0.9378882050514221
,confection,0.9355285167694092
https://scontent-sit4-1.cdninstagram.com/t51.2885-15/e35/13248728_1599749243669899_2082856566_n.jpg,template,0.9736064672470093
,page,0.9515222311019897
,card,0.9505248665809631
,presentation,0.9431253671646118
,desktop,0.9355226755142212
,World Wide Web,0.932402491569519
,business,0.9262902736663818
,banner,0.9249823093414307
,layout,0.8954201340675354
,sign,0.8698192238807678
,text,0.8479414582252502
,company,0.8413470387458801
,name,0.8392077684402466
,bill,0.8382294178009033
,graphic,0.8327399492263794
,illustration,0.8302357196807861
,number,0.8221445679664612
,label,0.8168797492980957
,vector,0.804578959941864
,portrait,0.802364706993103
https://scontent-sit4-1.cdninstagram.com/t51.2885-15/e35/12965725_261042017564299_368144067_n.jpg,one,0.9789330959320068
,people,0.9589052200317383
,tree,0.9513070583343506
,outdoors,0.9509317874908447
,nature,0.9422323107719421
,adult,0.9276494979858398
,wood,0.9157195091247559
,man,0.9056901931762695
,mountain,0.902206540107727
,travel,0.8987078070640564
,adventure,0.8973349332809448
,recreation,0.8941338062286377
,landscape,0.882882833480835
,hike,0.8740267753601074
,climb,0.8685834407806396
,rock,0.8461102247238159
,park,0.8363622426986694
,daylight,0.8341931104660034
,leisure,0.8291597962379456
,environment,0.7815485000610352
https://scontent-sit4-1.cdninstagram.com/t51.2885-15/e35/13285429_1030425490384354_2112521669_n.jpg,water,0.9810397624969482
,outdoors,0.9769597053527832
,travel,0.9754593372344971
,nature,0.9658647179603577
,park,0.9622156023979187
,leisure,0.9604040384292603
,recreation,0.9589180946350098
,summer,0.9553476572036743
,adventure,0.953492283821106
,tree,0.9533447027206421
,daylight,0.9485743045806885
,landscape,0.9431757926940918
,people,0.9330734014511108
,lifestyle,0.9312167167663574
,river,0.9305320978164673
,mountain,0.929841160774231
,adult,0.9202383756637573
,hike,0.918515145778656
,grass,0.9170933961868286
,vacation,0.8865528106689453
https://scontent-sit4-1.cdninstagram.com/t51.2885-15/e35/12934880_566933800140707_785978680_n.jpg,road,0.9972275495529175
,guidance,0.9932630062103271
,tree,0.9909219741821289
,landscape,0.9865962862968445
,park,0.9788576364517212
,nature,0.9727014303207397
,leaf,0.9725450873374939
,wood,0.9713886976242065
,lane,0.9652674794197083
,alley,0.9650425910949707
,environment,0.9631481170654297
,garden,0.9621331691741943
,footpath,0.9612447023391724
,walk,0.9444445371627808
,avenue,0.938407301902771
,grass,0.9362097978591919
,rural,0.9314132928848267
,summer,0.9261033535003662
,country,0.9151418209075928
,season,0.9100475311279297
https://scontent-sit4-1.cdninstagram.com/t51.2885-15/e35/13385805_1164944810222593_1320606814_n.jpg,waterfall,0.9977794885635376
,water,0.9936088919639587
,no person,0.9859649538993835
,outdoors,0.9739556908607483
,rainbow,0.9636134505271912
,travel,0.961877167224884
,nature,0.9579002261161804
,fall,0.9567809104919434
,river,0.955876350402832
,rock,0.9539263248443604
,landscape,0.9455848932266235
,motion,0.9442470073699951
,mountain,0.9364703893661499
,wood,0.9225075244903564
,spray,0.9162153005599976
,cascade,0.9030886292457581
,mist,0.8911877870559692
,stream,0.8903968930244446
,smoke,0.8845681548118591
,splash,0.8715020418167114
https://scontent-sit4-1.cdninstagram.com/t51.2885-15/e35/12501805_1178239148866496_1855939866_n.jpg,no person,0.9645119905471802
,desktop,0.898771345615387
,business,0.8967424631118774
,paper,0.8788210153579712
,illustration,0.86273193359375
,retro,0.8439310789108276
,design,0.8369104862213135
,symbol,0.8361479043960571
,color,0.8223428726196289
,creativity,0.8151987195014954
,sign,0.8143211603164673
,wood,0.7816778421401978
,traditional,0.7751649022102356
,plastic,0.7718397974967957
,art,0.766389012336731
,vector,0.7603428959846497
,image,0.746484100818634
,technology,0.7451810240745544
,travel,0.7399277687072754
,horizontal,0.7286028265953064
