url,class,score
https://scontent-sit4-1.cdninstagram.com/t51.2885-15/e15/11373993_814565515317032_1220372396_n.jpg,business,0.9762586355209351
,sign,0.9746789932250977
,text,0.9588052034378052
,indoors,0.9321260452270508
,sign,0.9279983043670654
,people,0.9260810613632202
,paper,0.9059535264968872
,bill,0.9015724062919617
,stock,0.8919014930725098
,one,0.8780560493469238
,man,0.873207151889801
,adult,0.8688788414001465
,woman,0.8652936220169067
,recreation,0.8613255023956299
,festival,0.8364443778991699
,conceptual,0.8175939321517944
,creativity,0.8138918876647949
,promotion,0.811552882194519
,election,0.8030200004577637
,shopping,0.801633358001709
https://scontent-sit4-1.cdninstagram.com/t51.2885-15/e15/10838544_442598539231074_1009060325_n.jpg,coffee,0.9829269647598267
,cup,0.9802050590515137
,food,0.975787878036499
,sweet,0.9573781490325928
,drink,0.9566115140914917
,milk,0.9521164894104004
,cream,0.9489660263061523
,chocolate,0.9445042610168457
,espresso,0.9253387451171875
,desktop,0.9222614765167236
,dawn,0.9178807139396667
,plate,0.911034345626831
,restaurant,0.9097595810890198
,breakfast,0.9068226218223572
,no person,0.9061161279678345
,hot,0.8951504230499268
,still life,0.8948767781257629
,spoon,0.8946285247802734
,cappuccino,0.8896211981773376
,table,0.8843487501144409
https://scontent-sit4-1.cdninstagram.com/t51.2885-15/e15/10919290_1580873418815381_1185516486_n.jpg,luxury,0.9680416584014893
,instrument,0.9390120506286621
,classic,0.9319480657577515
,steel,0.9128817319869995
,closeup,0.9060023427009583
,inside,0.8957380056381226
,key,0.8908663988113403
,handle,0.8870602250099182
,knob,0.8824833631515503
,desktop,0.8626787662506104
,chrome,0.8549274206161499
,symbol,0.850189208984375
,wood,0.8452212810516357
,vintage,0.8311960697174072
,business,0.8274884819984436
,design,0.8250540494918823
,no person,0.8242466449737549
,modern,0.816761314868927
,document,0.8079719543457031
,indoors,0.8075404167175293
https://scontent-sit4-1.cdninstagram.com/t51.2885-15/e15/10894952_405781506255315_1699764108_n.jpg,breakfast,0.997495174407959
,coffee,0.9973005056381226
,hot,0.9930377006530762
,food,0.9904170036315918
,cup,0.9899860620498657
,dawn,0.9891490936279297
,drink,0.9874504804611206
,espresso,0.9864005446434021
,bread,0.983881413936615
,delicious,0.9791035652160645
,refreshment,0.9766855835914612
,toast,0.9710252285003662
,plate,0.9683960676193237
,no person,0.9557065963745117
,table,0.9534286260604858
,tasty,0.9491744041442871
,cappuccino,0.9455370306968689
,sweet,0.9447834491729736
,milk,0.9327923059463501
,break,0.9274873733520508
https://scontent-sit4-1.cdninstagram.com/t51.2885-15/e35/13355400_885210898254044_594549476_n.jpg,desktop,0.9571142792701721
,flag,0.9311098456382751
,wear,0.9304944276809692
,uniform,0.9265115261077881
,football,0.8764549493789673
,sign,0.8612513542175293
,banner,0.8565807342529297
,patriotism,0.8505243062973022
,symbol,0.8363975882530212
,man,0.8303297758102417
,sports fan,0.7970638871192932
,illustration,0.7917383909225464
,sign,0.7765629291534424
,country,0.7596263289451599
,national,0.751670241355896
,sport,0.749791145324707
,design,0.737821638584137
,image,0.7229992151260376
,soccer,0.7093617916107178
,goal,0.677056074142456
https://scontent-sit4-1.cdninstagram.com/t51.2885-15/e15/10864998_332536440271092_1845194177_n.jpg,label,0.9497712850570679
,business,0.9418987035751343
,desktop,0.9399880766868591
,text,0.9309207201004028
,paper,0.9180804491043091
,food,0.8960292339324951
,no person,0.8955274820327759
,sign,0.8524703979492188
,celebration,0.8498520851135254
,symbol,0.8376044034957886
,color,0.8344775438308716
,drink,0.8295128345489502
,box,0.8268113136291504
,collage,0.8232318162918091
,Christmas,0.821480929851532
,health,0.8157943487167358
,glass,0.8109896183013916
,conceptual,0.8062188625335693
,thread,0.8011921048164368
,sale,0.7999906539916992
https://scontent-sit4-1.cdninstagram.com/t51.2885-15/e15/10932374_1598372837066231_1259495150_n.jpg,label,0.9351608157157898
,illustration,0.9307512044906616
,picture frame,0.9218595027923584
,symbol,0.9164186716079712
,text,0.9139223098754883
,no person,0.9019606113433838
,bill,0.9008365869522095
,banner,0.8991760015487671
,retro,0.8954936265945435
,vector,0.8895472288131714
,desktop,0.8808283805847168
,design,0.8797164559364319
,business,0.8714849948883057
,sign,0.8658066391944885
,paper,0.8293570280075073
,award,0.8204054832458496
,emblem,0.7971457839012146
,image,0.7919822931289673
,drink,0.785282552242279
,gold,0.7737001776695251
https://scontent-sit4-1.cdninstagram.com/t51.2885-15/e15/10894955_1589027367986859_16555379_n.jpg,food,0.9976904988288879
,meal,0.9864745140075684
,delicious,0.9773366451263428
,plate,0.9730238914489746
,sweet,0.9727107286453247
,dish,0.9662765264511108
,cooking,0.9651108384132385
,tasty,0.9627755880355835
,cuisine,0.9551125764846802
,breakfast,0.9530284404754639
,dinner,0.9472986459732056
,refreshment,0.9445645213127136
,hot,0.9441806077957153
,epicure,0.9418721199035645
,bowl,0.9405086040496826
,lunch,0.9404767751693726
,healthy,0.9373785257339478
,restaurant,0.9363721013069153
,rice,0.9357773065567017
,diet,0.9260508418083191
https://scontent-sit4-1.cdninstagram.com/t51.2885-15/e15/10948935_560523957418375_1064089436_n.jpg,food,0.9973722696304321
,no person,0.9902529716491699
,chocolate,0.9895036220550537
,grow,0.9836103916168213
,fruit,0.967130184173584
,dairy product,0.9519696235656738
,sweet,0.9500486850738525
,meal,0.9456560611724854
,delicious,0.9430751800537109
,plate,0.9387306571006775
,still life,0.9378989934921265
,cake,0.9306782484054565
,tableware,0.9216655492782593
,restaurant,0.9163033962249756
,poultry,0.909744143486023
,cutlery,0.9058070182800293
,sugar,0.8986698389053345
,drink,0.8969765901565552
,flatware,0.8964395523071289
,sauce,0.8947784900665283
https://scontent-sit4-1.cdninstagram.com/t51.2885-15/e15/11008101_345477075655609_1361566673_n.jpg,food,0.9967173337936401
,meal,0.9906022548675537
,rice,0.9869658946990967
,cuisine,0.9857672452926636
,bowl,0.985622227191925
,dinner,0.9839260578155518
,dish,0.9833055138587952
,healthy,0.9818530082702637
,lunch,0.9811857342720032
,tasty,0.9731332659721375
,plate,0.9684571027755737
,hot,0.9650586843490601
,delicious,0.9626363515853882
,diet,0.960148274898529
,nutrition,0.9482852220535278
,restaurant,0.9465606212615967
,cooking,0.9462615251541138
,meat,0.9437370300292969
,vegetable,0.9413766264915466
,sauce,0.9371454119682312
https://scontent-sit4-1.cdninstagram.com/t51.2885-15/e35/12716559_821378901307772_1489762499_n.jpg,no person,0.9939635396003723
,display,0.9874123334884644
,illuminated,0.982787013053894
,technology,0.9722069501876831
,business,0.9679280519485474
,vertical,0.9421329498291016
,screen,0.9241169095039368
,time,0.920668363571167
,bright,0.9093530774116516
,dark,0.907558262348175
,text,0.9069570302963257
,electronics,0.8928283452987671
,horizontal,0.8892412185668945
,light,0.8818634748458862
,access,0.875627338886261
,data,0.869317889213562
,science,0.8666681051254272
,number,0.866635799407959
,sign,0.8416409492492676
,indoors,0.84112548828125
https://scontent-sit4-1.cdninstagram.com/t51.2885-15/e35/11849933_1608677392731467_1440428764_n.jpg,page,0.9678491950035095
,paper,0.9587582945823669
,text,0.9393361806869507
,blank,0.9359534978866577
,desktop,0.9171351194381714
,picture frame,0.9090831279754639
,retro,0.903082013130188
,business,0.88166743516922
,design,0.8787533044815063
,no person,0.866499662399292
,old,0.8653590679168701
,document,0.8652913570404053
,template,0.8620434403419495
,cover,0.8618382215499878
,texture,0.8415640592575073
,illustration,0.8411746025085449
,education,0.8409935832023621
,card,0.8362429738044739
,art,0.83619624376297
,vector,0.8351443409919739
https://scontent-sit4-1.cdninstagram.com/t51.2885-15/e15/11377511_864406620314718_99780420_n.jpg,concert,0.9868670701980591
,music,0.984082043170929
,people,0.9829263091087341
,performance,0.9682587385177612
,festival,0.9671433568000793
,audience,0.9421348571777344
,competition,0.9393887519836426
,band,0.9387780427932739
,many,0.9250204563140869
,child,0.9083681702613831
,stage,0.9062496423721313
,city,0.9034079313278198
,light,0.9009368419647217
,man,0.8994849920272827
,group,0.8961743712425232
,ball,0.8940635919570923
,musician,0.8880769610404968
,motion,0.8795680403709412
,dancing,0.8765544891357422
,crowd,0.8682948350906372
https://scontent-sit4-1.cdninstagram.com/t51.2885-15/e35/11820501_1115245865189786_1385422513_n.jpg,food,0.9823155403137207
,desktop,0.9416664838790894
,no person,0.9243934750556946
,indoors,0.8987905979156494
,horizontal,0.8937591910362244
,fruit,0.8917608261108398
,still life,0.8861358165740967
,business,0.8647763729095459
,apple,0.8581821918487549
,glass,0.8506486415863037
,display,0.8458590507507324
,tray,0.8159750699996948
,screen,0.8135982751846313
,image,0.8132597208023071
,technology,0.8120614290237427
,vertical,0.8085180521011353
,equipment,0.7939962148666382
,illustration,0.7876154184341431
,refreshment,0.7750320434570312
,people,0.770868182182312
https://scontent-sit4-1.cdninstagram.com/t51.2885-15/e15/10919322_819166758149036_677907485_n.jpg,food,0.9898320436477661
,cream,0.9862171411514282
,refreshment,0.9857391715049744
,no person,0.9846701622009277
,sweet,0.9829884767532349
,delicious,0.9803754091262817
,milk,0.9792042970657349
,bowl,0.9704458117485046
,dairy product,0.9665894508361816
,goody,0.9433973431587219
,spoon,0.9275127053260803
,indulgence,0.924210786819458
,indoors,0.9240575432777405
,dairy,0.9159744381904602
,creamy,0.9145411252975464
,waffle,0.903756856918335
,hot,0.8998991250991821
,breakfast,0.8988779187202454
,wafer,0.895378828048706
,tasty,0.8906731009483337
https://scontent-sit4-1.cdninstagram.com/t51.2885-15/e15/10958319_900400110012085_1872061413_n.jpg,egg,0.9993801116943359
,breakfast,0.999131441116333
,egg yolk,0.9987343549728394
,dawn,0.9960866570472717
,food,0.9945423603057861
,fried egg,0.9868571758270264
,meal,0.9826154708862305
,plate,0.9762282371520996
,cooking,0.9705747961997986
,delicious,0.9702936410903931
,nutrition,0.9603814482688904
,frying pan,0.957415759563446
,lunch,0.9557756185531616
,cuisine,0.9533993601799011
,cholesterol,0.9522708654403687
,dish,0.9472746849060059
,tasty,0.9469048976898193
,bacon,0.9462848901748657
,hot,0.9375713467597961
,healthy,0.9370325803756714
https://scontent-sit4-1.cdninstagram.com/t51.2885-15/e15/10655109_289310861260442_568249955_n.jpg,text,0.9773542284965515
,paper,0.9012283086776733
,card,0.8997578024864197
,vintage,0.88852858543396
,no person,0.8817416429519653
,business,0.8770841360092163
,letter,0.8567917346954346
,typography,0.8386752605438232
,label,0.8358873724937439
,picture frame,0.8356020450592041
,vacation,0.8193800449371338
,retro,0.8152369260787964
,illustration,0.8127535581588745
,bill,0.8072869777679443
,travel,0.8013087511062622
,decoration,0.8000653982162476
,sign,0.7907939553260803
,ornate,0.790569007396698
,desktop,0.7892850637435913
,document,0.7826562523841858
https://scontent-sit4-1.cdninstagram.com/t51.2885-15/e15/10948830_1561151320838472_182078220_n.jpg,beer,0.9997397065162659
,drink,0.9990957975387573
,bar,0.9990929365158081
,glass,0.9990309476852417
,alcohol,0.9986203908920288
,pub,0.9973431825637817
,party,0.993864893913269
,liquor,0.9906327128410339
,cold,0.9879708290100098
,amber,0.9850629568099976
,whisky,0.9840569496154785
,ice,0.9807127714157104
,bottle,0.9795411229133606
,lager,0.9792687892913818
,ale,0.9758661389350891
,pint,0.9720423817634583
,refreshment,0.9718047380447388
,liquid,0.9670027494430542
,brewery,0.9620766639709473
,foam,0.9616091847419739
https://scontent-sit4-1.cdninstagram.com/t51.2885-15/e15/10950466_1092373724111807_1373876630_n.jpg,music,0.9765582084655762
,people,0.9761984348297119
,instrument,0.9265958070755005
,man,0.9177208542823792
,musician,0.8812283873558044
,adult,0.8736893534660339
,woman,0.8671109676361084
,industry,0.8669861555099487
,performance,0.8630362749099731
,girl,0.857246994972229
,person,0.8505839109420776
,drum,0.8336061239242554
,portrait,0.8290644884109497
,telephone,0.8238440752029419
,street,0.8055959939956665
,art,0.7904137372970581
,coffee,0.7874927520751953
,show,0.7791826128959656
,bar,0.7778126001358032
,business,0.7745215892791748
https://scontent-sit4-1.cdninstagram.com/t51.2885-15/e15/928951_1570667136508600_359668326_n.jpg,food,0.994179904460907
,meal,0.978479266166687
,egg,0.9770375490188599
,cooking,0.9681786298751831
,restaurant,0.9601985216140747
,dish,0.9559215903282166
,dinner,0.9537492394447327
,hot,0.947648286819458
,no person,0.9443697929382324
,lunch,0.9417158365249634
,plate,0.9411433935165405
,traditional,0.9267168045043945
,vegetable,0.9198782444000244
,delicious,0.9194282293319702
,breakfast,0.9159260988235474
,meat,0.9140342473983765
,egg yolk,0.9118622541427612
,cuisine,0.9084075093269348
,dining,0.8934241533279419
,epicure,0.8853106498718262
https://scontent-sit4-1.cdninstagram.com/t51.2885-15/e15/10957295_820503531337981_812976530_n.jpg,beer,0.9974912405014038
,food,0.988678514957428
,glass,0.979861855506897
,drink,0.9677346348762512
,no person,0.9509052038192749
,table,0.9339845180511475
,restaurant,0.9302952885627747
,refreshment,0.9270309805870056
,meal,0.9113513231277466
,dinner,0.8943121433258057
,delicious,0.8890588283538818
,pub,0.8778220415115356
,hot,0.8768017888069153
,traditional,0.8548120260238647
,cooking,0.8526353240013123
,dish,0.8516640663146973
,plate,0.8504140377044678
,vegetable,0.8433936834335327
,party,0.8420568704605103
,meat,0.8375582695007324
https://scontent-sit4-1.cdninstagram.com/t51.2885-15/e15/10899394_1408456572781154_1978781462_n.jpg,identity,0.9869510531425476
,paper,0.9857802391052246
,passport,0.9821357727050781
,citizenship,0.9678223729133606
,card,0.960383415222168
,visa,0.959158182144165
,citizen,0.9501557946205139
,official,0.9320007562637329
,symbol,0.929806113243103
,pass,0.9292227029800415
,business,0.9170682430267334
,national,0.889718770980835
,identification,0.8893415927886963
,International,0.886622428894043
,sign,0.8810136318206787
,administration,0.8716293573379517
,document,0.8619174361228943
,national,0.8580341339111328
,country,0.8545310497283936
,travel,0.8510929942131042
https://scontent-sit4-1.cdninstagram.com/t51.2885-15/e15/11017600_1540038132912532_1770273610_n.jpg,food,0.9975646138191223
,meal,0.9888440370559692
,restaurant,0.9887710809707642
,dinner,0.9877465963363647
,cooking,0.9874014854431152
,seafood,0.9870719313621521
,fish,0.9856010675430298
,cuisine,0.9849954843521118
,shrimp,0.9822492003440857
,epicure,0.9803542494773865
,healthy,0.9801026582717896
,sushi,0.9781303405761719
,lunch,0.9701558947563171
,rice,0.9663207530975342
,diet,0.9619680643081665
,delicious,0.9619463682174683
,dish,0.9618728160858154
,no person,0.961097002029419
,vegetable,0.9471530318260193
,tasty,0.9439497590065002
https://scontent-sit4-1.cdninstagram.com/t51.2885-15/e15/11024428_462562860557668_1535774519_n.jpg,food,0.997445821762085
,beer,0.9967103600502014
,refreshment,0.9797103404998779
,dinner,0.9765735864639282
,restaurant,0.9738404154777527
,lunch,0.9732304811477661
,meal,0.9718315601348877
,meat,0.9703218936920166
,no person,0.9702155590057373
,delicious,0.9694262742996216
,bread,0.9657121300697327
,french fries,0.9619230628013611
,cheese,0.9602363705635071
,pub,0.9544116258621216
,hot,0.9477959275245667
,fast,0.9453181028366089
,plate,0.9439767003059387
,tasty,0.9438429474830627
,chicken,0.940020740032196
,potato,0.9386175870895386
https://scontent-sit4-1.cdninstagram.com/t51.2885-15/e15/11033004_911870578865047_1426474891_n.jpg,food,0.993614912033081
,breakfast,0.9833172559738159
,delicious,0.9823209643363953
,lunch,0.978888750076294
,plate,0.9782516360282898
,bread,0.9768632650375366
,egg,0.9756344556808472
,dinner,0.9746328592300415
,meal,0.9724929332733154
,nutrition,0.9670647382736206
,dish,0.962401270866394
,no person,0.9577773809432983
,egg yolk,0.9575048685073853
,cuisine,0.9541995525360107
,meat,0.9508448839187622
,tasty,0.9507038593292236
,hot,0.9488836526870728
,bacon,0.9445682764053345
,cooking,0.9407755136489868
,toast,0.9388840198516846
https://scontent-sit4-1.cdninstagram.com/t51.2885-15/e15/10948596_1523370181259707_1747989520_n.jpg,food,0.9982507228851318
,dish,0.9935436248779297
,plate,0.9934244155883789
,meal,0.9929243326187134
,dinner,0.992713451385498
,cuisine,0.9921973347663879
,sauce,0.9886519908905029
,lunch,0.9858310222625732
,restaurant,0.9856593012809753
,tasty,0.9818341732025146
,vegetable,0.9809975028038025
,epicure,0.9795040488243103
,delicious,0.9773080348968506
,hot,0.9707554578781128
,meat,0.9612756371498108
,closeup,0.95756596326828
,pasta,0.9513166546821594
,healthy,0.9509799480438232
,cooking,0.9423230886459351
,diet,0.9339574575424194
https://scontent-sit4-1.cdninstagram.com/t51.2885-15/e15/10986132_322289967967243_850811356_n.jpg,food,0.9506782293319702
,desktop,0.9478480815887451
,dark,0.9193817377090454
,no person,0.9116747379302979
,round,0.8972917199134827
,chocolate,0.8959634304046631
,pot,0.8686765432357788
,cooking,0.8685187697410583
,closeup,0.8505365252494812
,bowl,0.844802975654602
,color,0.8410992622375488
,delicious,0.8375487327575684
,pan,0.8305981159210205
,sweet,0.8220391869544983
,hot,0.8164089322090149
,meal,0.8163570165634155
,decoration,0.8085569143295288
,epicure,0.7973558902740479
,cream,0.7880303859710693
,wood,0.7844374179840088
https://scontent-sit4-1.cdninstagram.com/t51.2885-15/e15/10919492_454004704747201_2001881721_n.jpg,food,0.9961873292922974
,meat,0.9835018515586853
,no person,0.9752447605133057
,plate,0.9716416597366333
,beef,0.9674643278121948
,meal,0.9645278453826904
,dinner,0.9505237340927124
,vegetable,0.9435890316963196
,cooking,0.9397134780883789
,grow,0.9395902156829834
,delicious,0.9367984533309937
,pork,0.9359481334686279
,dish,0.9351866245269775
,healthy,0.9305903911590576
,lunch,0.9171271324157715
,health,0.9138466119766235
,tasty,0.9093257188796997
,meatball,0.9064722061157227
,sauce,0.9020431041717529
,cuisine,0.8956189155578613
https://scontent-sit4-1.cdninstagram.com/t51.2885-15/e15/11049271_803864669704123_1305682064_n.jpg,family,0.9661976099014282
,bed,0.9502905607223511
,sleep,0.9420769214630127
,baby,0.9295499324798584
,symbol,0.9232531785964966
,child,0.921831488609314
,texture,0.9217170476913452
,design,0.9090051651000977
,love,0.9045897126197815
,old,0.9010840654373169
,pillow,0.8991879224777222
,art,0.8865902423858643
,desktop,0.8836976289749146
,cover,0.8831348419189453
,people,0.868888258934021
,bedroom,0.8616167306900024
,color,0.8584302663803101
,hand,0.846582293510437
,human,0.8336131572723389
,vintage,0.832951545715332
https://scontent-sit4-1.cdninstagram.com/t51.2885-15/e15/917170_908560772539743_184577965_n.jpg,drink,0.9893795251846313
,food,0.9848767518997192
,coffee,0.9811755418777466
,breakfast,0.978807806968689
,hot,0.9738473892211914
,cup,0.9734244346618652
,bread,0.9707756042480469
,sweet,0.9698837995529175
,restaurant,0.9589667916297913
,espresso,0.9566122889518738
,bar,0.9539226293563843
,plate,0.9525977373123169
,milk,0.9524269104003906
,glass,0.9459820985794067
,refreshment,0.938357949256897
,dawn,0.9383155107498169
,table,0.9381177425384521
,cream,0.9318072199821472
,chocolate,0.931287944316864
,cake,0.9217219948768616
https://scontent-sit4-1.cdninstagram.com/t51.2885-15/e35/12132845_1657795717796820_677829887_n.jpg,food,0.9963724613189697
,dinner,0.9938154220581055
,chicken,0.9937186241149902
,lunch,0.9868723154067993
,meal,0.9826191663742065
,meat,0.9819995164871216
,plate,0.9817165732383728
,dish,0.9745993614196777
,poultry,0.9724751114845276
,restaurant,0.9650729894638062
,delicious,0.9648749828338623
,vegetable,0.9553846120834351
,cuisine,0.9511294960975647
,hot,0.9416651129722595
,no person,0.9316867589950562
,cooking,0.9298412799835205
,sauce,0.9286327362060547
,tasty,0.9136728048324585
,fish,0.9113603234291077
,epicure,0.9105926156044006
https://scontent-sit4-1.cdninstagram.com/t51.2885-15/e15/11008288_364861987047168_131427379_n.jpg,ice,0.9859530925750732
,cold,0.9757610559463501
,food,0.9734715223312378
,milk,0.9661983251571655
,drink,0.957632303237915
,glass,0.955035924911499
,sweet,0.9446625709533691
,delicious,0.9374195337295532
,cream,0.933647871017456
,refreshment,0.9332534670829773
,no person,0.9299074411392212
,sugar,0.9287184476852417
,restaurant,0.9238139390945435
,chocolate,0.9163714647293091
,bar,0.9147248268127441
,coffee,0.8905999660491943
,cool,0.881075382232666
,wood,0.8797202706336975
,breakfast,0.8595476746559143
,hot,0.8440840840339661
https://scontent-sit4-1.cdninstagram.com/t51.2885-15/e15/10986020_564164157053640_444109257_n.jpg,food,0.995846688747406
,meal,0.9819827079772949
,dish,0.9678220748901367
,tasty,0.9554843306541443
,plate,0.9544394016265869
,cuisine,0.9537023901939392
,hot,0.9506863951683044
,delicious,0.9506564140319824
,vegetable,0.944710373878479
,restaurant,0.9442609548568726
,cooking,0.9431689977645874
,pie,0.9419794678688049
,cheese,0.9376417994499207
,bowl,0.9366359710693359
,refreshment,0.9354463815689087
,cream,0.9291789531707764
,bread,0.9285608530044556
,dinner,0.9264503717422485
,sweet,0.923640787601471
,healthy,0.9224158525466919
https://scontent-sit4-1.cdninstagram.com/t51.2885-15/e35/11820571_157300074604945_16806784_n.jpg,drink,0.9987258911132812
,cup,0.9918074011802673
,hot,0.9877557158470154
,foam,0.9873456358909607
,mug,0.9865165948867798
,perfume,0.9850878715515137
,espresso,0.969186544418335
,coffee,0.9669579863548279
,breakfast,0.964081883430481
,liquid,0.9579520225524902
,glass,0.9558345079421997
,caffeine,0.9526333808898926
,cappuccino,0.9505801200866699
,table,0.9435091018676758
,saucer,0.9311046600341797
,milk,0.9254641532897949
,brew,0.9046088457107544
,dawn,0.9026428461074829
,bar,0.8909707069396973
,tea,0.8865931034088135
https://scontent-sit4-1.cdninstagram.com/t51.2885-15/e35/11821102_1660243340888151_1231364147_n.jpg,food,0.99554044008255
,no person,0.9840162992477417
,dinner,0.9777274131774902
,meal,0.9755244255065918
,cooking,0.972324788570404
,lunch,0.9718017578125
,delicious,0.9641150236129761
,dish,0.958393931388855
,meat,0.9564397931098938
,hot,0.9543758630752563
,restaurant,0.9434507489204407
,plate,0.9400548934936523
,cuisine,0.9365404844284058
,bowl,0.9344061613082886
,fast,0.9083750247955322
,gold,0.9070702791213989
,tasty,0.9061861038208008
,homemade,0.9007158279418945
,traditional,0.896737813949585
,nutrition,0.8911551237106323
https://scontent-sit4-1.cdninstagram.com/t51.2885-15/e15/10932601_1589798111258853_365281249_n.jpg,indoors,0.9819865226745605
,restaurant,0.9609899520874023
,people,0.9485598206520081
,woman,0.9468977451324463
,adult,0.924224853515625
,sit,0.905956506729126
,togetherness,0.9050873517990112
,man,0.9029173851013184
,horizontal,0.8924214839935303
,service,0.8845126628875732
,cheerful,0.8799710273742676
,fun,0.8787580728530884
,table,0.8745241165161133
,happiness,0.8736172914505005
,celebration,0.8735207319259644
,child,0.8632646203041077
,enjoyment,0.8360462188720703
,travel,0.8337348699569702
,coffee,0.8335305452346802
,dining,0.8311842679977417
https://scontent-sit4-1.cdninstagram.com/t51.2885-15/e15/10731874_703997173025759_1594266823_n.jpg,stadium,0.9999714493751526
,competition,0.9991535544395447
,game,0.9946483373641968
,athlete,0.9941115975379944
,ball,0.9938605427742004
,grandstand,0.9898306131362915
,soccer,0.98636794090271
,sports fan,0.9837262630462646
,many,0.981458306312561
,group,0.9802783727645874
,football,0.9783279895782471
,sports equipment,0.9766423106193542
,match,0.9683524370193481
,bleachers,0.9640748500823975
,action,0.9624320268630981
,sport,0.9602097868919373
,audience,0.9570282101631165
,tribune,0.9544721245765686
,spectator,0.9515585899353027
,crowd,0.9453953504562378
https://scontent-sit4-1.cdninstagram.com/t51.2885-15/e15/10963810_340047512845670_1230705892_n.jpg,family,0.9695968627929688
,child,0.9605116844177246
,symbol,0.9494714736938477
,painting,0.9442675113677979
,hand,0.9407814741134644
,toy,0.9386506676673889
,country,0.9378374814987183
,design,0.9267184734344482
,color,0.9199457168579102
,sign,0.9180757999420166
,desktop,0.9143813848495483
,old,0.9031846523284912
,art,0.8965051770210266
,handmade,0.890556275844574
,no person,0.8904953598976135
,flag,0.8873575925827026
,national,0.8767625093460083
,wool,0.8525950908660889
,play,0.8502342104911804
,fabric,0.8491570949554443
https://scontent-sit4-1.cdninstagram.com/t51.2885-15/e15/10895298_878880232156419_296879901_n.jpg,food,0.9869736433029175
,no person,0.9708238840103149
,dinner,0.9512675404548645
,delicious,0.9346557855606079
,traditional,0.9302457571029663
,cooking,0.9266872406005859
,lunch,0.9240431189537048
,rice,0.9059474468231201
,meal,0.8909881114959717
,dish,0.8577624559402466
,bowl,0.8574337363243103
,hot,0.837126612663269
,wood,0.8357759714126587
,homemade,0.8352961540222168
,breakfast,0.8295213580131531
,plate,0.827778697013855
,meat,0.8159123063087463
,chicken,0.8129512071609497
,restaurant,0.8014337420463562
,soup,0.7914687395095825
https://scontent-sit4-1.cdninstagram.com/t51.2885-15/e35/11371027_1616737855245743_1605086961_n.jpg,no person,0.9854780435562134
,child,0.9756935834884644
,decoration,0.9661318063735962
,celebration,0.9467269778251648
,toy,0.9331198930740356
,family,0.9274048805236816
,handmade,0.9237310886383057
,wood,0.9147735834121704
,furniture,0.8989958167076111
,painting,0.8975203037261963
,indoors,0.8966459035873413
,people,0.8925464749336243
,party,0.8777624368667603
,festival,0.8768281936645508
,still life,0.8724136352539062
,creativity,0.8668057918548584
,art,0.8635837435722351
,room,0.8612549304962158
,Christmas,0.8584997653961182
,fun,0.8554377555847168
https://scontent-sit4-1.cdninstagram.com/t51.2885-15/e15/10655087_1501573823414957_441479681_n.jpg,music,0.995415449142456
,performance,0.9875839948654175
,concert,0.9710138440132141
,people,0.9627081155776978
,musician,0.9579097032546997
,festival,0.9569785594940186
,singer,0.9479687809944153
,stage,0.9453254342079163
,pop,0.9323774576187134
,band,0.8974735736846924
,adult,0.8932693004608154
,one,0.8878690004348755
,man,0.8837810754776001
,recreation,0.8808555603027344
,wear,0.8789656162261963
,theater,0.8573638200759888
,percussion instrument,0.850498616695404
,light,0.8495244979858398
,instrument,0.8466668128967285
,movie,0.8216691017150879
https://scontent-sit4-1.cdninstagram.com/t51.2885-15/e15/10899570_1539872256284265_1529620640_n.jpg,wood,0.9886952638626099
,wooden,0.9786907434463501
,empty,0.9625294208526611
,family,0.961689293384552
,no person,0.9531983137130737
,house,0.9511834383010864
,window,0.9435094594955444
,inside,0.9221627116203308
,architecture,0.911718487739563
,indoors,0.908581554889679
,old,0.8952517509460449
,room,0.8948652744293213
,furniture,0.893425703048706
,vintage,0.892676830291748
,design,0.8761498928070068
,wall,0.8730078935623169
,retro,0.86972975730896
,decoration,0.8624028563499451
,desktop,0.8560615181922913
,picture frame,0.834003210067749
https://scontent-sit4-1.cdninstagram.com/t51.2885-15/e35/11909152_1674952686071115_1369702295_n.jpg,no person,0.9958125948905945
,handmade,0.9776380062103271
,child,0.9720125794410706
,celebration,0.9586126804351807
,Christmas,0.9579001069068909
,motley,0.955661416053772
,toy,0.9549466371536255
,traditional,0.9456540942192078
,decoration,0.9448286294937134
,homemade,0.9419815540313721
,doll,0.9296611547470093
,color,0.9184985160827637
,family,0.9142396450042725
,winter,0.9127181768417358
,food,0.9077379703521729
,desktop,0.9018981456756592
,painting,0.8990037441253662
,fun,0.8924470543861389
,party,0.8543452620506287
,cookie,0.8541862964630127
https://scontent-sit4-1.cdninstagram.com/t51.2885-15/e35/13260870_2061195434104758_288676424_n.jpg,rice,0.994892418384552
,food,0.9948806166648865
,meal,0.9849395155906677
,dish,0.983151912689209
,dinner,0.9817728996276855
,cuisine,0.9772984981536865
,healthy,0.9742228984832764
,lunch,0.9669888615608215
,tasty,0.9638915061950684
,cooking,0.9638242125511169
,restaurant,0.9631859064102173
,meat,0.9626588225364685
,plate,0.9625623822212219
,delicious,0.9583768844604492
,epicure,0.9571444988250732
,hot,0.9453230500221252
,traditional,0.9403749704360962
,vegetable,0.9399606585502625
,diet,0.939719557762146
,refreshment,0.934668779373169
https://scontent-sit4-1.cdninstagram.com/t51.2885-15/e35/13126750_816826371780934_1437844336_n.jpg,banana,0.9924584627151489
,no person,0.9740098118782043
,color,0.9480754137039185
,food,0.9447073936462402
,fruit,0.9027034044265747
,desktop,0.8727009296417236
,market,0.8512391448020935
,group,0.8355233669281006
,motley,0.8280119299888611
,confection,0.8267028331756592
,kind,0.7818285226821899
,wood,0.7806469202041626
,summer,0.774901270866394
,fall,0.7608479261398315
,bright,0.7606906294822693
,traditional,0.7438057661056519
,refreshment,0.7419606447219849
,still life,0.740401029586792
,apple,0.7400604486465454
,color,0.7197186946868896
https://scontent-sit4-1.cdninstagram.com/t51.2885-15/e15/10431803_915521648478905_22384183_n.jpg,coffee,0.999820351600647
,espresso,0.9981995820999146
,foam,0.9974595308303833
,drink,0.9970468282699585
,cappuccino,0.9968482255935669
,hot,0.9955967664718628
,caffeine,0.9939079284667969
,dawn,0.9920819997787476
,cup,0.9914356470108032
,breakfast,0.9819996356964111
,dark,0.9817008376121521
,mug,0.976305365562439
,bean,0.9715192914009094
,perfume,0.9684200286865234
,no person,0.9592858552932739
,break,0.9568068981170654
,mocha,0.9567643404006958
,food,0.9447166919708252
,milk,0.9406325221061707
,steam,0.9323428869247437
https://scontent-sit4-1.cdninstagram.com/t51.2885-15/e35/12965935_1152052421506325_1008643629_n.jpg,drink,0.9876816272735596
,food,0.9869649410247803
,juice,0.9774796366691589
,glass,0.975501537322998
,healthy,0.9742518663406372
,fruit,0.9732134938240051
,cocktail,0.9673425555229187
,refreshment,0.9554716348648071
,desktop,0.9505321383476257
,vegetable,0.9465188980102539
,sweet,0.9413408041000366
,diet,0.9401293992996216
,summer,0.9349015951156616
,color,0.925967276096344
,wooden,0.914192795753479
,tasty,0.9079722166061401
,cold,0.9040240049362183
,nutrition,0.9011310338973999
,restaurant,0.8811483979225159
,closeup,0.8754048347473145
https://scontent-sit4-1.cdninstagram.com/t51.2885-15/e35/13355565_137152296692208_1738326204_n.jpg,bottle,0.9637129306793213
,color,0.9485615491867065
,drink,0.9415952563285828
,desktop,0.93639075756073
,traditional,0.9212968349456787
,no person,0.912434458732605
,vintage,0.8970246911048889
,wood,0.8924888372421265
,glass,0.8776906728744507
,decoration,0.8770767450332642
,culture,0.8747268319129944
,alcohol,0.8546743392944336
,symbol,0.8465598821640015
,food,0.825117826461792
,old,0.8246575593948364
,art,0.8197919130325317
,closeup,0.8126055002212524
,nature,0.8112905025482178
,festival,0.8041681051254272
,container,0.789946436882019
