url,class,score
https://scontent-sit4-1.cdninstagram.com/t51.2885-15/s750x750/sh0.08/e35/13658650_860338207435178_1857055397_n.jpg,water,0.9923836588859558
,no person,0.991947591304779
,transportation system,0.9865823984146118
,travel,0.979782223701477
,vehicle,0.9795864224433899
,leisure,0.978545606136322
,recreation,0.9778231382369995
,sky,0.9747443199157715
,outdoors,0.9705089330673218
,summer,0.9694504737854004
,sailboat,0.9692801833152771
,watercraft,0.9628498554229736
,sea,0.9564324617385864
,nature,0.9339003562927246
,seashore,0.9329298734664917
,ship,0.9294455051422119
,yacht,0.9288493394851685
,sun,0.9140540361404419
,fair weather,0.9111194610595703
,boat,0.885036289691925
https://scontent-sit4-1.cdninstagram.com/t51.2885-15/e35/13437205_596219273892031_1279143465_n.jpg,beach,0.9962314367294312
,water,0.9915168285369873
,seashore,0.9883913993835449
,sand,0.9878726005554199
,travel,0.9846017360687256
,ocean,0.9839162230491638
,island,0.9813256859779358
,sea,0.9794715642929077
,no person,0.9733874797821045
,seascape,0.970526933670044
,landscape,0.9578452110290527
,recreation,0.9456256628036499
,summer,0.9394301176071167
,surf,0.9344137907028198
,vacation,0.9343619346618652
,daylight,0.9294332265853882
,tropical,0.9246384501457214
,sky,0.9220452308654785
,outdoors,0.9143044948577881
,watercraft,0.9079009294509888
https://scontent-sit4-1.cdninstagram.com/t51.2885-15/s750x750/sh0.08/e35/13741134_657855881045750_414260223_n.jpg,people,0.9941457509994507
,adult,0.9908397197723389
,man,0.988005518913269
,child,0.9857369661331177
,group,0.9747947454452515
,boy,0.9654779434204102
,woman,0.9497324228286743
,two,0.9455747008323669
,outdoors,0.9385164976119995
,fun,0.9334873557090759
,happiness,0.9293020963668823
,three,0.923683762550354
,lifestyle,0.918986439704895
,leisure,0.9123647212982178
,friendship,0.8992215394973755
,portrait,0.8962876796722412
,family,0.8890882134437561
,four,0.8814164400100708
,agriculture,0.8777682185173035
,girl,0.8776832818984985
https://scontent-sit4-1.cdninstagram.com/t51.2885-15/s640x640/sh0.08/e35/13725623_1086821698073992_266769605_n.jpg,sea,0.9976305961608887
,water,0.9975147843360901
,watercraft,0.9957841634750366
,ship,0.993928074836731
,transportation system,0.989527702331543
,travel,0.9886906147003174
,no person,0.9784712791442871
,boat,0.9778887629508972
,ocean,0.9736096858978271
,harbor,0.9731965065002441
,sky,0.9666398763656616
,seashore,0.9644736647605896
,vehicle,0.964314341545105
,outdoors,0.9486212134361267
,nautical,0.9330556392669678
,pier,0.9279325008392334
,ferry,0.9197742938995361
,port,0.9142310619354248
,sail,0.912739634513855
,motorboat,0.8995470404624939
https://scontent-sit4-1.cdninstagram.com/t51.2885-15/e35/13707151_1754547028149904_1872421636_n.jpg,ball-shaped,0.9938439130783081
,light,0.9934792518615723
,sphere,0.9891913533210754
,exploration,0.9730709791183472
,ball,0.972200334072113
,mirror,0.970908522605896
,travel,0.9635396003723145
,reflection,0.9603112936019897
,glass,0.9554378986358643
,astronomy,0.9466278553009033
,light,0.9288686513900757
,planet,0.9270706176757812
,lens,0.9043494462966919
,blur,0.886931300163269
,shining,0.8853616714477539
,illuminated,0.8810282349586487
,geography,0.8535276651382446
,spherical,0.8508132100105286
,atmosphere,0.8462868928909302
,round,0.8437575101852417
https://scontent-sit4-1.cdninstagram.com/t51.2885-15/e35/13473228_1648613188795608_764454432_n.jpg,sunset,0.9977089166641235
,dusk,0.9896241426467896
,dawn,0.9885702729225159
,evening,0.9823406934738159
,travel,0.9778589010238647
,sky,0.9777406454086304
,sun,0.9752588272094727
,landscape,0.9730263948440552
,no person,0.9715225696563721
,light,0.9636921286582947
,outdoors,0.9587792158126831
,water,0.9387359619140625
,fair weather,0.9252713322639465
,moon,0.8978532552719116
,reflection,0.8953043222427368
,nature,0.894200325012207
,lake,0.8802700042724609
,daylight,0.8688188195228577
,sea,0.8233110904693604
,beach,0.8136667013168335
https://scontent-sit4-1.cdninstagram.com/t51.2885-15/e35/p480x480/13768236_1627207584274232_1517649307_n.jpg,nature,0.9984078407287598
,flora,0.997442901134491
,flower,0.9950110912322998
,leaf,0.9925746917724609
,garden,0.9923430681228638
,floral,0.9902267456054688
,summer,0.9899130463600159
,blooming,0.9847728610038757
,closeup,0.9826138615608215
,bright,0.9791431427001953
,beautiful,0.9774423241615295
,color,0.977164626121521
,petal,0.9768902063369751
,vibrant,0.9725607633590698
,season,0.9690311551094055
,no person,0.9564924836158752
,park,0.9490196704864502
,growth,0.9484683275222778
,husk,0.9433744549751282
,outdoors,0.9432269334793091
https://scontent-sit4-1.cdninstagram.com/t51.2885-15/s750x750/sh0.08/e35/13704321_197368980665851_1673586836_n.jpg,city,0.9901816844940186
,water,0.9886807203292847
,skyline,0.9853231310844421
,skyscraper,0.974156379699707
,river,0.9728372097015381
,cityscape,0.9724361300468445
,architecture,0.9658191204071045
,no person,0.960067629814148
,building,0.9515831470489502
,sky,0.9505975246429443
,harbor,0.9459036588668823
,travel,0.9412302374839783
,office,0.9389357566833496
,business,0.9382743835449219
,waterfront,0.9230513572692871
,daylight,0.9228693246841431
,downtown,0.9187500476837158
,outdoors,0.9185272455215454
,modern,0.9017493724822998
,ship,0.8990780115127563
https://scontent-sit4-1.cdninstagram.com/t51.2885-15/e35/13355450_1761226287457012_1142836977_n.jpg,gold,0.9935831427574158
,shining,0.9830465912818909
,Christmas,0.977358877658844
,dark,0.9764150381088257
,decoration,0.9723478555679321
,light,0.9683770537376404
,candle,0.9622858762741089
,wax,0.9590930938720703
,isolated,0.9563850164413452
,amber,0.9558936357498169
,celebration,0.9531810283660889
,birthday,0.9445732831954956
,no person,0.9420262575149536
,candlelight,0.9341819286346436
,sparkling,0.9240180850028992
,flame,0.9220229387283325
,crystal,0.9183254837989807
,bright,0.9120339155197144
,abstract,0.9116122722625732
,shape,0.9037946462631226
https://scontent-sit4-1.cdninstagram.com/t51.2885-15/s750x750/sh0.08/e35/13696478_2059972457562275_62026142_n.jpg,water,0.9979629516601562
,boat,0.9925771951675415
,travel,0.9815824031829834
,lake,0.9806338548660278
,river,0.9759591817855835
,pier,0.9688740968704224
,sea,0.9673005938529968
,beach,0.965956449508667
,canoe,0.9596860408782959
,summer,0.956623911857605
,nature,0.9535844326019287
,wood,0.950884222984314
,transportation system,0.9475076198577881
,tropical,0.9334267377853394
,rowboat,0.931487500667572
,reflection,0.9293040037155151
,watercraft,0.91912442445755
,composure,0.9135239124298096
,ocean,0.913066029548645
,landscape,0.9110680818557739
https://scontent-sit4-1.cdninstagram.com/t51.2885-15/e35/13381305_1084664558274210_188487612_n.jpg,light,0.9921854734420776
,street,0.9534128904342651
,road,0.948855459690094
,evening,0.9462137222290039
,sunset,0.9385985136032104
,city,0.9349257349967957
,transportation system,0.934341549873352
,travel,0.9317854642868042
,vehicle,0.925110399723053
,no person,0.9223934412002563
,auto racing,0.9203826189041138
,motion,0.9186248183250427
,bridge,0.9149887561798096
,car,0.9059499502182007
,landscape,0.8978807926177979
,race,0.8869656324386597
,dark,0.8786934018135071
,silhouette,0.8742042779922485
,blur,0.8708069324493408
,competition,0.8667932748794556
https://scontent-sit4-1.cdninstagram.com/t51.2885-15/e35/13556941_1582952745331254_1123105029_n.jpg,water,0.9952988624572754
,no person,0.9868916273117065
,travel,0.9862216114997864
,pier,0.9537957906723022
,bridge,0.9507670402526855
,sea,0.9486039876937866
,watercraft,0.9485691785812378
,transportation system,0.9484392404556274
,sky,0.9357519149780273
,river,0.9311877489089966
,outdoors,0.9274812936782837
,architecture,0.9226070642471313
,city,0.9133226871490479
,boat,0.9130792021751404
,vehicle,0.9031106233596802
,sunset,0.8950843214988708
,landscape,0.888908863067627
,ship,0.8867006301879883
,reflection,0.8708652257919312
,harbor,0.8634014129638672
https://scontent-sit4-1.cdninstagram.com/t51.2885-15/s640x640/sh0.08/e35/13423647_1652698115052839_2128571464_n.jpg,dog,0.9983022212982178
,canine,0.9979392886161804
,mammal,0.9976792335510254
,pet,0.9942573308944702
,cute,0.9900140166282654
,portrait,0.9862258434295654
,puppy,0.9799450039863586
,domestic,0.9794917106628418
,animal,0.9780346751213074
,looking,0.9670349359512329
,spitz,0.9645540714263916
,no person,0.9439579248428345
,one,0.9421703815460205
,sit,0.930391788482666
,fur,0.9302228689193726
,breed,0.9283175468444824
,puppy,0.9259018898010254
,little,0.9241602420806885
,purebred,0.9225733876228333
,adorable,0.9108320474624634
https://scontent-sit4-1.cdninstagram.com/t51.2885-15/e35/13298245_1031277500286596_984037715_n.jpg,nature,0.993105411529541
,flower,0.9903345704078674
,no person,0.9880380630493164
,leaf,0.9753887057304382
,flora,0.9712607860565186
,summer,0.9525918364524841
,outdoors,0.9471743702888489
,garden,0.9210028648376465
,closeup,0.9070984125137329
,tree,0.8914031982421875
,beautiful,0.8884713649749756
,color,0.8807830810546875
,blooming,0.8773623704910278
,blur,0.8764565587043762
,delicate,0.8744546175003052
,floral,0.8718522787094116
,bright,0.8601603507995605
,fair weather,0.853603720664978
,daylight,0.8502199649810791
,petal,0.8261831998825073
https://scontent-sit4-1.cdninstagram.com/t51.2885-15/s750x750/sh0.08/e35/13707163_1735727936669328_1722625618_n.jpg,landscape,0.9954741597175598
,nature,0.9913465976715088
,hill,0.9853267669677734
,sky,0.9758173823356628
,rural,0.9725531935691833
,tree,0.9717541337013245
,mountain,0.9709266424179077
,wood,0.9651665091514587
,summer,0.9643313884735107
,countryside,0.9640212059020996
,travel,0.9638385772705078
,field,0.9616198539733887
,grass,0.9600332975387573
,no person,0.9579982757568359
,agriculture,0.9438515305519104
,flora,0.9397904872894287
,outdoors,0.9344342947006226
,scenic,0.9297068119049072
,valley,0.9201397895812988
,cloud,0.9168518781661987
https://scontent-sit4-1.cdninstagram.com/t51.2885-15/e35/13534529_1003519549767970_849017554_n.jpg,flower,0.9973742961883545
,flora,0.9970598816871643
,nature,0.9940485954284668
,leaf,0.990607738494873
,garden,0.987575113773346
,no person,0.986666738986969
,floral,0.9811215400695801
,blooming,0.9797132611274719
,petal,0.9755131006240845
,color,0.9717289209365845
,bright,0.9597785472869873
,beautiful,0.9574002027511597
,bouquet,0.9557818174362183
,summer,0.9538276195526123
,tropical,0.9455145597457886
,branch,0.9429736733436584
,decoration,0.9267879724502563
,closeup,0.9220808148384094
,growth,0.9162059426307678
,exotic,0.9068357944488525
https://scontent-sit4-1.cdninstagram.com/t51.2885-15/s750x750/sh0.08/e35/13671087_1635639920096753_984709903_n.jpg,nature,0.9971908926963806
,leaf,0.9931389093399048
,flower,0.99307781457901
,flora,0.9921268224716187
,summer,0.9827290773391724
,no person,0.9809913635253906
,garden,0.9659063220024109
,floral,0.9594523906707764
,tropical,0.9593808650970459
,closeup,0.9590817093849182
,blooming,0.956924319267273
,bright,0.9501358866691589
,color,0.9440063238143921
,branch,0.9408868551254272
,outdoors,0.9396536946296692
,growth,0.9314603209495544
,beautiful,0.9300425052642822
,tree,0.9224662780761719
,petal,0.919920802116394
,shrub,0.9174374341964722
https://scontent-sit4-1.cdninstagram.com/t51.2885-15/e35/13725615_1713267228926212_1428815414_n.jpg,water,0.9761596918106079
,no person,0.9590109586715698
,city,0.9535621404647827
,building,0.9523193836212158
,reflection,0.9471909999847412
,architecture,0.9463664293289185
,sea,0.9364225268363953
,travel,0.9307428598403931
,sky,0.9131118059158325
,bridge,0.9022812843322754
,river,0.8986903429031372
,light,0.8951073884963989
,energy,0.8834937810897827
,pier,0.8746734857559204
,modern,0.8671729564666748
,business,0.8632699847221375
,urban,0.8469579815864563
,technology,0.8365374803543091
,ocean,0.8260764479637146
,transportation system,0.8231818675994873
https://scontent-sit4-1.cdninstagram.com/t51.2885-15/e35/13768361_1751042101832468_190359579_n.jpg,insect,0.9961429834365845
,no person,0.994717001914978
,invertebrate,0.9873860478401184
,nature,0.9859521389007568
,outdoors,0.9568666219711304
,wildlife,0.9559165239334106
,spider,0.9429980516433716
,antenna,0.9366391897201538
,closeup,0.9337027072906494
,beetle,0.9294737577438354
,crab,0.9249579310417175
,summer,0.9240471124649048
,little,0.9239765405654907
,animal,0.9187917709350586
,leaf,0.9134887456893921
,wood,0.9036065340042114
,entomology,0.883757472038269
,color,0.863800585269928
,arachnid,0.8544257879257202
,fair weather,0.8539276123046875
https://scontent-sit4-1.cdninstagram.com/t51.2885-15/e35/13437239_821786961289249_1469391638_n.jpg,water,0.9910048246383667
,evening,0.9735508561134338
,light,0.9705605506896973
,no person,0.9685696363449097
,reflection,0.96564781665802
,travel,0.964587390422821
,bridge,0.9618613123893738
,river,0.9416515827178955
,city,0.9381281137466431
,festival,0.9284180998802185
,dusk,0.922690749168396
,sea,0.9018608331680298
,energy,0.9015130996704102
,building,0.8962584733963013
,sunset,0.8951829671859741
,vehicle,0.8880626559257507
,transportation system,0.8804242610931396
,architecture,0.8782248497009277
,sky,0.8595184087753296
,illuminated,0.8590192794799805
https://scontent-sit4-1.cdninstagram.com/t51.2885-15/e35/13703182_163677387376624_1757486326_n.jpg,city,0.9960914850234985
,architecture,0.9872204065322876
,skyline,0.9846912026405334
,building,0.9807841777801514
,skyscraper,0.976616382598877
,cityscape,0.9716658592224121
,urban,0.9715539216995239
,travel,0.9703220129013062
,downtown,0.9685237407684326
,street,0.964812695980072
,business,0.9540043473243713
,office,0.9416396617889404
,no person,0.9384225606918335
,tower,0.9034057259559631
,sky,0.9019018411636353
,modern,0.9011608362197876
,people,0.8834211230278015
,smog,0.8613271713256836
,apartment,0.8559244871139526
,outdoors,0.8532800674438477
https://scontent-sit4-1.cdninstagram.com/t51.2885-15/e35/13703052_285446058475617_743124959_n.jpg,tropical,0.9974860548973083
,beach,0.9933311939239502
,exotic,0.9906495809555054
,island,0.989432692527771
,palm,0.988825798034668
,seashore,0.9876389503479004
,travel,0.9868952035903931
,water,0.9866148233413696
,sand,0.9852883219718933
,summer,0.9848512411117554
,idyllic,0.9815185070037842
,vacation,0.9787111282348633
,tree,0.9769789576530457
,resort,0.976757287979126
,ocean,0.9728446006774902
,relaxation,0.9667450189590454
,no person,0.962229311466217
,coconut,0.9596617221832275
,paradise,0.9519670009613037
,sun,0.9406147003173828
https://scontent-sit4-1.cdninstagram.com/t51.2885-15/e35/13722155_1230307497000286_382437385_n.jpg,water,0.9970687627792358
,travel,0.9933680891990662
,city,0.9922593832015991
,architecture,0.9904494285583496
,no person,0.9898626208305359
,dusk,0.989200234413147
,sky,0.9874805212020874
,evening,0.9852908849716187
,opera,0.9832040071487427
,river,0.9801525473594666
,waterfront,0.9765487909317017
,bridge,0.9744521975517273
,sunset,0.9721178412437439
,harbor,0.9708718657493591
,cityscape,0.9595293998718262
,bay,0.9592126607894897
,building,0.9456567764282227
,downtown,0.9449379444122314
,outdoors,0.9431382417678833
,business,0.9400526285171509
https://scontent-sit4-1.cdninstagram.com/t51.2885-15/e35/13741460_226505924415454_1774384961_n.jpg,watercraft,0.9970674514770508
,water,0.9970475435256958
,sea,0.9958081245422363
,ship,0.9911950826644897
,transportation system,0.9892004728317261
,boat,0.9808741211891174
,harbor,0.976585865020752
,no person,0.9759691953659058
,seashore,0.9737372398376465
,ocean,0.9736147522926331
,travel,0.9735152721405029
,sky,0.9634392261505127
,nautical,0.9492487907409668
,port,0.9485564231872559
,vehicle,0.9481203556060791
,industry,0.9475727081298828
,pier,0.9457319974899292
,outdoors,0.9451520442962646
,daylight,0.9240504503250122
,shipment,0.917486310005188
https://scontent-sit4-1.cdninstagram.com/t51.2885-15/e35/13534140_919071251548655_699581971_n.jpg,flower,0.9955103993415833
,flora,0.9926261901855469
,nature,0.9883569478988647
,no person,0.986846923828125
,leaf,0.9825222492218018
,garden,0.9808350801467896
,floral,0.9756510257720947
,petal,0.9691296815872192
,blooming,0.9621564149856567
,color,0.9535350799560547
,summer,0.9507943391799927
,bright,0.939562201499939
,growth,0.9290984869003296
,beautiful,0.9250795841217041
,bouquet,0.9213024973869324
,closeup,0.9194897413253784
,delicate,0.8751843571662903
,husk,0.8634991645812988
,tropical,0.8573188781738281
,bud,0.8563953638076782
https://scontent-sit4-1.cdninstagram.com/t51.2885-15/e35/13714116_973214286109961_1412542390_n.jpg,water,0.9951978325843811
,beach,0.9853320121765137
,travel,0.982254683971405
,tree,0.9742486476898193
,no person,0.9734913110733032
,recreation,0.9712389707565308
,summer,0.9658931493759155
,seashore,0.9657244682312012
,island,0.9582326412200928
,sand,0.9525307416915894
,landscape,0.9514942765235901
,outdoors,0.9393381476402283
,leisure,0.9368638396263123
,sky,0.9367133975028992
,nature,0.9293065071105957
,relaxation,0.9220656752586365
,lake,0.9213706254959106
,daylight,0.9040334224700928
,vacation,0.8968746662139893
,sea,0.8968743085861206
https://scontent-sit4-1.cdninstagram.com/t51.2885-15/e35/13744058_168224626928046_444573662_n.jpg,light,0.9854382276535034
,ball-shaped,0.9815241098403931
,exploration,0.9488822221755981
,sphere,0.9419181942939758
,mirror,0.9371025562286377
,ball,0.9328750371932983
,reflection,0.9244362115859985
,blur,0.9125751256942749
,light,0.9051130414009094
,abstract,0.9047910571098328
,bright,0.900527834892273
,glass,0.8927255868911743
,science,0.8904645442962646
,illuminated,0.8826457262039185
,round,0.8651382923126221
,energy,0.8650858402252197
,planet,0.8594813942909241
,space,0.8591916561126709
,dark,0.8493428230285645
,spherical,0.8469815850257874
https://scontent-sit4-1.cdninstagram.com/t51.2885-15/s640x640/sh0.08/e35/13298146_1118699344870536_615201715_n.jpg,people,0.9888567924499512
,street,0.9760072231292725
,city,0.9449710845947266
,adult,0.9266197681427002
,stock,0.9244095087051392
,man,0.9078309535980225
,modern,0.9032538533210754
,shopping,0.9018029570579529
,woman,0.8943954110145569
,fashion,0.878968358039856
,person,0.8755215406417847
,urban,0.8732153177261353
,art,0.8708460330963135
,mall,0.870502769947052
,business,0.8415733575820923
,vector,0.8343906402587891
,wear,0.828527569770813
,one,0.8218676447868347
,travel,0.8075737953186035
,design,0.7861529588699341
https://scontent-sit4-1.cdninstagram.com/t51.2885-15/e35/13745041_169795706767200_1987657252_n.jpg,watercraft,0.9979172945022583
,transportation system,0.9954897165298462
,water,0.9928014278411865
,ship,0.9924931526184082
,no person,0.9915640354156494
,vehicle,0.9829545021057129
,sea,0.9759087562561035
,industry,0.9739670753479004
,shipment,0.9738950729370117
,cargo ship,0.9674277305603027
,travel,0.9648927450180054
,oil tanker,0.9627344608306885
,container,0.9453771114349365
,harbor,0.9391329884529114
,boat,0.9269704818725586
,tugboat,0.9238787889480591
,daylight,0.9206600189208984
,outdoors,0.9106230735778809
,sky,0.9009283781051636
,ferry,0.8974837064743042
https://scontent-sit4-1.cdninstagram.com/t51.2885-15/sh0.08/e35/p640x640/13768244_123896524714255_1322101263_n.jpg,nature,0.9839146137237549
,leaf,0.9633148908615112
,water,0.9615453481674194
,waterfall,0.9282910823822021
,smoke,0.9256990551948547
,beautiful,0.9138955473899841
,travel,0.9119276404380798
,desktop,0.9072362780570984
,outdoors,0.8997460007667542
,no person,0.8833088278770447
,environment,0.8640914559364319
,tree,0.8631105422973633
,flora,0.8624445199966431
,wood,0.8526971340179443
,rock,0.8488644361495972
,cascade,0.8487139940261841
,flow,0.8299567699432373
,stone,0.8287222981452942
,river,0.8207817077636719
,landscape,0.8188482522964478
https://scontent-sit4-1.cdninstagram.com/t51.2885-15/e35/13422971_511236002402022_957825679_n.jpg,drink,0.9836220741271973
,glass,0.9737879633903503
,food,0.9731059670448303
,beer,0.9476779103279114
,hand,0.9062609672546387
,cold,0.9018787145614624
,people,0.8971273303031921
,no person,0.890224039554596
,desktop,0.879364013671875
,wood,0.8782297372817993
,table,0.8765027523040771
,alcohol,0.8741793632507324
,milk,0.8427444696426392
,cool,0.841828465461731
,summer,0.8323606252670288
,restaurant,0.827951192855835
,liquid,0.8277292251586914
,party,0.8258684277534485
,bar,0.821193516254425
,health,0.8035396337509155
https://scontent-sit4-1.cdninstagram.com/t51.2885-15/e35/13534441_1360034140677573_548503857_n.jpg,no person,0.9924928545951843
,paper,0.9828592538833618
,food,0.9723502397537231
,text,0.968800961971283
,horizontal,0.9275878071784973
,indoors,0.9203089475631714
,health,0.9033187627792358
,vertical,0.8957211971282959
,desktop,0.8778083920478821
,finance,0.8594708442687988
,business,0.8350168466567993
,number,0.8343098163604736
,grow,0.8138885498046875
,loss,0.8111628293991089
,travel,0.8046279549598694
,festival,0.7996423244476318
,conceptual,0.7993122339248657
,nutrition,0.7985395193099976
,traditional,0.7927249670028687
,symbol,0.7926491498947144
https://scontent-sit4-1.cdninstagram.com/t51.2885-15/e35/13298054_1739494139622439_1235368286_n.jpg,fruit,0.9970805644989014
,leaf,0.9957653284072876
,food,0.994710385799408
,nature,0.9940814971923828
,berry,0.9937771558761597
,healthy,0.9913904666900635
,grow,0.9873616695404053
,vegetable,0.9866538047790527
,garden,0.9838752746582031
,pasture,0.9806523323059082
,health,0.9716984033584595
,bunch,0.9714741110801697
,closeup,0.9657886028289795
,crop,0.9647518396377563
,shrub,0.9602484703063965
,juicy,0.9591594338417053
,tasty,0.9526979327201843
,branch,0.951475977897644
,agriculture,0.9485440254211426
,no person,0.9476845860481262
https://scontent-sit4-1.cdninstagram.com/t51.2885-15/e35/13703200_1754793448143082_208757177_n.jpg,food,0.9942520260810852
,no person,0.9558106660842896
,meal,0.9461342096328735
,grow,0.9458020925521851
,fruit,0.9450345039367676
,meat,0.9410286545753479
,dish,0.9325281381607056
,desktop,0.9250415563583374
,vegetable,0.924873948097229
,cooking,0.9244414567947388
,healthy,0.9225391149520874
,refreshment,0.9135137796401978
,cuisine,0.9081500768661499
,dinner,0.9058700203895569
,plate,0.89531010389328
,wood,0.8911333084106445
,delicious,0.888163685798645
,tasty,0.8799083232879639
,sweet,0.8768254518508911
,closeup,0.8728771805763245
https://scontent-sit4-1.cdninstagram.com/t51.2885-15/e35/13402684_904671676326688_31972100_n.jpg,city,0.9895772337913513
,evening,0.9888948202133179
,street,0.9819573163986206
,light,0.9813128709793091
,blur,0.98092120885849
,road,0.9768257737159729
,travel,0.9715752601623535
,building,0.9566276669502258
,traffic,0.9556986689567566
,urban,0.9555264711380005
,bridge,0.9520012140274048
,motion,0.9483675956726074
,reflection,0.9309563636779785
,action,0.9241459965705872
,rush,0.9139456152915955
,car,0.9110791683197021
,business,0.901847243309021
,transportation system,0.9005653858184814
,festival,0.8943889141082764
,illuminated,0.8847912549972534
https://scontent-sit4-1.cdninstagram.com/t51.2885-15/e35/13658516_503234933195399_883280419_n.jpg,water,0.9946126937866211
,island,0.9821220636367798
,travel,0.976610541343689
,landscape,0.9733102321624756
,tree,0.9717062711715698
,seashore,0.9667375087738037
,nature,0.9615223407745361
,beach,0.9610470533370972
,no person,0.9592558145523071
,summer,0.9582983255386353
,tropical,0.9509375095367432
,sea,0.9469472169876099
,idyllic,0.9299209117889404
,recreation,0.9259786605834961
,daylight,0.9239304661750793
,sky,0.9194918870925903
,bay,0.9167953729629517
,outdoors,0.9078484773635864
,lake,0.9047484397888184
,seascape,0.9038933515548706
https://scontent-sit4-1.cdninstagram.com/t51.2885-15/e35/13687031_1745811039023074_1874777220_n.jpg,tree,0.9867599606513977
,bench,0.9820147752761841
,grass,0.979509711265564
,garden,0.9774432182312012
,summer,0.9694017171859741
,wood,0.9662010669708252
,nature,0.9651435017585754
,landscape,0.9595986008644104
,park,0.959343671798706
,seat,0.9583135843276978
,lawn,0.9467203617095947
,no person,0.9304295778274536
,travel,0.9237241744995117
,outdoors,0.9213699102401733
,leaf,0.9186884164810181
,flora,0.9083389043807983
,environment,0.8954864144325256
,flower,0.8750940561294556
,chair,0.8708478808403015
,house,0.8682494163513184
https://scontent-sit4-1.cdninstagram.com/t51.2885-15/e35/13388668_1160010644031257_1035403687_n.jpg,no person,0.9898830652236938
,desktop,0.9501221179962158
,science,0.9285455942153931
,round,0.9026111364364624
,abstract,0.8892823457717896
,microscope,0.8697324991226196
,round,0.8542064428329468
,nature,0.85178542137146
,pattern,0.8387851119041443
,water,0.837903618812561
,food,0.8372578620910645
,texture,0.8285372853279114
,drink,0.8242379426956177
,one,0.8143260478973389
,shape,0.8017507791519165
,turquoise,0.8011288642883301
,design,0.7852278351783752
,space,0.783928632736206
,clean,0.7780400514602661
,closeup,0.76173996925354
https://scontent-sit4-1.cdninstagram.com/t51.2885-15/s750x750/sh0.08/e35/13394933_554139181424715_1257211930_n.jpg,grass,0.9970026612281799
,fungus,0.9912234544754028
,nature,0.9904658794403076
,summer,0.9899385571479797
,flora,0.9897633194923401
,desktop,0.9797655344009399
,mushroom,0.976546585559845
,ground,0.9736235737800598
,growth,0.9727255702018738
,season,0.971684455871582
,leaf,0.9687347412109375
,closeup,0.9665539860725403
,lawn,0.9621265530586243
,wood,0.9526249170303345
,environment,0.9524158239364624
,freshness,0.9458310604095459
,outdoors,0.9434102773666382
,food,0.9421939849853516
,no person,0.939628005027771
,garden,0.9318206310272217
https://scontent-sit4-1.cdninstagram.com/t51.2885-15/e35/13402481_903323663112478_310767443_n.jpg,food,0.9959334135055542
,no person,0.9784233570098877
,dinner,0.9732632637023926
,meal,0.9727802872657776
,plate,0.9727747440338135
,dish,0.9648776650428772
,sauce,0.9583629369735718
,delicious,0.9578450322151184
,seafood,0.9571952819824219
,restaurant,0.9567396640777588
,meat,0.9548944234848022
,lunch,0.953291654586792
,cuisine,0.9529484510421753
,vegetable,0.945597767829895
,chicken,0.9409705400466919
,fish,0.940326452255249
,epicure,0.9254776239395142
,traditional,0.921379566192627
,tasty,0.9148851633071899
,cooking,0.9128650426864624
https://scontent-sit4-1.cdninstagram.com/t51.2885-15/e35/13551795_1726357644283695_1537775876_n.jpg,food,0.9970335960388184
,egg,0.9902384281158447
,healthy,0.9858825206756592
,meal,0.9811025857925415
,cooking,0.973078727722168
,cuisine,0.9631141424179077
,dinner,0.960050106048584
,lunch,0.9578851461410522
,nutrition,0.9558736085891724
,dish,0.9556829929351807
,no person,0.9554280042648315
,delicious,0.9543426632881165
,traditional,0.9519911408424377
,vegetable,0.9500951766967773
,closeup,0.9474427700042725
,plate,0.9419113397598267
,health,0.9416122436523438
,diet,0.9352108240127563
,epicure,0.9330326914787292
,refreshment,0.9265881776809692
https://scontent-sit4-1.cdninstagram.com/t51.2885-15/s750x750/sh0.08/e35/13721095_273316589693138_1649062385_n.jpg,flower,0.9980484247207642
,garden,0.9966875314712524
,nature,0.9911378026008606
,flora,0.9910547733306885
,shrub,0.9902780055999756
,rhododendron,0.986879825592041
,blooming,0.9835644364356995
,summer,0.9829960465431213
,leaf,0.9817782640457153
,park,0.9677432775497437
,floral,0.9672878980636597
,season,0.9611461162567139
,petal,0.9491813778877258
,botanical,0.9413734674453735
,color,0.9392028450965881
,violet,0.939024806022644
,growth,0.9341955184936523
,tree,0.9303596019744873
,outdoors,0.9277597665786743
,bright,0.9271352291107178
https://scontent-sit4-1.cdninstagram.com/t51.2885-15/e35/13320272_1087887607932814_570587766_n.jpg,desktop,0.9709861874580383
,food,0.9697537422180176
,no person,0.9677965641021729
,sea,0.9664373993873596
,healthy,0.9442234039306641
,nature,0.9422856569290161
,closeup,0.9420717358589172
,invertebrate,0.9406867027282715
,meal,0.9384548664093018
,marine,0.9338010549545288
,shell,0.9295788407325745
,cereal,0.9242928624153137
,nutrition,0.9108723402023315
,fish,0.9087159633636475
,texture,0.8885587453842163
,health,0.8781030774116516
,sand,0.8736337423324585
,diet,0.8706454038619995
,seashell,0.8694360852241516
,shellfish,0.8637004494667053
https://scontent-sit4-1.cdninstagram.com/t51.2885-15/e35/13549607_1211204962225908_1799885643_n.jpg,food,0.9934757947921753
,no person,0.9764432311058044
,vegetable,0.9712998867034912
,pan,0.954846978187561
,egg,0.9538012146949768
,cooking,0.9510239958763123
,traditional,0.9494731426239014
,closeup,0.9488277435302734
,meal,0.9462877511978149
,frying pan,0.9440137147903442
,healthy,0.94365394115448
,hot,0.9371936321258545
,dish,0.9337937235832214
,cuisine,0.9291300773620605
,dinner,0.9258638024330139
,meat,0.8965348601341248
,bowl,0.8959881067276001
,lunch,0.8948623538017273
,plate,0.8913869857788086
,delicious,0.8882108926773071
https://scontent-sit4-1.cdninstagram.com/t51.2885-15/e35/13397680_611439249023510_1453242655_n.jpg,flower,0.9546996355056763
,bright,0.9498031139373779
,color,0.9425415992736816
,flame,0.9402837753295898
,no person,0.9381551742553711
,leaf,0.9376758337020874
,abstract,0.9303168654441833
,art,0.9227427840232849
,nature,0.9141549468040466
,celebration,0.9109433889389038
,design,0.9060721397399902
,light,0.9030270576477051
,decoration,0.8980060815811157
,sun,0.8735406398773193
,flora,0.8411216735839844
,garden,0.8369103670120239
,desktop,0.8179274797439575
,color,0.8143033981323242
,summer,0.8065483570098877
,blur,0.791169285774231
https://scontent-sit4-1.cdninstagram.com/t51.2885-15/e35/13556716_2052843784941329_2049424847_n.jpg,house,0.9973411560058594
,family,0.9925616979598999
,yard,0.982518196105957
,home,0.9819660186767578
,no person,0.9780600666999817
,luxury,0.9705305099487305
,wood,0.9695262908935547
,property,0.967370867729187
,bungalow,0.9628809094429016
,garden,0.9599337577819824
,summer,0.9587935209274292
,building,0.9585165977478027
,porch,0.9493005275726318
,architecture,0.9489264488220215
,lawn,0.9420863389968872
,real,0.9310272932052612
,estate,0.9146274328231812
,wooden,0.9083365797996521
,exterior,0.907850444316864
,patio,0.9044734835624695
https://scontent-sit4-1.cdninstagram.com/t51.2885-15/e35/13413404_254422221583808_1185415821_n.jpg,palm,0.9979852437973022
,tree,0.9944120645523071
,tropical,0.9912709593772888
,no person,0.9905577301979065
,resort,0.9831626415252686
,leisure,0.9755180478096008
,beach,0.973014771938324
,summer,0.9726424217224121
,recreation,0.9722737073898315
,island,0.9666190147399902
,exotic,0.9664261341094971
,coconut,0.9654445648193359
,vacation,0.9579778909683228
,travel,0.9549593925476074
,hotel,0.9537186622619629
,relaxation,0.9491169452667236
,seashore,0.9475509524345398
,ocean,0.938620924949646
,luxury,0.9270515441894531
,paradise,0.9247643947601318
https://scontent-sit4-1.cdninstagram.com/t51.2885-15/e35/13422882_1750152365196527_380607226_n.jpg,no person,0.9850649833679199
,food,0.9788681268692017
,delicious,0.9744209051132202
,dinner,0.9620392322540283
,traditional,0.9569416642189026
,lunch,0.9521373510360718
,nutrition,0.9423956274986267
,health,0.9298834800720215
,meal,0.8945585489273071
,homemade,0.8894264698028564
,vegetable,0.8784334659576416
,cooking,0.8756209015846252
,crisp,0.85413658618927
,refreshment,0.852180540561676
,hot,0.8496007919311523
,pepper,0.8420339822769165
,healthy,0.840021014213562
,epicure,0.8395479917526245
,tomato,0.8336083889007568
,closeup,0.8326814770698547
