url,class,score
https://scontent.cdninstagram.com/t51.2885-15/e35/13534179_1115746825130651_1136557291_n.jpg,child,0.999829888343811
,innocence,0.9852049350738525
,little,0.983476459980011
,portrait,0.976884126663208
,fun,0.9761764407157898
,cute,0.9664996266365051
,people,0.9587365388870239
,outdoors,0.935965895652771
,baby,0.9323625564575195
,summer,0.92189621925354
,one,0.9171887636184692
,enjoyment,0.8749291300773621
,preschool,0.8593349456787109
,eye,0.8491497039794922
,joy,0.8418936729431152
,toddler,0.8354400396347046
,facial expression,0.8023977279663086
,nature,0.7997374534606934
,precious,0.7939441800117493
,leisure,0.7852315306663513
https://scontent.cdninstagram.com/t51.2885-15/s750x750/sh0.08/e35/13473382_1589779194655088_592389850_n.jpg,illustration,0.94488525390625
,text,0.9387353658676147
,business,0.9142627120018005
,desktop,0.8871636390686035
,symbol,0.8797174692153931
,paper,0.8781689405441284
,bill,0.8685075044631958
,graphic,0.8437984585762024
,identity,0.8427226543426514
,design,0.8224691152572632
,card,0.8146704435348511
,education,0.8038033246994019
,template,0.7906910181045532
,vector,0.7779699563980103
,sign,0.7749265432357788
,sale,0.7661234736442566
,vector,0.7654412388801575
,celebration,0.7531314492225647
,vertical,0.7434607148170471
,stock,0.7414847612380981
https://scontent.cdninstagram.com/t51.2885-15/e35/13525525_299096947093944_2083272919_n.jpg,woman,0.9928141832351685
,man,0.984039306640625
,togetherness,0.980901837348938
,people,0.9507241249084473
,adolescent,0.9464818835258484
,love,0.9382928609848022
,indoors,0.9380772113800049
,fun,0.9314181804656982
,friendship,0.9297529458999634
,child,0.9170253276824951
,group,0.9149914979934692
,portrait,0.9062814116477966
,fashion,0.9046667814254761
,family,0.8964982032775879
,three,0.8828720450401306
,laughing,0.8757882118225098
,monochrome,0.8624544143676758
,four,0.8527736663818359
,joy,0.8382560014724731
,enjoyment,0.836266279220581
https://scontent.cdninstagram.com/t51.2885-15/e35/13259138_194918594240856_558680941_n.jpg,people,0.9870432615280151
,one,0.9798145294189453
,wear,0.9753514528274536
,chef,0.9749822020530701
,child,0.9710285663604736
,portrait,0.9691154956817627
,indoors,0.9600963592529297
,cooking,0.9432101249694824
,girl,0.9313738346099854
,lid,0.9208297729492188
,family,0.9197295904159546
,adult,0.9018741846084595
,woman,0.8874505758285522
,facial expression,0.8853251934051514
,uniform,0.8767919540405273
,healthcare,0.8346104621887207
,room,0.826945960521698
,cap,0.8078152537345886
,fun,0.8040550351142883
,retro,0.7963157892227173
https://scontent.cdninstagram.com/t51.2885-15/e35/13108528_1627459860913780_1407377244_n.jpg,no person,0.9906983971595764
,rodent,0.9734610319137573
,one,0.9688578844070435
,rat,0.9630290269851685
,mammal,0.9554022550582886
,indoors,0.9513231515884399
,cute,0.9497148990631104
,outdoors,0.9345237016677856
,fur,0.9291589260101318
,people,0.9096783995628357
,funny,0.9092384576797485
,animal,0.9015718698501587
,portrait,0.8990415930747986
,mouse,0.8929047584533691
,little,0.888356626033783
,nature,0.8857355713844299
,domestic,0.884351372718811
,architecture,0.8777500987052917
,fun,0.8503300547599792
,looking,0.8470596075057983
https://scontent.cdninstagram.com/t51.2885-15/e35/13381130_651264161689777_832080688_n.jpg,city,0.9902678728103638
,street,0.9744131565093994
,people,0.9620631337165833
,urban,0.9546753764152527
,pavement,0.9525604844093323
,business,0.9514093995094299
,architecture,0.9464862942695618
,building,0.9418679475784302
,outdoors,0.9085420966148376
,road,0.9056921005249023
,woman,0.8934110403060913
,modern,0.8854470252990723
,daylight,0.8820173740386963
,town,0.8769828081130981
,travel,0.8697831630706787
,adult,0.8293768167495728
,downtown,0.8233502507209778
,office,0.7996003031730652
,family,0.7983831167221069
,man,0.783960223197937
https://scontent.cdninstagram.com/t51.2885-15/e35/13534467_1579777428986217_196175684_n.jpg,picture frame,0.9796026945114136
,art,0.9732189178466797
,decoration,0.9718639254570007
,desktop,0.9397352337837219
,painting,0.9390808343887329
,no person,0.9349325895309448
,wall,0.9224520325660706
,antique,0.9178492426872253
,wood,0.9119709730148315
,illustration,0.9036328792572021
,old,0.9034949541091919
,vintage,0.8992363214492798
,family,0.8983553647994995
,design,0.8957518339157104
,retro,0.88856041431427
,window,0.8825826644897461
,style,0.8748709559440613
,furniture,0.8735141754150391
,ornate,0.8638244867324829
,house,0.8599555492401123
https://scontent.cdninstagram.com/t51.2885-15/e35/13167357_506011052936812_1905120266_n.jpg,people,0.9951697587966919
,adult,0.9869450926780701
,room,0.981979250907898
,woman,0.9803556203842163
,medicine,0.9762555360794067
,two,0.9742578864097595
,hospital,0.9710696935653687
,patient,0.9616109728813171
,wear,0.957771897315979
,portrait,0.9489263296127319
,man,0.9483336210250854
,girl,0.9442000389099121
,healthcare,0.9399597644805908
,mammal,0.9355698823928833
,facial expression,0.9308029413223267
,illness,0.9218885898590088
,ailment,0.9183182716369629
,medical practitioner,0.9178898334503174
,group,0.9172658920288086
,indoors,0.9150962829589844
https://scontent.cdninstagram.com/t51.2885-15/e35/10890768_444927045677544_445341889_n.jpg,sunglasses,0.9963189363479614
,eyeglasses,0.9760971665382385
,fashion,0.95276939868927
,man,0.9521884918212891
,portrait,0.9411884546279907
,people,0.9367087483406067
,outdoors,0.9147661924362183
,vertical,0.8995444774627686
,trendy,0.8888570070266724
,looking,0.8657842874526978
,contemporary,0.8557826280593872
,indoors,0.8513504266738892
,business,0.8497607707977295
,serious,0.8468250036239624
,adolescent,0.8365728855133057
,individuality,0.8362614512443542
,intelligence,0.8260624408721924
,eyewear,0.8248914480209351
,fine-looking,0.8193323612213135
,casual,0.8108381032943726
https://scontent.cdninstagram.com/t51.2885-15/e35/13437392_477226902472226_902443128_n.jpg,woman,0.9905391335487366
,people,0.9848979115486145
,family,0.9829623699188232
,indoors,0.9815021753311157
,child,0.9804878234863281
,two,0.9747109413146973
,fun,0.9550386667251587
,girl,0.9495967626571655
,portrait,0.9377638101577759
,togetherness,0.9355358481407166
,cute,0.9289659261703491
,adult,0.9165165424346924
,adolescent,0.9130743741989136
,wear,0.9128243923187256
,facial expression,0.9073762893676758
,sit,0.901515007019043
,room,0.8948677182197571
,happiness,0.8898921012878418
,leisure,0.8851562738418579
,love,0.8806856870651245
https://scontent.cdninstagram.com/t51.2885-15/e35/13261028_601002896735468_754120131_n.jpg,street,0.9962838292121887
,city,0.9889038801193237
,shopping,0.9873343706130981
,stock,0.9784865379333496
,road,0.9715644121170044
,commerce,0.9689610004425049
,people,0.9679718017578125
,market,0.9504181146621704
,urban,0.9375460147857666
,pavement,0.9321627020835876
,tourist,0.925714910030365
,group,0.9112237691879272
,tourism,0.8876076936721802
,crowd,0.8750497102737427
,travel,0.8659216165542603
,festival,0.8627227544784546
,police,0.8496125936508179
,town,0.8488880395889282
,rally,0.8397414088249207
,vehicle,0.8297672271728516
https://scontent.cdninstagram.com/t51.2885-15/e35/13391134_219895621737353_1521660111_n.jpg,girl,0.992108941078186
,people,0.9918725490570068
,family,0.9898183345794678
,child,0.9892153739929199
,woman,0.9856672286987305
,two,0.9838668704032898
,love,0.9837243556976318
,adult,0.982113242149353
,boy,0.9786069393157959
,room,0.9682713747024536
,indoors,0.9666160345077515
,happiness,0.9619470834732056
,portrait,0.9615797996520996
,baby,0.9569224715232849
,togetherness,0.9561929106712341
,man,0.9554768800735474
,fun,0.9425996541976929
,facial expression,0.9392039179801941
,lifestyle,0.9327258467674255
,offspring,0.9241641163825989
https://scontent.cdninstagram.com/t51.2885-15/e35/13108699_1011816238865521_88925764_n.jpg,one,0.9855402708053589
,mammal,0.9815095663070679
,portrait,0.9774079322814941
,pet,0.9709529280662537
,people,0.9692039489746094
,no person,0.9633259773254395
,cute,0.9602563381195068
,downy,0.9575614929199219
,domestic,0.9533294439315796
,rodent,0.9499084949493408
,mouse,0.9447973966598511
,animal,0.942451536655426
,cat,0.9416296482086182
,indoors,0.9297340512275696
,little,0.9144688248634338
,sit,0.9058958888053894
,adult,0.9037472009658813
,room,0.8832546472549438
,woman,0.8783828616142273
,young,0.8775362968444824
https://scontent.cdninstagram.com/t51.2885-15/e35/13392761_1098372920227783_499699117_n.jpg,people,0.9779210090637207
,street,0.9708741903305054
,urban,0.9645753502845764
,portrait,0.9577372670173645
,city,0.9562559127807617
,adult,0.9556564092636108
,woman,0.9498544931411743
,girl,0.9454317688941956
,road,0.9277732968330383
,lifestyle,0.8841912150382996
,man,0.8817745447158813
,outdoors,0.8747845888137817
,friendship,0.8610776662826538
,happiness,0.8587921857833862
,interaction,0.853879988193512
,two,0.8527910709381104
,offense,0.8495239019393921
,child,0.846960186958313
,fun,0.8235640525817871
,brunette,0.8158481121063232
https://scontent.cdninstagram.com/t51.2885-15/e35/13297991_1032151436902639_439923081_n.jpg,people,0.9950659275054932
,woman,0.9771072864532471
,adult,0.9757074117660522
,portrait,0.9740411043167114
,group,0.9452646970748901
,group,0.9368915557861328
,man,0.9245395660400391
,two,0.9192008972167969
,lid,0.9034221768379211
,one,0.8905200958251953
,wear,0.8883297443389893
,monochrome,0.8872829675674438
,three,0.8631727695465088
,vehicle,0.8581385612487793
,uniform,0.8496233224868774
,four,0.8433442115783691
,girl,0.8202811479568481
,child,0.8199106454849243
,several,0.8180052638053894
,street,0.8156293034553528
https://scontent.cdninstagram.com/t51.2885-15/e35/13320141_482947821899154_2143494968_n.jpg,portrait,0.9730737209320068
,sunglasses,0.9683736562728882
,people,0.9671968221664429
,woman,0.9641797542572021
,police,0.9632808566093445
,child,0.9424929022789001
,fashion,0.9299674034118652
,girl,0.9267157316207886
,chain,0.9257302284240723
,summer,0.9143885970115662
,outdoors,0.9095640182495117
,offense,0.8884034752845764
,one,0.8793724775314331
,recreation,0.8790638446807861
,freedom,0.8519753217697144
,adult,0.8165410757064819
,fun,0.8108820915222168
,wear,0.8079191446304321
,man,0.795395016670227
,young,0.7944072484970093
https://scontent.cdninstagram.com/t51.2885-15/e35/13355514_1798402863727553_1236617440_n.jpg,city,0.9851715564727783
,architecture,0.9687691926956177
,business,0.965078592300415
,street,0.960873007774353
,urban,0.9597266316413879
,building,0.9585382342338562
,people,0.9406169652938843
,modern,0.9249889254570007
,pavement,0.9233869910240173
,outdoors,0.9043693542480469
,travel,0.8987953662872314
,daylight,0.8949892520904541
,office,0.8871566653251648
,apartment,0.8655770421028137
,road,0.8515599966049194
,downtown,0.8452999591827393
,town,0.8225836157798767
,adult,0.8133271336555481
,tourism,0.7922560572624207
,exterior,0.7885280847549438
https://scontent.cdninstagram.com/t51.2885-15/e35/13423455_482329548637447_969951760_n.jpg,people,0.9906491041183472
,adult,0.9890583157539368
,group,0.9822039604187012
,man,0.9796194434165955
,woman,0.9723327159881592
,group,0.926591694355011
,room,0.9160192012786865
,table,0.9159451723098755
,education,0.9106172323226929
,child,0.9060142636299133
,wear,0.8847188949584961
,furniture,0.8786522150039673
,business,0.8599871397018433
,portrait,0.8583217859268188
,teamwork,0.8345930576324463
,indoors,0.818551778793335
,two,0.8170678019523621
,recreation,0.7970789670944214
,office,0.7927672863006592
,girl,0.7898932695388794
https://scontent.cdninstagram.com/t51.2885-15/e35/11410469_1737863133129238_1641631273_n.jpg,people,0.9819645881652832
,group,0.9802231788635254
,woman,0.9802025556564331
,man,0.971138596534729
,friendship,0.9640285968780518
,togetherness,0.9628821015357971
,family,0.9618520736694336
,outdoors,0.9508413076400757
,child,0.9438327550888062
,group,0.939765989780426
,fun,0.9366863965988159
,four,0.9325768351554871
,portrait,0.9227961301803589
,happiness,0.9205833673477173
,adult,0.9200522303581238
,enjoyment,0.9116472005844116
,laughing,0.9024068117141724
,girl,0.9012411832809448
,student,0.8957943916320801
,education,0.8861805200576782
https://scontent.cdninstagram.com/t51.2885-15/e35/13329252_882947208482305_1355340139_n.jpg,no person,0.9887847304344177
,food,0.9825419187545776
,delicious,0.9754339456558228
,dinner,0.974577009677887
,lunch,0.9627742171287537
,bread,0.9546120762825012
,nutrition,0.9317972660064697
,health,0.9014289379119873
,fish,0.8969992399215698
,meal,0.8914468884468079
,traditional,0.8847209215164185
,dining,0.8827712535858154
,cooking,0.8764661550521851
,plate,0.8754427433013916
,vegetable,0.8687136769294739
,chicken,0.8489852547645569
,seafood,0.8314965963363647
,hot,0.8213560581207275
,parsley,0.8208028078079224
,breakfast,0.8182235360145569
https://scontent.cdninstagram.com/t51.2885-15/e35/13126896_951559111623814_1564694142_n.jpg,religion,0.9957490563392639
,Buddha,0.9939011335372925
,sculpture,0.9932425022125244
,temple,0.9887858629226685
,ancient,0.9876785278320312
,gold,0.9857729077339172
,statue,0.9824075698852539
,travel,0.9762743711471558
,no person,0.965025782585144
,spirituality,0.9617539048194885
,reclining,0.9577300548553467
,museum,0.9520012140274048
,art,0.9512296319007874
,architecture,0.9476073980331421
,god,0.9452654123306274
,old,0.9370107650756836
,metalwork,0.9286820888519287
,copper,0.9230548143386841
,bronze,0.9192492961883545
,worship,0.915274977684021
https://scontent.cdninstagram.com/t51.2885-15/e35/13167210_1690231847892921_1712414229_n.jpg,stock,0.9857468605041504
,indoors,0.9829442501068115
,airport,0.9720274806022644
,shopping,0.9718828201293945
,people,0.956818699836731
,boutique,0.9537004232406616
,wear,0.9518928527832031
,luggage,0.9483674764633179
,man,0.9420201778411865
,business,0.9365924596786499
,commerce,0.9333271980285645
,shop,0.9250575304031372
,adult,0.9100614190101624
,woman,0.9023051261901855
,tube,0.8715808391571045
,offense,0.8684390187263489
,two,0.8647549748420715
,hallway,0.8631477355957031
,merchandise,0.8572391271591187
,service,0.8452109098434448
https://scontent.cdninstagram.com/t51.2885-15/e35/13329140_1193226134074987_1594651310_n.jpg,no person,0.9949101209640503
,food,0.983579158782959
,grow,0.9579941034317017
,dairy product,0.946723222732544
,still life,0.9381331205368042
,container,0.9180960059165955
,wood,0.8978948593139648
,soap,0.8905835747718811
,sugar,0.866693377494812
,kitchenware,0.8497826457023621
,fruit,0.849769115447998
,milk,0.8491665124893188
,indoors,0.8410111665725708
,sweet,0.8253090977668762
,health,0.8109382390975952
,coffee,0.8100076913833618
,delicious,0.8056252598762512
,candy,0.8030188083648682
,egg,0.7963714599609375
,cooking,0.7907470464706421
https://scontent.cdninstagram.com/t51.2885-15/e35/13166790_1698047763788254_746495142_n.jpg,woman,0.9640235900878906
,indoors,0.960795521736145
,people,0.9570953249931335
,stock,0.9557677507400513
,shopping,0.9388443231582642
,adult,0.9179149866104126
,portrait,0.9069705009460449
,pride,0.9053659439086914
,service,0.8925286531448364
,festival,0.8923028707504272
,man,0.8918098211288452
,shop,0.8878397345542908
,merchandise,0.8460828065872192
,industry,0.8384218215942383
,wear,0.8281593322753906
,vehicle,0.8267656564712524
,sell,0.8233392834663391
,facial expression,0.8098516464233398
,commerce,0.8092997670173645
,exhibition,0.7884566783905029
https://scontent.cdninstagram.com/t51.2885-15/e35/13380905_1276703159036367_1268813458_n.jpg,child,0.9908187985420227
,portrait,0.985978364944458
,people,0.9842088222503662
,indoors,0.9743114709854126
,one,0.9710251688957214
,facial expression,0.9621250033378601
,girl,0.9336694478988647
,wear,0.9078178405761719
,woman,0.9044589996337891
,cute,0.8952302932739258
,fun,0.8739876747131348
,boy,0.8722882866859436
,adult,0.8716862201690674
,eye,0.8702061176300049
,adolescent,0.8627753853797913
,family,0.8519918322563171
,looking,0.8365491628646851
,fashion,0.8319467306137085
,school,0.8262010812759399
,innocence,0.8203777074813843
https://scontent.cdninstagram.com/t51.2885-15/e35/13413317_115753568849040_2018621003_n.jpg,car,0.9989361763000488
,sunglasses,0.9974522590637207
,portrait,0.9923460483551025
,travel,0.9887493848800659
,driver,0.984177827835083
,fashion,0.9787994623184204
,people,0.9775998592376709
,vehicle,0.975243091583252
,transportation system,0.9743771553039551
,summer,0.973416805267334
,outdoors,0.9638813138008118
,one,0.960342526435852
,woman,0.9598731994628906
,travel,0.9591348171234131
,window,0.9488625526428223
,young,0.9432071447372437
,modality,0.9391337633132935
,sky,0.935741662979126
,steering wheel,0.9347759485244751
,drive,0.9346063137054443
https://scontent.cdninstagram.com/t51.2885-15/e35/13320191_1035255519863137_717247157_n.jpg,wear,0.9807039499282837
,indoors,0.9792366027832031
,fashion,0.9765342473983765
,adult,0.9698060750961304
,woman,0.9595972299575806
,people,0.9583693742752075
,lid,0.9385969042778015
,one,0.9285215139389038
,model,0.9170542359352112
,portrait,0.9119659662246704
,man,0.90805983543396
,fashionable,0.8967775106430054
,room,0.8875879645347595
,family,0.8802978992462158
,vertical,0.8696407079696655
,girl,0.8535966873168945
,looking,0.8435641527175903
,pants,0.8290404081344604
,sexy,0.8278542757034302
,young,0.8195861577987671
https://scontent.cdninstagram.com/t51.2885-15/e35/13285475_1576655982630914_1737737803_n.jpg,people,0.987261176109314
,woman,0.9712307453155518
,adult,0.9640629291534424
,indoors,0.9614967703819275
,man,0.9566997289657593
,portrait,0.9497906565666199
,wear,0.9228410720825195
,group,0.9224570989608765
,stock,0.9123378992080688
,two,0.9100444912910461
,restaurant,0.889464795589447
,commerce,0.8862546682357788
,facial expression,0.8804000616073608
,business,0.877873420715332
,room,0.8525614738464355
,vehicle,0.8507962226867676
,employee,0.8391445875167847
,three,0.8199242353439331
,girl,0.8074322938919067
,music,0.8008634448051453
https://scontent.cdninstagram.com/t51.2885-15/e35/13257079_625336840975232_662778981_n.jpg,woman,0.9903848171234131
,man,0.9901708960533142
,adult,0.9860506057739258
,people,0.9834475517272949
,restaurant,0.9765156507492065
,group,0.9731928706169128
,four,0.9717584252357483
,group,0.9697321653366089
,facial expression,0.9664627313613892
,drink,0.9595479965209961
,togetherness,0.954973578453064
,indoors,0.9493259191513062
,friendship,0.9455741047859192
,enjoyment,0.9442247748374939
,room,0.9402103424072266
,three,0.9358007907867432
,furniture,0.9350235462188721
,table,0.9341887831687927
,wine,0.9176493883132935
,sit,0.9173689484596252
https://scontent.cdninstagram.com/t51.2885-15/e35/1172655_855154614596230_596175910_n.jpg,people,0.9944335222244263
,festival,0.9705074429512024
,street,0.9495692253112793
,group,0.9494562149047852
,city,0.9475449323654175
,market,0.925030529499054
,religion,0.9235299229621887
,commerce,0.9154605865478516
,woman,0.9064439535140991
,many,0.9049535989761353
,adult,0.9029636383056641
,wear,0.8971871137619019
,tourist,0.8895528316497803
,daylight,0.8843405842781067
,crowd,0.8516591191291809
,man,0.8452110290527344
,vehicle,0.8450444936752319
,military,0.8419350385665894
,road,0.8351001739501953
,child,0.7944815158843994
https://scontent.cdninstagram.com/t51.2885-15/e35/13269548_1900107663549195_681374669_n.jpg,vehicle,0.9956943392753601
,transportation system,0.9918268322944641
,industry,0.977983832359314
,car,0.9760544300079346
,station,0.9665442109107971
,machine,0.9437963366508484
,military,0.9410075545310974
,train,0.9384952187538147
,no person,0.9249230027198792
,railway,0.9210773706436157
,grinder,0.9079102277755737
,emergency,0.8904385566711426
,bomb,0.8879614472389221
,police,0.8620564937591553
,battle,0.8587527275085449
,accident,0.8562818765640259
,savings,0.8481422662734985
,bus,0.8479388952255249
,exhibition,0.8479089140892029
,war,0.843181848526001
https://scontent.cdninstagram.com/t51.2885-15/e35/13187911_1016509458386845_1871392470_n.jpg,people,0.9912132024765015
,painting,0.9798932075500488
,adult,0.9763035774230957
,exhibition,0.973494291305542
,man,0.9614652395248413
,vehicle,0.9463204145431519
,wear,0.9421932697296143
,museum,0.9316264390945435
,one,0.9218617677688599
,group,0.913263201713562
,art,0.9087410569190979
,woman,0.9055213332176208
,commerce,0.8840172290802002
,room,0.8812154531478882
,print,0.8728379011154175
,indoors,0.8718850612640381
,recreation,0.8426226377487183
,two,0.8383243083953857
,child,0.8305492997169495
,furniture,0.8278906345367432
https://scontent.cdninstagram.com/t51.2885-15/e35/13183270_186678658392856_1406029753_n.jpg,people,0.9791428446769714
,indoors,0.9731274843215942
,woman,0.9635999202728271
,cooking,0.9574117660522461
,one,0.953199028968811
,wear,0.9516012072563171
,chef,0.9506932497024536
,adult,0.9394747018814087
,portrait,0.9334481954574585
,uniform,0.8831367492675781
,service,0.8771975636482239
,business,0.8590884804725647
,fashion,0.8554280400276184
,lid,0.8296796083450317
,apron,0.826471209526062
,preparation,0.8246801495552063
,young,0.8058283925056458
,family,0.8028700351715088
,man,0.7764689326286316
,stock,0.7718719244003296
https://scontent.cdninstagram.com/t51.2885-15/e35/13167208_623273591159402_889154479_n.jpg,indoors,0.9895308613777161
,no person,0.9787867069244385
,business,0.966411828994751
,exhibition,0.9523934721946716
,furniture,0.9253241419792175
,stock,0.9222009181976318
,industry,0.9139586687088013
,room,0.9108585119247437
,museum,0.8887567520141602
,technology,0.87764972448349
,wood,0.8708484172821045
,commerce,0.8677703142166138
,shopping,0.8676810264587402
,offense,0.8605146408081055
,chair,0.8392903804779053
,family,0.8301092386245728
,production,0.8268203139305115
,vehicle,0.814110279083252
,contemporary,0.8103865385055542
,interior design,0.8066557049751282
https://scontent.cdninstagram.com/t51.2885-15/e35/13118056_1713550002256184_1992213047_n.jpg,woman,0.9745874404907227
,man,0.9447425007820129
,people,0.9362508058547974
,portrait,0.9353480339050293
,group,0.929230272769928
,togetherness,0.9087330102920532
,indoors,0.9013951420783997
,friendship,0.8820692300796509
,adult,0.8726849555969238
,girl,0.8723866939544678
,child,0.8718078136444092
,happiness,0.8561700582504272
,family,0.8438044786453247
,education,0.8364737033843994
,room,0.8185914754867554
,group,0.8157076239585876
,facial expression,0.8116101026535034
,school,0.7970277070999146
,fun,0.7885245084762573
,laughing,0.7786487340927124
https://scontent.cdninstagram.com/t51.2885-15/e35/13249748_541765712692825_518916161_n.jpg,woman,0.9702517986297607
,man,0.9431533217430115
,competition,0.9340179562568665
,people,0.9123176336288452
,group,0.9028511047363281
,festival,0.8970643281936646
,exhibition,0.8840570449829102
,auto racing,0.8775634765625
,portrait,0.8641133308410645
,indoors,0.851921558380127
,wear,0.8441468477249146
,togetherness,0.8263199329376221
,fashion,0.8224132061004639
,championship,0.8222423791885376
,education,0.8104522228240967
,enjoyment,0.807239294052124
,music,0.7922070026397705
,healthcare,0.7759171724319458
,family,0.7751407623291016
,adult,0.7604802846908569
https://scontent.cdninstagram.com/t51.2885-15/s750x750/sh0.08/e35/13256802_501630990039694_1226486534_n.jpg,people,0.9879474639892578
,competition,0.9767518043518066
,football,0.965184211730957
,portrait,0.9607933759689331
,woman,0.9556939601898193
,soccer,0.9517158269882202
,music,0.9462132453918457
,wear,0.9446619749069214
,man,0.9426085352897644
,indoors,0.9226224422454834
,festival,0.9223570227622986
,adult,0.9191654324531555
,recreation,0.9122921228408813
,group,0.8997336626052856
,performance,0.8944101333618164
,championship,0.8916677236557007
,musician,0.8827053904533386
,battle,0.8826853036880493
,fun,0.8649032115936279
,singer,0.8596630096435547
https://scontent.cdninstagram.com/t51.2885-15/s750x750/sh0.08/e35/13385783_776142805855345_1726982584_n.jpg,illustration,0.9763770699501038
,business,0.9745413661003113
,vector,0.9359296560287476
,internet,0.9329895973205566
,vector,0.9317589998245239
,banner,0.9295287132263184
,square,0.919347882270813
,vertical,0.919162929058075
,paper,0.9175063371658325
,blank,0.9082906246185303
,technology,0.902779757976532
,symbol,0.897878110408783
,World Wide Web,0.8846585750579834
,label,0.8842383623123169
,communication,0.8832099437713623
,people,0.8811978101730347
,image,0.8718351125717163
,page,0.8624727725982666
,horizontal,0.8291345834732056
,bill,0.8270092010498047
https://scontent.cdninstagram.com/t51.2885-15/e35/13166954_116416978771643_1162146782_n.jpg,woman,0.9958392381668091
,man,0.9843450784683228
,indoors,0.9805547595024109
,people,0.9550694823265076
,healthcare,0.954077959060669
,teamwork,0.9272105693817139
,health,0.9221490621566772
,looking,0.9157750606536865
,student,0.9148527383804321
,togetherness,0.9008200764656067
,adolescent,0.860099196434021
,aid,0.8524811267852783
,science,0.830353319644928
,adult,0.8188402056694031
,skill,0.815352201461792
,business,0.7938074469566345
,support,0.7887370586395264
,young,0.7867215871810913
,hospital,0.7863277196884155
,portrait,0.7851062417030334
https://scontent.cdninstagram.com/t51.2885-15/e35/13328988_633814900099647_1936501378_n.jpg,people,0.9930145144462585
,adult,0.9879019260406494
,woman,0.9804884195327759
,man,0.9793083071708679
,group,0.9701368808746338
,table,0.9653979539871216
,two,0.955177903175354
,facial expression,0.9545609951019287
,family,0.9533900022506714
,child,0.9449566602706909
,indoors,0.9443240165710449
,room,0.9379215240478516
,portrait,0.9363909959793091
,meal,0.9334113597869873
,lifestyle,0.9321792125701904
,furniture,0.9314782023429871
,enjoyment,0.9250572323799133
,happiness,0.9237264394760132
,boy,0.9180106520652771
,girl,0.908673882484436
https://scontent.cdninstagram.com/t51.2885-15/e35/13398763_933609933417183_1611431882_n.jpg,laptop,0.9871271848678589
,computer,0.9860135316848755
,technology,0.9782232046127319
,screen,0.9750131368637085
,business,0.9559714794158936
,internet,0.9433636665344238
,no person,0.9390095472335815
,keyboard,0.9288104176521301
,display,0.9123766422271729
,people,0.9065183997154236
,one,0.9007974863052368
,education,0.8904100656509399
,monitor,0.8863286375999451
,wireless,0.871536135673523
,electronics,0.8532176613807678
,indoors,0.85174959897995
,commerce,0.8386874794960022
,data,0.8355501890182495
,connection,0.8207293748855591
,information,0.8108829259872437
https://scontent.cdninstagram.com/t51.2885-15/e35/13259531_773778126055510_543997934_n.jpg,people,0.9803205728530884
,woman,0.9723671078681946
,portrait,0.9586772918701172
,adult,0.9480128884315491
,fun,0.9453704357147217
,child,0.9436609745025635
,happiness,0.9172062277793884
,two,0.8969864845275879
,girl,0.8892966508865356
,wear,0.8827987313270569
,togetherness,0.8791687488555908
,man,0.8779842853546143
,friendship,0.8734564781188965
,cute,0.8428440093994141
,fashion,0.831947922706604
,laughing,0.8304243683815002
,love,0.8274192810058594
,facial expression,0.8177928924560547
,group,0.8132263422012329
,family,0.8024865388870239
https://scontent.cdninstagram.com/t51.2885-15/e35/13181411_621997211287857_2087717630_n.jpg,people,0.9895750284194946
,competition,0.9815648794174194
,road,0.9615684747695923
,marathon,0.9589763879776001
,rally,0.9554743766784668
,motion,0.9487117528915405
,group,0.9358563423156738
,adult,0.9349433183670044
,man,0.9297040700912476
,many,0.9286525249481201
,woman,0.9229788780212402
,athlete,0.9202616214752197
,festival,0.9162445068359375
,track and field,0.9136039018630981
,footrace,0.9065464735031128
,group,0.906417727470398
,runner,0.9055168628692627
,recreation,0.9043611288070679
,child,0.9003049731254578
,police,0.8960925340652466
https://scontent.cdninstagram.com/t51.2885-15/e35/13381342_480833485448815_1709315257_n.jpg,car,0.9994156360626221
,vehicle,0.9840080738067627
,transportation system,0.9807895421981812
,driver,0.9760509729385376
,indoors,0.971407413482666
,girl,0.9693131446838379
,woman,0.9672588109970093
,hand,0.9655113220214844
,people,0.959267795085907
,window,0.9528471231460571
,drive,0.9471843242645264
,inside,0.9385718107223511
,adult,0.9361121654510498
,person,0.9240084886550903
,business,0.9228247404098511
,light,0.9097095131874084
,travel,0.9050896167755127
,safety,0.90306556224823
,child,0.8964639902114868
,control,0.8860622644424438
https://scontent.cdninstagram.com/t51.2885-15/e35/13355671_861923040580561_127663905_n.jpg,office,0.9756590127944946
,business,0.973049521446228
,man,0.9727885723114014
,adult,0.9701103568077087
,woman,0.9559962153434753
,people,0.9555416107177734
,room,0.9492603540420532
,computer,0.9284294843673706
,technology,0.9267967939376831
,indoors,0.920539140701294
,one,0.9051084518432617
,family,0.8968923091888428
,leisure,0.8887060880661011
,work,0.8860567808151245
,desk,0.8810446262359619
,two,0.8588571548461914
,service,0.8524385690689087
,young,0.8324893712997437
,table,0.8263428211212158
,professional,0.8258103132247925
https://scontent.cdninstagram.com/l/t51.2885-15/e35/13392635_1718278838431998_1517596828_n.jpg,graffiti,0.9791842699050903
,illustration,0.9561414122581482
,people,0.9486695528030396
,art,0.9440896511077881
,sketch,0.9331415891647339
,fashion,0.9108809232711792
,scribble,0.8971322774887085
,woman,0.890387237071991
,style,0.8901779055595398
,street,0.8777539730072021
,adult,0.8757631778717041
,man,0.8676470518112183
,vector,0.8621618747711182
,young,0.8577872514724731
,design,0.8562098741531372
,graphic,0.84693443775177
,retro,0.836811900138855
,urban,0.8315016031265259
,creativity,0.8224183320999146
,wall,0.8175077438354492
https://scontent.cdninstagram.com/t51.2885-15/e35/13298167_1728498027434551_27895814_n.jpg,stock,0.9817183017730713
,people,0.962182879447937
,room,0.9551815986633301
,indoors,0.9489198923110962
,shop,0.9434114694595337
,furniture,0.9375501275062561
,commerce,0.9369314908981323
,market,0.9336740374565125
,industry,0.9305698275566101
,shopping,0.9301245212554932
,business,0.925452709197998
,exhibition,0.9077867269515991
,sale,0.8964087963104248
,table,0.8730695247650146
,inside,0.8719305992126465
,chair,0.8473995923995972
,luxury,0.844133198261261
,wear,0.8362138271331787
,family,0.8357511162757874
,design,0.8355305194854736
https://scontent.cdninstagram.com/t51.2885-15/e35/13395129_1570582446577803_691482168_n.jpg,food,0.9953367114067078
,tableware,0.9801367521286011
,no person,0.9782955646514893
,cup,0.9749878644943237
,table,0.9743603467941284
,coffee,0.9708160758018494
,plate,0.9669419527053833
,drink,0.9648421406745911
,grow,0.9554153680801392
,meal,0.9507442712783813
,breakfast,0.9505831003189087
,sweet,0.9475030899047852
,tea,0.9459882974624634
,cutlery,0.9431673884391785
,flatware,0.9287523031234741
,still life,0.9224338531494141
,milk,0.9200562238693237
,dish,0.9176809191703796
,wood,0.9150136709213257
,bowl,0.9149670600891113
https://scontent.cdninstagram.com/t51.2885-15/e35/13392785_246245295753930_137624044_n.jpg,woman,0.982836127281189
,people,0.9771696329116821
,portrait,0.9714282751083374
,adult,0.9566012620925903
,indoors,0.9459775686264038
,man,0.9371761083602905
,two,0.9328737258911133
,child,0.9130812883377075
,facial expression,0.9020146131515503
,girl,0.9016528129577637
,fun,0.8980381488800049
,togetherness,0.8957438468933105
,fashion,0.8857297897338867
,wear,0.8748435378074646
,group,0.857661247253418
,three,0.8435066342353821
,cute,0.8412865400314331
,festival,0.8279849886894226
,friendship,0.8258777260780334
,young,0.8194829225540161
https://scontent.cdninstagram.com/t51.2885-15/s320x320/e35/13381414_1093161247408215_503096950_n.jpg,people,0.9775912165641785
,woman,0.9755675792694092
,adult,0.970522940158844
,portrait,0.9615335464477539
,girl,0.9287539720535278
,man,0.9265782237052917
,wear,0.9085270166397095
,lifestyle,0.9052941799163818
,two,0.9045416116714478
,fashion,0.9042067527770996
,beautiful,0.9026199579238892
,family,0.8925445079803467
,person,0.8893710970878601
,young,0.8803673982620239
,happiness,0.8752548694610596
,love,0.8721822500228882
,couple,0.8535364866256714
,lid,0.840964674949646
,model,0.8270583152770996
,facial expression,0.8168838620185852
https://scontent.cdninstagram.com/t51.2885-15/e35/13534551_489949894527842_1898966746_n.jpg,woman,0.994479775428772
,people,0.9835449457168579
,togetherness,0.9800614714622498
,love,0.9701366424560547
,two,0.9669899940490723
,portrait,0.9634997844696045
,family,0.9630231857299805
,girl,0.9544143676757812
,child,0.9540467858314514
,man,0.9509543180465698
,fun,0.9458678364753723
,indoors,0.9324402809143066
,wear,0.9154372215270996
,facial expression,0.90494704246521
,enjoyment,0.8942735195159912
,fashion,0.8781086206436157
,friendship,0.8759700655937195
,adult,0.8550294637680054
,adolescent,0.8534671068191528
,affection,0.8454364538192749
