url,class,score
<<<<<<< HEAD
https://scontent.cdninstagram.com/t51.2885-15/e35/13391245_1043994049026981_2031966151_n.jpg,bar,0.997388721
,drink,0.996238112
,glass,0.995120645
,restaurant,0.993425131
,alcohol,0.984220862
,pub,0.982644796
,table,0.981404543
,cocktail,0.981256485
,food,0.972156823
,party,0.97091651
,celebration,0.958647728
,glass,0.955538392
,wine,0.937226534
,traditional,0.933335543
,desktop,0.928047419
,refreshment,0.909417331
,luxury,0.900219083
,tea,0.896485448
,nightlife,0.891176343
,color,0.882501483
https://scontent.cdninstagram.com/t51.2885-15/e35/13473155_1030968706996488_378372755_n.jpg,food,0.987005234
,desktop,0.976482153
,sweet,0.965811014
,cake,0.933310091
,no person,0.932782233
,delicious,0.932454705
,healthy,0.923217177
,closeup,0.922508359
,chocolate,0.91489327
,refreshment,0.908758521
,wood,0.893676281
,color,0.887073159
,sugar,0.881279588
,plate,0.879278958
,drink,0.878417253
,cookie,0.876941085
,coffee,0.876049519
,cream,0.875144064
,milk,0.871938705
,table,0.871430755
https://scontent.cdninstagram.com/t51.2885-15/e35/13395160_1010409005703615_628293938_n.jpg,food,0.994664073
,meal,0.984058738
,dinner,0.977226377
,lunch,0.975913644
,delicious,0.975356936
,vegetable,0.965151429
,plate,0.964922667
,dish,0.960787058
,meat,0.959170699
,epicure,0.948859692
,cuisine,0.942713499
,restaurant,0.941169441
,salad,0.937400401
,bread,0.933585107
,tasty,0.933140278
,sauce,0.930746377
,refreshment,0.929898858
,cooking,0.929605722
,dining,0.921671331
,chicken,0.917610765
https://scontent.cdninstagram.com/t51.2885-15/e35/13414189_486016478257632_475807603_n.jpg,coffee,0.997584045
,table,0.995484829
,restaurant,0.993508697
,people,0.992971241
,drink,0.984578073
,furniture,0.977908134
,chair,0.966942191
,food,0.965712249
,woman,0.964175999
,cup,0.964121044
,adult,0.949458003
,group,0.948064089
,indoors,0.946615279
,dining,0.942963183
,room,0.939787269
,tea,0.939075351
,lunch,0.936692595
,business,0.936231852
,meal,0.935946822
,man,0.934329271
https://scontent.cdninstagram.com/t51.2885-15/e35/13329058_121364381616969_257673135_n.jpg,flower,0.998758376
,floral,0.963921785
,flora,0.953392506
,beautiful,0.951024532
,bouquet,0.950836062
,rose,0.947268128
,people,0.946386695
,color,0.945052147
,garden,0.935662091
,nature,0.930761755
,blooming,0.917265713
,summer,0.908910453
,woman,0.902245641
,love,0.893951058
,gift,0.863880634
,petal,0.829948306
,vase,0.829258204
,decoration,0.828575015
,florist,0.821276665
,girl,0.817881584
https://scontent.cdninstagram.com/t51.2885-15/e35/13320072_1726709034267066_1475804338_n.jpg,room,0.986464083
,table,0.979120016
,furniture,0.973697543
,indoors,0.968195856
,window,0.956458867
,inside,0.954037368
,house,0.941520214
,contemporary,0.924905062
,family,0.9202528
,luxury,0.918420434
,interior design,0.917722821
,chair,0.916876197
,lamp,0.911780953
,apartment,0.901116371
,home,0.894072413
,no person,0.893777609
,modern,0.8932271
,wood,0.872422338
,seat,0.869836569
,architecture,0.84588325
https://scontent.cdninstagram.com/t51.2885-15/e35/13385707_606954309479970_1420181753_n.jpg,bread,0.997965753
,food,0.99746418
,lettuce,0.997148395
,lunch,0.996472836
,cheese,0.994547129
,sandwich,0.994537354
,meal,0.991712153
,meat,0.990978479
,dinner,0.990705967
,tomato,0.989223957
,refreshment,0.985230982
,bun,0.984395623
,burger,0.983609319
,french fries,0.980628848
,vegetable,0.977777362
,delicious,0.976846099
,no person,0.973012686
,fast,0.968316793
,salad,0.966986656
,plate,0.961415172
https://scontent.cdninstagram.com/t51.2885-15/e35/13355597_905454652898250_600163442_n.jpg,transportation system,0.996899784
,airport,0.995092809
,vehicle,0.992129982
,airplane,0.979784727
,travel,0.977089047
,business,0.973301113
,aircraft,0.971884966
,environment,0.966082454
,industry,0.965674579
,road,0.945739865
,no person,0.945092201
,city,0.944160342
,terminal,0.943447471
,arrival,0.942067266
,car,0.941231966
,pollution,0.940564156
,building,0.925855279
,calamity,0.922386169
,departure,0.919285178
,shipment,0.91682893
https://scontent.cdninstagram.com/t51.2885-15/e35/13402738_1796605337235229_14770184_n.jpg,paper,0.967225671
,business,0.966596365
,money,0.931005001
,no person,0.90285331
,commerce,0.894929886
,finance,0.88553679
,symbol,0.880188167
,money,0.872378111
,desktop,0.845989108
,design,0.790111244
,cash,0.785733342
,wealth,0.777330399
,people,0.772928238
,number,0.772432983
,euro,0.751790643
,sign,0.747850895
,text,0.744433284
,indoors,0.74284929
,old,0.742189646
,dollar,0.738033056
https://scontent.cdninstagram.com/t51.2885-15/e35/13285529_1746774662266753_170433231_n.jpg,food,0.996824741
,meal,0.977218509
,dinner,0.966213703
,no person,0.96507144
,dish,0.964628577
,lunch,0.959317088
,cooking,0.954317808
,plate,0.954057395
,healthy,0.953005672
,pasta,0.949552059
,delicious,0.94815135
,cuisine,0.94689703
,traditional,0.939322352
,restaurant,0.939255118
,epicure,0.92814064
,tasty,0.927276731
,vegetable,0.92085433
,table,0.91172576
,refreshment,0.904540718
,meat,0.901828885
https://scontent.cdninstagram.com/t51.2885-15/e35/13249713_833874750047766_1645229684_n.jpg,food,0.989637613
,collage,0.964340508
,plate,0.933542609
,set,0.933431745
,meal,0.925775886
,desktop,0.923148751
,tasty,0.901372552
,no person,0.900150895
,delicious,0.889101744
,restaurant,0.874291003
,meat,0.873037994
,template,0.868856013
,menu,0.866351902
,vector,0.862505436
,sweet,0.854233801
,hot,0.852883279
,dinner,0.852467358
,lunch,0.851949751
,vegetable,0.851845741
,dish,0.851516843
https://scontent.cdninstagram.com/t51.2885-15/e35/13285427_1757552504524333_300536444_n.jpg,food,0.993011475
,coffee,0.990592301
,no person,0.990043044
,breakfast,0.985102355
,drink,0.965720057
,cup,0.96378839
,plate,0.960145473
,hot,0.959283352
,delicious,0.956763983
,dawn,0.952563286
,bread,0.944584846
,meal,0.944543004
,tea,0.942002654
,table,0.939976037
,sweet,0.93677032
,traditional,0.933250308
,jam,0.92835319
,pastry,0.912729383
,fruit,0.909113765
,refreshment,0.903331637
https://scontent.cdninstagram.com/t51.2885-15/e35/13108934_1191276984237747_1543341917_n.jpg,music,0.990828931
,festival,0.988097727
,singer,0.986926198
,group,0.982742071
,people,0.978283048
,event,0.973584175
,group,0.972931385
,recreation,0.972152114
,musician,0.968748808
,party,0.966853738
,performance,0.966413736
,actress,0.965963364
,movie,0.960835814
,concert,0.955624938
,pop,0.951819181
,celebration,0.949398756
,fame,0.948521256
,band,0.942320943
,editorial,0.940559745
,many,0.929712176
https://scontent.cdninstagram.com/t51.2885-15/e35/13269425_247988165557190_632876706_n.jpg,no person,0.978891969
,food,0.916637063
,delicious,0.897413492
,sugar,0.888719916
,sweet,0.8825472
,candy,0.877948463
,chocolate,0.847552776
,kind,0.843364596
,traditional,0.842124224
,cake,0.827773094
,desktop,0.822556615
,box,0.817419648
,color,0.798061609
,cookie,0.766807437
,cream,0.753979325
,indoors,0.7498914
,family,0.735679626
,love,0.731590748
,fun,0.728927255
,homemade,0.728921056
https://scontent.cdninstagram.com/t51.2885-15/e35/13269362_285670161767160_1648737107_n.jpg,food,0.997141123
,meal,0.98735404
,meat,0.979770064
,lunch,0.97775948
,dinner,0.973653138
,delicious,0.97237426
,dish,0.969861388
,vegetable,0.96883446
,bread,0.968180895
,no person,0.967661202
,plate,0.962693572
,cuisine,0.942420781
,breakfast,0.939768016
,tasty,0.938292205
,chicken,0.928875744
,restaurant,0.925777316
,healthy,0.922898889
,cooking,0.918491244
,bacon,0.917576194
,epicure,0.915811896
https://scontent.cdninstagram.com/t51.2885-15/e35/13167435_856639427792336_905286306_n.jpg,food,0.996494532
,dinner,0.984568834
,no person,0.980751395
,meal,0.980111897
,table,0.978070378
,tableware,0.977231324
,vegetable,0.97497952
,dish,0.973410666
,lunch,0.972176075
,restaurant,0.969068646
,plate,0.9563905
,flatware,0.948372245
,cooking,0.947946668
,cutlery,0.941962838
,dining,0.935354948
,meat,0.934854984
,grow,0.932679892
,hot,0.93115449
,bowl,0.897963643
,cuisine,0.891999245
https://scontent.cdninstagram.com/t51.2885-15/e15/13116793_1689746401291275_1105333010_n.jpg,music,0.994989872
,performance,0.993591547
,stage,0.992129683
,concert,0.991143942
,festival,0.981396794
,audience,0.971746206
,people,0.966130257
,band,0.942053199
,party,0.938386679
,light,0.936282277
,musician,0.9277125
,city,0.927065969
,building,0.922606885
,crowd,0.909202337
,celebration,0.90564239
,club,0.900245905
,group,0.89315927
,landscape,0.88089627
,spotlight,0.879303992
,movie,0.869958997
https://scontent.cdninstagram.com/t51.2885-15/e15/13257165_666704103467455_29654198_n.jpg,performance,0.998215556
,music,0.997450054
,concert,0.993778944
,musician,0.986336589
,festival,0.977017641
,singer,0.97445488
,stage,0.963057935
,band,0.954842687
,people,0.947738886
,film festival,0.92513752
,audience,0.893434346
,rap,0.885908842
,recreation,0.879404068
,songwriter,0.836597562
,club,0.833997369
,guitarist,0.801912546
,energy,0.793602109
,light,0.790189505
,pop,0.766828001
,group,0.753060281
https://scontent.cdninstagram.com/t51.2885-15/e35/13150855_715422061934301_1556598659_n.jpg,no person,0.978296518
,candle,0.974626303
,wax,0.966528594
,flame,0.958599508
,dark,0.932003021
,burnt,0.923633337
,candlelight,0.914399922
,indoors,0.913053393
,wood,0.912607789
,traditional,0.89129138
,one,0.863791943
,skill,0.801690459
,retro,0.797017455
,melting,0.771153569
,handmade,0.763085723
,vertical,0.762531459
,old,0.760907412
,isolated,0.745751441
,equipment,0.739746094
,chocolate,0.738489628
https://scontent.cdninstagram.com/t51.2885-15/e35/13277576_176029959461462_1279106324_n.jpg,food,0.997022092
,meal,0.988783956
,breakfast,0.977443576
,sweet,0.976992249
,pastry,0.97517103
,delicious,0.969651461
,tasty,0.967747569
,cake,0.967720509
,refreshment,0.967514277
,restaurant,0.959282815
,cooking,0.958209932
,bread,0.951950073
,hot,0.946721792
,dough,0.94658196
,bakery,0.945319295
,baking,0.940921605
,unhealthy,0.939977288
,lunch,0.93775773
,healthy,0.930894315
,croissant,0.929536939
https://scontent.cdninstagram.com/l/t51.2885-15/e35/13166882_1559445057685642_28539166_n.jpg,food,0.997325242
,no person,0.995757937
,french fries,0.992414117
,meat,0.987532377
,dinner,0.986094296
,lunch,0.983587146
,bread,0.983076215
,meal,0.981746674
,plate,0.967216015
,delicious,0.95506984
,beef,0.952900052
,ketchup,0.947792709
,unhealthy,0.939315438
,restaurant,0.933135271
,sausage,0.927458644
,breakfast,0.917473495
,potato,0.91378206
,pork,0.907706976
,cheese,0.90671587
,bacon,0.90649581
https://scontent.cdninstagram.com/t51.2885-15/e35/13129584_169449696786279_96660160_n.jpg,no person,0.996803284
,cream,0.99074471
,sweet,0.985924125
,dairy product,0.985766649
,food,0.979112625
,vanilla,0.978898048
,delicious,0.968485296
,creamy,0.968105733
,fruit,0.963059783
,chocolate,0.956987977
,sugar,0.947211385
,cake,0.94033128
,homemade,0.938405395
,caramel,0.930487216
,indulgence,0.91836673
,scoop,0.91385746
,bowl,0.908377945
,grow,0.889924407
,baking,0.888087749
,refreshment,0.869400442
https://scontent.cdninstagram.com/t51.2885-15/e35/13126732_1567400896893047_2143905399_n.jpg,food,0.997270167
,meal,0.987139106
,dinner,0.978469849
,plate,0.974282503
,collage,0.969495535
,dish,0.96609062
,vegetable,0.963583112
,fish,0.963214874
,seafood,0.959862709
,rice,0.959514618
,restaurant,0.958967924
,traditional,0.958512962
,lunch,0.956618905
,delicious,0.951937973
,epicure,0.951906919
,cuisine,0.947802305
,sushi,0.946341276
,no person,0.937300205
,healthy,0.932800174
,appetizer,0.92027545
https://scontent.cdninstagram.com/t51.2885-15/e35/13167472_172428779824506_917543442_n.jpg,food,0.997336984
,meal,0.993174672
,dinner,0.992040515
,cuisine,0.989755392
,lunch,0.987196207
,dish,0.985919714
,epicure,0.985779166
,sauce,0.984339356
,delicious,0.983752072
,restaurant,0.979904234
,plate,0.978440285
,tasty,0.977977633
,meat,0.977751017
,hot,0.965910435
,healthy,0.962712348
,seafood,0.962688327
,vegetable,0.958285809
,cooking,0.956626952
,tomato,0.953990877
,nutrition,0.944700539
https://scontent.cdninstagram.com/t51.2885-15/e35/13129693_449542448574396_1638578834_n.jpg,food,0.993051767
,no person,0.970047832
,traditional,0.969349265
,kind,0.95467329
,bowl,0.952431202
,desktop,0.942185879
,soup,0.938536823
,hot,0.931918979
,dish,0.920465231
,cooking,0.919749022
,tray,0.91313678
,meal,0.90920186
,restaurant,0.906315148
,color,0.906302214
,dinner,0.904702067
,epicure,0.903739095
,vegetable,0.89784193
,cuisine,0.897316992
,table,0.892085493
,plate,0.88416636
https://scontent.cdninstagram.com/t51.2885-15/e35/13113973_825584550908743_1521039722_n.jpg,food,0.998190761
,meal,0.986038089
,tasty,0.974617779
,burger,0.973160923
,restaurant,0.972139359
,refreshment,0.972105742
,delicious,0.971901298
,meat,0.969538331
,bread,0.969220102
,dinner,0.967220545
,plate,0.962125063
,lunch,0.954710305
,cuisine,0.952064991
,table,0.951286316
,sandwich,0.95039475
,diet,0.946346521
,bun,0.944395661
,epicure,0.942961633
,cheese,0.942160845
,nutrition,0.940648615
https://scontent.cdninstagram.com/t51.2885-15/e35/13167302_1704966983091317_250578092_n.jpg,food,0.995491028
,no person,0.990668893
,sweet,0.985502124
,fruit,0.984507322
,cake,0.96686542
,delicious,0.963497758
,plate,0.960066497
,grow,0.949483037
,berry,0.946323276
,cream,0.937188268
,pastry,0.931776464
,strawberry,0.922573268
,homemade,0.92030102
,cooking,0.917756736
,dairy product,0.915973067
,breakfast,0.915710032
,sugar,0.91391784
,meal,0.912899613
,refreshment,0.910656929
,baking,0.906305492
https://scontent.cdninstagram.com/t51.2885-15/e35/13126749_1705736226361664_43442985_n.jpg,food,0.994863093
,dinner,0.98790884
,lunch,0.987183928
,delicious,0.985657394
,no person,0.977216303
,meat,0.97320962
,meal,0.966684401
,fish,0.960399508
,cooking,0.94964391
,ham,0.948193192
,nutrition,0.943900228
,epicure,0.942400813
,pork,0.938519061
,vegetable,0.936962247
,dish,0.931722879
,seafood,0.926618695
,healthy,0.92353344
,cuisine,0.91773665
,slice,0.914764643
,dining,0.904878914
https://scontent.cdninstagram.com/t51.2885-15/e35/12976439_519677861550013_780455363_n.jpg,beer,0.999946594
,glass,0.999479294
,alcohol,0.999440432
,brewery,0.999414325
,drink,0.999266922
,cold,0.998407364
,bar,0.998094678
,ice,0.997186184
,party,0.996305943
,foam,0.996077955
,pub,0.99505955
,lager,0.994885564
,liquor,0.993477702
,ale,0.993319869
,cool,0.992473483
,refreshment,0.987061977
,pint,0.986549497
,counter,0.97874856
,frosty,0.964894891
,no person,0.957157254
https://scontent.cdninstagram.com/t51.2885-15/e35/13129180_1031784460229664_868686765_n.jpg,cream,0.980644107
,sweet,0.978790879
,delicious,0.978179932
,no person,0.977842867
,food,0.971609473
,cake,0.966569304
,chocolate,0.965512276
,sugar,0.965366125
,fruit,0.928207755
,candy,0.913059235
,plate,0.912229419
,refreshment,0.911513209
,pastry,0.910065651
,strawberry,0.909416199
,homemade,0.89925909
,table,0.898011208
,indulgence,0.893152356
,milk,0.887473583
,cup,0.884092987
,creamy,0.881241441
https://scontent.cdninstagram.com/t51.2885-15/e35/12912477_1069876046402380_379900910_n.jpg,food,0.995354116
,restaurant,0.982432246
,meal,0.96426034
,dinner,0.963516414
,no person,0.953283072
,meat,0.95028162
,delicious,0.947448432
,dish,0.94690454
,epicure,0.945916235
,plate,0.943202496
,cuisine,0.938669026
,tasty,0.938428879
,lunch,0.931986451
,cooking,0.90957737
,table,0.906431019
,hot,0.900388598
,traditional,0.900225461
,vegetable,0.898203552
,dining,0.892424107
,sauce,0.879491687
https://scontent.cdninstagram.com/t51.2885-15/e35/13118108_1724364281179856_2137396880_n.jpg,food,0.994732022
,no person,0.982686222
,meat,0.975962996
,lunch,0.96459657
,meal,0.962879181
,bread,0.959453225
,dinner,0.95640552
,delicious,0.951396286
,plate,0.924706817
,refreshment,0.924578428
,chicken,0.913853765
,sandwich,0.904069483
,fast,0.902706623
,restaurant,0.897990286
,barbecue,0.89108479
,tomato,0.887266874
,beef,0.886384308
,unhealthy,0.879904509
,hot,0.873983085
,dish,0.872924566
https://scontent.cdninstagram.com/l/t51.2885-15/e35/12677211_976734692375867_698645091_n.jpg,drink,0.995936632
,glass,0.989162207
,bar,0.985790253
,sweet,0.985211968
,food,0.984737635
,juice,0.972695708
,restaurant,0.950948179
,ice,0.950336874
,fruit,0.949894309
,party,0.949108601
,refreshment,0.944730282
,table,0.944706559
,sugar,0.934221983
,breakfast,0.932429433
,milk,0.929549932
,cup,0.929540396
,cold,0.923988998
,cocktail,0.922995806
,desktop,0.905228853
,alcohol,0.898445725
https://scontent.cdninstagram.com/t51.2885-15/e35/13130067_1084776671595150_29788489_n.jpg,food,0.993663192
,meal,0.97302711
,hot,0.972610056
,breakfast,0.968985796
,plate,0.967811823
,egg,0.965796709
,healthy,0.965498686
,delicious,0.962588966
,cuisine,0.959384084
,dish,0.957490325
,cooking,0.950213075
,no person,0.945319653
,lunch,0.944539607
,traditional,0.942124844
,tasty,0.940972924
,dinner,0.930681109
,epicure,0.927328467
,diet,0.926310778
,restaurant,0.916582108
,refreshment,0.914465487
https://scontent.cdninstagram.com/t51.2885-15/e35/12930875_216500075390188_892627508_n.jpg,beer,0.993601561
,drink,0.969945669
,brewery,0.953994155
,city,0.937062979
,bar,0.925744057
,no person,0.914199233
,tourism,0.912081838
,glass,0.908389449
,travel,0.906663656
,business,0.898793936
,bottle,0.888311207
,lager,0.844344854
,commerce,0.835719466
,many,0.831313014
,reflection,0.8299945
,people,0.82897222
,landscape,0.815797567
,water,0.812615156
,vehicle,0.805526137
,alcohol,0.805360556
https://scontent.cdninstagram.com/t51.2885-15/e35/13108849_568834156620991_156085762_n.jpg,indoors,0.997030199
,room,0.986907601
,inside,0.985119998
,furniture,0.975027323
,window,0.965512514
,table,0.957659125
,wood,0.946246624
,empty,0.932283044
,floor,0.923587561
,chair,0.907268882
,no person,0.898328662
,family,0.897785306
,house,0.894454837
,architecture,0.888451219
,business,0.87848556
,ceiling,0.878418803
,light,0.872584224
,seat,0.870385468
,university,0.868884563
,luxury,0.859880984
https://scontent.cdninstagram.com/t51.2885-15/e15/12940753_788618161237870_2006159551_n.jpg,people,0.992043734
,music,0.991943836
,festival,0.990606427
,movie,0.989658475
,performance,0.972819448
,ceremony,0.972291589
,musician,0.970028281
,recreation,0.967931747
,actor,0.955370009
,singer,0.9547472
,portrait,0.947534323
,concert,0.946005344
,election,0.942256927
,adult,0.941117406
,theater,0.931641102
,actress,0.926115274
,administration,0.91544652
,celebration,0.905539751
,group,0.898567736
,award,0.880206048
https://scontent.cdninstagram.com/t51.2885-15/e35/12930851_147105702355174_989460299_n.jpg,food,0.997531414
,restaurant,0.985484481
,meal,0.984763622
,lunch,0.977121472
,dinner,0.975335002
,meat,0.973007619
,cuisine,0.96299684
,delicious,0.953822613
,dish,0.950354099
,vegetable,0.946572125
,plate,0.945798755
,cooking,0.943193436
,cheese,0.940520287
,tasty,0.935459256
,refreshment,0.935161471
,tomato,0.93321085
,bread,0.932337463
,chicken,0.922113538
,no person,0.918071508
,epicure,0.91729039
https://scontent.cdninstagram.com/t51.2885-15/e35/12940708_935195513260318_2038351331_n.jpg,food,0.995762825
,meal,0.977454782
,no person,0.970563531
,table,0.966904163
,plate,0.958828092
,delicious,0.953478813
,breakfast,0.953212559
,dinner,0.948460996
,cooking,0.947455525
,dish,0.944579065
,lunch,0.939205229
,bread,0.935577571
,knife,0.930518389
,restaurant,0.929042697
,epicure,0.919160128
,homemade,0.917372286
,cuisine,0.914909959
,refreshment,0.912489533
,fruit,0.911632538
,vegetable,0.909898758
https://scontent.cdninstagram.com/t51.2885-15/e35/12976276_155942694803531_48458872_n.jpg,food,0.993193984
,breakfast,0.986252427
,no person,0.982989669
,delicious,0.97016561
,coffee,0.965129495
,hot,0.96423471
,plate,0.960342824
,lunch,0.952024043
,dawn,0.949663997
,bread,0.940913916
,traditional,0.940284967
,meal,0.938195109
,dinner,0.926593244
,refreshment,0.917672217
,restaurant,0.901907682
,pastry,0.88484174
,drink,0.884766579
,table,0.878287077
,still life,0.875615478
,dish,0.873963356
https://scontent.cdninstagram.com/t51.2885-15/e35/12519425_1057352927660180_1061673849_n.jpg,food,0.999167204
,meat,0.997400761
,bread,0.996392846
,burger,0.99408257
,beef,0.993182659
,meal,0.991997957
,lunch,0.989867747
,dinner,0.988162756
,sandwich,0.986397088
,lettuce,0.982592165
,bun,0.979114532
,cheese,0.978745461
,tomato,0.97840941
,delicious,0.977930188
,plate,0.972433209
,refreshment,0.972042859
,tasty,0.971676946
,epicure,0.961990416
,vegetable,0.959526658
,cuisine,0.955962181
https://scontent.cdninstagram.com/t51.2885-15/e35/12930805_1004951922916891_988020211_n.jpg,food,0.995299101
,meat,0.994700551
,dinner,0.993530631
,meal,0.988752127
,poultry,0.982039571
,no person,0.981105924
,lunch,0.979069114
,plate,0.978089333
,dish,0.973145485
,chicken,0.969168544
,sauce,0.967487454
,restaurant,0.962447405
,potato,0.962235987
,grow,0.954264522
,beef,0.946405172
,vegetable,0.944577336
,delicious,0.94450599
,cooking,0.935020447
,pork,0.93326807
,barbecue,0.931161165
https://scontent.cdninstagram.com/t51.2885-15/e35/12446065_837089023087454_542521503_n.jpg,food,0.995489419
,delicious,0.985828638
,no person,0.97282052
,refreshment,0.957844853
,plate,0.957795262
,meal,0.955917716
,lunch,0.954643369
,cuisine,0.945910692
,bread,0.94414103
,breakfast,0.942970812
,dinner,0.941426635
,traditional,0.940726995
,vegetable,0.938952684
,tasty,0.936856627
,nutrition,0.931203604
,dish,0.929136455
,epicure,0.918303788
,cooking,0.91662693
,appetizer,0.911890984
,hot,0.909451008
https://scontent.cdninstagram.com/t51.2885-15/e35/11336347_1254001891281288_1625228906_n.jpg,food,0.998341978
,meal,0.992362082
,restaurant,0.988479137
,dinner,0.977790415
,plate,0.975028157
,dish,0.968292832
,lunch,0.964832067
,seafood,0.964021206
,table,0.96309936
,vegetable,0.961779773
,buffet,0.958978415
,cuisine,0.956987441
,cooking,0.953640223
,no person,0.95324707
,dining,0.949433446
,fish,0.933973193
,meat,0.932867527
,epicure,0.932433724
,traditional,0.924616635
,delicious,0.919300199
https://scontent.cdninstagram.com/t51.2885-15/e35/12071201_619927411488682_1385844478_n.jpg,food,0.997671485
,dish,0.991788805
,meal,0.990621924
,dinner,0.988582432
,lunch,0.987920403
,cuisine,0.987509489
,plate,0.987038255
,cooking,0.976317704
,meat,0.974436343
,delicious,0.974261105
,traditional,0.973749876
,appetizer,0.967841506
,hot,0.967157483
,vegetable,0.966565013
,restaurant,0.965952456
,tasty,0.965797663
,epicure,0.96311307
,refreshment,0.961088777
,bread,0.956342697
,soup,0.955623865
https://scontent.cdninstagram.com/t51.2885-15/e35/12918065_1712599058998670_1883690619_n.jpg,no person,0.999178529
,creamy,0.991115272
,delicious,0.990836918
,chocolate,0.988577902
,cream,0.988495588
,homemade,0.980839014
,indulgence,0.97582376
,baking,0.961349726
,scoop,0.944531262
,caramel,0.928649902
,mousse,0.927601457
,dairy product,0.923504233
,vanilla,0.917612374
,sugar,0.905483723
,coffee,0.904828191
,sweet,0.904425025
,unhealthy,0.89180243
,temptation,0.875883996
,food,0.867984474
,custard,0.862773418
https://scontent.cdninstagram.com/t51.2885-15/e35/12912639_1373080599384910_1513351548_n.jpg,no person,0.992828488
,food,0.99072814
,lunch,0.968926311
,dinner,0.967781603
,bowl,0.956266224
,delicious,0.953786612
,pasta,0.953507423
,parsley,0.939612985
,vegetable,0.93261838
,tomato,0.932155371
,dish,0.928239584
,cooking,0.92194736
,nutrition,0.907966554
,fish,0.900718749
,meal,0.897546351
,still life,0.890219331
,pepper,0.889168143
,garlic,0.870463371
,plate,0.859975219
,sauce,0.849569321
https://scontent.cdninstagram.com/t51.2885-15/e35/12905050_581260655357215_1495502656_n.jpg,no person,0.997145772
,chocolate,0.995964646
,food,0.993417978
,delicious,0.992218971
,sugar,0.979107976
,indulgence,0.975204468
,sweet,0.968546748
,candy,0.950228453
,baking,0.947488785
,cream,0.938078403
,fruit,0.922666669
,cake,0.91001761
,homemade,0.909159064
,cooking,0.90067029
,grow,0.89221859
,nutrition,0.892186046
,traditional,0.890095532
,plate,0.889032364
,dairy product,0.88035953
,caramel,0.872383058
https://scontent.cdninstagram.com/t51.2885-15/e35/12070780_567525850087547_582398275_n.jpg,rice,0.991113782
,no person,0.990879536
,food,0.9870857
,grow,0.942332268
,traditional,0.937044859
,bowl,0.936817646
,homemade,0.928699791
,wood,0.921487689
,dinner,0.921408355
,lunch,0.908786774
,still life,0.908419788
,delicious,0.906616688
,health,0.903139472
,cooking,0.901941538
,milk,0.894284487
,hot,0.877702355
,dish,0.873874903
,vegetable,0.85858047
,breakfast,0.851598203
,chicken,0.847560763
https://scontent.cdninstagram.com/t51.2885-15/e15/10832070_1856467784579820_1756849086_n.jpg,music,0.999504328
,concert,0.999028802
,performance,0.998089314
,festival,0.996616602
,stage,0.994131207
,club,0.993894815
,musician,0.988847017
,party,0.988276422
,band,0.986467004
,singer,0.986108184
,audience,0.983463883
,nightlife,0.982909679
,club,0.981151164
,pop,0.979791641
,dancing,0.97529614
,disco,0.97420001
,rave,0.96839416
,light,0.961236119
,celebration,0.954238117
,sound,0.946434557
https://scontent.cdninstagram.com/t51.2885-15/e35/12907143_601512280015621_660833728_n.jpg,salad,0.997195482
,lettuce,0.996016502
,food,0.993920088
,vegetable,0.989910722
,lunch,0.989145279
,dinner,0.98775506
,meal,0.98495996
,cheese,0.983953595
,appetizer,0.983828127
,plate,0.976109684
,dish,0.971215844
,oil,0.962341368
,delicious,0.961358249
,bowl,0.959880173
,grow,0.956741691
,cos,0.953923345
,onion,0.951797843
,no person,0.950366795
,healthy,0.94500649
,tomato,0.944102049
https://scontent.cdninstagram.com/t51.2885-15/e15/10643836_1796943107185139_972181157_n.jpg,concert,0.998952985
,music,0.998777986
,performance,0.99783355
,festival,0.997782469
,stage,0.995569229
,musician,0.989727974
,singer,0.98561269
,band,0.983013749
,club,0.979120851
,people,0.976673603
,audience,0.973125696
,spotlight,0.969371021
,venue,0.963873625
,rap,0.958758712
,party,0.957744956
,light,0.956591785
,rave,0.951981127
,pop,0.948849142
,dancing,0.936841369
,crowd,0.930427194
https://scontent.cdninstagram.com/t51.2885-15/e35/12825808_1272719776078069_1608969288_n.jpg,soup,0.998729289
,no person,0.992848337
,bowl,0.986744165
,broth,0.986629605
,dinner,0.984780312
,creamy,0.981626451
,food,0.976075411
,lunch,0.974503994
,grow,0.972000718
,carrot,0.97102648
,homemade,0.964723825
,parsley,0.963156104
,cream,0.956861019
,bread,0.955048382
,vegetable,0.948608041
,spoon,0.947985828
,appetizer,0.943886518
,hot,0.936641395
,delicious,0.926245391
,dish,0.920033216
https://scontent.cdninstagram.com/t51.2885-15/e35/12071205_974268979327062_1698776156_n.jpg,concert,0.998652816
,music,0.997826815
,club,0.989676416
,performance,0.989649892
,stage,0.988573074
,festival,0.987688124
,rave,0.98256284
,club,0.973562479
,energy,0.973405421
,light,0.957718968
,band,0.95453155
,singer,0.953153968
,party,0.942471623
,musician,0.937429845
,dancing,0.933442473
,disco,0.93028307
,laser,0.899032474
,spotlight,0.896183729
,explosion,0.89564687
,pop,0.891034722
=======
https://scontent.cdninstagram.com/t51.2885-15/e35/13391245_1043994049026981_2031966151_n.jpg,bar,0.9973887205123901
,drink,0.996238112449646
,glass,0.995120644569397
,restaurant,0.9934251308441162
,alcohol,0.9842208623886108
,pub,0.98264479637146
,table,0.9814045429229736
,cocktail,0.9812564849853516
,food,0.972156822681427
,party,0.9709165096282959
,celebration,0.9586477279663086
,glass,0.9555383920669556
,wine,0.9372265338897705
,traditional,0.933335542678833
,desktop,0.9280474185943604
,refreshment,0.9094173312187195
,luxury,0.9002190828323364
,tea,0.896485447883606
,nightlife,0.8911763429641724
,color,0.882501482963562
https://scontent.cdninstagram.com/t51.2885-15/e35/13473155_1030968706996488_378372755_n.jpg,food,0.9870052337646484
,desktop,0.9764821529388428
,sweet,0.965811014175415
,cake,0.9333100914955139
,no person,0.9327822327613831
,delicious,0.9324547052383423
,healthy,0.9232171773910522
,closeup,0.9225083589553833
,chocolate,0.9148932695388794
,refreshment,0.9087585210800171
,wood,0.8936762809753418
,color,0.8870731592178345
,sugar,0.8812795877456665
,plate,0.8792789578437805
,drink,0.8784172534942627
,cookie,0.8769410848617554
,coffee,0.8760495185852051
,cream,0.8751440644264221
,milk,0.8719387054443359
,table,0.8714307546615601
https://scontent.cdninstagram.com/t51.2885-15/e35/13395160_1010409005703615_628293938_n.jpg,food,0.9946640729904175
,meal,0.9840587377548218
,dinner,0.9772263765335083
,lunch,0.9759136438369751
,delicious,0.975356936454773
,vegetable,0.9651514291763306
,plate,0.9649226665496826
,dish,0.9607870578765869
,meat,0.9591706991195679
,epicure,0.948859691619873
,cuisine,0.9427134990692139
,restaurant,0.9411694407463074
,salad,0.9374004006385803
,bread,0.9335851073265076
,tasty,0.9331402778625488
,sauce,0.9307463765144348
,refreshment,0.9298988580703735
,cooking,0.9296057224273682
,dining,0.9216713309288025
,chicken,0.917610764503479
https://scontent.cdninstagram.com/t51.2885-15/e35/13414189_486016478257632_475807603_n.jpg,coffee,0.9975840449333191
,table,0.9954848289489746
,restaurant,0.9935086965560913
,people,0.9929712414741516
,drink,0.9845780730247498
,furniture,0.9779081344604492
,chair,0.9669421911239624
,food,0.9657122492790222
,woman,0.9641759991645813
,cup,0.9641210436820984
,adult,0.9494580030441284
,group,0.9480640888214111
,indoors,0.9466152787208557
,dining,0.942963182926178
,room,0.9397872686386108
,tea,0.9390753507614136
,lunch,0.9366925954818726
,business,0.9362318515777588
,meal,0.9359468221664429
,man,0.9343292713165283
https://scontent.cdninstagram.com/t51.2885-15/e35/13414189_486016478257632_475807603_n.jpg,coffee,0.9975840449333191
,table,0.9954848289489746
,restaurant,0.9935086965560913
,people,0.9929712414741516
,drink,0.9845780730247498
,furniture,0.9779081344604492
,chair,0.9669421911239624
,food,0.9657122492790222
,woman,0.9641759991645813
,cup,0.9641210436820984
,adult,0.9494580030441284
,group,0.9480640888214111
,indoors,0.9466152787208557
,dining,0.942963182926178
,room,0.9397872686386108
,tea,0.9390753507614136
,lunch,0.9366925954818726
,business,0.9362318515777588
,meal,0.9359468221664429
,man,0.9343292713165283
https://scontent.cdninstagram.com/t51.2885-15/e35/13391245_1043994049026981_2031966151_n.jpg,bar,0.9973887205123901
,drink,0.996238112449646
,glass,0.995120644569397
,restaurant,0.9934251308441162
,alcohol,0.9842208623886108
,pub,0.98264479637146
,table,0.9814045429229736
,cocktail,0.9812564849853516
,food,0.972156822681427
,party,0.9709165096282959
,celebration,0.9586477279663086
,glass,0.9555383920669556
,wine,0.9372265338897705
,traditional,0.933335542678833
,desktop,0.9280474185943604
,refreshment,0.9094173312187195
,luxury,0.9002190828323364
,tea,0.896485447883606
,nightlife,0.8911763429641724
,color,0.882501482963562
https://scontent.cdninstagram.com/t51.2885-15/e35/13473155_1030968706996488_378372755_n.jpg,food,0.9870052337646484
,desktop,0.9764821529388428
,sweet,0.965811014175415
,cake,0.9333100914955139
,no person,0.9327822327613831
,delicious,0.9324547052383423
,healthy,0.9232171773910522
,closeup,0.9225083589553833
,chocolate,0.9148932695388794
,refreshment,0.9087585210800171
,wood,0.8936762809753418
,color,0.8870731592178345
,sugar,0.8812795877456665
,plate,0.8792789578437805
,drink,0.8784172534942627
,cookie,0.8769410848617554
,coffee,0.8760495185852051
,cream,0.8751440644264221
,milk,0.8719387054443359
,table,0.8714307546615601
https://scontent.cdninstagram.com/t51.2885-15/e35/13329058_121364381616969_257673135_n.jpg,flower,0.9987583756446838
,floral,0.9639217853546143
,flora,0.953392505645752
,beautiful,0.9510245323181152
,bouquet,0.9508360624313354
,rose,0.9472681283950806
,people,0.9463866949081421
,color,0.9450521469116211
,garden,0.9356620907783508
,nature,0.9307617545127869
,blooming,0.9172657132148743
,summer,0.9089104533195496
,woman,0.9022456407546997
,love,0.8939510583877563
,gift,0.8638806343078613
,petal,0.8299483060836792
,vase,0.8292582035064697
,decoration,0.8285750150680542
,florist,0.8212766647338867
,girl,0.8178815841674805
https://scontent.cdninstagram.com/t51.2885-15/e35/13320072_1726709034267066_1475804338_n.jpg,room,0.9864640831947327
,table,0.9791200160980225
,furniture,0.9736975431442261
,indoors,0.9681958556175232
,window,0.9564588665962219
,inside,0.9540373682975769
,house,0.9415202140808105
,contemporary,0.9249050617218018
,family,0.920252799987793
,luxury,0.9184204339981079
,interior design,0.9177228212356567
,chair,0.9168761968612671
,lamp,0.9117809534072876
,apartment,0.9011163711547852
,home,0.894072413444519
,no person,0.89377760887146
,modern,0.8932271003723145
,wood,0.8724223375320435
,seat,0.8698365688323975
,architecture,0.8458832502365112
https://scontent.cdninstagram.com/t51.2885-15/e35/13385707_606954309479970_1420181753_n.jpg,bread,0.9979657530784607
,food,0.9974641799926758
,lettuce,0.9971483945846558
,lunch,0.9964728355407715
,cheese,0.9945471286773682
,sandwich,0.994537353515625
,meal,0.9917121529579163
,meat,0.990978479385376
,dinner,0.9907059669494629
,tomato,0.9892239570617676
,refreshment,0.9852309823036194
,bun,0.9843956232070923
,burger,0.9836093187332153
,french fries,0.9806288480758667
,vegetable,0.977777361869812
,delicious,0.9768460988998413
,no person,0.9730126857757568
,fast,0.9683167934417725
,salad,0.9669866561889648
,plate,0.96141517162323
https://scontent.cdninstagram.com/t51.2885-15/e35/13355597_905454652898250_600163442_n.jpg,transportation system,0.9968997836112976
,airport,0.9950928092002869
,vehicle,0.9921299815177917
,airplane,0.9797847270965576
,travel,0.9770890474319458
,business,0.973301112651825
,aircraft,0.9718849658966064
,environment,0.9660824537277222
,industry,0.9656745791435242
,road,0.9457398653030396
,no person,0.9450922012329102
,city,0.9441603422164917
,terminal,0.943447470664978
,arrival,0.9420672655105591
,car,0.9412319660186768
,pollution,0.9405641555786133
,building,0.925855278968811
,calamity,0.9223861694335938
,departure,0.9192851781845093
,shipment,0.9168289303779602
https://scontent.cdninstagram.com/t51.2885-15/e35/13385707_606954309479970_1420181753_n.jpg,bread,0.9979657530784607
,food,0.9974641799926758
,lettuce,0.9971483945846558
,lunch,0.9964728355407715
,cheese,0.9945471286773682
,sandwich,0.994537353515625
,meal,0.9917121529579163
,meat,0.990978479385376
,dinner,0.9907059669494629
,tomato,0.9892239570617676
,refreshment,0.9852309823036194
,bun,0.9843956232070923
,burger,0.9836093187332153
,french fries,0.9806288480758667
,vegetable,0.977777361869812
,delicious,0.9768460988998413
,no person,0.9730126857757568
,fast,0.9683167934417725
,salad,0.9669866561889648
,plate,0.96141517162323
https://scontent.cdninstagram.com/t51.2885-15/e35/13395160_1010409005703615_628293938_n.jpg,food,0.9946640729904175
,meal,0.9840587377548218
,dinner,0.9772263765335083
,lunch,0.9759136438369751
,delicious,0.975356936454773
,vegetable,0.9651514291763306
,plate,0.9649226665496826
,dish,0.9607870578765869
,meat,0.9591706991195679
,epicure,0.948859691619873
,cuisine,0.9427134990692139
,restaurant,0.9411694407463074
,salad,0.9374004006385803
,bread,0.9335851073265076
,tasty,0.9331402778625488
,sauce,0.9307463765144348
,refreshment,0.9298988580703735
,cooking,0.9296057224273682
,dining,0.9216713309288025
,chicken,0.917610764503479
https://scontent.cdninstagram.com/t51.2885-15/e35/13402738_1796605337235229_14770184_n.jpg,paper,0.9672256708145142
,business,0.9665963649749756
,money,0.9310050010681152
,no person,0.9028533101081848
,commerce,0.8949298858642578
,finance,0.885536789894104
,symbol,0.8801881670951843
,money,0.8723781108856201
,desktop,0.8459891080856323
,design,0.790111243724823
,cash,0.7857333421707153
,wealth,0.7773303985595703
,people,0.7729282379150391
,number,0.7724329829216003
,euro,0.7517906427383423
,sign,0.7478508949279785
,text,0.7444332838058472
,indoors,0.7428492903709412
,old,0.7421896457672119
,dollar,0.7380330562591553
https://scontent.cdninstagram.com/t51.2885-15/e35/13285529_1746774662266753_170433231_n.jpg,food,0.9968247413635254
,meal,0.977218508720398
,dinner,0.9662137031555176
,no person,0.965071439743042
,dish,0.9646285772323608
,lunch,0.9593170881271362
,cooking,0.9543178081512451
,plate,0.9540573954582214
,healthy,0.9530056715011597
,pasta,0.949552059173584
,delicious,0.9481513500213623
,cuisine,0.946897029876709
,traditional,0.9393223524093628
,restaurant,0.9392551183700562
,epicure,0.9281406402587891
,tasty,0.9272767305374146
,vegetable,0.9208543300628662
,table,0.9117257595062256
,refreshment,0.9045407176017761
,meat,0.9018288850784302
https://scontent.cdninstagram.com/t51.2885-15/e35/13329058_121364381616969_257673135_n.jpg,flower,0.9987583756446838
,floral,0.9639217853546143
,flora,0.953392505645752
,beautiful,0.9510245323181152
,bouquet,0.9508360624313354
,rose,0.9472681283950806
,people,0.9463866949081421
,color,0.9450521469116211
,garden,0.9356620907783508
,nature,0.9307617545127869
,blooming,0.9172657132148743
,summer,0.9089104533195496
,woman,0.9022456407546997
,love,0.8939510583877563
,gift,0.8638806343078613
,petal,0.8299483060836792
,vase,0.8292582035064697
,decoration,0.8285750150680542
,florist,0.8212766647338867
,girl,0.8178815841674805
https://scontent.cdninstagram.com/t51.2885-15/e35/13249713_833874750047766_1645229684_n.jpg,food,0.9896376132965088
,collage,0.9643405079841614
,plate,0.9335426092147827
,set,0.9334317445755005
,meal,0.9257758855819702
,desktop,0.9231487512588501
,tasty,0.9013725519180298
,no person,0.9001508951187134
,delicious,0.8891017436981201
,restaurant,0.8742910027503967
,meat,0.8730379939079285
,template,0.8688560128211975
,menu,0.8663519024848938
,vector,0.8625054359436035
,sweet,0.8542338013648987
,hot,0.8528832793235779
,dinner,0.8524673581123352
,lunch,0.8519497513771057
,vegetable,0.8518457412719727
,dish,0.851516842842102
https://scontent.cdninstagram.com/t51.2885-15/e35/13285529_1746774662266753_170433231_n.jpg,food,0.9968247413635254
,meal,0.977218508720398
,dinner,0.9662137031555176
,no person,0.965071439743042
,dish,0.9646285772323608
,lunch,0.9593170881271362
,cooking,0.9543178081512451
,plate,0.9540573954582214
,healthy,0.9530056715011597
,pasta,0.949552059173584
,delicious,0.9481513500213623
,cuisine,0.946897029876709
,traditional,0.9393223524093628
,restaurant,0.9392551183700562
,epicure,0.9281406402587891
,tasty,0.9272767305374146
,vegetable,0.9208543300628662
,table,0.9117257595062256
,refreshment,0.9045407176017761
,meat,0.9018288850784302
https://scontent.cdninstagram.com/t51.2885-15/e35/13285427_1757552504524333_300536444_n.jpg,food,0.993011474609375
,coffee,0.9905923008918762
,no person,0.990043044090271
,breakfast,0.9851023554801941
,drink,0.9657200574874878
,cup,0.9637883901596069
,plate,0.9601454734802246
,hot,0.9592833518981934
,delicious,0.9567639827728271
,dawn,0.9525632858276367
,bread,0.944584846496582
,meal,0.9445430040359497
,tea,0.9420026540756226
,table,0.9399760365486145
,sweet,0.9367703199386597
,traditional,0.9332503080368042
,jam,0.9283531904220581
,pastry,0.9127293825149536
,fruit,0.9091137647628784
,refreshment,0.9033316373825073
https://scontent.cdninstagram.com/t51.2885-15/e35/13108934_1191276984237747_1543341917_n.jpg,music,0.9908289313316345
,festival,0.9880977272987366
,singer,0.9869261980056763
,group,0.9827420711517334
,people,0.9782830476760864
,event,0.9735841751098633
,group,0.9729313850402832
,recreation,0.9721521139144897
,musician,0.9687488079071045
,party,0.9668537378311157
,performance,0.9664137363433838
,actress,0.9659633636474609
,movie,0.9608358144760132
,concert,0.9556249380111694
,pop,0.9518191814422607
,celebration,0.9493987560272217
,fame,0.9485212564468384
,band,0.9423209428787231
,editorial,0.9405597448348999
,many,0.929712176322937
https://scontent.cdninstagram.com/t51.2885-15/e35/13269425_247988165557190_632876706_n.jpg,no person,0.9788919687271118
,food,0.9166370630264282
,delicious,0.8974134922027588
,sugar,0.888719916343689
,sweet,0.8825471997261047
,candy,0.8779484629631042
,chocolate,0.8475527763366699
,kind,0.8433645963668823
,traditional,0.8421242237091064
,cake,0.8277730941772461
,desktop,0.8225566148757935
,box,0.8174196481704712
,color,0.7980616092681885
,cookie,0.7668074369430542
,cream,0.7539793252944946
,indoors,0.7498914003372192
,family,0.7356796264648438
,love,0.731590747833252
,fun,0.7289272546768188
,homemade,0.7289210557937622
https://scontent.cdninstagram.com/t51.2885-15/e35/13269425_247988165557190_632876706_n.jpg,no person,0.9788919687271118
,food,0.9166370630264282
,delicious,0.8974134922027588
,sugar,0.888719916343689
,sweet,0.8825471997261047
,candy,0.8779484629631042
,chocolate,0.8475527763366699
,kind,0.8433645963668823
,traditional,0.8421242237091064
,cake,0.8277730941772461
,desktop,0.8225566148757935
,box,0.8174196481704712
,color,0.7980616092681885
,cookie,0.7668074369430542
,cream,0.7539793252944946
,indoors,0.7498914003372192
,family,0.7356796264648438
,love,0.731590747833252
,fun,0.7289272546768188
,homemade,0.7289210557937622
https://scontent.cdninstagram.com/t51.2885-15/e35/13108934_1191276984237747_1543341917_n.jpg,music,0.9908289313316345
,festival,0.9880977272987366
,singer,0.9869261980056763
,group,0.9827420711517334
,people,0.9782830476760864
,event,0.9735841751098633
,group,0.9729313850402832
,recreation,0.9721521139144897
,musician,0.9687488079071045
,party,0.9668537378311157
,performance,0.9664137363433838
,actress,0.9659633636474609
,movie,0.9608358144760132
,concert,0.9556249380111694
,pop,0.9518191814422607
,celebration,0.9493987560272217
,fame,0.9485212564468384
,band,0.9423209428787231
,editorial,0.9405597448348999
,many,0.929712176322937
https://scontent.cdninstagram.com/t51.2885-15/e35/13269362_285670161767160_1648737107_n.jpg,food,0.9971411228179932
,meal,0.987354040145874
,meat,0.9797700643539429
,lunch,0.9777594804763794
,dinner,0.9736531376838684
,delicious,0.9723742604255676
,dish,0.9698613882064819
,vegetable,0.9688344597816467
,bread,0.9681808948516846
,no person,0.9676612019538879
,plate,0.9626935720443726
,cuisine,0.9424207806587219
,breakfast,0.9397680163383484
,tasty,0.9382922053337097
,chicken,0.928875744342804
,restaurant,0.9257773160934448
,healthy,0.9228988885879517
,cooking,0.9184912443161011
,bacon,0.9175761938095093
,epicure,0.9158118963241577
https://scontent.cdninstagram.com/t51.2885-15/e35/13167435_856639427792336_905286306_n.jpg,food,0.9964945316314697
,dinner,0.9845688343048096
,no person,0.9807513952255249
,meal,0.9801118969917297
,table,0.9780703783035278
,tableware,0.9772313237190247
,vegetable,0.9749795198440552
,dish,0.9734106659889221
,lunch,0.9721760749816895
,restaurant,0.9690686464309692
,plate,0.9563905000686646
,flatware,0.9483722448348999
,cooking,0.9479466676712036
,cutlery,0.9419628381729126
,dining,0.9353549480438232
,meat,0.9348549842834473
,grow,0.9326798915863037
,hot,0.9311544895172119
,bowl,0.8979636430740356
,cuisine,0.8919992446899414
https://scontent.cdninstagram.com/t51.2885-15/e15/13116793_1689746401291275_1105333010_n.jpg,music,0.9949898719787598
,performance,0.9935915470123291
,stage,0.9921296834945679
,concert,0.9911439418792725
,festival,0.9813967943191528
,audience,0.9717462062835693
,people,0.966130256652832
,band,0.9420531988143921
,party,0.9383866786956787
,light,0.9362822771072388
,musician,0.9277125000953674
,city,0.9270659685134888
,building,0.922606885433197
,crowd,0.9092023372650146
,celebration,0.9056423902511597
,club,0.9002459049224854
,group,0.8931592702865601
,landscape,0.880896270275116
,spotlight,0.8793039917945862
,movie,0.8699589967727661
https://scontent.cdninstagram.com/t51.2885-15/e15/13116793_1689746401291275_1105333010_n.jpg,music,0.9949898719787598
,performance,0.9935915470123291
,stage,0.9921296834945679
,concert,0.9911439418792725
,festival,0.9813967943191528
,audience,0.9717462062835693
,people,0.966130256652832
,band,0.9420531988143921
,party,0.9383866786956787
,light,0.9362822771072388
,musician,0.9277125000953674
,city,0.9270659685134888
,building,0.922606885433197
,crowd,0.9092023372650146
,celebration,0.9056423902511597
,club,0.9002459049224854
,group,0.8931592702865601
,landscape,0.880896270275116
,spotlight,0.8793039917945862
,movie,0.8699589967727661
https://scontent.cdninstagram.com/t51.2885-15/e15/13257165_666704103467455_29654198_n.jpg,performance,0.9982155561447144
,music,0.997450053691864
,concert,0.9937789440155029
,musician,0.9863365888595581
,festival,0.9770176410675049
,singer,0.9744548797607422
,stage,0.9630579352378845
,band,0.9548426866531372
,people,0.9477388858795166
,film festival,0.9251375198364258
,audience,0.8934343457221985
,rap,0.885908842086792
,recreation,0.8794040679931641
,songwriter,0.8365975618362427
,club,0.833997368812561
,guitarist,0.8019125461578369
,energy,0.7936021089553833
,light,0.7901895046234131
,pop,0.7668280005455017
,group,0.7530602812767029
https://scontent.cdninstagram.com/t51.2885-15/e35/13269362_285670161767160_1648737107_n.jpg,food,0.9971411228179932
,meal,0.987354040145874
,meat,0.9797700643539429
,lunch,0.9777594804763794
,dinner,0.9736531376838684
,delicious,0.9723742604255676
,dish,0.9698613882064819
,vegetable,0.9688344597816467
,bread,0.9681808948516846
,no person,0.9676612019538879
,plate,0.9626935720443726
,cuisine,0.9424207806587219
,breakfast,0.9397680163383484
,tasty,0.9382922053337097
,chicken,0.928875744342804
,restaurant,0.9257773160934448
,healthy,0.9228988885879517
,cooking,0.9184912443161011
,bacon,0.9175761938095093
,epicure,0.9158118963241577
https://scontent.cdninstagram.com/t51.2885-15/e35/13150855_715422061934301_1556598659_n.jpg,no person,0.9782965183258057
,candle,0.9746263027191162
,wax,0.966528594493866
,flame,0.9585995078086853
,dark,0.9320030212402344
,burnt,0.923633337020874
,candlelight,0.9143999218940735
,indoors,0.9130533933639526
,wood,0.9126077890396118
,traditional,0.8912913799285889
,one,0.8637919425964355
,skill,0.8016904592514038
,retro,0.7970174551010132
,melting,0.7711535692214966
,handmade,0.7630857229232788
,vertical,0.7625314593315125
,old,0.7609074115753174
,isolated,0.7457514405250549
,equipment,0.73974609375
,chocolate,0.7384896278381348
https://scontent.cdninstagram.com/t51.2885-15/e15/13257165_666704103467455_29654198_n.jpg,performance,0.9982155561447144
,music,0.997450053691864
,concert,0.9937789440155029
,musician,0.9863365888595581
,festival,0.9770176410675049
,singer,0.9744548797607422
,stage,0.9630579352378845
,band,0.9548426866531372
,people,0.9477388858795166
,film festival,0.9251375198364258
,audience,0.8934343457221985
,rap,0.885908842086792
,recreation,0.8794040679931641
,songwriter,0.8365975618362427
,club,0.833997368812561
,guitarist,0.8019125461578369
,energy,0.7936021089553833
,light,0.7901895046234131
,pop,0.7668280005455017
,group,0.7530602812767029
https://scontent.cdninstagram.com/t51.2885-15/e35/13277576_176029959461462_1279106324_n.jpg,food,0.9970220923423767
,meal,0.9887839555740356
,breakfast,0.9774435758590698
,sweet,0.9769922494888306
,pastry,0.9751710295677185
,delicious,0.969651460647583
,tasty,0.9677475690841675
,cake,0.9677205085754395
,refreshment,0.9675142765045166
,restaurant,0.9592828154563904
,cooking,0.9582099318504333
,bread,0.9519500732421875
,hot,0.9467217922210693
,dough,0.9465819597244263
,bakery,0.9453192949295044
,baking,0.9409216046333313
,unhealthy,0.9399772882461548
,lunch,0.9377577304840088
,healthy,0.9308943152427673
,croissant,0.9295369386672974
https://scontent.cdninstagram.com/t51.2885-15/e35/13249713_833874750047766_1645229684_n.jpg,food,0.9896376132965088
,collage,0.9643405079841614
,plate,0.9335426092147827
,set,0.9334317445755005
,meal,0.9257758855819702
,desktop,0.9231487512588501
,tasty,0.9013725519180298
,no person,0.9001508951187134
,delicious,0.8891017436981201
,restaurant,0.8742910027503967
,meat,0.8730379939079285
,template,0.8688560128211975
,menu,0.8663519024848938
,vector,0.8625054359436035
,sweet,0.8542338013648987
,hot,0.8528832793235779
,dinner,0.8524673581123352
,lunch,0.8519497513771057
,vegetable,0.8518457412719727
,dish,0.851516842842102
https://scontent.cdninstagram.com/t51.2885-15/e35/13277576_176029959461462_1279106324_n.jpg,food,0.9970220923423767
,meal,0.9887839555740356
,breakfast,0.9774435758590698
,sweet,0.9769922494888306
,pastry,0.9751710295677185
,delicious,0.969651460647583
,tasty,0.9677475690841675
,cake,0.9677205085754395
,refreshment,0.9675142765045166
,restaurant,0.9592828154563904
,cooking,0.9582099318504333
,bread,0.9519500732421875
,hot,0.9467217922210693
,dough,0.9465819597244263
,bakery,0.9453192949295044
,baking,0.9409216046333313
,unhealthy,0.9399772882461548
,lunch,0.9377577304840088
,healthy,0.9308943152427673
,croissant,0.9295369386672974
https://scontent.cdninstagram.com/l/t51.2885-15/e35/13166882_1559445057685642_28539166_n.jpg,food,0.9973252415657043
,no person,0.9957579374313354
,french fries,0.992414116859436
,meat,0.987532377243042
,dinner,0.9860942959785461
,lunch,0.9835871458053589
,bread,0.9830762147903442
,meal,0.9817466735839844
,plate,0.9672160148620605
,delicious,0.9550698399543762
,beef,0.9529000520706177
,ketchup,0.9477927088737488
,unhealthy,0.9393154382705688
,restaurant,0.9331352710723877
,sausage,0.927458643913269
,breakfast,0.9174734950065613
,potato,0.9137820601463318
,pork,0.9077069759368896
,cheese,0.9067158699035645
,bacon,0.9064958095550537
https://scontent.cdninstagram.com/t51.2885-15/e35/13129584_169449696786279_96660160_n.jpg,no person,0.9968032836914062
,cream,0.9907447099685669
,sweet,0.9859241247177124
,dairy product,0.9857666492462158
,food,0.9791126251220703
,vanilla,0.9788980484008789
,delicious,0.9684852957725525
,creamy,0.9681057333946228
,fruit,0.9630597829818726
,chocolate,0.9569879770278931
,sugar,0.9472113847732544
,cake,0.9403312802314758
,homemade,0.9384053945541382
,caramel,0.9304872155189514
,indulgence,0.9183667302131653
,scoop,0.9138574600219727
,bowl,0.9083779454231262
,grow,0.8899244070053101
,baking,0.8880877494812012
,refreshment,0.8694004416465759
https://scontent.cdninstagram.com/t51.2885-15/e35/13150855_715422061934301_1556598659_n.jpg,no person,0.9782965183258057
,candle,0.9746263027191162
,wax,0.966528594493866
,flame,0.9585995078086853
,dark,0.9320030212402344
,burnt,0.923633337020874
,candlelight,0.9143999218940735
,indoors,0.9130533933639526
,wood,0.9126077890396118
,traditional,0.8912913799285889
,one,0.8637919425964355
,skill,0.8016904592514038
,retro,0.7970174551010132
,melting,0.7711535692214966
,handmade,0.7630857229232788
,vertical,0.7625314593315125
,old,0.7609074115753174
,isolated,0.7457514405250549
,equipment,0.73974609375
,chocolate,0.7384896278381348
https://scontent.cdninstagram.com/t51.2885-15/e35/13126732_1567400896893047_2143905399_n.jpg,food,0.9972701668739319
,meal,0.987139105796814
,dinner,0.9784698486328125
,plate,0.9742825031280518
,collage,0.9694955348968506
,dish,0.9660906195640564
,vegetable,0.9635831117630005
,fish,0.9632148742675781
,seafood,0.9598627090454102
,rice,0.9595146179199219
,restaurant,0.958967924118042
,traditional,0.9585129618644714
,lunch,0.9566189050674438
,delicious,0.9519379734992981
,epicure,0.9519069194793701
,cuisine,0.9478023052215576
,sushi,0.9463412761688232
,no person,0.9373002052307129
,healthy,0.9328001737594604
,appetizer,0.9202754497528076
https://scontent.cdninstagram.com/t51.2885-15/e35/13167435_856639427792336_905286306_n.jpg,food,0.9964945316314697
,dinner,0.9845688343048096
,no person,0.9807513952255249
,meal,0.9801118969917297
,table,0.9780703783035278
,tableware,0.9772313237190247
,vegetable,0.9749795198440552
,dish,0.9734106659889221
,lunch,0.9721760749816895
,restaurant,0.9690686464309692
,plate,0.9563905000686646
,flatware,0.9483722448348999
,cooking,0.9479466676712036
,cutlery,0.9419628381729126
,dining,0.9353549480438232
,meat,0.9348549842834473
,grow,0.9326798915863037
,hot,0.9311544895172119
,bowl,0.8979636430740356
,cuisine,0.8919992446899414
https://scontent.cdninstagram.com/t51.2885-15/e35/13129584_169449696786279_96660160_n.jpg,no person,0.9968032836914062
,cream,0.9907447099685669
,sweet,0.9859241247177124
,dairy product,0.9857666492462158
,food,0.9791126251220703
,vanilla,0.9788980484008789
,delicious,0.9684852957725525
,creamy,0.9681057333946228
,fruit,0.9630597829818726
,chocolate,0.9569879770278931
,sugar,0.9472113847732544
,cake,0.9403312802314758
,homemade,0.9384053945541382
,caramel,0.9304872155189514
,indulgence,0.9183667302131653
,scoop,0.9138574600219727
,bowl,0.9083779454231262
,grow,0.8899244070053101
,baking,0.8880877494812012
,refreshment,0.8694004416465759
https://scontent.cdninstagram.com/t51.2885-15/e35/13167472_172428779824506_917543442_n.jpg,food,0.9973369836807251
,meal,0.99317467212677
,dinner,0.9920405149459839
,cuisine,0.989755392074585
,lunch,0.9871962070465088
,dish,0.985919713973999
,epicure,0.9857791662216187
,sauce,0.9843393564224243
,delicious,0.9837520718574524
,restaurant,0.9799042344093323
,plate,0.9784402847290039
,tasty,0.9779776334762573
,meat,0.9777510166168213
,hot,0.9659104347229004
,healthy,0.9627123475074768
,seafood,0.9626883268356323
,vegetable,0.9582858085632324
,cooking,0.9566269516944885
,tomato,0.9539908766746521
,nutrition,0.9447005391120911
https://scontent.cdninstagram.com/t51.2885-15/e35/13129693_449542448574396_1638578834_n.jpg,food,0.9930517673492432
,no person,0.9700478315353394
,traditional,0.9693492650985718
,kind,0.9546732902526855
,bowl,0.9524312019348145
,desktop,0.9421858787536621
,soup,0.9385368227958679
,hot,0.9319189786911011
,dish,0.9204652309417725
,cooking,0.9197490215301514
,tray,0.9131367802619934
,meal,0.9092018604278564
,restaurant,0.9063151478767395
,color,0.9063022136688232
,dinner,0.9047020673751831
,epicure,0.9037390947341919
,vegetable,0.8978419303894043
,cuisine,0.8973169922828674
,table,0.8920854926109314
,plate,0.8841663599014282
https://scontent.cdninstagram.com/t51.2885-15/e35/13402738_1796605337235229_14770184_n.jpg,paper,0.9672256708145142
,business,0.9665963649749756
,money,0.9310050010681152
,no person,0.9028533101081848
,commerce,0.8949298858642578
,finance,0.885536789894104
,symbol,0.8801881670951843
,money,0.8723781108856201
,desktop,0.8459891080856323
,design,0.790111243724823
,cash,0.7857333421707153
,wealth,0.7773303985595703
,people,0.7729282379150391
,number,0.7724329829216003
,euro,0.7517906427383423
,sign,0.7478508949279785
,text,0.7444332838058472
,indoors,0.7428492903709412
,old,0.7421896457672119
,dollar,0.7380330562591553
https://scontent.cdninstagram.com/t51.2885-15/e35/13113973_825584550908743_1521039722_n.jpg,food,0.9981907606124878
,meal,0.986038088798523
,tasty,0.9746177792549133
,burger,0.9731609225273132
,restaurant,0.9721393585205078
,refreshment,0.9721057415008545
,delicious,0.9719012975692749
,meat,0.9695383310317993
,bread,0.9692201018333435
,dinner,0.9672205448150635
,plate,0.9621250629425049
,lunch,0.9547103047370911
,cuisine,0.9520649909973145
,table,0.9512863159179688
,sandwich,0.9503947496414185
,diet,0.9463465213775635
,bun,0.9443956613540649
,epicure,0.9429616332054138
,cheese,0.9421608448028564
,nutrition,0.94064861536026
https://scontent.cdninstagram.com/t51.2885-15/e35/13355597_905454652898250_600163442_n.jpg,transportation system,0.9968997836112976
,airport,0.9950928092002869
,vehicle,0.9921299815177917
,airplane,0.9797847270965576
,travel,0.9770890474319458
,business,0.973301112651825
,aircraft,0.9718849658966064
,environment,0.9660824537277222
,industry,0.9656745791435242
,road,0.9457398653030396
,no person,0.9450922012329102
,city,0.9441603422164917
,terminal,0.943447470664978
,arrival,0.9420672655105591
,car,0.9412319660186768
,pollution,0.9405641555786133
,building,0.925855278968811
,calamity,0.9223861694335938
,departure,0.9192851781845093
,shipment,0.9168289303779602
https://scontent.cdninstagram.com/t51.2885-15/e35/13129693_449542448574396_1638578834_n.jpg,food,0.9930517673492432
,no person,0.9700478315353394
,traditional,0.9693492650985718
,kind,0.9546732902526855
,bowl,0.9524312019348145
,desktop,0.9421858787536621
,soup,0.9385368227958679
,hot,0.9319189786911011
,dish,0.9204652309417725
,cooking,0.9197490215301514
,tray,0.9131367802619934
,meal,0.9092018604278564
,restaurant,0.9063151478767395
,color,0.9063022136688232
,dinner,0.9047020673751831
,epicure,0.9037390947341919
,vegetable,0.8978419303894043
,cuisine,0.8973169922828674
,table,0.8920854926109314
,plate,0.8841663599014282
https://scontent.cdninstagram.com/t51.2885-15/e35/13126732_1567400896893047_2143905399_n.jpg,food,0.9972701668739319
,meal,0.987139105796814
,dinner,0.9784698486328125
,plate,0.9742825031280518
,collage,0.9694955348968506
,dish,0.9660906195640564
,vegetable,0.9635831117630005
,fish,0.9632148742675781
,seafood,0.9598627090454102
,rice,0.9595146179199219
,restaurant,0.958967924118042
,traditional,0.9585129618644714
,lunch,0.9566189050674438
,delicious,0.9519379734992981
,epicure,0.9519069194793701
,cuisine,0.9478023052215576
,sushi,0.9463412761688232
,no person,0.9373002052307129
,healthy,0.9328001737594604
,appetizer,0.9202754497528076
https://scontent.cdninstagram.com/t51.2885-15/e35/13167302_1704966983091317_250578092_n.jpg,food,0.9954910278320312
,no person,0.9906688928604126
,sweet,0.9855021238327026
,fruit,0.9845073223114014
,cake,0.9668654203414917
,delicious,0.9634977579116821
,plate,0.9600664973258972
,grow,0.9494830369949341
,berry,0.9463232755661011
,cream,0.9371882677078247
,pastry,0.9317764639854431
,strawberry,0.9225732684135437
,homemade,0.9203010201454163
,cooking,0.9177567362785339
,dairy product,0.9159730672836304
,breakfast,0.9157100319862366
,sugar,0.9139178395271301
,meal,0.9128996133804321
,refreshment,0.9106569290161133
,baking,0.9063054919242859
https://scontent.cdninstagram.com/l/t51.2885-15/e35/13166882_1559445057685642_28539166_n.jpg,food,0.9973252415657043
,no person,0.9957579374313354
,french fries,0.992414116859436
,meat,0.987532377243042
,dinner,0.9860942959785461
,lunch,0.9835871458053589
,bread,0.9830762147903442
,meal,0.9817466735839844
,plate,0.9672160148620605
,delicious,0.9550698399543762
,beef,0.9529000520706177
,ketchup,0.9477927088737488
,unhealthy,0.9393154382705688
,restaurant,0.9331352710723877
,sausage,0.927458643913269
,breakfast,0.9174734950065613
,potato,0.9137820601463318
,pork,0.9077069759368896
,cheese,0.9067158699035645
,bacon,0.9064958095550537
https://scontent.cdninstagram.com/t51.2885-15/e35/13113973_825584550908743_1521039722_n.jpg,food,0.9981907606124878
,meal,0.986038088798523
,tasty,0.9746177792549133
,burger,0.9731609225273132
,restaurant,0.9721393585205078
,refreshment,0.9721057415008545
,delicious,0.9719012975692749
,meat,0.9695383310317993
,bread,0.9692201018333435
,dinner,0.9672205448150635
,plate,0.9621250629425049
,lunch,0.9547103047370911
,cuisine,0.9520649909973145
,table,0.9512863159179688
,sandwich,0.9503947496414185
,diet,0.9463465213775635
,bun,0.9443956613540649
,epicure,0.9429616332054138
,cheese,0.9421608448028564
,nutrition,0.94064861536026
https://scontent.cdninstagram.com/t51.2885-15/e35/13126749_1705736226361664_43442985_n.jpg,food,0.9948630928993225
,dinner,0.9879088401794434
,lunch,0.9871839284896851
,delicious,0.9856573939323425
,no person,0.9772163033485413
,meat,0.9732096195220947
,meal,0.9666844010353088
,fish,0.9603995084762573
,cooking,0.9496439099311829
,ham,0.9481931924819946
,nutrition,0.9439002275466919
,epicure,0.9424008131027222
,pork,0.9385190606117249
,vegetable,0.9369622468948364
,dish,0.93172287940979
,seafood,0.9266186952590942
,healthy,0.9235334396362305
,cuisine,0.9177366495132446
,slice,0.9147646427154541
,dining,0.9048789143562317
https://scontent.cdninstagram.com/t51.2885-15/e35/12976439_519677861550013_780455363_n.jpg,beer,0.9999465942382812
,glass,0.9994792938232422
,alcohol,0.9994404315948486
,brewery,0.999414324760437
,drink,0.9992669224739075
,cold,0.9984073638916016
,bar,0.9980946779251099
,ice,0.9971861839294434
,party,0.9963059425354004
,foam,0.9960779547691345
,pub,0.9950595498085022
,lager,0.9948855638504028
,liquor,0.9934777021408081
,ale,0.9933198690414429
,cool,0.9924734830856323
,refreshment,0.9870619773864746
,pint,0.9865494966506958
,counter,0.9787485599517822
,frosty,0.9648948907852173
,no person,0.9571572542190552
https://scontent.cdninstagram.com/t51.2885-15/e35/13129180_1031784460229664_868686765_n.jpg,cream,0.9806441068649292
,sweet,0.9787908792495728
,delicious,0.978179931640625
,no person,0.9778428673744202
,food,0.9716094732284546
,cake,0.9665693044662476
,chocolate,0.9655122756958008
,sugar,0.9653661251068115
,fruit,0.9282077550888062
,candy,0.9130592346191406
,plate,0.9122294187545776
,refreshment,0.9115132093429565
,pastry,0.9100656509399414
,strawberry,0.9094161987304688
,homemade,0.899259090423584
,table,0.8980112075805664
,indulgence,0.8931523561477661
,milk,0.8874735832214355
,cup,0.8840929865837097
,creamy,0.8812414407730103
https://scontent.cdninstagram.com/t51.2885-15/e35/13167472_172428779824506_917543442_n.jpg,food,0.9973369836807251
,meal,0.99317467212677
,dinner,0.9920405149459839
,cuisine,0.989755392074585
,lunch,0.9871962070465088
,dish,0.985919713973999
,epicure,0.9857791662216187
,sauce,0.9843393564224243
,delicious,0.9837520718574524
,restaurant,0.9799042344093323
,plate,0.9784402847290039
,tasty,0.9779776334762573
,meat,0.9777510166168213
,hot,0.9659104347229004
,healthy,0.9627123475074768
,seafood,0.9626883268356323
,vegetable,0.9582858085632324
,cooking,0.9566269516944885
,tomato,0.9539908766746521
,nutrition,0.9447005391120911
https://scontent.cdninstagram.com/t51.2885-15/e35/13129180_1031784460229664_868686765_n.jpg,cream,0.9806441068649292
,sweet,0.9787908792495728
,delicious,0.978179931640625
,no person,0.9778428673744202
,food,0.9716094732284546
,cake,0.9665693044662476
,chocolate,0.9655122756958008
,sugar,0.9653661251068115
,fruit,0.9282077550888062
,candy,0.9130592346191406
,plate,0.9122294187545776
,refreshment,0.9115132093429565
,pastry,0.9100656509399414
,strawberry,0.9094161987304688
,homemade,0.899259090423584
,table,0.8980112075805664
,indulgence,0.8931523561477661
,milk,0.8874735832214355
,cup,0.8840929865837097
,creamy,0.8812414407730103
https://scontent.cdninstagram.com/t51.2885-15/e35/12912477_1069876046402380_379900910_n.jpg,food,0.9953541159629822
,restaurant,0.9824322462081909
,meal,0.9642603397369385
,dinner,0.9635164141654968
,no person,0.9532830715179443
,meat,0.9502816200256348
,delicious,0.9474484324455261
,dish,0.9469045400619507
,epicure,0.9459162354469299
,plate,0.9432024955749512
,cuisine,0.9386690258979797
,tasty,0.9384288787841797
,lunch,0.9319864511489868
,cooking,0.9095773696899414
,table,0.9064310193061829
,hot,0.9003885984420776
,traditional,0.9002254605293274
,vegetable,0.8982035517692566
,dining,0.8924241065979004
,sauce,0.8794916868209839
https://scontent.cdninstagram.com/t51.2885-15/e35/13118108_1724364281179856_2137396880_n.jpg,food,0.9947320222854614
,no person,0.9826862215995789
,meat,0.9759629964828491
,lunch,0.9645965695381165
,meal,0.9628791809082031
,bread,0.9594532251358032
,dinner,0.956405520439148
,delicious,0.9513962864875793
,plate,0.9247068166732788
,refreshment,0.9245784282684326
,chicken,0.9138537645339966
,sandwich,0.9040694832801819
,fast,0.9027066230773926
,restaurant,0.8979902863502502
,barbecue,0.8910847902297974
,tomato,0.8872668743133545
,beef,0.8863843083381653
,unhealthy,0.8799045085906982
,hot,0.8739830851554871
,dish,0.8729245662689209
https://scontent.cdninstagram.com/t51.2885-15/e35/13118108_1724364281179856_2137396880_n.jpg,food,0.9947320222854614
,no person,0.9826862215995789
,meat,0.9759629964828491
,lunch,0.9645965695381165
,meal,0.9628791809082031
,bread,0.9594532251358032
,dinner,0.956405520439148
,delicious,0.9513962864875793
,plate,0.9247068166732788
,refreshment,0.9245784282684326
,chicken,0.9138537645339966
,sandwich,0.9040694832801819
,fast,0.9027066230773926
,restaurant,0.8979902863502502
,barbecue,0.8910847902297974
,tomato,0.8872668743133545
,beef,0.8863843083381653
,unhealthy,0.8799045085906982
,hot,0.8739830851554871
,dish,0.8729245662689209
https://scontent.cdninstagram.com/l/t51.2885-15/e35/12677211_976734692375867_698645091_n.jpg,drink,0.9959366321563721
,glass,0.9891622066497803
,bar,0.9857902526855469
,sweet,0.985211968421936
,food,0.9847376346588135
,juice,0.9726957082748413
,restaurant,0.950948178768158
,ice,0.9503368735313416
,fruit,0.9498943090438843
,party,0.9491086006164551
,refreshment,0.944730281829834
,table,0.9447065591812134
,sugar,0.9342219829559326
,breakfast,0.9324294328689575
,milk,0.9295499324798584
,cup,0.9295403957366943
,cold,0.9239889979362488
,cocktail,0.9229958057403564
,desktop,0.905228853225708
,alcohol,0.898445725440979
https://scontent.cdninstagram.com/t51.2885-15/e35/13130067_1084776671595150_29788489_n.jpg,food,0.9936631917953491
,meal,0.9730271100997925
,hot,0.9726100564002991
,breakfast,0.9689857959747314
,plate,0.9678118228912354
,egg,0.965796709060669
,healthy,0.965498685836792
,delicious,0.9625889658927917
,cuisine,0.9593840837478638
,dish,0.9574903249740601
,cooking,0.9502130746841431
,no person,0.945319652557373
,lunch,0.9445396065711975
,traditional,0.9421248435974121
,tasty,0.9409729242324829
,dinner,0.9306811094284058
,epicure,0.9273284673690796
,diet,0.9263107776641846
,restaurant,0.9165821075439453
,refreshment,0.9144654870033264
https://scontent.cdninstagram.com/t51.2885-15/e35/13130067_1084776671595150_29788489_n.jpg,food,0.9936631917953491
,meal,0.9730271100997925
,hot,0.9726100564002991
,breakfast,0.9689857959747314
,plate,0.9678118228912354
,egg,0.965796709060669
,healthy,0.965498685836792
,delicious,0.9625889658927917
,cuisine,0.9593840837478638
,dish,0.9574903249740601
,cooking,0.9502130746841431
,no person,0.945319652557373
,lunch,0.9445396065711975
,traditional,0.9421248435974121
,tasty,0.9409729242324829
,dinner,0.9306811094284058
,epicure,0.9273284673690796
,diet,0.9263107776641846
,restaurant,0.9165821075439453
,refreshment,0.9144654870033264
https://scontent.cdninstagram.com/t51.2885-15/e35/12930875_216500075390188_892627508_n.jpg,beer,0.9936015605926514
,drink,0.9699456691741943
,brewery,0.9539941549301147
,city,0.9370629787445068
,bar,0.9257440567016602
,no person,0.9141992330551147
,tourism,0.9120818376541138
,glass,0.9083894491195679
,travel,0.9066636562347412
,business,0.8987939357757568
,bottle,0.8883112072944641
,lager,0.8443448543548584
,commerce,0.8357194662094116
,many,0.8313130140304565
,reflection,0.8299944996833801
,people,0.8289722204208374
,landscape,0.8157975673675537
,water,0.812615156173706
,vehicle,0.8055261373519897
,alcohol,0.8053605556488037
https://scontent.cdninstagram.com/t51.2885-15/e35/13108849_568834156620991_156085762_n.jpg,indoors,0.9970301985740662
,room,0.9869076013565063
,inside,0.9851199984550476
,furniture,0.975027322769165
,window,0.9655125141143799
,table,0.957659125328064
,wood,0.9462466239929199
,empty,0.9322830438613892
,floor,0.9235875606536865
,chair,0.9072688817977905
,no person,0.8983286619186401
,family,0.8977853059768677
,house,0.894454836845398
,architecture,0.8884512186050415
,business,0.8784855604171753
,ceiling,0.8784188032150269
,light,0.8725842237472534
,seat,0.870385468006134
,university,0.8688845634460449
,luxury,0.8598809838294983
https://scontent.cdninstagram.com/t51.2885-15/e35/13108849_568834156620991_156085762_n.jpg,indoors,0.9970301985740662
,room,0.9869076013565063
,inside,0.9851199984550476
,furniture,0.975027322769165
,window,0.9655125141143799
,table,0.957659125328064
,wood,0.9462466239929199
,empty,0.9322830438613892
,floor,0.9235875606536865
,chair,0.9072688817977905
,no person,0.8983286619186401
,family,0.8977853059768677
,house,0.894454836845398
,architecture,0.8884512186050415
,business,0.8784855604171753
,ceiling,0.8784188032150269
,light,0.8725842237472534
,seat,0.870385468006134
,university,0.8688845634460449
,luxury,0.8598809838294983
https://scontent.cdninstagram.com/t51.2885-15/e15/12940753_788618161237870_2006159551_n.jpg,people,0.9920437335968018
,music,0.9919438362121582
,festival,0.990606427192688
,movie,0.9896584749221802
,performance,0.972819447517395
,ceremony,0.9722915887832642
,musician,0.970028281211853
,recreation,0.9679317474365234
,actor,0.9553700089454651
,singer,0.954747200012207
,portrait,0.9475343227386475
,concert,0.9460053443908691
,election,0.9422569274902344
,adult,0.9411174058914185
,theater,0.9316411018371582
,actress,0.9261152744293213
,administration,0.9154465198516846
,celebration,0.9055397510528564
,group,0.8985677361488342
,award,0.8802060484886169
https://scontent.cdninstagram.com/t51.2885-15/e35/13285427_1757552504524333_300536444_n.jpg,food,0.993011474609375
,coffee,0.9905923008918762
,no person,0.990043044090271
,breakfast,0.9851023554801941
,drink,0.9657200574874878
,cup,0.9637883901596069
,plate,0.9601454734802246
,hot,0.9592833518981934
,delicious,0.9567639827728271
,dawn,0.9525632858276367
,bread,0.944584846496582
,meal,0.9445430040359497
,tea,0.9420026540756226
,table,0.9399760365486145
,sweet,0.9367703199386597
,traditional,0.9332503080368042
,jam,0.9283531904220581
,pastry,0.9127293825149536
,fruit,0.9091137647628784
,refreshment,0.9033316373825073
https://scontent.cdninstagram.com/t51.2885-15/e15/12940753_788618161237870_2006159551_n.jpg,people,0.9920437335968018
,music,0.9919438362121582
,festival,0.990606427192688
,movie,0.9896584749221802
,performance,0.972819447517395
,ceremony,0.9722915887832642
,musician,0.970028281211853
,recreation,0.9679317474365234
,actor,0.9553700089454651
,singer,0.954747200012207
,portrait,0.9475343227386475
,concert,0.9460053443908691
,election,0.9422569274902344
,adult,0.9411174058914185
,theater,0.9316411018371582
,actress,0.9261152744293213
,administration,0.9154465198516846
,celebration,0.9055397510528564
,group,0.8985677361488342
,award,0.8802060484886169
https://scontent.cdninstagram.com/t51.2885-15/e35/12930851_147105702355174_989460299_n.jpg,food,0.9975314140319824
,restaurant,0.9854844808578491
,meal,0.9847636222839355
,lunch,0.9771214723587036
,dinner,0.9753350019454956
,meat,0.9730076193809509
,cuisine,0.9629968404769897
,delicious,0.9538226127624512
,dish,0.9503540992736816
,vegetable,0.9465721249580383
,plate,0.9457987546920776
,cooking,0.9431934356689453
,cheese,0.9405202865600586
,tasty,0.9354592561721802
,refreshment,0.9351614713668823
,tomato,0.9332108497619629
,bread,0.9323374629020691
,chicken,0.9221135377883911
,no person,0.9180715084075928
,epicure,0.9172903895378113
https://scontent.cdninstagram.com/t51.2885-15/e35/13126749_1705736226361664_43442985_n.jpg,food,0.9948630928993225
,dinner,0.9879088401794434
,lunch,0.9871839284896851
,delicious,0.9856573939323425
,no person,0.9772163033485413
,meat,0.9732096195220947
,meal,0.9666844010353088
,fish,0.9603995084762573
,cooking,0.9496439099311829
,ham,0.9481931924819946
,nutrition,0.9439002275466919
,epicure,0.9424008131027222
,pork,0.9385190606117249
,vegetable,0.9369622468948364
,dish,0.93172287940979
,seafood,0.9266186952590942
,healthy,0.9235334396362305
,cuisine,0.9177366495132446
,slice,0.9147646427154541
,dining,0.9048789143562317
https://scontent.cdninstagram.com/t51.2885-15/e35/13167302_1704966983091317_250578092_n.jpg,food,0.9954910278320312
,no person,0.9906688928604126
,sweet,0.9855021238327026
,fruit,0.9845073223114014
,cake,0.9668654203414917
,delicious,0.9634977579116821
,plate,0.9600664973258972
,grow,0.9494830369949341
,berry,0.9463232755661011
,cream,0.9371882677078247
,pastry,0.9317764639854431
,strawberry,0.9225732684135437
,homemade,0.9203010201454163
,cooking,0.9177567362785339
,dairy product,0.9159730672836304
,breakfast,0.9157100319862366
,sugar,0.9139178395271301
,meal,0.9128996133804321
,refreshment,0.9106569290161133
,baking,0.9063054919242859
https://scontent.cdninstagram.com/t51.2885-15/e35/12912477_1069876046402380_379900910_n.jpg,food,0.9953541159629822
,restaurant,0.9824322462081909
,meal,0.9642603397369385
,dinner,0.9635164141654968
,no person,0.9532830715179443
,meat,0.9502816200256348
,delicious,0.9474484324455261
,dish,0.9469045400619507
,epicure,0.9459162354469299
,plate,0.9432024955749512
,cuisine,0.9386690258979797
,tasty,0.9384288787841797
,lunch,0.9319864511489868
,cooking,0.9095773696899414
,table,0.9064310193061829
,hot,0.9003885984420776
,traditional,0.9002254605293274
,vegetable,0.8982035517692566
,dining,0.8924241065979004
,sauce,0.8794916868209839
https://scontent.cdninstagram.com/t51.2885-15/e35/12976439_519677861550013_780455363_n.jpg,beer,0.9999465942382812
,glass,0.9994792938232422
,alcohol,0.9994404315948486
,brewery,0.999414324760437
,drink,0.9992669224739075
,cold,0.9984073638916016
,bar,0.9980946779251099
,ice,0.9971861839294434
,party,0.9963059425354004
,foam,0.9960779547691345
,pub,0.9950595498085022
,lager,0.9948855638504028
,liquor,0.9934777021408081
,ale,0.9933198690414429
,cool,0.9924734830856323
,refreshment,0.9870619773864746
,pint,0.9865494966506958
,counter,0.9787485599517822
,frosty,0.9648948907852173
,no person,0.9571572542190552
https://scontent.cdninstagram.com/l/t51.2885-15/e35/12677211_976734692375867_698645091_n.jpg,drink,0.9959366321563721
,glass,0.9891622066497803
,bar,0.9857902526855469
,sweet,0.985211968421936
,food,0.9847376346588135
,juice,0.9726957082748413
,restaurant,0.950948178768158
,ice,0.9503368735313416
,fruit,0.9498943090438843
,party,0.9491086006164551
,refreshment,0.944730281829834
,table,0.9447065591812134
,sugar,0.9342219829559326
,breakfast,0.9324294328689575
,milk,0.9295499324798584
,cup,0.9295403957366943
,cold,0.9239889979362488
,cocktail,0.9229958057403564
,desktop,0.905228853225708
,alcohol,0.898445725440979
https://scontent.cdninstagram.com/t51.2885-15/e35/12940708_935195513260318_2038351331_n.jpg,food,0.995762825012207
,meal,0.9774547815322876
,no person,0.970563530921936
,table,0.9669041633605957
,plate,0.9588280916213989
,delicious,0.9534788131713867
,breakfast,0.953212559223175
,dinner,0.9484609961509705
,cooking,0.9474555253982544
,dish,0.9445790648460388
,lunch,0.9392052292823792
,bread,0.9355775713920593
,knife,0.930518388748169
,restaurant,0.9290426969528198
,epicure,0.9191601276397705
,homemade,0.9173722863197327
,cuisine,0.9149099588394165
,refreshment,0.9124895334243774
,fruit,0.9116325378417969
,vegetable,0.9098987579345703
https://scontent.cdninstagram.com/t51.2885-15/e35/12976276_155942694803531_48458872_n.jpg,food,0.9931939840316772
,breakfast,0.9862524271011353
,no person,0.9829896688461304
,delicious,0.9701656103134155
,coffee,0.9651294946670532
,hot,0.9642347097396851
,plate,0.9603428244590759
,lunch,0.9520240426063538
,dawn,0.9496639966964722
,bread,0.9409139156341553
,traditional,0.9402849674224854
,meal,0.9381951093673706
,dinner,0.9265932440757751
,refreshment,0.9176722168922424
,restaurant,0.9019076824188232
,pastry,0.8848417401313782
,drink,0.8847665786743164
,table,0.8782870769500732
,still life,0.8756154775619507
,dish,0.8739633560180664
https://scontent.cdninstagram.com/t51.2885-15/e35/12930851_147105702355174_989460299_n.jpg,food,0.9975314140319824
,restaurant,0.9854844808578491
,meal,0.9847636222839355
,lunch,0.9771214723587036
,dinner,0.9753350019454956
,meat,0.9730076193809509
,cuisine,0.9629968404769897
,delicious,0.9538226127624512
,dish,0.9503540992736816
,vegetable,0.9465721249580383
,plate,0.9457987546920776
,cooking,0.9431934356689453
,cheese,0.9405202865600586
,tasty,0.9354592561721802
,refreshment,0.9351614713668823
,tomato,0.9332108497619629
,bread,0.9323374629020691
,chicken,0.9221135377883911
,no person,0.9180715084075928
,epicure,0.9172903895378113
https://scontent.cdninstagram.com/t51.2885-15/e35/12519425_1057352927660180_1061673849_n.jpg,food,0.9991672039031982
,meat,0.9974007606506348
,bread,0.9963928461074829
,burger,0.9940825700759888
,beef,0.9931826591491699
,meal,0.9919979572296143
,lunch,0.9898677468299866
,dinner,0.9881627559661865
,sandwich,0.9863970875740051
,lettuce,0.9825921654701233
,bun,0.9791145324707031
,cheese,0.9787454605102539
,tomato,0.9784094095230103
,delicious,0.9779301881790161
,plate,0.9724332094192505
,refreshment,0.9720428586006165
,tasty,0.9716769456863403
,epicure,0.9619904160499573
,vegetable,0.9595266580581665
,cuisine,0.9559621810913086
https://scontent.cdninstagram.com/t51.2885-15/e35/12940708_935195513260318_2038351331_n.jpg,food,0.995762825012207
,meal,0.9774547815322876
,no person,0.970563530921936
,table,0.9669041633605957
,plate,0.9588280916213989
,delicious,0.9534788131713867
,breakfast,0.953212559223175
,dinner,0.9484609961509705
,cooking,0.9474555253982544
,dish,0.9445790648460388
,lunch,0.9392052292823792
,bread,0.9355775713920593
,knife,0.930518388748169
,restaurant,0.9290426969528198
,epicure,0.9191601276397705
,homemade,0.9173722863197327
,cuisine,0.9149099588394165
,refreshment,0.9124895334243774
,fruit,0.9116325378417969
,vegetable,0.9098987579345703
https://scontent.cdninstagram.com/t51.2885-15/e35/12930805_1004951922916891_988020211_n.jpg,food,0.9952991008758545
,meat,0.99470055103302
,dinner,0.9935306310653687
,meal,0.9887521266937256
,poultry,0.9820395708084106
,no person,0.9811059236526489
,lunch,0.9790691137313843
,plate,0.9780893325805664
,dish,0.9731454849243164
,chicken,0.9691685438156128
,sauce,0.9674874544143677
,restaurant,0.9624474048614502
,potato,0.9622359871864319
,grow,0.9542645215988159
,beef,0.9464051723480225
,vegetable,0.9445773363113403
,delicious,0.9445059895515442
,cooking,0.9350204467773438
,pork,0.9332680702209473
,barbecue,0.9311611652374268
https://scontent.cdninstagram.com/t51.2885-15/e35/12446065_837089023087454_542521503_n.jpg,food,0.9954894185066223
,delicious,0.9858286380767822
,no person,0.972820520401001
,refreshment,0.9578448534011841
,plate,0.957795262336731
,meal,0.9559177160263062
,lunch,0.9546433687210083
,cuisine,0.9459106922149658
,bread,0.9441410303115845
,breakfast,0.9429708123207092
,dinner,0.9414266347885132
,traditional,0.9407269954681396
,vegetable,0.9389526844024658
,tasty,0.9368566274642944
,nutrition,0.9312036037445068
,dish,0.9291364550590515
,epicure,0.9183037877082825
,cooking,0.9166269302368164
,appetizer,0.911890983581543
,hot,0.9094510078430176
https://scontent.cdninstagram.com/t51.2885-15/e35/11336347_1254001891281288_1625228906_n.jpg,food,0.998341977596283
,meal,0.9923620820045471
,restaurant,0.9884791374206543
,dinner,0.9777904152870178
,plate,0.9750281572341919
,dish,0.9682928323745728
,lunch,0.964832067489624
,seafood,0.9640212059020996
,table,0.9630993604660034
,vegetable,0.961779773235321
,buffet,0.9589784145355225
,cuisine,0.9569874405860901
,cooking,0.9536402225494385
,no person,0.9532470703125
,dining,0.949433445930481
,fish,0.9339731931686401
,meat,0.9328675270080566
,epicure,0.9324337244033813
,traditional,0.9246166348457336
,delicious,0.9193001985549927
https://scontent.cdninstagram.com/t51.2885-15/e35/12071201_619927411488682_1385844478_n.jpg,food,0.9976714849472046
,dish,0.9917888045310974
,meal,0.9906219244003296
,dinner,0.98858243227005
,lunch,0.9879204034805298
,cuisine,0.9875094890594482
,plate,0.987038254737854
,cooking,0.9763177037239075
,meat,0.974436342716217
,delicious,0.9742611050605774
,traditional,0.9737498760223389
,appetizer,0.9678415060043335
,hot,0.9671574831008911
,vegetable,0.9665650129318237
,restaurant,0.965952455997467
,tasty,0.9657976627349854
,epicure,0.9631130695343018
,refreshment,0.9610887765884399
,bread,0.9563426971435547
,soup,0.9556238651275635
https://scontent.cdninstagram.com/t51.2885-15/e35/12918065_1712599058998670_1883690619_n.jpg,no person,0.9991785287857056
,creamy,0.9911152720451355
,delicious,0.9908369183540344
,chocolate,0.9885779023170471
,cream,0.9884955883026123
,homemade,0.9808390140533447
,indulgence,0.9758237600326538
,baking,0.9613497257232666
,scoop,0.944531261920929
,caramel,0.92864990234375
,mousse,0.9276014566421509
,dairy product,0.9235042333602905
,vanilla,0.9176123738288879
,sugar,0.9054837226867676
,coffee,0.9048281908035278
,sweet,0.9044250249862671
,unhealthy,0.8918024301528931
,temptation,0.8758839964866638
,food,0.8679844737052917
,custard,0.8627734184265137
https://scontent.cdninstagram.com/t51.2885-15/e35/12930805_1004951922916891_988020211_n.jpg,food,0.9952991008758545
,meat,0.99470055103302
,dinner,0.9935306310653687
,meal,0.9887521266937256
,poultry,0.9820395708084106
,no person,0.9811059236526489
,lunch,0.9790691137313843
,plate,0.9780893325805664
,dish,0.9731454849243164
,chicken,0.9691685438156128
,sauce,0.9674874544143677
,restaurant,0.9624474048614502
,potato,0.9622359871864319
,grow,0.9542645215988159
,beef,0.9464051723480225
,vegetable,0.9445773363113403
,delicious,0.9445059895515442
,cooking,0.9350204467773438
,pork,0.9332680702209473
,barbecue,0.9311611652374268
https://scontent.cdninstagram.com/t51.2885-15/e35/12912639_1373080599384910_1513351548_n.jpg,no person,0.9928284883499146
,food,0.9907281398773193
,lunch,0.9689263105392456
,dinner,0.9677816033363342
,bowl,0.9562662243843079
,delicious,0.9537866115570068
,pasta,0.9535074234008789
,parsley,0.9396129846572876
,vegetable,0.9326183795928955
,tomato,0.9321553707122803
,dish,0.9282395839691162
,cooking,0.9219473600387573
,nutrition,0.9079665541648865
,fish,0.9007187485694885
,meal,0.8975463509559631
,still life,0.8902193307876587
,pepper,0.8891681432723999
,garlic,0.8704633712768555
,plate,0.8599752187728882
,sauce,0.8495693206787109
https://scontent.cdninstagram.com/t51.2885-15/e35/12905050_581260655357215_1495502656_n.jpg,no person,0.9971457719802856
,chocolate,0.9959646463394165
,food,0.9934179782867432
,delicious,0.9922189712524414
,sugar,0.9791079759597778
,indulgence,0.9752044677734375
,sweet,0.9685467481613159
,candy,0.9502284526824951
,baking,0.9474887847900391
,cream,0.9380784034729004
,fruit,0.9226666688919067
,cake,0.9100176095962524
,homemade,0.9091590642929077
,cooking,0.9006702899932861
,grow,0.8922185897827148
,nutrition,0.8921860456466675
,traditional,0.8900955319404602
,plate,0.8890323638916016
,dairy product,0.8803595304489136
,caramel,0.8723830580711365
https://scontent.cdninstagram.com/t51.2885-15/e35/12912639_1373080599384910_1513351548_n.jpg,no person,0.9928284883499146
,food,0.9907281398773193
,lunch,0.9689263105392456
,dinner,0.9677816033363342
,bowl,0.9562662243843079
,delicious,0.9537866115570068
,pasta,0.9535074234008789
,parsley,0.9396129846572876
,vegetable,0.9326183795928955
,tomato,0.9321553707122803
,dish,0.9282395839691162
,cooking,0.9219473600387573
,nutrition,0.9079665541648865
,fish,0.9007187485694885
,meal,0.8975463509559631
,still life,0.8902193307876587
,pepper,0.8891681432723999
,garlic,0.8704633712768555
,plate,0.8599752187728882
,sauce,0.8495693206787109
https://scontent.cdninstagram.com/t51.2885-15/e35/12070780_567525850087547_582398275_n.jpg,rice,0.9911137819290161
,no person,0.9908795356750488
,food,0.9870857000350952
,grow,0.9423322677612305
,traditional,0.9370448589324951
,bowl,0.9368176460266113
,homemade,0.928699791431427
,wood,0.9214876890182495
,dinner,0.9214083552360535
,lunch,0.9087867736816406
,still life,0.9084197878837585
,delicious,0.9066166877746582
,health,0.9031394720077515
,cooking,0.9019415378570557
,milk,0.8942844867706299
,hot,0.8777023553848267
,dish,0.8738749027252197
,vegetable,0.858580470085144
,breakfast,0.8515982031822205
,chicken,0.8475607633590698
https://scontent.cdninstagram.com/t51.2885-15/e35/12905050_581260655357215_1495502656_n.jpg,no person,0.9971457719802856
,chocolate,0.9959646463394165
,food,0.9934179782867432
,delicious,0.9922189712524414
,sugar,0.9791079759597778
,indulgence,0.9752044677734375
,sweet,0.9685467481613159
,candy,0.9502284526824951
,baking,0.9474887847900391
,cream,0.9380784034729004
,fruit,0.9226666688919067
,cake,0.9100176095962524
,homemade,0.9091590642929077
,cooking,0.9006702899932861
,grow,0.8922185897827148
,nutrition,0.8921860456466675
,traditional,0.8900955319404602
,plate,0.8890323638916016
,dairy product,0.8803595304489136
,caramel,0.8723830580711365
https://scontent.cdninstagram.com/t51.2885-15/e15/10832070_1856467784579820_1756849086_n.jpg,music,0.9995043277740479
,concert,0.9990288019180298
,performance,0.9980893135070801
,festival,0.9966166019439697
,stage,0.9941312074661255
,club,0.9938948154449463
,musician,0.988847017288208
,party,0.9882764220237732
,band,0.9864670038223267
,singer,0.9861081838607788
,audience,0.9834638833999634
,nightlife,0.9829096794128418
,club,0.9811511635780334
,pop,0.9797916412353516
,dancing,0.975296139717102
,disco,0.9742000102996826
,rave,0.9683941602706909
,light,0.9612361192703247
,celebration,0.9542381167411804
,sound,0.9464345574378967
https://scontent.cdninstagram.com/t51.2885-15/e35/12930875_216500075390188_892627508_n.jpg,beer,0.9936015605926514
,drink,0.9699456691741943
,brewery,0.9539941549301147
,city,0.9370629787445068
,bar,0.9257440567016602
,no person,0.9141992330551147
,tourism,0.9120818376541138
,glass,0.9083894491195679
,travel,0.9066636562347412
,business,0.8987939357757568
,bottle,0.8883112072944641
,lager,0.8443448543548584
,commerce,0.8357194662094116
,many,0.8313130140304565
,reflection,0.8299944996833801
,people,0.8289722204208374
,landscape,0.8157975673675537
,water,0.812615156173706
,vehicle,0.8055261373519897
,alcohol,0.8053605556488037
https://scontent.cdninstagram.com/t51.2885-15/e35/12446065_837089023087454_542521503_n.jpg,food,0.9954894185066223
,delicious,0.9858286380767822
,no person,0.972820520401001
,refreshment,0.9578448534011841
,plate,0.957795262336731
,meal,0.9559177160263062
,lunch,0.9546433687210083
,cuisine,0.9459106922149658
,bread,0.9441410303115845
,breakfast,0.9429708123207092
,dinner,0.9414266347885132
,traditional,0.9407269954681396
,vegetable,0.9389526844024658
,tasty,0.9368566274642944
,nutrition,0.9312036037445068
,dish,0.9291364550590515
,epicure,0.9183037877082825
,cooking,0.9166269302368164
,appetizer,0.911890983581543
,hot,0.9094510078430176
https://scontent.cdninstagram.com/t51.2885-15/e35/12907143_601512280015621_660833728_n.jpg,salad,0.9971954822540283
,lettuce,0.9960165023803711
,food,0.993920087814331
,vegetable,0.9899107217788696
,lunch,0.9891452789306641
,dinner,0.9877550601959229
,meal,0.9849599599838257
,cheese,0.983953595161438
,appetizer,0.9838281273841858
,plate,0.9761096835136414
,dish,0.9712158441543579
,oil,0.9623413681983948
,delicious,0.9613582491874695
,bowl,0.9598801732063293
,grow,0.9567416906356812
,cos,0.9539233446121216
,onion,0.9517978429794312
,no person,0.9503667950630188
,healthy,0.9450064897537231
,tomato,0.9441020488739014
https://scontent.cdninstagram.com/t51.2885-15/e15/10832070_1856467784579820_1756849086_n.jpg,music,0.9995043277740479
,concert,0.9990288019180298
,performance,0.9980893135070801
,festival,0.9966166019439697
,stage,0.9941312074661255
,club,0.9938948154449463
,musician,0.988847017288208
,party,0.9882764220237732
,band,0.9864670038223267
,singer,0.9861081838607788
,audience,0.9834638833999634
,nightlife,0.9829096794128418
,club,0.9811511635780334
,pop,0.9797916412353516
,dancing,0.975296139717102
,disco,0.9742000102996826
,rave,0.9683941602706909
,light,0.9612361192703247
,celebration,0.9542381167411804
,sound,0.9464345574378967
https://scontent.cdninstagram.com/t51.2885-15/e15/10643836_1796943107185139_972181157_n.jpg,concert,0.9989529848098755
,music,0.9987779855728149
,performance,0.9978335499763489
,festival,0.9977824687957764
,stage,0.9955692291259766
,musician,0.9897279739379883
,singer,0.985612690448761
,band,0.9830137491226196
,club,0.9791208505630493
,people,0.9766736030578613
,audience,0.973125696182251
,spotlight,0.9693710207939148
,venue,0.9638736248016357
,rap,0.9587587118148804
,party,0.9577449560165405
,light,0.956591784954071
,rave,0.9519811272621155
,pop,0.9488491415977478
,dancing,0.9368413686752319
,crowd,0.9304271936416626
https://scontent.cdninstagram.com/t51.2885-15/e35/12918065_1712599058998670_1883690619_n.jpg,no person,0.9991785287857056
,creamy,0.9911152720451355
,delicious,0.9908369183540344
,chocolate,0.9885779023170471
,cream,0.9884955883026123
,homemade,0.9808390140533447
,indulgence,0.9758237600326538
,baking,0.9613497257232666
,scoop,0.944531261920929
,caramel,0.92864990234375
,mousse,0.9276014566421509
,dairy product,0.9235042333602905
,vanilla,0.9176123738288879
,sugar,0.9054837226867676
,coffee,0.9048281908035278
,sweet,0.9044250249862671
,unhealthy,0.8918024301528931
,temptation,0.8758839964866638
,food,0.8679844737052917
,custard,0.8627734184265137
https://scontent.cdninstagram.com/t51.2885-15/e35/11336347_1254001891281288_1625228906_n.jpg,food,0.998341977596283
,meal,0.9923620820045471
,restaurant,0.9884791374206543
,dinner,0.9777904152870178
,plate,0.9750281572341919
,dish,0.9682928323745728
,lunch,0.964832067489624
,seafood,0.9640212059020996
,table,0.9630993604660034
,vegetable,0.961779773235321
,buffet,0.9589784145355225
,cuisine,0.9569874405860901
,cooking,0.9536402225494385
,no person,0.9532470703125
,dining,0.949433445930481
,fish,0.9339731931686401
,meat,0.9328675270080566
,epicure,0.9324337244033813
,traditional,0.9246166348457336
,delicious,0.9193001985549927
https://scontent.cdninstagram.com/t51.2885-15/e35/12907143_601512280015621_660833728_n.jpg,salad,0.9971954822540283
,lettuce,0.9960165023803711
,food,0.993920087814331
,vegetable,0.9899107217788696
,lunch,0.9891452789306641
,dinner,0.9877550601959229
,meal,0.9849599599838257
,cheese,0.983953595161438
,appetizer,0.9838281273841858
,plate,0.9761096835136414
,dish,0.9712158441543579
,oil,0.9623413681983948
,delicious,0.9613582491874695
,bowl,0.9598801732063293
,grow,0.9567416906356812
,cos,0.9539233446121216
,onion,0.9517978429794312
,no person,0.9503667950630188
,healthy,0.9450064897537231
,tomato,0.9441020488739014
https://scontent.cdninstagram.com/t51.2885-15/e35/12070780_567525850087547_582398275_n.jpg,rice,0.9911137819290161
,no person,0.9908795356750488
,food,0.9870857000350952
,grow,0.9423322677612305
,traditional,0.9370448589324951
,bowl,0.9368176460266113
,homemade,0.928699791431427
,wood,0.9214876890182495
,dinner,0.9214083552360535
,lunch,0.9087867736816406
,still life,0.9084197878837585
,delicious,0.9066166877746582
,health,0.9031394720077515
,cooking,0.9019415378570557
,milk,0.8942844867706299
,hot,0.8777023553848267
,dish,0.8738749027252197
,vegetable,0.858580470085144
,breakfast,0.8515982031822205
,chicken,0.8475607633590698
https://scontent.cdninstagram.com/t51.2885-15/e35/12825808_1272719776078069_1608969288_n.jpg,soup,0.9987292885780334
,no person,0.9928483366966248
,bowl,0.9867441654205322
,broth,0.9866296052932739
,dinner,0.9847803115844727
,creamy,0.9816264510154724
,food,0.9760754108428955
,lunch,0.9745039939880371
,grow,0.9720007181167603
,carrot,0.9710264801979065
,homemade,0.9647238254547119
,parsley,0.9631561040878296
,cream,0.9568610191345215
,bread,0.9550483822822571
,vegetable,0.9486080408096313
,spoon,0.947985827922821
,appetizer,0.9438865184783936
,hot,0.9366413950920105
,delicious,0.926245391368866
,dish,0.9200332164764404
https://scontent.cdninstagram.com/t51.2885-15/e35/12519425_1057352927660180_1061673849_n.jpg,food,0.9991672039031982
,meat,0.9974007606506348
,bread,0.9963928461074829
,burger,0.9940825700759888
,beef,0.9931826591491699
,meal,0.9919979572296143
,lunch,0.9898677468299866
,dinner,0.9881627559661865
,sandwich,0.9863970875740051
,lettuce,0.9825921654701233
,bun,0.9791145324707031
,cheese,0.9787454605102539
,tomato,0.9784094095230103
,delicious,0.9779301881790161
,plate,0.9724332094192505
,refreshment,0.9720428586006165
,tasty,0.9716769456863403
,epicure,0.9619904160499573
,vegetable,0.9595266580581665
,cuisine,0.9559621810913086
https://scontent.cdninstagram.com/t51.2885-15/e15/10643836_1796943107185139_972181157_n.jpg,concert,0.9989529848098755
,music,0.9987779855728149
,performance,0.9978335499763489
,festival,0.9977824687957764
,stage,0.9955692291259766
,musician,0.9897279739379883
,singer,0.985612690448761
,band,0.9830137491226196
,club,0.9791208505630493
,people,0.9766736030578613
,audience,0.973125696182251
,spotlight,0.9693710207939148
,venue,0.9638736248016357
,rap,0.9587587118148804
,party,0.9577449560165405
,light,0.956591784954071
,rave,0.9519811272621155
,pop,0.9488491415977478
,dancing,0.9368413686752319
,crowd,0.9304271936416626
https://scontent.cdninstagram.com/t51.2885-15/e35/12071201_619927411488682_1385844478_n.jpg,food,0.9976714849472046
,dish,0.9917888045310974
,meal,0.9906219244003296
,dinner,0.98858243227005
,lunch,0.9879204034805298
,cuisine,0.9875094890594482
,plate,0.987038254737854
,cooking,0.9763177037239075
,meat,0.974436342716217
,delicious,0.9742611050605774
,traditional,0.9737498760223389
,appetizer,0.9678415060043335
,hot,0.9671574831008911
,vegetable,0.9665650129318237
,restaurant,0.965952455997467
,tasty,0.9657976627349854
,epicure,0.9631130695343018
,refreshment,0.9610887765884399
,bread,0.9563426971435547
,soup,0.9556238651275635
https://scontent.cdninstagram.com/t51.2885-15/e35/12825808_1272719776078069_1608969288_n.jpg,soup,0.9987292885780334
,no person,0.9928483366966248
,bowl,0.9867441654205322
,broth,0.9866296052932739
,dinner,0.9847803115844727
,creamy,0.9816264510154724
,food,0.9760754108428955
,lunch,0.9745039939880371
,grow,0.9720007181167603
,carrot,0.9710264801979065
,homemade,0.9647238254547119
,parsley,0.9631561040878296
,cream,0.9568610191345215
,bread,0.9550483822822571
,vegetable,0.9486080408096313
,spoon,0.947985827922821
,appetizer,0.9438865184783936
,hot,0.9366413950920105
,delicious,0.926245391368866
,dish,0.9200332164764404
https://scontent.cdninstagram.com/t51.2885-15/e35/12071205_974268979327062_1698776156_n.jpg,concert,0.9986528158187866
,music,0.9978268146514893
,club,0.9896764159202576
,performance,0.9896498918533325
,stage,0.9885730743408203
,festival,0.9876881241798401
,rave,0.9825628399848938
,club,0.973562479019165
,energy,0.9734054207801819
,light,0.9577189683914185
,band,0.9545315504074097
,singer,0.9531539678573608
,party,0.9424716234207153
,musician,0.9374298453330994
,dancing,0.9334424734115601
,disco,0.9302830696105957
,laser,0.899032473564148
,spotlight,0.8961837291717529
,explosion,0.895646870136261
,pop,0.891034722328186
https://scontent.cdninstagram.com/t51.2885-15/e35/12071205_974268979327062_1698776156_n.jpg,concert,0.9986528158187866
,music,0.9978268146514893
,club,0.9896764159202576
,performance,0.9896498918533325
,stage,0.9885730743408203
,festival,0.9876881241798401
,rave,0.9825628399848938
,club,0.973562479019165
,energy,0.9734054207801819
,light,0.9577189683914185
,band,0.9545315504074097
,singer,0.9531539678573608
,party,0.9424716234207153
,musician,0.9374298453330994
,dancing,0.9334424734115601
,disco,0.9302830696105957
,laser,0.899032473564148
,spotlight,0.8961837291717529
,explosion,0.895646870136261
,pop,0.891034722328186
https://scontent.cdninstagram.com/t51.2885-15/e35/12976276_155942694803531_48458872_n.jpg,food,0.9931939840316772
,breakfast,0.9862524271011353
,no person,0.9829896688461304
,delicious,0.9701656103134155
,coffee,0.9651294946670532
,hot,0.9642347097396851
,plate,0.9603428244590759
,lunch,0.9520240426063538
,dawn,0.9496639966964722
,bread,0.9409139156341553
,traditional,0.9402849674224854
,meal,0.9381951093673706
,dinner,0.9265932440757751
,refreshment,0.9176722168922424
,restaurant,0.9019076824188232
,pastry,0.8848417401313782
,drink,0.8847665786743164
,table,0.8782870769500732
,still life,0.8756154775619507
,dish,0.8739633560180664
https://scontent.cdninstagram.com/t51.2885-15/e35/13320072_1726709034267066_1475804338_n.jpg,room,0.9864640831947327
,table,0.9791200160980225
,furniture,0.9736975431442261
,indoors,0.9681958556175232
,window,0.9564588665962219
,inside,0.9540373682975769
,house,0.9415202140808105
,contemporary,0.9249050617218018
,family,0.920252799987793
,luxury,0.9184204339981079
,interior design,0.9177228212356567
,chair,0.9168761968612671
,lamp,0.9117809534072876
,apartment,0.9011163711547852
,home,0.894072413444519
,no person,0.89377760887146
,modern,0.8932271003723145
,wood,0.8724223375320435
,seat,0.8698365688323975
,architecture,0.8458832502365112
>>>>>>> origin/dev-billy-neuro
