URL,CLASS,SCORE,PASSION,INTEREST
https://scontent.cdninstagram.com/t51.2885-15/e35/13398566_1814968428739123_1207845549_n.jpg?ig_cache_key=MTI3NjU3NzY1OTk1MDQwMjU4OA%3D%3D.2,tree,0.9892066121101379,architecture,,
,"no person",0.984978437423706,,,
,city,0.9685875177383423,,,
,architecture,0.9680669903755188,,,
,leaf,0.964626669883728,,,
,outdoors,0.9560832381248474,,,
,travel,0.9491640329360962,,,
,building,0.9444563388824463,,,
,park,0.916541576385498,,,
,daylight,0.901584267616272,,,
,sky,0.8889354467391968,,,
,nature,0.8704053163528442,,,
,cityscape,0.8603012561798096,,,
,skyscraper,0.8551971316337585,,,
,fall,0.8550164103507996,,,
,urban,0.8398909568786621,,,
,downtown,0.8375017642974854,,,
,flora,0.8357060551643372,,,
,skyline,0.8239403963088989,,,
,light,0.8212723731994629,,,
https://scontent.cdninstagram.com/t51.2885-15/e35/13388655_1649360095387511_1485840662_n.jpg?ig_cache_key=MTI3OTUyMTYwNjUxOTQwNzA1MA%3D%3D.2,"no person",0.9688507318496704,architecture,,
,architecture,0.9521198868751526,,,
,house,0.9479119777679443,,,
,wood,0.9357032775878906,,,
,travel,0.9304313659667969,,,
,building,0.9299160242080688,,,
,road,0.9226863384246826,,,
,street,0.9215414524078369,,,
,urban,0.8821823596954346,,,
,old,0.8735654354095459,,,
,outdoors,0.8687648773193359,,,
,family,0.867211103439331,,,
,empty,0.8573751449584961,,,
,"transportation system",0.8471217751502991,,,
,bench,0.834081768989563,,,
,daylight,0.8113965392112732,,,
,vintage,0.8000527024269104,,,
,abandoned,0.7962898015975952,,,
,room,0.7935497760772705,,,
,expression,0.7932203412055969,,,
https://scontent.cdninstagram.com/t51.2885-15/e35/13256736_269699136751443_591894273_n.jpg?ig_cache_key=MTI1MzMyMTM4NTMwNTY0MDAxMw%3D%3D.2,summer,0.9649755358695984,travel,,
,travel,0.9648579359054565,,,
,outdoors,0.9613391757011414,,,
,people,0.9573882818222046,,,
,leisure,0.9501451849937439,,,
,tropical,0.9285367727279663,,,
,recreation,0.9283908605575562,,,
,woman,0.9241070747375488,,,
,road,0.9227858185768127,,,
,tree,0.9182469844818115,,,
,palm,0.903437077999115,,,
,relaxation,0.902754008769989,,,
,nature,0.8865142464637756,,,
,vacation,0.880010724067688,,,
,"fair weather",0.8612034320831299,,,
,one,0.8568724393844604,,,
,street,0.8549677729606628,,,
,adult,0.8526188135147095,,,
,tourism,0.8306640386581421,,,
,shopping,0.8150860071182251,,,
https://scontent.cdninstagram.com/t51.2885-15/e35/13391233_790320111068285_1086631978_n.jpg?ig_cache_key=MTI3NjQyMTIyNjM4NjYyNDE1OA%3D%3D.2,dog,0.9822356700897217,pets,,
,animal,0.9743831157684326,,,
,street,0.966431200504303,,,
,mammal,0.9560571312904358,,,
,people,0.9556217193603516,,,
,cat,0.9506343007087708,,,
,wait,0.9502027630805969,,,
,child,0.9469922780990601,,,
,portrait,0.9389886856079102,,,
,family,0.9334074258804321,,,
,two,0.929571270942688,,,
,woman,0.9240590333938599,,,
,pet,0.9231760501861572,,,
,indoors,0.910038948059082,,,
,one,0.900536060333252,,,
,"no person",0.8997383117675781,,,
,cute,0.8899075984954834,,,
,pavement,0.8864336013793945,,,
,travel,0.8860210180282593,,,
,sit,0.8693321347236633,,,
https://scontent.cdninstagram.com/t51.2885-15/e15/13098993_951155595002938_663569628_n.jpg?ig_cache_key=MTI0NDYzMTcwNTkxMTQ5NjY0Ng%3D%3D.2,girl,0.9909543991088867,fashion,,
,portrait,0.9901951551437378,,,
,child,0.9872980713844299,,,
,people,0.9774639010429382,,,
,face,0.9754625558853149,,,
,woman,0.9678089618682861,,,
,one,0.9675097465515137,,,
,cute,0.9638913869857788,,,
,"facial expression",0.9516425132751465,,,
,happiness,0.9306355714797974,,,
,eye,0.9128789901733398,,,
,innocence,0.9077161550521851,,,
,adult,0.9067184925079346,,,
,pretty,0.8857423067092896,,,
,boy,0.8852457404136658,,,
,skin,0.8767139911651611,,,
,fun,0.874994158744812,,,
,health,0.854081928730011,,,
,enjoyment,0.8530253171920776,,,
,brunette,0.8497620820999146,,,
https://scontent.cdninstagram.com/t51.2885-15/e35/13117955_1045560568847691_791554553_n.jpg?ig_cache_key=MTI0NzUxOTcwMzkxMzEzOTk4NA%3D%3D.2,tree,0.9942742586135864,photography,,
,nature,0.9918162226676941,,,
,"no person",0.98822021484375,,,
,wood,0.9881500005722046,,,
,leaf,0.9826874732971191,,,
,landscape,0.9825537204742432,,,
,sky,0.976124107837677,,,
,outdoors,0.9735649824142456,,,
,summer,0.9690366983413696,,,
,environment,0.9556599855422974,,,
,"fair weather",0.9472963809967041,,,
,park,0.9432128667831421,,,
,lush,0.9387514591217041,,,
,scenic,0.9252446293830872,,,
,flora,0.9165787696838379,,,
,bright,0.9115073084831238,,,
,travel,0.9047201871871948,,,
,branch,0.9046134352684021,,,
,daylight,0.8978412747383118,,,
,sun,0.8947257995605469,,,
https://scontent.cdninstagram.com/t51.2885-15/e35/13402547_1223635664343079_1353909624_n.jpg?ig_cache_key=MTI3NzE4ODQyMTk1NzkxNDAxNA%3D%3D.2,portrait,0.9917411208152771,fashion,,
,woman,0.9910722970962524,,,
,people,0.9879411458969116,,,
,girl,0.9802065491676331,,,
,one,0.9449425935745239,,,
,indoors,0.9437283277511597,,,
,adult,0.9388764500617981,,,
,fashion,0.9045473337173462,,,
,model,0.899833083152771,,,
,smile,0.8968585729598999,,,
,pretty,0.8910093307495117,,,
,"facial expression",0.8909238576889038,,,
,child,0.8613271713256836,,,
,wear,0.8605910539627075,,,
,adolescent,0.8561190366744995,,,
,happiness,0.8445845246315002,,,
,beautiful,0.8275747895240784,,,
,cute,0.8188756704330444,,,
,young,0.813424825668335,,,
,face,0.7594237923622131,,,
https://scontent.cdninstagram.com/t51.2885-15/e35/13257133_1731934113720341_876898469_n.jpg?ig_cache_key=MTI1MzI2ODExNDIxMzg5OTg4Ng%3D%3D.2,travel,0.9830389022827148,architecture,,
,city,0.9687462449073792,,,
,building,0.9666258096694946,,,
,tourism,0.9634649157524109,,,
,street,0.9633312821388245,,,
,architecture,0.9603655338287354,,,
,urban,0.9473413228988647,,,
,tree,0.9444221258163452,,,
,sky,0.9415212869644165,,,
,umbrella,0.9410474300384521,,,
,vacation,0.9374923706054688,,,
,hotel,0.9374629259109497,,,
,"no person",0.9349449276924133,,,
,tourist,0.932030975818634,,,
,modern,0.9251610040664673,,,
,water,0.9202232360839844,,,
,outdoors,0.9146344661712646,,,
,light,0.891218900680542,,,
,resort,0.8894748687744141,,,
,house,0.870240330696106,,,
https://scontent.cdninstagram.com/t51.2885-15/s750x750/sh0.08/e35/13408848_1558406944460966_1348985409_n.jpg?ig_cache_key=MTI3NjU1NjcxMTcyNTU2NzQxNA%3D%3D.2,sky,0.9965556263923645,photography,,
,weather,0.9920000433921814,,,
,nature,0.9881339073181152,,,
,"fair weather",0.9875349402427673,,,
,sun,0.9826198220252991,,,
,outdoors,0.9821801781654358,,,
,"no person",0.9805905222892761,,,
,landscape,0.9786828756332397,,,
,light,0.978501558303833,,,
,cloud,0.9759694337844849,,,
,daylight,0.9744353294372559,,,
,Heaven,0.9738140106201172,,,
,summer,0.9727787971496582,,,
,meteorology,0.9574399590492249,,,
,cloudy,0.9555165767669678,,,
,storm,0.9545458555221558,,,
,scenic,0.9515872597694397,,,
,rain,0.9438873529434204,,,
,atmosphere,0.9198087453842163,,,
,cloudscape,0.9188404679298401,,,
https://scontent.cdninstagram.com/t51.2885-15/e35/13129906_1706073562975665_320084275_n.jpg?ig_cache_key=MTI0NDUxNTg4MjI2MTc0NTYwNg%3D%3D.2,people,0.9979469776153564,entertainment,,
,one,0.9807018041610718,,,
,adult,0.9752589464187622,,,
,wear,0.9610270261764526,,,
,portrait,0.9434552192687988,,,
,"facial expression",0.9299730658531189,,,
,child,0.9021072387695312,,,
,man,0.8364144563674927,,,
,painting,0.8241935968399048,,,
,nude,0.7986688613891602,,,
,shirtless,0.786735475063324,,,
,boy,0.7686059474945068,,,
,fame,0.7500076293945312,,,
,youth,0.697161853313446,,,
,girl,0.6741509437561035,,,
,adolescent,0.67255699634552,,,
,"side view",0.6711361408233643,,,
,light,0.6582691669464111,,,
,brunette,0.6563286781311035,,,
,art,0.6542966365814209,,,
https://scontent.cdninstagram.com/t51.2885-15/e35/13117919_838931056234874_1767695826_n.jpg?ig_cache_key=MTI0NDEyNzMxOTExMjIyNDU4NA%3D%3D.2,city,0.9740403890609741,architecture,,
,"no person",0.9565541744232178,,,
,travel,0.951135516166687,,,
,hotel,0.9486511945724487,,,
,modern,0.9470692873001099,,,
,architecture,0.9411138296127319,,,
,downtown,0.932533860206604,,,
,outdoors,0.93178391456604,,,
,cityscape,0.9307903051376343,,,
,daylight,0.9242221117019653,,,
,building,0.9213717579841614,,,
,sky,0.9181526899337769,,,
,skyline,0.909003734588623,,,
,business,0.9028409123420715,,,
,skyscraper,0.8939432501792908,,,
,tourism,0.8924165964126587,,,
,water,0.8832520246505737,,,
,urban,0.8776595592498779,,,
,office,0.8556790351867676,,,
,sight,0.8481912612915039,,,
https://scontent.cdninstagram.com/t51.2885-15/s750x750/sh0.08/e35/13398767_1717378395191537_302480028_n.jpg?ig_cache_key=MTI3OTcxMjM1NjM2ODQzMTI1Mw%3D%3D.2,nature,0.9920860528945923,photography,,
,water,0.9830982685089111,,,
,tropical,0.9772416353225708,,,
,leaf,0.9727539420127869,,,
,flora,0.9639318585395813,,,
,"no person",0.9591055512428284,,,
,environment,0.9564578533172607,,,
,outdoors,0.9516746997833252,,,
,tree,0.9408191442489624,,,
,exotic,0.9232559204101562,,,
,wildlife,0.917404055595398,,,
,beautiful,0.9158779382705688,,,
,garden,0.9095913171768188,,,
,summer,0.9079583287239075,,,
,wood,0.9045199155807495,,,
,color,0.8984998464584351,,,
,bird,0.8933137059211731,,,
,park,0.8922576904296875,,,
,wild,0.8830854892730713,,,
,river,0.8734582662582397,,,
https://scontent.cdninstagram.com/t51.2885-15/s750x750/sh0.08/e35/13117794_1130077440346320_1154656683_n.jpg?ig_cache_key=MTI0ODIxNzk4NDMwMTQ2OTI4OQ%3D%3D.2,people,0.9946486949920654,relationships,,
,adult,0.9881469011306763,,,
,group,0.9779630899429321,,,
,portrait,0.9766902923583984,,,
,"facial expression",0.9764754772186279,,,
,woman,0.9705690145492554,,,
,three,0.9514318704605103,,,
,two,0.9492843151092529,,,
,man,0.9485294818878174,,,
,wear,0.9298404455184937,,,
,music,0.9213017225265503,,,
,indoors,0.9156240224838257,,,
,musician,0.9057305455207825,,,
,room,0.9050489664077759,,,
,singer,0.8917012214660645,,,
,group,0.8776912689208984,,,
,recreation,0.8770760297775269,,,
,four,0.876474142074585,,,
,interaction,0.8711634278297424,,,
,election,0.8674390316009521,,,
https://scontent.cdninstagram.com/t51.2885-15/s640x640/sh0.08/e35/13150797_732792083529970_883639878_n.jpg?ig_cache_key=MTI1MDU4NzUwNjI0MTExMzQ2OA%3D%3D.2,furniture,0.9965372681617737,design,,
,table,0.9959030747413635,,,
,"interior design",0.993398129940033,,,
,room,0.9928610324859619,,,
,indoors,0.9843504428863525,,,
,home,0.9803407192230225,,,
,bar,0.9792481660842896,,,
,seat,0.9787231683731079,,,
,chair,0.9768955707550049,,,
,"no person",0.9695554971694946,,,
,restaurant,0.9694970846176147,,,
,house,0.9550075531005859,,,
,"dining room",0.9503172636032104,,,
,window,0.9194869995117188,,,
,tableware,0.9138914346694946,,,
,stool,0.9110574722290039,,,
,dining,0.9074851274490356,,,
,shelf,0.8937090039253235,,,
,"place setting",0.8908282518386841,,,
,architecture,0.8768202066421509,,,
https://scontent.cdninstagram.com/t51.2885-15/e35/13398994_1243354265699272_1919041287_n.jpg?ig_cache_key=MTI3NDcyNzI5NDMyMTc1NzgwNw%3D%3D.2,people,0.9919285178184509,relationships,,
,child,0.9834010601043701,,,
,woman,0.9812887907028198,,,
,adult,0.9802706241607666,,,
,group,0.9771459698677063,,,
,two,0.9737884998321533,,,
,portrait,0.9729089140892029,,,
,"facial expression",0.9608161449432373,,,
,wear,0.9606555700302124,,,
,enjoyment,0.9518331289291382,,,
,daylight,0.9492650628089905,,,
,girl,0.9390491247177124,,,
,interaction,0.9382595419883728,,,
,festival,0.9285919666290283,,,
,happiness,0.9224186539649963,,,
,three,0.9158830642700195,,,
,offspring,0.9047481417655945,,,
,recreation,0.8974663615226746,,,
,education,0.8836443424224854,,,
,room,0.8759825825691223,,,
https://scontent.cdninstagram.com/t51.2885-15/e35/13113761_215114538875783_89735968_n.jpg?ig_cache_key=MTI1MzM0OTI2NTk4NTE3OTQ0Mw%3D%3D.2,woman,0.9912530779838562,relationships,,
,"facial expression",0.9871060848236084,,,
,togetherness,0.9790830612182617,,,
,people,0.9677692651748657,,,
,portrait,0.9654257297515869,,,
,man,0.9639151096343994,,,
,wear,0.9626558423042297,,,
,indoors,0.9552356004714966,,,
,enjoyment,0.9539691209793091,,,
,two,0.9525220990180969,,,
,interaction,0.9389863014221191,,,
,adult,0.9374172687530518,,,
,daylight,0.9275096654891968,,,
,adolescent,0.9088257551193237,,,
,happiness,0.9022098779678345,,,
,affection,0.8993610739707947,,,
,friendship,0.8975130319595337,,,
,leisure,0.8923114538192749,,,
,child,0.8840545415878296,,,
,group,0.8821628093719482,,,
https://scontent.cdninstagram.com/t51.2885-15/e35/13414285_900303113407713_1906944305_n.jpg?ig_cache_key=MTI3OTEyMjY3NDQ4MDI1NDk3MQ%3D%3D.2,car,0.9930232763290405,architecture,,
,street,0.9922431111335754,,,
,road,0.9889034032821655,,,
,city,0.9870986938476562,,,
,travel,0.9820322394371033,,,
,building,0.9803425073623657,,,
,urban,0.9793158173561096,,,
,"transportation system",0.967434823513031,,,
,vehicle,0.9655028581619263,,,
,architecture,0.9630421996116638,,,
,modern,0.9608299732208252,,,
,daylight,0.9498302936553955,,,
,town,0.9421122074127197,,,
,traffic,0.9409036040306091,,,
,sky,0.9268388748168945,,,
,outdoors,0.9255670309066772,,,
,tourism,0.9216479063034058,,,
,business,0.9209316968917847,,,
,stock,0.8927514553070068,,,
,commerce,0.8774540424346924,,,
https://scontent.cdninstagram.com/t51.2885-15/e35/13166967_179663205765980_1639259273_n.jpg?ig_cache_key=MTI0ODA1MjU0MTk4NTA2Njc4Nw%3D%3D.2,people,0.99144446849823,relationships,,
,two,0.9904553890228271,,,
,woman,0.9902483224868774,,,
,adult,0.9860111474990845,,,
,"facial expression",0.9856518507003784,,,
,portrait,0.9847472906112671,,,
,wear,0.9652997255325317,,,
,togetherness,0.9588222503662109,,,
,girl,0.9527191519737244,,,
,interaction,0.9518662095069885,,,
,love,0.950709879398346,,,
,happiness,0.9473524689674377,,,
,enjoyment,0.9279220104217529,,,
,man,0.9270955920219421,,,
,child,0.9248479604721069,,,
,affection,0.9001720547676086,,,
,friendship,0.8872818946838379,,,
,romance,0.870993971824646,,,
,indoors,0.8625912666320801,,,
,brunette,0.8555440306663513,,,
https://scontent.cdninstagram.com/t51.2885-15/e35/13256934_1090295021044328_697428127_n.jpg?ig_cache_key=MTI1Mjg5ODk0MzczOTMwMTg4MA%3D%3D.2,people,0.9949615001678467,,,
,adult,0.9777520895004272,,,
,vehicle,0.975969135761261,,,
,restaurant,0.9540122747421265,,,
,bar,0.9525839686393738,,,
,travel,0.9315515756607056,,,
,music,0.9286767244338989,,,
,portrait,0.9269553422927856,,,
,woman,0.9252193570137024,,,
,"transportation system",0.9237532615661621,,,
,group,0.9186899065971375,,,
,light,0.9140691161155701,,,
,city,0.8980465531349182,,,
,street,0.896070659160614,,,
,festival,0.8833274841308594,,,
,car,0.8789447546005249,,,
,indoors,0.8725485801696777,,,
,recreation,0.8710752725601196,,,
,one,0.8619024157524109,,,
,commerce,0.8602355122566223,,,
https://scontent.cdninstagram.com/t51.2885-15/e35/13129733_215645042154402_1484683841_n.jpg?ig_cache_key=MTI0MzQ2NzQxMTAxODY4MjA2NA%3D%3D.2,child,0.995832085609436,fashion,,
,outdoors,0.9902309775352478,,,
,fall,0.9829065203666687,,,
,people,0.9699999094009399,,,
,nature,0.9658228158950806,,,
,one,0.9576549530029297,,,
,wear,0.9422099590301514,,,
,leisure,0.935537576675415,,,
,little,0.9354031085968018,,,
,portrait,0.9351241588592529,,,
,fun,0.9310610294342041,,,
,park,0.9205441474914551,,,
,cute,0.9161796569824219,,,
,youth,0.9121290445327759,,,
,happiness,0.9006077647209167,,,
,daylight,0.8980578780174255,,,
,joy,0.8968452215194702,,,
,boy,0.8826690316200256,,,
,enjoyment,0.8798542022705078,,,
,winter,0.8730279803276062,,,
https://scontent.cdninstagram.com/t51.2885-15/e35/13129318_1095392817184237_1478852401_n.jpg?ig_cache_key=MTI0ODA1NjI0MzYzNDUwNzY3OQ%3D%3D.2,tree,0.9940690398216248,photography,,
,"no person",0.988070011138916,,,
,street,0.9812415242195129,,,
,light,0.9772124886512756,,,
,people,0.9555155038833618,,,
,city,0.9461967945098877,,,
,travel,0.939289391040802,,,
,winter,0.9381712079048157,,,
,road,0.9307352900505066,,,
,dark,0.9254543781280518,,,
,park,0.9209988713264465,,,
,landscape,0.91368567943573,,,
,outdoors,0.9104239344596863,,,
,home,0.9073459506034851,,,
,building,0.9047471284866333,,,
,evening,0.8951413631439209,,,
,fall,0.8937414288520813,,,
,urban,0.8928572535514832,,,
,storm,0.8849960565567017,,,
,water,0.8680278062820435,,,
https://scontent.cdninstagram.com/t51.2885-15/e35/13398850_1633458450308930_2024139065_n.jpg?ig_cache_key=MTI3MzA5MjIyOTI0NjQyMjY5NQ%3D%3D.2,palm,0.9985675811767578,travel,,
,tree,0.9862661361694336,,,
,"no person",0.9836938381195068,,,
,beach,0.9834253787994385,,,
,tropical,0.9817630648612976,,,
,travel,0.9751160740852356,,,
,vacation,0.9746437072753906,,,
,coconut,0.9706289768218994,,,
,island,0.9697073698043823,,,
,resort,0.9675240516662598,,,
,exotic,0.9647849798202515,,,
,seashore,0.9638065695762634,,,
,paradise,0.9556085467338562,,,
,frond,0.9464095830917358,,,
,ocean,0.9426742792129517,,,
,summer,0.9425159692764282,,,
,hotel,0.9334512948989868,,,
,sky,0.9327967762947083,,,
,tourism,0.9188305139541626,,,
,sand,0.9101450443267822,,,
https://scontent.cdninstagram.com/t51.2885-15/e35/13381431_610264745802875_1639192555_n.jpg?ig_cache_key=MTI2NjY2ODUzOTc1OTc1OTA5Ng%3D%3D.2,tree,0.9915708303451538,photography,,
,"no person",0.9818321466445923,,,
,road,0.9802893400192261,,,
,landscape,0.9709285497665405,,,
,travel,0.9688106775283813,,,
,environment,0.9619025588035583,,,
,outdoors,0.9615373611450195,,,
,daylight,0.9468014240264893,,,
,park,0.9420009851455688,,,
,sky,0.9372183680534363,,,
,street,0.9230085611343384,,,
,weather,0.9202696084976196,,,
,nature,0.9057531356811523,,,
,light,0.9019849300384521,,,
,rain,0.8975956439971924,,,
,summer,0.8937946557998657,,,
,wood,0.8931686878204346,,,
,city,0.8778178691864014,,,
,storm,0.870069682598114,,,
,building,0.8579909801483154,,,
https://scontent.cdninstagram.com/t51.2885-15/e35/13277777_136234346791881_1440370749_n.jpg?ig_cache_key=MTI1ODYyMTgwNzAyOTMyNTA3Mg%3D%3D.2,city,0.9925470948219299,architecture,,
,business,0.9848942756652832,,,
,building,0.9845353364944458,,,
,skyscraper,0.9834112524986267,,,
,architecture,0.9794058799743652,,,
,office,0.9740341901779175,,,
,downtown,0.9636052846908569,,,
,urban,0.9622304439544678,,,
,"no person",0.9617551565170288,,,
,travel,0.9597989320755005,,,
,modern,0.957332968711853,,,
,sky,0.9545373916625977,,,
,skyline,0.9517192840576172,,,
,cityscape,0.9496445655822754,,,
,finance,0.9361226558685303,,,
,street,0.9284459352493286,,,
,outdoors,0.9207149744033813,,,
,reflection,0.908998966217041,,,
,tower,0.8673924207687378,,,
,glass,0.858451783657074,,,
https://scontent.cdninstagram.com/t51.2885-15/e35/13298044_888500621278515_1053431423_n.jpg?ig_cache_key=MTI1Nzc1OTQ3NTcyNjIyNTM1Mg%3D%3D.2,"no person",0.9871148467063904,food,,
,food,0.9781575202941895,,,
,market,0.9597300291061401,,,
,sell,0.9444629549980164,,,
,people,0.9294980764389038,,,
,presentation,0.9212290644645691,,,
,traditional,0.9166336059570312,,,
,cooking,0.91157066822052,,,
,indoors,0.9039780497550964,,,
,delicious,0.9033893346786499,,,
,flame,0.9012365937232971,,,
,stall,0.8896865844726562,,,
,fruit,0.8855456113815308,,,
,stock,0.8746389150619507,,,
,restaurant,0.8654327392578125,,,
,sale,0.8653756380081177,,,
,shopping,0.8639754056930542,,,
,outdoors,0.8629499077796936,,,
,many,0.8625473976135254,,,
,dinner,0.8559144735336304,,,
https://scontent.cdninstagram.com/t51.2885-15/e15/13256916_507683299417156_53409726_n.jpg?ig_cache_key=MTI1NzY5MTY5NDYwNzU2ODM4NQ%3D%3D.2,portrait,0.987104058265686,fashion,,
,woman,0.9712786674499512,,,
,"facial expression",0.9698915481567383,,,
,people,0.969279408454895,,,
,adult,0.9576891660690308,,,
,indoors,0.9552940726280212,,,
,happiness,0.9454035758972168,,,
,enjoyment,0.9097475409507751,,,
,one,0.9055614471435547,,,
,wear,0.8957039713859558,,,
,child,0.8854961395263672,,,
,satisfaction,0.8532281517982483,,,
,relaxation,0.8369563817977905,,,
,cute,0.8273661136627197,,,
,vertical,0.8188591003417969,,,
,fashion,0.7913280129432678,,,
,looking,0.7901785373687744,,,
,joy,0.7869560718536377,,,
,man,0.78147292137146,,,
,fun,0.7732892036437988,,,
https://scontent.cdninstagram.com/t51.2885-15/e35/13167201_278902465788961_1109000485_n.jpg?ig_cache_key=MTI1MzY0MTc5MzQxNDMwMzI4Ng%3D%3D.2,indoors,0.9835360050201416,relationships,,
,airport,0.9761006832122803,,,
,stock,0.9686744809150696,,,
,people,0.9682873487472534,,,
,shopping,0.9644461870193481,,,
,commerce,0.9609698057174683,,,
,city,0.958290696144104,,,
,business,0.9416571259498596,,,
,luggage,0.9339300990104675,,,
,street,0.9318487644195557,,,
,tube,0.9005546569824219,,,
,exhibition,0.897799015045166,,,
,museum,0.8922544717788696,,,
,room,0.8918268084526062,,,
,telephone,0.8772869110107422,,,
,woman,0.87107253074646,,,
,prosperity,0.8646437525749207,,,
,man,0.8456896543502808,,,
,blur,0.820402979850769,,,
,commuter,0.8098956942558289,,,
https://scontent.cdninstagram.com/t51.2885-15/e35/13259116_644543725694000_446473614_n.jpg?ig_cache_key=MTI1NzgyNjI4MzMxMzM2ODMyNQ%3D%3D.2,woman,0.9867477416992188,relationships,,
,people,0.9832391142845154,,,
,adult,0.9696231484413147,,,
,girl,0.9670197367668152,,,
,portrait,0.9667506217956543,,,
,"facial expression",0.9453885555267334,,,
,indoors,0.9381697177886963,,,
,happiness,0.9299525618553162,,,
,two,0.9034183025360107,,,
,man,0.8719812035560608,,,
,wear,0.8521149158477783,,,
,business,0.8517394065856934,,,
,technology,0.8474811315536499,,,
,fashion,0.8444557189941406,,,
,model,0.8397844433784485,,,
,telephone,0.8367632627487183,,,
,enjoyment,0.8277404308319092,,,
,room,0.8256595134735107,,,
,movie,0.8203268051147461,,,
,looking,0.8172581195831299,,,
https://scontent.cdninstagram.com/t51.2885-15/e35/13256806_1602522003394705_778468104_n.jpg?ig_cache_key=MTI1MzYzNjI4ODA4ODMxMzE5OA%3D%3D.2,furniture,0.997767448425293,design,,
,room,0.9971675872802734,,,
,seat,0.9959281086921692,,,
,table,0.9952964186668396,,,
,indoors,0.9923102855682373,,,
,"interior design",0.9890832901000977,,,
,home,0.9858886003494263,,,
,chair,0.9855995178222656,,,
,restaurant,0.9845936298370361,,,
,"no person",0.9843969345092773,,,
,bar,0.9810604453086853,,,
,shelf,0.9695848226547241,,,
,inside,0.9393775463104248,,,
,library,0.9319101572036743,,,
,stock,0.924065351486206,,,
,architecture,0.898205041885376,,,
,bookcase,0.8977679014205933,,,
,stool,0.8940814733505249,,,
,hotel,0.8888760805130005,,,
,house,0.8855922222137451,,,
https://scontent.cdninstagram.com/t51.2885-15/e35/13249928_241057599592968_2033406687_n.jpg?ig_cache_key=MTI1ODcyMjg1MzI4MjA1NzY1Mg%3D%3D.2,city,0.9951318502426147,architecture,,
,building,0.993446946144104,,,
,skyscraper,0.9916940331459045,,,
,architecture,0.9843427538871765,,,
,downtown,0.9808828830718994,,,
,skyline,0.9747840166091919,,,
,cityscape,0.9724144339561462,,,
,evening,0.9667119979858398,,,
,light,0.9650242328643799,,,
,street,0.9646605849266052,,,
,urban,0.9639523029327393,,,
,business,0.9634712934494019,,,
,travel,0.9614880084991455,,,
,dusk,0.9380476474761963,,,
,tower,0.9362032413482666,,,
,office,0.9246742725372314,,,
,road,0.9147862195968628,,,
,people,0.9034830927848816,,,
,"no person",0.8903402090072632,,,
,group,0.8664441704750061,,,
https://scontent.cdninstagram.com/t51.2885-15/e35/13297993_1635436506781571_59202406_n.jpg?ig_cache_key=MTI2MzA3NTI3OTc1NzgzOTk1MA%3D%3D.2,festival,0.9856299161911011,celebration,,
,Christmas,0.9795505404472351,,,
,celebration,0.9748421907424927,,,
,light,0.9745402336120605,,,
,music,0.9569292068481445,,,
,landscape,0.945478081703186,,,
,city,0.9414629340171814,,,
,people,0.9374421834945679,,,
,evening,0.9374235272407532,,,
,street,0.9136867523193359,,,
,performance,0.9079715013504028,,,
,travel,0.9012462496757507,,,
,concert,0.8915315866470337,,,
,shopping,0.8855342864990234,,,
,building,0.881912112236023,,,
,blur,0.8791876435279846,,,
,party,0.8606728315353394,,,
,casino,0.8591228723526001,,,
,many,0.8575706481933594,,,
,"no person",0.8561620712280273,,,
https://scontent.cdninstagram.com/t51.2885-15/e35/13261075_136967820051693_1944639752_n.jpg?ig_cache_key=MTI1OTIzMTU4NTU4MTYwMDA1Nw%3D%3D.2,sky,0.9824881553649902,architecture,,
,travel,0.9743705987930298,,,
,"no person",0.972610354423523,,,
,architecture,0.9424797296524048,,,
,outdoors,0.9423335194587708,,,
,city,0.9352734684944153,,,
,hotel,0.9343671798706055,,,
,business,0.932175874710083,,,
,landscape,0.9248092174530029,,,
,building,0.9161794185638428,,,
,summer,0.8906427621841431,,,
,downtown,0.8868938088417053,,,
,sun,0.8821482062339783,,,
,skyscraper,0.872043251991272,,,
,finance,0.8445291519165039,,,
,tallest,0.839704155921936,,,
,skyline,0.8392467498779297,,,
,tourism,0.8351947069168091,,,
,"fair weather",0.8347176909446716,,,
,cloud,0.8278071880340576,,,
https://scontent.cdninstagram.com/t51.2885-15/e35/13258843_481921142010648_1521049297_n.jpg?ig_cache_key=MTI1ODY0NDc2MjExMTE4NDc5Mw%3D%3D.2,people,0.9938827753067017,relationships,,
,adult,0.9869030714035034,,,
,woman,0.9862266778945923,,,
,portrait,0.9765892028808594,,,
,room,0.9647338390350342,,,
,group,0.9633209705352783,,,
,indoors,0.9588848352432251,,,
,"facial expression",0.9525820016860962,,,
,furniture,0.9484342336654663,,,
,girl,0.9395833015441895,,,
,two,0.9252594113349915,,,
,wear,0.9105883836746216,,,
,music,0.8990491032600403,,,
,table,0.8971308469772339,,,
,vehicle,0.8969574570655823,,,
,restaurant,0.8913482427597046,,,
,man,0.8855928182601929,,,
,employee,0.8791649341583252,,,
,chair,0.866887629032135,,,
,recreation,0.8665506839752197,,,
https://scontent.cdninstagram.com/t51.2885-15/e15/13261024_1198315513526206_1737203597_n.jpg?ig_cache_key=MTI1ODc2MDI3MjIxOTkzNDY1NA%3D%3D.2,people,0.9987636804580688,,,
,portrait,0.99770188331604,,,
,adult,0.9904253482818604,,,
,one,0.9869713187217712,,,
,"facial expression",0.9787325859069824,,,
,wear,0.9682722091674805,,,
,man,0.9628878831863403,,,
,light,0.9276123046875,,,
,blur,0.9198421239852905,,,
,"side view",0.9063165187835693,,,
,musician,0.9034403562545776,,,
,music,0.9021008014678955,,,
,offense,0.8912711143493652,,,
,profile,0.8852663040161133,,,
,indoors,0.8810445070266724,,,
,singer,0.8757432103157043,,,
,jacket,0.8745011687278748,,,
,window,0.8484722971916199,,,
,confidence,0.8329611420631409,,,
,outfit,0.8185180425643921,,,
https://scontent.cdninstagram.com/t51.2885-15/s750x750/sh0.08/e35/13398374_1772237996345605_418388560_n.jpg?ig_cache_key=MTI3MjQ5OTA2MTI1MzY3Mjg5MQ%3D%3D.2,water,0.9952600002288818,architecture,,
,river,0.9941622614860535,,,
,city,0.9914147853851318,,,
,travel,0.9911995530128479,,,
,cityscape,0.9793781042098999,,,
,architecture,0.9782341718673706,,,
,evening,0.9761589765548706,,,
,building,0.9755956530570984,,,
,harbor,0.974354088306427,,,
,skyline,0.974210798740387,,,
,skyscraper,0.9726772308349609,,,
,sunset,0.9705656170845032,,,
,dusk,0.9705065488815308,,,
,waterfront,0.9690431356430054,,,
,"no person",0.9662938714027405,,,
,reflection,0.962213397026062,,,
,"transportation system",0.9613049030303955,,,
,sky,0.9596877098083496,,,
,urban,0.9533858299255371,,,
,downtown,0.9504269361495972,,,
https://scontent.cdninstagram.com/l/t51.2885-15/e35/13181392_1289080581119745_1864767793_n.jpg?ig_cache_key=MTI1MzY2NzcxMTkyMjkzMzE5OA%3D%3D.2,woman,0.9775514602661133,relationships,,
,people,0.9768739938735962,,,
,enjoyment,0.9728825092315674,,,
,recreation,0.9564241170883179,,,
,wear,0.9513052701950073,,,
,fun,0.9504207372665405,,,
,group,0.9345925450325012,,,
,group,0.9201860427856445,,,
,adult,0.9187299609184265,,,
,two,0.911384105682373,,,
,friendship,0.9061408042907715,,,
,"facial expression",0.9044798612594604,,,
,festival,0.8959855437278748,,,
,man,0.8895701169967651,,,
,three,0.8764326572418213,,,
,music,0.8746633529663086,,,
,drink,0.8733826279640198,,,
,child,0.8631948828697205,,,
,four,0.851719856262207,,,
,togetherness,0.8367000818252563,,,
https://scontent.cdninstagram.com/t51.2885-15/e35/13277693_1044967005551460_548132007_n.jpg?ig_cache_key=MTI2MzA4MzM1MjY2MDU3ODE3OA%3D%3D.2,"facial expression",0.9961463809013367,relationships,,
,people,0.9918091297149658,,,
,adult,0.986615777015686,,,
,two,0.9863721132278442,,,
,woman,0.9849499464035034,,,
,happiness,0.9753721952438354,,,
,portrait,0.9748411178588867,,,
,group,0.972770094871521,,,
,enjoyment,0.9723670482635498,,,
,interaction,0.9695465564727783,,,
,man,0.9677509069442749,,,
,wear,0.9661837816238403,,,
,friendship,0.966105043888092,,,
,three,0.9648489952087402,,,
,togetherness,0.9602405428886414,,,
,drink,0.9528928995132446,,,
,daylight,0.9291566610336304,,,
,indoors,0.9263215661048889,,,
,recreation,0.9215771555900574,,,
,four,0.9053753614425659,,,
https://scontent.cdninstagram.com/t51.2885-15/e35/13181551_131609590579171_426287392_n.jpg?ig_cache_key=MTI1NzgzMjE1MzM4NDQyMjc2MQ%3D%3D.2,woman,0.9875181317329407,relationships,,
,people,0.9775936603546143,,,
,girl,0.975126326084137,,,
,adult,0.9703032374382019,,,
,portrait,0.9626381397247314,,,
,"facial expression",0.945554792881012,,,
,group,0.9444735050201416,,,
,family,0.9409142732620239,,,
,happiness,0.9299167394638062,,,
,friendship,0.9270164370536804,,,
,beach,0.9213159680366516,,,
,man,0.9108980894088745,,,
,lifestyle,0.9098942279815674,,,
,sit,0.9009919762611389,,,
,togetherness,0.8957321047782898,,,
,sofa,0.8902665376663208,,,
,brunette,0.8899431824684143,,,
,three,0.8870306611061096,,,
,love,0.8869507908821106,,,
,fun,0.8817417621612549,,,
https://scontent.cdninstagram.com/t51.2885-15/e35/13381031_860105554132877_940663090_n.jpg?ig_cache_key=MTI3MDQzODY0MjM2NDEyNTAyMw%3D%3D.2,schedule,0.9979654550552368,,,
,time,0.9956521391868591,,,
,calendar,0.9906109571456909,,,
,date,0.9893014430999756,,,
,annual,0.9848626852035522,,,
,number,0.9764082431793213,,,
,diary,0.9751691222190857,,,
,planner,0.969630241394043,,,
,business,0.9674499034881592,,,
,daily,0.9616522789001465,,,
,almanac,0.9585128426551819,,,
,monthly,0.957593560218811,,,
,"no person",0.9512171745300293,,,
,agenda,0.9506755471229553,,,
,diary,0.9441350698471069,,,
,display,0.9394832849502563,,,
,future,0.9218906760215759,,,
,data,0.9191663861274719,,,
,engagement,0.9113110899925232,,,
,timetable,0.9100821018218994,,,
https://scontent.cdninstagram.com/t51.2885-15/e35/13259000_789461074523728_2006788275_n.jpg?ig_cache_key=MTI1NzY5MDE0Nzc0ODI1MzE0NA%3D%3D.2,woman,0.9803909659385681,fashion,,
,people,0.971971869468689,,,
,shopping,0.9702361822128296,,,
,stock,0.9592751264572144,,,
,adult,0.9460551738739014,,,
,street,0.9350025653839111,,,
,travel,0.9037681818008423,,,
,city,0.9013898372650146,,,
,wear,0.8915964365005493,,,
,daylight,0.8872518539428711,,,
,girl,0.8795284032821655,,,
,portrait,0.8726856708526611,,,
,enjoyment,0.8660997152328491,,,
,luggage,0.8501430153846741,,,
,landscape,0.8483104109764099,,,
,"side view",0.8424057960510254,,,
,child,0.8418485522270203,,,
,two,0.8372302055358887,,,
,indoors,0.8371930122375488,,,
,man,0.8366669416427612,,,
https://scontent.cdninstagram.com/t51.2885-15/e35/13261020_1018359651585628_617134189_n.jpg?ig_cache_key=MTI1MzcyMzc5NjU0NTQwODQ1Nw%3D%3D.2,people,0.9891778230667114,relationships,,
,woman,0.9833587408065796,,,
,adult,0.9771082997322083,,,
,man,0.9729541540145874,,,
,two,0.968834638595581,,,
,drink,0.9389654397964478,,,
,coffee,0.9301868081092834,,,
,wear,0.9250043630599976,,,
,indoors,0.9228994846343994,,,
,togetherness,0.9144778251647949,,,
,"facial expression",0.9040713906288147,,,
,enjoyment,0.9034216403961182,,,
,love,0.898409366607666,,,
,group,0.895247220993042,,,
,family,0.8816319704055786,,,
,child,0.8647890686988831,,,
,furniture,0.8570489287376404,,,
,fun,0.8488740921020508,,,
,room,0.8486337065696716,,,
,girl,0.8423017263412476,,,
https://scontent.cdninstagram.com/t51.2885-15/e35/13320178_1554367961526818_670548085_n.jpg?ig_cache_key=MTI2NjYwMjQyODQwMTkxMzQwMQ%3D%3D.2,desktop,0.9594467878341675,"outdoor hobbies",,
,cooking,0.9522165060043335,,,
,food,0.9520895481109619,,,
,pot,0.9225667715072632,,,
,container,0.8985153436660767,,,
,oil,0.893377423286438,,,
,traditional,0.8903917074203491,,,
,drink,0.8888181447982788,,,
,color,0.8846923112869263,,,
,wood,0.8665390014648438,,,
,decoration,0.8649417161941528,,,
,restaurant,0.8646054863929749,,,
,market,0.8537591099739075,,,
,vegetable,0.848843514919281,,,
,wine,0.8269660472869873,,,
,pan,0.8232741355895996,,,
,culture,0.8135778903961182,,,
,meal,0.8058807253837585,,,
,flora,0.8026793003082275,,,
,cuisine,0.802276074886322,,,
https://scontent.cdninstagram.com/t51.2885-15/e35/13266797_221055814952977_1691673575_n.jpg?ig_cache_key=MTI1MzU4NTIyMDU4MzIzMTI5Ng%3D%3D.2,people,0.9878100156784058,relationships,,
,two,0.974765419960022,,,
,woman,0.972941517829895,,,
,child,0.9649175405502319,,,
,outdoors,0.9559365510940552,,,
,recreation,0.9555976390838623,,,
,family,0.9519044160842896,,,
,daylight,0.9514827132225037,,,
,togetherness,0.9434139132499695,,,
,adult,0.9405072927474976,,,
,"facial expression",0.933861494064331,,,
,wear,0.9335799217224121,,,
,lifestyle,0.9240688681602478,,,
,leisure,0.9183969497680664,,,
,enjoyment,0.9169207811355591,,,
,fun,0.9138652086257935,,,
,girl,0.9128820896148682,,,
,happiness,0.903507649898529,,,
,man,0.9016791582107544,,,
,offspring,0.8687939643859863,,,
