url,class,score
https://scontent.cdninstagram.com/t51.2885-15/e35/13473177_197186180678301_539661191_n.jpg?ig_cache_key=MTI3OTU1MTE4ODI5MTgwNzA3MQ%3D%3D.2,character,0.9959011077880859
,sketch,0.9938396215438843
,funny,0.9916877746582031
,cute,0.9898553490638733
,illustration,0.985477089881897
,retro,0.9690090417861938
,art,0.9629086256027222
,far-out,0.9482740163803101
,crazy,0.9444966316223145
,art,0.9235488176345825
,old,0.9172734022140503
,traditional,0.899563729763031
,alphabet,0.8720104694366455
,no person,0.8408079147338867
,texture,0.8320204615592957
,cheerful,0.8287229537963867
,isolated,0.8229187726974487
,scribble,0.819607675075531
,hand,0.8044935464859009
,man,0.7928487062454224
https://scontent.cdninstagram.com/t51.2885-15/e35/13257067_1719978561606268_1374042646_n.jpg?ig_cache_key=MTI1Mjc5NDE3NTc4OTQ3MjQ2NA%3D%3D.2,woman,0.9891857504844666
,indoors,0.9392913579940796
,pretty,0.9328091144561768
,relaxation,0.9203985929489136
,young,0.9175236225128174
,people,0.9119830131530762
,health,0.907309889793396
,fashion,0.9028047919273376
,leisure,0.8983339071273804
,cute,0.8960373401641846
,adolescent,0.875774621963501
,healthcare,0.8665273189544678
,sexy,0.8364824056625366
,recreation,0.8222087025642395
,looking,0.8118150234222412
,casual,0.8112114667892456
,fun,0.8084551095962524
,girl,0.7844054102897644
,enjoyment,0.7830896377563477
,family,0.7778241634368896
https://scontent.cdninstagram.com/t51.2885-15/e35/13398822_1832565860304539_1704504248_n.jpg?ig_cache_key=MTI3ODA3Nzg5Njg1MTQ2MzAxNw%3D%3D.2,people,0.9827479720115662
,woman,0.9778897166252136
,portrait,0.9686647653579712
,monochrome,0.9654598832130432
,girl,0.9533693790435791
,one,0.9404376745223999
,fashion,0.9275522232055664
,adult,0.9139227867126465
,man,0.8932944536209106
,child,0.8911424875259399
,indoors,0.8853259682655334
,car,0.8814464807510376
,music,0.8812707662582397
,love,0.8794981241226196
,wear,0.8711522221565247
,model,0.8649044632911682
,sexy,0.8309556245803833
,outdoors,0.8290582895278931
,vehicle,0.8192174434661865
,glamour,0.797619104385376
https://scontent.cdninstagram.com/t51.2885-15/e35/13398638_1753026188269680_1706931875_n.jpg?ig_cache_key=MTI3Njg5ODE4MDE1NzE1MTQwMA%3D%3D.2,group,0.9893854856491089
,woman,0.9826307892799377
,friendship,0.9814820289611816
,group,0.9700921773910522
,man,0.9649814963340759
,people,0.96043860912323
,togetherness,0.9556411504745483
,adult,0.9475667476654053
,wear,0.9438174366950989
,fashion,0.9178935289382935
,family,0.9163252115249634
,five,0.9132168292999268
,enjoyment,0.9014122486114502
,recreation,0.8982816934585571
,education,0.8950068950653076
,fun,0.891358494758606
,girl,0.889618992805481
,adolescent,0.8778217434883118
,lifestyle,0.8760071992874146
,school,0.8741054534912109
https://scontent.cdninstagram.com/t51.2885-15/e35/13437285_499073606953169_1178316855_n.jpg?ig_cache_key=MTI3NzMzNDY5OTA5MTE3MjE1Mw%3D%3D.2,leisure,0.9870181083679199
,people,0.9804216027259827
,recreation,0.9760802984237671
,relaxation,0.9759750366210938
,outdoors,0.9709139466285706
,one,0.9694392681121826
,woman,0.9683918952941895
,summer,0.967819333076477
,tree,0.9565690755844116
,adult,0.9489473104476929
,nature,0.9306585192680359
,park,0.9297572374343872
,lifestyle,0.9093997478485107
,girl,0.9093102812767029
,person,0.8947869539260864
,garden,0.8774640560150146
,young,0.8751699924468994
,portrait,0.8662599325180054
,travel,0.8568055629730225
,leaf,0.8393405675888062
https://scontent.cdninstagram.com/t51.2885-15/e35/13256578_1623109531345676_1786731748_n.jpg?ig_cache_key=MTI1MjUwODg1NzEzNTc5ODU2OA%3D%3D.2,people,0.9753658771514893
,woman,0.9592722654342651
,child,0.9303162097930908
,man,0.9170267581939697
,adult,0.8999688625335693
,group,0.8872082233428955
,family,0.8644566535949707
,celebration,0.8381636142730713
,festival,0.828603982925415
,girl,0.8161929845809937
,shopping,0.811448335647583
,fun,0.8086274862289429
,street,0.8068692684173584
,wear,0.7940545082092285
,portrait,0.75848788022995
,music,0.7473629117012024
,two,0.7315546274185181
,city,0.7263157367706299
,market,0.7229506969451904
,many,0.7138618230819702
https://scontent.cdninstagram.com/t51.2885-15/e35/13398957_1636204390032188_1019874292_n.jpg?ig_cache_key=MTI3NjcxMDE4NjkzODgwMDM0MQ%3D%3D.2,indoors,0.985729455947876
,adult,0.9690731763839722
,room,0.9667840600013733
,people,0.9613850116729736
,woman,0.958501935005188
,stock,0.9434881210327148
,office,0.9296076893806458
,portrait,0.9257310032844543
,furniture,0.9171605110168457
,shopping,0.916839063167572
,shop,0.9060638546943665
,business,0.9058204889297485
,man,0.8970117568969727
,table,0.8702071905136108
,commerce,0.8699969053268433
,employee,0.8616224527359009
,modern,0.850628674030304
,wear,0.8456530570983887
,technology,0.8343492746353149
,girl,0.8248484134674072
https://scontent.cdninstagram.com/t51.2885-15/e35/13167285_577310285782516_711287291_n.jpg?ig_cache_key=MTI1MjMwODY5ODMxMzUyOTQzNw%3D%3D.2,shopping,0.9999597072601318
,bargain,0.9998452663421631
,stock,0.9998002052307129
,sale,0.9994908571243286
,shop,0.998955249786377
,choose,0.9986799359321594
,purchase,0.9981745481491089
,option,0.9970775842666626
,mall,0.9970166683197021
,market,0.9963948130607605
,commerce,0.9951766729354858
,shelf,0.9951572418212891
,shopper,0.9926672577857971
,buyer,0.9850751161575317
,supermarket,0.9786081314086914
,people,0.9783458709716797
,money,0.9682899713516235
,wealth,0.9581000804901123
,boutique,0.9550985097885132
,cash,0.9424511790275574
https://scontent.cdninstagram.com/t51.2885-15/e35/13355540_2047145288843263_138228681_n.jpg?ig_cache_key=MTI3NjE0MTI5NzM3Mjc2NTE1MQ%3D%3D.2,food,0.9954026341438293
,sweet,0.9909775853157043
,delicious,0.9842128753662109
,plate,0.9824408292770386
,cake,0.9784698486328125
,no person,0.9754602909088135
,isolated,0.9693331718444824
,pastry,0.9623643755912781
,epicure,0.9620935916900635
,pie,0.952338457107544
,dinner,0.9516432285308838
,meal,0.9487675428390503
,healthy,0.9487073421478271
,fruit,0.9466593265533447
,tasty,0.9445065259933472
,jam,0.940306544303894
,sugar,0.9351150989532471
,desktop,0.9270967245101929
,chocolate,0.9229936003684998
,closeup,0.9220457077026367
https://scontent.cdninstagram.com/t51.2885-15/e35/13394888_1737054619870642_600409515_n.jpg?ig_cache_key=MTI3ODczMzQwNTYzMTgxNDY0Mg%3D%3D.2,child,0.9804716110229492
,woman,0.9518221616744995
,cute,0.9502410292625427
,people,0.9337812662124634
,family,0.9312024116516113
,fun,0.9239777326583862
,girl,0.9216822385787964
,portrait,0.9080077409744263
,indoors,0.8942692279815674
,little,0.8908568024635315
,relaxation,0.8870629072189331
,pretty,0.8719040155410767
,joy,0.8683593273162842
,leisure,0.8523925542831421
,adolescent,0.8442305326461792
,young,0.8408353924751282
,one,0.8231518268585205
,winter,0.8123992681503296
,fashion,0.8049895167350769
,enjoyment,0.8033242225646973
https://scontent.cdninstagram.com/t51.2885-15/e35/13402524_291348197920111_412754057_n.jpg?ig_cache_key=MTI3NjAxMjkwNjMwNDc3Mjg3OA%3D%3D.2,outdoors,0.9726650714874268
,people,0.9704278707504272
,summer,0.9592816829681396
,tree,0.951217532157898
,travel,0.9499263167381287
,business,0.9432145357131958
,recreation,0.9349970817565918
,urban,0.9284549951553345
,nature,0.9279754161834717
,leisure,0.9214379787445068
,modern,0.9205496311187744
,city,0.9149147868156433
,park,0.9090712070465088
,lifestyle,0.9052290916442871
,one,0.9028018712997437
,street,0.902376651763916
,road,0.8974839448928833
,building,0.8966706991195679
,adult,0.8932504653930664
,sky,0.887970507144928
https://scontent.cdninstagram.com/t51.2885-15/e35/13249638_995274677192221_142926250_n.jpg?ig_cache_key=MTI1MzI2NDI0MTU2MzgwMTg5Mw%3D%3D.2,woman,0.9699352979660034
,people,0.9696167707443237
,indoors,0.9619724750518799
,adult,0.9404532313346863
,business,0.9366987943649292
,portrait,0.9331122636795044
,computer,0.9303777813911438
,technology,0.9190817475318909
,girl,0.9162837862968445
,telephone,0.9101217985153198
,education,0.9091906547546387
,one,0.9090664386749268
,man,0.9009764790534973
,music,0.8788787126541138
,family,0.8719190359115601
,internet,0.86861252784729
,young,0.8546898365020752
,adolescent,0.8425353765487671
,fashion,0.8300725221633911
,room,0.8226321935653687
https://scontent.cdninstagram.com/t51.2885-15/e35/13423018_1655591464661363_40503136_n.jpg?ig_cache_key=MTI3NTI4NTEzNDM0NzM0NDE5NA%3D%3D.2,street,0.9605669379234314
,business,0.9590088725090027
,city,0.9524421691894531
,people,0.9374215602874756
,urban,0.9319348335266113
,person,0.9316027164459229
,girl,0.9217633008956909
,young,0.9200891256332397
,corporate,0.8991795778274536
,suit,0.8895230889320374
,modern,0.8887361288070679
,woman,0.8880138993263245
,briefcase,0.8665431141853333
,lifestyle,0.858121931552887
,success,0.8580767512321472
,man,0.8513025045394897
,adult,0.8479186296463013
,work,0.8469111919403076
,beautiful,0.8440884351730347
,man,0.8423779010772705
https://scontent.cdninstagram.com/t51.2885-15/e35/13394914_1882918025268863_832993338_n.jpg?ig_cache_key=MTI3NTQyMjEyNDE0OTU3Nzc5OQ%3D%3D.2,city,0.9777847528457642
,light,0.9638397097587585
,urban,0.9565770030021667
,festival,0.9546701908111572
,blur,0.9431483745574951
,business,0.9363845586776733
,travel,0.9277536869049072
,bridge,0.9271808862686157
,building,0.9224693775177002
,motion,0.9161832332611084
,people,0.9126324653625488
,fun,0.9024842977523804
,evening,0.8899393081665039
,street,0.8830830454826355
,downtown,0.8701823353767395
,road,0.8567363023757935
,exhilaration,0.8549207448959351
,sky,0.8388533592224121
,transportation system,0.8371970057487488
,architecture,0.8275592923164368
https://scontent.cdninstagram.com/t51.2885-15/e35/13329228_481501372055240_15250080_n.jpg?ig_cache_key=MTI3MzIzMjU4MjM5NTA0Mjc2OQ%3D%3D.2,woman,0.9809538125991821
,people,0.9748567938804626
,indoors,0.9640668630599976
,car,0.9593955874443054
,girl,0.9544053673744202
,man,0.9397785067558289
,vehicle,0.9352604150772095
,adult,0.9350541830062866
,family,0.9327293038368225
,child,0.9279630184173584
,portrait,0.9064450263977051
,two,0.8808914422988892
,fun,0.8560472726821899
,young,0.8547862768173218
,love,0.8424513339996338
,business,0.8332352042198181
,smile,0.8301441669464111
,transportation system,0.8295096158981323
,travel,0.8259600400924683
,couple,0.8185501098632812
https://scontent.cdninstagram.com/t51.2885-15/e35/13248985_905171602925563_1921454537_n.jpg?ig_cache_key=MTI1NDE0NTIzMTUzMDIzNjAyMw%3D%3D.2,stock,0.9988360404968262
,shopping,0.9987746477127075
,shop,0.9972062706947327
,market,0.9923614263534546
,commerce,0.9896802306175232
,mall,0.9845691919326782
,supermarket,0.9840593934059143
,merchandise,0.9822342395782471
,street,0.9791088104248047
,shelf,0.9767624139785767
,shopper,0.9727717638015747
,bargain,0.972623348236084
,city,0.9712988138198853
,people,0.9617387652397156
,sale,0.9562737345695496
,exhibition,0.9470289945602417
,option,0.9450005888938904
,choose,0.9301407337188721
,business,0.9239217042922974
,salesperson,0.9212956428527832
https://scontent.cdninstagram.com/t51.2885-15/e35/13397570_1360489210633693_376281895_n.jpg?ig_cache_key=MTI3MzAwNTI1MDIyOTA0OTM3MA%3D%3D.2,woman,0.989416241645813
,bed,0.982609748840332
,indoors,0.9811644554138184
,people,0.974948525428772
,bedroom,0.9743613004684448
,girl,0.973321795463562
,family,0.9719470143318176
,room,0.9680975079536438
,adult,0.962615966796875
,brunette,0.947167158126831
,reclining,0.9439958333969116
,sit,0.9304206371307373
,relaxation,0.9267476201057434
,sofa,0.9119713306427002
,happiness,0.9082620739936829
,beautiful,0.9051023125648499
,leisure,0.9026151895523071
,portrait,0.8970240354537964
,furniture,0.8940610289573669
,dawn,0.8923511505126953
https://scontent.cdninstagram.com/t51.2885-15/e35/13408794_283067785371736_710783276_n.jpg?ig_cache_key=MTI3NTE3MDMyMDk0NjA0MzQ0MQ%3D%3D.2,step,0.9886131286621094
,woman,0.9782549142837524
,people,0.9754897952079773
,architecture,0.9700973033905029
,urban,0.9689311385154724
,modern,0.968132734298706
,office,0.9590741991996765
,adult,0.9589526653289795
,building,0.9576694965362549
,city,0.9574981927871704
,business,0.9554680585861206
,girl,0.9457619190216064
,young,0.900972306728363
,person,0.9002224206924438
,outdoors,0.8962483406066895
,lifestyle,0.8730384111404419
,expression,0.8696174621582031
,portrait,0.8559438586235046
,construction,0.8487669229507446
,perspective,0.8485324382781982
https://scontent.cdninstagram.com/t51.2885-15/e35/13414255_259120997785626_745882857_n.jpg?ig_cache_key=MTI3NDM2NzQwNDc4NjA2MzY0MA%3D%3D.2,woman,0.9925410747528076
,indoors,0.9828423857688904
,people,0.9513546228408813
,fashion,0.9052313566207886
,family,0.9004114866256714
,leisure,0.8979750871658325
,education,0.8978896141052246
,adult,0.8904514312744141
,relaxation,0.8903132677078247
,enjoyment,0.8890373110771179
,girl,0.8845105767250061
,pretty,0.8839505910873413
,adolescent,0.8823016881942749
,portrait,0.8820207118988037
,room,0.8691706657409668
,wear,0.8607532978057861
,one,0.8581584692001343
,sit,0.8469086289405823
,looking,0.840851902961731
,facial expression,0.8308998942375183
https://scontent.cdninstagram.com/t51.2885-15/e35/13183504_984390965014425_646845478_n.jpg?ig_cache_key=MTI1MjkzNTAzNDAzMTg0MDEwNw%3D%3D.2,woman,0.970041036605835
,man,0.9447137117385864
,indoors,0.9415402412414551
,restaurant,0.9391359090805054
,people,0.9261254668235779
,table,0.9142659902572632
,adult,0.8966546058654785
,casual,0.8927319049835205
,coffee,0.8856902122497559
,child,0.8818820118904114
,shopping,0.8731288313865662
,young,0.8706028461456299
,education,0.8673957586288452
,cheerful,0.8451516032218933
,stock,0.8414264917373657
,lunch,0.8372191190719604
,girl,0.8367504477500916
,friendship,0.836401104927063
,happiness,0.8308106064796448
,togetherness,0.8257119655609131
https://scontent.cdninstagram.com/t51.2885-15/e35/13414265_501644000037362_568222261_n.jpg?ig_cache_key=MTI3MzcxMjQzNzEyMTI1OTY3OQ%3D%3D.2,people,0.9816781282424927
,indoors,0.9631134867668152
,business,0.9594516754150391
,city,0.9495247006416321
,street,0.9477325677871704
,offense,0.9417095184326172
,vehicle,0.9327936172485352
,tube,0.9327265024185181
,airplane,0.9288433790206909
,light,0.9060728549957275
,adult,0.9033691883087158
,woman,0.8998101949691772
,competition,0.8964115381240845
,rally,0.8943097591400146
,industry,0.8941495418548584
,urban,0.8936464786529541
,man,0.8931014537811279
,aircraft,0.8862922787666321
,airport,0.8849600553512573
,shopping,0.8822609186172485
https://scontent.cdninstagram.com/t51.2885-15/e35/13267442_1576352085997094_1588460618_n.jpg?ig_cache_key=MTI1MzQxNDA5NzUxOTM4NTI3Mw%3D%3D.2,shopping,0.9866523742675781
,stock,0.9861886501312256
,people,0.9713305234909058
,market,0.9687684774398804
,shop,0.9633268117904663
,child,0.9562647938728333
,commerce,0.9456580877304077
,woman,0.920215368270874
,group,0.9008878469467163
,indoors,0.8994383811950684
,mall,0.8752577304840088
,bargain,0.8707361817359924
,wear,0.8657405376434326
,festival,0.856077253818512
,portrait,0.8500809669494629
,exhibition,0.8498229384422302
,girl,0.8445671796798706
,sale,0.8346743583679199
,adult,0.831444501876831
,option,0.8277498483657837
https://scontent.cdninstagram.com/t51.2885-15/e35/13414214_1546545498982645_1525741902_n.jpg?ig_cache_key=MTI3NDY2Njg3MDkzNjE4MTYwNw%3D%3D.2,woman,0.9628983736038208
,adult,0.9614382386207581
,man,0.9557430744171143
,people,0.9521011114120483
,restaurant,0.9511590600013733
,indoors,0.9352646470069885
,education,0.9218406677246094
,group,0.9203404188156128
,room,0.9078108072280884
,coffee,0.9062876105308533
,furniture,0.9048870801925659
,business,0.8804592490196228
,exhibition,0.8752110004425049
,commerce,0.8735277056694031
,technology,0.8546297550201416
,industry,0.8457781076431274
,table,0.8346367478370667
,school,0.829149603843689
,employee,0.8203716278076172
,stock,0.8179440498352051
