url,class,score
https://scontent.cdninstagram.com/t51.2885-15/e35/13402572_1185400448158992_1618641600_n.jpg,water,0.9970858693122864
,travel,0.9919205904006958
,tourism,0.9701861143112183
,leisure,0.9685379862785339
,vacation,0.9623695611953735
,resort,0.9534583687782288
,architecture,0.951691746711731
,hotel,0.9315736293792725
,outdoors,0.9295324087142944
,city,0.92357337474823
,recreation,0.918306291103363
,luxury,0.9178564548492432
,sea,0.9161875247955322
,swimming,0.913905143737793
,building,0.9130575656890869
,sky,0.9106524586677551
,swimming pool,0.9069113731384277
,watercraft,0.9050644040107727
,no person,0.9029747247695923
,tourist,0.8941839933395386
https://scontent.cdninstagram.com/t51.2885-15/e35/13320153_563490590500303_1938753080_n.jpg,people,0.981712818145752
,child,0.9733316898345947
,portrait,0.972703754901886
,woman,0.9709048271179199
,group,0.9656563997268677
,festival,0.9531668424606323
,facial expression,0.9525038003921509
,rally,0.9467993974685669
,girl,0.9462488889694214
,adult,0.9260104894638062
,happiness,0.9233375787734985
,enjoyment,0.9031562209129333
,fun,0.901627779006958
,two,0.8969102501869202
,man,0.894919753074646
,wear,0.8938100337982178
,rally,0.8843226432800293
,outdoors,0.8765373229980469
,landscape,0.8746774792671204
,three,0.8734954595565796
https://scontent.cdninstagram.com/t51.2885-15/e35/13413459_1717953821806049_2144092956_n.jpg,landscape,0.9934611320495605
,mountain,0.9904531240463257
,sky,0.9713088274002075
,people,0.965097188949585
,daylight,0.9630991220474243
,outdoors,0.9624193906784058
,travel,0.9587072730064392
,adult,0.9585217237472534
,nature,0.9519821405410767
,hill,0.9364626407623291
,girl,0.9255378246307373
,tree,0.9240103960037231
,grass,0.920669674873352
,beautiful,0.917540431022644
,summer,0.9154167175292969
,hayfield,0.9138857126235962
,field,0.9128797054290771
,woman,0.9044604897499084
,valley,0.9005616903305054
,farm,0.8771593570709229
https://scontent.cdninstagram.com/t51.2885-15/e35/13414216_1099447373450482_141266174_n.jpg,architecture,0.9943222999572754
,amphitheater,0.993826150894165
,Colosseum,0.9931716918945312
,ancient,0.9860697388648987
,travel,0.9823880195617676
,ruin,0.9749366044998169
,building,0.9736660718917847
,stadium,0.9730826616287231
,old,0.9727239608764648
,tourism,0.9677349328994751
,monument,0.965602695941925
,stone,0.9640426635742188
,archaeology,0.9587118029594421
,gladiator,0.9572106003761292
,theater,0.9559234380722046
,arch,0.9540923833847046
,landmark,0.9502794146537781
,city,0.9451600313186646
,outdoors,0.9429105520248413
,assembly,0.9379863739013672
https://scontent.cdninstagram.com/t51.2885-15/e35/13329244_1620204768300252_1684979921_n.jpg,woman,0.9763873815536499
,people,0.9599906802177429
,girl,0.9402873516082764
,portrait,0.938034176826477
,joy,0.9063495397567749
,young,0.9021971225738525
,fun,0.9021215438842773
,happiness,0.8968107104301453
,beautiful,0.8860530853271484
,pretty,0.8788153529167175
,love,0.8780900239944458
,smile,0.8739944696426392
,cute,0.8690794110298157
,man,0.8652476668357849
,outdoors,0.8439502716064453
,adult,0.8342157602310181
,fashion,0.8267272710800171
,couple,0.8045684099197388
,enjoyment,0.7977691888809204
,togetherness,0.7890012264251709
https://scontent.cdninstagram.com/t51.2885-15/e35/13259003_1417238414971442_2017819962_n.jpg,people,0.9680243730545044
,group,0.9676075577735901
,woman,0.9662848711013794
,facial expression,0.9513841867446899
,accomplishment,0.9411262273788452
,enjoyment,0.9121431112289429
,group,0.912104606628418
,portrait,0.906777024269104
,happiness,0.9009865522384644
,daylight,0.9005626440048218
,togetherness,0.8827509880065918
,victory,0.8707984685897827
,adult,0.8657353520393372
,child,0.8605806827545166
,fun,0.8482990264892578
,man,0.8412960767745972
,interaction,0.8406772613525391
,success,0.8329304456710815
,three,0.8170278072357178
,success,0.8108997344970703
https://scontent.cdninstagram.com/t51.2885-15/e35/13397514_1795396550678892_1101463401_n.jpg,people,0.9934957027435303
,watercraft,0.9854971170425415
,water,0.9824551343917847
,vehicle,0.9785761833190918
,transportation system,0.9755980968475342
,travel,0.9559531211853027
,group,0.949689507484436
,boat,0.9480316042900085
,harbor,0.9254018068313599
,pier,0.908331036567688
,adult,0.9073489308357239
,recreation,0.9053118228912354
,sea,0.8975741863250732
,fishing boat,0.8794265985488892
,city,0.8782780170440674
,outdoors,0.8759355545043945
,tourism,0.8757783770561218
,tourist,0.8756033182144165
,many,0.874451220035553
,seashore,0.8701027631759644
https://scontent.cdninstagram.com/t51.2885-15/e35/12960135_1727841767459762_976054434_n.jpg,family,0.9956619739532471
,togetherness,0.988726019859314
,indoors,0.9870780110359192
,enjoyment,0.9848991632461548
,three,0.9709771871566772
,fun,0.9645311832427979
,woman,0.9616824388504028
,child,0.9573855400085449
,cake,0.957381010055542
,love,0.9550597667694092
,affection,0.9512075185775757
,man,0.9343041181564331
,baking,0.9332454204559326
,laughing,0.9239180684089661
,four,0.912124752998352
,two,0.9107394218444824
,people,0.887831449508667
,friendship,0.8849070072174072
,relaxation,0.8731198310852051
,joy,0.8679676055908203
https://scontent.cdninstagram.com/t51.2885-15/e35/13257129_1019714254732095_1461961921_n.jpg,travel,0.9829111099243164
,summer,0.9691543579101562
,people,0.9610550403594971
,ice,0.9481773376464844
,food,0.9462485313415527
,water,0.9199819564819336
,delicious,0.8756141662597656
,glass,0.8743917346000671
,environment,0.8701215982437134
,outdoors,0.8649913668632507
,ocean,0.8639549016952515
,sweet,0.8624594211578369
,indulgence,0.8589386343955994
,sea,0.8581849932670593
,universe,0.8566708564758301
,street,0.8472568988800049
,ball-shaped,0.8458844423294067
,road,0.8337594270706177
,cold,0.8013684153556824
,International,0.8009770512580872
https://scontent.cdninstagram.com/t51.2885-15/s750x750/sh0.08/e35/12907246_841851649258068_581150059_n.jpg,adult,0.9901115894317627
,facial expression,0.9775261878967285
,man,0.9768368005752563
,people,0.9752880334854126
,indoors,0.9708718061447144
,furniture,0.9701025485992432
,woman,0.968523383140564
,happiness,0.964762806892395
,employee,0.9632668495178223
,togetherness,0.9568833708763123
,table,0.9559855461120605
,group,0.9551814794540405
,two,0.94209885597229
,room,0.9386533498764038
,portrait,0.9302364587783813
,three,0.9272478818893433
,restaurant,0.9263644218444824
,enjoyment,0.8958144187927246
,candle,0.8905967473983765
,telephone,0.8845670223236084
https://scontent.cdninstagram.com/t51.2885-15/e35/13413388_815807175222941_223291000_n.jpg,architecture,0.9968198537826538
,ancient,0.99550461769104
,travel,0.9879425764083862
,column,0.9841927289962769
,assembly,0.98319011926651
,no person,0.9747457504272461
,old,0.9743799567222595
,building,0.9642747044563293
,arch,0.9567025899887085
,city,0.9566619396209717
,archaeology,0.9547916650772095
,temple,0.9519094228744507
,tourism,0.9375066757202148
,theater,0.9366425275802612
,stone,0.9254544973373413
,outdoors,0.9135682582855225
,sky,0.9089831113815308
,landmark,0.9074821472167969
,antique,0.9055256843566895
,monument,0.9034939408302307
https://scontent.cdninstagram.com/t51.2885-15/e35/13397489_263376797350663_1748506901_n.jpg,outdoors,0.9755913615226746
,architecture,0.9721590280532837
,woman,0.9682704210281372
,travel,0.9635605812072754
,sky,0.939759373664856
,city,0.9341812133789062
,people,0.9160296320915222
,summer,0.8843883275985718
,arch,0.8776782751083374
,portrait,0.8738877773284912
,building,0.8655774593353271
,adult,0.8616565465927124
,young,0.8610975742340088
,urban,0.8440414667129517
,girl,0.8289406299591064
,column,0.8011493682861328
,outside,0.792609691619873
,two,0.7917029857635498
,tourist,0.7834959030151367
,tower,0.7757965326309204
https://scontent.cdninstagram.com/t51.2885-15/e35/13129631_1165116870194658_240414754_n.jpg,outdoors,0.9694273471832275
,summer,0.9693838357925415
,woman,0.9680200815200806
,girl,0.9661458730697632
,leisure,0.9602768421173096
,recreation,0.9518348574638367
,fun,0.9480186700820923
,nature,0.9460816979408264
,people,0.9451568722724915
,happiness,0.9364814758300781
,lifestyle,0.9300633668899536
,grass,0.9234018325805664
,travel,0.9185997247695923
,beach,0.9104904532432556
,enjoyment,0.908909797668457
,water,0.9030196666717529
,relaxation,0.9026510715484619
,adult,0.901400089263916
,vacation,0.8900208473205566
,togetherness,0.8892208337783813
https://scontent.cdninstagram.com/t51.2885-15/e35/10817662_1758466054374536_644497662_n.jpg,light,0.974956214427948
,science,0.9619728922843933
,no person,0.9587305784225464
,technology,0.9455680251121521
,abstract,0.9254554510116577
,music,0.88421630859375
,computer,0.879754900932312
,blur,0.8631124496459961
,futuristic,0.8558776378631592
,design,0.8508067727088928
,illustration,0.8313058018684387
,desktop,0.8290729522705078
,festival,0.8281744122505188
,imagery,0.8276486396789551
,symbol,0.8256933689117432
,graphic,0.8220327496528625
,performance,0.8115487098693848
,energy,0.8029553890228271
,concert,0.8010094165802002
,dark,0.8002152442932129
https://scontent.cdninstagram.com/t51.2885-15/e35/13108924_1696537860607547_943296086_n.jpg,portrait,0.989229679107666
,city,0.9857516884803772
,girl,0.979987621307373
,skyscraper,0.9701299667358398
,people,0.9672672748565674
,business,0.9655488729476929
,skyline,0.9637699127197266
,adult,0.9595661163330078
,woman,0.9488866329193115
,office,0.9442266225814819
,cityscape,0.9439582824707031
,urban,0.9354890584945679
,light,0.9291954040527344
,landscape,0.9290923476219177
,downtown,0.9188560247421265
,building,0.9112461805343628
,model,0.8936672806739807
,evening,0.8473975658416748
,travel,0.8123360872268677
,modern,0.7926706075668335
https://scontent.cdninstagram.com/t51.2885-15/e35/13413266_1747635668851664_1587401137_n.jpg,food,0.9904593825340271
,no person,0.9801112413406372
,dinner,0.9788628816604614
,meal,0.9668665528297424
,lunch,0.9664020538330078
,plate,0.9605184197425842
,meat,0.9599146842956543
,delicious,0.958626389503479
,dish,0.9522547125816345
,rice,0.9458377361297607
,cooking,0.9296211004257202
,restaurant,0.9216873645782471
,nutrition,0.9141523241996765
,traditional,0.9139782786369324
,sauce,0.9103391170501709
,cuisine,0.9101706147193909
,pork,0.9072479605674744
,beef,0.9061883687973022
,fork,0.8981978893280029
,epicure,0.8883821964263916
https://scontent.cdninstagram.com/t51.2885-15/e35/13473333_1653990088258421_427456943_n.jpg,seashore,0.9932318925857544
,sea,0.9913309216499329
,travel,0.9818167686462402
,water,0.9814374446868896
,ocean,0.9696964025497437
,beach,0.9685037136077881
,no person,0.9665001630783081
,landscape,0.9431377649307251
,sky,0.9288622140884399
,tourism,0.9268852472305298
,rock,0.9252935647964478
,bay,0.9144588708877563
,sight,0.9063510894775391
,summer,0.903491735458374
,scenic,0.9015817046165466
,seascape,0.9013819098472595
,vacation,0.8990023136138916
,city,0.8908591270446777
,outdoors,0.8906203508377075
,town,0.8903957009315491
https://scontent.cdninstagram.com/t51.2885-15/e35/13259643_1725736394370693_418464519_n.jpg,food,0.9942975640296936
,meal,0.9682881832122803
,cuisine,0.9643294811248779
,healthy,0.9572699069976807
,bowl,0.9524726271629333
,traditional,0.9500932097434998
,no person,0.9472030401229858
,cooking,0.941399097442627
,dish,0.9362532496452332
,dinner,0.931745171546936
,epicure,0.9261443018913269
,plate,0.9261084794998169
,lunch,0.9259452819824219
,vegetable,0.9222180843353271
,table,0.9179548621177673
,pepper,0.9145842790603638
,diet,0.9007223844528198
,delicious,0.8966711163520813
,health,0.8890796899795532
,tasty,0.8876679539680481
https://scontent.cdninstagram.com/t51.2885-15/e35/13355535_1123496071024779_2039043602_n.jpg,architecture,0.9747315645217896
,building,0.9628080725669861
,travel,0.9597154855728149
,city,0.95662522315979
,people,0.9518049955368042
,urban,0.9054261445999146
,museum,0.8867261409759521
,outdoors,0.8854524493217468
,business,0.8726295828819275
,street,0.8682390451431274
,daylight,0.8470687866210938
,winter,0.8434819579124451
,step,0.8187397718429565
,landscape,0.8156660795211792
,tourism,0.8119885921478271
,sky,0.8012956380844116
,sculpture,0.800757110118866
,tourist,0.789604663848877
,adult,0.7895045280456543
,no person,0.7867545485496521
https://scontent.cdninstagram.com/t51.2885-15/e35/12965165_1729757317283035_949808722_n.jpg,group,0.9913946390151978
,woman,0.9737118482589722
,adult,0.9736044406890869
,portrait,0.9719412922859192
,facial expression,0.9707169532775879
,group,0.9690437316894531
,people,0.9682295322418213
,man,0.9626355171203613
,business,0.9558200836181641
,teamwork,0.9530775547027588
,cooperation,0.9436102509498596
,happiness,0.9322540760040283
,wear,0.9151710271835327
,interaction,0.9132230281829834
,accomplishment,0.9126015901565552
,togetherness,0.9093998670578003
,indoors,0.9080672264099121
,education,0.9027687311172485
,actor,0.8998158574104309
,three,0.8968745470046997
https://scontent.cdninstagram.com/t51.2885-15/e35/13557237_1700320700217740_1133804169_n.jpg,people,0.9907223582267761
,restaurant,0.9821673631668091
,group,0.967248797416687
,woman,0.9609583616256714
,table,0.9516484141349792
,meal,0.9438405632972717
,adult,0.9410853385925293
,enjoyment,0.9382739067077637
,four,0.9377075433731079
,man,0.9311679005622864
,child,0.9269311428070068
,food,0.908907413482666
,facial expression,0.8972695469856262
,group,0.8889967203140259
,dining,0.8852277994155884
,indoors,0.8821326494216919
,lunch,0.8779588937759399
,drink,0.8756839632987976
,three,0.8745456337928772
,two,0.8502234220504761
https://scontent.cdninstagram.com/t51.2885-15/e35/12599389_1759090037656364_866947809_n.jpg,group,0.9874178171157837
,woman,0.9837906956672668
,adult,0.9746125936508179
,man,0.9711857438087463
,people,0.9641051292419434
,education,0.953540563583374
,group,0.9368337988853455
,portrait,0.9351084232330322
,university,0.9171093702316284
,indoors,0.9069204926490784
,school,0.9063988924026489
,teacher,0.9004343748092651
,facial expression,0.892155110836029
,child,0.8864758014678955
,three,0.8850744962692261
,competition,0.8816090822219849
,furniture,0.878842830657959
,togetherness,0.8685005307197571
,four,0.8651918172836304
,room,0.862830638885498
https://scontent.cdninstagram.com/t51.2885-15/e35/13398527_253853411648766_1085373015_n.jpg,no person,0.9840601682662964
,food,0.9614657759666443
,health,0.9535154104232788
,breakfast,0.9326757192611694
,traditional,0.9211869835853577
,milk,0.9128987789154053
,spoon,0.9088848829269409
,glass,0.8988840579986572
,fruit,0.8973785638809204
,healthy,0.8912379741668701
,sweet,0.8758168816566467
,bowl,0.8745198249816895
,delicious,0.872172474861145
,drink,0.8657288551330566
,nutrition,0.8639715313911438
,table,0.8424398899078369
,wood,0.8410296440124512
,meal,0.8321287631988525
,kind,0.8307134509086609
,closeup,0.829559326171875
https://scontent.cdninstagram.com/t51.2885-15/e35/13402686_687477708056845_38426196_n.jpg,chocolate,0.9984453320503235
,cream,0.9983263611793518
,no person,0.9937103986740112
,vanilla,0.9933909177780151
,delicious,0.9924138784408569
,sugar,0.9876614809036255
,baking,0.9876157641410828
,creamy,0.9858521223068237
,indulgence,0.9832241535186768
,cone,0.9813270568847656
,sweet,0.9808687567710876
,cornet,0.9765851497650146
,waffle,0.9710988402366638
,temptation,0.9614983797073364
,wafer,0.9543629884719849
,scoop,0.9522203207015991
,ice,0.9519785642623901
,sprinkles,0.9445101022720337
,goody,0.9329327344894409
,coffee,0.9308756589889526
https://scontent.cdninstagram.com/t51.2885-15/e35/13437189_972838942834301_1965574335_n.jpg,water,0.9933102130889893
,travel,0.9860231876373291
,lake,0.9805967807769775
,no person,0.9774198532104492
,mountain,0.9643982648849487
,outdoors,0.9534022808074951
,landscape,0.9517428874969482
,reflection,0.9450665712356567
,house,0.9437052011489868
,tourism,0.936806857585907
,nature,0.9326504468917847
,river,0.9302085638046265
,architecture,0.9206116199493408
,sky,0.9165915250778198
,fjord,0.9147204160690308
,scenic,0.9050637483596802
,hill,0.9036556482315063
,summer,0.9024951457977295
,town,0.9013463258743286
,boat,0.900875985622406
https://scontent.cdninstagram.com/t51.2885-15/e35/13534094_1041641315915666_654759901_n.jpg,woman,0.989842414855957
,travel,0.9897048473358154
,people,0.9838346242904663
,vehicle,0.9723552465438843
,daylight,0.9675981998443604
,facial expression,0.9573885798454285
,adult,0.9477688074111938
,portrait,0.9450550675392151
,enjoyment,0.9343588352203369
,outdoors,0.9323590993881226
,landscape,0.9059865474700928
,water,0.870171308517456
,leisure,0.8701531887054443
,window,0.8608697056770325
,transportation system,0.8587285280227661
,recreation,0.8551545739173889
,city,0.8532415628433228
,girl,0.8472890853881836
,beach,0.8435274958610535
,wear,0.8277461528778076
https://scontent.cdninstagram.com/t51.2885-15/e35/12950430_928184203962042_963347470_n.jpg,woman,0.986821711063385
,pizza,0.9866917133331299
,togetherness,0.9731754064559937
,four,0.9703962802886963
,enjoyment,0.9642183780670166
,family,0.9616621136665344
,meal,0.9603390693664551
,lunch,0.9599102735519409
,man,0.9562279582023621
,restaurant,0.9535197019577026
,indoors,0.9503532648086548
,people,0.9498486518859863
,child,0.9371727705001831
,love,0.9126076102256775
,food,0.9115699529647827
,group,0.9093825817108154
,adult,0.8963334560394287
,laughing,0.8882869482040405
,fun,0.8874764442443848
,group,0.8867735862731934
https://scontent.cdninstagram.com/t51.2885-15/e35/13385774_992729624176223_216392748_n.jpg,water,0.9936037659645081
,travel,0.9921486377716064
,lake,0.989023745059967
,mountain,0.9834880828857422
,outdoors,0.9738203287124634
,nature,0.9674346446990967
,leisure,0.9602115154266357
,recreation,0.9595866203308105
,woman,0.9530030488967896
,landscape,0.9474886655807495
,vehicle,0.9457522630691528
,daylight,0.9330095648765564
,sky,0.932256817817688
,river,0.9297177791595459
,summer,0.9231269359588623
,people,0.9230616092681885
,lakeside,0.920813798904419
,boat,0.9187396764755249
,transportation system,0.9167162179946899
,one,0.9115447998046875
https://scontent.cdninstagram.com/t51.2885-15/e35/13408965_717896138350725_910182609_n.jpg,people,0.9733155965805054
,travel,0.9629631042480469
,architecture,0.9521132707595825
,city,0.943989634513855
,outdoors,0.9299598336219788
,woman,0.9113445281982422
,stadium,0.9031511545181274
,tourism,0.9023219347000122
,adult,0.8969660997390747
,building,0.8964481353759766
,daylight,0.8880840539932251
,portrait,0.8856872320175171
,amphitheater,0.8788713812828064
,tourist,0.8659520745277405
,landscape,0.8654861450195312
,theater,0.8565955758094788
,urban,0.8337031602859497
,religion,0.829271674156189
,ancient,0.8131515383720398
,one,0.8121050596237183
https://scontent.cdninstagram.com/t51.2885-15/e35/12446203_543824069076140_1160186374_n.jpg,people,0.9895474910736084
,woman,0.9814252853393555
,portrait,0.9777015447616577
,man,0.9770663380622864
,two,0.9764407277107239
,adult,0.9688425064086914
,facial expression,0.9686566591262817
,music,0.9367971420288086
,group,0.9296703934669495
,togetherness,0.9256399869918823
,interaction,0.9246227741241455
,enjoyment,0.9120393991470337
,wear,0.909611701965332
,three,0.9017900228500366
,musician,0.8986811637878418
,recreation,0.8940889835357666
,competition,0.8913865089416504
,festival,0.8823533058166504
,indoors,0.8755232095718384
,singer,0.8720645904541016
https://scontent.cdninstagram.com/t51.2885-15/e35/11931053_453956661474557_83733327_n.jpg,group,0.9822338819503784
,man,0.9672631025314331
,people,0.9625698924064636
,woman,0.9612467288970947
,group,0.9561026096343994
,adult,0.9514061808586121
,friendship,0.9482488036155701
,facial expression,0.9425746202468872
,happiness,0.939051628112793
,togetherness,0.924462080001831
,portrait,0.9217797517776489
,enjoyment,0.9059834480285645
,school,0.902374804019928
,education,0.9008419513702393
,girl,0.8919064998626709
,indoors,0.8839535713195801
,child,0.8838621377944946
,four,0.8813436031341553
,room,0.8737390041351318
,lifestyle,0.8722847700119019
https://scontent.cdninstagram.com/t51.2885-15/e35/12822577_931557950298659_304787642_n.jpg,group,0.9935048818588257
,four,0.9914705753326416
,woman,0.9886665344238281
,man,0.9853324890136719
,group,0.9813084006309509
,family,0.976962685585022
,five,0.9721451997756958
,adult,0.9686505794525146
,togetherness,0.960911214351654
,people,0.9587788581848145
,three,0.9573872089385986
,child,0.9518477916717529
,facial expression,0.9502516388893127
,room,0.9323052167892456
,enjoyment,0.9307067394256592
,laughing,0.9251047968864441
,offspring,0.9239635467529297
,indoors,0.9235340356826782
,furniture,0.9180219769477844
,friendship,0.9149131178855896
https://scontent.cdninstagram.com/t51.2885-15/e35/13126759_548574398655102_1248854845_n.jpg,food,0.9891633987426758
,cooking,0.9693957567214966
,no person,0.9612681865692139
,table,0.957512617111206
,meal,0.9476121664047241
,hot,0.9360385537147522
,restaurant,0.9358422756195068
,desktop,0.9308462738990784
,breakfast,0.930290937423706
,set,0.9272634983062744
,plate,0.9259665608406067
,tray,0.9145594239234924
,dinner,0.911118745803833
,cup,0.9062598943710327
,knife,0.9032557606697083
,drink,0.8974707126617432
,dish,0.8954630494117737
,epicure,0.8954190015792847
,meat,0.8935350179672241
,traditional,0.8869854807853699
https://scontent.cdninstagram.com/t51.2885-15/e35/13113866_1051194358308694_602376293_n.jpg,stock,0.99439537525177
,shopping,0.9862267971038818
,shop,0.9752154350280762
,commerce,0.9642685651779175
,people,0.9630016088485718
,merchandise,0.9466427564620972
,woman,0.9374070763587952
,market,0.9250776767730713
,bargain,0.9020220637321472
,supermarket,0.89992356300354
,mall,0.8938180208206177
,shopper,0.8937466144561768
,happiness,0.8830015659332275
,indoors,0.8789504766464233
,adult,0.8719639778137207
,sale,0.8714016675949097
,food,0.8654943108558655
,business,0.8599590063095093
,smile,0.8562334775924683
,coffee,0.8496145009994507
https://scontent.cdninstagram.com/t51.2885-15/e35/12816786_960743403978794_1534185771_n.jpg,group,0.9956351518630981
,group,0.9789256453514099
,people,0.9783388376235962
,woman,0.9718717336654663
,adult,0.9668154716491699
,man,0.9627655148506165
,education,0.9507608413696289
,many,0.9420630931854248
,school,0.936937689781189
,university,0.9333081245422363
,recreation,0.9286496639251709
,vehicle,0.9204585552215576
,singer,0.9127383828163147
,portrait,0.9113255739212036
,music,0.907842755317688
,several,0.9064605832099915
,bar,0.8986246585845947
,sports fan,0.8955397605895996
,movie,0.8949668407440186
,coffee,0.8836972713470459
https://scontent.cdninstagram.com/t51.2885-15/e35/12383432_1042160005849997_738769544_n.jpg,fish,0.995749831199646
,meat,0.9915474653244019
,no person,0.9912753105163574
,food,0.9906147122383118
,dinner,0.9862453937530518
,seafood,0.9826081991195679
,tuna,0.9813980460166931
,sushi,0.9791824817657471
,salmon,0.9611279964447021
,sashimi,0.9602911472320557
,slice,0.9571220278739929
,rice,0.9396079778671265
,delicious,0.9316339492797852
,traditional,0.9258598685264587
,epicure,0.9164907336235046
,ham,0.912235677242279
,bacon,0.90375155210495
,plate,0.9023590683937073
,knife,0.9019110202789307
,beef,0.8927465081214905
https://scontent.cdninstagram.com/t51.2885-15/e35/12940916_1181427141902598_1133698732_n.jpg,rice,0.9975659251213074
,food,0.9957495331764221
,no person,0.9919352531433105
,bowl,0.9827961921691895
,dinner,0.9786193370819092
,dish,0.9778279066085815
,meal,0.9768970012664795
,lunch,0.9633915424346924
,vegetable,0.9615286588668823
,cuisine,0.9605864882469177
,traditional,0.958493709564209
,cooking,0.9511457681655884
,curry,0.9495701789855957
,plate,0.9494401216506958
,healthy,0.9423733949661255
,delicious,0.9276261329650879
,spoon,0.9266259670257568
,epicure,0.9123722314834595
,spice,0.9110690951347351
,grow,0.9072269201278687
https://scontent.cdninstagram.com/t51.2885-15/e35/13320063_815273051939772_31309571_n.jpg,water,0.9864811897277832
,people,0.9562842845916748
,travel,0.9527929425239563
,sky,0.9384417533874512
,outdoors,0.935974657535553
,vehicle,0.9337252378463745
,watercraft,0.9244363307952881
,woman,0.9209557771682739
,summer,0.9148143529891968
,lake,0.9099907875061035
,leisure,0.9076396226882935
,landscape,0.9002845287322998
,sea,0.8981063365936279
,adult,0.8916528820991516
,one,0.8815706968307495
,girl,0.8810057640075684
,recreation,0.8798618912696838
,nature,0.8600130081176758
,transportation system,0.8564673662185669
,wind,0.8371544480323792
https://scontent.cdninstagram.com/t51.2885-15/e35/13277787_519037311616822_495320923_n.jpg,group,0.992396354675293
,woman,0.9805659055709839
,people,0.978318452835083
,group,0.9777251482009888
,vehicle,0.9643088579177856
,wear,0.9565809965133667
,adult,0.9544069766998291
,recreation,0.943074107170105
,man,0.9317679405212402
,competition,0.9292070865631104
,exhibition,0.9179794788360596
,enjoyment,0.9170175790786743
,portrait,0.906751275062561
,festival,0.8966204524040222
,athlete,0.8803302049636841
,championship,0.8387570381164551
,school,0.8378409147262573
,many,0.824051022529602
,music,0.8159363269805908
,club,0.8000739812850952
https://scontent.cdninstagram.com/t51.2885-15/s640x640/e15/13423484_249553732085452_899226270_n.jpg,people,0.9815953969955444
,administration,0.971368670463562
,city,0.9639446139335632
,architecture,0.9391260147094727
,street,0.9248229265213013
,water,0.9227561950683594
,travel,0.914478063583374
,flag,0.9132510423660278
,museum,0.9111931324005127
,woman,0.9088891744613647
,building,0.9076094627380371
,landscape,0.9046999216079712
,group,0.8989105224609375
,tourist,0.8601531982421875
,many,0.85841965675354
,fountain,0.8571862578392029
,evening,0.8518862724304199
,education,0.8476998209953308
,road,0.8427966833114624
,adult,0.8398016095161438
https://scontent.cdninstagram.com/t51.2885-15/e35/13473271_1353037341379661_1025708179_n.jpg,architecture,0.9965183734893799
,travel,0.9876687526702881
,Gothic,0.9843560457229614
,castle,0.9832049608230591
,city,0.979720950126648
,town,0.9749087691307068
,old,0.9720033407211304
,hill,0.9698403477668762
,no person,0.9692139625549316
,building,0.963630199432373
,tower,0.959344744682312
,fortress,0.9529300928115845
,ancient,0.9457144737243652
,house,0.9419956207275391
,fortification,0.9387598037719727
,sight,0.9381147027015686
,sky,0.9346761703491211
,landmark,0.9343692064285278
,mountain,0.9310309886932373
,church,0.9261082410812378
https://scontent.cdninstagram.com/t51.2885-15/e35/13388506_557233257781531_1326316865_n.jpg,nature,0.982796311378479
,outdoors,0.9826177954673767
,water,0.9568624496459961
,leisure,0.9534859657287598
,mountain,0.9526277780532837
,travel,0.950648844242096
,woman,0.9466677904129028
,people,0.9392541646957397
,adult,0.9391889572143555
,summer,0.9374915361404419
,relaxation,0.936652660369873
,daylight,0.9274939298629761
,man,0.9173727035522461
,two,0.9167817831039429
,sky,0.9104050397872925
,rock,0.9031675457954407
,happiness,0.895069420337677
,landscape,0.8942981958389282
,lifestyle,0.8914979696273804
,lake,0.8818652629852295
https://scontent.cdninstagram.com/t51.2885-15/e35/13413416_1121854344541503_752288554_n.jpg,mountain,0.9825171232223511
,nature,0.9798691272735596
,landscape,0.9778782725334167
,water,0.9773198366165161
,outdoors,0.9751161336898804
,travel,0.9723272323608398
,rock,0.9402225613594055
,wood,0.9238865971565247
,sky,0.921813428401947
,hike,0.9212020635604858
,lake,0.9184268712997437
,daylight,0.9146928787231445
,river,0.9071798920631409
,valley,0.9044836163520813
,scenic,0.8994125723838806
,people,0.8973917961120605
,adult,0.8919483423233032
,summer,0.8913264870643616
,one,0.8906959295272827
,tree,0.8880875110626221
https://scontent.cdninstagram.com/t51.2885-15/e35/12725021_1269116139782497_2038368265_n.jpg,candle,0.9931865930557251
,people,0.978888750076294
,celebration,0.9757086038589478
,man,0.9746898412704468
,adult,0.9704894423484802
,two,0.9660437107086182
,three,0.9656267762184143
,birthday,0.9589532613754272
,indoors,0.95870041847229
,group,0.9582399129867554
,four,0.9496293067932129
,love,0.9491770267486572
,table,0.9342180490493774
,woman,0.9329304695129395
,family,0.928432285785675
,couple,0.9248017072677612
,portrait,0.9056286811828613
,religion,0.9032249450683594
,romance,0.8987078666687012
,ceremony,0.8853442668914795
https://scontent.cdninstagram.com/t51.2885-15/e35/13423608_140496533021240_1501701475_n.jpg,outdoors,0.9831483364105225
,man,0.9802137613296509
,people,0.9732892513275146
,leisure,0.9644269943237305
,enjoyment,0.961024284362793
,fun,0.9574428796768188
,sky,0.9376934766769409
,recreation,0.9275595545768738
,joy,0.9271668195724487
,daylight,0.9154560565948486
,relaxation,0.9099566340446472
,woman,0.9089447259902954
,nature,0.9071286916732788
,accomplishment,0.9055079817771912
,carefree,0.9052886962890625
,freedom,0.8911761045455933
,adult,0.8878040313720703
,happiness,0.8834865689277649
,facial expression,0.881161093711853
,togetherness,0.8808277249336243
https://scontent.cdninstagram.com/t51.2885-15/e35/13391158_1738760143041768_915468062_n.jpg,canal,0.995600700378418
,Venetian,0.9955182075500488
,gondola,0.9907761216163635
,architecture,0.9858596920967102
,street,0.984790563583374
,house,0.9838558435440063
,no person,0.9799467921257019
,town,0.9749428033828735
,travel,0.9745810031890869
,city,0.9733282327651978
,outdoors,0.9691681265830994
,transmit,0.9629576206207275
,family,0.945773720741272
,boat,0.9443868398666382
,balcony,0.9433993101119995
,tourism,0.9361535310745239
,building,0.9351608753204346
,traditional,0.9316604137420654
,water,0.9280648231506348
,old,0.9156111478805542
https://scontent.cdninstagram.com/t51.2885-15/e35/13391081_260354484322964_1303260720_n.jpg,landscape,0.9955446124076843
,road,0.9812139272689819
,sky,0.9708853960037231
,travel,0.9653298854827881
,grass,0.9537540674209595
,guidance,0.9378647208213806
,nature,0.9348964691162109
,mountain,0.9312344789505005
,outdoors,0.9299454689025879
,hill,0.9266412258148193
,countryside,0.9201332330703735
,cropland,0.8915021419525146
,summer,0.8785360455513
,field,0.8749499320983887
,fog,0.8612092733383179
,no person,0.8586719632148743
,freedom,0.8578090667724609
,cloud,0.8397479057312012
,rural,0.8113045692443848
,hike,0.8101364374160767
https://scontent.cdninstagram.com/t51.2885-15/e35/13408943_1740752869525050_2085803972_n.jpg,mountain,0.9795736074447632
,nature,0.9704620838165283
,outdoors,0.969411313533783
,landscape,0.9527869820594788
,sky,0.9522296190261841
,travel,0.9500802755355835
,hike,0.9449747800827026
,adventure,0.9268409609794617
,summer,0.9206215143203735
,freedom,0.9130396842956543
,leisure,0.9070500135421753
,one,0.9049991369247437
,recreation,0.8977872729301453
,daylight,0.8904088735580444
,climb,0.878066897392273
,water,0.8590275049209595
,high,0.8511545062065125
,beautiful,0.8417371511459351
,scenic,0.8379336595535278
,wood,0.8304502964019775
https://scontent.cdninstagram.com/t51.2885-15/e35/13355664_1786736384907609_1035859120_n.jpg,water,0.9921058416366577
,summer,0.9721919894218445
,travel,0.969099760055542
,recreation,0.9688403606414795
,leisure,0.9688183069229126
,lake,0.9562654495239258
,sky,0.9546552300453186
,relaxation,0.9503823518753052
,outdoors,0.9486628174781799
,woman,0.9429905414581299
,nature,0.9391545057296753
,river,0.9126530885696411
,tree,0.9107972383499146
,people,0.8931374549865723
,sun,0.8777424097061157
,girl,0.8660085201263428
,sea,0.8591213226318359
,vacation,0.8552277684211731
,fair weather,0.8468563556671143
,beach,0.8437379598617554
https://scontent.cdninstagram.com/t51.2885-15/e35/13320247_246914822350197_1576739818_n.jpg,child,0.9851261377334595
,woman,0.984792947769165
,togetherness,0.9734575152397156
,love,0.9728053212165833
,family,0.968479335308075
,fun,0.9678337574005127
,indoors,0.9628192186355591
,car,0.9605322480201721
,man,0.9544587135314941
,people,0.9497434496879578
,laughing,0.9477893114089966
,seat,0.9364471435546875
,girl,0.9315901398658752
,joy,0.9301282167434692
,enjoyment,0.9258344173431396
,vehicle,0.9054040312767029
,affection,0.9035021066665649
,group,0.9017059803009033
,happiness,0.8957592248916626
,adolescent,0.8936055898666382
