url,class,score,,,,,,,,
https://scontent.cdninstagram.com/t51.2885-15/e35/13402270_151801701902839_954044101_n.jpg?ig_cache_key=MTI3MzIwMTIyMTg1MDg3MzQ4OA%3D%3D.2,mammal,0.9741833209991455,Environment,,,,"Natural beauty",,,
,animal,0.953843355178833,,,,,,,,
,"no person",0.9528155326843262,,,,,,,,
,zoo,0.925621509552002,,,,,,,,
,nature,0.9049077033996582,,,,,,,,
,one,0.8991237878799438,,,,,,,,
,cute,0.8973739147186279,,,,,,,,
,sheep,0.8914018869400024,,,,,,,,
,grass,0.868888258934021,,,,,,,,
,portrait,0.8680317997932434,,,,,,,,
,garden,0.8638169765472412,,,,,,,,
,family,0.8565318584442139,,,,,,,,
,baby,0.8535746335983276,,,,,,,,
,wool,0.8499749898910522,,,,,,,,
,wood,0.8469746112823486,,,,,,,,
,outdoors,0.8449382781982422,,,,,,,,
,park,0.8439755439758301,,,,,,,,
,pet,0.839874267578125,,,,,,,,
,farm,0.8305610418319702,,,,,,,,
,bird,0.8108863830566406,,,,,,,,
https://scontent.cdninstagram.com/t51.2885-15/e35/12231021_1057187014339156_1130441246_n.jpg?ig_cache_key=MTIxNzg5NDc2NzE2MjI3Nzg2MQ%3D%3D.2,people,0.9952553510665894,Relationships,,,,Friends,,,
,two,0.992053747177124,,,,,,,,
,portrait,0.991094708442688,,,,,,,,
,woman,0.9833685159683228,,,,,,,,
,love,0.9817147254943848,,,,,,,,
,happiness,0.9795137643814087,,,,,,,,
,adult,0.9784050583839417,,,,,,,,
,girl,0.9782077074050903,,,,,,,,
,"facial expression",0.9713655710220337,,,,,,,,
,togetherness,0.9692683815956116,,,,,,,,
,wear,0.9642142653465271,,,,,,,,
,friendship,0.9591319561004639,,,,,,,,
,man,0.956718921661377,,,,,,,,
,beautiful,0.9499032497406006,,,,,,,,
,romance,0.9365284442901611,,,,,,,,
,lifestyle,0.9307831525802612,,,,,,,,
,affection,0.9256853461265564,,,,,,,,
,fashion,0.9149618744850159,,,,,,,,
,family,0.9142493605613708,,,,,,,,
,three,0.8759790658950806,,,,,,,,
https://scontent.cdninstagram.com/t51.2885-15/sh0.08/e35/p640x640/1662527_242292676107830_1721163731_n.jpg?ig_cache_key=MTIwNDQyNzYzODgxMTM3NzAzMQ%3D%3D.2,fashion,0.9908908605575562,"Fun Filter","My life",,,"Fun Filter",Selfie,,
,portrait,0.987822413444519,,,,,,,,
,woman,0.9861661195755005,,,,,,,,
,people,0.969119668006897,,,,,,,,
,girl,0.9654874801635742,,,,,,,,
,model,0.9615930318832397,,,,,,,,
,face,0.9569932818412781,,,,,,,,
,beautiful,0.9544900059700012,,,,,,,,
,glamour,0.9534043073654175,,,,,,,,
,style,0.9461895227432251,,,,,,,,
,adult,0.9298554062843323,,,,,,,,
,one,0.9185030460357666,,,,,,,,
,eye,0.908164918422699,,,,,,,,
,fashionable,0.9073037505149841,,,,,,,,
,hair,0.8982222080230713,,,,,,,,
,hairdo,0.8951250910758972,,,,,,,,
,lips,0.8949539661407471,,,,,,,,
,lady,0.8899480104446411,,,,,,,,
,young,0.8876938223838806,,,,,,,,
,person,0.8685778379440308,,,,,,,,
https://scontent.cdninstagram.com/t51.2885-15/e35/10817900_1109590132419473_2097668648_n.jpg?ig_cache_key=MTIxMTcyNTMwMDE3MDQ3MjUzOA%3D%3D.2,people,0.9937096834182739,Relationships,,,,"Best friends",,,
,step,0.9927372336387634,,,,,,,,
,woman,0.9794716835021973,,,,,,,,
,festival,0.9591121077537537,,,,,,,,
,adult,0.9545854330062866,,,,,,,,
,man,0.9462714195251465,,,,,,,,
,music,0.9409655332565308,,,,,,,,
,recreation,0.9375942945480347,,,,,,,,
,child,0.9193165302276611,,,,,,,,
,one,0.9170215725898743,,,,,,,,
,girl,0.9122346639633179,,,,,,,,
,group,0.9059237837791443,,,,,,,,
,two,0.8981996774673462,,,,,,,,
,fun,0.8950077295303345,,,,,,,,
,competition,0.8887182474136353,,,,,,,,
,travel,0.8808793425559998,,,,,,,,
,leisure,0.8718847036361694,,,,,,,,
,outdoors,0.8674760460853577,,,,,,,,
,religion,0.8579151034355164,,,,,,,,
,fashion,0.8419734239578247,,,,,,,,
https://scontent.cdninstagram.com/t51.2885-15/sh0.08/e35/p640x640/11327003_647961705370047_1133401315_n.jpg?ig_cache_key=MTIxNzg5NjE3NjQ0MDAzMjI1Ng%3D%3D.2,indoors,0.9919850826263428,"Fashion & Beauty",,,,"My look",,,
,woman,0.9827839136123657,,,,,,,,
,people,0.9563359618186951,,,,,,,,
,one,0.9424747228622437,,,,,,,,
,adult,0.9407362341880798,,,,,,,,
,room,0.9346024394035339,,,,,,,,
,"facial expression",0.9214010834693909,,,,,,,,
,portrait,0.9092826843261719,,,,,,,,
,wear,0.9040910601615906,,,,,,,,
,housework,0.8932915925979614,,,,,,,,
,family,0.8499947190284729,,,,,,,,
,happiness,0.841630756855011,,,,,,,,
,house,0.8374425172805786,,,,,,,,
,fun,0.829140305519104,,,,,,,,
,brunette,0.8261722922325134,,,,,,,,
,enjoyment,0.8206753730773926,,,,,,,,
,vertical,0.8079409599304199,,,,,,,,
,girl,0.7966948747634888,,,,,,,,
,clean,0.7915871143341064,,,,,,,,
,looking,0.7890344858169556,,,,,,,,
https://scontent.cdninstagram.com/t51.2885-15/e35/12816982_1705227923077878_1169968178_n.jpg?ig_cache_key=MTE5OTcyNTM3Njk3MzI5MDU5MA%3D%3D.2,child,0.9976341724395752,Relationships,,,,"Baby family",,,
,family,0.9906018376350403,,,,,,,,
,education,0.9824955463409424,,,,,,,,
,indoors,0.9788357019424438,,,,,,,,
,people,0.9775838851928711,,,,,,,,
,man,0.9585788249969482,,,,,,,,
,two,0.9583202600479126,,,,,,,,
,youth,0.9453799724578857,,,,,,,,
,boy,0.9419962167739868,,,,,,,,
,adult,0.9407285451889038,,,,,,,,
,room,0.9328677654266357,,,,,,,,
,sit,0.9317556619644165,,,,,,,,
,boy,0.9282463788986206,,,,,,,,
,togetherness,0.9196987152099609,,,,,,,,
,healthcare,0.9127408266067505,,,,,,,,
,medicine,0.9126290082931519,,,,,,,,
,leisure,0.9121706485748291,,,,,,,,
,enjoyment,0.9102010726928711,,,,,,,,
,woman,0.9094353914260864,,,,,,,,
,furniture,0.9053958654403687,,,,,,,,
https://scontent.cdninstagram.com/t51.2885-15/e35/13398766_634227283395020_1455569549_n.jpg?ig_cache_key=MTI3NDI5NTU4MTgyNDc2MTAxMw%3D%3D.2,adult,0.9856367707252502,"Fashion & Beauty",,,,"My look",,,
,indoors,0.9795295596122742,,,,,,,,
,people,0.9776966571807861,,,,,,,,
,room,0.976110577583313,,,,,,,,
,"facial expression",0.9757245779037476,,,,,,,,
,furniture,0.9748810529708862,,,,,,,,
,one,0.9656347632408142,,,,,,,,
,man,0.9515517354011536,,,,,,,,
,wear,0.9485654830932617,,,,,,,,
,portrait,0.9412510991096497,,,,,,,,
,family,0.8835185766220093,,,,,,,,
,seat,0.8762233257293701,,,,,,,,
,sitting,0.8376243710517883,,,,,,,,
,daylight,0.82807457447052,,,,,,,,
,sit,0.8271833658218384,,,,,,,,
,fashionable,0.8188185095787048,,,,,,,,
,happiness,0.8155238032341003,,,,,,,,
,lifestyle,0.8148426413536072,,,,,,,,
,house,0.8041361570358276,,,,,,,,
,apron,0.8003846406936646,,,,,,,,
https://scontent.cdninstagram.com/t51.2885-15/e35/13414368_1709753455958851_1929157381_n.jpg?ig_cache_key=MTI3MzIwMDU0MTE0MDUwMDA4NA%3D%3D.2,flower,0.9993329048156738,Environment,Transportation,Technology,,"Natural beauty",Transportation-s,Technology-s,
,garden,0.9973506927490234,,,,,,,,
,grass,0.9890021681785583,,,,,,,,
,lawn,0.986920952796936,,,,,,,,
,summer,0.9834091663360596,,,,,,,,
,flora,0.9814857244491577,,,,,,,,
,nature,0.9774504899978638,,,,,,,,
,leaf,0.9705286026000977,,,,,,,,
,yard,0.9693031907081604,,,,,,,,
,"no person",0.9665111303329468,,,,,,,,
,color,0.9628729820251465,,,,,,,,
,park,0.958984375,,,,,,,,
,floral,0.9533934593200684,,,,,,,,
,outdoors,0.9527642726898193,,,,,,,,
,season,0.9478786587715149,,,,,,,,
,tulip,0.941133975982666,,,,,,,,
,backyard,0.9229230880737305,,,,,,,,
,outside,0.9189669489860535,,,,,,,,
,blooming,0.9188603162765503,,,,,,,,
,flowerbed,0.9105499982833862,,,,,,,,
https://scontent.cdninstagram.com/t51.2885-15/s750x750/sh0.08/e35/10246005_909450365820323_1031967363_n.jpg?ig_cache_key=MTIxMTcyODkzMjM5NTc5MzYxNA%3D%3D.2,"facial expression",0.9962831735610962,Relationships,,,,Friends,,,
,group,0.9941887855529785,,,,,,,,
,people,0.991480827331543,,,,,,,,
,friendship,0.9817174673080444,,,,,,,,
,portrait,0.9697732925415039,,,,,,,,
,wear,0.9685807228088379,,,,,,,,
,woman,0.9678826332092285,,,,,,,,
,four,0.9539594054222107,,,,,,,,
,adult,0.9474107027053833,,,,,,,,
,three,0.9445253610610962,,,,,,,,
,group,0.9430732727050781,,,,,,,,
,five,0.9303241968154907,,,,,,,,
,happiness,0.9284108281135559,,,,,,,,
,enjoyment,0.9275420904159546,,,,,,,,
,togetherness,0.9252437353134155,,,,,,,,
,music,0.9052889347076416,,,,,,,,
,daylight,0.9052037000656128,,,,,,,,
,offspring,0.897417426109314,,,,,,,,
,brunette,0.8927001357078552,,,,,,,,
,sibling,0.8882803320884705,,,,,,,,
https://scontent.cdninstagram.com/t51.2885-15/e35/12797593_1735816123322871_196360024_n.jpg?ig_cache_key=MTIxMTcyMzI0NjI0NDk2OTUwMQ%3D%3D.2,group,0.9924967288970947,Relationships,,,,Friends,,,
,portrait,0.9887163043022156,,,,,,,,
,people,0.9837744832038879,,,,,,,,
,music,0.9761601686477661,,,,,,,,
,"facial expression",0.9742153882980347,,,,,,,,
,movie,0.9662327766418457,,,,,,,,
,musician,0.9657160639762878,,,,,,,,
,actress,0.9493086934089661,,,,,,,,
,singer,0.9477667808532715,,,,,,,,
,four,0.9449920654296875,,,,,,,,
,friendship,0.9446897506713867,,,,,,,,
,group,0.9395672082901001,,,,,,,,
,three,0.9358428716659546,,,,,,,,
,recreation,0.9314721822738647,,,,,,,,
,adult,0.9314520359039307,,,,,,,,
,woman,0.9261325597763062,,,,,,,,
,wear,0.9261081218719482,,,,,,,,
,festival,0.9249858856201172,,,,,,,,
,"red carpet",0.9209240674972534,,,,,,,,
,five,0.9175366163253784,,,,,,,,
https://scontent.cdninstagram.com/t51.2885-15/sh0.08/e35/p640x640/12530657_1686352181652131_295012056_n.jpg?ig_cache_key=MTIyMDQzNjAxMjg3NTEwMzczMQ%3D%3D.2,people,0.9977065920829773,Relationships,,,,"Best friends",,,
,"facial expression",0.9974312782287598,,,,,,,,
,wear,0.9968668818473816,,,,,,,,
,portrait,0.9923615455627441,,,,,,,,
,two,0.9918935298919678,,,,,,,,
,adult,0.9914097785949707,,,,,,,,
,man,0.9859552383422852,,,,,,,,
,veil,0.9701029062271118,,,,,,,,
,interaction,0.9497344493865967,,,,,,,,
,affection,0.9450136423110962,,,,,,,,
,happiness,0.9344121217727661,,,,,,,,
,boy,0.9308532476425171,,,,,,,,
,knitwear,0.9267498254776001,,,,,,,,
,offspring,0.9247220754623413,,,,,,,,
,togetherness,0.9241082668304443,,,,,,,,
,woman,0.9222555756568909,,,,,,,,
,one,0.9123224020004272,,,,,,,,
,three,0.9093599319458008,,,,,,,,
,daylight,0.9050129652023315,,,,,,,,
,outerwear,0.8826146125793457,,,,,,,,
https://scontent.cdninstagram.com/t51.2885-15/e15/1168809_1001216613300454_253471556_n.jpg?ig_cache_key=MTIwNzE4MjE0MTc4ODc2NjExOA%3D%3D.2,adult,0.9913331270217896,"Fashion & Beauty","My life",,,"My look",Selfie,,
,portrait,0.9884556531906128,,,,,,,,
,people,0.9822262525558472,,,,,,,,
,man,0.9759823679924011,,,,,,,,
,one,0.9594442844390869,,,,,,,,
,indoors,0.9389434456825256,,,,,,,,
,medicine,0.9263408780097961,,,,,,,,
,scientist,0.915790319442749,,,,,,,,
,"facial expression",0.9123318195343018,,,,,,,,
,woman,0.9107896089553833,,,,,,,,
,doctor,0.899428129196167,,,,,,,,
,person,0.8965296745300293,,,,,,,,
,business,0.8849954605102539,,,,,,,,
,wear,0.8830119371414185,,,,,,,,
,looking,0.8773390650749207,,,,,,,,
,face,0.8726394176483154,,,,,,,,
,young,0.8693076968193054,,,,,,,,
,science,0.8654613494873047,,,,,,,,
,office,0.8561867475509644,,,,,,,,
,eyewear,0.8538941144943237,,,,,,,,
https://scontent.cdninstagram.com/t51.2885-15/e35/13437228_1617128241949960_1954115637_n.jpg?ig_cache_key=MTI3MzIwMDkwMzcyOTY5MjI5MA%3D%3D.2,flower,0.9985436201095581,Environment,,,,"Natural beauty",,,
,flora,0.9955368041992188,,,,,,,,
,garden,0.993392825126648,,,,,,,,
,nature,0.990487813949585,,,,,,,,
,floral,0.9901007413864136,,,,,,,,
,blooming,0.9799962639808655,,,,,,,,
,petal,0.9790377616882324,,,,,,,,
,color,0.9778882265090942,,,,,,,,
,leaf,0.9739458560943604,,,,,,,,
,summer,0.9712457656860352,,,,,,,,
,bouquet,0.9561506509780884,,,,,,,,
,decoration,0.9557698965072632,,,,,,,,
,botanical,0.9552547931671143,,,,,,,,
,bright,0.9484044909477234,,,,,,,,
,beautiful,0.9471282362937927,,,,,,,,
,lily,0.9433899521827698,,,,,,,,
,"no person",0.9389760494232178,,,,,,,,
,season,0.9282746315002441,,,,,,,,
,growth,0.9271367788314819,,,,,,,,
,park,0.9038828015327454,,,,,,,,
https://scontent.cdninstagram.com/t51.2885-15/e35/p320x320/12905112_1709965629273102_1382051024_n.jpg?ig_cache_key=MTIxNzg5NzAxNDMxMDk3NjUzOQ%3D%3D.2,portrait,0.9968417882919312,Relationships,,,,"Best friends",,,
,people,0.9945111274719238,,,,,,,,
,two,0.9938256740570068,,,,,,,,
,adult,0.9892565011978149,,,,,,,,
,wear,0.9790524840354919,,,,,,,,
,"facial expression",0.9729684591293335,,,,,,,,
,happiness,0.9703369140625,,,,,,,,
,man,0.9674564599990845,,,,,,,,
,woman,0.9650000929832458,,,,,,,,
,girl,0.9534837007522583,,,,,,,,
,love,0.9324589967727661,,,,,,,,
,togetherness,0.9291223287582397,,,,,,,,
,interaction,0.924767255783081,,,,,,,,
,movie,0.908827006816864,,,,,,,,
,affection,0.8956971168518066,,,,,,,,
,lifestyle,0.8655500411987305,,,,,,,,
,romance,0.8589290380477905,,,,,,,,
,boy,0.853972315788269,,,,,,,,
,youth,0.8488204479217529,,,,,,,,
,youth,0.8464441299438477,,,,,,,,
https://scontent.cdninstagram.com/t51.2885-15/sh0.08/e35/p640x640/12950277_1523895284583777_659574120_n.jpg?ig_cache_key=MTIyMDQzMzA3NTcyOTg0MTU0NQ%3D%3D.2,portrait,0.9948084354400635,Relationships,,,,"Best friends",,,
,people,0.9939370155334473,,,,,,,,
,recreation,0.9861502647399902,,,,,,,,
,"facial expression",0.9845932722091675,,,,,,,,
,actress,0.980313241481781,,,,,,,,
,music,0.9756547808647156,,,,,,,,
,adult,0.9741525650024414,,,,,,,,
,movie,0.9710298776626587,,,,,,,,
,actor,0.9707852005958557,,,,,,,,
,musician,0.9696868658065796,,,,,,,,
,wear,0.9673031568527222,,,,,,,,
,two,0.9667489528656006,,,,,,,,
,man,0.9514256119728088,,,,,,,,
,singer,0.948849081993103,,,,,,,,
,"red carpet",0.8937028050422668,,,,,,,,
,group,0.8920190334320068,,,,,,,,
,woman,0.887147068977356,,,,,,,,
,television,0.8676226139068604,,,,,,,,
,theater,0.8598414659500122,,,,,,,,
,three,0.818938136100769,,,,,,,,
https://scontent.cdninstagram.com/t51.2885-15/sh0.08/e35/p640x640/12479384_531851733669222_1936293993_n.jpg?ig_cache_key=MTIxMTcyMjg1NzE1NjE2NDYyNQ%3D%3D.2,people,0.994828462600708,Relationships,,,,"Best friends",,,
,portrait,0.9946033954620361,,,,,,,,
,two,0.9896464347839355,,,,,,,,
,man,0.9888474345207214,,,,,,,,
,"facial expression",0.9875031113624573,,,,,,,,
,adult,0.9839170575141907,,,,,,,,
,movie,0.9766076803207397,,,,,,,,
,music,0.9733519554138184,,,,,,,,
,woman,0.9704375267028809,,,,,,,,
,actress,0.969622015953064,,,,,,,,
,wear,0.9531471729278564,,,,,,,,
,interaction,0.9513893127441406,,,,,,,,
,group,0.950168251991272,,,,,,,,
,musician,0.9449757933616638,,,,,,,,
,recreation,0.943388819694519,,,,,,,,
,actor,0.9370571374893188,,,,,,,,
,singer,0.9184930920600891,,,,,,,,
,festival,0.9138960838317871,,,,,,,,
,three,0.9026610851287842,,,,,,,,
,stock,0.8949432373046875,,,,,,,,
https://scontent.cdninstagram.com/t51.2885-15/e35/12751585_1683779795244708_419888315_n.jpg?ig_cache_key=MTE5NjQ5MTA4ODMwNzkyODQ2Mw%3D%3D.2,"no person",0.9937278032302856,Arts,,,,Arts-s,,,
,"graphic design",0.9934723377227783,,,,,,,,
,stripe,0.990534782409668,,,,,,,,
,flag,0.9891965389251709,,,,,,,,
,united,0.9845184087753296,,,,,,,,
,symbol,0.9729587435722351,,,,,,,,
,unity,0.9716498851776123,,,,,,,,
,patriotism,0.967060923576355,,,,,,,,
,freedom,0.9668834805488586,,,,,,,,
,kingdom,0.9518802165985107,,,,,,,,
,pride,0.9456384181976318,,,,,,,,
,identity,0.9286044239997864,,,,,,,,
,business,0.9210665225982666,,,,,,,,
,democracy,0.912763237953186,,,,,,,,
,glazed,0.8877953290939331,,,,,,,,
,wind,0.8855012655258179,,,,,,,,
,government,0.8554925918579102,,,,,,,,
,country,0.8506038188934326,,,,,,,,
,illustration,0.8438863754272461,,,,,,,,
,language,0.8399572968482971,,,,,,,,
https://scontent.cdninstagram.com/t51.2885-15/sh0.08/e35/p640x640/11875367_184671368589550_1122731376_n.jpg?ig_cache_key=MTIxMTcyNjgxNTUyMjE3NjEzOA%3D%3D.2,"facial expression",0.9983330965042114,Relationships,,,,"Best friends",,,
,two,0.9966744184494019,,,,,,,,
,people,0.9966186881065369,,,,,,,,
,wear,0.9962952733039856,,,,,,,,
,portrait,0.9948676228523254,,,,,,,,
,adult,0.9939347505569458,,,,,,,,
,man,0.9865542650222778,,,,,,,,
,woman,0.9809572696685791,,,,,,,,
,actress,0.9747793674468994,,,,,,,,
,togetherness,0.9737532734870911,,,,,,,,
,interaction,0.9726582765579224,,,,,,,,
,recreation,0.96863853931427,,,,,,,,
,affection,0.967445969581604,,,,,,,,
,movie,0.9650960564613342,,,,,,,,
,happiness,0.964401125907898,,,,,,,,
,indoors,0.9343595504760742,,,,,,,,
,actor,0.9335445165634155,,,,,,,,
,jewelry,0.9232690334320068,,,,,,,,
,daylight,0.9180318713188171,,,,,,,,
,room,0.9029039740562439,,,,,,,,
https://scontent.cdninstagram.com/t51.2885-15/e35/13398697_1612040215776417_1855505523_n.jpg?ig_cache_key=MTI3MzIxMjYzMTk1OTk3NzA1OQ%3D%3D.2,tree,0.9881337285041809,"Fashion & Beauty",Environment,,,Ootd,"Natural beauty",,
,outdoors,0.9880877733230591,,,,,,,,
,garden,0.9845089912414551,,,,,,,,
,people,0.9816499948501587,,,,,,,,
,flower,0.97792649269104,,,,,,,,
,summer,0.9610061049461365,,,,,,,,
,child,0.9596362113952637,,,,,,,,
,leaf,0.9569939374923706,,,,,,,,
,daylight,0.9567726254463196,,,,,,,,
,one,0.9564910531044006,,,,,,,,
,leisure,0.9521642923355103,,,,,,,,
,flora,0.9500121474266052,,,,,,,,
,adult,0.9464071989059448,,,,,,,,
,park,0.9438245296478271,,,,,,,,
,two,0.943148136138916,,,,,,,,
,nature,0.9425989389419556,,,,,,,,
,man,0.9290803670883179,,,,,,,,
,growth,0.9218240976333618,,,,,,,,
,recreation,0.9162161350250244,,,,,,,,
,grow,0.9055436849594116,,,,,,,,
https://scontent.cdninstagram.com/t51.2885-15/sh0.08/e35/p640x640/12749988_1151952571511976_1071370956_n.jpg?ig_cache_key=MTE5Nzc5NjUzNTc5MDk3NjAyNw%3D%3D.2,child,0.9915357828140259,Relationships,,,,Friends,,,
,people,0.9878174662590027,,,,,,,,
,woman,0.9750986695289612,,,,,,,,
,togetherness,0.9702587127685547,,,,,,,,
,man,0.9666765332221985,,,,,,,,
,portrait,0.9600856304168701,,,,,,,,
,group,0.9599931240081787,,,,,,,,
,girl,0.9569697380065918,,,,,,,,
,family,0.9491176009178162,,,,,,,,
,adult,0.9477583169937134,,,,,,,,
,two,0.9456244111061096,,,,,,,,
,education,0.9429088234901428,,,,,,,,
,friendship,0.9350656270980835,,,,,,,,
,school,0.931503415107727,,,,,,,,
,indoors,0.9312475919723511,,,,,,,,
,"facial expression",0.9224371910095215,,,,,,,,
,boy,0.914696216583252,,,,,,,,
,fun,0.9081459045410156,,,,,,,,
,happiness,0.9071474075317383,,,,,,,,
,boy,0.9037798643112183,,,,,,,,
https://scontent.cdninstagram.com/t51.2885-15/e35/13437392_612760265556397_1168457220_n.jpg?ig_cache_key=MTI3MzIxMjk4MDk1OTYyNDMwMg%3D%3D.2,people,0.9759550094604492,Relationships,,,,Friends,,,
,group,0.9518207907676697,,,,,,,,
,woman,0.9465621709823608,,,,,,,,
,man,0.9384691119194031,,,,,,,,
,adult,0.9123585820198059,,,,,,,,
,wear,0.8927134871482849,,,,,,,,
,family,0.8922723531723022,,,,,,,,
,group,0.8796988129615784,,,,,,,,
,portrait,0.8774510622024536,,,,,,,,
,togetherness,0.8746500015258789,,,,,,,,
,friendship,0.8733420968055725,,,,,,,,
,school,0.8681821823120117,,,,,,,,
,outdoors,0.8623203039169312,,,,,,,,
,"facial expression",0.8607677817344666,,,,,,,,
,happiness,0.8604648113250732,,,,,,,,
,enjoyment,0.859180212020874,,,,,,,,
,recreation,0.8416448831558228,,,,,,,,
,education,0.8274394273757935,,,,,,,,
,child,0.8230175971984863,,,,,,,,
,daylight,0.8082589507102966,,,,,,,,
https://scontent.cdninstagram.com/t51.2885-15/e35/12446204_467456556779699_848978298_n.jpg?ig_cache_key=MTIyNjE2Njg5MzgyODg4MjA5MA%3D%3D.2,woman,0.9837130308151245,Relationships,,,,"Best friends",,,
,portrait,0.9808359146118164,,,,,,,,
,two,0.9753008484840393,,,,,,,,
,man,0.9725499153137207,,,,,,,,
,adult,0.9695442914962769,,,,,,,,
,outdoors,0.9671861529350281,,,,,,,,
,togetherness,0.9649757146835327,,,,,,,,
,people,0.9584715366363525,,,,,,,,
,happiness,0.9490975141525269,,,,,,,,
,love,0.9430931806564331,,,,,,,,
,wear,0.9421814680099487,,,,,,,,
,"facial expression",0.9378653764724731,,,,,,,,
,recreation,0.9185299873352051,,,,,,,,
,affection,0.9040666818618774,,,,,,,,
,lifestyle,0.9038238525390625,,,,,,,,
,romance,0.8777501583099365,,,,,,,,
,family,0.8760465383529663,,,,,,,,
,daylight,0.8677403926849365,,,,,,,,
,leisure,0.8357511758804321,,,,,,,,
,fashion,0.8343981504440308,,,,,,,,
https://scontent.cdninstagram.com/t51.2885-15/e35/13381120_194628484268129_255005642_n.jpg?ig_cache_key=MTI3MzIxMjIyMjM5NDU4MDA1MQ%3D%3D.2,group,0.988579511642456,Relationships,,,,Family,,,
,child,0.986164391040802,,,,,,,,
,school,0.9818612933158875,,,,,,,,
,people,0.9800780415534973,,,,,,,,
,friendship,0.9709941148757935,,,,,,,,
,education,0.9695535898208618,,,,,,,,
,group,0.9569542407989502,,,,,,,,
,student,0.9544823169708252,,,,,,,,
,fun,0.937389612197876,,,,,,,,
,woman,0.9315649271011353,,,,,,,,
,man,0.9285931587219238,,,,,,,,
,enjoyment,0.9272608757019043,,,,,,,,
,togetherness,0.9255728721618652,,,,,,,,
,family,0.9070955514907837,,,,,,,,
,university,0.9061616063117981,,,,,,,,
,outdoors,0.8995509147644043,,,,,,,,
,recreation,0.8985647559165955,,,,,,,,
,teacher,0.8825219869613647,,,,,,,,
,portrait,0.8795197010040283,,,,,,,,
,many,0.8737092018127441,,,,,,,,
https://scontent.cdninstagram.com/t51.2885-15/e35/12424416_950336731752955_2037151706_n.jpg?ig_cache_key=MTIxMTcyNDM0NzUwMTQyNzc3MA%3D%3D.2,road,0.9838935136795044,Relationships,,,,"Best friends",,,
,police,0.9838485717773438,,,,,,,,
,offense,0.9813833832740784,,,,,,,,
,people,0.9753557443618774,,,,,,,,
,rally,0.9696004986763,,,,,,,,
,street,0.9692118167877197,,,,,,,,
,battle,0.9649093151092529,,,,,,,,
,vehicle,0.9597572088241577,,,,,,,,
,action,0.9523571729660034,,,,,,,,
,motion,0.9441220760345459,,,,,,,,
,man,0.9418042898178101,,,,,,,,
,adult,0.9366152286529541,,,,,,,,
,woman,0.9327311515808105,,,,,,,,
,child,0.9289944171905518,,,,,,,,
,city,0.9117431640625,,,,,,,,
,accident,0.9082506895065308,,,,,,,,
,family,0.9022742509841919,,,,,,,,
,recreation,0.8816964626312256,,,,,,,,
,force,0.8735531568527222,,,,,,,,
,competition,0.8689740896224976,,,,,,,,
https://scontent.cdninstagram.com/t51.2885-15/e35/13402538_1726426280964004_492419421_n.jpg?ig_cache_key=MTI3MzIwMTczNTQyNjYyMTA5OA%3D%3D.2,flower,0.9326449632644653,Environment,,,,Landmarks,,,
,tree,0.9321489334106445,,,,,,,,
,sky,0.9303362369537354,,,,,,,,
,decoration,0.9271572828292847,,,,,,,,
,nature,0.9167012572288513,,,,,,,,
,design,0.9104247093200684,,,,,,,,
,art,0.9037659168243408,,,,,,,,
,outdoors,0.8925988674163818,,,,,,,,
,color,0.8918731808662415,,,,,,,,
,"no person",0.8861758708953857,,,,,,,,
,Christmas,0.8804069757461548,,,,,,,,
,flora,0.8797073364257812,,,,,,,,
,leaf,0.8787051439285278,,,,,,,,
,park,0.8748091459274292,,,,,,,,
,summer,0.8747929334640503,,,,,,,,
,light,0.8649447560310364,,,,,,,,
,old,0.8595656156539917,,,,,,,,
,travel,0.8431686162948608,,,,,,,,
,garden,0.8366603255271912,,,,,,,,
,architecture,0.8341293931007385,,,,,,,,
https://scontent.cdninstagram.com/t51.2885-15/e15/p640x640/13395000_242551899457046_1572317213_n.jpg?ig_cache_key=MTI3MDY3NDMwNzM5NTMzODExMw%3D%3D.2,technology,0.9930168390274048,Environment,,,,Landmarks,,,
,"no person",0.9882097840309143,,,,,,,,
,business,0.9873000383377075,,,,,,,,
,modern,0.9746543169021606,,,,,,,,
,industry,0.9611310958862305,,,,,,,,
,power,0.9459624290466309,,,,,,,,
,office,0.9414937496185303,,,,,,,,
,glass,0.9370465874671936,,,,,,,,
,futuristic,0.933000922203064,,,,,,,,
,architecture,0.9303013682365417,,,,,,,,
,airport,0.9278226494789124,,,,,,,,
,step,0.9238220453262329,,,,,,,,
,contemporary,0.9221147298812866,,,,,,,,
,indoors,0.9054884910583496,,,,,,,,
,science,0.9026021957397461,,,,,,,,
,"transportation system",0.9022408723831177,,,,,,,,
,perspective,0.8988572359085083,,,,,,,,
,building,0.8849456310272217,,,,,,,,
,equipment,0.8848550319671631,,,,,,,,
,electricity,0.8808300495147705,,,,,,,,
https://scontent.cdninstagram.com/t51.2885-15/e35/12959952_806930632773057_1772159115_n.jpg?ig_cache_key=MTIyOTEwMzk2NTc2NjEzODk3Ng%3D%3D.2,portrait,0.9912434816360474,Relationships,,,,"Best friends",,,
,adult,0.9904580116271973,,,,,,,,
,man,0.989981472492218,,,,,,,,
,"facial expression",0.9829229116439819,,,,,,,,
,happiness,0.9821270704269409,,,,,,,,
,people,0.9820894598960876,,,,,,,,
,woman,0.9656652808189392,,,,,,,,
,wear,0.9648338556289673,,,,,,,,
,two,0.9647079706192017,,,,,,,,
,healthcare,0.9299896955490112,,,,,,,,
,group,0.9196340441703796,,,,,,,,
,togetherness,0.9130854606628418,,,,,,,,
,medicine,0.8932274580001831,,,,,,,,
,three,0.8892838954925537,,,,,,,,
,family,0.8696318864822388,,,,,,,,
,recreation,0.852887749671936,,,,,,,,
,doctor,0.848930299282074,,,,,,,,
,uniform,0.848533034324646,,,,,,,,
,indoors,0.8224692344665527,,,,,,,,
,hospital,0.8219762444496155,,,,,,,,
https://scontent.cdninstagram.com/t51.2885-15/e35/12940070_534635043383110_914804070_n.jpg?ig_cache_key=MTIyNjE2ODU0OTQzODExMTQ0OQ%3D%3D.2,woman,0.9913763403892517,Relationships,,,,Friends,,,
,portrait,0.9789475202560425,,,,,,,,
,people,0.9716504812240601,,,,,,,,
,group,0.9714638590812683,,,,,,,,
,happiness,0.9680458307266235,,,,,,,,
,fun,0.9671050310134888,,,,,,,,
,friendship,0.9668596982955933,,,,,,,,
,student,0.960651159286499,,,,,,,,
,adolescent,0.9584136605262756,,,,,,,,
,joy,0.955581545829773,,,,,,,,
,"facial expression",0.9544755220413208,,,,,,,,
,laughing,0.9484137892723083,,,,,,,,
,smile,0.9470474720001221,,,,,,,,
,adult,0.9444884061813354,,,,,,,,
,young,0.9339824914932251,,,,,,,,
,girl,0.933394193649292,,,,,,,,
,togetherness,0.9150620698928833,,,,,,,,
,three,0.8952469825744629,,,,,,,,
,group,0.8884085416793823,,,,,,,,
,university,0.8818566799163818,,,,,,,,
https://scontent.cdninstagram.com/t51.2885-15/e35/13423542_259541834406797_1731135382_n.jpg?ig_cache_key=MTI3Mjg2MzI2ODQ3MzY1MDIxMQ%3D%3D.2,city,0.9945927858352661,Environment,,,,"Manmade beauty",,,
,river,0.9920554161071777,,,,,,,,
,water,0.9919000864028931,,,,,,,,
,architecture,0.9860172271728516,,,,,,,,
,bridge,0.9854985475540161,,,,,,,,
,travel,0.983367919921875,,,,,,,,
,skyline,0.9819033145904541,,,,,,,,
,building,0.9806981086730957,,,,,,,,
,cityscape,0.9777549505233765,,,,,,,,
,evening,0.9741127490997314,,,,,,,,
,sky,0.9720023274421692,,,,,,,,
,urban,0.9702041149139404,,,,,,,,
,waterfront,0.9584752917289734,,,,,,,,
,reflection,0.9581364989280701,,,,,,,,
,skyscraper,0.9537141919136047,,,,,,,,
,light,0.9455181360244751,,,,,,,,
,harbor,0.9444298148155212,,,,,,,,
,"no person",0.9429359436035156,,,,,,,,
,sunset,0.940269947052002,,,,,,,,
,dusk,0.9359605312347412,,,,,,,,
https://scontent.cdninstagram.com/t51.2885-15/sh0.08/e35/p640x640/12599525_1739076069647046_913488134_n.jpg?ig_cache_key=MTIyNjIwNTA2Nzg5MjQ3MzY5Nw%3D%3D.2,people,0.9901127815246582,Relationships,,,,"Best friends",,,
,woman,0.9837387204170227,,,,,,,,
,adult,0.9751826524734497,,,,,,,,
,girl,0.974334716796875,,,,,,,,
,school,0.9631961584091187,,,,,,,,
,recreation,0.9459958076477051,,,,,,,,
,portrait,0.9377670288085938,,,,,,,,
,competition,0.9191761016845703,,,,,,,,
,street,0.9127333164215088,,,,,,,,
,exercise,0.9121355414390564,,,,,,,,
,leisure,0.9111379981040955,,,,,,,,
,daylight,0.9079300165176392,,,,,,,,
,wear,0.9058239459991455,,,,,,,,
,athlete,0.901348888874054,,,,,,,,
,child,0.8918569087982178,,,,,,,,
,man,0.8800911903381348,,,,,,,,
,outdoors,0.8799452781677246,,,,,,,,
,city,0.8767653703689575,,,,,,,,
,university,0.8734840154647827,,,,,,,,
,education,0.8698884844779968,,,,,,,,
https://scontent.cdninstagram.com/t51.2885-15/e35/12976507_1687723038148503_327406328_n.jpg?ig_cache_key=MTIyNjE5MjU2NDEyNjk4OTgwMg%3D%3D.2,portrait,0.9872430562973022,Relationships,,,,"Best friends",,,
,two,0.9864306449890137,,,,,,,,
,wear,0.9818525314331055,,,,,,,,
,people,0.9805459976196289,,,,,,,,
,"red carpet",0.9790525436401367,,,,,,,,
,adult,0.9766933917999268,,,,,,,,
,"facial expression",0.974802553653717,,,,,,,,
,actress,0.9677870869636536,,,,,,,,
,woman,0.9655582904815674,,,,,,,,
,movie,0.9622035622596741,,,,,,,,
,festival,0.9508469700813293,,,,,,,,
,arrival,0.9498405456542969,,,,,,,,
,recreation,0.9494009613990784,,,,,,,,
,man,0.9371535181999207,,,,,,,,
,fashionable,0.9222013354301453,,,,,,,,
,fashion,0.90976881980896,,,,,,,,
,ceremony,0.9080976843833923,,,,,,,,
,family,0.8688970804214478,,,,,,,,
,three,0.8685381412506104,,,,,,,,
,"film festival",0.8682664632797241,,,,,,,,
https://scontent.cdninstagram.com/t51.2885-15/e35/13413193_1387041991312620_514656959_n.jpg?ig_cache_key=MTI3MjQ5MTg1NjYzMDEwMzkyMw%3D%3D.2,summer,0.9933598041534424,Environment,"Fashion & Beauty",,,"Natural beauty","My look",,
,nature,0.991089403629303,,,,,,,,
,grass,0.9877378940582275,,,,,,,,
,happiness,0.984635055065155,,,,,,,,
,lifestyle,0.9824697971343994,,,,,,,,
,outdoors,0.9819192886352539,,,,,,,,
,field,0.972083330154419,,,,,,,,
,outside,0.9709600210189819,,,,,,,,
,fun,0.9648151993751526,,,,,,,,
,leisure,0.9621877670288086,,,,,,,,
,young,0.9561678171157837,,,,,,,,
,park,0.9524152278900146,,,,,,,,
,joy,0.9441738128662109,,,,,,,,
,flora,0.9361653923988342,,,,,,,,
,rural,0.9361215233802795,,,,,,,,
,countryside,0.9294136166572571,,,,,,,,
,beautiful,0.9256714582443237,,,,,,,,
,adult,0.9225624799728394,,,,,,,,
,child,0.9214655756950378,,,,,,,,
,person,0.9188317060470581,,,,,,,,
https://scontent.cdninstagram.com/t51.2885-15/e35/12822416_1082382731782636_1323374446_n.jpg?ig_cache_key=MTIwNjQzNDI0OTU4NzI3NzY3Ng%3D%3D.2,"no person",0.9737591743469238,Arts,,,,Arts-s,,,
,illustration,0.9473116993904114,,,,,,,,
,symbol,0.9386690855026245,,,,,,,,
,love,0.9366323947906494,,,,,,,,
,retro,0.9328509569168091,,,,,,,,
,card,0.9018262624740601,,,,,,,,
,vector,0.9016788005828857,,,,,,,,
,art,0.900067925453186,,,,,,,,
,design,0.8945952653884888,,,,,,,,
,desktop,0.8875553607940674,,,,,,,,
,print,0.8867791295051575,,,,,,,,
,people,0.872347354888916,,,,,,,,
,basket,0.8711310029029846,,,,,,,,
,celebration,0.8547711372375488,,,,,,,,
,fun,0.8475922346115112,,,,,,,,
,shape,0.8387454748153687,,,,,,,,
,romance,0.838380753993988,,,,,,,,
,one,0.831430196762085,,,,,,,,
,vintage,0.8226114511489868,,,,,,,,
,food,0.8221136331558228,,,,,,,,
https://scontent.cdninstagram.com/t51.2885-15/e35/12424900_259583147713722_1207700289_n.jpg?ig_cache_key=MTIyNjE1ODk5NzU5ODYxNjk5OA%3D%3D.2,man,0.9866865873336792,"Fashion & Beauty",,,,"My look",,,
,portrait,0.9855988025665283,,,,,,,,
,wear,0.970166802406311,,,,,,,,
,fine-looking,0.9687395095825195,,,,,,,,
,boy,0.9530951380729675,,,,,,,,
,casual,0.9435098767280579,,,,,,,,
,adult,0.9415575861930847,,,,,,,,
,indoors,0.9327946901321411,,,,,,,,
,people,0.9279129505157471,,,,,,,,
,fashion,0.9257562160491943,,,,,,,,
,one,0.9119500517845154,,,,,,,,
,shirt,0.8970173597335815,,,,,,,,
,school,0.8962969779968262,,,,,,,,
,fashionable,0.8957703113555908,,,,,,,,
,"facial expression",0.8888028860092163,,,,,,,,
,education,0.8855112791061401,,,,,,,,
,looking,0.8852603435516357,,,,,,,,
,youth,0.8661837577819824,,,,,,,,
,university,0.8494181632995605,,,,,,,,
,model,0.8444547653198242,,,,,,,,
https://scontent.cdninstagram.com/t51.2885-15/e35/13423039_545018912368500_952490617_n.jpg?ig_cache_key=MTI3MjQ5Mjc1NDI1MzEwMjk4Nw%3D%3D.2,road,0.9890071749687195,Environment,,,,"Natural beauty",,,
,street,0.9695839881896973,,,,,,,,
,travel,0.962751567363739,,,,,,,,
,people,0.9605642557144165,,,,,,,,
,outdoors,0.9382133483886719,,,,,,,,
,tree,0.9059258103370667,,,,,,,,
,landscape,0.889461874961853,,,,,,,,
,guidance,0.8117407560348511,,,,,,,,
,woman,0.8101389408111572,,,,,,,,
,child,0.7934371829032898,,,,,,,,
,family,0.7900996804237366,,,,,,,,
,track,0.7812635898590088,,,,,,,,
,"no person",0.7750157713890076,,,,,,,,
,environment,0.7554092407226562,,,,,,,,
,action,0.7528237104415894,,,,,,,,
,city,0.7476756572723389,,,,,,,,
,"transportation system",0.7476234436035156,,,,,,,,
,man,0.7451772689819336,,,,,,,,
,competition,0.7373904585838318,,,,,,,,
,recreation,0.7364953756332397,,,,,,,,
https://scontent.cdninstagram.com/t51.2885-15/e35/12568749_1054787901231486_836219629_n.jpg?ig_cache_key=MTIxMTcyNDgxNzMzMDU4NDY0OQ%3D%3D.2,people,0.987058699131012,Relationships,,,,"Best friends",,,
,adult,0.9841280579566956,,,,,,,,
,woman,0.9794459939002991,,,,,,,,
,man,0.9586525559425354,,,,,,,,
,two,0.9372996091842651,,,,,,,,
,happiness,0.9316350221633911,,,,,,,,
,family,0.9281636476516724,,,,,,,,
,wear,0.9212496280670166,,,,,,,,
,portrait,0.9105152487754822,,,,,,,,
,group,0.909966230392456,,,,,,,,
,togetherness,0.9082801938056946,,,,,,,,
,child,0.9062902927398682,,,,,,,,
,school,0.9015097618103027,,,,,,,,
,education,0.900789737701416,,,,,,,,
,battle,0.8930168747901917,,,,,,,,
,indoors,0.887549638748169,,,,,,,,
,enjoyment,0.887091875076294,,,,,,,,
,girl,0.8838669657707214,,,,,,,,
,business,0.8807512521743774,,,,,,,,
,room,0.8791985511779785,,,,,,,,
https://scontent.cdninstagram.com/l/t51.2885-15/e35/13398925_1756944457860303_915097454_n.jpg?ig_cache_key=MTI3MDY3NjA5MTc5NDg2NjExNA%3D%3D.2,nightlife,0.9788116216659546,Environment,,,,"Manmade beauty",,,
,evening,0.9743993878364563,,,,,,,,
,festival,0.973669171333313,,,,,,,,
,celebration,0.9691659212112427,,,,,,,,
,people,0.9672424793243408,,,,,,,,
,city,0.9657208919525146,,,,,,,,
,tourism,0.9600577354431152,,,,,,,,
,travel,0.953194260597229,,,,,,,,
,tourist,0.9528779983520508,,,,,,,,
,Christmas,0.9518561363220215,,,,,,,,
,light,0.9489848017692566,,,,,,,,
,party,0.9447503089904785,,,,,,,,
,street,0.9388414621353149,,,,,,,,
,illuminated,0.935956597328186,,,,,,,,
,restaurant,0.930981457233429,,,,,,,,
,urban,0.9157633781433105,,,,,,,,
,group,0.9152238368988037,,,,,,,,
,vacation,0.9125575423240662,,,,,,,,
,market,0.9107533693313599,,,,,,,,
,building,0.8998562097549438,,,,,,,,
https://scontent.cdninstagram.com/t51.2885-15/sh0.08/e35/p640x640/13398983_1542300049412217_1464687648_n.jpg?ig_cache_key=MTI3MDY3MzM2OTk5MzU1OTkwNg%3D%3D.2,architecture,0.9899317026138306,Environment,,,,"Manmade beauty",,,
,city,0.9890083074569702,,,,,,,,
,water,0.9814987182617188,,,,,,,,
,travel,0.9813239574432373,,,,,,,,
,modern,0.9794575572013855,,,,,,,,
,building,0.9788837432861328,,,,,,,,
,reflection,0.9720139503479004,,,,,,,,
,"no person",0.9629255533218384,,,,,,,,
,urban,0.954746663570404,,,,,,,,
,business,0.9520646929740906,,,,,,,,
,sky,0.9481213092803955,,,,,,,,
,downtown,0.9440894722938538,,,,,,,,
,office,0.9378384351730347,,,,,,,,
,river,0.9332096576690674,,,,,,,,
,outdoors,0.9319296479225159,,,,,,,,
,waterfront,0.9247547388076782,,,,,,,,
,hotel,0.91994309425354,,,,,,,,
,skyscraper,0.9184707999229431,,,,,,,,
,cityscape,0.9039770364761353,,,,,,,,
,dusk,0.9037139415740967,,,,,,,,
https://scontent.cdninstagram.com/t51.2885-15/e35/12797587_1574619246188213_961741828_n.jpg?ig_cache_key=MTIxMTcyMTMyNjAzMzg3ODk5NQ%3D%3D.2,group,0.9986711740493774,Relationships,,,,Friends,,,
,"facial expression",0.9943036437034607,,,,,,,,
,friendship,0.9856109619140625,,,,,,,,
,group,0.9788389801979065,,,,,,,,
,woman,0.9781791567802429,,,,,,,,
,people,0.9712145328521729,,,,,,,,
,portrait,0.9661035537719727,,,,,,,,
,adult,0.9613837003707886,,,,,,,,
,happiness,0.9585467576980591,,,,,,,,
,offspring,0.9580445289611816,,,,,,,,
,togetherness,0.9557908177375793,,,,,,,,
,four,0.955507218837738,,,,,,,,
,school,0.946779727935791,,,,,,,,
,child,0.9456891417503357,,,,,,,,
,five,0.9353983998298645,,,,,,,,
,interaction,0.9345310926437378,,,,,,,,
,wear,0.9324706792831421,,,,,,,,
,three,0.9242921471595764,,,,,,,,
,laughing,0.9226804971694946,,,,,,,,
,man,0.9145249724388123,,,,,,,,
https://scontent.cdninstagram.com/t51.2885-15/e35/13413206_104694879958521_262921861_n.jpg?ig_cache_key=MTI3MjQ5MTEwNjg5ODI2Mzg5NQ%3D%3D.2,people,0.9870194792747498,Relationships,,,,"Best friends",,,
,wear,0.9692976474761963,,,,,,,,
,two,0.9597090482711792,,,,,,,,
,adult,0.9594774842262268,,,,,,,,
,woman,0.9580838680267334,,,,,,,,
,"facial expression",0.9541687965393066,,,,,,,,
,man,0.952167272567749,,,,,,,,
,indoors,0.9481366872787476,,,,,,,,
,happiness,0.932183027267456,,,,,,,,
,family,0.9234649538993835,,,,,,,,
,portrait,0.9190079569816589,,,,,,,,
,child,0.9185302257537842,,,,,,,,
,togetherness,0.8958773612976074,,,,,,,,
,enjoyment,0.8794978857040405,,,,,,,,
,fun,0.8642979860305786,,,,,,,,
,group,0.8574585318565369,,,,,,,,
,three,0.8538362383842468,,,,,,,,
,recreation,0.8532151579856873,,,,,,,,
,boy,0.8370932340621948,,,,,,,,
,room,0.828136682510376,,,,,,,,
https://scontent.cdninstagram.com/t51.2885-15/e35/13423536_796673863767938_868500572_n.jpg?ig_cache_key=MTI3Mjg2MjU0MjAyODU4NTk5NQ%3D%3D.2,kayak,0.9952292442321777,Recreation,,,,Recreation-s,,,
,water,0.9951663017272949,,,,,,,,
,canoe,0.9949837923049927,,,,,,,,
,"water sports",0.9904752969741821,,,,,,,,
,recreation,0.990074634552002,,,,,,,,
,vehicle,0.9873698949813843,,,,,,,,
,watercraft,0.9809735417366028,,,,,,,,
,travel,0.9800640940666199,,,,,,,,
,leisure,0.9653770923614502,,,,,,,,
,lake,0.9563375115394592,,,,,,,,
,"no person",0.9544422626495361,,,,,,,,
,rowboat,0.9535430669784546,,,,,,,,
,paddle,0.9524030685424805,,,,,,,,
,boatman,0.9518495798110962,,,,,,,,
,ocean,0.951781153678894,,,,,,,,
,sea,0.9503216743469238,,,,,,,,
,"transportation system",0.9498474597930908,,,,,,,,
,river,0.9469077587127686,,,,,,,,
,seashore,0.9460635185241699,,,,,,,,
,oar,0.9425820708274841,,,,,,,,
https://scontent.cdninstagram.com/t51.2885-15/e35/13392842_1034037543312059_1253546946_n.jpg?ig_cache_key=MTI3MjUzNjA1MDAxNDg2MjkzOA%3D%3D.2,city,0.988393247127533,Environment,,,,"Manmade beauty",,,
,water,0.980902373790741,,,,,,,,
,architecture,0.9788146018981934,,,,,,,,
,reflection,0.9748633503913879,,,,,,,,
,building,0.9727878570556641,,,,,,,,
,travel,0.9672151803970337,,,,,,,,
,urban,0.966132640838623,,,,,,,,
,cityscape,0.9597256183624268,,,,,,,,
,skyscraper,0.9531611204147339,,,,,,,,
,modern,0.9530253410339355,,,,,,,,
,evening,0.9442726373672485,,,,,,,,
,"no person",0.9411770701408386,,,,,,,,
,river,0.939713716506958,,,,,,,,
,downtown,0.9351000189781189,,,,,,,,
,business,0.9267672300338745,,,,,,,,
,light,0.9192730188369751,,,,,,,,
,skyline,0.9148711562156677,,,,,,,,
,bridge,0.9126847982406616,,,,,,,,
,dusk,0.9126794338226318,,,,,,,,
,finance,0.8769531846046448,,,,,,,,
https://scontent.cdninstagram.com/t51.2885-15/e35/13385621_1729621587278195_1572103219_n.jpg?ig_cache_key=MTI3MjQ5MDg3MDkyNjcyMDg0Ng%3D%3D.2,people,0.9877265691757202,Relationships,Recreation,,,Friends,Recreation-s,,
,competition,0.9782723784446716,,,,,,,,
,recreation,0.9397773742675781,,,,,,,,
,group,0.9210820198059082,,,,,,,,
,vehicle,0.9197792410850525,,,,,,,,
,many,0.9166973829269409,,,,,,,,
,athlete,0.9157326817512512,,,,,,,,
,city,0.9127143621444702,,,,,,,,
,race,0.9046151041984558,,,,,,,,
,festival,0.9014056921005249,,,,,,,,
,accident,0.8914965391159058,,,,,,,,
,group,0.8778859972953796,,,,,,,,
,road,0.8664498925209045,,,,,,,,
,man,0.8576385974884033,,,,,,,,
,adult,0.8537026047706604,,,,,,,,
,action,0.8368055820465088,,,,,,,,
,fun,0.8345587253570557,,,,,,,,
,motion,0.8259094953536987,,,,,,,,
,leisure,0.8245148658752441,,,,,,,,
,race,0.8241307735443115,,,,,,,,
https://scontent.cdninstagram.com/t51.2885-15/e35/13166974_279254052409844_1848546402_n.jpg?ig_cache_key=MTI0NTgwNTU3MjUxNTkzNzM1Mg%3D%3D.2,people,0.9912563562393188,Relationships,,,,Family,,,
,portrait,0.9898947477340698,,,,,,,,
,man,0.9863130450248718,,,,,,,,
,adult,0.9838160276412964,,,,,,,,
,"facial expression",0.9719072580337524,,,,,,,,
,happiness,0.9381739497184753,,,,,,,,
,stock,0.9061200618743896,,,,,,,,
,group,0.8976097106933594,,,,,,,,
,shelf,0.8919858932495117,,,,,,,,
,eyeglasses,0.8863035440444946,,,,,,,,
,indoors,0.8762116432189941,,,,,,,,
,wear,0.8682628870010376,,,,,,,,
,eyewear,0.8459553122520447,,,,,,,,
,education,0.8401936292648315,,,,,,,,
,family,0.7849851250648499,,,,,,,,
,market,0.7819112539291382,,,,,,,,
,smile,0.7774825096130371,,,,,,,,
,casual,0.7769746780395508,,,,,,,,
,elderly,0.7760787010192871,,,,,,,,
,child,0.7622311115264893,,,,,,,,
