url,class,score,,,,,,,,
https://scontent.cdninstagram.com/t51.2885-15/e15/p640x640/13549594_155795694833850_953566028_n.jpg,portrait,0.9943847060203552,"Fashion & Beauty","My life",,,"My look",Selfie,,
,adult,0.9878581762313843,,,,,,,,
,"facial expression",0.9863204956054688,,,,,,,,
,people,0.9853211641311646,,,,,,,,
,man,0.9798476099967957,,,,,,,,
,wear,0.9736794829368591,,,,,,,,
,indoors,0.9704647660255432,,,,,,,,
,happiness,0.9465106129646301,,,,,,,,
,confidence,0.9279850125312805,,,,,,,,
,daylight,0.9177041053771973,,,,,,,,
,one,0.9134447574615479,,,,,,,,
,looking,0.8954160213470459,,,,,,,,
,business,0.893660306930542,,,,,,,,
,woman,0.8669368028640747,,,,,,,,
,education,0.8665100932121277,,,,,,,,
,child,0.8420109748840332,,,,,,,,
,satisfaction,0.8414528369903564,,,,,,,,
,school,0.8376022577285767,,,,,,,,
,room,0.8374952077865601,,,,,,,,
,festival,0.8355756998062134,,,,,,,,
https://scontent.cdninstagram.com/t51.2885-15/e15/p640x640/13549594_155795694833850_953566028_n.jpg,portrait,0.9943847060203552,"Fashion & Beauty","My life",,,"My look",Selfie,,
,adult,0.9878581762313843,,,,,,,,
,"facial expression",0.9863204956054688,,,,,,,,
,people,0.9853211641311646,,,,,,,,
,man,0.9798476099967957,,,,,,,,
,wear,0.9736794829368591,,,,,,,,
,indoors,0.9704647660255432,,,,,,,,
,happiness,0.9465106129646301,,,,,,,,
,confidence,0.9279850125312805,,,,,,,,
,daylight,0.9177041053771973,,,,,,,,
,one,0.9134447574615479,,,,,,,,
,looking,0.8954160213470459,,,,,,,,
,business,0.893660306930542,,,,,,,,
,woman,0.8669368028640747,,,,,,,,
,education,0.8665100932121277,,,,,,,,
,child,0.8420109748840332,,,,,,,,
,satisfaction,0.8414528369903564,,,,,,,,
,school,0.8376022577285767,,,,,,,,
,room,0.8374952077865601,,,,,,,,
,festival,0.8355756998062134,,,,,,,,
https://scontent.cdninstagram.com/t51.2885-15/s640x640/e15/13413371_1593499000947325_1824826422_n.jpg,guitar,0.9968218803405762,Recreation,,,,Recreation-s,,,
,music,0.9967182874679565,,,,,,,,
,instrument,0.9920933246612549,,,,,,,,
,musician,0.985805332660675,,,,,,,,
,guitarist,0.9591938853263855,,,,,,,,
,concert,0.953099250793457,,,,,,,,
,one,0.9501990079879761,,,,,,,,
,woman,0.9476780891418457,,,,,,,,
,sound,0.9394609928131104,,,,,,,,
,young,0.9370659589767456,,,,,,,,
,people,0.9331541061401367,,,,,,,,
,pop,0.9267847537994385,,,,,,,,
,rock,0.9201478958129883,,,,,,,,
,girl,0.9098634719848633,,,,,,,,
,performance,0.8940118551254272,,,,,,,,
,band,0.8935876488685608,,,,,,,,
,beautiful,0.8891100883483887,,,,,,,,
,song,0.888672411441803,,,,,,,,
,adult,0.8869136571884155,,,,,,,,
,leisure,0.881588339805603,,,,,,,,
https://scontent.cdninstagram.com/t51.2885-15/s750x750/sh0.08/e35/13166915_628785077272376_387248980_n.jpg,girl,0.9942729473114014,"Fashion & Beauty","My life",,,"My look",Selfie,,
,portrait,0.9916728734970093,,,,,,,,
,people,0.9871969819068909,,,,,,,,
,woman,0.9810448288917542,,,,,,,,
,adult,0.9591416120529175,,,,,,,,
,model,0.9573744535446167,,,,,,,,
,one,0.9447457790374756,,,,,,,,
,"facial expression",0.9398311972618103,,,,,,,,
,face,0.9334424734115601,,,,,,,,
,fashion,0.9200114011764526,,,,,,,,
,brunette,0.8648563027381897,,,,,,,,
,happiness,0.8459705114364624,,,,,,,,
,eye,0.8195094466209412,,,,,,,,
,wear,0.8046866655349731,,,,,,,,
,child,0.7742881774902344,,,,,,,,
,hair,0.7667149305343628,,,,,,,,
,smile,0.7531014680862427,,,,,,,,
,studio,0.7498881816864014,,,,,,,,
,beautiful,0.7485727071762085,,,,,,,,
,glamour,0.733553409576416,,,,,,,,
https://scontent.cdninstagram.com/t51.2885-15/s750x750/sh0.08/e35/13166915_628785077272376_387248980_n.jpg,girl,0.9942729473114014,"Fashion & Beauty","My life",,,"My look",Selfie,,
,portrait,0.9916728734970093,,,,,,,,
,people,0.9871969819068909,,,,,,,,
,woman,0.9810448288917542,,,,,,,,
,adult,0.9591416120529175,,,,,,,,
,model,0.9573744535446167,,,,,,,,
,one,0.9447457790374756,,,,,,,,
,"facial expression",0.9398311972618103,,,,,,,,
,face,0.9334424734115601,,,,,,,,
,fashion,0.9200114011764526,,,,,,,,
,brunette,0.8648563027381897,,,,,,,,
,happiness,0.8459705114364624,,,,,,,,
,eye,0.8195094466209412,,,,,,,,
,wear,0.8046866655349731,,,,,,,,
,child,0.7742881774902344,,,,,,,,
,hair,0.7667149305343628,,,,,,,,
,smile,0.7531014680862427,,,,,,,,
,studio,0.7498881816864014,,,,,,,,
,beautiful,0.7485727071762085,,,,,,,,
,glamour,0.733553409576416,,,,,,,,
https://scontent.cdninstagram.com/t51.2885-15/s640x640/e15/13413371_1593499000947325_1824826422_n.jpg,guitar,0.9968218803405762,Recreation,,,,Recreation-s,,,
,music,0.9967182874679565,,,,,,,,
,instrument,0.9920933246612549,,,,,,,,
,musician,0.985805332660675,,,,,,,,
,guitarist,0.9591938853263855,,,,,,,,
,concert,0.953099250793457,,,,,,,,
,one,0.9501990079879761,,,,,,,,
,woman,0.9476780891418457,,,,,,,,
,sound,0.9394609928131104,,,,,,,,
,young,0.9370659589767456,,,,,,,,
,people,0.9331541061401367,,,,,,,,
,pop,0.9267847537994385,,,,,,,,
,rock,0.9201478958129883,,,,,,,,
,girl,0.9098634719848633,,,,,,,,
,performance,0.8940118551254272,,,,,,,,
,band,0.8935876488685608,,,,,,,,
,beautiful,0.8891100883483887,,,,,,,,
,song,0.888672411441803,,,,,,,,
,adult,0.8869136571884155,,,,,,,,
,leisure,0.881588339805603,,,,,,,,
https://scontent.cdninstagram.com/t51.2885-15/e35/13129375_1052582778147727_547473235_n.jpg,wear,0.9839142560958862,Relationships,,,,"Best friends",,,
,people,0.9826904535293579,,,,,,,,
,woman,0.9816497564315796,,,,,,,,
,"facial expression",0.9812709093093872,,,,,,,,
,adult,0.9804697036743164,,,,,,,,
,portrait,0.976417601108551,,,,,,,,
,man,0.9631071090698242,,,,,,,,
,competition,0.9440277814865112,,,,,,,,
,indoors,0.942131757736206,,,,,,,,
,happiness,0.933529794216156,,,,,,,,
,two,0.9277128577232361,,,,,,,,
,recreation,0.9266743659973145,,,,,,,,
,togetherness,0.9231548309326172,,,,,,,,
,festival,0.9120925664901733,,,,,,,,
,movie,0.89457106590271,,,,,,,,
,one,0.8908361196517944,,,,,,,,
,music,0.8826110363006592,,,,,,,,
,enjoyment,0.879912793636322,,,,,,,,
,"red carpet",0.8786656856536865,,,,,,,,
,actress,0.8454270362854004,,,,,,,,
https://scontent.cdninstagram.com/t51.2885-15/e35/13266822_1657341727924602_199326733_n.jpg,woman,0.987276017665863,"Fashion & Beauty","My life",,,"My look",Selfie,,
,girl,0.9806635975837708,,,,,,,,
,fashion,0.9591112732887268,,,,,,,,
,portrait,0.9546661376953125,,,,,,,,
,people,0.9529675245285034,,,,,,,,
,indoors,0.9146311283111572,,,,,,,,
,pretty,0.913235068321228,,,,,,,,
,beautiful,0.9106695652008057,,,,,,,,
,model,0.9072146415710449,,,,,,,,
,cute,0.8958115577697754,,,,,,,,
,glamour,0.893328070640564,,,,,,,,
,sexy,0.8922025561332703,,,,,,,,
,young,0.8799932599067688,,,,,,,,
,one,0.8763042688369751,,,,,,,,
,eye,0.8538663387298584,,,,,,,,
,music,0.8472442030906677,,,,,,,,
,adult,0.8455924987792969,,,,,,,,
,hair,0.8421616554260254,,,,,,,,
,face,0.8344504833221436,,,,,,,,
,fun,0.8297812938690186,,,,,,,,
https://scontent.cdninstagram.com/t51.2885-15/e35/13150820_167099813686721_2051399985_n.jpg,"no person",0.9892182350158691,Commerce,Travel,,,"Product/brand shots",Travel-s,,
,contemporary,0.9664956331253052,,,,,,,,
,indoors,0.9477016925811768,,,,,,,,
,paper,0.9310014247894287,,,,,,,,
,empty,0.9209487438201904,,,,,,,,
,business,0.9181152582168579,,,,,,,,
,"graphic design",0.8880826830863953,,,,,,,,
,data,0.8850464224815369,,,,,,,,
,isolated,0.8814242482185364,,,,,,,,
,internet,0.8613078594207764,,,,,,,,
,family,0.8608980774879456,,,,,,,,
,stacks,0.8228244781494141,,,,,,,,
,data,0.8205217123031616,,,,,,,,
,horizontal,0.8025234341621399,,,,,,,,
,literature,0.7860077023506165,,,,,,,,
,technology,0.7802104949951172,,,,,,,,
,illustration,0.7738592624664307,,,,,,,,
,design,0.7596741914749146,,,,,,,,
,wood,0.7536922693252563,,,,,,,,
,relaxation,0.7526442408561707,,,,,,,,
https://scontent.cdninstagram.com/t51.2885-15/e35/13150820_167099813686721_2051399985_n.jpg,"no person",0.9892182350158691,Commerce,Travel,,,"Product/brand shots",Travel-s,,
,contemporary,0.9664956331253052,,,,,,,,
,indoors,0.9477016925811768,,,,,,,,
,paper,0.9310014247894287,,,,,,,,
,empty,0.9209487438201904,,,,,,,,
,business,0.9181152582168579,,,,,,,,
,"graphic design",0.8880826830863953,,,,,,,,
,data,0.8850464224815369,,,,,,,,
,isolated,0.8814242482185364,,,,,,,,
,internet,0.8613078594207764,,,,,,,,
,family,0.8608980774879456,,,,,,,,
,stacks,0.8228244781494141,,,,,,,,
,data,0.8205217123031616,,,,,,,,
,horizontal,0.8025234341621399,,,,,,,,
,literature,0.7860077023506165,,,,,,,,
,technology,0.7802104949951172,,,,,,,,
,illustration,0.7738592624664307,,,,,,,,
,design,0.7596741914749146,,,,,,,,
,wood,0.7536922693252563,,,,,,,,
,relaxation,0.7526442408561707,,,,,,,,
https://scontent.cdninstagram.com/t51.2885-15/s750x750/sh0.08/e35/12917935_1720987391523591_1832134411_n.jpg,banner,0.9953705072402954,Commerce,Travel,,,"Product/brand shots",Travel-s,,
,template,0.9949730038642883,,,,,,,,
,navigation,0.992438554763794,,,,,,,,
,page,0.9909327030181885,,,,,,,,
,"World Wide Web",0.9891256093978882,,,,,,,,
,stripe,0.9855809211730957,,,,,,,,
,layout,0.9798818826675415,,,,,,,,
,site,0.9751774072647095,,,,,,,,
,heading,0.9718402624130249,,,,,,,,
,menu,0.9714890122413635,,,,,,,,
,login,0.9682438373565674,,,,,,,,
,set,0.96587073802948,,,,,,,,
,form,0.9588804244995117,,,,,,,,
,check,0.9464174509048462,,,,,,,,
,label,0.941559910774231,,,,,,,,
,browse,0.9409047365188599,,,,,,,,
,user,0.9373565316200256,,,,,,,,
,presentation,0.9366716146469116,,,,,,,,
,interface,0.927473783493042,,,,,,,,
,vector,0.9251230955123901,,,,,,,,
https://scontent.cdninstagram.com/t51.2885-15/e35/13129375_1052582778147727_547473235_n.jpg,wear,0.9839142560958862,Relationships,,,,"Best friends",,,
,people,0.9826904535293579,,,,,,,,
,woman,0.9816497564315796,,,,,,,,
,"facial expression",0.9812709093093872,,,,,,,,
,adult,0.9804697036743164,,,,,,,,
,portrait,0.976417601108551,,,,,,,,
,man,0.9631071090698242,,,,,,,,
,competition,0.9440277814865112,,,,,,,,
,indoors,0.942131757736206,,,,,,,,
,happiness,0.933529794216156,,,,,,,,
,two,0.9277128577232361,,,,,,,,
,recreation,0.9266743659973145,,,,,,,,
,togetherness,0.9231548309326172,,,,,,,,
,festival,0.9120925664901733,,,,,,,,
,movie,0.89457106590271,,,,,,,,
,one,0.8908361196517944,,,,,,,,
,music,0.8826110363006592,,,,,,,,
,enjoyment,0.879912793636322,,,,,,,,
,"red carpet",0.8786656856536865,,,,,,,,
,actress,0.8454270362854004,,,,,,,,
https://scontent.cdninstagram.com/t51.2885-15/s750x750/sh0.08/e35/12917935_1720987391523591_1832134411_n.jpg,banner,0.9953705072402954,Commerce,Travel,,,"Product/brand shots",Travel-s,,
,template,0.9949730038642883,,,,,,,,
,navigation,0.992438554763794,,,,,,,,
,page,0.9909327030181885,,,,,,,,
,"World Wide Web",0.9891256093978882,,,,,,,,
,stripe,0.9855809211730957,,,,,,,,
,layout,0.9798818826675415,,,,,,,,
,site,0.9751774072647095,,,,,,,,
,heading,0.9718402624130249,,,,,,,,
,menu,0.9714890122413635,,,,,,,,
,login,0.9682438373565674,,,,,,,,
,set,0.96587073802948,,,,,,,,
,form,0.9588804244995117,,,,,,,,
,check,0.9464174509048462,,,,,,,,
,label,0.941559910774231,,,,,,,,
,browse,0.9409047365188599,,,,,,,,
,user,0.9373565316200256,,,,,,,,
,presentation,0.9366716146469116,,,,,,,,
,interface,0.927473783493042,,,,,,,,
,vector,0.9251230955123901,,,,,,,,
https://scontent.cdninstagram.com/t51.2885-15/e35/12965230_1706339256318746_865620511_n.jpg,"no person",0.9770557880401611,Commerce,,,,"Product/brand shots",,,
,vehicle,0.9487684965133667,,,,,,,,
,competition,0.9361804127693176,,,,,,,,
,business,0.9293420314788818,,,,,,,,
,telephone,0.9143831729888916,,,,,,,,
,"still life",0.9099763631820679,,,,,,,,
,travel,0.9086924195289612,,,,,,,,
,car,0.9041088819503784,,,,,,,,
,"auto racing",0.8928807377815247,,,,,,,,
,luggage,0.890235185623169,,,,,,,,
,technology,0.8776095509529114,,,,,,,,
,museum,0.8514853119850159,,,,,,,,
,people,0.8500688076019287,,,,,,,,
,box,0.8418699502944946,,,,,,,,
,indoors,0.8340721130371094,,,,,,,,
,"transportation system",0.8307271599769592,,,,,,,,
,recreation,0.8248302936553955,,,,,,,,
,football,0.8207154273986816,,,,,,,,
,music,0.8182695508003235,,,,,,,,
,championship,0.8164105415344238,,,,,,,,
https://scontent.cdninstagram.com/t51.2885-15/e35/12724961_815174368589156_875845092_n.jpg,woman,0.9954128265380859,"Fashion & Beauty","My life",,,"My look",Selfie,,
,fashion,0.972588062286377,,,,,,,,
,portrait,0.9622002840042114,,,,,,,,
,skin,0.9590359926223755,,,,,,,,
,pretty,0.9570832252502441,,,,,,,,
,glamour,0.9567841291427612,,,,,,,,
,eye,0.9563486576080322,,,,,,,,
,sexy,0.9542906880378723,,,,,,,,
,girl,0.9478950500488281,,,,,,,,
,cute,0.9449837803840637,,,,,,,,
,lips,0.9428651332855225,,,,,,,,
,hair,0.899377167224884,,,,,,,,
,model,0.8953315019607544,,,,,,,,
,face,0.8919177055358887,,,,,,,,
,look,0.8810418248176575,,,,,,,,
,young,0.8619601726531982,,,,,,,,
,people,0.836667537689209,,,,,,,,
,adolescent,0.8288071155548096,,,,,,,,
,long,0.8126036524772644,,,,,,,,
,beautiful,0.7970218062400818,,,,,,,,
https://scontent.cdninstagram.com/t51.2885-15/e35/12965873_644502175701106_258293003_n.jpg,street,0.9937385320663452,Environment,Travel,,,"Manmade beauty",Travel-s,,
,road,0.9904417991638184,,,,,,,,
,city,0.9857007265090942,,,,,,,,
,traffic,0.9717100262641907,,,,,,,,
,business,0.9468896389007568,,,,,,,,
,urban,0.9194149374961853,,,,,,,,
,shopping,0.9168137907981873,,,,,,,,
,bus,0.8925976753234863,,,,,,,,
,crossing,0.8842425346374512,,,,,,,,
,car,0.8817316293716431,,,,,,,,
,competition,0.8687440156936646,,,,,,,,
,downtown,0.8625855445861816,,,,,,,,
,travel,0.8488487005233765,,,,,,,,
,people,0.8348759412765503,,,,,,,,
,action,0.8296288251876831,,,,,,,,
,many,0.8278853893280029,,,,,,,,
,architecture,0.811821460723877,,,,,,,,
,outdoors,0.8000484704971313,,,,,,,,
,building,0.7991703748703003,,,,,,,,
,pedestrian,0.7949938178062439,,,,,,,,
https://scontent.cdninstagram.com/t51.2885-15/e35/12724961_815174368589156_875845092_n.jpg,woman,0.9954128265380859,"Fashion & Beauty","My life",,,"My look",Selfie,,
,fashion,0.972588062286377,,,,,,,,
,portrait,0.9622002840042114,,,,,,,,
,skin,0.9590359926223755,,,,,,,,
,pretty,0.9570832252502441,,,,,,,,
,glamour,0.9567841291427612,,,,,,,,
,eye,0.9563486576080322,,,,,,,,
,sexy,0.9542906880378723,,,,,,,,
,girl,0.9478950500488281,,,,,,,,
,cute,0.9449837803840637,,,,,,,,
,lips,0.9428651332855225,,,,,,,,
,hair,0.899377167224884,,,,,,,,
,model,0.8953315019607544,,,,,,,,
,face,0.8919177055358887,,,,,,,,
,look,0.8810418248176575,,,,,,,,
,young,0.8619601726531982,,,,,,,,
,people,0.836667537689209,,,,,,,,
,adolescent,0.8288071155548096,,,,,,,,
,long,0.8126036524772644,,,,,,,,
,beautiful,0.7970218062400818,,,,,,,,
https://scontent.cdninstagram.com/t51.2885-15/e35/12976168_257053434636347_1786515489_n.jpg,child,0.9931057691574097,Cute,,,,Cute,,,
,maternity,0.9887224435806274,,,,,,,,
,baby,0.9867090582847595,,,,,,,,
,people,0.9840383529663086,,,,,,,,
,maternity,0.9833820462226868,,,,,,,,
,one,0.9651336669921875,,,,,,,,
,woman,0.9539095759391785,,,,,,,,
,adult,0.9521346092224121,,,,,,,,
,birth,0.9514917135238647,,,,,,,,
,recreation,0.9338117241859436,,,,,,,,
,boy,0.9320084452629089,,,,,,,,
,portrait,0.9199779033660889,,,,,,,,
,wear,0.9077192544937134,,,,,,,,
,girl,0.9074491262435913,,,,,,,,
,indoors,0.9054476022720337,,,,,,,,
,food,0.9018113613128662,,,,,,,,
,man,0.8901476263999939,,,,,,,,
,anticipation,0.8881585597991943,,,,,,,,
,festival,0.8789453506469727,,,,,,,,
,happiness,0.8691935539245605,,,,,,,,
https://scontent.cdninstagram.com/t51.2885-15/e35/12976168_257053434636347_1786515489_n.jpg,child,0.9931057691574097,Cute,,,,Cute,,,
,maternity,0.9887224435806274,,,,,,,,
,baby,0.9867090582847595,,,,,,,,
,people,0.9840383529663086,,,,,,,,
,maternity,0.9833820462226868,,,,,,,,
,one,0.9651336669921875,,,,,,,,
,woman,0.9539095759391785,,,,,,,,
,adult,0.9521346092224121,,,,,,,,
,birth,0.9514917135238647,,,,,,,,
,recreation,0.9338117241859436,,,,,,,,
,boy,0.9320084452629089,,,,,,,,
,portrait,0.9199779033660889,,,,,,,,
,wear,0.9077192544937134,,,,,,,,
,girl,0.9074491262435913,,,,,,,,
,indoors,0.9054476022720337,,,,,,,,
,food,0.9018113613128662,,,,,,,,
,man,0.8901476263999939,,,,,,,,
,anticipation,0.8881585597991943,,,,,,,,
,festival,0.8789453506469727,,,,,,,,
,happiness,0.8691935539245605,,,,,,,,
https://scontent.cdninstagram.com/t51.2885-15/e35/12918567_1718767325072305_1784837013_n.jpg,house,0.9926817417144775,Environment,,,,"Manmade beauty",,,
,architecture,0.988250195980072,,,,,,,,
,home,0.9866529703140259,,,,,,,,
,window,0.9809845685958862,,,,,,,,
,building,0.9700942039489746,,,,,,,,
,"no person",0.9698812961578369,,,,,,,,
,door,0.9638419151306152,,,,,,,,
,family,0.9630993604660034,,,,,,,,
,furniture,0.9589042663574219,,,,,,,,
,street,0.9487627148628235,,,,,,,,
,room,0.9263311624526978,,,,,,,,
,people,0.9041972160339355,,,,,,,,
,chair,0.8999825716018677,,,,,,,,
,town,0.899380087852478,,,,,,,,
,wood,0.8954688310623169,,,,,,,,
,city,0.881557285785675,,,,,,,,
,apartment,0.8748083114624023,,,,,,,,
,wall,0.8643982410430908,,,,,,,,
,urban,0.862899661064148,,,,,,,,
,balcony,0.8587486743927002,,,,,,,,
https://scontent.cdninstagram.com/t51.2885-15/e35/12965873_644502175701106_258293003_n.jpg,street,0.9937385320663452,Environment,Travel,,,"Manmade beauty",Travel-s,,
,road,0.9904417991638184,,,,,,,,
,city,0.9857007265090942,,,,,,,,
,traffic,0.9717100262641907,,,,,,,,
,business,0.9468896389007568,,,,,,,,
,urban,0.9194149374961853,,,,,,,,
,shopping,0.9168137907981873,,,,,,,,
,bus,0.8925976753234863,,,,,,,,
,crossing,0.8842425346374512,,,,,,,,
,car,0.8817316293716431,,,,,,,,
,competition,0.8687440156936646,,,,,,,,
,downtown,0.8625855445861816,,,,,,,,
,travel,0.8488487005233765,,,,,,,,
,people,0.8348759412765503,,,,,,,,
,action,0.8296288251876831,,,,,,,,
,many,0.8278853893280029,,,,,,,,
,architecture,0.811821460723877,,,,,,,,
,outdoors,0.8000484704971313,,,,,,,,
,building,0.7991703748703003,,,,,,,,
,pedestrian,0.7949938178062439,,,,,,,,
https://scontent.cdninstagram.com/t51.2885-15/e35/12918575_1733482816922701_743450712_n.jpg,people,0.9888713359832764,Environment,Travel,,,"Manmade beauty",Travel-s,,
,tourist,0.9709489941596985,,,,,,,,
,group,0.9689651131629944,,,,,,,,
,many,0.9651374220848083,,,,,,,,
,crowd,0.9613447189331055,,,,,,,,
,city,0.9566940069198608,,,,,,,,
,travel,0.9485179781913757,,,,,,,,
,tourism,0.9323889017105103,,,,,,,,
,temple,0.9267250299453735,,,,,,,,
,street,0.914466142654419,,,,,,,,
,festival,0.8924809694290161,,,,,,,,
,outdoors,0.8898675441741943,,,,,,,,
,group,0.8882062435150146,,,,,,,,
,landscape,0.8821604251861572,,,,,,,,
,marquee,0.8689830303192139,,,,,,,,
,castle,0.8417304754257202,,,,,,,,
,daylight,0.8371779918670654,,,,,,,,
,museum,0.8292146325111389,,,,,,,,
,"no person",0.8272777795791626,,,,,,,,
,religion,0.8270556926727295,,,,,,,,
https://scontent.cdninstagram.com/t51.2885-15/e35/12959928_1713061315650253_2012387854_n.jpg,woman,0.9927856922149658,"Fashion & Beauty","My life",,,"My look",Selfie,,
,girl,0.9805241823196411,,,,,,,,
,portrait,0.9760823249816895,,,,,,,,
,young,0.9719038009643555,,,,,,,,
,pretty,0.9715055227279663,,,,,,,,
,beautiful,0.9692745208740234,,,,,,,,
,fashion,0.9609771370887756,,,,,,,,
,model,0.9479806423187256,,,,,,,,
,people,0.9447609186172485,,,,,,,,
,cute,0.9331759810447693,,,,,,,,
,lady,0.9247933626174927,,,,,,,,
,adult,0.9134920239448547,,,,,,,,
,skin,0.9115915298461914,,,,,,,,
,face,0.9105742573738098,,,,,,,,
,one,0.902597188949585,,,,,,,,
,person,0.8969405889511108,,,,,,,,
,eye,0.8907171487808228,,,,,,,,
,sexy,0.8855607509613037,,,,,,,,
,hair,0.8822801113128662,,,,,,,,
,glamour,0.8769563436508179,,,,,,,,
https://scontent.cdninstagram.com/t51.2885-15/e35/12502011_1804973139724785_260453435_n.jpg,people,0.9928085207939148,"Fashion & Beauty","My life",,,"My look",Selfie,,
,adult,0.9916833639144897,,,,,,,,
,woman,0.9867508411407471,,,,,,,,
,one,0.9864625334739685,,,,,,,,
,wear,0.9742194414138794,,,,,,,,
,indoors,0.9710948467254639,,,,,,,,
,family,0.9699106216430664,,,,,,,,
,"facial expression",0.9649121761322021,,,,,,,,
,portrait,0.954086422920227,,,,,,,,
,child,0.9455308318138123,,,,,,,,
,furniture,0.9454305171966553,,,,,,,,
,daylight,0.9298664927482605,,,,,,,,
,girl,0.9273713827133179,,,,,,,,
,room,0.9231665134429932,,,,,,,,
,happiness,0.8793159127235413,,,,,,,,
,enjoyment,0.8721926808357239,,,,,,,,
,leisure,0.8710402250289917,,,,,,,,
,man,0.8567272424697876,,,,,,,,
,seat,0.8538140058517456,,,,,,,,
,lifestyle,0.8389818668365479,,,,,,,,
https://scontent.cdninstagram.com/t51.2885-15/e35/12959928_1713061315650253_2012387854_n.jpg,woman,0.9927856922149658,"Fashion & Beauty","My life",,,"My look",Selfie,,
,girl,0.9805241823196411,,,,,,,,
,portrait,0.9760823249816895,,,,,,,,
,young,0.9719038009643555,,,,,,,,
,pretty,0.9715055227279663,,,,,,,,
,beautiful,0.9692745208740234,,,,,,,,
,fashion,0.9609771370887756,,,,,,,,
,model,0.9479806423187256,,,,,,,,
,people,0.9447609186172485,,,,,,,,
,cute,0.9331759810447693,,,,,,,,
,lady,0.9247933626174927,,,,,,,,
,adult,0.9134920239448547,,,,,,,,
,skin,0.9115915298461914,,,,,,,,
,face,0.9105742573738098,,,,,,,,
,one,0.902597188949585,,,,,,,,
,person,0.8969405889511108,,,,,,,,
,eye,0.8907171487808228,,,,,,,,
,sexy,0.8855607509613037,,,,,,,,
,hair,0.8822801113128662,,,,,,,,
,glamour,0.8769563436508179,,,,,,,,
https://scontent.cdninstagram.com/t51.2885-15/e35/12918575_1733482816922701_743450712_n.jpg,people,0.9888713359832764,Environment,Travel,,,"Manmade beauty",Travel-s,,
,tourist,0.9709489941596985,,,,,,,,
,group,0.9689651131629944,,,,,,,,
,many,0.9651374220848083,,,,,,,,
,crowd,0.9613447189331055,,,,,,,,
,city,0.9566940069198608,,,,,,,,
,travel,0.9485179781913757,,,,,,,,
,tourism,0.9323889017105103,,,,,,,,
,temple,0.9267250299453735,,,,,,,,
,street,0.914466142654419,,,,,,,,
,festival,0.8924809694290161,,,,,,,,
,outdoors,0.8898675441741943,,,,,,,,
,group,0.8882062435150146,,,,,,,,
,landscape,0.8821604251861572,,,,,,,,
,marquee,0.8689830303192139,,,,,,,,
,castle,0.8417304754257202,,,,,,,,
,daylight,0.8371779918670654,,,,,,,,
,museum,0.8292146325111389,,,,,,,,
,"no person",0.8272777795791626,,,,,,,,
,religion,0.8270556926727295,,,,,,,,
https://scontent.cdninstagram.com/t51.2885-15/e35/13266822_1657341727924602_199326733_n.jpg,woman,0.987276017665863,"Fashion & Beauty","My life",,,"My look",Selfie,,
,girl,0.9806635975837708,,,,,,,,
,fashion,0.9591112732887268,,,,,,,,
,portrait,0.9546661376953125,,,,,,,,
,people,0.9529675245285034,,,,,,,,
,indoors,0.9146311283111572,,,,,,,,
,pretty,0.913235068321228,,,,,,,,
,beautiful,0.9106695652008057,,,,,,,,
,model,0.9072146415710449,,,,,,,,
,cute,0.8958115577697754,,,,,,,,
,glamour,0.893328070640564,,,,,,,,
,sexy,0.8922025561332703,,,,,,,,
,young,0.8799932599067688,,,,,,,,
,one,0.8763042688369751,,,,,,,,
,eye,0.8538663387298584,,,,,,,,
,music,0.8472442030906677,,,,,,,,
,adult,0.8455924987792969,,,,,,,,
,hair,0.8421616554260254,,,,,,,,
,face,0.8344504833221436,,,,,,,,
,fun,0.8297812938690186,,,,,,,,
https://scontent.cdninstagram.com/t51.2885-15/e35/12825979_1171085616237336_712816767_n.jpg,people,0.9905828237533569,Food,,,,"Meal time",,,
,child,0.9897650480270386,,,,,,,,
,one,0.9822162389755249,,,,,,,,
,girl,0.9800273180007935,,,,,,,,
,"facial expression",0.9753226041793823,,,,,,,,
,woman,0.9708740711212158,,,,,,,,
,portrait,0.9630430936813354,,,,,,,,
,enjoyment,0.9502373933792114,,,,,,,,
,wear,0.9457401037216187,,,,,,,,
,adult,0.9456069469451904,,,,,,,,
,daylight,0.9399412274360657,,,,,,,,
,brunette,0.9398021697998047,,,,,,,,
,outdoors,0.9369502067565918,,,,,,,,
,leisure,0.9366674423217773,,,,,,,,
,sit,0.9270890951156616,,,,,,,,
,happiness,0.9181420207023621,,,,,,,,
,youth,0.9107487201690674,,,,,,,,
,painting,0.9072926640510559,,,,,,,,
,fun,0.8906500339508057,,,,,,,,
,furniture,0.8863518834114075,,,,,,,,
https://scontent.cdninstagram.com/t51.2885-15/e35/917375_1658796737704018_259744620_n.jpg,girl,0.9962677955627441,"Fashion & Beauty",,,,"My look",,,
,woman,0.9946948289871216,,,,,,,,
,people,0.9846950769424438,,,,,,,,
,portrait,0.9799257516860962,,,,,,,,
,beautiful,0.9789016246795654,,,,,,,,
,fashion,0.9785587191581726,,,,,,,,
,adult,0.9723070859909058,,,,,,,,
,model,0.9611332416534424,,,,,,,,
,wear,0.9172830581665039,,,,,,,,
,lady,0.9162747859954834,,,,,,,,
,one,0.9085415005683899,,,,,,,,
,smile,0.9058689475059509,,,,,,,,
,young,0.9009858965873718,,,,,,,,
,person,0.8815951347351074,,,,,,,,
,indoors,0.8808151483535767,,,,,,,,
,child,0.880110502243042,,,,,,,,
,pretty,0.8619930744171143,,,,,,,,
,brunette,0.8615570068359375,,,,,,,,
,telephone,0.8601865768432617,,,,,,,,
,family,0.8536491394042969,,,,,,,,
https://scontent.cdninstagram.com/t51.2885-15/e35/12502011_1804973139724785_260453435_n.jpg,people,0.9928085207939148,"Fashion & Beauty","My life",,,"My look",Selfie,,
,adult,0.9916833639144897,,,,,,,,
,woman,0.9867508411407471,,,,,,,,
,one,0.9864625334739685,,,,,,,,
,wear,0.9742194414138794,,,,,,,,
,indoors,0.9710948467254639,,,,,,,,
,family,0.9699106216430664,,,,,,,,
,"facial expression",0.9649121761322021,,,,,,,,
,portrait,0.954086422920227,,,,,,,,
,child,0.9455308318138123,,,,,,,,
,furniture,0.9454305171966553,,,,,,,,
,daylight,0.9298664927482605,,,,,,,,
,girl,0.9273713827133179,,,,,,,,
,room,0.9231665134429932,,,,,,,,
,happiness,0.8793159127235413,,,,,,,,
,enjoyment,0.8721926808357239,,,,,,,,
,leisure,0.8710402250289917,,,,,,,,
,man,0.8567272424697876,,,,,,,,
,seat,0.8538140058517456,,,,,,,,
,lifestyle,0.8389818668365479,,,,,,,,
https://scontent.cdninstagram.com/t51.2885-15/e35/12530947_1044945778920579_116036249_n.jpg,woman,0.9866876602172852,"Fashion & Beauty","My life",,,"My look",Selfie,,
,people,0.979832649230957,,,,,,,,
,portrait,0.977032482624054,,,,,,,,
,girl,0.9724295139312744,,,,,,,,
,adult,0.9683263301849365,,,,,,,,
,one,0.9469364881515503,,,,,,,,
,indoors,0.9317265748977661,,,,,,,,
,fashion,0.9232637882232666,,,,,,,,
,music,0.9181613922119141,,,,,,,,
,wear,0.9092618227005005,,,,,,,,
,young,0.9039257168769836,,,,,,,,
,model,0.8976744413375854,,,,,,,,
,pretty,0.8972973823547363,,,,,,,,
,stripe,0.8925267457962036,,,,,,,,
,casual,0.8803982734680176,,,,,,,,
,"facial expression",0.8732619285583496,,,,,,,,
,cute,0.8466589450836182,,,,,,,,
,beautiful,0.8445237874984741,,,,,,,,
,adolescent,0.8332117795944214,,,,,,,,
,contemporary,0.8085587024688721,,,,,,,,
https://scontent.cdninstagram.com/t51.2885-15/e35/12717033_148107632244718_1039497067_n.jpg,landscape,0.9939342737197876,Environment,,,,"Manmade beauty",,,
,light,0.9862955808639526,,,,,,,,
,art,0.9809638261795044,,,,,,,,
,city,0.9787342548370361,,,,,,,,
,sky,0.9377279281616211,,,,,,,,
,dark,0.9131377935409546,,,,,,,,
,spotlight,0.9070158004760742,,,,,,,,
,nature,0.8970092535018921,,,,,,,,
,sunset,0.8926349878311157,,,,,,,,
,grass,0.8840755224227905,,,,,,,,
,urban,0.873041570186615,,,,,,,,
,smoke,0.8721965551376343,,,,,,,,
,street,0.8715900182723999,,,,,,,,
,bridge,0.861884355545044,,,,,,,,
,road,0.8532510995864868,,,,,,,,
,fog,0.8348159790039062,,,,,,,,
,sun,0.8296074867248535,,,,,,,,
,cityscape,0.8256620168685913,,,,,,,,
,building,0.8234260678291321,,,,,,,,
,sea,0.8111062049865723,,,,,,,,
https://scontent.cdninstagram.com/t51.2885-15/e35/12717033_148107632244718_1039497067_n.jpg,landscape,0.9939342737197876,Environment,,,,"Manmade beauty",,,
,light,0.9862955808639526,,,,,,,,
,art,0.9809638261795044,,,,,,,,
,city,0.9787342548370361,,,,,,,,
,sky,0.9377279281616211,,,,,,,,
,dark,0.9131377935409546,,,,,,,,
,spotlight,0.9070158004760742,,,,,,,,
,nature,0.8970092535018921,,,,,,,,
,sunset,0.8926349878311157,,,,,,,,
,grass,0.8840755224227905,,,,,,,,
,urban,0.873041570186615,,,,,,,,
,smoke,0.8721965551376343,,,,,,,,
,street,0.8715900182723999,,,,,,,,
,bridge,0.861884355545044,,,,,,,,
,road,0.8532510995864868,,,,,,,,
,fog,0.8348159790039062,,,,,,,,
,sun,0.8296074867248535,,,,,,,,
,cityscape,0.8256620168685913,,,,,,,,
,building,0.8234260678291321,,,,,,,,
,sea,0.8111062049865723,,,,,,,,
https://scontent.cdninstagram.com/t51.2885-15/e35/12818925_719784211492049_333165416_n.jpg,horizontal,0.9345695972442627,Entertainment,,,,Entertainment-s,,,
,business,0.9253705143928528,,,,,,,,
,"transportation system",0.9212779998779297,,,,,,,,
,technology,0.9199686050415039,,,,,,,,
,horizontal,0.9100674986839294,,,,,,,,
,illuminated,0.9009758234024048,,,,,,,,
,travel,0.8999072313308716,,,,,,,,
,city,0.8890141844749451,,,,,,,,
,car,0.8858613967895508,,,,,,,,
,"no person",0.8811243772506714,,,,,,,,
,airport,0.879572868347168,,,,,,,,
,speed,0.8601894378662109,,,,,,,,
,reflection,0.8544058203697205,,,,,,,,
,modern,0.8490486741065979,,,,,,,,
,indoors,0.8197997808456421,,,,,,,,
,"auto racing",0.8178331255912781,,,,,,,,
,light,0.8111686706542969,,,,,,,,
,data,0.8069067597389221,,,,,,,,
,outdoors,0.7972155809402466,,,,,,,,
,industry,0.7819886207580566,,,,,,,,
https://scontent.cdninstagram.com/t51.2885-15/e35/917375_1658796737704018_259744620_n.jpg,girl,0.9962677955627441,"Fashion & Beauty",,,,"My look",,,
,woman,0.9946948289871216,,,,,,,,
,people,0.9846950769424438,,,,,,,,
,portrait,0.9799257516860962,,,,,,,,
,beautiful,0.9789016246795654,,,,,,,,
,fashion,0.9785587191581726,,,,,,,,
,adult,0.9723070859909058,,,,,,,,
,model,0.9611332416534424,,,,,,,,
,wear,0.9172830581665039,,,,,,,,
,lady,0.9162747859954834,,,,,,,,
,one,0.9085415005683899,,,,,,,,
,smile,0.9058689475059509,,,,,,,,
,young,0.9009858965873718,,,,,,,,
,person,0.8815951347351074,,,,,,,,
,indoors,0.8808151483535767,,,,,,,,
,child,0.880110502243042,,,,,,,,
,pretty,0.8619930744171143,,,,,,,,
,brunette,0.8615570068359375,,,,,,,,
,telephone,0.8601865768432617,,,,,,,,
,family,0.8536491394042969,,,,,,,,
https://scontent.cdninstagram.com/t51.2885-15/e35/10369445_916342348486403_2094929336_n.jpg,stock,0.9999223947525024,"Fashion & Beauty",Commerce,,,Ootd,"Product/brand shots",,
,shopping,0.9998669624328613,,,,,,,,
,shop,0.9996130466461182,,,,,,,,
,wear,0.9982364177703857,,,,,,,,
,sale,0.9981523752212524,,,,,,,,
,market,0.9977862238883972,,,,,,,,
,option,0.9970500469207764,,,,,,,,
,boutique,0.9967288970947266,,,,,,,,
,merchandise,0.9965687990188599,,,,,,,,
,mall,0.9959006905555725,,,,,,,,
,commerce,0.9933916330337524,,,,,,,,
,bargain,0.9925503730773926,,,,,,,,
,shopper,0.9880794882774353,,,,,,,,
,fashion,0.9862677454948425,,,,,,,,
,people,0.9822045564651489,,,,,,,,
,dress,0.9778788685798645,,,,,,,,
,hanger,0.9729758501052856,,,,,,,,
,wardrobe,0.9689548015594482,,,,,,,,
,bag,0.9656304121017456,,,,,,,,
,purchase,0.9646816253662109,,,,,,,,
https://scontent.cdninstagram.com/t51.2885-15/e35/12912469_1151847371502600_377988651_n.jpg,city,0.9874866008758545,Environment,Travel,,,"Manmade beauty",Travel-s,,
,street,0.9697537422180176,,,,,,,,
,tourism,0.9650025367736816,,,,,,,,
,tourist,0.957184910774231,,,,,,,,
,people,0.9559199810028076,,,,,,,,
,urban,0.9528491497039795,,,,,,,,
,travel,0.952161431312561,,,,,,,,
,crowd,0.9476222991943359,,,,,,,,
,road,0.9287593364715576,,,,,,,,
,many,0.9133026003837585,,,,,,,,
,rally,0.8895080089569092,,,,,,,,
,outdoors,0.8762468099594116,,,,,,,,
,building,0.8700317144393921,,,,,,,,
,landscape,0.8565759658813477,,,,,,,,
,town,0.8565356135368347,,,,,,,,
,group,0.8493137359619141,,,,,,,,
,water,0.8467457890510559,,,,,,,,
,shopping,0.8019781112670898,,,,,,,,
,festival,0.7991786003112793,,,,,,,,
,business,0.7952151298522949,,,,,,,,
https://scontent.cdninstagram.com/t51.2885-15/e35/12825979_1171085616237336_712816767_n.jpg,people,0.9905828237533569,Food,,,,"Meal time",,,
,child,0.9897650480270386,,,,,,,,
,one,0.9822162389755249,,,,,,,,
,girl,0.9800273180007935,,,,,,,,
,"facial expression",0.9753226041793823,,,,,,,,
,woman,0.9708740711212158,,,,,,,,
,portrait,0.9630430936813354,,,,,,,,
,enjoyment,0.9502373933792114,,,,,,,,
,wear,0.9457401037216187,,,,,,,,
,adult,0.9456069469451904,,,,,,,,
,daylight,0.9399412274360657,,,,,,,,
,brunette,0.9398021697998047,,,,,,,,
,outdoors,0.9369502067565918,,,,,,,,
,leisure,0.9366674423217773,,,,,,,,
,sit,0.9270890951156616,,,,,,,,
,happiness,0.9181420207023621,,,,,,,,
,youth,0.9107487201690674,,,,,,,,
,painting,0.9072926640510559,,,,,,,,
,fun,0.8906500339508057,,,,,,,,
,furniture,0.8863518834114075,,,,,,,,
https://scontent.cdninstagram.com/t51.2885-15/e35/12965230_1706339256318746_865620511_n.jpg,"no person",0.9770557880401611,Commerce,,,,"Product/brand shots",,,
,vehicle,0.9487684965133667,,,,,,,,
,competition,0.9361804127693176,,,,,,,,
,business,0.9293420314788818,,,,,,,,
,telephone,0.9143831729888916,,,,,,,,
,"still life",0.9099763631820679,,,,,,,,
,travel,0.9086924195289612,,,,,,,,
,car,0.9041088819503784,,,,,,,,
,"auto racing",0.8928807377815247,,,,,,,,
,luggage,0.890235185623169,,,,,,,,
,technology,0.8776095509529114,,,,,,,,
,museum,0.8514853119850159,,,,,,,,
,people,0.8500688076019287,,,,,,,,
,box,0.8418699502944946,,,,,,,,
,indoors,0.8340721130371094,,,,,,,,
,"transportation system",0.8307271599769592,,,,,,,,
,recreation,0.8248302936553955,,,,,,,,
,football,0.8207154273986816,,,,,,,,
,music,0.8182695508003235,,,,,,,,
,championship,0.8164105415344238,,,,,,,,
https://scontent.cdninstagram.com/t51.2885-15/e35/13118086_1058869034204359_1452366794_n.jpg,woman,0.9931957721710205,"Fashion & Beauty","My life",,,"My look",Selfie,,
,fashion,0.9874889850616455,,,,,,,,
,girl,0.9823852777481079,,,,,,,,
,portrait,0.9801424741744995,,,,,,,,
,model,0.9770183563232422,,,,,,,,
,glamour,0.9567618370056152,,,,,,,,
,sexy,0.9527885913848877,,,,,,,,
,beautiful,0.9507853984832764,,,,,,,,
,hair,0.9477035999298096,,,,,,,,
,people,0.9464770555496216,,,,,,,,
,lips,0.9420871734619141,,,,,,,,
,pretty,0.9360946416854858,,,,,,,,
,long,0.9320611953735352,,,,,,,,
,eye,0.9309143424034119,,,,,,,,
,face,0.9226287007331848,,,,,,,,
,young,0.906964123249054,,,,,,,,
,skin,0.8861351013183594,,,,,,,,
,cute,0.8837376832962036,,,,,,,,
,brunette,0.8767079710960388,,,,,,,,
,style,0.8732778429985046,,,,,,,,
https://scontent.cdninstagram.com/t51.2885-15/e35/12519537_1721364674787425_1618633958_n.jpg,people,0.9958155155181885,"My life",,,,"With me",,,
,one,0.9930933117866516,,,,,,,,
,child,0.9880393147468567,,,,,,,,
,mammal,0.9867831468582153,,,,,,,,
,woman,0.9862638711929321,,,,,,,,
,adult,0.985824704170227,,,,,,,,
,pet,0.9849498271942139,,,,,,,,
,two,0.9829163551330566,,,,,,,,
,portrait,0.9808028936386108,,,,,,,,
,cat,0.9731812477111816,,,,,,,,
,girl,0.9720407724380493,,,,,,,,
,dog,0.9686672687530518,,,,,,,,
,wear,0.953516960144043,,,,,,,,
,family,0.943830132484436,,,,,,,,
,sit,0.9407711029052734,,,,,,,,
,room,0.9294009804725647,,,,,,,,
,friendship,0.9031202793121338,,,,,,,,
,canine,0.9022108316421509,,,,,,,,
,"facial expression",0.897479772567749,,,,,,,,
,love,0.875131368637085,,,,,,,,
https://scontent.cdninstagram.com/t51.2885-15/e35/12519537_1721364674787425_1618633958_n.jpg,people,0.9958155155181885,"My life",,,,"With me",,,
,one,0.9930933117866516,,,,,,,,
,child,0.9880393147468567,,,,,,,,
,mammal,0.9867831468582153,,,,,,,,
,woman,0.9862638711929321,,,,,,,,
,adult,0.985824704170227,,,,,,,,
,pet,0.9849498271942139,,,,,,,,
,two,0.9829163551330566,,,,,,,,
,portrait,0.9808028936386108,,,,,,,,
,cat,0.9731812477111816,,,,,,,,
,girl,0.9720407724380493,,,,,,,,
,dog,0.9686672687530518,,,,,,,,
,wear,0.953516960144043,,,,,,,,
,family,0.943830132484436,,,,,,,,
,sit,0.9407711029052734,,,,,,,,
,room,0.9294009804725647,,,,,,,,
,friendship,0.9031202793121338,,,,,,,,
,canine,0.9022108316421509,,,,,,,,
,"facial expression",0.897479772567749,,,,,,,,
,love,0.875131368637085,,,,,,,,
https://scontent.cdninstagram.com/t51.2885-15/e35/12905127_643396125808300_1732302802_n.jpg,city,0.9814563989639282,Environment,Travel,,,"Manmade beauty",Travel-s,,
,street,0.9741044640541077,,,,,,,,
,road,0.9451601505279541,,,,,,,,
,people,0.9399113655090332,,,,,,,,
,business,0.934712290763855,,,,,,,,
,commerce,0.9344960451126099,,,,,,,,
,car,0.9320611953735352,,,,,,,,
,stock,0.9291262626647949,,,,,,,,
,many,0.9233061075210571,,,,,,,,
,"transportation system",0.9064576625823975,,,,,,,,
,travel,0.9038331508636475,,,,,,,,
,shopping,0.8911210298538208,,,,,,,,
,outdoors,0.8765451908111572,,,,,,,,
,competition,0.8665229082107544,,,,,,,,
,urban,0.8624314069747925,,,,,,,,
,traffic,0.8603789806365967,,,,,,,,
,"auto racing",0.8575670719146729,,,,,,,,
,crowd,0.8538657426834106,,,,,,,,
,bus,0.8427656888961792,,,,,,,,
,vehicle,0.83901047706604,,,,,,,,
https://scontent.cdninstagram.com/t51.2885-15/e35/12747752_945962318814901_1795815565_n.jpg,"no person",0.9799724817276001,Environment,"My life",,,"Manmade beauty","My world today",,
,city,0.9777818918228149,,,,,,,,
,architecture,0.9733284711837769,,,,,,,,
,light,0.9662646055221558,,,,,,,,
,building,0.9609001874923706,,,,,,,,
,skyscraper,0.9504980444908142,,,,,,,,
,travel,0.9287011027336121,,,,,,,,
,urban,0.9226807355880737,,,,,,,,
,business,0.9049801230430603,,,,,,,,
,evening,0.903741180896759,,,,,,,,
,sky,0.8824352622032166,,,,,,,,
,downtown,0.8651227951049805,,,,,,,,
,landscape,0.8589641451835632,,,,,,,,
,tower,0.8570990562438965,,,,,,,,
,daylight,0.8388830423355103,,,,,,,,
,skyline,0.8385584950447083,,,,,,,,
,cityscape,0.8326994180679321,,,,,,,,
,finance,0.8297616243362427,,,,,,,,
,outdoors,0.8156543970108032,,,,,,,,
,office,0.8137737512588501,,,,,,,,
https://scontent.cdninstagram.com/t51.2885-15/e35/12749844_1672198276385507_2006508587_n.jpg,cat,0.9813903570175171,Animals,,,,Animals-s,,,
,mammal,0.9784705638885498,,,,,,,,
,one,0.9753638505935669,,,,,,,,
,people,0.9639880657196045,,,,,,,,
,portrait,0.962859034538269,,,,,,,,
,pet,0.9482095241546631,,,,,,,,
,"no person",0.9261224269866943,,,,,,,,
,competition,0.894482433795929,,,,,,,,
,animal,0.8895189762115479,,,,,,,,
,adult,0.8718586564064026,,,,,,,,
,cute,0.8513626456260681,,,,,,,,
,eye,0.847077488899231,,,,,,,,
,hair,0.8096058368682861,,,,,,,,
,man,0.7730715274810791,,,,,,,,
,fur,0.7716039419174194,,,,,,,,
,kitten,0.771001398563385,,,,,,,,
,woman,0.7627973556518555,,,,,,,,
,face,0.7532296776771545,,,,,,,,
,ball,0.7249205112457275,,,,,,,,
,looking,0.7186119556427002,,,,,,,,
https://scontent.cdninstagram.com/t51.2885-15/e35/12918637_1534301456871883_351336462_n.jpg,tree,0.9970389604568481,Environment,Travel,,,"Natural beauty",Travel-s,,
,branch,0.9911789298057556,,,,,,,,
,flower,0.9907553195953369,,,,,,,,
,landscape,0.9904797077178955,,,,,,,,
,park,0.9792495965957642,,,,,,,,
,"no person",0.9687697887420654,,,,,,,,
,cherry,0.9662495851516724,,,,,,,,
,season,0.9591342210769653,,,,,,,,
,environment,0.9512901306152344,,,,,,,,
,garden,0.9457125663757324,,,,,,,,
,flora,0.9339171648025513,,,,,,,,
,outdoors,0.9265738725662231,,,,,,,,
,leaf,0.9089283347129822,,,,,,,,
,nature,0.9082373380661011,,,,,,,,
,summer,0.8791421055793762,,,,,,,,
,scene,0.8768501281738281,,,,,,,,
,daylight,0.8690530061721802,,,,,,,,
,blooming,0.8499413132667542,,,,,,,,
,springtime,0.8492567539215088,,,,,,,,
,sight,0.8414707779884338,,,,,,,,
https://scontent.cdninstagram.com/t51.2885-15/e15/12750041_1046747672038193_368668188_n.jpg,portrait,0.9890842437744141,Relationships,,,,"Best friends",,,
,people,0.9849862456321716,,,,,,,,
,woman,0.9758577942848206,,,,,,,,
,girl,0.9728026390075684,,,,,,,,
,man,0.9684876799583435,,,,,,,,
,love,0.9545949101448059,,,,,,,,
,outdoors,0.9524614810943604,,,,,,,,
,couple,0.9491994380950928,,,,,,,,
,two,0.9404705762863159,,,,,,,,
,nature,0.937722384929657,,,,,,,,
,adult,0.9296975135803223,,,,,,,,
,child,0.8938418626785278,,,,,,,,
,summer,0.8908783793449402,,,,,,,,
,family,0.8899810314178467,,,,,,,,
,young,0.8729491233825684,,,,,,,,
,beautiful,0.8714521527290344,,,,,,,,
,smile,0.8650079369544983,,,,,,,,
,happiness,0.844170093536377,,,,,,,,
,togetherness,0.8435683250427246,,,,,,,,
,park,0.8104352951049805,,,,,,,,
https://scontent.cdninstagram.com/t51.2885-15/e35/10369445_916342348486403_2094929336_n.jpg,stock,0.9999223947525024,"Fashion & Beauty",Commerce,,,Ootd,"Product/brand shots",,
,shopping,0.9998669624328613,,,,,,,,
,shop,0.9996130466461182,,,,,,,,
,wear,0.9982364177703857,,,,,,,,
,sale,0.9981523752212524,,,,,,,,
,market,0.9977862238883972,,,,,,,,
,option,0.9970500469207764,,,,,,,,
,boutique,0.9967288970947266,,,,,,,,
,merchandise,0.9965687990188599,,,,,,,,
,mall,0.9959006905555725,,,,,,,,
,commerce,0.9933916330337524,,,,,,,,
,bargain,0.9925503730773926,,,,,,,,
,shopper,0.9880794882774353,,,,,,,,
,fashion,0.9862677454948425,,,,,,,,
,people,0.9822045564651489,,,,,,,,
,dress,0.9778788685798645,,,,,,,,
,hanger,0.9729758501052856,,,,,,,,
,wardrobe,0.9689548015594482,,,,,,,,
,bag,0.9656304121017456,,,,,,,,
,purchase,0.9646816253662109,,,,,,,,
https://scontent.cdninstagram.com/t51.2885-15/e35/12912469_1151847371502600_377988651_n.jpg,city,0.9874866008758545,Environment,Travel,,,"Manmade beauty",Travel-s,,
,street,0.9697537422180176,,,,,,,,
,tourism,0.9650025367736816,,,,,,,,
,tourist,0.957184910774231,,,,,,,,
,people,0.9559199810028076,,,,,,,,
,urban,0.9528491497039795,,,,,,,,
,travel,0.952161431312561,,,,,,,,
,crowd,0.9476222991943359,,,,,,,,
,road,0.9287593364715576,,,,,,,,
,many,0.9133026003837585,,,,,,,,
,rally,0.8895080089569092,,,,,,,,
,outdoors,0.8762468099594116,,,,,,,,
,building,0.8700317144393921,,,,,,,,
,landscape,0.8565759658813477,,,,,,,,
,town,0.8565356135368347,,,,,,,,
,group,0.8493137359619141,,,,,,,,
,water,0.8467457890510559,,,,,,,,
,shopping,0.8019781112670898,,,,,,,,
,festival,0.7991786003112793,,,,,,,,
,business,0.7952151298522949,,,,,,,,
https://scontent.cdninstagram.com/t51.2885-15/e35/12749844_1672198276385507_2006508587_n.jpg,cat,0.9813903570175171,Animals,,,,Animals-s,,,
,mammal,0.9784705638885498,,,,,,,,
,one,0.9753638505935669,,,,,,,,
,people,0.9639880657196045,,,,,,,,
,portrait,0.962859034538269,,,,,,,,
,pet,0.9482095241546631,,,,,,,,
,"no person",0.9261224269866943,,,,,,,,
,competition,0.894482433795929,,,,,,,,
,animal,0.8895189762115479,,,,,,,,
,adult,0.8718586564064026,,,,,,,,
,cute,0.8513626456260681,,,,,,,,
,eye,0.847077488899231,,,,,,,,
,hair,0.8096058368682861,,,,,,,,
,man,0.7730715274810791,,,,,,,,
,fur,0.7716039419174194,,,,,,,,
,kitten,0.771001398563385,,,,,,,,
,woman,0.7627973556518555,,,,,,,,
,face,0.7532296776771545,,,,,,,,
,ball,0.7249205112457275,,,,,,,,
,looking,0.7186119556427002,,,,,,,,
https://scontent.cdninstagram.com/t51.2885-15/e35/924834_1754980524729988_1898565646_n.jpg,landscape,0.9686431884765625,Environment,,,,"Manmade beauty",,,
,silhouette,0.9642386436462402,,,,,,,,
,tree,0.9552656412124634,,,,,,,,
,sunset,0.9521035552024841,,,,,,,,
,light,0.9432045221328735,,,,,,,,
,sky,0.9290492534637451,,,,,,,,
,desktop,0.9207017421722412,,,,,,,,
,reflection,0.9183313846588135,,,,,,,,
,dawn,0.9143880605697632,,,,,,,,
,nature,0.9015777111053467,,,,,,,,
,evening,0.8978193998336792,,,,,,,,
,sea,0.8732618689537048,,,,,,,,
,dusk,0.8718752861022949,,,,,,,,
,lake,0.8704475164413452,,,,,,,,
,mountain,0.8655312061309814,,,,,,,,
,travel,0.8617101907730103,,,,,,,,
,sun,0.8578288555145264,,,,,,,,
,sight,0.8497930765151978,,,,,,,,
,horizon,0.8477703332901001,,,,,,,,
,water,0.8421932458877563,,,,,,,,
https://scontent.cdninstagram.com/t51.2885-15/e15/12750041_1046747672038193_368668188_n.jpg,portrait,0.9890842437744141,Relationships,,,,"Best friends",,,
,people,0.9849862456321716,,,,,,,,
,woman,0.9758577942848206,,,,,,,,
,girl,0.9728026390075684,,,,,,,,
,man,0.9684876799583435,,,,,,,,
,love,0.9545949101448059,,,,,,,,
,outdoors,0.9524614810943604,,,,,,,,
,couple,0.9491994380950928,,,,,,,,
,two,0.9404705762863159,,,,,,,,
,nature,0.937722384929657,,,,,,,,
,adult,0.9296975135803223,,,,,,,,
,child,0.8938418626785278,,,,,,,,
,summer,0.8908783793449402,,,,,,,,
,family,0.8899810314178467,,,,,,,,
,young,0.8729491233825684,,,,,,,,
,beautiful,0.8714521527290344,,,,,,,,
,smile,0.8650079369544983,,,,,,,,
,happiness,0.844170093536377,,,,,,,,
,togetherness,0.8435683250427246,,,,,,,,
,park,0.8104352951049805,,,,,,,,
https://scontent.cdninstagram.com/t51.2885-15/e35/12818925_719784211492049_333165416_n.jpg,horizontal,0.9345695972442627,Entertainment,,,,Entertainment-s,,,
,business,0.9253705143928528,,,,,,,,
,"transportation system",0.9212779998779297,,,,,,,,
,technology,0.9199686050415039,,,,,,,,
,horizontal,0.9100674986839294,,,,,,,,
,illuminated,0.9009758234024048,,,,,,,,
,travel,0.8999072313308716,,,,,,,,
,city,0.8890141844749451,,,,,,,,
,car,0.8858613967895508,,,,,,,,
,"no person",0.8811243772506714,,,,,,,,
,airport,0.879572868347168,,,,,,,,
,speed,0.8601894378662109,,,,,,,,
,reflection,0.8544058203697205,,,,,,,,
,modern,0.8490486741065979,,,,,,,,
,indoors,0.8197997808456421,,,,,,,,
,"auto racing",0.8178331255912781,,,,,,,,
,light,0.8111686706542969,,,,,,,,
,data,0.8069067597389221,,,,,,,,
,outdoors,0.7972155809402466,,,,,,,,
,industry,0.7819886207580566,,,,,,,,
https://scontent.cdninstagram.com/t51.2885-15/e35/12729648_1139414862766104_6090178_n.jpg,indoors,0.9780734777450562,"My life","Fashion & Beauty",,,Selfie,"My look",,
,bed,0.9700136184692383,,,,,,,,
,people,0.9633551836013794,,,,,,,,
,relaxation,0.955939531326294,,,,,,,,
,woman,0.9511896371841431,,,,,,,,
,sleep,0.9461521506309509,,,,,,,,
,bedroom,0.9441266655921936,,,,,,,,
,man,0.9426865577697754,,,,,,,,
,girl,0.9408903121948242,,,,,,,,
,room,0.9392141103744507,,,,,,,,
,portrait,0.9366456270217896,,,,,,,,
,adult,0.930663526058197,,,,,,,,
,one,0.9301736354827881,,,,,,,,
,dawn,0.9109717607498169,,,,,,,,
,family,0.9033733010292053,,,,,,,,
,nude,0.8985254168510437,,,,,,,,
,dream,0.8894790410995483,,,,,,,,
,reclining,0.8827602863311768,,,,,,,,
,child,0.882540225982666,,,,,,,,
,boy,0.8767224550247192,,,,,,,,
https://scontent.cdninstagram.com/t51.2885-15/e35/10401805_1685542871731169_435825907_n.jpg,template,0.9862807393074036,Travel,Commerce,,,Travel-s,"Product/brand shots",,
,"no person",0.9799452424049377,,,,,,,,
,presentation,0.9705395102500916,,,,,,,,
,banner,0.9702380895614624,,,,,,,,
,layout,0.9663890600204468,,,,,,,,
,navigation,0.9539507627487183,,,,,,,,
,"World Wide Web",0.9490810036659241,,,,,,,,
,data,0.9453493356704712,,,,,,,,
,page,0.9404191970825195,,,,,,,,
,booklet,0.9319811463356018,,,,,,,,
,label,0.9277344346046448,,,,,,,,
,stripe,0.9082237482070923,,,,,,,,
,business,0.9055715799331665,,,,,,,,
,set,0.898998498916626,,,,,,,,
,clean,0.8988511562347412,,,,,,,,
,information,0.8981391787528992,,,,,,,,
,paper,0.8837254643440247,,,,,,,,
,advertising,0.8579914569854736,,,,,,,,
,card,0.8557542562484741,,,,,,,,
,step,0.8554766178131104,,,,,,,,
https://scontent.cdninstagram.com/t51.2885-15/e35/12530947_1044945778920579_116036249_n.jpg,woman,0.9866876602172852,"Fashion & Beauty","My life",,,"My look",Selfie,,
,people,0.979832649230957,,,,,,,,
,portrait,0.977032482624054,,,,,,,,
,girl,0.9724295139312744,,,,,,,,
,adult,0.9683263301849365,,,,,,,,
,one,0.9469364881515503,,,,,,,,
,indoors,0.9317265748977661,,,,,,,,
,fashion,0.9232637882232666,,,,,,,,
,music,0.9181613922119141,,,,,,,,
,wear,0.9092618227005005,,,,,,,,
,young,0.9039257168769836,,,,,,,,
,model,0.8976744413375854,,,,,,,,
,pretty,0.8972973823547363,,,,,,,,
,stripe,0.8925267457962036,,,,,,,,
,casual,0.8803982734680176,,,,,,,,
,"facial expression",0.8732619285583496,,,,,,,,
,cute,0.8466589450836182,,,,,,,,
,beautiful,0.8445237874984741,,,,,,,,
,adolescent,0.8332117795944214,,,,,,,,
,contemporary,0.8085587024688721,,,,,,,,
https://scontent.cdninstagram.com/t51.2885-15/e35/924834_1754980524729988_1898565646_n.jpg,landscape,0.9686431884765625,Environment,,,,"Manmade beauty",,,
,silhouette,0.9642386436462402,,,,,,,,
,tree,0.9552656412124634,,,,,,,,
,sunset,0.9521035552024841,,,,,,,,
,light,0.9432045221328735,,,,,,,,
,sky,0.9290492534637451,,,,,,,,
,desktop,0.9207017421722412,,,,,,,,
,reflection,0.9183313846588135,,,,,,,,
,dawn,0.9143880605697632,,,,,,,,
,nature,0.9015777111053467,,,,,,,,
,evening,0.8978193998336792,,,,,,,,
,sea,0.8732618689537048,,,,,,,,
,dusk,0.8718752861022949,,,,,,,,
,lake,0.8704475164413452,,,,,,,,
,mountain,0.8655312061309814,,,,,,,,
,travel,0.8617101907730103,,,,,,,,
,sun,0.8578288555145264,,,,,,,,
,sight,0.8497930765151978,,,,,,,,
,horizon,0.8477703332901001,,,,,,,,
,water,0.8421932458877563,,,,,,,,
https://scontent.cdninstagram.com/t51.2885-15/e35/12747676_1699529496956163_1198416051_n.jpg,food,0.995977520942688,Food,Celebrations,,,Dessert,"Personal Events",,
,"no person",0.9919776916503906,,,,,,,,
,fruit,0.9894284009933472,,,,,,,,
,"still life",0.9876757264137268,,,,,,,,
,cutlery,0.9843098521232605,,,,,,,,
,plate,0.9799919128417969,,,,,,,,
,"dairy product",0.9777410626411438,,,,,,,,
,grow,0.9770726561546326,,,,,,,,
,sweet,0.9745312929153442,,,,,,,,
,chocolate,0.9708443880081177,,,,,,,,
,tableware,0.9679960608482361,,,,,,,,
,table,0.9545813798904419,,,,,,,,
,flatware,0.9530915021896362,,,,,,,,
,cake,0.9521507024765015,,,,,,,,
,restaurant,0.9476610422134399,,,,,,,,
,party,0.947620153427124,,,,,,,,
,fork,0.9449368715286255,,,,,,,,
,knife,0.9365531802177429,,,,,,,,
,celebration,0.9362821578979492,,,,,,,,
,decoration,0.930340051651001,,,,,,,,
https://scontent.cdninstagram.com/t51.2885-15/e35/12748175_1212913315403360_779497208_n.jpg,technology,0.9645741581916809,Commerce,,,,"Product/brand shots",,,
,equipment,0.9340478181838989,,,,,,,,
,business,0.9244509339332581,,,,,,,,
,retro,0.9109995365142822,,,,,,,,
,"no person",0.8942282199859619,,,,,,,,
,modern,0.8876994252204895,,,,,,,,
,movie,0.8790665864944458,,,,,,,,
,industry,0.8744805455207825,,,,,,,,
,electronics,0.8609437346458435,,,,,,,,
,indoors,0.8578780293464661,,,,,,,,
,old,0.8461600542068481,,,,,,,,
,wireless,0.8296822309494019,,,,,,,,
,box,0.8290672302246094,,,,,,,,
,computer,0.824921190738678,,,,,,,,
,family,0.8248235583305359,,,,,,,,
,paper,0.817065954208374,,,,,,,,
,plastic,0.8117280602455139,,,,,,,,
,television,0.7855321168899536,,,,,,,,
,tape,0.7853432297706604,,,,,,,,
,nostalgia,0.7845831513404846,,,,,,,,
https://scontent.cdninstagram.com/t51.2885-15/e35/12747752_945962318814901_1795815565_n.jpg,"no person",0.9799724817276001,Environment,"My life",,,"Manmade beauty","My world today",,
,city,0.9777818918228149,,,,,,,,
,architecture,0.9733284711837769,,,,,,,,
,light,0.9662646055221558,,,,,,,,
,building,0.9609001874923706,,,,,,,,
,skyscraper,0.9504980444908142,,,,,,,,
,travel,0.9287011027336121,,,,,,,,
,urban,0.9226807355880737,,,,,,,,
,business,0.9049801230430603,,,,,,,,
,evening,0.903741180896759,,,,,,,,
,sky,0.8824352622032166,,,,,,,,
,downtown,0.8651227951049805,,,,,,,,
,landscape,0.8589641451835632,,,,,,,,
,tower,0.8570990562438965,,,,,,,,
,daylight,0.8388830423355103,,,,,,,,
,skyline,0.8385584950447083,,,,,,,,
,cityscape,0.8326994180679321,,,,,,,,
,finance,0.8297616243362427,,,,,,,,
,outdoors,0.8156543970108032,,,,,,,,
,office,0.8137737512588501,,,,,,,,
https://scontent.cdninstagram.com/t51.2885-15/e35/10401805_1685542871731169_435825907_n.jpg,template,0.9862807393074036,Travel,Commerce,,,Travel-s,"Product/brand shots",,
,"no person",0.9799452424049377,,,,,,,,
,presentation,0.9705395102500916,,,,,,,,
,banner,0.9702380895614624,,,,,,,,
,layout,0.9663890600204468,,,,,,,,
,navigation,0.9539507627487183,,,,,,,,
,"World Wide Web",0.9490810036659241,,,,,,,,
,data,0.9453493356704712,,,,,,,,
,page,0.9404191970825195,,,,,,,,
,booklet,0.9319811463356018,,,,,,,,
,label,0.9277344346046448,,,,,,,,
,stripe,0.9082237482070923,,,,,,,,
,business,0.9055715799331665,,,,,,,,
,set,0.898998498916626,,,,,,,,
,clean,0.8988511562347412,,,,,,,,
,information,0.8981391787528992,,,,,,,,
,paper,0.8837254643440247,,,,,,,,
,advertising,0.8579914569854736,,,,,,,,
,card,0.8557542562484741,,,,,,,,
,step,0.8554766178131104,,,,,,,,
https://scontent.cdninstagram.com/t51.2885-15/e35/12729648_1139414862766104_6090178_n.jpg,indoors,0.9780734777450562,"My life","Fashion & Beauty",,,Selfie,"My look",,
,bed,0.9700136184692383,,,,,,,,
,people,0.9633551836013794,,,,,,,,
,relaxation,0.955939531326294,,,,,,,,
,woman,0.9511896371841431,,,,,,,,
,sleep,0.9461521506309509,,,,,,,,
,bedroom,0.9441266655921936,,,,,,,,
,man,0.9426865577697754,,,,,,,,
,girl,0.9408903121948242,,,,,,,,
,room,0.9392141103744507,,,,,,,,
,portrait,0.9366456270217896,,,,,,,,
,adult,0.930663526058197,,,,,,,,
,one,0.9301736354827881,,,,,,,,
,dawn,0.9109717607498169,,,,,,,,
,family,0.9033733010292053,,,,,,,,
,nude,0.8985254168510437,,,,,,,,
,dream,0.8894790410995483,,,,,,,,
,reclining,0.8827602863311768,,,,,,,,
,child,0.882540225982666,,,,,,,,
,boy,0.8767224550247192,,,,,,,,
https://scontent.cdninstagram.com/t51.2885-15/e35/12568765_1575196436134359_1002866147_n.jpg,people,0.9862680435180664,Commerce,,,,"Product/brand shots",,,
,wear,0.9646573066711426,,,,,,,,
,one,0.9457932710647583,,,,,,,,
,man,0.9429956078529358,,,,,,,,
,footwear,0.9400327205657959,,,,,,,,
,music,0.9300734996795654,,,,,,,,
,adult,0.9289226531982422,,,,,,,,
,indoors,0.924284040927887,,,,,,,,
,stock,0.9233986139297485,,,,,,,,
,vehicle,0.9218219518661499,,,,,,,,
,travel,0.9162746667861938,,,,,,,,
,recreation,0.8963858485221863,,,,,,,,
,musician,0.8880088329315186,,,,,,,,
,fun,0.8809186220169067,,,,,,,,
,child,0.8676801919937134,,,,,,,,
,leisure,0.8657156229019165,,,,,,,,
,festival,0.8569228649139404,,,,,,,,
,street,0.8541758060455322,,,,,,,,
,shopping,0.8539737462997437,,,,,,,,
,outdoors,0.8351699709892273,,,,,,,,
https://scontent.cdninstagram.com/t51.2885-15/e35/12905127_643396125808300_1732302802_n.jpg,city,0.9814563989639282,Environment,Travel,,,"Manmade beauty",Travel-s,,
,street,0.9741044640541077,,,,,,,,
,road,0.9451601505279541,,,,,,,,
,people,0.9399113655090332,,,,,,,,
,business,0.934712290763855,,,,,,,,
,commerce,0.9344960451126099,,,,,,,,
,car,0.9320611953735352,,,,,,,,
,stock,0.9291262626647949,,,,,,,,
,many,0.9233061075210571,,,,,,,,
,"transportation system",0.9064576625823975,,,,,,,,
,travel,0.9038331508636475,,,,,,,,
,shopping,0.8911210298538208,,,,,,,,
,outdoors,0.8765451908111572,,,,,,,,
,competition,0.8665229082107544,,,,,,,,
,urban,0.8624314069747925,,,,,,,,
,traffic,0.8603789806365967,,,,,,,,
,"auto racing",0.8575670719146729,,,,,,,,
,crowd,0.8538657426834106,,,,,,,,
,bus,0.8427656888961792,,,,,,,,
,vehicle,0.83901047706604,,,,,,,,
https://scontent.cdninstagram.com/t51.2885-15/e35/12568765_1575196436134359_1002866147_n.jpg,people,0.9862680435180664,Commerce,,,,"Product/brand shots",,,
,wear,0.9646573066711426,,,,,,,,
,one,0.9457932710647583,,,,,,,,
,man,0.9429956078529358,,,,,,,,
,footwear,0.9400327205657959,,,,,,,,
,music,0.9300734996795654,,,,,,,,
,adult,0.9289226531982422,,,,,,,,
,indoors,0.924284040927887,,,,,,,,
,stock,0.9233986139297485,,,,,,,,
,vehicle,0.9218219518661499,,,,,,,,
,travel,0.9162746667861938,,,,,,,,
,recreation,0.8963858485221863,,,,,,,,
,musician,0.8880088329315186,,,,,,,,
,fun,0.8809186220169067,,,,,,,,
,child,0.8676801919937134,,,,,,,,
,leisure,0.8657156229019165,,,,,,,,
,festival,0.8569228649139404,,,,,,,,
,street,0.8541758060455322,,,,,,,,
,shopping,0.8539737462997437,,,,,,,,
,outdoors,0.8351699709892273,,,,,,,,
https://scontent.cdninstagram.com/t51.2885-15/e35/12724876_535384533302554_1782936839_n.jpg,technology,0.9662339687347412,Entertainment,,,,Entertainment-s,,,
,vertical,0.9537225961685181,,,,,,,,
,business,0.9380522966384888,,,,,,,,
,illuminated,0.9339901804924011,,,,,,,,
,data,0.9111225605010986,,,,,,,,
,data,0.9046252965927124,,,,,,,,
,graph,0.9022932052612305,,,,,,,,
,communication,0.8956456184387207,,,,,,,,
,illustration,0.8927768468856812,,,,,,,,
,number,0.8881396055221558,,,,,,,,
,modern,0.8834818005561829,,,,,,,,
,light,0.8787672519683838,,,,,,,,
,screen,0.8659762740135193,,,,,,,,
,computer,0.8254753947257996,,,,,,,,
,desktop,0.8075361251831055,,,,,,,,
,horizontal,0.8069242238998413,,,,,,,,
,abstract,0.8046116828918457,,,,,,,,
,internet,0.8045888543128967,,,,,,,,
,vector,0.7964697480201721,,,,,,,,
,luster,0.7592278718948364,,,,,,,,
https://scontent.cdninstagram.com/t51.2885-15/e35/12599217_1750824125151571_2100276394_n.jpg,woman,0.9764995574951172,"Fashion & Beauty",,,,Ootd,,,
,indoors,0.9699026346206665,,,,,,,,
,people,0.9503302574157715,,,,,,,,
,one,0.9429277181625366,,,,,,,,
,adult,0.9296000003814697,,,,,,,,
,fashion,0.8985567092895508,,,,,,,,
,wear,0.8926742076873779,,,,,,,,
,step,0.8889303803443909,,,,,,,,
,looking,0.8499680161476135,,,,,,,,
,pretty,0.847941517829895,,,,,,,,
,outdoors,0.8475297689437866,,,,,,,,
,recreation,0.8045566082000732,,,,,,,,
,portrait,0.7959437370300293,,,,,,,,
,young,0.7859944105148315,,,,,,,,
,business,0.7844319939613342,,,,,,,,
,family,0.7726867198944092,,,,,,,,
,leisure,0.7658064961433411,,,,,,,,
,contemporary,0.7623681426048279,,,,,,,,
,architecture,0.7608894109725952,,,,,,,,
,enjoyment,0.7540318369865417,,,,,,,,
https://scontent.cdninstagram.com/t51.2885-15/e35/12724876_535384533302554_1782936839_n.jpg,technology,0.9662339687347412,Entertainment,,,,Entertainment-s,,,
,vertical,0.9537225961685181,,,,,,,,
,business,0.9380522966384888,,,,,,,,
,illuminated,0.9339901804924011,,,,,,,,
,data,0.9111225605010986,,,,,,,,
,data,0.9046252965927124,,,,,,,,
,graph,0.9022932052612305,,,,,,,,
,communication,0.8956456184387207,,,,,,,,
,illustration,0.8927768468856812,,,,,,,,
,number,0.8881396055221558,,,,,,,,
,modern,0.8834818005561829,,,,,,,,
,light,0.8787672519683838,,,,,,,,
,screen,0.8659762740135193,,,,,,,,
,computer,0.8254753947257996,,,,,,,,
,desktop,0.8075361251831055,,,,,,,,
,horizontal,0.8069242238998413,,,,,,,,
,abstract,0.8046116828918457,,,,,,,,
,internet,0.8045888543128967,,,,,,,,
,vector,0.7964697480201721,,,,,,,,
,luster,0.7592278718948364,,,,,,,,
https://scontent.cdninstagram.com/t51.2885-15/e15/12547727_1696642293938469_851532097_n.jpg,indoors,0.9965286254882812,Environment,,,,"Manmade beauty",,,
,room,0.9963294267654419,,,,,,,,
,window,0.9839276075363159,,,,,,,,
,furniture,0.9813035726547241,,,,,,,,
,seat,0.9779515266418457,,,,,,,,
,inside,0.9766504168510437,,,,,,,,
,chair,0.9751484990119934,,,,,,,,
,architecture,0.9720982313156128,,,,,,,,
,"no person",0.9701927900314331,,,,,,,,
,contemporary,0.9700409770011902,,,,,,,,
,"interior design",0.9652475118637085,,,,,,,,
,floor,0.9506109952926636,,,,,,,,
,light,0.9464313387870789,,,,,,,,
,house,0.9400038719177246,,,,,,,,
,hallway,0.938082218170166,,,,,,,,
,lobby,0.9375949501991272,,,,,,,,
,modern,0.9321016669273376,,,,,,,,
,family,0.9301191568374634,,,,,,,,
,table,0.9284985661506653,,,,,,,,
,museum,0.9271236658096313,,,,,,,,
https://scontent.cdninstagram.com/t51.2885-15/e35/12918567_1718767325072305_1784837013_n.jpg,house,0.9926817417144775,Environment,,,,"Manmade beauty",,,
,architecture,0.988250195980072,,,,,,,,
,home,0.9866529703140259,,,,,,,,
,window,0.9809845685958862,,,,,,,,
,building,0.9700942039489746,,,,,,,,
,"no person",0.9698812961578369,,,,,,,,
,door,0.9638419151306152,,,,,,,,
,family,0.9630993604660034,,,,,,,,
,furniture,0.9589042663574219,,,,,,,,
,street,0.9487627148628235,,,,,,,,
,room,0.9263311624526978,,,,,,,,
,people,0.9041972160339355,,,,,,,,
,chair,0.8999825716018677,,,,,,,,
,town,0.899380087852478,,,,,,,,
,wood,0.8954688310623169,,,,,,,,
,city,0.881557285785675,,,,,,,,
,apartment,0.8748083114624023,,,,,,,,
,wall,0.8643982410430908,,,,,,,,
,urban,0.862899661064148,,,,,,,,
,balcony,0.8587486743927002,,,,,,,,
https://scontent.cdninstagram.com/t51.2885-15/e15/12547200_969975836426840_1648798784_n.jpg,"no person",0.9926483631134033,Animals,,,,"Non Usable",,,
,moon,0.9720114469528198,,,,,,,,
,dark,0.9716916084289551,,,,,,,,
,illuminated,0.9584102630615234,,,,,,,,
,astronomy,0.9504458904266357,,,,,,,,
,sky,0.9486215710639954,,,,,,,,
,outdoors,0.9444926977157593,,,,,,,,
,space,0.9110151529312134,,,,,,,,
,blur,0.9088786840438843,,,,,,,,
,light,0.9060624837875366,,,,,,,,
,evening,0.9008561968803406,,,,,,,,
,dusk,0.8934766054153442,,,,,,,,
,travel,0.8903065919876099,,,,,,,,
,bright,0.8816125392913818,,,,,,,,
,sun,0.8650857210159302,,,,,,,,
,Christmas,0.8567451238632202,,,,,,,,
,science,0.8492554426193237,,,,,,,,
,exploration,0.8448449373245239,,,,,,,,
,festival,0.8348217010498047,,,,,,,,
,city,0.8191626667976379,,,,,,,,
https://scontent.cdninstagram.com/t51.2885-15/e15/12547200_969975836426840_1648798784_n.jpg,"no person",0.9926483631134033,Animals,,,,"Non Usable",,,
,moon,0.9720114469528198,,,,,,,,
,dark,0.9716916084289551,,,,,,,,
,illuminated,0.9584102630615234,,,,,,,,
,astronomy,0.9504458904266357,,,,,,,,
,sky,0.9486215710639954,,,,,,,,
,outdoors,0.9444926977157593,,,,,,,,
,space,0.9110151529312134,,,,,,,,
,blur,0.9088786840438843,,,,,,,,
,light,0.9060624837875366,,,,,,,,
,evening,0.9008561968803406,,,,,,,,
,dusk,0.8934766054153442,,,,,,,,
,travel,0.8903065919876099,,,,,,,,
,bright,0.8816125392913818,,,,,,,,
,sun,0.8650857210159302,,,,,,,,
,Christmas,0.8567451238632202,,,,,,,,
,science,0.8492554426193237,,,,,,,,
,exploration,0.8448449373245239,,,,,,,,
,festival,0.8348217010498047,,,,,,,,
,city,0.8191626667976379,,,,,,,,
https://scontent.cdninstagram.com/t51.2885-15/e35/12552271_154348234946463_1343387944_n.jpg,tree,0.982306718826294,Food,Environment,,,"Meal time","Natural beauty",,
,landscape,0.9809707403182983,,,,,,,,
,people,0.9759224653244019,,,,,,,,
,park,0.9688384532928467,,,,,,,,
,environment,0.9590432643890381,,,,,,,,
,flower,0.9474549293518066,,,,,,,,
,group,0.9450007081031799,,,,,,,,
,adult,0.9269774556159973,,,,,,,,
,garden,0.921833872795105,,,,,,,,
,road,0.9152178764343262,,,,,,,,
,travel,0.9095990657806396,,,,,,,,
,cemetery,0.906912088394165,,,,,,,,
,home,0.8986176252365112,,,,,,,,
,daylight,0.8898261785507202,,,,,,,,
,military,0.8868169188499451,,,,,,,,
,recreation,0.8852635622024536,,,,,,,,
,water,0.8628174066543579,,,,,,,,
,vehicle,0.8599305748939514,,,,,,,,
,man,0.8514248132705688,,,,,,,,
,outdoors,0.850712776184082,,,,,,,,
https://scontent.cdninstagram.com/t51.2885-15/e35/12599217_1750824125151571_2100276394_n.jpg,woman,0.9764995574951172,"Fashion & Beauty",,,,Ootd,,,
,indoors,0.9699026346206665,,,,,,,,
,people,0.9503302574157715,,,,,,,,
,one,0.9429277181625366,,,,,,,,
,adult,0.9296000003814697,,,,,,,,
,fashion,0.8985567092895508,,,,,,,,
,wear,0.8926742076873779,,,,,,,,
,step,0.8889303803443909,,,,,,,,
,looking,0.8499680161476135,,,,,,,,
,pretty,0.847941517829895,,,,,,,,
,outdoors,0.8475297689437866,,,,,,,,
,recreation,0.8045566082000732,,,,,,,,
,portrait,0.7959437370300293,,,,,,,,
,young,0.7859944105148315,,,,,,,,
,business,0.7844319939613342,,,,,,,,
,family,0.7726867198944092,,,,,,,,
,leisure,0.7658064961433411,,,,,,,,
,contemporary,0.7623681426048279,,,,,,,,
,architecture,0.7608894109725952,,,,,,,,
,enjoyment,0.7540318369865417,,,,,,,,
https://scontent.cdninstagram.com/t51.2885-15/e15/12547727_1696642293938469_851532097_n.jpg,indoors,0.9965286254882812,Environment,,,,"Manmade beauty",,,
,room,0.9963294267654419,,,,,,,,
,window,0.9839276075363159,,,,,,,,
,furniture,0.9813035726547241,,,,,,,,
,seat,0.9779515266418457,,,,,,,,
,inside,0.9766504168510437,,,,,,,,
,chair,0.9751484990119934,,,,,,,,
,architecture,0.9720982313156128,,,,,,,,
,"no person",0.9701927900314331,,,,,,,,
,contemporary,0.9700409770011902,,,,,,,,
,"interior design",0.9652475118637085,,,,,,,,
,floor,0.9506109952926636,,,,,,,,
,light,0.9464313387870789,,,,,,,,
,house,0.9400038719177246,,,,,,,,
,hallway,0.938082218170166,,,,,,,,
,lobby,0.9375949501991272,,,,,,,,
,modern,0.9321016669273376,,,,,,,,
,family,0.9301191568374634,,,,,,,,
,table,0.9284985661506653,,,,,,,,
,museum,0.9271236658096313,,,,,,,,
https://scontent.cdninstagram.com/t51.2885-15/e35/12568233_1680093162247970_1081649418_n.jpg,cat,0.9927867650985718,Animals,,,,Animals-s,,,
,mammal,0.9865938425064087,,,,,,,,
,sleep,0.9852644205093384,,,,,,,,
,"no person",0.9768074750900269,,,,,,,,
,pet,0.9740513563156128,,,,,,,,
,one,0.973016619682312,,,,,,,,
,portrait,0.9628123641014099,,,,,,,,
,cute,0.9607343077659607,,,,,,,,
,animal,0.9506412744522095,,,,,,,,
,kitten,0.9459905624389648,,,,,,,,
,bed,0.937633752822876,,,,,,,,
,domestic,0.926140308380127,,,,,,,,
,family,0.8765425682067871,,,,,,,,
,eye,0.8680035471916199,,,,,,,,
,sleepy,0.8679382801055908,,,,,,,,
,little,0.8403679132461548,,,,,,,,
,downy,0.8269160985946655,,,,,,,,
,pillow,0.8093206882476807,,,,,,,,
,baby,0.8069177269935608,,,,,,,,
,dog,0.7981072664260864,,,,,,,,
https://scontent.cdninstagram.com/t51.2885-15/e35/12918637_1534301456871883_351336462_n.jpg,tree,0.9970389604568481,Environment,Travel,,,"Natural beauty",Travel-s,,
,branch,0.9911789298057556,,,,,,,,
,flower,0.9907553195953369,,,,,,,,
,landscape,0.9904797077178955,,,,,,,,
,park,0.9792495965957642,,,,,,,,
,"no person",0.9687697887420654,,,,,,,,
,cherry,0.9662495851516724,,,,,,,,
,season,0.9591342210769653,,,,,,,,
,environment,0.9512901306152344,,,,,,,,
,garden,0.9457125663757324,,,,,,,,
,flora,0.9339171648025513,,,,,,,,
,outdoors,0.9265738725662231,,,,,,,,
,leaf,0.9089283347129822,,,,,,,,
,nature,0.9082373380661011,,,,,,,,
,summer,0.8791421055793762,,,,,,,,
,scene,0.8768501281738281,,,,,,,,
,daylight,0.8690530061721802,,,,,,,,
,blooming,0.8499413132667542,,,,,,,,
,springtime,0.8492567539215088,,,,,,,,
,sight,0.8414707779884338,,,,,,,,
https://scontent.cdninstagram.com/t51.2885-15/e35/12338694_514956625342611_1833226195_n.jpg,"auto racing",0.984255313873291,Entertainment,,,,Entertainment-s,,,
,technology,0.9690799117088318,,,,,,,,
,race,0.9677549004554749,,,,,,,,
,performance,0.9661532640457153,,,,,,,,
,music,0.9659771919250488,,,,,,,,
,screen,0.9616330862045288,,,,,,,,
,track,0.9534813165664673,,,,,,,,
,competition,0.9418969750404358,,,,,,,,
,action,0.9154210090637207,,,,,,,,
,championship,0.9059872031211853,,,,,,,,
,people,0.9050793647766113,,,,,,,,
,festival,0.9037491083145142,,,,,,,,
,computer,0.9015013575553894,,,,,,,,
,television,0.8944286108016968,,,,,,,,
,vehicle,0.8798685669898987,,,,,,,,
,internet,0.8683288097381592,,,,,,,,
,movie,0.8677808046340942,,,,,,,,
,concert,0.8588517904281616,,,,,,,,
,illuminated,0.8441442251205444,,,,,,,,
,musician,0.8417661190032959,,,,,,,,
https://scontent.cdninstagram.com/t51.2885-15/e35/12748175_1212913315403360_779497208_n.jpg,technology,0.9645741581916809,Commerce,,,,"Product/brand shots",,,
,equipment,0.9340478181838989,,,,,,,,
,business,0.9244509339332581,,,,,,,,
,retro,0.9109995365142822,,,,,,,,
,"no person",0.8942282199859619,,,,,,,,
,modern,0.8876994252204895,,,,,,,,
,movie,0.8790665864944458,,,,,,,,
,industry,0.8744805455207825,,,,,,,,
,electronics,0.8609437346458435,,,,,,,,
,indoors,0.8578780293464661,,,,,,,,
,old,0.8461600542068481,,,,,,,,
,wireless,0.8296822309494019,,,,,,,,
,box,0.8290672302246094,,,,,,,,
,computer,0.824921190738678,,,,,,,,
,family,0.8248235583305359,,,,,,,,
,paper,0.817065954208374,,,,,,,,
,plastic,0.8117280602455139,,,,,,,,
,television,0.7855321168899536,,,,,,,,
,tape,0.7853432297706604,,,,,,,,
,nostalgia,0.7845831513404846,,,,,,,,
https://scontent.cdninstagram.com/t51.2885-15/e35/12446022_220755548261625_943166326_n.jpg,domestic,0.9964895844459534,Animals,,,,Animals-s,,,
,pet,0.9831966161727905,,,,,,,,
,cat,0.9788455367088318,,,,,,,,
,mammal,0.9754040837287903,,,,,,,,
,portrait,0.9698331356048584,,,,,,,,
,cute,0.9621053338050842,,,,,,,,
,one,0.9612594246864319,,,,,,,,
,floor,0.9582709074020386,,,,,,,,
,"no person",0.9578157663345337,,,,,,,,
,kitten,0.936276376247406,,,,,,,,
,young,0.9349523782730103,,,,,,,,
,looking,0.932611346244812,,,,,,,,
,animal,0.9287970066070557,,,,,,,,
,funny,0.9256688952445984,,,,,,,,
,indoors,0.9229559898376465,,,,,,,,
,sit,0.9152460694313049,,,,,,,,
,fur,0.901317834854126,,,,,,,,
,dog,0.8900179862976074,,,,,,,,
,family,0.888988733291626,,,,,,,,
,breed,0.872442364692688,,,,,,,,
https://scontent.cdninstagram.com/t51.2885-15/e15/12362323_545546458946105_1279498102_n.jpg,adult,0.9832363128662109,"Fashion & Beauty",Food,,,"My look",Self-preparation,,
,people,0.9765981435775757,,,,,,,,
,wear,0.9737615585327148,,,,,,,,
,indoors,0.9697163701057434,,,,,,,,
,portrait,0.9665178060531616,,,,,,,,
,one,0.9664989709854126,,,,,,,,
,woman,0.9656076431274414,,,,,,,,
,room,0.9536833763122559,,,,,,,,
,"facial expression",0.9505623579025269,,,,,,,,
,stock,0.9454860687255859,,,,,,,,
,business,0.9383529424667358,,,,,,,,
,furniture,0.9230856895446777,,,,,,,,
,festival,0.905326247215271,,,,,,,,
,man,0.8712842464447021,,,,,,,,
,technology,0.8679804801940918,,,,,,,,
,office,0.8612639904022217,,,,,,,,
,commerce,0.8581671714782715,,,,,,,,
,medicine,0.8511967658996582,,,,,,,,
,school,0.8482524156570435,,,,,,,,
,education,0.8441128730773926,,,,,,,,
https://scontent.cdninstagram.com/t51.2885-15/e35/10727232_1539459636371649_1035747459_n.jpg,people,0.9915051460266113,"Fashion & Beauty",Food,"My life",,Ootd,"Meal time",Selfie,
,woman,0.9812403917312622,,,,,,,,
,group,0.965252161026001,,,,,,,,
,portrait,0.9630041122436523,,,,,,,,
,adult,0.9382075071334839,,,,,,,,
,exhibition,0.9307032227516174,,,,,,,,
,indoors,0.9306659698486328,,,,,,,,
,family,0.8979971408843994,,,,,,,,
,child,0.8964011669158936,,,,,,,,
,girl,0.8948488235473633,,,,,,,,
,education,0.8870639801025391,,,,,,,,
,model,0.8791732788085938,,,,,,,,
,fashion,0.870568037033081,,,,,,,,
,party,0.8703099489212036,,,,,,,,
,young,0.8677912354469299,,,,,,,,
,fun,0.8596299886703491,,,,,,,,
,event,0.8558682203292847,,,,,,,,
,person,0.8547587990760803,,,,,,,,
,beautiful,0.8520616888999939,,,,,,,,
,friendship,0.846912145614624,,,,,,,,
https://scontent.cdninstagram.com/t51.2885-15/e35/12446105_1677257945889566_882557726_n.jpg,template,0.9922170639038086,Travel,,,,Travel-s,,,
,"World Wide Web",0.9921209216117859,,,,,,,,
,stripe,0.9894117712974548,,,,,,,,
,navigation,0.9892507195472717,,,,,,,,
,form,0.988492488861084,,,,,,,,
,layout,0.9848451614379883,,,,,,,,
,page,0.9836311340332031,,,,,,,,
,site,0.9742257595062256,,,,,,,,
,number,0.9739331603050232,,,,,,,,
,banner,0.9679358005523682,,,,,,,,
,check,0.9678292274475098,,,,,,,,
,menu,0.9636503458023071,,,,,,,,
,presentation,0.9561357498168945,,,,,,,,
,user,0.9456133842468262,,,,,,,,
,heading,0.9405079483985901,,,,,,,,
,information,0.9291834831237793,,,,,,,,
,label,0.9288743734359741,,,,,,,,
,browse,0.9277979135513306,,,,,,,,
,data,0.9263929128646851,,,,,,,,
,arrow,0.910394012928009,,,,,,,,
https://scontent.cdninstagram.com/t51.2885-15/e35/12747676_1699529496956163_1198416051_n.jpg,food,0.995977520942688,Food,Celebrations,,,Dessert,"Personal Events",,
,"no person",0.9919776916503906,,,,,,,,
,fruit,0.9894284009933472,,,,,,,,
,"still life",0.9876757264137268,,,,,,,,
,cutlery,0.9843098521232605,,,,,,,,
,plate,0.9799919128417969,,,,,,,,
,"dairy product",0.9777410626411438,,,,,,,,
,grow,0.9770726561546326,,,,,,,,
,sweet,0.9745312929153442,,,,,,,,
,chocolate,0.9708443880081177,,,,,,,,
,tableware,0.9679960608482361,,,,,,,,
,table,0.9545813798904419,,,,,,,,
,flatware,0.9530915021896362,,,,,,,,
,cake,0.9521507024765015,,,,,,,,
,restaurant,0.9476610422134399,,,,,,,,
,party,0.947620153427124,,,,,,,,
,fork,0.9449368715286255,,,,,,,,
,knife,0.9365531802177429,,,,,,,,
,celebration,0.9362821578979492,,,,,,,,
,decoration,0.930340051651001,,,,,,,,
https://scontent.cdninstagram.com/t51.2885-15/e35/12357488_1691321507803109_654423702_n.jpg,adult,0.9595823287963867,Undefined,,,,Undefined,,,
,business,0.9562520980834961,,,,,,,,
,people,0.9561472535133362,,,,,,,,
,woman,0.9444863796234131,,,,,,,,
,portrait,0.9381445050239563,,,,,,,,
,indoors,0.9176633358001709,,,,,,,,
,technology,0.9136877059936523,,,,,,,,
,horizontal,0.9111261367797852,,,,,,,,
,paper,0.8671127557754517,,,,,,,,
,computer,0.8646162748336792,,,,,,,,
,money,0.852536678314209,,,,,,,,
,internet,0.8362935781478882,,,,,,,,
,communication,0.8336727619171143,,,,,,,,
,office,0.8316837549209595,,,,,,,,
,sign,0.815799355506897,,,,,,,,
,finance,0.8143017292022705,,,,,,,,
,data,0.8088710904121399,,,,,,,,
,text,0.7950188517570496,,,,,,,,
,commerce,0.7888050079345703,,,,,,,,
,screen,0.780110239982605,,,,,,,,
https://scontent.cdninstagram.com/t51.2885-15/e35/12568233_1680093162247970_1081649418_n.jpg,cat,0.9927867650985718,Animals,,,,Animals-s,,,
,mammal,0.9865938425064087,,,,,,,,
,sleep,0.9852644205093384,,,,,,,,
,"no person",0.9768074750900269,,,,,,,,
,pet,0.9740513563156128,,,,,,,,
,one,0.973016619682312,,,,,,,,
,portrait,0.9628123641014099,,,,,,,,
,cute,0.9607343077659607,,,,,,,,
,animal,0.9506412744522095,,,,,,,,
,kitten,0.9459905624389648,,,,,,,,
,bed,0.937633752822876,,,,,,,,
,domestic,0.926140308380127,,,,,,,,
,family,0.8765425682067871,,,,,,,,
,eye,0.8680035471916199,,,,,,,,
,sleepy,0.8679382801055908,,,,,,,,
,little,0.8403679132461548,,,,,,,,
,downy,0.8269160985946655,,,,,,,,
,pillow,0.8093206882476807,,,,,,,,
,baby,0.8069177269935608,,,,,,,,
,dog,0.7981072664260864,,,,,,,,
https://scontent.cdninstagram.com/t51.2885-15/e35/12552271_154348234946463_1343387944_n.jpg,tree,0.982306718826294,Food,Environment,,,"Meal time","Natural beauty",,
,landscape,0.9809707403182983,,,,,,,,
,people,0.9759224653244019,,,,,,,,
,park,0.9688384532928467,,,,,,,,
,environment,0.9590432643890381,,,,,,,,
,flower,0.9474549293518066,,,,,,,,
,group,0.9450007081031799,,,,,,,,
,adult,0.9269774556159973,,,,,,,,
,garden,0.921833872795105,,,,,,,,
,road,0.9152178764343262,,,,,,,,
,travel,0.9095990657806396,,,,,,,,
,cemetery,0.906912088394165,,,,,,,,
,home,0.8986176252365112,,,,,,,,
,daylight,0.8898261785507202,,,,,,,,
,military,0.8868169188499451,,,,,,,,
,recreation,0.8852635622024536,,,,,,,,
,water,0.8628174066543579,,,,,,,,
,vehicle,0.8599305748939514,,,,,,,,
,man,0.8514248132705688,,,,,,,,
,outdoors,0.850712776184082,,,,,,,,
https://scontent.cdninstagram.com/t51.2885-15/e15/12362323_545546458946105_1279498102_n.jpg,adult,0.9832363128662109,"Fashion & Beauty",Food,,,"My look",Self-preparation,,
,people,0.9765981435775757,,,,,,,,
,wear,0.9737615585327148,,,,,,,,
,indoors,0.9697163701057434,,,,,,,,
,portrait,0.9665178060531616,,,,,,,,
,one,0.9664989709854126,,,,,,,,
,woman,0.9656076431274414,,,,,,,,
,room,0.9536833763122559,,,,,,,,
,"facial expression",0.9505623579025269,,,,,,,,
,stock,0.9454860687255859,,,,,,,,
,business,0.9383529424667358,,,,,,,,
,furniture,0.9230856895446777,,,,,,,,
,festival,0.905326247215271,,,,,,,,
,man,0.8712842464447021,,,,,,,,
,technology,0.8679804801940918,,,,,,,,
,office,0.8612639904022217,,,,,,,,
,commerce,0.8581671714782715,,,,,,,,
,medicine,0.8511967658996582,,,,,,,,
,school,0.8482524156570435,,,,,,,,
,education,0.8441128730773926,,,,,,,,
https://scontent.cdninstagram.com/t51.2885-15/e35/12357488_1691321507803109_654423702_n.jpg,adult,0.9595823287963867,Undefined,,,,Undefined,,,
,business,0.9562520980834961,,,,,,,,
,people,0.9561472535133362,,,,,,,,
,woman,0.9444863796234131,,,,,,,,
,portrait,0.9381445050239563,,,,,,,,
,indoors,0.9176633358001709,,,,,,,,
,technology,0.9136877059936523,,,,,,,,
,horizontal,0.9111261367797852,,,,,,,,
,paper,0.8671127557754517,,,,,,,,
,computer,0.8646162748336792,,,,,,,,
,money,0.852536678314209,,,,,,,,
,internet,0.8362935781478882,,,,,,,,
,communication,0.8336727619171143,,,,,,,,
,office,0.8316837549209595,,,,,,,,
,sign,0.815799355506897,,,,,,,,
,finance,0.8143017292022705,,,,,,,,
,data,0.8088710904121399,,,,,,,,
,text,0.7950188517570496,,,,,,,,
,commerce,0.7888050079345703,,,,,,,,
,screen,0.780110239982605,,,,,,,,
https://scontent.cdninstagram.com/t51.2885-15/e35/12446105_1677257945889566_882557726_n.jpg,template,0.9922170639038086,Travel,,,,Travel-s,,,
,"World Wide Web",0.9921209216117859,,,,,,,,
,stripe,0.9894117712974548,,,,,,,,
,navigation,0.9892507195472717,,,,,,,,
,form,0.988492488861084,,,,,,,,
,layout,0.9848451614379883,,,,,,,,
,page,0.9836311340332031,,,,,,,,
,site,0.9742257595062256,,,,,,,,
,number,0.9739331603050232,,,,,,,,
,banner,0.9679358005523682,,,,,,,,
,check,0.9678292274475098,,,,,,,,
,menu,0.9636503458023071,,,,,,,,
,presentation,0.9561357498168945,,,,,,,,
,user,0.9456133842468262,,,,,,,,
,heading,0.9405079483985901,,,,,,,,
,information,0.9291834831237793,,,,,,,,
,label,0.9288743734359741,,,,,,,,
,browse,0.9277979135513306,,,,,,,,
,data,0.9263929128646851,,,,,,,,
,arrow,0.910394012928009,,,,,,,,
https://scontent.cdninstagram.com/t51.2885-15/e35/12568257_953319294761929_1965678926_n.jpg,"no person",0.9805005788803101,"My life",,,,"With me",,,
,man,0.976136326789856,,,,,,,,
,people,0.9744206666946411,,,,,,,,
,wear,0.9664453268051147,,,,,,,,
,indoors,0.9554324150085449,,,,,,,,
,one,0.9474118947982788,,,,,,,,
,fashion,0.9301049709320068,,,,,,,,
,adult,0.9227877855300903,,,,,,,,
,business,0.8891727924346924,,,,,,,,
,woman,0.8770818710327148,,,,,,,,
,vertical,0.8626420497894287,,,,,,,,
,two,0.8383066654205322,,,,,,,,
,footwear,0.8237349390983582,,,,,,,,
,retro,0.8170663714408875,,,,,,,,
,relaxation,0.8159183263778687,,,,,,,,
,outdoors,0.8021440505981445,,,,,,,,
,painting,0.7947311401367188,,,,,,,,
,stripe,0.7944092154502869,,,,,,,,
,love,0.7893975973129272,,,,,,,,
,color,0.7874767780303955,,,,,,,,
https://scontent.cdninstagram.com/t51.2885-15/e35/12338694_514956625342611_1833226195_n.jpg,"auto racing",0.984255313873291,Entertainment,,,,Entertainment-s,,,
,technology,0.9690799117088318,,,,,,,,
,race,0.9677549004554749,,,,,,,,
,performance,0.9661532640457153,,,,,,,,
,music,0.9659771919250488,,,,,,,,
,screen,0.9616330862045288,,,,,,,,
,track,0.9534813165664673,,,,,,,,
,competition,0.9418969750404358,,,,,,,,
,action,0.9154210090637207,,,,,,,,
,championship,0.9059872031211853,,,,,,,,
,people,0.9050793647766113,,,,,,,,
,festival,0.9037491083145142,,,,,,,,
,computer,0.9015013575553894,,,,,,,,
,television,0.8944286108016968,,,,,,,,
,vehicle,0.8798685669898987,,,,,,,,
,internet,0.8683288097381592,,,,,,,,
,movie,0.8677808046340942,,,,,,,,
,concert,0.8588517904281616,,,,,,,,
,illuminated,0.8441442251205444,,,,,,,,
,musician,0.8417661190032959,,,,,,,,
https://scontent.cdninstagram.com/t51.2885-15/e35/12446022_220755548261625_943166326_n.jpg,domestic,0.9964895844459534,Animals,,,,Animals-s,,,
,pet,0.9831966161727905,,,,,,,,
,cat,0.9788455367088318,,,,,,,,
,mammal,0.9754040837287903,,,,,,,,
,portrait,0.9698331356048584,,,,,,,,
,cute,0.9621053338050842,,,,,,,,
,one,0.9612594246864319,,,,,,,,
,floor,0.9582709074020386,,,,,,,,
,"no person",0.9578157663345337,,,,,,,,
,kitten,0.936276376247406,,,,,,,,
,young,0.9349523782730103,,,,,,,,
,looking,0.932611346244812,,,,,,,,
,animal,0.9287970066070557,,,,,,,,
,funny,0.9256688952445984,,,,,,,,
,indoors,0.9229559898376465,,,,,,,,
,sit,0.9152460694313049,,,,,,,,
,fur,0.901317834854126,,,,,,,,
,dog,0.8900179862976074,,,,,,,,
,family,0.888988733291626,,,,,,,,
,breed,0.872442364692688,,,,,,,,
https://scontent.cdninstagram.com/t51.2885-15/e35/10727232_1539459636371649_1035747459_n.jpg,people,0.9915051460266113,"Fashion & Beauty",Food,"My life",,Ootd,"Meal time",Selfie,
,woman,0.9812403917312622,,,,,,,,
,group,0.965252161026001,,,,,,,,
,portrait,0.9630041122436523,,,,,,,,
,adult,0.9382075071334839,,,,,,,,
,exhibition,0.9307032227516174,,,,,,,,
,indoors,0.9306659698486328,,,,,,,,
,family,0.8979971408843994,,,,,,,,
,child,0.8964011669158936,,,,,,,,
,girl,0.8948488235473633,,,,,,,,
,education,0.8870639801025391,,,,,,,,
,model,0.8791732788085938,,,,,,,,
,fashion,0.870568037033081,,,,,,,,
,party,0.8703099489212036,,,,,,,,
,young,0.8677912354469299,,,,,,,,
,fun,0.8596299886703491,,,,,,,,
,event,0.8558682203292847,,,,,,,,
,person,0.8547587990760803,,,,,,,,
,beautiful,0.8520616888999939,,,,,,,,
,friendship,0.846912145614624,,,,,,,,
https://scontent.cdninstagram.com/t51.2885-15/e35/12568257_953319294761929_1965678926_n.jpg,"no person",0.9805005788803101,"My life",,,,"With me",,,
,man,0.976136326789856,,,,,,,,
,people,0.9744206666946411,,,,,,,,
,wear,0.9664453268051147,,,,,,,,
,indoors,0.9554324150085449,,,,,,,,
,one,0.9474118947982788,,,,,,,,
,fashion,0.9301049709320068,,,,,,,,
,adult,0.9227877855300903,,,,,,,,
,business,0.8891727924346924,,,,,,,,
,woman,0.8770818710327148,,,,,,,,
,vertical,0.8626420497894287,,,,,,,,
,two,0.8383066654205322,,,,,,,,
,footwear,0.8237349390983582,,,,,,,,
,retro,0.8170663714408875,,,,,,,,
,relaxation,0.8159183263778687,,,,,,,,
,outdoors,0.8021440505981445,,,,,,,,
,painting,0.7947311401367188,,,,,,,,
,stripe,0.7944092154502869,,,,,,,,
,love,0.7893975973129272,,,,,,,,
,color,0.7874767780303955,,,,,,,,
https://scontent.cdninstagram.com/t51.2885-15/e35/12394108_1682708225278969_1613772274_n.jpg,people,0.9824482798576355,Business,Food,,,Study-s,"Drinks and snack",,
,adult,0.9780584573745728,,,,,,,,
,man,0.9506353139877319,,,,,,,,
,business,0.9247747659683228,,,,,,,,
,card,0.9216996431350708,,,,,,,,
,paper,0.9142722487449646,,,,,,,,
,one,0.8931615352630615,,,,,,,,
,hand,0.882212221622467,,,,,,,,
,document,0.872360348701477,,,,,,,,
,woman,0.8721444606781006,,,,,,,,
,person,0.8710179328918457,,,,,,,,
,office,0.8648049831390381,,,,,,,,
,desktop,0.8263465166091919,,,,,,,,
,blank,0.8235818147659302,,,,,,,,
,human,0.8164439797401428,,,,,,,,
,two,0.8036697506904602,,,,,,,,
,sign,0.7798894643783569,,,,,,,,
,actor,0.766299843788147,,,,,,,,
,offense,0.7565945386886597,,,,,,,,
,administration,0.7554486393928528,,,,,,,,
https://scontent.cdninstagram.com/t51.2885-15/e35/12394108_1682708225278969_1613772274_n.jpg,people,0.9824482798576355,Business,Food,,,Study-s,"Drinks and snack",,
,adult,0.9780584573745728,,,,,,,,
,man,0.9506353139877319,,,,,,,,
,business,0.9247747659683228,,,,,,,,
,card,0.9216996431350708,,,,,,,,
,paper,0.9142722487449646,,,,,,,,
,one,0.8931615352630615,,,,,,,,
,hand,0.882212221622467,,,,,,,,
,document,0.872360348701477,,,,,,,,
,woman,0.8721444606781006,,,,,,,,
,person,0.8710179328918457,,,,,,,,
,office,0.8648049831390381,,,,,,,,
,desktop,0.8263465166091919,,,,,,,,
,blank,0.8235818147659302,,,,,,,,
,human,0.8164439797401428,,,,,,,,
,two,0.8036697506904602,,,,,,,,
,sign,0.7798894643783569,,,,,,,,
,actor,0.766299843788147,,,,,,,,
,offense,0.7565945386886597,,,,,,,,
,administration,0.7554486393928528,,,,,,,,
https://scontent.cdninstagram.com/t51.2885-15/e35/12394202_475115132696814_1858875900_n.jpg,agriculture,0.9873448014259338,Environment,,,,"Natural beauty",,,
,landscape,0.9763643145561218,,,,,,,,
,"no person",0.9755464792251587,,,,,,,,
,farm,0.9677515029907227,,,,,,,,
,field,0.9610013961791992,,,,,,,,
,grass,0.9582769870758057,,,,,,,,
,environment,0.9446934461593628,,,,,,,,
,sky,0.9394668340682983,,,,,,,,
,outdoors,0.9323946237564087,,,,,,,,
,industry,0.920599639415741,,,,,,,,
,pollution,0.9172720909118652,,,,,,,,
,storm,0.9116801023483276,,,,,,,,
,weather,0.9067363739013672,,,,,,,,
,countryside,0.9062466621398926,,,,,,,,
,smoke,0.906014084815979,,,,,,,,
,nature,0.901239275932312,,,,,,,,
,cropland,0.8906458616256714,,,,,,,,
,pasture,0.8816500306129456,,,,,,,,
,daylight,0.8705570697784424,,,,,,,,
,rain,0.8641664981842041,,,,,,,,
https://scontent.cdninstagram.com/t51.2885-15/e35/12394202_475115132696814_1858875900_n.jpg,agriculture,0.9873448014259338,Environment,,,,"Natural beauty",,,
,landscape,0.9763643145561218,,,,,,,,
,"no person",0.9755464792251587,,,,,,,,
,farm,0.9677515029907227,,,,,,,,
,field,0.9610013961791992,,,,,,,,
,grass,0.9582769870758057,,,,,,,,
,environment,0.9446934461593628,,,,,,,,
,sky,0.9394668340682983,,,,,,,,
,outdoors,0.9323946237564087,,,,,,,,
,industry,0.920599639415741,,,,,,,,
,pollution,0.9172720909118652,,,,,,,,
,storm,0.9116801023483276,,,,,,,,
,weather,0.9067363739013672,,,,,,,,
,countryside,0.9062466621398926,,,,,,,,
,smoke,0.906014084815979,,,,,,,,
,nature,0.901239275932312,,,,,,,,
,cropland,0.8906458616256714,,,,,,,,
,pasture,0.8816500306129456,,,,,,,,
,daylight,0.8705570697784424,,,,,,,,
,rain,0.8641664981842041,,,,,,,,
https://scontent.cdninstagram.com/t51.2885-15/e35/13118086_1058869034204359_1452366794_n.jpg,woman,0.9931957721710205,"Fashion & Beauty","My life",,,"My look",Selfie,,
,fashion,0.9874889850616455,,,,,,,,
,girl,0.9823852777481079,,,,,,,,
,portrait,0.9801424741744995,,,,,,,,
,model,0.9770183563232422,,,,,,,,
,glamour,0.9567618370056152,,,,,,,,
,sexy,0.9527885913848877,,,,,,,,
,beautiful,0.9507853984832764,,,,,,,,
,hair,0.9477035999298096,,,,,,,,
,people,0.9464770555496216,,,,,,,,
,lips,0.9420871734619141,,,,,,,,
,pretty,0.9360946416854858,,,,,,,,
,long,0.9320611953735352,,,,,,,,
,eye,0.9309143424034119,,,,,,,,
,face,0.9226287007331848,,,,,,,,
,young,0.906964123249054,,,,,,,,
,skin,0.8861351013183594,,,,,,,,
,cute,0.8837376832962036,,,,,,,,
,brunette,0.8767079710960388,,,,,,,,
,style,0.8732778429985046,,,,,,,,
https://scontent.cdninstagram.com/t51.2885-15/e15/13092502_1745034812376113_1412741842_n.jpg,indoors,0.9766761660575867,Entertainment,,,,Entertainment-s,,,
,horizontal,0.9745928645133972,,,,,,,,
,illuminated,0.9702576398849487,,,,,,,,
,horizontal,0.9684548377990723,,,,,,,,
,outdoors,0.9604549407958984,,,,,,,,
,vertical,0.9510164260864258,,,,,,,,
,"transportation system",0.9454061985015869,,,,,,,,
,business,0.9313167333602905,,,,,,,,
,city,0.9225013852119446,,,,,,,,
,people,0.883346676826477,,,,,,,,
,travel,0.8822083473205566,,,,,,,,
,light,0.8811089992523193,,,,,,,,
,architecture,0.8406646847724915,,,,,,,,
,industry,0.8259574174880981,,,,,,,,
,absence,0.8212041854858398,,,,,,,,
,technology,0.8069897890090942,,,,,,,,
,window,0.8051919937133789,,,,,,,,
,street,0.7975060939788818,,,,,,,,
,car,0.7838747501373291,,,,,,,,
,dark,0.765031099319458,,,,,,,,
https://scontent.cdninstagram.com/t51.2885-15/e15/13092502_1745034812376113_1412741842_n.jpg,indoors,0.9766761660575867,Entertainment,,,,Entertainment-s,,,
,horizontal,0.9745928645133972,,,,,,,,
,illuminated,0.9702576398849487,,,,,,,,
,horizontal,0.9684548377990723,,,,,,,,
,outdoors,0.9604549407958984,,,,,,,,
,vertical,0.9510164260864258,,,,,,,,
,"transportation system",0.9454061985015869,,,,,,,,
,business,0.9313167333602905,,,,,,,,
,city,0.9225013852119446,,,,,,,,
,people,0.883346676826477,,,,,,,,
,travel,0.8822083473205566,,,,,,,,
,light,0.8811089992523193,,,,,,,,
,architecture,0.8406646847724915,,,,,,,,
,industry,0.8259574174880981,,,,,,,,
,absence,0.8212041854858398,,,,,,,,
,technology,0.8069897890090942,,,,,,,,
,window,0.8051919937133789,,,,,,,,
,street,0.7975060939788818,,,,,,,,
,car,0.7838747501373291,,,,,,,,
,dark,0.765031099319458,,,,,,,,
