url,class,score,,,,,,,,
https://scontent.cdninstagram.com/t51.2885-15/e35/13549542_230584010668192_1589232917_n.jpg,weapon,0.9811205863952637,Commerce,,,,"Product/brand shots",,,
,military,0.9774958491325378,,,,,,,,
,gun,0.9665173292160034,,,,,,,,
,vehicle,0.956024169921875,,,,,,,,
,technology,0.9558241963386536,,,,,,,,
,war,0.9536778330802917,,,,,,,,
,indoors,0.9455312490463257,,,,,,,,
,robot,0.936985194683075,,,,,,,,
,"no person",0.9298717379570007,,,,,,,,
,people,0.9186561703681946,,,,,,,,
,police,0.9184808135032654,,,,,,,,
,industry,0.9165300130844116,,,,,,,,
,offense,0.9123561382293701,,,,,,,,
,competition,0.9104864597320557,,,,,,,,
,science,0.8952819108963013,,,,,,,,
,exhibition,0.8898029327392578,,,,,,,,
,missile,0.8893191814422607,,,,,,,,
,business,0.8820151090621948,,,,,,,,
,security,0.8807172775268555,,,,,,,,
,battle,0.8598408699035645,,,,,,,,
https://scontent.cdninstagram.com/t51.2885-15/e35/13422879_1656100814714268_213196487_n.jpg,adult,0.9825665354728699,Commerce,"My life","Fashion & Beauty",,"Product/brand shots",Selfie,"My look",
,portrait,0.9823318719863892,,,,,,,,
,people,0.976060152053833,,,,,,,,
,girl,0.9628087282180786,,,,,,,,
,woman,0.9597679376602173,,,,,,,,
,man,0.9500369429588318,,,,,,,,
,one,0.9429410696029663,,,,,,,,
,model,0.9031558632850647,,,,,,,,
,wear,0.902607262134552,,,,,,,,
,indoors,0.886726975440979,,,,,,,,
,business,0.8662666082382202,,,,,,,,
,fashion,0.8426041603088379,,,,,,,,
,"facial expression",0.8251218199729919,,,,,,,,
,telephone,0.821160078048706,,,,,,,,
,beautiful,0.8210123777389526,,,,,,,,
,boy,0.8085836172103882,,,,,,,,
,brunette,0.8063021898269653,,,,,,,,
,music,0.8015029430389404,,,,,,,,
,face,0.7934921383857727,,,,,,,,
,lifestyle,0.7933168411254883,,,,,,,,
https://scontent.cdninstagram.com/t51.2885-15/e35/13531971_1087012398023087_427494234_n.jpg,music,0.997639536857605,"Fashion & Beauty","My life",,,"My look","Here I am",,
,concert,0.9932053685188293,,,,,,,,
,performance,0.9925942420959473,,,,,,,,
,musician,0.9759942293167114,,,,,,,,
,singer,0.9740701913833618,,,,,,,,
,festival,0.961043119430542,,,,,,,,
,club,0.9491754770278931,,,,,,,,
,stage,0.9413367509841919,,,,,,,,
,people,0.9316360950469971,,,,,,,,
,pop,0.9050860404968262,,,,,,,,
,dancing,0.8990973830223083,,,,,,,,
,band,0.8946517705917358,,,,,,,,
,recreation,0.8922722339630127,,,,,,,,
,rap,0.8868299126625061,,,,,,,,
,light,0.8725277185440063,,,,,,,,
,illuminated,0.8630563616752625,,,,,,,,
,man,0.8453446626663208,,,,,,,,
,nightlife,0.8398607969284058,,,,,,,,
,blur,0.8194605708122253,,,,,,,,
,science,0.7999541163444519,,,,,,,,
https://scontent.cdninstagram.com/t51.2885-15/e35/13473364_908089355968608_653731798_n.jpg,woman,0.9816174507141113,"Fashion & Beauty","My life",,,"My look","Here I am",,
,indoors,0.9764434099197388,,,,,,,,
,portrait,0.9668807983398438,,,,,,,,
,people,0.9586150646209717,,,,,,,,
,business,0.9421558976173401,,,,,,,,
,adult,0.9062890410423279,,,,,,,,
,"facial expression",0.8934905529022217,,,,,,,,
,serious,0.8840739727020264,,,,,,,,
,fashion,0.8820027112960815,,,,,,,,
,office,0.8706392645835876,,,,,,,,
,wear,0.8629897236824036,,,,,,,,
,intelligence,0.8586356043815613,,,,,,,,
,confidence,0.85302734375,,,,,,,,
,man,0.85057532787323,,,,,,,,
,one,0.8496605157852173,,,,,,,,
,education,0.8359743356704712,,,,,,,,
,looking,0.8343926668167114,,,,,,,,
,daylight,0.8233637809753418,,,,,,,,
,employee,0.8223204612731934,,,,,,,,
,contemporary,0.7859599590301514,,,,,,,,
https://scontent.cdninstagram.com/t51.2885-15/e35/13277535_705749472862110_323154951_n.jpg,glass,0.9969817399978638,Food,,,,"Drinks and snack",,,
,drink,0.986914873123169,,,,,,,,
,cold,0.9810985326766968,,,,,,,,
,ice,0.9801042079925537,,,,,,,,
,party,0.9704380035400391,,,,,,,,
,bar,0.9527250528335571,,,,,,,,
,cool,0.94123375415802,,,,,,,,
,water,0.9345963001251221,,,,,,,,
,"no person",0.932807445526123,,,,,,,,
,fruit,0.9165284633636475,,,,,,,,
,bubble,0.9032400250434875,,,,,,,,
,cocktail,0.8991433382034302,,,,,,,,
,color,0.8984453678131104,,,,,,,,
,reflection,0.8773765563964844,,,,,,,,
,food,0.8762677907943726,,,,,,,,
,drop,0.8702991008758545,,,,,,,,
,refreshment,0.8641294240951538,,,,,,,,
,celebration,0.8549106121063232,,,,,,,,
,liquid,0.8491725921630859,,,,,,,,
,medicine,0.8418558835983276,,,,,,,,
https://scontent.cdninstagram.com/t51.2885-15/e35/13395175_242973866084397_847063852_n.jpg,portrait,0.9968997836112976,Relationships,,,,Friends,,,
,people,0.9928934574127197,,,,,,,,
,adult,0.9906952381134033,,,,,,,,
,wear,0.9890556335449219,,,,,,,,
,man,0.9882196187973022,,,,,,,,
,"facial expression",0.9842848777770996,,,,,,,,
,two,0.9814605712890625,,,,,,,,
,movie,0.9757773876190186,,,,,,,,
,group,0.9612526297569275,,,,,,,,
,musician,0.95115065574646,,,,,,,,
,music,0.9457586407661438,,,,,,,,
,outerwear,0.9412590265274048,,,,,,,,
,three,0.9388656616210938,,,,,,,,
,interaction,0.9302763938903809,,,,,,,,
,knitwear,0.9287562966346741,,,,,,,,
,recreation,0.9273360967636108,,,,,,,,
,woman,0.9232664108276367,,,,,,,,
,actress,0.9189449548721313,,,,,,,,
,singer,0.91400146484375,,,,,,,,
,festival,0.9133652448654175,,,,,,,,
https://scontent.cdninstagram.com/t51.2885-15/e35/13413427_1750023171943274_1926083042_n.jpg,people,0.9674596786499023,Commerce,"Fashion & Beauty",,,"Product/brand shots","My look",,
,child,0.9670248031616211,,,,,,,,
,portrait,0.9670213460922241,,,,,,,,
,woman,0.9622757434844971,,,,,,,,
,fashion,0.9481185674667358,,,,,,,,
,education,0.9403189420700073,,,,,,,,
,one,0.9380393028259277,,,,,,,,
,adolescent,0.9293749928474426,,,,,,,,
,man,0.9284662008285522,,,,,,,,
,indoors,0.9233413934707642,,,,,,,,
,school,0.917027473449707,,,,,,,,
,adult,0.9121732115745544,,,,,,,,
,wear,0.898547887802124,,,,,,,,
,cute,0.8863590955734253,,,,,,,,
,young,0.8855677843093872,,,,,,,,
,looking,0.8629207611083984,,,,,,,,
,serious,0.855265200138092,,,,,,,,
,vertical,0.8315171599388123,,,,,,,,
,boy,0.8265835046768188,,,,,,,,
,technology,0.7978293895721436,,,,,,,,
https://scontent.cdninstagram.com/t51.2885-15/e35/13388533_1607951772867764_686035003_n.jpg,dark,0.9911528825759888,Animals,,,,"Non Usable",,,
,flame,0.988446831703186,,,,,,,,
,light,0.9846421480178833,,,,,,,,
,abstract,0.9846365451812744,,,,,,,,
,light,0.982596218585968,,,,,,,,
,energy,0.9710413217544556,,,,,,,,
,candle,0.9399321675300598,,,,,,,,
,art,0.9277650117874146,,,,,,,,
,lamp,0.9213995933532715,,,,,,,,
,desktop,0.9213396310806274,,,,,,,,
,illuminated,0.9193216562271118,,,,,,,,
,color,0.9142395257949829,,,,,,,,
,design,0.896544337272644,,,,,,,,
,decoration,0.8736212849617004,,,,,,,,
,shape,0.8690757155418396,,,,,,,,
,bright,0.8574877977371216,,,,,,,,
,smoke,0.8532535433769226,,,,,,,,
,surreal,0.8434710502624512,,,,,,,,
,motion,0.8380603790283203,,,,,,,,
,space,0.837383508682251,,,,,,,,
https://scontent.cdninstagram.com/t51.2885-15/e35/13397702_300874816920623_734559342_n.jpg,sunset,0.9981571435928345,Environment,"My life",,,"Natural beauty","My world today",,
,sun,0.995292067527771,,,,,,,,
,sky,0.9929322004318237,,,,,,,,
,dawn,0.985331118106842,,,,,,,,
,dusk,0.9740968942642212,,,,,,,,
,landscape,0.9707708358764648,,,,,,,,
,light,0.9692304134368896,,,,,,,,
,evening,0.9667864441871643,,,,,,,,
,"no person",0.9638460874557495,,,,,,,,
,silhouette,0.9584709405899048,,,,,,,,
,"fair weather",0.931026816368103,,,,,,,,
,outdoors,0.9249753952026367,,,,,,,,
,summer,0.9106215238571167,,,,,,,,
,nature,0.9095591902732849,,,,,,,,
,airplane,0.907235860824585,,,,,,,,
,Heaven,0.9040520191192627,,,,,,,,
,high,0.8983046412467957,,,,,,,,
,bright,0.8950414657592773,,,,,,,,
,cloud,0.8858091235160828,,,,,,,,
,travel,0.8850464224815369,,,,,,,,
https://scontent.cdninstagram.com/t51.2885-15/e35/13388460_1942832592609952_129127815_n.jpg,festival,0.991366982460022,Commerce,,,,"Product/brand shots",,,
,carnival,0.9771607518196106,,,,,,,,
,exhibition,0.945629358291626,,,,,,,,
,entertainment,0.9406908750534058,,,,,,,,
,traditional,0.9324140548706055,,,,,,,,
,people,0.9276111721992493,,,,,,,,
,religion,0.9274076223373413,,,,,,,,
,presentation,0.9262803792953491,,,,,,,,
,celebration,0.9253302812576294,,,,,,,,
,decoration,0.9140654802322388,,,,,,,,
,"no person",0.9097429513931274,,,,,,,,
,carousel,0.9083109498023987,,,,,,,,
,sculpture,0.9062070846557617,,,,,,,,
,art,0.9031716585159302,,,,,,,,
,music,0.8972174525260925,,,,,,,,
,fun,0.892444372177124,,,,,,,,
,travel,0.8878467679023743,,,,,,,,
,design,0.8749157786369324,,,,,,,,
,souvenir,0.8677750825881958,,,,,,,,
,wear,0.8509505987167358,,,,,,,,
https://scontent.cdninstagram.com/t51.2885-15/s750x750/sh0.08/e35/13532017_843715489114083_1523848838_n.jpg,"give voice",0.9845634698867798,Arts,,,,Arts-s,,,
,text,0.9754810929298401,,,,,,,,
,education,0.9609725475311279,,,,,,,,
,business,0.9449949264526367,,,,,,,,
,science,0.9251168370246887,,,,,,,,
,conceptual,0.8920180201530457,,,,,,,,
,desktop,0.8856573104858398,,,,,,,,
,school,0.8810416460037231,,,,,,,,
,medicine,0.8767187595367432,,,,,,,,
,wisdom,0.8650411367416382,,,,,,,,
,system,0.861217737197876,,,,,,,,
,control,0.8513168096542358,,,,,,,,
,knowledge,0.850717306137085,,,,,,,,
,abstract,0.8438990116119385,,,,,,,,
,internet,0.8411245346069336,,,,,,,,
,definition,0.8399178385734558,,,,,,,,
,weight,0.8303117752075195,,,,,,,,
,rule,0.8236696720123291,,,,,,,,
,research,0.821148157119751,,,,,,,,
,disease,0.8200098276138306,,,,,,,,
https://scontent.cdninstagram.com/t51.2885-15/e35/13329200_1735089200101913_1580445969_n.jpg,illustration,0.9188406467437744,Commerce,,,,"Product/brand shots",,,
,people,0.9186258316040039,,,,,,,,
,fun,0.874963641166687,,,,,,,,
,shopping,0.8704448342323303,,,,,,,,
,symbol,0.8659363389015198,,,,,,,,
,stock,0.861601710319519,,,,,,,,
,business,0.8596502542495728,,,,,,,,
,souvenir,0.8555669784545898,,,,,,,,
,art,0.8529268503189087,,,,,,,,
,design,0.8515158891677856,,,,,,,,
,collection,0.84595787525177,,,,,,,,
,city,0.8374207019805908,,,,,,,,
,neon,0.8304589986801147,,,,,,,,
,man,0.8297724723815918,,,,,,,,
,celebration,0.828927218914032,,,,,,,,
,child,0.8253986835479736,,,,,,,,
,market,0.8088480234146118,,,,,,,,
,gambling,0.8056634664535522,,,,,,,,
,carnival,0.7900447845458984,,,,,,,,
,street,0.7840672731399536,,,,,,,,
https://scontent.cdninstagram.com/t51.2885-15/e35/13355442_1086325131413204_928624760_n.jpg,"no person",0.9565171003341675,Commerce,,,,"Product/brand shots",,,
,Easter,0.9533507823944092,,,,,,,,
,toy,0.9312149286270142,,,,,,,,
,people,0.9242591261863708,,,,,,,,
,child,0.8987042903900146,,,,,,,,
,container,0.8511735200881958,,,,,,,,
,doll,0.8266973495483398,,,,,,,,
,indoors,0.8239459991455078,,,,,,,,
,group,0.8167643547058105,,,,,,,,
,art,0.8127216100692749,,,,,,,,
,sketch,0.8126147985458374,,,,,,,,
,image,0.8119552731513977,,,,,,,,
,one,0.8119181990623474,,,,,,,,
,fun,0.8112802505493164,,,,,,,,
,"still life",0.810813844203949,,,,,,,,
,man,0.8006025552749634,,,,,,,,
,food,0.7984171509742737,,,,,,,,
,decoration,0.7974032759666443,,,,,,,,
,celebration,0.7910712361335754,,,,,,,,
,little,0.7887758016586304,,,,,,,,
https://scontent.cdninstagram.com/t51.2885-15/e35/13414238_245560992492785_800451942_n.jpg,food,0.9936815500259399,Food,,,,Dessert,,,
,"no person",0.9930274486541748,,,,,,,,
,fruit,0.9837435483932495,,,,,,,,
,sweet,0.9827769994735718,,,,,,,,
,delicious,0.969277024269104,,,,,,,,
,grow,0.9578595161437988,,,,,,,,
,sugar,0.947676420211792,,,,,,,,
,nutrition,0.9096323251724243,,,,,,,,
,plate,0.904259443283081,,,,,,,,
,"dairy product",0.9024620056152344,,,,,,,,
,bowl,0.8918857574462891,,,,,,,,
,summer,0.8732649087905884,,,,,,,,
,refreshment,0.8732377886772156,,,,,,,,
,cream,0.8611443042755127,,,,,,,,
,homemade,0.8576968312263489,,,,,,,,
,juicy,0.8517543077468872,,,,,,,,
,vegetable,0.8390182256698608,,,,,,,,
,"still life",0.8334929347038269,,,,,,,,
,health,0.8289964199066162,,,,,,,,
,dinner,0.8281673192977905,,,,,,,,
https://scontent.cdninstagram.com/t51.2885-15/e35/13473208_509833965874264_1572193137_n.jpg,"no person",0.9841257333755493,Commerce,,,,"Product/brand shots",,,
,business,0.9367406368255615,,,,,,,,
,education,0.8889297246932983,,,,,,,,
,text,0.8535099029541016,,,,,,,,
,school,0.8508545756340027,,,,,,,,
,competition,0.8289798498153687,,,,,,,,
,travel,0.8130615949630737,,,,,,,,
,display,0.7800012826919556,,,,,,,,
,merchandise,0.7766294479370117,,,,,,,,
,chalk,0.7629367113113403,,,,,,,,
,people,0.7528712749481201,,,,,,,,
,soccer,0.7519413232803345,,,,,,,,
,writing,0.7412631511688232,,,,,,,,
,festival,0.7380244731903076,,,,,,,,
,action,0.720988392829895,,,,,,,,
,celebration,0.7198715209960938,,,,,,,,
,dark,0.7167536020278931,,,,,,,,
,one,0.7158538699150085,,,,,,,,
,indoors,0.7154477834701538,,,,,,,,
,sign,0.7105536460876465,,,,,,,,
https://scontent.cdninstagram.com/t51.2885-15/e35/13329228_1628383347452509_974713810_n.jpg,business,0.9649602770805359,Entertainment,Business,,,Entertainment-s,Business-s,,
,people,0.9521605372428894,,,,,,,,
,paper,0.8816194534301758,,,,,,,,
,finance,0.8775904178619385,,,,,,,,
,education,0.8595329523086548,,,,,,,,
,election,0.8449182510375977,,,,,,,,
,administration,0.8334366083145142,,,,,,,,
,money,0.832470178604126,,,,,,,,
,text,0.8273382186889648,,,,,,,,
,sign,0.8072066307067871,,,,,,,,
,commerce,0.804387092590332,,,,,,,,
,document,0.8008930683135986,,,,,,,,
,sign,0.7940676808357239,,,,,,,,
,"no person",0.7867777943611145,,,,,,,,
,building,0.7667976021766663,,,,,,,,
,man,0.7432708144187927,,,,,,,,
,school,0.7367631196975708,,,,,,,,
,adult,0.733370304107666,,,,,,,,
,competition,0.7288827896118164,,,,,,,,
,rally,0.7162363529205322,,,,,,,,
