url,class,score,,,,,,,,
https://scontent.cdninstagram.com/t51.2885-15/e35/13385685_1004650996269894_608498753_n.jpg,cat,0.9893980026245117,Animals,,,,Animals-s,,,
,people,0.9589073061943054,,,,,,,,
,"no person",0.9554210305213928,,,,,,,,
,mammal,0.9518766403198242,,,,,,,,
,one,0.938838005065918,,,,,,,,
,animal,0.9377294182777405,,,,,,,,
,portrait,0.9201695919036865,,,,,,,,
,pet,0.8865454196929932,,,,,,,,
,street,0.852479875087738,,,,,,,,
,family,0.8294933438301086,,,,,,,,
,indoors,0.8175668120384216,,,,,,,,
,sit,0.8101122379302979,,,,,,,,
,kitten,0.7928920984268188,,,,,,,,
,domestic,0.7680418491363525,,,,,,,,
,fur,0.7621749639511108,,,,,,,,
,eye,0.7450255155563354,,,,,,,,
,window,0.7368139624595642,,,,,,,,
,building,0.7336788177490234,,,,,,,,
,cute,0.7186248898506165,,,,,,,,
,man,0.7092900276184082,,,,,,,,
https://scontent.cdninstagram.com/t51.2885-15/e35/13298184_236626400044882_2943761_n.jpg,sunset,0.992823600769043,Entertainment,,,,Events,,,
,silhouette,0.9890233278274536,,,,,,,,
,landscape,0.9841871857643127,,,,,,,,
,smoke,0.9840408563613892,,,,,,,,
,flame,0.9729865789413452,,,,,,,,
,light,0.9715520739555359,,,,,,,,
,energy,0.9692962169647217,,,,,,,,
,pollution,0.9630297422409058,,,,,,,,
,environment,0.9580418467521667,,,,,,,,
,festival,0.9575808048248291,,,,,,,,
,concert,0.9524285793304443,,,,,,,,
,audience,0.9486584663391113,,,,,,,,
,industry,0.9450443983078003,,,,,,,,
,dawn,0.9432069063186646,,,,,,,,
,grinder,0.9409915208816528,,,,,,,,
,production,0.9396586418151855,,,,,,,,
,crowd,0.9378542900085449,,,,,,,,
,evening,0.9273492097854614,,,,,,,,
,sun,0.9253309965133667,,,,,,,,
,backlit,0.9239993691444397,,,,,,,,
https://scontent.cdninstagram.com/t51.2885-15/e35/13355569_890216484434899_260833754_n.jpg,room,0.9930218458175659,Technology,,,,Technology-s,,,
,furniture,0.9852830767631531,,,,,,,,
,indoors,0.9828665852546692,,,,,,,,
,technology,0.9778164625167847,,,,,,,,
,"no person",0.9670403599739075,,,,,,,,
,screen,0.954998254776001,,,,,,,,
,people,0.9541318416595459,,,,,,,,
,business,0.9478613138198853,,,,,,,,
,adult,0.9463083744049072,,,,,,,,
,television,0.9424264430999756,,,,,,,,
,computer,0.9400661587715149,,,,,,,,
,home,0.9399690628051758,,,,,,,,
,"interior design",0.9294611811637878,,,,,,,,
,one,0.9223597645759583,,,,,,,,
,table,0.9159438610076904,,,,,,,,
,office,0.9152719974517822,,,,,,,,
,medicine,0.91482013463974,,,,,,,,
,industry,0.9020569920539856,,,,,,,,
,desk,0.9004547595977783,,,,,,,,
,contemporary,0.8978832364082336,,,,,,,,
https://scontent.cdninstagram.com/t51.2885-15/s750x750/sh0.08/e35/13398836_1746343568980088_1249893908_n.jpg,woman,0.990981936454773,"Fashion & Beauty","My life",,,"My look",Selfie,,
,portrait,0.9902317523956299,,,,,,,,
,girl,0.975254476070404,,,,,,,,
,eye,0.9733464121818542,,,,,,,,
,face,0.9608058929443359,,,,,,,,
,people,0.9557744860649109,,,,,,,,
,fashion,0.9527734518051147,,,,,,,,
,pretty,0.9440557360649109,,,,,,,,
,skin,0.936037540435791,,,,,,,,
,model,0.9300694465637207,,,,,,,,
,lips,0.9296640157699585,,,,,,,,
,cute,0.9293134212493896,,,,,,,,
,look,0.9202964305877686,,,,,,,,
,adolescent,0.9200670719146729,,,,,,,,
,child,0.9111589789390564,,,,,,,,
,glamour,0.9083970189094543,,,,,,,,
,young,0.8984829783439636,,,,,,,,
,sexy,0.8879932165145874,,,,,,,,
,"facial expression",0.8701895475387573,,,,,,,,
,adult,0.8602920770645142,,,,,,,,
https://scontent.cdninstagram.com/t51.2885-15/e35/13385685_1004650996269894_608498753_n.jpg,cat,0.9893980026245117,Animals,,,,Animals-s,,,
,people,0.9589073061943054,,,,,,,,
,"no person",0.9554210305213928,,,,,,,,
,mammal,0.9518766403198242,,,,,,,,
,one,0.938838005065918,,,,,,,,
,animal,0.9377294182777405,,,,,,,,
,portrait,0.9201695919036865,,,,,,,,
,pet,0.8865454196929932,,,,,,,,
,street,0.852479875087738,,,,,,,,
,family,0.8294933438301086,,,,,,,,
,indoors,0.8175668120384216,,,,,,,,
,sit,0.8101122379302979,,,,,,,,
,kitten,0.7928920984268188,,,,,,,,
,domestic,0.7680418491363525,,,,,,,,
,fur,0.7621749639511108,,,,,,,,
,eye,0.7450255155563354,,,,,,,,
,window,0.7368139624595642,,,,,,,,
,building,0.7336788177490234,,,,,,,,
,cute,0.7186248898506165,,,,,,,,
,man,0.7092900276184082,,,,,,,,
https://scontent.cdninstagram.com/t51.2885-15/s750x750/sh0.08/e35/13398836_1746343568980088_1249893908_n.jpg,woman,0.990981936454773,"Fashion & Beauty","My life",,,"My look",Selfie,,
,portrait,0.9902317523956299,,,,,,,,
,girl,0.975254476070404,,,,,,,,
,eye,0.9733464121818542,,,,,,,,
,face,0.9608058929443359,,,,,,,,
,people,0.9557744860649109,,,,,,,,
,fashion,0.9527734518051147,,,,,,,,
,pretty,0.9440557360649109,,,,,,,,
,skin,0.936037540435791,,,,,,,,
,model,0.9300694465637207,,,,,,,,
,lips,0.9296640157699585,,,,,,,,
,cute,0.9293134212493896,,,,,,,,
,look,0.9202964305877686,,,,,,,,
,adolescent,0.9200670719146729,,,,,,,,
,child,0.9111589789390564,,,,,,,,
,glamour,0.9083970189094543,,,,,,,,
,young,0.8984829783439636,,,,,,,,
,sexy,0.8879932165145874,,,,,,,,
,"facial expression",0.8701895475387573,,,,,,,,
,adult,0.8602920770645142,,,,,,,,
https://scontent.cdninstagram.com/t51.2885-15/e35/13355569_890216484434899_260833754_n.jpg,room,0.9930218458175659,Technology,,,,Technology-s,,,
,furniture,0.9852830767631531,,,,,,,,
,indoors,0.9828665852546692,,,,,,,,
,technology,0.9778164625167847,,,,,,,,
,"no person",0.9670403599739075,,,,,,,,
,screen,0.954998254776001,,,,,,,,
,people,0.9541318416595459,,,,,,,,
,business,0.9478613138198853,,,,,,,,
,adult,0.9463083744049072,,,,,,,,
,television,0.9424264430999756,,,,,,,,
,computer,0.9400661587715149,,,,,,,,
,home,0.9399690628051758,,,,,,,,
,"interior design",0.9294611811637878,,,,,,,,
,one,0.9223597645759583,,,,,,,,
,table,0.9159438610076904,,,,,,,,
,office,0.9152719974517822,,,,,,,,
,medicine,0.91482013463974,,,,,,,,
,industry,0.9020569920539856,,,,,,,,
,desk,0.9004547595977783,,,,,,,,
,contemporary,0.8978832364082336,,,,,,,,
https://scontent.cdninstagram.com/l/t51.2885-15/e15/12747763_230104800666026_247609012_n.jpg,music,0.9832732677459717,Entertainment,,,,Events,,,
,performance,0.9686338901519775,,,,,,,,
,concert,0.9658583998680115,,,,,,,,
,light,0.9649641513824463,,,,,,,,
,festival,0.9636805057525635,,,,,,,,
,Christmas,0.959551990032196,,,,,,,,
,flame,0.9450249671936035,,,,,,,,
,stage,0.9386637210845947,,,,,,,,
,fireworks,0.9370220899581909,,,,,,,,
,"no person",0.9312536120414734,,,,,,,,
,energy,0.91506028175354,,,,,,,,
,smoke,0.8862894773483276,,,,,,,,
,musician,0.8747615814208984,,,,,,,,
,evening,0.8596710562705994,,,,,,,,
,celebration,0.8528696298599243,,,,,,,,
,blur,0.8527814149856567,,,,,,,,
,sky,0.847697377204895,,,,,,,,
,dark,0.8449568748474121,,,,,,,,
,illuminated,0.8399403095245361,,,,,,,,
,party,0.8244630098342896,,,,,,,,
https://scontent.cdninstagram.com/t51.2885-15/e35/12599392_804421903024068_481797032_n.jpg,paper,0.9951332807540894,Gifts,,,,Gifts-s,,,
,"no person",0.9940813779830933,,,,,,,,
,business,0.9813392162322998,,,,,,,,
,document,0.9808807373046875,,,,,,,,
,writing,0.9580256938934326,,,,,,,,
,post,0.910434365272522,,,,,,,,
,administration,0.8836066722869873,,,,,,,,
,write,0.8813716769218445,,,,,,,,
,indoors,0.8789021968841553,,,,,,,,
,travel,0.8778066635131836,,,,,,,,
,empty,0.8589125871658325,,,,,,,,
,handwritten,0.8515527844429016,,,,,,,,
,one,0.8506476879119873,,,,,,,,
,identity,0.8463544845581055,,,,,,,,
,secrecy,0.8403139114379883,,,,,,,,
,education,0.8392915725708008,,,,,,,,
,security,0.8243640661239624,,,,,,,,
,correspondence,0.8188208341598511,,,,,,,,
,page,0.8084126710891724,,,,,,,,
,text,0.8073199987411499,,,,,,,,
https://scontent.cdninstagram.com/t51.2885-15/e35/12751511_962326057195963_1997716156_n.jpg,city,0.9890236854553223,Environment,,,,"Manmade beauty",,,
,street,0.9864848852157593,,,,,,,,
,business,0.985044002532959,,,,,,,,
,road,0.9777276515960693,,,,,,,,
,architecture,0.976344883441925,,,,,,,,
,building,0.9757270812988281,,,,,,,,
,travel,0.9706180095672607,,,,,,,,
,car,0.9636209011077881,,,,,,,,
,downtown,0.9571336507797241,,,,,,,,
,"no person",0.9565733671188354,,,,,,,,
,skyscraper,0.9520969390869141,,,,,,,,
,urban,0.9508285522460938,,,,,,,,
,hotel,0.9239005446434021,,,,,,,,
,office,0.9210480451583862,,,,,,,,
,"transportation system",0.9141274094581604,,,,,,,,
,traffic,0.9102115035057068,,,,,,,,
,outdoors,0.900524914264679,,,,,,,,
,cityscape,0.8961989283561707,,,,,,,,
,vehicle,0.8947194218635559,,,,,,,,
,daylight,0.8859842419624329,,,,,,,,
https://scontent.cdninstagram.com/t51.2885-15/e35/13385865_1116762568383489_1590140762_n.jpg,street,0.9917298555374146,"My life",,,,"My world today",,,
,rain,0.990616500377655,,,,,,,,
,window,0.9813697338104248,,,,,,,,
,car,0.9782021045684814,,,,,,,,
,"no person",0.9630348682403564,,,,,,,,
,vehicle,0.9549463987350464,,,,,,,,
,urban,0.9460418224334717,,,,,,,,
,city,0.9445255994796753,,,,,,,,
,"transportation system",0.9346783757209778,,,,,,,,
,light,0.931984543800354,,,,,,,,
,landscape,0.9107686281204224,,,,,,,,
,road,0.9085826873779297,,,,,,,,
,abstract,0.8983734250068665,,,,,,,,
,travel,0.8912146091461182,,,,,,,,
,airplane,0.8842251300811768,,,,,,,,
,art,0.8798925876617432,,,,,,,,
,graffiti,0.8755610585212708,,,,,,,,
,window,0.8676086664199829,,,,,,,,
,water,0.8657079935073853,,,,,,,,
,abandoned,0.865561842918396,,,,,,,,
https://scontent.cdninstagram.com/t51.2885-15/e35/12328197_944148009033035_1147814470_n.jpg,food,0.9925034046173096,Food,,,,"Meal time",,,
,dinner,0.977208137512207,,,,,,,,
,meal,0.9638071060180664,,,,,,,,
,meat,0.9622851014137268,,,,,,,,
,lunch,0.9613310098648071,,,,,,,,
,"no person",0.9493844509124756,,,,,,,,
,rice,0.9483357667922974,,,,,,,,
,dish,0.9482129812240601,,,,,,,,
,delicious,0.9341566562652588,,,,,,,,
,plate,0.9329264163970947,,,,,,,,
,chicken,0.9326597452163696,,,,,,,,
,cooking,0.9217838644981384,,,,,,,,
,healthy,0.9201773405075073,,,,,,,,
,hot,0.9195350408554077,,,,,,,,
,cuisine,0.9165267944335938,,,,,,,,
,vegetable,0.9128100275993347,,,,,,,,
,pork,0.905446469783783,,,,,,,,
,beef,0.904776930809021,,,,,,,,
,traditional,0.8745031952857971,,,,,,,,
,tasty,0.8595433831214905,,,,,,,,
https://scontent.cdninstagram.com/t51.2885-15/e35/13385865_1116762568383489_1590140762_n.jpg,street,0.9917298555374146,"My life",,,,"My world today",,,
,rain,0.990616500377655,,,,,,,,
,window,0.9813697338104248,,,,,,,,
,car,0.9782021045684814,,,,,,,,
,"no person",0.9630348682403564,,,,,,,,
,vehicle,0.9549463987350464,,,,,,,,
,urban,0.9460418224334717,,,,,,,,
,city,0.9445255994796753,,,,,,,,
,"transportation system",0.9346783757209778,,,,,,,,
,light,0.931984543800354,,,,,,,,
,landscape,0.9107686281204224,,,,,,,,
,road,0.9085826873779297,,,,,,,,
,abstract,0.8983734250068665,,,,,,,,
,travel,0.8912146091461182,,,,,,,,
,airplane,0.8842251300811768,,,,,,,,
,art,0.8798925876617432,,,,,,,,
,graffiti,0.8755610585212708,,,,,,,,
,window,0.8676086664199829,,,,,,,,
,water,0.8657079935073853,,,,,,,,
,abandoned,0.865561842918396,,,,,,,,
https://scontent.cdninstagram.com/l/t51.2885-15/e15/12747763_230104800666026_247609012_n.jpg,music,0.9832732677459717,Entertainment,,,,Events,,,
,performance,0.9686338901519775,,,,,,,,
,concert,0.9658583998680115,,,,,,,,
,light,0.9649641513824463,,,,,,,,
,festival,0.9636805057525635,,,,,,,,
,Christmas,0.959551990032196,,,,,,,,
,flame,0.9450249671936035,,,,,,,,
,stage,0.9386637210845947,,,,,,,,
,fireworks,0.9370220899581909,,,,,,,,
,"no person",0.9312536120414734,,,,,,,,
,energy,0.91506028175354,,,,,,,,
,smoke,0.8862894773483276,,,,,,,,
,musician,0.8747615814208984,,,,,,,,
,evening,0.8596710562705994,,,,,,,,
,celebration,0.8528696298599243,,,,,,,,
,blur,0.8527814149856567,,,,,,,,
,sky,0.847697377204895,,,,,,,,
,dark,0.8449568748474121,,,,,,,,
,illuminated,0.8399403095245361,,,,,,,,
,party,0.8244630098342896,,,,,,,,
https://scontent.cdninstagram.com/t51.2885-15/e35/12328197_944148009033035_1147814470_n.jpg,food,0.9925034046173096,Food,,,,"Meal time",,,
,dinner,0.977208137512207,,,,,,,,
,meal,0.9638071060180664,,,,,,,,
,meat,0.9622851014137268,,,,,,,,
,lunch,0.9613310098648071,,,,,,,,
,"no person",0.9493844509124756,,,,,,,,
,rice,0.9483357667922974,,,,,,,,
,dish,0.9482129812240601,,,,,,,,
,delicious,0.9341566562652588,,,,,,,,
,plate,0.9329264163970947,,,,,,,,
,chicken,0.9326597452163696,,,,,,,,
,cooking,0.9217838644981384,,,,,,,,
,healthy,0.9201773405075073,,,,,,,,
,hot,0.9195350408554077,,,,,,,,
,cuisine,0.9165267944335938,,,,,,,,
,vegetable,0.9128100275993347,,,,,,,,
,pork,0.905446469783783,,,,,,,,
,beef,0.904776930809021,,,,,,,,
,traditional,0.8745031952857971,,,,,,,,
,tasty,0.8595433831214905,,,,,,,,
https://scontent.cdninstagram.com/t51.2885-15/e15/12729504_1712633512292105_1396018782_n.jpg,many,0.9949510097503662,Arts,,,,Arts-s,,,
,people,0.9902439117431641,,,,,,,,
,crowd,0.9849206805229187,,,,,,,,
,group,0.9625511765480042,,,,,,,,
,adult,0.916311502456665,,,,,,,,
,business,0.9136534333229065,,,,,,,,
,industry,0.8917191028594971,,,,,,,,
,indoors,0.8746697902679443,,,,,,,,
,man,0.8671936988830566,,,,,,,,
,group,0.8617011904716492,,,,,,,,
,commerce,0.852393388748169,,,,,,,,
,conformity,0.8461395502090454,,,,,,,,
,city,0.8433429598808289,,,,,,,,
,travel,0.8196841478347778,,,,,,,,
,woman,0.819367527961731,,,,,,,,
,ceremony,0.7993111610412598,,,,,,,,
,military,0.7898362874984741,,,,,,,,
,war,0.7886663675308228,,,,,,,,
,stock,0.788126528263092,,,,,,,,
,religion,0.7743144035339355,,,,,,,,
https://scontent.cdninstagram.com/t51.2885-15/e15/12729504_1712633512292105_1396018782_n.jpg,many,0.9949510097503662,Arts,,,,Arts-s,,,
,people,0.9902439117431641,,,,,,,,
,crowd,0.9849206805229187,,,,,,,,
,group,0.9625511765480042,,,,,,,,
,adult,0.916311502456665,,,,,,,,
,business,0.9136534333229065,,,,,,,,
,industry,0.8917191028594971,,,,,,,,
,indoors,0.8746697902679443,,,,,,,,
,man,0.8671936988830566,,,,,,,,
,group,0.8617011904716492,,,,,,,,
,commerce,0.852393388748169,,,,,,,,
,conformity,0.8461395502090454,,,,,,,,
,city,0.8433429598808289,,,,,,,,
,travel,0.8196841478347778,,,,,,,,
,woman,0.819367527961731,,,,,,,,
,ceremony,0.7993111610412598,,,,,,,,
,military,0.7898362874984741,,,,,,,,
,war,0.7886663675308228,,,,,,,,
,stock,0.788126528263092,,,,,,,,
,religion,0.7743144035339355,,,,,,,,
https://scontent.cdninstagram.com/t51.2885-15/e35/12531106_170826876629797_1400983762_n.jpg,sky,0.9850689172744751,"My life",Environment,,,"My world today","Natural beauty",,
,outdoors,0.9630570411682129,,,,,,,,
,weather,0.9574885964393616,,,,,,,,
,"no person",0.9535843729972839,,,,,,,,
,nature,0.953515887260437,,,,,,,,
,bright,0.9508007764816284,,,,,,,,
,summer,0.9478068351745605,,,,,,,,
,landscape,0.9472372531890869,,,,,,,,
,color,0.946587860584259,,,,,,,,
,space,0.9379045963287354,,,,,,,,
,air,0.9376556873321533,,,,,,,,
,light,0.9354578256607056,,,,,,,,
,cloud,0.912995457649231,,,,,,,,
,"fair weather",0.9118303656578064,,,,,,,,
,sun,0.9000705480575562,,,,,,,,
,desktop,0.8977241516113281,,,,,,,,
,freedom,0.8885822296142578,,,,,,,,
,high,0.8846175074577332,,,,,,,,
,Heaven,0.8830443620681763,,,,,,,,
,daylight,0.8746259808540344,,,,,,,,
https://scontent.cdninstagram.com/t51.2885-15/e35/12816885_1695553927350641_1900313728_n.jpg,business,0.9776833057403564,Food,,,,"Drinks and snack",,,
,people,0.9723750948905945,,,,,,,,
,adult,0.9478488564491272,,,,,,,,
,woman,0.9464212656021118,,,,,,,,
,hand,0.9446461200714111,,,,,,,,
,preparation,0.924975574016571,,,,,,,,
,man,0.9124192595481873,,,,,,,,
,girl,0.8939015865325928,,,,,,,,
,work,0.8883306384086609,,,,,,,,
,one,0.8764911890029907,,,,,,,,
,family,0.8611545562744141,,,,,,,,
,industry,0.8349485397338867,,,,,,,,
,indoors,0.822628915309906,,,,,,,,
,work,0.8034887313842773,,,,,,,,
,money,0.803030252456665,,,,,,,,
,paper,0.7971571683883667,,,,,,,,
,chef,0.7935242652893066,,,,,,,,
,equipment,0.7873915433883667,,,,,,,,
,wear,0.7720568180084229,,,,,,,,
,food,0.7718382477760315,,,,,,,,
https://scontent.cdninstagram.com/t51.2885-15/e35/12751159_513439225493764_1939750057_n.jpg,food,0.9834772348403931,Food,,,,"Meal time",,,
,knife,0.9707874059677124,,,,,,,,
,"no person",0.9670398235321045,,,,,,,,
,fork,0.9459567070007324,,,,,,,,
,cutlery,0.9072644710540771,,,,,,,,
,table,0.90470290184021,,,,,,,,
,"still life",0.90424644947052,,,,,,,,
,plate,0.8962992429733276,,,,,,,,
,meal,0.8926066160202026,,,,,,,,
,restaurant,0.8906026482582092,,,,,,,,
,dinner,0.8842247724533081,,,,,,,,
,spoon,0.8825488090515137,,,,,,,,
,tableware,0.8736615777015686,,,,,,,,
,dish,0.8644058704376221,,,,,,,,
,breakfast,0.8542157411575317,,,,,,,,
,lunch,0.8335920572280884,,,,,,,,
,drink,0.8328811526298523,,,,,,,,
,delicious,0.8284038305282593,,,,,,,,
,desktop,0.8184404969215393,,,,,,,,
,cooking,0.8135163187980652,,,,,,,,
https://scontent.cdninstagram.com/t51.2885-15/e35/12568203_1690772697848176_1448533747_n.jpg,people,0.9590985774993896,Animals,,,,Animals-s,,,
,industry,0.9513320922851562,,,,,,,,
,production,0.9388890266418457,,,,,,,,
,"no person",0.9357296228408813,,,,,,,,
,food,0.9227169752120972,,,,,,,,
,light,0.9140447378158569,,,,,,,,
,building,0.9015054702758789,,,,,,,,
,indoors,0.8845471143722534,,,,,,,,
,grinder,0.8797658085823059,,,,,,,,
,room,0.8750592470169067,,,,,,,,
,mammal,0.846673846244812,,,,,,,,
,agriculture,0.8310990333557129,,,,,,,,
,"transportation system",0.8219447731971741,,,,,,,,
,house,0.8130245804786682,,,,,,,,
,one,0.8119074106216431,,,,,,,,
,daylight,0.8026840686798096,,,,,,,,
,street,0.8017886281013489,,,,,,,,
,architecture,0.7979198694229126,,,,,,,,
,road,0.788112223148346,,,,,,,,
,farm,0.7819175124168396,,,,,,,,
https://scontent.cdninstagram.com/t51.2885-15/e35/12751159_513439225493764_1939750057_n.jpg,food,0.9834772348403931,Food,,,,"Meal time",,,
,knife,0.9707874059677124,,,,,,,,
,"no person",0.9670398235321045,,,,,,,,
,fork,0.9459567070007324,,,,,,,,
,cutlery,0.9072644710540771,,,,,,,,
,table,0.90470290184021,,,,,,,,
,"still life",0.90424644947052,,,,,,,,
,plate,0.8962992429733276,,,,,,,,
,meal,0.8926066160202026,,,,,,,,
,restaurant,0.8906026482582092,,,,,,,,
,dinner,0.8842247724533081,,,,,,,,
,spoon,0.8825488090515137,,,,,,,,
,tableware,0.8736615777015686,,,,,,,,
,dish,0.8644058704376221,,,,,,,,
,breakfast,0.8542157411575317,,,,,,,,
,lunch,0.8335920572280884,,,,,,,,
,drink,0.8328811526298523,,,,,,,,
,delicious,0.8284038305282593,,,,,,,,
,desktop,0.8184404969215393,,,,,,,,
,cooking,0.8135163187980652,,,,,,,,
https://scontent.cdninstagram.com/t51.2885-15/e35/12568203_1690772697848176_1448533747_n.jpg,people,0.9590985774993896,Animals,,,,Animals-s,,,
,industry,0.9513320922851562,,,,,,,,
,production,0.9388890266418457,,,,,,,,
,"no person",0.9357296228408813,,,,,,,,
,food,0.9227169752120972,,,,,,,,
,light,0.9140447378158569,,,,,,,,
,building,0.9015054702758789,,,,,,,,
,indoors,0.8845471143722534,,,,,,,,
,grinder,0.8797658085823059,,,,,,,,
,room,0.8750592470169067,,,,,,,,
,mammal,0.846673846244812,,,,,,,,
,agriculture,0.8310990333557129,,,,,,,,
,"transportation system",0.8219447731971741,,,,,,,,
,house,0.8130245804786682,,,,,,,,
,one,0.8119074106216431,,,,,,,,
,daylight,0.8026840686798096,,,,,,,,
,street,0.8017886281013489,,,,,,,,
,architecture,0.7979198694229126,,,,,,,,
,road,0.788112223148346,,,,,,,,
,farm,0.7819175124168396,,,,,,,,
https://scontent.cdninstagram.com/t51.2885-15/s750x750/sh0.08/e35/12547747_584124995085785_482835205_n.jpg,woman,0.9937843680381775,Food,"Fashion & Beauty",,,"Drinks and snack","My look",,
,portrait,0.9680100679397583,,,,,,,,
,people,0.9587383270263672,,,,,,,,
,girl,0.9553070664405823,,,,,,,,
,family,0.9406367540359497,,,,,,,,
,indoors,0.905872106552124,,,,,,,,
,fashion,0.8987588286399841,,,,,,,,
,pretty,0.8968744277954102,,,,,,,,
,one,0.8964488506317139,,,,,,,,
,adult,0.8954839110374451,,,,,,,,
,coffee,0.8945656418800354,,,,,,,,
,relaxation,0.8595635890960693,,,,,,,,
,tea,0.8554819822311401,,,,,,,,
,model,0.8411439657211304,,,,,,,,
,cute,0.8275407552719116,,,,,,,,
,young,0.8163391351699829,,,,,,,,
,brunette,0.8152868747711182,,,,,,,,
,Christmas,0.7934149503707886,,,,,,,,
,sit,0.7851142883300781,,,,,,,,
,winter,0.781674861907959,,,,,,,,
https://scontent.cdninstagram.com/t51.2885-15/s750x750/sh0.08/e35/12749992_1073095692743169_131995140_n.jpg,restaurant,0.9910147786140442,Relationships,Food,,,"Best friends","Meal time",,
,woman,0.9893446564674377,,,,,,,,
,people,0.9770251512527466,,,,,,,,
,adult,0.9720263481140137,,,,,,,,
,enjoyment,0.9640319347381592,,,,,,,,
,friendship,0.9547066688537598,,,,,,,,
,"facial expression",0.9540497064590454,,,,,,,,
,table,0.9499059319496155,,,,,,,,
,togetherness,0.9488178491592407,,,,,,,,
,two,0.9454419612884521,,,,,,,,
,meal,0.9385466575622559,,,,,,,,
,indoors,0.9358072280883789,,,,,,,,
,happiness,0.935057520866394,,,,,,,,
,man,0.9330737590789795,,,,,,,,
,drink,0.9320887923240662,,,,,,,,
,coffee,0.928267240524292,,,,,,,,
,dining,0.9257888793945312,,,,,,,,
,portrait,0.8963069915771484,,,,,,,,
,lunch,0.888857364654541,,,,,,,,
,family,0.8839606046676636,,,,,,,,
https://scontent.cdninstagram.com/t51.2885-15/e35/12558437_1554456031513261_26420941_n.jpg,food,0.9873656034469604,Food,,,,"Drinks and snack",,,
,fruit,0.9752724766731262,,,,,,,,
,cold,0.9734618067741394,,,,,,,,
,ice,0.9689734578132629,,,,,,,,
,sweet,0.959109902381897,,,,,,,,
,"dairy product",0.9515069127082825,,,,,,,,
,delicious,0.9506217241287231,,,,,,,,
,drink,0.9483650922775269,,,,,,,,
,"no person",0.9369797706604004,,,,,,,,
,juice,0.9253818988800049,,,,,,,,
,summer,0.9250026941299438,,,,,,,,
,cocktail,0.9192409515380859,,,,,,,,
,cream,0.9176663160324097,,,,,,,,
,sugar,0.9139330387115479,,,,,,,,
,milk,0.8948870301246643,,,,,,,,
,grow,0.892117977142334,,,,,,,,
,restaurant,0.8790038824081421,,,,,,,,
,refreshment,0.8789113759994507,,,,,,,,
,glass,0.8728771209716797,,,,,,,,
,indoors,0.8546510934829712,,,,,,,,
https://scontent.cdninstagram.com/t51.2885-15/s750x750/sh0.08/e35/12749992_1073095692743169_131995140_n.jpg,restaurant,0.9910147786140442,Relationships,Food,,,"Best friends","Meal time",,
,woman,0.9893446564674377,,,,,,,,
,people,0.9770251512527466,,,,,,,,
,adult,0.9720263481140137,,,,,,,,
,enjoyment,0.9640319347381592,,,,,,,,
,friendship,0.9547066688537598,,,,,,,,
,"facial expression",0.9540497064590454,,,,,,,,
,table,0.9499059319496155,,,,,,,,
,togetherness,0.9488178491592407,,,,,,,,
,two,0.9454419612884521,,,,,,,,
,meal,0.9385466575622559,,,,,,,,
,indoors,0.9358072280883789,,,,,,,,
,happiness,0.935057520866394,,,,,,,,
,man,0.9330737590789795,,,,,,,,
,drink,0.9320887923240662,,,,,,,,
,coffee,0.928267240524292,,,,,,,,
,dining,0.9257888793945312,,,,,,,,
,portrait,0.8963069915771484,,,,,,,,
,lunch,0.888857364654541,,,,,,,,
,family,0.8839606046676636,,,,,,,,
https://scontent.cdninstagram.com/t51.2885-15/e35/12816885_1695553927350641_1900313728_n.jpg,business,0.9776833057403564,Food,,,,"Drinks and snack",,,
,people,0.9723750948905945,,,,,,,,
,adult,0.9478488564491272,,,,,,,,
,woman,0.9464212656021118,,,,,,,,
,hand,0.9446461200714111,,,,,,,,
,preparation,0.924975574016571,,,,,,,,
,man,0.9124192595481873,,,,,,,,
,girl,0.8939015865325928,,,,,,,,
,work,0.8883306384086609,,,,,,,,
,one,0.8764911890029907,,,,,,,,
,family,0.8611545562744141,,,,,,,,
,industry,0.8349485397338867,,,,,,,,
,indoors,0.822628915309906,,,,,,,,
,work,0.8034887313842773,,,,,,,,
,money,0.803030252456665,,,,,,,,
,paper,0.7971571683883667,,,,,,,,
,chef,0.7935242652893066,,,,,,,,
,equipment,0.7873915433883667,,,,,,,,
,wear,0.7720568180084229,,,,,,,,
,food,0.7718382477760315,,,,,,,,
https://scontent.cdninstagram.com/t51.2885-15/e35/12362637_132761327097449_979512588_n.jpg,cat,0.9932795763015747,Animals,,,,Animals-s,,,
,people,0.981004536151886,,,,,,,,
,woman,0.9751681685447693,,,,,,,,
,kitten,0.9715676307678223,,,,,,,,
,young,0.9617046117782593,,,,,,,,
,music,0.9556905031204224,,,,,,,,
,piano,0.955337405204773,,,,,,,,
,pet,0.9523886442184448,,,,,,,,
,harmony,0.9506298303604126,,,,,,,,
,one,0.9500911235809326,,,,,,,,
,cute,0.9498554468154907,,,,,,,,
,portrait,0.9384317398071289,,,,,,,,
,girl,0.9318704605102539,,,,,,,,
,hand,0.9309594631195068,,,,,,,,
,adult,0.9290525913238525,,,,,,,,
,play,0.9262639284133911,,,,,,,,
,relaxation,0.925911545753479,,,,,,,,
,fur,0.925895094871521,,,,,,,,
,step,0.9194321036338806,,,,,,,,
,pretty,0.9100011587142944,,,,,,,,
https://scontent.cdninstagram.com/t51.2885-15/e35/12751511_962326057195963_1997716156_n.jpg,city,0.9890236854553223,Environment,,,,"Manmade beauty",,,
,street,0.9864848852157593,,,,,,,,
,business,0.985044002532959,,,,,,,,
,road,0.9777276515960693,,,,,,,,
,architecture,0.976344883441925,,,,,,,,
,building,0.9757270812988281,,,,,,,,
,travel,0.9706180095672607,,,,,,,,
,car,0.9636209011077881,,,,,,,,
,downtown,0.9571336507797241,,,,,,,,
,"no person",0.9565733671188354,,,,,,,,
,skyscraper,0.9520969390869141,,,,,,,,
,urban,0.9508285522460938,,,,,,,,
,hotel,0.9239005446434021,,,,,,,,
,office,0.9210480451583862,,,,,,,,
,"transportation system",0.9141274094581604,,,,,,,,
,traffic,0.9102115035057068,,,,,,,,
,outdoors,0.900524914264679,,,,,,,,
,cityscape,0.8961989283561707,,,,,,,,
,vehicle,0.8947194218635559,,,,,,,,
,daylight,0.8859842419624329,,,,,,,,
https://scontent.cdninstagram.com/t51.2885-15/e35/12446022_992011864202185_1229762838_n.jpg,"no person",0.9847568273544312,Animals,,,,Animals-s,,,
,snow,0.9738057851791382,,,,,,,,
,winter,0.968726634979248,,,,,,,,
,one,0.941167950630188,,,,,,,,
,outdoors,0.9395278692245483,,,,,,,,
,street,0.9377045631408691,,,,,,,,
,two,0.9346953630447388,,,,,,,,
,mammal,0.9330111145973206,,,,,,,,
,daylight,0.9264209270477295,,,,,,,,
,people,0.9167633056640625,,,,,,,,
,cold,0.9141412973403931,,,,,,,,
,travel,0.9024896621704102,,,,,,,,
,road,0.8908265829086304,,,,,,,,
,danger,0.8650994896888733,,,,,,,,
,city,0.8385613560676575,,,,,,,,
,nature,0.8327486515045166,,,,,,,,
,family,0.8283790349960327,,,,,,,,
,dirty,0.8270965814590454,,,,,,,,
,action,0.8078738451004028,,,,,,,,
,cat,0.8075114488601685,,,,,,,,
https://scontent.cdninstagram.com/t51.2885-15/e35/12531106_170826876629797_1400983762_n.jpg,sky,0.9850689172744751,"My life",Environment,,,"My world today","Natural beauty",,
,outdoors,0.9630570411682129,,,,,,,,
,weather,0.9574885964393616,,,,,,,,
,"no person",0.9535843729972839,,,,,,,,
,nature,0.953515887260437,,,,,,,,
,bright,0.9508007764816284,,,,,,,,
,summer,0.9478068351745605,,,,,,,,
,landscape,0.9472372531890869,,,,,,,,
,color,0.946587860584259,,,,,,,,
,space,0.9379045963287354,,,,,,,,
,air,0.9376556873321533,,,,,,,,
,light,0.9354578256607056,,,,,,,,
,cloud,0.912995457649231,,,,,,,,
,"fair weather",0.9118303656578064,,,,,,,,
,sun,0.9000705480575562,,,,,,,,
,desktop,0.8977241516113281,,,,,,,,
,freedom,0.8885822296142578,,,,,,,,
,high,0.8846175074577332,,,,,,,,
,Heaven,0.8830443620681763,,,,,,,,
,daylight,0.8746259808540344,,,,,,,,
https://scontent.cdninstagram.com/t51.2885-15/e35/10598374_1537530093234153_950613245_n.jpg,food,0.9970579147338867,Food,,,,"Meal time",,,
,"still life",0.9940099120140076,,,,,,,,
,fruit,0.9915835857391357,,,,,,,,
,sweet,0.9902100563049316,,,,,,,,
,"no person",0.9901295900344849,,,,,,,,
,plate,0.987980842590332,,,,,,,,
,"dairy product",0.9842183589935303,,,,,,,,
,berry,0.9840061664581299,,,,,,,,
,grow,0.9833354949951172,,,,,,,,
,strawberry,0.9737371206283569,,,,,,,,
,dish,0.9360221028327942,,,,,,,,
,sugar,0.935442328453064,,,,,,,,
,slice,0.9311476945877075,,,,,,,,
,tableware,0.9086958169937134,,,,,,,,
,fish,0.9051856994628906,,,,,,,,
,cutout,0.9030592441558838,,,,,,,,
,refreshment,0.8883424401283264,,,,,,,,
,confection,0.8880035877227783,,,,,,,,
,meal,0.8856416344642639,,,,,,,,
,delicious,0.87738037109375,,,,,,,,
https://scontent.cdninstagram.com/t51.2885-15/e35/12393775_691396470963754_1693503038_n.jpg,food,0.9942817687988281,Food,,,,"Meal time",,,
,"no person",0.9915733337402344,,,,,,,,
,grow,0.9829614758491516,,,,,,,,
,dinner,0.9828885793685913,,,,,,,,
,rice,0.9762706756591797,,,,,,,,
,lunch,0.9657071828842163,,,,,,,,
,delicious,0.954265832901001,,,,,,,,
,cooking,0.9378918409347534,,,,,,,,
,meal,0.9358080625534058,,,,,,,,
,meat,0.9354681968688965,,,,,,,,
,pork,0.9265854358673096,,,,,,,,
,vegetable,0.926426887512207,,,,,,,,
,dish,0.9045044183731079,,,,,,,,
,beef,0.8929535150527954,,,,,,,,
,traditional,0.8927099704742432,,,,,,,,
,nutrition,0.8825040459632874,,,,,,,,
,mushroom,0.8798352479934692,,,,,,,,
,plate,0.8713521361351013,,,,,,,,
,cuisine,0.8427733182907104,,,,,,,,
,restaurant,0.8395925760269165,,,,,,,,
https://scontent.cdninstagram.com/t51.2885-15/s750x750/sh0.08/e35/12331940_1492104921099188_1515548068_n.jpg,woman,0.997187614440918,Relationships,Food,,,"Best friends","Meal time",,
,adult,0.9915872812271118,,,,,,,,
,people,0.9844414591789246,,,,,,,,
,indoors,0.9805083274841309,,,,,,,,
,happiness,0.959746241569519,,,,,,,,
,enjoyment,0.9515672326087952,,,,,,,,
,man,0.9512253999710083,,,,,,,,
,two,0.9482131600379944,,,,,,,,
,"facial expression",0.9454284906387329,,,,,,,,
,family,0.9320845603942871,,,,,,,,
,togetherness,0.9293698668479919,,,,,,,,
,table,0.9218688011169434,,,,,,,,
,group,0.9124408960342407,,,,,,,,
,wear,0.9011251926422119,,,,,,,,
,room,0.8977497816085815,,,,,,,,
,portrait,0.8944448828697205,,,,,,,,
,lifestyle,0.8805334568023682,,,,,,,,
,sit,0.8769386410713196,,,,,,,,
,three,0.8718448281288147,,,,,,,,
,looking,0.8567875027656555,,,,,,,,
https://scontent.cdninstagram.com/t51.2885-15/e35/12558437_1554456031513261_26420941_n.jpg,food,0.9873656034469604,Food,,,,"Drinks and snack",,,
,fruit,0.9752724766731262,,,,,,,,
,cold,0.9734618067741394,,,,,,,,
,ice,0.9689734578132629,,,,,,,,
,sweet,0.959109902381897,,,,,,,,
,"dairy product",0.9515069127082825,,,,,,,,
,delicious,0.9506217241287231,,,,,,,,
,drink,0.9483650922775269,,,,,,,,
,"no person",0.9369797706604004,,,,,,,,
,juice,0.9253818988800049,,,,,,,,
,summer,0.9250026941299438,,,,,,,,
,cocktail,0.9192409515380859,,,,,,,,
,cream,0.9176663160324097,,,,,,,,
,sugar,0.9139330387115479,,,,,,,,
,milk,0.8948870301246643,,,,,,,,
,grow,0.892117977142334,,,,,,,,
,restaurant,0.8790038824081421,,,,,,,,
,refreshment,0.8789113759994507,,,,,,,,
,glass,0.8728771209716797,,,,,,,,
,indoors,0.8546510934829712,,,,,,,,
https://scontent.cdninstagram.com/t51.2885-15/s750x750/sh0.08/e35/12547747_584124995085785_482835205_n.jpg,woman,0.9937843680381775,Food,"Fashion & Beauty",,,"Drinks and snack","My look",,
,portrait,0.9680100679397583,,,,,,,,
,people,0.9587383270263672,,,,,,,,
,girl,0.9553070664405823,,,,,,,,
,family,0.9406367540359497,,,,,,,,
,indoors,0.905872106552124,,,,,,,,
,fashion,0.8987588286399841,,,,,,,,
,pretty,0.8968744277954102,,,,,,,,
,one,0.8964488506317139,,,,,,,,
,adult,0.8954839110374451,,,,,,,,
,coffee,0.8945656418800354,,,,,,,,
,relaxation,0.8595635890960693,,,,,,,,
,tea,0.8554819822311401,,,,,,,,
,model,0.8411439657211304,,,,,,,,
,cute,0.8275407552719116,,,,,,,,
,young,0.8163391351699829,,,,,,,,
,brunette,0.8152868747711182,,,,,,,,
,Christmas,0.7934149503707886,,,,,,,,
,sit,0.7851142883300781,,,,,,,,
,winter,0.781674861907959,,,,,,,,
https://scontent.cdninstagram.com/t51.2885-15/e35/12132697_497454767097910_1330500712_n.jpg,food,0.9882220029830933,Food,Entertainment,,,"Meal time",Entertainment-s,,
,coffee,0.9869019985198975,,,,,,,,
,indoors,0.9618031978607178,,,,,,,,
,people,0.9607365131378174,,,,,,,,
,drink,0.9491437673568726,,,,,,,,
,competition,0.9482157230377197,,,,,,,,
,cup,0.945799708366394,,,,,,,,
,festival,0.9440346360206604,,,,,,,,
,table,0.9417966604232788,,,,,,,,
,"no person",0.9357496500015259,,,,,,,,
,restaurant,0.9338805675506592,,,,,,,,
,business,0.9019836187362671,,,,,,,,
,landscape,0.8819856643676758,,,,,,,,
,technology,0.8810980916023254,,,,,,,,
,exhibition,0.8803219795227051,,,,,,,,
,family,0.8761667013168335,,,,,,,,
,hotel,0.8655515313148499,,,,,,,,
,energy,0.865493893623352,,,,,,,,
,bar,0.8515472412109375,,,,,,,,
,room,0.8379656076431274,,,,,,,,
https://scontent.cdninstagram.com/t51.2885-15/e35/12317618_1657994517816662_1515706926_n.jpg,"no person",0.9952499866485596,Environment,,,,"Manmade beauty",,,
,bridge,0.993104875087738,,,,,,,,
,road,0.9920678734779358,,,,,,,,
,"transportation system",0.9908484816551208,,,,,,,,
,architecture,0.9759372472763062,,,,,,,,
,travel,0.9730367660522461,,,,,,,,
,sky,0.9668150544166565,,,,,,,,
,highway,0.9604508280754089,,,,,,,,
,light,0.9574357271194458,,,,,,,,
,traffic,0.9544789791107178,,,,,,,,
,guidance,0.9527205228805542,,,,,,,,
,vehicle,0.9522414803504944,,,,,,,,
,street,0.9486362934112549,,,,,,,,
,flyover,0.9378665685653687,,,,,,,,
,outdoors,0.9362796545028687,,,,,,,,
,long,0.929456353187561,,,,,,,,
,building,0.9208066463470459,,,,,,,,
,city,0.9097490310668945,,,,,,,,
,expressway,0.9083946347236633,,,,,,,,
,empty,0.9002376794815063,,,,,,,,
https://scontent.cdninstagram.com/t51.2885-15/e35/12362199_158719407824557_605106797_n.jpg,food,0.9739420413970947,Food,,,,"Meal time",,,
,"no person",0.9680227637290955,,,,,,,,
,cooking,0.9585949182510376,,,,,,,,
,pan,0.9506331086158752,,,,,,,,
,traditional,0.9199157357215881,,,,,,,,
,steel,0.909688413143158,,,,,,,,
,knife,0.904749870300293,,,,,,,,
,desktop,0.8602619171142578,,,,,,,,
,dinner,0.847385585308075,,,,,,,,
,hot,0.8450443148612976,,,,,,,,
,wood,0.8365563154220581,,,,,,,,
,lid,0.8329946994781494,,,,,,,,
,preparation,0.8041664361953735,,,,,,,,
,health,0.7857170104980469,,,,,,,,
,equipment,0.7762908935546875,,,,,,,,
,chef,0.7750179767608643,,,,,,,,
,delicious,0.7713286280632019,,,,,,,,
,instrument,0.7514758110046387,,,,,,,,
,meal,0.748698353767395,,,,,,,,
,restaurant,0.7434529662132263,,,,,,,,
https://scontent.cdninstagram.com/t51.2885-15/e35/1173006_419335251588795_1648832944_n.jpg,sunset,0.9921308755874634,Travel,"My life",Environment,,Travel-s,"My world today","Natural beauty",
,light,0.9887482523918152,,,,,,,,
,sun,0.9832889437675476,,,,,,,,
,vehicle,0.9813374876976013,,,,,,,,
,landscape,0.9795124530792236,,,,,,,,
,dawn,0.978177011013031,,,,,,,,
,"no person",0.977931022644043,,,,,,,,
,travel,0.9775638580322266,,,,,,,,
,evening,0.9750317335128784,,,,,,,,
,dusk,0.9703410267829895,,,,,,,,
,"transportation system",0.9665783643722534,,,,,,,,
,moon,0.9550086259841919,,,,,,,,
,sky,0.9522141814231873,,,,,,,,
,water,0.9400330781936646,,,,,,,,
,blur,0.9385813474655151,,,,,,,,
,airplane,0.9378011226654053,,,,,,,,
,car,0.9354616403579712,,,,,,,,
,beach,0.9177974462509155,,,,,,,,
,street,0.9067379832267761,,,,,,,,
,outdoors,0.8998578190803528,,,,,,,,
https://scontent.cdninstagram.com/t51.2885-15/s750x750/sh0.08/e35/12071115_1624780487770544_887422721_n.jpg,sky,0.994059681892395,Relationships,,,,"Best friends",,,
,summer,0.9865660667419434,,,,,,,,
,woman,0.9846469163894653,,,,,,,,
,girl,0.9832237958908081,,,,,,,,
,sun,0.9797561168670654,,,,,,,,
,travel,0.9794524908065796,,,,,,,,
,outdoors,0.9737929105758667,,,,,,,,
,"fair weather",0.9707231521606445,,,,,,,,
,love,0.9702482223510742,,,,,,,,
,people,0.9627788066864014,,,,,,,,
,nature,0.957269549369812,,,,,,,,
,sunglasses,0.9567956924438477,,,,,,,,
,portrait,0.9555784463882446,,,,,,,,
,beach,0.9545910358428955,,,,,,,,
,water,0.9455444812774658,,,,,,,,
,vacation,0.939365565776825,,,,,,,,
,landscape,0.937280535697937,,,,,,,,
,sea,0.9185560941696167,,,,,,,,
,"blue sky",0.9046587944030762,,,,,,,,
,couple,0.8940629959106445,,,,,,,,
https://scontent.cdninstagram.com/t51.2885-15/e35/1173006_419335251588795_1648832944_n.jpg,sunset,0.9921308755874634,Travel,"My life",Environment,,Travel-s,"My world today","Natural beauty",
,light,0.9887482523918152,,,,,,,,
,sun,0.9832889437675476,,,,,,,,
,vehicle,0.9813374876976013,,,,,,,,
,landscape,0.9795124530792236,,,,,,,,
,dawn,0.978177011013031,,,,,,,,
,"no person",0.977931022644043,,,,,,,,
,travel,0.9775638580322266,,,,,,,,
,evening,0.9750317335128784,,,,,,,,
,dusk,0.9703410267829895,,,,,,,,
,"transportation system",0.9665783643722534,,,,,,,,
,moon,0.9550086259841919,,,,,,,,
,sky,0.9522141814231873,,,,,,,,
,water,0.9400330781936646,,,,,,,,
,blur,0.9385813474655151,,,,,,,,
,airplane,0.9378011226654053,,,,,,,,
,car,0.9354616403579712,,,,,,,,
,beach,0.9177974462509155,,,,,,,,
,street,0.9067379832267761,,,,,,,,
,outdoors,0.8998578190803528,,,,,,,,
https://scontent.cdninstagram.com/t51.2885-15/e35/12135286_508189336021368_956017596_n.jpg,"transportation system",0.9953910112380981,Environment,Travel,,,"Manmade beauty",Travel-s,,
,travel,0.9944016933441162,,,,,,,,
,seat,0.9937179088592529,,,,,,,,
,tube,0.9931279420852661,,,,,,,,
,airport,0.9925774335861206,,,,,,,,
,vehicle,0.9923688769340515,,,,,,,,
,airplane,0.991078794002533,,,,,,,,
,car,0.9901778101921082,,,,,,,,
,light,0.9874188899993896,,,,,,,,
,indoors,0.9873802661895752,,,,,,,,
,"no person",0.9723919630050659,,,,,,,,
,train,0.9684931039810181,,,,,,,,
,chair,0.9478349089622498,,,,,,,,
,city,0.9474314451217651,,,,,,,,
,architecture,0.945160448551178,,,,,,,,
,inside,0.9446119070053101,,,,,,,,
,empty,0.9413763284683228,,,,,,,,
,aircraft,0.9350030422210693,,,,,,,,
,railway,0.9340327978134155,,,,,,,,
,train,0.926144003868103,,,,,,,,
https://scontent.cdninstagram.com/t51.2885-15/e35/12120331_818055781647483_1635395760_n.jpg,text,0.990241527557373,"My life",,,,"Here I am",,,
,chalkboard,0.9898197650909424,,,,,,,,
,chalk,0.9856112003326416,,,,,,,,
,education,0.9717732667922974,,,,,,,,
,display,0.9714694619178772,,,,,,,,
,school,0.9714602828025818,,,,,,,,
,bill,0.9627171754837036,,,,,,,,
,sign,0.9451943635940552,,,,,,,,
,business,0.9421107769012451,,,,,,,,
,handwriting,0.9389572143554688,,,,,,,,
,"give voice",0.9346354007720947,,,,,,,,
,stock,0.9004143476486206,,,,,,,,
,desktop,0.8878698945045471,,,,,,,,
,writing,0.8797932267189026,,,,,,,,
,class,0.8796093463897705,,,,,,,,
,sign,0.8759941458702087,,,,,,,,
,classroom,0.8511884212493896,,,,,,,,
,teacher,0.8384537696838379,,,,,,,,
,lesson,0.836453914642334,,,,,,,,
,information,0.8362936973571777,,,,,,,,
https://scontent.cdninstagram.com/t51.2885-15/e35/12135286_508189336021368_956017596_n.jpg,"transportation system",0.9953910112380981,Environment,Travel,,,"Manmade beauty",Travel-s,,
,travel,0.9944016933441162,,,,,,,,
,seat,0.9937179088592529,,,,,,,,
,tube,0.9931279420852661,,,,,,,,
,airport,0.9925774335861206,,,,,,,,
,vehicle,0.9923688769340515,,,,,,,,
,airplane,0.991078794002533,,,,,,,,
,car,0.9901778101921082,,,,,,,,
,light,0.9874188899993896,,,,,,,,
,indoors,0.9873802661895752,,,,,,,,
,"no person",0.9723919630050659,,,,,,,,
,train,0.9684931039810181,,,,,,,,
,chair,0.9478349089622498,,,,,,,,
,city,0.9474314451217651,,,,,,,,
,architecture,0.945160448551178,,,,,,,,
,inside,0.9446119070053101,,,,,,,,
,empty,0.9413763284683228,,,,,,,,
,aircraft,0.9350030422210693,,,,,,,,
,railway,0.9340327978134155,,,,,,,,
,train,0.926144003868103,,,,,,,,
https://scontent.cdninstagram.com/t51.2885-15/e35/12446022_992011864202185_1229762838_n.jpg,"no person",0.9847568273544312,Animals,,,,Animals-s,,,
,snow,0.9738057851791382,,,,,,,,
,winter,0.968726634979248,,,,,,,,
,one,0.941167950630188,,,,,,,,
,outdoors,0.9395278692245483,,,,,,,,
,street,0.9377045631408691,,,,,,,,
,two,0.9346953630447388,,,,,,,,
,mammal,0.9330111145973206,,,,,,,,
,daylight,0.9264209270477295,,,,,,,,
,people,0.9167633056640625,,,,,,,,
,cold,0.9141412973403931,,,,,,,,
,travel,0.9024896621704102,,,,,,,,
,road,0.8908265829086304,,,,,,,,
,danger,0.8650994896888733,,,,,,,,
,city,0.8385613560676575,,,,,,,,
,nature,0.8327486515045166,,,,,,,,
,family,0.8283790349960327,,,,,,,,
,dirty,0.8270965814590454,,,,,,,,
,action,0.8078738451004028,,,,,,,,
,cat,0.8075114488601685,,,,,,,,
https://scontent.cdninstagram.com/t51.2885-15/e35/12353929_526924210810822_267923177_n.jpg,woman,0.9857113361358643,Relationships,,,,Friends,,,
,man,0.9667724370956421,,,,,,,,
,"facial expression",0.9651482105255127,,,,,,,,
,group,0.9561259746551514,,,,,,,,
,togetherness,0.9438962936401367,,,,,,,,
,recreation,0.937659502029419,,,,,,,,
,enjoyment,0.9328969120979309,,,,,,,,
,indoors,0.9280062317848206,,,,,,,,
,people,0.9270535111427307,,,,,,,,
,friendship,0.9254216551780701,,,,,,,,
,group,0.9245020151138306,,,,,,,,
,adult,0.9065896272659302,,,,,,,,
,laughing,0.8798396587371826,,,,,,,,
,student,0.8715116381645203,,,,,,,,
,portrait,0.8601534962654114,,,,,,,,
,four,0.8591251969337463,,,,,,,,
,adolescent,0.8483378291130066,,,,,,,,
,coffee,0.8456124067306519,,,,,,,,
,happiness,0.8222686648368835,,,,,,,,
,sitting,0.8162821531295776,,,,,,,,
https://scontent.cdninstagram.com/t51.2885-15/e35/10598374_1537530093234153_950613245_n.jpg,food,0.9970579147338867,Food,,,,"Meal time",,,
,"still life",0.9940099120140076,,,,,,,,
,fruit,0.9915835857391357,,,,,,,,
,sweet,0.9902100563049316,,,,,,,,
,"no person",0.9901295900344849,,,,,,,,
,plate,0.987980842590332,,,,,,,,
,"dairy product",0.9842183589935303,,,,,,,,
,berry,0.9840061664581299,,,,,,,,
,grow,0.9833354949951172,,,,,,,,
,strawberry,0.9737371206283569,,,,,,,,
,dish,0.9360221028327942,,,,,,,,
,sugar,0.935442328453064,,,,,,,,
,slice,0.9311476945877075,,,,,,,,
,tableware,0.9086958169937134,,,,,,,,
,fish,0.9051856994628906,,,,,,,,
,cutout,0.9030592441558838,,,,,,,,
,refreshment,0.8883424401283264,,,,,,,,
,confection,0.8880035877227783,,,,,,,,
,meal,0.8856416344642639,,,,,,,,
,delicious,0.87738037109375,,,,,,,,
https://scontent.cdninstagram.com/t51.2885-15/e35/12105208_745527735551110_542290717_n.jpg,"no person",0.9966907501220703,Food,,,,"Meal time",,,
,food,0.9949109554290771,,,,,,,,
,delicious,0.9808579683303833,,,,,,,,
,lunch,0.9746137261390686,,,,,,,,
,dinner,0.9720124006271362,,,,,,,,
,nutrition,0.9522068500518799,,,,,,,,
,meat,0.9472863674163818,,,,,,,,
,hot,0.9414597749710083,,,,,,,,
,cooking,0.9335789680480957,,,,,,,,
,fast,0.9306256771087646,,,,,,,,
,meal,0.9264739751815796,,,,,,,,
,chicken,0.9125288128852844,,,,,,,,
,grow,0.8769624829292297,,,,,,,,
,homemade,0.8739144802093506,,,,,,,,
,traditional,0.8651238083839417,,,,,,,,
,ready,0.8644280433654785,,,,,,,,
,unhealthy,0.8462422490119934,,,,,,,,
,crisp,0.845870852470398,,,,,,,,
,dish,0.8449349403381348,,,,,,,,
,pork,0.8438205122947693,,,,,,,,
https://scontent.cdninstagram.com/t51.2885-15/e35/12120331_818055781647483_1635395760_n.jpg,text,0.990241527557373,"My life",,,,"Here I am",,,
,chalkboard,0.9898197650909424,,,,,,,,
,chalk,0.9856112003326416,,,,,,,,
,education,0.9717732667922974,,,,,,,,
,display,0.9714694619178772,,,,,,,,
,school,0.9714602828025818,,,,,,,,
,bill,0.9627171754837036,,,,,,,,
,sign,0.9451943635940552,,,,,,,,
,business,0.9421107769012451,,,,,,,,
,handwriting,0.9389572143554688,,,,,,,,
,"give voice",0.9346354007720947,,,,,,,,
,stock,0.9004143476486206,,,,,,,,
,desktop,0.8878698945045471,,,,,,,,
,writing,0.8797932267189026,,,,,,,,
,class,0.8796093463897705,,,,,,,,
,sign,0.8759941458702087,,,,,,,,
,classroom,0.8511884212493896,,,,,,,,
,teacher,0.8384537696838379,,,,,,,,
,lesson,0.836453914642334,,,,,,,,
,information,0.8362936973571777,,,,,,,,
https://scontent.cdninstagram.com/t51.2885-15/e35/12081102_1512244502431113_1088460140_n.jpg,beer,0.9986708164215088,Food,,,,"Drinks and snack",,,
,drink,0.9945299029350281,,,,,,,,
,bar,0.9905914068222046,,,,,,,,
,people,0.9826664924621582,,,,,,,,
,pub,0.977824866771698,,,,,,,,
,alcohol,0.9726729393005371,,,,,,,,
,room,0.9706181883811951,,,,,,,,
,indoors,0.9678871631622314,,,,,,,,
,adult,0.9609778523445129,,,,,,,,
,table,0.9453449249267578,,,,,,,,
,party,0.9434506893157959,,,,,,,,
,one,0.9317505955696106,,,,,,,,
,restaurant,0.9268785715103149,,,,,,,,
,man,0.9217962026596069,,,,,,,,
,counter,0.920180082321167,,,,,,,,
,lifestyle,0.9056572318077087,,,,,,,,
,brewery,0.9053093791007996,,,,,,,,
,food,0.8992416858673096,,,,,,,,
,woman,0.8986406922340393,,,,,,,,
,portrait,0.8962759375572205,,,,,,,,
https://scontent.cdninstagram.com/t51.2885-15/e35/12081102_1512244502431113_1088460140_n.jpg,beer,0.9986708164215088,Food,,,,"Drinks and snack",,,
,drink,0.9945299029350281,,,,,,,,
,bar,0.9905914068222046,,,,,,,,
,people,0.9826664924621582,,,,,,,,
,pub,0.977824866771698,,,,,,,,
,alcohol,0.9726729393005371,,,,,,,,
,room,0.9706181883811951,,,,,,,,
,indoors,0.9678871631622314,,,,,,,,
,adult,0.9609778523445129,,,,,,,,
,table,0.9453449249267578,,,,,,,,
,party,0.9434506893157959,,,,,,,,
,one,0.9317505955696106,,,,,,,,
,restaurant,0.9268785715103149,,,,,,,,
,man,0.9217962026596069,,,,,,,,
,counter,0.920180082321167,,,,,,,,
,lifestyle,0.9056572318077087,,,,,,,,
,brewery,0.9053093791007996,,,,,,,,
,food,0.8992416858673096,,,,,,,,
,woman,0.8986406922340393,,,,,,,,
,portrait,0.8962759375572205,,,,,,,,
https://scontent.cdninstagram.com/t51.2885-15/e35/12353929_526924210810822_267923177_n.jpg,woman,0.9857113361358643,Relationships,,,,Friends,,,
,man,0.9667724370956421,,,,,,,,
,"facial expression",0.9651482105255127,,,,,,,,
,group,0.9561259746551514,,,,,,,,
,togetherness,0.9438962936401367,,,,,,,,
,recreation,0.937659502029419,,,,,,,,
,enjoyment,0.9328969120979309,,,,,,,,
,indoors,0.9280062317848206,,,,,,,,
,people,0.9270535111427307,,,,,,,,
,friendship,0.9254216551780701,,,,,,,,
,group,0.9245020151138306,,,,,,,,
,adult,0.9065896272659302,,,,,,,,
,laughing,0.8798396587371826,,,,,,,,
,student,0.8715116381645203,,,,,,,,
,portrait,0.8601534962654114,,,,,,,,
,four,0.8591251969337463,,,,,,,,
,adolescent,0.8483378291130066,,,,,,,,
,coffee,0.8456124067306519,,,,,,,,
,happiness,0.8222686648368835,,,,,,,,
,sitting,0.8162821531295776,,,,,,,,
https://scontent.cdninstagram.com/t51.2885-15/e35/12362637_132761327097449_979512588_n.jpg,cat,0.9932795763015747,Animals,,,,Animals-s,,,
,people,0.981004536151886,,,,,,,,
,woman,0.9751681685447693,,,,,,,,
,kitten,0.9715676307678223,,,,,,,,
,young,0.9617046117782593,,,,,,,,
,music,0.9556905031204224,,,,,,,,
,piano,0.955337405204773,,,,,,,,
,pet,0.9523886442184448,,,,,,,,
,harmony,0.9506298303604126,,,,,,,,
,one,0.9500911235809326,,,,,,,,
,cute,0.9498554468154907,,,,,,,,
,portrait,0.9384317398071289,,,,,,,,
,girl,0.9318704605102539,,,,,,,,
,hand,0.9309594631195068,,,,,,,,
,adult,0.9290525913238525,,,,,,,,
,play,0.9262639284133911,,,,,,,,
,relaxation,0.925911545753479,,,,,,,,
,fur,0.925895094871521,,,,,,,,
,step,0.9194321036338806,,,,,,,,
,pretty,0.9100011587142944,,,,,,,,
https://scontent.cdninstagram.com/t51.2885-15/e35/12093722_623286881144585_1303913719_n.jpg,hand,0.9601750373840332,Undefined,,,,Undefined,,,
,telephone,0.9474109411239624,,,,,,,,
,screen,0.9372798204421997,,,,,,,,
,touch,0.9302463531494141,,,,,,,,
,business,0.9230902791023254,,,,,,,,
,pill,0.9101374745368958,,,,,,,,
,display,0.9081676602363586,,,,,,,,
,smart,0.8846819400787354,,,,,,,,
,technology,0.8765848875045776,,,,,,,,
,people,0.8749456405639648,,,,,,,,
,portable,0.8523973822593689,,,,,,,,
,desktop,0.834416389465332,,,,,,,,
,museum,0.8197075128555298,,,,,,,,
,wireless,0.8156595230102539,,,,,,,,
,blank,0.8023393154144287,,,,,,,,
,exhibition,0.7333579659461975,,,,,,,,
,image,0.7263725996017456,,,,,,,,
,laptop,0.7228851318359375,,,,,,,,
,spherical,0.7046412825584412,,,,,,,,
,device,0.6943485736846924,,,,,,,,
https://scontent.cdninstagram.com/t51.2885-15/e35/12393775_691396470963754_1693503038_n.jpg,food,0.9942817687988281,Food,,,,"Meal time",,,
,"no person",0.9915733337402344,,,,,,,,
,grow,0.9829614758491516,,,,,,,,
,dinner,0.9828885793685913,,,,,,,,
,rice,0.9762706756591797,,,,,,,,
,lunch,0.9657071828842163,,,,,,,,
,delicious,0.954265832901001,,,,,,,,
,cooking,0.9378918409347534,,,,,,,,
,meal,0.9358080625534058,,,,,,,,
,meat,0.9354681968688965,,,,,,,,
,pork,0.9265854358673096,,,,,,,,
,vegetable,0.926426887512207,,,,,,,,
,dish,0.9045044183731079,,,,,,,,
,beef,0.8929535150527954,,,,,,,,
,traditional,0.8927099704742432,,,,,,,,
,nutrition,0.8825040459632874,,,,,,,,
,mushroom,0.8798352479934692,,,,,,,,
,plate,0.8713521361351013,,,,,,,,
,cuisine,0.8427733182907104,,,,,,,,
,restaurant,0.8395925760269165,,,,,,,,
https://scontent.cdninstagram.com/t51.2885-15/e35/13129302_468601756682659_982170222_n.jpg,garden,0.9606759548187256,Undefined,,,,Undefined,,,
,flower,0.9584807753562927,,,,,,,,
,flora,0.9550461173057556,,,,,,,,
,nature,0.9473048448562622,,,,,,,,
,outdoors,0.9452937841415405,,,,,,,,
,summer,0.9337854981422424,,,,,,,,
,leaf,0.9310451745986938,,,,,,,,
,growth,0.8854872584342957,,,,,,,,
,soil,0.8829993605613708,,,,,,,,
,people,0.8723203539848328,,,,,,,,
,food,0.8706419467926025,,,,,,,,
,outside,0.8645087480545044,,,,,,,,
,tree,0.864347517490387,,,,,,,,
,season,0.8638068437576294,,,,,,,,
,desktop,0.8581355214118958,,,,,,,,
,young,0.8544043898582458,,,,,,,,
,woman,0.854047417640686,,,,,,,,
,water,0.8517237901687622,,,,,,,,
,color,0.8515769243240356,,,,,,,,
,pot,0.8492424488067627,,,,,,,,
https://scontent.cdninstagram.com/t51.2885-15/e35/12120519_550323368452053_701249331_n.jpg,cat,0.9986304640769958,Animals,,,,Animals-s,,,
,kitten,0.9853887557983398,,,,,,,,
,pet,0.9838883876800537,,,,,,,,
,mammal,0.9823973178863525,,,,,,,,
,"no person",0.9820865392684937,,,,,,,,
,sleep,0.9796792268753052,,,,,,,,
,one,0.9780051708221436,,,,,,,,
,cute,0.9749673008918762,,,,,,,,
,fur,0.9678712487220764,,,,,,,,
,animal,0.9636784195899963,,,,,,,,
,funny,0.9502977132797241,,,,,,,,
,domestic,0.9476258754730225,,,,,,,,
,portrait,0.9449449777603149,,,,,,,,
,little,0.9432092308998108,,,,,,,,
,baby,0.9201542139053345,,,,,,,,
,eye,0.9035176634788513,,,,,,,,
,whisker,0.9004361629486084,,,,,,,,
,downy,0.8818820714950562,,,,,,,,
,people,0.8765396475791931,,,,,,,,
,sleepy,0.8605245351791382,,,,,,,,
https://scontent.cdninstagram.com/t51.2885-15/e35/13099108_1121154721237941_658848611_n.jpg,"no person",0.9932564496994019,Food,,,,Dessert,,,
,milk,0.991557240486145,,,,,,,,
,breakfast,0.9898918867111206,,,,,,,,
,delicious,0.9865935444831848,,,,,,,,
,dawn,0.9823532104492188,,,,,,,,
,nutrition,0.9783776998519897,,,,,,,,
,bowl,0.9759615659713745,,,,,,,,
,food,0.9713449478149414,,,,,,,,
,corn,0.9660836458206177,,,,,,,,
,muesli,0.965864360332489,,,,,,,,
,yogurt,0.9627426266670227,,,,,,,,
,health,0.9561467170715332,,,,,,,,
,crisp,0.9536629319190979,,,,,,,,
,crunchy,0.9527047872543335,,,,,,,,
,sweet,0.9422212839126587,,,,,,,,
,oatmeal,0.9382857084274292,,,,,,,,
,cereal,0.9339950680732727,,,,,,,,
,granola,0.9331740140914917,,,,,,,,
,cereal,0.9253075122833252,,,,,,,,
,snowflake,0.910841703414917,,,,,,,,
https://scontent.cdninstagram.com/t51.2885-15/s750x750/sh0.08/e35/12424931_1879441405615932_1747952316_n.jpg,mask,0.9980185031890869,"Fashion & Beauty","My life",,,"My look",Selfie,,
,influenza,0.9974390864372253,,,,,,,,
,mask,0.997215986251831,,,,,,,,
,woman,0.992523729801178,,,,,,,,
,security,0.9891107082366943,,,,,,,,
,healthcare,0.9833199977874756,,,,,,,,
,health,0.9773366451263428,,,,,,,,
,safety,0.976780116558075,,,,,,,,
,hospital,0.9762107133865356,,,,,,,,
,people,0.9727287292480469,,,,,,,,
,pandemic,0.9665590524673462,,,,,,,,
,infection,0.9629669189453125,,,,,,,,
,surgery,0.9619211554527283,,,,,,,,
,portrait,0.9618926644325256,,,,,,,,
,allergy,0.9606170654296875,,,,,,,,
,disease,0.9603431820869446,,,,,,,,
,eruption,0.9547731876373291,,,,,,,,
,medicine,0.9530370235443115,,,,,,,,
,illness,0.9450454115867615,,,,,,,,
,one,0.935410737991333,,,,,,,,
https://scontent.cdninstagram.com/t51.2885-15/e35/13099108_1121154721237941_658848611_n.jpg,"no person",0.9932564496994019,Food,,,,Dessert,,,
,milk,0.991557240486145,,,,,,,,
,breakfast,0.9898918867111206,,,,,,,,
,delicious,0.9865935444831848,,,,,,,,
,dawn,0.9823532104492188,,,,,,,,
,nutrition,0.9783776998519897,,,,,,,,
,bowl,0.9759615659713745,,,,,,,,
,food,0.9713449478149414,,,,,,,,
,corn,0.9660836458206177,,,,,,,,
,muesli,0.965864360332489,,,,,,,,
,yogurt,0.9627426266670227,,,,,,,,
,health,0.9561467170715332,,,,,,,,
,crisp,0.9536629319190979,,,,,,,,
,crunchy,0.9527047872543335,,,,,,,,
,sweet,0.9422212839126587,,,,,,,,
,oatmeal,0.9382857084274292,,,,,,,,
,cereal,0.9339950680732727,,,,,,,,
,granola,0.9331740140914917,,,,,,,,
,cereal,0.9253075122833252,,,,,,,,
,snowflake,0.910841703414917,,,,,,,,
https://scontent.cdninstagram.com/t51.2885-15/e35/13129302_468601756682659_982170222_n.jpg,garden,0.9606759548187256,Undefined,,,,Undefined,,,
,flower,0.9584807753562927,,,,,,,,
,flora,0.9550461173057556,,,,,,,,
,nature,0.9473048448562622,,,,,,,,
,outdoors,0.9452937841415405,,,,,,,,
,summer,0.9337854981422424,,,,,,,,
,leaf,0.9310451745986938,,,,,,,,
,growth,0.8854872584342957,,,,,,,,
,soil,0.8829993605613708,,,,,,,,
,people,0.8723203539848328,,,,,,,,
,food,0.8706419467926025,,,,,,,,
,outside,0.8645087480545044,,,,,,,,
,tree,0.864347517490387,,,,,,,,
,season,0.8638068437576294,,,,,,,,
,desktop,0.8581355214118958,,,,,,,,
,young,0.8544043898582458,,,,,,,,
,woman,0.854047417640686,,,,,,,,
,water,0.8517237901687622,,,,,,,,
,color,0.8515769243240356,,,,,,,,
,pot,0.8492424488067627,,,,,,,,
https://scontent.cdninstagram.com/t51.2885-15/e35/12081071_100902696934319_1743140820_n.jpg,business,0.9307634234428406,Commerce,,,,"Product/brand shots",,,
,people,0.8958309292793274,,,,,,,,
,hand,0.8839068412780762,,,,,,,,
,fun,0.8799585103988647,,,,,,,,
,woman,0.8573681712150574,,,,,,,,
,internet,0.8434827923774719,,,,,,,,
,man,0.8425520658493042,,,,,,,,
,person,0.8417066335678101,,,,,,,,
,shopping,0.8219074010848999,,,,,,,,
,"no person",0.8160165548324585,,,,,,,,
,success,0.8160119652748108,,,,,,,,
,traditional,0.8093767166137695,,,,,,,,
,human,0.7964084148406982,,,,,,,,
,bill,0.7845581769943237,,,,,,,,
,symbol,0.7806802988052368,,,,,,,,
,sign,0.7656066417694092,,,,,,,,
,retro,0.7577927708625793,,,,,,,,
,display,0.7521768808364868,,,,,,,,
,technology,0.7510994672775269,,,,,,,,
,desktop,0.749049186706543,,,,,,,,
https://scontent.cdninstagram.com/t51.2885-15/s750x750/sh0.08/e35/12424931_1879441405615932_1747952316_n.jpg,mask,0.9980185031890869,"Fashion & Beauty","My life",,,"My look",Selfie,,
,influenza,0.9974390864372253,,,,,,,,
,mask,0.997215986251831,,,,,,,,
,woman,0.992523729801178,,,,,,,,
,security,0.9891107082366943,,,,,,,,
,healthcare,0.9833199977874756,,,,,,,,
,health,0.9773366451263428,,,,,,,,
,safety,0.976780116558075,,,,,,,,
,hospital,0.9762107133865356,,,,,,,,
,people,0.9727287292480469,,,,,,,,
,pandemic,0.9665590524673462,,,,,,,,
,infection,0.9629669189453125,,,,,,,,
,surgery,0.9619211554527283,,,,,,,,
,portrait,0.9618926644325256,,,,,,,,
,allergy,0.9606170654296875,,,,,,,,
,disease,0.9603431820869446,,,,,,,,
,eruption,0.9547731876373291,,,,,,,,
,medicine,0.9530370235443115,,,,,,,,
,illness,0.9450454115867615,,,,,,,,
,one,0.935410737991333,,,,,,,,
https://scontent.cdninstagram.com/t51.2885-15/s750x750/sh0.08/e35/12071115_1624780487770544_887422721_n.jpg,sky,0.994059681892395,Relationships,,,,"Best friends",,,
,summer,0.9865660667419434,,,,,,,,
,woman,0.9846469163894653,,,,,,,,
,girl,0.9832237958908081,,,,,,,,
,sun,0.9797561168670654,,,,,,,,
,travel,0.9794524908065796,,,,,,,,
,outdoors,0.9737929105758667,,,,,,,,
,"fair weather",0.9707231521606445,,,,,,,,
,love,0.9702482223510742,,,,,,,,
,people,0.9627788066864014,,,,,,,,
,nature,0.957269549369812,,,,,,,,
,sunglasses,0.9567956924438477,,,,,,,,
,portrait,0.9555784463882446,,,,,,,,
,beach,0.9545910358428955,,,,,,,,
,water,0.9455444812774658,,,,,,,,
,vacation,0.939365565776825,,,,,,,,
,landscape,0.937280535697937,,,,,,,,
,sea,0.9185560941696167,,,,,,,,
,"blue sky",0.9046587944030762,,,,,,,,
,couple,0.8940629959106445,,,,,,,,
https://scontent.cdninstagram.com/t51.2885-15/s750x750/sh0.08/e35/12331940_1492104921099188_1515548068_n.jpg,woman,0.997187614440918,Relationships,Food,,,"Best friends","Meal time",,
,adult,0.9915872812271118,,,,,,,,
,people,0.9844414591789246,,,,,,,,
,indoors,0.9805083274841309,,,,,,,,
,happiness,0.959746241569519,,,,,,,,
,enjoyment,0.9515672326087952,,,,,,,,
,man,0.9512253999710083,,,,,,,,
,two,0.9482131600379944,,,,,,,,
,"facial expression",0.9454284906387329,,,,,,,,
,family,0.9320845603942871,,,,,,,,
,togetherness,0.9293698668479919,,,,,,,,
,table,0.9218688011169434,,,,,,,,
,group,0.9124408960342407,,,,,,,,
,wear,0.9011251926422119,,,,,,,,
,room,0.8977497816085815,,,,,,,,
,portrait,0.8944448828697205,,,,,,,,
,lifestyle,0.8805334568023682,,,,,,,,
,sit,0.8769386410713196,,,,,,,,
,three,0.8718448281288147,,,,,,,,
,looking,0.8567875027656555,,,,,,,,
https://scontent.cdninstagram.com/t51.2885-15/e35/11886994_883308561764836_2113699457_n.jpg,egg,0.9965421557426453,Food,,,,Food-s,,,
,Easter,0.9962369799613953,,,,,,,,
,"no person",0.9904263615608215,,,,,,,,
,food,0.9853372573852539,,,,,,,,
,one,0.9827251434326172,,,,,,,,
,indoors,0.9755587577819824,,,,,,,,
,"still life",0.9723071455955505,,,,,,,,
,chicken,0.9659864902496338,,,,,,,,
,poultry,0.9534032344818115,,,,,,,,
,room,0.9475444555282593,,,,,,,,
,shelf,0.9364050626754761,,,,,,,,
,group,0.9343063235282898,,,,,,,,
,grow,0.9299880266189575,,,,,,,,
,bowl,0.9275877475738525,,,,,,,,
,container,0.9164044857025146,,,,,,,,
,people,0.9142534732818604,,,,,,,,
,child,0.9078041315078735,,,,,,,,
,color,0.8995645046234131,,,,,,,,
,empty,0.8956058621406555,,,,,,,,
,table,0.891931414604187,,,,,,,,
https://scontent.cdninstagram.com/t51.2885-15/e35/12362199_158719407824557_605106797_n.jpg,food,0.9739420413970947,Food,,,,"Meal time",,,
,"no person",0.9680227637290955,,,,,,,,
,cooking,0.9585949182510376,,,,,,,,
,pan,0.9506331086158752,,,,,,,,
,traditional,0.9199157357215881,,,,,,,,
,steel,0.909688413143158,,,,,,,,
,knife,0.904749870300293,,,,,,,,
,desktop,0.8602619171142578,,,,,,,,
,dinner,0.847385585308075,,,,,,,,
,hot,0.8450443148612976,,,,,,,,
,wood,0.8365563154220581,,,,,,,,
,lid,0.8329946994781494,,,,,,,,
,preparation,0.8041664361953735,,,,,,,,
,health,0.7857170104980469,,,,,,,,
,equipment,0.7762908935546875,,,,,,,,
,chef,0.7750179767608643,,,,,,,,
,delicious,0.7713286280632019,,,,,,,,
,instrument,0.7514758110046387,,,,,,,,
,meal,0.748698353767395,,,,,,,,
,restaurant,0.7434529662132263,,,,,,,,
https://scontent.cdninstagram.com/t51.2885-15/e35/12132697_497454767097910_1330500712_n.jpg,food,0.9882220029830933,Food,Entertainment,,,"Meal time",Entertainment-s,,
,coffee,0.9869019985198975,,,,,,,,
,indoors,0.9618031978607178,,,,,,,,
,people,0.9607365131378174,,,,,,,,
,drink,0.9491437673568726,,,,,,,,
,competition,0.9482157230377197,,,,,,,,
,cup,0.945799708366394,,,,,,,,
,festival,0.9440346360206604,,,,,,,,
,table,0.9417966604232788,,,,,,,,
,"no person",0.9357496500015259,,,,,,,,
,restaurant,0.9338805675506592,,,,,,,,
,business,0.9019836187362671,,,,,,,,
,landscape,0.8819856643676758,,,,,,,,
,technology,0.8810980916023254,,,,,,,,
,exhibition,0.8803219795227051,,,,,,,,
,family,0.8761667013168335,,,,,,,,
,hotel,0.8655515313148499,,,,,,,,
,energy,0.865493893623352,,,,,,,,
,bar,0.8515472412109375,,,,,,,,
,room,0.8379656076431274,,,,,,,,
https://scontent.cdninstagram.com/t51.2885-15/e35/11886994_883308561764836_2113699457_n.jpg,egg,0.9965421557426453,Food,,,,Food-s,,,
,Easter,0.9962369799613953,,,,,,,,
,"no person",0.9904263615608215,,,,,,,,
,food,0.9853372573852539,,,,,,,,
,one,0.9827251434326172,,,,,,,,
,indoors,0.9755587577819824,,,,,,,,
,"still life",0.9723071455955505,,,,,,,,
,chicken,0.9659864902496338,,,,,,,,
,poultry,0.9534032344818115,,,,,,,,
,room,0.9475444555282593,,,,,,,,
,shelf,0.9364050626754761,,,,,,,,
,group,0.9343063235282898,,,,,,,,
,grow,0.9299880266189575,,,,,,,,
,bowl,0.9275877475738525,,,,,,,,
,container,0.9164044857025146,,,,,,,,
,people,0.9142534732818604,,,,,,,,
,child,0.9078041315078735,,,,,,,,
,color,0.8995645046234131,,,,,,,,
,empty,0.8956058621406555,,,,,,,,
,table,0.891931414604187,,,,,,,,
https://scontent.cdninstagram.com/t51.2885-15/e35/12976245_1609835422670522_162329723_n.jpg,"no person",0.9588148593902588,Commerce,,,,"Product/brand shots",,,
,bottle,0.9482994079589844,,,,,,,,
,drink,0.925662636756897,,,,,,,,
,business,0.9233341217041016,,,,,,,,
,glass,0.9167068004608154,,,,,,,,
,indoors,0.9069998264312744,,,,,,,,
,medicine,0.9026000499725342,,,,,,,,
,glass,0.8864697217941284,,,,,,,,
,container,0.8840381503105164,,,,,,,,
,luxury,0.859931468963623,,,,,,,,
,color,0.8469934463500977,,,,,,,,
,people,0.8387312889099121,,,,,,,,
,family,0.8258770704269409,,,,,,,,
,commerce,0.8115354776382446,,,,,,,,
,decoration,0.8033888339996338,,,,,,,,
,one,0.7981826066970825,,,,,,,,
,desktop,0.7929012179374695,,,,,,,,
,money,0.7926558256149292,,,,,,,,
,wealth,0.7916185855865479,,,,,,,,
,symbol,0.7861428260803223,,,,,,,,
https://scontent.cdninstagram.com/t51.2885-15/e35/13298184_236626400044882_2943761_n.jpg,sunset,0.992823600769043,Entertainment,,,,Events,,,
,silhouette,0.9890233278274536,,,,,,,,
,landscape,0.9841871857643127,,,,,,,,
,smoke,0.9840408563613892,,,,,,,,
,flame,0.9729865789413452,,,,,,,,
,light,0.9715520739555359,,,,,,,,
,energy,0.9692962169647217,,,,,,,,
,pollution,0.9630297422409058,,,,,,,,
,environment,0.9580418467521667,,,,,,,,
,festival,0.9575808048248291,,,,,,,,
,concert,0.9524285793304443,,,,,,,,
,audience,0.9486584663391113,,,,,,,,
,industry,0.9450443983078003,,,,,,,,
,dawn,0.9432069063186646,,,,,,,,
,grinder,0.9409915208816528,,,,,,,,
,production,0.9396586418151855,,,,,,,,
,crowd,0.9378542900085449,,,,,,,,
,evening,0.9273492097854614,,,,,,,,
,sun,0.9253309965133667,,,,,,,,
,backlit,0.9239993691444397,,,,,,,,
https://scontent.cdninstagram.com/t51.2885-15/e35/12093722_623286881144585_1303913719_n.jpg,hand,0.9601750373840332,Undefined,,,,Undefined,,,
,telephone,0.9474109411239624,,,,,,,,
,screen,0.9372798204421997,,,,,,,,
,touch,0.9302463531494141,,,,,,,,
,business,0.9230902791023254,,,,,,,,
,pill,0.9101374745368958,,,,,,,,
,display,0.9081676602363586,,,,,,,,
,smart,0.8846819400787354,,,,,,,,
,technology,0.8765848875045776,,,,,,,,
,people,0.8749456405639648,,,,,,,,
,portable,0.8523973822593689,,,,,,,,
,desktop,0.834416389465332,,,,,,,,
,museum,0.8197075128555298,,,,,,,,
,wireless,0.8156595230102539,,,,,,,,
,blank,0.8023393154144287,,,,,,,,
,exhibition,0.7333579659461975,,,,,,,,
,image,0.7263725996017456,,,,,,,,
,laptop,0.7228851318359375,,,,,,,,
,spherical,0.7046412825584412,,,,,,,,
,device,0.6943485736846924,,,,,,,,
https://scontent.cdninstagram.com/t51.2885-15/e35/13116848_130532740691151_190258985_n.jpg,indoors,0.9944300651550293,Cute,Commerce,,,Cute,"Product/brand shots",,
,room,0.9873066544532776,,,,,,,,
,inside,0.9872469902038574,,,,,,,,
,stock,0.9792814254760742,,,,,,,,
,exhibition,0.9763920903205872,,,,,,,,
,shelf,0.9688211679458618,,,,,,,,
,toy,0.9671491384506226,,,,,,,,
,people,0.9651910066604614,,,,,,,,
,furniture,0.9617270231246948,,,,,,,,
,pet,0.9612810611724854,,,,,,,,
,child,0.9573978185653687,,,,,,,,
,family,0.9488633275032043,,,,,,,,
,wear,0.9451900720596313,,,,,,,,
,seat,0.9434539079666138,,,,,,,,
,mammal,0.9399611949920654,,,,,,,,
,cat,0.9385844469070435,,,,,,,,
,market,0.9378422498703003,,,,,,,,
,shop,0.9360705614089966,,,,,,,,
,dog,0.9281190633773804,,,,,,,,
,group,0.9250258803367615,,,,,,,,
https://scontent.cdninstagram.com/t51.2885-15/s750x750/sh0.08/e35/13183339_1039314882816865_1071097797_n.jpg,girl,0.9935254454612732,Relationships,,,,"Best friends",,,
,people,0.9889973402023315,,,,,,,,
,woman,0.9882321357727051,,,,,,,,
,portrait,0.9732494354248047,,,,,,,,
,brunette,0.9608836770057678,,,,,,,,
,adult,0.9567360877990723,,,,,,,,
,two,0.9480128884315491,,,,,,,,
,room,0.9406595230102539,,,,,,,,
,beautiful,0.9396730065345764,,,,,,,,
,indoors,0.9348411560058594,,,,,,,,
,child,0.9346694946289062,,,,,,,,
,family,0.9237821102142334,,,,,,,,
,happiness,0.9150457382202148,,,,,,,,
,lifestyle,0.9114934206008911,,,,,,,,
,school,0.8988251686096191,,,,,,,,
,book,0.8979336023330688,,,,,,,,
,young,0.8962767124176025,,,,,,,,
,education,0.8922427892684937,,,,,,,,
,adolescent,0.8918508291244507,,,,,,,,
,love,0.8882461786270142,,,,,,,,
https://scontent.cdninstagram.com/t51.2885-15/e35/12120519_550323368452053_701249331_n.jpg,cat,0.9986304640769958,Animals,,,,Animals-s,,,
,kitten,0.9853887557983398,,,,,,,,
,pet,0.9838883876800537,,,,,,,,
,mammal,0.9823973178863525,,,,,,,,
,"no person",0.9820865392684937,,,,,,,,
,sleep,0.9796792268753052,,,,,,,,
,one,0.9780051708221436,,,,,,,,
,cute,0.9749673008918762,,,,,,,,
,fur,0.9678712487220764,,,,,,,,
,animal,0.9636784195899963,,,,,,,,
,funny,0.9502977132797241,,,,,,,,
,domestic,0.9476258754730225,,,,,,,,
,portrait,0.9449449777603149,,,,,,,,
,little,0.9432092308998108,,,,,,,,
,baby,0.9201542139053345,,,,,,,,
,eye,0.9035176634788513,,,,,,,,
,whisker,0.9004361629486084,,,,,,,,
,downy,0.8818820714950562,,,,,,,,
,people,0.8765396475791931,,,,,,,,
,sleepy,0.8605245351791382,,,,,,,,
https://scontent.cdninstagram.com/t51.2885-15/s750x750/sh0.08/e35/13320315_1115110811864242_1072606729_n.jpg,people,0.9937877058982849,Entertainment,,,,Events,,,
,crowd,0.9937435388565063,,,,,,,,
,many,0.9893705248832703,,,,,,,,
,audience,0.9839004874229431,,,,,,,,
,concert,0.979642391204834,,,,,,,,
,music,0.9687304496765137,,,,,,,,
,group,0.9657464027404785,,,,,,,,
,performance,0.9457478523254395,,,,,,,,
,silhouette,0.9372241497039795,,,,,,,,
,sunset,0.9219744205474854,,,,,,,,
,light,0.9196200370788574,,,,,,,,
,landscape,0.9185406565666199,,,,,,,,
,group,0.9158499836921692,,,,,,,,
,stage,0.8878171443939209,,,,,,,,
,city,0.8829876184463501,,,,,,,,
,band,0.8559389114379883,,,,,,,,
,evening,0.8526248931884766,,,,,,,,
,man,0.8390166759490967,,,,,,,,
,ceremony,0.825527548789978,,,,,,,,
,festival,0.8137556314468384,,,,,,,,
https://scontent.cdninstagram.com/t51.2885-15/e35/12976245_1609835422670522_162329723_n.jpg,"no person",0.9588148593902588,Commerce,,,,"Product/brand shots",,,
,bottle,0.9482994079589844,,,,,,,,
,drink,0.925662636756897,,,,,,,,
,business,0.9233341217041016,,,,,,,,
,glass,0.9167068004608154,,,,,,,,
,indoors,0.9069998264312744,,,,,,,,
,medicine,0.9026000499725342,,,,,,,,
,glass,0.8864697217941284,,,,,,,,
,container,0.8840381503105164,,,,,,,,
,luxury,0.859931468963623,,,,,,,,
,color,0.8469934463500977,,,,,,,,
,people,0.8387312889099121,,,,,,,,
,family,0.8258770704269409,,,,,,,,
,commerce,0.8115354776382446,,,,,,,,
,decoration,0.8033888339996338,,,,,,,,
,one,0.7981826066970825,,,,,,,,
,desktop,0.7929012179374695,,,,,,,,
,money,0.7926558256149292,,,,,,,,
,wealth,0.7916185855865479,,,,,,,,
,symbol,0.7861428260803223,,,,,,,,
https://scontent.cdninstagram.com/t51.2885-15/e35/11909963_1498621777104622_1387234311_n.jpg,toy,0.9830765724182129,Commerce,,,,"Product/brand shots",,,
,child,0.9543895721435547,,,,,,,,
,people,0.9501535296440125,,,,,,,,
,money,0.9493251442909241,,,,,,,,
,man,0.9374245405197144,,,,,,,,
,"no person",0.9315317869186401,,,,,,,,
,business,0.9261234998703003,,,,,,,,
,blur,0.9042162299156189,,,,,,,,
,"still life",0.9028908610343933,,,,,,,,
,indoors,0.8828554153442383,,,,,,,,
,figurine,0.8807458877563477,,,,,,,,
,fun,0.8794195652008057,,,,,,,,
,baby,0.8723371028900146,,,,,,,,
,funny,0.8508545160293579,,,,,,,,
,little,0.8500982522964478,,,,,,,,
,furniture,0.8217949271202087,,,,,,,,
,game,0.8213378190994263,,,,,,,,
,one,0.8192261457443237,,,,,,,,
,room,0.8145629167556763,,,,,,,,
,table,0.8106176257133484,,,,,,,,
https://scontent.cdninstagram.com/t51.2885-15/e35/13329062_463258563885451_43265129_n.jpg,flame,0.9937376976013184,Entertainment,,,,Events,,,
,festival,0.9787658452987671,,,,,,,,
,people,0.9785011410713196,,,,,,,,
,evening,0.9763496518135071,,,,,,,,
,cavalry,0.9706640243530273,,,,,,,,
,"no person",0.9610069990158081,,,,,,,,
,silhouette,0.958909273147583,,,,,,,,
,light,0.9498751163482666,,,,,,,,
,mammal,0.9382258653640747,,,,,,,,
,group,0.9314637184143066,,,,,,,,
,man,0.9268908500671387,,,,,,,,
,smoke,0.9224734306335449,,,,,,,,
,vehicle,0.9198466539382935,,,,,,,,
,action,0.9185216426849365,,,,,,,,
,adult,0.9173128604888916,,,,,,,,
,outdoors,0.8986248970031738,,,,,,,,
,music,0.8899881839752197,,,,,,,,
,performance,0.8784302473068237,,,,,,,,
,sitting,0.8772026896476746,,,,,,,,
,backlit,0.8752520084381104,,,,,,,,
https://scontent.cdninstagram.com/t51.2885-15/e35/11909963_1498621777104622_1387234311_n.jpg,toy,0.9830765724182129,Commerce,,,,"Product/brand shots",,,
,child,0.9543895721435547,,,,,,,,
,people,0.9501535296440125,,,,,,,,
,money,0.9493251442909241,,,,,,,,
,man,0.9374245405197144,,,,,,,,
,"no person",0.9315317869186401,,,,,,,,
,business,0.9261234998703003,,,,,,,,
,blur,0.9042162299156189,,,,,,,,
,"still life",0.9028908610343933,,,,,,,,
,indoors,0.8828554153442383,,,,,,,,
,figurine,0.8807458877563477,,,,,,,,
,fun,0.8794195652008057,,,,,,,,
,baby,0.8723371028900146,,,,,,,,
,funny,0.8508545160293579,,,,,,,,
,little,0.8500982522964478,,,,,,,,
,furniture,0.8217949271202087,,,,,,,,
,game,0.8213378190994263,,,,,,,,
,one,0.8192261457443237,,,,,,,,
,room,0.8145629167556763,,,,,,,,
,table,0.8106176257133484,,,,,,,,
https://scontent.cdninstagram.com/t51.2885-15/s750x750/sh0.08/e35/13320315_1115110811864242_1072606729_n.jpg,people,0.9937877058982849,Entertainment,,,,Events,,,
,crowd,0.9937435388565063,,,,,,,,
,many,0.9893705248832703,,,,,,,,
,audience,0.9839004874229431,,,,,,,,
,concert,0.979642391204834,,,,,,,,
,music,0.9687304496765137,,,,,,,,
,group,0.9657464027404785,,,,,,,,
,performance,0.9457478523254395,,,,,,,,
,silhouette,0.9372241497039795,,,,,,,,
,sunset,0.9219744205474854,,,,,,,,
,light,0.9196200370788574,,,,,,,,
,landscape,0.9185406565666199,,,,,,,,
,group,0.9158499836921692,,,,,,,,
,stage,0.8878171443939209,,,,,,,,
,city,0.8829876184463501,,,,,,,,
,band,0.8559389114379883,,,,,,,,
,evening,0.8526248931884766,,,,,,,,
,man,0.8390166759490967,,,,,,,,
,ceremony,0.825527548789978,,,,,,,,
,festival,0.8137556314468384,,,,,,,,
https://scontent.cdninstagram.com/t51.2885-15/s750x750/sh0.08/e35/13183339_1039314882816865_1071097797_n.jpg,girl,0.9935254454612732,Relationships,,,,"Best friends",,,
,people,0.9889973402023315,,,,,,,,
,woman,0.9882321357727051,,,,,,,,
,portrait,0.9732494354248047,,,,,,,,
,brunette,0.9608836770057678,,,,,,,,
,adult,0.9567360877990723,,,,,,,,
,two,0.9480128884315491,,,,,,,,
,room,0.9406595230102539,,,,,,,,
,beautiful,0.9396730065345764,,,,,,,,
,indoors,0.9348411560058594,,,,,,,,
,child,0.9346694946289062,,,,,,,,
,family,0.9237821102142334,,,,,,,,
,happiness,0.9150457382202148,,,,,,,,
,lifestyle,0.9114934206008911,,,,,,,,
,school,0.8988251686096191,,,,,,,,
,book,0.8979336023330688,,,,,,,,
,young,0.8962767124176025,,,,,,,,
,education,0.8922427892684937,,,,,,,,
,adolescent,0.8918508291244507,,,,,,,,
,love,0.8882461786270142,,,,,,,,
https://scontent.cdninstagram.com/t51.2885-15/e35/13329062_463258563885451_43265129_n.jpg,flame,0.9937376976013184,Entertainment,,,,Events,,,
,festival,0.9787658452987671,,,,,,,,
,people,0.9785011410713196,,,,,,,,
,evening,0.9763496518135071,,,,,,,,
,cavalry,0.9706640243530273,,,,,,,,
,"no person",0.9610069990158081,,,,,,,,
,silhouette,0.958909273147583,,,,,,,,
,light,0.9498751163482666,,,,,,,,
,mammal,0.9382258653640747,,,,,,,,
,group,0.9314637184143066,,,,,,,,
,man,0.9268908500671387,,,,,,,,
,smoke,0.9224734306335449,,,,,,,,
,vehicle,0.9198466539382935,,,,,,,,
,action,0.9185216426849365,,,,,,,,
,adult,0.9173128604888916,,,,,,,,
,outdoors,0.8986248970031738,,,,,,,,
,music,0.8899881839752197,,,,,,,,
,performance,0.8784302473068237,,,,,,,,
,sitting,0.8772026896476746,,,,,,,,
,backlit,0.8752520084381104,,,,,,,,
https://scontent.cdninstagram.com/t51.2885-15/e35/12105208_745527735551110_542290717_n.jpg,"no person",0.9966907501220703,Food,,,,"Meal time",,,
,food,0.9949109554290771,,,,,,,,
,delicious,0.9808579683303833,,,,,,,,
,lunch,0.9746137261390686,,,,,,,,
,dinner,0.9720124006271362,,,,,,,,
,nutrition,0.9522068500518799,,,,,,,,
,meat,0.9472863674163818,,,,,,,,
,hot,0.9414597749710083,,,,,,,,
,cooking,0.9335789680480957,,,,,,,,
,fast,0.9306256771087646,,,,,,,,
,meal,0.9264739751815796,,,,,,,,
,chicken,0.9125288128852844,,,,,,,,
,grow,0.8769624829292297,,,,,,,,
,homemade,0.8739144802093506,,,,,,,,
,traditional,0.8651238083839417,,,,,,,,
,ready,0.8644280433654785,,,,,,,,
,unhealthy,0.8462422490119934,,,,,,,,
,crisp,0.845870852470398,,,,,,,,
,dish,0.8449349403381348,,,,,,,,
,pork,0.8438205122947693,,,,,,,,
https://scontent.cdninstagram.com/t51.2885-15/e35/11875455_187775208222433_993854585_n.jpg,"no person",0.9893472194671631,Environment,"My life",,,"Manmade beauty","My world today",,
,travel,0.9821919798851013,,,,,,,,
,"transportation system",0.9778401851654053,,,,,,,,
,water,0.9763209819793701,,,,,,,,
,vehicle,0.9630019664764404,,,,,,,,
,road,0.9628587961196899,,,,,,,,
,architecture,0.9579174518585205,,,,,,,,
,sky,0.9557123184204102,,,,,,,,
,outdoors,0.950746476650238,,,,,,,,
,modern,0.9384982585906982,,,,,,,,
,city,0.9362204074859619,,,,,,,,
,daylight,0.9357552528381348,,,,,,,,
,street,0.9280528426170349,,,,,,,,
,building,0.9270711541175842,,,,,,,,
,tree,0.918154239654541,,,,,,,,
,bridge,0.9169865846633911,,,,,,,,
,light,0.908390998840332,,,,,,,,
,business,0.9063172936439514,,,,,,,,
,car,0.8942595720291138,,,,,,,,
,lake,0.8880279660224915,,,,,,,,
https://scontent.cdninstagram.com/t51.2885-15/e35/13113704_546563155523216_633393375_n.jpg,"no person",0.9936987161636353,Food,,,,"Meal time",,,
,food,0.9905800819396973,,,,,,,,
,delicious,0.9817262291908264,,,,,,,,
,traditional,0.9491409063339233,,,,,,,,
,grow,0.9376945495605469,,,,,,,,
,cream,0.925887942314148,,,,,,,,
,chocolate,0.9223188161849976,,,,,,,,
,plate,0.9221463203430176,,,,,,,,
,sweet,0.8942427635192871,,,,,,,,
,homemade,0.889945924282074,,,,,,,,
,coffee,0.884972095489502,,,,,,,,
,cooking,0.8715012073516846,,,,,,,,
,meal,0.8670066595077515,,,,,,,,
,"dairy product",0.8579168319702148,,,,,,,,
,"still life",0.8573234677314758,,,,,,,,
,nutrition,0.8557789921760559,,,,,,,,
,milk,0.8456493616104126,,,,,,,,
,sugar,0.8407444953918457,,,,,,,,
,dinner,0.8375393152236938,,,,,,,,
,lunch,0.8372360467910767,,,,,,,,
https://scontent.cdninstagram.com/t51.2885-15/e35/12081071_100902696934319_1743140820_n.jpg,business,0.9307634234428406,Commerce,,,,"Product/brand shots",,,
,people,0.8958309292793274,,,,,,,,
,hand,0.8839068412780762,,,,,,,,
,fun,0.8799585103988647,,,,,,,,
,woman,0.8573681712150574,,,,,,,,
,internet,0.8434827923774719,,,,,,,,
,man,0.8425520658493042,,,,,,,,
,person,0.8417066335678101,,,,,,,,
,shopping,0.8219074010848999,,,,,,,,
,"no person",0.8160165548324585,,,,,,,,
,success,0.8160119652748108,,,,,,,,
,traditional,0.8093767166137695,,,,,,,,
,human,0.7964084148406982,,,,,,,,
,bill,0.7845581769943237,,,,,,,,
,symbol,0.7806802988052368,,,,,,,,
,sign,0.7656066417694092,,,,,,,,
,retro,0.7577927708625793,,,,,,,,
,display,0.7521768808364868,,,,,,,,
,technology,0.7510994672775269,,,,,,,,
,desktop,0.749049186706543,,,,,,,,
https://scontent.cdninstagram.com/t51.2885-15/e35/13113704_546563155523216_633393375_n.jpg,"no person",0.9936987161636353,Food,,,,"Meal time",,,
,food,0.9905800819396973,,,,,,,,
,delicious,0.9817262291908264,,,,,,,,
,traditional,0.9491409063339233,,,,,,,,
,grow,0.9376945495605469,,,,,,,,
,cream,0.925887942314148,,,,,,,,
,chocolate,0.9223188161849976,,,,,,,,
,plate,0.9221463203430176,,,,,,,,
,sweet,0.8942427635192871,,,,,,,,
,homemade,0.889945924282074,,,,,,,,
,coffee,0.884972095489502,,,,,,,,
,cooking,0.8715012073516846,,,,,,,,
,meal,0.8670066595077515,,,,,,,,
,"dairy product",0.8579168319702148,,,,,,,,
,"still life",0.8573234677314758,,,,,,,,
,nutrition,0.8557789921760559,,,,,,,,
,milk,0.8456493616104126,,,,,,,,
,sugar,0.8407444953918457,,,,,,,,
,dinner,0.8375393152236938,,,,,,,,
,lunch,0.8372360467910767,,,,,,,,
https://scontent.cdninstagram.com/t51.2885-15/e35/13257143_1600990093546350_583307741_n.jpg,illustration,0.9529303312301636,Commerce,,,,"Product/brand shots",,,
,"no person",0.929878830909729,,,,,,,,
,graph,0.9265798330307007,,,,,,,,
,vector,0.9084138870239258,,,,,,,,
,shower,0.8980886936187744,,,,,,,,
,round,0.8892218470573425,,,,,,,,
,fun,0.8804364204406738,,,,,,,,
,sketch,0.8778331279754639,,,,,,,,
,design,0.8645079135894775,,,,,,,,
,card,0.8609737753868103,,,,,,,,
,diagram,0.8574117422103882,,,,,,,,
,child,0.8543776869773865,,,,,,,,
,pattern,0.8444993495941162,,,,,,,,
,food,0.8419420719146729,,,,,,,,
,arrival,0.8342078924179077,,,,,,,,
,business,0.832711935043335,,,,,,,,
,love,0.8298496007919312,,,,,,,,
,toy,0.8202040195465088,,,,,,,,
,desktop,0.8179540634155273,,,,,,,,
,color,0.8160027265548706,,,,,,,,
https://scontent.cdninstagram.com/t51.2885-15/e35/13395135_1331028223590748_1623555626_n.jpg,business,0.9871481657028198,Business,Entertainment,,,Business-s,Entertainment-s,,
,paper,0.9758163690567017,,,,,,,,
,money,0.9525926113128662,,,,,,,,
,document,0.9149895906448364,,,,,,,,
,number,0.9043715596199036,,,,,,,,
,finance,0.8979388475418091,,,,,,,,
,people,0.8923828601837158,,,,,,,,
,page,0.8712912797927856,,,,,,,,
,wealth,0.8548721075057983,,,,,,,,
,finance,0.8500233888626099,,,,,,,,
,money,0.8483428955078125,,,,,,,,
,education,0.8422486782073975,,,,,,,,
,text,0.8412069082260132,,,,,,,,
,administration,0.8322145938873291,,,,,,,,
,form,0.8244904279708862,,,,,,,,
,pay,0.813641369342804,,,,,,,,
,information,0.7986680269241333,,,,,,,,
,debt,0.7771428823471069,,,,,,,,
,savings,0.7647622227668762,,,,,,,,
,commerce,0.7579284310340881,,,,,,,,
https://scontent.cdninstagram.com/t51.2885-15/e35/13395135_1331028223590748_1623555626_n.jpg,business,0.9871481657028198,Business,Entertainment,,,Business-s,Entertainment-s,,
,paper,0.9758163690567017,,,,,,,,
,money,0.9525926113128662,,,,,,,,
,document,0.9149895906448364,,,,,,,,
,number,0.9043715596199036,,,,,,,,
,finance,0.8979388475418091,,,,,,,,
,people,0.8923828601837158,,,,,,,,
,page,0.8712912797927856,,,,,,,,
,wealth,0.8548721075057983,,,,,,,,
,finance,0.8500233888626099,,,,,,,,
,money,0.8483428955078125,,,,,,,,
,education,0.8422486782073975,,,,,,,,
,text,0.8412069082260132,,,,,,,,
,administration,0.8322145938873291,,,,,,,,
,form,0.8244904279708862,,,,,,,,
,pay,0.813641369342804,,,,,,,,
,information,0.7986680269241333,,,,,,,,
,debt,0.7771428823471069,,,,,,,,
,savings,0.7647622227668762,,,,,,,,
,commerce,0.7579284310340881,,,,,,,,
https://scontent.cdninstagram.com/t51.2885-15/e35/13116848_130532740691151_190258985_n.jpg,indoors,0.9944300651550293,Cute,Commerce,,,Cute,"Product/brand shots",,
,room,0.9873066544532776,,,,,,,,
,inside,0.9872469902038574,,,,,,,,
,stock,0.9792814254760742,,,,,,,,
,exhibition,0.9763920903205872,,,,,,,,
,shelf,0.9688211679458618,,,,,,,,
,toy,0.9671491384506226,,,,,,,,
,people,0.9651910066604614,,,,,,,,
,furniture,0.9617270231246948,,,,,,,,
,pet,0.9612810611724854,,,,,,,,
,child,0.9573978185653687,,,,,,,,
,family,0.9488633275032043,,,,,,,,
,wear,0.9451900720596313,,,,,,,,
,seat,0.9434539079666138,,,,,,,,
,mammal,0.9399611949920654,,,,,,,,
,cat,0.9385844469070435,,,,,,,,
,market,0.9378422498703003,,,,,,,,
,shop,0.9360705614089966,,,,,,,,
,dog,0.9281190633773804,,,,,,,,
,group,0.9250258803367615,,,,,,,,
https://scontent.cdninstagram.com/t51.2885-15/e35/12317618_1657994517816662_1515706926_n.jpg,"no person",0.9952499866485596,Environment,,,,"Manmade beauty",,,
,bridge,0.993104875087738,,,,,,,,
,road,0.9920678734779358,,,,,,,,
,"transportation system",0.9908484816551208,,,,,,,,
,architecture,0.9759372472763062,,,,,,,,
,travel,0.9730367660522461,,,,,,,,
,sky,0.9668150544166565,,,,,,,,
,highway,0.9604508280754089,,,,,,,,
,light,0.9574357271194458,,,,,,,,
,traffic,0.9544789791107178,,,,,,,,
,guidance,0.9527205228805542,,,,,,,,
,vehicle,0.9522414803504944,,,,,,,,
,street,0.9486362934112549,,,,,,,,
,flyover,0.9378665685653687,,,,,,,,
,outdoors,0.9362796545028687,,,,,,,,
,long,0.929456353187561,,,,,,,,
,building,0.9208066463470459,,,,,,,,
,city,0.9097490310668945,,,,,,,,
,expressway,0.9083946347236633,,,,,,,,
,empty,0.9002376794815063,,,,,,,,
https://scontent.cdninstagram.com/t51.2885-15/e35/13257143_1600990093546350_583307741_n.jpg,illustration,0.9529303312301636,Commerce,,,,"Product/brand shots",,,
,"no person",0.929878830909729,,,,,,,,
,graph,0.9265798330307007,,,,,,,,
,vector,0.9084138870239258,,,,,,,,
,shower,0.8980886936187744,,,,,,,,
,round,0.8892218470573425,,,,,,,,
,fun,0.8804364204406738,,,,,,,,
,sketch,0.8778331279754639,,,,,,,,
,design,0.8645079135894775,,,,,,,,
,card,0.8609737753868103,,,,,,,,
,diagram,0.8574117422103882,,,,,,,,
,child,0.8543776869773865,,,,,,,,
,pattern,0.8444993495941162,,,,,,,,
,food,0.8419420719146729,,,,,,,,
,arrival,0.8342078924179077,,,,,,,,
,business,0.832711935043335,,,,,,,,
,love,0.8298496007919312,,,,,,,,
,toy,0.8202040195465088,,,,,,,,
,desktop,0.8179540634155273,,,,,,,,
,color,0.8160027265548706,,,,,,,,
https://scontent.cdninstagram.com/t51.2885-15/e35/11875455_187775208222433_993854585_n.jpg,"no person",0.9893472194671631,Environment,"My life",,,"Manmade beauty","My world today",,
,travel,0.9821919798851013,,,,,,,,
,"transportation system",0.9778401851654053,,,,,,,,
,water,0.9763209819793701,,,,,,,,
,vehicle,0.9630019664764404,,,,,,,,
,road,0.9628587961196899,,,,,,,,
,architecture,0.9579174518585205,,,,,,,,
,sky,0.9557123184204102,,,,,,,,
,outdoors,0.950746476650238,,,,,,,,
,modern,0.9384982585906982,,,,,,,,
,city,0.9362204074859619,,,,,,,,
,daylight,0.9357552528381348,,,,,,,,
,street,0.9280528426170349,,,,,,,,
,building,0.9270711541175842,,,,,,,,
,tree,0.918154239654541,,,,,,,,
,bridge,0.9169865846633911,,,,,,,,
,light,0.908390998840332,,,,,,,,
,business,0.9063172936439514,,,,,,,,
,car,0.8942595720291138,,,,,,,,
,lake,0.8880279660224915,,,,,,,,
https://scontent.cdninstagram.com/t51.2885-15/e35/12081106_939967142726353_1757867749_n.jpg,cage,0.9868013262748718,Recreation,,,,"Winter Sports",,,
,indoors,0.9711946249008179,,,,,,,,
,rat,0.9519449472427368,,,,,,,,
,people,0.9483554363250732,,,,,,,,
,mammal,0.9370883703231812,,,,,,,,
,catch,0.9366122484207153,,,,,,,,
,mouse,0.9321973323822021,,,,,,,,
,pet,0.9316065907478333,,,,,,,,
,domestic,0.9283695220947266,,,,,,,,
,one,0.922892153263092,,,,,,,,
,animal,0.9089623689651489,,,,,,,,
,reflection,0.8977290391921997,,,,,,,,
,business,0.8831284642219543,,,,,,,,
,trap,0.8829456567764282,,,,,,,,
,food,0.8743422627449036,,,,,,,,
,"no person",0.8739231824874878,,,,,,,,
,bird,0.8608193397521973,,,,,,,,
,outdoors,0.8601456880569458,,,,,,,,
,window,0.8584443926811218,,,,,,,,
,inside,0.8215757012367249,,,,,,,,
https://scontent.cdninstagram.com/t51.2885-15/e35/12905285_1051254084945183_1578012955_n.jpg,money,0.9986748695373535,Commerce,,,,"Product/brand shots",,,
,money,0.9981880784034729,,,,,,,,
,paper,0.9976890087127686,,,,,,,,
,cash,0.9969444870948792,,,,,,,,
,wealth,0.993139922618866,,,,,,,,
,finance,0.9930810928344727,,,,,,,,
,savings,0.9926552772521973,,,,,,,,
,business,0.9921499490737915,,,,,,,,
,bank,0.9862183332443237,,,,,,,,
,note,0.9805735349655151,,,,,,,,
,euro,0.9801317453384399,,,,,,,,
,laundry,0.976042628288269,,,,,,,,
,financial,0.9634648561477661,,,,,,,,
,number,0.961810290813446,,,,,,,,
,economy,0.9615960121154785,,,,,,,,
,note,0.9571937322616577,,,,,,,,
,debt,0.9536234140396118,,,,,,,,
,dollar,0.9497528672218323,,,,,,,,
,payment,0.9463293552398682,,,,,,,,
,investment,0.9460559487342834,,,,,,,,
https://scontent.cdninstagram.com/t51.2885-15/e35/12081106_939967142726353_1757867749_n.jpg,cage,0.9868013262748718,Recreation,,,,"Winter Sports",,,
,indoors,0.9711946249008179,,,,,,,,
,rat,0.9519449472427368,,,,,,,,
,people,0.9483554363250732,,,,,,,,
,mammal,0.9370883703231812,,,,,,,,
,catch,0.9366122484207153,,,,,,,,
,mouse,0.9321973323822021,,,,,,,,
,pet,0.9316065907478333,,,,,,,,
,domestic,0.9283695220947266,,,,,,,,
,one,0.922892153263092,,,,,,,,
,animal,0.9089623689651489,,,,,,,,
,reflection,0.8977290391921997,,,,,,,,
,business,0.8831284642219543,,,,,,,,
,trap,0.8829456567764282,,,,,,,,
,food,0.8743422627449036,,,,,,,,
,"no person",0.8739231824874878,,,,,,,,
,bird,0.8608193397521973,,,,,,,,
,outdoors,0.8601456880569458,,,,,,,,
,window,0.8584443926811218,,,,,,,,
,inside,0.8215757012367249,,,,,,,,
https://scontent.cdninstagram.com/t51.2885-15/e35/12905285_1051254084945183_1578012955_n.jpg,money,0.9986748695373535,Commerce,,,,"Product/brand shots",,,
,money,0.9981880784034729,,,,,,,,
,paper,0.9976890087127686,,,,,,,,
,cash,0.9969444870948792,,,,,,,,
,wealth,0.993139922618866,,,,,,,,
,finance,0.9930810928344727,,,,,,,,
,savings,0.9926552772521973,,,,,,,,
,business,0.9921499490737915,,,,,,,,
,bank,0.9862183332443237,,,,,,,,
,note,0.9805735349655151,,,,,,,,
,euro,0.9801317453384399,,,,,,,,
,laundry,0.976042628288269,,,,,,,,
,financial,0.9634648561477661,,,,,,,,
,number,0.961810290813446,,,,,,,,
,economy,0.9615960121154785,,,,,,,,
,note,0.9571937322616577,,,,,,,,
,debt,0.9536234140396118,,,,,,,,
,dollar,0.9497528672218323,,,,,,,,
,payment,0.9463293552398682,,,,,,,,
,investment,0.9460559487342834,,,,,,,,
https://scontent.cdninstagram.com/t51.2885-15/e35/12599392_804421903024068_481797032_n.jpg,paper,0.9951332807540894,Gifts,,,,Gifts-s,,,
,"no person",0.9940813779830933,,,,,,,,
,business,0.9813392162322998,,,,,,,,
,document,0.9808807373046875,,,,,,,,
,writing,0.9580256938934326,,,,,,,,
,post,0.910434365272522,,,,,,,,
,administration,0.8836066722869873,,,,,,,,
,write,0.8813716769218445,,,,,,,,
,indoors,0.8789021968841553,,,,,,,,
,travel,0.8778066635131836,,,,,,,,
,empty,0.8589125871658325,,,,,,,,
,handwritten,0.8515527844429016,,,,,,,,
,one,0.8506476879119873,,,,,,,,
,identity,0.8463544845581055,,,,,,,,
,secrecy,0.8403139114379883,,,,,,,,
,education,0.8392915725708008,,,,,,,,
,security,0.8243640661239624,,,,,,,,
,correspondence,0.8188208341598511,,,,,,,,
,page,0.8084126710891724,,,,,,,,
,text,0.8073199987411499,,,,,,,,
