url,class,score
<<<<<<< HEAD
https://scontent.cdninstagram.com/t51.2885-15/e35/13381395_487639754764518_133414342_n.jpg,woman,0.977778316
,people,0.97684586
,portrait,0.968735039
,togetherness,0.948056698
,two,0.945362389
,man,0.937256813
,child,0.930687904
,girl,0.920526743
,outdoors,0.914938211
,love,0.892519236
,group,0.884234846
,adult,0.883826017
,happiness,0.882390141
,friendship,0.868748903
,education,0.86827457
,family,0.861142337
,facial expression,0.855996728
,adolescent,0.851144671
,school,0.848398268
,fun,0.845802844
https://scontent.cdninstagram.com/t51.2885-15/e35/13557167_957304474378962_840626660_n.jpg,dog,0.994285583
,friendship,0.987310648
,cute,0.984749317
,fun,0.982555747
,sunglasses,0.974444211
,love,0.973492742
,animal,0.966330469
,puppy,0.96281302
,canine,0.958501577
,pet,0.948621631
,young,0.946944952
,funny,0.944912672
,little,0.922349572
,grass,0.904527187
,portrait,0.902682781
,fur,0.899533689
,togetherness,0.891232252
,summer,0.879307628
,looking,0.859286666
,humor,0.857577324
https://scontent.cdninstagram.com/t51.2885-15/e35/13473246_1139625969435601_824527708_n.jpg,rose,0.999669254
,bouquet,0.999510407
,flower,0.999132812
,wedding,0.998163879
,floral,0.996925414
,arrangement,0.996785998
,bride,0.995064616
,cluster,0.994074047
,love,0.99335593
,florist,0.992802739
,flora,0.992043495
,romance,0.991966844
,petal,0.99175334
,bridal,0.989836156
,gift,0.989488363
,marriage,0.988423765
,blooming,0.982190549
,decoration,0.981984735
,engagement,0.978148401
,celebration,0.965236604
https://scontent.cdninstagram.com/t51.2885-15/e35/13398753_1790052437893688_1499143224_n.jpg,woman,0.990089715
,fashion,0.966676235
,people,0.958887935
,girl,0.953948498
,pretty,0.95008111
,portrait,0.945311904
,indoors,0.944912672
,kimono,0.928710461
,cute,0.89374429
,adolescent,0.88471359
,college,0.882953823
,young,0.87600702
,model,0.856619716
,beautiful,0.84824419
,geisha,0.847019017
,one,0.836348891
,outdoors,0.829488635
,child,0.820131063
,hair,0.815122008
,serious,0.812315464
https://scontent.cdninstagram.com/t51.2885-15/e35/13381177_710092912462348_1569555052_n.jpg,education,0.953725874
,science,0.937968493
,people,0.936773598
,wear,0.932299614
,portrait,0.925630689
,woman,0.92424643
,school,0.910475254
,one,0.90986073
,business,0.904201388
,adult,0.889671385
,display,0.888155222
,intelligence,0.887059927
,writing,0.874052048
,girl,0.855214596
,retro,0.836861253
,indoors,0.822021842
,facial expression,0.820764184
,technology,0.820637405
,fashion,0.817131162
,chalk,0.81293112
https://scontent.cdninstagram.com/t51.2885-15/e35/13531891_1700223693572892_1344465850_n.jpg,nature,0.993474603
,food,0.992777348
,fruit,0.992015541
,flora,0.98878181
,agriculture,0.985515058
,grow,0.983604908
,garden,0.981972098
,tropical,0.978853703
,no person,0.975594521
,leaf,0.974227846
,plantation,0.972693086
,tree,0.970312595
,vegetable,0.963890135
,growth,0.961945057
,hanging,0.958973289
,farm,0.958183646
,exotic,0.953319252
,color,0.951990366
,outdoors,0.946643114
,growth,0.938580453
https://scontent.cdninstagram.com/t51.2885-15/e35/13398562_956841841081724_203846969_n.jpg,graduation,0.987154007
,woman,0.966454387
,college,0.961344898
,diploma,0.95908308
,business,0.955808043
,accomplishment,0.954067349
,fashion,0.953528345
,success,0.950921655
,university,0.950459123
,outdoors,0.934653163
,education,0.932739258
,gown,0.929627299
,mortarboard,0.928640604
,success,0.928536534
,people,0.925791562
,indoors,0.910825968
,young,0.895646453
,pretty,0.89134872
,contemporary,0.876909375
,intelligence,0.875795364
https://scontent.cdninstagram.com/t51.2885-15/e35/13395077_212294579169488_1618343462_n.jpg,classroom,0.999011278
,school,0.998766661
,chalkboard,0.998424649
,class,0.9975245
,education,0.997011065
,chalk,0.99522543
,lesson,0.988304496
,mathematics,0.983161926
,schoolgirl,0.982526779
,elementary school,0.981168628
,teacher,0.977231145
,knowledge,0.967302024
,display,0.961082578
,elementary,0.946154118
,study,0.944676042
,college,0.939369559
,people,0.92915833
,writing,0.923079252
,indoors,0.913403392
,science,0.912474632
https://scontent.cdninstagram.com/t51.2885-15/e35/13414191_1798101600418621_968177223_n.jpg,business,0.972305536
,office,0.959846973
,desktop,0.953296781
,people,0.950308681
,one,0.937582016
,employee,0.936010599
,adult,0.931964278
,corporate,0.906542897
,building,0.900773525
,young,0.89372468
,paper,0.889456034
,person,0.885957718
,woman,0.881405532
,girl,0.87666738
,beautiful,0.85926044
,portrait,0.852113843
,outdoors,0.850497365
,sitting,0.812767386
,sit,0.809314251
,suit,0.803218484
https://scontent.cdninstagram.com/t51.2885-15/e35/13320019_625710460925854_1602487065_n.jpg,people,0.967466414
,woman,0.949619532
,portrait,0.943790436
,adult,0.939729095
,one,0.933249116
,building,0.929390252
,business,0.923901439
,outdoors,0.917985559
,architecture,0.913467407
,indoors,0.910037935
,girl,0.90914607
,man,0.902421534
,city,0.898209751
,university,0.895359755
,wear,0.882310212
,urban,0.871377587
,school,0.868908405
,education,0.860260129
,expression,0.833286524
,office,0.821457148
https://scontent.cdninstagram.com/t51.2885-15/e35/13380988_968561603265249_336571161_n.jpg,woman,0.987802982
,portrait,0.969937146
,fashion,0.968237281
,people,0.961907268
,girl,0.940755725
,kimono,0.925373733
,wear,0.920974433
,indoors,0.919012606
,geisha,0.916600347
,adult,0.898085296
,facial expression,0.894747853
,outdoors,0.891754568
,model,0.880084336
,one,0.873646617
,school,0.865785599
,window,0.865278006
,pretty,0.85964793
,daylight,0.855738163
,education,0.851333737
,adolescent,0.849121213
https://scontent.cdninstagram.com/t51.2885-15/e35/13402758_864233763722472_1743417195_n.jpg,people,0.979735851
,portrait,0.976051152
,one,0.970148623
,adult,0.960609674
,man,0.955608606
,fashion,0.946139216
,woman,0.939841032
,girl,0.930380464
,wear,0.922099471
,outdoors,0.911686838
,sky,0.86547482
,young,0.864934206
,model,0.862478495
,face,0.82027781
,looking,0.804426432
,person,0.791328669
,side view,0.784985304
,adolescent,0.783432484
,business,0.781157255
,sexy,0.768835187
https://scontent.cdninstagram.com/t51.2885-15/e35/13397704_303670876632361_1920194497_n.jpg,woman,0.979082346
,people,0.955434084
,business,0.945397496
,adult,0.933556378
,man,0.925395787
,wear,0.91709125
,accomplishment,0.879245281
,interaction,0.870160162
,two,0.866589427
,cooperation,0.864421606
,education,0.862068355
,office,0.861308455
,looking,0.858711839
,confidence,0.854477286
,indoors,0.854466915
,facial expression,0.839535236
,employee,0.836403012
,portrait,0.820743203
,teamwork,0.81707406
,group,0.810506821
https://scontent.cdninstagram.com/t51.2885-15/e35/13398934_1799453823611542_1864863994_n.jpg,people,0.990585804
,adult,0.981228054
,portrait,0.977131188
,girl,0.970760942
,woman,0.970198929
,one,0.966847777
,business,0.950858951
,city,0.945052028
,daylight,0.938921392
,facial expression,0.936361909
,wear,0.934983671
,building,0.930331111
,bridge,0.923516154
,architecture,0.922708869
,sky,0.921811581
,travel,0.921771169
,window,0.915674925
,lifestyle,0.914552629
,telephone,0.913344979
,outdoors,0.89938581
https://scontent.cdninstagram.com/t51.2885-15/e35/13402458_578063789022242_145773659_n.jpg,dairy product,0.985603929
,no person,0.973056138
,food,0.962647676
,table,0.959666371
,fruit,0.948626399
,indoors,0.942803025
,chocolate,0.938319147
,ice,0.935339093
,cream,0.93086648
,sweet,0.91440624
,party,0.914019406
,furniture,0.909535766
,drink,0.888405204
,cup,0.883843422
,interior design,0.879929185
,two,0.868082762
,still life,0.864426374
,tableware,0.863998413
,one,0.852807879
,decoration,0.832169831
https://scontent.cdninstagram.com/t51.2885-15/e35/13380923_596299650547891_1876613676_n.jpg,people,0.992678225
,adult,0.975399256
,business,0.971066415
,building,0.959183693
,city,0.957932055
,competition,0.95747292
,one,0.953824401
,man,0.945226789
,recreation,0.943400621
,action,0.942348301
,daylight,0.939589739
,outdoors,0.938648283
,street,0.936424434
,woman,0.920726418
,urban,0.913382769
,architecture,0.909193397
,landscape,0.904115677
,travel,0.886366129
,motion,0.885176957
,office,0.871063828
https://scontent.cdninstagram.com/t51.2885-15/e35/13388694_147468592329383_901893715_n.jpg,people,0.977869868
,woman,0.974329233
,one,0.966672897
,adult,0.956874728
,wear,0.954760432
,indoors,0.942959547
,business,0.94254601
,fashion,0.937767148
,portrait,0.936272264
,girl,0.907146215
,young,0.905502439
,music,0.873233795
,education,0.860746324
,room,0.839108884
,facial expression,0.8390522
,pretty,0.826527834
,cute,0.825401425
,adolescent,0.822952151
,telephone,0.817834258
,looking,0.814077973
https://scontent.cdninstagram.com/t51.2885-15/e35/13413437_1588552084777580_1613807950_n.jpg,group,0.991368532
,child,0.970422804
,man,0.969429255
,woman,0.967094779
,adult,0.955392897
,group,0.947383523
,people,0.945793688
,fun,0.94288075
,togetherness,0.938493967
,office,0.93459034
,education,0.928763986
,three,0.928621173
,young,0.925647259
,friendship,0.913652301
,lifestyle,0.905988812
,family,0.902569175
,school,0.900956094
,facial expression,0.900653422
,four,0.898190498
,room,0.898085117
https://scontent.cdninstagram.com/t51.2885-15/e35/13398362_1723085354628685_533672804_n.jpg,people,0.993380547
,business,0.983569801
,adult,0.980224967
,man,0.978821635
,one,0.966220975
,office,0.949306369
,building,0.946508288
,portrait,0.941402674
,finance,0.922885299
,city,0.905050874
,daylight,0.896933138
,wear,0.888425469
,competition,0.882670283
,ambition,0.873820245
,outdoors,0.866024613
,action,0.859831452
,landscape,0.849837124
,leader,0.844367862
,light,0.833280981
,woman,0.829718947
https://scontent.cdninstagram.com/t51.2885-15/e35/13414172_289421941406008_1791738867_n.jpg,adult,0.986578584
,woman,0.982825398
,group,0.970346272
,room,0.96977973
,people,0.967683792
,office,0.966778398
,facial expression,0.966776967
,business,0.965271831
,employee,0.952289522
,man,0.944826484
,education,0.940663457
,indoors,0.940130711
,league,0.934411108
,two,0.934052587
,teamwork,0.932045579
,togetherness,0.924678326
,portrait,0.913975835
,happiness,0.903814554
,wear,0.899136305
,cooperation,0.890473306
https://scontent.cdninstagram.com/t51.2885-15/e35/13422954_491272451069316_1546481280_n.jpg,man,0.98481214
,group,0.980204463
,adult,0.978794098
,office,0.97353363
,woman,0.971734524
,employee,0.966110945
,people,0.958303511
,sitting,0.939597368
,desk,0.936266422
,business,0.936263084
,room,0.931224942
,table,0.92728889
,education,0.919897139
,furniture,0.91534245
,indoors,0.911895037
,corporate,0.902760446
,teamwork,0.89633745
,work,0.883990645
,classroom,0.872712553
,executive,0.863940477
https://scontent.cdninstagram.com/t51.2885-15/e35/13437403_522925584575722_216775761_n.jpg,woman,0.980715036
,people,0.979814291
,group,0.978581488
,portrait,0.970806122
,outdoors,0.968064308
,happiness,0.961200714
,facial expression,0.955322146
,man,0.949174702
,adult,0.941244245
,togetherness,0.939525366
,family,0.935100913
,friendship,0.926882505
,girl,0.926396251
,wear,0.915239096
,child,0.912560225
,fun,0.904175699
,school,0.901361942
,enjoyment,0.894402027
,lifestyle,0.892535925
,adolescent,0.871932626
https://scontent.cdninstagram.com/t51.2885-15/e35/13423007_830002110434342_1907228_n.jpg,woman,0.98750937
,pretty,0.929267287
,people,0.9270913
,togetherness,0.927041948
,outdoors,0.926081359
,fun,0.91772902
,love,0.915881574
,adolescent,0.910802722
,cute,0.910030007
,joy,0.908046126
,fashion,0.902910709
,summer,0.879541099
,nature,0.875416994
,child,0.866871774
,vertical,0.864004135
,portrait,0.860346079
,young,0.859699726
,casual,0.854040861
,enjoyment,0.847567976
,girl,0.840986967
https://scontent.cdninstagram.com/t51.2885-15/e35/13385846_1019495194766338_1753187429_n.jpg,indoors,0.996977091
,safety,0.981544137
,people,0.979611814
,vehicle,0.965472043
,wear,0.961815417
,one,0.953604102
,woman,0.951339722
,room,0.940923035
,adult,0.938981891
,portrait,0.932251692
,family,0.926939487
,man,0.9179492
,security,0.915704548
,industry,0.913796782
,transportation system,0.902615309
,light,0.901427448
,winter,0.894754767
,car,0.893829048
,security,0.893451691
,box,0.879262865
https://scontent.cdninstagram.com/l/t51.2885-15/e35/13355521_1738473153036155_893606814_n.jpg,no person,0.988528371
,wood,0.98558116
,drink,0.978392959
,food,0.976390004
,bottle,0.945582747
,wooden,0.94026351
,health,0.938877106
,indoors,0.938139796
,family,0.930155039
,coffee,0.928487718
,color,0.926546693
,breakfast,0.910435557
,traditional,0.906435311
,table,0.892495751
,container,0.852449298
,healthy,0.845535874
,cup,0.843318582
,medicine,0.834903359
,dawn,0.829359293
,delicious,0.818454683
https://scontent.cdninstagram.com/t51.2885-15/sh0.08/e35/p750x750/13414268_975338999230502_1964508221_n.jpg,woman,0.98869276
,man,0.95775032
,people,0.957626581
,two,0.953447342
,fashion,0.917271376
,adult,0.913079023
,wear,0.911892653
,looking,0.883876324
,portrait,0.877025247
,young,0.861719251
,education,0.839476824
,girl,0.832343459
,togetherness,0.832037389
,business,0.830768943
,group,0.802610934
,outdoors,0.785990953
,casual,0.780082822
,contemporary,0.778080165
,lifestyle,0.771573305
,adolescent,0.761326551
https://scontent.cdninstagram.com/t51.2885-15/e35/13388746_1719230021664417_317154708_n.jpg,people,0.979365468
,graffiti,0.974443078
,woman,0.950913429
,adult,0.945462465
,painting,0.919472992
,one,0.893522441
,wall,0.8886168
,art,0.87920171
,creativity,0.866030216
,flower,0.861035466
,outdoors,0.846912742
,business,0.845614135
,portrait,0.841949224
,text,0.834078312
,man,0.832137585
,festival,0.8279531
,sign,0.82386899
,girl,0.811872602
,culture,0.80635649
,urban,0.804936051
https://scontent.cdninstagram.com/t51.2885-15/e35/13422874_1733638663585279_704244626_n.jpg,group,0.991448641
,woman,0.988655567
,adult,0.983242154
,man,0.975459218
,education,0.975041628
,room,0.965176105
,classroom,0.956690788
,togetherness,0.95532161
,desk,0.953940392
,indoors,0.950602889
,office,0.942760944
,furniture,0.941408753
,people,0.941281736
,teamwork,0.937314153
,facial expression,0.936672568
,table,0.935252905
,school,0.921460748
,child,0.917198062
,sitting,0.912628591
,class,0.910985708
https://scontent.cdninstagram.com/t51.2885-15/e35/13385892_1611765742471232_1783896794_n.jpg,woman,0.98787415
,fashion,0.985236764
,indoors,0.970413864
,portrait,0.968855381
,girl,0.966966152
,one,0.961128473
,people,0.942971528
,adult,0.937492132
,wear,0.923377454
,pretty,0.921049535
,young,0.916189611
,dress,0.903562784
,shopping,0.902114034
,trendy,0.897144556
,contemporary,0.888697624
,model,0.880908966
,glamour,0.87780261
,fun,0.875486255
,sexy,0.856972098
,beautiful,0.848620057
https://scontent.cdninstagram.com/t51.2885-15/e35/13408781_877714152337938_20792320_n.jpg,travel,0.992745519
,water,0.992114902
,evening,0.989495635
,city,0.981316984
,no person,0.968253493
,river,0.964158714
,dusk,0.963337541
,transportation system,0.962638617
,light,0.957109571
,harbor,0.949548125
,illuminated,0.948607326
,building,0.947270751
,waterfront,0.947213054
,architecture,0.942724228
,sea,0.939069867
,urban,0.933928013
,sky,0.932595253
,reflection,0.923726916
,cityscape,0.921040118
,outdoors,0.916049838
https://scontent.cdninstagram.com/t51.2885-15/e35/13381312_1726638994273856_753642419_n.jpg,woman,0.98339045
,adolescent,0.979937196
,child,0.978589296
,friendship,0.97422719
,student,0.971031785
,man,0.955541611
,togetherness,0.955236554
,education,0.935604334
,school,0.928378344
,fun,0.923132539
,college,0.919654012
,group,0.906136394
,people,0.890970349
,casual,0.880602002
,laughing,0.871506393
,looking,0.862395644
,elementary school,0.844162822
,joy,0.833745897
,love,0.822496712
,teamwork,0.818401098
https://scontent.cdninstagram.com/t51.2885-15/s640x640/e15/13329150_1083696811710586_1243974424_n.jpg,city,0.992912054
,water,0.9917081
,evening,0.990073442
,travel,0.987166047
,river,0.982284307
,urban,0.970777631
,bridge,0.970324516
,light,0.966934502
,cityscape,0.965558648
,building,0.961179495
,waterfront,0.959653139
,opera,0.958307266
,no person,0.957519054
,reflection,0.955481648
,architecture,0.952576995
,festival,0.940434456
,harbor,0.934086323
,hotel,0.933706522
,sky,0.932673275
,dusk,0.931039691
https://scontent.cdninstagram.com/t51.2885-15/e35/13402143_1796944553872074_1369821709_n.jpg,water,0.992696822
,woman,0.985296369
,girl,0.980457306
,summer,0.9779284
,water,0.970623195
,sea,0.969117522
,beach,0.953212619
,beautiful,0.951987386
,travel,0.950190187
,nature,0.948121548
,model,0.94619453
,pool,0.940960824
,sexy,0.938782454
,ocean,0.93585968
,relaxation,0.924625039
,portrait,0.922776282
,fashion,0.919242322
,young,0.915396571
,leisure,0.911627054
,people,0.905428648
https://scontent.cdninstagram.com/t51.2885-15/e35/13437234_1645398575782156_2140423060_n.jpg,street,0.988622546
,shopping,0.985328197
,people,0.954888821
,city,0.944635332
,urban,0.937764466
,road,0.93707037
,man,0.888216019
,vehicle,0.864669263
,pavement,0.849633574
,woman,0.848760188
,commerce,0.828025579
,outdoors,0.827208638
,fashion,0.82542336
,luggage,0.81629324
,offense,0.813042045
,market,0.81270802
,one,0.791338563
,cart,0.790116489
,portrait,0.779400945
,shop,0.776366949
https://scontent.cdninstagram.com/t51.2885-15/e35/13392734_887758371330756_590002843_n.jpg,food,0.997805834
,beer,0.995188773
,drink,0.99006331
,knife,0.987898707
,table,0.986852884
,restaurant,0.981171966
,meal,0.97744441
,people,0.974551797
,no person,0.969448328
,plate,0.953494668
,dinner,0.949128926
,tableware,0.948466778
,glass,0.947420597
,man,0.937727869
,indoors,0.934481978
,lunch,0.930283546
,breakfast,0.923187375
,bar,0.92032218
,fork,0.919643581
,adult,0.918241024
https://scontent.cdninstagram.com/t51.2885-15/e35/13408941_543784519132005_1974477920_n.jpg,woman,0.9822101
,fashion,0.96682179
,girl,0.966820598
,people,0.950604439
,beautiful,0.943494022
,young,0.915143013
,one,0.904411435
,dress,0.894427598
,summer,0.883324265
,hair,0.878728986
,wind,0.876881301
,adult,0.874097943
,festival,0.865436435
,face,0.863809884
,portrait,0.860811353
,outdoors,0.850166082
,desktop,0.838725328
,pretty,0.834453583
,style,0.831950188
,person,0.825664818
https://scontent.cdninstagram.com/t51.2885-15/e35/13402222_1102593549820708_651675801_n.jpg,woman,0.996817827
,travel,0.994828463
,girl,0.987387419
,summer,0.985443354
,people,0.985421121
,sky,0.979131341
,water,0.976552367
,outdoors,0.9755615
,nature,0.964153528
,beautiful,0.953857422
,window,0.952866256
,portrait,0.951374531
,one,0.949872792
,vacation,0.947869956
,young,0.947174847
,leisure,0.946089149
,train,0.945386171
,pretty,0.93777132
,city,0.930099487
,fashion,0.927667141
https://scontent.cdninstagram.com/t51.2885-15/e35/13402636_1648377742152965_1234935056_n.jpg,no person,0.988786221
,food,0.973902047
,delicious,0.969761133
,health,0.934548855
,breakfast,0.930615008
,nutrition,0.926897824
,wood,0.916681945
,cooking,0.90930891
,traditional,0.906230032
,homemade,0.895407319
,baking,0.891334891
,ingredients,0.887305498
,dinner,0.883886695
,sugar,0.862886965
,bread,0.852816522
,butter,0.849475622
,lunch,0.84243083
,sweet,0.838074327
,cuisine,0.836444497
,vegetable,0.810585618
https://scontent.cdninstagram.com/t51.2885-15/e35/13381345_1620654494917815_679373757_n.jpg,festival,0.997022688
,city,0.994542837
,light,0.99418354
,evening,0.989579201
,building,0.979997277
,road,0.975444198
,street,0.973344803
,skyscraper,0.961614728
,urban,0.954441309
,travel,0.949752629
,cityscape,0.947509527
,motion,0.94199121
,action,0.935143232
,hotel,0.935131073
,downtown,0.926368058
,blur,0.924110889
,business,0.923976183
,bridge,0.91481328
,dusk,0.912498713
,architecture,0.91107887
https://scontent.cdninstagram.com/t51.2885-15/e35/13414326_1056883101034307_262697884_n.jpg,travel,0.995727658
,woman,0.995671391
,summer,0.991404891
,girl,0.987193227
,beach,0.985970497
,sky,0.982110739
,water,0.979465961
,sea,0.974219203
,fashion,0.960199416
,window,0.957387567
,vacation,0.955858588
,nature,0.955606282
,people,0.954847634
,train,0.944787204
,sexy,0.939264596
,sun,0.935469151
,portrait,0.934318721
,model,0.934188008
,ocean,0.930698872
,outdoors,0.929546952
https://scontent.cdninstagram.com/t51.2885-15/e35/13355495_1791910814374336_520007323_n.jpg,city,0.989566565
,architecture,0.985635519
,skyline,0.981276691
,building,0.979747176
,cityscape,0.974743128
,travel,0.973983288
,sky,0.971819103
,skyscraper,0.971689701
,downtown,0.971023798
,business,0.969771266
,urban,0.968976617
,modern,0.958687425
,water,0.947402954
,dusk,0.946677387
,no person,0.944620252
,bridge,0.932751656
,tower,0.929090142
,office,0.924955189
,pollution,0.92350316
,river,0.898406088
https://scontent.cdninstagram.com/t51.2885-15/e35/13402626_660411384116912_179456642_n.jpg,portrait,0.983795047
,woman,0.981577754
,people,0.980135679
,girl,0.975447893
,adult,0.968093276
,one,0.953603029
,beautiful,0.909646571
,fashion,0.89372617
,face,0.88321203
,wear,0.880475342
,facial expression,0.852948546
,young,0.851864636
,model,0.851127505
,music,0.85095787
,profile,0.846107244
,man,0.840386569
,brunette,0.838212132
,smile,0.826079726
,happiness,0.804710686
,person,0.79288578
https://scontent.cdninstagram.com/t51.2885-15/e35/13398877_104431669984823_787731623_n.jpg,tube,0.997591376
,airport,0.990655184
,people,0.989164829
,city,0.986497879
,street,0.985882163
,urban,0.966270089
,commuter,0.95884788
,train,0.95875001
,transportation system,0.953261495
,railway,0.952148616
,reflection,0.951610446
,escalator,0.947380424
,vehicle,0.943577647
,woman,0.939448118
,adult,0.938045144
,one,0.935066938
,luggage,0.93274039
,train,0.931522727
,departure,0.93144238
,portrait,0.924040914
https://scontent.cdninstagram.com/t51.2885-15/e35/13381066_124334707989491_904852985_n.jpg,child,0.994058847
,toy,0.981707096
,people,0.978802145
,mammal,0.948854208
,boy,0.94599843
,cute,0.935773373
,group,0.935121894
,teddy,0.906614065
,indoors,0.89831984
,no person,0.898138404
,baby,0.897889733
,dog,0.894990206
,family,0.885804176
,facial expression,0.88526696
,girl,0.881270945
,little,0.880171657
,doll,0.874970913
,wear,0.873593688
,one,0.865856767
,fun,0.865825355
https://scontent.cdninstagram.com/t51.2885-15/e35/13381358_1005440232865480_1268678842_n.jpg,water,0.989001513
,woman,0.985049129
,summer,0.980967045
,outdoors,0.980649471
,relaxation,0.976928592
,leisure,0.976284742
,travel,0.972290397
,recreation,0.963085055
,people,0.958476067
,beach,0.948531032
,nature,0.947737634
,fair weather,0.936763108
,enjoyment,0.932913303
,sky,0.932552516
,yoga,0.905135036
,one,0.900683284
,portrait,0.899820805
,sea,0.899261475
,health,0.885952711
,tropical,0.880887032
https://scontent.cdninstagram.com/t51.2885-15/e35/13423601_612920655532106_1886880294_n.jpg,water,0.991362333
,woman,0.984180689
,people,0.974787116
,girl,0.974093437
,travel,0.971856415
,portrait,0.968553066
,summer,0.935169399
,one,0.927801251
,outdoors,0.925725102
,fashion,0.921833038
,sea,0.920773268
,beach,0.909138203
,leisure,0.898363233
,adult,0.895328641
,recreation,0.894350886
,sky,0.885593891
,sun,0.876106024
,city,0.875383973
,sunset,0.874726653
,fun,0.869844913
https://scontent.cdninstagram.com/t51.2885-15/e35/13397563_573185462852399_1165470215_n.jpg,drink,0.99075532
,glass,0.964006424
,food,0.95187676
,milk,0.948454142
,refreshment,0.922666073
,cold,0.922609091
,ice,0.919439852
,cup,0.912229657
,fruit,0.902277827
,sweet,0.899811029
,tea,0.890325308
,cocktail,0.888863981
,breakfast,0.886606455
,straw,0.874064326
,vertical,0.873043597
,summer,0.864516497
,table,0.863594174
,color,0.855645299
,indoors,0.853066564
,bar,0.851265073
https://scontent.cdninstagram.com/t51.2885-15/e35/13408815_1797842467101469_534080479_n.jpg,woman,0.979945481
,people,0.963137627
,education,0.937177539
,one,0.926305652
,indoors,0.914835036
,adolescent,0.912388921
,young,0.903683662
,fashion,0.898827434
,school,0.893314362
,portrait,0.892688513
,adult,0.886041403
,pretty,0.884672403
,business,0.873689294
,wear,0.872153163
,cute,0.865250587
,girl,0.854366183
,isolated,0.840603352
,success,0.832968414
,joy,0.826514602
,intelligence,0.824763477
https://scontent.cdninstagram.com/t51.2885-15/e35/13355505_478581629004521_268206101_n.jpg,fountain,0.998968363
,city,0.997134566
,water,0.996858239
,downtown,0.992807865
,business,0.992265224
,skyscraper,0.992214084
,architecture,0.990545392
,travel,0.989766717
,cityscape,0.987839937
,urban,0.983534634
,building,0.982247949
,river,0.981972992
,skyline,0.978050947
,hotel,0.974709332
,modern,0.96694386
,street,0.96406424
,office,0.959574819
,finance,0.955680549
,casino,0.955299616
,park,0.955073953
https://scontent.cdninstagram.com/t51.2885-15/e35/13422881_1095181093862169_1358649756_n.jpg,no person,0.985612869
,wood,0.983785748
,drink,0.982252598
,food,0.97626245
,coffee,0.941944003
,family,0.940011501
,indoors,0.937897325
,wooden,0.937298179
,bottle,0.935444593
,color,0.928094625
,health,0.916199684
,breakfast,0.912114859
,traditional,0.904824972
,table,0.904244304
,cup,0.889676511
,container,0.848156035
,dawn,0.844103217
,tea,0.842894435
,healthy,0.832430899
,ceramic,0.827954769
https://scontent.cdninstagram.com/t51.2885-15/e35/13408863_1637584383232573_1260370762_n.jpg,travel,0.982729673
,vacation,0.968693316
,no person,0.966960132
,fun,0.94833988
,traditional,0.947336078
,summer,0.946150899
,sky,0.920457721
,tourism,0.916431189
,design,0.914351106
,outdoors,0.907793403
,hotel,0.907184601
,luxury,0.901709437
,decoration,0.889730275
,water,0.886941254
,leisure,0.881063938
,architecture,0.876810551
,symbol,0.876425087
,gold,0.863498211
,ball,0.85027194
,casino,0.848985612
https://scontent.cdninstagram.com/t51.2885-15/s640x640/e15/13413493_887833404660796_1091877_n.jpg,watercraft,0.997509122
,water,0.995360494
,ship,0.992636919
,transportation system,0.991759539
,no person,0.986217856
,harbor,0.983409047
,travel,0.980296254
,river,0.978787303
,sea,0.975244999
,boat,0.969480813
,vehicle,0.958230138
,pier,0.95105803
,sky,0.950212836
,shipment,0.916471958
,barge,0.910603046
,port,0.896689951
,ferry,0.892807424
,outdoors,0.884321451
,waterfront,0.880418122
,bay,0.877764881
https://scontent.cdninstagram.com/t51.2885-15/e35/13422898_253777078323721_1136748751_n.jpg,people,0.987251163
,woman,0.971507072
,one,0.968896508
,travel,0.968004227
,adult,0.967333078
,music,0.928208709
,light,0.914776206
,wear,0.909786284
,business,0.892213941
,luxury,0.887418032
,industry,0.883402109
,vehicle,0.881988287
,technology,0.870774984
,transportation system,0.854352593
,indoors,0.850171506
,man,0.844483614
,girl,0.839770198
,recreation,0.822661161
,fashion,0.818269849
,portrait,0.81596148
https://scontent.cdninstagram.com/t51.2885-15/e35/13408947_520510161466441_610411273_n.jpg,city,0.989160657
,architecture,0.985376894
,water,0.980830193
,travel,0.96924758
,no person,0.968897402
,sky,0.950382829
,landscape,0.949655652
,skyline,0.948533773
,building,0.946094751
,cityscape,0.946089149
,urban,0.936651886
,outdoors,0.919557929
,sea,0.910138905
,seashore,0.907050192
,town,0.880950034
,hotel,0.875523865
,sight,0.871938527
,river,0.871760726
,ocean,0.85020709
,skyscraper,0.848677218
=======
https://scontent.cdninstagram.com/t51.2885-15/e35/13381395_487639754764518_133414342_n.jpg,woman,0.9777783155441284
,people,0.9768458604812622
,portrait,0.9687350392341614
,togetherness,0.948056697845459
,two,0.945362389087677
,man,0.9372568130493164
,child,0.9306879043579102
,girl,0.9205267429351807
,outdoors,0.91493821144104
,love,0.8925192356109619
,group,0.8842348456382751
,adult,0.8838260173797607
,happiness,0.8823901414871216
,friendship,0.8687489032745361
,education,0.8682745695114136
,family,0.8611423373222351
,facial expression,0.8559967279434204
,adolescent,0.8511446714401245
,school,0.8483982682228088
,fun,0.8458028435707092
https://scontent.cdninstagram.com/t51.2885-15/e35/13557167_957304474378962_840626660_n.jpg,dog,0.9942855834960938
,friendship,0.9873106479644775
,cute,0.9847493171691895
,fun,0.9825557470321655
,sunglasses,0.9744442105293274
,love,0.9734927415847778
,animal,0.9663304686546326
,puppy,0.9628130197525024
,canine,0.9585015773773193
,pet,0.9486216306686401
,young,0.9469449520111084
,funny,0.9449126720428467
,little,0.9223495721817017
,grass,0.9045271873474121
,portrait,0.9026827812194824
,fur,0.8995336890220642
,togetherness,0.8912322521209717
,summer,0.8793076276779175
,looking,0.8592866659164429
,humor,0.8575773239135742
https://scontent.cdninstagram.com/t51.2885-15/e35/13473246_1139625969435601_824527708_n.jpg,rose,0.9996692538261414
,bouquet,0.9995104074478149
,flower,0.9991328120231628
,wedding,0.9981638789176941
,floral,0.996925413608551
,arrangement,0.9967859983444214
,bride,0.9950646162033081
,cluster,0.9940740466117859
,love,0.993355929851532
,florist,0.9928027391433716
,flora,0.9920434951782227
,romance,0.9919668436050415
,petal,0.991753339767456
,bridal,0.9898361563682556
,gift,0.9894883632659912
,marriage,0.988423764705658
,blooming,0.9821905493736267
,decoration,0.9819847345352173
,engagement,0.9781484007835388
,celebration,0.9652366042137146
https://scontent.cdninstagram.com/t51.2885-15/e35/13381395_487639754764518_133414342_n.jpg,woman,0.9777783155441284
,people,0.9768458604812622
,portrait,0.9687350392341614
,togetherness,0.948056697845459
,two,0.945362389087677
,man,0.9372568130493164
,child,0.9306879043579102
,girl,0.9205267429351807
,outdoors,0.91493821144104
,love,0.8925192356109619
,group,0.8842348456382751
,adult,0.8838260173797607
,happiness,0.8823901414871216
,friendship,0.8687489032745361
,education,0.8682745695114136
,family,0.8611423373222351
,facial expression,0.8559967279434204
,adolescent,0.8511446714401245
,school,0.8483982682228088
,fun,0.8458028435707092
https://scontent.cdninstagram.com/t51.2885-15/e35/13398753_1790052437893688_1499143224_n.jpg,woman,0.9900897145271301
,fashion,0.9666762351989746
,people,0.9588879346847534
,girl,0.9539484977722168
,pretty,0.9500811100006104
,portrait,0.9453119039535522
,indoors,0.9449126720428467
,kimono,0.9287104606628418
,cute,0.8937442898750305
,adolescent,0.8847135901451111
,college,0.8829538226127625
,young,0.8760070204734802
,model,0.8566197156906128
,beautiful,0.8482441902160645
,geisha,0.8470190167427063
,one,0.8363488912582397
,outdoors,0.8294886350631714
,child,0.8201310634613037
,hair,0.8151220083236694
,serious,0.8123154640197754
https://scontent.cdninstagram.com/t51.2885-15/e35/13473246_1139625969435601_824527708_n.jpg,rose,0.9996692538261414
,bouquet,0.9995104074478149
,flower,0.9991328120231628
,wedding,0.9981638789176941
,floral,0.996925413608551
,arrangement,0.9967859983444214
,bride,0.9950646162033081
,cluster,0.9940740466117859
,love,0.993355929851532
,florist,0.9928027391433716
,flora,0.9920434951782227
,romance,0.9919668436050415
,petal,0.991753339767456
,bridal,0.9898361563682556
,gift,0.9894883632659912
,marriage,0.988423764705658
,blooming,0.9821905493736267
,decoration,0.9819847345352173
,engagement,0.9781484007835388
,celebration,0.9652366042137146
https://scontent.cdninstagram.com/t51.2885-15/e35/13381177_710092912462348_1569555052_n.jpg,education,0.9537258744239807
,science,0.9379684925079346
,people,0.9367735981941223
,wear,0.9322996139526367
,portrait,0.9256306886672974
,woman,0.9242464303970337
,school,0.9104752540588379
,one,0.9098607301712036
,business,0.9042013883590698
,adult,0.8896713852882385
,display,0.8881552219390869
,intelligence,0.8870599269866943
,writing,0.8740520477294922
,girl,0.8552145957946777
,retro,0.836861252784729
,indoors,0.8220218420028687
,facial expression,0.8207641839981079
,technology,0.8206374049186707
,fashion,0.8171311616897583
,chalk,0.8129311203956604
https://scontent.cdninstagram.com/t51.2885-15/e35/13531891_1700223693572892_1344465850_n.jpg,nature,0.9934746026992798
,food,0.9927773475646973
,fruit,0.992015540599823
,flora,0.9887818098068237
,agriculture,0.9855150580406189
,grow,0.983604907989502
,garden,0.9819720983505249
,tropical,0.978853702545166
,no person,0.9755945205688477
,leaf,0.9742278456687927
,plantation,0.9726930856704712
,tree,0.9703125953674316
,vegetable,0.9638901352882385
,growth,0.9619450569152832
,hanging,0.9589732885360718
,farm,0.9581836462020874
,exotic,0.953319251537323
,color,0.9519903659820557
,outdoors,0.9466431140899658
,growth,0.9385804533958435
https://scontent.cdninstagram.com/t51.2885-15/e35/13381177_710092912462348_1569555052_n.jpg,education,0.9537258744239807
,science,0.9379684925079346
,people,0.9367735981941223
,wear,0.9322996139526367
,portrait,0.9256306886672974
,woman,0.9242464303970337
,school,0.9104752540588379
,one,0.9098607301712036
,business,0.9042013883590698
,adult,0.8896713852882385
,display,0.8881552219390869
,intelligence,0.8870599269866943
,writing,0.8740520477294922
,girl,0.8552145957946777
,retro,0.836861252784729
,indoors,0.8220218420028687
,facial expression,0.8207641839981079
,technology,0.8206374049186707
,fashion,0.8171311616897583
,chalk,0.8129311203956604
https://scontent.cdninstagram.com/t51.2885-15/e35/13398562_956841841081724_203846969_n.jpg,graduation,0.9871540069580078
,woman,0.9664543867111206
,college,0.9613448977470398
,diploma,0.959083080291748
,business,0.9558080434799194
,accomplishment,0.9540673494338989
,fashion,0.9535283446311951
,success,0.9509216547012329
,university,0.9504591226577759
,outdoors,0.9346531629562378
,education,0.9327392578125
,gown,0.9296272993087769
,mortarboard,0.928640604019165
,success,0.9285365343093872
,people,0.9257915616035461
,indoors,0.9108259677886963
,young,0.8956464529037476
,pretty,0.8913487195968628
,contemporary,0.8769093751907349
,intelligence,0.8757953643798828
https://scontent.cdninstagram.com/t51.2885-15/e35/13395077_212294579169488_1618343462_n.jpg,classroom,0.9990112781524658
,school,0.9987666606903076
,chalkboard,0.9984246492385864
,class,0.9975244998931885
,education,0.9970110654830933
,chalk,0.9952254295349121
,lesson,0.9883044958114624
,mathematics,0.9831619262695312
,schoolgirl,0.9825267791748047
,elementary school,0.9811686277389526
,teacher,0.9772311449050903
,knowledge,0.9673020243644714
,display,0.9610825777053833
,elementary,0.9461541175842285
,study,0.9446760416030884
,college,0.9393695592880249
,people,0.9291583299636841
,writing,0.923079252243042
,indoors,0.9134033918380737
,science,0.9124746322631836
https://scontent.cdninstagram.com/t51.2885-15/e35/13557167_957304474378962_840626660_n.jpg,dog,0.9942855834960938
,friendship,0.9873106479644775
,cute,0.9847493171691895
,fun,0.9825557470321655
,sunglasses,0.9744442105293274
,love,0.9734927415847778
,animal,0.9663304686546326
,puppy,0.9628130197525024
,canine,0.9585015773773193
,pet,0.9486216306686401
,young,0.9469449520111084
,funny,0.9449126720428467
,little,0.9223495721817017
,grass,0.9045271873474121
,portrait,0.9026827812194824
,fur,0.8995336890220642
,togetherness,0.8912322521209717
,summer,0.8793076276779175
,looking,0.8592866659164429
,humor,0.8575773239135742
https://scontent.cdninstagram.com/t51.2885-15/e35/13414191_1798101600418621_968177223_n.jpg,business,0.9723055362701416
,office,0.9598469734191895
,desktop,0.9532967805862427
,people,0.9503086805343628
,one,0.9375820159912109
,employee,0.9360105991363525
,adult,0.9319642782211304
,corporate,0.9065428972244263
,building,0.9007735252380371
,young,0.8937246799468994
,paper,0.889456033706665
,person,0.8859577178955078
,woman,0.8814055323600769
,girl,0.8766673803329468
,beautiful,0.8592604398727417
,portrait,0.8521138429641724
,outdoors,0.8504973649978638
,sitting,0.8127673864364624
,sit,0.8093142509460449
,suit,0.8032184839248657
https://scontent.cdninstagram.com/t51.2885-15/e35/13320019_625710460925854_1602487065_n.jpg,people,0.967466413974762
,woman,0.9496195316314697
,portrait,0.9437904357910156
,adult,0.9397290945053101
,one,0.9332491159439087
,building,0.9293902516365051
,business,0.9239014387130737
,outdoors,0.9179855585098267
,architecture,0.9134674072265625
,indoors,0.9100379347801208
,girl,0.9091460704803467
,man,0.9024215340614319
,city,0.8982097506523132
,university,0.8953597545623779
,wear,0.8823102116584778
,urban,0.8713775873184204
,school,0.8689084053039551
,education,0.8602601289749146
,expression,0.8332865238189697
,office,0.8214571475982666
https://scontent.cdninstagram.com/t51.2885-15/e35/13398562_956841841081724_203846969_n.jpg,graduation,0.9871540069580078
,woman,0.9664543867111206
,college,0.9613448977470398
,diploma,0.959083080291748
,business,0.9558080434799194
,accomplishment,0.9540673494338989
,fashion,0.9535283446311951
,success,0.9509216547012329
,university,0.9504591226577759
,outdoors,0.9346531629562378
,education,0.9327392578125
,gown,0.9296272993087769
,mortarboard,0.928640604019165
,success,0.9285365343093872
,people,0.9257915616035461
,indoors,0.9108259677886963
,young,0.8956464529037476
,pretty,0.8913487195968628
,contemporary,0.8769093751907349
,intelligence,0.8757953643798828
https://scontent.cdninstagram.com/t51.2885-15/e35/13414191_1798101600418621_968177223_n.jpg,business,0.9723055362701416
,office,0.9598469734191895
,desktop,0.9532967805862427
,people,0.9503086805343628
,one,0.9375820159912109
,employee,0.9360105991363525
,adult,0.9319642782211304
,corporate,0.9065428972244263
,building,0.9007735252380371
,young,0.8937246799468994
,paper,0.889456033706665
,person,0.8859577178955078
,woman,0.8814055323600769
,girl,0.8766673803329468
,beautiful,0.8592604398727417
,portrait,0.8521138429641724
,outdoors,0.8504973649978638
,sitting,0.8127673864364624
,sit,0.8093142509460449
,suit,0.8032184839248657
https://scontent.cdninstagram.com/t51.2885-15/e35/13380988_968561603265249_336571161_n.jpg,woman,0.9878029823303223
,portrait,0.9699371457099915
,fashion,0.9682372808456421
,people,0.9619072675704956
,girl,0.9407557249069214
,kimono,0.9253737330436707
,wear,0.9209744334220886
,indoors,0.9190126061439514
,geisha,0.9166003465652466
,adult,0.8980852961540222
,facial expression,0.8947478532791138
,outdoors,0.8917545676231384
,model,0.8800843358039856
,one,0.87364661693573
,school,0.8657855987548828
,window,0.8652780055999756
,pretty,0.8596479296684265
,daylight,0.8557381629943848
,education,0.851333737373352
,adolescent,0.8491212129592896
https://scontent.cdninstagram.com/t51.2885-15/e35/13531891_1700223693572892_1344465850_n.jpg,nature,0.9934746026992798
,food,0.9927773475646973
,fruit,0.992015540599823
,flora,0.9887818098068237
,agriculture,0.9855150580406189
,grow,0.983604907989502
,garden,0.9819720983505249
,tropical,0.978853702545166
,no person,0.9755945205688477
,leaf,0.9742278456687927
,plantation,0.9726930856704712
,tree,0.9703125953674316
,vegetable,0.9638901352882385
,growth,0.9619450569152832
,hanging,0.9589732885360718
,farm,0.9581836462020874
,exotic,0.953319251537323
,color,0.9519903659820557
,outdoors,0.9466431140899658
,growth,0.9385804533958435
https://scontent.cdninstagram.com/t51.2885-15/e35/13402758_864233763722472_1743417195_n.jpg,people,0.9797358512878418
,portrait,0.9760511517524719
,one,0.9701486229896545
,adult,0.9606096744537354
,man,0.955608606338501
,fashion,0.9461392164230347
,woman,0.9398410320281982
,girl,0.9303804636001587
,wear,0.9220994710922241
,outdoors,0.9116868376731873
,sky,0.8654748201370239
,young,0.8649342060089111
,model,0.862478494644165
,face,0.8202778100967407
,looking,0.8044264316558838
,person,0.7913286685943604
,side view,0.7849853038787842
,adolescent,0.7834324836730957
,business,0.7811572551727295
,sexy,0.768835186958313
https://scontent.cdninstagram.com/t51.2885-15/e35/13397704_303670876632361_1920194497_n.jpg,woman,0.9790823459625244
,people,0.9554340839385986
,business,0.9453974962234497
,adult,0.9335563778877258
,man,0.9253957867622375
,wear,0.9170912504196167
,accomplishment,0.8792452812194824
,interaction,0.8701601624488831
,two,0.8665894269943237
,cooperation,0.8644216060638428
,education,0.8620683550834656
,office,0.8613084554672241
,looking,0.858711838722229
,confidence,0.8544772863388062
,indoors,0.8544669151306152
,facial expression,0.8395352363586426
,employee,0.8364030122756958
,portrait,0.820743203163147
,teamwork,0.8170740604400635
,group,0.8105068206787109
https://scontent.cdninstagram.com/t51.2885-15/e35/13320019_625710460925854_1602487065_n.jpg,people,0.967466413974762
,woman,0.9496195316314697
,portrait,0.9437904357910156
,adult,0.9397290945053101
,one,0.9332491159439087
,building,0.9293902516365051
,business,0.9239014387130737
,outdoors,0.9179855585098267
,architecture,0.9134674072265625
,indoors,0.9100379347801208
,girl,0.9091460704803467
,man,0.9024215340614319
,city,0.8982097506523132
,university,0.8953597545623779
,wear,0.8823102116584778
,urban,0.8713775873184204
,school,0.8689084053039551
,education,0.8602601289749146
,expression,0.8332865238189697
,office,0.8214571475982666
https://scontent.cdninstagram.com/t51.2885-15/e35/13402758_864233763722472_1743417195_n.jpg,people,0.9797358512878418
,portrait,0.9760511517524719
,one,0.9701486229896545
,adult,0.9606096744537354
,man,0.955608606338501
,fashion,0.9461392164230347
,woman,0.9398410320281982
,girl,0.9303804636001587
,wear,0.9220994710922241
,outdoors,0.9116868376731873
,sky,0.8654748201370239
,young,0.8649342060089111
,model,0.862478494644165
,face,0.8202778100967407
,looking,0.8044264316558838
,person,0.7913286685943604
,side view,0.7849853038787842
,adolescent,0.7834324836730957
,business,0.7811572551727295
,sexy,0.768835186958313
https://scontent.cdninstagram.com/t51.2885-15/e35/13398934_1799453823611542_1864863994_n.jpg,people,0.9905858039855957
,adult,0.9812280535697937
,portrait,0.977131187915802
,girl,0.9707609415054321
,woman,0.970198929309845
,one,0.9668477773666382
,business,0.9508589506149292
,city,0.9450520277023315
,daylight,0.9389213919639587
,facial expression,0.9363619089126587
,wear,0.9349836707115173
,building,0.9303311109542847
,bridge,0.9235161542892456
,architecture,0.9227088689804077
,sky,0.921811580657959
,travel,0.9217711687088013
,window,0.9156749248504639
,lifestyle,0.914552628993988
,telephone,0.9133449792861938
,outdoors,0.8993858098983765
https://scontent.cdninstagram.com/t51.2885-15/e35/13402458_578063789022242_145773659_n.jpg,dairy product,0.985603928565979
,no person,0.9730561375617981
,food,0.9626476764678955
,table,0.95966637134552
,fruit,0.9486263990402222
,indoors,0.9428030252456665
,chocolate,0.9383191466331482
,ice,0.935339093208313
,cream,0.9308664798736572
,sweet,0.9144062399864197
,party,0.9140194058418274
,furniture,0.9095357656478882
,drink,0.8884052038192749
,cup,0.8838434219360352
,interior design,0.8799291849136353
,two,0.8680827617645264
,still life,0.8644263744354248
,tableware,0.8639984130859375
,one,0.852807879447937
,decoration,0.8321698307991028
https://scontent.cdninstagram.com/t51.2885-15/e35/13380923_596299650547891_1876613676_n.jpg,people,0.9926782250404358
,adult,0.9753992557525635
,business,0.971066415309906
,building,0.9591836929321289
,city,0.9579320549964905
,competition,0.9574729204177856
,one,0.9538244009017944
,man,0.945226788520813
,recreation,0.9434006214141846
,action,0.942348301410675
,daylight,0.9395897388458252
,outdoors,0.9386482834815979
,street,0.9364244341850281
,woman,0.9207264184951782
,urban,0.9133827686309814
,architecture,0.9091933965682983
,landscape,0.9041156768798828
,travel,0.8863661289215088
,motion,0.885176956653595
,office,0.8710638284683228
https://scontent.cdninstagram.com/t51.2885-15/e35/13388694_147468592329383_901893715_n.jpg,people,0.9778698682785034
,woman,0.9743292331695557
,one,0.9666728973388672
,adult,0.9568747282028198
,wear,0.9547604322433472
,indoors,0.9429595470428467
,business,0.942546010017395
,fashion,0.9377671480178833
,portrait,0.9362722635269165
,girl,0.9071462154388428
,young,0.905502438545227
,music,0.8732337951660156
,education,0.8607463240623474
,room,0.8391088843345642
,facial expression,0.8390522003173828
,pretty,0.8265278339385986
,cute,0.8254014253616333
,adolescent,0.822952151298523
,telephone,0.8178342580795288
,looking,0.8140779733657837
https://scontent.cdninstagram.com/t51.2885-15/e35/13388694_147468592329383_901893715_n.jpg,people,0.9778698682785034
,woman,0.9743292331695557
,one,0.9666728973388672
,adult,0.9568747282028198
,wear,0.9547604322433472
,indoors,0.9429595470428467
,business,0.942546010017395
,fashion,0.9377671480178833
,portrait,0.9362722635269165
,girl,0.9071462154388428
,young,0.905502438545227
,music,0.8732337951660156
,education,0.8607463240623474
,room,0.8391088843345642
,facial expression,0.8390522003173828
,pretty,0.8265278339385986
,cute,0.8254014253616333
,adolescent,0.822952151298523
,telephone,0.8178342580795288
,looking,0.8140779733657837
https://scontent.cdninstagram.com/t51.2885-15/e35/13398934_1799453823611542_1864863994_n.jpg,people,0.9905858039855957
,adult,0.9812280535697937
,portrait,0.977131187915802
,girl,0.9707609415054321
,woman,0.970198929309845
,one,0.9668477773666382
,business,0.9508589506149292
,city,0.9450520277023315
,daylight,0.9389213919639587
,facial expression,0.9363619089126587
,wear,0.9349836707115173
,building,0.9303311109542847
,bridge,0.9235161542892456
,architecture,0.9227088689804077
,sky,0.921811580657959
,travel,0.9217711687088013
,window,0.9156749248504639
,lifestyle,0.914552628993988
,telephone,0.9133449792861938
,outdoors,0.8993858098983765
https://scontent.cdninstagram.com/t51.2885-15/e35/13413437_1588552084777580_1613807950_n.jpg,group,0.9913685321807861
,child,0.9704228043556213
,man,0.9694292545318604
,woman,0.9670947790145874
,adult,0.9553928971290588
,group,0.9473835229873657
,people,0.9457936882972717
,fun,0.9428807497024536
,togetherness,0.9384939670562744
,office,0.9345903396606445
,education,0.9287639856338501
,three,0.9286211729049683
,young,0.9256472587585449
,friendship,0.9136523008346558
,lifestyle,0.9059888124465942
,family,0.9025691747665405
,school,0.9009560942649841
,facial expression,0.9006534218788147
,four,0.8981904983520508
,room,0.8980851173400879
https://scontent.cdninstagram.com/t51.2885-15/e35/13380923_596299650547891_1876613676_n.jpg,people,0.9926782250404358
,adult,0.9753992557525635
,business,0.971066415309906
,building,0.9591836929321289
,city,0.9579320549964905
,competition,0.9574729204177856
,one,0.9538244009017944
,man,0.945226788520813
,recreation,0.9434006214141846
,action,0.942348301410675
,daylight,0.9395897388458252
,outdoors,0.9386482834815979
,street,0.9364244341850281
,woman,0.9207264184951782
,urban,0.9133827686309814
,architecture,0.9091933965682983
,landscape,0.9041156768798828
,travel,0.8863661289215088
,motion,0.885176956653595
,office,0.8710638284683228
https://scontent.cdninstagram.com/t51.2885-15/e35/13398362_1723085354628685_533672804_n.jpg,people,0.9933805465698242
,business,0.9835698008537292
,adult,0.9802249670028687
,man,0.9788216352462769
,one,0.9662209749221802
,office,0.9493063688278198
,building,0.9465082883834839
,portrait,0.9414026737213135
,finance,0.9228852987289429
,city,0.9050508737564087
,daylight,0.8969331383705139
,wear,0.8884254693984985
,competition,0.8826702833175659
,ambition,0.8738202452659607
,outdoors,0.8660246133804321
,action,0.8598314523696899
,landscape,0.8498371243476868
,leader,0.8443678617477417
,light,0.8332809805870056
,woman,0.8297189474105835
https://scontent.cdninstagram.com/t51.2885-15/e35/13380988_968561603265249_336571161_n.jpg,woman,0.9878029823303223
,portrait,0.9699371457099915
,fashion,0.9682372808456421
,people,0.9619072675704956
,girl,0.9407557249069214
,kimono,0.9253737330436707
,wear,0.9209744334220886
,indoors,0.9190126061439514
,geisha,0.9166003465652466
,adult,0.8980852961540222
,facial expression,0.8947478532791138
,outdoors,0.8917545676231384
,model,0.8800843358039856
,one,0.87364661693573
,school,0.8657855987548828
,window,0.8652780055999756
,pretty,0.8596479296684265
,daylight,0.8557381629943848
,education,0.851333737373352
,adolescent,0.8491212129592896
https://scontent.cdninstagram.com/t51.2885-15/e35/13414172_289421941406008_1791738867_n.jpg,adult,0.9865785837173462
,woman,0.9828253984451294
,group,0.9703462719917297
,room,0.9697797298431396
,people,0.9676837921142578
,office,0.9667783975601196
,facial expression,0.966776967048645
,business,0.9652718305587769
,employee,0.9522895216941833
,man,0.9448264837265015
,education,0.9406634569168091
,indoors,0.9401307106018066
,league,0.9344111084938049
,two,0.934052586555481
,teamwork,0.932045578956604
,togetherness,0.9246783256530762
,portrait,0.9139758348464966
,happiness,0.9038145542144775
,wear,0.8991363048553467
,cooperation,0.8904733061790466
https://scontent.cdninstagram.com/t51.2885-15/e35/13422954_491272451069316_1546481280_n.jpg,man,0.9848121404647827
,group,0.9802044630050659
,adult,0.9787940979003906
,office,0.9735336303710938
,woman,0.9717345237731934
,employee,0.9661109447479248
,people,0.9583035111427307
,sitting,0.9395973682403564
,desk,0.9362664222717285
,business,0.9362630844116211
,room,0.9312249422073364
,table,0.9272888898849487
,education,0.9198971390724182
,furniture,0.9153424501419067
,indoors,0.9118950366973877
,corporate,0.9027604460716248
,teamwork,0.8963374495506287
,work,0.8839906454086304
,classroom,0.8727125525474548
,executive,0.8639404773712158
https://scontent.cdninstagram.com/t51.2885-15/e35/13437403_522925584575722_216775761_n.jpg,woman,0.9807150363922119
,people,0.9798142910003662
,group,0.9785814881324768
,portrait,0.9708061218261719
,outdoors,0.9680643081665039
,happiness,0.9612007141113281
,facial expression,0.9553221464157104
,man,0.949174702167511
,adult,0.9412442445755005
,togetherness,0.9395253658294678
,family,0.9351009130477905
,friendship,0.9268825054168701
,girl,0.9263962507247925
,wear,0.9152390956878662
,child,0.912560224533081
,fun,0.9041756987571716
,school,0.9013619422912598
,enjoyment,0.894402027130127
,lifestyle,0.892535924911499
,adolescent,0.8719326257705688
https://scontent.cdninstagram.com/t51.2885-15/e35/13395077_212294579169488_1618343462_n.jpg,classroom,0.9990112781524658
,school,0.9987666606903076
,chalkboard,0.9984246492385864
,class,0.9975244998931885
,education,0.9970110654830933
,chalk,0.9952254295349121
,lesson,0.9883044958114624
,mathematics,0.9831619262695312
,schoolgirl,0.9825267791748047
,elementary school,0.9811686277389526
,teacher,0.9772311449050903
,knowledge,0.9673020243644714
,display,0.9610825777053833
,elementary,0.9461541175842285
,study,0.9446760416030884
,college,0.9393695592880249
,people,0.9291583299636841
,writing,0.923079252243042
,indoors,0.9134033918380737
,science,0.9124746322631836
https://scontent.cdninstagram.com/t51.2885-15/e35/13423007_830002110434342_1907228_n.jpg,woman,0.9875093698501587
,pretty,0.9292672872543335
,people,0.9270913004875183
,togetherness,0.9270419478416443
,outdoors,0.9260813593864441
,fun,0.9177290201187134
,love,0.9158815741539001
,adolescent,0.9108027219772339
,cute,0.9100300073623657
,joy,0.9080461263656616
,fashion,0.9029107093811035
,summer,0.8795410990715027
,nature,0.8754169940948486
,child,0.8668717741966248
,vertical,0.8640041351318359
,portrait,0.8603460788726807
,young,0.8596997261047363
,casual,0.8540408611297607
,enjoyment,0.8475679755210876
,girl,0.840986967086792
https://scontent.cdninstagram.com/t51.2885-15/e35/13398362_1723085354628685_533672804_n.jpg,people,0.9933805465698242
,business,0.9835698008537292
,adult,0.9802249670028687
,man,0.9788216352462769
,one,0.9662209749221802
,office,0.9493063688278198
,building,0.9465082883834839
,portrait,0.9414026737213135
,finance,0.9228852987289429
,city,0.9050508737564087
,daylight,0.8969331383705139
,wear,0.8884254693984985
,competition,0.8826702833175659
,ambition,0.8738202452659607
,outdoors,0.8660246133804321
,action,0.8598314523696899
,landscape,0.8498371243476868
,leader,0.8443678617477417
,light,0.8332809805870056
,woman,0.8297189474105835
https://scontent.cdninstagram.com/t51.2885-15/e35/13385846_1019495194766338_1753187429_n.jpg,indoors,0.9969770908355713
,safety,0.9815441370010376
,people,0.9796118140220642
,vehicle,0.9654720425605774
,wear,0.9618154168128967
,one,0.9536041021347046
,woman,0.9513397216796875
,room,0.9409230351448059
,adult,0.9389818906784058
,portrait,0.9322516918182373
,family,0.9269394874572754
,man,0.9179491996765137
,security,0.9157045483589172
,industry,0.9137967824935913
,transportation system,0.9026153087615967
,light,0.9014274477958679
,winter,0.8947547674179077
,car,0.8938290476799011
,security,0.8934516906738281
,box,0.8792628645896912
https://scontent.cdninstagram.com/t51.2885-15/e35/13397704_303670876632361_1920194497_n.jpg,woman,0.9790823459625244
,people,0.9554340839385986
,business,0.9453974962234497
,adult,0.9335563778877258
,man,0.9253957867622375
,wear,0.9170912504196167
,accomplishment,0.8792452812194824
,interaction,0.8701601624488831
,two,0.8665894269943237
,cooperation,0.8644216060638428
,education,0.8620683550834656
,office,0.8613084554672241
,looking,0.858711838722229
,confidence,0.8544772863388062
,indoors,0.8544669151306152
,facial expression,0.8395352363586426
,employee,0.8364030122756958
,portrait,0.820743203163147
,teamwork,0.8170740604400635
,group,0.8105068206787109
https://scontent.cdninstagram.com/l/t51.2885-15/e35/13355521_1738473153036155_893606814_n.jpg,no person,0.9885283708572388
,wood,0.9855811595916748
,drink,0.9783929586410522
,food,0.97639000415802
,bottle,0.9455827474594116
,wooden,0.9402635097503662
,health,0.9388771057128906
,indoors,0.938139796257019
,family,0.9301550388336182
,coffee,0.9284877181053162
,color,0.9265466928482056
,breakfast,0.9104355573654175
,traditional,0.9064353108406067
,table,0.8924957513809204
,container,0.8524492979049683
,healthy,0.8455358743667603
,cup,0.8433185815811157
,medicine,0.834903359413147
,dawn,0.8293592929840088
,delicious,0.8184546828269958
https://scontent.cdninstagram.com/t51.2885-15/sh0.08/e35/p750x750/13414268_975338999230502_1964508221_n.jpg,woman,0.9886927604675293
,man,0.9577503204345703
,people,0.9576265811920166
,two,0.9534473419189453
,fashion,0.9172713756561279
,adult,0.913079023361206
,wear,0.9118926525115967
,looking,0.8838763236999512
,portrait,0.8770252466201782
,young,0.8617192506790161
,education,0.8394768238067627
,girl,0.8323434591293335
,togetherness,0.8320373892784119
,business,0.8307689428329468
,group,0.8026109337806702
,outdoors,0.7859909534454346
,casual,0.7800828218460083
,contemporary,0.7780801653862
,lifestyle,0.7715733051300049
,adolescent,0.7613265514373779
https://scontent.cdninstagram.com/t51.2885-15/e35/13385846_1019495194766338_1753187429_n.jpg,indoors,0.9969770908355713
,safety,0.9815441370010376
,people,0.9796118140220642
,vehicle,0.9654720425605774
,wear,0.9618154168128967
,one,0.9536041021347046
,woman,0.9513397216796875
,room,0.9409230351448059
,adult,0.9389818906784058
,portrait,0.9322516918182373
,family,0.9269394874572754
,man,0.9179491996765137
,security,0.9157045483589172
,industry,0.9137967824935913
,transportation system,0.9026153087615967
,light,0.9014274477958679
,winter,0.8947547674179077
,car,0.8938290476799011
,security,0.8934516906738281
,box,0.8792628645896912
https://scontent.cdninstagram.com/t51.2885-15/e35/13388746_1719230021664417_317154708_n.jpg,people,0.9793654680252075
,graffiti,0.9744430780410767
,woman,0.9509134292602539
,adult,0.9454624652862549
,painting,0.9194729924201965
,one,0.8935224413871765
,wall,0.8886168003082275
,art,0.8792017102241516
,creativity,0.866030216217041
,flower,0.8610354661941528
,outdoors,0.8469127416610718
,business,0.8456141352653503
,portrait,0.8419492244720459
,text,0.834078311920166
,man,0.8321375846862793
,festival,0.8279531002044678
,sign,0.823868989944458
,girl,0.8118726015090942
,culture,0.8063564896583557
,urban,0.8049360513687134
https://scontent.cdninstagram.com/t51.2885-15/e35/13388746_1719230021664417_317154708_n.jpg,people,0.9793654680252075
,graffiti,0.9744430780410767
,woman,0.9509134292602539
,adult,0.9454624652862549
,painting,0.9194729924201965
,one,0.8935224413871765
,wall,0.8886168003082275
,art,0.8792017102241516
,creativity,0.866030216217041
,flower,0.8610354661941528
,outdoors,0.8469127416610718
,business,0.8456141352653503
,portrait,0.8419492244720459
,text,0.834078311920166
,man,0.8321375846862793
,festival,0.8279531002044678
,sign,0.823868989944458
,girl,0.8118726015090942
,culture,0.8063564896583557
,urban,0.8049360513687134
https://scontent.cdninstagram.com/t51.2885-15/e35/13423007_830002110434342_1907228_n.jpg,woman,0.9875093698501587
,pretty,0.9292672872543335
,people,0.9270913004875183
,togetherness,0.9270419478416443
,outdoors,0.9260813593864441
,fun,0.9177290201187134
,love,0.9158815741539001
,adolescent,0.9108027219772339
,cute,0.9100300073623657
,joy,0.9080461263656616
,fashion,0.9029107093811035
,summer,0.8795410990715027
,nature,0.8754169940948486
,child,0.8668717741966248
,vertical,0.8640041351318359
,portrait,0.8603460788726807
,young,0.8596997261047363
,casual,0.8540408611297607
,enjoyment,0.8475679755210876
,girl,0.840986967086792
https://scontent.cdninstagram.com/l/t51.2885-15/e35/13355521_1738473153036155_893606814_n.jpg,no person,0.9885283708572388
,wood,0.9855811595916748
,drink,0.9783929586410522
,food,0.97639000415802
,bottle,0.9455827474594116
,wooden,0.9402635097503662
,health,0.9388771057128906
,indoors,0.938139796257019
,family,0.9301550388336182
,coffee,0.9284877181053162
,color,0.9265466928482056
,breakfast,0.9104355573654175
,traditional,0.9064353108406067
,table,0.8924957513809204
,container,0.8524492979049683
,healthy,0.8455358743667603
,cup,0.8433185815811157
,medicine,0.834903359413147
,dawn,0.8293592929840088
,delicious,0.8184546828269958
https://scontent.cdninstagram.com/t51.2885-15/e35/13414172_289421941406008_1791738867_n.jpg,adult,0.9865785837173462
,woman,0.9828253984451294
,group,0.9703462719917297
,room,0.9697797298431396
,people,0.9676837921142578
,office,0.9667783975601196
,facial expression,0.966776967048645
,business,0.9652718305587769
,employee,0.9522895216941833
,man,0.9448264837265015
,education,0.9406634569168091
,indoors,0.9401307106018066
,league,0.9344111084938049
,two,0.934052586555481
,teamwork,0.932045578956604
,togetherness,0.9246783256530762
,portrait,0.9139758348464966
,happiness,0.9038145542144775
,wear,0.8991363048553467
,cooperation,0.8904733061790466
https://scontent.cdninstagram.com/t51.2885-15/e35/13422874_1733638663585279_704244626_n.jpg,group,0.9914486408233643
,woman,0.9886555671691895
,adult,0.9832421541213989
,man,0.9754592180252075
,education,0.9750416278839111
,room,0.9651761054992676
,classroom,0.956690788269043
,togetherness,0.9553216099739075
,desk,0.9539403915405273
,indoors,0.9506028890609741
,office,0.9427609443664551
,furniture,0.9414087533950806
,people,0.9412817358970642
,teamwork,0.9373141527175903
,facial expression,0.936672568321228
,table,0.9352529048919678
,school,0.921460747718811
,child,0.9171980619430542
,sitting,0.9126285910606384
,class,0.9109857082366943
https://scontent.cdninstagram.com/t51.2885-15/e35/13422954_491272451069316_1546481280_n.jpg,man,0.9848121404647827
,group,0.9802044630050659
,adult,0.9787940979003906
,office,0.9735336303710938
,woman,0.9717345237731934
,employee,0.9661109447479248
,people,0.9583035111427307
,sitting,0.9395973682403564
,desk,0.9362664222717285
,business,0.9362630844116211
,room,0.9312249422073364
,table,0.9272888898849487
,education,0.9198971390724182
,furniture,0.9153424501419067
,indoors,0.9118950366973877
,corporate,0.9027604460716248
,teamwork,0.8963374495506287
,work,0.8839906454086304
,classroom,0.8727125525474548
,executive,0.8639404773712158
https://scontent.cdninstagram.com/t51.2885-15/e35/13385892_1611765742471232_1783896794_n.jpg,woman,0.9878741502761841
,fashion,0.9852367639541626
,indoors,0.970413863658905
,portrait,0.9688553810119629
,girl,0.9669661521911621
,one,0.9611284732818604
,people,0.9429715275764465
,adult,0.9374921321868896
,wear,0.9233774542808533
,pretty,0.9210495352745056
,young,0.9161896109580994
,dress,0.9035627841949463
,shopping,0.9021140336990356
,trendy,0.8971445560455322
,contemporary,0.888697624206543
,model,0.8809089660644531
,glamour,0.8778026103973389
,fun,0.8754862546920776
,sexy,0.8569720983505249
,beautiful,0.8486200571060181
https://scontent.cdninstagram.com/t51.2885-15/e35/13437403_522925584575722_216775761_n.jpg,woman,0.9807150363922119
,people,0.9798142910003662
,group,0.9785814881324768
,portrait,0.9708061218261719
,outdoors,0.9680643081665039
,happiness,0.9612007141113281
,facial expression,0.9553221464157104
,man,0.949174702167511
,adult,0.9412442445755005
,togetherness,0.9395253658294678
,family,0.9351009130477905
,friendship,0.9268825054168701
,girl,0.9263962507247925
,wear,0.9152390956878662
,child,0.912560224533081
,fun,0.9041756987571716
,school,0.9013619422912598
,enjoyment,0.894402027130127
,lifestyle,0.892535924911499
,adolescent,0.8719326257705688
https://scontent.cdninstagram.com/t51.2885-15/e35/13408781_877714152337938_20792320_n.jpg,travel,0.9927455186843872
,water,0.9921149015426636
,evening,0.9894956350326538
,city,0.9813169836997986
,no person,0.968253493309021
,river,0.9641587138175964
,dusk,0.9633375406265259
,transportation system,0.9626386165618896
,light,0.9571095705032349
,harbor,0.9495481252670288
,illuminated,0.948607325553894
,building,0.9472707509994507
,waterfront,0.9472130537033081
,architecture,0.9427242279052734
,sea,0.9390698671340942
,urban,0.9339280128479004
,sky,0.9325952529907227
,reflection,0.9237269163131714
,cityscape,0.9210401177406311
,outdoors,0.9160498380661011
https://scontent.cdninstagram.com/t51.2885-15/e35/13385892_1611765742471232_1783896794_n.jpg,woman,0.9878741502761841
,fashion,0.9852367639541626
,indoors,0.970413863658905
,portrait,0.9688553810119629
,girl,0.9669661521911621
,one,0.9611284732818604
,people,0.9429715275764465
,adult,0.9374921321868896
,wear,0.9233774542808533
,pretty,0.9210495352745056
,young,0.9161896109580994
,dress,0.9035627841949463
,shopping,0.9021140336990356
,trendy,0.8971445560455322
,contemporary,0.888697624206543
,model,0.8809089660644531
,glamour,0.8778026103973389
,fun,0.8754862546920776
,sexy,0.8569720983505249
,beautiful,0.8486200571060181
https://scontent.cdninstagram.com/t51.2885-15/e35/13381312_1726638994273856_753642419_n.jpg,woman,0.9833904504776001
,adolescent,0.9799371957778931
,child,0.9785892963409424
,friendship,0.9742271900177002
,student,0.9710317850112915
,man,0.9555416107177734
,togetherness,0.955236554145813
,education,0.9356043338775635
,school,0.9283783435821533
,fun,0.9231325387954712
,college,0.9196540117263794
,group,0.9061363935470581
,people,0.8909703493118286
,casual,0.8806020021438599
,laughing,0.87150639295578
,looking,0.8623956441879272
,elementary school,0.8441628217697144
,joy,0.8337458968162537
,love,0.8224967122077942
,teamwork,0.8184010982513428
https://scontent.cdninstagram.com/t51.2885-15/s640x640/e15/13329150_1083696811710586_1243974424_n.jpg,city,0.9929120540618896
,water,0.9917080998420715
,evening,0.9900734424591064
,travel,0.9871660470962524
,river,0.9822843074798584
,urban,0.9707776308059692
,bridge,0.9703245162963867
,light,0.9669345021247864
,cityscape,0.965558648109436
,building,0.9611794948577881
,waterfront,0.9596531391143799
,opera,0.9583072662353516
,no person,0.9575190544128418
,reflection,0.9554816484451294
,architecture,0.9525769948959351
,festival,0.940434455871582
,harbor,0.9340863227844238
,hotel,0.933706521987915
,sky,0.9326732754707336
,dusk,0.9310396909713745
https://scontent.cdninstagram.com/t51.2885-15/e35/13422874_1733638663585279_704244626_n.jpg,group,0.9914486408233643
,woman,0.9886555671691895
,adult,0.9832421541213989
,man,0.9754592180252075
,education,0.9750416278839111
,room,0.9651761054992676
,classroom,0.956690788269043
,togetherness,0.9553216099739075
,desk,0.9539403915405273
,indoors,0.9506028890609741
,office,0.9427609443664551
,furniture,0.9414087533950806
,people,0.9412817358970642
,teamwork,0.9373141527175903
,facial expression,0.936672568321228
,table,0.9352529048919678
,school,0.921460747718811
,child,0.9171980619430542
,sitting,0.9126285910606384
,class,0.9109857082366943
https://scontent.cdninstagram.com/t51.2885-15/e35/13413437_1588552084777580_1613807950_n.jpg,group,0.9913685321807861
,child,0.9704228043556213
,man,0.9694292545318604
,woman,0.9670947790145874
,adult,0.9553928971290588
,group,0.9473835229873657
,people,0.9457936882972717
,fun,0.9428807497024536
,togetherness,0.9384939670562744
,office,0.9345903396606445
,education,0.9287639856338501
,three,0.9286211729049683
,young,0.9256472587585449
,friendship,0.9136523008346558
,lifestyle,0.9059888124465942
,family,0.9025691747665405
,school,0.9009560942649841
,facial expression,0.9006534218788147
,four,0.8981904983520508
,room,0.8980851173400879
https://scontent.cdninstagram.com/t51.2885-15/e35/13402143_1796944553872074_1369821709_n.jpg,water,0.9926968216896057
,woman,0.985296368598938
,girl,0.9804573059082031
,summer,0.9779284000396729
,water,0.9706231951713562
,sea,0.9691175222396851
,beach,0.9532126188278198
,beautiful,0.9519873857498169
,travel,0.9501901865005493
,nature,0.9481215476989746
,model,0.9461945295333862
,pool,0.9409608244895935
,sexy,0.9387824535369873
,ocean,0.9358596801757812
,relaxation,0.924625039100647
,portrait,0.9227762818336487
,fashion,0.9192423224449158
,young,0.9153965711593628
,leisure,0.9116270542144775
,people,0.9054286479949951
https://scontent.cdninstagram.com/t51.2885-15/e35/13437234_1645398575782156_2140423060_n.jpg,street,0.9886225461959839
,shopping,0.985328197479248
,people,0.9548888206481934
,city,0.9446353316307068
,urban,0.9377644658088684
,road,0.937070369720459
,man,0.8882160186767578
,vehicle,0.8646692633628845
,pavement,0.8496335744857788
,woman,0.848760187625885
,commerce,0.8280255794525146
,outdoors,0.8272086381912231
,fashion,0.8254233598709106
,luggage,0.8162932395935059
,offense,0.8130420446395874
,market,0.8127080202102661
,one,0.7913385629653931
,cart,0.7901164889335632
,portrait,0.7794009447097778
,shop,0.7763669490814209
https://scontent.cdninstagram.com/t51.2885-15/sh0.08/e35/p750x750/13414268_975338999230502_1964508221_n.jpg,woman,0.9886927604675293
,man,0.9577503204345703
,people,0.9576265811920166
,two,0.9534473419189453
,fashion,0.9172713756561279
,adult,0.913079023361206
,wear,0.9118926525115967
,looking,0.8838763236999512
,portrait,0.8770252466201782
,young,0.8617192506790161
,education,0.8394768238067627
,girl,0.8323434591293335
,togetherness,0.8320373892784119
,business,0.8307689428329468
,group,0.8026109337806702
,outdoors,0.7859909534454346
,casual,0.7800828218460083
,contemporary,0.7780801653862
,lifestyle,0.7715733051300049
,adolescent,0.7613265514373779
https://scontent.cdninstagram.com/t51.2885-15/e35/13408781_877714152337938_20792320_n.jpg,travel,0.9927455186843872
,water,0.9921149015426636
,evening,0.9894956350326538
,city,0.9813169836997986
,no person,0.968253493309021
,river,0.9641587138175964
,dusk,0.9633375406265259
,transportation system,0.9626386165618896
,light,0.9571095705032349
,harbor,0.9495481252670288
,illuminated,0.948607325553894
,building,0.9472707509994507
,waterfront,0.9472130537033081
,architecture,0.9427242279052734
,sea,0.9390698671340942
,urban,0.9339280128479004
,sky,0.9325952529907227
,reflection,0.9237269163131714
,cityscape,0.9210401177406311
,outdoors,0.9160498380661011
https://scontent.cdninstagram.com/t51.2885-15/e35/13392734_887758371330756_590002843_n.jpg,food,0.9978058338165283
,beer,0.9951887726783752
,drink,0.9900633096694946
,knife,0.9878987073898315
,table,0.9868528842926025
,restaurant,0.9811719655990601
,meal,0.9774444103240967
,people,0.974551796913147
,no person,0.9694483280181885
,plate,0.953494668006897
,dinner,0.9491289258003235
,tableware,0.9484667778015137
,glass,0.947420597076416
,man,0.9377278685569763
,indoors,0.9344819784164429
,lunch,0.9302835464477539
,breakfast,0.9231873750686646
,bar,0.9203221797943115
,fork,0.9196435809135437
,adult,0.918241024017334
https://scontent.cdninstagram.com/t51.2885-15/e35/13408941_543784519132005_1974477920_n.jpg,woman,0.982210099697113
,fashion,0.9668217897415161
,girl,0.9668205976486206
,people,0.9506044387817383
,beautiful,0.9434940218925476
,young,0.9151430130004883
,one,0.9044114351272583
,dress,0.8944275975227356
,summer,0.8833242654800415
,hair,0.878728985786438
,wind,0.8768813014030457
,adult,0.8740979433059692
,festival,0.8654364347457886
,face,0.8638098835945129
,portrait,0.8608113527297974
,outdoors,0.8501660823822021
,desktop,0.8387253284454346
,pretty,0.8344535827636719
,style,0.8319501876831055
,person,0.8256648182868958
https://scontent.cdninstagram.com/t51.2885-15/e35/13402222_1102593549820708_651675801_n.jpg,woman,0.9968178272247314
,travel,0.994828462600708
,girl,0.9873874187469482
,summer,0.9854433536529541
,people,0.9854211211204529
,sky,0.9791313409805298
,water,0.9765523672103882
,outdoors,0.9755614995956421
,nature,0.964153528213501
,beautiful,0.953857421875
,window,0.95286625623703
,portrait,0.9513745307922363
,one,0.9498727917671204
,vacation,0.9478699564933777
,young,0.9471748471260071
,leisure,0.9460891485214233
,train,0.9453861713409424
,pretty,0.9377713203430176
,city,0.9300994873046875
,fashion,0.9276671409606934
https://scontent.cdninstagram.com/t51.2885-15/e35/13437234_1645398575782156_2140423060_n.jpg,street,0.9886225461959839
,shopping,0.985328197479248
,people,0.9548888206481934
,city,0.9446353316307068
,urban,0.9377644658088684
,road,0.937070369720459
,man,0.8882160186767578
,vehicle,0.8646692633628845
,pavement,0.8496335744857788
,woman,0.848760187625885
,commerce,0.8280255794525146
,outdoors,0.8272086381912231
,fashion,0.8254233598709106
,luggage,0.8162932395935059
,offense,0.8130420446395874
,market,0.8127080202102661
,one,0.7913385629653931
,cart,0.7901164889335632
,portrait,0.7794009447097778
,shop,0.7763669490814209
https://scontent.cdninstagram.com/t51.2885-15/e35/13402636_1648377742152965_1234935056_n.jpg,no person,0.9887862205505371
,food,0.9739020466804504
,delicious,0.9697611331939697
,health,0.9345488548278809
,breakfast,0.9306150078773499
,nutrition,0.9268978238105774
,wood,0.9166819453239441
,cooking,0.909308910369873
,traditional,0.9062300324440002
,homemade,0.8954073190689087
,baking,0.8913348913192749
,ingredients,0.887305498123169
,dinner,0.8838866949081421
,sugar,0.8628869652748108
,bread,0.8528165221214294
,butter,0.849475622177124
,lunch,0.842430830001831
,sweet,0.8380743265151978
,cuisine,0.8364444971084595
,vegetable,0.810585618019104
https://scontent.cdninstagram.com/t51.2885-15/e35/13381312_1726638994273856_753642419_n.jpg,woman,0.9833904504776001
,adolescent,0.9799371957778931
,child,0.9785892963409424
,friendship,0.9742271900177002
,student,0.9710317850112915
,man,0.9555416107177734
,togetherness,0.955236554145813
,education,0.9356043338775635
,school,0.9283783435821533
,fun,0.9231325387954712
,college,0.9196540117263794
,group,0.9061363935470581
,people,0.8909703493118286
,casual,0.8806020021438599
,laughing,0.87150639295578
,looking,0.8623956441879272
,elementary school,0.8441628217697144
,joy,0.8337458968162537
,love,0.8224967122077942
,teamwork,0.8184010982513428
https://scontent.cdninstagram.com/t51.2885-15/e35/13381345_1620654494917815_679373757_n.jpg,festival,0.9970226883888245
,city,0.9945428371429443
,light,0.9941835403442383
,evening,0.9895792007446289
,building,0.9799972772598267
,road,0.9754441976547241
,street,0.9733448028564453
,skyscraper,0.961614727973938
,urban,0.9544413089752197
,travel,0.9497526288032532
,cityscape,0.9475095272064209
,motion,0.9419912099838257
,action,0.935143232345581
,hotel,0.9351310729980469
,downtown,0.9263680577278137
,blur,0.9241108894348145
,business,0.9239761829376221
,bridge,0.9148132801055908
,dusk,0.9124987125396729
,architecture,0.9110788702964783
https://scontent.cdninstagram.com/t51.2885-15/s640x640/e15/13329150_1083696811710586_1243974424_n.jpg,city,0.9929120540618896
,water,0.9917080998420715
,evening,0.9900734424591064
,travel,0.9871660470962524
,river,0.9822843074798584
,urban,0.9707776308059692
,bridge,0.9703245162963867
,light,0.9669345021247864
,cityscape,0.965558648109436
,building,0.9611794948577881
,waterfront,0.9596531391143799
,opera,0.9583072662353516
,no person,0.9575190544128418
,reflection,0.9554816484451294
,architecture,0.9525769948959351
,festival,0.940434455871582
,harbor,0.9340863227844238
,hotel,0.933706521987915
,sky,0.9326732754707336
,dusk,0.9310396909713745
https://scontent.cdninstagram.com/t51.2885-15/e35/13392734_887758371330756_590002843_n.jpg,food,0.9978058338165283
,beer,0.9951887726783752
,drink,0.9900633096694946
,knife,0.9878987073898315
,table,0.9868528842926025
,restaurant,0.9811719655990601
,meal,0.9774444103240967
,people,0.974551796913147
,no person,0.9694483280181885
,plate,0.953494668006897
,dinner,0.9491289258003235
,tableware,0.9484667778015137
,glass,0.947420597076416
,man,0.9377278685569763
,indoors,0.9344819784164429
,lunch,0.9302835464477539
,breakfast,0.9231873750686646
,bar,0.9203221797943115
,fork,0.9196435809135437
,adult,0.918241024017334
https://scontent.cdninstagram.com/t51.2885-15/e35/13381345_1620654494917815_679373757_n.jpg,festival,0.9970226883888245
,city,0.9945428371429443
,light,0.9941835403442383
,evening,0.9895792007446289
,building,0.9799972772598267
,road,0.9754441976547241
,street,0.9733448028564453
,skyscraper,0.961614727973938
,urban,0.9544413089752197
,travel,0.9497526288032532
,cityscape,0.9475095272064209
,motion,0.9419912099838257
,action,0.935143232345581
,hotel,0.9351310729980469
,downtown,0.9263680577278137
,blur,0.9241108894348145
,business,0.9239761829376221
,bridge,0.9148132801055908
,dusk,0.9124987125396729
,architecture,0.9110788702964783
https://scontent.cdninstagram.com/t51.2885-15/e35/13414326_1056883101034307_262697884_n.jpg,travel,0.9957276582717896
,woman,0.9956713914871216
,summer,0.9914048910140991
,girl,0.98719322681427
,beach,0.9859704971313477
,sky,0.9821107387542725
,water,0.9794659614562988
,sea,0.9742192029953003
,fashion,0.9601994156837463
,window,0.9573875665664673
,vacation,0.955858588218689
,nature,0.9556062817573547
,people,0.9548476338386536
,train,0.9447872042655945
,sexy,0.9392645955085754
,sun,0.9354691505432129
,portrait,0.9343187212944031
,model,0.9341880083084106
,ocean,0.9306988716125488
,outdoors,0.9295469522476196
https://scontent.cdninstagram.com/t51.2885-15/e35/13402222_1102593549820708_651675801_n.jpg,woman,0.9968178272247314
,travel,0.994828462600708
,girl,0.9873874187469482
,summer,0.9854433536529541
,people,0.9854211211204529
,sky,0.9791313409805298
,water,0.9765523672103882
,outdoors,0.9755614995956421
,nature,0.964153528213501
,beautiful,0.953857421875
,window,0.95286625623703
,portrait,0.9513745307922363
,one,0.9498727917671204
,vacation,0.9478699564933777
,young,0.9471748471260071
,leisure,0.9460891485214233
,train,0.9453861713409424
,pretty,0.9377713203430176
,city,0.9300994873046875
,fashion,0.9276671409606934
https://scontent.cdninstagram.com/t51.2885-15/e35/13355495_1791910814374336_520007323_n.jpg,city,0.9895665645599365
,architecture,0.98563551902771
,skyline,0.9812766909599304
,building,0.9797471761703491
,cityscape,0.974743127822876
,travel,0.9739832878112793
,sky,0.9718191027641296
,skyscraper,0.9716897010803223
,downtown,0.9710237979888916
,business,0.9697712659835815
,urban,0.968976616859436
,modern,0.958687424659729
,water,0.9474029541015625
,dusk,0.9466773867607117
,no person,0.9446202516555786
,bridge,0.9327516555786133
,tower,0.929090142250061
,office,0.9249551892280579
,pollution,0.9235031604766846
,river,0.8984060883522034
https://scontent.cdninstagram.com/t51.2885-15/e35/13355495_1791910814374336_520007323_n.jpg,city,0.9895665645599365
,architecture,0.98563551902771
,skyline,0.9812766909599304
,building,0.9797471761703491
,cityscape,0.974743127822876
,travel,0.9739832878112793
,sky,0.9718191027641296
,skyscraper,0.9716897010803223
,downtown,0.9710237979888916
,business,0.9697712659835815
,urban,0.968976616859436
,modern,0.958687424659729
,water,0.9474029541015625
,dusk,0.9466773867607117
,no person,0.9446202516555786
,bridge,0.9327516555786133
,tower,0.929090142250061
,office,0.9249551892280579
,pollution,0.9235031604766846
,river,0.8984060883522034
https://scontent.cdninstagram.com/t51.2885-15/e35/13402626_660411384116912_179456642_n.jpg,portrait,0.9837950468063354
,woman,0.9815777540206909
,people,0.9801356792449951
,girl,0.9754478931427002
,adult,0.9680932760238647
,one,0.9536030292510986
,beautiful,0.9096465706825256
,fashion,0.8937261700630188
,face,0.8832120299339294
,wear,0.8804753422737122
,facial expression,0.8529485464096069
,young,0.8518646359443665
,model,0.8511275053024292
,music,0.8509578704833984
,profile,0.8461072444915771
,man,0.8403865694999695
,brunette,0.8382121324539185
,smile,0.8260797262191772
,happiness,0.8047106862068176
,person,0.7928857803344727
https://scontent.cdninstagram.com/t51.2885-15/e35/13398877_104431669984823_787731623_n.jpg,tube,0.9975913763046265
,airport,0.9906551837921143
,people,0.9891648292541504
,city,0.9864978790283203
,street,0.9858821630477905
,urban,0.9662700891494751
,commuter,0.9588478803634644
,train,0.9587500095367432
,transportation system,0.9532614946365356
,railway,0.9521486163139343
,reflection,0.9516104459762573
,escalator,0.9473804235458374
,vehicle,0.9435776472091675
,woman,0.9394481182098389
,adult,0.9380451440811157
,one,0.9350669384002686
,luggage,0.9327403903007507
,train,0.9315227270126343
,departure,0.931442379951477
,portrait,0.9240409135818481
https://scontent.cdninstagram.com/t51.2885-15/e35/13402636_1648377742152965_1234935056_n.jpg,no person,0.9887862205505371
,food,0.9739020466804504
,delicious,0.9697611331939697
,health,0.9345488548278809
,breakfast,0.9306150078773499
,nutrition,0.9268978238105774
,wood,0.9166819453239441
,cooking,0.909308910369873
,traditional,0.9062300324440002
,homemade,0.8954073190689087
,baking,0.8913348913192749
,ingredients,0.887305498123169
,dinner,0.8838866949081421
,sugar,0.8628869652748108
,bread,0.8528165221214294
,butter,0.849475622177124
,lunch,0.842430830001831
,sweet,0.8380743265151978
,cuisine,0.8364444971084595
,vegetable,0.810585618019104
https://scontent.cdninstagram.com/t51.2885-15/e35/13381066_124334707989491_904852985_n.jpg,child,0.9940588474273682
,toy,0.9817070960998535
,people,0.9788021445274353
,mammal,0.9488542079925537
,boy,0.9459984302520752
,cute,0.9357733726501465
,group,0.9351218938827515
,teddy,0.9066140651702881
,indoors,0.8983198404312134
,no person,0.8981384038925171
,baby,0.8978897333145142
,dog,0.8949902057647705
,family,0.8858041763305664
,facial expression,0.8852669596672058
,girl,0.8812709450721741
,little,0.8801716566085815
,doll,0.8749709129333496
,wear,0.8735936880111694
,one,0.8658567667007446
,fun,0.865825355052948
https://scontent.cdninstagram.com/t51.2885-15/e35/13381358_1005440232865480_1268678842_n.jpg,water,0.9890015125274658
,woman,0.9850491285324097
,summer,0.9809670448303223
,outdoors,0.980649471282959
,relaxation,0.9769285917282104
,leisure,0.9762847423553467
,travel,0.9722903966903687
,recreation,0.9630850553512573
,people,0.9584760665893555
,beach,0.9485310316085815
,nature,0.9477376341819763
,fair weather,0.9367631077766418
,enjoyment,0.9329133033752441
,sky,0.9325525164604187
,yoga,0.9051350355148315
,one,0.9006832838058472
,portrait,0.8998208045959473
,sea,0.899261474609375
,health,0.8859527111053467
,tropical,0.8808870315551758
https://scontent.cdninstagram.com/t51.2885-15/e35/13381358_1005440232865480_1268678842_n.jpg,water,0.9890015125274658
,woman,0.9850491285324097
,summer,0.9809670448303223
,outdoors,0.980649471282959
,relaxation,0.9769285917282104
,leisure,0.9762847423553467
,travel,0.9722903966903687
,recreation,0.9630850553512573
,people,0.9584760665893555
,beach,0.9485310316085815
,nature,0.9477376341819763
,fair weather,0.9367631077766418
,enjoyment,0.9329133033752441
,sky,0.9325525164604187
,yoga,0.9051350355148315
,one,0.9006832838058472
,portrait,0.8998208045959473
,sea,0.899261474609375
,health,0.8859527111053467
,tropical,0.8808870315551758
https://scontent.cdninstagram.com/t51.2885-15/e35/13414326_1056883101034307_262697884_n.jpg,travel,0.9957276582717896
,woman,0.9956713914871216
,summer,0.9914048910140991
,girl,0.98719322681427
,beach,0.9859704971313477
,sky,0.9821107387542725
,water,0.9794659614562988
,sea,0.9742192029953003
,fashion,0.9601994156837463
,window,0.9573875665664673
,vacation,0.955858588218689
,nature,0.9556062817573547
,people,0.9548476338386536
,train,0.9447872042655945
,sexy,0.9392645955085754
,sun,0.9354691505432129
,portrait,0.9343187212944031
,model,0.9341880083084106
,ocean,0.9306988716125488
,outdoors,0.9295469522476196
https://scontent.cdninstagram.com/t51.2885-15/e35/13423601_612920655532106_1886880294_n.jpg,water,0.9913623332977295
,woman,0.9841806888580322
,people,0.9747871160507202
,girl,0.9740934371948242
,travel,0.971856415271759
,portrait,0.9685530662536621
,summer,0.9351693987846375
,one,0.927801251411438
,outdoors,0.9257251024246216
,fashion,0.9218330383300781
,sea,0.9207732677459717
,beach,0.9091382026672363
,leisure,0.8983632326126099
,adult,0.8953286409378052
,recreation,0.8943508863449097
,sky,0.8855938911437988
,sun,0.8761060237884521
,city,0.8753839731216431
,sunset,0.8747266530990601
,fun,0.869844913482666
https://scontent.cdninstagram.com/t51.2885-15/e35/13408941_543784519132005_1974477920_n.jpg,woman,0.982210099697113
,fashion,0.9668217897415161
,girl,0.9668205976486206
,people,0.9506044387817383
,beautiful,0.9434940218925476
,young,0.9151430130004883
,one,0.9044114351272583
,dress,0.8944275975227356
,summer,0.8833242654800415
,hair,0.878728985786438
,wind,0.8768813014030457
,adult,0.8740979433059692
,festival,0.8654364347457886
,face,0.8638098835945129
,portrait,0.8608113527297974
,outdoors,0.8501660823822021
,desktop,0.8387253284454346
,pretty,0.8344535827636719
,style,0.8319501876831055
,person,0.8256648182868958
https://scontent.cdninstagram.com/t51.2885-15/e35/13397563_573185462852399_1165470215_n.jpg,drink,0.9907553195953369
,glass,0.9640064239501953
,food,0.9518767595291138
,milk,0.9484541416168213
,refreshment,0.922666072845459
,cold,0.9226090908050537
,ice,0.9194398522377014
,cup,0.9122296571731567
,fruit,0.9022778272628784
,sweet,0.8998110294342041
,tea,0.8903253078460693
,cocktail,0.8888639807701111
,breakfast,0.8866064548492432
,straw,0.8740643262863159
,vertical,0.8730435967445374
,summer,0.8645164966583252
,table,0.8635941743850708
,color,0.8556452989578247
,indoors,0.8530665636062622
,bar,0.8512650728225708
https://scontent.cdninstagram.com/t51.2885-15/e35/13402458_578063789022242_145773659_n.jpg,dairy product,0.985603928565979
,no person,0.9730561375617981
,food,0.9626476764678955
,table,0.95966637134552
,fruit,0.9486263990402222
,indoors,0.9428030252456665
,chocolate,0.9383191466331482
,ice,0.935339093208313
,cream,0.9308664798736572
,sweet,0.9144062399864197
,party,0.9140194058418274
,furniture,0.9095357656478882
,drink,0.8884052038192749
,cup,0.8838434219360352
,interior design,0.8799291849136353
,two,0.8680827617645264
,still life,0.8644263744354248
,tableware,0.8639984130859375
,one,0.852807879447937
,decoration,0.8321698307991028
https://scontent.cdninstagram.com/t51.2885-15/e35/13408815_1797842467101469_534080479_n.jpg,woman,0.9799454808235168
,people,0.9631376266479492
,education,0.9371775388717651
,one,0.9263056516647339
,indoors,0.9148350358009338
,adolescent,0.9123889207839966
,young,0.9036836624145508
,fashion,0.8988274335861206
,school,0.8933143615722656
,portrait,0.892688512802124
,adult,0.8860414028167725
,pretty,0.8846724033355713
,business,0.8736892938613892
,wear,0.8721531629562378
,cute,0.8652505874633789
,girl,0.8543661832809448
,isolated,0.8406033515930176
,success,0.8329684138298035
,joy,0.8265146017074585
,intelligence,0.8247634768486023
https://scontent.cdninstagram.com/t51.2885-15/e35/13381066_124334707989491_904852985_n.jpg,child,0.9940588474273682
,toy,0.9817070960998535
,people,0.9788021445274353
,mammal,0.9488542079925537
,boy,0.9459984302520752
,cute,0.9357733726501465
,group,0.9351218938827515
,teddy,0.9066140651702881
,indoors,0.8983198404312134
,no person,0.8981384038925171
,baby,0.8978897333145142
,dog,0.8949902057647705
,family,0.8858041763305664
,facial expression,0.8852669596672058
,girl,0.8812709450721741
,little,0.8801716566085815
,doll,0.8749709129333496
,wear,0.8735936880111694
,one,0.8658567667007446
,fun,0.865825355052948
https://scontent.cdninstagram.com/t51.2885-15/e35/13355505_478581629004521_268206101_n.jpg,fountain,0.9989683628082275
,city,0.9971345663070679
,water,0.9968582391738892
,downtown,0.9928078651428223
,business,0.9922652244567871
,skyscraper,0.9922140836715698
,architecture,0.990545392036438
,travel,0.9897667169570923
,cityscape,0.987839937210083
,urban,0.9835346341133118
,building,0.9822479486465454
,river,0.9819729924201965
,skyline,0.978050947189331
,hotel,0.9747093319892883
,modern,0.9669438600540161
,street,0.9640642404556274
,office,0.959574818611145
,finance,0.9556805491447449
,casino,0.9552996158599854
,park,0.9550739526748657
https://scontent.cdninstagram.com/t51.2885-15/e35/13422881_1095181093862169_1358649756_n.jpg,no person,0.9856128692626953
,wood,0.9837857484817505
,drink,0.9822525978088379
,food,0.9762624502182007
,coffee,0.9419440031051636
,family,0.9400115013122559
,indoors,0.9378973245620728
,wooden,0.9372981786727905
,bottle,0.9354445934295654
,color,0.9280946254730225
,health,0.9161996841430664
,breakfast,0.9121148586273193
,traditional,0.90482497215271
,table,0.9042443037033081
,cup,0.8896765112876892
,container,0.8481560349464417
,dawn,0.844103217124939
,tea,0.842894434928894
,healthy,0.832430899143219
,ceramic,0.8279547691345215
https://scontent.cdninstagram.com/t51.2885-15/e35/13408863_1637584383232573_1260370762_n.jpg,travel,0.9827296733856201
,vacation,0.9686933159828186
,no person,0.9669601321220398
,fun,0.9483398795127869
,traditional,0.9473360776901245
,summer,0.9461508989334106
,sky,0.9204577207565308
,tourism,0.916431188583374
,design,0.9143511056900024
,outdoors,0.907793402671814
,hotel,0.9071846008300781
,luxury,0.9017094373703003
,decoration,0.8897302746772766
,water,0.8869412541389465
,leisure,0.8810639381408691
,architecture,0.8768105506896973
,symbol,0.8764250874519348
,gold,0.8634982109069824
,ball,0.8502719402313232
,casino,0.8489856123924255
https://scontent.cdninstagram.com/t51.2885-15/s640x640/e15/13413493_887833404660796_1091877_n.jpg,watercraft,0.9975091218948364
,water,0.9953604936599731
,ship,0.9926369190216064
,transportation system,0.9917595386505127
,no person,0.9862178564071655
,harbor,0.98340904712677
,travel,0.98029625415802
,river,0.9787873029708862
,sea,0.9752449989318848
,boat,0.9694808125495911
,vehicle,0.9582301378250122
,pier,0.951058030128479
,sky,0.950212836265564
,shipment,0.9164719581604004
,barge,0.9106030464172363
,port,0.8966899514198303
,ferry,0.8928074240684509
,outdoors,0.8843214511871338
,waterfront,0.8804181218147278
,bay,0.877764880657196
https://scontent.cdninstagram.com/t51.2885-15/e35/13422898_253777078323721_1136748751_n.jpg,people,0.9872511625289917
,woman,0.9715070724487305
,one,0.9688965082168579
,travel,0.9680042266845703
,adult,0.9673330783843994
,music,0.9282087087631226
,light,0.9147762060165405
,wear,0.9097862839698792
,business,0.8922139406204224
,luxury,0.8874180316925049
,industry,0.8834021091461182
,vehicle,0.8819882869720459
,technology,0.8707749843597412
,transportation system,0.854352593421936
,indoors,0.8501715064048767
,man,0.8444836139678955
,girl,0.8397701978683472
,recreation,0.8226611614227295
,fashion,0.8182698488235474
,portrait,0.815961480140686
https://scontent.cdninstagram.com/t51.2885-15/e35/13408947_520510161466441_610411273_n.jpg,city,0.9891606569290161
,architecture,0.9853768944740295
,water,0.980830192565918
,travel,0.969247579574585
,no person,0.9688974022865295
,sky,0.9503828287124634
,landscape,0.9496556520462036
,skyline,0.9485337734222412
,building,0.9460947513580322
,cityscape,0.9460891485214233
,urban,0.936651885509491
,outdoors,0.9195579290390015
,sea,0.9101389050483704
,seashore,0.9070501923561096
,town,0.8809500336647034
,hotel,0.8755238652229309
,sight,0.8719385266304016
,river,0.8717607259750366
,ocean,0.8502070903778076
,skyscraper,0.8486772179603577
https://scontent.cdninstagram.com/t51.2885-15/e35/13402143_1796944553872074_1369821709_n.jpg,water,0.9926968216896057
,woman,0.985296368598938
,girl,0.9804573059082031
,summer,0.9779284000396729
,water,0.9706231951713562
,sea,0.9691175222396851
,beach,0.9532126188278198
,beautiful,0.9519873857498169
,travel,0.9501901865005493
,nature,0.9481215476989746
,model,0.9461945295333862
,pool,0.9409608244895935
,sexy,0.9387824535369873
,ocean,0.9358596801757812
,relaxation,0.924625039100647
,portrait,0.9227762818336487
,fashion,0.9192423224449158
,young,0.9153965711593628
,leisure,0.9116270542144775
,people,0.9054286479949951
https://scontent.cdninstagram.com/t51.2885-15/e35/13408947_520510161466441_610411273_n.jpg,city,0.9891606569290161
,architecture,0.9853768944740295
,water,0.980830192565918
,travel,0.969247579574585
,no person,0.9688974022865295
,sky,0.9503828287124634
,landscape,0.9496556520462036
,skyline,0.9485337734222412
,building,0.9460947513580322
,cityscape,0.9460891485214233
,urban,0.936651885509491
,outdoors,0.9195579290390015
,sea,0.9101389050483704
,seashore,0.9070501923561096
,town,0.8809500336647034
,hotel,0.8755238652229309
,sight,0.8719385266304016
,river,0.8717607259750366
,ocean,0.8502070903778076
,skyscraper,0.8486772179603577
https://scontent.cdninstagram.com/t51.2885-15/e35/13398753_1790052437893688_1499143224_n.jpg,woman,0.9900897145271301
,fashion,0.9666762351989746
,people,0.9588879346847534
,girl,0.9539484977722168
,pretty,0.9500811100006104
,portrait,0.9453119039535522
,indoors,0.9449126720428467
,kimono,0.9287104606628418
,cute,0.8937442898750305
,adolescent,0.8847135901451111
,college,0.8829538226127625
,young,0.8760070204734802
,model,0.8566197156906128
,beautiful,0.8482441902160645
,geisha,0.8470190167427063
,one,0.8363488912582397
,outdoors,0.8294886350631714
,child,0.8201310634613037
,hair,0.8151220083236694
,serious,0.8123154640197754
https://scontent.cdninstagram.com/t51.2885-15/s640x640/e15/13413493_887833404660796_1091877_n.jpg,watercraft,0.9975091218948364
,water,0.9953604936599731
,ship,0.9926369190216064
,transportation system,0.9917595386505127
,no person,0.9862178564071655
,harbor,0.98340904712677
,travel,0.98029625415802
,river,0.9787873029708862
,sea,0.9752449989318848
,boat,0.9694808125495911
,vehicle,0.9582301378250122
,pier,0.951058030128479
,sky,0.950212836265564
,shipment,0.9164719581604004
,barge,0.9106030464172363
,port,0.8966899514198303
,ferry,0.8928074240684509
,outdoors,0.8843214511871338
,waterfront,0.8804181218147278
,bay,0.877764880657196
https://scontent.cdninstagram.com/t51.2885-15/e35/13398877_104431669984823_787731623_n.jpg,tube,0.9975913763046265
,airport,0.9906551837921143
,people,0.9891648292541504
,city,0.9864978790283203
,street,0.9858821630477905
,urban,0.9662700891494751
,commuter,0.9588478803634644
,train,0.9587500095367432
,transportation system,0.9532614946365356
,railway,0.9521486163139343
,reflection,0.9516104459762573
,escalator,0.9473804235458374
,vehicle,0.9435776472091675
,woman,0.9394481182098389
,adult,0.9380451440811157
,one,0.9350669384002686
,luggage,0.9327403903007507
,train,0.9315227270126343
,departure,0.931442379951477
,portrait,0.9240409135818481
https://scontent.cdninstagram.com/t51.2885-15/e35/13397563_573185462852399_1165470215_n.jpg,drink,0.9907553195953369
,glass,0.9640064239501953
,food,0.9518767595291138
,milk,0.9484541416168213
,refreshment,0.922666072845459
,cold,0.9226090908050537
,ice,0.9194398522377014
,cup,0.9122296571731567
,fruit,0.9022778272628784
,sweet,0.8998110294342041
,tea,0.8903253078460693
,cocktail,0.8888639807701111
,breakfast,0.8866064548492432
,straw,0.8740643262863159
,vertical,0.8730435967445374
,summer,0.8645164966583252
,table,0.8635941743850708
,color,0.8556452989578247
,indoors,0.8530665636062622
,bar,0.8512650728225708
https://scontent.cdninstagram.com/t51.2885-15/e35/13422881_1095181093862169_1358649756_n.jpg,no person,0.9856128692626953
,wood,0.9837857484817505
,drink,0.9822525978088379
,food,0.9762624502182007
,coffee,0.9419440031051636
,family,0.9400115013122559
,indoors,0.9378973245620728
,wooden,0.9372981786727905
,bottle,0.9354445934295654
,color,0.9280946254730225
,health,0.9161996841430664
,breakfast,0.9121148586273193
,traditional,0.90482497215271
,table,0.9042443037033081
,cup,0.8896765112876892
,container,0.8481560349464417
,dawn,0.844103217124939
,tea,0.842894434928894
,healthy,0.832430899143219
,ceramic,0.8279547691345215
https://scontent.cdninstagram.com/t51.2885-15/e35/13408815_1797842467101469_534080479_n.jpg,woman,0.9799454808235168
,people,0.9631376266479492
,education,0.9371775388717651
,one,0.9263056516647339
,indoors,0.9148350358009338
,adolescent,0.9123889207839966
,young,0.9036836624145508
,fashion,0.8988274335861206
,school,0.8933143615722656
,portrait,0.892688512802124
,adult,0.8860414028167725
,pretty,0.8846724033355713
,business,0.8736892938613892
,wear,0.8721531629562378
,cute,0.8652505874633789
,girl,0.8543661832809448
,isolated,0.8406033515930176
,success,0.8329684138298035
,joy,0.8265146017074585
,intelligence,0.8247634768486023
https://scontent.cdninstagram.com/t51.2885-15/e35/13422898_253777078323721_1136748751_n.jpg,people,0.9872511625289917
,woman,0.9715070724487305
,one,0.9688965082168579
,travel,0.9680042266845703
,adult,0.9673330783843994
,music,0.9282087087631226
,light,0.9147762060165405
,wear,0.9097862839698792
,business,0.8922139406204224
,luxury,0.8874180316925049
,industry,0.8834021091461182
,vehicle,0.8819882869720459
,technology,0.8707749843597412
,transportation system,0.854352593421936
,indoors,0.8501715064048767
,man,0.8444836139678955
,girl,0.8397701978683472
,recreation,0.8226611614227295
,fashion,0.8182698488235474
,portrait,0.815961480140686
https://scontent.cdninstagram.com/t51.2885-15/e35/13423601_612920655532106_1886880294_n.jpg,water,0.9913623332977295
,woman,0.9841806888580322
,people,0.9747871160507202
,girl,0.9740934371948242
,travel,0.971856415271759
,portrait,0.9685530662536621
,summer,0.9351693987846375
,one,0.927801251411438
,outdoors,0.9257251024246216
,fashion,0.9218330383300781
,sea,0.9207732677459717
,beach,0.9091382026672363
,leisure,0.8983632326126099
,adult,0.8953286409378052
,recreation,0.8943508863449097
,sky,0.8855938911437988
,sun,0.8761060237884521
,city,0.8753839731216431
,sunset,0.8747266530990601
,fun,0.869844913482666
https://scontent.cdninstagram.com/t51.2885-15/e35/13355505_478581629004521_268206101_n.jpg,fountain,0.9989683628082275
,city,0.9971345663070679
,water,0.9968582391738892
,downtown,0.9928078651428223
,business,0.9922652244567871
,skyscraper,0.9922140836715698
,architecture,0.990545392036438
,travel,0.9897667169570923
,cityscape,0.987839937210083
,urban,0.9835346341133118
,building,0.9822479486465454
,river,0.9819729924201965
,skyline,0.978050947189331
,hotel,0.9747093319892883
,modern,0.9669438600540161
,street,0.9640642404556274
,office,0.959574818611145
,finance,0.9556805491447449
,casino,0.9552996158599854
,park,0.9550739526748657
https://scontent.cdninstagram.com/t51.2885-15/e35/13408863_1637584383232573_1260370762_n.jpg,travel,0.9827296733856201
,vacation,0.9686933159828186
,no person,0.9669601321220398
,fun,0.9483398795127869
,traditional,0.9473360776901245
,summer,0.9461508989334106
,sky,0.9204577207565308
,tourism,0.916431188583374
,design,0.9143511056900024
,outdoors,0.907793402671814
,hotel,0.9071846008300781
,luxury,0.9017094373703003
,decoration,0.8897302746772766
,water,0.8869412541389465
,leisure,0.8810639381408691
,architecture,0.8768105506896973
,symbol,0.8764250874519348
,gold,0.8634982109069824
,ball,0.8502719402313232
,casino,0.8489856123924255
https://scontent.cdninstagram.com/t51.2885-15/e35/13402626_660411384116912_179456642_n.jpg,portrait,0.9837950468063354
,woman,0.9815777540206909
,people,0.9801356792449951
,girl,0.9754478931427002
,adult,0.9680932760238647
,one,0.9536030292510986
,beautiful,0.9096465706825256
,fashion,0.8937261700630188
,face,0.8832120299339294
,wear,0.8804753422737122
,facial expression,0.8529485464096069
,young,0.8518646359443665
,model,0.8511275053024292
,music,0.8509578704833984
,profile,0.8461072444915771
,man,0.8403865694999695
,brunette,0.8382121324539185
,smile,0.8260797262191772
,happiness,0.8047106862068176
,person,0.7928857803344727
>>>>>>> origin/dev-billy-neuro
