url,class,score
https://scontent-sit4-1.cdninstagram.com/t51.2885-15/s480x480/e35/13256638_1602581926722429_995983687_n.jpg,illustration,0.9778982400894165
,text,0.9296365976333618
,desktop,0.9258410930633545
,vector,0.9258245229721069
,graphic,0.9247093200683594
,abstract,0.9010298252105713
,business,0.8963537216186523
,data,0.8911749124526978
,conceptual,0.8781813383102417
,horizontal,0.8745397329330444
,symbol,0.8740227222442627
,data,0.8734909892082214
,internet,0.8629208207130432
,no person,0.8563190698623657
,design,0.8380894660949707
,design,0.8285410404205322
,people,0.8267829418182373
,communication,0.8263012170791626
,vector,0.8064216375350952
,technology,0.7889615297317505
https://scontent-sit4-1.cdninstagram.com/t51.2885-15/e35/13741032_1166569096740156_303507926_n.jpg,business,0.9947226047515869
,illustration,0.9908872842788696
,communication,0.9781804084777832
,technology,0.9734457731246948
,design,0.9699852466583252
,text,0.9696922302246094
,image,0.9679948091506958
,symbol,0.9576688408851624
,internet,0.9564559459686279
,solution,0.9522756338119507
,shape,0.945402204990387
,abstract,0.9451433420181274
,vector,0.930901050567627
,square,0.9295752048492432
,data,0.9252718091011047
,World Wide Web,0.9223229289054871
,computer,0.9085423946380615
,data,0.9012696743011475
,strategy,0.8980287313461304
,message,0.8957324028015137
https://scontent-sit4-1.cdninstagram.com/t51.2885-15/s640x640/e15/13320058_715819621892570_1792191449_n.jpg,child,0.9996979236602783
,game,0.9964451193809509
,education,0.9918929934501648
,creativity,0.9892443418502808
,people,0.9892398118972778
,school,0.9880865812301636
,toy,0.9869104623794556
,youth,0.984829306602478
,indoors,0.9844204187393188
,painting,0.9837377667427063
,boy,0.9784744381904602
,fun,0.974402904510498
,room,0.9730532169342041
,one,0.970481276512146
,leisure,0.9699800610542297
,concentration,0.9690176248550415
,play,0.9542593955993652
,facial expression,0.9533665776252747
,boy,0.9471261501312256
,furniture,0.9469212293624878
https://scontent-sit4-1.cdninstagram.com/t51.2885-15/s640x640/e15/13285400_530600457130818_2119147535_n.jpg,togetherness,0.987004280090332
,woman,0.9868327379226685
,people,0.9806472063064575
,two,0.9804409742355347
,portrait,0.9790356159210205
,love,0.9784654378890991
,man,0.9781798124313354
,friendship,0.967613935470581
,happiness,0.9668346643447876
,adult,0.9636169672012329
,facial expression,0.9611235857009888
,family,0.9482884407043457
,fun,0.9256353974342346
,affection,0.9158765077590942
,laughing,0.9120407104492188
,child,0.9019473791122437
,interaction,0.8900799751281738
,joy,0.8877776861190796
,wear,0.878747820854187
,lifestyle,0.8723683953285217
https://scontent-sit4-1.cdninstagram.com/t51.2885-15/e35/13098860_538658982962514_336281734_n.jpg,child,0.9986313581466675
,education,0.9949883222579956
,school,0.993991494178772
,indoors,0.9937137365341187
,people,0.9900684356689453
,elementary school,0.9844869375228882
,room,0.944023847579956
,classroom,0.935564398765564
,one,0.9339728355407715
,family,0.9197814464569092
,daylight,0.9160274267196655
,enjoyment,0.9134862422943115
,knowledge,0.9116193056106567
,facial expression,0.888700008392334
,happiness,0.8846110105514526
,creativity,0.8829740881919861
,fun,0.879905641078949
,girl,0.8787070512771606
,youth,0.8776710033416748
,innocence,0.8654979467391968
https://scontent-sit4-1.cdninstagram.com/t51.2885-15/e35/12479101_920771328021448_554406825_n.jpg,sketch,0.9582602381706238
,illustration,0.9570817351341248
,vector,0.9428160786628723
,art,0.931512713432312
,design,0.9235854148864746
,scribble,0.9182682037353516
,desktop,0.8947283029556274
,sketch,0.8728622198104858
,graphic,0.8658274412155151
,pattern,0.8626102209091187
,symbol,0.8582679033279419
,decoration,0.8571079969406128
,child,0.8556826114654541
,paper,0.846257209777832
,no person,0.8100868463516235
,fun,0.8018851280212402
,people,0.7919386029243469
,shape,0.7860754728317261
,abstract,0.7795939445495605
,wallpaper,0.7752752900123596
https://scontent-sit4-1.cdninstagram.com/t51.2885-15/e35/12976112_793803067419322_258289200_n.jpg,no person,0.959925651550293
,wear,0.9584304690361023
,food,0.9285706281661987
,desktop,0.9270243644714355
,winter,0.9263718128204346
,snow,0.9232831001281738
,seafood,0.9192065596580505
,people,0.9027363061904907
,fish,0.9000732898712158
,design,0.8854916095733643
,paper,0.874842643737793
,painting,0.8657459020614624
,cold,0.8624143600463867
,indoors,0.861006498336792
,adult,0.8485463857650757
,creativity,0.839341402053833
,art,0.8387210965156555
,messy,0.838576078414917
,man,0.8337861895561218
,color,0.8216372728347778
https://scontent-sit4-1.cdninstagram.com/t51.2885-15/e15/13151205_1766882440224502_1395800758_n.jpg,child,0.9973644018173218
,people,0.9762698411941528
,youth,0.9738903045654297
,education,0.9720034599304199
,indoors,0.971780002117157
,one,0.9706399440765381
,room,0.9600517749786377
,leisure,0.9584097266197205
,boy,0.9582522511482239
,boy,0.9560121893882751
,school,0.9456324577331543
,family,0.9417968988418579
,wear,0.9413333535194397
,portrait,0.9370503425598145
,furniture,0.9260101318359375
,daylight,0.9087389707565308
,facial expression,0.9078339338302612
,fun,0.9071865081787109
,sit,0.8998761177062988
,play,0.896784782409668
https://scontent-sit4-1.cdninstagram.com/t51.2885-15/e35/13725545_1713036948960159_1468646403_n.jpg,room,0.9970486164093018
,indoors,0.9969020485877991
,house,0.9910221099853516
,apartment,0.9884740710258484
,family,0.9877108931541443
,window,0.9866552948951721
,inside,0.9864785075187683
,contemporary,0.9832808971405029
,furniture,0.9819101095199585
,door,0.9662360548973083
,no person,0.9506288766860962
,wall,0.9504229426383972
,floor,0.9481245279312134
,home,0.9443858861923218
,interior design,0.9392884969711304
,light,0.933326780796051
,empty,0.918780505657196
,architecture,0.9149788618087769
,bedroom,0.9144535660743713
,lamp,0.9120969772338867
https://scontent-sit4-1.cdninstagram.com/t51.2885-15/e15/13151254_1625627981092961_1005503865_n.jpg,education,0.9988733530044556
,child,0.9982503652572632
,school,0.9952778816223145
,knowledge,0.9950945377349854
,homework,0.9900882840156555
,book,0.9859352111816406
,intelligence,0.9776065349578857
,elementary school,0.9760022163391113
,indoors,0.9619882106781006
,writing,0.9581127762794495
,pencil,0.9576292037963867
,adolescent,0.9482929706573486
,concentration,0.9481607675552368
,schoolboy,0.9375199675559998
,people,0.9279570579528809
,study,0.9255515933036804
,research,0.9227050542831421
,college,0.9213395118713379
,preschool,0.9206836819648743
,library,0.9085890054702759
https://scontent-sit4-1.cdninstagram.com/t51.2885-15/e35/13183311_1708977406034896_548083157_n.jpg,people,0.9956108331680298
,woman,0.970079779624939
,man,0.9698108434677124
,girl,0.9512265920639038
,adult,0.9423813819885254
,dancing,0.9401968717575073
,motion,0.9330735206604004
,action,0.9149704575538635
,recreation,0.911661684513092
,rain,0.908387303352356
,group,0.9055524468421936
,silhouette,0.9051214456558228
,competition,0.8992953896522522
,boy,0.8983802795410156
,child,0.8963946104049683
,athlete,0.8907999992370605
,dancer,0.8740054965019226
,light,0.8651039600372314
,exhibition,0.8554377555847168
,city,0.848747730255127
https://scontent-sit4-1.cdninstagram.com/t51.2885-15/e35/13557167_1628650104118894_374972974_n.jpg,window,0.9825400114059448
,room,0.9789581894874573
,furniture,0.9644691944122314
,indoors,0.9625964164733887
,family,0.9596391916275024
,bed,0.9586097002029419
,house,0.9510797262191772
,bedroom,0.9454485177993774
,home,0.9404929876327515
,sofa,0.8991767764091492
,hotel,0.8982856273651123
,no person,0.8535875082015991
,table,0.8368381261825562
,apartment,0.835544228553772
,luxury,0.8288158178329468
,daylight,0.8248105049133301
,architecture,0.8244166374206543
,light,0.819599986076355
,seat,0.816959023475647
,interior design,0.7936570644378662
https://scontent-sit4-1.cdninstagram.com/t51.2885-15/e15/13256810_1699760640240937_727884718_n.jpg,child,0.9994807243347168
,indoors,0.9923975467681885
,cute,0.9867907762527466
,little,0.9819551706314087
,people,0.9673607349395752
,fun,0.9665426015853882
,enjoyment,0.960853099822998
,one,0.9585106372833252
,woman,0.9472784399986267
,family,0.9419611692428589
,adolescent,0.934272050857544
,innocence,0.9332841634750366
,telephone,0.9248322248458862
,leisure,0.9193787574768066
,looking,0.9146338105201721
,eye,0.904013991355896
,portrait,0.9027259349822998
,boy,0.8984500169754028
,pretty,0.8972119688987732
,funny,0.8943318128585815
https://scontent-sit4-1.cdninstagram.com/t51.2885-15/e35/13108861_1710833555864098_678926717_n.jpg,child,0.9997459650039673
,people,0.9839774370193481
,little,0.9837110042572021
,one,0.9804929494857788
,fun,0.9751001596450806
,innocence,0.9629800319671631
,cute,0.9572381973266602
,school,0.9544435143470764
,outdoors,0.9496334195137024
,education,0.9495536684989929
,enjoyment,0.9326050877571106
,boy,0.92713862657547
,wear,0.9133065938949585
,water,0.9057019948959351
,indoors,0.9052244424819946
,portrait,0.9032524824142456
,youth,0.9004907608032227
,leisure,0.8946272134780884
,boy,0.8815870881080627
,baby,0.8804316520690918
https://scontent-sit4-1.cdninstagram.com/t51.2885-15/e35/13381040_995219897230940_1548632581_n.jpg,child,0.997934103012085
,family,0.9772769212722778
,boy,0.9771866798400879
,boy,0.9718723297119141
,youth,0.9698483943939209
,fun,0.967965304851532
,game,0.9676342010498047
,people,0.9671384692192078
,cute,0.9669593572616577
,girl,0.9505884647369385
,leisure,0.9486703872680664
,little,0.9370545148849487
,play,0.9276778697967529
,toy,0.9183922410011292
,portrait,0.9157510995864868
,indoors,0.9033255577087402
,baby,0.8900697231292725
,education,0.8893015384674072
,two,0.8772051334381104
,computer,0.8542391061782837
https://scontent-sit4-1.cdninstagram.com/t51.2885-15/e35/13584291_267036033669386_355638984_n.jpg,people,0.9919151067733765
,portrait,0.9787225127220154
,child,0.9632706642150879
,adult,0.9576597213745117
,recreation,0.9543572068214417
,music,0.9471346139907837
,musician,0.9457437992095947
,two,0.9377466440200806
,festival,0.9367663264274597
,man,0.9327712059020996
,fun,0.9297983646392822
,movie,0.9263458251953125
,family,0.911480188369751
,woman,0.9102928638458252
,singer,0.9075003862380981
,actor,0.9074559211730957
,actress,0.885114312171936
,group,0.8819600343704224
,celebration,0.8762937784194946
,happiness,0.8744299411773682
https://scontent-sit4-1.cdninstagram.com/t51.2885-15/e15/13151336_1632529120400892_707946953_n.jpg,people,0.9955201148986816
,child,0.9916929006576538
,celebration,0.9748659133911133
,fun,0.9727674722671509
,adult,0.9508043527603149
,party,0.9316672086715698
,creativity,0.9313507080078125
,horizontal,0.9302369356155396
,man,0.9297271966934204
,portrait,0.9128937721252441
,education,0.9125626087188721
,painting,0.9023807048797607
,indoors,0.8969261050224304
,happiness,0.8932844996452332
,craft,0.8896187543869019
,festival,0.8763059973716736
,skill,0.8747085332870483
,woman,0.87205570936203
,enjoyment,0.8638007044792175
,vertical,0.862427830696106
https://scontent-sit4-1.cdninstagram.com/t51.2885-15/e35/13167455_1133209796721117_1858528566_n.jpg,no person,0.995741069316864
,business,0.9748284816741943
,paper,0.9708831310272217
,indoors,0.9648156762123108
,money,0.9257311820983887
,family,0.921832799911499
,luxury,0.9092862606048584
,wealth,0.9081366062164307
,finance,0.9035463333129883
,health,0.903401255607605
,healthcare,0.8908913731575012
,one,0.888500452041626
,wood,0.8883846998214722
,shopping,0.8667978048324585
,isolated,0.8646095991134644
,finance,0.8472198843955994
,money,0.84665846824646
,food,0.8320491313934326
,retro,0.8210186958312988
,security,0.8131360411643982
https://scontent-sit4-1.cdninstagram.com/t51.2885-15/e15/13408938_955194207927629_1181933731_n.jpg,child,0.9691476821899414
,people,0.9628756046295166
,variation,0.9349200129508972
,adult,0.8729064464569092
,food,0.8499237298965454
,horizontal,0.8490971326828003
,market,0.7984787821769714
,stock,0.7915459871292114
,fun,0.7895229458808899
,celebration,0.7798755764961243
,collage,0.7788457870483398
,portrait,0.7667950391769409
,woman,0.7610665559768677
,happiness,0.7589925527572632
,carnival,0.7447600960731506
,table,0.7419672012329102
,education,0.7382155656814575
,cheerful,0.7321476936340332
,color,0.7306680083274841
,banner,0.7266590595245361
https://scontent-sit4-1.cdninstagram.com/t51.2885-15/e35/12479649_743870155753837_2038314117_n.jpg,child,0.9923044443130493
,group,0.984150767326355
,people,0.9838036894798279
,family,0.9759818315505981
,fun,0.948589563369751
,man,0.947739839553833
,woman,0.9234656095504761
,boy,0.9083207845687866
,portrait,0.8961789608001709
,boy,0.8911281228065491
,entertainment,0.88188636302948
,love,0.8815869092941284
,festival,0.8636914491653442
,education,0.8419599533081055
,adult,0.8411192297935486
,group,0.8399088382720947
,three,0.8371778130531311
,celebration,0.8360951542854309
,four,0.8326132893562317
,two,0.8207105398178101
https://scontent-sit4-1.cdninstagram.com/t51.2885-15/e35/13722184_1469927489690695_1522688595_n.jpg,people,0.9862423539161682
,woman,0.9859052300453186
,group,0.9857975244522095
,adult,0.9505663514137268
,education,0.9297987818717957
,many,0.9163132905960083
,child,0.9154253602027893
,school,0.8969575762748718
,man,0.8910819292068481
,group,0.8553345203399658
,portrait,0.8467802405357361
,exhibition,0.8343316316604614
,wear,0.8239423036575317
,room,0.805849552154541
,enjoyment,0.8003432750701904
,family,0.7992573976516724
,music,0.794728696346283
,girl,0.7743921875953674
,festival,0.751152515411377
,teacher,0.7506424188613892
https://scontent-sit4-1.cdninstagram.com/t51.2885-15/e15/13741391_821671804598913_926383958_n.jpg,sport,0.9784245491027832
,people,0.9763856530189514
,soccer,0.9712355136871338
,competition,0.9523533582687378
,game,0.9504640102386475
,football,0.9355560541152954
,man,0.9260304570198059
,champion,0.9121257066726685
,championship,0.8928441405296326
,woman,0.8893448114395142
,ball,0.887160062789917
,adult,0.8815505504608154
,flag,0.8775608539581299
,squad,0.8718219995498657
,stadium,0.8609976768493652
,cup,0.8564862012863159
,populace,0.8353161811828613
,match,0.83006751537323
,International,0.8279265761375427
,play,0.8275975584983826
https://scontent-sit4-1.cdninstagram.com/t51.2885-15/e35/13725695_1038487836205294_998202729_n.jpg,technology,0.9721047878265381
,illustration,0.9684512615203857
,vector,0.9368584156036377
,modern,0.9233075380325317
,equipment,0.9118704795837402
,no person,0.9095525741577148
,fun,0.9007364511489868
,business,0.8953127264976501
,transportation system,0.8905311822891235
,sketch,0.8873918056488037
,internet,0.8817949295043945
,design,0.8614833354949951
,computer,0.8581730127334595
,vector,0.8437501192092896
,desktop,0.8359440565109253
,symbol,0.8324846029281616
,connection,0.8319481015205383
,people,0.8286662101745605
,science,0.8274235725402832
,chemistry,0.8191148042678833
https://scontent-sit4-1.cdninstagram.com/t51.2885-15/e15/13129874_999218583507819_980762203_n.jpg,people,0.9937107563018799
,indoors,0.9931960105895996
,adult,0.9876208305358887
,child,0.985397219657898
,portrait,0.9806468486785889
,one,0.9765275716781616
,seat,0.9761573076248169
,facial expression,0.9741781949996948
,daylight,0.961126446723938
,wear,0.9603652954101562
,furniture,0.9589846730232239
,vehicle,0.9543927907943726
,room,0.945277750492096
,woman,0.9445318579673767
,girl,0.9395626783370972
,happiness,0.9294253587722778
,man,0.9109843969345093
,car,0.9050676822662354
,enjoyment,0.8963955640792847
,travel,0.8954041600227356
https://scontent-sit4-1.cdninstagram.com/t51.2885-15/e35/13277511_1742574569357046_781177790_n.jpg,street,0.9860917925834656
,festival,0.9819795489311218
,parade,0.9786646962165833
,road,0.9742906093597412
,people,0.9713319540023804
,competition,0.9705305099487305
,many,0.9485564231872559
,city,0.9431533813476562
,dancing,0.9230030179023743
,military,0.9142745733261108
,performance,0.9068336486816406
,marathon,0.8978453874588013
,man,0.8864598870277405
,crowd,0.8809059858322144
,recreation,0.8761558532714844
,group,0.8617861270904541
,religion,0.8615327477455139
,action,0.8565077185630798
,flag,0.8494182229042053
,fun,0.8470679521560669
https://scontent-sit4-1.cdninstagram.com/t51.2885-15/e35/13258978_1063869497019238_936523509_n.jpg,child,0.9998072385787964
,school,0.9997454881668091
,education,0.9997173547744751
,classroom,0.9990310668945312
,elementary school,0.9979166388511658
,indoors,0.9954901933670044
,chalkboard,0.9946955442428589
,people,0.9921066164970398
,elementary,0.9908051490783691
,chalk,0.9887514114379883
,mathematics,0.9875873327255249
,class,0.9867278933525085
,lesson,0.979928731918335
,room,0.9761990308761597
,teacher,0.9746365547180176
,writing,0.9602766036987305
,study,0.9562621116638184
,boy,0.9528795480728149
,preschool,0.9485664367675781
,little,0.9434918165206909
https://scontent-sit4-1.cdninstagram.com/t51.2885-15/e35/13116735_1091343550889222_693663052_n.jpg,woman,0.9795029759407043
,indoors,0.9683663845062256
,man,0.9627341032028198
,adult,0.9500599503517151
,people,0.9421147108078003
,group,0.9373946785926819
,facial expression,0.9287940263748169
,family,0.9263960123062134
,enjoyment,0.9196245670318604
,friendship,0.9170148372650146
,togetherness,0.9145351648330688
,room,0.8916493058204651
,group,0.8753453493118286
,happiness,0.8744237422943115
,wine,0.874313235282898
,drink,0.8692176342010498
,portrait,0.8607508540153503
,fun,0.847524106502533
,wear,0.8393856287002563
,four,0.838104248046875
https://scontent-sit4-1.cdninstagram.com/t51.2885-15/e35/13561935_268737350150330_964393072_n.jpg,child,0.9982401728630066
,indoors,0.9885457754135132
,furniture,0.9855356812477112
,room,0.9831632375717163
,family,0.9820520877838135
,sofa,0.9802772402763367
,togetherness,0.9734501838684082
,offspring,0.9708303809165955
,facial expression,0.9674499034881592
,boy,0.9634082317352295
,enjoyment,0.9598372578620911
,seat,0.957821249961853
,man,0.9423799514770508
,education,0.9369733333587646
,people,0.9352582097053528
,happiness,0.9340289831161499
,adult,0.9325034022331238
,boy,0.930516242980957
,woman,0.9301370978355408
,youth,0.9273812770843506
https://scontent-sit4-1.cdninstagram.com/t51.2885-15/s640x640/sh0.08/e35/13167455_1718753351737350_786352609_n.jpg,togetherness,0.9877716302871704
,group,0.9876928329467773
,recreation,0.9868614673614502
,people,0.9848231077194214
,woman,0.983085036277771
,athlete,0.9819492697715759
,group,0.9800570607185364
,adult,0.9788374900817871
,lifestyle,0.9785455465316772
,facial expression,0.9778278470039368
,enjoyment,0.9755168557167053
,runner,0.9611662030220032
,wear,0.9610804319381714
,leisure,0.9601835012435913
,man,0.9585126638412476
,happiness,0.9544003009796143
,friendship,0.9525638818740845
,motion,0.9388072490692139
,exercise,0.9320269823074341
,jogger,0.9160588979721069
https://scontent-sit4-1.cdninstagram.com/t51.2885-15/e35/13687016_751655214974833_338935231_n.jpg,banner,0.9767975807189941
,World Wide Web,0.9685385823249817
,text,0.9460668563842773
,promotion,0.9408619403839111
,presentation,0.9391958713531494
,layout,0.9390000104904175
,template,0.9379262924194336
,set,0.9193841218948364
,vector,0.9086682796478271
,design,0.9027309417724609
,business,0.8997137546539307
,light,0.8974330425262451
,technology,0.8960602283477783
,desktop,0.881443440914154
,abstract,0.8775458335876465
,bill,0.87111496925354
,screen,0.8691792488098145
,heading,0.8544902205467224
,internet,0.8534138798713684
,page,0.8532711863517761
https://scontent-sit4-1.cdninstagram.com/t51.2885-15/e35/13381410_1733912196827484_842703099_n.jpg,indoors,0.9893141984939575
,seat,0.9627870321273804
,business,0.958337664604187
,power,0.9540469646453857
,machine,0.952637791633606
,equipment,0.9459452629089355
,desk,0.9445668458938599
,office,0.9427738785743713
,wheel,0.938814103603363
,vehicle,0.9316350221633911
,treadmill,0.9274522662162781
,inside,0.9239876866340637
,technology,0.9200676679611206
,chair,0.9160218238830566
,computer,0.9004131555557251
,no person,0.8983327150344849
,room,0.8910239934921265
,table,0.8771383762359619
,transportation system,0.8729857802391052
,contemporary,0.8632124662399292
https://scontent-sit4-1.cdninstagram.com/t51.2885-15/e35/13151169_1709693465964152_754980478_n.jpg,soil,0.9994270205497742
,flora,0.996874213218689
,pot,0.9962253570556641
,ball-shaped,0.9960365295410156
,growth,0.9951358437538147
,growth,0.9903305172920227
,ground,0.9888486266136169
,leaf,0.9869000911712646
,compost,0.9849029779434204
,herb,0.9766237735748291
,environment,0.9762512445449829
,sprout,0.9699295163154602
,garden,0.9683710932731628
,nature,0.9656484127044678
,agriculture,0.9605780243873596
,flowerpot,0.9589420557022095
,food,0.9580484628677368
,dry,0.9575589895248413
,spice,0.9515386819839478
,little,0.9493845701217651
https://scontent-sit4-1.cdninstagram.com/t51.2885-15/e35/13402697_291523804513924_852652241_n.jpg,child,0.9960310459136963
,people,0.9706313014030457
,girl,0.969096839427948
,cute,0.9678109288215637
,education,0.9523274302482605
,boy,0.9500942826271057
,little,0.9371894598007202
,fun,0.9371874928474426
,adult,0.9260444045066833
,indoors,0.9213933944702148
,creativity,0.9197430610656738
,portrait,0.9114301204681396
,one,0.9059455394744873
,school,0.9043793678283691
,toy,0.9038392305374146
,play,0.9020205736160278
,happiness,0.8943290710449219
,youth,0.8929628133773804
,person,0.8922107219696045
,baby,0.8848268985748291
https://scontent-sit4-1.cdninstagram.com/t51.2885-15/e35/13151136_1714410192141760_255167912_n.jpg,flower,0.9795809984207153
,people,0.9719151258468628
,decoration,0.9511748552322388
,ceremony,0.9260141849517822
,religion,0.9175551533699036
,daylight,0.9128803610801697
,garden,0.9063280820846558
,presentation,0.8862951993942261
,travel,0.8856405019760132
,no person,0.8793767690658569
,festival,0.8782405853271484
,group,0.8773061633110046
,sculpture,0.8711521625518799
,celebration,0.8647595643997192
,flower arrangement,0.8574241399765015
,tourism,0.8223121166229248
,tourist,0.8175505995750427
,art,0.8155794143676758
,carnival,0.8087326288223267
,market,0.7950868606567383
https://scontent-sit4-1.cdninstagram.com/t51.2885-15/e35/13183552_1035819383140402_2075726116_n.jpg,child,0.9996490478515625
,people,0.9791764616966248
,togetherness,0.9770686626434326
,facial expression,0.9769752025604248
,family,0.9732969403266907
,fun,0.9703667163848877
,enjoyment,0.9695355892181396
,outdoors,0.9648870229721069
,two,0.9576462507247925
,wear,0.9540212154388428
,boy,0.9467810392379761
,leisure,0.9463502168655396
,happiness,0.9306039810180664
,daylight,0.9199816584587097
,youth,0.9165865182876587
,recreation,0.9092156887054443
,three,0.9084467887878418
,portrait,0.8939189910888672
,boy,0.8929623365402222
,education,0.8908411264419556
https://scontent-sit4-1.cdninstagram.com/t51.2885-15/e15/13277554_572030729644033_1295921439_n.jpg,child,0.9999722242355347
,fun,0.9908177852630615
,education,0.9904571771621704
,cute,0.9898061752319336
,little,0.986613929271698
,people,0.9856642484664917
,preschool,0.9798523783683777
,kindergarten,0.9738375544548035
,school,0.9685171246528625
,game,0.9599230289459229
,family,0.9501683712005615
,happiness,0.949292004108429
,innocence,0.9414666295051575
,play,0.9379897117614746
,friendship,0.9330165982246399
,boy,0.9274450540542603
,joy,0.9254240393638611
,baby,0.9112062454223633
,cheerful,0.9096491932868958
,elementary,0.9035574197769165
https://scontent-sit4-1.cdninstagram.com/t51.2885-15/e35/13109086_230115750702978_570948325_n.jpg,people,0.9756660461425781
,recreation,0.9703179597854614
,child,0.9657344818115234
,swimming,0.9592703580856323
,fun,0.9543920159339905
,woman,0.9518370628356934
,summer,0.9462673664093018
,water,0.9460830688476562
,leisure,0.9372621774673462
,outdoors,0.9354252815246582
,togetherness,0.9003267884254456
,family,0.8986533284187317
,travel,0.8924914598464966
,enjoyment,0.8817955851554871
,happiness,0.874794602394104
,girl,0.8745335340499878
,horizontal,0.8706609010696411
,relaxation,0.8681454062461853
,vacation,0.8471198081970215
,music,0.8456745147705078
https://scontent-sit4-1.cdninstagram.com/t51.2885-15/e35/13166723_227452904302705_408473010_n.jpg,child,0.998130202293396
,boy,0.9894067049026489
,people,0.9815255403518677
,fun,0.9794695377349854
,recreation,0.9757256507873535
,happiness,0.9691616296768188
,girl,0.9644995927810669
,leisure,0.9587876796722412
,wear,0.9547199010848999
,boy,0.950227677822113
,youth,0.9453548192977905
,lifestyle,0.9415406584739685
,enjoyment,0.9260207414627075
,two,0.9179999828338623
,facial expression,0.9170501232147217
,one,0.9097036123275757
,adult,0.9000523090362549
,motion,0.8935359716415405
,little,0.884379506111145
,portrait,0.8790343999862671
https://scontent-sit4-1.cdninstagram.com/t51.2885-15/e35/13150951_922113481234932_2094443338_n.jpg,child,0.9992929697036743
,little,0.9862291812896729
,people,0.9817500710487366
,family,0.9801517724990845
,leisure,0.9696894288063049
,cute,0.9685280919075012
,boy,0.9682712554931641
,one,0.9643399715423584
,outdoors,0.9571828842163086
,fun,0.956063985824585
,toddler,0.9411877393722534
,daylight,0.9292275309562683
,sit,0.9290612936019897
,youth,0.9266644716262817
,baby,0.926027238368988
,summer,0.9147076606750488
,young,0.9055096507072449
,lifestyle,0.8987129926681519
,indoors,0.8981992602348328
,preschool,0.8914830684661865
https://scontent-sit4-1.cdninstagram.com/t51.2885-15/e35/13643668_1648866335433382_657787062_n.jpg,man,0.9946449995040894
,outdoors,0.9881319999694824
,togetherness,0.9843774437904358
,woman,0.9776799082756042
,people,0.9643474221229553
,enjoyment,0.9411113262176514
,facial expression,0.9390102028846741
,daylight,0.9362884759902954
,two,0.9335927963256836
,travel,0.9321672320365906
,friendship,0.9211219549179077
,adult,0.9207432270050049
,love,0.9138952493667603
,water,0.908409833908081
,group,0.9048367738723755
,wear,0.8996179103851318
,three,0.8919439315795898
,affection,0.8770504593849182
,portrait,0.8745837211608887
,business,0.860333263874054
https://scontent-sit4-1.cdninstagram.com/t51.2885-15/e35/13261043_190464548015077_1720560235_n.jpg,leaf,0.9957314133644104
,flora,0.9924436211585999
,food,0.9915125966072083
,vegetable,0.9872231483459473
,healthy,0.9824831485748291
,herbal,0.9758777618408203
,nature,0.9758523106575012
,herb,0.9742233753204346
,thyme,0.9741677045822144
,spice,0.9708036184310913
,aromatic,0.9696921706199646
,pot,0.9677975177764893
,oregano,0.96761554479599
,no person,0.966952919960022
,garden,0.9633539915084839
,freshness,0.9628850221633911
,growth,0.9576082229614258
,health,0.9515410661697388
,greenhouse,0.9442207217216492
,cluster,0.9398695230484009
https://scontent-sit4-1.cdninstagram.com/t51.2885-15/e35/13249833_896294240479982_1458895598_n.jpg,recreation,0.994813859462738
,exercise,0.9928391575813293
,competition,0.9926251173019409
,athlete,0.9926217198371887
,runner,0.9851536750793457
,marathon,0.9838422536849976
,people,0.9812489748001099
,jogger,0.9782876968383789
,man,0.9749934673309326
,motion,0.9742856621742249
,child,0.973726212978363
,leisure,0.963411808013916
,adult,0.9617143869400024
,race,0.9564117193222046
,woman,0.9555494785308838
,fitness,0.953251838684082
,group,0.9472618699073792
,enjoyment,0.9448086023330688
,wear,0.9433437585830688
,energy,0.9354227781295776
https://scontent-sit4-1.cdninstagram.com/t51.2885-15/e35/13188079_959053220881055_1594233785_n.jpg,child,0.9886796474456787
,togetherness,0.9875138401985168
,facial expression,0.9873806238174438
,people,0.9839339256286621
,happiness,0.9822638034820557
,group,0.9800076484680176
,offspring,0.9788143634796143
,affection,0.9679982662200928
,woman,0.9639650583267212
,four,0.9607983827590942
,boy,0.9582131505012512
,adult,0.9575698375701904
,three,0.9518276453018188
,daylight,0.9516478776931763
,interaction,0.9474541544914246
,family,0.9454246759414673
,love,0.9439364671707153
,sibling,0.9383895993232727
,youth,0.9347701072692871
,enjoyment,0.9275128841400146
https://scontent-sit4-1.cdninstagram.com/t51.2885-15/e35/12976471_597611340416914_1005131239_n.jpg,bike,0.9988015294075012
,people,0.9979249835014343
,wheel,0.9948310852050781
,child,0.9946831464767456
,vehicle,0.9933958053588867
,transportation system,0.9839999675750732
,adult,0.9706974029541016
,street,0.9702512621879578
,biker,0.9638364315032959
,sitting,0.9632949829101562
,boy,0.9528121948242188
,family,0.9443055987358093
,woman,0.9443051218986511
,man,0.9354034066200256
,one,0.9339669346809387
,road,0.9321099519729614
,two,0.9305888414382935
,wear,0.9129748344421387
,cyclist,0.9076178073883057
,daylight,0.9048843383789062
https://scontent-sit4-1.cdninstagram.com/l/t51.2885-15/e35/13108777_1599163840402053_94245434_n.jpg,food,0.9966230392456055
,meal,0.9846439361572266
,meat,0.9826140999794006
,dinner,0.9803206920623779
,cuisine,0.9781261682510376
,delicious,0.9750533103942871
,dish,0.9738423228263855
,vegetable,0.9736505746841431
,rice,0.9733071327209473
,epicure,0.9716328382492065
,lunch,0.9703676700592041
,plate,0.9672405123710632
,restaurant,0.966513991355896
,tasty,0.9617257118225098
,chicken,0.959800660610199
,sauce,0.9577555060386658
,hot,0.9540804624557495
,closeup,0.9540743827819824
,healthy,0.9538254737854004
,tomato,0.9481300115585327
https://scontent-sit4-1.cdninstagram.com/t51.2885-15/e35/13561817_1725663331040392_1980606850_n.jpg,child,0.9918645620346069
,two,0.9911556243896484
,people,0.9899659752845764
,adult,0.9744489192962646
,outdoors,0.9725069999694824
,boy,0.9702264070510864
,happiness,0.9615186452865601
,man,0.9535338282585144
,three,0.9509652256965637
,togetherness,0.9506256580352783
,tree,0.9437047243118286
,leisure,0.9356092214584351
,daylight,0.9317218661308289
,girl,0.9312716722488403
,offspring,0.9303113222122192
,family,0.9248379468917847
,recreation,0.9228329658508301
,park,0.9097489714622498
,grow,0.9031262993812561
,lifestyle,0.9030967354774475
https://scontent-sit4-1.cdninstagram.com/t51.2885-15/e35/13381128_253714205000759_2070290076_n.jpg,people,0.9916316270828247
,child,0.9602224826812744
,group,0.9551727175712585
,tree,0.948887050151825
,woman,0.9425114393234253
,outdoors,0.8995400071144104
,nature,0.8951330780982971
,adult,0.8845069408416748
,family,0.883898138999939
,many,0.8763667345046997
,recreation,0.8707969784736633
,park,0.8584206104278564
,travel,0.856586217880249
,summer,0.8496020436286926
,man,0.8464303016662598
,mammal,0.8308919668197632
,house,0.8218228816986084
,art,0.8217931985855103
,one,0.8195040225982666
,garden,0.8058304190635681
https://scontent-sit4-1.cdninstagram.com/t51.2885-15/e35/13130037_862222900555391_363933980_n.jpg,people,0.9848073720932007
,child,0.9780133962631226
,family,0.971208930015564
,adult,0.9658392667770386
,man,0.9536441564559937
,two,0.9526827335357666
,woman,0.9474985003471375
,recreation,0.9406596422195435
,leisure,0.9276707172393799
,outdoors,0.9148843288421631
,park,0.9131991863250732
,portrait,0.9105446934700012
,boy,0.9041951894760132
,group,0.8915586471557617
,enjoyment,0.8862603902816772
,happiness,0.8751846551895142
,offspring,0.8725060820579529
,fun,0.8437347412109375
,wear,0.842016875743866
,girl,0.822675883769989
