url,class,score
https://scontent-sit4-1.cdninstagram.com/t51.2885-15/s320x320/e35/11311231_479232948921898_1207702889_n.jpg,woman,0.9956218004226685
,group,0.9949201345443726
,table,0.994454026222229
,adult,0.9844456911087036
,man,0.9826638698577881
,restaurant,0.9759673476219177
,portrait,0.9657492637634277
,girl,0.962537407875061
,happiness,0.9591159820556641
,people,0.9576327800750732
,meal,0.9521584510803223
,family,0.9439427852630615
,room,0.9339988231658936
,child,0.9330766201019287
,food,0.9321287274360657
,group,0.9286097288131714
,lifestyle,0.9075884819030762
,indoors,0.8973128795623779
,smile,0.8915681838989258
,drink,0.869342565536499
https://scontent-sit4-1.cdninstagram.com/t51.2885-15/s480x480/e35/10261211_1692160434364428_1417032348_n.jpg,cute,0.9947998523712158
,little,0.9928003549575806
,baby,0.9895256161689758
,child,0.9798693656921387
,cat,0.9727615118026733
,portrait,0.9631391763687134
,one,0.9630202054977417
,mammal,0.9563854932785034
,downy,0.9541102647781372
,tiny,0.9449266195297241
,newborn,0.9401845932006836
,gentleness,0.934657633304596
,funny,0.9243447780609131
,pet,0.9162135124206543
,confection,0.8992702960968018
,fun,0.8970633149147034
,kitten,0.8939077854156494
,fur,0.892078697681427
,boy,0.8908897638320923
,eye,0.8856858015060425
https://scontent-sit4-1.cdninstagram.com/t51.2885-15/s640x640/e15/13556859_583068281854736_37023429_n.jpg,skin,0.9504506587982178
,woman,0.938888669013977
,no person,0.9351537227630615
,nature,0.9296313524246216
,medicine,0.9237914085388184
,one,0.9217352867126465
,relaxation,0.9207627177238464
,healthcare,0.9119587540626526
,people,0.8992193341255188
,mammal,0.8942573070526123
,hand,0.8803026676177979
,treatment,0.8802475333213806
,animal,0.8744498491287231
,adult,0.8712122440338135
,foot,0.8633086681365967
,indoors,0.847681999206543
,young,0.8394302129745483
,outdoors,0.8328917026519775
,daylight,0.8326892852783203
,food,0.8285878896713257
https://scontent-sit4-1.cdninstagram.com/t51.2885-15/s320x320/e35/12393858_455708327954284_1951088354_n.jpg,cat,0.9932882189750671
,no person,0.9861469268798828
,mammal,0.9842538833618164
,painting,0.9681199789047241
,one,0.9667999744415283
,people,0.9647060632705688
,pet,0.957378625869751
,rabbit,0.9464688301086426
,baby,0.9373959302902222
,art,0.9330171346664429
,animal,0.9133521318435669
,dog,0.8944059014320374
,kitten,0.887752890586853
,two,0.8569365739822388
,bird,0.8545981645584106
,sleep,0.8536038398742676
,portrait,0.8509874939918518
,side view,0.834690272808075
,indoors,0.8221617937088013
,bed,0.810832142829895
https://scontent-sit4-1.cdninstagram.com/t51.2885-15/s750x750/sh0.08/e35/11350722_1493839024243632_900817876_n.jpg,cat,0.9997615814208984
,kitten,0.9988449811935425
,animal,0.9982758164405823
,pet,0.9978035092353821
,cute,0.9962905049324036
,portrait,0.9933600425720215
,domestic,0.9930073022842407
,downy,0.9912546277046204
,fur,0.9912325143814087
,eye,0.9869288206100464
,adorable,0.9825856685638428
,young,0.9809909462928772
,studio,0.9782199263572693
,furry,0.9768860340118408
,funny,0.9760574102401733
,baby,0.9743335247039795
,hair,0.9632583856582642
,little,0.9619811177253723
,paw,0.9611438512802124
,tabby,0.9608745574951172
https://scontent-sit4-1.cdninstagram.com/t51.2885-15/s750x750/sh0.08/e35/11202934_879882612089846_531707979_n.jpg,cat,0.999129056930542
,pet,0.9930807948112488
,kitten,0.9930121898651123
,cute,0.9902445077896118
,mammal,0.9895914793014526
,animal,0.9853811264038086
,fur,0.9741787910461426
,domestic,0.9737750291824341
,eye,0.9675900936126709
,portrait,0.9662708640098572
,downy,0.9425849318504333
,little,0.9378222227096558
,one,0.9328364133834839
,whisker,0.9309678077697754
,no person,0.927903950214386
,adorable,0.926945686340332
,baby,0.921455979347229
,sleep,0.913946270942688
,tabby,0.9059414267539978
,furry,0.8829816579818726
https://scontent-sit4-1.cdninstagram.com/t51.2885-15/sh0.08/e35/p640x640/13658378_1655780978076670_1386595772_n.jpg,healthcare,0.9986674785614014
,medicine,0.9968110918998718
,mask,0.9934666752815247
,science,0.9925041794776917
,hospital,0.9923508167266846
,scientist,0.9879326820373535
,health,0.9879175424575806
,security,0.9865968227386475
,gloves,0.9836157560348511
,one,0.9835484623908997
,uniform,0.9826071262359619
,people,0.9766819477081299
,research,0.9757630825042725
,safety,0.9751254320144653
,doctor,0.9730877876281738
,surgery,0.971417248249054
,mask,0.9679936170578003
,biology,0.9646025896072388
,medical,0.9582096338272095
,science,0.9567821025848389
https://scontent-sit4-1.cdninstagram.com/t51.2885-15/e35/1168514_972874062799078_2067901882_n.jpg,pet,0.9931579828262329
,cute,0.9887982606887817
,animal,0.9884765148162842
,cat,0.9848759174346924
,mammal,0.981255292892456
,little,0.9758073091506958
,domestic,0.9644199013710022
,downy,0.9631785154342651
,baby,0.9598531723022461
,kitten,0.958835244178772
,portrait,0.9566190838813782
,adorable,0.9516021013259888
,eye,0.9310028553009033
,fur,0.9294735789299011
,furry,0.9119576215744019
,one,0.8953844308853149
,gentleness,0.8900725841522217
,whisker,0.8851356506347656
,confection,0.8850203156471252
,sleep,0.8827656507492065
https://scontent-sit4-1.cdninstagram.com/t51.2885-15/e15/12277574_138977606465299_1222588181_n.jpg,cat,0.9917171001434326
,cute,0.9844843149185181
,fur,0.9808653593063354
,love,0.9800724387168884
,downy,0.9734210968017578
,kitten,0.9676928520202637
,portrait,0.9594777822494507
,pet,0.9561779499053955
,one,0.9558812975883484
,eye,0.9430167078971863
,motley,0.9402463436126709
,no person,0.9343935251235962
,indoors,0.9215983152389526
,girl,0.9205646514892578
,mammal,0.8958985209465027
,people,0.8863319158554077
,sleep,0.8826761245727539
,young,0.878351092338562
,animal,0.8772875666618347
,pretty,0.874570369720459
https://scontent-sit4-1.cdninstagram.com/t51.2885-15/e35/13413419_1099090446833143_450352337_n.jpg,no person,0.9855847358703613
,mammal,0.9844413995742798
,animal,0.9670042991638184
,downy,0.9559193849563599
,cute,0.9480983018875122
,dog,0.9419366121292114
,sleep,0.9384596943855286
,fur,0.9263437986373901
,pet,0.9235166311264038
,one,0.9117079973220825
,little,0.901503324508667
,winter,0.8824924826622009
,nature,0.8775733709335327
,canine,0.874582052230835
,frosty,0.8733099102973938
,sleepy,0.8497416973114014
,portrait,0.8408074378967285
,snow,0.8371317982673645
,cat,0.8187168836593628
,puppy,0.8172003626823425
https://scontent-sit4-1.cdninstagram.com/t51.2885-15/s750x750/sh0.08/e35/11909968_951538571569508_1724839120_n.jpg,cat,0.9999135732650757
,domestic,0.9994040727615356
,kitten,0.9992042779922485
,animal,0.9986438155174255
,fur,0.9977422952651978
,pet,0.9976951479911804
,cute,0.9972862601280212
,tabby,0.9927991628646851
,downy,0.9896430969238281
,adorable,0.9878604412078857
,sleep,0.9875231981277466
,furry,0.9867324829101562
,whisker,0.9865448474884033
,young,0.9845375418663025
,eye,0.9845026731491089
,mammal,0.9824066758155823
,grey,0.9818080067634583
,paw,0.9781919717788696
,little,0.9778375029563904
,portrait,0.9705999493598938
https://scontent-sit4-1.cdninstagram.com/t51.2885-15/e35/11909956_1627757227500039_619759918_n.jpg,chalk,0.9860352277755737
,chalkboard,0.9744800329208374
,text,0.9614551663398743
,business,0.9542622566223145
,education,0.9536808729171753
,no person,0.9381288290023804
,illustration,0.9252738952636719
,writing,0.9231868982315063
,horizontal,0.9215666055679321
,design,0.8877546787261963
,success,0.872054398059845
,desktop,0.8713130950927734
,strategy,0.850183367729187
,creativity,0.8385862112045288
,conceptual,0.8309841156005859
,symbol,0.8130795955657959
,handwritten,0.8071554899215698
,solution,0.8028342723846436
,wisdom,0.802275538444519
,knowledge,0.8007922172546387
https://scontent-sit4-1.cdninstagram.com/t51.2885-15/e35/13735861_140344179729062_717922269_n.jpg,cat,0.9983887076377869
,sleep,0.9878134727478027
,no person,0.9866056442260742
,mammal,0.9831631779670715
,family,0.9770894050598145
,one,0.9745891094207764
,kitten,0.9725451469421387
,pet,0.9716166257858276
,cute,0.9679485559463501
,animal,0.965530514717102
,portrait,0.9514423608779907
,bed,0.9514271020889282
,love,0.943069338798523
,food,0.9322656393051147
,indoors,0.916285514831543
,baby,0.8998412489891052
,little,0.8939871788024902
,room,0.882137656211853
,bedroom,0.8811487555503845
,sleepy,0.8796464800834656
https://scontent-sit4-1.cdninstagram.com/t51.2885-15/s750x750/sh0.08/e35/12224507_159178694436462_535202361_n.jpg,people,0.9940367341041565
,adult,0.9780175685882568
,portrait,0.9663441777229309
,man,0.955704391002655
,woman,0.9501898288726807
,nude,0.9424996972084045
,indoors,0.9423508048057556
,one,0.9417402744293213
,two,0.8780317306518555
,mirror,0.8660323619842529
,window,0.8510297536849976
,wear,0.8504816889762878
,girl,0.8161863088607788
,group,0.8150917291641235
,food,0.8096530437469482
,model,0.8068608641624451
,room,0.8051149249076843
,dark,0.7798042297363281
,sit,0.7586845755577087
,drink,0.7418868541717529
https://scontent-sit4-1.cdninstagram.com/t51.2885-15/e35/13706810_1759897447624630_554294488_n.jpg,no person,0.9972379207611084
,ice,0.995654821395874
,delicious,0.989005446434021
,cream,0.9888727068901062
,sugar,0.9807369112968445
,caramel,0.9798156023025513
,chocolate,0.9741171002388
,cold,0.9724394083023071
,indulgence,0.9535974860191345
,sweet,0.9520275592803955
,vanilla,0.9473238587379456
,food,0.9430487155914307
,milk,0.9364861249923706
,whipped cream,0.9273487329483032
,coffee,0.9263854026794434
,unhealthy,0.9262588024139404
,hot,0.9244741797447205
,breakfast,0.9236305952072144
,creamy,0.9176148772239685
,taste,0.909489631652832
https://scontent-sit4-1.cdninstagram.com/t51.2885-15/s750x750/sh0.08/e35/11324499_901113113309865_1898129939_n.jpg,people,0.9520406126976013
,presentation,0.9360189437866211
,booklet,0.9286357760429382
,man,0.9205970764160156
,banner,0.9189016819000244
,layout,0.9094243049621582
,business,0.8961986303329468
,template,0.8807880282402039
,World Wide Web,0.8730250000953674
,set,0.8686004281044006
,bill,0.8481953740119934
,page,0.8478766083717346
,collage,0.8463818430900574
,paper,0.844253420829773
,magazine,0.8378053903579712
,information,0.8293662071228027
,war,0.8203728199005127
,collection,0.8104382753372192
,company,0.8046573996543884
,woman,0.8034429550170898
https://scontent-sit4-1.cdninstagram.com/t51.2885-15/e35/11906258_1519326521724726_1413962374_n.jpg,cute,0.9937001466751099
,cat,0.9880508184432983
,domestic,0.9872139692306519
,kitten,0.981176495552063
,pet,0.9797228574752808
,baby,0.9726719856262207
,little,0.9721213579177856
,family,0.9666479825973511
,indoors,0.9659329652786255
,no person,0.9582749605178833
,laundry,0.9563598036766052
,litter,0.953011155128479
,bathtub,0.9524102210998535
,eye,0.9474376440048218
,one,0.9457207918167114
,animal,0.943983793258667
,downy,0.9428061842918396
,funny,0.9413596391677856
,sit,0.9347275495529175
,clean,0.9264141321182251
https://scontent-sit4-1.cdninstagram.com/t51.2885-15/e35/12224632_781410901986341_490847579_n.jpg,underwater,0.9994954466819763
,fish,0.9978129863739014
,no person,0.9966496229171753
,water,0.9902174472808838
,coral,0.9872883558273315
,swimming,0.984456479549408
,sea,0.9757541418075562
,ocean,0.975119411945343
,reef,0.9679668545722961
,wildlife,0.9619295597076416
,water sports,0.9525434970855713
,tropical,0.9508640766143799
,diving,0.9492290019989014
,travel,0.947534441947937
,snorkeling,0.941076397895813
,deep,0.9304653406143188
,exploration,0.9276670217514038
,outdoors,0.9181810617446899
,invertebrate,0.9157650470733643
,nature,0.8959091901779175
https://scontent-sit4-1.cdninstagram.com/t51.2885-15/e35/12093395_942582069149912_890422163_n.jpg,sky,0.9936478137969971
,storm,0.9843682050704956
,landscape,0.978124737739563
,rain,0.9724798202514648
,cloud,0.9698959589004517
,no person,0.9647130370140076
,light,0.96112060546875
,winter,0.9555228352546692
,travel,0.9404689073562622
,weather,0.9402113556861877
,nature,0.9392921924591064
,city,0.9300748109817505
,outdoors,0.9191364049911499
,sun,0.8946235775947571
,daylight,0.8918942213058472
,architecture,0.8910127878189087
,snow,0.8877043724060059
,sunset,0.8813639879226685
,street,0.8413999080657959
,bridge,0.8358520269393921
https://scontent-sit4-1.cdninstagram.com/t51.2885-15/e35/13714065_620282164816513_284160572_n.jpg,cat,0.9970275163650513
,pet,0.9901131987571716
,animal,0.9846140146255493
,mammal,0.9719870090484619
,kitten,0.9662271738052368
,cute,0.9621659517288208
,one,0.9414571523666382
,domestic,0.9208652377128601
,love,0.9094196557998657
,no person,0.9068866968154907
,portrait,0.8986365795135498
,motley,0.8857893347740173
,funny,0.8822826743125916
,food,0.8793692588806152
,art,0.8653812408447266
,color,0.8505042791366577
,baby,0.8504122495651245
,young,0.8396786451339722
,fun,0.8389871120452881
,people,0.8385148048400879
https://scontent-sit4-1.cdninstagram.com/t51.2885-15/e35/13643509_1133229823386781_71796822_n.jpg,cream,0.9999706745147705
,vanilla,0.9999570846557617
,creamy,0.9998013973236084
,cone,0.9986663460731506
,ice,0.9985508918762207
,scoop,0.9983670711517334
,sweet,0.998366117477417
,milk,0.9969871640205383
,cornet,0.9965800046920776
,dairy product,0.9961361885070801
,whipped cream,0.9957258701324463
,frozen,0.9952447414398193
,delicious,0.9950896501541138
,chocolate,0.9945931434631348
,indulgence,0.9926705360412598
,vortex,0.9922516345977783
,cold,0.9917200803756714
,baking,0.9891064167022705
,dairy,0.9873242378234863
,goody,0.9857273101806641
https://scontent-sit4-1.cdninstagram.com/t51.2885-15/e35/1515497_749170911879750_1479067877_n.jpg,pet,0.9984899759292603
,dog,0.9970677495002747
,mammal,0.9956444501876831
,animal,0.9938474297523499
,cat,0.9928770065307617
,fur,0.9896400570869446
,cute,0.9868510961532593
,portrait,0.9847280979156494
,sleep,0.9816532731056213
,one,0.9712917804718018
,canine,0.9689553380012512
,domestic,0.9675643444061279
,adorable,0.9644337296485901
,kitten,0.9643558859825134
,puppy,0.963019847869873
,little,0.9595407247543335
,downy,0.9557316899299622
,furry,0.9398669004440308
,sleepy,0.9324939250946045
,no person,0.9240833520889282
https://scontent-sit4-1.cdninstagram.com/t51.2885-15/e35/11330693_878510825561210_726124668_n.jpg,woman,0.9918991327285767
,facial expression,0.9831031560897827
,child,0.9828728437423706
,people,0.9757421016693115
,wear,0.9753540754318237
,indoors,0.9750711917877197
,portrait,0.9732344150543213
,adolescent,0.9710485935211182
,togetherness,0.9663443565368652
,man,0.9442757368087769
,three,0.922450602054596
,education,0.9211843013763428
,two,0.9210408329963684
,school,0.912670910358429
,hijab,0.904517650604248
,friendship,0.9037814140319824
,boy,0.8887370824813843
,veil,0.8804076910018921
,headscarf,0.8802405595779419
,happiness,0.876607358455658
https://scontent-sit4-1.cdninstagram.com/t51.2885-15/e35/12292795_546182702212147_1075620650_n.jpg,people,0.9950684309005737
,man,0.9933409094810486
,adult,0.9919434785842896
,two,0.9911640286445618
,wear,0.9766788482666016
,elderly,0.9713318347930908
,woman,0.9641062617301941
,family,0.9566791653633118
,facial expression,0.9525677561759949
,three,0.9420974254608154
,happiness,0.9372968077659607
,portrait,0.937230110168457
,togetherness,0.9331962466239929
,group,0.9210254549980164
,child,0.9106823205947876
,enjoyment,0.9103691577911377
,indoors,0.8963536620140076
,lid,0.8942620754241943
,education,0.8884782791137695
,room,0.8883378505706787
https://scontent-sit4-1.cdninstagram.com/t51.2885-15/sh0.08/e35/p750x750/13643107_557006037816207_886743880_n.jpg,people,0.9887653589248657
,portrait,0.9863262176513672
,man,0.9786754846572876
,one,0.9683442115783691
,wear,0.9550304412841797
,adult,0.9522665143013
,fashion,0.9371042847633362
,adolescent,0.9353675842285156
,young,0.9345157146453857
,facial expression,0.9262082576751709
,indoors,0.9201621413230896
,woman,0.9196252226829529
,outdoors,0.9106824398040771
,casual,0.890868067741394
,relaxation,0.8844918012619019
,boy,0.8827903270721436
,leisure,0.8526085615158081
,child,0.8497991561889648
,fine-looking,0.844126284122467
,joy,0.8380267024040222
https://scontent-sit4-1.cdninstagram.com/t51.2885-15/e35/10723751_1002408399801897_979570156_n.jpg,water,0.9977313280105591
,no person,0.9897253513336182
,landscape,0.9867779016494751
,lake,0.9862134456634521
,tree,0.9848141670227051
,river,0.982682466506958
,outdoors,0.9795862436294556
,travel,0.9761711359024048
,nature,0.9651824831962585
,recreation,0.9538547992706299
,flood,0.9312176704406738
,summer,0.9240372180938721
,vehicle,0.9204727411270142
,environment,0.9125964641571045
,seashore,0.9117913842201233
,sky,0.9103569984436035
,leisure,0.9069455862045288
,transportation system,0.9020624160766602
,beach,0.894737958908081
,weather,0.8925776481628418
https://scontent-sit4-1.cdninstagram.com/t51.2885-15/e35/10860011_734813786651426_1228102930_n.jpg,sky,0.9945468902587891
,moon,0.9801132082939148
,weather,0.9756854772567749
,storm,0.9724341630935669
,no person,0.969795823097229
,daylight,0.9650492668151855
,sun,0.9631339311599731
,landscape,0.962955117225647
,light,0.9612982273101807
,sunset,0.9578591585159302
,silhouette,0.9520220756530762
,evening,0.951709508895874
,outdoors,0.9467473030090332
,astronomy,0.938833475112915
,dawn,0.930874764919281
,spacecraft,0.9250366687774658
,calamity,0.9057767987251282
,atmosphere,0.9045681953430176
,color,0.8992795944213867
,light,0.8949137926101685
https://scontent-sit4-1.cdninstagram.com/t51.2885-15/s750x750/sh0.08/e35/11336088_1638553829725006_263235589_n.jpg,adult,0.9924353361129761
,restaurant,0.9890655875205994
,people,0.9881905913352966
,group,0.9867693781852722
,man,0.983924150466919
,woman,0.9798120260238647
,coffee,0.9766690731048584
,employee,0.9721775054931641
,table,0.9587242603302002
,indoors,0.9553042650222778
,furniture,0.9425685405731201
,room,0.9323019981384277
,group,0.9231860637664795
,drink,0.9122685194015503
,education,0.9089044332504272
,sit,0.8820291757583618
,four,0.8559123873710632
,commerce,0.8545509576797485
,teamwork,0.8530022501945496
,bar,0.8520281910896301
https://scontent-sit4-1.cdninstagram.com/t51.2885-15/e35/13188077_1524780167830617_584466382_n.jpg,cat,0.9992541670799255
,kitten,0.9951579570770264
,pet,0.9935731887817383
,cute,0.9931318163871765
,animal,0.9926160573959351
,portrait,0.9879064559936523
,mammal,0.9865935444831848
,eye,0.9865567684173584
,fur,0.9854850769042969
,domestic,0.9837725162506104
,downy,0.9811387658119202
,whisker,0.9793533086776733
,one,0.9581215381622314
,curiosity,0.9473759531974792
,hair,0.9438661336898804
,looking,0.9371713399887085
,young,0.9353640079498291
,adorable,0.9316964149475098
,furry,0.9295691847801208
,nose,0.926486074924469
https://scontent-sit4-1.cdninstagram.com/t51.2885-15/e35/12479534_1654647381426754_716702650_n.jpg,drink,0.9797414541244507
,no person,0.9691946506500244
,indoors,0.9668776988983154
,table,0.9635192155838013
,food,0.9546778202056885
,glass,0.9544366598129272
,relaxation,0.9496762752532959
,wine,0.9481104612350464
,woman,0.9297125935554504
,lifestyle,0.9279751777648926
,luxury,0.9254043102264404
,restaurant,0.9252277612686157
,tableware,0.9233856201171875
,furniture,0.920682430267334
,people,0.9057731628417969
,hotel,0.904831051826477
,adult,0.9027162194252014
,vacation,0.8947387933731079
,room,0.884823203086853
,leisure,0.8833909034729004
https://scontent-sit4-1.cdninstagram.com/t51.2885-15/e35/12950223_1068947839828769_1692056987_n.jpg,chocolate,0.9962732791900635
,sweet,0.995193600654602
,food,0.9945690035820007
,cream,0.9879948496818542
,cake,0.9874368906021118
,sugar,0.981589674949646
,no person,0.9780981540679932
,delicious,0.978018581867218
,pastry,0.9767571687698364
,fruit,0.9762355089187622
,syrup,0.9632881283760071
,vanilla,0.9625828266143799
,plate,0.9545331001281738
,refreshment,0.9424078464508057
,goody,0.9413538575172424
,strawberry,0.9396837949752808
,homemade,0.92791748046875
,indulgence,0.9234254360198975
,bakery,0.922078549861908
,pie,0.9211366176605225
https://scontent-sit4-1.cdninstagram.com/t51.2885-15/e35/11349268_1510077922640649_2121210666_n.jpg,room,0.9977006912231445
,furniture,0.9972500801086426
,table,0.9943180084228516
,indoors,0.9930183291435242
,house,0.9894312620162964
,luxury,0.9885852336883545
,chair,0.9881159067153931
,home,0.9866670370101929
,seat,0.9865273237228394
,contemporary,0.9855059385299683
,inside,0.9842119216918945
,modern,0.9825758934020996
,family,0.9777106046676636
,window,0.9712323546409607
,architecture,0.967535138130188
,interior design,0.9638365507125854
,no person,0.9626078605651855
,apartment,0.9588528871536255
,lamp,0.9570772647857666
,floor,0.9512509107589722
https://scontent-sit4-1.cdninstagram.com/t51.2885-15/e35/13388485_610738995756788_1159329088_n.jpg,no person,0.9891088008880615
,food,0.9845647215843201
,delicious,0.9483298659324646
,traditional,0.9377992153167725
,sugar,0.9246786832809448
,plate,0.9199907779693604
,cake,0.8875981569290161
,candy,0.8841429352760315
,goody,0.8814414739608765
,color,0.8657316565513611
,indulgence,0.8579553365707397
,cream,0.849505603313446
,refreshment,0.847708523273468
,closeup,0.8394469022750854
,health,0.8360824584960938
,sweet,0.8322782516479492
,motley,0.8319747447967529
,family,0.8268132209777832
,healthcare,0.8232641220092773
,sponge,0.8165433406829834
https://scontent-sit4-1.cdninstagram.com/t51.2885-15/e35/12353228_1638509726390557_1814126974_n.jpg,cat,0.9957497715950012
,cute,0.9952462911605835
,animal,0.9937632083892822
,eye,0.9935444593429565
,pet,0.9903370141983032
,fur,0.9828931093215942
,portrait,0.9757100343704224
,kitten,0.9738122224807739
,whisker,0.9702893495559692
,domestic,0.9674372673034668
,mammal,0.9637870788574219
,little,0.9524983167648315
,funny,0.9432195425033569
,adorable,0.9374371767044067
,looking,0.9339779615402222
,young,0.933853030204773
,hair,0.9269338846206665
,downy,0.9249537587165833
,grey,0.9003797769546509
,curiosity,0.8980811834335327
https://scontent-sit4-1.cdninstagram.com/t51.2885-15/e35/12907413_1533082230320570_731997005_n.jpg,no person,0.9548488855361938
,cola,0.9274200797080994
,food,0.905485987663269
,people,0.9041725397109985
,business,0.9005836248397827
,refreshment,0.8935826420783997
,summer,0.8688614964485168
,one,0.86860591173172
,beer,0.8659634590148926
,woman,0.8599582314491272
,symbol,0.8528941869735718
,conceptual,0.8496787548065186
,retro,0.8455826044082642
,fun,0.844290018081665
,man,0.8351776599884033
,text,0.8304797410964966
,unhealthy,0.8218382596969604
,desktop,0.8208562135696411
,full,0.8178051114082336
,sign,0.8155665993690491
https://scontent-sit4-1.cdninstagram.com/t51.2885-15/e35/10549862_1505271946444720_1794955049_n.jpg,people,0.9935845136642456
,adult,0.9920434355735779
,man,0.9807636737823486
,wear,0.9795016050338745
,woman,0.9758975505828857
,facial expression,0.9742372035980225
,two,0.9730014801025391
,group,0.9612449407577515
,portrait,0.9594922065734863
,eyewear,0.9303537011146545
,indoors,0.9082924723625183
,recreation,0.9028363227844238
,happiness,0.8984591364860535
,veil,0.8796886205673218
,religion,0.878601610660553
,enjoyment,0.8520956039428711
,fun,0.8512383699417114
,one,0.8478161692619324
,togetherness,0.8360551595687866
,music,0.8334909677505493
https://scontent-sit4-1.cdninstagram.com/t51.2885-15/e35/12905066_469498296569504_329146683_n.jpg,hijab,0.9986497759819031
,headscarf,0.9976494312286377
,veil,0.9939824342727661
,people,0.9902209043502808
,scarf,0.9864602088928223
,woman,0.9808632135391235
,two,0.9789730310440063
,wear,0.9779986143112183
,portrait,0.9647895097732544
,adult,0.9623333215713501
,group,0.9535722732543945
,togetherness,0.9509282112121582
,religion,0.9487543106079102
,man,0.942304253578186
,child,0.941579282283783
,girl,0.9367078542709351
,love,0.9265972375869751
,happiness,0.924674391746521
,facial expression,0.9191693067550659
,interaction,0.8945088982582092
https://scontent-sit4-1.cdninstagram.com/t51.2885-15/e35/13573447_103420246761136_2031707192_n.jpg,man,0.9914093613624573
,two,0.9900210499763489
,woman,0.9875237941741943
,people,0.9873703122138977
,togetherness,0.9837292432785034
,facial expression,0.9829933643341064
,family,0.9816497564315796
,love,0.9810343980789185
,adult,0.9786279797554016
,indoors,0.9757471084594727
,wear,0.9697508811950684
,affection,0.9687100052833557
,room,0.9468258619308472
,happiness,0.9410110116004944
,interaction,0.9326081275939941
,daylight,0.9324527978897095
,embrace,0.918410062789917
,veil,0.9136133193969727
,enjoyment,0.9133212566375732
,sit,0.9048067331314087
https://scontent-sit4-1.cdninstagram.com/t51.2885-15/e35/13380891_1015015481939477_1247717436_n.jpg,food,0.9937242269515991
,restaurant,0.9907036423683167
,meal,0.979646623134613
,meat,0.9789160490036011
,grow,0.958980917930603
,dinner,0.9562432765960693
,poultry,0.949252188205719
,people,0.9445462226867676
,lunch,0.921074390411377
,cooking,0.908584475517273
,beer,0.8935902118682861
,table,0.8859272003173828
,seafood,0.8819506168365479
,woman,0.8674935102462769
,dish,0.8605290651321411
,indoors,0.8587762117385864
,market,0.8573668003082275
,dining,0.8544352054595947
,chef,0.8254599571228027
,chicken,0.8023271560668945
https://scontent-sit4-1.cdninstagram.com/t51.2885-15/e35/12132823_1501421333485642_1904263075_n.jpg,blank,0.9693145751953125
,art,0.9606748819351196
,design,0.9603303670883179
,paper,0.9582278728485107
,illustration,0.9575846195220947
,sign,0.9572633504867554
,desktop,0.9569469094276428
,abstract,0.9442546367645264
,shadow,0.9373233318328857
,banner,0.9299122095108032
,image,0.9290958642959595
,light,0.9285938739776611
,empty,0.9240350723266602
,vector,0.9201945066452026
,shape,0.9190477132797241
,group,0.9180892705917358
,symbol,0.9104294776916504
,graphic,0.9060662984848022
,message,0.9053300023078918
,business,0.9052125215530396
https://scontent-sit4-1.cdninstagram.com/t51.2885-15/e35/13258950_1725673444382385_1567961793_n.jpg,cat,0.9960428476333618
,mammal,0.9917393922805786
,animal,0.9851289987564087
,fur,0.9766087532043457
,portrait,0.9732904434204102
,cute,0.9643638134002686
,eye,0.956599235534668
,downy,0.949836790561676
,pet,0.9412336349487305
,nature,0.9229761362075806
,wildlife,0.8979030847549438
,domestic,0.8920921087265015
,one,0.8917703628540039
,tiger,0.88829505443573
,stripe,0.8878563642501831
,kitten,0.8865064978599548
,no person,0.8792101740837097
,baby,0.8760206699371338
,looking,0.8622249364852905
,young,0.857486367225647
https://scontent-sit4-1.cdninstagram.com/t51.2885-15/e35/12346005_1660022784274048_278564284_n.jpg,cream,0.9954967498779297
,sweet,0.9928821325302124
,food,0.992648184299469
,dairy product,0.9885975122451782
,vanilla,0.9870506525039673
,no person,0.9846606850624084
,chocolate,0.9844237565994263
,fruit,0.9819745421409607
,creamy,0.9772908091545105
,delicious,0.9687291979789734
,cake,0.9663810729980469
,strawberry,0.960614800453186
,milk,0.9570969343185425
,sugar,0.9553507566452026
,ice,0.9370421171188354
,scoop,0.9272528290748596
,whipped cream,0.9255648851394653
,plate,0.921674370765686
,frozen,0.9211112260818481
,refreshment,0.9167622327804565
https://scontent-sit4-1.cdninstagram.com/t51.2885-15/e35/11875313_850029661759139_694617883_n.jpg,people,0.9816101789474487
,man,0.9749268293380737
,child,0.9477296471595764
,person,0.9409313201904297
,adult,0.9395174980163574
,young,0.9364844560623169
,portrait,0.9234001636505127
,cake,0.8898690938949585
,woman,0.8875117301940918
,one,0.8865509629249573
,boy,0.8620331287384033
,indoors,0.8522051572799683
,lifestyle,0.8480234146118164
,family,0.8311704993247986
,paper,0.8259733319282532
,sit,0.8167300820350647
,human,0.8147178888320923
,health,0.8075734376907349
,fun,0.8051614761352539
,smile,0.8019227981567383
https://scontent-sit4-1.cdninstagram.com/t51.2885-15/e35/12907257_189234494792227_2091408370_n.jpg,people,0.9480856657028198
,exhibition,0.9100905656814575
,group,0.873834490776062
,container,0.871677041053772
,commerce,0.8692175149917603
,business,0.865681529045105
,no person,0.8562491536140442
,art,0.8383863568305969
,vehicle,0.8255517482757568
,painting,0.8075770139694214
,man,0.8059520721435547
,adult,0.8031472563743591
,illustration,0.769575297832489
,presentation,0.7690601348876953
,market,0.7622495293617249
,city,0.759933352470398
,toy,0.7591628432273865
,woman,0.7534667253494263
,industry,0.7530632019042969
,furniture,0.7444323301315308
https://scontent-sit4-1.cdninstagram.com/t51.2885-15/e35/13534259_256552034710369_1311475796_n.jpg,food,0.9931234121322632
,no person,0.9727703332901001
,dinner,0.9665639996528625
,meal,0.9594200253486633
,lunch,0.9562948942184448
,plate,0.9466117024421692
,delicious,0.9403818845748901
,vegetable,0.9316200017929077
,bread,0.91960608959198
,dish,0.918525218963623
,restaurant,0.9183034896850586
,cooking,0.9166702628135681
,breakfast,0.9062833786010742
,fish,0.9061460494995117
,dining,0.897263765335083
,traditional,0.8972280025482178
,healthy,0.8918803930282593
,meat,0.8906365633010864
,grow,0.8865111470222473
,cuisine,0.877240777015686
https://scontent-sit4-1.cdninstagram.com/t51.2885-15/e35/12093682_1628262737447748_498561315_n.jpg,transportation system,0.9781755208969116
,business,0.9757280349731445
,travel,0.972262978553772
,no person,0.9703007936477661
,building,0.9696440696716309
,road,0.9652827382087708
,airport,0.9646594524383545
,competition,0.953993022441864
,vehicle,0.9521442651748657
,modern,0.948741614818573
,architecture,0.946988046169281
,city,0.9433135986328125
,outdoors,0.9381284713745117
,sky,0.9380298852920532
,traffic,0.9378275871276855
,industry,0.9378172755241394
,car,0.9260203242301941
,soccer,0.9102277755737305
,street,0.8971142768859863
,urban,0.8883309364318848
https://scontent-sit4-1.cdninstagram.com/t51.2885-15/e35/13256954_512405912280343_509934669_n.jpg,flower,0.9959502220153809
,nature,0.993762195110321
,flora,0.992850661277771
,garden,0.9864317178726196
,floral,0.9817434549331665
,summer,0.9816856384277344
,leaf,0.9815882444381714
,bouquet,0.978217363357544
,color,0.9737057685852051
,lily,0.9664321541786194
,bright,0.9645726680755615
,season,0.9637091755867004
,blooming,0.9541205167770386
,Easter,0.9518740177154541
,no person,0.9511349201202393
,tulip,0.9481611251831055
,decoration,0.931656539440155
,beautiful,0.9301601648330688
,petal,0.9293920993804932
,field,0.8929787874221802
https://scontent-sit4-1.cdninstagram.com/t51.2885-15/e35/10724144_1548760625447051_410341459_n.jpg,cat,0.9977879524230957
,cute,0.9918087720870972
,pet,0.9902527928352356
,animal,0.9890551567077637
,portrait,0.9885421991348267
,domestic,0.9843876957893372
,kitten,0.9829355478286743
,mammal,0.9793554544448853
,young,0.976790726184845
,eye,0.9710756540298462
,fur,0.9621574878692627
,one,0.9524261951446533
,little,0.9381511211395264
,looking,0.9360140562057495
,hair,0.9343631267547607
,adorable,0.9334057569503784
,grey,0.9277538061141968
,funny,0.9175074100494385
,sit,0.9151639938354492
,furry,0.9079635143280029
