url,class,score
https://scontent-sit4-1.cdninstagram.com/t51.2885-15/e35/13627987_831982753583620_322486473_n.jpg,woman,0.9829633235931396
,isolated,0.977949857711792
,scarf,0.9473592042922974
,people,0.9329458475112915
,young,0.9316380023956299
,fashion,0.9182705283164978
,pretty,0.9140652418136597
,Christmas,0.9133535623550415
,winter,0.899971067905426
,cute,0.8991167545318604
,fun,0.8906365036964417
,business,0.871973991394043
,one,0.8651443719863892
,funny,0.859561562538147
,traditional,0.8541417717933655
,girl,0.839643120765686
,health,0.8354552388191223
,contemporary,0.8326975107192993
,elegant,0.8265526294708252
,joy,0.8239628076553345
https://scontent-sit4-1.cdninstagram.com/t51.2885-15/e35/13525313_1025591170810587_992862222_n.jpg,water,0.9922077655792236
,no person,0.9784702062606812
,travel,0.9701055288314819
,landscape,0.9514138698577881
,sea,0.950255274772644
,sky,0.9301232099533081
,outdoors,0.9281502962112427
,seashore,0.9268393516540527
,watercraft,0.9237799644470215
,beach,0.9161409139633179
,lake,0.9059727191925049
,harbor,0.8862712383270264
,city,0.8776001930236816
,island,0.8712566494941711
,river,0.8703382611274719
,architecture,0.8698228597640991
,daylight,0.8636144399642944
,summer,0.8572189211845398
,transportation system,0.850975751876831
,ocean,0.8434998989105225
https://scontent-sit4-1.cdninstagram.com/t51.2885-15/e35/13768085_314866888858939_379782486_n.jpg,indoors,0.9904850721359253
,business,0.9814770221710205
,presentation,0.9693272113800049
,exhibition,0.9618748426437378
,museum,0.9558436274528503
,league,0.9521772861480713
,election,0.9497901201248169
,people,0.9439256191253662
,finance,0.94310063123703
,education,0.9404964447021484
,technology,0.934256911277771
,woman,0.9046657085418701
,environment,0.9034467935562134
,adult,0.9003210067749023
,television,0.899224042892456
,Congress,0.8978279232978821
,building,0.8885972499847412
,candidate,0.8861558437347412
,industry,0.8782082796096802
,window,0.8769065737724304
https://scontent-sit4-1.cdninstagram.com/t51.2885-15/e35/13649330_905691146244377_322318283_n.jpg,woman,0.9866418242454529
,adult,0.9762543439865112
,wear,0.9711455702781677
,one,0.9671972393989563
,indoors,0.967069149017334
,people,0.943396806716919
,girl,0.9040056467056274
,portrait,0.9034533500671387
,recreation,0.9030448794364929
,fashion,0.8916314840316772
,man,0.8528892993927002
,facial expression,0.8363223671913147
,healthcare,0.8190592527389526
,sneakers,0.8152442574501038
,footwear,0.812573254108429
,lifestyle,0.8004856109619141
,room,0.7939392328262329
,model,0.7888279557228088
,two,0.784907877445221
,pants,0.777259349822998
https://scontent-sit4-1.cdninstagram.com/t51.2885-15/e35/13741281_904091406387179_1043758999_n.jpg,landscape,0.9753658771514893
,silhouette,0.9732668399810791
,moon,0.9705091714859009
,tree,0.9704265594482422
,sky,0.9693864583969116
,no person,0.9663276672363281
,light,0.9660578966140747
,dark,0.9566676616668701
,nature,0.9555438756942749
,sun,0.9512813091278076
,backlit,0.9455041289329529
,sunset,0.9185428619384766
,evening,0.9031884670257568
,fog,0.8990479111671448
,dawn,0.8911538124084473
,outdoors,0.8902639150619507
,desktop,0.8863903284072876
,dusk,0.8859950304031372
,art,0.8667833805084229
,water,0.8658362627029419
https://scontent-sit4-1.cdninstagram.com/t51.2885-15/e35/13561598_577697605723434_457444788_n.jpg,paper,0.918952465057373
,business,0.9146050214767456
,card,0.9144943952560425
,money,0.8953361511230469
,illustration,0.8945597410202026
,money,0.8766492605209351
,note,0.8759541511535645
,vector,0.8594252467155457
,finance,0.8582703471183777
,bank,0.8424349427223206
,document,0.8223521709442139
,letter,0.8110122084617615
,sign,0.7951092720031738
,symbol,0.7853977680206299
,desktop,0.7819226980209351
,pattern,0.7766313552856445
,savings,0.7588523626327515
,wealth,0.750521183013916
,text,0.749557614326477
,cash,0.7463098168373108
https://scontent-sit4-1.cdninstagram.com/t51.2885-15/e35/13642963_1030810930359952_728586107_n.jpg,food,0.9964370727539062
,no person,0.9873473644256592
,delicious,0.9831520318984985
,plate,0.9827179312705994
,traditional,0.9825646877288818
,sweet,0.9774541258811951
,dish,0.9665650129318237
,grow,0.9557538032531738
,cuisine,0.9546301960945129
,appetizer,0.9543188810348511
,closeup,0.9524109959602356
,homemade,0.9516039490699768
,epicure,0.9506784677505493
,healthy,0.950129508972168
,meal,0.9500777125358582
,cooking,0.9480586647987366
,cream,0.9418233633041382
,tasty,0.932929515838623
,lunch,0.9302256107330322
,vegetable,0.9289128184318542
https://scontent-sit4-1.cdninstagram.com/t51.2885-15/e35/13651691_1566061770357360_989357352_n.jpg,sky,0.9948610663414001
,architecture,0.9911211729049683
,no person,0.9900000095367432
,skyscraper,0.9844402074813843
,downtown,0.9808977842330933
,tallest,0.9789758324623108
,business,0.9769871234893799
,high,0.9636211395263672
,outdoors,0.9636080265045166
,city,0.9611790180206299
,contemporary,0.9609733819961548
,building,0.9534928798675537
,travel,0.9506601095199585
,glass,0.9421517848968506
,cityscape,0.9280840158462524
,tower,0.9276776909828186
,blue sky,0.9050471782684326
,urban,0.9036164283752441
,office,0.9021679759025574
,finance,0.8993440866470337
https://scontent-sit4-1.cdninstagram.com/t51.2885-15/s750x750/sh0.08/e35/13643653_1638351743149274_333919443_n.jpg,people,0.9774894714355469
,adult,0.9693304896354675
,food,0.9685804843902588
,seafood,0.9666954278945923
,portrait,0.9654239416122437
,one,0.9510874152183533
,woman,0.9449443817138672
,fish,0.939447820186615
,girl,0.8720645904541016
,market,0.8682405948638916
,health,0.8436815738677979
,indoors,0.8436602354049683
,wear,0.8421165943145752
,healthy,0.8119264245033264
,young,0.7880004048347473
,sea,0.7848021388053894
,beautiful,0.7815344333648682
,ocean,0.765944242477417
,hot,0.7579987645149231
,desktop,0.7573989629745483
https://scontent-sit4-1.cdninstagram.com/t51.2885-15/s750x750/sh0.08/e35/13741100_1800133506884349_744913631_n.jpg,group,0.994714617729187
,woman,0.9870127439498901
,portrait,0.9848311543464661
,group,0.9746122360229492
,wear,0.9649137258529663
,people,0.9616371393203735
,fashion,0.9580408930778503
,friendship,0.9425365924835205
,three,0.940285325050354
,adult,0.9378135800361633
,togetherness,0.9308329820632935
,facial expression,0.9282642006874084
,singer,0.9254529476165771
,four,0.916711688041687
,man,0.912173867225647
,music,0.9108894467353821
,actress,0.9073727130889893
,laughing,0.9065588712692261
,family,0.8933749198913574
,indoors,0.8815039992332458
https://scontent-sit4-1.cdninstagram.com/t51.2885-15/e35/13597603_1219468071410730_1684634840_n.jpg,lens,0.9989119172096252
,eyesight,0.9966769218444824
,sunglasses,0.9949915409088135
,discovery,0.9899317026138306
,face,0.9894874095916748
,fun,0.9791629910469055
,binoculars,0.9788581132888794
,vision,0.9754960536956787
,portrait,0.9753046035766602
,surveillance,0.9723994135856628
,eyeglasses,0.9710979461669922
,woman,0.969800591468811
,man,0.966767430305481
,curiosity,0.9625645875930786
,optometry,0.9619628190994263
,eye,0.9595665335655212
,young,0.9593518376350403
,adult,0.958402693271637
,people,0.9570004343986511
,exploration,0.9501739740371704
https://scontent-sit4-1.cdninstagram.com/t51.2885-15/sh0.08/e35/p750x750/13534089_1824408957794820_417020210_n.jpg,no person,0.993902862071991
,food,0.9779185056686401
,one,0.9733318090438843
,apple,0.9556491374969482
,fruit,0.9531069397926331
,color,0.9386528730392456
,fun,0.9364985823631287
,face,0.9335583448410034
,child,0.9334077835083008
,confection,0.928865909576416
,eye,0.9112673997879028
,mouth,0.8555777668952942
,bright,0.8553621172904968
,funny,0.8458598852157593
,desktop,0.8280631899833679
,teeth,0.810450553894043
,agriculture,0.8090215921401978
,portrait,0.8043867349624634
,cute,0.7915447950363159
,strange,0.7867151498794556
https://scontent-sit4-1.cdninstagram.com/t51.2885-15/e35/13712830_858738380898396_1090563367_n.jpg,people,0.9858890771865845
,offense,0.9795217514038086
,woman,0.9527679085731506
,election,0.9342010021209717
,police,0.9198632836341858
,festival,0.9196692109107971
,force,0.9130240678787231
,group,0.9103430509567261
,man,0.9081456661224365
,adult,0.896285891532898
,flame,0.8902938365936279
,battle,0.8897400498390198
,girl,0.8782930374145508
,education,0.877302885055542
,healthcare,0.8474127054214478
,administration,0.8365782499313354
,child,0.8306422233581543
,crowd,0.8176830410957336
,light,0.8163774013519287
,boy,0.8075240850448608
https://scontent-sit4-1.cdninstagram.com/t51.2885-15/e35/13707224_142915556142685_1144783723_n.jpg,business,0.990068793296814
,paper,0.9729212522506714
,internet,0.9597336053848267
,no person,0.9509955644607544
,technology,0.9461343288421631
,computer,0.945519745349884
,office,0.9317783117294312
,data,0.925574779510498
,laptop,0.9131549596786499
,finance,0.9106042385101318
,indoors,0.8394426703453064
,electronics,0.8390324115753174
,communication,0.831085205078125
,shopping,0.8239855766296387
,information,0.8169301748275757
,data,0.8063436150550842
,document,0.8016437292098999
,money,0.7849299907684326
,service,0.7847471237182617
,commerce,0.769426703453064
https://scontent-sit4-1.cdninstagram.com/t51.2885-15/e35/13584113_1143477069052884_1663270149_n.jpg,furniture,0.9984564185142517
,room,0.9982742071151733
,indoors,0.9956053495407104
,bed,0.9941774606704712
,bedroom,0.9920804500579834
,family,0.98154616355896
,interior design,0.9804720878601074
,apartment,0.9801102876663208
,contemporary,0.9787921905517578
,lamp,0.9730746746063232
,pillow,0.9700088500976562
,house,0.9599757790565491
,comfort,0.9538693428039551
,seat,0.9439458847045898
,hotel,0.9420472383499146
,luxury,0.9411760568618774
,home,0.9305084943771362
,headboard,0.9253816604614258
,floor,0.9218624234199524
,window,0.9188385009765625
https://scontent-sit4-1.cdninstagram.com/t51.2885-15/e35/13402724_185003121902219_818929415_n.jpg,city,0.9978377819061279
,skyline,0.9959365129470825
,skyscraper,0.9930328130722046
,travel,0.9922112226486206
,architecture,0.9912543892860413
,cityscape,0.991184413433075
,downtown,0.9901744723320007
,building,0.9793350696563721
,traffic,0.9777887463569641
,urban,0.9776389002799988
,business,0.9748947620391846
,road,0.974441409111023
,office,0.9661483764648438
,sky,0.9635522365570068
,transportation system,0.9467864036560059
,modern,0.9434917569160461
,no person,0.9375401735305786
,bridge,0.930961549282074
,highway,0.9238995313644409
,street,0.9214718341827393
https://scontent-sit4-1.cdninstagram.com/t51.2885-15/e35/13643661_1563172130655469_1107149448_n.jpg,adult,0.9954109191894531
,people,0.9944133758544922
,desk,0.9860470294952393
,furniture,0.9830206632614136
,man,0.9829389452934265
,table,0.9778288006782532
,meeting,0.9637239575386047
,indoors,0.9621531963348389
,room,0.959617018699646
,woman,0.958531379699707
,sit,0.9534605145454407
,chair,0.9273521900177002
,one,0.9240439534187317
,leader,0.9217700958251953
,education,0.9029968976974487
,sitting,0.8942437171936035
,group,0.8926011323928833
,business,0.8812790513038635
,portrait,0.8788598775863647
,office,0.8685295581817627
https://scontent-sit4-1.cdninstagram.com/t51.2885-15/s750x750/sh0.08/e35/13736965_1802181150011536_1324434254_n.jpg,school,0.9930329322814941
,education,0.98970627784729
,group,0.9881010055541992
,university,0.9684633016586304
,woman,0.9588119983673096
,adult,0.9536755084991455
,portrait,0.9518786668777466
,people,0.9484871625900269
,teacher,0.94310063123703
,group,0.9382051229476929
,recreation,0.9270325899124146
,business,0.8849880695343018
,ceremony,0.8811175227165222
,man,0.8774070143699646
,film festival,0.876664400100708
,editorial,0.8671300411224365
,many,0.8621031641960144
,accomplishment,0.860539436340332
,actress,0.8566299080848694
,singer,0.8525089025497437
https://scontent-sit4-1.cdninstagram.com/t51.2885-15/e35/13597624_498351057021230_1142843955_n.jpg,woman,0.9817538261413574
,people,0.9677478075027466
,indoors,0.9388121962547302
,adolescent,0.9218137264251709
,young,0.9172402620315552
,portrait,0.9091368317604065
,pretty,0.9065316915512085
,fashion,0.8971467018127441
,casual,0.8920085430145264
,scarf,0.8848152756690979
,one,0.8705013990402222
,looking,0.8694331049919128
,adult,0.8687650561332703
,wear,0.8609637022018433
,sit,0.8319418430328369
,contemporary,0.8310790657997131
,cute,0.8247250318527222
,leisure,0.8206117153167725
,education,0.8098766803741455
,hair,0.7973726987838745
https://scontent-sit4-1.cdninstagram.com/t51.2885-15/s750x750/sh0.08/e35/13397547_990823007697466_1325107812_n.jpg,woman,0.9903545379638672
,glass,0.975204348564148
,young,0.9642195105552673
,summer,0.9632589221000671
,sunglasses,0.9612927436828613
,people,0.9588786363601685
,girl,0.9576212167739868
,drink,0.9554370641708374
,portrait,0.9442198276519775
,pretty,0.9431600570678711
,adult,0.9408102035522461
,beautiful,0.9373631477355957
,fun,0.9338693618774414
,one,0.9195265769958496
,lifestyle,0.9184562563896179
,party,0.9166260957717896
,enjoyment,0.914170503616333
,fashion,0.8881481885910034
,person,0.8858450651168823
,relaxation,0.8833566308021545
https://scontent-sit4-1.cdninstagram.com/t51.2885-15/e35/13686988_235008983564481_1610973706_n.jpg,no person,0.9816686511039734
,food,0.9773882627487183
,delicious,0.9612447023391724
,health,0.931878924369812
,fruit,0.9126380681991577
,epicure,0.9116730690002441
,healthy,0.9094385504722595
,strawberry,0.9004464149475098
,closeup,0.8864841461181641
,plate,0.8839927911758423
,cheese,0.882710337638855
,cream,0.870665431022644
,vegetable,0.8667162656784058
,tasty,0.8627457618713379
,sweet,0.8626536726951599
,refreshment,0.8583407402038574
,traditional,0.8556205034255981
,nutrition,0.8443765044212341
,dinner,0.8380340337753296
,still life,0.8290982246398926
https://scontent-sit4-1.cdninstagram.com/t51.2885-15/e35/13741013_877633805702140_426091479_n.jpg,hoggish,0.9979661107063293
,savings,0.9930396676063538
,toy,0.9835288524627686
,no person,0.9816461205482483
,wealth,0.9772608280181885
,Christmas,0.9615164995193481
,bank,0.9567528963088989
,money,0.938385009765625
,finance,0.9314886331558228
,child,0.9169905185699463
,bank,0.9135118722915649
,funny,0.9046745896339417
,fun,0.8737627267837524
,winter,0.8728680610656738
,luck,0.8707836866378784
,investment,0.8701752424240112
,sketch,0.8680287599563599
,cute,0.8650504946708679
,love,0.8472731709480286
,one,0.8420976400375366
https://scontent-sit4-1.cdninstagram.com/t51.2885-15/e35/13774810_1217472331631095_349121118_n.jpg,no person,0.9847899675369263
,hotel,0.9798367023468018
,tree,0.9745350480079651
,water,0.9738942980766296
,travel,0.9735263586044312
,house,0.9721955060958862
,architecture,0.9715455770492554
,home,0.9554181098937988
,building,0.9483356475830078
,summer,0.9284831285476685
,luxury,0.9269126653671265
,resort,0.9195595383644104
,beach,0.9160798788070679
,villa,0.9136660099029541
,swimming pool,0.9103174209594727
,family,0.8974953889846802
,outdoors,0.8915420174598694
,vacation,0.8819626569747925
,sky,0.8812735080718994
,pool,0.8716670274734497
https://scontent-sit4-1.cdninstagram.com/t51.2885-15/s750x750/sh0.08/e35/13385675_291719267839155_763564078_n.jpg,woman,0.9887386560440063
,young,0.9558728933334351
,summer,0.9499098062515259
,people,0.9495064616203308
,leisure,0.9450832009315491
,outdoors,0.9383420944213867
,beautiful,0.9317697286605835
,relaxation,0.9304482936859131
,girl,0.9274946451187134
,portrait,0.9251769781112671
,enjoyment,0.9234954714775085
,sit,0.9192496538162231
,travel,0.9125632047653198
,adult,0.9115663766860962
,pretty,0.9031391143798828
,lifestyle,0.8932163715362549
,urban,0.8832836151123047
,one,0.866336464881897
,water,0.865267813205719
,glass,0.8647474050521851
https://scontent-sit4-1.cdninstagram.com/t51.2885-15/e35/13573614_810247522445413_1929261459_n.jpg,woman,0.948607861995697
,people,0.9378288984298706
,child,0.9126299619674683
,girl,0.8702536821365356
,group,0.8565676808357239
,group,0.8526654243469238
,family,0.8442083597183228
,school,0.8339888453483582
,music,0.8293938636779785
,competition,0.826657235622406
,portrait,0.8155809640884399
,recreation,0.8042117357254028
,fun,0.7947607040405273
,man,0.786115288734436
,adult,0.7465460300445557
,athlete,0.7462458610534668
,education,0.7352266311645508
,exercise,0.7244112491607666
,sport,0.7068099975585938
,fashion,0.6864215731620789
https://scontent-sit4-1.cdninstagram.com/t51.2885-15/e35/13745007_871392269632368_1915749923_n.jpg,food,0.9940990209579468
,traditional,0.9818381071090698
,dinner,0.9776526689529419
,vegetable,0.9763415455818176
,no person,0.9761002063751221
,delicious,0.9639540910720825
,meal,0.9529353976249695
,lunch,0.9501752853393555
,grow,0.9450966715812683
,cooking,0.9431955814361572
,plate,0.933283805847168
,nutrition,0.9331866502761841
,cuisine,0.9234796762466431
,taste,0.9207895994186401
,dish,0.9189014434814453
,appetizer,0.9071345925331116
,epicure,0.9044913053512573
,homemade,0.8956339359283447
,health,0.8859010934829712
,closeup,0.8721553087234497
https://scontent-sit4-1.cdninstagram.com/t51.2885-15/e35/13694411_1798339573730266_1426850565_n.jpg,child,0.9964478015899658
,toy,0.9957109689712524
,doll,0.9916127324104309
,winter,0.9775592684745789
,boy,0.975131630897522
,people,0.9712543487548828
,Christmas,0.9635261297225952
,wear,0.9615863561630249
,group,0.9390991926193237
,baby,0.9339008331298828
,family,0.9232136607170105
,teddy,0.9189633131027222
,celebration,0.9172807931900024
,girl,0.9113333225250244
,lid,0.9084280729293823
,no person,0.9044070243835449
,snowman,0.9019179940223694
,youth,0.8972867727279663
,happiness,0.8674079179763794
,festival,0.8653411865234375
https://scontent-sit4-1.cdninstagram.com/t51.2885-15/e35/13707173_1251583581528164_1691760839_n.jpg,food,0.9988969564437866
,meat,0.9937340021133423
,dinner,0.9900804162025452
,meal,0.9893864393234253
,delicious,0.9855489730834961
,lunch,0.9830630421638489
,cuisine,0.9802235960960388
,dish,0.978425145149231
,vegetable,0.9782389402389526
,plate,0.9703202247619629
,sauce,0.9692325592041016
,rice,0.9687799215316772
,no person,0.9679397940635681
,cooking,0.9673103094100952
,traditional,0.9654887914657593
,epicure,0.9629523754119873
,pork,0.9532260894775391
,chicken,0.9520211219787598
,beef,0.9507251381874084
,hot,0.9372315406799316
https://scontent-sit4-1.cdninstagram.com/t51.2885-15/e35/13628430_172459983169345_1505696268_n.jpg,airport,0.9904857277870178
,no person,0.9839149713516235
,indoors,0.9822328090667725
,business,0.9787584543228149
,glass,0.9515225887298584
,perspective,0.9468364715576172
,architecture,0.9453496932983398
,design,0.9432308673858643
,modern,0.9413619041442871
,ceiling,0.9400061368942261
,exhibition,0.9370248317718506
,building,0.9226279854774475
,transportation system,0.9138286113739014
,office,0.909148633480072
,lobby,0.9011532068252563
,steel,0.8899782299995422
,tube,0.8894180059432983
,contemporary,0.8870691061019897
,window,0.876591682434082
,inside,0.8716328740119934
https://scontent-sit4-1.cdninstagram.com/t51.2885-15/e35/13724440_1806079776292740_1647480843_n.jpg,coffee,0.9999402165412903
,foam,0.9995609521865845
,cup,0.9981256723403931
,espresso,0.9980518817901611
,dawn,0.9977046251296997
,cappuccino,0.9976001381874084
,hot,0.9968996047973633
,drink,0.9961779117584229
,caffeine,0.9953571557998657
,breakfast,0.9928576946258545
,mug,0.9880361557006836
,saucer,0.986047625541687
,break,0.9848353862762451
,milk,0.9843504428863525
,dark,0.9837632179260254
,cream,0.9821663498878479
,sugar,0.9814893007278442
,perfume,0.9763655662536621
,food,0.9734886884689331
,mocha,0.9654222726821899
https://scontent-sit4-1.cdninstagram.com/t51.2885-15/e35/13473375_1040576226020788_258315838_n.jpg,time,0.9993960857391357
,clock,0.9985272884368896
,watch,0.9927219152450562
,no person,0.9824237823486328
,timer,0.9816710948944092
,minute,0.9815719127655029
,deadline,0.9764193296432495
,precision,0.9687051773071289
,jewelry,0.965410590171814
,band,0.9571402072906494
,antique,0.9568629264831543
,alarm clock,0.9559406638145447
,watch,0.954109787940979
,countdown,0.9476673603057861
,noon,0.9437220692634583
,late,0.9427920579910278
,timepiece,0.9423203468322754
,analogue,0.9387828707695007
,retro,0.9284261465072632
,moment,0.925179123878479
https://scontent-sit4-1.cdninstagram.com/t51.2885-15/e35/13724730_270542246662199_1938784722_n.jpg,canoe,0.9959790706634521
,people,0.9942891001701355
,vehicle,0.9929540157318115
,raft,0.9905098080635071
,watercraft,0.989633321762085
,water,0.9881680011749268
,river,0.9881451725959778
,recreation,0.9874413013458252
,paddle,0.9873072504997253
,group,0.9836857318878174
,oar,0.9817398190498352
,travel,0.9816170334815979
,kayak,0.9812147617340088
,transportation system,0.9803240895271301
,boatman,0.9761403799057007
,rowboat,0.9688140153884888
,tree,0.9674763679504395
,monsoon,0.9647389650344849
,adult,0.9643110036849976
,flood,0.9600660800933838
https://scontent-sit4-1.cdninstagram.com/t51.2885-15/e35/13562030_614881988687051_296977256_n.jpg,love,0.935438871383667
,fun,0.9028584361076355
,car,0.8929167985916138
,child,0.8782086372375488
,cute,0.8775303363800049
,no person,0.8744043111801147
,outdoors,0.8535482883453369
,color,0.851820707321167
,illustration,0.8483884334564209
,sketch,0.845915675163269
,confection,0.8391774892807007
,smile,0.8390131592750549
,seat,0.8276703357696533
,nature,0.8236815333366394
,funny,0.8219794631004333
,design,0.821824312210083
,vehicle,0.8216093182563782
,transportation system,0.8097145557403564
,graphic,0.8076204061508179
,happiness,0.8054802417755127
https://scontent-sit4-1.cdninstagram.com/t51.2885-15/e35/13696498_921363058009063_1712055777_n.jpg,people,0.9982388019561768
,group,0.9910856485366821
,adult,0.9895035028457642
,man,0.9828436374664307
,calamity,0.9643179178237915
,offense,0.9532479047775269
,weapon,0.9531581401824951
,child,0.9466004371643066
,woman,0.9311474561691284
,battle,0.9253199100494385
,road,0.9242614507675171
,war,0.9033714532852173
,savings,0.9021329283714294
,many,0.8986396789550781
,wear,0.8978296518325806
,religion,0.8970960974693298
,civil war,0.8929324150085449
,flood,0.8887519836425781
,injury,0.8809182643890381
,civilian,0.8805643916130066
https://scontent-sit4-1.cdninstagram.com/t51.2885-15/e35/13652095_1783345151952720_1409436444_n.jpg,no person,0.9837836027145386
,leaf,0.9817870855331421
,tree,0.9805542826652527
,nature,0.980270266532898
,flower,0.9686152935028076
,flora,0.9467705488204956
,outdoors,0.9414863586425781
,summer,0.9396936297416687
,growth,0.9299989938735962
,landscape,0.9191337823867798
,garden,0.9152694940567017
,color,0.8747072219848633
,environment,0.8691549301147461
,park,0.8661958575248718
,branch,0.8585993051528931
,fair weather,0.8476002216339111
,food,0.8434131145477295
,tropical,0.8406902551651001
,agriculture,0.8401252627372742
,desktop,0.8089252710342407
https://scontent-sit4-1.cdninstagram.com/t51.2885-15/e35/13556911_165788593833835_1558303880_n.jpg,house,0.9954288005828857
,architecture,0.9946482181549072
,apartment,0.9905636310577393
,window,0.9903210401535034
,no person,0.9901536703109741
,building,0.9891057014465332
,family,0.9866210222244263
,balcony,0.9833073616027832
,home,0.982086718082428
,facade,0.9682730436325073
,outdoors,0.9571186900138855
,urban,0.9534727931022644
,real,0.9498876333236694
,residential,0.9444894790649414
,property,0.9411236047744751
,estate,0.9373457431793213
,exterior,0.9370270371437073
,city,0.9239790439605713
,front,0.923338770866394
,condominium,0.9227407574653625
https://scontent-sit4-1.cdninstagram.com/t51.2885-15/e35/13725616_1041656995911189_83401441_n.jpg,woman,0.990436315536499
,people,0.9865100979804993
,adult,0.986297070980072
,wear,0.975521445274353
,one,0.9718124270439148
,facial expression,0.9656015038490295
,girl,0.964985728263855
,portrait,0.9567084312438965
,child,0.9507783055305481
,indoors,0.941899299621582
,two,0.9087179899215698
,lifestyle,0.907258152961731
,enjoyment,0.8974469900131226
,happiness,0.8970836400985718
,food,0.8945927619934082
,leisure,0.8943266868591309
,sit,0.8757654428482056
,fun,0.8703175783157349
,meal,0.8693957328796387
,knife,0.8630897998809814
https://scontent-sit4-1.cdninstagram.com/t51.2885-15/e35/13652081_1771981569684430_2051127148_n.jpg,group,0.9948447942733765
,child,0.9838857054710388
,four,0.9835299849510193
,group,0.9818565845489502
,woman,0.9794050455093384
,friendship,0.9790607690811157
,people,0.9706580638885498
,togetherness,0.9636291265487671
,fun,0.9601911902427673
,three,0.9600030183792114
,enjoyment,0.9596394300460815
,laughing,0.9500199556350708
,adolescent,0.9497851133346558
,portrait,0.9396711587905884
,facial expression,0.9301145672798157
,man,0.9286502599716187
,festival,0.9265182018280029
,student,0.919601321220398
,happiness,0.9093250036239624
,five,0.8934834003448486
https://scontent-sit4-1.cdninstagram.com/t51.2885-15/e35/13722098_1792381921048395_1981656004_n.jpg,light,0.9835177659988403
,modern,0.9824893474578857
,architecture,0.9820672869682312
,building,0.9810691475868225
,city,0.9806771278381348
,glass,0.9779963493347168
,reflection,0.9769086837768555
,office,0.9714637994766235
,business,0.9654110670089722
,urban,0.9589919447898865
,window,0.9567059278488159
,futuristic,0.9430017471313477
,ceiling,0.9398080110549927
,no person,0.9341864585876465
,sky,0.9303667545318604
,downtown,0.9220278263092041
,perspective,0.9172590970993042
,airport,0.9148221611976624
,skyscraper,0.9099080562591553
,construction,0.9088242053985596
https://scontent-sit4-1.cdninstagram.com/t51.2885-15/e35/13473138_233938663665791_458844873_n.jpg,food,0.9963865280151367
,juicy,0.9933716654777527
,cherry,0.9926443099975586
,grow,0.9919483661651611
,fruit,0.9914330244064331
,delicious,0.9897170066833496
,health,0.9867117404937744
,tomato,0.98647141456604
,nutrition,0.9864683151245117
,ingredients,0.9850523471832275
,no person,0.9846981763839722
,many,0.9822515249252319
,vegetable,0.9810314178466797
,healthy,0.9793439507484436
,pasture,0.9705026149749756
,market,0.9690083265304565
,confection,0.9632035493850708
,vitamin,0.9517192840576172
,leaf,0.9511472582817078
,freshness,0.9310705661773682
https://scontent-sit4-1.cdninstagram.com/t51.2885-15/e35/13774869_1066065393430380_1621261751_n.jpg,food,0.9983137845993042
,pan,0.9973673820495605
,frying pan,0.9948627352714539
,no person,0.9939666390419006
,cooking,0.9890658259391785
,dinner,0.9809263944625854
,lunch,0.9781603813171387
,meal,0.9769294261932373
,seafood,0.9742375612258911
,vegetable,0.9739899635314941
,dish,0.9685068130493164
,hot,0.9672855734825134
,soup,0.9578574895858765
,cookware,0.957344651222229
,rice,0.9555261135101318
,meat,0.9543125629425049
,delicious,0.951931357383728
,mouth-watering,0.9490002393722534
,fish,0.9452263712882996
,cuisine,0.9448109865188599
https://scontent-sit4-1.cdninstagram.com/t51.2885-15/e35/13636034_1632453390417216_1972806185_n.jpg,people,0.9982388019561768
,group,0.9910856485366821
,adult,0.9895035028457642
,man,0.9828436374664307
,calamity,0.9643179178237915
,offense,0.9532479047775269
,weapon,0.9531581401824951
,child,0.9466004371643066
,woman,0.9311474561691284
,battle,0.9253199100494385
,road,0.9242614507675171
,war,0.9033714532852173
,savings,0.9021329283714294
,many,0.8986396789550781
,wear,0.8978296518325806
,religion,0.8970960974693298
,civil war,0.8929324150085449
,flood,0.8887519836425781
,injury,0.8809182643890381
,civilian,0.8805643916130066
https://scontent-sit4-1.cdninstagram.com/t51.2885-15/e35/13731252_1594164397550508_677936274_n.jpg,tree,0.9938715696334839
,architecture,0.9780325293540955
,travel,0.9696455001831055
,street,0.9667683839797974
,building,0.965412974357605
,house,0.9645479321479797
,landscape,0.9616647958755493
,park,0.9551655650138855
,garden,0.9551571011543274
,no person,0.9546492099761963
,city,0.9525172114372253
,home,0.9472284317016602
,road,0.9337190985679626
,sky,0.9182512760162354
,water,0.9059996604919434
,light,0.9000607132911682
,family,0.8995198011398315
,outdoors,0.8977843523025513
,daylight,0.8884779214859009
,summer,0.8883174657821655
https://scontent-sit4-1.cdninstagram.com/t51.2885-15/e35/13573637_1032194653501947_1690113212_n.jpg,meat,0.9979854822158813
,dinner,0.9971926212310791
,food,0.996442437171936
,plate,0.9946883320808411
,beef,0.9946667551994324
,meal,0.9925655126571655
,dish,0.9879589676856995
,sauce,0.987549901008606
,potato,0.9851883053779602
,no person,0.9840483069419861
,lunch,0.9838172793388367
,steak,0.981187641620636
,restaurant,0.9788779020309448
,vegetable,0.9746284484863281
,barbecue,0.9707081317901611
,lamb,0.9695701599121094
,delicious,0.9653142690658569
,dining,0.9635469913482666
,grow,0.9616676568984985
,red meat,0.9586168527603149
https://scontent-sit4-1.cdninstagram.com/t51.2885-15/e35/13725598_572975922875026_752891994_n.jpg,food,0.9949625730514526
,meal,0.9792221784591675
,dinner,0.9741714000701904
,no person,0.97056645154953
,delicious,0.9683218002319336
,plate,0.9676061868667603
,lunch,0.9675538539886475
,meat,0.9662006497383118
,dish,0.9527515172958374
,vegetable,0.9377792477607727
,cuisine,0.9263921976089478
,tasty,0.9262670278549194
,epicure,0.9253554344177246
,traditional,0.9186939597129822
,sauce,0.9158452749252319
,cooking,0.9138293862342834
,restaurant,0.9057130813598633
,seafood,0.9037399291992188
,fish,0.9022349715232849
,nutrition,0.8993548154830933
https://scontent-sit4-1.cdninstagram.com/t51.2885-15/e35/13651822_933754576747597_730528748_n.jpg,illustration,0.97346031665802
,people,0.9583237171173096
,no person,0.9355461597442627
,weapon,0.9297499060630798
,print,0.9288034439086914
,war,0.9285746812820435
,group,0.9269033074378967
,military,0.923991858959198
,adult,0.9108837842941284
,battle,0.9101611971855164
,army,0.9011927843093872
,seat,0.8984010219573975
,furniture,0.8971725702285767
,man,0.892166018486023
,gun,0.8906570672988892
,food,0.886698305606842
,chair,0.883350133895874
,vehicle,0.8794089555740356
,one,0.8766390085220337
,offense,0.8712813854217529
https://scontent-sit4-1.cdninstagram.com/t51.2885-15/e35/13573514_292505184434459_691395261_n.jpg,garden,0.9873063564300537
,summer,0.9760062098503113
,grass,0.9728490710258484
,nature,0.9556856155395508
,environment,0.9379259943962097
,backyard,0.9368239641189575
,clean,0.9362398386001587
,no person,0.9361846446990967
,water,0.925309419631958
,flora,0.9248258471488953
,park,0.9183605909347534
,leaf,0.9136409163475037
,outdoors,0.9125956296920776
,pool,0.9093323945999146
,lawn,0.9077116250991821
,sight,0.8860030174255371
,business,0.8852408528327942
,ecology,0.8775336742401123
,relaxation,0.8772745132446289
,wet,0.8732537031173706
https://scontent-sit4-1.cdninstagram.com/t51.2885-15/e35/13380967_280610012291720_1277646651_n.jpg,food,0.9960640668869019
,meal,0.9808083772659302
,dinner,0.976806640625
,mushroom,0.9752105474472046
,dish,0.9728056192398071
,cuisine,0.972614049911499
,vegetable,0.9718355536460876
,pepper,0.9638052582740784
,meat,0.9601218700408936
,delicious,0.9547274708747864
,no person,0.949547290802002
,lunch,0.9487152695655823
,cooking,0.9452747106552124
,plate,0.9440245628356934
,epicure,0.9415140748023987
,healthy,0.9394192099571228
,onion,0.9389423131942749
,tasty,0.9240631461143494
,restaurant,0.9174344539642334
,hot,0.915594220161438
