url,class,score
https://scontent.cdninstagram.com/t51.2885-15/e35/13531909_1020597804642040_1994088740_n.jpg,water,0.9875174164772034
,no person,0.9805386662483215
,nature,0.9640364050865173
,outdoors,0.9353578686714172
,spider,0.9333535432815552
,frost,0.9267190098762512
,sea,0.9262778759002686
,winter,0.8971760272979736
,ocean,0.8897705078125
,web,0.8766157627105713
,snow,0.8531893491744995
,leaf,0.8531777858734131
,travel,0.8463306427001953
,fish,0.8329373598098755
,dawn,0.82716965675354
,water,0.8133202791213989
,lake,0.807284414768219
,fair weather,0.8038238286972046
,light,0.801915168762207
,tree,0.8008312582969666
https://scontent.cdninstagram.com/t51.2885-15/e35/12547707_745692068865220_2083656264_n.jpg,technology,0.9717648029327393
,stripe,0.9702791571617126
,data,0.9332157373428345
,illustration,0.9331291913986206
,business,0.9260215163230896
,electronics,0.9237256646156311
,abstract,0.9214932322502136
,modern,0.911910891532898
,internet,0.9088062644004822
,desktop,0.8979511260986328
,vector,0.8906689882278442
,computer,0.871975302696228
,template,0.868395209312439
,screen,0.8676180839538574
,no person,0.8650848865509033
,design,0.8628429174423218
,horizontal,0.8588914275169373
,connection,0.8449432253837585
,pattern,0.8433250188827515
,graphic,0.834388792514801
https://scontent.cdninstagram.com/t51.2885-15/s750x750/sh0.08/e35/12543372_991714784237376_2018397141_n.jpg,people,0.9959331154823303
,group,0.9927580952644348
,group,0.9875583648681641
,adult,0.9848545789718628
,woman,0.977733850479126
,many,0.9678688049316406
,portrait,0.9611616134643555
,girl,0.9599756002426147
,wear,0.9533367156982422
,man,0.9438647031784058
,crowd,0.9297890663146973
,performance,0.9129726886749268
,child,0.8984799981117249
,stage,0.8887006044387817
,music,0.887011706829071
,school,0.8438202142715454
,recreation,0.8421372175216675
,youth,0.8374615907669067
,dancing,0.8373715877532959
,boy,0.8335461616516113
https://scontent.cdninstagram.com/t51.2885-15/e35/12747800_1654107401516965_920143613_n.jpg,no person,0.9773775339126587
,tree,0.9770069122314453
,building,0.9717517495155334
,city,0.9645513296127319
,architecture,0.9644548892974854
,outdoors,0.9643918871879578
,sky,0.9468565583229065
,street,0.9438619613647461
,urban,0.9422712326049805
,travel,0.9325371980667114
,road,0.9305592775344849
,daylight,0.9063178300857544
,downtown,0.8986895680427551
,home,0.8826209306716919
,house,0.8788065910339355
,business,0.87211012840271
,park,0.867186427116394
,skyscraper,0.8595236539840698
,family,0.8560820817947388
,modern,0.8301548957824707
https://scontent.cdninstagram.com/t51.2885-15/e35/12547420_436592149879723_298895813_n.jpg,food,0.9947119355201721
,plate,0.9761451482772827
,no person,0.9760729670524597
,meal,0.9726995825767517
,dish,0.9522373676300049
,dinner,0.9510600566864014
,meat,0.9495882391929626
,restaurant,0.94593346118927
,vegetable,0.9320595860481262
,lunch,0.9183354377746582
,cuisine,0.9173704385757446
,epicure,0.912587583065033
,desktop,0.9078431129455566
,delicious,0.9042176008224487
,chicken,0.8921563625335693
,healthy,0.8895492553710938
,poultry,0.8859407901763916
,sauce,0.8824391961097717
,cooking,0.8727614879608154
,closeup,0.8691084384918213
https://scontent.cdninstagram.com/t51.2885-15/s750x750/sh0.08/e35/12530687_987772887938694_1466427107_n.jpg,laser,0.9930298328399658
,abstract,0.9855470657348633
,technology,0.9827250838279724
,spotlight,0.9627430438995361
,music,0.961947500705719
,energy,0.9567630290985107
,light,0.9454202651977539
,light,0.9435214996337891
,science,0.9431536197662354
,bright,0.9395166039466858
,explosion,0.9344853162765503
,design,0.910888135433197
,wallpaper,0.8983066082000732
,pattern,0.8919959664344788
,illustration,0.887486457824707
,computer,0.8840460181236267
,background,0.8795108795166016
,round,0.8752999901771545
,flare,0.874825656414032
,festival,0.8728190660476685
https://scontent.cdninstagram.com/t51.2885-15/s750x750/sh0.08/e35/1516284_1590150701310883_32905083_n.jpg,no person,0.9549046754837036
,light,0.9442732930183411
,ball-shaped,0.9439934492111206
,blur,0.9421126842498779
,sky,0.9159185886383057
,science,0.9104624390602112
,reflection,0.8894708156585693
,bright,0.8694310188293457
,fun,0.8602691292762756
,technology,0.8549191951751709
,light,0.8516838550567627
,action,0.8465366959571838
,ball,0.8436694145202637
,glass,0.8239830732345581
,abstract,0.8214577436447144
,motion,0.8189705610275269
,round,0.818005383014679
,shining,0.8167998790740967
,celebration,0.8136007785797119
,planet,0.8074663281440735
https://scontent.cdninstagram.com/t51.2885-15/e35/11939530_1699808216916674_1989293957_n.jpg,no person,0.975226640701294
,paper,0.9587900638580322
,business,0.9526023864746094
,wood,0.9314525127410889
,text,0.9034203886985779
,success,0.8492751121520996
,writing,0.8261914253234863
,education,0.8006559610366821
,indoors,0.7806969881057739
,creativity,0.7651534080505371
,growth,0.7649873495101929
,horizontal,0.7485803365707397
,research,0.7447289228439331
,retro,0.7339613437652588
,desktop,0.7177572846412659
,data,0.7143199443817139
,wooden,0.6919900178909302
,wisdom,0.6908645629882812
,food,0.686809778213501
,conceptual,0.6797433495521545
https://scontent.cdninstagram.com/t51.2885-15/s750x750/sh0.08/e35/12965275_231357590585030_1118432652_n.jpg,illustration,0.983120322227478
,symbol,0.9822530150413513
,image,0.9808984994888306
,design,0.9740432500839233
,vector,0.9708206653594971
,World Wide Web,0.9596256017684937
,internet,0.9575238823890686
,element,0.9479058384895325
,graphic,0.9436033964157104
,banner,0.9396474361419678
,template,0.9386963844299316
,label,0.9267757534980774
,business,0.9246834516525269
,sign,0.9234125018119812
,isolated,0.917862057685852
,square,0.914411187171936
,shape,0.891930341720581
,paper,0.8879941701889038
,sign,0.8766731023788452
,desktop,0.8597472906112671
https://scontent.cdninstagram.com/t51.2885-15/e35/12224492_580809458736946_1558844036_n.jpg,decoration,0.9425598382949829
,desktop,0.9280935525894165
,design,0.9230234026908875
,architecture,0.9072818756103516
,modern,0.9043275117874146
,illustration,0.8987354040145874
,flower,0.8831396102905273
,vintage,0.8519101142883301
,building,0.8490597605705261
,vector,0.8475958108901978
,city,0.8469358086585999
,old,0.8417894244194031
,picture frame,0.8376764059066772
,card,0.8111797571182251
,no person,0.8032227754592896
,house,0.798917293548584
,art,0.795099139213562
,window,0.7894537448883057
,celebration,0.7868754863739014
,bill,0.7831341028213501
https://scontent.cdninstagram.com/t51.2885-15/s640x640/sh0.08/e35/12237438_323850594405714_928819514_n.jpg,business,0.983430027961731
,text,0.9734934568405151
,illustration,0.9578009843826294
,typography,0.9508926868438721
,desktop,0.9281316995620728
,symbol,0.9257579445838928
,design,0.921916127204895
,no person,0.9199782013893127
,conceptual,0.9136134386062622
,success,0.9119347333908081
,give voice,0.9067659378051758
,alphabet,0.8883652091026306
,type,0.8875693082809448
,creativity,0.8856061697006226
,sign,0.8827207088470459
,number,0.8787084817886353
,sign,0.8767560720443726
,market,0.874427318572998
,internet,0.8725167512893677
,data,0.8705273270606995
https://scontent.cdninstagram.com/t51.2885-15/e35/12144187_1104586296241436_694317617_n.jpg,music,0.9996123313903809
,piano,0.9980685710906982
,instrument,0.9964379072189331
,sound,0.9940767288208008
,people,0.9931653738021851
,synthesizer,0.9879468083381653
,technology,0.9875935316085815
,sound,0.986902117729187
,acoustic,0.9843157529830933
,musician,0.9841676950454712
,one,0.982314944267273
,adult,0.9696741104125977
,man,0.9621105194091797
,education,0.9586050510406494
,wireless,0.9535093307495117
,keyboard,0.9528489708900452
,pianist,0.9488986730575562
,electronics,0.940227746963501
,stereo,0.9160031080245972
,concert,0.9150626063346863
https://scontent.cdninstagram.com/t51.2885-15/e35/12729653_1659323530994142_1582006514_n.jpg,mountain,0.9894986152648926
,landscape,0.9865561723709106
,no person,0.9788580536842346
,travel,0.9745885729789734
,nature,0.9735004901885986
,outdoors,0.957639217376709
,sky,0.9573070406913757
,valley,0.9349181652069092
,hill,0.9270457625389099
,scenic,0.9216171503067017
,tree,0.9184550046920776
,wood,0.9123150110244751
,water,0.9057705402374268
,sight,0.8923904895782471
,daylight,0.8650064468383789
,cropland,0.8621299862861633
,summer,0.8577772378921509
,countryside,0.8511602878570557
,tourism,0.8368074893951416
,beautiful,0.8299631476402283
https://scontent.cdninstagram.com/t51.2885-15/s750x750/sh0.08/e35/13329140_690172831146946_1320739942_n.jpg,woman,0.990038275718689
,man,0.9822069406509399
,people,0.9723870754241943
,group,0.9698598980903625
,group,0.9608927965164185
,adult,0.942916989326477
,four,0.9292972683906555
,family,0.9228085875511169
,table,0.9178706407546997
,girl,0.9143503904342651
,meal,0.9104254841804504
,togetherness,0.8952357172966003
,portrait,0.8919951915740967
,friendship,0.8896056413650513
,indoors,0.8771660923957825
,three,0.8643137812614441
,fun,0.8634647130966187
,enjoyment,0.8627759218215942
,drink,0.8562197685241699
,child,0.8535802364349365
https://scontent.cdninstagram.com/t51.2885-15/e35/12424571_479731152233228_1633542269_n.jpg,indoors,0.9850358366966248
,architecture,0.9682111740112305
,no person,0.9659290313720703
,outdoors,0.9440525770187378
,vertical,0.9337554574012756
,window,0.9232234954833984
,modern,0.9157365560531616
,travel,0.9151014089584351
,city,0.9126742482185364
,horizontal,0.8928425312042236
,glass,0.8829386234283447
,business,0.8758378624916077
,people,0.8738252520561218
,horizontal,0.8620693683624268
,light,0.8236073851585388
,building,0.7895199656486511
,passageway,0.7709320783615112
,shadow,0.7690712213516235
,absence,0.7525138258934021
,adult,0.7204104661941528
https://scontent.cdninstagram.com/t51.2885-15/s750x750/sh0.08/e35/12905276_659008537570374_1258577377_n.jpg,smoke,0.9687923789024353
,festival,0.9318860769271851
,light,0.9272617101669312
,flame,0.9179579019546509
,light,0.9134392738342285
,motion,0.9099020957946777
,abstract,0.9085758924484253
,science,0.9039354920387268
,hot,0.8750961422920227
,action,0.8646317720413208
,no person,0.8641794919967651
,danger,0.856237530708313
,dark,0.8454843759536743
,explosion,0.8451069593429565
,desktop,0.844709575176239
,technology,0.8436994552612305
,energy,0.8295793533325195
,space,0.8281362056732178
,speed,0.8237427473068237
,race,0.8131669759750366
https://scontent.cdninstagram.com/t51.2885-15/e15/12599173_1705802886362231_548282797_n.jpg,people,0.9887157678604126
,one,0.9740117192268372
,adult,0.9694967269897461
,indoors,0.9693261384963989
,music,0.9669196605682373
,woman,0.9450191259384155
,portrait,0.9427565336227417
,young,0.864262580871582
,wear,0.8619673252105713
,man,0.8494995832443237
,fashion,0.8361731767654419
,business,0.8175836801528931
,attractive,0.8051110506057739
,person,0.8023415803909302
,room,0.7853407263755798
,retro,0.7818648815155029
,model,0.7737321257591248
,looking,0.7701190114021301
,telephone,0.7693560123443604
,vertical,0.7581825256347656
https://scontent.cdninstagram.com/t51.2885-15/e35/12547506_882454578533758_1311157394_n.jpg,indoors,0.9839596748352051
,vertical,0.9692657589912415
,horizontal,0.9550468921661377
,text,0.9502832889556885
,business,0.9283620119094849
,people,0.924214243888855
,no person,0.9126112461090088
,food,0.8633353114128113
,drink,0.8516219854354858
,adult,0.8306702971458435
,religion,0.8138017654418945
,wood,0.8072812557220459
,outdoors,0.7905237674713135
,paper,0.778980553150177
,dark,0.7759064435958862
,illuminated,0.7706762552261353
,old,0.7653908729553223
,offense,0.7642402648925781
,gold,0.7602704763412476
,creativity,0.7600836753845215
https://scontent.cdninstagram.com/t51.2885-15/e35/12338698_857641797686063_582320956_n.jpg,leaf,0.9884154200553894
,nature,0.9828660488128662
,flora,0.9603197574615479
,growth,0.9401522874832153
,no person,0.9352949857711792
,outdoors,0.9322860240936279
,summer,0.9297298192977905
,freshness,0.9236699938774109
,environment,0.9094768762588501
,desktop,0.8898541927337646
,grass,0.862069845199585
,bright,0.8527319431304932
,ecology,0.8362827301025391
,wood,0.8042247891426086
,garden,0.8039842247962952
,horizontal,0.7798017263412476
,business,0.7785462141036987
,rain,0.764779806137085
,fair weather,0.7563996911048889
,design,0.7412475943565369
https://scontent.cdninstagram.com/t51.2885-15/e35/12331653_469528733231054_1579448046_n.jpg,street,0.9650648832321167
,movie,0.9594464302062988
,dark,0.9483177661895752
,no person,0.9361145496368408
,car,0.9327878952026367
,city,0.9179472923278809
,light,0.9171298742294312
,transportation system,0.9063838124275208
,road,0.8982787132263184
,people,0.8968824148178101
,theater,0.8951764106750488
,vehicle,0.8865975141525269
,indoors,0.8835481405258179
,stage,0.8829441666603088
,illuminated,0.8814557194709778
,sign,0.8813614845275879
,performance,0.8727332353591919
,business,0.858853280544281
,traffic,0.8586137890815735
,monochrome,0.8226317167282104
https://scontent.cdninstagram.com/t51.2885-15/e35/10261172_1224544390892510_2087877226_n.jpg,leaf,0.9887387752532959
,nature,0.9863755702972412
,no person,0.9850901365280151
,wood,0.9822908639907837
,tree,0.9802089929580688
,landscape,0.9782663583755493
,tropical,0.9705880284309387
,water,0.9694885015487671
,jungle,0.9596422910690308
,flora,0.9586037397384644
,environment,0.953270435333252
,outdoors,0.9508151412010193
,rainforest,0.9476706981658936
,summer,0.9389431476593018
,travel,0.9380382299423218
,rain,0.9230892658233643
,lush,0.9194852113723755
,river,0.9187192320823669
,growth,0.9184666872024536
,park,0.9100350737571716
https://scontent.cdninstagram.com/t51.2885-15/s750x750/sh0.08/e35/12519332_924375610979965_1075931164_n.jpg,drink,0.9972455501556396
,tea,0.9964637756347656
,hot,0.9881070852279663
,cup,0.9872918725013733
,glass,0.981441855430603
,teapot,0.9717133045196533
,no person,0.971343457698822
,warmly,0.965854287147522
,teacup,0.9620990753173828
,table,0.9209323525428772
,traditional,0.9088436365127563
,desktop,0.9062995314598083
,color,0.8910226225852966
,decoration,0.8852061033248901
,liquid,0.8810372352600098
,bright,0.8784964084625244
,aromatic,0.8706737756729126
,relaxation,0.8671133518218994
,round,0.864323616027832
,mug,0.8600531816482544
https://scontent.cdninstagram.com/t51.2885-15/e15/12976188_1590587674591236_1094601053_n.jpg,people,0.9919130802154541
,music,0.9881484508514404
,one,0.9819527268409729
,adult,0.9794580340385437
,indoors,0.9655911326408386
,portrait,0.9626104831695557
,wear,0.92268967628479
,woman,0.9199642539024353
,man,0.9021233320236206
,room,0.9001211524009705
,model,0.8933200240135193
,fashion,0.866752028465271
,business,0.8460579514503479
,retro,0.8239020705223083
,girl,0.801544189453125
,technology,0.7920486330986023
,adolescent,0.7836796045303345
,telephone,0.7735582590103149
,eyewear,0.7560670375823975
,commerce,0.7516958713531494
https://scontent.cdninstagram.com/t51.2885-15/e35/12547335_987655567943589_1322482135_n.jpg,no person,0.9743131995201111
,building,0.9728901982307434
,architecture,0.9630861282348633
,connection,0.9510899782180786
,technology,0.9443764090538025
,people,0.9428163766860962
,one,0.92054283618927
,expression,0.90531325340271
,robot,0.8867824077606201
,precision,0.8777856230735779
,city,0.8750854730606079
,business,0.8565860986709595
,futuristic,0.8363162279129028
,science,0.8359313011169434
,man,0.8170568943023682
,industry,0.813505232334137
,reflection,0.7997322082519531
,shape,0.7989436388015747
,power,0.782310962677002
,teamwork,0.7721675634384155
https://scontent.cdninstagram.com/t51.2885-15/e35/12725202_997293986994338_749939078_n.jpg,sweet,0.9902705550193787
,no person,0.9899079203605652
,chocolate,0.98568195104599
,cream,0.9817880392074585
,food,0.9801421165466309
,cake,0.9771974682807922
,sugar,0.9724594354629517
,delicious,0.9519639015197754
,fruit,0.942642092704773
,creamy,0.9394087791442871
,desktop,0.9285938739776611
,plate,0.9223642349243164
,goody,0.9099186658859253
,indulgence,0.9098708629608154
,luxury,0.9030880928039551
,one,0.9005971550941467
,pastry,0.896734356880188
,celebration,0.8954067230224609
,decoration,0.8853248357772827
,epicure,0.8833405375480652
https://scontent.cdninstagram.com/t51.2885-15/s750x750/sh0.08/e35/12357304_913938542015686_842302566_n.jpg,silhouette,0.9781736135482788
,people,0.9729039072990417
,outdoors,0.9662964344024658
,dusk,0.9549737572669983
,sunset,0.942386269569397
,horizontal,0.9368442296981812
,shadow,0.9344899654388428
,adult,0.9310324192047119
,man,0.8960498571395874
,illuminated,0.8772557377815247
,travel,0.8723980188369751
,light,0.8594824075698853
,city,0.8287041187286377
,fair weather,0.8153074979782104
,religion,0.8140536546707153
,dawn,0.8102405071258545
,woman,0.7981259822845459
,music,0.7978760004043579
,celebration,0.7726688981056213
,landscape,0.7673770189285278
https://scontent.cdninstagram.com/t51.2885-15/e35/12317847_1393179990981618_133903288_n.jpg,business,0.9619319438934326
,performance,0.9071881175041199
,music,0.8817927241325378
,people,0.8731494545936584
,stage,0.839385986328125
,recreation,0.8144814372062683
,technology,0.8120241165161133
,singer,0.8111066818237305
,man,0.8056274652481079
,concert,0.8021650314331055
,success,0.7948304414749146
,theater,0.7857354879379272
,desktop,0.7597775459289551
,festival,0.7595247626304626
,dark,0.7245936393737793
,conceptual,0.7182075381278992
,light,0.7161099910736084
,woman,0.7060691118240356
,security,0.7051572799682617
,accomplishment,0.697976291179657
https://scontent.cdninstagram.com/t51.2885-15/e35/11849878_716852955085294_1119587857_n.jpg,people,0.9698642492294312
,stage,0.9532290697097778
,music,0.9321434497833252
,performance,0.9309160709381104
,woman,0.9247503876686096
,education,0.8940749168395996
,man,0.8865499496459961
,concert,0.8717091083526611
,imagery,0.8530639410018921
,show,0.8485239744186401
,child,0.8396953344345093
,business,0.8384814262390137
,adult,0.8373914957046509
,stump,0.827776312828064
,room,0.7942145466804504
,love,0.7894132137298584
,bill,0.7893749475479126
,silhouette,0.7884457111358643
,presentation,0.7873818874359131
,singer,0.7865930795669556
https://scontent.cdninstagram.com/t51.2885-15/sh0.08/e35/p640x640/11899568_134241910268830_1297977061_n.jpg,music,0.9944085478782654
,piano,0.989694356918335
,people,0.9831593632698059
,musician,0.9810101985931396
,one,0.9675202369689941
,instrument,0.9518405199050903
,portrait,0.9487593173980713
,adult,0.9484803676605225
,pianist,0.9138916730880737
,man,0.9054023027420044
,woman,0.9017230272293091
,indoors,0.8983136415481567
,education,0.8780562281608582
,concert,0.8690909147262573
,performance,0.8521041870117188
,sound,0.8384566307067871
,singer,0.8312325477600098
,wear,0.8286594152450562
,sit,0.827184796333313
,pop,0.7859558463096619
https://scontent.cdninstagram.com/t51.2885-15/e35/12338793_1511880672474355_190046828_n.jpg,celebration,0.9596754312515259
,card,0.9524275064468384
,desktop,0.9088221192359924
,Christmas,0.9045504331588745
,paper,0.8765327334403992
,text,0.8474715948104858
,illustration,0.8183343410491943
,color,0.8148913383483887
,decoration,0.8123829364776611
,gift,0.8032460808753967
,no person,0.7906466722488403
,symbol,0.783047080039978
,design,0.776628851890564
,party,0.7751758098602295
,number,0.7657649517059326
,love,0.7604566812515259
,fun,0.7451515197753906
,book,0.7393128871917725
,winter,0.7332888841629028
,calendar,0.7056008577346802
https://scontent.cdninstagram.com/t51.2885-15/e35/12145204_1522562828034344_397146733_n.jpg,illustration,0.9626846313476562
,design,0.9499815702438354
,vector,0.9475340247154236
,desktop,0.914226770401001
,text,0.9118196964263916
,card,0.9079830050468445
,art,0.901473343372345
,decoration,0.8907596468925476
,symbol,0.8890846967697144
,no person,0.8845455646514893
,bill,0.8799601197242737
,celebration,0.8752325773239136
,graphic,0.8487078547477722
,pattern,0.8402656316757202
,color,0.8319079279899597
,shape,0.8182963132858276
,abstract,0.8073348999023438
,image,0.7963051199913025
,paper,0.7822510004043579
,retro,0.774008572101593
https://scontent.cdninstagram.com/t51.2885-15/e35/12277406_963441390414385_276277257_n.jpg,horizontal,0.9563389420509338
,business,0.9477691650390625
,text,0.9280127286911011
,paper,0.926378071308136
,indoors,0.9186452627182007
,vertical,0.8979001045227051
,people,0.8820353746414185
,illustration,0.8629730343818665
,table,0.8396724462509155
,communication,0.8267861604690552
,no person,0.8122619986534119
,document,0.8065550923347473
,celebration,0.801616907119751
,travel,0.7998911738395691
,adult,0.7803155779838562
,stock,0.7727967500686646
,tourism,0.7704774141311646
,wood,0.7389620542526245
,box,0.7292541861534119
,office,0.7188780903816223
https://scontent.cdninstagram.com/t51.2885-15/e35/13150882_1768702766697157_1617067690_n.jpg,food,0.9969908595085144
,plate,0.9841779470443726
,healthy,0.9731460809707642
,delicious,0.9721777439117432
,no person,0.9659832715988159
,dish,0.9646298289299011
,meal,0.9631350040435791
,fruit,0.9605104923248291
,cuisine,0.9509133100509644
,refreshment,0.9463455677032471
,dinner,0.9437997341156006
,epicure,0.9427856802940369
,tasty,0.9352771043777466
,vegetable,0.9348763227462769
,restaurant,0.9296307563781738
,closeup,0.9277175068855286
,lunch,0.9235459566116333
,sweet,0.9222025275230408
,cooking,0.9081469774246216
,slice,0.9059931039810181
https://scontent.cdninstagram.com/t51.2885-15/e35/13188016_1034545996619541_1055474721_n.jpg,music,0.999867856502533
,sound,0.9997460842132568
,sound,0.9984557628631592
,technology,0.9951691627502441
,stereo,0.9946011304855347
,piano,0.9872662425041199
,acoustic,0.9858718514442444
,electronics,0.9849005937576294
,synthesizer,0.9846524000167847
,song,0.9835200905799866
,musician,0.9771115779876709
,music,0.9747492671012878
,no person,0.9735270738601685
,make noise,0.9661630988121033
,rhythm,0.9630560874938965
,equipment,0.9601913094520569
,phonograph record,0.9530763626098633
,concert,0.951181948184967
,bass,0.9506255388259888
,instrument,0.9453680515289307
https://scontent.cdninstagram.com/t51.2885-15/s480x480/e35/12940075_217132435308687_631702702_n.jpg,desktop,0.9690216779708862
,nature,0.9506708979606628
,round,0.9500771760940552
,round,0.9489502906799316
,sphere,0.941106915473938
,no person,0.9321850538253784
,color,0.930882453918457
,isolated,0.9275896549224854
,food,0.918653666973114
,illustration,0.9178882241249084
,abstract,0.9005031585693359
,ball-shaped,0.8981311321258545
,environment,0.8934614062309265
,science,0.8822349309921265
,beautiful,0.8785921335220337
,sight,0.8748621940612793
,texture,0.8734769225120544
,microbiology,0.8687024712562561
,design,0.8671663403511047
,water,0.8662045001983643
https://scontent.cdninstagram.com/t51.2885-15/s750x750/sh0.08/e35/13129944_1290150824333246_1499148412_n.jpg,facial expression,0.9908899664878845
,woman,0.9882125854492188
,adult,0.9764751195907593
,man,0.9746736288070679
,people,0.9694050550460815
,indoors,0.9686925411224365
,group,0.9678125381469727
,portrait,0.9677141904830933
,togetherness,0.9660613536834717
,recreation,0.9628331065177917
,three,0.9433376789093018
,happiness,0.9397045373916626
,wear,0.9340460300445557
,room,0.9316649436950684
,enjoyment,0.9256715774536133
,eyewear,0.9087502360343933
,leisure,0.8992815017700195
,family,0.8901196122169495
,two,0.8841837644577026
,four,0.880274772644043
https://scontent.cdninstagram.com/t51.2885-15/s750x750/sh0.08/e35/13109100_1032017670211336_1405387395_n.jpg,eyeglasses,0.9877873659133911
,woman,0.9777106642723083
,people,0.9715043306350708
,eyewear,0.9671889543533325
,group,0.9603021144866943
,portrait,0.9590452909469604
,two,0.9590307474136353
,wear,0.9488861560821533
,togetherness,0.9472482204437256
,man,0.9462432861328125
,three,0.9373189806938171
,facial expression,0.9366438984870911
,adult,0.9137437343597412
,laughing,0.8904659748077393
,festival,0.8903105854988098
,music,0.8897864818572998
,business,0.8863849639892578
,friendship,0.8633320331573486
,recreation,0.8628367781639099
,musician,0.8545661568641663
https://scontent.cdninstagram.com/t51.2885-15/e35/12256589_1726712044232650_1075616333_n.jpg,people,0.9645023345947266
,outdoors,0.9623754024505615
,woman,0.9478844404220581
,adult,0.9352279305458069
,war,0.9056271910667419
,wood,0.8999540209770203
,nature,0.8948246240615845
,graffiti,0.8937180042266846
,one,0.8830766677856445
,travel,0.8791277408599854
,vertical,0.8705601096153259
,cemetery,0.8619851469993591
,retro,0.8590420484542847
,religion,0.8548588752746582
,man,0.8495465517044067
,portrait,0.8457804918289185
,old,0.8424373865127563
,architecture,0.8339880704879761
,sign,0.8314423561096191
,battle,0.8285634517669678
https://scontent.cdninstagram.com/t51.2885-15/s640x640/sh0.08/e35/12599482_784514088315508_431246673_n.jpg,woman,0.9908427596092224
,indoors,0.9817009568214417
,man,0.9715549349784851
,people,0.9703437089920044
,adult,0.969691276550293
,lifestyle,0.9497874975204468
,togetherness,0.9434460997581482
,group,0.9014732837677002
,class,0.8988736867904663
,girl,0.8863182067871094
,young,0.8861878514289856
,education,0.8775621652603149
,happiness,0.8722643852233887
,teamwork,0.8612611293792725
,room,0.8592482805252075
,fun,0.855961799621582
,family,0.8547748327255249
,teacher,0.8486582040786743
,beautiful,0.8344725370407104
,office,0.8279582262039185
https://scontent.cdninstagram.com/t51.2885-15/s750x750/sh0.08/e35/13423486_990975367682497_890536851_n.jpg,furniture,0.9913430213928223
,room,0.9911080598831177
,indoors,0.9873785972595215
,business,0.9820312857627869
,technology,0.9801162481307983
,computer,0.9782243967056274
,table,0.9653503894805908
,no person,0.9636105895042419
,desk,0.9632734656333923
,contemporary,0.9571899175643921
,office,0.9554777145385742
,telephone,0.9471859931945801
,competition,0.9455552697181702
,music,0.9413427114486694
,interior design,0.9403508901596069
,seat,0.9343101382255554
,chair,0.9323300123214722
,people,0.9313439130783081
,electronics,0.9267836809158325
,connection,0.9068121910095215
https://scontent.cdninstagram.com/t51.2885-15/s750x750/sh0.08/e35/12904990_1027199894029920_996895782_n.jpg,illustration,0.9780634641647339
,vector,0.9771842956542969
,template,0.9737920761108398
,design,0.969523012638092
,banner,0.9680480360984802
,identity,0.9622116088867188
,symbol,0.9540563225746155
,label,0.9524253606796265
,element,0.9292110800743103
,graphic,0.9270037412643433
,image,0.9160760641098022
,business,0.9129139184951782
,paper,0.9106130599975586
,card,0.9104407429695129
,picture frame,0.9045909643173218
,sign,0.8900246620178223
,blank,0.8699316382408142
,World Wide Web,0.8625481128692627
,glazed,0.8574004173278809
,no person,0.8524237871170044
https://scontent.cdninstagram.com/t51.2885-15/e15/13277768_1590926901236764_17951464_n.jpg,no person,0.9843508005142212
,stripe,0.9542055130004883
,technology,0.9514446258544922
,electronics,0.9466413259506226
,industry,0.915286660194397
,business,0.9041818976402283
,data,0.8797578811645508
,intensity,0.879568338394165
,music,0.8633872270584106
,switch,0.8444753885269165
,internet,0.8337148427963257
,computer,0.8227978348731995
,panel,0.8088197708129883
,interface,0.7578073740005493
,contemporary,0.7499278783798218
,skidder,0.7489829659461975
,World Wide Web,0.7351794242858887
,modern,0.7013108730316162
,sound,0.6988321542739868
,line,0.6931530237197876
https://scontent.cdninstagram.com/t51.2885-15/e35/12918608_246108685740326_2139229760_n.jpg,architecture,0.9636512398719788
,indoors,0.9631392955780029
,illustration,0.9273250102996826
,family,0.9217001795768738
,people,0.9144652485847473
,contemporary,0.9004981517791748
,business,0.9004517793655396
,man,0.8964416980743408
,no person,0.8934123516082764
,door,0.8696410059928894
,window,0.861199140548706
,woman,0.8560199737548828
,travel,0.8423203229904175
,building,0.819828450679779
,design,0.8088871240615845
,house,0.8086110949516296
,art,0.8011223077774048
,room,0.7980467677116394
,success,0.7848473787307739
,creativity,0.7724248170852661
https://scontent.cdninstagram.com/t51.2885-15/s640x640/sh0.08/e35/13126827_524387577769999_427769106_n.jpg,portrait,0.9922966957092285
,people,0.9900393486022949
,one,0.98093581199646
,wear,0.9723912477493286
,adult,0.9681629538536072
,eyeglasses,0.9635656476020813
,eyewear,0.9582667350769043
,vehicle,0.9452236890792847
,man,0.9337453842163086
,child,0.9172720909118652
,woman,0.9143592119216919
,outdoors,0.9093921184539795
,car,0.9029030799865723
,adolescent,0.9010815620422363
,boy,0.8967381119728088
,sunglasses,0.8895100355148315
,daylight,0.8852106332778931
,veil,0.8807480335235596
,lid,0.8578447103500366
,girl,0.8421943187713623
https://scontent.cdninstagram.com/t51.2885-15/e35/13391262_134509876967774_555579068_n.jpg,people,0.987654447555542
,man,0.9652063250541687
,recreation,0.9612727165222168
,adult,0.960644006729126
,competition,0.9576940536499023
,woman,0.9576219320297241
,leisure,0.9429746866226196
,child,0.9378710985183716
,outdoors,0.9352332353591919
,soccer,0.9348620772361755
,travel,0.9101080894470215
,uniform,0.905490517616272
,family,0.9023189544677734
,one,0.8998597860336304
,education,0.8957371711730957
,wear,0.8885839581489563
,two,0.8874045610427856
,tourist,0.8809254169464111
,football,0.8800569772720337
,school,0.8648059368133545
https://scontent.cdninstagram.com/t51.2885-15/e35/13269321_1010953672320822_676009633_n.jpg,people,0.99074387550354
,outdoors,0.984279215335846
,man,0.9780541658401489
,woman,0.9715269207954407
,adult,0.9590243101119995
,park,0.9556580781936646
,family,0.9542621374130249
,togetherness,0.9449180364608765
,fun,0.9437371492385864
,enjoyment,0.9384527206420898
,summer,0.9353219270706177
,city,0.9307992458343506
,bench,0.9248802661895752
,friendship,0.9067507982254028
,street,0.9018963575363159
,child,0.8937315940856934
,recreation,0.8905980587005615
,leisure,0.8692444562911987
,sit,0.8664707541465759
,lifestyle,0.8631758689880371
https://scontent.cdninstagram.com/t51.2885-15/e35/13117793_1577313562562089_1035884957_n.jpg,people,0.9858530759811401
,woman,0.9816701412200928
,portrait,0.9808129668235779
,wear,0.9703916311264038
,outdoors,0.9392601251602173
,adult,0.9368548393249512
,one,0.9310146570205688
,daylight,0.9253013134002686
,facial expression,0.9201295375823975
,veil,0.9107222557067871
,man,0.9098740816116333
,adolescent,0.894317626953125
,eyeglasses,0.8852615356445312
,lid,0.8477494716644287
,building,0.8470705151557922
,enjoyment,0.8369731903076172
,military,0.814232349395752
,employee,0.813500165939331
,looking,0.8059778809547424
,festival,0.800994873046875
https://scontent.cdninstagram.com/t51.2885-15/e35/13260945_231640757215921_645608124_n.jpg,woman,0.9914531707763672
,group,0.9723679423332214
,man,0.9572020769119263
,education,0.9494524002075195
,people,0.9493205547332764
,school,0.9412367343902588
,child,0.9297493696212769
,adult,0.9210474491119385
,indoors,0.915885865688324
,university,0.8854725360870361
,festival,0.8826509714126587
,exhibition,0.8638170957565308
,wear,0.8617352247238159
,many,0.8596369028091431
,adolescent,0.850033164024353
,enjoyment,0.8467090129852295
,family,0.821521520614624
,girl,0.8095521926879883
,class,0.8042822480201721
,music,0.7977738976478577
https://scontent.cdninstagram.com/t51.2885-15/s750x750/sh0.08/e35/13381410_1110653005668234_1208575601_n.jpg,portrait,0.9946303367614746
,people,0.9931092262268066
,man,0.9891961812973022
,adult,0.9865753650665283
,woman,0.9851992130279541
,group,0.9845890998840332
,happiness,0.9834351539611816
,two,0.979440450668335
,facial expression,0.9700003862380981
,togetherness,0.9654012322425842
,three,0.9539823532104492
,daylight,0.933380126953125
,girl,0.9160599708557129
,wear,0.9158290028572083
,lifestyle,0.9115320444107056
,friendship,0.9081576466560364
,eyewear,0.8883806467056274
,love,0.880622148513794
,couple,0.8764084577560425
,fun,0.8717862367630005
https://scontent.cdninstagram.com/t51.2885-15/e35/11372022_217756568578154_2116854609_n.jpg,water,0.989324688911438
,leisure,0.9884694218635559
,lifestyle,0.9824045896530151
,woman,0.9768351316452026
,recreation,0.9727261066436768
,sea,0.9679533839225769
,adult,0.9673268795013428
,people,0.9630202054977417
,travel,0.9623775482177734
,summer,0.954902172088623
,outdoors,0.9519277215003967
,fun,0.937314510345459
,girl,0.9355466961860657
,ocean,0.9348666667938232
,beach,0.9315413236618042
,one,0.9253238439559937
,relaxation,0.9108266234397888
,young,0.909116804599762
,vacation,0.9070918560028076
,enjoyment,0.9018541574478149
