url,class,score
https://scontent.cdninstagram.com/t51.2885-15/e35/13256590_711427088998113_1316383074_n.jpg,food,0.9946092963218689
,hot,0.9889440536499023
,no person,0.986902117729187
,bowl,0.9847135543823242
,traditional,0.9762300848960876
,dish,0.9680392742156982
,delicious,0.9609295129776001
,meal,0.955906867980957
,cooking,0.9431346654891968
,dinner,0.9427614212036133
,vegetable,0.9402823448181152
,grow,0.9375503063201904
,chili,0.9373895525932312
,lunch,0.9313467741012573
,plate,0.9310332536697388
,meat,0.9206173419952393
,sauce,0.9202906489372253
,cuisine,0.9184749722480774
,table,0.9135288596153259
,restaurant,0.8812692165374756
https://scontent.cdninstagram.com/t51.2885-15/e35/13380953_1641660662826344_1168757582_n.jpg,no person,0.9960888624191284
,food,0.99550861120224
,grow,0.9699126482009888
,drink,0.9682033061981201
,still life,0.9602686166763306
,dairy product,0.9573889374732971
,plate,0.9338685274124146
,wine,0.9327608346939087
,table,0.9192065000534058
,glass,0.9150437116622925
,fruit,0.9017031788825989
,party,0.8908027410507202
,knife,0.8892643451690674
,cheese,0.8738440871238708
,restaurant,0.8716011047363281
,indoors,0.8633878231048584
,wood,0.8625020980834961
,delicious,0.8543943166732788
,traditional,0.8516618013381958
,dish,0.8446900844573975
https://scontent.cdninstagram.com/t51.2885-15/s750x750/sh0.08/e35/13249737_1618011368525540_254846396_n.jpg,people,0.9860988855361938
,indoors,0.9687322378158569
,adult,0.9646340608596802
,man,0.9538720846176147
,wear,0.9522191286087036
,window,0.9509681463241577
,one,0.9505683779716492
,woman,0.9473123550415039
,daylight,0.9075987935066223
,home,0.8962124586105347
,portrait,0.8905802369117737
,house,0.8725285530090332
,room,0.8702720403671265
,building,0.8682524561882019
,architecture,0.863466739654541
,stock,0.8625757694244385
,door,0.8508375883102417
,travel,0.8316278457641602
,family,0.8304621577262878
,business,0.8295848369598389
https://scontent.cdninstagram.com/t51.2885-15/e35/13167451_1739753619643884_1081489204_n.jpg,adult,0.9907046556472778
,people,0.987846851348877
,woman,0.9764187335968018
,indoors,0.9734534621238708
,man,0.9718705415725708
,group,0.9643635749816895
,facial expression,0.9578784704208374
,room,0.9511817693710327
,happiness,0.9404767751693726
,enjoyment,0.9327188730239868
,food,0.9290713667869568
,commerce,0.9232940673828125
,two,0.9163601398468018
,portrait,0.9104964137077332
,togetherness,0.8921846151351929
,wear,0.8912187218666077
,cooking,0.8820106983184814
,child,0.8811653852462769
,daylight,0.8771415948867798
,meal,0.8768985271453857
https://scontent.cdninstagram.com/t51.2885-15/e35/13525317_301900810151296_940970865_n.jpg,building,0.9527274370193481
,city,0.9452332258224487
,no person,0.9365316033363342
,architecture,0.9346151351928711
,business,0.9302936792373657
,house,0.9238764047622681
,outdoors,0.9093236923217773
,travel,0.9087666869163513
,old,0.9029608964920044
,street,0.9010315537452698
,urban,0.8995766639709473
,family,0.8844270706176758
,people,0.8780003190040588
,window,0.8726577758789062
,modern,0.8659799098968506
,calamity,0.8253816366195679
,design,0.8204622864723206
,vehicle,0.8084571361541748
,battle,0.7939316034317017
,wall,0.7888129949569702
https://scontent.cdninstagram.com/t51.2885-15/e35/13269561_637190353100649_350921996_n.jpg,group,0.9665162563323975
,man,0.9628530144691467
,people,0.9595328569412231
,woman,0.9523406028747559
,competition,0.9476187229156494
,adult,0.9420156478881836
,group,0.9249376058578491
,vehicle,0.9240480661392212
,wear,0.9106188416481018
,recreation,0.904703676700592
,enjoyment,0.9011435508728027
,race,0.9009974002838135
,many,0.8886162638664246
,facial expression,0.8820237517356873
,fun,0.872244119644165
,auto racing,0.8655773997306824
,rally,0.8523454666137695
,child,0.850236177444458
,military,0.8458919525146484
,election,0.8277748823165894
https://scontent.cdninstagram.com/t51.2885-15/e35/13256616_1603597596621027_46647735_n.jpg,street,0.9895013570785522
,people,0.9751942157745361
,city,0.9678188562393188
,urban,0.9323743581771851
,road,0.9276235103607178
,building,0.9268752932548523
,adult,0.9172480702400208
,window,0.9106473326683044
,woman,0.9050254225730896
,portrait,0.8881509900093079
,daylight,0.8811581134796143
,architecture,0.8775590658187866
,one,0.8665369749069214
,outdoors,0.8576322793960571
,travel,0.8565571308135986
,offense,0.8456286191940308
,house,0.8112573623657227
,light,0.8060170412063599
,town,0.7975938320159912
,pavement,0.7965576648712158
https://scontent.cdninstagram.com/t51.2885-15/e35/13298269_1700313760237685_969046327_n.jpg,abstract,0.9900440573692322
,bright,0.9817585349082947
,design,0.9790784120559692
,light,0.9772544503211975
,no person,0.9670047760009766
,shining,0.9627907276153564
,desktop,0.9614682793617249
,pattern,0.9599616527557373
,graphic,0.9595943093299866
,illustration,0.9587316513061523
,art,0.9571219682693481
,dark,0.9569028615951538
,Christmas,0.9496829509735107
,glisten,0.9495099782943726
,graphic design,0.9492185115814209
,shape,0.9470995664596558
,connection,0.9466156959533691
,science,0.9447103142738342
,illuminated,0.9439438581466675
,futuristic,0.923736572265625
https://scontent.cdninstagram.com/t51.2885-15/e35/13328976_1084565274926309_609319516_n.jpg,people,0.9801620244979858
,woman,0.9592777490615845
,rally,0.9584829807281494
,business,0.9558815956115723
,money,0.9547916650772095
,finance,0.9464961290359497
,healthcare,0.9349839091300964
,election,0.934380292892456
,offense,0.9279283285140991
,adult,0.9163408875465393
,police,0.8853530287742615
,competition,0.8826135396957397
,battle,0.8778944611549377
,commerce,0.8766494989395142
,industry,0.8666497468948364
,indoors,0.864726185798645
,building,0.857501745223999
,administration,0.8546602129936218
,action,0.8505737781524658
,calamity,0.8472545146942139
https://scontent.cdninstagram.com/t51.2885-15/e35/13249860_617637105061096_1407917408_n.jpg,woman,0.9780046939849854
,adult,0.9713422060012817
,people,0.9684027433395386
,education,0.931961178779602
,man,0.9240228533744812
,indoors,0.9225683212280273
,school,0.918552041053772
,shopping,0.9031656980514526
,uniform,0.8720755577087402
,stock,0.8645177483558655
,healthcare,0.8199018836021423
,business,0.814927339553833
,child,0.8000068664550781
,industry,0.788854718208313
,horizontal,0.7828073501586914
,commerce,0.7703889608383179
,wear,0.7678651809692383
,city,0.7524462938308716
,shop,0.7408331036567688
,elementary school,0.7241015434265137
https://scontent.cdninstagram.com/t51.2885-15/e35/13257076_234008210306913_123485889_n.jpg,travel,0.9889427423477173
,people,0.9841702580451965
,evening,0.9800286293029785
,city,0.9763643741607666
,outdoors,0.9747596383094788
,architecture,0.9701646566390991
,adult,0.9653617143630981
,dusk,0.9623850584030151
,building,0.9516743421554565
,light,0.949629545211792
,street,0.9438425302505493
,road,0.9408089518547058
,transportation system,0.9390150904655457
,vehicle,0.935433030128479
,skyscraper,0.9153213500976562
,one,0.9146925210952759
,water,0.913469135761261
,daylight,0.9060255885124207
,sunset,0.9025243520736694
,illuminated,0.9001184701919556
https://scontent.cdninstagram.com/t51.2885-15/e35/13167417_226396681075493_1681874063_n.jpg,mountain,0.9826074838638306
,travel,0.9759342670440674
,outdoors,0.9753037691116333
,landscape,0.974612832069397
,rock,0.9685077667236328
,people,0.9674481749534607
,sky,0.9541558027267456
,adult,0.9486995935440063
,daylight,0.9462772011756897
,one,0.9439184665679932
,nature,0.9389934539794922
,hike,0.9368149638175964
,adventure,0.9203104376792908
,recreation,0.9133182764053345
,climb,0.9048291444778442
,valley,0.8972944021224976
,scenic,0.8945684432983398
,man,0.8783920407295227
,tree,0.8542689085006714
,hill,0.8305509090423584
https://scontent.cdninstagram.com/t51.2885-15/e35/13388651_183386602064091_1369792172_n.jpg,shopping,0.9891551733016968
,people,0.9878377914428711
,many,0.9872758388519287
,crowd,0.9844727516174316
,tourist,0.9834280610084534
,group,0.9767924547195435
,city,0.9757400751113892
,stock,0.9628137946128845
,commerce,0.9598666429519653
,tourism,0.9581156969070435
,exhibition,0.9482565522193909
,street,0.9385042190551758
,market,0.9163439869880676
,festival,0.9154320955276489
,shop,0.9019042253494263
,travel,0.9004777669906616
,public,0.8895071148872375
,vehicle,0.8797332048416138
,restaurant,0.8614192008972168
,carnival,0.852842390537262
https://scontent.cdninstagram.com/t51.2885-15/e35/13285302_187446798322084_87430039_n.jpg,travel,0.9919358491897583
,city,0.9723074436187744
,building,0.9679744243621826
,transportation system,0.9657284021377563
,evening,0.963638961315155
,architecture,0.9537374377250671
,urban,0.9498958587646484
,bridge,0.9432713985443115
,dusk,0.9420250654220581
,business,0.9416847825050354
,no person,0.9212282299995422
,water,0.9204937815666199
,light,0.9172403812408447
,modern,0.9126716256141663
,street,0.9036117792129517
,sky,0.9018541574478149
,car,0.8940826058387756
,downtown,0.8928229808807373
,illuminated,0.8913217186927795
,reflection,0.8836227059364319
https://scontent.cdninstagram.com/t51.2885-15/e35/13277661_226861494362180_711882868_n.jpg,woman,0.9918066263198853
,indoors,0.9785685539245605
,people,0.9559991359710693
,furniture,0.9332152605056763
,sit,0.915076494216919
,coffee,0.9130358695983887
,adult,0.8991549015045166
,room,0.8989186882972717
,chair,0.8894886374473572
,business,0.8872612118721008
,education,0.8819384574890137
,adolescent,0.8567080497741699
,table,0.8555500507354736
,classroom,0.8144382238388062
,seat,0.8095296025276184
,sitting,0.8066693544387817
,portrait,0.8025277853012085
,looking,0.7985005378723145
,fashion,0.7879481911659241
,enjoyment,0.7863031625747681
https://scontent.cdninstagram.com/t51.2885-15/e35/13260889_489503944572551_678886676_n.jpg,woman,0.9828364253044128
,adult,0.9791756272315979
,people,0.9759838581085205
,girl,0.9739363193511963
,indoors,0.9721249341964722
,portrait,0.9660807847976685
,room,0.9623540639877319
,one,0.9388694763183594
,family,0.931816816329956
,wear,0.8811044692993164
,facial expression,0.8662209510803223
,lifestyle,0.8590987324714661
,model,0.85242760181427
,beautiful,0.850206732749939
,happiness,0.847939670085907
,brunette,0.8211028575897217
,furniture,0.8184694051742554
,light,0.8124232292175293
,fashion,0.7993872761726379
,leisure,0.7872329950332642
https://scontent.cdninstagram.com/t51.2885-15/e15/13261062_188271011567423_1166850490_n.jpg,piano,0.9999231696128845
,music,0.9980688095092773
,instrument,0.9966466426849365
,pianist,0.9958193302154541
,keyboard,0.9933398962020874
,synthesizer,0.9930340647697449
,ivory,0.9859977960586548
,musician,0.9849437475204468
,sound,0.9798415303230286
,ebony,0.9786009192466736
,jazz,0.9782213568687439
,song,0.9757606983184814
,key,0.9719769954681396
,people,0.9623608589172363
,chord,0.9567122459411621
,indoors,0.949059247970581
,harmony,0.9436184167861938
,adult,0.9367936253547668
,acoustic,0.9351727366447449
,woman,0.9309865236282349
https://scontent.cdninstagram.com/t51.2885-15/e35/13113894_1766891343543438_541684391_n.jpg,mountain,0.9805730581283569
,landscape,0.98042893409729
,rock,0.9797182083129883
,no person,0.979161262512207
,travel,0.973621129989624
,sky,0.9726969003677368
,outdoors,0.9571771621704102
,nature,0.9562380313873291
,daylight,0.9012550115585327
,hill,0.8762300610542297
,scenic,0.8721400499343872
,tree,0.8673592805862427
,snow,0.863200306892395
,stone,0.8589859008789062
,summer,0.8563259840011597
,granite,0.846001148223877
,high,0.8140450716018677
,hike,0.806313157081604
,tourism,0.7972570657730103
,valley,0.7900821566581726
https://scontent.cdninstagram.com/t51.2885-15/e35/13116791_134001063671028_1334235284_n.jpg,tree,0.9955106973648071
,leaf,0.9897433519363403
,nature,0.9829078912734985
,no person,0.9815818071365356
,fall,0.978386402130127
,park,0.9729628562927246
,season,0.9727357625961304
,landscape,0.9707657098770142
,wood,0.9669259786605835
,branch,0.9552768468856812
,outdoors,0.9540121555328369
,bright,0.948261022567749
,maple,0.9361740350723267
,environment,0.9294564723968506
,color,0.9156533479690552
,scene,0.915540874004364
,fair weather,0.9065134525299072
,flora,0.8991001844406128
,scenic,0.8849862217903137
,daylight,0.8834648132324219
https://scontent.cdninstagram.com/t51.2885-15/e35/13266791_875737642572350_930989827_n.jpg,people,0.9845974445343018
,adult,0.972638726234436
,religion,0.9619678258895874
,one,0.9494688510894775
,daylight,0.942658543586731
,house,0.9396561980247498
,home,0.9375273585319519
,wood,0.9278190732002258
,building,0.9268708229064941
,architecture,0.9227470755577087
,woman,0.9114156365394592
,wear,0.90886390209198
,travel,0.9012617468833923
,furniture,0.8971791863441467
,museum,0.8857660889625549
,man,0.8561947345733643
,room,0.8543927073478699
,seat,0.8531774878501892
,temple,0.8379240036010742
,outdoors,0.8374447822570801
https://scontent.cdninstagram.com/t51.2885-15/e15/13249756_1709714255968512_499369021_n.jpg,woman,0.9950329661369324
,wear,0.9947937726974487
,portrait,0.9880931377410889
,adult,0.9880666732788086
,people,0.9862352609634399
,one,0.9820812344551086
,fashion,0.9820733666419983
,facial expression,0.9763834476470947
,indoors,0.97584068775177
,restaurant,0.9726063013076782
,stock,0.959348201751709
,bar,0.9474073648452759
,counter,0.9400956630706787
,drink,0.9386671185493469
,recreation,0.9218809604644775
,coffee,0.9174160957336426
,brunette,0.9133332967758179
,furniture,0.8997387290000916
,fashionable,0.8784258365631104
,telephone,0.8777940273284912
https://scontent.cdninstagram.com/t51.2885-15/e35/13402528_1049102191850966_1750453600_n.jpg,drink,0.9813277721405029
,no person,0.966505765914917
,summer,0.9627670645713806
,party,0.9568367004394531
,tropical,0.9505090713500977
,glass,0.9460774064064026
,leaf,0.937751293182373
,track,0.9229426383972168
,relaxation,0.9124577641487122
,nature,0.8976966142654419
,bar,0.8836545348167419
,wood,0.881495475769043
,refreshment,0.8796700835227966
,alcohol,0.8768966794013977
,cocktail,0.8735710978507996
,food,0.8697655200958252
,cold,0.8600063323974609
,wet,0.824421763420105
,outdoors,0.8240196704864502
,juice,0.8209750652313232
https://scontent.cdninstagram.com/t51.2885-15/e35/13249856_1129781440419962_1667964880_n.jpg,people,0.9978578090667725
,group,0.9971887469291687
,portrait,0.9913818836212158
,adult,0.9880633354187012
,four,0.979658305644989
,group,0.9782254695892334
,facial expression,0.9739837646484375
,woman,0.9596295356750488
,musician,0.9592125415802002
,music,0.9555336236953735
,three,0.9524590969085693
,wear,0.9464842081069946
,man,0.9406628012657166
,five,0.9401530027389526
,singer,0.9336333274841309
,several,0.9223975539207458
,offspring,0.8780670166015625
,child,0.8733987808227539
,sibling,0.8688808679580688
,actress,0.8663190603256226
https://scontent.cdninstagram.com/t51.2885-15/e35/13267424_601549126687514_2105792110_n.jpg,beach,0.9964797496795654
,sea,0.9945070743560791
,water,0.9874973893165588
,sand,0.9852334260940552
,ocean,0.9845280647277832
,seashore,0.9836713075637817
,travel,0.9755985140800476
,no person,0.9592171907424927
,sky,0.9583951234817505
,nature,0.9517560005187988
,summer,0.9473395943641663
,sun,0.937958836555481
,landscape,0.9369674921035767
,outdoors,0.9354159235954285
,vacation,0.9317477345466614
,sunset,0.8952510356903076
,seaside,0.8576164245605469
,fair weather,0.8438010215759277
,shore,0.8399449586868286
,people,0.8324096202850342
https://scontent.cdninstagram.com/t51.2885-15/e35/13249762_190231771371973_143525495_n.jpg,people,0.984883725643158
,man,0.9810899496078491
,portrait,0.9807066917419434
,adult,0.9761170148849487
,boy,0.9448263645172119
,facial expression,0.9361442923545837
,woman,0.9171130657196045
,child,0.9158549308776855
,affection,0.8969256281852722
,group,0.8900256156921387
,wear,0.8732048273086548
,love,0.8706793785095215
,interaction,0.8662391304969788
,three,0.8589988946914673
,two,0.8550328016281128
,togetherness,0.8431042432785034
,religion,0.7999013662338257
,art,0.7861447334289551
,leader,0.7807682752609253
,friendship,0.7650153040885925
https://scontent.cdninstagram.com/t51.2885-15/e35/13385748_279708509050586_1816993019_n.jpg,people,0.9883323907852173
,travel,0.947013258934021
,light,0.9454094767570496
,group,0.9313491582870483
,city,0.9313085079193115
,adult,0.9263529777526855
,landscape,0.9182480573654175
,vehicle,0.9165744781494141
,hotel,0.9037929177284241
,building,0.888209342956543
,music,0.8816617727279663
,tourist,0.8768948912620544
,woman,0.8756120204925537
,street,0.8739627599716187
,recreation,0.8719968795776367
,seat,0.867057204246521
,chair,0.8618295192718506
,furniture,0.860063374042511
,urban,0.8414386510848999
,outdoors,0.8371725082397461
https://scontent.cdninstagram.com/t51.2885-15/e35/13398691_1621792881470436_29968621_n.jpg,people,0.9866098165512085
,adult,0.9779258966445923
,portrait,0.967553973197937
,man,0.9637917280197144
,woman,0.9618566632270813
,group,0.9587795734405518
,stock,0.9558026790618896
,facial expression,0.9431262016296387
,happiness,0.9392698407173157
,commerce,0.9391815662384033
,two,0.9312700629234314
,restaurant,0.928492546081543
,shopping,0.9235676527023315
,daylight,0.9106365442276001
,wear,0.906804084777832
,interaction,0.9040929079055786
,business,0.8946431875228882
,city,0.8916516304016113
,girl,0.8878321051597595
,indoors,0.8842175006866455
https://scontent.cdninstagram.com/t51.2885-15/e35/13260806_1717012995248893_743987022_n.jpg,people,0.9896663427352905
,family,0.973900318145752
,adult,0.9733347296714783
,candle,0.9718312621116638
,indoors,0.9659134149551392
,woman,0.9626673460006714
,room,0.9614430665969849
,house,0.9256541728973389
,portrait,0.9103270769119263
,man,0.9093545079231262
,girl,0.8987162113189697
,furniture,0.8972433805465698
,two,0.8857333660125732
,table,0.8796825408935547
,cooking,0.847327709197998
,hotel,0.8448317050933838
,food,0.8390698432922363
,meal,0.8327909708023071
,drink,0.8288384675979614
,happiness,0.816352128982544
https://scontent.cdninstagram.com/t51.2885-15/e35/13269354_989386964492597_792069099_n.jpg,bar,0.9846031665802002
,nightlife,0.9719384908676147
,light,0.9689892530441284
,candle,0.9590720534324646
,evening,0.9548876881599426
,no person,0.9531850218772888
,reflection,0.9509820938110352
,drink,0.9480043649673462
,restaurant,0.9432535171508789
,party,0.9375503063201904
,illuminated,0.9341844916343689
,hotel,0.9201847314834595
,celebration,0.9167970418930054
,pub,0.9148327112197876
,city,0.9116589426994324
,travel,0.9110289812088013
,indoors,0.9090896844863892
,lamp,0.8978355526924133
,Christmas,0.8857060670852661
,wine,0.8825719356536865
https://scontent.cdninstagram.com/t51.2885-15/e35/13266776_233344730367368_634670031_n.jpg,people,0.9945189952850342
,woman,0.9896221160888672
,portrait,0.9877488613128662
,adult,0.9850475788116455
,girl,0.9728212952613831
,wear,0.9685719013214111
,indoors,0.9660924673080444
,two,0.9621773958206177
,man,0.9576882123947144
,vehicle,0.9566289186477661
,daylight,0.9557623863220215
,facial expression,0.9444628953933716
,child,0.9201064705848694
,happiness,0.9116307497024536
,battle,0.9072809219360352
,car,0.9031479358673096
,brunette,0.8892260789871216
,travel,0.8627762794494629
,window,0.8602771759033203
,seat,0.8599781394004822
https://scontent.cdninstagram.com/t51.2885-15/e35/13167474_1776442339256280_1450312495_n.jpg,luggage,0.994732141494751
,travel,0.9899134635925293
,bag,0.9648452997207642
,people,0.9608542919158936
,woman,0.9457352757453918
,travel,0.9452721476554871
,airplane,0.9413624405860901
,travel,0.9402943849563599
,business,0.930054247379303
,airport,0.9283161759376526
,tourist,0.927688717842102
,case,0.9247381687164307
,briefcase,0.9241364002227783
,tourism,0.9231060743331909
,fashion,0.9230722784996033
,girl,0.9158798456192017
,transportation system,0.9074196815490723
,car,0.9012534618377686
,vehicle,0.9005339741706848
,recreation,0.8878259062767029
https://scontent.cdninstagram.com/t51.2885-15/e35/13248899_1091084884283973_1467339456_n.jpg,city,0.9858812093734741
,water,0.9837507009506226
,travel,0.9829210042953491
,no person,0.9820709824562073
,river,0.9710211753845215
,architecture,0.9642138481140137
,building,0.9610533714294434
,evening,0.9483132362365723
,sky,0.9372859001159668
,light,0.9352927803993225
,urban,0.9334912896156311
,reflection,0.9328892827033997
,business,0.9286137819290161
,cityscape,0.9251266121864319
,dusk,0.9238405823707581
,bridge,0.9233434200286865
,outdoors,0.9203664064407349
,waterfront,0.9027417898178101
,transportation system,0.90035080909729
,harbor,0.8980898857116699
https://scontent.cdninstagram.com/t51.2885-15/e35/13248740_699732156832251_597443184_n.jpg,woman,0.9921752214431763
,people,0.9881528615951538
,portrait,0.9838690757751465
,indoors,0.9823698997497559
,facial expression,0.9807825684547424
,adult,0.9795560240745544
,girl,0.9596830606460571
,brunette,0.9575878381729126
,wear,0.9529091119766235
,two,0.9496021270751953
,togetherness,0.9419100284576416
,child,0.9408222436904907
,happiness,0.940102219581604
,seat,0.9373977780342102
,daylight,0.92838454246521
,adolescent,0.9084627032279968
,sitting,0.907724142074585
,lifestyle,0.8952153921127319
,leisure,0.8897857666015625
,friendship,0.8817337155342102
https://scontent.cdninstagram.com/t51.2885-15/e35/13109096_473284406202317_135681317_n.jpg,food,0.9952433109283447
,cuisine,0.9755817651748657
,hot,0.9717235565185547
,vegetable,0.9707100987434387
,dinner,0.9704197645187378
,bowl,0.9702174067497253
,meal,0.9678216576576233
,dish,0.9633070230484009
,lunch,0.9601120948791504
,cooking,0.9538753032684326
,no person,0.9500638246536255
,delicious,0.9498702883720398
,plate,0.9477249383926392
,healthy,0.94547438621521
,epicure,0.9433765411376953
,soup,0.938448429107666
,traditional,0.9320944547653198
,pepper,0.9313791990280151
,meat,0.9307315349578857
,restaurant,0.9253074526786804
https://scontent.cdninstagram.com/t51.2885-15/e35/13102391_1187785181232826_997292091_n.jpg,people,0.9868239164352417
,woman,0.9680405855178833
,outdoors,0.967841386795044
,traditional,0.9648462533950806
,religion,0.9594986438751221
,kimono,0.9560023546218872
,adult,0.9419364333152771
,one,0.9254051446914673
,festival,0.9245593547821045
,culture,0.9209195375442505
,travel,0.9198622703552246
,park,0.9171109199523926
,temple,0.9167818427085876
,wear,0.9149713516235352
,portrait,0.9102877378463745
,geisha,0.9011514186859131
,shrine,0.8937807083129883
,city,0.886101484298706
,tourist,0.8771188259124756
,street,0.8744584321975708
https://scontent.cdninstagram.com/t51.2885-15/e35/13269404_1598673357112152_1195212118_n.jpg,exhibition,0.9959759712219238
,people,0.9857422709465027
,wear,0.9813314080238342
,portrait,0.9689874649047852
,festival,0.9582947492599487
,adult,0.9479320645332336
,woman,0.94758141040802
,indoors,0.9305448532104492
,girl,0.9232581853866577
,one,0.9212482571601868
,museum,0.9065841436386108
,technology,0.9058884978294373
,model,0.899771511554718
,stock,0.8923373222351074
,fashion,0.8892389535903931
,facial expression,0.8865599632263184
,outfit,0.842860221862793
,painting,0.8414312601089478
,child,0.8360311985015869
,mask,0.8289685249328613
https://scontent.cdninstagram.com/t51.2885-15/e35/13183526_619226681560912_217260320_n.jpg,outdoors,0.9695718884468079
,travel,0.9544779658317566
,nature,0.9475619196891785
,summer,0.9413595199584961
,woman,0.9266214966773987
,leisure,0.9190100431442261
,child,0.9179967641830444
,road,0.9127017259597778
,guidance,0.9111486673355103
,people,0.8848369717597961
,track,0.8842413425445557
,togetherness,0.8817287683486938
,park,0.8734766244888306
,wood,0.8501033782958984
,fun,0.8409572839736938
,landscape,0.836911678314209
,girl,0.8321521282196045
,relaxation,0.8297767639160156
,family,0.8264306783676147
,vacation,0.8239930272102356
https://scontent.cdninstagram.com/t51.2885-15/e35/13398772_1019386988156556_1249972600_n.jpg,drink,0.9930599927902222
,juice,0.9762731194496155
,cocktail,0.9761301279067993
,glass,0.9621212482452393
,fruit,0.9602642059326172
,woman,0.9531002044677734
,food,0.9403027296066284
,people,0.9389777183532715
,ice,0.9380283355712891
,summer,0.9377400875091553
,adult,0.9300442337989807
,water,0.8908176422119141
,enjoyment,0.8907462358474731
,cold,0.8862419128417969
,indoors,0.885722279548645
,refreshment,0.8762032985687256
,bar,0.8675594329833984
,outdoors,0.8620206117630005
,party,0.8611528277397156
,relaxation,0.8611103296279907
https://scontent.cdninstagram.com/t51.2885-15/e35/13285331_969488929834717_1438833280_n.jpg,people,0.990715742111206
,child,0.9688059687614441
,street,0.9669764041900635
,woman,0.945548415184021
,festival,0.9175503849983215
,adult,0.905166506767273
,group,0.901076078414917
,family,0.8962835073471069
,man,0.887171745300293
,education,0.8865399360656738
,rally,0.8863654136657715
,road,0.8673672676086426
,rally,0.8620418906211853
,city,0.853075385093689
,battle,0.8312151432037354
,celebration,0.8161703944206238
,offense,0.7853429913520813
,strange,0.7745876312255859
,portrait,0.7737246751785278
,religion,0.7719080448150635
https://scontent.cdninstagram.com/t51.2885-15/e35/13391326_867627260048161_1514463677_n.jpg,food,0.9947658181190491
,no person,0.9675369262695312
,vegetable,0.9592143893241882
,meal,0.9509003758430481
,dinner,0.9505130052566528
,cooking,0.9475318193435669
,plate,0.9409705400466919
,wooden,0.9382717609405518
,delicious,0.9349556565284729
,cuisine,0.9321001768112183
,healthy,0.9297735691070557
,knife,0.9279136657714844
,dish,0.9262689352035522
,traditional,0.9262199401855469
,lunch,0.92569899559021
,table,0.9253733158111572
,hot,0.915473222732544
,wood,0.9148410558700562
,garlic,0.8898509740829468
,health,0.8895643353462219
https://scontent.cdninstagram.com/t51.2885-15/s640x640/e15/13413421_148825112199372_2006535221_n.jpg,people,0.9891924858093262
,adult,0.9865520000457764
,table,0.9677454829216003
,family,0.961968719959259
,woman,0.949711799621582
,portrait,0.941665768623352
,indoors,0.9309829473495483
,food,0.9162905216217041
,drink,0.9146660566329956
,furniture,0.9032044410705566
,preparation,0.8939995765686035
,restaurant,0.8818287253379822
,room,0.8813208341598511
,coffee,0.8667511940002441
,sit,0.8636870384216309
,one,0.8538777828216553
,house,0.8516985774040222
,inside,0.8392324447631836
,meal,0.8267577886581421
,cooking,0.8179589509963989
https://scontent.cdninstagram.com/t51.2885-15/e35/13413208_273551052997509_111482507_n.jpg,food,0.99250328540802
,no person,0.9895244836807251
,dinner,0.9790525436401367
,cooking,0.9748743176460266
,lunch,0.9726378917694092
,pan,0.9718683362007141
,frying pan,0.9619740843772888
,vegetable,0.9566099643707275
,delicious,0.9534225463867188
,dish,0.9491076469421387
,meal,0.9488365650177002
,traditional,0.9438252449035645
,soup,0.9411537051200867
,homemade,0.9292720556259155
,meat,0.9262267351150513
,bowl,0.915612518787384
,rustic,0.9144154787063599
,rice,0.8929197192192078
,cuisine,0.8808525800704956
,mouth-watering,0.8772585391998291
https://scontent.cdninstagram.com/t51.2885-15/e35/13392871_2005078413051289_285603867_n.jpg,no person,0.9886692762374878
,food,0.9830268621444702
,wine,0.9800635576248169
,table,0.9788532853126526
,dining,0.9650638699531555
,drink,0.9566161632537842
,indoors,0.9563086032867432
,restaurant,0.9324958324432373
,tableware,0.9267370104789734
,dinner,0.9200716018676758
,furniture,0.9095726013183594
,glass,0.8860324025154114
,meal,0.8571282625198364
,place setting,0.8428468704223633
,breakfast,0.8398771286010742
,lunch,0.8317127227783203
,wood,0.8305982351303101
,beer,0.8291479349136353
,cutlery,0.8257079720497131
,room,0.8237842321395874
https://scontent.cdninstagram.com/t51.2885-15/s750x750/sh0.08/e35/13397515_259591207732020_61622200_n.jpg,people,0.9854254722595215
,garden,0.9794907569885254
,flower,0.9712468981742859
,nature,0.9464648962020874
,summer,0.9436129927635193
,flora,0.9396672248840332
,stone,0.924911379814148
,one,0.9219397902488708
,outdoors,0.9139625430107117
,tree,0.9000505208969116
,adult,0.8867509365081787
,water,0.883080244064331
,leaf,0.8731698989868164
,child,0.8657360076904297
,woman,0.8626060485839844
,travel,0.8625194430351257
,environment,0.8460384011268616
,pot,0.8426432609558105
,park,0.824246346950531
,recreation,0.8111010789871216
https://scontent.cdninstagram.com/t51.2885-15/e35/13269468_618615868315435_659513516_n.jpg,people,0.9664367437362671
,music,0.945151686668396
,indoors,0.9071292877197266
,festival,0.894546627998352
,wear,0.8874265551567078
,adult,0.8847969770431519
,woman,0.8846385478973389
,performance,0.8845074772834778
,man,0.8812687993049622
,competition,0.8728174567222595
,dancing,0.8458528518676758
,entertainment,0.8423500061035156
,exhibition,0.840188205242157
,tube,0.8191462755203247
,movie,0.8094257116317749
,strange,0.8047596216201782
,fun,0.7830648422241211
,recreation,0.7817425727844238
,convention,0.7649514079093933
,portrait,0.762843906879425
https://scontent.cdninstagram.com/t51.2885-15/e35/13398530_842762229201204_1363110449_n.jpg,food,0.9917475581169128
,no person,0.9891668558120728
,nutrition,0.980174720287323
,delicious,0.9764816761016846
,ingredients,0.9736926555633545
,bowl,0.963478684425354
,cooking,0.9626866579055786
,health,0.9609670639038086
,fruit,0.9607571363449097
,breakfast,0.958341121673584
,apple,0.9532971382141113
,homemade,0.9375529289245605
,lunch,0.9359399080276489
,sweet,0.9251016974449158
,dinner,0.9231617450714111
,vegetable,0.9133241176605225
,corn,0.90712571144104
,kind,0.9024041891098022
,juice,0.899044394493103
,traditional,0.8844811916351318
https://scontent.cdninstagram.com/t51.2885-15/e35/13388763_1034925383209183_1019131590_n.jpg,vehicle,0.9984646439552307
,transportation system,0.9901719093322754
,no person,0.9858684539794922
,car,0.982268214225769
,airplane,0.9820958375930786
,aircraft,0.9802384376525879
,spacecraft,0.9736168384552002
,people,0.9671837091445923
,travel,0.9666781425476074
,music,0.9410041570663452
,one,0.9345110654830933
,production,0.9338830709457397
,industry,0.9197392463684082
,light,0.9147037267684937
,indoors,0.9118068814277649
,museum,0.9072429537773132
,group,0.906394362449646
,business,0.9044453501701355
,watercraft,0.904051661491394
,cockpit,0.8891855478286743
https://scontent.cdninstagram.com/t51.2885-15/e35/13395136_1736330789983575_1002713629_n.jpg,travel,0.9902186393737793
,tropical,0.9886050820350647
,wood,0.9871483445167542
,summer,0.985564112663269
,water,0.9782309532165527
,wooden,0.9718966484069824
,hotel,0.968055009841919
,resort,0.9671351909637451
,nature,0.9651814103126526
,house,0.9650722146034241
,vacation,0.9603882431983948
,palm,0.9590373039245605
,hut,0.9561672210693359
,tourism,0.9556577205657959
,family,0.9512566328048706
,tree,0.9507496356964111
,bungalow,0.9492901563644409
,garden,0.948358416557312
,exotic,0.9300462603569031
,no person,0.9246066808700562
https://scontent.cdninstagram.com/t51.2885-15/e35/13385889_252692915106823_1238790425_n.jpg,woman,0.9862338304519653
,people,0.9758892059326172
,group,0.9520225524902344
,facial expression,0.945320188999176
,happiness,0.9419267177581787
,adult,0.9407762289047241
,friendship,0.9365415573120117
,togetherness,0.9296795129776001
,fun,0.9171871542930603
,joy,0.905143678188324
,outdoors,0.8993854522705078
,portrait,0.8971184492111206
,enjoyment,0.8938925266265869
,laughing,0.8837984800338745
,indoors,0.8823777437210083
,adolescent,0.8808839321136475
,girl,0.8742218613624573
,man,0.8629720211029053
,young,0.8598510026931763
,child,0.8572177886962891
https://scontent.cdninstagram.com/t51.2885-15/e35/13397678_1276085749070047_610038680_n.jpg,no person,0.9730319976806641
,food,0.959334135055542
,sweet,0.9477158784866333
,cream,0.9397857189178467
,chocolate,0.9278193116188049
,delicious,0.9181205034255981
,wood,0.9089251756668091
,sugar,0.900327205657959
,strawberry,0.8888657093048096
,cake,0.8758066892623901
,wooden,0.8714191317558289
,fruit,0.8615020513534546
,milk,0.85861736536026
,refreshment,0.8478348255157471
,table,0.8476505279541016
,desktop,0.8445456027984619
,coffee,0.8440119624137878
,summer,0.8366706371307373
,decoration,0.833707332611084
,creamy,0.8329299688339233
https://scontent.cdninstagram.com/t51.2885-15/e35/13257102_733198760155350_141489158_n.jpg,architecture,0.9957243204116821
,travel,0.9917072057723999
,no person,0.9841262102127075
,building,0.9777755737304688
,city,0.9730697870254517
,old,0.9728156328201294
,sky,0.9678026437759399
,outdoors,0.9660492539405823
,traditional,0.9489905834197998
,tourism,0.9332635402679443
,religion,0.9301530122756958
,ancient,0.9188527464866638
,street,0.8977099657058716
,urban,0.8924687504768372
,church,0.8917750120162964
,town,0.8879329562187195
,culture,0.8861671090126038
,sight,0.8576483726501465
,vacation,0.8492056727409363
,house,0.8466236591339111
