url,class,score
https://scontent.cdninstagram.com/t51.2885-15/e35/11910163_895201217183455_1525214728_n.jpg,paper,0.9834737777709961
,business,0.9724881649017334
,text,0.9617326259613037
,finance,0.9505358934402466
,money,0.9497593641281128
,festival,0.9415897130966187
,indoors,0.9409131407737732
,people,0.9406648874282837
,writing,0.9354664087295532
,woman,0.9302082061767578
,music,0.9280468821525574
,calligraphy,0.9239248037338257
,wealth,0.910376787185669
,sign,0.9084161520004272
,commerce,0.9030982255935669
,document,0.9017190933227539
,ceremony,0.8974908590316772
,one,0.8893910646438599
,book,0.8876732587814331
,portrait,0.878882646560669
https://scontent.cdninstagram.com/t51.2885-15/e35/11349137_429847673889346_82906840_n.jpg,light,0.9960609078407288
,evening,0.9956316947937012
,festival,0.9899704456329346
,exhilaration,0.989232063293457
,ferris wheel,0.9865543246269226
,illuminated,0.9765115976333618
,casino,0.9703792929649353
,city,0.9628053903579712
,neon,0.9601095914840698
,blur,0.9527124166488647
,travel,0.9410224556922913
,dusk,0.929534912109375
,fun,0.9181326627731323
,building,0.9175934791564941
,party,0.9141212105751038
,music,0.9127417206764221
,nightlife,0.9105221033096313
,celebration,0.9103098511695862
,motion,0.9094139337539673
,reflection,0.8960812091827393
https://scontent.cdninstagram.com/t51.2885-15/e35/11311572_1611205472467034_2142573761_n.jpg,paper,0.9936103820800781
,business,0.9750649929046631
,no person,0.9690752625465393
,document,0.9658475518226624
,page,0.9449887275695801
,money,0.9398858547210693
,finance,0.9392774105072021
,text,0.9243063926696777
,note,0.9155209064483643
,commerce,0.9144498109817505
,wood,0.9130017757415771
,number,0.8831835985183716
,office,0.8817520141601562
,education,0.8707045316696167
,composition,0.8677319288253784
,finance,0.8491051197052002
,book,0.8457955121994019
,telephone,0.8282320499420166
,letter,0.8240987062454224
,technology,0.823871374130249
https://scontent.cdninstagram.com/t51.2885-15/e15/10986125_545545598919142_386229381_n.jpg,text,0.9842362403869629
,desktop,0.9841160774230957
,business,0.9552057385444641
,abstract,0.9498704671859741
,illustration,0.9458515644073486
,color,0.9416201114654541
,symbol,0.9369762539863586
,sign,0.9328935146331787
,image,0.930342435836792
,give voice,0.9249932169914246
,graphic,0.9239279627799988
,design,0.9160060882568359
,education,0.892103910446167
,art,0.8913232088088989
,card,0.865153431892395
,decoration,0.8644752502441406
,money,0.8385941982269287
,school,0.836768388748169
,bill,0.8286566734313965
,technology,0.8227508664131165
https://scontent.cdninstagram.com/t51.2885-15/e35/11875525_921450437927896_181318439_n.jpg,celebration,0.9716836214065552
,child,0.9662615060806274
,Easter,0.9612646102905273
,color,0.9557896256446838
,fun,0.9454889297485352
,toy,0.93923419713974
,people,0.930920422077179
,egg,0.9273461103439331
,candy,0.918516993522644
,woman,0.9152858853340149
,desktop,0.9112687706947327
,adult,0.9011728763580322
,food,0.8900749683380127
,play,0.8795082569122314
,love,0.8718781471252441
,game,0.869807779788971
,isolated,0.8695797920227051
,festival,0.86876380443573
,beautiful,0.867827296257019
,girl,0.8677240610122681
https://scontent.cdninstagram.com/t51.2885-15/e35/1742110_1576974999230924_1192945922_n.jpg,performance,0.9996808767318726
,music,0.9993864297866821
,concert,0.9983925819396973
,festival,0.9981942176818848
,stage,0.9893263578414917
,singer,0.9832940697669983
,musician,0.9820621013641357
,light,0.9693093299865723
,party,0.9680517315864563
,dancing,0.9552117586135864
,band,0.9546371698379517
,show,0.9491106271743774
,rap,0.9448689222335815
,celebration,0.9406191110610962
,pop,0.930482029914856
,people,0.9177912473678589
,audience,0.9172990322113037
,energy,0.9116765856742859
,exhilaration,0.9027495384216309
,blur,0.9004696011543274
https://scontent.cdninstagram.com/t51.2885-15/e15/11049279_419050534930898_1077932656_n.jpg,no person,0.9903653860092163
,architecture,0.9846488237380981
,grass,0.9753545522689819
,tree,0.9665771722793579
,travel,0.9643735885620117
,outdoors,0.9596645832061768
,building,0.957042396068573
,home,0.9428991675376892
,landscape,0.9403846859931946
,house,0.9322850704193115
,sky,0.9244499206542969
,castle,0.9172247648239136
,old,0.9170194268226624
,city,0.9091379046440125
,park,0.851969838142395
,ancient,0.8443219661712646
,daylight,0.8418766260147095
,golf,0.8306795954704285
,nature,0.8292361497879028
,abandoned,0.8257176280021667
https://scontent.cdninstagram.com/t51.2885-15/s480x480/e35/11910245_671735752927297_466350683_n.jpg,dog,0.9993314743041992
,mammal,0.9979865550994873
,pet,0.9977281093597412
,canine,0.997121274471283
,animal,0.9929019808769226
,cute,0.9921964406967163
,portrait,0.9921706318855286
,domestic,0.9886088371276855
,puppy,0.9884551167488098
,studio,0.968956470489502
,adorable,0.9683696627616882
,sit,0.9582275748252869
,breed,0.9571524858474731
,little,0.9561647176742554
,fur,0.9523743391036987
,one,0.9511925578117371
,purebred,0.929958701133728
,front,0.916938841342926
,puppy,0.9168070554733276
,looking,0.9136698246002197
https://scontent.cdninstagram.com/t51.2885-15/e35/11247923_592614037507980_929690594_n.jpg,map,0.9957210421562195
,geography,0.9917927980422974
,cartography,0.9787381887435913
,atlas,0.9758220314979553
,guidance,0.9734807014465332
,travel,0.9691529870033264
,location,0.9687681198120117
,ball-shaped,0.96366286277771
,topography,0.9562089443206787
,travel,0.9539785385131836
,no person,0.9442873001098633
,graph,0.9305093288421631
,paper,0.916641891002655
,money,0.9120352268218994
,business,0.910258412361145
,spherical,0.8919068574905396
,finance,0.8855562210083008
,Continent,0.8738975524902344
,guidance,0.8708693385124207
,universe,0.8656219840049744
https://scontent.cdninstagram.com/t51.2885-15/e15/11055818_1387337034918580_727114609_n.jpg,no person,0.9822621941566467
,cake,0.9802379012107849
,food,0.9779410362243652
,sugar,0.9718220233917236
,delicious,0.9615672826766968
,sweet,0.957206666469574
,pastry,0.953036904335022
,chocolate,0.9507381916046143
,breakfast,0.9291096329689026
,bakery,0.9248373508453369
,homemade,0.9239437580108643
,baking,0.8972342014312744
,cream,0.8967956304550171
,jam,0.8795698881149292
,bread,0.8740161657333374
,candy,0.8725230693817139
,cookie,0.8700778484344482
,refreshment,0.8525665998458862
,coffee,0.8501408696174622
,desktop,0.835007905960083
https://scontent.cdninstagram.com/t51.2885-15/e15/11333558_654090738026164_726973991_n.jpg,no person,0.992597222328186
,wood,0.9646592140197754
,outdoors,0.961186408996582
,tree,0.9415655732154846
,guidance,0.9410414695739746
,landscape,0.9387773275375366
,travel,0.9385532736778259
,park,0.9350307583808899
,leaf,0.9332786202430725
,nature,0.9297648072242737
,water,0.9209990501403809
,garden,0.9152382612228394
,daylight,0.9024838209152222
,bridge,0.9004156589508057
,architecture,0.8991844654083252
,road,0.8901458382606506
,environment,0.8853205442428589
,summer,0.8801053762435913
,grass,0.878730058670044
,light,0.8756253719329834
https://scontent.cdninstagram.com/t51.2885-15/e35/11821193_106770913008743_1354045166_n.jpg,food,0.989601731300354
,meal,0.9884752035140991
,dinner,0.9844987392425537
,lunch,0.9841217994689941
,meat,0.9808481931686401
,plate,0.9802941679954529
,chicken,0.979275643825531
,lettuce,0.9720214605331421
,salad,0.9683754444122314
,hot,0.9652045369148254
,restaurant,0.9650055766105652
,delicious,0.9626883268356323
,dish,0.9458229541778564
,poultry,0.9447899460792542
,refreshment,0.9403859376907349
,no person,0.9378736019134521
,fast,0.927391529083252
,tasty,0.9202272891998291
,vegetable,0.9194082021713257
,cuisine,0.9157121181488037
https://scontent.cdninstagram.com/t51.2885-15/e15/11078889_1615774265312232_121778295_n.jpg,food,0.997478723526001
,pan,0.9897888898849487
,cooking,0.9894605278968811
,meal,0.9826895594596863
,dinner,0.9777184128761292
,dish,0.9740939140319824
,hot,0.9717856645584106
,traditional,0.9697309732437134
,pot,0.9683383107185364
,restaurant,0.9657250046730042
,vegetable,0.9585445523262024
,delicious,0.953504741191864
,cuisine,0.9486459493637085
,soup,0.9439293146133423
,plate,0.9432451725006104
,meat,0.9409880638122559
,healthy,0.9407728910446167
,lunch,0.9344499111175537
,epicure,0.9337087869644165
,tasty,0.9273371696472168
https://scontent.cdninstagram.com/t51.2885-15/e15/11261220_928027273885716_1789226652_n.jpg,food,0.9965984225273132
,cooking,0.9749473333358765
,meal,0.9738566875457764
,desktop,0.9635007977485657
,no person,0.9632772207260132
,closeup,0.9611934423446655
,healthy,0.9608960151672363
,sweet,0.9562966227531433
,cake,0.9500910043716431
,delicious,0.9487950801849365
,tasty,0.948483943939209
,cuisine,0.9459606409072876
,pastry,0.9392549991607666
,nutrition,0.9333319664001465
,epicure,0.9332649111747742
,traditional,0.9273240566253662
,cheese,0.9260084629058838
,flour,0.9196112155914307
,bakery,0.9140088558197021
,dinner,0.9139885902404785
https://scontent.cdninstagram.com/t51.2885-15/e15/11085091_1578430519104868_844935802_n.jpg,ice,0.9944543838500977
,cone,0.9929144382476807
,vanilla,0.9842132329940796
,cream,0.9840043187141418
,cornet,0.9819310903549194
,sweet,0.9795376062393188
,cold,0.9780162572860718
,chocolate,0.9770268201828003
,frozen,0.9714045524597168
,sugar,0.9603794813156128
,indulgence,0.9601309895515442
,dairy product,0.9504319429397583
,delicious,0.9446073770523071
,food,0.9361377954483032
,milk,0.9287728667259216
,no person,0.9122617840766907
,candy,0.8969866037368774
,goody,0.8955878615379333
,unhealthy,0.8916440010070801
,temptation,0.8860137462615967
https://scontent.cdninstagram.com/t51.2885-15/e35/11875473_923433797715886_1676032313_n.jpg,people,0.9974942207336426
,adult,0.9882931709289551
,one,0.9877009391784668
,no person,0.981344997882843
,wood,0.973025918006897
,action,0.9612649083137512
,man,0.9612528085708618
,piano,0.9538298845291138
,art,0.9418432116508484
,woman,0.9395846128463745
,light,0.9365085363388062
,blur,0.9353927373886108
,portrait,0.9282177686691284
,wear,0.9245092868804932
,indoors,0.9229727387428284
,nude,0.922195315361023
,girl,0.9212987422943115
,still life,0.8981645107269287
,music,0.8960320353507996
,container,0.8927407264709473
https://scontent.cdninstagram.com/t51.2885-15/e35/1391213_461557800691324_1839565611_n.jpg,sculpture,0.9955263733863831
,people,0.9924370050430298
,statue,0.9893715381622314
,exhibition,0.9889749884605408
,city,0.9884335994720459
,travel,0.9822532534599304
,museum,0.9786437749862671
,tourism,0.9750231504440308
,sculpture,0.9707299470901489
,tourist,0.9675854444503784
,art,0.9650338888168335
,building,0.9561482667922974
,fountain,0.9520560503005981
,no person,0.9485071897506714
,monument,0.9474025964736938
,group,0.9305213689804077
,democracy,0.9263650178909302
,architecture,0.9253143072128296
,presentation,0.9230293035507202
,religion,0.9112563133239746
https://scontent.cdninstagram.com/t51.2885-15/e35/11348288_1602777573321358_439406703_n.jpg,bottle,0.9958670735359192
,container,0.9950340986251831
,medicine,0.9921811819076538
,healthcare,0.9903497695922852
,no person,0.9878671169281006
,liquid,0.9828395843505859
,health,0.975646436214447
,drink,0.9698895215988159
,plastic,0.9669108390808105
,illness,0.9574047923088074
,glass,0.953869640827179
,drug,0.8916088342666626
,chemistry,0.8889586329460144
,chemical,0.8829972743988037
,cure,0.8811472654342651
,medical,0.8780410885810852
,healthy,0.8779667019844055
,disease,0.8715910911560059
,cap,0.8584144115447998
,treatment,0.8479324579238892
https://scontent.cdninstagram.com/t51.2885-15/e35/11821219_861250283952308_1842417264_n.jpg,underwater,0.9972455501556396
,coral,0.9880810976028442
,invertebrate,0.9864480495452881
,water,0.9798111915588379
,sea,0.9794281721115112
,fish,0.9794145226478577
,reef,0.9756481647491455
,ocean,0.9731634855270386
,tropical,0.9667832851409912
,no person,0.9618404507637024
,scuba,0.9261928796768188
,marine,0.9237523078918457
,nature,0.9210176467895508
,travel,0.9172345399856567
,color,0.9125295281410217
,diving,0.9064069390296936
,exotic,0.8901180028915405
,science,0.8732249736785889
,biology,0.8724584579467773
,desktop,0.8634136319160461
https://scontent.cdninstagram.com/t51.2885-15/e35/11251863_867257726696839_445618089_n.jpg,water,0.9958692193031311
,city,0.9903095960617065
,travel,0.9877282381057739
,sea,0.9857074022293091
,architecture,0.9740748405456543
,building,0.963469386100769
,sky,0.9629977941513062
,harbor,0.957406222820282
,urban,0.956829309463501
,pier,0.9548062682151794
,river,0.9532686471939087
,seashore,0.9519854187965393
,transportation system,0.9463503956794739
,cityscape,0.9438904523849487
,bridge,0.9424367547035217
,watercraft,0.9383514523506165
,ocean,0.9370157718658447
,ship,0.9330683946609497
,tourism,0.9306473135948181
,boat,0.9212183952331543
https://scontent.cdninstagram.com/t51.2885-15/e35/11917982_901480226608977_513183657_n.jpg,rose,0.9985564947128296
,flower,0.9971201419830322
,wedding,0.9917323589324951
,romance,0.9892892837524414
,love,0.9831236600875854
,petal,0.9629521369934082
,no person,0.9561643600463867
,floral,0.9531582593917847
,romantic,0.9473000764846802
,bouquet,0.9396457672119141
,bride,0.937656581401825
,greeting,0.9209970235824585
,engagement,0.9158636331558228
,groom,0.9138730764389038
,decoration,0.8999335169792175
,marriage,0.8786100149154663
,people,0.8757301568984985
,flora,0.864571213722229
,one,0.8494502305984497
,bridal,0.8480508327484131
https://scontent.cdninstagram.com/t51.2885-15/e35/11357752_1611598939121899_1816696624_n.jpg,no person,0.9843385219573975
,tree,0.940447211265564
,garden,0.9307458400726318
,flower,0.9236453771591187
,flora,0.9099923372268677
,outdoors,0.9037903547286987
,festival,0.8876543045043945
,color,0.8811520934104919
,park,0.8799665570259094
,decoration,0.8676890134811401
,leaf,0.8599636554718018
,nature,0.8522107601165771
,botanical,0.8432539701461792
,cactus,0.8421958684921265
,light,0.8338953852653503
,people,0.7862856388092041
,greenhouse,0.7851531505584717
,Christmas,0.781946063041687
,bright,0.7645056247711182
,celebration,0.7360978722572327
https://scontent.cdninstagram.com/t51.2885-15/e35/11875354_1028177060568575_373784373_n.jpg,people,0.9863115549087524
,school,0.9826197624206543
,group,0.9713728427886963
,city,0.9709833264350891
,child,0.9687204957008362
,education,0.9650636911392212
,street,0.9617350101470947
,offense,0.9512104988098145
,battle,0.9307634830474854
,festival,0.9271299242973328
,woman,0.9255390167236328
,wear,0.9093674421310425
,police,0.9082082509994507
,road,0.8918323516845703
,man,0.8876664042472839
,competition,0.8870055675506592
,race,0.8811013698577881
,rally,0.8781627416610718
,luggage,0.8648563623428345
,adult,0.8637862205505371
https://scontent.cdninstagram.com/t51.2885-15/e35/11821091_100393740314257_381322316_n.jpg,city,0.9982587099075317
,downtown,0.9965043067932129
,skyscraper,0.9957591891288757
,cityscape,0.994425892829895
,architecture,0.9932727813720703
,skyline,0.9918683171272278
,light,0.989809513092041
,building,0.9865889549255371
,evening,0.9817253947257996
,urban,0.9796056747436523
,dusk,0.9753187894821167
,bridge,0.9737017154693604
,travel,0.9722901582717896
,reflection,0.9688988924026489
,river,0.968323826789856
,tower,0.9676262140274048
,street,0.9659982919692993
,business,0.9564182758331299
,water,0.9443261623382568
,no person,0.9434863924980164
https://scontent.cdninstagram.com/t51.2885-15/e35/13398743_568484279991074_62609905_n.jpg,food,0.9953694343566895
,no person,0.9924978017807007
,rice,0.9878906011581421
,bowl,0.9797009229660034
,cooking,0.9751625657081604
,traditional,0.957909345626831
,spoon,0.9442672729492188
,meal,0.9432286620140076
,lunch,0.9417281150817871
,dinner,0.9351930022239685
,soup,0.9344468116760254
,hot,0.9245826005935669
,delicious,0.9194765090942383
,tableware,0.9103245139122009
,dish,0.906952977180481
,vegetable,0.9025765657424927
,grow,0.9020055532455444
,health,0.886687159538269
,homemade,0.8822156190872192
,wood,0.8816361427307129
https://scontent.cdninstagram.com/t51.2885-15/e15/11311359_966513500045867_336552254_n.jpg,food,0.9844998717308044
,desktop,0.971637487411499
,sweet,0.9567561745643616
,drink,0.9444210529327393
,coffee,0.9405254125595093
,closeup,0.9393981695175171
,luxury,0.9361263513565063
,traditional,0.9198514223098755
,no person,0.917845606803894
,celebration,0.9158496856689453
,delicious,0.9155341982841492
,cake,0.9144880771636963
,chocolate,0.9125919342041016
,cup,0.9107290506362915
,decoration,0.9099634289741516
,cream,0.9071763753890991
,sugar,0.9038810729980469
,restaurant,0.9011501669883728
,epicure,0.8984649181365967
,refreshment,0.8931331634521484
https://scontent.cdninstagram.com/t51.2885-15/e35/11359094_1121172111229866_428992040_n.jpg,travel,0.992163896560669
,sculpture,0.9903483390808105
,no person,0.9887058734893799
,statue,0.9872656464576721
,fountain,0.9841786623001099
,water,0.9789280891418457
,architecture,0.9738961458206177
,outdoors,0.9636789560317993
,park,0.9443015456199646
,sky,0.9404107928276062
,tourism,0.9359638690948486
,monument,0.9357680082321167
,city,0.9238401055335999
,art,0.9211540222167969
,tourist,0.8913612365722656
,summer,0.8822968602180481
,daylight,0.860878586769104
,religion,0.8443118333816528
,river,0.8433096408843994
,vacation,0.8401436805725098
https://scontent.cdninstagram.com/t51.2885-15/e15/10979720_657910127672158_387742407_n.jpg,Christmas,0.9839794635772705
,shining,0.9759976863861084
,luxury,0.9756198525428772
,decoration,0.9568088054656982
,gold,0.9467697143554688
,desktop,0.9460854530334473
,celebration,0.9444370269775391
,no person,0.9399096965789795
,dark,0.9193693995475769
,card,0.9185081720352173
,illustration,0.9103859663009644
,vacation,0.9077539443969727
,gift,0.9012370109558105
,bright,0.8983522057533264
,box,0.89137864112854
,design,0.8750967979431152
,ornate,0.860225260257721
,winter,0.8555957674980164
,isolated,0.8544514179229736
,abstract,0.8515233993530273
https://scontent.cdninstagram.com/t51.2885-15/e35/11355759_858717404214826_1492654883_n.jpg,people,0.9876667261123657
,woman,0.9779007434844971
,portrait,0.9754619598388672
,monochrome,0.9626120328903198
,adult,0.950023889541626
,fashion,0.9493108987808228
,one,0.9439023733139038
,girl,0.9354417324066162
,model,0.9341331124305725
,actress,0.9336709976196289
,car,0.9104071855545044
,wear,0.9096369743347168
,vehicle,0.9000361561775208
,street,0.8975831270217896
,dress,0.8486100435256958
,retro,0.8364609479904175
,facial expression,0.8343384861946106
,sit,0.8267451524734497
,outdoors,0.8261260986328125
,sexy,0.8097872734069824
https://scontent.cdninstagram.com/t51.2885-15/e35/11373819_1444512479212572_1633623296_n.jpg,no person,0.9888237714767456
,vanilla,0.9673411846160889
,milk,0.9653383493423462
,ice,0.9600289463996887
,cream,0.9579845070838928
,delicious,0.953056812286377
,creamy,0.9390098452568054
,chocolate,0.9365462064743042
,cone,0.9304617643356323
,sweet,0.9260124564170837
,frozen,0.8971363306045532
,food,0.893031895160675
,sugar,0.892849326133728
,scoop,0.8901453018188477
,plastic,0.8793447017669678
,cold,0.8789648413658142
,cup,0.8738356828689575
,creativity,0.8709637522697449
,dairy product,0.8687936067581177
,bright,0.8646390438079834
https://scontent.cdninstagram.com/t51.2885-15/e35/11259583_833999236707790_1996655929_n.jpg,music,0.9912381768226624
,performance,0.9864568114280701
,concert,0.9858622550964355
,festival,0.9854371547698975
,light,0.9798463582992554
,party,0.9761830568313599
,energy,0.9692810773849487
,blur,0.9654699563980103
,stage,0.9534005522727966
,celebration,0.9459517598152161
,evening,0.9436894655227661
,Christmas,0.9395242929458618
,flame,0.9279950261116028
,dark,0.9194517135620117
,no person,0.9166913032531738
,band,0.8929782509803772
,illuminated,0.889135479927063
,city,0.8860188722610474
,musician,0.8615612983703613
,landscape,0.8600368499755859
https://scontent.cdninstagram.com/t51.2885-15/e15/11022807_437285986429731_516221529_n.jpg,city,0.9979053735733032
,light,0.9906638860702515
,cityscape,0.9873702526092529
,building,0.9764095544815063
,skyline,0.9761470556259155
,evening,0.9702330827713013
,landscape,0.9674007892608643
,urban,0.966638445854187
,travel,0.9336220026016235
,water,0.9322248101234436
,architecture,0.9264557957649231
,skyscraper,0.9251338243484497
,river,0.9248837828636169
,street,0.9233541488647461
,reflection,0.9138977527618408
,festival,0.9073582887649536
,dusk,0.9024614095687866
,sunset,0.8982492685317993
,panorama,0.8974341154098511
,bridge,0.8922977447509766
https://scontent.cdninstagram.com/t51.2885-15/e35/11371287_137181359951363_855464635_n.jpg,illuminated,0.9906198978424072
,light,0.9824373722076416
,evening,0.9703713655471802
,dusk,0.9654343128204346
,dark,0.9637749195098877
,travel,0.9607493877410889
,street,0.9329324960708618
,lantern,0.932921290397644
,business,0.9317052364349365
,festival,0.928277313709259
,water,0.9220806360244751
,city,0.9205282330513
,outdoors,0.9113783836364746
,road,0.9100419282913208
,sunset,0.9098719358444214
,rally,0.9018657207489014
,nightlife,0.9004173278808594
,neon,0.8965609669685364
,no person,0.8956758975982666
,police,0.8850229382514954
https://scontent.cdninstagram.com/t51.2885-15/e35/11313691_387097791488412_288197559_n.jpg,water,0.9701509475708008
,architecture,0.9686979055404663
,summer,0.9630519151687622
,tree,0.960128903388977
,travel,0.9583390951156616
,building,0.9578996896743774
,street,0.9569586515426636
,park,0.956723153591156
,outdoors,0.9454951286315918
,no person,0.9452692270278931
,recreation,0.9397000074386597
,city,0.9393839836120605
,leisure,0.9327573776245117
,urban,0.9250637888908386
,house,0.9116299152374268
,landscape,0.9100515842437744
,tourism,0.9091823101043701
,sky,0.9080743789672852
,luxury,0.9065669178962708
,town,0.904942512512207
https://scontent.cdninstagram.com/l/t51.2885-15/e35/11380049_1610352929216575_528206282_n.jpg,light,0.9868091344833374
,dark,0.981165885925293
,illuminated,0.9794268608093262
,no person,0.9681100845336914
,festival,0.95982426404953
,outdoors,0.9530669450759888
,flame,0.9513497948646545
,evening,0.9488485455513
,celebration,0.9334668517112732
,dusk,0.9239377975463867
,travel,0.919274091720581
,Christmas,0.9050016403198242
,street,0.891869068145752
,action,0.8894383907318115
,tree,0.8797640800476074
,city,0.8750059604644775
,silhouette,0.8683669567108154
,moon,0.8608676195144653
,landscape,0.856239914894104
,smoke,0.8497464656829834
https://scontent.cdninstagram.com/t51.2885-15/e15/11049245_923139744393855_871196478_n.jpg,food,0.9896315336227417
,no person,0.9799519777297974
,bowl,0.976083517074585
,traditional,0.9556006789207458
,meal,0.9528640508651733
,healthy,0.9475647211074829
,nutrition,0.9353592395782471
,cereal,0.9305164217948914
,breakfast,0.9252479076385498
,health,0.9250878691673279
,rice,0.9220643043518066
,wood,0.9198743104934692
,closeup,0.9086706638336182
,milk,0.9063094854354858
,drink,0.9040378332138062
,spoon,0.8902754783630371
,diet,0.8771586418151855
,table,0.8724735975265503
,delicious,0.8668676018714905
,hot,0.8636648654937744
https://scontent.cdninstagram.com/t51.2885-15/e15/11325271_1608040622772472_1077544367_n.jpg,no person,0.9840909838676453
,decoration,0.9253520965576172
,shape,0.9028664231300354
,desktop,0.8913758993148804
,food,0.8827697038650513
,flower,0.875848650932312
,vintage,0.8555471301078796
,abstract,0.848731279373169
,floral,0.8342217803001404
,pattern,0.8172380924224854
,symbol,0.7917697429656982
,biology,0.7806326150894165
,art,0.7760433554649353
,leaf,0.7750529050827026
,illustration,0.7670092582702637
,group,0.758745551109314
,silhouette,0.7571662664413452
,design,0.7542155981063843
,still life,0.7537294626235962
,ornate,0.7206205129623413
https://scontent.cdninstagram.com/t51.2885-15/e35/11910048_902175719861879_1642421861_n.jpg,no person,0.9879465103149414
,isolated,0.9711973667144775
,love,0.9621703624725342
,bright,0.9461730122566223
,food,0.9452821016311646
,isolated,0.9342995882034302
,plastic,0.9286354780197144
,health,0.8953722715377808
,basket,0.8873448371887207
,desktop,0.8863493204116821
,color,0.8787481188774109
,romance,0.8785275816917419
,paper,0.8779768943786621
,traditional,0.8748986721038818
,shining,0.874895453453064
,one,0.8713563084602356
,celebration,0.8598740696907043
,Christmas,0.8568660616874695
,sugar,0.8544942140579224
,family,0.8522350192070007
https://scontent.cdninstagram.com/t51.2885-15/e15/11142800_1031140363582185_1523796329_n.jpg,screen,0.9919478893280029
,computer,0.9896667003631592
,technology,0.9870359897613525
,laptop,0.98370361328125
,food,0.9738852977752686
,indoors,0.9611513614654541
,people,0.9566258788108826
,no person,0.9377713203430176
,room,0.9344177842140198
,adult,0.9322864413261414
,display,0.9288586974143982
,monitor,0.9228754639625549
,internet,0.9222296476364136
,still life,0.910129725933075
,one,0.9011332988739014
,family,0.8863315582275391
,woman,0.8737236857414246
,grow,0.8578147888183594
,apple,0.8416096568107605
,bowl,0.8240014314651489
https://scontent.cdninstagram.com/t51.2885-15/e35/13397520_1117462068310933_1801724344_n.jpg,sign,0.9709981679916382
,text,0.9695895910263062
,sign,0.9627870917320251
,illuminated,0.9615259170532227
,neon,0.9552218914031982
,stock,0.9523725509643555
,business,0.9322563409805298
,no person,0.9186170101165771
,bill,0.9138314127922058
,commerce,0.907065749168396
,light,0.9027562141418457
,symbol,0.9005470275878906
,transportation system,0.870279848575592
,illustration,0.8701514005661011
,travel,0.8686705827713013
,market,0.8651929497718811
,banner,0.8643560409545898
,advertising,0.8573578596115112
,evening,0.8097379207611084
,promotion,0.7988154292106628
https://scontent.cdninstagram.com/t51.2885-15/s480x480/e35/13381062_1112325625515262_1506116849_n.jpg,people,0.9931256175041199
,group,0.987148106098175
,woman,0.9834188222885132
,recreation,0.977000892162323
,adult,0.9741102457046509
,wear,0.9738744497299194
,group,0.9690240621566772
,friendship,0.9564399123191833
,man,0.9543451070785522
,portrait,0.9331324100494385
,school,0.9300211668014526
,education,0.915520966053009
,facial expression,0.911483883857727
,child,0.9113332033157349
,girl,0.9013067483901978
,enjoyment,0.8981107473373413
,music,0.8975613117218018
,five,0.8780979514122009
,adolescent,0.8775986433029175
,fun,0.8632521629333496
https://scontent.cdninstagram.com/t51.2885-15/e35/13402554_258754631158881_315766653_n.jpg,food,0.9980844259262085
,no person,0.9912517666816711
,chocolate,0.9911373853683472
,sweet,0.9905240535736084
,delicious,0.9831655025482178
,milk,0.9791738390922546
,cream,0.9766162633895874
,fruit,0.970747709274292
,sugar,0.9700092077255249
,plate,0.9687818884849548
,dairy product,0.9676240682601929
,restaurant,0.9582619667053223
,meal,0.9416585564613342
,refreshment,0.9271188974380493
,tableware,0.9270109534263611
,drink,0.9266378283500671
,homemade,0.9163635969161987
,epicure,0.916286051273346
,indulgence,0.9155768156051636
,traditional,0.9136320948600769
https://scontent.cdninstagram.com/t51.2885-15/e35/13298200_254681714896885_1556969084_n.jpg,food,0.9939830303192139
,dinner,0.9865366816520691
,pasta,0.9851119518280029
,plate,0.9827985763549805
,meal,0.9822544455528259
,lunch,0.9819881916046143
,sauce,0.9808969497680664
,dish,0.9766783714294434
,cuisine,0.9750680327415466
,delicious,0.9697585105895996
,spaghetti,0.9661160111427307
,no person,0.9654513001441956
,vegetable,0.9649941921234131
,meat,0.9646869897842407
,restaurant,0.9626252055168152
,traditional,0.9555015563964844
,epicure,0.9543795585632324
,cooking,0.9390860795974731
,fork,0.934827446937561
,tasty,0.9347913265228271
https://scontent.cdninstagram.com/t51.2885-15/e35/13381218_136551810100407_1464472317_n.jpg,food,0.9894577264785767
,fruit,0.9819173812866211
,healthy,0.9771952629089355
,no person,0.9759633541107178
,health,0.9621872901916504
,grow,0.9615876078605652
,vegetable,0.9521521329879761
,sweet,0.9453003406524658
,glass,0.9356110095977783
,delicious,0.9122483730316162
,tropical,0.9048153162002563
,diet,0.9013423919677734
,bowl,0.9012422561645508
,closeup,0.899438202381134
,summer,0.8965064287185669
,table,0.8905674815177917
,nutrition,0.8852580189704895
,plate,0.8841196298599243
,desktop,0.879250705242157
,cooking,0.8716375231742859
https://scontent.cdninstagram.com/t51.2885-15/e15/10995037_1412479482396654_848361_n.jpg,watercraft,0.9947168827056885
,ship,0.9923756122589111
,transportation system,0.9913221597671509
,water,0.986865758895874
,vehicle,0.9857571125030518
,sea,0.983391284942627
,no person,0.9812161922454834
,ferry,0.963189959526062
,industry,0.9582656621932983
,travel,0.9565936326980591
,harbor,0.9534000158309937
,tugboat,0.9488258957862854
,shipment,0.9415861368179321
,sky,0.9284845590591431
,boat,0.9190948009490967
,outdoors,0.9167754650115967
,logistics,0.9018272161483765
,ocean,0.9018114805221558
,river,0.8883522748947144
,barge,0.8761311769485474
https://scontent.cdninstagram.com/t51.2885-15/s480x480/e35/13402443_1570948933199370_1020871751_n.jpg,people,0.987613320350647
,woman,0.9853254556655884
,adult,0.9760194420814514
,lifestyle,0.9552278518676758
,girl,0.9546732902526855
,room,0.9522422552108765
,recreation,0.9441208243370056
,wear,0.9436802864074707
,portrait,0.9360189437866211
,group,0.9357357025146484
,leisure,0.934406042098999
,indoors,0.9331792593002319
,fun,0.928270697593689
,happiness,0.9231230616569519
,family,0.922853410243988
,enjoyment,0.9202810525894165
,facial expression,0.9039483666419983
,friendship,0.9035091996192932
,brunette,0.8944583535194397
,furniture,0.8889799118041992
https://scontent.cdninstagram.com/t51.2885-15/e35/13422815_1736176546665846_1753407372_n.jpg,food,0.9937509298324585
,vegetable,0.9798197746276855
,no person,0.9773809313774109
,meal,0.9714725017547607
,dinner,0.971082329750061
,meat,0.961349606513977
,dish,0.9574863910675049
,cooking,0.9564255475997925
,lunch,0.9549192190170288
,pepper,0.9546947479248047
,delicious,0.9476025104522705
,hot,0.9445761442184448
,healthy,0.9371215105056763
,chicken,0.934134840965271
,tomato,0.9234024882316589
,onion,0.9219155311584473
,cuisine,0.9150728583335876
,spice,0.9103150367736816
,epicure,0.9033617973327637
,grow,0.8946759104728699
https://scontent.cdninstagram.com/t51.2885-15/e35/1389044_897451873643467_420490983_n.jpg,food,0.9940450191497803
,hot,0.972866415977478
,drink,0.9643390774726868
,no person,0.962787389755249
,pan,0.9389459490776062
,traditional,0.9320639371871948
,restaurant,0.9301478862762451
,desktop,0.9210129976272583
,cup,0.9206715226173401
,table,0.9182991981506348
,steam,0.9158477783203125
,pot,0.9148168563842773
,cooking,0.9126209020614624
,glass,0.8984454870223999
,sweet,0.8957186937332153
,plate,0.8918659687042236
,vegetable,0.8885821104049683
,meal,0.8876899480819702
,wine,0.8843616843223572
,healthy,0.8791794776916504
https://scontent.cdninstagram.com/t51.2885-15/e15/11192885_853452428058475_1034539181_n.jpg,drink,0.9908502101898193
,no person,0.9876931309700012
,beer,0.987252950668335
,coffee,0.9686922430992126
,cup,0.9605603218078613
,container,0.9193861484527588
,mug,0.9103112816810608
,tea,0.9032862186431885
,glass,0.9016092419624329
,still life,0.8953673243522644
,food,0.8908231854438782
,dark,0.889501690864563
,bar,0.8809926509857178
,indoors,0.8642699718475342
,empty,0.8636925220489502
,wood,0.8636736869812012
,breakfast,0.860451877117157
,pub,0.8508204221725464
,dawn,0.8484632968902588
,liquid,0.8461005091667175
https://scontent.cdninstagram.com/t51.2885-15/e15/11283284_914564145274128_522094265_n.jpg,food,0.9973334074020386
,meal,0.9759608507156372
,no person,0.969569981098175
,fish,0.9593136310577393
,dinner,0.9468579292297363
,rice,0.941159725189209
,lunch,0.9327259063720703
,vegetable,0.9311810731887817
,cheese,0.9311513900756836
,meat,0.9261490106582642
,plate,0.924394965171814
,seafood,0.9236646890640259
,epicure,0.917913556098938
,cuisine,0.9165749549865723
,dish,0.9154778718948364
,delicious,0.9018052816390991
,restaurant,0.8886899948120117
,sauce,0.8828274011611938
,healthy,0.8768695592880249
,tasty,0.8760206699371338
https://scontent.cdninstagram.com/t51.2885-15/e15/11033064_885901048140096_585785334_n.jpg,woman,0.9905230402946472
,girl,0.9888943433761597
,portrait,0.9854955673217773
,people,0.981798529624939
,adult,0.9716735482215881
,one,0.9665337800979614
,indoors,0.954032301902771
,fashion,0.9386413097381592
,model,0.9286907911300659
,light,0.9286424517631531
,face,0.9284881353378296
,beautiful,0.9163413047790527
,young,0.8792842030525208
,pretty,0.872314989566803
,wear,0.8625243902206421
,sexy,0.8589166402816772
,cute,0.8482069373130798
,facial expression,0.8481287360191345
,glamour,0.8263899087905884
,lady,0.82220458984375
