url,class,score
https://scontent-sit4-1.cdninstagram.com/t51.2885-15/s640x640/sh0.08/e35/13423691_983261931773113_1079314060_n.jpg,many,0.9752342700958252
,people,0.974443793296814
,crowd,0.971345841884613
,group,0.9582951068878174
,woman,0.9493883848190308
,festival,0.9435179233551025
,competition,0.9237751960754395
,police,0.9215642809867859
,sports fan,0.920782208442688
,wear,0.9087188243865967
,adult,0.8965818285942078
,rally,0.8911804556846619
,rally,0.8821487426757812
,man,0.8710174560546875
,offense,0.8536174297332764
,education,0.8478837013244629
,city,0.8450194597244263
,street,0.8393979072570801
,audience,0.8337113857269287
,road,0.8072240352630615
https://scontent-sit4-1.cdninstagram.com/t51.2885-15/e15/13573563_1193915790642020_295122919_n.jpg,people,0.9949698448181152
,man,0.9805490970611572
,two,0.9689575433731079
,woman,0.9688459634780884
,adult,0.9599835872650146
,family,0.9395991563796997
,indoors,0.9249700307846069
,child,0.9208204746246338
,religion,0.8973984718322754
,one,0.8721109628677368
,offense,0.8629880547523499
,silhouette,0.8497492074966431
,love,0.8496551513671875
,recreation,0.8395696878433228
,three,0.8280467987060547
,sit,0.8132705688476562
,side view,0.8081890940666199
,wear,0.7932493090629578
,group,0.7928401827812195
,war,0.7895975112915039
https://scontent-sit4-1.cdninstagram.com/t51.2885-15/e35/13249728_977394475689467_811368834_n.jpg,indoors,0.9871512651443481
,girl,0.9833773374557495
,woman,0.9799977540969849
,model,0.9753673076629639
,fashion,0.9695224761962891
,room,0.954326868057251
,people,0.9434876441955566
,hallway,0.9355753064155579
,beautiful,0.9337901473045349
,inside,0.9314311146736145
,portrait,0.9312392473220825
,adult,0.9068642258644104
,modern,0.903016209602356
,lifestyle,0.9000213146209717
,sexy,0.8891161680221558
,young,0.8803309202194214
,wall,0.8755520582199097
,style,0.8668539524078369
,dress,0.8653947114944458
,family,0.8524059653282166
https://scontent-sit4-1.cdninstagram.com/t51.2885-15/e15/13712091_1763735017245031_956610054_n.jpg,text,0.9937822222709656
,illustration,0.9935762882232666
,bill,0.9874797463417053
,vector,0.9868448972702026
,typography,0.978241503238678
,desktop,0.9758033752441406
,label,0.9732567071914673
,card,0.972099781036377
,sign,0.9708051085472107
,tag,0.9627729654312134
,design,0.9587733149528503
,graphic,0.9572422504425049
,banner,0.9484760165214539
,symbol,0.9391794204711914
,stamp,0.9365750551223755
,greeting,0.935096263885498
,template,0.9297595024108887
,image,0.9250711798667908
,vintage,0.9168485403060913
,retro,0.910995602607727
https://scontent-sit4-1.cdninstagram.com/t51.2885-15/e15/13735973_118177715288695_1175452051_n.jpg,illustration,0.9963974952697754
,vector,0.9959664344787598
,retro,0.991590142250061
,lid,0.9557123184204102
,vintage,0.9445120096206665
,graphic,0.9435979723930359
,art,0.9235739707946777
,desktop,0.9151871204376221
,man,0.9144904017448425
,sketch,0.912468671798706
,vicious,0.9097979068756104
,card,0.9044269323348999
,image,0.8850165605545044
,bill,0.8737916350364685
,design,0.8664044737815857
,danger,0.8652001619338989
,paper,0.861859917640686
,Halloween,0.8476884365081787
,symbol,0.835593044757843
,modern,0.828535795211792
https://scontent-sit4-1.cdninstagram.com/t51.2885-15/e15/13651869_846760388790423_631103508_n.jpg,war,0.9810893535614014
,people,0.9775844216346741
,man,0.9679189920425415
,military,0.942900538444519
,army,0.9204265475273132
,uniform,0.91905677318573
,adult,0.9063324928283691
,weapon,0.9016101360321045
,danger,0.9012923240661621
,helmet,0.8958194851875305
,soldier,0.892867386341095
,gun,0.8910757303237915
,wear,0.8693860769271851
,protection,0.8661403656005859
,one,0.8507447242736816
,bill,0.8300497531890869
,sport,0.8105837106704712
,person,0.8104872107505798
,safety,0.8079720735549927
,fly,0.7980998158454895
https://scontent-sit4-1.cdninstagram.com/t51.2885-15/e35/13534103_996754827095687_420582437_n.jpg,robot,0.9746244549751282
,technology,0.966707170009613
,man,0.9565999507904053
,equipment,0.9466168880462646
,military,0.9427883625030518
,no person,0.9399576187133789
,people,0.930749773979187
,industry,0.9029344320297241
,machine,0.8878580331802368
,weapon,0.886250376701355
,futuristic,0.8828008770942688
,one,0.8788458108901978
,science,0.8703311085700989
,war,0.8681032061576843
,machinery,0.8546205759048462
,precision,0.8508912920951843
,gun,0.8478757739067078
,fiction,0.8084800243377686
,tripod,0.7993487119674683
,safety,0.78318852186203
https://scontent-sit4-1.cdninstagram.com/t51.2885-15/s750x750/sh0.08/e35/13696391_1751628565115715_56240084_n.jpg,no person,0.9486545920372009
,landscape,0.9371334314346313
,technology,0.936249315738678
,screen,0.9137368202209473
,snow,0.8899189233779907
,internet,0.8720279932022095
,outdoors,0.8708553314208984
,people,0.8692913055419922
,travel,0.8591663241386414
,nature,0.8573505282402039
,computer,0.8301067352294922
,touch,0.8212079405784607
,mountain,0.8190320730209351
,business,0.8165611028671265
,picture frame,0.8120145201683044
,winter,0.8096958994865417
,telephone,0.7823839783668518
,weather,0.7746590375900269
,sky,0.7724705338478088
,empty,0.770378828048706
https://scontent-sit4-1.cdninstagram.com/t51.2885-15/sh0.08/e35/p640x640/13285318_262515750767534_152399320_n.jpg,business,0.9753632545471191
,man,0.975351095199585
,people,0.9668580293655396
,portrait,0.9649413824081421
,one,0.9595779180526733
,adult,0.9561812877655029
,urban,0.8808196783065796
,city,0.8503375053405762
,street,0.8398630619049072
,office,0.8354862928390503
,festival,0.815682053565979
,wear,0.8126502633094788
,person,0.8031075596809387
,outdoors,0.7987723350524902
,suit,0.7846086621284485
,indoors,0.7805389165878296
,sit,0.7799406051635742
,tie,0.7720727920532227
,travel,0.7459195852279663
,looking,0.740847110748291
https://scontent-sit4-1.cdninstagram.com/t51.2885-15/e35/13597666_1315239691838879_1500430580_n.jpg,woman,0.9912521839141846
,fashion,0.9892662167549133
,wear,0.9837000966072083
,portrait,0.9533076286315918
,people,0.9118643999099731
,adult,0.9116162061691284
,one,0.9011067152023315
,dancing,0.8964093923568726
,girl,0.8935869932174683
,model,0.8665391206741333
,dress,0.8463063836097717
,glamour,0.8420076370239258
,sexy,0.8410428166389465
,footwear,0.8335965871810913
,contemporary,0.8174985647201538
,skirt,0.807843804359436
,scarf,0.8072702288627625
,balance,0.7845981121063232
,fashionable,0.779434084892273
,trendy,0.776085615158081
https://scontent-sit4-1.cdninstagram.com/t51.2885-15/e35/13126884_1012361735526199_1958693343_n.jpg,toy,0.9888715744018555
,teddy,0.9870280027389526
,no person,0.9609153866767883
,child,0.9563664197921753
,plush,0.9561861753463745
,doll,0.9287198781967163
,funny,0.9207788705825806
,symbol,0.8612726330757141
,fun,0.8571288585662842
,one,0.854485273361206
,cute,0.831246018409729
,smile,0.8312371969223022
,Halloween,0.8228420615196228
,color,0.8209654688835144
,humor,0.8064271211624146
,people,0.7880043983459473
,happiness,0.7710614204406738
,isolated,0.7708155512809753
,handmade,0.764051079750061
,confection,0.7580643892288208
https://scontent-sit4-1.cdninstagram.com/t51.2885-15/e35/13671366_591098831051192_1180838731_n.jpg,sit,0.9863438010215759
,outdoors,0.9714851379394531
,adult,0.9596694111824036
,people,0.9585468173027039
,woman,0.9560949802398682
,man,0.9542121887207031
,sitting,0.9534617066383362
,seat,0.952471911907196
,relaxation,0.9494712352752686
,laptop,0.9424521923065186
,one,0.9401988983154297
,internet,0.9398548007011414
,business,0.9397916197776794
,computer,0.9358683824539185
,leisure,0.9339648485183716
,technology,0.9281349778175354
,looking,0.9239473938941956
,connection,0.9143770933151245
,writing,0.899155855178833
,casual,0.8982173204421997
https://scontent-sit4-1.cdninstagram.com/t51.2885-15/e35/13380993_521795044691955_203272111_n.jpg,people,0.9526774883270264
,man,0.9416884183883667
,competition,0.9390828013420105
,adult,0.9030938148498535
,recreation,0.8935590982437134
,action,0.885418176651001
,technology,0.885146975517273
,robot,0.8650063276290894
,toy,0.845052182674408
,business,0.8324432969093323
,squad,0.8160695433616638
,game,0.8137630224227905
,room,0.8043982982635498
,group,0.7926011085510254
,building,0.791478157043457
,one,0.7836859226226807
,motion,0.7816874980926514
,indoors,0.7720257043838501
,teamwork,0.7695096731185913
,leisure,0.7694307565689087
https://scontent-sit4-1.cdninstagram.com/t51.2885-15/e15/13774201_548947405299445_215875742_n.jpg,man,0.9953351020812988
,adult,0.9932993650436401
,people,0.9889870285987854
,horizontal,0.9692584872245789
,indoors,0.9639242887496948
,business,0.9587322473526001
,sitting,0.9544744491577148
,portrait,0.9477499723434448
,frustration,0.9449870586395264
,worried,0.9413272738456726
,technology,0.935139536857605
,displeased,0.9171838760375977
,fatigue,0.9140409231185913
,desk,0.9137194156646729
,computer,0.909570574760437
,furious,0.8991042971611023
,serious,0.8949311971664429
,sit,0.8893322944641113
,concentration,0.8893313407897949
,looking,0.8804103136062622
https://scontent-sit4-1.cdninstagram.com/t51.2885-15/e35/13402660_236928183357068_591004911_n.jpg,paper,0.951791524887085
,man,0.9490243196487427
,people,0.9460834264755249
,portrait,0.9278744459152222
,business,0.925428032875061
,sign,0.8960426449775696
,money,0.8272079229354858
,retro,0.8049126267433167
,card,0.8011206388473511
,wealth,0.7980930805206299
,adult,0.7935209274291992
,one,0.7893551588058472
,vintage,0.7811420559883118
,person,0.7682875394821167
,finance,0.7620725631713867
,bill,0.7461367845535278
,money,0.7386996746063232
,isolated,0.7220155000686646
,success,0.6934777498245239
,identity,0.6850736737251282
https://scontent-sit4-1.cdninstagram.com/t51.2885-15/e35/13249864_132740987135503_1811923724_n.jpg,no person,0.9667148590087891
,fun,0.9389501214027405
,transportation system,0.9331883192062378
,travel,0.9284241199493408
,illustration,0.8987396955490112
,man,0.8768910765647888
,outdoors,0.8719464540481567
,street,0.8665518760681152
,vacation,0.8647378087043762
,business,0.8503789901733398
,symbol,0.8332029581069946
,retro,0.8317406177520752
,sketch,0.8199261426925659
,child,0.8191908597946167
,people,0.8052784204483032
,car,0.7988903522491455
,vehicle,0.7953637838363647
,public,0.7764863967895508
,character,0.7724356651306152
,engine,0.7614240646362305
https://scontent-sit4-1.cdninstagram.com/t51.2885-15/sh0.08/e35/p750x750/13741061_1609679092659978_737252599_n.jpg,child,0.9858304262161255
,indoors,0.9766801595687866
,people,0.9739845991134644
,enjoyment,0.9626942873001099
,woman,0.9452884197235107
,fun,0.9359848499298096
,facial expression,0.9332624673843384
,drink,0.9185253977775574
,happiness,0.8949824571609497
,adult,0.8762686252593994
,girl,0.8604600429534912
,leisure,0.8569697141647339
,one,0.847558319568634
,cute,0.8463475704193115
,daylight,0.83995521068573
,sit,0.8301624059677124
,wear,0.8072721362113953
,family,0.804064154624939
,lifestyle,0.7843326330184937
,food,0.782505989074707
https://scontent-sit4-1.cdninstagram.com/t51.2885-15/e35/13248886_1600979080216168_1072776448_n.jpg,food,0.9945050477981567
,no person,0.9895737767219543
,delicious,0.9751981496810913
,lunch,0.9709874987602234
,dinner,0.9696351289749146
,meal,0.9559831619262695
,plate,0.9533385634422302
,bread,0.9460021257400513
,nutrition,0.9312259554862976
,health,0.9307923316955566
,breakfast,0.9290947914123535
,homemade,0.9098767042160034
,traditional,0.9087274074554443
,refreshment,0.9043661952018738
,hot,0.8987448811531067
,cooking,0.8933299779891968
,healthy,0.8926299810409546
,cuisine,0.8884268403053284
,tasty,0.8853802680969238
,meat,0.883895754814148
https://scontent-sit4-1.cdninstagram.com/t51.2885-15/e35/13774322_503353243194663_1874521203_n.jpg,fashion,0.9963349103927612
,wear,0.9959392547607422
,jacket,0.9936809539794922
,man,0.9857588410377502
,garment,0.9856197834014893
,sleeve,0.9787783622741699
,pants,0.9746668338775635
,shirt,0.9735206365585327
,no person,0.9604651927947998
,isolated,0.9589333534240723
,cotton,0.9574896097183228
,casual,0.9531263113021851
,business,0.9523537158966064
,contemporary,0.9521845579147339
,elegant,0.946313738822937
,coat,0.9289249181747437
,wardrobe,0.9199528694152832
,dress,0.9181286692619324
,people,0.9158364534378052
,collar,0.9157288074493408
https://scontent-sit4-1.cdninstagram.com/t51.2885-15/e35/13534582_1049431065144624_1786774696_n.jpg,no person,0.9949698448181152
,man,0.9874165058135986
,graphic design,0.9799931645393372
,robot,0.9684010744094849
,people,0.9530378580093384
,winter,0.9515653252601624
,Christmas,0.9402309656143188
,military,0.9349355697631836
,futuristic,0.9183815717697144
,future,0.9026381969451904
,action,0.8698199987411499
,retro,0.8675514459609985
,creativity,0.8674134016036987
,competition,0.8575022220611572
,contemporary,0.8393548727035522
,gloves,0.8382908701896667
,one,0.8362686634063721
,fun,0.8347647786140442
,isolated,0.8244248628616333
,patriotism,0.8202393054962158
https://scontent-sit4-1.cdninstagram.com/t51.2885-15/sh0.08/e35/p750x750/13260875_1359854454041363_2082195052_n.jpg,people,0.9837545156478882
,woman,0.9829445481300354
,two,0.9737157821655273
,love,0.9712398052215576
,portrait,0.9694828987121582
,man,0.9608716368675232
,adult,0.9485564827919006
,outdoors,0.9377432465553284
,fashion,0.9297613501548767
,togetherness,0.9193325042724609
,fun,0.914010226726532
,wear,0.9098517298698425
,music,0.8989574909210205
,girl,0.8982913494110107
,group,0.8912301063537598
,recreation,0.8773112297058105
,family,0.8758445978164673
,young,0.8737340569496155
,friendship,0.8721168041229248
,child,0.8628007769584656
https://scontent-sit4-1.cdninstagram.com/t51.2885-15/e35/13402155_908196689306418_2012129205_n.jpg,woman,0.9855656027793884
,people,0.9819117784500122
,wear,0.9677039384841919
,portrait,0.9626061916351318
,facial expression,0.9492428302764893
,two,0.9473304748535156
,interaction,0.9317796230316162
,adult,0.9220675230026245
,affection,0.9078109264373779
,festival,0.8978449106216431
,man,0.8964712619781494
,child,0.8907504677772522
,embrace,0.8843857645988464
,fashion,0.8807530403137207
,togetherness,0.8748106956481934
,family,0.8614639043807983
,enjoyment,0.8406208753585815
,love,0.8369292616844177
,movie,0.8044523596763611
,administration,0.8024947643280029
https://scontent-sit4-1.cdninstagram.com/t51.2885-15/e15/13181509_107442326337024_1086887764_n.jpg,illustration,0.9630153775215149
,desktop,0.9604249000549316
,schedule,0.9585297107696533
,graphic,0.9458019137382507
,pattern,0.9348653554916382
,abstract,0.9331169128417969
,design,0.9330106973648071
,calendar,0.9217898845672607
,set,0.9175164699554443
,game,0.9107394814491272
,vector,0.9044291973114014
,symbol,0.899799108505249
,modern,0.8966431021690369
,time,0.891512930393219
,card,0.8886765241622925
,annual,0.8732313513755798
,monthly,0.8716551065444946
,color,0.8709990978240967
,almanac,0.8525618314743042
,agenda,0.8379638195037842
https://scontent-sit4-1.cdninstagram.com/t51.2885-15/e35/13437405_1173444732675765_779215756_n.jpg,editorial,0.9813743829727173
,recreation,0.9810270667076111
,festival,0.9737367630004883
,actress,0.9632426500320435
,actor,0.9605700969696045
,group,0.9573407173156738
,movie,0.9494370222091675
,people,0.9450908303260803
,child,0.9387882947921753
,singer,0.9135586023330688
,music,0.896156907081604
,portrait,0.8899920582771301
,woman,0.8891811370849609
,party,0.8783402442932129
,fame,0.8683661222457886
,celebration,0.8324805498123169
,group,0.8139733672142029
,musician,0.8071118593215942
,student,0.7958619594573975
,ceremony,0.7918524146080017
https://scontent-sit4-1.cdninstagram.com/t51.2885-15/e35/13525567_1847252785495618_1727665525_n.jpg,group,0.9796414375305176
,people,0.95681232213974
,woman,0.9495225548744202
,group,0.9369751214981079
,wear,0.9156996011734009
,recreation,0.910719633102417
,movie,0.9105210900306702
,man,0.9008758068084717
,family,0.8883054256439209
,performance,0.8869578838348389
,festival,0.8857204914093018
,adult,0.8856867551803589
,celebration,0.883805513381958
,portrait,0.8809947371482849
,singer,0.8669952154159546
,school,0.8634101152420044
,education,0.8587813377380371
,child,0.8543281555175781
,party,0.8437044620513916
,indoors,0.8367676734924316
https://scontent-sit4-1.cdninstagram.com/t51.2885-15/e35/13108642_1014732168609023_419895414_n.jpg,cat,0.9995711445808411
,pet,0.9949270486831665
,animal,0.9948521852493286
,kitten,0.994181752204895
,portrait,0.9898048639297485
,mammal,0.9866229891777039
,domestic,0.9854443073272705
,cute,0.9852404594421387
,fur,0.9720864295959473
,tabby,0.9493923783302307
,young,0.9476531744003296
,little,0.9473825693130493
,furry,0.9440977573394775
,friendship,0.9397141933441162
,adorable,0.9319254159927368
,funny,0.918499231338501
,eye,0.9167212247848511
,sit,0.9117025136947632
,looking,0.9027862548828125
,purebred,0.8764036893844604
https://scontent-sit4-1.cdninstagram.com/t51.2885-15/e35/13423086_194103937657513_1337098496_n.jpg,weapon,0.9868457317352295
,no person,0.9859484434127808
,war,0.984454870223999
,military,0.9792519211769104
,gun,0.9649133682250977
,danger,0.9485766887664795
,robot,0.9458028078079224
,armor,0.9379968643188477
,army,0.9337804317474365
,technology,0.9198430776596069
,man,0.9014593958854675
,security,0.893075168132782
,people,0.8913282752037048
,science,0.878464937210083
,machinery,0.8706505298614502
,future,0.8613629937171936
,isolated,0.8469732999801636
,power,0.8424441814422607
,protection,0.8349718451499939
,combat,0.8338253498077393
https://scontent-sit4-1.cdninstagram.com/t51.2885-15/sh0.08/e35/p640x640/13743549_1726119704321443_1438887650_n.jpg,people,0.9841891527175903
,one,0.9670629501342773
,Christmas,0.9622811079025269
,furniture,0.9541358351707458
,no person,0.9508721232414246
,decoration,0.945205569267273
,box,0.9427258968353271
,celebration,0.9421178102493286
,indoors,0.941055178642273
,adult,0.9212282299995422
,seat,0.919082522392273
,wear,0.904769778251648
,woman,0.9043826460838318
,gift,0.8922412395477295
,man,0.8898862600326538
,room,0.8841897249221802
,table,0.8831020593643188
,interior design,0.8774856925010681
,lid,0.8768987655639648
,two,0.8714327812194824
https://scontent-sit4-1.cdninstagram.com/t51.2885-15/e35/13422855_467944756747928_1193113448_n.jpg,actress,0.9799837470054626
,movie,0.9799830913543701
,recreation,0.9774856567382812
,people,0.9692918062210083
,editorial,0.9563246965408325
,red carpet,0.9453091025352478
,actor,0.942154049873352
,festival,0.9164462089538574
,sign,0.9032046794891357
,ceremony,0.8944066762924194
,woman,0.8561103343963623
,healthcare,0.8501254916191101
,promotion,0.8445510864257812
,arrival,0.8405623435974121
,entertainment,0.8279359340667725
,event,0.8094866275787354
,party,0.8074172735214233
,fashion,0.802605152130127
,business,0.7836835384368896
,theater,0.7768491506576538
https://scontent-sit4-1.cdninstagram.com/t51.2885-15/e35/13423678_706890546116853_1049925991_n.jpg,people,0.9699035286903381
,woman,0.9615225791931152
,adult,0.9510687589645386
,group,0.9474753737449646
,man,0.9461129307746887
,portrait,0.9448364973068237
,business,0.8577959537506104
,education,0.8532451391220093
,group,0.849640965461731
,facial expression,0.847176194190979
,wear,0.831558883190155
,indoors,0.7798014879226685
,school,0.7797567844390869
,leader,0.7682268619537354
,togetherness,0.7619920372962952
,ceremony,0.7257484197616577
,room,0.7231472730636597
,happiness,0.7060955166816711
,child,0.7041857242584229
,outfit,0.7029047012329102
https://scontent-sit4-1.cdninstagram.com/t51.2885-15/e35/13597666_1061671533882481_1325504675_n.jpg,cream,0.9992565512657166
,ice,0.9985677003860474
,chocolate,0.9977328777313232
,no person,0.9967523217201233
,vanilla,0.9962127804756165
,creamy,0.9934905767440796
,delicious,0.9924808740615845
,scoop,0.9909403324127197
,milk,0.9901333451271057
,cold,0.9899370670318604
,coffee,0.9819817543029785
,indulgence,0.9813430905342102
,cornet,0.9779223799705505
,wafer,0.9778599739074707
,sugar,0.9744226932525635
,sweet,0.9704830050468445
,cup,0.9688900709152222
,cone,0.9677215814590454
,frozen,0.9641203880310059
,whipped cream,0.9612987041473389
https://scontent-sit4-1.cdninstagram.com/t51.2885-15/e35/13767684_818636868236374_1392485953_n.jpg,no person,0.9879592657089233
,retro,0.9521063566207886
,internet,0.9189565181732178
,paper,0.9017418622970581
,technology,0.9011930227279663
,business,0.8858617544174194
,telephone,0.8801891803741455
,graphic design,0.8798277974128723
,electronics,0.8749151825904846
,data,0.8358597755432129
,touch,0.8209822773933411
,contemporary,0.7848798036575317
,display,0.7679456472396851
,label,0.7667853832244873
,information,0.7609676122665405
,security,0.7510995864868164
,summer,0.7430357933044434
,isolated,0.7383661270141602
,glazed,0.7335420846939087
,machinery,0.7335382699966431
https://scontent-sit4-1.cdninstagram.com/t51.2885-15/e35/13414295_1207304562633604_294938552_n.jpg,illustration,0.9608681201934814
,superhero,0.9510394334793091
,man,0.9349669814109802
,uniform,0.9326266050338745
,wear,0.8736001253128052
,sketch,0.8655188083648682
,competition,0.8615688681602478
,robot,0.847180962562561
,people,0.8453515768051147
,pride,0.8412703275680542
,football,0.8318028450012207
,costume,0.8113374710083008
,sports fan,0.783048152923584
,championship,0.7712894678115845
,sport,0.7623263597488403
,soccer,0.7550921440124512
,winter,0.7516849040985107
,squad,0.7477633953094482
,skill,0.7474448680877686
,traditional,0.736426591873169
https://scontent-sit4-1.cdninstagram.com/t51.2885-15/e35/13532056_1266314226713811_404214025_n.jpg,group,0.9684320688247681
,people,0.9662164449691772
,adult,0.9655572175979614
,woman,0.9653743505477905
,wear,0.9419061541557312
,man,0.9399737119674683
,commerce,0.9295387864112854
,many,0.9262917041778564
,festival,0.8983873724937439
,exhibition,0.8972803354263306
,facial expression,0.8960460424423218
,portrait,0.8635072708129883
,vehicle,0.8594465255737305
,happiness,0.8524205684661865
,enjoyment,0.846668004989624
,city,0.8456851243972778
,group,0.83995521068573
,education,0.8275585770606995
,business,0.8200104236602783
,school,0.8187524676322937
https://scontent-sit4-1.cdninstagram.com/t51.2885-15/e35/13108594_1715615428697999_3221337_n.jpg,people,0.9916075468063354
,woman,0.9915331602096558
,adult,0.9851259589195251
,indoors,0.9608263969421387
,education,0.9584729671478271
,group,0.9534496068954468
,illustration,0.9520838856697083
,portrait,0.9507686495780945
,man,0.9473334550857544
,horizontal,0.9354708194732666
,vector,0.9313786625862122
,child,0.9280740022659302
,bill,0.9081993699073792
,collection,0.9061990976333618
,ceremony,0.8869531154632568
,school,0.8755615949630737
,recreation,0.8670330047607422
,wear,0.8567347526550293
,fashion,0.8520543575286865
,retro,0.8518451452255249
https://scontent-sit4-1.cdninstagram.com/t51.2885-15/e35/13696782_309317332752585_312279908_n.jpg,cat,0.9991159439086914
,animal,0.9971775412559509
,fur,0.995886504650116
,cute,0.9939623475074768
,portrait,0.9903051257133484
,eye,0.989270031452179
,mammal,0.988031268119812
,pet,0.987123966217041
,kitten,0.9862387180328369
,stripe,0.9815129041671753
,tabby,0.9658547639846802
,hair,0.9653805494308472
,little,0.9506327509880066
,looking,0.9501854777336121
,young,0.9496248960494995
,domestic,0.9473353624343872
,whisker,0.9456720352172852
,downy,0.9444926977157593
,nature,0.9348342418670654
,adorable,0.9343223571777344
https://scontent-sit4-1.cdninstagram.com/t51.2885-15/e35/13534221_264783197217828_1394706263_n.jpg,people,0.9769262075424194
,nightlife,0.971683144569397
,party,0.9709135293960571
,bar,0.961402416229248
,club,0.9586750864982605
,drink,0.9438386559486389
,celebration,0.9327304363250732
,fun,0.9195855855941772
,glass,0.9085350632667542
,cocktail,0.8840937614440918
,music,0.8793585300445557
,festival,0.8771522045135498
,man,0.8740251064300537
,street,0.8727234601974487
,liquor,0.8531715869903564
,woman,0.8408423662185669
,city,0.8175616264343262
,color,0.797324538230896
,club,0.7918792963027954
,cool,0.7789306044578552
https://scontent-sit4-1.cdninstagram.com/t51.2885-15/e35/13298031_1822830841286324_140185719_n.jpg,people,0.9890320301055908
,city,0.954005241394043
,tourism,0.9208942651748657
,group,0.9183320999145508
,ceremony,0.917506754398346
,tourist,0.9100074172019958
,festival,0.9080427885055542
,vehicle,0.9019725322723389
,military,0.8950495719909668
,man,0.8919181823730469
,many,0.8866801261901855
,travel,0.8762921094894409
,celebration,0.8371889591217041
,religion,0.8334238529205322
,landscape,0.8295235633850098
,street,0.8078030347824097
,aircraft,0.8046897649765015
,outdoors,0.792076826095581
,war,0.7833784818649292
,recreation,0.7780368328094482
https://scontent-sit4-1.cdninstagram.com/t51.2885-15/e35/13658394_1736134103342097_1446725319_n.jpg,cat,0.9973810911178589
,cute,0.9965596199035645
,animal,0.9964954853057861
,pet,0.9896926879882812
,fur,0.9885578155517578
,kitten,0.9881174564361572
,mammal,0.987360954284668
,eye,0.9853197932243347
,portrait,0.9848466515541077
,domestic,0.9840714931488037
,young,0.9732418060302734
,adorable,0.9686802625656128
,whisker,0.9655925035476685
,furry,0.9579182863235474
,looking,0.957182765007019
,little,0.9562792778015137
,tabby,0.9527603387832642
,downy,0.9456309080123901
,funny,0.9389127492904663
,curiosity,0.9386184215545654
https://scontent-sit4-1.cdninstagram.com/t51.2885-15/e35/13413223_1218247254853595_847880312_n.jpg,shopping,0.9477794766426086
,International,0.932154655456543
,city,0.9309009313583374
,travel,0.9268104434013367
,commerce,0.919277012348175
,business,0.9100120067596436
,exhibition,0.9072902798652649
,mall,0.8994152545928955
,no person,0.880159854888916
,stock,0.8756497502326965
,shop,0.8581082820892334
,industry,0.8468859195709229
,modern,0.8443033695220947
,tourism,0.843125581741333
,tourist,0.8221691846847534
,vehicle,0.8139641880989075
,market,0.8112645149230957
,competition,0.8110572099685669
,transportation system,0.8102519512176514
,indoors,0.8019909858703613
https://scontent-sit4-1.cdninstagram.com/t51.2885-15/e35/13658536_259761897739208_2133370058_n.jpg,cat,0.9992820024490356
,cute,0.9972269535064697
,pet,0.9961778521537781
,eye,0.9961013793945312
,kitten,0.995378851890564
,fur,0.9933780431747437
,domestic,0.9930864572525024
,portrait,0.9918266534805298
,animal,0.9874076247215271
,whisker,0.9857861995697021
,hair,0.976343035697937
,young,0.972029447555542
,tabby,0.9703452587127686
,downy,0.9637757539749146
,grey,0.9627646803855896
,mammal,0.9611588716506958
,staring,0.9610369205474854
,adorable,0.9580453634262085
,looking,0.9567974209785461
,sit,0.9555861949920654
https://scontent-sit4-1.cdninstagram.com/t51.2885-15/e35/13385697_1242512505782108_180644196_n.jpg,no person,0.9298073053359985
,business,0.9260801076889038
,industry,0.878049373626709
,text,0.8615570068359375
,display,0.8267924785614014
,commerce,0.8250846266746521
,stock,0.8086184859275818
,people,0.8058423399925232
,city,0.8000720143318176
,technology,0.7861665487289429
,sign,0.767751932144165
,computer,0.7554821372032166
,data,0.7510902285575867
,market,0.7483090162277222
,paper,0.7466601729393005
,competition,0.7428151965141296
,internet,0.7386797666549683
,communication,0.7270313501358032
,desktop,0.7222157716751099
,vehicle,0.7091748714447021
https://scontent-sit4-1.cdninstagram.com/t51.2885-15/e35/13651944_1701704706747040_2033401635_n.jpg,cat,0.9999179840087891
,kitten,0.99940025806427
,animal,0.996091365814209
,pet,0.9960669279098511
,cute,0.9949365854263306
,domestic,0.9946697354316711
,tabby,0.9935474395751953
,fur,0.9925506711006165
,mammal,0.9900827407836914
,whisker,0.9827560186386108
,portrait,0.9765802621841431
,purebred,0.9756088852882385
,eye,0.9735403060913086
,little,0.9695155024528503
,furry,0.9667081832885742
,baby,0.9599714875221252
,downy,0.9593980312347412
,adorable,0.9586116075515747
,young,0.9581618905067444
,breed,0.9456154704093933
https://scontent-sit4-1.cdninstagram.com/t51.2885-15/e35/13395063_498094863729914_1327357024_n.jpg,art,0.9943690299987793
,painting,0.9923419952392578
,wear,0.9863282442092896
,people,0.9841187000274658
,veil,0.9675245881080627
,group,0.9522876739501953
,print,0.9445450305938721
,presentation,0.9430123567581177
,religion,0.9414211511611938
,no person,0.9348379373550415
,one,0.9340298175811768
,illustration,0.9260447025299072
,design,0.904807984828949
,god,0.8755793571472168
,decoration,0.8629195690155029
,adult,0.8621074557304382
,artistic,0.851841926574707
,ancient,0.8502708673477173
,symbol,0.8489487171173096
,container,0.8367846608161926
https://scontent-sit4-1.cdninstagram.com/t51.2885-15/e35/13298013_567860686708667_978845355_n.jpg,man,0.9531487226486206
,robot,0.9487780928611755
,grass,0.936296820640564
,recreation,0.9355614185333252
,fun,0.9157000780105591
,people,0.8998327255249023
,outdoors,0.8923784494400024
,summer,0.8895664215087891
,nature,0.8649269342422485
,leisure,0.8446317911148071
,garden,0.8271452784538269
,lawn,0.8015252947807312
,sport,0.8008913397789001
,protection,0.7802481651306152
,park,0.7759460806846619
,fiction,0.7693493366241455
,artificial,0.7587878704071045
,travel,0.743306577205658
,future,0.7410043478012085
,helmet,0.7380480766296387
https://scontent-sit4-1.cdninstagram.com/t51.2885-15/e35/13298203_798756830224697_1916591397_n.jpg,people,0.9957786798477173
,one,0.9911782741546631
,adult,0.9824694991111755
,water,0.9814504384994507
,tree,0.9738483428955078
,woman,0.9687579274177551
,travel,0.959105372428894
,umbrella,0.9586291313171387
,flower,0.9571713209152222
,outdoors,0.956558346748352
,recreation,0.953086256980896
,lake,0.9468679428100586
,veil,0.9329630136489868
,city,0.926417350769043
,art,0.92578125
,garden,0.9228998422622681
,architecture,0.9217129945755005
,man,0.9185324907302856
,sculpture,0.9161905646324158
,daylight,0.9157096147537231
https://scontent-sit4-1.cdninstagram.com/t51.2885-15/e35/13151317_637785466385294_1131231876_n.jpg,sketch,0.9465999603271484
,illustration,0.9426926374435425
,people,0.9292839765548706
,vector,0.9290761351585388
,child,0.9097931981086731
,man,0.9091783761978149
,uniform,0.8674447536468506
,movie,0.857751727104187
,graphic,0.8559410572052002
,woman,0.853385329246521
,retro,0.8488237857818604
,wear,0.8387582302093506
,bill,0.8355787992477417
,art,0.8039165139198303
,design,0.8018506169319153
,lid,0.79425048828125
,boy,0.7816426753997803
,costume,0.7761280536651611
,recreation,0.7696248292922974
,one,0.751631498336792
https://scontent-sit4-1.cdninstagram.com/t51.2885-15/e35/13649208_629012070588251_1102365245_n.jpg,cat,0.9997024536132812
,animal,0.9967024326324463
,mammal,0.9915447235107422
,kitten,0.9913241863250732
,fur,0.9901590943336487
,cute,0.9880473613739014
,portrait,0.9861080646514893
,pet,0.9829630851745605
,eye,0.9750955104827881
,whisker,0.9659051299095154
,carnivore,0.9583142995834351
,tabby,0.9572317004203796
,domestic,0.9447707533836365
,furry,0.9438211917877197
,little,0.9383633136749268
,young,0.9301630258560181
,hair,0.9178568124771118
,predator,0.9170746207237244
,looking,0.9031713008880615
,staring,0.9017765522003174
