url,class,score
https://scontent.cdninstagram.com/t51.2885-15/e35/13627966_1711933489047193_457978133_n.jpg,wood,0.9672096967697144
,no person,0.9573920369148254
,coffee,0.9359229803085327
,hot,0.9350124597549438
,wooden,0.9251659512519836
,food,0.9125621318817139
,drink,0.911821722984314
,desktop,0.9037643671035767
,table,0.8964424133300781
,cup,0.8906390070915222
,espresso,0.888592004776001
,dark,0.8495718836784363
,caffeine,0.8428651094436646
,mug,0.8137267827987671
,dawn,0.8088437914848328
,saucer,0.8016911745071411
,breakfast,0.7966052293777466
,sugar,0.7864470481872559
,business,0.7822810411453247
,traditional,0.7811918258666992
https://scontent.cdninstagram.com/t51.2885-15/s750x750/sh0.08/e35/13649206_1753219614934715_227021949_n.jpg,text,0.988285481929779
,sign,0.9874534606933594
,communication,0.9638329744338989
,symbol,0.9628682136535645
,business,0.9526321887969971
,internet,0.9514452219009399
,technology,0.9470248818397522
,horizontal,0.9267096519470215
,calligrapher,0.9212703704833984
,computer,0.9057576656341553
,alphabet,0.8974534273147583
,image,0.8685293793678284
,calligraphy,0.8549167513847351
,data,0.8488457798957825
,industry,0.846640408039093
,calendar,0.8337967395782471
,desktop,0.824680507183075
,writing,0.8132646083831787
,display,0.8127388954162598
,finance,0.8115510940551758
https://scontent.cdninstagram.com/t51.2885-15/e35/13557177_916118625164334_1307248678_n.jpg,business,0.992774248123169
,man,0.9722303152084351
,people,0.9710036516189575
,technology,0.9636834263801575
,portrait,0.9499669075012207
,modern,0.9257470369338989
,communication,0.922775387763977
,office,0.9072907567024231
,indoors,0.9064778089523315
,adult,0.8970381021499634
,television,0.89121013879776
,person,0.8898041248321533
,light,0.8845893740653992
,computer,0.8810358047485352
,success,0.8695659637451172
,screen,0.8574941158294678
,confidence,0.8396302461624146
,corporate,0.8389343023300171
,suit,0.8273067474365234
,actor,0.825271487236023
https://scontent.cdninstagram.com/t51.2885-15/s320x320/e35/13551537_187266558342988_1063470643_n.jpg,people,0.9952595233917236
,adult,0.9939396381378174
,portrait,0.992879331111908
,one,0.9898207187652588
,woman,0.960791826248169
,man,0.9374123811721802
,recreation,0.9271546602249146
,wear,0.9201292991638184
,sit,0.8516631126403809
,happiness,0.8352546691894531
,religion,0.8238963484764099
,light,0.8211408853530884
,painting,0.8052842020988464
,facial expression,0.7819451093673706
,administration,0.7800717353820801
,chair,0.7777522206306458
,girl,0.7741163969039917
,water,0.7734448909759521
,leader,0.7672194242477417
,travel,0.7568971514701843
https://scontent.cdninstagram.com/t51.2885-15/s750x750/sh0.08/e35/13642959_925632337565791_1264582383_n.jpg,business,0.9542703628540039
,people,0.9470311403274536
,communication,0.9463984966278076
,indoors,0.9449673891067505
,adult,0.9352779984474182
,symbol,0.9345884323120117
,horizontal,0.92830491065979
,technology,0.9176427125930786
,sign,0.9092996716499329
,internet,0.9059611558914185
,text,0.9038827419281006
,image,0.8827853202819824
,computer,0.880264401435852
,illustration,0.8742556571960449
,simplicity,0.8352494835853577
,World Wide Web,0.8256295919418335
,connection,0.8047217130661011
,woman,0.7935012578964233
,man,0.7661110162734985
,finance,0.7321637868881226
https://scontent.cdninstagram.com/t51.2885-15/e35/13561652_823599177740789_1613414084_n.jpg,indoors,0.9930383563041687
,adult,0.9877667427062988
,people,0.9873776435852051
,horizontal,0.9717339277267456
,vertical,0.9702540636062622
,woman,0.964574933052063
,communication,0.9555199146270752
,sit,0.9442546367645264
,table,0.9424511194229126
,technology,0.9344803094863892
,chair,0.9321520328521729
,business,0.9298765659332275
,relaxation,0.9211745858192444
,togetherness,0.9071158170700073
,man,0.9048426151275635
,side view,0.9012371301651001
,sitting,0.8997151851654053
,illustration,0.8917523622512817
,easy chair,0.8805966377258301
,connection,0.866910994052887
https://scontent.cdninstagram.com/t51.2885-15/e35/13643563_1696476727281988_294286238_n.jpg,navigation,0.9945005178451538
,template,0.9908269643783569
,World Wide Web,0.9894387722015381
,site,0.9852913618087769
,stripe,0.9817933440208435
,layout,0.9796115756034851
,interface,0.974021852016449
,user,0.9681466221809387
,label,0.9673208594322205
,form,0.9639341831207275
,banner,0.9621605277061462
,login,0.9620497226715088
,graph,0.9619424343109131
,page,0.9615527391433716
,sandbank,0.9592702984809875
,vector,0.9443984031677246
,information,0.9419334530830383
,check,0.9368182420730591
,menu,0.9366140365600586
,presentation,0.9207255840301514
https://scontent.cdninstagram.com/t51.2885-15/s640x640/e15/13473095_1713053342266533_1402491845_n.jpg,adult,0.9920428395271301
,people,0.9915248155593872
,portrait,0.9833361506462097
,woman,0.9681776762008667
,indoors,0.9620490074157715
,competition,0.9577120542526245
,man,0.9542441368103027
,performance,0.9456626176834106
,music,0.9353044033050537
,celebration,0.9119815826416016
,wear,0.8846222162246704
,enjoyment,0.8800483345985413
,facial expression,0.8775275945663452
,sports fan,0.8638442158699036
,child,0.8616917729377747
,friendship,0.860659122467041
,musician,0.8450160026550293
,sport,0.8258333206176758
,singer,0.8183478116989136
,athlete,0.8129674196243286
https://scontent.cdninstagram.com/t51.2885-15/s750x750/sh0.08/e35/13551635_647728218711052_1280106503_n.jpg,text,0.9789702892303467
,calligrapher,0.9743982553482056
,business,0.9557986855506897
,time,0.9498012065887451
,number,0.9476169347763062
,vertical,0.9434818029403687
,calendar,0.9355924129486084
,communication,0.9172041416168213
,calligraphy,0.9162905812263489
,symbol,0.9085915088653564
,illustration,0.8988614082336426
,desktop,0.8887679576873779
,technology,0.8874772787094116
,reminder,0.8790023326873779
,rudiment,0.8785863518714905
,horizontal,0.8616894483566284
,finance,0.8541284799575806
,art,0.8464890718460083
,alphabet,0.8403091430664062
,annual,0.8392583131790161
https://scontent.cdninstagram.com/t51.2885-15/e35/13561790_277753072579301_1286571302_n.jpg,woman,0.9445290565490723
,man,0.9430286884307861
,people,0.9383017420768738
,family,0.9079845547676086
,outdoors,0.9047747850418091
,fun,0.8448431491851807
,love,0.8408030271530151
,togetherness,0.819251298904419
,adult,0.8130397796630859
,nature,0.804847002029419
,romance,0.7934529781341553
,summer,0.782063364982605
,freedom,0.7728316187858582
,relaxation,0.762971818447113
,horizontal,0.7605089545249939
,elderly,0.7586508989334106
,street,0.7490898370742798
,celebration,0.7457356452941895
,leisure,0.7394298315048218
,two,0.7362992763519287
https://scontent.cdninstagram.com/t51.2885-15/s480x480/e35/13636164_1750860801792930_843722420_n.jpg,man,0.9748390316963196
,movie,0.9537514448165894
,indoors,0.9521249532699585
,business,0.9494165182113647
,wear,0.9408671855926514
,people,0.9320857524871826
,fame,0.9030565023422241
,recreation,0.8916034698486328
,red carpet,0.8890788555145264
,actress,0.8870999813079834
,portrait,0.8860193490982056
,adult,0.8716789484024048
,festival,0.8632928133010864
,fashion,0.8555768728256226
,actor,0.8270416259765625
,arrival,0.8191238641738892
,editorial,0.8061060309410095
,one,0.8002158999443054
,fashionable,0.7944771647453308
,outerwear,0.7685649394989014
https://scontent.cdninstagram.com/t51.2885-15/e35/13534245_1739287863010790_1442813539_n.jpg,food,0.9945370554924011
,no person,0.9850877523422241
,sweet,0.9736701846122742
,chocolate,0.9722887277603149
,sugar,0.9637539386749268
,candy,0.9592223167419434
,fruit,0.9251549243927002
,delicious,0.905126690864563
,refreshment,0.903891921043396
,tasty,0.895683765411377
,wood,0.8936749696731567
,nut,0.8891192078590393
,confection,0.8880943059921265
,epicure,0.8831467628479004
,dark,0.8774364590644836
,cake,0.8768798112869263
,still life,0.8719419240951538
,meal,0.8672115802764893
,cream,0.8611782789230347
,Christmas,0.8414655923843384
https://scontent.cdninstagram.com/t51.2885-15/e35/13551735_1183448461697627_497298363_n.jpg,people,0.9909221529960632
,headwear,0.9840351343154907
,portrait,0.9807009696960449
,pride,0.9782123565673828
,togetherness,0.9745932817459106
,child,0.959404706954956
,outdoors,0.9581689834594727
,cheerful,0.9569151401519775
,man,0.9537248015403748
,happiness,0.9483928680419922
,vertical,0.9463326930999756
,adult,0.9459859132766724
,horizontal,0.9201481342315674
,lid,0.9070347547531128
,enjoyment,0.9040431380271912
,family,0.88487708568573
,celebration,0.877561092376709
,bonding,0.8753347992897034
,woman,0.8665635585784912
,friendship,0.8623661994934082
https://scontent.cdninstagram.com/t51.2885-15/s750x750/sh0.08/e35/13402674_1747687595507513_701768979_n.jpg,text,0.9908618927001953
,sign,0.9597219228744507
,business,0.9595227241516113
,communication,0.9464807510375977
,bill,0.9344207048416138
,illustration,0.909937858581543
,desktop,0.909497082233429
,vertical,0.9084383845329285
,symbol,0.9011310338973999
,sign,0.8867096900939941
,horizontal,0.8526245951652527
,number,0.8440431356430054
,paper,0.8404794335365295
,finance,0.8389129638671875
,message,0.8276665806770325
,time,0.8220764398574829
,data,0.818217933177948
,commerce,0.7980713248252869
,letter,0.7968541383743286
,internet,0.7962814569473267
https://scontent.cdninstagram.com/t51.2885-15/s750x750/sh0.08/e35/13402240_906612772781739_1422231982_n.jpg,illustration,0.9682639241218567
,communication,0.9522484540939331
,vertical,0.9343280792236328
,technology,0.9331138134002686
,text,0.9322240352630615
,business,0.9132054448127747
,symbol,0.9017165303230286
,indoors,0.9016879796981812
,calligrapher,0.8912873268127441
,sign,0.8763891458511353
,calligraphy,0.8693290948867798
,pattern,0.8690311908721924
,image,0.8671989440917969
,art,0.8571240901947021
,horizontal,0.8563060760498047
,bill,0.8551236391067505
,people,0.8234511613845825
,finance,0.8135735988616943
,abstract,0.7880136370658875
,number,0.7871907949447632
https://scontent.cdninstagram.com/t51.2885-15/e15/13561530_893701307424893_1680508730_n.jpg,technology,0.9911898374557495
,computer,0.9784470796585083
,communication,0.96385657787323
,illuminated,0.962867021560669
,internet,0.9623761773109436
,connection,0.9430752992630005
,science,0.9343307018280029
,futuristic,0.9257514476776123
,business,0.9188268780708313
,light,0.902090847492218
,people,0.8910610675811768
,nightlife,0.890953540802002
,modern,0.8689548969268799
,club,0.8680591583251953
,design,0.8495650291442871
,abstract,0.8327310085296631
,data,0.8307846784591675
,reflection,0.8293502330780029
,computer network,0.8247841596603394
,celebration,0.8216007351875305
https://scontent.cdninstagram.com/t51.2885-15/e15/13534581_1687871181466383_1187435085_n.jpg,nightlife,0.9956737756729126
,music,0.9909220933914185
,performance,0.9903749227523804
,party,0.9827322959899902
,concert,0.9773328304290771
,club,0.977323055267334
,club,0.9681085348129272
,stage,0.965040385723114
,disco,0.9613347053527832
,celebration,0.9492458701133728
,fun,0.948043167591095
,people,0.9446703791618347
,disco,0.9395936131477356
,musician,0.9348177909851074
,band,0.9327771663665771
,light,0.9269171357154846
,festival,0.9188885688781738
,audience,0.9135740995407104
,illuminated,0.9135310053825378
,sound,0.9067071676254272
https://scontent.cdninstagram.com/t51.2885-15/sh0.08/e35/p640x640/13534550_322188064779429_1230676139_n.jpg,vertical,0.9989666938781738
,text,0.985166072845459
,communication,0.9826391339302063
,people,0.9780253171920776
,indoors,0.9688084125518799
,adult,0.961895227432251
,business,0.959994912147522
,technology,0.9467380046844482
,education,0.9156076908111572
,creativity,0.9072051048278809
,writing,0.8995136022567749
,side view,0.8973987102508545
,focus,0.8816227912902832
,preparation,0.8772969841957092
,woman,0.8739527463912964
,paper,0.8689401745796204
,connection,0.8600592613220215
,option,0.7759219408035278
,image,0.7724263668060303
,solution,0.7629750967025757
https://scontent.cdninstagram.com/t51.2885-15/e35/13534189_623533014490628_1027347652_n.jpg,group,0.9824166893959045
,man,0.9814234972000122
,people,0.9666447043418884
,three,0.9498344659805298
,four,0.947784423828125
,business,0.9285507202148438
,leader,0.9277704954147339
,adult,0.9148598313331604
,portrait,0.8992583751678467
,group,0.8734055161476135
,administration,0.8503386974334717
,indoors,0.8390964269638062
,woman,0.832460880279541
,wear,0.8201899528503418
,five,0.8188855051994324
,religion,0.8149828910827637
,several,0.7955111265182495
,outfit,0.7731016874313354
,actor,0.7691786289215088
,sadness,0.7305996417999268
https://scontent.cdninstagram.com/t51.2885-15/s480x480/e35/13534421_296987070639192_1159508013_n.jpg,people,0.9920544028282166
,adult,0.9771226644515991
,woman,0.9699225425720215
,fun,0.9669636487960815
,wear,0.9610730409622192
,man,0.9606838226318359
,group,0.9577087163925171
,festival,0.9527319669723511
,girl,0.9327518939971924
,group,0.9327195882797241
,child,0.9249802827835083
,recreation,0.9226094484329224
,celebration,0.9091554880142212
,friendship,0.9009698629379272
,happiness,0.8993379473686218
,enjoyment,0.8889589309692383
,travel,0.8846957683563232
,motion,0.8800520896911621
,lifestyle,0.8757809400558472
,dancing,0.8657431602478027
https://scontent.cdninstagram.com/t51.2885-15/e35/13413409_1619447111705573_1020279401_n.jpg,people,0.9712386131286621
,city,0.9605089426040649
,man,0.9528553485870361
,crowd,0.9481661319732666
,many,0.9432560205459595
,woman,0.9428192377090454
,street,0.9377917647361755
,group,0.9166361689567566
,adult,0.8597204685211182
,editorial,0.8584813475608826
,commerce,0.8426040410995483
,event,0.8331663608551025
,competition,0.8260915279388428
,International,0.8205341100692749
,vehicle,0.8185757994651794
,business,0.8181334733963013
,stock,0.8054239749908447
,race,0.801612138748169
,market,0.7887916564941406
,portrait,0.7850713133811951
https://scontent.cdninstagram.com/t51.2885-15/e35/13437306_300028443664743_1249341087_n.jpg,administration,0.9900688529014587
,leader,0.9856007099151611
,politician,0.9845097064971924
,meeting,0.9825583696365356
,chair,0.9824317693710327
,people,0.9685032963752747
,election,0.9560272097587585
,portrait,0.945225715637207
,group,0.9399558305740356
,group,0.9343970417976379
,league,0.9302231073379517
,adult,0.9299823045730591
,stump,0.9229642152786255
,democracy,0.9118893146514893
,business,0.9110464453697205
,home,0.8852104544639587
,candidate,0.8796799182891846
,man,0.8756895065307617
,International,0.8741844892501831
,presidential,0.8735371828079224
https://scontent.cdninstagram.com/t51.2885-15/s750x750/sh0.08/e35/13534431_552951188221737_1930978788_n.jpg,adult,0.9958323836326599
,group,0.9945485591888428
,wear,0.9943602085113525
,woman,0.9900053143501282
,facial expression,0.9873496890068054
,people,0.9840402603149414
,group,0.9755561351776123
,man,0.9722446203231812
,portrait,0.9630643129348755
,fashionable,0.959199070930481
,dress,0.9325549602508545
,three,0.9315224289894104
,pants,0.924383282661438
,two,0.9240533709526062
,outfit,0.9175965785980225
,dancing,0.9121114015579224
,four,0.9077762961387634
,fashion,0.9071331024169922
,performance,0.9036939144134521
,music,0.9016808271408081
https://scontent.cdninstagram.com/t51.2885-15/e35/13573424_1118527144898560_1568638353_n.jpg,adult,0.9790818691253662
,business,0.9625763893127441
,chair,0.9604108333587646
,people,0.9590169787406921
,furniture,0.9577939510345459
,indoors,0.9575222134590149
,room,0.9369439482688904
,man,0.9360846877098083
,one,0.9316000938415527
,technology,0.930334746837616
,office,0.9285866022109985
,computer,0.9218469858169556
,portrait,0.9207628965377808
,leader,0.899213433265686
,window,0.8919110298156738
,sit,0.8665848970413208
,facial expression,0.8529687523841858
,table,0.8528550267219543
,league,0.8485034704208374
,desk,0.8429029583930969
https://scontent.cdninstagram.com/t51.2885-15/s640x640/e15/13561664_717735535044422_635141203_n.jpg,performance,0.9881084561347961
,music,0.9826322793960571
,concert,0.9764492511749268
,musician,0.9759032726287842
,people,0.9752426147460938
,singer,0.9647045135498047
,festival,0.9486376047134399
,stage,0.9461454153060913
,band,0.9154131412506104
,audience,0.9026731252670288
,light,0.8839015960693359
,adult,0.873961329460144
,group,0.8720352649688721
,one,0.863716185092926
,religion,0.8522788286209106
,man,0.8508245348930359
,leader,0.8474066257476807
,election,0.8369729518890381
,theater,0.8193185329437256
,recreation,0.7966320514678955
https://scontent.cdninstagram.com/t51.2885-15/e35/13561512_239269529792271_221851875_n.jpg,indoors,0.9811275005340576
,room,0.9799875617027283
,people,0.9683129787445068
,woman,0.9542226791381836
,adult,0.9424868822097778
,family,0.9409695267677307
,girl,0.9336782693862915
,furniture,0.9331130385398865
,couple,0.9248690605163574
,bedroom,0.9241535663604736
,hotel,0.9091808795928955
,two,0.9079418778419495
,portrait,0.9023456573486328
,man,0.9006050825119019
,bed,0.8981379866600037
,sofa,0.8980295062065125
,table,0.8973972797393799
,love,0.888187050819397
,luxury,0.8871849179267883
,window,0.8796384334564209
https://scontent.cdninstagram.com/t51.2885-15/e35/13398365_836020593195731_1951897609_n.jpg,water,0.9681097269058228
,travel,0.954253077507019
,woman,0.9439787268638611
,sea,0.9428199529647827
,beach,0.9387723207473755
,people,0.9377075433731079
,seashore,0.9259628057479858
,facial expression,0.9225177764892578
,ocean,0.9083871841430664
,enjoyment,0.9071733355522156
,daylight,0.8980669975280762
,outdoors,0.8927215337753296
,leisure,0.8919318914413452
,vacation,0.8869536519050598
,happiness,0.8721001148223877
,recreation,0.8596052527427673
,togetherness,0.852027177810669
,summer,0.8517134189605713
,adult,0.824857234954834
,fun,0.820744514465332
https://scontent.cdninstagram.com/t51.2885-15/s640x640/e15/13556707_1630552277262216_392866308_n.jpg,music,0.9922800064086914
,performance,0.9897430539131165
,concert,0.9850630760192871
,stage,0.9591693878173828
,celebration,0.9575889706611633
,singer,0.9520487785339355
,musician,0.947495698928833
,festival,0.945569634437561
,audience,0.940122663974762
,band,0.9382364153862
,light,0.909699559211731
,party,0.8887296915054321
,people,0.872816801071167
,club,0.8696991205215454
,nightlife,0.8611747026443481
,energy,0.8586580753326416
,disco,0.8426288366317749
,pop,0.8282212018966675
,dancing,0.8135806322097778
,guitarist,0.7990893125534058
https://scontent.cdninstagram.com/t51.2885-15/e35/13388502_283627078693479_385065246_n.jpg,adult,0.9856594800949097
,man,0.9806649684906006
,people,0.9481015801429749
,business,0.9450555443763733
,group,0.933467447757721
,indoors,0.932845950126648
,woman,0.9192726612091064
,wear,0.9140688180923462
,meeting,0.9074850082397461
,cooperation,0.8978147506713867
,industry,0.8965012431144714
,technology,0.8905565738677979
,employee,0.8887447118759155
,room,0.8704261779785156
,facial expression,0.8700718283653259
,commerce,0.8637340068817139
,teamwork,0.8596035242080688
,eyewear,0.8594738245010376
,office,0.852185845375061
,portrait,0.8251497745513916
https://scontent.cdninstagram.com/t51.2885-15/e35/13408933_1785627738335546_1958769706_n.jpg,portrait,0.997955322265625
,people,0.9888297319412231
,friendship,0.9870010614395142
,woman,0.9853845834732056
,group,0.9792798161506653
,adult,0.9758944511413574
,education,0.9758419990539551
,university,0.9747726917266846
,school,0.9735239148139954
,youth,0.9614872336387634
,laughing,0.9605510234832764
,cheerful,0.9588479995727539
,student,0.9587706923484802
,happiness,0.9541794061660767
,business,0.9505966901779175
,adolescent,0.93994140625
,child,0.930042028427124
,bill,0.9265899658203125
,finance,0.9056602716445923
,unity,0.8970379829406738
https://scontent.cdninstagram.com/t51.2885-15/e35/13628167_583267168513153_1422172982_n.jpg,woman,0.9869459867477417
,togetherness,0.9838783740997314
,man,0.9788573384284973
,love,0.9702362418174744
,fine-looking,0.9671061038970947
,two,0.9661413431167603
,affection,0.9593850374221802
,isolated,0.9561002254486084
,romance,0.9481589794158936
,wear,0.9415645599365234
,people,0.9340798854827881
,looking,0.9226419925689697
,eyeglasses,0.9218705892562866
,embrace,0.9041557908058167
,adult,0.8999157547950745
,facial expression,0.895371675491333
,partnership,0.8925065994262695
,contemporary,0.8913941383361816
,business,0.8843729496002197
,happiness,0.8680242896080017
https://scontent.cdninstagram.com/t51.2885-15/s640x640/sh0.08/e35/13628101_294330580920181_442186747_n.jpg,performance,0.9925993084907532
,concert,0.9904006719589233
,music,0.9901297092437744
,musician,0.9834164977073669
,singer,0.9832711219787598
,festival,0.9684164524078369
,portrait,0.9654419422149658
,stage,0.9567893743515015
,people,0.929189920425415
,one,0.9214044809341431
,man,0.8908470869064331
,adult,0.831079363822937
,pop,0.8303244709968567
,recreation,0.8186752796173096
,band,0.807991087436676
,rap,0.7763234972953796
,film festival,0.7380198240280151
,fashion,0.7124012112617493
,wear,0.7087574005126953
,club,0.6647553443908691
https://scontent.cdninstagram.com/t51.2885-15/s750x750/sh0.08/e35/13551776_1769093896642603_1674104970_n.jpg,illustration,0.9846996665000916
,vector,0.9619464874267578
,desktop,0.9533173441886902
,pattern,0.925152063369751
,design,0.9242221117019653
,picture frame,0.92298424243927
,decoration,0.9187495708465576
,abstract,0.9165745973587036
,number,0.9120533466339111
,text,0.9015395641326904
,shape,0.8824456930160522
,monthly,0.8690385818481445
,business,0.8619611263275146
,calendar,0.8600547313690186
,horizontal,0.8518573045730591
,graphic,0.8482005596160889
,template,0.8393775820732117
,time,0.8034089803695679
,banner,0.8009681701660156
,annual,0.7932158708572388
https://scontent.cdninstagram.com/t51.2885-15/s750x750/sh0.08/e35/13534041_135643710193734_1349676275_n.jpg,movie,0.9894628524780273
,actress,0.9873375296592712
,red carpet,0.9872148036956787
,actor,0.9806152582168579
,recreation,0.9805237054824829
,film festival,0.9788105487823486
,festival,0.9780949950218201
,ceremony,0.9763544201850891
,people,0.9577412605285645
,portrait,0.9546067714691162
,business,0.9402285218238831
,singer,0.93312668800354
,editorial,0.932689905166626
,woman,0.9317317008972168
,cinema,0.9312167167663574
,award,0.9240477085113525
,performance,0.9138325452804565
,adult,0.9108419418334961
,wear,0.9086401462554932
,theater,0.906853437423706
https://scontent.cdninstagram.com/t51.2885-15/e35/13556950_1766442103602004_1383597130_n.jpg,juice,0.9955017566680908
,no person,0.9944372177124023
,cold,0.9939508438110352
,glass,0.9937480688095093
,drink,0.9933823347091675
,ice,0.9899581670761108
,fruit,0.976539671421051
,cocktail,0.9741809368133545
,tropical,0.9563688039779663
,juicy,0.9372683763504028
,liquid,0.934795618057251
,smoothie,0.9237736463546753
,cool,0.9197484254837036
,thirst,0.913569450378418
,liquor,0.9126037359237671
,refreshment,0.8953861594200134
,straw,0.8858468532562256
,apple,0.8842179179191589
,lemonade,0.8722909688949585
,pineapple,0.8691297173500061
https://scontent.cdninstagram.com/t51.2885-15/s480x480/e35/13525508_1149944975070430_1515820184_n.jpg,people,0.988166332244873
,outdoors,0.9871658086776733
,togetherness,0.9861235618591309
,flower,0.9821348190307617
,tree,0.9815771579742432
,grass,0.973633885383606
,child,0.9616382122039795
,adult,0.9575200080871582
,flora,0.9572141766548157
,woman,0.9547011852264404
,park,0.948078989982605
,man,0.9466904401779175
,nature,0.9460800886154175
,horizontal,0.9421152472496033
,lawn,0.9287629127502441
,friendship,0.9061188697814941
,garden,0.8761641979217529
,happiness,0.8676463961601257
,cheerful,0.8629088401794434
,horizontal,0.8508712649345398
https://scontent.cdninstagram.com/t51.2885-15/e35/13628489_290068814681413_353772496_n.jpg,people,0.9916725158691406
,woman,0.9890581369400024
,group,0.9885512590408325
,music,0.977542519569397
,religion,0.9765039682388306
,facial expression,0.9726442694664001
,man,0.961835503578186
,art,0.9515495300292969
,adult,0.9503828287124634
,spirituality,0.9427083730697632
,performance,0.9427011013031006
,stage,0.921682596206665
,dancing,0.9204881191253662
,recreation,0.9148058891296387
,musician,0.9052598476409912
,many,0.8796980381011963
,wear,0.8745841979980469
,illustration,0.864621639251709
,concert,0.8636988401412964
,pop,0.8627278804779053
https://scontent.cdninstagram.com/t51.2885-15/sh0.08/e35/p640x640/13652095_155193511557433_615246562_n.jpg,people,0.9858781099319458
,indoors,0.9793323278427124
,portrait,0.9525314569473267
,horizontal,0.9419702291488647
,man,0.9406747817993164
,adult,0.9368888139724731
,business,0.8972356915473938
,vertical,0.8769267797470093
,famous,0.8605122566223145
,event,0.8166441321372986
,serious,0.8164924383163452
,fame,0.8106793165206909
,contemplation,0.7956650257110596
,headshot,0.7625004053115845
,person,0.761142373085022
,communication,0.7271345257759094
,fashion,0.7159774303436279
,confidence,0.7087810039520264
,sunglasses,0.6959323883056641
,technology,0.6858170032501221
https://scontent.cdninstagram.com/t51.2885-15/e35/13551568_1226756520670340_2110942682_n.jpg,child,0.9967672824859619
,people,0.9918781518936157
,outdoors,0.9901177883148193
,horizontal,0.9716063141822815
,fun,0.9712128639221191
,happiness,0.955502986907959
,adult,0.953398585319519
,portrait,0.9351575374603271
,cheerful,0.9295373558998108
,vertical,0.9099680185317993
,enjoyment,0.9041213989257812
,toy,0.9013929963111877
,innocence,0.8980197906494141
,grass,0.8974512815475464
,tree,0.8918717503547668
,celebration,0.8916007280349731
,playground,0.8904104828834534
,park,0.8891238570213318
,game,0.8796072006225586
,summer,0.8727197647094727
https://scontent.cdninstagram.com/t51.2885-15/s750x750/sh0.08/e35/13549589_712476622227180_244474074_n.jpg,people,0.9879589080810547
,adult,0.9789800643920898
,woman,0.9754688143730164
,seat,0.9566149115562439
,portrait,0.9556057453155518
,indoors,0.9537258148193359
,one,0.9533144235610962
,music,0.9495431184768677
,wear,0.9166872501373291
,sit,0.9115206003189087
,room,0.9109219312667847
,man,0.8966716527938843
,facial expression,0.8655259013175964
,furniture,0.8645231127738953
,musician,0.8608229160308838
,chair,0.857054591178894
,vehicle,0.8415490388870239
,education,0.8197289109230042
,leather,0.8162299394607544
,singer,0.8122804164886475
https://scontent.cdninstagram.com/t51.2885-15/e35/13534291_202704713464742_615448831_n.jpg,music,0.9996378421783447
,performance,0.9994511604309082
,theater,0.9989047050476074
,dancer,0.9964901804924011
,ballet,0.9962670803070068
,concert,0.9932341575622559
,singer,0.9918478727340698
,stage,0.989305317401886
,dancing,0.9745553731918335
,musician,0.9690476059913635
,glisten,0.9683464765548706
,active,0.9640144109725952
,theater,0.9554364681243896
,man,0.9551423788070679
,show,0.9534006118774414
,ballerina,0.9518585205078125
,costume,0.948367714881897
,group,0.9403107166290283
,woman,0.9347590804100037
,motion,0.9285668134689331
https://scontent.cdninstagram.com/t51.2885-15/e35/13473277_505823039619786_1919382875_n.jpg,man,0.9952777624130249
,indoors,0.992341935634613
,business,0.9782490730285645
,adult,0.9756590127944946
,people,0.9755645990371704
,communication,0.9685872793197632
,serious,0.9671377539634705
,sitting,0.9648357629776001
,confidence,0.9609940648078918
,portrait,0.9604610204696655
,vertical,0.952838659286499
,office,0.9462801218032837
,horizontal,0.9403108954429626
,headshot,0.9393067359924316
,togetherness,0.9154723882675171
,contemplation,0.9048166275024414
,image,0.9026575088500977
,colleague,0.8812267780303955
,leadership,0.8810974359512329
,side view,0.8738012313842773
https://scontent.cdninstagram.com/t51.2885-15/e35/13473273_1602963153367305_1766668961_n.jpg,people,0.9869769811630249
,woman,0.9756221771240234
,adult,0.9663702845573425
,celebration,0.9621511697769165
,illustration,0.9467877745628357
,happiness,0.9440129995346069
,cheerful,0.9412461519241333
,festival,0.9282768368721008
,desktop,0.9282346367835999
,horizontal,0.9034019708633423
,portrait,0.8996981382369995
,child,0.8982419371604919
,event,0.8971359133720398
,party,0.8962084054946899
,education,0.8924481868743896
,fun,0.8860573768615723
,family,0.8839336633682251
,man,0.8784728646278381
,table,0.8582445979118347
,bill,0.8538090586662292
https://scontent.cdninstagram.com/t51.2885-15/sh0.08/e35/p750x750/13561680_658195391002387_1350362395_n.jpg,group,0.9898738861083984
,child,0.98714679479599
,people,0.9757716059684753
,friendship,0.9687650799751282
,group,0.9681720733642578
,woman,0.9583494067192078
,portrait,0.9443585872650146
,man,0.9403215646743774
,fun,0.9386773109436035
,four,0.9272795915603638
,family,0.9214485883712769
,togetherness,0.916869044303894
,boy,0.9072390794754028
,happiness,0.9007893204689026
,girl,0.8986943960189819
,laughing,0.8951020240783691
,three,0.879365086555481
,education,0.8677393794059753
,school,0.8490616679191589
,adult,0.8379613161087036
https://scontent.cdninstagram.com/t51.2885-15/e35/13398565_142876106119056_1692146956_n.jpg,performance,0.9964779615402222
,music,0.9951788783073425
,musician,0.9909884929656982
,people,0.9896084070205688
,concert,0.9893789887428284
,singer,0.987025260925293
,group,0.9794424772262573
,festival,0.9667224884033203
,stage,0.9620825052261353
,theater,0.9482736587524414
,theater,0.9402103424072266
,band,0.9342188835144043
,man,0.9005368947982788
,adult,0.8810366988182068
,opera,0.8562815189361572
,many,0.8549231886863708
,woman,0.8418221473693848
,wear,0.8312011957168579
,leader,0.8182001113891602
,instrument,0.8098722696304321
https://scontent.cdninstagram.com/t51.2885-15/e35/13473112_670041563133554_1140660907_n.jpg,food,0.987633228302002
,no person,0.9797219038009644
,dinner,0.9555259943008423
,plate,0.9480276703834534
,still life,0.9359538555145264
,delicious,0.9327084422111511
,lunch,0.9297407269477844
,meal,0.9231011867523193
,dish,0.9080660939216614
,table,0.9005697965621948
,traditional,0.8945697546005249
,knife,0.8879254460334778
,grow,0.8733917474746704
,vegetable,0.8715063333511353
,bread,0.8602041006088257
,cooking,0.858733057975769
,wood,0.8521589040756226
,tableware,0.847470760345459
,nutrition,0.8441590070724487
,refreshment,0.8429049253463745
https://scontent.cdninstagram.com/t51.2885-15/e35/13437367_1616233748666941_1515534360_n.jpg,people,0.9499635696411133
,city,0.9313209056854248
,crowd,0.9090831875801086
,adult,0.9090304374694824
,communication,0.8993554711341858
,bill,0.8758206367492676
,man,0.871826171875
,street,0.8686914443969727
,text,0.8604402542114258
,woman,0.8598252534866333
,market,0.8499684929847717
,horizontal,0.8116431832313538
,stock,0.7884589433670044
,billboard,0.7690439820289612
,vertical,0.754199743270874
,business,0.7504938244819641
,populace,0.7112369537353516
,celebration,0.6956965923309326
,illustration,0.688912034034729
,shopping,0.6759790778160095
https://scontent.cdninstagram.com/t51.2885-15/e35/13597553_130893024004304_166737304_n.jpg,group,0.9947562217712402
,adult,0.9947317838668823
,people,0.9939483404159546
,portrait,0.9921473264694214
,woman,0.9826202392578125
,music,0.9534227848052979
,man,0.9309781789779663
,several,0.9116958975791931
,administration,0.9082628488540649
,text,0.904807448387146
,interaction,0.9000157117843628
,many,0.8930423855781555
,business,0.8762475252151489
,musician,0.8717150688171387
,education,0.868337869644165
,one,0.8645239472389221
,bill,0.8550785779953003
,election,0.8493729829788208
,facial expression,0.8304154276847839
,leader,0.8268852233886719
https://scontent.cdninstagram.com/t51.2885-15/e35/13636164_684159945056292_1617036319_n.jpg,man,0.9763620495796204
,adult,0.9754630327224731
,people,0.9748774766921997
,wear,0.9496210217475891
,outdoors,0.9483683705329895
,horizontal,0.9421645402908325
,woman,0.9378052353858948
,music,0.929104745388031
,dancing,0.9146307110786438
,fun,0.9076273441314697
,enjoyment,0.9053412675857544
,retro,0.8957328796386719
,dirty,0.83375084400177
,battle,0.8284919857978821
,adolescent,0.8269398212432861
,illustration,0.819452166557312
,competition,0.8105965852737427
,exhilaration,0.8019580245018005
,togetherness,0.7936258316040039
,portrait,0.7810385227203369
https://scontent.cdninstagram.com/t51.2885-15/e35/13385810_1097284477034343_2110606257_n.jpg,number,0.9968129396438599
,template,0.9903568029403687
,page,0.9894672632217407
,airport,0.9836962223052979
,data,0.9758800864219666
,layout,0.9740343689918518
,time,0.9725443124771118
,departure,0.9715768098831177
,information,0.9657588601112366
,timetable,0.9625229239463806
,schedule,0.9544758200645447
,World Wide Web,0.9508167505264282
,order,0.9442499876022339
,presentation,0.9421120882034302
,text,0.9404977560043335
,form,0.9313300848007202
,site,0.9266277551651001
,data,0.9221353530883789
,business,0.9191455841064453
,navigation,0.918982744216919
