URL,CLASS,SCORE,PASSION,INTEREST
https://scontent.cdninstagram.com/t51.2885-15/e35/13402748_1128773667165807_1900829722_n.jpg,child,0.9961656332015991,beauty,,
,people,0.9914082288742065,,,
,portrait,0.9848857522010803,,,
,one,0.9786981344223022,,,
,cute,0.9488460421562195,,,
,girl,0.9420187473297119,,,
,little,0.9414451122283936,,,
,baby,0.9332005977630615,,,
,innocence,0.9277055263519287,,,
,boy,0.9271258115768433,,,
,"facial expression",0.8972318172454834,,,
,wear,0.8951421976089478,,,
,sit,0.8911228775978088,,,
,adult,0.879906415939331,,,
,indoors,0.8686529397964478,,,
,face,0.861028790473938,,,
,beautiful,0.8493486642837524,,,
,woman,0.8491917252540588,,,
,family,0.8376784324645996,,,
,happiness,0.8362336754798889,,,
https://scontent.cdninstagram.com/t51.2885-15/e35/13473241_189915558077448_1594599478_n.jpg,people,0.9961732625961304,food,,
,coffee,0.9454208612442017,,,
,person,0.9445258378982544,,,
,event,0.9243291616439819,,,
,adult,0.914363443851471,,,
,woman,0.9119500517845154,,,
,food,0.9062093496322632,,,
,drink,0.8678529858589172,,,
,pop,0.8547220230102539,,,
,group,0.8465127348899841,,,
,entertainment,0.8406792879104614,,,
,portrait,0.8321840763092041,,,
,restaurant,0.8236388564109802,,,
,cup,0.822444498538971,,,
,talent,0.8173846006393433,,,
,street,0.8108358383178711,,,
,man,0.8082212209701538,,,
,girl,0.8034164309501648,,,
,famous,0.7942426800727844,,,
,city,0.7925907373428345,,,
https://scontent.cdninstagram.com/t51.2885-15/e35/13473241_189915558077448_1594599478_n.jpg,people,0.9961732625961304,food,,
,coffee,0.9454208612442017,,,
,person,0.9445258378982544,,,
,event,0.9243291616439819,,,
,adult,0.914363443851471,,,
,woman,0.9119500517845154,,,
,food,0.9062093496322632,,,
,drink,0.8678529858589172,,,
,pop,0.8547220230102539,,,
,group,0.8465127348899841,,,
,entertainment,0.8406792879104614,,,
,portrait,0.8321840763092041,,,
,restaurant,0.8236388564109802,,,
,cup,0.822444498538971,,,
,talent,0.8173846006393433,,,
,street,0.8108358383178711,,,
,man,0.8082212209701538,,,
,girl,0.8034164309501648,,,
,famous,0.7942426800727844,,,
,city,0.7925907373428345,,,
https://scontent.cdninstagram.com/t51.2885-15/e35/13402748_1128773667165807_1900829722_n.jpg,child,0.9961656332015991,beauty,,
,people,0.9914082288742065,,,
,portrait,0.9848857522010803,,,
,one,0.9786981344223022,,,
,cute,0.9488460421562195,,,
,girl,0.9420187473297119,,,
,little,0.9414451122283936,,,
,baby,0.9332005977630615,,,
,innocence,0.9277055263519287,,,
,boy,0.9271258115768433,,,
,"facial expression",0.8972318172454834,,,
,wear,0.8951421976089478,,,
,sit,0.8911228775978088,,,
,adult,0.879906415939331,,,
,indoors,0.8686529397964478,,,
,face,0.861028790473938,,,
,beautiful,0.8493486642837524,,,
,woman,0.8491917252540588,,,
,family,0.8376784324645996,,,
,happiness,0.8362336754798889,,,
https://scontent.cdninstagram.com/t51.2885-15/e35/13320305_1245405298818070_876931590_n.jpg,woman,0.9870446920394897,shopping,,
,shopping,0.9759597778320312,,,
,people,0.9742434024810791,,,
,indoors,0.9522454738616943,,,
,one,0.9296622276306152,,,
,education,0.9231100678443909,,,
,fun,0.9191569089889526,,,
,surprise,0.8980807662010193,,,
,birthday,0.8919446468353271,,,
,enjoyment,0.8786444067955017,,,
,joy,0.8720786571502686,,,
,wear,0.8708168864250183,,,
,child,0.8675268888473511,,,
,pretty,0.8661024570465088,,,
,cute,0.8646367788314819,,,
,fashion,0.8589440584182739,,,
,young,0.8520768880844116,,,
,Christmas,0.8498055338859558,,,
,family,0.8497573733329773,,,
,paper,0.8428322076797485,,,
https://scontent.cdninstagram.com/t51.2885-15/e35/13285467_884150315061671_303771017_n.jpg,people,0.9675902128219604,celebrations,,
,festival,0.9631028175354004,,,
,street,0.950325608253479,,,
,woman,0.92995685338974,,,
,costume,0.8880614042282104,,,
,celebration,0.8801819086074829,,,
,adult,0.8660364151000977,,,
,city,0.8550171256065369,,,
,music,0.8529436588287354,,,
,event,0.8502955436706543,,,
,fun,0.8422623872756958,,,
,competition,0.8380279541015625,,,
,wear,0.8327193856239319,,,
,person,0.8219282627105713,,,
,traditional,0.8180291652679443,,,
,performance,0.8142958879470825,,,
,girl,0.8034098148345947,,,
,fashion,0.8019023537635803,,,
,parade,0.7990601062774658,,,
,portrait,0.7966282367706299,,,
https://scontent.cdninstagram.com/t51.2885-15/e35/13385858_972167096229386_65343131_n.jpg,beach,0.9969112873077393,recreation,,
,sand,0.9947301745414734,,,
,water,0.994184672832489,,,
,seashore,0.9932283759117126,,,
,togetherness,0.9902769923210144,,,
,enjoyment,0.9871475696563721,,,
,child,0.9853649139404297,,,
,leisure,0.9775242805480957,,,
,travel,0.9764561653137207,,,
,ocean,0.9759913086891174,,,
,fun,0.9752864837646484,,,
,woman,0.9700671434402466,,,
,vacation,0.9684677124023438,,,
,sea,0.9669902324676514,,,
,friendship,0.9631143808364868,,,
,four,0.9624552726745605,,,
,recreation,0.9530417919158936,,,
,happiness,0.9526997804641724,,,
,summer,0.9504066705703735,,,
,people,0.9419801235198975,,,
https://scontent.cdninstagram.com/t51.2885-15/s750x750/sh0.08/e35/13129621_1709531559323280_307706777_n.jpg,festival,0.9814136028289795,recreation,,
,fun,0.9811957478523254,,,
,people,0.9773198366165161,,,
,woman,0.9550001621246338,,,
,celebration,0.9457685947418213,,,
,group,0.941167950630188,,,
,exhilaration,0.9394769668579102,,,
,enjoyment,0.9391018152236938,,,
,music,0.932147204875946,,,
,child,0.9312359690666199,,,
,recreation,0.9014973640441895,,,
,party,0.9014838337898254,,,
,joy,0.9014380574226379,,,
,school,0.871557354927063,,,
,group,0.8672840595245361,,,
,happiness,0.8662351369857788,,,
,travel,0.8623679876327515,,,
,adult,0.861083984375,,,
,girl,0.8602882623672485,,,
,fashion,0.8596045970916748,,,
https://scontent.cdninstagram.com/t51.2885-15/s750x750/sh0.08/e35/13092474_508305842702932_212112010_n.jpg,group,0.9888288974761963,recreation,,
,competition,0.9804424047470093,,,
,people,0.9793717861175537,,,
,recreation,0.9751197695732117,,,
,group,0.9733932018280029,,,
,athlete,0.968671977519989,,,
,woman,0.9613566398620605,,,
,adult,0.9396204948425293,,,
,portrait,0.9343208074569702,,,
,man,0.9340892434120178,,,
,wear,0.926687479019165,,,
,exercise,0.9094763398170471,,,
,friendship,0.9078676104545593,,,
,enjoyment,0.9009308815002441,,,
,child,0.9004790782928467,,,
,sport,0.8866374492645264,,,
,motion,0.8851931095123291,,,
,fun,0.8845122456550598,,,
,family,0.8844398856163025,,,
,game,0.8797817230224609,,,
https://scontent.cdninstagram.com/t51.2885-15/s750x750/sh0.08/e35/13092474_508305842702932_212112010_n.jpg,group,0.9888288974761963,recreation,,
,competition,0.9804424047470093,,,
,people,0.9793717861175537,,,
,recreation,0.9751197695732117,,,
,group,0.9733932018280029,,,
,athlete,0.968671977519989,,,
,woman,0.9613566398620605,,,
,adult,0.9396204948425293,,,
,portrait,0.9343208074569702,,,
,man,0.9340892434120178,,,
,wear,0.926687479019165,,,
,exercise,0.9094763398170471,,,
,friendship,0.9078676104545593,,,
,enjoyment,0.9009308815002441,,,
,child,0.9004790782928467,,,
,sport,0.8866374492645264,,,
,motion,0.8851931095123291,,,
,fun,0.8845122456550598,,,
,family,0.8844398856163025,,,
,game,0.8797817230224609,,,
https://scontent.cdninstagram.com/t51.2885-15/s750x750/sh0.08/e35/13116827_626705320811758_831926113_n.jpg,people,0.9962666630744934,recreation,,
,group,0.9953229427337646,,,
,competition,0.992914080619812,,,
,group,0.9896562695503235,,,
,athlete,0.9880370497703552,,,
,adult,0.9878021478652954,,,
,many,0.9876077175140381,,,
,recreation,0.9873783588409424,,,
,outfit,0.9761350154876709,,,
,woman,0.9751828908920288,,,
,wear,0.9745576977729797,,,
,"sports equipment",0.9728987216949463,,,
,man,0.9701566100120544,,,
,action,0.969143271446228,,,
,motion,0.9650115966796875,,,
,uniform,0.9377620220184326,,,
,enjoyment,0.9332506060600281,,,
,"sports fan",0.9211522936820984,,,
,energy,0.9142364859580994,,,
,ball,0.908736526966095,,,
https://scontent.cdninstagram.com/t51.2885-15/e35/13098852_1569738243323972_258263178_n.jpg,education,0.9687790870666504,relationships,,
,school,0.9607724547386169,,,
,people,0.9595972299575806,,,
,portrait,0.9516574144363403,,,
,woman,0.9113248586654663,,,
,adult,0.8982260227203369,,,
,university,0.8828891515731812,,,
,competition,0.8534241914749146,,,
,man,0.8387925624847412,,,
,business,0.8340418338775635,,,
,sign,0.8193812966346741,,,
,room,0.7995136976242065,,,
,child,0.7877223491668701,,,
,girl,0.7690632343292236,,,
,leader,0.7519013285636902,,,
,teacher,0.7153025269508362,,,
,person,0.7045018672943115,,,
,illustration,0.6964507699012756,,,
,group,0.6944789886474609,,,
,happiness,0.6886382102966309,,,
https://scontent.cdninstagram.com/t51.2885-15/e35/13266665_1091174894283298_1041744672_n.jpg,group,0.9882159233093262,celebrations,,
,school,0.9873663783073425,,,
,many,0.9872738122940063,,,
,people,0.9864107370376587,,,
,competition,0.9863792657852173,,,
,university,0.975385844707489,,,
,education,0.9753544330596924,,,
,woman,0.9753278493881226,,,
,crowd,0.9740192294120789,,,
,"sports fan",0.9732207655906677,,,
,group,0.9722221493721008,,,
,athlete,0.9693323373794556,,,
,adult,0.9665863513946533,,,
,portrait,0.94708251953125,,,
,singer,0.9455403089523315,,,
,basketball,0.9431314468383789,,,
,music,0.9381561279296875,,,
,performance,0.9196759462356567,,,
,man,0.9160308837890625,,,
,festival,0.9122756719589233,,,
https://scontent.cdninstagram.com/t51.2885-15/e35/13266665_1091174894283298_1041744672_n.jpg,group,0.9882159233093262,celebrations,,
,school,0.9873663783073425,,,
,many,0.9872738122940063,,,
,people,0.9864107370376587,,,
,competition,0.9863792657852173,,,
,university,0.975385844707489,,,
,education,0.9753544330596924,,,
,woman,0.9753278493881226,,,
,crowd,0.9740192294120789,,,
,"sports fan",0.9732207655906677,,,
,group,0.9722221493721008,,,
,athlete,0.9693323373794556,,,
,adult,0.9665863513946533,,,
,portrait,0.94708251953125,,,
,singer,0.9455403089523315,,,
,basketball,0.9431314468383789,,,
,music,0.9381561279296875,,,
,performance,0.9196759462356567,,,
,man,0.9160308837890625,,,
,festival,0.9122756719589233,,,
https://scontent.cdninstagram.com/t51.2885-15/s750x750/sh0.08/e35/13116827_626705320811758_831926113_n.jpg,people,0.9962666630744934,recreation,,
,group,0.9953229427337646,,,
,competition,0.992914080619812,,,
,group,0.9896562695503235,,,
,athlete,0.9880370497703552,,,
,adult,0.9878021478652954,,,
,many,0.9876077175140381,,,
,recreation,0.9873783588409424,,,
,outfit,0.9761350154876709,,,
,woman,0.9751828908920288,,,
,wear,0.9745576977729797,,,
,"sports equipment",0.9728987216949463,,,
,man,0.9701566100120544,,,
,action,0.969143271446228,,,
,motion,0.9650115966796875,,,
,uniform,0.9377620220184326,,,
,enjoyment,0.9332506060600281,,,
,"sports fan",0.9211522936820984,,,
,energy,0.9142364859580994,,,
,ball,0.908736526966095,,,
https://scontent.cdninstagram.com/t51.2885-15/e35/12935052_1047644725292197_469288500_n.jpg,group,0.9994626045227051,relationships,,
,group,0.998961329460144,,,
,portrait,0.995715856552124,,,
,squad,0.9912172555923462,,,
,friendship,0.9897493124008179,,,
,girl,0.9806461334228516,,,
,woman,0.9781912565231323,,,
,four,0.9768396615982056,,,
,people,0.9720735549926758,,,
,smile,0.9719375967979431,,,
,laughing,0.9609404802322388,,,
,student,0.9551467299461365,,,
,child,0.9510161876678467,,,
,happiness,0.9449474811553955,,,
,school,0.9294880628585815,,,
,"facial expression",0.9168741703033447,,,
,unity,0.9159569144248962,,,
,togetherness,0.915189266204834,,,
,adult,0.9074887633323669,,,
,teamwork,0.9045916795730591,,,
https://scontent.cdninstagram.com/t51.2885-15/e35/12965186_1093184154076529_1941624528_n.jpg,people,0.9984933137893677,recreation,,
,group,0.9948331713676453,,,
,child,0.9895038604736328,,,
,group,0.9864150285720825,,,
,adult,0.98542320728302,,,
,education,0.9834045171737671,,,
,school,0.9816655516624451,,,
,many,0.9804632067680359,,,
,woman,0.9695866703987122,,,
,man,0.9597411751747131,,,
,recreation,0.9334090352058411,,,
,competition,0.9221997857093811,,,
,wear,0.9214059114456177,,,
,motion,0.917244553565979,,,
,boy,0.9096848964691162,,,
,vehicle,0.9053789377212524,,,
,university,0.86719810962677,,,
,daylight,0.860623836517334,,,
,cooperation,0.8602220416069031,,,
,several,0.847978413105011,,,
https://scontent.cdninstagram.com/t51.2885-15/e35/13098852_1569738243323972_258263178_n.jpg,education,0.9687790870666504,relationships,,
,school,0.9607724547386169,,,
,people,0.9595972299575806,,,
,portrait,0.9516574144363403,,,
,woman,0.9113248586654663,,,
,adult,0.8982260227203369,,,
,university,0.8828891515731812,,,
,competition,0.8534241914749146,,,
,man,0.8387925624847412,,,
,business,0.8340418338775635,,,
,sign,0.8193812966346741,,,
,room,0.7995136976242065,,,
,child,0.7877223491668701,,,
,girl,0.7690632343292236,,,
,leader,0.7519013285636902,,,
,teacher,0.7153025269508362,,,
,person,0.7045018672943115,,,
,illustration,0.6964507699012756,,,
,group,0.6944789886474609,,,
,happiness,0.6886382102966309,,,
https://scontent.cdninstagram.com/t51.2885-15/e35/13320305_1245405298818070_876931590_n.jpg,woman,0.9870446920394897,shopping,,
,shopping,0.9759597778320312,,,
,people,0.9742434024810791,,,
,indoors,0.9522454738616943,,,
,one,0.9296622276306152,,,
,education,0.9231100678443909,,,
,fun,0.9191569089889526,,,
,surprise,0.8980807662010193,,,
,birthday,0.8919446468353271,,,
,enjoyment,0.8786444067955017,,,
,joy,0.8720786571502686,,,
,wear,0.8708168864250183,,,
,child,0.8675268888473511,,,
,pretty,0.8661024570465088,,,
,cute,0.8646367788314819,,,
,fashion,0.8589440584182739,,,
,young,0.8520768880844116,,,
,Christmas,0.8498055338859558,,,
,family,0.8497573733329773,,,
,paper,0.8428322076797485,,,
https://scontent.cdninstagram.com/t51.2885-15/s320x320/e35/10616533_575858625914306_1135269109_n.jpg,motion,0.9657173156738281,recreation,,
,business,0.9565979242324829,,,
,city,0.9399150609970093,,,
,lifestyle,0.9357842206954956,,,
,recreation,0.9311536550521851,,,
,train,0.9308904409408569,,,
,leisure,0.9282257556915283,,,
,street,0.9241639375686646,,,
,urban,0.9177119731903076,,,
,modern,0.9102092981338501,,,
,woman,0.909252405166626,,,
,sport,0.9069605469703674,,,
,light,0.9056165218353271,,,
,people,0.9005080461502075,,,
,young,0.9000946283340454,,,
,airport,0.8941586017608643,,,
,man,0.8860758543014526,,,
,person,0.8850115537643433,,,
,travel,0.8849847316741943,,,
,indoors,0.8843390941619873,,,
https://scontent.cdninstagram.com/t51.2885-15/s640x640/sh0.08/e35/12905129_1582507405396036_2073923332_n.jpg,woman,0.9846810102462769,recreation,,
,group,0.9802435636520386,,,
,group,0.9763860702514648,,,
,adult,0.9707604646682739,,,
,man,0.9593031406402588,,,
,people,0.9422308206558228,,,
,portrait,0.9409279823303223,,,
,"facial expression",0.9155352115631104,,,
,teacher,0.8682382106781006,,,
,recreation,0.8653329610824585,,,
,energy,0.8618201613426208,,,
,education,0.8488940000534058,,,
,music,0.8339710831642151,,,
,singer,0.8175928592681885,,,
,squad,0.8168736696243286,,,
,competition,0.813085675239563,,,
,adolescent,0.8129736185073853,,,
,school,0.8070985674858093,,,
,indoors,0.8017670512199402,,,
,musician,0.7989736795425415,,,
https://scontent.cdninstagram.com/t51.2885-15/e35/12912338_476022775915827_1535541122_n.jpg,recreation,0.9860585927963257,recreation,,
,group,0.9802988767623901,,,
,group,0.9779642820358276,,,
,woman,0.9774096012115479,,,
,people,0.967815637588501,,,
,enjoyment,0.9627452492713928,,,
,leisure,0.9368464946746826,,,
,togetherness,0.9336398839950562,,,
,fun,0.9263405203819275,,,
,friendship,0.9200106859207153,,,
,beach,0.9157187342643738,,,
,adolescent,0.9097949266433716,,,
,four,0.9097071886062622,,,
,daylight,0.9082070589065552,,,
,outdoors,0.9079207181930542,,,
,man,0.9035394787788391,,,
,wear,0.8927136659622192,,,
,"facial expression",0.8902310132980347,,,
,adult,0.8889040946960449,,,
,child,0.8842377066612244,,,
https://scontent.cdninstagram.com/t51.2885-15/e35/13414346_1785454398356068_263382959_n.jpg,people,0.9879249930381775,,,
,woman,0.9689207673072815,,,
,man,0.9558339715003967,,,
,adult,0.9453701972961426,,,
,music,0.9091688394546509,,,
,group,0.8974552154541016,,,
,outdoors,0.8796529173851013,,,
,many,0.8621890544891357,,,
,crowd,0.8616316914558411,,,
,business,0.8590295314788818,,,
,festival,0.8343015313148499,,,
,wear,0.8292925357818604,,,
,recreation,0.7943140268325806,,,
,enjoyment,0.7535785436630249,,,
,performance,0.75066077709198,,,
,indoors,0.7503337860107422,,,
,military,0.747803807258606,,,
,portrait,0.7453321218490601,,,
,rally,0.7297500371932983,,,
,concert,0.716997504234314,,,
https://scontent.cdninstagram.com/t51.2885-15/e35/13414346_1785454398356068_263382959_n.jpg,people,0.9879249930381775,,,
,woman,0.9689207673072815,,,
,man,0.9558339715003967,,,
,adult,0.9453701972961426,,,
,music,0.9091688394546509,,,
,group,0.8974552154541016,,,
,outdoors,0.8796529173851013,,,
,many,0.8621890544891357,,,
,crowd,0.8616316914558411,,,
,business,0.8590295314788818,,,
,festival,0.8343015313148499,,,
,wear,0.8292925357818604,,,
,recreation,0.7943140268325806,,,
,enjoyment,0.7535785436630249,,,
,performance,0.75066077709198,,,
,indoors,0.7503337860107422,,,
,military,0.747803807258606,,,
,portrait,0.7453321218490601,,,
,rally,0.7297500371932983,,,
,concert,0.716997504234314,,,
https://scontent.cdninstagram.com/t51.2885-15/e35/12935052_1047644725292197_469288500_n.jpg,group,0.9994626045227051,relationships,,
,group,0.998961329460144,,,
,portrait,0.995715856552124,,,
,squad,0.9912172555923462,,,
,friendship,0.9897493124008179,,,
,girl,0.9806461334228516,,,
,woman,0.9781912565231323,,,
,four,0.9768396615982056,,,
,people,0.9720735549926758,,,
,smile,0.9719375967979431,,,
,laughing,0.9609404802322388,,,
,student,0.9551467299461365,,,
,child,0.9510161876678467,,,
,happiness,0.9449474811553955,,,
,school,0.9294880628585815,,,
,"facial expression",0.9168741703033447,,,
,unity,0.9159569144248962,,,
,togetherness,0.915189266204834,,,
,adult,0.9074887633323669,,,
,teamwork,0.9045916795730591,,,
https://scontent.cdninstagram.com/t51.2885-15/e35/12479391_758933347541952_1482762058_n.jpg,woman,0.9816219806671143,,,
,people,0.9513682723045349,,,
,pride,0.9270782470703125,,,
,competition,0.9088975787162781,,,
,man,0.8878724575042725,,,
,enjoyment,0.8796811699867249,,,
,portrait,0.8645901679992676,,,
,festival,0.8643507957458496,,,
,outdoors,0.8546950221061707,,,
,wear,0.8538687825202942,,,
,group,0.8424394130706787,,,
,fun,0.8336391448974609,,,
,recreation,0.8226193189620972,,,
,rally,0.8027604818344116,,,
,family,0.8016380071640015,,,
,multicultural,0.7927365899085999,,,
,adolescent,0.7906042337417603,,,
,music,0.7858625650405884,,,
,child,0.7613145709037781,,,
,togetherness,0.7533421516418457,,,
https://scontent.cdninstagram.com/t51.2885-15/s750x750/sh0.08/e35/12424445_1682577365344678_1071678326_n.jpg,people,0.974933385848999,,,
,group,0.9647402763366699,,,
,woman,0.9577063918113708,,,
,man,0.9321061968803406,,,
,adult,0.9159551858901978,,,
,"facial expression",0.906639575958252,,,
,happiness,0.9051114320755005,,,
,portrait,0.8989893198013306,,,
,fun,0.8940266370773315,,,
,celebration,0.893573522567749,,,
,group,0.878331184387207,,,
,education,0.8654420375823975,,,
,enjoyment,0.8581256866455078,,,
,festival,0.8574669361114502,,,
,child,0.851686954498291,,,
,crowd,0.8449091911315918,,,
,many,0.8420211672782898,,,
,girl,0.8403967618942261,,,
,"sports fan",0.8385987281799316,,,
,school,0.82062166929245,,,
https://scontent.cdninstagram.com/t51.2885-15/e35/12479391_758933347541952_1482762058_n.jpg,woman,0.9816219806671143,,,
,people,0.9513682723045349,,,
,pride,0.9270782470703125,,,
,competition,0.9088975787162781,,,
,man,0.8878724575042725,,,
,enjoyment,0.8796811699867249,,,
,portrait,0.8645901679992676,,,
,festival,0.8643507957458496,,,
,outdoors,0.8546950221061707,,,
,wear,0.8538687825202942,,,
,group,0.8424394130706787,,,
,fun,0.8336391448974609,,,
,recreation,0.8226193189620972,,,
,rally,0.8027604818344116,,,
,family,0.8016380071640015,,,
,multicultural,0.7927365899085999,,,
,adolescent,0.7906042337417603,,,
,music,0.7858625650405884,,,
,child,0.7613145709037781,,,
,togetherness,0.7533421516418457,,,
https://scontent.cdninstagram.com/t51.2885-15/s320x320/e35/10616533_575858625914306_1135269109_n.jpg,motion,0.9657173156738281,recreation,,
,business,0.9565979242324829,,,
,city,0.9399150609970093,,,
,lifestyle,0.9357842206954956,,,
,recreation,0.9311536550521851,,,
,train,0.9308904409408569,,,
,leisure,0.9282257556915283,,,
,street,0.9241639375686646,,,
,urban,0.9177119731903076,,,
,modern,0.9102092981338501,,,
,woman,0.909252405166626,,,
,sport,0.9069605469703674,,,
,light,0.9056165218353271,,,
,people,0.9005080461502075,,,
,young,0.9000946283340454,,,
,airport,0.8941586017608643,,,
,man,0.8860758543014526,,,
,person,0.8850115537643433,,,
,travel,0.8849847316741943,,,
,indoors,0.8843390941619873,,,
https://scontent.cdninstagram.com/t51.2885-15/e35/12912363_559405627566048_1636142658_n.jpg,competition,0.9880638718605042,,,
,people,0.9861494898796082,,,
,athlete,0.9732373952865601,,,
,recreation,0.9702392816543579,,,
,ball,0.9603321552276611,,,
,soccer,0.954986035823822,,,
,group,0.9474064111709595,,,
,sport,0.937293529510498,,,
,squad,0.9368512630462646,,,
,fun,0.9368088841438293,,,
,game,0.9348382949829102,,,
,school,0.9331034421920776,,,
,stadium,0.9284931421279907,,,
,teamwork,0.9276763200759888,,,
,man,0.9248594641685486,,,
,football,0.9203374981880188,,,
,leisure,0.9174326658248901,,,
,adult,0.9127875566482544,,,
,goal,0.906014084815979,,,
,action,0.9004969000816345,,,
https://scontent.cdninstagram.com/t51.2885-15/e35/13118158_1044797055594716_1505402227_n.jpg,group,0.985838770866394,,,
,group,0.9755651950836182,,,
,people,0.965347170829773,,,
,music,0.956092357635498,,,
,woman,0.9490580558776855,,,
,singer,0.9465827941894531,,,
,performance,0.940601110458374,,,
,man,0.9403111338615417,,,
,band,0.932866632938385,,,
,musician,0.9223542213439941,,,
,many,0.9192175269126892,,,
,portrait,0.9173625707626343,,,
,concert,0.9160382747650146,,,
,adult,0.9044445157051086,,,
,education,0.8995274305343628,,,
,recreation,0.8925450444221497,,,
,"sports fan",0.8863886594772339,,,
,competition,0.881695032119751,,,
,crowd,0.8635073304176331,,,
,festival,0.8586716651916504,,,
https://scontent.cdninstagram.com/t51.2885-15/e35/13285467_884150315061671_303771017_n.jpg,people,0.9675902128219604,celebrations,,
,festival,0.9631028175354004,,,
,street,0.950325608253479,,,
,woman,0.92995685338974,,,
,costume,0.8880614042282104,,,
,celebration,0.8801819086074829,,,
,adult,0.8660364151000977,,,
,city,0.8550171256065369,,,
,music,0.8529436588287354,,,
,event,0.8502955436706543,,,
,fun,0.8422623872756958,,,
,competition,0.8380279541015625,,,
,wear,0.8327193856239319,,,
,person,0.8219282627105713,,,
,traditional,0.8180291652679443,,,
,performance,0.8142958879470825,,,
,girl,0.8034098148345947,,,
,fashion,0.8019023537635803,,,
,parade,0.7990601062774658,,,
,portrait,0.7966282367706299,,,
https://scontent.cdninstagram.com/t51.2885-15/s750x750/sh0.08/e35/12424445_1682577365344678_1071678326_n.jpg,people,0.974933385848999,,,
,group,0.9647402763366699,,,
,woman,0.9577063918113708,,,
,man,0.9321061968803406,,,
,adult,0.9159551858901978,,,
,"facial expression",0.906639575958252,,,
,happiness,0.9051114320755005,,,
,portrait,0.8989893198013306,,,
,fun,0.8940266370773315,,,
,celebration,0.893573522567749,,,
,group,0.878331184387207,,,
,education,0.8654420375823975,,,
,enjoyment,0.8581256866455078,,,
,festival,0.8574669361114502,,,
,child,0.851686954498291,,,
,crowd,0.8449091911315918,,,
,many,0.8420211672782898,,,
,girl,0.8403967618942261,,,
,"sports fan",0.8385987281799316,,,
,school,0.82062166929245,,,
https://scontent.cdninstagram.com/t51.2885-15/e35/13118158_1044797055594716_1505402227_n.jpg,group,0.985838770866394,,,
,group,0.9755651950836182,,,
,people,0.965347170829773,,,
,music,0.956092357635498,,,
,woman,0.9490580558776855,,,
,singer,0.9465827941894531,,,
,performance,0.940601110458374,,,
,man,0.9403111338615417,,,
,band,0.932866632938385,,,
,musician,0.9223542213439941,,,
,many,0.9192175269126892,,,
,portrait,0.9173625707626343,,,
,concert,0.9160382747650146,,,
,adult,0.9044445157051086,,,
,education,0.8995274305343628,,,
,recreation,0.8925450444221497,,,
,"sports fan",0.8863886594772339,,,
,competition,0.881695032119751,,,
,crowd,0.8635073304176331,,,
,festival,0.8586716651916504,,,
https://scontent.cdninstagram.com/t51.2885-15/e35/12530740_1524967467802030_1877638247_n.jpg,group,0.9857953786849976,,,
,woman,0.9833911657333374,,,
,group,0.9723667502403259,,,
,student,0.9717317223548889,,,
,friendship,0.9616613388061523,,,
,multicultural,0.9511450529098511,,,
,adolescent,0.9346300959587097,,,
,people,0.9316692352294922,,,
,laughing,0.9167053699493408,,,
,four,0.9146164655685425,,,
,fun,0.9126968383789062,,,
,togetherness,0.9100407958030701,,,
,young,0.9033347368240356,,,
,portrait,0.8958446979522705,,,
,family,0.8907066583633423,,,
,joy,0.8664019107818604,,,
,man,0.8532902002334595,,,
,happiness,0.8512732982635498,,,
,unity,0.8492870330810547,,,
,casual,0.835791826248169,,,
https://scontent.cdninstagram.com/t51.2885-15/e35/12965186_1093184154076529_1941624528_n.jpg,people,0.9984933137893677,recreation,,
,group,0.9948331713676453,,,
,child,0.9895038604736328,,,
,group,0.9864150285720825,,,
,adult,0.98542320728302,,,
,education,0.9834045171737671,,,
,school,0.9816655516624451,,,
,many,0.9804632067680359,,,
,woman,0.9695866703987122,,,
,man,0.9597411751747131,,,
,recreation,0.9334090352058411,,,
,competition,0.9221997857093811,,,
,wear,0.9214059114456177,,,
,motion,0.917244553565979,,,
,boy,0.9096848964691162,,,
,vehicle,0.9053789377212524,,,
,university,0.86719810962677,,,
,daylight,0.860623836517334,,,
,cooperation,0.8602220416069031,,,
,several,0.847978413105011,,,
https://scontent.cdninstagram.com/t51.2885-15/e35/12912363_559405627566048_1636142658_n.jpg,competition,0.9880638718605042,,,
,people,0.9861494898796082,,,
,athlete,0.9732373952865601,,,
,recreation,0.9702392816543579,,,
,ball,0.9603321552276611,,,
,soccer,0.954986035823822,,,
,group,0.9474064111709595,,,
,sport,0.937293529510498,,,
,squad,0.9368512630462646,,,
,fun,0.9368088841438293,,,
,game,0.9348382949829102,,,
,school,0.9331034421920776,,,
,stadium,0.9284931421279907,,,
,teamwork,0.9276763200759888,,,
,man,0.9248594641685486,,,
,football,0.9203374981880188,,,
,leisure,0.9174326658248901,,,
,adult,0.9127875566482544,,,
,goal,0.906014084815979,,,
,action,0.9004969000816345,,,
https://scontent.cdninstagram.com/t51.2885-15/s480x480/e35/11382965_1394531483905579_844203065_n.jpg,group,0.9976391792297363,,,
,group,0.985183835029602,,,
,woman,0.97650146484375,,,
,four,0.9638715982437134,,,
,people,0.9591487646102905,,,
,child,0.9590260982513428,,,
,portrait,0.9568219184875488,,,
,education,0.95348060131073,,,
,friendship,0.9518738389015198,,,
,adult,0.9507494568824768,,,
,happiness,0.9484658241271973,,,
,school,0.9452475309371948,,,
,five,0.922716498374939,,,
,man,0.9167376160621643,,,
,girl,0.9162948131561279,,,
,togetherness,0.9140623211860657,,,
,"facial expression",0.9071592092514038,,,
,landscape,0.8836544752120972,,,
,adolescent,0.8746535778045654,,,
,enjoyment,0.8745052814483643,,,
https://scontent.cdninstagram.com/t51.2885-15/e35/13385858_972167096229386_65343131_n.jpg,beach,0.9969112873077393,recreation,,
,sand,0.9947301745414734,,,
,water,0.994184672832489,,,
,seashore,0.9932283759117126,,,
,togetherness,0.9902769923210144,,,
,enjoyment,0.9871475696563721,,,
,child,0.9853649139404297,,,
,leisure,0.9775242805480957,,,
,travel,0.9764561653137207,,,
,ocean,0.9759913086891174,,,
,fun,0.9752864837646484,,,
,woman,0.9700671434402466,,,
,vacation,0.9684677124023438,,,
,sea,0.9669902324676514,,,
,friendship,0.9631143808364868,,,
,four,0.9624552726745605,,,
,recreation,0.9530417919158936,,,
,happiness,0.9526997804641724,,,
,summer,0.9504066705703735,,,
,people,0.9419801235198975,,,
https://scontent.cdninstagram.com/t51.2885-15/s480x480/e35/11382965_1394531483905579_844203065_n.jpg,group,0.9976391792297363,,,
,group,0.985183835029602,,,
,woman,0.97650146484375,,,
,four,0.9638715982437134,,,
,people,0.9591487646102905,,,
,child,0.9590260982513428,,,
,portrait,0.9568219184875488,,,
,education,0.95348060131073,,,
,friendship,0.9518738389015198,,,
,adult,0.9507494568824768,,,
,happiness,0.9484658241271973,,,
,school,0.9452475309371948,,,
,five,0.922716498374939,,,
,man,0.9167376160621643,,,
,girl,0.9162948131561279,,,
,togetherness,0.9140623211860657,,,
,"facial expression",0.9071592092514038,,,
,landscape,0.8836544752120972,,,
,adolescent,0.8746535778045654,,,
,enjoyment,0.8745052814483643,,,
https://scontent.cdninstagram.com/t51.2885-15/e35/12292744_606024622871980_1635385388_n.jpg,people,0.9729260802268982,,,
,woman,0.946413516998291,,,
,celebration,0.9303719997406006,,,
,man,0.9268167018890381,,,
,street,0.921898365020752,,,
,fun,0.9191874265670776,,,
,festival,0.8905844688415527,,,
,young,0.8720667362213135,,,
,show,0.8719189167022705,,,
,event,0.8690558075904846,,,
,family,0.8607965707778931,,,
,group,0.8605880737304688,,,
,costume,0.8457322120666504,,,
,person,0.8344281315803528,,,
,sport,0.829228401184082,,,
,party,0.8159984350204468,,,
,parade,0.8114473819732666,,,
,crowd,0.805328369140625,,,
,editorial,0.8039417266845703,,,
,shopping,0.7936360836029053,,,
https://scontent.cdninstagram.com/t51.2885-15/s750x750/sh0.08/e35/12905252_845691972206194_1720105923_n.jpg,woman,0.9764755964279175,,,
,people,0.9738861322402954,,,
,outdoors,0.9734717607498169,,,
,man,0.9680149555206299,,,
,portrait,0.9631189107894897,,,
,adult,0.9394974708557129,,,
,leisure,0.935396671295166,,,
,recreation,0.933019757270813,,,
,togetherness,0.9232815504074097,,,
,two,0.9105260372161865,,,
,happiness,0.9070589542388916,,,
,girl,0.9006191492080688,,,
,family,0.8953059911727905,,,
,child,0.8900073170661926,,,
,enjoyment,0.8837214708328247,,,
,fun,0.8829785585403442,,,
,love,0.8768184185028076,,,
,summer,0.8745651245117188,,,
,lifestyle,0.8720630407333374,,,
,park,0.8700886368751526,,,
https://scontent.cdninstagram.com/t51.2885-15/e35/1598537_444632749055594_1046382073_n.jpg,child,0.995198130607605,,,
,group,0.9918297529220581,,,
,portrait,0.9857456684112549,,,
,student,0.9850607514381409,,,
,woman,0.9834320545196533,,,
,people,0.9823334217071533,,,
,friendship,0.9801480174064636,,,
,education,0.9745419025421143,,,
,adolescent,0.9633030891418457,,,
,school,0.9632634520530701,,,
,collage,0.9626806974411011,,,
,togetherness,0.9531307220458984,,,
,man,0.9329136610031128,,,
,happiness,0.9295011758804321,,,
,horizontal,0.9234520792961121,,,
,multicultural,0.9148252010345459,,,
,laughing,0.9076610803604126,,,
,many,0.9053364396095276,,,
,smile,0.8958463668823242,,,
,uni,0.8924684524536133,,,
https://scontent.cdninstagram.com/t51.2885-15/s750x750/sh0.08/e35/12905252_845691972206194_1720105923_n.jpg,woman,0.9764755964279175,,,
,people,0.9738861322402954,,,
,outdoors,0.9734717607498169,,,
,man,0.9680149555206299,,,
,portrait,0.9631189107894897,,,
,adult,0.9394974708557129,,,
,leisure,0.935396671295166,,,
,recreation,0.933019757270813,,,
,togetherness,0.9232815504074097,,,
,two,0.9105260372161865,,,
,happiness,0.9070589542388916,,,
,girl,0.9006191492080688,,,
,family,0.8953059911727905,,,
,child,0.8900073170661926,,,
,enjoyment,0.8837214708328247,,,
,fun,0.8829785585403442,,,
,love,0.8768184185028076,,,
,summer,0.8745651245117188,,,
,lifestyle,0.8720630407333374,,,
,park,0.8700886368751526,,,
https://scontent.cdninstagram.com/t51.2885-15/e35/12353854_799564690166255_998065103_n.jpg,Christmas,0.999015212059021,,,
,winter,0.9986035823822021,,,
,decoration,0.9959948658943176,,,
,celebration,0.990263044834137,,,
,"no person",0.9877631664276123,,,
,season,0.9848621487617493,,,
,tree,0.9770439863204956,,,
,wreath,0.9742349982261658,,,
,"interior design",0.9731788635253906,,,
,nature,0.967211127281189,,,
,gift,0.9573053121566772,,,
,card,0.941902756690979,,,
,leaf,0.9409191012382507,,,
,pine,0.9393492937088013,,,
,fir,0.9372463226318359,,,
,merry,0.9331856966018677,,,
,holly,0.9281008243560791,,,
,flower,0.9278512001037598,,,
,poinsettia,0.9128240346908569,,,
,flora,0.9127792119979858,,,
https://scontent.cdninstagram.com/t51.2885-15/e35/12530740_1524967467802030_1877638247_n.jpg,group,0.9857953786849976,,,
,woman,0.9833911657333374,,,
,group,0.9723667502403259,,,
,student,0.9717317223548889,,,
,friendship,0.9616613388061523,,,
,multicultural,0.9511450529098511,,,
,adolescent,0.9346300959587097,,,
,people,0.9316692352294922,,,
,laughing,0.9167053699493408,,,
,four,0.9146164655685425,,,
,fun,0.9126968383789062,,,
,togetherness,0.9100407958030701,,,
,young,0.9033347368240356,,,
,portrait,0.8958446979522705,,,
,family,0.8907066583633423,,,
,joy,0.8664019107818604,,,
,man,0.8532902002334595,,,
,happiness,0.8512732982635498,,,
,unity,0.8492870330810547,,,
,casual,0.835791826248169,,,
https://scontent.cdninstagram.com/t51.2885-15/e35/12292744_606024622871980_1635385388_n.jpg,people,0.9729260802268982,,,
,woman,0.946413516998291,,,
,celebration,0.9303719997406006,,,
,man,0.9268167018890381,,,
,street,0.921898365020752,,,
,fun,0.9191874265670776,,,
,festival,0.8905844688415527,,,
,young,0.8720667362213135,,,
,show,0.8719189167022705,,,
,event,0.8690558075904846,,,
,family,0.8607965707778931,,,
,group,0.8605880737304688,,,
,costume,0.8457322120666504,,,
,person,0.8344281315803528,,,
,sport,0.829228401184082,,,
,party,0.8159984350204468,,,
,parade,0.8114473819732666,,,
,crowd,0.805328369140625,,,
,editorial,0.8039417266845703,,,
,shopping,0.7936360836029053,,,
https://scontent.cdninstagram.com/t51.2885-15/s750x750/sh0.08/e35/12256814_986180718087329_863622574_n.jpg,group,0.9845031499862671,,,
,group,0.9710105657577515,,,
,man,0.9626661539077759,,,
,child,0.9614992141723633,,,
,student,0.9531030654907227,,,
,togetherness,0.9244097471237183,,,
,woman,0.9224072098731995,,,
,four,0.9196747541427612,,,
,adolescent,0.906553328037262,,,
,friendship,0.9015516042709351,,,
,squad,0.9010409712791443,,,
,unity,0.8666599988937378,,,
,people,0.844758152961731,,,
,education,0.8337792754173279,,,
,portrait,0.8200056552886963,,,
,five,0.8185153007507324,,,
,family,0.8124369978904724,,,
,boy,0.8097000122070312,,,
,happiness,0.8017709255218506,,,
,boy,0.7893244028091431,,,
https://scontent.cdninstagram.com/t51.2885-15/s750x750/sh0.08/e35/12256814_986180718087329_863622574_n.jpg,group,0.9845031499862671,,,
,group,0.9710105657577515,,,
,man,0.9626661539077759,,,
,child,0.9614992141723633,,,
,student,0.9531030654907227,,,
,togetherness,0.9244097471237183,,,
,woman,0.9224072098731995,,,
,four,0.9196747541427612,,,
,adolescent,0.906553328037262,,,
,friendship,0.9015516042709351,,,
,squad,0.9010409712791443,,,
,unity,0.8666599988937378,,,
,people,0.844758152961731,,,
,education,0.8337792754173279,,,
,portrait,0.8200056552886963,,,
,five,0.8185153007507324,,,
,family,0.8124369978904724,,,
,boy,0.8097000122070312,,,
,happiness,0.8017709255218506,,,
,boy,0.7893244028091431,,,
https://scontent.cdninstagram.com/l/t51.2885-15/e35/11887253_761743333955101_125672881_n.jpg,group,0.9809432029724121,,,
,man,0.9731520414352417,,,
,people,0.9595941305160522,,,
,woman,0.9543404579162598,,,
,friendship,0.941648006439209,,,
,group,0.930483877658844,,,
,squad,0.9195838570594788,,,
,many,0.9072999954223633,,,
,teamwork,0.8993344306945801,,,
,education,0.8898442983627319,,,
,student,0.8890821933746338,,,
,business,0.8885151147842407,,,
,portrait,0.8789142966270447,,,
,happiness,0.8712668418884277,,,
,togetherness,0.8648967742919922,,,
,young,0.8490852117538452,,,
,adult,0.8488060832023621,,,
,isolated,0.8394377827644348,,,
,unity,0.8283755779266357,,,
,fun,0.8274844288825989,,,
https://scontent.cdninstagram.com/t51.2885-15/e35/12353854_799564690166255_998065103_n.jpg,Christmas,0.999015212059021,,,
,winter,0.9986035823822021,,,
,decoration,0.9959948658943176,,,
,celebration,0.990263044834137,,,
,"no person",0.9877631664276123,,,
,season,0.9848621487617493,,,
,tree,0.9770439863204956,,,
,wreath,0.9742349982261658,,,
,"interior design",0.9731788635253906,,,
,nature,0.967211127281189,,,
,gift,0.9573053121566772,,,
,card,0.941902756690979,,,
,leaf,0.9409191012382507,,,
,pine,0.9393492937088013,,,
,fir,0.9372463226318359,,,
,merry,0.9331856966018677,,,
,holly,0.9281008243560791,,,
,flower,0.9278512001037598,,,
,poinsettia,0.9128240346908569,,,
,flora,0.9127792119979858,,,
https://scontent.cdninstagram.com/t51.2885-15/e35/12912338_476022775915827_1535541122_n.jpg,recreation,0.9860585927963257,recreation,,
,group,0.9802988767623901,,,
,group,0.9779642820358276,,,
,woman,0.9774096012115479,,,
,people,0.967815637588501,,,
,enjoyment,0.9627452492713928,,,
,leisure,0.9368464946746826,,,
,togetherness,0.9336398839950562,,,
,fun,0.9263405203819275,,,
,friendship,0.9200106859207153,,,
,beach,0.9157187342643738,,,
,adolescent,0.9097949266433716,,,
,four,0.9097071886062622,,,
,daylight,0.9082070589065552,,,
,outdoors,0.9079207181930542,,,
,man,0.9035394787788391,,,
,wear,0.8927136659622192,,,
,"facial expression",0.8902310132980347,,,
,adult,0.8889040946960449,,,
,child,0.8842377066612244,,,
https://scontent.cdninstagram.com/t51.2885-15/e35/12135216_446722295520421_1049521213_n.jpg,group,0.9915026426315308,,,
,squad,0.9847463965415955,,,
,collage,0.9783807992935181,,,
,people,0.9743778705596924,,,
,woman,0.9731788635253906,,,
,teamwork,0.9728683829307556,,,
,business,0.9661064147949219,,,
,man,0.9589488506317139,,,
,education,0.9553451538085938,,,
,group,0.9381992816925049,,,
,company,0.934044361114502,,,
,portrait,0.9303967952728271,,,
,adult,0.9195611476898193,,,
,isolated,0.915440022945404,,,
,success,0.9093289375305176,,,
,many,0.9065752029418945,,,
,student,0.8990739583969116,,,
,meeting,0.8868372440338135,,,
,young,0.88605797290802,,,
,corporate,0.8835534453392029,,,
https://scontent.cdninstagram.com/t51.2885-15/e35/12135216_446722295520421_1049521213_n.jpg,group,0.9915026426315308,,,
,squad,0.9847463965415955,,,
,collage,0.9783807992935181,,,
,people,0.9743778705596924,,,
,woman,0.9731788635253906,,,
,teamwork,0.9728683829307556,,,
,business,0.9661064147949219,,,
,man,0.9589488506317139,,,
,education,0.9553451538085938,,,
,group,0.9381992816925049,,,
,company,0.934044361114502,,,
,portrait,0.9303967952728271,,,
,adult,0.9195611476898193,,,
,isolated,0.915440022945404,,,
,success,0.9093289375305176,,,
,many,0.9065752029418945,,,
,student,0.8990739583969116,,,
,meeting,0.8868372440338135,,,
,young,0.88605797290802,,,
,corporate,0.8835534453392029,,,
https://scontent.cdninstagram.com/t51.2885-15/e35/11909171_804770712978121_944070629_n.jpg,people,0.9815437197685242,,,
,woman,0.9712145328521729,,,
,group,0.9657907485961914,,,
,child,0.95820152759552,,,
,man,0.9458160400390625,,,
,many,0.9299323558807373,,,
,fun,0.9254186153411865,,,
,family,0.9076273441314697,,,
,enjoyment,0.878628134727478,,,
,group,0.8728708028793335,,,
,vehicle,0.8687089085578918,,,
,school,0.8605095148086548,,,
,education,0.8519033193588257,,,
,outdoors,0.8441683650016785,,,
,happiness,0.8441448211669922,,,
,celebration,0.8416469097137451,,,
,travel,0.8254877328872681,,,
,togetherness,0.8215256929397583,,,
,recreation,0.8012980818748474,,,
,adult,0.7895641922950745,,,
https://scontent.cdninstagram.com/t51.2885-15/e35/12825945_749178618551671_1210832176_n.jpg,sunglasses,0.9981057643890381,,,
,eyewear,0.9876055717468262,,,
,people,0.983945906162262,,,
,portrait,0.9755610227584839,,,
,adult,0.9572045803070068,,,
,woman,0.9534883499145508,,,
,fun,0.9527595043182373,,,
,man,0.9502668380737305,,,
,girl,0.9108757376670837,,,
,eyeglasses,0.9096248149871826,,,
,wear,0.9060215950012207,,,
,music,0.9056065082550049,,,
,recreation,0.8967721462249756,,,
,"facial expression",0.8837213516235352,,,
,happiness,0.8800252676010132,,,
,festival,0.8755244016647339,,,
,two,0.8737301826477051,,,
,child,0.8732860088348389,,,
,leisure,0.870588481426239,,,
,summer,0.8602468967437744,,,
https://scontent.cdninstagram.com/t51.2885-15/s640x640/sh0.08/e35/926577_1501218716851051_1763513800_n.jpg,flash,0.9954520463943481,,,
,explosion,0.9939230680465698,,,
,flame,0.9933434724807739,,,
,flare,0.9918375611305237,,,
,light,0.9903485774993896,,,
,spark,0.9808490872383118,,,
,bright,0.9756582975387573,,,
,energy,0.9703491926193237,,,
,abstract,0.968476414680481,,,
,luminescence,0.9680936336517334,,,
,bang,0.9673060178756714,,,
,blast,0.9660281538963318,,,
,festival,0.9651212692260742,,,
,sun,0.9617185592651367,,,
,warmly,0.9536060094833374,,,
,light,0.9531322717666626,,,
,magic,0.9476581811904907,,,
,dark,0.9424118995666504,,,
,glare,0.9355779886245728,,,
,solar,0.9294569492340088,,,
https://scontent.cdninstagram.com/t51.2885-15/e35/12230863_168689803483187_2100033250_n.jpg,people,0.9702573418617249,,,
,fun,0.9681158661842346,,,
,man,0.9451457858085632,,,
,woman,0.9411857724189758,,,
,travel,0.9182953834533691,,,
,outdoors,0.9107519388198853,,,
,summer,0.8991156220436096,,,
,vacation,0.8836057186126709,,,
,person,0.879990816116333,,,
,young,0.8683173656463623,,,
,business,0.8666895627975464,,,
,child,0.8625307679176331,,,
,leisure,0.8617254495620728,,,
,recreation,0.8596192598342896,,,
,motion,0.8211701512336731,,,
,adult,0.8163213133811951,,,
,water,0.8059637546539307,,,
,group,0.7999943494796753,,,
,lifestyle,0.7942987680435181,,,
,enjoyment,0.7924256324768066,,,
https://scontent.cdninstagram.com/t51.2885-15/s750x750/sh0.08/e35/12224429_204967349834550_632562951_n.jpg,togetherness,0.9898664951324463,,,
,water,0.9889925718307495,,,
,woman,0.9779266119003296,,,
,fun,0.9774224758148193,,,
,leisure,0.9770728349685669,,,
,travel,0.9768334627151489,,,
,recreation,0.967990517616272,,,
,friendship,0.9564240574836731,,,
,vacation,0.9422472715377808,,,
,child,0.9421799182891846,,,
,man,0.9402636289596558,,,
,enjoyment,0.9347288608551025,,,
,love,0.9301764965057373,,,
,summer,0.9266190528869629,,,
,people,0.9263642430305481,,,
,sand,0.91367506980896,,,
,young,0.9128628969192505,,,
,beach,0.8934645056724548,,,
,adolescent,0.8914285898208618,,,
,sea,0.8832340836524963,,,
https://scontent.cdninstagram.com/t51.2885-15/e35/12825945_749178618551671_1210832176_n.jpg,sunglasses,0.9981057643890381,,,
,eyewear,0.9876055717468262,,,
,people,0.983945906162262,,,
,portrait,0.9755610227584839,,,
,adult,0.9572045803070068,,,
,woman,0.9534883499145508,,,
,fun,0.9527595043182373,,,
,man,0.9502668380737305,,,
,girl,0.9108757376670837,,,
,eyeglasses,0.9096248149871826,,,
,wear,0.9060215950012207,,,
,music,0.9056065082550049,,,
,recreation,0.8967721462249756,,,
,"facial expression",0.8837213516235352,,,
,happiness,0.8800252676010132,,,
,festival,0.8755244016647339,,,
,two,0.8737301826477051,,,
,child,0.8732860088348389,,,
,leisure,0.870588481426239,,,
,summer,0.8602468967437744,,,
https://scontent.cdninstagram.com/t51.2885-15/e15/11326690_1666740670223690_1320050690_n.jpg,child,0.998422384262085,,,
,education,0.9898816347122192,,,
,boy,0.974434494972229,,,
,school,0.9736820459365845,,,
,"elementary school",0.9636281728744507,,,
,schoolboy,0.9631264805793762,,,
,little,0.942618727684021,,,
,student,0.9343134164810181,,,
,people,0.9303869605064392,,,
,cute,0.9225649833679199,,,
,homework,0.9224674701690674,,,
,elementary,0.9172078371047974,,,
,preschool,0.9158799052238464,,,
,isolated,0.903033971786499,,,
,fun,0.901739239692688,,,
,pupils,0.8940060138702393,,,
,paper,0.8939890265464783,,,
,adolescent,0.8926939368247986,,,
,man,0.8826125264167786,,,
,family,0.8811957240104675,,,
https://scontent.cdninstagram.com/t51.2885-15/e35/11821893_526360587527091_1865469469_n.jpg,child,0.9971309900283813,,,
,school,0.9769481420516968,,,
,smile,0.9689353108406067,,,
,portrait,0.9592142701148987,,,
,boy,0.9513252973556519,,,
,education,0.9481310844421387,,,
,happiness,0.9445674419403076,,,
,people,0.9438251256942749,,,
,joy,0.9394701719284058,,,
,girl,0.9333375692367554,,,
,friendship,0.9330055117607117,,,
,fun,0.9321556091308594,,,
,student,0.9260756969451904,,,
,cheerful,0.9042195081710815,,,
,boy,0.8904580473899841,,,
,adolescent,0.8827409744262695,,,
,group,0.8714389801025391,,,
,woman,0.8638613224029541,,,
,pride,0.8508592844009399,,,
,little,0.8498450517654419,,,
https://scontent.cdninstagram.com/t51.2885-15/e15/11378199_1650654781847084_1388339003_n.jpg,man,0.9850680828094482,,,
,people,0.9740099906921387,,,
,celebration,0.9712679386138916,,,
,flag,0.9673730134963989,,,
,squad,0.9486076831817627,,,
,national,0.9480011463165283,,,
,populace,0.9383236169815063,,,
,fun,0.920464813709259,,,
,illustration,0.9093835949897766,,,
,crowd,0.9030986428260803,,,
,costume,0.8850587606430054,,,
,banner,0.8795583248138428,,,
,lid,0.8789008855819702,,,
,party,0.8748079538345337,,,
,sport,0.8743932843208313,,,
,uniform,0.8682894110679626,,,
,patriotism,0.8610559105873108,,,
,pride,0.8581104278564453,,,
,woman,0.8552982807159424,,,
,audience,0.8472044467926025,,,
https://scontent.cdninstagram.com/t51.2885-15/e35/12142261_906783699369108_774061235_n.jpg,child,0.9837319850921631,,,
,people,0.9752291440963745,,,
,group,0.9670201539993286,,,
,education,0.9641072750091553,,,
,woman,0.9566339254379272,,,
,school,0.9541914463043213,,,
,man,0.9121983647346497,,,
,portrait,0.9109306335449219,,,
,boy,0.9085316061973572,,,
,adult,0.8575102090835571,,,
,wear,0.8222812414169312,,,
,recreation,0.7932702898979187,,,
,family,0.7814059257507324,,,
,schoolboy,0.7618474960327148,,,
,young,0.7575467824935913,,,
,uniform,0.7538247108459473,,,
,sunglasses,0.7443538904190063,,,
,happiness,0.7317759990692139,,,
,teacher,0.7287827730178833,,,
,girl,0.7278217673301697,,,
https://scontent.cdninstagram.com/t51.2885-15/e15/11382538_1588286231461132_486486550_n.jpg,people,0.9766275882720947,,,
,woman,0.9639760255813599,,,
,man,0.9546564817428589,,,
,business,0.9502068758010864,,,
,illustration,0.948992908000946,,,
,collection,0.8914426565170288,,,
,adult,0.8850098848342896,,,
,vector,0.883711576461792,,,
,collage,0.8783704042434692,,,
,person,0.873798131942749,,,
,desktop,0.864897608757019,,,
,isolated,0.8577647805213928,,,
,group,0.847753643989563,,,
,education,0.8412656784057617,,,
,young,0.829275369644165,,,
,set,0.827186107635498,,,
,paper,0.8230924606323242,,,
,card,0.8210068941116333,,,
,fashion,0.803260326385498,,,
,portrait,0.7962045669555664,,,
https://scontent.cdninstagram.com/t51.2885-15/e15/11426437_361601454050035_1881424926_n.jpg,child,0.9842638969421387,,,
,education,0.9775333404541016,,,
,collage,0.9721542000770569,,,
,school,0.9659088850021362,,,
,group,0.9642944931983948,,,
,people,0.9625194072723389,,,
,many,0.9556580781936646,,,
,student,0.943257212638855,,,
,squad,0.9426835775375366,,,
,woman,0.9426824450492859,,,
,man,0.942118227481842,,,
,friendship,0.9364262819290161,,,
,group,0.927972674369812,,,
,display,0.8531366586685181,,,
,multicultural,0.8518754243850708,,,
,academic,0.8510618209838867,,,
,isolated,0.8457523584365845,,,
,togetherness,0.8445836305618286,,,
,class,0.8410141468048096,,,
,fun,0.840337872505188,,,
https://scontent.cdninstagram.com/t51.2885-15/e35/10809625_875504349204595_1993547417_n.jpg,hand,0.9800062775611877,,,
,business,0.9386987686157227,,,
,people,0.9367855787277222,,,
,woman,0.93507981300354,,,
,isolated,0.9231504201889038,,,
,man,0.9111833572387695,,,
,human,0.8914061784744263,,,
,paper,0.8813490867614746,,,
,education,0.8748235702514648,,,
,touch,0.8571077585220337,,,
,symbol,0.8475242257118225,,,
,finger,0.8446351289749146,,,
,sign,0.8318833112716675,,,
,desktop,0.8226613998413086,,,
,finger,0.8207347393035889,,,
,communication,0.8196182250976562,,,
,person,0.8076803684234619,,,
,identity,0.7956845760345459,,,
,palm,0.7601305246353149,,,
,thumb,0.7584397196769714,,,
https://scontent.cdninstagram.com/t51.2885-15/e35/11385237_675756045889705_526929972_n.jpg,group,0.9600691795349121,,,
,woman,0.9572229981422424,,,
,business,0.9343819618225098,,,
,man,0.9338223934173584,,,
,people,0.9331659078598022,,,
,desktop,0.931498110294342,,,
,squad,0.924710750579834,,,
,adult,0.917526364326477,,,
,teamwork,0.9138237237930298,,,
,portrait,0.9026632905006409,,,
,happiness,0.8686080574989319,,,
,group,0.8667949438095093,,,
,success,0.8553058505058289,,,
,celebration,0.8462704420089722,,,
,corporate,0.8365219831466675,,,
,office,0.8352339267730713,,,
,young,0.832449197769165,,,
,smile,0.8262042999267578,,,
,isolated,0.8251194953918457,,,
,modern,0.8074871301651001,,,
https://scontent.cdninstagram.com/t51.2885-15/e15/11334513_1452386031722015_219255311_n.jpg,people,0.9643691778182983,,,
,education,0.9478334188461304,,,
,child,0.944235622882843,,,
,man,0.9367140531539917,,,
,school,0.909294843673706,,,
,sit,0.8929365873336792,,,
,woman,0.8892679214477539,,,
,indoors,0.79497230052948,,,
,family,0.7741596102714539,,,
,adult,0.7681378126144409,,,
,service,0.7623227834701538,,,
,chair,0.7534637451171875,,,
,classroom,0.748265266418457,,,
,group,0.7468414306640625,,,
,boy,0.7417095899581909,,,
,friendship,0.7278155088424683,,,
,schoolboy,0.7198682427406311,,,
,fun,0.709730863571167,,,
,togetherness,0.7019999623298645,,,
,business,0.6986345052719116,,,
https://scontent.cdninstagram.com/t51.2885-15/e35/11849991_860522114040186_1223066201_n.jpg,people,0.9798578023910522,,,
,collage,0.97865891456604,,,
,man,0.9370514750480652,,,
,illustration,0.9312447309494019,,,
,woman,0.9091074466705322,,,
,child,0.8989803791046143,,,
,business,0.8978344202041626,,,
,isolated,0.8847578763961792,,,
,desktop,0.8511545658111572,,,
,collection,0.8485987186431885,,,
,group,0.8362908363342285,,,
,food,0.834659218788147,,,
,set,0.8277946710586548,,,
,travel,0.8213852643966675,,,
,family,0.815402626991272,,,
,person,0.8152658939361572,,,
,vector,0.811312735080719,,,
,many,0.8028925657272339,,,
,fun,0.7992281913757324,,,
,young,0.7889993786811829,,,
https://scontent.cdninstagram.com/t51.2885-15/e15/11378199_1650654781847084_1388339003_n.jpg,man,0.9850680828094482,,,
,people,0.9740099906921387,,,
,celebration,0.9712679386138916,,,
,flag,0.9673730134963989,,,
,squad,0.9486076831817627,,,
,national,0.9480011463165283,,,
,populace,0.9383236169815063,,,
,fun,0.920464813709259,,,
,illustration,0.9093835949897766,,,
,crowd,0.9030986428260803,,,
,costume,0.8850587606430054,,,
,banner,0.8795583248138428,,,
,lid,0.8789008855819702,,,
,party,0.8748079538345337,,,
,sport,0.8743932843208313,,,
,uniform,0.8682894110679626,,,
,patriotism,0.8610559105873108,,,
,pride,0.8581104278564453,,,
,woman,0.8552982807159424,,,
,audience,0.8472044467926025,,,
https://scontent.cdninstagram.com/t51.2885-15/e35/11925764_1675474712671246_1786411175_n.jpg,jar,0.9987689256668091,,,
,glass,0.9984046220779419,,,
,container,0.9865521788597107,,,
,preserve,0.9766470193862915,,,
,bottle,0.9696917533874512,,,
,"no person",0.9571171998977661,,,
,isolated,0.9471945762634277,,,
,healthy,0.9458407163619995,,,
,liquid,0.9331744909286499,,,
,health,0.9323773384094238,,,
,desktop,0.9270905256271362,,,
,food,0.9219684600830078,,,
,homemade,0.9188050627708435,,,
,full,0.9178111553192139,,,
,isolated,0.8960145711898804,,,
,refreshment,0.8951818346977234,,,
,plastic,0.8918546438217163,,,
,drink,0.8683842420578003,,,
,clean,0.8680844902992249,,,
,lid,0.8657735586166382,,,
https://scontent.cdninstagram.com/t51.2885-15/e35/11375398_1685072038389276_1563325644_n.jpg,man,0.9862284660339355,,,
,uniform,0.9843573570251465,,,
,people,0.9802416563034058,,,
,education,0.9692165851593018,,,
,woman,0.9679993987083435,,,
,success,0.9675885438919067,,,
,pride,0.9639385938644409,,,
,school,0.9574171304702759,,,
,accomplishment,0.9567416906356812,,,
,college,0.9334502816200256,,,
,student,0.9332019090652466,,,
,multicultural,0.9262811541557312,,,
,success,0.906374454498291,,,
,graduation,0.9001287221908569,,,
,healthcare,0.888504147529602,,,
,young,0.8829367160797119,,,
,university,0.8794136047363281,,,
,business,0.8788049221038818,,,
,friendly,0.8736522197723389,,,
,togetherness,0.8685569167137146,,,
https://scontent.cdninstagram.com/t51.2885-15/e35/11934903_722973987809128_1367058456_n.jpg,student,0.9968398809432983,,,
,school,0.9882322549819946,,,
,group,0.9824894666671753,,,
,education,0.9819833040237427,,,
,friendship,0.981834888458252,,,
,child,0.9774280786514282,,,
,adolescent,0.9759345054626465,,,
,woman,0.9737128019332886,,,
,people,0.9537827968597412,,,
,multicultural,0.9517165422439575,,,
,university,0.9516910314559937,,,
,college,0.9399018287658691,,,
,togetherness,0.9341282844543457,,,
,portrait,0.9264771938323975,,,
,man,0.9199317693710327,,,
,group,0.9182260632514954,,,
,academic,0.9087464809417725,,,
,squad,0.9049850702285767,,,
,family,0.8929944038391113,,,
,young,0.8858156800270081,,,
https://scontent.cdninstagram.com/t51.2885-15/e15/11379746_1393913417605530_1015137902_n.jpg,illustration,0.9703667759895325,,,
,symbol,0.9460952281951904,,,
,text,0.938244104385376,,,
,desktop,0.9213530421257019,,,
,sign,0.8982182741165161,,,
,card,0.8930969834327698,,,
,business,0.8899037837982178,,,
,graphic,0.8801248669624329,,,
,chalk,0.8539835214614868,,,
,typography,0.8537439107894897,,,
,design,0.851163387298584,,,
,vector,0.845979630947113,,,
,chalkboard,0.8374065160751343,,,
,abstract,0.8371419906616211,,,
,bill,0.8310801982879639,,,
,silhouette,0.8297871351242065,,,
,isolated,0.8073170185089111,,,
,travel,0.8032329082489014,,,
,country,0.7884721755981445,,,
,greeting,0.780631422996521,,,
https://scontent.cdninstagram.com/t51.2885-15/e15/11426437_361601454050035_1881424926_n.jpg,child,0.9842638969421387,,,
,education,0.9775333404541016,,,
,collage,0.9721542000770569,,,
,school,0.9659088850021362,,,
,group,0.9642944931983948,,,
,people,0.9625194072723389,,,
,many,0.9556580781936646,,,
,student,0.943257212638855,,,
,squad,0.9426835775375366,,,
,woman,0.9426824450492859,,,
,man,0.942118227481842,,,
,friendship,0.9364262819290161,,,
,group,0.927972674369812,,,
,display,0.8531366586685181,,,
,multicultural,0.8518754243850708,,,
,academic,0.8510618209838867,,,
,isolated,0.8457523584365845,,,
,togetherness,0.8445836305618286,,,
,class,0.8410141468048096,,,
,fun,0.840337872505188,,,
https://scontent.cdninstagram.com/t51.2885-15/s640x640/sh0.08/e35/12905129_1582507405396036_2073923332_n.jpg,woman,0.9846810102462769,recreation,,
,group,0.9802435636520386,,,
,group,0.9763860702514648,,,
,adult,0.9707604646682739,,,
,man,0.9593031406402588,,,
,people,0.9422308206558228,,,
,portrait,0.9409279823303223,,,
,"facial expression",0.9155352115631104,,,
,teacher,0.8682382106781006,,,
,recreation,0.8653329610824585,,,
,energy,0.8618201613426208,,,
,education,0.8488940000534058,,,
,music,0.8339710831642151,,,
,singer,0.8175928592681885,,,
,squad,0.8168736696243286,,,
,competition,0.813085675239563,,,
,adolescent,0.8129736185073853,,,
,school,0.8070985674858093,,,
,indoors,0.8017670512199402,,,
,musician,0.7989736795425415,,,
https://scontent.cdninstagram.com/t51.2885-15/e35/11925764_1675474712671246_1786411175_n.jpg,jar,0.9987689256668091,,,
,glass,0.9984046220779419,,,
,container,0.9865521788597107,,,
,preserve,0.9766470193862915,,,
,bottle,0.9696917533874512,,,
,"no person",0.9571171998977661,,,
,isolated,0.9471945762634277,,,
,healthy,0.9458407163619995,,,
,liquid,0.9331744909286499,,,
,health,0.9323773384094238,,,
,desktop,0.9270905256271362,,,
,food,0.9219684600830078,,,
,homemade,0.9188050627708435,,,
,full,0.9178111553192139,,,
,isolated,0.8960145711898804,,,
,refreshment,0.8951818346977234,,,
,plastic,0.8918546438217163,,,
,drink,0.8683842420578003,,,
,clean,0.8680844902992249,,,
,lid,0.8657735586166382,,,
https://scontent.cdninstagram.com/t51.2885-15/e35/10809625_875504349204595_1993547417_n.jpg,hand,0.9800062775611877,,,
,business,0.9386987686157227,,,
,people,0.9367855787277222,,,
,woman,0.93507981300354,,,
,isolated,0.9231504201889038,,,
,man,0.9111833572387695,,,
,human,0.8914061784744263,,,
,paper,0.8813490867614746,,,
,education,0.8748235702514648,,,
,touch,0.8571077585220337,,,
,symbol,0.8475242257118225,,,
,finger,0.8446351289749146,,,
,sign,0.8318833112716675,,,
,desktop,0.8226613998413086,,,
,finger,0.8207347393035889,,,
,communication,0.8196182250976562,,,
,person,0.8076803684234619,,,
,identity,0.7956845760345459,,,
,palm,0.7601305246353149,,,
,thumb,0.7584397196769714,,,
https://scontent.cdninstagram.com/t51.2885-15/e35/11849991_860522114040186_1223066201_n.jpg,people,0.9798578023910522,,,
,collage,0.97865891456604,,,
,man,0.9370514750480652,,,
,illustration,0.9312447309494019,,,
,woman,0.9091074466705322,,,
,child,0.8989803791046143,,,
,business,0.8978344202041626,,,
,isolated,0.8847578763961792,,,
,desktop,0.8511545658111572,,,
,collection,0.8485987186431885,,,
,group,0.8362908363342285,,,
,food,0.834659218788147,,,
,set,0.8277946710586548,,,
,travel,0.8213852643966675,,,
,family,0.815402626991272,,,
,person,0.8152658939361572,,,
,vector,0.811312735080719,,,
,many,0.8028925657272339,,,
,fun,0.7992281913757324,,,
,young,0.7889993786811829,,,
https://scontent.cdninstagram.com/t51.2885-15/e15/11382538_1588286231461132_486486550_n.jpg,people,0.9766275882720947,,,
,woman,0.9639760255813599,,,
,man,0.9546564817428589,,,
,business,0.9502068758010864,,,
,illustration,0.948992908000946,,,
,collection,0.8914426565170288,,,
,adult,0.8850098848342896,,,
,vector,0.883711576461792,,,
,collage,0.8783704042434692,,,
,person,0.873798131942749,,,
,desktop,0.864897608757019,,,
,isolated,0.8577647805213928,,,
,group,0.847753643989563,,,
,education,0.8412656784057617,,,
,young,0.829275369644165,,,
,set,0.827186107635498,,,
,paper,0.8230924606323242,,,
,card,0.8210068941116333,,,
,fashion,0.803260326385498,,,
,portrait,0.7962045669555664,,,
https://scontent.cdninstagram.com/t51.2885-15/e35/11375398_1685072038389276_1563325644_n.jpg,man,0.9862284660339355,,,
,uniform,0.9843573570251465,,,
,people,0.9802416563034058,,,
,education,0.9692165851593018,,,
,woman,0.9679993987083435,,,
,success,0.9675885438919067,,,
,pride,0.9639385938644409,,,
,school,0.9574171304702759,,,
,accomplishment,0.9567416906356812,,,
,college,0.9334502816200256,,,
,student,0.9332019090652466,,,
,multicultural,0.9262811541557312,,,
,success,0.906374454498291,,,
,graduation,0.9001287221908569,,,
,healthcare,0.888504147529602,,,
,young,0.8829367160797119,,,
,university,0.8794136047363281,,,
,business,0.8788049221038818,,,
,friendly,0.8736522197723389,,,
,togetherness,0.8685569167137146,,,
https://scontent.cdninstagram.com/t51.2885-15/e35/11385237_675756045889705_526929972_n.jpg,group,0.9600691795349121,,,
,woman,0.9572229981422424,,,
,business,0.9343819618225098,,,
,man,0.9338223934173584,,,
,people,0.9331659078598022,,,
,desktop,0.931498110294342,,,
,squad,0.924710750579834,,,
,adult,0.917526364326477,,,
,teamwork,0.9138237237930298,,,
,portrait,0.9026632905006409,,,
,happiness,0.8686080574989319,,,
,group,0.8667949438095093,,,
,success,0.8553058505058289,,,
,celebration,0.8462704420089722,,,
,corporate,0.8365219831466675,,,
,office,0.8352339267730713,,,
,young,0.832449197769165,,,
,smile,0.8262042999267578,,,
,isolated,0.8251194953918457,,,
,modern,0.8074871301651001,,,
https://scontent.cdninstagram.com/t51.2885-15/e15/11372034_1395489757447858_1037393047_n.jpg,child,0.9859281778335571,,,
,school,0.9717159867286682,,,
,friendship,0.9680204391479492,,,
,man,0.9641417264938354,,,
,people,0.9511472582817078,,,
,togetherness,0.9511061906814575,,,
,education,0.9473787546157837,,,
,student,0.9425738453865051,,,
,group,0.9416370391845703,,,
,woman,0.9372702836990356,,,
,family,0.9359004497528076,,,
,boy,0.9332060217857361,,,
,adolescent,0.9253615140914917,,,
,squad,0.9248142242431641,,,
,group,0.9036062955856323,,,
,portrait,0.9021325707435608,,,
,fun,0.8880094289779663,,,
,multicultural,0.8704892992973328,,,
,happiness,0.857939600944519,,,
,sport,0.8570946455001831,,,
https://scontent.cdninstagram.com/t51.2885-15/e15/11334513_1452386031722015_219255311_n.jpg,people,0.9643691778182983,,,
,education,0.9478334188461304,,,
,child,0.944235622882843,,,
,man,0.9367140531539917,,,
,school,0.909294843673706,,,
,sit,0.8929365873336792,,,
,woman,0.8892679214477539,,,
,indoors,0.79497230052948,,,
,family,0.7741596102714539,,,
,adult,0.7681378126144409,,,
,service,0.7623227834701538,,,
,chair,0.7534637451171875,,,
,classroom,0.748265266418457,,,
,group,0.7468414306640625,,,
,boy,0.7417095899581909,,,
,friendship,0.7278155088424683,,,
,schoolboy,0.7198682427406311,,,
,fun,0.709730863571167,,,
,togetherness,0.7019999623298645,,,
,business,0.6986345052719116,,,
https://scontent.cdninstagram.com/t51.2885-15/e35/11820615_426473024209649_1764656226_n.jpg,flag,0.9913594722747803,,,
,symbol,0.9800773859024048,,,
,patriotism,0.9645546674728394,,,
,country,0.9641048312187195,,,
,freedom,0.9565290212631226,,,
,illustration,0.9491616487503052,,,
,banner,0.9482093453407288,,,
,national,0.9409034252166748,,,
,woman,0.9337317943572998,,,
,sign,0.9308719635009766,,,
,celebration,0.9266819953918457,,,
,identity,0.9157471656799316,,,
,paper,0.913844108581543,,,
,design,0.9102332592010498,,,
,isolated,0.9066237211227417,,,
,pride,0.8997069001197815,,,
,Christmas,0.8896962404251099,,,
,glory,0.8894527554512024,,,
,desktop,0.8879177570343018,,,
,artistic,0.8822603225708008,,,
https://scontent.cdninstagram.com/t51.2885-15/e15/11372034_1395489757447858_1037393047_n.jpg,child,0.9859281778335571,,,
,school,0.9717159867286682,,,
,friendship,0.9680204391479492,,,
,man,0.9641417264938354,,,
,people,0.9511472582817078,,,
,togetherness,0.9511061906814575,,,
,education,0.9473787546157837,,,
,student,0.9425738453865051,,,
,group,0.9416370391845703,,,
,woman,0.9372702836990356,,,
,family,0.9359004497528076,,,
,boy,0.9332060217857361,,,
,adolescent,0.9253615140914917,,,
,squad,0.9248142242431641,,,
,group,0.9036062955856323,,,
,portrait,0.9021325707435608,,,
,fun,0.8880094289779663,,,
,multicultural,0.8704892992973328,,,
,happiness,0.857939600944519,,,
,sport,0.8570946455001831,,,
https://scontent.cdninstagram.com/t51.2885-15/e35/11821893_526360587527091_1865469469_n.jpg,child,0.9971309900283813,,,
,school,0.9769481420516968,,,
,smile,0.9689353108406067,,,
,portrait,0.9592142701148987,,,
,boy,0.9513252973556519,,,
,education,0.9481310844421387,,,
,happiness,0.9445674419403076,,,
,people,0.9438251256942749,,,
,joy,0.9394701719284058,,,
,girl,0.9333375692367554,,,
,friendship,0.9330055117607117,,,
,fun,0.9321556091308594,,,
,student,0.9260756969451904,,,
,cheerful,0.9042195081710815,,,
,boy,0.8904580473899841,,,
,adolescent,0.8827409744262695,,,
,group,0.8714389801025391,,,
,woman,0.8638613224029541,,,
,pride,0.8508592844009399,,,
,little,0.8498450517654419,,,
https://scontent.cdninstagram.com/t51.2885-15/e35/12230863_168689803483187_2100033250_n.jpg,people,0.9702573418617249,,,
,fun,0.9681158661842346,,,
,man,0.9451457858085632,,,
,woman,0.9411857724189758,,,
,travel,0.9182953834533691,,,
,outdoors,0.9107519388198853,,,
,summer,0.8991156220436096,,,
,vacation,0.8836057186126709,,,
,person,0.879990816116333,,,
,young,0.8683173656463623,,,
,business,0.8666895627975464,,,
,child,0.8625307679176331,,,
,leisure,0.8617254495620728,,,
,recreation,0.8596192598342896,,,
,motion,0.8211701512336731,,,
,adult,0.8163213133811951,,,
,water,0.8059637546539307,,,
,group,0.7999943494796753,,,
,lifestyle,0.7942987680435181,,,
,enjoyment,0.7924256324768066,,,
https://scontent.cdninstagram.com/t51.2885-15/e35/11934903_722973987809128_1367058456_n.jpg,student,0.9968398809432983,,,
,school,0.9882322549819946,,,
,group,0.9824894666671753,,,
,education,0.9819833040237427,,,
,friendship,0.981834888458252,,,
,child,0.9774280786514282,,,
,adolescent,0.9759345054626465,,,
,woman,0.9737128019332886,,,
,people,0.9537827968597412,,,
,multicultural,0.9517165422439575,,,
,university,0.9516910314559937,,,
,college,0.9399018287658691,,,
,togetherness,0.9341282844543457,,,
,portrait,0.9264771938323975,,,
,man,0.9199317693710327,,,
,group,0.9182260632514954,,,
,academic,0.9087464809417725,,,
,squad,0.9049850702285767,,,
,family,0.8929944038391113,,,
,young,0.8858156800270081,,,
https://scontent.cdninstagram.com/t51.2885-15/e15/11349372_944643762233268_1136873941_n.jpg,candy,0.9928097724914551,,,
,chocolate,0.9912500977516174,,,
,sweet,0.9774014949798584,,,
,sugar,0.9751439094543457,,,
,food,0.9609392881393433,,,
,card,0.9586652517318726,,,
,illustration,0.955605149269104,,,
,business,0.934490442276001,,,
,milk,0.9286388158798218,,,
,collage,0.9262562990188599,,,
,desktop,0.9240820407867432,,,
,stock,0.9179753065109253,,,
,celebration,0.9108282923698425,,,
,symbol,0.9075765609741211,,,
,text,0.9073058366775513,,,
,goody,0.9048457145690918,,,
,bill,0.9037396907806396,,,
,confection,0.9017558097839355,,,
,isolated,0.8990187644958496,,,
,paper,0.8973531723022461,,,
https://scontent.cdninstagram.com/t51.2885-15/e15/11326690_1666740670223690_1320050690_n.jpg,child,0.998422384262085,,,
,education,0.9898816347122192,,,
,boy,0.974434494972229,,,
,school,0.9736820459365845,,,
,"elementary school",0.9636281728744507,,,
,schoolboy,0.9631264805793762,,,
,little,0.942618727684021,,,
,student,0.9343134164810181,,,
,people,0.9303869605064392,,,
,cute,0.9225649833679199,,,
,homework,0.9224674701690674,,,
,elementary,0.9172078371047974,,,
,preschool,0.9158799052238464,,,
,isolated,0.903033971786499,,,
,fun,0.901739239692688,,,
,pupils,0.8940060138702393,,,
,paper,0.8939890265464783,,,
,adolescent,0.8926939368247986,,,
,man,0.8826125264167786,,,
,family,0.8811957240104675,,,
https://scontent.cdninstagram.com/t51.2885-15/e35/12142261_906783699369108_774061235_n.jpg,child,0.9837319850921631,,,
,people,0.9752291440963745,,,
,group,0.9670201539993286,,,
,education,0.9641072750091553,,,
,woman,0.9566339254379272,,,
,school,0.9541914463043213,,,
,man,0.9121983647346497,,,
,portrait,0.9109306335449219,,,
,boy,0.9085316061973572,,,
,adult,0.8575102090835571,,,
,wear,0.8222812414169312,,,
,recreation,0.7932702898979187,,,
,family,0.7814059257507324,,,
,schoolboy,0.7618474960327148,,,
,young,0.7575467824935913,,,
,uniform,0.7538247108459473,,,
,sunglasses,0.7443538904190063,,,
,happiness,0.7317759990692139,,,
,teacher,0.7287827730178833,,,
,girl,0.7278217673301697,,,
https://scontent.cdninstagram.com/t51.2885-15/s750x750/sh0.08/e35/12224429_204967349834550_632562951_n.jpg,togetherness,0.9898664951324463,,,
,water,0.9889925718307495,,,
,woman,0.9779266119003296,,,
,fun,0.9774224758148193,,,
,leisure,0.9770728349685669,,,
,travel,0.9768334627151489,,,
,recreation,0.967990517616272,,,
,friendship,0.9564240574836731,,,
,vacation,0.9422472715377808,,,
,child,0.9421799182891846,,,
,man,0.9402636289596558,,,
,enjoyment,0.9347288608551025,,,
,love,0.9301764965057373,,,
,summer,0.9266190528869629,,,
,people,0.9263642430305481,,,
,sand,0.91367506980896,,,
,young,0.9128628969192505,,,
,beach,0.8934645056724548,,,
,adolescent,0.8914285898208618,,,
,sea,0.8832340836524963,,,
https://scontent.cdninstagram.com/l/t51.2885-15/e35/11887253_761743333955101_125672881_n.jpg,group,0.9809432029724121,,,
,man,0.9731520414352417,,,
,people,0.9595941305160522,,,
,woman,0.9543404579162598,,,
,friendship,0.941648006439209,,,
,group,0.930483877658844,,,
,squad,0.9195838570594788,,,
,many,0.9072999954223633,,,
,teamwork,0.8993344306945801,,,
,education,0.8898442983627319,,,
,student,0.8890821933746338,,,
,business,0.8885151147842407,,,
,portrait,0.8789142966270447,,,
,happiness,0.8712668418884277,,,
,togetherness,0.8648967742919922,,,
,young,0.8490852117538452,,,
,adult,0.8488060832023621,,,
,isolated,0.8394377827644348,,,
,unity,0.8283755779266357,,,
,fun,0.8274844288825989,,,
https://scontent.cdninstagram.com/t51.2885-15/e35/11820615_426473024209649_1764656226_n.jpg,flag,0.9913594722747803,,,
,symbol,0.9800773859024048,,,
,patriotism,0.9645546674728394,,,
,country,0.9641048312187195,,,
,freedom,0.9565290212631226,,,
,illustration,0.9491616487503052,,,
,banner,0.9482093453407288,,,
,national,0.9409034252166748,,,
,woman,0.9337317943572998,,,
,sign,0.9308719635009766,,,
,celebration,0.9266819953918457,,,
,identity,0.9157471656799316,,,
,paper,0.913844108581543,,,
,design,0.9102332592010498,,,
,isolated,0.9066237211227417,,,
,pride,0.8997069001197815,,,
,Christmas,0.8896962404251099,,,
,glory,0.8894527554512024,,,
,desktop,0.8879177570343018,,,
,artistic,0.8822603225708008,,,
https://scontent.cdninstagram.com/t51.2885-15/s750x750/sh0.08/e35/13129621_1709531559323280_307706777_n.jpg,festival,0.9814136028289795,recreation,,
,fun,0.9811957478523254,,,
,people,0.9773198366165161,,,
,woman,0.9550001621246338,,,
,celebration,0.9457685947418213,,,
,group,0.941167950630188,,,
,exhilaration,0.9394769668579102,,,
,enjoyment,0.9391018152236938,,,
,music,0.932147204875946,,,
,child,0.9312359690666199,,,
,recreation,0.9014973640441895,,,
,party,0.9014838337898254,,,
,joy,0.9014380574226379,,,
,school,0.871557354927063,,,
,group,0.8672840595245361,,,
,happiness,0.8662351369857788,,,
,travel,0.8623679876327515,,,
,adult,0.861083984375,,,
,girl,0.8602882623672485,,,
,fashion,0.8596045970916748,,,
https://scontent.cdninstagram.com/t51.2885-15/e15/11349372_944643762233268_1136873941_n.jpg,candy,0.9928097724914551,,,
,chocolate,0.9912500977516174,,,
,sweet,0.9774014949798584,,,
,sugar,0.9751439094543457,,,
,food,0.9609392881393433,,,
,card,0.9586652517318726,,,
,illustration,0.955605149269104,,,
,business,0.934490442276001,,,
,milk,0.9286388158798218,,,
,collage,0.9262562990188599,,,
,desktop,0.9240820407867432,,,
,stock,0.9179753065109253,,,
,celebration,0.9108282923698425,,,
,symbol,0.9075765609741211,,,
,text,0.9073058366775513,,,
,goody,0.9048457145690918,,,
,bill,0.9037396907806396,,,
,confection,0.9017558097839355,,,
,isolated,0.8990187644958496,,,
,paper,0.8973531723022461,,,
https://scontent.cdninstagram.com/t51.2885-15/e35/1598537_444632749055594_1046382073_n.jpg,child,0.995198130607605,,,
,group,0.9918297529220581,,,
,portrait,0.9857456684112549,,,
,student,0.9850607514381409,,,
,woman,0.9834320545196533,,,
,people,0.9823334217071533,,,
,friendship,0.9801480174064636,,,
,education,0.9745419025421143,,,
,adolescent,0.9633030891418457,,,
,school,0.9632634520530701,,,
,collage,0.9626806974411011,,,
,togetherness,0.9531307220458984,,,
,man,0.9329136610031128,,,
,happiness,0.9295011758804321,,,
,horizontal,0.9234520792961121,,,
,multicultural,0.9148252010345459,,,
,laughing,0.9076610803604126,,,
,many,0.9053364396095276,,,
,smile,0.8958463668823242,,,
,uni,0.8924684524536133,,,
https://scontent.cdninstagram.com/t51.2885-15/e35/11909171_804770712978121_944070629_n.jpg,people,0.9815437197685242,,,
,woman,0.9712145328521729,,,
,group,0.9657907485961914,,,
,child,0.95820152759552,,,
,man,0.9458160400390625,,,
,many,0.9299323558807373,,,
,fun,0.9254186153411865,,,
,family,0.9076273441314697,,,
,enjoyment,0.878628134727478,,,
,group,0.8728708028793335,,,
,vehicle,0.8687089085578918,,,
,school,0.8605095148086548,,,
,education,0.8519033193588257,,,
,outdoors,0.8441683650016785,,,
,happiness,0.8441448211669922,,,
,celebration,0.8416469097137451,,,
,travel,0.8254877328872681,,,
,togetherness,0.8215256929397583,,,
,recreation,0.8012980818748474,,,
,adult,0.7895641922950745,,,
https://scontent.cdninstagram.com/t51.2885-15/s640x640/sh0.08/e35/926577_1501218716851051_1763513800_n.jpg,flash,0.9954520463943481,,,
,explosion,0.9939230680465698,,,
,flame,0.9933434724807739,,,
,flare,0.9918375611305237,,,
,light,0.9903485774993896,,,
,spark,0.9808490872383118,,,
,bright,0.9756582975387573,,,
,energy,0.9703491926193237,,,
,abstract,0.968476414680481,,,
,luminescence,0.9680936336517334,,,
,bang,0.9673060178756714,,,
,blast,0.9660281538963318,,,
,festival,0.9651212692260742,,,
,sun,0.9617185592651367,,,
,warmly,0.9536060094833374,,,
,light,0.9531322717666626,,,
,magic,0.9476581811904907,,,
,dark,0.9424118995666504,,,
,glare,0.9355779886245728,,,
,solar,0.9294569492340088,,,
https://scontent.cdninstagram.com/t51.2885-15/e15/11379746_1393913417605530_1015137902_n.jpg,illustration,0.9703667759895325,,,
,symbol,0.9460952281951904,,,
,text,0.938244104385376,,,
,desktop,0.9213530421257019,,,
,sign,0.8982182741165161,,,
,card,0.8930969834327698,,,
,business,0.8899037837982178,,,
,graphic,0.8801248669624329,,,
,chalk,0.8539835214614868,,,
,typography,0.8537439107894897,,,
,design,0.851163387298584,,,
,vector,0.845979630947113,,,
,chalkboard,0.8374065160751343,,,
,abstract,0.8371419906616211,,,
,bill,0.8310801982879639,,,
,silhouette,0.8297871351242065,,,
,isolated,0.8073170185089111,,,
,travel,0.8032329082489014,,,
,country,0.7884721755981445,,,
,greeting,0.780631422996521,,,
