url,class,score,,,,,,,,
https://scontent.cdninstagram.com/t51.2885-15/e35/13381266_197944947266597_1934641270_n.jpg,portrait,0.9926599264144897,"Fun Filter","My life",,,"Fun Filter",Selfie,,
,girl,0.989311933517456,,,,,,,,
,people,0.9753698110580444,,,,,,,,
,smile,0.9736857414245605,,,,,,,,
,woman,0.9736829400062561,,,,,,,,
,cute,0.9708779454231262,,,,,,,,
,beautiful,0.9639223217964172,,,,,,,,
,pretty,0.963753342628479,,,,,,,,
,young,0.9584341049194336,,,,,,,,
,face,0.953785240650177,,,,,,,,
,child,0.9502358436584473,,,,,,,,
,fashion,0.9412243366241455,,,,,,,,
,fun,0.9332339763641357,,,,,,,,
,one,0.9319618940353394,,,,,,,,
,joy,0.9141769409179688,,,,,,,,
,person,0.9130063652992249,,,,,,,,
,eyeglasses,0.9104909896850586,,,,,,,,
,happiness,0.9028300046920776,,,,,,,,
,model,0.9003440737724304,,,,,,,,
,eye,0.8995171785354614,,,,,,,,
https://scontent.cdninstagram.com/t51.2885-15/e35/13355577_1761834104098876_1043618990_n.jpg,man,0.9875667095184326,Food,Relationships,,,"Meal time",Friends,,
,adult,0.9787255525588989,,,,,,,,
,people,0.9747745394706726,,,,,,,,
,table,0.967531681060791,,,,,,,,
,woman,0.9674314260482788,,,,,,,,
,restaurant,0.9673447608947754,,,,,,,,
,group,0.9585331678390503,,,,,,,,
,indoors,0.9492751359939575,,,,,,,,
,child,0.9486464262008667,,,,,,,,
,meal,0.9467335939407349,,,,,,,,
,dining,0.9414230585098267,,,,,,,,
,togetherness,0.9352703094482422,,,,,,,,
,group,0.9326760768890381,,,,,,,,
,enjoyment,0.9265999794006348,,,,,,,,
,lunch,0.9249973297119141,,,,,,,,
,happiness,0.9230197668075562,,,,,,,,
,four,0.9199420809745789,,,,,,,,
,"facial expression",0.9179808497428894,,,,,,,,
,education,0.9001926183700562,,,,,,,,
,friendship,0.8792873024940491,,,,,,,,
https://scontent.cdninstagram.com/t51.2885-15/e35/13437153_511466612388675_1331193283_n.jpg,woman,0.9896017909049988,Relationships,,,,"Best friends",,,
,people,0.9827947616577148,,,,,,,,
,adult,0.9818238019943237,,,,,,,,
,"facial expression",0.9664782285690308,,,,,,,,
,girl,0.9647773504257202,,,,,,,,
,indoors,0.961330771446228,,,,,,,,
,room,0.9607824683189392,,,,,,,,
,happiness,0.9497240781784058,,,,,,,,
,portrait,0.9376633167266846,,,,,,,,
,family,0.912134051322937,,,,,,,,
,wear,0.9073582887649536,,,,,,,,
,group,0.9072747230529785,,,,,,,,
,man,0.8955506682395935,,,,,,,,
,two,0.8947826623916626,,,,,,,,
,brunette,0.891597330570221,,,,,,,,
,togetherness,0.891394853591919,,,,,,,,
,lifestyle,0.8399531841278076,,,,,,,,
,enjoyment,0.8325014710426331,,,,,,,,
,business,0.8134399056434631,,,,,,,,
,exhilaration,0.8033320903778076,,,,,,,,
https://scontent.cdninstagram.com/t51.2885-15/e35/13129725_1579107682419858_1697193742_n.jpg,people,0.989326000213623,Relationships,,,,"Best friends",,,
,portrait,0.9885166883468628,,,,,,,,
,man,0.9582923054695129,,,,,,,,
,woman,0.9369004964828491,,,,,,,,
,adult,0.931852400302887,,,,,,,,
,fashion,0.89577317237854,,,,,,,,
,fun,0.8881920576095581,,,,,,,,
,indoors,0.8838649988174438,,,,,,,,
,festival,0.8769004344940186,,,,,,,,
,eyeglasses,0.8725212812423706,,,,,,,,
,one,0.8594489097595215,,,,,,,,
,young,0.8496179580688477,,,,,,,,
,enjoyment,0.8491330146789551,,,,,,,,
,wear,0.847197413444519,,,,,,,,
,music,0.8417133092880249,,,,,,,,
,happiness,0.836262583732605,,,,,,,,
,adolescent,0.8290143013000488,,,,,,,,
,outdoors,0.8256534934043884,,,,,,,,
,casual,0.8156931400299072,,,,,,,,
,"facial expression",0.8089670538902283,,,,,,,,
https://scontent.cdninstagram.com/t51.2885-15/e35/13414364_1142122125825969_347031967_n.jpg,restaurant,0.987816333770752,Food,Relationships,,,"Meal time",Friends,,
,"facial expression",0.9854940176010132,,,,,,,,
,happiness,0.9817551970481873,,,,,,,,
,woman,0.9798963069915771,,,,,,,,
,enjoyment,0.9791576862335205,,,,,,,,
,people,0.9659913778305054,,,,,,,,
,group,0.9638537168502808,,,,,,,,
,adult,0.962040901184082,,,,,,,,
,four,0.9618210792541504,,,,,,,,
,table,0.9617046117782593,,,,,,,,
,daylight,0.953679084777832,,,,,,,,
,meal,0.942157506942749,,,,,,,,
,togetherness,0.9412534236907959,,,,,,,,
,indoors,0.9406543970108032,,,,,,,,
,group,0.9388132691383362,,,,,,,,
,three,0.933942973613739,,,,,,,,
,furniture,0.9318448305130005,,,,,,,,
,room,0.9303711652755737,,,,,,,,
,laughing,0.9301190376281738,,,,,,,,
,friendship,0.9272445440292358,,,,,,,,
https://scontent.cdninstagram.com/t51.2885-15/e35/13298087_274441989569403_709614833_n.jpg,people,0.9870983362197876,Relationships,,,,Family,,,
,"facial expression",0.9692002534866333,,,,,,,,
,woman,0.9607964754104614,,,,,,,,
,man,0.9535948038101196,,,,,,,,
,portrait,0.9455525875091553,,,,,,,,
,group,0.9355132579803467,,,,,,,,
,family,0.9172234535217285,,,,,,,,
,adult,0.9139572381973267,,,,,,,,
,togetherness,0.8965579271316528,,,,,,,,
,indoors,0.887099027633667,,,,,,,,
,three,0.8678469061851501,,,,,,,,
,interaction,0.8523170948028564,,,,,,,,
,enjoyment,0.8456549644470215,,,,,,,,
,two,0.837247371673584,,,,,,,,
,child,0.82371985912323,,,,,,,,
,daylight,0.8051669001579285,,,,,,,,
,happiness,0.7957229614257812,,,,,,,,
,friendship,0.791187047958374,,,,,,,,
,school,0.7811579704284668,,,,,,,,
,education,0.7754454016685486,,,,,,,,
https://scontent.cdninstagram.com/t51.2885-15/e35/13129310_1001807563233829_1842285700_n.jpg,woman,0.9767279028892517,Relationships,,,,Friends,,,
,people,0.9712235927581787,,,,,,,,
,child,0.9692504405975342,,,,,,,,
,portrait,0.9490017890930176,,,,,,,,
,"facial expression",0.945280909538269,,,,,,,,
,group,0.943832278251648,,,,,,,,
,togetherness,0.9261488914489746,,,,,,,,
,education,0.9245857000350952,,,,,,,,
,family,0.9212174415588379,,,,,,,,
,school,0.9207227230072021,,,,,,,,
,fun,0.915428876876831,,,,,,,,
,adult,0.9116630554199219,,,,,,,,
,enjoyment,0.9105333685874939,,,,,,,,
,indoors,0.9060766696929932,,,,,,,,
,festival,0.9036107063293457,,,,,,,,
,music,0.9033427238464355,,,,,,,,
,man,0.9025702476501465,,,,,,,,
,wear,0.8960622549057007,,,,,,,,
,happiness,0.8954648375511169,,,,,,,,
,laughing,0.8733139634132385,,,,,,,,
https://scontent.cdninstagram.com/t51.2885-15/e35/13329246_1604414109849423_801200803_n.jpg,indoors,0.9963194727897644,Relationships,,,,"Best friends",,,
,family,0.9953691959381104,,,,,,,,
,woman,0.9933309555053711,,,,,,,,
,people,0.9863042831420898,,,,,,,,
,room,0.98431396484375,,,,,,,,
,adult,0.9821960926055908,,,,,,,,
,girl,0.9801876544952393,,,,,,,,
,lifestyle,0.9771782159805298,,,,,,,,
,two,0.9761251211166382,,,,,,,,
,enjoyment,0.9719843864440918,,,,,,,,
,"facial expression",0.9642029404640198,,,,,,,,
,happiness,0.9601039886474609,,,,,,,,
,house,0.9589453935623169,,,,,,,,
,togetherness,0.951735258102417,,,,,,,,
,drink,0.9498469829559326,,,,,,,,
,preparation,0.9402587413787842,,,,,,,,
,coffee,0.939210057258606,,,,,,,,
,leisure,0.9307368993759155,,,,,,,,
,cup,0.9265775084495544,,,,,,,,
,furniture,0.9243454337120056,,,,,,,,
https://scontent.cdninstagram.com/t51.2885-15/e35/12912793_1614807325508442_1404554247_n.jpg,illustration,0.9477267265319824,"My life",,,,"Here I am",,,
,indoors,0.9475541710853577,,,,,,,,
,room,0.9410381317138672,,,,,,,,
,inside,0.9199796915054321,,,,,,,,
,modern,0.9171923995018005,,,,,,,,
,design,0.914885401725769,,,,,,,,
,graphic,0.9063183069229126,,,,,,,,
,light,0.8984819054603577,,,,,,,,
,business,0.8881607055664062,,,,,,,,
,family,0.8767807483673096,,,,,,,,
,house,0.8706594109535217,,,,,,,,
,wall,0.8608841896057129,,,,,,,,
,people,0.8599528670310974,,,,,,,,
,contemporary,0.8570543527603149,,,,,,,,
,desktop,0.853359580039978,,,,,,,,
,color,0.8487779498100281,,,,,,,,
,style,0.8409785032272339,,,,,,,,
,woman,0.838853120803833,,,,,,,,
,decoration,0.8291240930557251,,,,,,,,
,bright,0.8165451288223267,,,,,,,,
https://scontent.cdninstagram.com/t51.2885-15/e35/13126836_1117422501614034_2036345753_n.jpg,education,0.9898421764373779,Arts,Relationships,,,Arts-s,"Best friends",,
,child,0.9894249439239502,,,,,,,,
,indoors,0.983959436416626,,,,,,,,
,school,0.9825934767723083,,,,,,,,
,people,0.9743800163269043,,,,,,,,
,creativity,0.9705376625061035,,,,,,,,
,pencil,0.9694669246673584,,,,,,,,
,concentration,0.969290018081665,,,,,,,,
,writing,0.9682151079177856,,,,,,,,
,girl,0.9616317749023438,,,,,,,,
,adult,0.9509453773498535,,,,,,,,
,woman,0.9501409530639648,,,,,,,,
,paper,0.9453365206718445,,,,,,,,
,classroom,0.9431203603744507,,,,,,,,
,composition,0.9426994323730469,,,,,,,,
,room,0.9423187971115112,,,,,,,,
,painting,0.9420161247253418,,,,,,,,
,class,0.9391049146652222,,,,,,,,
,homework,0.9375936985015869,,,,,,,,
,boy,0.9316774606704712,,,,,,,,
https://scontent.cdninstagram.com/t51.2885-15/e35/12965276_855294227929659_1936925414_n.jpg,people,0.9775592088699341,"My life",Relationships,Entertainment,,"Here I am",Friends,Events,
,woman,0.9755108952522278,,,,,,,,
,recreation,0.9470276832580566,,,,,,,,
,business,0.9397375583648682,,,,,,,,
,education,0.9004099369049072,,,,,,,,
,group,0.8986259698867798,,,,,,,,
,adult,0.898581862449646,,,,,,,,
,person,0.8958024978637695,,,,,,,,
,festival,0.8936077356338501,,,,,,,,
,portrait,0.8808168172836304,,,,,,,,
,girl,0.8673060536384583,,,,,,,,
,music,0.8664528131484985,,,,,,,,
,school,0.855716347694397,,,,,,,,
,league,0.8487546443939209,,,,,,,,
,actor,0.8466405272483826,,,,,,,,
,presentation,0.8371123671531677,,,,,,,,
,landscape,0.8207419514656067,,,,,,,,
,youth,0.8198802471160889,,,,,,,,
,technology,0.809259295463562,,,,,,,,
,child,0.8091673851013184,,,,,,,,
https://scontent.cdninstagram.com/t51.2885-15/e35/12599203_221661151528809_566502701_n.jpg,woman,0.9865005016326904,Relationships,Food,,,Friends,"Drinks and snack",,
,indoors,0.9751255512237549,,,,,,,,
,student,0.9737331867218018,,,,,,,,
,education,0.9690965414047241,,,,,,,,
,man,0.9605928659439087,,,,,,,,
,eyeglasses,0.9562914371490479,,,,,,,,
,teacher,0.9179959297180176,,,,,,,,
,togetherness,0.9108447432518005,,,,,,,,
,school,0.8918009996414185,,,,,,,,
,adolescent,0.891185998916626,,,,,,,,
,family,0.8811637163162231,,,,,,,,
,people,0.8695418834686279,,,,,,,,
,coffee,0.8628635406494141,,,,,,,,
,child,0.8568120002746582,,,,,,,,
,university,0.8386297821998596,,,,,,,,
,business,0.831494152545929,,,,,,,,
,looking,0.8267476558685303,,,,,,,,
,technology,0.8208848237991333,,,,,,,,
,college,0.812525749206543,,,,,,,,
,laughing,0.7958582639694214,,,,,,,,
https://scontent.cdninstagram.com/t51.2885-15/e35/13297977_805940162874538_410557055_n.jpg,woman,0.9942575097084045,"Fashion & Beauty","My life",,,"My look",Selfie,,
,pretty,0.9833605289459229,,,,,,,,
,fashion,0.981985330581665,,,,,,,,
,sexy,0.9775428771972656,,,,,,,,
,girl,0.9650850892066956,,,,,,,,
,cute,0.9612462520599365,,,,,,,,
,glamour,0.9570204019546509,,,,,,,,
,portrait,0.955931544303894,,,,,,,,
,young,0.9514651298522949,,,,,,,,
,hair,0.9487216472625732,,,,,,,,
,eye,0.9459164142608643,,,,,,,,
,skin,0.945578932762146,,,,,,,,
,long,0.9419856071472168,,,,,,,,
,model,0.9033119678497314,,,,,,,,
,beautiful,0.8959829211235046,,,,,,,,
,adolescent,0.8898736238479614,,,,,,,,
,lips,0.8850194811820984,,,,,,,,
,people,0.8849437236785889,,,,,,,,
,nude,0.8749768137931824,,,,,,,,
,fun,0.8480238914489746,,,,,,,,
https://scontent.cdninstagram.com/t51.2885-15/e35/13129237_1671680466406561_2105766059_n.jpg,woman,0.9956367015838623,Relationships,,,,Family,,,
,girl,0.9910881519317627,,,,,,,,
,portrait,0.9738346934318542,,,,,,,,
,people,0.9688503742218018,,,,,,,,
,brunette,0.9537882208824158,,,,,,,,
,adult,0.9372221231460571,,,,,,,,
,young,0.9236115217208862,,,,,,,,
,pretty,0.9226504564285278,,,,,,,,
,smile,0.9153879880905151,,,,,,,,
,beautiful,0.9086235761642456,,,,,,,,
,couple,0.9035857319831848,,,,,,,,
,family,0.8971496820449829,,,,,,,,
,indoors,0.8929517269134521,,,,,,,,
,hair,0.8903999328613281,,,,,,,,
,happiness,0.8698335886001587,,,,,,,,
,fashion,0.8654495477676392,,,,,,,,
,sunglasses,0.8583335876464844,,,,,,,,
,leisure,0.8572982549667358,,,,,,,,
,enjoyment,0.8408937454223633,,,,,,,,
,sit,0.8321787118911743,,,,,,,,
https://scontent.cdninstagram.com/t51.2885-15/s750x750/sh0.08/e35/12445809_1760159490937084_1878907955_n.jpg,group,0.9908738732337952,Relationships,,,,Friends,,,
,people,0.987533450126648,,,,,,,,
,adult,0.9472184181213379,,,,,,,,
,woman,0.943907618522644,,,,,,,,
,offense,0.9209784269332886,,,,,,,,
,many,0.9075282216072083,,,,,,,,
,music,0.9068076610565186,,,,,,,,
,police,0.9030765891075134,,,,,,,,
,portrait,0.8994634747505188,,,,,,,,
,education,0.8872768878936768,,,,,,,,
,festival,0.8862195014953613,,,,,,,,
,rally,0.8857041597366333,,,,,,,,
,man,0.884443998336792,,,,,,,,
,group,0.8680521249771118,,,,,,,,
,school,0.8653389811515808,,,,,,,,
,battle,0.8641058206558228,,,,,,,,
,child,0.8597696423530579,,,,,,,,
,fame,0.8555700778961182,,,,,,,,
,family,0.8429751396179199,,,,,,,,
,musician,0.8157832622528076,,,,,,,,
https://scontent.cdninstagram.com/t51.2885-15/e35/13385913_283462878709691_357049156_n.jpg,friendship,0.9923272132873535,Relationships,,,,"Best friends",,,
,group,0.99165940284729,,,,,,,,
,laughing,0.9906831979751587,,,,,,,,
,togetherness,0.9896534085273743,,,,,,,,
,child,0.9851754307746887,,,,,,,,
,love,0.9847821593284607,,,,,,,,
,woman,0.9752960205078125,,,,,,,,
,group,0.9747089743614197,,,,,,,,
,fun,0.9743362665176392,,,,,,,,
,four,0.9723692536354065,,,,,,,,
,three,0.9673939943313599,,,,,,,,
,boy,0.9655196070671082,,,,,,,,
,portrait,0.9605091214179993,,,,,,,,
,student,0.9584951400756836,,,,,,,,
,joy,0.9503037929534912,,,,,,,,
,family,0.9493268728256226,,,,,,,,
,happiness,0.9454693794250488,,,,,,,,
,people,0.9443734884262085,,,,,,,,
,man,0.9335018992424011,,,,,,,,
,girl,0.9297105073928833,,,,,,,,
https://scontent.cdninstagram.com/t51.2885-15/e35/13248981_889217014557860_1247529365_n.jpg,woman,0.9926697015762329,"Fashion & Beauty",,,,Ootd,,,
,people,0.9538273215293884,,,,,,,,
,indoors,0.9507852792739868,,,,,,,,
,girl,0.9502638578414917,,,,,,,,
,fashion,0.9212841987609863,,,,,,,,
,portrait,0.9047341346740723,,,,,,,,
,family,0.8770860433578491,,,,,,,,
,wear,0.8478373289108276,,,,,,,,
,togetherness,0.8258297443389893,,,,,,,,
,adult,0.8192018866539001,,,,,,,,
,love,0.8096307516098022,,,,,,,,
,cute,0.8031953573226929,,,,,,,,
,pretty,0.8021559715270996,,,,,,,,
,model,0.7858954668045044,,,,,,,,
,child,0.7811926007270813,,,,,,,,
,brunette,0.7782877683639526,,,,,,,,
,skirt,0.7775273323059082,,,,,,,,
,contemporary,0.7742489576339722,,,,,,,,
,enjoyment,0.7726184129714966,,,,,,,,
,one,0.7717331647872925,,,,,,,,
https://scontent.cdninstagram.com/t51.2885-15/e35/13355494_1697557753827068_222688995_n.jpg,people,0.9988135099411011,Relationships,,,,Family,,,
,two,0.9987396001815796,,,,,,,,
,adult,0.9984694719314575,,,,,,,,
,"facial expression",0.9973877668380737,,,,,,,,
,portrait,0.9943414330482483,,,,,,,,
,man,0.9916777610778809,,,,,,,,
,wear,0.9909236431121826,,,,,,,,
,woman,0.9830349683761597,,,,,,,,
,interaction,0.9815753698348999,,,,,,,,
,three,0.9709460139274597,,,,,,,,
,group,0.9537628889083862,,,,,,,,
,outerwear,0.923874020576477,,,,,,,,
,happiness,0.9194805026054382,,,,,,,,
,indoors,0.9182247519493103,,,,,,,,
,affection,0.9158267974853516,,,,,,,,
,"side view",0.9103972315788269,,,,,,,,
,outfit,0.8927512168884277,,,,,,,,
,vehicle,0.8917713165283203,,,,,,,,
,togetherness,0.8908327221870422,,,,,,,,
,eyewear,0.8886247277259827,,,,,,,,
https://scontent.cdninstagram.com/t51.2885-15/e35/13108721_1201557396521828_944582697_n.jpg,woman,0.99293452501297,Food,Relationships,,,"Meal time","Best friends",,
,people,0.9914664626121521,,,,,,,,
,man,0.9893273115158081,,,,,,,,
,group,0.9840908050537109,,,,,,,,
,four,0.9770858287811279,,,,,,,,
,group,0.9687390327453613,,,,,,,,
,restaurant,0.9686853885650635,,,,,,,,
,friendship,0.9645004272460938,,,,,,,,
,adult,0.9566682577133179,,,,,,,,
,enjoyment,0.9526989459991455,,,,,,,,
,drink,0.9520666599273682,,,,,,,,
,"facial expression",0.937772274017334,,,,,,,,
,happiness,0.9312670230865479,,,,,,,,
,indoors,0.9216285943984985,,,,,,,,
,three,0.9186538457870483,,,,,,,,
,meal,0.9183963537216187,,,,,,,,
,togetherness,0.9180706739425659,,,,,,,,
,coffee,0.9103246927261353,,,,,,,,
,two,0.891818642616272,,,,,,,,
,girl,0.8837825059890747,,,,,,,,
https://scontent.cdninstagram.com/t51.2885-15/e35/12976334_890000744462557_480371574_n.jpg,indoors,0.9977078437805176,Business,,,,Work,,,
,room,0.9886074662208557,,,,,,,,
,furniture,0.9718106985092163,,,,,,,,
,people,0.9659414291381836,,,,,,,,
,adult,0.961026668548584,,,,,,,,
,kitchenware,0.95350182056427,,,,,,,,
,"side view",0.9488576650619507,,,,,,,,
,woman,0.9462143778800964,,,,,,,,
,exhibition,0.9347517490386963,,,,,,,,
,man,0.9131262898445129,,,,,,,,
,chair,0.9115966558456421,,,,,,,,
,desk,0.9086867570877075,,,,,,,,
,cookware,0.899496853351593,,,,,,,,
,preparation,0.897217869758606,,,,,,,,
,cabinet,0.8965795040130615,,,,,,,,
,wear,0.8837169408798218,,,,,,,,
,school,0.8656148910522461,,,,,,,,
,healthcare,0.8650649189949036,,,,,,,,
,office,0.8575812578201294,,,,,,,,
,two,0.8380674123764038,,,,,,,,
https://scontent.cdninstagram.com/t51.2885-15/e35/12479604_1710413025907710_204841118_n.jpg,indoors,0.992448091506958,Business,"Fashion & Beauty",,,Work,Ootd,,
,woman,0.9857228994369507,,,,,,,,
,portrait,0.9625035524368286,,,,,,,,
,wear,0.9545372724533081,,,,,,,,
,"facial expression",0.9459524154663086,,,,,,,,
,shopping,0.9343675374984741,,,,,,,,
,stock,0.9188750386238098,,,,,,,,
,shelf,0.9023123979568481,,,,,,,,
,looking,0.9017269015312195,,,,,,,,
,girl,0.8897075653076172,,,,,,,,
,fashion,0.8703559637069702,,,,,,,,
,adult,0.8557326793670654,,,,,,,,
,outerwear,0.8321937322616577,,,,,,,,
,shop,0.8266404867172241,,,,,,,,
,merchandise,0.8233551979064941,,,,,,,,
,one,0.8222014904022217,,,,,,,,
,people,0.7890021800994873,,,,,,,,
,footwear,0.7709181904792786,,,,,,,,
,room,0.7688743472099304,,,,,,,,
,bag,0.7597231864929199,,,,,,,,
https://scontent.cdninstagram.com/t51.2885-15/e35/13398984_805226936280335_1795326562_n.jpg,child,0.9951845407485962,Food,Relationships,,,Dessert,"Best friends",,
,group,0.9925552606582642,,,,,,,,
,"facial expression",0.9916953444480896,,,,,,,,
,people,0.9897829294204712,,,,,,,,
,woman,0.9886621832847595,,,,,,,,
,adult,0.9870111346244812,,,,,,,,
,happiness,0.9851107597351074,,,,,,,,
,daylight,0.9775141477584839,,,,,,,,
,enjoyment,0.9697954058647156,,,,,,,,
,three,0.9679660797119141,,,,,,,,
,portrait,0.9608966708183289,,,,,,,,
,room,0.9581961631774902,,,,,,,,
,youth,0.9567336440086365,,,,,,,,
,girl,0.9520871639251709,,,,,,,,
,indoors,0.9518660306930542,,,,,,,,
,two,0.9414206743240356,,,,,,,,
,man,0.9379874467849731,,,,,,,,
,four,0.9351852536201477,,,,,,,,
,competition,0.9314500689506531,,,,,,,,
,wear,0.9286437034606934,,,,,,,,
https://scontent.cdninstagram.com/t51.2885-15/e35/12501596_1023947341030780_1505517594_n.jpg,teamwork,0.99293053150177,Relationships,,,,Friends,,,
,group,0.9876264929771423,,,,,,,,
,group,0.9838859438896179,,,,,,,,
,business,0.9814245104789734,,,,,,,,
,cooperation,0.9791445136070251,,,,,,,,
,man,0.9777234792709351,,,,,,,,
,meeting,0.9732016921043396,,,,,,,,
,woman,0.9615854024887085,,,,,,,,
,leadership,0.9491117596626282,,,,,,,,
,people,0.9465987682342529,,,,,,,,
,leader,0.9407757520675659,,,,,,,,
,adult,0.9368013739585876,,,,,,,,
,partnership,0.9352145791053772,,,,,,,,
,confidence,0.9177339673042297,,,,,,,,
,success,0.902773380279541,,,,,,,,
,accomplishment,0.8932211995124817,,,,,,,,
,colleague,0.8882607221603394,,,,,,,,
,squad,0.8825304508209229,,,,,,,,
,office,0.8764129281044006,,,,,,,,
,outfit,0.8756544589996338,,,,,,,,
https://scontent.cdninstagram.com/l/t51.2885-15/e35/12934997_1192363444115153_1215969673_n.jpg,indoors,0.9908238649368286,Relationships,Business,,,"Best friends",Work,,
,adult,0.9898269176483154,,,,,,,,
,woman,0.9802137613296509,,,,,,,,
,people,0.9743081331253052,,,,,,,,
,technology,0.9608140587806702,,,,,,,,
,"facial expression",0.9545978307723999,,,,,,,,
,man,0.9465115666389465,,,,,,,,
,healthcare,0.9421648383140564,,,,,,,,
,office,0.9418229460716248,,,,,,,,
,medicine,0.9389225244522095,,,,,,,,
,computer,0.9331214427947998,,,,,,,,
,hospital,0.9322844743728638,,,,,,,,
,doctor,0.9319071173667908,,,,,,,,
,research,0.9222238063812256,,,,,,,,
,"medical practitioner",0.916529655456543,,,,,,,,
,employee,0.9152041673660278,,,,,,,,
,education,0.9058395624160767,,,,,,,,
,biology,0.9053596258163452,,,,,,,,
,business,0.9027886390686035,,,,,,,,
,room,0.9004353284835815,,,,,,,,
https://scontent.cdninstagram.com/t51.2885-15/e35/12930692_201330920245056_1466608322_n.jpg,people,0.9898996949195862,Relationships,,,,Friends,,,
,International,0.9700295925140381,,,,,,,,
,exhibition,0.9695367217063904,,,,,,,,
,editorial,0.9692100286483765,,,,,,,,
,event,0.9689574241638184,,,,,,,,
,group,0.9658219814300537,,,,,,,,
,person,0.9629136323928833,,,,,,,,
,fame,0.9269646406173706,,,,,,,,
,school,0.9181534051895142,,,,,,,,
,education,0.9125577807426453,,,,,,,,
,university,0.8864591717720032,,,,,,,,
,populace,0.8797874450683594,,,,,,,,
,famous,0.8693779706954956,,,,,,,,
,festival,0.8659462928771973,,,,,,,,
,recreation,0.8592383861541748,,,,,,,,
,league,0.8452142477035522,,,,,,,,
,meeting,0.8241326808929443,,,,,,,,
,crowd,0.8222588300704956,,,,,,,,
,room,0.8215023279190063,,,,,,,,
,youth,0.8052753210067749,,,,,,,,
https://scontent.cdninstagram.com/t51.2885-15/s640x640/sh0.08/e35/13394942_1737948956462327_633104038_n.jpg,sketch,0.9990757703781128,Arts,,,,Arts-s,,,
,illustration,0.9941703677177429,,,,,,,,
,funny,0.9918081760406494,,,,,,,,
,cute,0.9907469749450684,,,,,,,,
,animal,0.9880572557449341,,,,,,,,
,smile,0.9862539768218994,,,,,,,,
,vector,0.9826575517654419,,,,,,,,
,graphic,0.9751065969467163,,,,,,,,
,vector,0.9730602502822876,,,,,,,,
,character,0.9693654775619507,,,,,,,,
,mascot,0.9674750566482544,,,,,,,,
,amusing,0.9641463756561279,,,,,,,,
,fun,0.9640986323356628,,,,,,,,
,teeth,0.9620926380157471,,,,,,,,
,humor,0.960975706577301,,,,,,,,
,toy,0.9512777328491211,,,,,,,,
,art,0.9452022314071655,,,,,,,,
,clip,0.9347909688949585,,,,,,,,
,cheerful,0.9344431161880493,,,,,,,,
,isolated,0.9198462963104248,,,,,,,,
https://scontent.cdninstagram.com/t51.2885-15/sh0.08/e35/p750x750/13277703_1702750039978596_1446393497_n.jpg,medicine,0.9962905049324036,Business,,,,Work,,,
,healthcare,0.993334174156189,,,,,,,,
,scientist,0.9828180074691772,,,,,,,,
,research,0.9802901744842529,,,,,,,,
,science,0.9797175526618958,,,,,,,,
,laboratory,0.9717600345611572,,,,,,,,
,adult,0.9714421629905701,,,,,,,,
,hospital,0.9685320854187012,,,,,,,,
,biology,0.9672080278396606,,,,,,,,
,doctor,0.963042140007019,,,,,,,,
,chemistry,0.9616355299949646,,,,,,,,
,indoors,0.9595814943313599,,,,,,,,
,woman,0.9588677883148193,,,,,,,,
,uniform,0.957187294960022,,,,,,,,
,"medical practitioner",0.9511317014694214,,,,,,,,
,people,0.9501844644546509,,,,,,,,
,health,0.9493716955184937,,,,,,,,
,science,0.9409592151641846,,,,,,,,
,gloves,0.9343236088752747,,,,,,,,
,one,0.9331442713737488,,,,,,,,
https://scontent.cdninstagram.com/t51.2885-15/e35/12724662_1040616459345569_716590364_n.jpg,girl,0.9904996156692505,Cute,"My life",,,Cute,Selfie,,
,child,0.9881783723831177,,,,,,,,
,woman,0.9850791692733765,,,,,,,,
,people,0.9844285249710083,,,,,,,,
,portrait,0.9760237336158752,,,,,,,,
,baby,0.9696186780929565,,,,,,,,
,indoors,0.961948037147522,,,,,,,,
,family,0.9574195146560669,,,,,,,,
,cute,0.9466913938522339,,,,,,,,
,beautiful,0.9439883232116699,,,,,,,,
,fun,0.9355676174163818,,,,,,,,
,fashion,0.9354440569877625,,,,,,,,
,pretty,0.9135081768035889,,,,,,,,
,model,0.9025249481201172,,,,,,,,
,young,0.900277853012085,,,,,,,,
,maternity,0.8909784555435181,,,,,,,,
,one,0.8907841444015503,,,,,,,,
,love,0.8888754844665527,,,,,,,,
,little,0.8880943059921265,,,,,,,,
,winter,0.8865138292312622,,,,,,,,
https://scontent.cdninstagram.com/t51.2885-15/e35/13167319_267484270257732_1294218917_n.jpg,girl,0.9924930334091187,"Fun Filter","My life",,,"Fun Filter",Selfie,,
,portrait,0.9899067878723145,,,,,,,,
,child,0.980975866317749,,,,,,,,
,flower,0.9745906591415405,,,,,,,,
,fashion,0.973884105682373,,,,,,,,
,beautiful,0.9678008556365967,,,,,,,,
,cute,0.9659913778305054,,,,,,,,
,people,0.9606971740722656,,,,,,,,
,nature,0.9528933763504028,,,,,,,,
,little,0.952590823173523,,,,,,,,
,summer,0.9448485374450684,,,,,,,,
,face,0.9431086182594299,,,,,,,,
,fun,0.9407783150672913,,,,,,,,
,smile,0.9387518167495728,,,,,,,,
,pretty,0.9377829432487488,,,,,,,,
,woman,0.933010458946228,,,,,,,,
,model,0.9314104318618774,,,,,,,,
,eye,0.9094438552856445,,,,,,,,
,young,0.9081361889839172,,,,,,,,
,hair,0.8883312940597534,,,,,,,,
https://scontent.cdninstagram.com/t51.2885-15/e35/13108693_509823005884636_1658733120_n.jpg,group,0.992377758026123,Relationships,,,,Friends,,,
,adult,0.9740051031112671,,,,,,,,
,woman,0.9713045358657837,,,,,,,,
,people,0.9700379371643066,,,,,,,,
,portrait,0.9668396711349487,,,,,,,,
,man,0.9573667049407959,,,,,,,,
,"facial expression",0.9569504261016846,,,,,,,,
,group,0.9469468593597412,,,,,,,,
,happiness,0.9402945041656494,,,,,,,,
,room,0.9380307197570801,,,,,,,,
,three,0.8997615575790405,,,,,,,,
,education,0.8957381844520569,,,,,,,,
,four,0.8929587602615356,,,,,,,,
,friendship,0.8863896131515503,,,,,,,,
,five,0.8846867084503174,,,,,,,,
,togetherness,0.881525993347168,,,,,,,,
,wear,0.8806523084640503,,,,,,,,
,family,0.880547046661377,,,,,,,,
,school,0.8754432201385498,,,,,,,,
,interaction,0.8746285438537598,,,,,,,,
https://scontent.cdninstagram.com/t51.2885-15/e35/13437241_1079121852181968_268221338_n.jpg,woman,0.9924959540367126,"Fashion & Beauty",,,,Ootd,,,
,adult,0.9829111099243164,,,,,,,,
,girl,0.9768775105476379,,,,,,,,
,one,0.9696816205978394,,,,,,,,
,room,0.9672917127609253,,,,,,,,
,brunette,0.9652502536773682,,,,,,,,
,portrait,0.9636134505271912,,,,,,,,
,wear,0.9630380868911743,,,,,,,,
,indoors,0.9615564346313477,,,,,,,,
,fashion,0.9494877457618713,,,,,,,,
,people,0.9405606985092163,,,,,,,,
,model,0.9334129095077515,,,,,,,,
,lifestyle,0.9328802227973938,,,,,,,,
,dress,0.9224917888641357,,,,,,,,
,chair,0.8953672051429749,,,,,,,,
,happiness,0.8924190998077393,,,,,,,,
,beautiful,0.8911162614822388,,,,,,,,
,pretty,0.8900145292282104,,,,,,,,
,young,0.8834795951843262,,,,,,,,
,"facial expression",0.8774237632751465,,,,,,,,
https://scontent.cdninstagram.com/t51.2885-15/e35/13129230_582359208590134_911838024_n.jpg,people,0.9779675602912903,Relationships,,,,Friends,,,
,woman,0.9630548357963562,,,,,,,,
,school,0.9572898149490356,,,,,,,,
,child,0.9476966857910156,,,,,,,,
,education,0.9368445873260498,,,,,,,,
,group,0.9336518049240112,,,,,,,,
,adult,0.9320498108863831,,,,,,,,
,man,0.9219175577163696,,,,,,,,
,family,0.9107375741004944,,,,,,,,
,university,0.9049785137176514,,,,,,,,
,girl,0.9044890403747559,,,,,,,,
,group,0.8785555362701416,,,,,,,,
,portrait,0.8769702911376953,,,,,,,,
,enjoyment,0.8747854232788086,,,,,,,,
,fun,0.8714277148246765,,,,,,,,
,competition,0.8649882078170776,,,,,,,,
,lifestyle,0.8421210050582886,,,,,,,,
,wear,0.8293215036392212,,,,,,,,
,festival,0.8266110420227051,,,,,,,,
,recreation,0.8228281736373901,,,,,,,,
https://scontent.cdninstagram.com/t51.2885-15/e35/13151315_1597818620508740_651182487_n.jpg,portrait,0.9889954328536987,Food,,,,Dessert,,,
,people,0.9821487665176392,,,,,,,,
,street,0.9756897687911987,,,,,,,,
,woman,0.9503923654556274,,,,,,,,
,adult,0.944398045539856,,,,,,,,
,brunette,0.9410637021064758,,,,,,,,
,girl,0.9143599271774292,,,,,,,,
,music,0.8993886709213257,,,,,,,,
,fashion,0.897752046585083,,,,,,,,
,one,0.8870470523834229,,,,,,,,
,sunglasses,0.863598108291626,,,,,,,,
,model,0.8555703163146973,,,,,,,,
,wear,0.8305937051773071,,,,,,,,
,musician,0.825660765171051,,,,,,,,
,education,0.8239209651947021,,,,,,,,
,guitar,0.8081443309783936,,,,,,,,
,pants,0.8045854568481445,,,,,,,,
,city,0.7949115633964539,,,,,,,,
,urban,0.776599645614624,,,,,,,,
,school,0.7338263392448425,,,,,,,,
https://scontent.cdninstagram.com/t51.2885-15/e35/13167363_1610990425885009_2033671344_n.jpg,woman,0.9906511902809143,Relationships,Food,,,Friends,"Meal time",,
,"facial expression",0.976182222366333,,,,,,,,
,togetherness,0.9709372520446777,,,,,,,,
,people,0.9699031114578247,,,,,,,,
,indoors,0.9688699245452881,,,,,,,,
,enjoyment,0.9641188383102417,,,,,,,,
,family,0.9613058567047119,,,,,,,,
,man,0.9533884525299072,,,,,,,,
,adult,0.9360470771789551,,,,,,,,
,fun,0.9089395403862,,,,,,,,
,group,0.9076583385467529,,,,,,,,
,friendship,0.9062374830245972,,,,,,,,
,wear,0.8994749784469604,,,,,,,,
,portrait,0.8963890671730042,,,,,,,,
,laughing,0.893578052520752,,,,,,,,
,two,0.8834002017974854,,,,,,,,
,adolescent,0.8809924125671387,,,,,,,,
,happiness,0.859428882598877,,,,,,,,
,child,0.8556208610534668,,,,,,,,
,leisure,0.8327387571334839,,,,,,,,
https://scontent.cdninstagram.com/t51.2885-15/s750x750/sh0.08/e35/12383387_744011775736275_1903233593_n.jpg,group,0.9978640675544739,Relationships,,,,Friends,,,
,education,0.9869874119758606,,,,,,,,
,people,0.9826934337615967,,,,,,,,
,classroom,0.9805473685264587,,,,,,,,
,man,0.978461503982544,,,,,,,,
,woman,0.9762346744537354,,,,,,,,
,adult,0.9738088846206665,,,,,,,,
,child,0.970465898513794,,,,,,,,
,group,0.9688477516174316,,,,,,,,
,school,0.9681885838508606,,,,,,,,
,teacher,0.9601978063583374,,,,,,,,
,class,0.9530032873153687,,,,,,,,
,indoors,0.9345623850822449,,,,,,,,
,room,0.9266825318336487,,,,,,,,
,many,0.923084020614624,,,,,,,,
,boy,0.8631106615066528,,,,,,,,
,university,0.8596216440200806,,,,,,,,
,meeting,0.8360363245010376,,,,,,,,
,teamwork,0.8182313442230225,,,,,,,,
,squad,0.80553138256073,,,,,,,,
https://scontent.cdninstagram.com/t51.2885-15/e35/13118321_879165948878064_9826129_n.jpg,competition,0.9777920246124268,Relationships,Celebrations,,,Friends,"Personal Events",,
,recreation,0.9682786464691162,,,,,,,,
,people,0.9634657502174377,,,,,,,,
,woman,0.9614940881729126,,,,,,,,
,portrait,0.9575063586235046,,,,,,,,
,adult,0.9501932859420776,,,,,,,,
,school,0.94122713804245,,,,,,,,
,athlete,0.9161001443862915,,,,,,,,
,wear,0.9029812812805176,,,,,,,,
,girl,0.8991796970367432,,,,,,,,
,exhibition,0.8764773607254028,,,,,,,,
,university,0.874967098236084,,,,,,,,
,man,0.8746761083602905,,,,,,,,
,game,0.8610364198684692,,,,,,,,
,basketball,0.8425540328025818,,,,,,,,
,fun,0.8368908166885376,,,,,,,,
,music,0.8368535041809082,,,,,,,,
,youth,0.8345921039581299,,,,,,,,
,education,0.8344851136207581,,,,,,,,
,group,0.8314008712768555,,,,,,,,
https://scontent.cdninstagram.com/t51.2885-15/e35/13150825_1725302411076516_948265992_n.jpg,woman,0.978398859500885,Relationships,"My life",Travel,,"Best friends","Here I am",Travel-s,
,people,0.9766484498977661,,,,,,,,
,adult,0.9449999332427979,,,,,,,,
,portrait,0.932677686214447,,,,,,,,
,city,0.9149253368377686,,,,,,,,
,wear,0.9097676277160645,,,,,,,,
,recreation,0.9051074981689453,,,,,,,,
,group,0.9029175043106079,,,,,,,,
,exhibition,0.8997646570205688,,,,,,,,
,vehicle,0.897193193435669,,,,,,,,
,daylight,0.8882309198379517,,,,,,,,
,street,0.8796356916427612,,,,,,,,
,school,0.8778711557388306,,,,,,,,
,group,0.8759978413581848,,,,,,,,
,festival,0.8693485260009766,,,,,,,,
,enjoyment,0.8673970699310303,,,,,,,,
,"facial expression",0.8667362928390503,,,,,,,,
,girl,0.8435430526733398,,,,,,,,
,travel,0.8393493294715881,,,,,,,,
,shopping,0.8227676749229431,,,,,,,,
https://scontent.cdninstagram.com/t51.2885-15/e35/12383099_1702510210006864_635439846_n.jpg,education,0.9801738858222961,Relationships,,,,Friends,,,
,school,0.9737710952758789,,,,,,,,
,people,0.9574573636054993,,,,,,,,
,group,0.9572675228118896,,,,,,,,
,adult,0.9561430811882019,,,,,,,,
,woman,0.9423173666000366,,,,,,,,
,healthcare,0.9223439693450928,,,,,,,,
,finance,0.9158633351325989,,,,,,,,
,business,0.9147598147392273,,,,,,,,
,man,0.9104498624801636,,,,,,,,
,university,0.8846103549003601,,,,,,,,
,portrait,0.8721532821655273,,,,,,,,
,child,0.8653208017349243,,,,,,,,
,league,0.8549911379814148,,,,,,,,
,competition,0.8549567461013794,,,,,,,,
,election,0.8441357612609863,,,,,,,,
,document,0.8434637784957886,,,,,,,,
,teacher,0.8342322707176208,,,,,,,,
,family,0.8166746497154236,,,,,,,,
,room,0.7991044521331787,,,,,,,,
https://scontent.cdninstagram.com/t51.2885-15/e35/13329173_229496257442713_1328437065_n.jpg,girl,0.9792115688323975,"Fashion & Beauty",,,,Ootd,,,
,people,0.9673582315444946,,,,,,,,
,woman,0.9661822319030762,,,,,,,,
,sit,0.9633722305297852,,,,,,,,
,portrait,0.9575812816619873,,,,,,,,
,family,0.925735592842102,,,,,,,,
,one,0.9093997478485107,,,,,,,,
,adult,0.9034680128097534,,,,,,,,
,step,0.9002712965011597,,,,,,,,
,child,0.9002082347869873,,,,,,,,
,indoors,0.8918686509132385,,,,,,,,
,school,0.8914410471916199,,,,,,,,
,telephone,0.8913295269012451,,,,,,,,
,street,0.8902625441551208,,,,,,,,
,young,0.8821334838867188,,,,,,,,
,bench,0.8773267269134521,,,,,,,,
,urban,0.8745250701904297,,,,,,,,
,education,0.8734601736068726,,,,,,,,
,fashion,0.8603489398956299,,,,,,,,
,room,0.8589022159576416,,,,,,,,
https://scontent.cdninstagram.com/t51.2885-15/e35/13320020_777678015701936_564356160_n.jpg,street,0.9888792037963867,"Fashion & Beauty",,,,Ootd,,,
,people,0.9825617074966431,,,,,,,,
,road,0.9797232151031494,,,,,,,,
,city,0.960415780544281,,,,,,,,
,wear,0.9402559995651245,,,,,,,,
,portrait,0.9386684894561768,,,,,,,,
,adult,0.9304544925689697,,,,,,,,
,woman,0.928224503993988,,,,,,,,
,urban,0.9110081195831299,,,,,,,,
,festival,0.896135151386261,,,,,,,,
,girl,0.882189154624939,,,,,,,,
,rally,0.8768924474716187,,,,,,,,
,competition,0.8768300414085388,,,,,,,,
,motion,0.8481488227844238,,,,,,,,
,school,0.8348668813705444,,,,,,,,
,action,0.8231041431427002,,,,,,,,
,police,0.8208361864089966,,,,,,,,
,flag,0.797304630279541,,,,,,,,
,outdoors,0.7739975452423096,,,,,,,,
,child,0.7630928158760071,,,,,,,,
https://scontent.cdninstagram.com/t51.2885-15/e35/13298286_720496034757886_916647769_n.jpg,indoors,0.9955263137817383,Food,"Fashion & Beauty",,,"Drinks and snack","My look",,
,woman,0.9922299385070801,,,,,,,,
,sit,0.9866477251052856,,,,,,,,
,coffee,0.9703512787818909,,,,,,,,
,people,0.9678628444671631,,,,,,,,
,girl,0.9634912014007568,,,,,,,,
,education,0.9616070985794067,,,,,,,,
,adolescent,0.9386890530586243,,,,,,,,
,adult,0.9352123737335205,,,,,,,,
,homework,0.9323196411132812,,,,,,,,
,portrait,0.9319274425506592,,,,,,,,
,eyeglasses,0.9307360649108887,,,,,,,,
,room,0.9299037456512451,,,,,,,,
,enjoyment,0.9224144220352173,,,,,,,,
,table,0.9172261953353882,,,,,,,,
,furniture,0.9143174886703491,,,,,,,,
,school,0.9122262001037598,,,,,,,,
,family,0.9117997288703918,,,,,,,,
,pretty,0.9084006547927856,,,,,,,,
,breakfast,0.9056629538536072,,,,,,,,
https://scontent.cdninstagram.com/t51.2885-15/e35/13391152_141952589547810_1190910843_n.jpg,woman,0.9956333637237549,Blank,"My life",,,"My looks",Selfie,,
,pretty,0.9751766920089722,,,,,,,,
,girl,0.9688675999641418,,,,,,,,
,fashion,0.9665201902389526,,,,,,,,
,portrait,0.9596565365791321,,,,,,,,
,adolescent,0.9321349859237671,,,,,,,,
,young,0.9246618747711182,,,,,,,,
,cute,0.9221897125244141,,,,,,,,
,joy,0.9189728498458862,,,,,,,,
,people,0.9009132385253906,,,,,,,,
,model,0.8941759467124939,,,,,,,,
,eye,0.8785016536712646,,,,,,,,
,casual,0.8661572933197021,,,,,,,,
,fun,0.8546804189682007,,,,,,,,
,smile,0.8489089012145996,,,,,,,,
,sexy,0.8437665700912476,,,,,,,,
,elegant,0.8430842161178589,,,,,,,,
,beautiful,0.8427684903144836,,,,,,,,
,brunette,0.8399165868759155,,,,,,,,
,glamour,0.8359619975090027,,,,,,,,
https://scontent.cdninstagram.com/t51.2885-15/e35/13320025_1791499244421214_1839793181_n.jpg,woman,0.9931414127349854,Relationships,,,,Friends,,,
,togetherness,0.9913235902786255,,,,,,,,
,love,0.9833714962005615,,,,,,,,
,two,0.9708096981048584,,,,,,,,
,affection,0.9606042504310608,,,,,,,,
,"facial expression",0.9558423757553101,,,,,,,,
,friendship,0.9545450210571289,,,,,,,,
,happiness,0.951939582824707,,,,,,,,
,people,0.950913667678833,,,,,,,,
,family,0.9407000541687012,,,,,,,,
,man,0.9401980638504028,,,,,,,,
,laughing,0.9401277303695679,,,,,,,,
,fun,0.9310168027877808,,,,,,,,
,embrace,0.927623987197876,,,,,,,,
,adult,0.9164939522743225,,,,,,,,
,girl,0.9164276719093323,,,,,,,,
,joy,0.9095017313957214,,,,,,,,
,portrait,0.9035636186599731,,,,,,,,
,boy,0.8937749266624451,,,,,,,,
,three,0.8934597969055176,,,,,,,,
https://scontent.cdninstagram.com/t51.2885-15/sh0.08/e35/p750x750/13320186_1744903419086596_556605753_n.jpg,chef,0.9990842342376709,Food,Business,,,Self-preparation,Work,,
,food,0.9959253072738647,,,,,,,,
,cooking,0.9893767833709717,,,,,,,,
,preparation,0.9773135185241699,,,,,,,,
,people,0.9747083783149719,,,,,,,,
,baking,0.9715181589126587,,,,,,,,
,flour,0.9714864492416382,,,,,,,,
,dough,0.9626209735870361,,,,,,,,
,adult,0.9607464075088501,,,,,,,,
,hand,0.9497084617614746,,,,,,,,
,man,0.946336567401886,,,,,,,,
,one,0.9447827339172363,,,,,,,,
,grow,0.926704466342926,,,,,,,,
,restaurant,0.9257808923721313,,,,,,,,
,woman,0.92335045337677,,,,,,,,
,bowl,0.9231383800506592,,,,,,,,
,indoors,0.9230453968048096,,,,,,,,
,work,0.904739499092102,,,,,,,,
,service,0.9041447639465332,,,,,,,,
,oven,0.9015606641769409,,,,,,,,
https://scontent.cdninstagram.com/t51.2885-15/e35/13258931_1600237696953250_1429802117_n.jpg,girl,0.9942352771759033,"Fun Filter","My life",,,"Fun Filter",Selfie,,
,beautiful,0.9914107322692871,,,,,,,,
,fashion,0.9888386130332947,,,,,,,,
,portrait,0.9852253198623657,,,,,,,,
,model,0.9760956764221191,,,,,,,,
,cute,0.9729818105697632,,,,,,,,
,woman,0.9683205485343933,,,,,,,,
,face,0.96169513463974,,,,,,,,
,smile,0.956862211227417,,,,,,,,
,people,0.9544659852981567,,,,,,,,
,child,0.9529389142990112,,,,,,,,
,fun,0.9518662691116333,,,,,,,,
,young,0.951802134513855,,,,,,,,
,eye,0.9452342987060547,,,,,,,,
,pretty,0.944067120552063,,,,,,,,
,lady,0.9283133745193481,,,,,,,,
,person,0.9256191253662109,,,,,,,,
,hair,0.9214788675308228,,,,,,,,
,nature,0.9016565084457397,,,,,,,,
,summer,0.8911211490631104,,,,,,,,
https://scontent.cdninstagram.com/t51.2885-15/e35/13266927_283621058656090_856611910_n.jpg,child,0.986095666885376,Relationships,,,,Friends,,,
,people,0.9814631938934326,,,,,,,,
,adult,0.9608343839645386,,,,,,,,
,outdoors,0.9477114081382751,,,,,,,,
,group,0.946476936340332,,,,,,,,
,woman,0.942894697189331,,,,,,,,
,park,0.9415755271911621,,,,,,,,
,girl,0.9411841630935669,,,,,,,,
,man,0.9400080442428589,,,,,,,,
,daylight,0.9367502331733704,,,,,,,,
,boy,0.9326832294464111,,,,,,,,
,school,0.9163616895675659,,,,,,,,
,lifestyle,0.9157081246376038,,,,,,,,
,happiness,0.9119988679885864,,,,,,,,
,family,0.9106468558311462,,,,,,,,
,education,0.90297532081604,,,,,,,,
,leisure,0.9017022848129272,,,,,,,,
,recreation,0.8982725739479065,,,,,,,,
,togetherness,0.8929530382156372,,,,,,,,
,portrait,0.8849267363548279,,,,,,,,
https://scontent.cdninstagram.com/t51.2885-15/e35/13392772_284768248578821_1296818578_n.jpg,food,0.976676344871521,Food,,,,Dessert,,,
,"no person",0.9765853881835938,,,,,,,,
,bowl,0.9487172365188599,,,,,,,,
,dinner,0.9229882955551147,,,,,,,,
,lunch,0.9002021551132202,,,,,,,,
,delicious,0.9001864194869995,,,,,,,,
,grow,0.8752320408821106,,,,,,,,
,cooking,0.8698531985282898,,,,,,,,
,soup,0.8560953140258789,,,,,,,,
,health,0.8530661463737488,,,,,,,,
,nutrition,0.848240077495575,,,,,,,,
,traditional,0.8237422704696655,,,,,,,,
,dish,0.7977521419525146,,,,,,,,
,spoon,0.7777721881866455,,,,,,,,
,homemade,0.7742501497268677,,,,,,,,
,meal,0.7636982202529907,,,,,,,,
,vegetable,0.7588022947311401,,,,,,,,
,plate,0.7483124136924744,,,,,,,,
,"still life",0.7424910068511963,,,,,,,,
,closeup,0.7412154674530029,,,,,,,,
https://scontent.cdninstagram.com/t51.2885-15/e35/13423476_1787720504782305_1167637163_n.jpg,class,0.9903367161750793,Relationships,,,,Friends,,,
,teacher,0.9875569343566895,,,,,,,,
,school,0.9875463247299194,,,,,,,,
,woman,0.9845316410064697,,,,,,,,
,athlete,0.9831584692001343,,,,,,,,
,education,0.980417788028717,,,,,,,,
,people,0.9774399995803833,,,,,,,,
,indoors,0.9743876457214355,,,,,,,,
,adult,0.9693255424499512,,,,,,,,
,man,0.9603689908981323,,,,,,,,
,train,0.9581832885742188,,,,,,,,
,group,0.9472018480300903,,,,,,,,
,league,0.9467307329177856,,,,,,,,
,sport,0.9453156590461731,,,,,,,,
,competition,0.9422798156738281,,,,,,,,
,room,0.9422461986541748,,,,,,,,
,basketball,0.9413783550262451,,,,,,,,
,ball,0.9368220567703247,,,,,,,,
,meeting,0.9357950687408447,,,,,,,,
,club,0.9336799383163452,,,,,,,,
https://scontent.cdninstagram.com/t51.2885-15/e35/13408727_293707764303498_1874345740_n.jpg,woman,0.9931904077529907,"Fashion & Beauty","My life",,,"My look",Selfie,,
,pretty,0.98136305809021,,,,,,,,
,indoors,0.9762883186340332,,,,,,,,
,eyeglasses,0.9665244221687317,,,,,,,,
,student,0.9608604907989502,,,,,,,,
,adolescent,0.954820990562439,,,,,,,,
,cute,0.9454618096351624,,,,,,,,
,young,0.9271261692047119,,,,,,,,
,intelligence,0.9222049713134766,,,,,,,,
,casual,0.9193066358566284,,,,,,,,
,contemporary,0.910502016544342,,,,,,,,
,looking,0.9029763340950012,,,,,,,,
,healthcare,0.895355761051178,,,,,,,,
,people,0.885791540145874,,,,,,,,
,college,0.8840427398681641,,,,,,,,
,health,0.8783206939697266,,,,,,,,
,elegant,0.8770921230316162,,,,,,,,
,scholar,0.8690245151519775,,,,,,,,
,joy,0.8612408638000488,,,,,,,,
,fashion,0.8579761981964111,,,,,,,,
https://scontent.cdninstagram.com/l/t51.2885-15/e35/13249688_1727176500892715_881139524_n.jpg,love,0.9877301454544067,Relationships,,,,Family,,,
,portrait,0.9860199689865112,,,,,,,,
,togetherness,0.9845408797264099,,,,,,,,
,woman,0.9836289882659912,,,,,,,,
,child,0.9802905321121216,,,,,,,,
,people,0.9715586304664612,,,,,,,,
,fun,0.9675493240356445,,,,,,,,
,joy,0.9671566486358643,,,,,,,,
,affection,0.9618000984191895,,,,,,,,
,girl,0.954795777797699,,,,,,,,
,two,0.9521341323852539,,,,,,,,
,embrace,0.949992299079895,,,,,,,,
,happiness,0.9487687349319458,,,,,,,,
,"facial expression",0.9443228244781494,,,,,,,,
,laughing,0.9404966235160828,,,,,,,,
,family,0.9384772181510925,,,,,,,,
,friendship,0.9120341539382935,,,,,,,,
,cute,0.9081477522850037,,,,,,,,
,adolescent,0.8893318772315979,,,,,,,,
,fashion,0.8776686191558838,,,,,,,,
