url,class,score
https://scontent.cdninstagram.com/t51.2885-15/e15/13534551_100853387015149_1527658606_n.jpg,people,0.9967252016067505
,adult,0.9946510791778564
,music,0.9834204912185669
,performance,0.9735780358314514
,wear,0.970676600933075
,club,0.9663856029510498
,man,0.9635229110717773
,indoors,0.9511926770210266
,musician,0.9342249631881714
,one,0.9337720274925232
,portrait,0.9326140880584717
,concert,0.9151443839073181
,festival,0.9084610939025879
,recreation,0.9046124219894409
,technology,0.8998302817344666
,blur,0.8988989591598511
,side view,0.8858667612075806
,woman,0.8821926116943359
,facial expression,0.8567682504653931
,science,0.8487281799316406
https://scontent.cdninstagram.com/t51.2885-15/s750x750/sh0.08/e35/13398584_573433622827856_1417792057_n.jpg,group,0.9957792162895203
,people,0.9913957118988037
,woman,0.9871602058410645
,man,0.9766270518302917
,group,0.972545325756073
,adult,0.9699520468711853
,portrait,0.9675958752632141
,child,0.9674769639968872
,friendship,0.9638516902923584
,family,0.956167459487915
,education,0.9509719610214233
,music,0.9305602312088013
,togetherness,0.9159361124038696
,facial expression,0.9156585931777954
,enjoyment,0.9149255752563477
,boy,0.901343584060669
,school,0.8944646120071411
,adolescent,0.8942967057228088
,four,0.8925953507423401
,girl,0.8897649049758911
https://scontent.cdninstagram.com/t51.2885-15/e35/13109058_1838696173024767_218476424_n.jpg,people,0.9651280045509338
,portrait,0.9647382497787476
,vertical,0.9545207619667053
,woman,0.9543396234512329
,indoors,0.9470720887184143
,cute,0.9371747970581055
,child,0.9352513551712036
,adult,0.9083058834075928
,fun,0.9079978466033936
,enjoyment,0.8905525207519531
,happiness,0.8612558841705322
,lid,0.8534826636314392
,joy,0.8367767333984375
,fashion,0.8334193229675293
,cheerful,0.832129716873169
,looking,0.7905579805374146
,young,0.7607687711715698
,outdoors,0.7359178066253662
,one,0.7325642108917236
,adolescent,0.7308036088943481
https://scontent.cdninstagram.com/t51.2885-15/e35/13277737_133222970418005_1599910788_n.jpg,window,0.9886070489883423
,people,0.9807032346725464
,adult,0.9607595205307007
,indoors,0.9573602676391602
,reflection,0.948133111000061
,swimming pool,0.9476584196090698
,woman,0.9459267854690552
,light,0.9386993646621704
,wear,0.9355528950691223
,water,0.9263025522232056
,technology,0.9052837491035461
,pool,0.8981760740280151
,wet,0.8910926580429077
,water,0.8863946199417114
,science,0.8863275051116943
,swimming,0.883575439453125
,room,0.8765548467636108
,city,0.8713423013687134
,urban,0.8704986572265625
,motion,0.8494381904602051
https://scontent.cdninstagram.com/t51.2885-15/e35/13117777_1094909937301321_470997658_n.jpg,woman,0.9920275211334229
,people,0.9838242530822754
,portrait,0.9815337657928467
,adult,0.9775233268737793
,girl,0.9765458106994629
,one,0.9709216952323914
,wear,0.931075930595398
,model,0.9129691123962402
,fashion,0.9125193357467651
,blur,0.9066224694252014
,indoors,0.8976711630821228
,music,0.8897784352302551
,outdoors,0.8677425384521484
,brunette,0.86297208070755
,light,0.8519959449768066
,window,0.8370192050933838
,singer,0.8251045942306519
,mirror,0.8230012655258179
,leisure,0.8114455938339233
,sexy,0.7979518175125122
https://scontent.cdninstagram.com/t51.2885-15/s750x750/sh0.08/e35/12905163_1091729170866801_1270035788_n.jpg,people,0.9942055940628052
,drink,0.9902080297470093
,group,0.9897134304046631
,woman,0.9830124378204346
,restaurant,0.9809900522232056
,food,0.9795734882354736
,group,0.9791874289512634
,adult,0.9750918745994568
,table,0.9715684056282043
,meal,0.9715404510498047
,man,0.961536169052124
,room,0.9591675996780396
,indoors,0.9543538689613342
,enjoyment,0.9513977766036987
,many,0.94800865650177
,facial expression,0.9361280202865601
,furniture,0.928011417388916
,cookware,0.9063480496406555
,bar,0.9040423631668091
,beer,0.8940517902374268
https://scontent.cdninstagram.com/t51.2885-15/e35/12751441_1013375875422178_549439341_n.jpg,group,0.9929168224334717
,people,0.9921249151229858
,adult,0.9836873412132263
,woman,0.9811244010925293
,portrait,0.9775674343109131
,facial expression,0.9762656688690186
,three,0.9734117984771729
,man,0.9599745273590088
,wear,0.9592339992523193
,group,0.9553927183151245
,four,0.9500492811203003
,friendship,0.9496921896934509
,two,0.9482605457305908
,recreation,0.9442408084869385
,child,0.9321457147598267
,music,0.9177134037017822
,happiness,0.9162762761116028
,togetherness,0.915871262550354
,indoors,0.8967785835266113
,enjoyment,0.8944120407104492
https://scontent.cdninstagram.com/t51.2885-15/e35/12747711_1651633725089352_526217555_n.jpg,child,0.998679518699646
,togetherness,0.9816333055496216
,people,0.9810670018196106
,family,0.9802866578102112
,boy,0.9771175980567932
,girl,0.9766066074371338
,facial expression,0.9709018468856812
,happiness,0.970725417137146
,indoors,0.9705264568328857
,youth,0.9697167873382568
,two,0.9693724513053894
,cute,0.956000804901123
,affection,0.9556972980499268
,fun,0.9511939883232117
,friendship,0.944133996963501
,portrait,0.9432380199432373
,woman,0.9387149810791016
,little,0.9376046657562256
,offspring,0.9313212633132935
,love,0.9239469170570374
https://scontent.cdninstagram.com/t51.2885-15/e35/13320018_1020604004682519_2039701110_n.jpg,business,0.9858062267303467
,paper,0.9811042547225952
,money,0.9462049007415771
,text,0.946058452129364
,education,0.9122908115386963
,success,0.9091504812240601
,people,0.893855094909668
,document,0.8916219472885132
,no person,0.8908734321594238
,finance,0.8906203508377075
,finance,0.8869202733039856
,sign,0.8701695203781128
,administration,0.8686399459838867
,writing,0.8404996395111084
,woman,0.8326101303100586
,wealth,0.8243476152420044
,identity,0.8100654482841492
,accomplishment,0.8000615835189819
,money,0.7993420362472534
,hand,0.7981773018836975
https://scontent.cdninstagram.com/t51.2885-15/e35/12407505_530636033780160_1395611040_n.jpg,people,0.977806806564331
,portrait,0.9749510884284973
,group,0.9677451848983765
,man,0.9642802476882935
,adult,0.9579532146453857
,wear,0.9530363082885742
,facial expression,0.9503235220909119
,woman,0.9408388733863831
,education,0.9374455213546753
,enjoyment,0.9177353382110596
,vehicle,0.9156885147094727
,happiness,0.9156332612037659
,school,0.9070327281951904
,togetherness,0.8905633091926575
,outdoors,0.8865213394165039
,eyewear,0.8833656311035156
,child,0.8781583309173584
,two,0.8606404066085815
,three,0.8381428718566895
,daylight,0.8381137251853943
https://scontent.cdninstagram.com/t51.2885-15/e35/13392903_1071512472903073_821774248_n.jpg,people,0.9848467111587524
,child,0.9781255722045898
,group,0.95774245262146
,woman,0.9270720481872559
,girl,0.8974653482437134
,adult,0.893506646156311
,many,0.8756290674209595
,recreation,0.8517986536026001
,fun,0.8498272895812988
,family,0.8377960324287415
,boy,0.8369811773300171
,festival,0.8320770263671875
,man,0.8313049077987671
,happiness,0.8062795996665955
,education,0.782803475856781
,energy,0.774612307548523
,school,0.7704143524169922
,balloon,0.7536971569061279
,lifestyle,0.7524566650390625
,landscape,0.7438170313835144
https://scontent.cdninstagram.com/t51.2885-15/e35/13099023_1588092868169256_646116728_n.jpg,child,0.9962661266326904
,toy,0.9952753782272339
,no person,0.9386404752731323
,grow,0.93592369556427
,fun,0.9322662353515625
,movie,0.930967390537262
,one,0.928601861000061
,doll,0.9245245456695557
,baby,0.9194729328155518
,people,0.9189028143882751
,facial expression,0.9175182580947876
,food,0.9052941799163818
,recreation,0.8967046737670898
,still life,0.8872024416923523
,little,0.8737684488296509
,blur,0.870502769947052
,play,0.865829586982727
,boy,0.8489441871643066
,exhibition,0.8470955491065979
,funny,0.8461067080497742
https://scontent.cdninstagram.com/t51.2885-15/e35/12407215_221311628210334_313755398_n.jpg,people,0.9841363430023193
,adult,0.9478851556777954
,festival,0.9422229528427124
,group,0.9388681650161743
,woman,0.935137152671814
,portrait,0.9340550899505615
,wear,0.9313345551490784
,city,0.9209533929824829
,vehicle,0.910500168800354
,music,0.908331036567688
,enjoyment,0.8997074365615845
,food,0.8970504999160767
,man,0.892199695110321
,child,0.8915010690689087
,street,0.8899797201156616
,blur,0.8804281949996948
,stock,0.8546133041381836
,celebration,0.8544641733169556
,light,0.8453134298324585
,indoors,0.8407540321350098
https://scontent.cdninstagram.com/t51.2885-15/e35/12555868_1510020842626430_88279837_n.jpg,people,0.9885079860687256
,child,0.9743825197219849
,group,0.9707992672920227
,woman,0.964198648929596
,man,0.9412165880203247
,adult,0.9323748350143433
,family,0.9153608083724976
,wear,0.9090311527252197
,stock,0.9005757570266724
,education,0.8842266798019409
,boy,0.8819711804389954
,fun,0.869613528251648
,friendship,0.86949223279953
,portrait,0.8614382147789001
,group,0.8437842130661011
,indoors,0.8383028507232666
,recreation,0.8358898162841797
,school,0.833505392074585
,music,0.8231819868087769
,togetherness,0.8158037662506104
https://scontent.cdninstagram.com/t51.2885-15/e35/13320046_1558406601122148_1020965599_n.jpg,woman,0.9858044385910034
,people,0.9647960662841797
,girl,0.95176762342453
,chair,0.9430228471755981
,room,0.9260492324829102
,coffee,0.9177284836769104
,adult,0.9138864278793335
,sit,0.9000483751296997
,one,0.8839750289916992
,indoors,0.8786497116088867
,portrait,0.8773268461227417
,restaurant,0.8772362470626831
,table,0.8664306402206421
,beautiful,0.8483819961547852
,seat,0.8328889012336731
,model,0.830205500125885
,furniture,0.8196793794631958
,bar,0.8088213205337524
,young,0.8064422607421875
,brunette,0.782899796962738
https://scontent.cdninstagram.com/t51.2885-15/e35/12677485_199208587102766_75204841_n.jpg,stock,0.9858855605125427
,people,0.9825061559677124
,exhibition,0.9810709953308105
,commerce,0.9781084060668945
,shopping,0.9701700210571289
,adult,0.9691656231880188
,woman,0.9626115560531616
,wear,0.9617482423782349
,festival,0.9511771202087402
,group,0.9504011273384094
,many,0.920186460018158
,school,0.9179348945617676
,city,0.9157464504241943
,room,0.9061318635940552
,education,0.9058147668838501
,movie,0.9053395986557007
,carnival,0.903980016708374
,shop,0.8996925354003906
,convention,0.8967686295509338
,portrait,0.8914422988891602
https://scontent.cdninstagram.com/t51.2885-15/e35/13130022_1120776564641883_1693368768_n.jpg,indoors,0.9838196039199829
,people,0.9818364381790161
,woman,0.9774694442749023
,adult,0.9638312458992004
,one,0.9596515893936157
,wear,0.9533648490905762
,portrait,0.9453696012496948
,man,0.9066495299339294
,facial expression,0.8938717842102051
,family,0.8923197984695435
,healthcare,0.8885635137557983
,looking,0.8852182626724243
,sit,0.8847904205322266
,enjoyment,0.8778424263000488
,coffee,0.8771064281463623
,leisure,0.8758877515792847
,child,0.8686000108718872
,telephone,0.8685624003410339
,room,0.8478809595108032
,adolescent,0.8431660532951355
https://scontent.cdninstagram.com/t51.2885-15/e35/12750300_1647567548840414_1877861392_n.jpg,child,0.9922343492507935
,people,0.987659752368927
,girl,0.9862720966339111
,portrait,0.9684678316116333
,lid,0.9574978351593018
,woman,0.9542425870895386
,fun,0.9537421464920044
,youth,0.9471417665481567
,outdoors,0.9457406997680664
,two,0.9380563497543335
,happiness,0.9372272491455078
,wear,0.9328255653381348
,adult,0.930488109588623
,park,0.9161982536315918
,togetherness,0.9133124947547913
,facial expression,0.9090431928634644
,boy,0.9081762433052063
,group,0.902007520198822
,family,0.8851183652877808
,friendship,0.884184718132019
https://scontent.cdninstagram.com/t51.2885-15/e35/12424650_179962302385435_1199069435_n.jpg,people,0.9887183308601379
,window,0.9717481136322021
,door,0.9713754653930664
,adult,0.9566038846969604
,woman,0.9554517269134521
,door,0.9450342059135437
,indoors,0.9432888031005859
,one,0.9360548853874207
,man,0.9265661239624023
,street,0.922346830368042
,business,0.9035701751708984
,room,0.9008153080940247
,wear,0.8852421045303345
,building,0.8838614225387573
,architecture,0.8821296691894531
,offense,0.8410645723342896
,portrait,0.8356494307518005
,city,0.823803186416626
,child,0.8195518255233765
,education,0.8163862228393555
https://scontent.cdninstagram.com/t51.2885-15/e35/12826006_1236858296379055_442725858_n.jpg,fashion,0.9877713918685913
,woman,0.9733930230140686
,indoors,0.9704141616821289
,people,0.9689871072769165
,portrait,0.9605042934417725
,man,0.9603617787361145
,telephone,0.9527891874313354
,model,0.9438650608062744
,city,0.9308751821517944
,business,0.9191591739654541
,tube,0.9155997037887573
,girl,0.9089868068695068
,street,0.9029017686843872
,one,0.9019780158996582
,wear,0.9015427231788635
,luggage,0.8989291191101074
,shopping,0.8924627304077148
,glamour,0.8921970129013062
,airport,0.8778557777404785
,adult,0.876785933971405
https://scontent.cdninstagram.com/t51.2885-15/s750x750/sh0.08/e35/12552370_868876326543120_1781797483_n.jpg,woman,0.9419811964035034
,people,0.9387783408164978
,business,0.9045195579528809
,girl,0.8636334538459778
,adult,0.8582749962806702
,person,0.8576400279998779
,text,0.8494536876678467
,indoors,0.8357516527175903
,portrait,0.8340352773666382
,desktop,0.8335723280906677
,performance,0.8226436972618103
,man,0.8175498843193054
,music,0.7932902574539185
,fashion,0.7879725694656372
,young,0.7802533507347107
,couple,0.773560643196106
,movie,0.7618865966796875
,document,0.7595857381820679
,paper,0.7423771023750305
,party,0.7307730913162231
https://scontent.cdninstagram.com/t51.2885-15/e35/12523750_1661263147481045_583392962_n.jpg,group,0.9947476983070374
,group,0.9890177249908447
,togetherness,0.9886870980262756
,woman,0.9860904216766357
,friendship,0.98576819896698
,man,0.9838055372238159
,people,0.9777489900588989
,three,0.9723614454269409
,portrait,0.9695566892623901
,facial expression,0.9659477472305298
,enjoyment,0.9547444581985474
,happiness,0.9540131092071533
,laughing,0.9504544734954834
,four,0.947394073009491
,adult,0.9385187029838562
,adolescent,0.9240695238113403
,student,0.910719096660614
,interaction,0.9056357145309448
,child,0.9046084880828857
,multicultural,0.904309093952179
https://scontent.cdninstagram.com/t51.2885-15/e15/12547179_1395171204123969_1574770718_n.jpg,woman,0.9812814593315125
,child,0.9792976379394531
,people,0.9547326564788818
,portrait,0.9434627294540405
,wear,0.9430729150772095
,two,0.9423805475234985
,happiness,0.9311627149581909
,togetherness,0.9294073581695557
,scarf,0.9265261888504028
,family,0.9197350740432739
,winter,0.911535918712616
,leisure,0.8967799544334412
,outdoors,0.8945926427841187
,enjoyment,0.8795251250267029
,daylight,0.8767331838607788
,fun,0.8702096939086914
,adult,0.8669314384460449
,laughing,0.8637164831161499
,girl,0.851570725440979
,healthcare,0.8490474224090576
https://scontent.cdninstagram.com/t51.2885-15/e35/12552200_499544483551938_1858662623_n.jpg,people,0.9960271716117859
,group,0.9836586117744446
,man,0.9816774725914001
,group,0.9662529230117798
,adult,0.9575685262680054
,woman,0.9524368047714233
,child,0.9522639513015747
,family,0.9386256337165833
,wear,0.9019125699996948
,many,0.8757050633430481
,uniform,0.8694437742233276
,four,0.8515489101409912
,boy,0.8344973921775818
,competition,0.8325903415679932
,ball,0.8100903034210205
,recreation,0.7961201667785645
,step,0.7790573835372925
,action,0.7746241092681885
,city,0.7707416415214539
,school,0.7617638111114502
https://scontent.cdninstagram.com/t51.2885-15/e35/12445977_752580414876547_1866486293_n.jpg,people,0.9853671789169312
,food,0.9776368141174316
,man,0.9579446315765381
,drink,0.957441508769989
,adult,0.9565460681915283
,woman,0.9408003687858582
,indoors,0.9406333565711975
,meal,0.9099738597869873
,restaurant,0.9089912176132202
,table,0.8988438844680786
,group,0.8764629364013672
,cup,0.8688291311264038
,cooking,0.8655439019203186
,grow,0.8636647462844849
,coffee,0.844184398651123
,tea,0.8307875394821167
,enjoyment,0.8178948163986206
,dairy product,0.8132526874542236
,family,0.8115861415863037
,wear,0.8051748275756836
https://scontent.cdninstagram.com/t51.2885-15/e15/1662520_1695082180704122_588016658_n.jpg,people,0.9919049739837646
,music,0.9864158630371094
,festival,0.9748912453651428
,group,0.962550163269043
,performance,0.9563614130020142
,musician,0.9463449716567993
,adult,0.9404622316360474
,club,0.9280514717102051
,concert,0.9211546182632446
,singer,0.9183206558227539
,celebration,0.9050136208534241
,recreation,0.9016162157058716
,flame,0.8997679948806763
,vehicle,0.8953300714492798
,man,0.8913915157318115
,motion,0.8890776634216309
,light,0.8543260097503662
,band,0.8501648306846619
,woman,0.8480653762817383
,police,0.8422503471374512
https://scontent.cdninstagram.com/t51.2885-15/e35/12568288_225162141159760_1942763809_n.jpg,woman,0.9852914810180664
,adult,0.9848566651344299
,people,0.9839010238647461
,facial expression,0.9803235530853271
,portrait,0.9765171408653259
,room,0.973996639251709
,wear,0.9663757681846619
,group,0.9643639326095581
,family,0.9578089714050293
,happiness,0.9556853771209717
,furniture,0.9550764560699463
,man,0.947324275970459
,indoors,0.9459608793258667
,seat,0.9456661939620972
,two,0.9456656575202942
,togetherness,0.9419705867767334
,interaction,0.9402821660041809
,three,0.9285518527030945
,child,0.911624550819397
,offspring,0.9062985181808472
https://scontent.cdninstagram.com/t51.2885-15/e35/12555853_590366891120343_1439589869_n.jpg,people,0.9847621321678162
,woman,0.9775251150131226
,adult,0.9742348194122314
,indoors,0.9564610719680786
,one,0.9507167339324951
,computer,0.9459758996963501
,business,0.9341439604759216
,technology,0.9310859441757202
,girl,0.9245719313621521
,chair,0.9168837666511536
,vehicle,0.9146478176116943
,office,0.9120609760284424
,telephone,0.9100812673568726
,room,0.906969428062439
,seat,0.9037903547286987
,furniture,0.8877304792404175
,man,0.8873538970947266
,car,0.8769097328186035
,laptop,0.8761678338050842
,portrait,0.8607662916183472
https://scontent.cdninstagram.com/t51.2885-15/e35/12628030_951028554966659_1482231687_n.jpg,people,0.9941657781600952
,adult,0.9863027334213257
,group,0.9855830669403076
,wear,0.984758734703064
,group,0.9724900722503662
,woman,0.971315860748291
,facial expression,0.9626611471176147
,man,0.9597538709640503
,child,0.9251366257667542
,portrait,0.9246510863304138
,recreation,0.9229448437690735
,outfit,0.8964014053344727
,offspring,0.8892121315002441
,four,0.8870900869369507
,music,0.886394202709198
,two,0.8674975633621216
,enjoyment,0.8593775033950806
,three,0.8508912324905396
,five,0.8473929762840271
,girl,0.8462916612625122
https://scontent.cdninstagram.com/t51.2885-15/e35/12751368_1541057972860394_806967371_n.jpg,child,0.997490406036377
,togetherness,0.9901056289672852
,boy,0.9853505492210388
,family,0.9717444181442261
,people,0.9639196395874023
,fun,0.9637287855148315
,enjoyment,0.9637253284454346
,man,0.953353226184845
,facial expression,0.9482311010360718
,love,0.9464610815048218
,friendship,0.9397724270820618
,indoors,0.9320305585861206
,elementary school,0.925615131855011
,woman,0.9239682555198669
,portrait,0.9159712791442871
,affection,0.9110491871833801
,two,0.9055191278457642
,sit,0.8947238922119141
,laughing,0.8946422934532166
,offspring,0.8942713737487793
https://scontent.cdninstagram.com/t51.2885-15/e35/11247922_455312041326625_889598313_n.jpg,child,0.9968806505203247
,togetherness,0.991934061050415
,boy,0.9752638339996338
,friendship,0.9705995321273804
,family,0.9694507718086243
,woman,0.9670356512069702
,fun,0.966197669506073
,laughing,0.9550771713256836
,group,0.9435846209526062
,people,0.9352699518203735
,four,0.9340015649795532
,love,0.9299328327178955
,joy,0.9270844459533691
,indoors,0.9220682382583618
,girl,0.9163120985031128
,affection,0.915283739566803
,youth,0.9097967147827148
,cute,0.9093692302703857
,enjoyment,0.9033725261688232
,adolescent,0.9003795385360718
https://scontent.cdninstagram.com/t51.2885-15/e35/13129890_238455343187075_889239705_n.jpg,exhibition,0.9678479433059692
,tube,0.965248703956604
,people,0.9651882648468018
,festival,0.9495340585708618
,street,0.9353706240653992
,woman,0.9248355627059937
,music,0.9207583665847778
,performance,0.9124022722244263
,motion,0.888666033744812
,indoors,0.8882874250411987
,city,0.8856056928634644
,man,0.8854076266288757
,school,0.8706327676773071
,dancing,0.8610001802444458
,fashion,0.8561113476753235
,carnival,0.8548300266265869
,adult,0.8493417501449585
,airport,0.8442844152450562
,rush,0.8289183378219604
,business,0.8273864984512329
https://scontent.cdninstagram.com/t51.2885-15/e15/12555960_1692111517711841_1203922156_n.jpg,safety,0.9829424619674683
,gloves,0.9409525990486145
,people,0.9399533867835999
,expression,0.9356988668441772
,security,0.935102105140686
,man,0.9299236536026001
,one,0.9228181838989258
,worker,0.9178892970085144
,maintenance,0.9106175899505615
,helmet,0.9061911106109619
,child,0.9006017446517944
,outdoors,0.8945443630218506
,isolated,0.8797209858894348
,industry,0.8791793584823608
,service,0.8582711815834045
,builder,0.8550466299057007
,hardhat,0.8292946815490723
,repair,0.8278490304946899
,hard,0.8258588910102844
,woman,0.8247009515762329
https://scontent.cdninstagram.com/t51.2885-15/e35/13118115_1605458299770015_124858397_n.jpg,woman,0.9899419546127319
,people,0.9809521436691284
,one,0.9729844331741333
,indoors,0.9404536485671997
,adult,0.9313362836837769
,portrait,0.8879377841949463
,wear,0.8828612565994263
,adolescent,0.8819983005523682
,facial expression,0.8671880960464478
,child,0.854846179485321
,leisure,0.8486610651016235
,gloves,0.845659077167511
,healthcare,0.8417609930038452
,looking,0.8397386074066162
,girl,0.8362710475921631
,recreation,0.8300056457519531
,enjoyment,0.8217520713806152
,fun,0.8175511360168457
,cute,0.7889814972877502
,bottle,0.782258152961731
https://scontent.cdninstagram.com/t51.2885-15/e35/13413479_742127525939577_605114803_n.jpg,people,0.9858094453811646
,group,0.985171914100647
,woman,0.9736951589584351
,offense,0.9662593007087708
,education,0.965284526348114
,school,0.9648092985153198
,many,0.9593545198440552
,class,0.9551681280136108
,crowd,0.9531612992286682
,adult,0.940550684928894
,festival,0.9355241060256958
,energy,0.9203898310661316
,police,0.9163728952407837
,battle,0.913420557975769
,train,0.9084287285804749
,rebellion,0.9082289934158325
,teacher,0.8916958570480347
,music,0.8908390998840332
,motion,0.8858761191368103
,sports fan,0.8838086128234863
https://scontent.cdninstagram.com/t51.2885-15/e35/13328948_1611157459197470_1236681450_n.jpg,woman,0.9855016469955444
,family,0.9809883832931519
,people,0.9796208143234253
,facial expression,0.9785220623016357
,happiness,0.9679827094078064
,adult,0.9669828414916992
,togetherness,0.9665639400482178
,enjoyment,0.9664168357849121
,indoors,0.9654329419136047
,lifestyle,0.9638175964355469
,room,0.9631224274635315
,child,0.9623451232910156
,man,0.9466133117675781
,two,0.9431236982345581
,sit,0.9358601570129395
,group,0.9201141595840454
,boy,0.919725775718689
,girl,0.9189242124557495
,leisure,0.9087578654289246
,furniture,0.9048677682876587
https://scontent.cdninstagram.com/t51.2885-15/e35/12534500_137724979942867_1595216725_n.jpg,group,0.995417594909668
,people,0.985612690448761
,woman,0.9813300371170044
,man,0.9645082950592041
,group,0.9511576294898987
,adult,0.9407448768615723
,wear,0.94044029712677
,enjoyment,0.9294196367263794
,family,0.9245200753211975
,many,0.9071229696273804
,four,0.9054685831069946
,friendship,0.9053299427032471
,facial expression,0.8993099331855774
,coffee,0.8925197124481201
,street,0.8888577222824097
,vehicle,0.8879091143608093
,city,0.8854857087135315
,several,0.877632737159729
,commerce,0.869674801826477
,child,0.8648087382316589
https://scontent.cdninstagram.com/t51.2885-15/e35/13187974_1736913843244829_1346115538_n.jpg,sunglasses,0.9973950386047363
,woman,0.9938130378723145
,people,0.9904589653015137
,outdoors,0.9665687084197998
,water,0.9582495093345642
,travel,0.9563939571380615
,portrait,0.9385272264480591
,music,0.936913251876831
,city,0.9301208853721619
,recreation,0.9282926917076111
,festival,0.9192835688591003
,man,0.9117963314056396
,wear,0.910530686378479
,enjoyment,0.9068455696105957
,eyewear,0.9062843918800354
,fun,0.903832197189331
,fashion,0.8951075673103333
,landscape,0.8921096324920654
,girl,0.8848767280578613
,adult,0.8794399499893188
https://scontent.cdninstagram.com/t51.2885-15/e35/13151033_1228851143792534_526220514_n.jpg,people,0.9925943613052368
,festival,0.9878756999969482
,group,0.9790612459182739
,fun,0.9715687036514282
,child,0.9666225910186768
,celebration,0.9650870561599731
,street,0.9534065127372742
,city,0.942182183265686
,performance,0.9415909051895142
,motion,0.9298357963562012
,travel,0.9234516620635986
,music,0.9186693429946899
,group,0.9163107872009277
,recreation,0.9131853580474854
,tourist,0.9116820693016052
,man,0.907008171081543
,woman,0.8998534679412842
,party,0.899209201335907
,vacation,0.8912950754165649
,school,0.8753066658973694
https://scontent.cdninstagram.com/t51.2885-15/e35/13187914_158492454553611_1869711440_n.jpg,people,0.9595446586608887
,business,0.9553394913673401
,woman,0.9418174028396606
,adult,0.9371501803398132
,street,0.8974183797836304
,finance,0.8560991287231445
,outdoors,0.8512578010559082
,man,0.8500411510467529
,competition,0.847943127155304
,portrait,0.8203339576721191
,stock,0.8104562759399414
,exercise,0.8059033751487732
,road,0.8045817613601685
,city,0.7892882823944092
,education,0.7891510725021362
,commerce,0.7856676578521729
,person,0.7331578135490417
,leader,0.7296059131622314
,one,0.7259806394577026
,shopping,0.7233332395553589
https://scontent.cdninstagram.com/t51.2885-15/s750x750/sh0.08/e35/13118052_1544568942505705_1274648636_n.jpg,people,0.9348028898239136
,business,0.9337602853775024
,paper,0.8979620933532715
,woman,0.8803880214691162
,adult,0.8503801822662354
,illustration,0.8298009634017944
,indoors,0.8187596201896667
,office,0.809616208076477
,success,0.7984289526939392
,sign,0.7979445457458496
,horizontal,0.7902785539627075
,person,0.7885862588882446
,document,0.7630057334899902
,bill,0.7575758695602417
,man,0.7447744607925415
,young,0.7423515319824219
,desktop,0.7323346138000488
,composition,0.7274515628814697
,graph,0.7264151573181152
,table,0.722933292388916
https://scontent.cdninstagram.com/t51.2885-15/e35/13150982_561876867324654_1705928588_n.jpg,group,0.990950345993042
,woman,0.9842077493667603
,portrait,0.9672149419784546
,people,0.9663919806480408
,girl,0.9621723890304565
,friendship,0.9608199596405029
,group,0.9597842693328857
,child,0.9589956402778625
,togetherness,0.9376391172409058
,family,0.9213548898696899
,enjoyment,0.9130693674087524
,happiness,0.9090996980667114
,fun,0.9072163105010986
,adult,0.8954576849937439
,four,0.8928911089897156
,laughing,0.8864076137542725
,wear,0.8820132613182068
,man,0.8818372488021851
,daylight,0.8625679612159729
,festival,0.8463576436042786
https://scontent.cdninstagram.com/t51.2885-15/e35/13129219_1711668752425427_1447524077_n.jpg,woman,0.9833639860153198
,people,0.9828169345855713
,battle,0.9433321356773376
,adult,0.943252682685852
,wear,0.9409353733062744
,recreation,0.9253824353218079
,man,0.9146292209625244
,indoors,0.9097059965133667
,headscarf,0.8841568231582642
,hijab,0.881643533706665
,veil,0.8773205280303955
,portrait,0.8699741959571838
,festival,0.8380695581436157
,group,0.8241698741912842
,election,0.8130614757537842
,offense,0.8109625577926636
,music,0.8036670684814453
,fashion,0.801327109336853
,education,0.798956036567688
,two,0.7852789163589478
https://scontent.cdninstagram.com/t51.2885-15/e35/13188051_984577758315722_1903694504_n.jpg,child,0.9988327026367188
,people,0.996269702911377
,group,0.9948314428329468
,woman,0.9739558696746826
,portrait,0.9637700915336609
,family,0.9634239673614502
,recreation,0.9616016149520874
,enjoyment,0.96103835105896
,friendship,0.9588390588760376
,girl,0.9544436931610107
,four,0.9418784379959106
,education,0.9397345781326294
,boy,0.9388352632522583
,facial expression,0.9256136417388916
,togetherness,0.9241904020309448
,several,0.9187921285629272
,five,0.9175397157669067
,group,0.9163640737533569
,wear,0.9144003391265869
,boy,0.9103385210037231
https://scontent.cdninstagram.com/t51.2885-15/e35/13259662_469141596609096_65898216_n.jpg,street,0.9944185018539429
,road,0.9919143915176392
,luggage,0.9882417917251587
,woman,0.9827332496643066
,people,0.9796507358551025
,city,0.9749194979667664
,man,0.961461067199707
,outdoors,0.9141571521759033
,togetherness,0.9070782661437988
,urban,0.8948558568954468
,school,0.8861489295959473
,child,0.8848334550857544
,exercise,0.8825500011444092
,recreation,0.8723057508468628
,adult,0.8720111846923828
,pavement,0.8699290752410889
,portrait,0.8670675754547119
,travel,0.8667739629745483
,girl,0.8643491268157959
,leisure,0.8605689406394958
https://scontent.cdninstagram.com/t51.2885-15/e35/13261010_1119754591417971_1057423028_n.jpg,girl,0.9918901920318604
,child,0.9868849515914917
,street,0.986657977104187
,people,0.9852113723754883
,portrait,0.9806956052780151
,woman,0.9711282253265381
,fun,0.9617743492126465
,outdoors,0.9522114992141724
,city,0.9436209201812744
,urban,0.9360389113426208
,enjoyment,0.9290705919265747
,happiness,0.9246819019317627
,pretty,0.9182075262069702
,one,0.9177379608154297
,cute,0.9154803156852722
,travel,0.91126549243927
,smile,0.9097439050674438
,lifestyle,0.907525897026062
,leisure,0.9052119255065918
,young,0.8968451023101807
https://scontent.cdninstagram.com/t51.2885-15/e35/13256825_488135288064237_1054161742_n.jpg,people,0.9954725503921509
,group,0.99361252784729
,facial expression,0.9927810430526733
,adult,0.9915095567703247
,wear,0.9867548942565918
,portrait,0.9860337376594543
,brunette,0.9755101203918457
,woman,0.9734665155410767
,musician,0.9699211120605469
,man,0.9692155122756958
,group,0.9658277630805969
,lid,0.964465856552124
,music,0.9595444798469543
,recreation,0.952832818031311
,singer,0.9491124749183655
,three,0.9447344541549683
,four,0.9381235241889954
,two,0.9357100129127502
,outfit,0.9337180256843567
,pants,0.9310058355331421
https://scontent.cdninstagram.com/t51.2885-15/e35/13150982_699315760171289_1373081577_n.jpg,people,0.9963568449020386
,exhibition,0.9946558475494385
,museum,0.9902079105377197
,painting,0.9890569448471069
,portrait,0.9859888553619385
,adult,0.9812592267990112
,woman,0.9801845550537109
,landscape,0.9677524566650391
,wear,0.9634081125259399
,indoors,0.9582581520080566
,room,0.9538004398345947
,child,0.9535712003707886
,girl,0.9403775930404663
,one,0.9327263832092285
,furniture,0.9307947754859924
,facial expression,0.9184433221817017
,ceremony,0.8800471425056458
,two,0.879382848739624
,family,0.8695616722106934
,album,0.8648638725280762
https://scontent.cdninstagram.com/t51.2885-15/e35/13167185_1603120633332487_1746935246_n.jpg,garbage,0.9850925207138062
,business,0.9836676716804504
,money,0.9768880605697632
,finance,0.9727523326873779
,rally,0.9681301712989807
,waste,0.9668788909912109
,market,0.9607326984405518
,offense,0.9542474746704102
,sale,0.9535017013549805
,stock,0.9459084868431091
,competition,0.9448803663253784
,commerce,0.9406999349594116
,crisis,0.9366865158081055
,no person,0.9339827299118042
,finance,0.9236236214637756
,food,0.9192190766334534
,shopping,0.908267617225647
,battle,0.897052526473999
,soccer,0.8851273655891418
,recession,0.8837652206420898
https://scontent.cdninstagram.com/t51.2885-15/e35/13151238_269125106766395_377620083_n.jpg,business,0.9861229658126831
,money,0.9743854403495789
,paper,0.9512408971786499
,people,0.9443286657333374
,wealth,0.9397670030593872
,finance,0.9194958209991455
,money,0.9054096937179565
,gambling,0.8966968059539795
,many,0.8907324075698853
,market,0.8784289956092834
,commerce,0.8610115051269531
,shopping,0.842825174331665
,luck,0.8423693180084229
,group,0.8400757312774658
,number,0.8365699052810669
,rally,0.8297107219696045
,symbol,0.8183039426803589
,desktop,0.8035086393356323
,cash,0.7977838516235352
,sign,0.7971160411834717
https://scontent.cdninstagram.com/t51.2885-15/e35/12424745_186163821776001_2000811794_n.jpg,child,0.9844248294830322
,woman,0.9804368019104004
,boy,0.9800692200660706
,girl,0.9800246357917786
,people,0.9784001111984253
,portrait,0.9783979654312134
,group,0.9718445539474487
,friendship,0.97150719165802
,togetherness,0.9602642059326172
,family,0.9599045515060425
,fun,0.9482299089431763
,adult,0.9430027008056641
,love,0.9318763017654419
,three,0.9279913902282715
,man,0.9196907877922058
,happiness,0.9161719083786011
,four,0.912865400314331
,wear,0.9056169986724854
,facial expression,0.9000307321548462
,indoors,0.8983956575393677
