url,class,score,,,,,,,,
https://scontent.cdninstagram.com/t51.2885-15/e15/12224535_1696417697244052_388359947_n.jpg,woman,0.9870602488517761,"Fashion & Beauty","My life",,,"My look",Selfie,,
,"facial expression",0.9786427021026611,,,,,,,,
,people,0.9764173626899719,,,,,,,,
,portrait,0.9711565971374512,,,,,,,,
,one,0.9689072966575623,,,,,,,,
,child,0.9634518623352051,,,,,,,,
,cute,0.9381355047225952,,,,,,,,
,indoors,0.9277142286300659,,,,,,,,
,adolescent,0.8977292776107788,,,,,,,,
,wear,0.8940935134887695,,,,,,,,
,pretty,0.889407753944397,,,,,,,,
,looking,0.8856498003005981,,,,,,,,
,adult,0.8841567039489746,,,,,,,,
,fashion,0.8758758306503296,,,,,,,,
,girl,0.8749991059303284,,,,,,,,
,enjoyment,0.85590660572052,,,,,,,,
,pensive,0.8486639857292175,,,,,,,,
,innocence,0.8388486504554749,,,,,,,,
,young,0.8332575559616089,,,,,,,,
,relaxation,0.8264380693435669,,,,,,,,
https://scontent.cdninstagram.com/t51.2885-15/e35/13298282_1705928446361384_246802828_n.jpg,collage,0.9980505704879761,Relationships,,,,"Best friends",,,
,portrait,0.9920517206192017,,,,,,,,
,child,0.9889188408851624,,,,,,,,
,girl,0.9849179983139038,,,,,,,,
,people,0.9829252362251282,,,,,,,,
,woman,0.9788529872894287,,,,,,,,
,smile,0.9638991355895996,,,,,,,,
,education,0.9627416729927063,,,,,,,,
,school,0.9594426155090332,,,,,,,,
,face,0.9516822099685669,,,,,,,,
,beautiful,0.9494735598564148,,,,,,,,
,young,0.9479061365127563,,,,,,,,
,business,0.9476864337921143,,,,,,,,
,person,0.9370043277740479,,,,,,,,
,group,0.9352582693099976,,,,,,,,
,set,0.9324706196784973,,,,,,,,
,isolated,0.9322826862335205,,,,,,,,
,blank,0.9314243197441101,,,,,,,,
,collage,0.9294739961624146,,,,,,,,
,presentation,0.9215948581695557,,,,,,,,
https://scontent.cdninstagram.com/t51.2885-15/e35/12093402_996336787092531_124957691_n.jpg,pizza,0.9991695880889893,Food,,,,"Meal time",,,
,dough,0.9954557418823242,,,,,,,,
,cheese,0.9926518201828003,,,,,,,,
,"no person",0.9911689758300781,,,,,,,,
,food,0.9885691404342651,,,,,,,,
,mozzarella,0.9815124273300171,,,,,,,,
,crust,0.9813997745513916,,,,,,,,
,lunch,0.980566680431366,,,,,,,,
,dinner,0.9773889183998108,,,,,,,,
,baking,0.9772775173187256,,,,,,,,
,pie,0.97431480884552,,,,,,,,
,pastry,0.9699219465255737,,,,,,,,
,pepperoni,0.9680628776550293,,,,,,,,
,homemade,0.9636145830154419,,,,,,,,
,delicious,0.9602582454681396,,,,,,,,
,meal,0.9596543312072754,,,,,,,,
,fast,0.9473260641098022,,,,,,,,
,restaurant,0.9448316693305969,,,,,,,,
,ham,0.9432941675186157,,,,,,,,
,cooking,0.9310163259506226,,,,,,,,
https://scontent.cdninstagram.com/t51.2885-15/e35/10946396_411266699065913_1379974934_n.jpg,water,0.9940842390060425,Environment,"My life",,,"Natural beauty","My world today",,
,landscape,0.9931565523147583,,,,,,,,
,sea,0.99064040184021,,,,,,,,
,beach,0.9895070791244507,,,,,,,,
,sunset,0.9892905354499817,,,,,,,,
,ocean,0.9868730902671814,,,,,,,,
,seashore,0.9771818518638611,,,,,,,,
,dawn,0.9721043109893799,,,,,,,,
,sky,0.964152455329895,,,,,,,,
,light,0.9618197679519653,,,,,,,,
,evening,0.9511398673057556,,,,,,,,
,lake,0.9356268644332886,,,,,,,,
,watercraft,0.9260606169700623,,,,,,,,
,daylight,0.9247837662696838,,,,,,,,
,vehicle,0.924540638923645,,,,,,,,
,seascape,0.9235213994979858,,,,,,,,
,travel,0.9108339548110962,,,,,,,,
,reflection,0.9021304845809937,,,,,,,,
,scenic,0.8999302387237549,,,,,,,,
,dusk,0.8961428999900818,,,,,,,,
https://scontent.cdninstagram.com/t51.2885-15/e35/12558499_954844377934046_2099458107_n.jpg,child,0.9926056861877441,"Fashion & Beauty","My life",,,"My look",Selfie,,
,cute,0.9639508724212646,,,,,,,,
,isolated,0.9594361186027527,,,,,,,,
,little,0.9499386548995972,,,,,,,,
,boy,0.9450774192810059,,,,,,,,
,young,0.9351375102996826,,,,,,,,
,people,0.9333817958831787,,,,,,,,
,adolescent,0.924993097782135,,,,,,,,
,eye,0.902064323425293,,,,,,,,
,looking,0.8947374224662781,,,,,,,,
,fun,0.8864029049873352,,,,,,,,
,man,0.8860046863555908,,,,,,,,
,portrait,0.8811105489730835,,,,,,,,
,intelligence,0.8801991939544678,,,,,,,,
,boy,0.8687118887901306,,,,,,,,
,education,0.8679720759391785,,,,,,,,
,worried,0.8655167818069458,,,,,,,,
,casual,0.8626360893249512,,,,,,,,
,disquieted,0.8597685694694519,,,,,,,,
,one,0.858566164970398,,,,,,,,
https://scontent.cdninstagram.com/t51.2885-15/e35/12135370_713437645460458_475780985_n.jpg,people,0.9271235466003418,Arts,,,,Arts-s,,,
,health,0.8816395998001099,,,,,,,,
,fish,0.8682590126991272,,,,,,,,
,one,0.8668661117553711,,,,,,,,
,nature,0.8447384238243103,,,,,,,,
,man,0.8398330211639404,,,,,,,,
,"no person",0.839643120765686,,,,,,,,
,woman,0.8344036340713501,,,,,,,,
,water,0.8067171573638916,,,,,,,,
,food,0.7996841669082642,,,,,,,,
,sea,0.7827156186103821,,,,,,,,
,adult,0.7689141035079956,,,,,,,,
,business,0.7563351392745972,,,,,,,,
,healthcare,0.7507965564727783,,,,,,,,
,preparation,0.7411965727806091,,,,,,,,
,young,0.7408593893051147,,,,,,,,
,summer,0.727388858795166,,,,,,,,
,outdoors,0.7232547998428345,,,,,,,,
,travel,0.7223111391067505,,,,,,,,
,fun,0.708716094493866,,,,,,,,
https://scontent.cdninstagram.com/t51.2885-15/e35/12568827_1063193307065420_1717802723_n.jpg,vertical,0.9866567850112915,Travel,,,,Travel-s,,,
,identity,0.9589468240737915,,,,,,,,
,business,0.9536037445068359,,,,,,,,
,woman,0.9417451620101929,,,,,,,,
,security,0.9327265024185181,,,,,,,,
,money,0.9213789701461792,,,,,,,,
,spherical,0.9164737462997437,,,,,,,,
,isolated,0.8908990621566772,,,,,,,,
,people,0.890609622001648,,,,,,,,
,success,0.8812770843505859,,,,,,,,
,money,0.8744660019874573,,,,,,,,
,pay,0.872227668762207,,,,,,,,
,paper,0.8705663681030273,,,,,,,,
,plastic,0.8577520847320557,,,,,,,,
,electronics,0.8369641900062561,,,,,,,,
,wealth,0.8303816318511963,,,,,,,,
,passport,0.8225416541099548,,,,,,,,
,number,0.8159525990486145,,,,,,,,
,indoors,0.8155725002288818,,,,,,,,
,one,0.8092349767684937,,,,,,,,
https://scontent.cdninstagram.com/t51.2885-15/e35/13256625_939344972849853_85885545_n.jpg,people,0.9673798084259033,Relationships,"Fun Filter",,,"Best friends","Fun Filter",,
,woman,0.964157223701477,,,,,,,,
,portrait,0.9629889726638794,,,,,,,,
,education,0.9592671394348145,,,,,,,,
,collage,0.9550827741622925,,,,,,,,
,child,0.9510807991027832,,,,,,,,
,man,0.9398284554481506,,,,,,,,
,business,0.9198743104934692,,,,,,,,
,paper,0.9162354469299316,,,,,,,,
,isolated,0.9060958623886108,,,,,,,,
,young,0.9037479162216187,,,,,,,,
,girl,0.8890886902809143,,,,,,,,
,smile,0.8818178176879883,,,,,,,,
,beautiful,0.879264771938324,,,,,,,,
,friendship,0.86799156665802,,,,,,,,
,display,0.8461382985115051,,,,,,,,
,person,0.8416153192520142,,,,,,,,
,school,0.8396093845367432,,,,,,,,
,happiness,0.8351713418960571,,,,,,,,
,cheerful,0.8310354351997375,,,,,,,,
https://scontent.cdninstagram.com/t51.2885-15/e35/12328326_561872913968567_663362072_n.jpg,business,0.991901159286499,"Fashion & Beauty",Environment,,,"My look","Manmade beauty",,
,office,0.9872216582298279,,,,,,,,
,people,0.986304759979248,,,,,,,,
,building,0.9843277931213379,,,,,,,,
,city,0.9811869859695435,,,,,,,,
,adult,0.9711045026779175,,,,,,,,
,skyscraper,0.9699084758758545,,,,,,,,
,road,0.9531214833259583,,,,,,,,
,urban,0.9504776000976562,,,,,,,,
,architecture,0.9429879188537598,,,,,,,,
,daylight,0.9387546181678772,,,,,,,,
,street,0.9317254424095154,,,,,,,,
,finance,0.9298887252807617,,,,,,,,
,portrait,0.919242262840271,,,,,,,,
,environment,0.9126976728439331,,,,,,,,
,tree,0.9116982221603394,,,,,,,,
,finance,0.8998665809631348,,,,,,,,
,window,0.8953065276145935,,,,,,,,
,prosperity,0.8860243558883667,,,,,,,,
,downtown,0.8826572895050049,,,,,,,,
https://scontent.cdninstagram.com/t51.2885-15/e35/12106036_441783559339054_1824696198_n.jpg,sunset,0.9809839725494385,Environment,"My life",,,"Natural beauty","My world today",,
,landscape,0.9789673089981079,,,,,,,,
,sky,0.9729866981506348,,,,,,,,
,tree,0.9713993072509766,,,,,,,,
,"no person",0.9611400365829468,,,,,,,,
,light,0.9554375410079956,,,,,,,,
,silhouette,0.9478006362915039,,,,,,,,
,evening,0.9312907457351685,,,,,,,,
,city,0.9270848035812378,,,,,,,,
,dawn,0.9209607839584351,,,,,,,,
,dusk,0.9199734926223755,,,,,,,,
,outdoors,0.9185202121734619,,,,,,,,
,environment,0.914341926574707,,,,,,,,
,energy,0.9106253385543823,,,,,,,,
,tower,0.8955755233764648,,,,,,,,
,sun,0.8872036933898926,,,,,,,,
,architecture,0.8837825655937195,,,,,,,,
,industry,0.8828293085098267,,,,,,,,
,travel,0.8754943013191223,,,,,,,,
,weather,0.870913028717041,,,,,,,,
https://scontent.cdninstagram.com/t51.2885-15/e35/10540344_1206889609337462_1370886639_n.jpg,cute,0.9895201921463013,"Fashion & Beauty",Food,,,"My look",Self-preparation,,
,child,0.9884353876113892,,,,,,,,
,girl,0.9825807213783264,,,,,,,,
,pretty,0.9752821922302246,,,,,,,,
,beautiful,0.9739139080047607,,,,,,,,
,young,0.9713261723518372,,,,,,,,
,portrait,0.9627760648727417,,,,,,,,
,isolated,0.9584329128265381,,,,,,,,
,woman,0.9531879425048828,,,,,,,,
,little,0.9528451561927795,,,,,,,,
,smile,0.9507369995117188,,,,,,,,
,fashion,0.9398978352546692,,,,,,,,
,joy,0.9237736463546753,,,,,,,,
,person,0.923762857913971,,,,,,,,
,one,0.9147814512252808,,,,,,,,
,face,0.9011626243591309,,,,,,,,
,innocence,0.8954228758811951,,,,,,,,
,cheerful,0.8949899077415466,,,,,,,,
,people,0.89239501953125,,,,,,,,
,looking,0.8880711793899536,,,,,,,,
https://scontent.cdninstagram.com/t51.2885-15/e35/12071056_891574054245869_13709154_n.jpg,"no person",0.9843579530715942,Environment,"My life",,,"Natural beauty","My world today",,
,outdoors,0.9604604840278625,,,,,,,,
,tree,0.9526784420013428,,,,,,,,
,sky,0.9447909593582153,,,,,,,,
,evening,0.918230414390564,,,,,,,,
,architecture,0.9148015379905701,,,,,,,,
,sunset,0.908352792263031,,,,,,,,
,light,0.9077945351600647,,,,,,,,
,house,0.9060336351394653,,,,,,,,
,silhouette,0.9046190977096558,,,,,,,,
,dusk,0.9034100770950317,,,,,,,,
,travel,0.9006555080413818,,,,,,,,
,dawn,0.8982565402984619,,,,,,,,
,building,0.8815633058547974,,,,,,,,
,nature,0.8776777386665344,,,,,,,,
,landscape,0.8725285530090332,,,,,,,,
,home,0.858992874622345,,,,,,,,
,wood,0.84613436460495,,,,,,,,
,sun,0.823634684085846,,,,,,,,
,daylight,0.8220841288566589,,,,,,,,
https://scontent.cdninstagram.com/t51.2885-15/e35/12144196_602560579886370_1115418964_n.jpg,man,0.9767203330993652,Food,Relationships,,,"Meal time","Best friends",,
,people,0.9619611501693726,,,,,,,,
,food,0.9210183620452881,,,,,,,,
,adult,0.9204342365264893,,,,,,,,
,sit,0.9160601496696472,,,,,,,,
,indoors,0.9144524335861206,,,,,,,,
,restaurant,0.9029653668403625,,,,,,,,
,Christmas,0.8613483905792236,,,,,,,,
,drink,0.8548566102981567,,,,,,,,
,portrait,0.8375247716903687,,,,,,,,
,young,0.8369100093841553,,,,,,,,
,fine-looking,0.8202247619628906,,,,,,,,
,person,0.8201509714126587,,,,,,,,
,box,0.8019728660583496,,,,,,,,
,bar,0.7762476801872253,,,,,,,,
,lunch,0.7722726464271545,,,,,,,,
,happiness,0.7688543796539307,,,,,,,,
,dinner,0.7662966251373291,,,,,,,,
,celebration,0.7622158527374268,,,,,,,,
,cheerful,0.7521440982818604,,,,,,,,
https://scontent.cdninstagram.com/t51.2885-15/e35/12070710_1014548151918235_834543148_n.jpg,girl,0.9872138500213623,"Fashion & Beauty","My life",,,"My look",Selfie,,
,woman,0.9868971109390259,,,,,,,,
,fashion,0.9808143377304077,,,,,,,,
,cute,0.977924108505249,,,,,,,,
,beautiful,0.9704269766807556,,,,,,,,
,glamour,0.9658409357070923,,,,,,,,
,portrait,0.9651027321815491,,,,,,,,
,pretty,0.9647741317749023,,,,,,,,
,face,0.9646600484848022,,,,,,,,
,eye,0.9583590030670166,,,,,,,,
,hair,0.9547029733657837,,,,,,,,
,young,0.9513370990753174,,,,,,,,
,model,0.9478940963745117,,,,,,,,
,skin,0.9441971778869629,,,,,,,,
,child,0.9425884485244751,,,,,,,,
,isolated,0.9166388511657715,,,,,,,,
,lips,0.9111836552619934,,,,,,,,
,bright,0.9109668135643005,,,,,,,,
,sexy,0.9090401530265808,,,,,,,,
,clean,0.879271388053894,,,,,,,,
https://scontent.cdninstagram.com/t51.2885-15/e35/11249417_1196605470355253_962282878_n.jpg,woman,0.9898618459701538,"Fashion & Beauty",,,,"My look",,,
,fashion,0.9828473329544067,,,,,,,,
,pretty,0.979232668876648,,,,,,,,
,cute,0.9638546705245972,,,,,,,,
,indoors,0.9407299757003784,,,,,,,,
,eye,0.9347385168075562,,,,,,,,
,family,0.9307663440704346,,,,,,,,
,child,0.9236881732940674,,,,,,,,
,contemporary,0.9219295978546143,,,,,,,,
,people,0.9169880747795105,,,,,,,,
,sexy,0.9152073264122009,,,,,,,,
,fun,0.9126590490341187,,,,,,,,
,elegant,0.9095950126647949,,,,,,,,
,vertical,0.9095449447631836,,,,,,,,
,glamour,0.9035418629646301,,,,,,,,
,young,0.899198055267334,,,,,,,,
,adolescent,0.890347957611084,,,,,,,,
,portrait,0.8767668008804321,,,,,,,,
,little,0.861619234085083,,,,,,,,
,joy,0.8601647019386292,,,,,,,,
https://scontent.cdninstagram.com/t51.2885-15/s750x750/sh0.08/e35/11809953_484816225023918_1490410773_n.jpg,food,0.9945581555366516,Food,,,,"Meal time",,,
,meat,0.9794360399246216,,,,,,,,
,dinner,0.9753738641738892,,,,,,,,
,meal,0.9750642776489258,,,,,,,,
,plate,0.9637587070465088,,,,,,,,
,lunch,0.9620867967605591,,,,,,,,
,"no person",0.9594483375549316,,,,,,,,
,dish,0.9587994813919067,,,,,,,,
,delicious,0.9518166780471802,,,,,,,,
,vegetable,0.9447119832038879,,,,,,,,
,cooking,0.9254818558692932,,,,,,,,
,pork,0.9252935647964478,,,,,,,,
,grow,0.924177885055542,,,,,,,,
,beef,0.9203763008117676,,,,,,,,
,cuisine,0.9124550819396973,,,,,,,,
,sauce,0.907055139541626,,,,,,,,
,epicure,0.8818022012710571,,,,,,,,
,restaurant,0.8779523372650146,,,,,,,,
,chicken,0.8732631206512451,,,,,,,,
,tasty,0.873062252998352,,,,,,,,
https://scontent.cdninstagram.com/t51.2885-15/e35/1170362_207548676252473_1776313018_n.jpg,education,0.9524195194244385,Literature,,,,Literature-s,,,
,text,0.9352171421051025,,,,,,,,
,"give voice",0.9287932515144348,,,,,,,,
,medicine,0.9209994673728943,,,,,,,,
,definition,0.9038763046264648,,,,,,,,
,business,0.8728610277175903,,,,,,,,
,typescript,0.8588973879814148,,,,,,,,
,school,0.8403598070144653,,,,,,,,
,disease,0.83768630027771,,,,,,,,
,research,0.8325411081314087,,,,,,,,
,science,0.8300493955612183,,,,,,,,
,handbook,0.8280788660049438,,,,,,,,
,paper,0.8131955862045288,,,,,,,,
,vision,0.8003314137458801,,,,,,,,
,knowledge,0.7885098457336426,,,,,,,,
,book,0.7874451875686646,,,,,,,,
,investment,0.7807626128196716,,,,,,,,
,offense,0.7754563689231873,,,,,,,,
,document,0.7650671601295471,,,,,,,,
,wisdom,0.7560597062110901,,,,,,,,
https://scontent.cdninstagram.com/t51.2885-15/e15/924800_1668705840008976_574697953_n.jpg,togetherness,0.9904088973999023,Relationships,,,,"Best friends",,,
,woman,0.9874863624572754,,,,,,,,
,man,0.9799302816390991,,,,,,,,
,friendship,0.9778556823730469,,,,,,,,
,adult,0.9716650247573853,,,,,,,,
,people,0.9701986312866211,,,,,,,,
,indoors,0.955869197845459,,,,,,,,
,"facial expression",0.9433495998382568,,,,,,,,
,love,0.9386906027793884,,,,,,,,
,happiness,0.9263123273849487,,,,,,,,
,horizontal,0.9185494184494019,,,,,,,,
,portrait,0.9110198616981506,,,,,,,,
,two,0.9062395095825195,,,,,,,,
,adolescent,0.8880164623260498,,,,,,,,
,child,0.885358452796936,,,,,,,,
,fun,0.8785440921783447,,,,,,,,
,laughing,0.8564620018005371,,,,,,,,
,wear,0.8538358211517334,,,,,,,,
,three,0.8536304235458374,,,,,,,,
,looking,0.8491718769073486,,,,,,,,
https://scontent.cdninstagram.com/t51.2885-15/e35/11849004_1717682765126263_947056003_n.jpg,love,0.994758665561676,Relationships,,,,"Baby family",,,
,child,0.989588737487793,,,,,,,,
,woman,0.9828261733055115,,,,,,,,
,togetherness,0.9791748523712158,,,,,,,,
,maternity,0.9767054915428162,,,,,,,,
,family,0.9737089276313782,,,,,,,,
,cute,0.973705530166626,,,,,,,,
,baby,0.9736285209655762,,,,,,,,
,affection,0.9704241752624512,,,,,,,,
,nude,0.9700416326522827,,,,,,,,
,indoors,0.949640154838562,,,,,,,,
,little,0.9279236793518066,,,,,,,,
,boy,0.9240047931671143,,,,,,,,
,fun,0.9223567843437195,,,,,,,,
,embrace,0.9127863049507141,,,,,,,,
,innocence,0.9113552570343018,,,,,,,,
,joy,0.9106432199478149,,,,,,,,
,girl,0.8868120908737183,,,,,,,,
,people,0.87564617395401,,,,,,,,
,portrait,0.8743599653244019,,,,,,,,
https://scontent.cdninstagram.com/t51.2885-15/e15/11348390_386776328176060_1012154573_n.jpg,woman,0.9802993535995483,Relationships,Commerce,Food,,"Best friends","Product/brand shots","Drinks and snack",
,man,0.9779374599456787,,,,,,,,
,people,0.9594544172286987,,,,,,,,
,indoors,0.9392232298851013,,,,,,,,
,adult,0.9364053010940552,,,,,,,,
,togetherness,0.9306576251983643,,,,,,,,
,family,0.9276264905929565,,,,,,,,
,horizontal,0.9214441776275635,,,,,,,,
,young,0.9206048846244812,,,,,,,,
,sit,0.9051998257637024,,,,,,,,
,happiness,0.8922058939933777,,,,,,,,
,looking,0.8837839365005493,,,,,,,,
,friendship,0.8714112043380737,,,,,,,,
,couple,0.8606432676315308,,,,,,,,
,enjoyment,0.8594146966934204,,,,,,,,
,cheerful,0.844465434551239,,,,,,,,
,business,0.8436908721923828,,,,,,,,
,group,0.8405324220657349,,,,,,,,
,portrait,0.837610125541687,,,,,,,,
,fun,0.8320895433425903,,,,,,,,
https://scontent.cdninstagram.com/t51.2885-15/e35/12071043_1470759376564627_943854656_n.jpg,child,0.9987802505493164,Relationships,,,,"Baby family",,,
,baby,0.9913071990013123,,,,,,,,
,boy,0.9848418235778809,,,,,,,,
,cute,0.9778263568878174,,,,,,,,
,little,0.9620662927627563,,,,,,,,
,innocence,0.96114581823349,,,,,,,,
,offspring,0.950667679309845,,,,,,,,
,girl,0.9486358165740967,,,,,,,,
,people,0.9455918073654175,,,,,,,,
,fun,0.94266676902771,,,,,,,,
,happiness,0.9424924850463867,,,,,,,,
,love,0.940869927406311,,,,,,,,
,toddler,0.9356814622879028,,,,,,,,
,togetherness,0.9347754716873169,,,,,,,,
,newborn,0.9329997301101685,,,,,,,,
,two,0.9265502691268921,,,,,,,,
,portrait,0.9217863082885742,,,,,,,,
,indoors,0.9211483001708984,,,,,,,,
,"facial expression",0.9094393253326416,,,,,,,,
,family,0.9035471677780151,,,,,,,,
https://scontent.cdninstagram.com/t51.2885-15/s750x750/sh0.08/e35/11377616_857735470976751_1689797796_n.jpg,child,0.9962337017059326,"Fashion & Beauty","My life",,,"My look",Selfie,,
,cute,0.9883440732955933,,,,,,,,
,portrait,0.9877763390541077,,,,,,,,
,girl,0.9819689393043518,,,,,,,,
,little,0.977920651435852,,,,,,,,
,people,0.9759136438369751,,,,,,,,
,face,0.9757899045944214,,,,,,,,
,young,0.9727261066436768,,,,,,,,
,beautiful,0.9670126438140869,,,,,,,,
,person,0.9613763093948364,,,,,,,,
,pretty,0.9562284350395203,,,,,,,,
,one,0.9457446336746216,,,,,,,,
,hair,0.9415265917778015,,,,,,,,
,fun,0.9402933120727539,,,,,,,,
,fashion,0.9394651651382446,,,,,,,,
,eye,0.9308708906173706,,,,,,,,
,woman,0.9301350116729736,,,,,,,,
,joy,0.9197483062744141,,,,,,,,
,innocence,0.9162919521331787,,,,,,,,
,happiness,0.9162148237228394,,,,,,,,
https://scontent.cdninstagram.com/t51.2885-15/e15/11417290_1401584216837654_864392394_n.jpg,woman,0.9950406551361084,Relationships,,,,"Best friends",,,
,bill,0.9891330003738403,,,,,,,,
,blank,0.987773060798645,,,,,,,,
,billboard,0.9820376634597778,,,,,,,,
,isolated,0.9794876575469971,,,,,,,,
,portrait,0.9730061292648315,,,,,,,,
,young,0.971827507019043,,,,,,,,
,people,0.9697103500366211,,,,,,,,
,education,0.968723714351654,,,,,,,,
,advertising,0.9626691341400146,,,,,,,,
,display,0.9598687887191772,,,,,,,,
,student,0.9595907330513,,,,,,,,
,adolescent,0.9569256901741028,,,,,,,,
,school,0.9554123878479004,,,,,,,,
,smile,0.9510288238525391,,,,,,,,
,empty,0.9470009803771973,,,,,,,,
,girl,0.9467176198959351,,,,,,,,
,group,0.9428836107254028,,,,,,,,
,college,0.9396915435791016,,,,,,,,
,child,0.938654899597168,,,,,,,,
https://scontent.cdninstagram.com/t51.2885-15/e35/11899498_389885587877018_2095901145_n.jpg,girl,0.9962701201438904,"Fashion & Beauty","My life",,,"My look",Selfie,,
,portrait,0.9942919015884399,,,,,,,,
,woman,0.9905259609222412,,,,,,,,
,people,0.9888627529144287,,,,,,,,
,fashion,0.9710856676101685,,,,,,,,
,winter,0.9710391163825989,,,,,,,,
,scarf,0.9688597917556763,,,,,,,,
,wear,0.9640854597091675,,,,,,,,
,one,0.9617884159088135,,,,,,,,
,cold,0.9527684450149536,,,,,,,,
,model,0.946928858757019,,,,,,,,
,adult,0.9434255361557007,,,,,,,,
,child,0.9384849071502686,,,,,,,,
,face,0.9165326356887817,,,,,,,,
,"facial expression",0.8993637561798096,,,,,,,,
,eye,0.8952401280403137,,,,,,,,
,sweater,0.8454023599624634,,,,,,,,
,beautiful,0.8417778015136719,,,,,,,,
,hair,0.835277259349823,,,,,,,,
,dress,0.8152481317520142,,,,,,,,
https://scontent.cdninstagram.com/l/t51.2885-15/e15/11386421_1616805911907216_265278788_n.jpg,child,0.9981579184532166,Relationships,,,,"Baby family",,,
,baby,0.9866577982902527,,,,,,,,
,family,0.9825150966644287,,,,,,,,
,love,0.9797930717468262,,,,,,,,
,cute,0.9669879078865051,,,,,,,,
,boy,0.9631444811820984,,,,,,,,
,little,0.9627927541732788,,,,,,,,
,togetherness,0.9570775032043457,,,,,,,,
,three,0.938835859298706,,,,,,,,
,parent,0.9381440281867981,,,,,,,,
,fun,0.9309897422790527,,,,,,,,
,woman,0.9204719066619873,,,,,,,,
,girl,0.9166257381439209,,,,,,,,
,people,0.9075927734375,,,,,,,,
,ma,0.9065899848937988,,,,,,,,
,joy,0.9028974771499634,,,,,,,,
,maternity,0.8971526622772217,,,,,,,,
,portrait,0.8957960605621338,,,,,,,,
,beautiful,0.8940277099609375,,,,,,,,
,toddler,0.8824864625930786,,,,,,,,
https://scontent.cdninstagram.com/t51.2885-15/e35/12142303_1038681172832709_710711620_n.jpg,woman,0.9954296350479126,"Fashion & Beauty","My life",,,"My look",Selfie,,
,girl,0.9916620254516602,,,,,,,,
,portrait,0.9912647008895874,,,,,,,,
,fashion,0.9788717031478882,,,,,,,,
,people,0.958662211894989,,,,,,,,
,model,0.9509313106536865,,,,,,,,
,eye,0.9487528204917908,,,,,,,,
,pretty,0.9295668601989746,,,,,,,,
,sexy,0.9214525818824768,,,,,,,,
,one,0.9196524620056152,,,,,,,,
,indoors,0.916663646697998,,,,,,,,
,hair,0.8991386294364929,,,,,,,,
,cute,0.8928244113922119,,,,,,,,
,glamour,0.8902347683906555,,,,,,,,
,brunette,0.8843863606452942,,,,,,,,
,wear,0.8809650540351868,,,,,,,,
,adolescent,0.8726240992546082,,,,,,,,
,"facial expression",0.8692303895950317,,,,,,,,
,daydreaming,0.8682156205177307,,,,,,,,
,adult,0.8677864074707031,,,,,,,,
https://scontent.cdninstagram.com/t51.2885-15/e35/11374767_1635689486674517_2094623151_n.jpg,child,0.9870150089263916,Relationships,,,,"Baby family",,,
,little,0.9800940752029419,,,,,,,,
,girl,0.9732497930526733,,,,,,,,
,cute,0.9472450613975525,,,,,,,,
,people,0.9373288750648499,,,,,,,,
,pretty,0.9299930334091187,,,,,,,,
,fun,0.9245489239692688,,,,,,,,
,indoors,0.9141490459442139,,,,,,,,
,beautiful,0.9123284816741943,,,,,,,,
,baby,0.9034643769264221,,,,,,,,
,bathroom,0.8969783782958984,,,,,,,,
,portrait,0.891612708568573,,,,,,,,
,bathtub,0.8904321193695068,,,,,,,,
,young,0.8731704950332642,,,,,,,,
,toddler,0.8699089288711548,,,,,,,,
,person,0.8695805668830872,,,,,,,,
,hair,0.867504358291626,,,,,,,,
,one,0.8625198602676392,,,,,,,,
,family,0.8585918545722961,,,,,,,,
,leisure,0.8271635174751282,,,,,,,,
https://scontent.cdninstagram.com/t51.2885-15/e35/12353232_1490862694550539_248006531_n.jpg,child,0.9868019819259644,"Fashion & Beauty","My life",,,"My look",Selfie,,
,woman,0.9755672812461853,,,,,,,,
,cute,0.9749893546104431,,,,,,,,
,pretty,0.967050313949585,,,,,,,,
,girl,0.9523823261260986,,,,,,,,
,isolated,0.944283127784729,,,,,,,,
,adolescent,0.9430349469184875,,,,,,,,
,little,0.9313051700592041,,,,,,,,
,fashion,0.9216061234474182,,,,,,,,
,fun,0.9172348976135254,,,,,,,,
,eye,0.9108386039733887,,,,,,,,
,young,0.9070908427238464,,,,,,,,
,portrait,0.8899229764938354,,,,,,,,
,people,0.8844567537307739,,,,,,,,
,joy,0.8783698081970215,,,,,,,,
,casual,0.8731095790863037,,,,,,,,
,looking,0.8399763703346252,,,,,,,,
,precious,0.8109577894210815,,,,,,,,
,beautiful,0.8004391193389893,,,,,,,,
,preschool,0.7978023290634155,,,,,,,,
https://scontent.cdninstagram.com/t51.2885-15/e15/11327307_1600281716909947_1754734852_n.jpg,people,0.9875073432922363,Undefined,,,,Undefined,,,
,woman,0.9845143556594849,,,,,,,,
,indoors,0.9689987301826477,,,,,,,,
,adult,0.9573972225189209,,,,,,,,
,wear,0.9439330101013184,,,,,,,,
,fashion,0.9410718679428101,,,,,,,,
,one,0.9352527260780334,,,,,,,,
,man,0.9350823163986206,,,,,,,,
,girl,0.9316835403442383,,,,,,,,
,seat,0.9236053824424744,,,,,,,,
,family,0.9170178174972534,,,,,,,,
,business,0.9166397452354431,,,,,,,,
,sit,0.912155270576477,,,,,,,,
,portrait,0.8717451095581055,,,,,,,,
,room,0.8670001029968262,,,,,,,,
,two,0.848399817943573,,,,,,,,
,pants,0.8462085127830505,,,,,,,,
,child,0.8383076786994934,,,,,,,,
,wait,0.8210275173187256,,,,,,,,
,love,0.8177357912063599,,,,,,,,
https://scontent.cdninstagram.com/t51.2885-15/e35/12106115_513545485476831_1443707764_n.jpg,child,0.9690479040145874,Relationships,Food,,,"Best friends","Drinks and snack",,
,woman,0.9647272825241089,,,,,,,,
,people,0.9231612682342529,,,,,,,,
,cute,0.9041160345077515,,,,,,,,
,pretty,0.8924556970596313,,,,,,,,
,fun,0.880271315574646,,,,,,,,
,indoors,0.8778688907623291,,,,,,,,
,young,0.8688132762908936,,,,,,,,
,adolescent,0.8608357310295105,,,,,,,,
,girl,0.8558251261711121,,,,,,,,
,isolated,0.8481945991516113,,,,,,,,
,family,0.8416383266448975,,,,,,,,
,looking,0.8338891267776489,,,,,,,,
,man,0.8290311694145203,,,,,,,,
,education,0.821723461151123,,,,,,,,
,paper,0.813817024230957,,,,,,,,
,student,0.8022760152816772,,,,,,,,
,sit,0.7887176275253296,,,,,,,,
,portrait,0.7870287895202637,,,,,,,,
,little,0.7811844348907471,,,,,,,,
https://scontent.cdninstagram.com/t51.2885-15/e15/12132916_1717507461814685_1525010425_n.jpg,child,0.9959439039230347,"Fashion & Beauty","My life",,,"My look",Selfie,,
,indoors,0.9817708134651184,,,,,,,,
,people,0.9809067249298096,,,,,,,,
,innocence,0.9797532558441162,,,,,,,,
,portrait,0.9672324657440186,,,,,,,,
,cute,0.9613498449325562,,,,,,,,
,"facial expression",0.9532735347747803,,,,,,,,
,woman,0.9487380385398865,,,,,,,,
,happiness,0.9383466839790344,,,,,,,,
,relaxation,0.9131841659545898,,,,,,,,
,enjoyment,0.9062345027923584,,,,,,,,
,fun,0.8836299777030945,,,,,,,,
,joy,0.879635214805603,,,,,,,,
,adult,0.8599402904510498,,,,,,,,
,looking,0.8556351661682129,,,,,,,,
,one,0.8541381359100342,,,,,,,,
,little,0.8489542007446289,,,,,,,,
,adolescent,0.8220529556274414,,,,,,,,
,laughing,0.786347508430481,,,,,,,,
,vertical,0.7668224573135376,,,,,,,,
https://scontent.cdninstagram.com/t51.2885-15/e35/11856835_1029961433711492_994575134_n.jpg,people,0.9828482270240784,"Fashion & Beauty",,,,"My look",,,
,competition,0.9762426614761353,,,,,,,,
,vehicle,0.9708962440490723,,,,,,,,
,action,0.9527776837348938,,,,,,,,
,race,0.9490741491317749,,,,,,,,
,adult,0.9484856128692627,,,,,,,,
,"transportation system",0.9426664710044861,,,,,,,,
,one,0.9416297674179077,,,,,,,,
,road,0.9315142631530762,,,,,,,,
,outdoors,0.9200482368469238,,,,,,,,
,portrait,0.9107467532157898,,,,,,,,
,championship,0.8968026638031006,,,,,,,,
,aircraft,0.8891922235488892,,,,,,,,
,woman,0.8890088796615601,,,,,,,,
,travel,0.8606468439102173,,,,,,,,
,airplane,0.8602659702301025,,,,,,,,
,airport,0.853024959564209,,,,,,,,
,"auto racing",0.8506938219070435,,,,,,,,
,daylight,0.8485219478607178,,,,,,,,
,motion,0.8402410745620728,,,,,,,,
https://scontent.cdninstagram.com/t51.2885-15/e35/12105177_137257903296856_1382996330_n.jpg,bed,0.9822579026222229,"Fashion & Beauty","My life",,,"My look",Selfie,,
,woman,0.9602739810943604,,,,,,,,
,girl,0.9598391056060791,,,,,,,,
,bedroom,0.9539799094200134,,,,,,,,
,relaxation,0.9472569227218628,,,,,,,,
,family,0.946281909942627,,,,,,,,
,indoors,0.9248246550559998,,,,,,,,
,nude,0.9197931885719299,,,,,,,,
,people,0.9197796583175659,,,,,,,,
,dawn,0.913620114326477,,,,,,,,
,child,0.9060854315757751,,,,,,,,
,portrait,0.9009767770767212,,,,,,,,
,baby,0.8900101184844971,,,,,,,,
,sleep,0.8639469146728516,,,,,,,,
,room,0.8635388016700745,,,,,,,,
,one,0.8521787524223328,,,,,,,,
,beautiful,0.8342435359954834,,,,,,,,
,love,0.8200575113296509,,,,,,,,
,cover,0.8182251453399658,,,,,,,,
,cute,0.8124889135360718,,,,,,,,
https://scontent.cdninstagram.com/t51.2885-15/e35/11379075_706713742765789_1418516532_n.jpg,text,0.969392716884613,Literature,,,,Literature-s,,,
,illustration,0.9649685621261597,,,,,,,,
,conceptual,0.9570313692092896,,,,,,,,
,graphic,0.9545280933380127,,,,,,,,
,business,0.9446256160736084,,,,,,,,
,love,0.9427387714385986,,,,,,,,
,typography,0.9317101240158081,,,,,,,,
,"no person",0.9293493032455444,,,,,,,,
,desktop,0.9175629615783691,,,,,,,,
,internet,0.9142941236495972,,,,,,,,
,symbol,0.9117929935455322,,,,,,,,
,design,0.9100760221481323,,,,,,,,
,data,0.9069451093673706,,,,,,,,
,"give voice",0.8968062996864319,,,,,,,,
,abstract,0.880149245262146,,,,,,,,
,design,0.8779870271682739,,,,,,,,
,success,0.85319584608078,,,,,,,,
,sign,0.8419976830482483,,,,,,,,
,romance,0.8298268914222717,,,,,,,,
,service,0.8264454007148743,,,,,,,,
https://scontent.cdninstagram.com/t51.2885-15/e15/1598680_855103231231418_1744932350_n.jpg,child,0.9955023527145386,"Fashion & Beauty","My life",,,"My look",Selfie,,
,cute,0.9926252365112305,,,,,,,,
,pretty,0.9774107933044434,,,,,,,,
,woman,0.9694640636444092,,,,,,,,
,fashion,0.9692277908325195,,,,,,,,
,isolated,0.9684227108955383,,,,,,,,
,eye,0.965190589427948,,,,,,,,
,little,0.9642387628555298,,,,,,,,
,portrait,0.9493926763534546,,,,,,,,
,girl,0.9446550607681274,,,,,,,,
,fun,0.9366227984428406,,,,,,,,
,young,0.9357945919036865,,,,,,,,
,innocence,0.9246136546134949,,,,,,,,
,adolescent,0.9062777161598206,,,,,,,,
,joy,0.9059639573097229,,,,,,,,
,people,0.9058048725128174,,,,,,,,
,hair,0.8984922766685486,,,,,,,,
,looking,0.8827579021453857,,,,,,,,
,precious,0.8810350894927979,,,,,,,,
,beautiful,0.8756423592567444,,,,,,,,
https://scontent.cdninstagram.com/t51.2885-15/e35/12353959_1665458297063588_392982266_n.jpg,landscape,0.9800673127174377,Environment,,,,"Natural beauty",,,
,nature,0.9642800092697144,,,,,,,,
,rock,0.9613052606582642,,,,,,,,
,sea,0.9544186592102051,,,,,,,,
,water,0.9507206678390503,,,,,,,,
,stone,0.9131544828414917,,,,,,,,
,ocean,0.9002779722213745,,,,,,,,
,"no person",0.8898355960845947,,,,,,,,
,travel,0.8801741600036621,,,,,,,,
,desktop,0.8692641854286194,,,,,,,,
,beautiful,0.8611679077148438,,,,,,,,
,seascape,0.8503578901290894,,,,,,,,
,color,0.8414966464042664,,,,,,,,
,beach,0.831196129322052,,,,,,,,
,environment,0.8130854368209839,,,,,,,,
,sight,0.7686904668807983,,,,,,,,
,seashore,0.7607648372650146,,,,,,,,
,sky,0.7417649030685425,,,,,,,,
,island,0.7371010184288025,,,,,,,,
,old,0.7335234880447388,,,,,,,,
https://scontent.cdninstagram.com/t51.2885-15/e35/11380908_382213268655742_201600325_n.jpg,child,0.9984402656555176,Relationships,Animals,,,"Baby family",Animals-s,,
,cute,0.9930486083030701,,,,,,,,
,little,0.9917508363723755,,,,,,,,
,isolated,0.9791949987411499,,,,,,,,
,sit,0.9745187759399414,,,,,,,,
,baby,0.9714053869247437,,,,,,,,
,fun,0.9704180955886841,,,,,,,,
,people,0.9701592922210693,,,,,,,,
,funny,0.9369947910308838,,,,,,,,
,innocence,0.9350652098655701,,,,,,,,
,indoors,0.935035228729248,,,,,,,,
,family,0.9340379238128662,,,,,,,,
,happiness,0.91278475522995,,,,,,,,
,love,0.911810040473938,,,,,,,,
,portrait,0.8981823325157166,,,,,,,,
,joy,0.8960577249526978,,,,,,,,
,young,0.8941473960876465,,,,,,,,
,education,0.8915138244628906,,,,,,,,
,adorable,0.8893691301345825,,,,,,,,
,looking,0.8887367248535156,,,,,,,,
https://scontent.cdninstagram.com/t51.2885-15/e15/11379932_1425737511082715_661477840_n.jpg,child,0.9944189786911011,Relationships,Celebrations,,,"Best friends","Personal Events",,
,isolated,0.9667186737060547,,,,,,,,
,fun,0.9619399309158325,,,,,,,,
,cute,0.9564201235771179,,,,,,,,
,woman,0.9546171426773071,,,,,,,,
,man,0.9529139399528503,,,,,,,,
,togetherness,0.9491370916366577,,,,,,,,
,family,0.9462342262268066,,,,,,,,
,people,0.9405162334442139,,,,,,,,
,little,0.9378247261047363,,,,,,,,
,joy,0.9328045845031738,,,,,,,,
,young,0.9285397529602051,,,,,,,,
,casual,0.9221829175949097,,,,,,,,
,adolescent,0.9110684394836426,,,,,,,,
,cheerful,0.9109691381454468,,,,,,,,
,love,0.9099198579788208,,,,,,,,
,health,0.9051307439804077,,,,,,,,
,happiness,0.896584153175354,,,,,,,,
,looking,0.8909360766410828,,,,,,,,
,fine-looking,0.8824394941329956,,,,,,,,
https://scontent.cdninstagram.com/t51.2885-15/e35/11856649_1090070897689334_913220771_n.jpg,food,0.9926533699035645,Food,,,,"Meal time",,,
,"no person",0.9836687445640564,,,,,,,,
,plate,0.965833306312561,,,,,,,,
,meal,0.9444693326950073,,,,,,,,
,grow,0.9311646819114685,,,,,,,,
,healthy,0.9281325340270996,,,,,,,,
,dish,0.927261471748352,,,,,,,,
,desktop,0.9238982796669006,,,,,,,,
,dinner,0.920037567615509,,,,,,,,
,tasty,0.91774582862854,,,,,,,,
,epicure,0.9152703285217285,,,,,,,,
,delicious,0.9115123152732849,,,,,,,,
,closeup,0.9027475118637085,,,,,,,,
,vegetable,0.8947217464447021,,,,,,,,
,meat,0.8911340832710266,,,,,,,,
,cooking,0.8910346031188965,,,,,,,,
,sweet,0.8814077973365784,,,,,,,,
,cuisine,0.8742196559906006,,,,,,,,
,nutrition,0.8684694766998291,,,,,,,,
,lunch,0.8680087924003601,,,,,,,,
https://scontent.cdninstagram.com/t51.2885-15/e15/11424704_1848540478704762_1078544614_n.jpg,girl,0.9917166233062744,"Fashion & Beauty","My life",,,"My look",Selfie,,
,cute,0.9867041110992432,,,,,,,,
,child,0.9848801493644714,,,,,,,,
,portrait,0.9826112985610962,,,,,,,,
,fashion,0.9797370433807373,,,,,,,,
,eye,0.97920823097229,,,,,,,,
,woman,0.9683693647384644,,,,,,,,
,face,0.9599177837371826,,,,,,,,
,pretty,0.9596562385559082,,,,,,,,
,model,0.9569987058639526,,,,,,,,
,beautiful,0.9446035623550415,,,,,,,,
,studio,0.9415393471717834,,,,,,,,
,glamour,0.9294934272766113,,,,,,,,
,hair,0.9279599189758301,,,,,,,,
,innocence,0.9258537292480469,,,,,,,,
,young,0.9215404987335205,,,,,,,,
,isolated,0.9134814143180847,,,,,,,,
,smile,0.9132317304611206,,,,,,,,
,little,0.9072005748748779,,,,,,,,
,people,0.8989877104759216,,,,,,,,
https://scontent.cdninstagram.com/t51.2885-15/e35/13249785_469314743259024_2024018695_n.jpg,child,0.9960869550704956,Relationships,"Fun Filter",,,"Best friends","Fun Filter",,
,people,0.9814289212226868,,,,,,,,
,portrait,0.9576030969619751,,,,,,,,
,family,0.9556474685668945,,,,,,,,
,woman,0.9420545101165771,,,,,,,,
,cute,0.9257513284683228,,,,,,,,
,education,0.9211139678955078,,,,,,,,
,isolated,0.9102375507354736,,,,,,,,
,collage,0.9086313247680664,,,,,,,,
,fun,0.9034684896469116,,,,,,,,
,little,0.9034228324890137,,,,,,,,
,togetherness,0.9024825096130371,,,,,,,,
,man,0.897585391998291,,,,,,,,
,happiness,0.8883441090583801,,,,,,,,
,cheerful,0.8855867385864258,,,,,,,,
,girl,0.8841970562934875,,,,,,,,
,friendship,0.8733152747154236,,,,,,,,
,young,0.8625749349594116,,,,,,,,
,smile,0.8501112461090088,,,,,,,,
,group,0.8447093963623047,,,,,,,,
https://scontent.cdninstagram.com/t51.2885-15/e35/10661077_1612530332320505_737018462_n.jpg,paper,0.9903730154037476,Arts,,,,Arts-s,,,
,isolated,0.9791303873062134,,,,,,,,
,health,0.9664939641952515,,,,,,,,
,"no person",0.9523029923439026,,,,,,,,
,vertical,0.9456522464752197,,,,,,,,
,skin,0.9401677250862122,,,,,,,,
,woman,0.9334957599639893,,,,,,,,
,treatment,0.9072685241699219,,,,,,,,
,writing,0.8834376335144043,,,,,,,,
,care,0.8772292733192444,,,,,,,,
,desktop,0.8649450540542603,,,,,,,,
,retro,0.8631083369255066,,,,,,,,
,pain,0.8619869947433472,,,,,,,,
,body,0.8599491119384766,,,,,,,,
,detail,0.839550256729126,,,,,,,,
,page,0.8363847732543945,,,,,,,,
,empty,0.8358079791069031,,,,,,,,
,healthcare,0.8341704607009888,,,,,,,,
,business,0.8339669704437256,,,,,,,,
,one,0.8273205757141113,,,,,,,,
https://scontent.cdninstagram.com/t51.2885-15/e35/13256993_960246720754610_1395529153_n.jpg,child,0.9863238334655762,Relationships,Culture,,,"Best friends",Culture-s,,
,people,0.9753813743591309,,,,,,,,
,portrait,0.9481412768363953,,,,,,,,
,fun,0.9414821863174438,,,,,,,,
,woman,0.9299336671829224,,,,,,,,
,cute,0.9198862314224243,,,,,,,,
,celebration,0.9139495491981506,,,,,,,,
,outdoors,0.9079850316047668,,,,,,,,
,traditional,0.907784640789032,,,,,,,,
,two,0.8829391002655029,,,,,,,,
,festival,0.8804777264595032,,,,,,,,
,man,0.8714231252670288,,,,,,,,
,joy,0.8693555593490601,,,,,,,,
,little,0.8563916683197021,,,,,,,,
,Christmas,0.8520252704620361,,,,,,,,
,adolescent,0.8473073840141296,,,,,,,,
,girl,0.8457770347595215,,,,,,,,
,wear,0.842179536819458,,,,,,,,
,fashion,0.8364132046699524,,,,,,,,
,pretty,0.8334327340126038,,,,,,,,
https://scontent.cdninstagram.com/t51.2885-15/e35/13126894_615897725240111_1025573858_n.jpg,woman,0.9827786684036255,Relationships,,,,"Best friends",,,
,two,0.9792576432228088,,,,,,,,
,people,0.9792359471321106,,,,,,,,
,indoors,0.9680619835853577,,,,,,,,
,family,0.9674974679946899,,,,,,,,
,adult,0.9621840715408325,,,,,,,,
,man,0.9501850605010986,,,,,,,,
,togetherness,0.9443756341934204,,,,,,,,
,happiness,0.9256081581115723,,,,,,,,
,room,0.9252064228057861,,,,,,,,
,portrait,0.8944324851036072,,,,,,,,
,lifestyle,0.8860645890235901,,,,,,,,
,girl,0.8764552474021912,,,,,,,,
,couple,0.8571529388427734,,,,,,,,
,cooking,0.8570590019226074,,,,,,,,
,enjoyment,0.8568651676177979,,,,,,,,
,computer,0.8512365818023682,,,,,,,,
,wear,0.8507513999938965,,,,,,,,
,technology,0.8464716672897339,,,,,,,,
,education,0.8326029777526855,,,,,,,,
https://scontent.cdninstagram.com/t51.2885-15/e35/13277843_1772791172951305_1322634885_n.jpg,people,0.9844419956207275,Relationships,Culture,,,Friends,Culture-s,,
,"sports fan",0.9678291082382202,,,,,,,,
,group,0.9459394812583923,,,,,,,,
,man,0.9419969320297241,,,,,,,,
,woman,0.9387468695640564,,,,,,,,
,squad,0.9258406162261963,,,,,,,,
,child,0.913096010684967,,,,,,,,
,game,0.9058676362037659,,,,,,,,
,soccer,0.9034119844436646,,,,,,,,
,group,0.8886748552322388,,,,,,,,
,victory,0.8866050243377686,,,,,,,,
,football,0.8823190331459045,,,,,,,,
,adult,0.8761961460113525,,,,,,,,
,national,0.8751132488250732,,,,,,,,
,competition,0.8750671148300171,,,,,,,,
,sport,0.8651311993598938,,,,,,,,
,celebration,0.8553617596626282,,,,,,,,
,ball,0.8536982536315918,,,,,,,,
,school,0.8524066209793091,,,,,,,,
,education,0.8488965034484863,,,,,,,,
https://scontent.cdninstagram.com/t51.2885-15/e35/10809502_1464847650499534_542526989_n.jpg,child,0.990777313709259,Relationships,,,,"Baby family",,,
,nude,0.9879754781723022,,,,,,,,
,baby,0.9770386219024658,,,,,,,,
,cute,0.9572041034698486,,,,,,,,
,girl,0.9371190667152405,,,,,,,,
,boy,0.935924768447876,,,,,,,,
,skin,0.9077156186103821,,,,,,,,
,beautiful,0.9021122455596924,,,,,,,,
,nude,0.9005923271179199,,,,,,,,
,portrait,0.8907307386398315,,,,,,,,
,little,0.8868128657341003,,,,,,,,
,isolated,0.8808032870292664,,,,,,,,
,people,0.8535853624343872,,,,,,,,
,pretty,0.8483940362930298,,,,,,,,
,topless,0.840908408164978,,,,,,,,
,love,0.8337368965148926,,,,,,,,
,young,0.8273625373840332,,,,,,,,
,eye,0.8235454559326172,,,,,,,,
,woman,0.8165372610092163,,,,,,,,
,fashion,0.8134216070175171,,,,,,,,
https://scontent.cdninstagram.com/t51.2885-15/e35/13116644_1721691398108107_1561569874_n.jpg,water,0.9960302114486694,Environment,,,,"Natural beauty",,,
,sea,0.9913517236709595,,,,,,,,
,beach,0.9879276752471924,,,,,,,,
,summer,0.9810645580291748,,,,,,,,
,travel,0.9789093732833862,,,,,,,,
,nature,0.976707935333252,,,,,,,,
,sand,0.9756100177764893,,,,,,,,
,seashore,0.9711960554122925,,,,,,,,
,ocean,0.9706696271896362,,,,,,,,
,wave,0.963016152381897,,,,,,,,
,sky,0.9575521349906921,,,,,,,,
,vacation,0.954471230506897,,,,,,,,
,relaxation,0.9468029737472534,,,,,,,,
,recreation,0.9464691877365112,,,,,,,,
,tourism,0.924236536026001,,,,,,,,
,island,0.9218253493309021,,,,,,,,
,landscape,0.9209713935852051,,,,,,,,
,tropical,0.9193956851959229,,,,,,,,
,shore,0.9191200733184814,,,,,,,,
,sun,0.9076704978942871,,,,,,,,
https://scontent.cdninstagram.com/t51.2885-15/e35/13277776_505195673012681_1015323553_n.jpg,art,0.9823312759399414,Relationships,,,,"Best friends",,,
,man,0.9705396890640259,,,,,,,,
,retro,0.9677876830101013,,,,,,,,
,portrait,0.9639939665794373,,,,,,,,
,paper,0.9548441171646118,,,,,,,,
,illustration,0.9497160911560059,,,,,,,,
,people,0.9473799467086792,,,,,,,,
,old,0.9429765939712524,,,,,,,,
,woman,0.9425063133239746,,,,,,,,
,vintage,0.9419203996658325,,,,,,,,
,painting,0.929359495639801,,,,,,,,
,person,0.9270260334014893,,,,,,,,
,young,0.9143412113189697,,,,,,,,
,artistic,0.9071386456489563,,,,,,,,
,adult,0.9052273035049438,,,,,,,,
,face,0.8997795581817627,,,,,,,,
,antique,0.8970379829406738,,,,,,,,
,desktop,0.8791439533233643,,,,,,,,
,beautiful,0.8686962127685547,,,,,,,,
,girl,0.8562861680984497,,,,,,,,
https://scontent.cdninstagram.com/t51.2885-15/e15/11372527_737844846344458_214827914_n.jpg,child,0.9999029040336609,Relationships,,,,"Baby family",,,
,little,0.9961941242218018,,,,,,,,
,baby,0.9951108694076538,,,,,,,,
,cute,0.9940162897109985,,,,,,,,
,boy,0.986446738243103,,,,,,,,
,fun,0.985572099685669,,,,,,,,
,family,0.9825397729873657,,,,,,,,
,innocence,0.9807777404785156,,,,,,,,
,love,0.9537379145622253,,,,,,,,
,precious,0.9520561695098877,,,,,,,,
,toddler,0.9443954229354858,,,,,,,,
,joy,0.93864905834198,,,,,,,,
,girl,0.9351186752319336,,,,,,,,
,togetherness,0.9071899056434631,,,,,,,,
,people,0.8924626111984253,,,,,,,,
,two,0.8903971910476685,,,,,,,,
,adorable,0.884946346282959,,,,,,,,
,happiness,0.8666004538536072,,,,,,,,
,funny,0.854749858379364,,,,,,,,
,maternity,0.8531230092048645,,,,,,,,
https://scontent.cdninstagram.com/t51.2885-15/e35/12628038_599792043506395_2097596916_n.jpg,woman,0.9840556383132935,"Fashion & Beauty","My life",,,"My look",Selfie,,
,isolated,0.9719135165214539,,,,,,,,
,eyeglasses,0.9709985256195068,,,,,,,,
,young,0.9618892669677734,,,,,,,,
,pretty,0.9565727114677429,,,,,,,,
,people,0.9504160284996033,,,,,,,,
,girl,0.9474962949752808,,,,,,,,
,portrait,0.9416414499282837,,,,,,,,
,cute,0.9414036273956299,,,,,,,,
,business,0.9326980113983154,,,,,,,,
,one,0.9273589849472046,,,,,,,,
,sunglasses,0.9189634919166565,,,,,,,,
,looking,0.9141316413879395,,,,,,,,
,person,0.9130265116691589,,,,,,,,
,beautiful,0.9105100631713867,,,,,,,,
,attractive,0.883249044418335,,,,,,,,
,sit,0.8825945854187012,,,,,,,,
,fashion,0.8824329972267151,,,,,,,,
,casual,0.8788328170776367,,,,,,,,
,fun,0.8760673999786377,,,,,,,,
https://scontent.cdninstagram.com/t51.2885-15/e35/12751317_1129994697035388_935592874_n.jpg,child,0.9988774061203003,"Fashion & Beauty","My life",,,"My look",Selfie,,
,cute,0.9947059750556946,,,,,,,,
,little,0.9939867258071899,,,,,,,,
,fun,0.973483681678772,,,,,,,,
,face,0.9689488410949707,,,,,,,,
,innocence,0.9672001600265503,,,,,,,,
,isolated,0.9667980670928955,,,,,,,,
,baby,0.965599536895752,,,,,,,,
,beautiful,0.9638294577598572,,,,,,,,
,toddler,0.958655595779419,,,,,,,,
,girl,0.958347499370575,,,,,,,,
,portrait,0.9578814506530762,,,,,,,,
,young,0.9560137987136841,,,,,,,,
,preschool,0.9544323682785034,,,,,,,,
,people,0.9518744349479675,,,,,,,,
,one,0.9511067271232605,,,,,,,,
,pretty,0.9497941732406616,,,,,,,,
,person,0.9426401853561401,,,,,,,,
,eye,0.9424219131469727,,,,,,,,
,joy,0.9394707679748535,,,,,,,,
