url,class,score,,,,,,,,
https://scontent-sit4-1.cdninstagram.com/t51.2885-15/s640x640/e15/13767556_828319623970826_280767790_n.jpg,music,0.9933686852455139,Entertainment,,,,Concerts,,,
,concert,0.9873188734054565,,,,,,,,
,performance,0.9691205024719238,,,,,,,,
,energy,0.9504232406616211,,,,,,,,
,pop,0.931185245513916,,,,,,,,
,sound,0.929132878780365,,,,,,,,
,festival,0.9210015535354614,,,,,,,,
,party,0.9153116345405579,,,,,,,,
,musician,0.9124016761779785,,,,,,,,
,blur,0.8985671401023865,,,,,,,,
,singer,0.8962780237197876,,,,,,,,
,motion,0.8910250067710876,,,,,,,,
,band,0.8891245126724243,,,,,,,,
,stage,0.8887484073638916,,,,,,,,
,"no person",0.8839828968048096,,,,,,,,
,light,0.8646729588508606,,,,,,,,
,celebration,0.863925576210022,,,,,,,,
,club,0.8501763343811035,,,,,,,,
,illuminated,0.8493531346321106,,,,,,,,
,bright,0.830167293548584,,,,,,,,
https://scontent-sit4-1.cdninstagram.com/t51.2885-15/s640x640/e15/13736828_1636512930009818_862845799_n.jpg,coffee,0.9989315271377563,Food,,,,"Drinks and snack",,,
,cup,0.9953382015228271,,,,,,,,
,breakfast,0.9871165752410889,,,,,,,,
,drink,0.9860879182815552,,,,,,,,
,"no person",0.983339250087738,,,,,,,,
,espresso,0.9832953214645386,,,,,,,,
,dawn,0.9828734397888184,,,,,,,,
,foam,0.9741461277008057,,,,,,,,
,cream,0.9711686372756958,,,,,,,,
,cappuccino,0.9666473269462585,,,,,,,,
,milk,0.9642070531845093,,,,,,,,
,food,0.9503342509269714,,,,,,,,
,break,0.9454851746559143,,,,,,,,
,table,0.9430485367774963,,,,,,,,
,hot,0.9419498443603516,,,,,,,,
,mug,0.9384239912033081,,,,,,,,
,spoon,0.9314901828765869,,,,,,,,
,caffeine,0.9269858598709106,,,,,,,,
,chocolate,0.9156627655029297,,,,,,,,
,delicious,0.9152533411979675,,,,,,,,
https://scontent-sit4-1.cdninstagram.com/t51.2885-15/s640x640/e15/13740922_928850460560456_1916670664_n.jpg,music,0.9943626523017883,Entertainment,,,,Concerts,,,
,celebration,0.9905093908309937,,,,,,,,
,concert,0.9880861043930054,,,,,,,,
,performance,0.9880585074424744,,,,,,,,
,festival,0.9845759272575378,,,,,,,,
,party,0.9749377965927124,,,,,,,,
,stage,0.9609450101852417,,,,,,,,
,light,0.9603017568588257,,,,,,,,
,band,0.9566201567649841,,,,,,,,
,singer,0.9550666809082031,,,,,,,,
,musician,0.9490750432014465,,,,,,,,
,club,0.9422016143798828,,,,,,,,
,audience,0.9415740370750427,,,,,,,,
,people,0.9290354251861572,,,,,,,,
,disco,0.9280635118484497,,,,,,,,
,crowd,0.9142177104949951,,,,,,,,
,club,0.892755389213562,,,,,,,,
,dancing,0.8846132755279541,,,,,,,,
,pop,0.874921441078186,,,,,,,,
,city,0.8721141219139099,,,,,,,,
https://scontent-sit4-1.cdninstagram.com/t51.2885-15/e15/13707358_1788893264720496_600161812_n.jpg,people,0.9874113202095032,Food,,,,"Meal time",,,
,indoors,0.9764360189437866,,,,,,,,
,adult,0.9740322828292847,,,,,,,,
,woman,0.9735730886459351,,,,,,,,
,vertical,0.9678980112075806,,,,,,,,
,man,0.9537035822868347,,,,,,,,
,sit,0.9411834478378296,,,,,,,,
,family,0.9229883551597595,,,,,,,,
,child,0.9103295803070068,,,,,,,,
,portrait,0.8443375825881958,,,,,,,,
,religion,0.833142876625061,,,,,,,,
,table,0.8044633865356445,,,,,,,,
,celebration,0.788740873336792,,,,,,,,
,room,0.7699659466743469,,,,,,,,
,togetherness,0.7564886808395386,,,,,,,,
,food,0.7563256621360779,,,,,,,,
,spirituality,0.7343988418579102,,,,,,,,
,group,0.7296432852745056,,,,,,,,
,figurine,0.726884663105011,,,,,,,,
,wine,0.7214378118515015,,,,,,,,
https://scontent-sit4-1.cdninstagram.com/t51.2885-15/e35/13722300_284587298567673_1014399098_n.jpg,people,0.9871401190757751,Relationships,,,,Friends,,,
,child,0.9864355325698853,,,,,,,,
,group,0.9853214025497437,,,,,,,,
,adult,0.9807357788085938,,,,,,,,
,woman,0.9756331443786621,,,,,,,,
,room,0.9756050109863281,,,,,,,,
,happiness,0.9718073010444641,,,,,,,,
,school,0.9673604369163513,,,,,,,,
,education,0.9670267105102539,,,,,,,,
,indoors,0.9669079184532166,,,,,,,,
,"facial expression",0.9668060541152954,,,,,,,,
,man,0.9527706503868103,,,,,,,,
,family,0.9507400393486023,,,,,,,,
,portrait,0.9494077563285828,,,,,,,,
,girl,0.9492191076278687,,,,,,,,
,togetherness,0.936561107635498,,,,,,,,
,group,0.9263787269592285,,,,,,,,
,boy,0.9244424700737,,,,,,,,
,class,0.9088150858879089,,,,,,,,
,boy,0.9079347848892212,,,,,,,,
https://scontent-sit4-1.cdninstagram.com/t51.2885-15/s640x640/e15/13694472_124069938036324_718798747_n.jpg,concert,0.9942190051078796,Entertainment,,,,Concerts,,,
,music,0.99342942237854,,,,,,,,
,performance,0.9849419593811035,,,,,,,,
,festival,0.9779538512229919,,,,,,,,
,disco,0.9706943035125732,,,,,,,,
,party,0.9664714336395264,,,,,,,,
,celebration,0.9653646349906921,,,,,,,,
,band,0.9583702087402344,,,,,,,,
,stage,0.9544968008995056,,,,,,,,
,musician,0.9469000101089478,,,,,,,,
,light,0.9450048208236694,,,,,,,,
,nightlife,0.9404828548431396,,,,,,,,
,singer,0.940109133720398,,,,,,,,
,club,0.933975338935852,,,,,,,,
,blur,0.9273144602775574,,,,,,,,
,pop,0.9194970726966858,,,,,,,,
,disco,0.9188032746315002,,,,,,,,
,sound,0.9160304665565491,,,,,,,,
,motion,0.9100823402404785,,,,,,,,
,club,0.9099003076553345,,,,,,,,
https://scontent-sit4-1.cdninstagram.com/t51.2885-15/e15/13768253_1020209834761826_249488223_n.jpg,people,0.9282455444335938,Arts,,,,Arts-s,,,
,illustration,0.9135348796844482,,,,,,,,
,"no person",0.9065576791763306,,,,,,,,
,mammal,0.8897322416305542,,,,,,,,
,painting,0.886945366859436,,,,,,,,
,furniture,0.8847253918647766,,,,,,,,
,wear,0.8798473477363586,,,,,,,,
,vehicle,0.872249960899353,,,,,,,,
,document,0.8657227158546448,,,,,,,,
,container,0.8472684621810913,,,,,,,,
,text,0.8451628684997559,,,,,,,,
,festival,0.8445257544517517,,,,,,,,
,building,0.843323826789856,,,,,,,,
,commerce,0.8420538902282715,,,,,,,,
,room,0.8405879735946655,,,,,,,,
,landscape,0.8394008874893188,,,,,,,,
,one,0.8380889296531677,,,,,,,,
,competition,0.83164381980896,,,,,,,,
,paper,0.8256045579910278,,,,,,,,
,adult,0.8250818848609924,,,,,,,,
https://scontent-sit4-1.cdninstagram.com/t51.2885-15/e35/13687392_584294608362484_1830622640_n.jpg,drink,0.9218164682388306,Commerce,Food,,,"Product/brand shots","Drinks and snack",,
,paper,0.9174737930297852,,,,,,,,
,indoors,0.9167395234107971,,,,,,,,
,horizontal,0.8377054929733276,,,,,,,,
,business,0.8306864500045776,,,,,,,,
,bottle,0.8253638744354248,,,,,,,,
,container,0.8226402997970581,,,,,,,,
,food,0.817652702331543,,,,,,,,
,"still life",0.7765107154846191,,,,,,,,
,industry,0.7734308242797852,,,,,,,,
,vertical,0.7732144594192505,,,,,,,,
,paper,0.7701140642166138,,,,,,,,
,medicine,0.7474067807197571,,,,,,,,
,text,0.7299389839172363,,,,,,,,
,technology,0.7263942956924438,,,,,,,,
,document,0.7231186628341675,,,,,,,,
,"no person",0.7216167449951172,,,,,,,,
,liquid,0.7209681272506714,,,,,,,,
,finance,0.7130416631698608,,,,,,,,
,health,0.7012176513671875,,,,,,,,
https://scontent-sit4-1.cdninstagram.com/t51.2885-15/e35/13745197_1142909822442858_1236658867_n.jpg,coffee,0.9963313341140747,Food,Media,,,"Drinks and snack",Media-s,,
,business,0.9855372309684753,,,,,,,,
,paper,0.9749140739440918,,,,,,,,
,espresso,0.9636640548706055,,,,,,,,
,"no person",0.9424458742141724,,,,,,,,
,dawn,0.9287870526313782,,,,,,,,
,cappuccino,0.9209169149398804,,,,,,,,
,drink,0.9179067015647888,,,,,,,,
,office,0.8982685804367065,,,,,,,,
,table,0.8904939889907837,,,,,,,,
,caffeine,0.890328586101532,,,,,,,,
,breakfast,0.8882250785827637,,,,,,,,
,foam,0.8875646591186523,,,,,,,,
,cup,0.887043833732605,,,,,,,,
,wood,0.8728238344192505,,,,,,,,
,break,0.8694748878479004,,,,,,,,
,financial,0.8659436702728271,,,,,,,,
,composition,0.8617899417877197,,,,,,,,
,text,0.8582597374916077,,,,,,,,
,money,0.8265225291252136,,,,,,,,
https://scontent-sit4-1.cdninstagram.com/t51.2885-15/e35/13534317_244497709269266_2125925883_n.jpg,"facial expression",0.9908568859100342,Relationships,,,,Friends,,,
,group,0.9820992946624756,,,,,,,,
,child,0.9740340709686279,,,,,,,,
,people,0.9692772030830383,,,,,,,,
,woman,0.9655062556266785,,,,,,,,
,togetherness,0.9482454657554626,,,,,,,,
,enjoyment,0.9440951347351074,,,,,,,,
,portrait,0.9399822950363159,,,,,,,,
,daylight,0.9343159794807434,,,,,,,,
,adult,0.9151321649551392,,,,,,,,
,interaction,0.9136341214179993,,,,,,,,
,happiness,0.9124453663825989,,,,,,,,
,wear,0.9041496515274048,,,,,,,,
,friendship,0.903908908367157,,,,,,,,
,outdoors,0.9023528695106506,,,,,,,,
,man,0.8977315425872803,,,,,,,,
,three,0.8953595161437988,,,,,,,,
,boy,0.8891923427581787,,,,,,,,
,offspring,0.8846995830535889,,,,,,,,
,family,0.883549153804779,,,,,,,,
https://scontent-sit4-1.cdninstagram.com/t51.2885-15/e35/13388593_1102466636486022_1048335038_n.jpg,nude,0.9987362623214722,"Fashion & Beauty",,,,"My look",,,
,shirtless,0.996647298336029,,,,,,,,
,people,0.9913907647132874,,,,,,,,
,adult,0.9885908365249634,,,,,,,,
,man,0.9885483980178833,,,,,,,,
,one,0.9767507314682007,,,,,,,,
,indoors,0.9753081798553467,,,,,,,,
,bathroom,0.971518874168396,,,,,,,,
,portrait,0.9685579538345337,,,,,,,,
,nude,0.9677321910858154,,,,,,,,
,athlete,0.9631048440933228,,,,,,,,
,wear,0.9156842231750488,,,,,,,,
,sexy,0.9108336567878723,,,,,,,,
,mirror,0.9079442620277405,,,,,,,,
,model,0.8977638483047485,,,,,,,,
,"facial expression",0.8928613662719727,,,,,,,,
,weightlifting,0.8427015542984009,,,,,,,,
,shower,0.8371707201004028,,,,,,,,
,brawny,0.8364555835723877,,,,,,,,
,effort,0.80973219871521,,,,,,,,
https://scontent-sit4-1.cdninstagram.com/t51.2885-15/e35/13722105_134723636962869_30739276_n.jpg,paper,0.9858523607254028,Food,Commerce,,,"Drinks and snack","Product/brand shots",,
,text,0.9614813327789307,,,,,,,,
,"no person",0.955980658531189,,,,,,,,
,coffee,0.9544200897216797,,,,,,,,
,business,0.910799503326416,,,,,,,,
,drink,0.9050137996673584,,,,,,,,
,espresso,0.8815813660621643,,,,,,,,
,food,0.8630864024162292,,,,,,,,
,breakfast,0.851448655128479,,,,,,,,
,cup,0.8460344076156616,,,,,,,,
,cappuccino,0.8257850408554077,,,,,,,,
,horizontal,0.7838612794876099,,,,,,,,
,sign,0.7744768857955933,,,,,,,,
,love,0.7659038305282593,,,,,,,,
,identity,0.759746789932251,,,,,,,,
,money,0.7597302794456482,,,,,,,,
,caffeine,0.7521058320999146,,,,,,,,
,finance,0.7516204118728638,,,,,,,,
,indoors,0.7506662011146545,,,,,,,,
,number,0.7457945346832275,,,,,,,,
https://scontent-sit4-1.cdninstagram.com/t51.2885-15/e35/13642934_1113975648669796_749511572_n.jpg,people,0.9983612298965454,Undefined,,,,Undefined,,,
,group,0.9860905408859253,,,,,,,,
,adult,0.9827818870544434,,,,,,,,
,religion,0.9715064764022827,,,,,,,,
,man,0.965067982673645,,,,,,,,
,woman,0.9604952335357666,,,,,,,,
,room,0.9566383957862854,,,,,,,,
,many,0.9501312971115112,,,,,,,,
,leader,0.9470231533050537,,,,,,,,
,indoors,0.9357864856719971,,,,,,,,
,commerce,0.932442307472229,,,,,,,,
,education,0.9260797500610352,,,,,,,,
,furniture,0.9246969223022461,,,,,,,,
,music,0.9224053025245667,,,,,,,,
,wear,0.9069716334342957,,,,,,,,
,child,0.8627944588661194,,,,,,,,
,performance,0.8589317798614502,,,,,,,,
,seat,0.8580724000930786,,,,,,,,
,school,0.8580660820007324,,,,,,,,
,home,0.8574939966201782,,,,,,,,
https://scontent-sit4-1.cdninstagram.com/t51.2885-15/s750x750/sh0.08/e35/13388701_687019068118591_644639821_n.jpg,cross,0.993158221244812,Religion,,,,Religion-s,,,
,religion,0.9830448627471924,,,,,,,,
,church,0.9800940752029419,,,,,,,,
,travel,0.9701157212257385,,,,,,,,
,"no person",0.9660946130752563,,,,,,,,
,cemetery,0.9612873792648315,,,,,,,,
,old,0.9471184611320496,,,,,,,,
,architecture,0.9468843340873718,,,,,,,,
,summer,0.9396512508392334,,,,,,,,
,building,0.9307628870010376,,,,,,,,
,wood,0.9271923899650574,,,,,,,,
,sky,0.9253197908401489,,,,,,,,
,outdoors,0.9233452081680298,,,,,,,,
,landscape,0.9217211604118347,,,,,,,,
,tourism,0.9156683683395386,,,,,,,,
,grave,0.9009949564933777,,,,,,,,
,spirituality,0.9009450674057007,,,,,,,,
,religious,0.8933314085006714,,,,,,,,
,stone,0.8924882411956787,,,,,,,,
,god,0.8829152584075928,,,,,,,,
https://scontent-sit4-1.cdninstagram.com/t51.2885-15/e35/13652082_143228182768637_2015269809_n.jpg,house,0.9844273328781128,Environment,,,,"Manmade beauty",,,
,"no person",0.9821233153343201,,,,,,,,
,home,0.9766225218772888,,,,,,,,
,architecture,0.9733459949493408,,,,,,,,
,family,0.9559805393218994,,,,,,,,
,building,0.9486508369445801,,,,,,,,
,garage,0.9189791679382324,,,,,,,,
,window,0.8927039504051208,,,,,,,,
,roof,0.8912039399147034,,,,,,,,
,outdoors,0.8706259727478027,,,,,,,,
,door,0.8388231992721558,,,,,,,,
,street,0.8299351930618286,,,,,,,,
,wood,0.8174821138381958,,,,,,,,
,abandoned,0.7981294393539429,,,,,,,,
,estate,0.7904556393623352,,,,,,,,
,light,0.7853668332099915,,,,,,,,
,"gas station",0.7852691411972046,,,,,,,,
,yard,0.7829115390777588,,,,,,,,
,bungalow,0.7823951244354248,,,,,,,,
,mansion,0.7816173434257507,,,,,,,,
https://scontent-sit4-1.cdninstagram.com/t51.2885-15/e35/13694752_1085273138219004_178820007_n.jpg,performance,0.9981315732002258,Blank,,,,cin,,,
,music,0.9974225759506226,,,,,,,,
,concert,0.9968222379684448,,,,,,,,
,festival,0.9958333373069763,,,,,,,,
,musician,0.9905219674110413,,,,,,,,
,singer,0.9878621101379395,,,,,,,,
,band,0.9825600385665894,,,,,,,,
,celebration,0.9640293121337891,,,,,,,,
,stage,0.9607399702072144,,,,,,,,
,audience,0.9594310522079468,,,,,,,,
,people,0.9522342085838318,,,,,,,,
,light,0.9436381459236145,,,,,,,,
,pop,0.9315179586410522,,,,,,,,
,party,0.9237725734710693,,,,,,,,
,city,0.9173558950424194,,,,,,,,
,crowd,0.896243691444397,,,,,,,,
,evening,0.895613431930542,,,,,,,,
,guitarist,0.8473421335220337,,,,,,,,
,venue,0.8382070660591125,,,,,,,,
,show,0.8260787725448608,,,,,,,,
https://scontent-sit4-1.cdninstagram.com/t51.2885-15/e15/13549509_263171804054116_690575545_n.jpg,people,0.983148455619812,Media,Entertainment,,,Media-s,Entertainment-s,,
,man,0.9748020768165588,,,,,,,,
,adult,0.9539993405342102,,,,,,,,
,family,0.9483153820037842,,,,,,,,
,pillow,0.9310651421546936,,,,,,,,
,portrait,0.9212267398834229,,,,,,,,
,one,0.9126278162002563,,,,,,,,
,bed,0.9102796316146851,,,,,,,,
,woman,0.909122109413147,,,,,,,,
,winter,0.9059509038925171,,,,,,,,
,two,0.8986803293228149,,,,,,,,
,offense,0.8942853808403015,,,,,,,,
,indoors,0.891914963722229,,,,,,,,
,battle,0.883571982383728,,,,,,,,
,cover,0.8795291185379028,,,,,,,,
,wear,0.846403956413269,,,,,,,,
,horizontal,0.8408357501029968,,,,,,,,
,bedroom,0.833591878414154,,,,,,,,
,sleep,0.8318847417831421,,,,,,,,
,music,0.7826735973358154,,,,,,,,
https://scontent-sit4-1.cdninstagram.com/t51.2885-15/e15/13721280_1230163027017632_2138769018_n.jpg,paper,0.9863592386245728,Commerce,,,,"Product/brand shots",,,
,business,0.9806640148162842,,,,,,,,
,document,0.9619153738021851,,,,,,,,
,empty,0.956208348274231,,,,,,,,
,blank,0.9011316299438477,,,,,,,,
,education,0.8886889219284058,,,,,,,,
,industry,0.8604534864425659,,,,,,,,
,"no person",0.8487558364868164,,,,,,,,
,form,0.8345513343811035,,,,,,,,
,indoors,0.8270925879478455,,,,,,,,
,writing,0.8112923502922058,,,,,,,,
,design,0.8086996078491211,,,,,,,,
,page,0.8065887689590454,,,,,,,,
,people,0.8057010173797607,,,,,,,,
,office,0.8033051490783691,,,,,,,,
,sign,0.782039999961853,,,,,,,,
,data,0.77688068151474,,,,,,,,
,one,0.7480277419090271,,,,,,,,
,post,0.7398530840873718,,,,,,,,
,hand,0.7124693393707275,,,,,,,,
https://scontent-sit4-1.cdninstagram.com/t51.2885-15/e35/13649170_1738414096447694_1569172277_n.jpg,people,0.9846228361129761,"Fashion & Beauty",Commerce,,,"My look","Product/brand shots",,
,man,0.9659910202026367,,,,,,,,
,indoors,0.9634634256362915,,,,,,,,
,adult,0.9555402398109436,,,,,,,,
,room,0.9544079899787903,,,,,,,,
,furniture,0.9426791667938232,,,,,,,,
,one,0.9290952682495117,,,,,,,,
,music,0.9157142639160156,,,,,,,,
,woman,0.8980206251144409,,,,,,,,
,sit,0.895635187625885,,,,,,,,
,wear,0.8811377286911011,,,,,,,,
,family,0.879431426525116,,,,,,,,
,two,0.8627880811691284,,,,,,,,
,musician,0.8456801176071167,,,,,,,,
,portrait,0.8428771495819092,,,,,,,,
,seat,0.8421676158905029,,,,,,,,
,recreation,0.8380200862884521,,,,,,,,
,chair,0.8173702359199524,,,,,,,,
,education,0.8029352426528931,,,,,,,,
,technology,0.7914330959320068,,,,,,,,
https://scontent-sit4-1.cdninstagram.com/t51.2885-15/e35/13768371_902483933212639_1160778041_n.jpg,people,0.972040593624115,Cute,,,,Cute,,,
,child,0.9718846082687378,,,,,,,,
,toy,0.9628463983535767,,,,,,,,
,family,0.9607963562011719,,,,,,,,
,street,0.9352612495422363,,,,,,,,
,fun,0.9246056079864502,,,,,,,,
,girl,0.9198868870735168,,,,,,,,
,baby,0.9120965600013733,,,,,,,,
,man,0.8976384401321411,,,,,,,,
,smile,0.8882855176925659,,,,,,,,
,city,0.8848379850387573,,,,,,,,
,one,0.8775548934936523,,,,,,,,
,woman,0.8699734807014465,,,,,,,,
,house,0.8600465059280396,,,,,,,,
,cute,0.8510025143623352,,,,,,,,
,teddy,0.8451846837997437,,,,,,,,
,play,0.8414081335067749,,,,,,,,
,boy,0.8387627601623535,,,,,,,,
,two,0.8377910256385803,,,,,,,,
,art,0.836164116859436,,,,,,,,
https://scontent-sit4-1.cdninstagram.com/t51.2885-15/e35/13739422_1149347645139156_1546448339_n.jpg,stock,0.9910703301429749,Commerce,Food,,,"Product/brand shots",Food-s,,
,people,0.9838690757751465,,,,,,,,
,adult,0.9619537591934204,,,,,,,,
,restaurant,0.9589845538139343,,,,,,,,
,bar,0.9526567459106445,,,,,,,,
,man,0.9423101544380188,,,,,,,,
,commerce,0.9414070844650269,,,,,,,,
,indoors,0.9401943683624268,,,,,,,,
,coffee,0.9302502870559692,,,,,,,,
,shopping,0.9272685050964355,,,,,,,,
,street,0.9136533737182617,,,,,,,,
,city,0.9115736484527588,,,,,,,,
,business,0.9004327654838562,,,,,,,,
,woman,0.8995386362075806,,,,,,,,
,exhibition,0.8837848901748657,,,,,,,,
,shop,0.8547242879867554,,,,,,,,
,wear,0.8462797403335571,,,,,,,,
,industry,0.8319262266159058,,,,,,,,
,telephone,0.8249163627624512,,,,,,,,
,"department store",0.8097938299179077,,,,,,,,
https://scontent-sit4-1.cdninstagram.com/t51.2885-15/e35/13534244_1130552103675465_330723166_n.jpg,water,0.9901381731033325,Travel,"Fashion & Beauty",Environment,,Travel-s,Ootd,Landmarks,
,people,0.9863145351409912,,,,,,,,
,travel,0.9791040420532227,,,,,,,,
,lake,0.9528820514678955,,,,,,,,
,sky,0.9508407115936279,,,,,,,,
,adult,0.945584237575531,,,,,,,,
,landscape,0.9423052072525024,,,,,,,,
,sea,0.9422721266746521,,,,,,,,
,one,0.9407247304916382,,,,,,,,
,city,0.937228798866272,,,,,,,,
,ocean,0.9331921339035034,,,,,,,,
,pier,0.9204514026641846,,,,,,,,
,recreation,0.9157671928405762,,,,,,,,
,reflection,0.915374219417572,,,,,,,,
,summer,0.9115844368934631,,,,,,,,
,sun,0.9032306671142578,,,,,,,,
,architecture,0.8966437578201294,,,,,,,,
,"no person",0.8960459232330322,,,,,,,,
,woman,0.8945720791816711,,,,,,,,
,bridge,0.8942256569862366,,,,,,,,
https://scontent-sit4-1.cdninstagram.com/t51.2885-15/e35/13734334_539399222916566_1556514849_n.jpg,group,0.986609697341919,Relationships,Food,,,Friends,"Meal time",,
,people,0.9853312969207764,,,,,,,,
,woman,0.9770611524581909,,,,,,,,
,man,0.9737818837165833,,,,,,,,
,adult,0.9628052711486816,,,,,,,,
,many,0.9487797021865845,,,,,,,,
,sit,0.9439762830734253,,,,,,,,
,education,0.926777720451355,,,,,,,,
,group,0.9253612756729126,,,,,,,,
,enjoyment,0.9140415191650391,,,,,,,,
,furniture,0.8849484920501709,,,,,,,,
,restaurant,0.8770440816879272,,,,,,,,
,indoors,0.8701667785644531,,,,,,,,
,bar,0.8588968515396118,,,,,,,,
,wear,0.8570733070373535,,,,,,,,
,child,0.8533443212509155,,,,,,,,
,room,0.8428294062614441,,,,,,,,
,outdoors,0.8388075828552246,,,,,,,,
,friendship,0.8317993879318237,,,,,,,,
,recreation,0.8297597765922546,,,,,,,,
https://scontent-sit4-1.cdninstagram.com/t51.2885-15/e35/13532039_1799060450313616_1949590353_n.jpg,coffee,0.9892784357070923,Relationships,Commerce,,,Friends,"Product/brand shots",,
,cup,0.9534668922424316,,,,,,,,
,table,0.9414178133010864,,,,,,,,
,hot,0.9383270740509033,,,,,,,,
,"no person",0.9301872253417969,,,,,,,,
,drink,0.9228001236915588,,,,,,,,
,mug,0.9168804883956909,,,,,,,,
,espresso,0.9053783416748047,,,,,,,,
,wood,0.9014103412628174,,,,,,,,
,food,0.890205979347229,,,,,,,,
,dark,0.8747115135192871,,,,,,,,
,breakfast,0.8647509813308716,,,,,,,,
,traditional,0.8502750992774963,,,,,,,,
,indoors,0.8494858741760254,,,,,,,,
,chocolate,0.8299067616462708,,,,,,,,
,cappuccino,0.820682168006897,,,,,,,,
,desktop,0.8201718330383301,,,,,,,,
,caffeine,0.8039460182189941,,,,,,,,
,delicious,0.8038626313209534,,,,,,,,
,tea,0.7971549034118652,,,,,,,,
https://scontent-sit4-1.cdninstagram.com/t51.2885-15/e35/13694492_316785661988167_896284515_n.jpg,"no person",0.9932206273078918,Food,,,,"Drinks and snack",,,
,"interior design",0.9502968788146973,,,,,,,,
,retro,0.9419016242027283,,,,,,,,
,leaf,0.929808497428894,,,,,,,,
,flower,0.9281061887741089,,,,,,,,
,nature,0.9252545237541199,,,,,,,,
,indoors,0.9053191542625427,,,,,,,,
,"still life",0.8795089721679688,,,,,,,,
,decoration,0.8617949485778809,,,,,,,,
,vase,0.858230471611023,,,,,,,,
,bright,0.8569088578224182,,,,,,,,
,contemporary,0.8233368396759033,,,,,,,,
,flora,0.822307288646698,,,,,,,,
,elegant,0.8216375112533569,,,,,,,,
,paper,0.816544771194458,,,,,,,,
,romance,0.815726101398468,,,,,,,,
,antique,0.7976029515266418,,,,,,,,
,summer,0.7923616170883179,,,,,,,,
,love,0.7700310349464417,,,,,,,,
,traditional,0.7692097425460815,,,,,,,,
https://scontent-sit4-1.cdninstagram.com/t51.2885-15/e35/13531811_1729082060692214_1031772645_n.jpg,food,0.9890403151512146,Food,,,,"Meal time",,,
,"no person",0.9583879709243774,,,,,,,,
,restaurant,0.9579770565032959,,,,,,,,
,dinner,0.9494770765304565,,,,,,,,
,desktop,0.9421197175979614,,,,,,,,
,cuisine,0.9391809105873108,,,,,,,,
,epicure,0.9361172914505005,,,,,,,,
,set,0.9290134906768799,,,,,,,,
,meat,0.9241047501564026,,,,,,,,
,cooking,0.9213862419128418,,,,,,,,
,meal,0.9211663603782654,,,,,,,,
,delicious,0.9091024994850159,,,,,,,,
,traditional,0.907895565032959,,,,,,,,
,kind,0.904721736907959,,,,,,,,
,tray,0.9034507274627686,,,,,,,,
,dish,0.8995755910873413,,,,,,,,
,lunch,0.8908829092979431,,,,,,,,
,vegetable,0.8648905158042908,,,,,,,,
,color,0.8603824973106384,,,,,,,,
,tasty,0.8517254590988159,,,,,,,,
https://scontent-sit4-1.cdninstagram.com/t51.2885-15/e35/13402748_263026557397076_1573147047_n.jpg,street,0.9978204965591431,"My life",,Travel,,"Here I am",,Travel-s,
,city,0.9920828938484192,,,,,,,,
,people,0.9852070808410645,,,,,,,,
,school,0.9799083471298218,,,,,,,,
,woman,0.9704405665397644,,,,,,,,
,road,0.9701112508773804,,,,,,,,
,university,0.9630281925201416,,,,,,,,
,shopping,0.9623631238937378,,,,,,,,
,crossing,0.9571496248245239,,,,,,,,
,man,0.9521896839141846,,,,,,,,
,adult,0.922631025314331,,,,,,,,
,urban,0.9194965362548828,,,,,,,,
,pavement,0.9165394306182861,,,,,,,,
,education,0.913488507270813,,,,,,,,
,stock,0.9073379039764404,,,,,,,,
,group,0.8769420385360718,,,,,,,,
,child,0.8708657026290894,,,,,,,,
,luggage,0.8615912199020386,,,,,,,,
,motion,0.8575512170791626,,,,,,,,
,tourist,0.8446141481399536,,,,,,,,
https://scontent-sit4-1.cdninstagram.com/t51.2885-15/e35/13597636_1164159176938022_1232486640_n.jpg,food,0.9970623254776001,Food,,,,"Meal time",,,
,vegetable,0.9874883890151978,,,,,,,,
,meal,0.9852834939956665,,,,,,,,
,dinner,0.9760130047798157,,,,,,,,
,"no person",0.9736053347587585,,,,,,,,
,dish,0.9709698557853699,,,,,,,,
,"still life",0.9697083830833435,,,,,,,,
,cooking,0.9664533138275146,,,,,,,,
,plate,0.9589022397994995,,,,,,,,
,lunch,0.9584465026855469,,,,,,,,
,pan,0.9567387700080872,,,,,,,,
,table,0.9518007040023804,,,,,,,,
,meat,0.9469460248947144,,,,,,,,
,cuisine,0.9403239488601685,,,,,,,,
,delicious,0.9342465400695801,,,,,,,,
,pepper,0.9342430233955383,,,,,,,,
,epicure,0.9319086670875549,,,,,,,,
,restaurant,0.9048255681991577,,,,,,,,
,onion,0.9025695323944092,,,,,,,,
,healthy,0.8850957155227661,,,,,,,,
https://scontent-sit4-1.cdninstagram.com/t51.2885-15/e35/13658487_525223904355434_415970646_n.jpg,street,0.9909721612930298,"My life","Fashion & Beauty",,,"Here I am","My look",,
,people,0.9828007221221924,,,,,,,,
,man,0.9757031798362732,,,,,,,,
,pavement,0.9705760478973389,,,,,,,,
,city,0.9585015773773193,,,,,,,,
,road,0.9459688663482666,,,,,,,,
,outdoors,0.9452000856399536,,,,,,,,
,adult,0.899168848991394,,,,,,,,
,woman,0.8780367374420166,,,,,,,,
,family,0.8774542212486267,,,,,,,,
,shopping,0.8685834407806396,,,,,,,,
,urban,0.8283712863922119,,,,,,,,
,stock,0.820583164691925,,,,,,,,
,recreation,0.8037382364273071,,,,,,,,
,luggage,0.7997773885726929,,,,,,,,
,sign,0.7940215468406677,,,,,,,,
,child,0.7699154019355774,,,,,,,,
,leisure,0.760445237159729,,,,,,,,
,wear,0.74689781665802,,,,,,,,
,one,0.7374228239059448,,,,,,,,
https://scontent-sit4-1.cdninstagram.com/t51.2885-15/e35/13562009_1311186572242265_2080495152_n.jpg,food,0.9942770600318909,Food,,,,"Meal time",,,
,dinner,0.9895352125167847,,,,,,,,
,meal,0.9853336811065674,,,,,,,,
,lunch,0.9828372001647949,,,,,,,,
,dish,0.9777899980545044,,,,,,,,
,plate,0.9771112203598022,,,,,,,,
,restaurant,0.9745479226112366,,,,,,,,
,table,0.965401828289032,,,,,,,,
,"no person",0.9621666073799133,,,,,,,,
,cuisine,0.9512311816215515,,,,,,,,
,delicious,0.9500235319137573,,,,,,,,
,dining,0.9490666389465332,,,,,,,,
,vegetable,0.9445058703422546,,,,,,,,
,buffet,0.9411729574203491,,,,,,,,
,cooking,0.9375413656234741,,,,,,,,
,epicure,0.9368880987167358,,,,,,,,
,helping,0.9354026913642883,,,,,,,,
,seafood,0.9272417426109314,,,,,,,,
,traditional,0.9213518500328064,,,,,,,,
,cutlery,0.9186033010482788,,,,,,,,
https://scontent-sit4-1.cdninstagram.com/t51.2885-15/e35/13743275_263122454067404_610081252_n.jpg,people,0.9956090450286865,"Fashion & Beauty",,,,"My look",,,
,adult,0.9914014339447021,,,,,,,,
,man,0.9873579740524292,,,,,,,,
,travel,0.9742569923400879,,,,,,,,
,daylight,0.9728566408157349,,,,,,,,
,business,0.9445698857307434,,,,,,,,
,restaurant,0.9300199747085571,,,,,,,,
,coffee,0.9232455492019653,,,,,,,,
,furniture,0.9199907183647156,,,,,,,,
,woman,0.9176679849624634,,,,,,,,
,portrait,0.9157621264457703,,,,,,,,
,city,0.9101039171218872,,,,,,,,
,table,0.9027293920516968,,,,,,,,
,employee,0.8965662717819214,,,,,,,,
,vehicle,0.8937171697616577,,,,,,,,
,water,0.8897767066955566,,,,,,,,
,group,0.8754132986068726,,,,,,,,
,"transportation system",0.871023416519165,,,,,,,,
,wear,0.8656760454177856,,,,,,,,
,outdoors,0.8637866377830505,,,,,,,,
https://scontent-sit4-1.cdninstagram.com/t51.2885-15/e35/13696583_586727411531744_372985095_n.jpg,child,0.965603768825531,Cute,Entertainment,,,Cute,Entertainment-s,,
,people,0.946687638759613,,,,,,,,
,outdoors,0.9342995882034302,,,,,,,,
,little,0.9302427768707275,,,,,,,,
,fun,0.928832471370697,,,,,,,,
,cute,0.9201443195343018,,,,,,,,
,man,0.8853877186775208,,,,,,,,
,nature,0.877174437046051,,,,,,,,
,baby,0.8296996355056763,,,,,,,,
,toy,0.8275584578514099,,,,,,,,
,family,0.8178834915161133,,,,,,,,
,funny,0.8045632839202881,,,,,,,,
,business,0.7837756872177124,,,,,,,,
,summer,0.7678661942481995,,,,,,,,
,one,0.7649956941604614,,,,,,,,
,park,0.742162823677063,,,,,,,,
,joy,0.7403579950332642,,,,,,,,
,toddler,0.7372912168502808,,,,,,,,
,woman,0.7342783212661743,,,,,,,,
,boy,0.7198058366775513,,,,,,,,
https://scontent-sit4-1.cdninstagram.com/t51.2885-15/e35/13743661_1352500878113312_2059337097_n.jpg,coffee,0.9950903654098511,Food,Commerce,,,"Drinks and snack","Product/brand shots",,
,table,0.9928956031799316,,,,,,,,
,drink,0.9897143840789795,,,,,,,,
,espresso,0.9883049726486206,,,,,,,,
,wood,0.9877763986587524,,,,,,,,
,breakfast,0.9853554368019104,,,,,,,,
,cappuccino,0.9798285961151123,,,,,,,,
,cup,0.9744136333465576,,,,,,,,
,food,0.9671290516853333,,,,,,,,
,wooden,0.9610677361488342,,,,,,,,
,foam,0.9590692520141602,,,,,,,,
,dawn,0.9581674933433533,,,,,,,,
,hot,0.9567533731460571,,,,,,,,
,"no person",0.9513657093048096,,,,,,,,
,caffeine,0.9476102590560913,,,,,,,,
,cream,0.935259997844696,,,,,,,,
,milk,0.9252102375030518,,,,,,,,
,delicious,0.918560802936554,,,,,,,,
,mug,0.9012464284896851,,,,,,,,
,sugar,0.9010758399963379,,,,,,,,
https://scontent-sit4-1.cdninstagram.com/t51.2885-15/e35/13408933_285352808474612_1091512786_n.jpg,woman,0.9884799122810364,Media,"Fashion & Beauty",,,Media-s,"Fashion & Beauty-s",,
,beautiful,0.9749878644943237,,,,,,,,
,girl,0.9718524217605591,,,,,,,,
,adult,0.9619455337524414,,,,,,,,
,people,0.9501401782035828,,,,,,,,
,fashion,0.939857006072998,,,,,,,,
,young,0.938490629196167,,,,,,,,
,one,0.9293850660324097,,,,,,,,
,dress,0.9225212335586548,,,,,,,,
,model,0.9192931652069092,,,,,,,,
,portrait,0.9080220460891724,,,,,,,,
,pretty,0.9061741828918457,,,,,,,,
,cute,0.8940819501876831,,,,,,,,
,lifestyle,0.8939666748046875,,,,,,,,
,happiness,0.8793830871582031,,,,,,,,
,wear,0.8745334148406982,,,,,,,,
,sexy,0.8675907254219055,,,,,,,,
,elegant,0.857509970664978,,,,,,,,
,person,0.8556921482086182,,,,,,,,
,hair,0.8529735803604126,,,,,,,,
https://scontent-sit4-1.cdninstagram.com/t51.2885-15/e35/13696467_504441869762225_1047814371_n.jpg,group,0.9801219701766968,Relationships,Celebrations,Food,Business,Friends,"Personal Events",Dessert,Work
,adult,0.9586015939712524,,,,,,,,
,people,0.9557101726531982,,,,,,,,
,education,0.9464343786239624,,,,,,,,
,woman,0.9364248514175415,,,,,,,,
,"facial expression",0.932884931564331,,,,,,,,
,portrait,0.9296334385871887,,,,,,,,
,man,0.9203314781188965,,,,,,,,
,indoors,0.8990832567214966,,,,,,,,
,school,0.8922016620635986,,,,,,,,
,technology,0.8791112303733826,,,,,,,,
,group,0.8248776793479919,,,,,,,,
,interaction,0.8193565607070923,,,,,,,,
,child,0.8186144828796387,,,,,,,,
,computer,0.8092899322509766,,,,,,,,
,administration,0.8067319989204407,,,,,,,,
,university,0.7968710660934448,,,,,,,,
,room,0.7927862405776978,,,,,,,,
,four,0.7579206228256226,,,,,,,,
,business,0.751822829246521,,,,,,,,
https://scontent-sit4-1.cdninstagram.com/t51.2885-15/e35/13731165_1734183820186610_1244055_n.jpg,"no person",0.9812442064285278,Food,,,,"Drinks and snack",,,
,business,0.9557253122329712,,,,,,,,
,technology,0.9517913460731506,,,,,,,,
,industry,0.9508059024810791,,,,,,,,
,indoors,0.927412211894989,,,,,,,,
,computer,0.9243435859680176,,,,,,,,
,desk,0.9188802242279053,,,,,,,,
,education,0.9007914066314697,,,,,,,,
,one,0.9006184339523315,,,,,,,,
,furniture,0.8973418474197388,,,,,,,,
,people,0.8875216245651245,,,,,,,,
,paper,0.8824039697647095,,,,,,,,
,print,0.8685959577560425,,,,,,,,
,table,0.8655552864074707,,,,,,,,
,research,0.8636388778686523,,,,,,,,
,creativity,0.836646318435669,,,,,,,,
,design,0.8337873816490173,,,,,,,,
,document,0.8330336809158325,,,,,,,,
,composition,0.8256886005401611,,,,,,,,
,coffee,0.8227496147155762,,,,,,,,
https://scontent-sit4-1.cdninstagram.com/t51.2885-15/e35/13413357_1757113144546176_199493273_n.jpg,people,0.9793561697006226,Commerce,,,,"Product/brand shots",,,
,woman,0.9757208228111267,,,,,,,,
,business,0.9748076796531677,,,,,,,,
,paper,0.9449822902679443,,,,,,,,
,adult,0.9434226751327515,,,,,,,,
,one,0.9084793329238892,,,,,,,,
,portrait,0.8845221400260925,,,,,,,,
,man,0.8793783187866211,,,,,,,,
,money,0.8598769903182983,,,,,,,,
,technology,0.8501732349395752,,,,,,,,
,bill,0.8239108324050903,,,,,,,,
,internet,0.812728762626648,,,,,,,,
,indoors,0.8115732073783875,,,,,,,,
,card,0.7978262305259705,,,,,,,,
,commerce,0.7953410148620605,,,,,,,,
,girl,0.793971061706543,,,,,,,,
,hand,0.7915929555892944,,,,,,,,
,sign,0.7906518578529358,,,,,,,,
,blank,0.7882296442985535,,,,,,,,
,text,0.784187912940979,,,,,,,,
https://scontent-sit4-1.cdninstagram.com/t51.2885-15/e35/13741049_952753644850416_235774157_n.jpg,illustration,0.9956247806549072,Cute,Entertainment,,,Cute,Entertainment-s,,
,vector,0.9786301851272583,,,,,,,,
,sketch,0.9336862564086914,,,,,,,,
,symbol,0.9281644821166992,,,,,,,,
,luck,0.918434739112854,,,,,,,,
,image,0.9141579866409302,,,,,,,,
,graphic,0.9120383262634277,,,,,,,,
,desktop,0.9000178575515747,,,,,,,,
,design,0.8817548751831055,,,,,,,,
,abstract,0.8610703945159912,,,,,,,,
,vector,0.8567415475845337,,,,,,,,
,card,0.8337910175323486,,,,,,,,
,shape,0.8220382928848267,,,,,,,,
,celebration,0.814167857170105,,,,,,,,
,business,0.7942866683006287,,,,,,,,
,banner,0.7863048315048218,,,,,,,,
,fun,0.7760016918182373,,,,,,,,
,template,0.7725980281829834,,,,,,,,
,clover,0.7657394409179688,,,,,,,,
,glazed,0.7637498378753662,,,,,,,,
https://scontent-sit4-1.cdninstagram.com/t51.2885-15/e35/13473249_503941083138493_260512464_n.jpg,people,0.9993870854377747,Relationships,,,,Family,,,
,two,0.9969509840011597,,,,,,,,
,adult,0.9946122765541077,,,,,,,,
,man,0.9928401112556458,,,,,,,,
,"facial expression",0.9863160252571106,,,,,,,,
,portrait,0.976983904838562,,,,,,,,
,three,0.9715077877044678,,,,,,,,
,woman,0.9592600464820862,,,,,,,,
,wear,0.9523396492004395,,,,,,,,
,group,0.932936429977417,,,,,,,,
,vehicle,0.9290671348571777,,,,,,,,
,elderly,0.9127806425094604,,,,,,,,
,actor,0.9090803861618042,,,,,,,,
,interaction,0.8765214681625366,,,,,,,,
,administration,0.8706517219543457,,,,,,,,
,music,0.8659441471099854,,,,,,,,
,group,0.8523349761962891,,,,,,,,
,leader,0.8464241027832031,,,,,,,,
,four,0.8415324687957764,,,,,,,,
,actress,0.8369793891906738,,,,,,,,
https://scontent-sit4-1.cdninstagram.com/t51.2885-15/e35/13402237_729746970507338_88433204_n.jpg,street,0.9952341914176941,"Fashion & Beauty",Travel,,,Ootd,Travel-s,,
,people,0.992717981338501,,,,,,,,
,road,0.9915564060211182,,,,,,,,
,city,0.9743524789810181,,,,,,,,
,vehicle,0.97162926197052,,,,,,,,
,police,0.959117591381073,,,,,,,,
,man,0.9370843172073364,,,,,,,,
,offense,0.9122995734214783,,,,,,,,
,group,0.906193196773529,,,,,,,,
,adult,0.8961238861083984,,,,,,,,
,rally,0.8927880525588989,,,,,,,,
,car,0.8828424215316772,,,,,,,,
,portrait,0.8711791038513184,,,,,,,,
,education,0.870141863822937,,,,,,,,
,urban,0.8620330095291138,,,,,,,,
,commerce,0.856674075126648,,,,,,,,
,action,0.848552942276001,,,,,,,,
,motion,0.8322599530220032,,,,,,,,
,battle,0.8243082761764526,,,,,,,,
,"transportation system",0.8183258771896362,,,,,,,,
https://scontent-sit4-1.cdninstagram.com/t51.2885-15/e35/13736920_494138294129356_541978597_n.jpg,coffee,0.9994627237319946,Food,Commerce,,,"Drinks and snack","Product/brand shots",,
,espresso,0.9966268539428711,,,,,,,,
,cup,0.9912676215171814,,,,,,,,
,cappuccino,0.9901707172393799,,,,,,,,
,"no person",0.9876390099525452,,,,,,,,
,drink,0.9854898452758789,,,,,,,,
,dawn,0.9793960452079773,,,,,,,,
,break,0.9771697521209717,,,,,,,,
,caffeine,0.9747819900512695,,,,,,,,
,foam,0.9710854291915894,,,,,,,,
,business,0.9704247117042542,,,,,,,,
,breakfast,0.9643747806549072,,,,,,,,
,table,0.9475958347320557,,,,,,,,
,hot,0.9443824291229248,,,,,,,,
,paper,0.9376128911972046,,,,,,,,
,mug,0.9335759878158569,,,,,,,,
,spoon,0.9095847606658936,,,,,,,,
,mocha,0.9077554941177368,,,,,,,,
,saucer,0.9065695405006409,,,,,,,,
,cream,0.8839551210403442,,,,,,,,
https://scontent-sit4-1.cdninstagram.com/t51.2885-15/s640x640/e15/13743273_317507135254861_353803889_n.jpg,music,0.9966806173324585,Entertainment,,,,Concerts,,,
,concert,0.996411144733429,,,,,,,,
,performance,0.9951618909835815,,,,,,,,
,band,0.9780330657958984,,,,,,,,
,party,0.9740250706672668,,,,,,,,
,sound,0.9703090786933899,,,,,,,,
,festival,0.967799723148346,,,,,,,,
,stage,0.9668982028961182,,,,,,,,
,disco,0.9637465476989746,,,,,,,,
,light,0.9582958221435547,,,,,,,,
,celebration,0.9579590559005737,,,,,,,,
,singer,0.9517029523849487,,,,,,,,
,club,0.9512091875076294,,,,,,,,
,musician,0.9475278854370117,,,,,,,,
,nightlife,0.9474806189537048,,,,,,,,
,club,0.942825198173523,,,,,,,,
,pop,0.9202324151992798,,,,,,,,
,laser,0.9139204621315002,,,,,,,,
,disco,0.9120066165924072,,,,,,,,
,bass,0.9120036959648132,,,,,,,,
https://scontent-sit4-1.cdninstagram.com/t51.2885-15/e35/13696804_1773194746292740_298314278_n.jpg,woman,0.960685670375824,Relationships,Entertainment,,,Friends,Events,,
,rally,0.9586909413337708,,,,,,,,
,people,0.9536855220794678,,,,,,,,
,rally,0.9001331925392151,,,,,,,,
,group,0.8762403726577759,,,,,,,,
,bill,0.868294358253479,,,,,,,,
,man,0.8630399703979492,,,,,,,,
,adult,0.8471143245697021,,,,,,,,
,administration,0.8225365281105042,,,,,,,,
,many,0.7764198780059814,,,,,,,,
,election,0.774403989315033,,,,,,,,
,street,0.770423173904419,,,,,,,,
,wear,0.7553194761276245,,,,,,,,
,portrait,0.753944993019104,,,,,,,,
,education,0.725723385810852,,,,,,,,
,business,0.7207190990447998,,,,,,,,
,festival,0.7170717120170593,,,,,,,,
,pride,0.677398681640625,,,,,,,,
,demonstration,0.6760503053665161,,,,,,,,
,flag,0.6412948369979858,,,,,,,,
https://scontent-sit4-1.cdninstagram.com/t51.2885-15/e35/13703106_528618173994983_1466119671_n.jpg,temple,0.9869561195373535,"Fashion & Beauty",Environment,Travel,,"My look","Manmade beauty",Travel-s,
,travel,0.98634934425354,,,,,,,,
,architecture,0.985207200050354,,,,,,,,
,building,0.9718065857887268,,,,,,,,
,people,0.9633640050888062,,,,,,,,
,shrine,0.952039361000061,,,,,,,,
,outdoors,0.9478467702865601,,,,,,,,
,castle,0.9431705474853516,,,,,,,,
,tourism,0.9410083293914795,,,,,,,,
,city,0.9399189352989197,,,,,,,,
,religion,0.9313561320304871,,,,,,,,
,daylight,0.9224319458007812,,,,,,,,
,culture,0.9222543835639954,,,,,,,,
,tourist,0.9145429134368896,,,,,,,,
,ancient,0.9140127897262573,,,,,,,,
,house,0.9139550924301147,,,,,,,,
,art,0.9105730652809143,,,,,,,,
,landscape,0.909522294998169,,,,,,,,
,adult,0.9079210758209229,,,,,,,,
,pagoda,0.8973698019981384,,,,,,,,
https://scontent-sit4-1.cdninstagram.com/t51.2885-15/e35/13423509_643931395764445_1021974397_n.jpg,money,0.9548438787460327,Entertainment,Commerce,,,Events,"Product/brand shots",,
,business,0.9534058570861816,,,,,,,,
,finance,0.9402569532394409,,,,,,,,
,competition,0.931298553943634,,,,,,,,
,text,0.9165279269218445,,,,,,,,
,sign,0.9092742204666138,,,,,,,,
,championship,0.9077788591384888,,,,,,,,
,rally,0.9008767604827881,,,,,,,,
,commerce,0.8826795220375061,,,,,,,,
,label,0.8633955717086792,,,,,,,,
,credit,0.8615256547927856,,,,,,,,
,sale,0.8552550077438354,,,,,,,,
,market,0.8546992540359497,,,,,,,,
,success,0.8546783924102783,,,,,,,,
,paper,0.8456053137779236,,,,,,,,
,action,0.845569372177124,,,,,,,,
,race,0.8392631411552429,,,,,,,,
,stock,0.8366425037384033,,,,,,,,
,sign,0.8253952264785767,,,,,,,,
,shopping,0.8236106634140015,,,,,,,,
https://scontent-sit4-1.cdninstagram.com/t51.2885-15/e35/13743087_744442355658896_1097723154_n.jpg,illustration,0.9817553162574768,Entertainment,Arts,,,Entertainment-s,Arts-s,,
,vector,0.9475013017654419,,,,,,,,
,child,0.9467840194702148,,,,,,,,
,man,0.9073041677474976,,,,,,,,
,fun,0.9003631472587585,,,,,,,,
,sketch,0.8969293236732483,,,,,,,,
,people,0.8929404020309448,,,,,,,,
,paper,0.8335406184196472,,,,,,,,
,adult,0.8115242123603821,,,,,,,,
,happiness,0.8030072450637817,,,,,,,,
,woman,0.8006649613380432,,,,,,,,
,card,0.795810341835022,,,,,,,,
,retro,0.7897592782974243,,,,,,,,
,friendship,0.7895058393478394,,,,,,,,
,celebration,0.7674008011817932,,,,,,,,
,toy,0.7581819295883179,,,,,,,,
,togetherness,0.7549903392791748,,,,,,,,
,love,0.7403205633163452,,,,,,,,
,bill,0.7323288917541504,,,,,,,,
,humor,0.7269339561462402,,,,,,,,
https://scontent-sit4-1.cdninstagram.com/t51.2885-15/e35/13473266_1740925102833005_524539262_n.jpg,indoors,0.9932129979133606,Environment,,,,"Manmade beauty",,,
,travel,0.9659751653671265,,,,,,,,
,chair,0.9516940116882324,,,,,,,,
,"no person",0.9469032287597656,,,,,,,,
,furniture,0.9311220645904541,,,,,,,,
,table,0.9310567378997803,,,,,,,,
,architecture,0.9223069548606873,,,,,,,,
,people,0.9167690277099609,,,,,,,,
,daylight,0.9146530628204346,,,,,,,,
,business,0.9058620929718018,,,,,,,,
,adult,0.8952451944351196,,,,,,,,
,seat,0.8794583678245544,,,,,,,,
,restaurant,0.8792303800582886,,,,,,,,
,window,0.8693375587463379,,,,,,,,
,room,0.8661718368530273,,,,,,,,
,glass,0.8624042868614197,,,,,,,,
,hotel,0.8611080050468445,,,,,,,,
,cafeteria,0.8602570295333862,,,,,,,,
,airport,0.8434514999389648,,,,,,,,
,office,0.8396567702293396,,,,,,,,
https://scontent-sit4-1.cdninstagram.com/t51.2885-15/e35/13525368_1168833443167036_1114025540_n.jpg,food,0.98052978515625,Food,,,,"Drinks and snack",,,
,people,0.9796184301376343,,,,,,,,
,coffee,0.9756010174751282,,,,,,,,
,drink,0.9745525121688843,,,,,,,,
,cup,0.9711520671844482,,,,,,,,
,one,0.9433183670043945,,,,,,,,
,adult,0.931125819683075,,,,,,,,
,hot,0.9217478036880493,,,,,,,,
,breakfast,0.919223427772522,,,,,,,,
,table,0.9067537784576416,,,,,,,,
,mug,0.8962610363960266,,,,,,,,
,espresso,0.8907800912857056,,,,,,,,
,dawn,0.8802169561386108,,,,,,,,
,sweet,0.8609781861305237,,,,,,,,
,chocolate,0.8547946810722351,,,,,,,,
,woman,0.8374613523483276,,,,,,,,
,child,0.8304845094680786,,,,,,,,
,delicious,0.8214664459228516,,,,,,,,
,man,0.8168328404426575,,,,,,,,
,sugar,0.8079603910446167,,,,,,,,
