url,class,score
https://scontent.cdninstagram.com/t51.2885-15/e35/13266856_1732028577086500_1875407738_n.jpg?ig_cache_key=MTI1NTk4NTQwODY0OTc1Mjg3Nw%3D%3D.2,city,0.989284098
,building,0.986557066
,business,0.984009683
,no person,0.979082644
,architecture,0.975574851
,light,0.971429527
,urban,0.963308036
,modern,0.954694986
,travel,0.935317874
,office,0.926776767
,road,0.908639252
,street,0.906373143
,technology,0.889199257
,skyscraper,0.873961806
,reflection,0.859293342
,sky,0.852674723
,finance,0.841312885
,downtown,0.834910035
,blur,0.834249258
,dark,0.827943444
https://scontent.cdninstagram.com/t51.2885-15/s640x640/e15/13285388_807111646088452_432261735_n.jpg?ig_cache_key=MTI2NTAwNjU3OTYwMDg4MDA2Mg%3D%3D.2,business,0.989765644
,computer,0.986855984
,screen,0.982437015
,technology,0.982292175
,internet,0.979064465
,text,0.95885253
,money,0.949991345
,commerce,0.948590994
,telephone,0.948457241
,finance,0.941397905
,no person,0.936099768
,communication,0.933988333
,laptop,0.931326926
,data,0.93041563
,sign,0.925418139
,World Wide Web,0.902600527
,monitor,0.897714019
,display,0.893190801
,electronics,0.885407925
,browser,0.882546902
https://scontent.cdninstagram.com/t51.2885-15/e35/13298024_1746918298861797_1724156316_n.jpg?ig_cache_key=MTI1NzMyOTEyMDczNDYzODc1Mw%3D%3D.2,vehicle,0.965168059
,woman,0.961868107
,rally,0.951066971
,people,0.948764443
,business,0.944672108
,travel,0.943698406
,sign,0.93409431
,text,0.923298419
,ticket,0.916610241
,street,0.89747268
,indoors,0.850508571
,travel,0.83716023
,sign,0.836753249
,action,0.83579582
,service,0.825929403
,man,0.81637907
,time,0.815083444
,city,0.813515902
,information,0.803784728
,hand,0.800313175
https://scontent.cdninstagram.com/t51.2885-15/e35/13248969_1027274460695568_196213724_n.jpg?ig_cache_key=MTI1NTc0MDc1NzQ4MTEyNDQyNw%3D%3D.2,city,0.988640547
,light,0.988569438
,evening,0.984599769
,street,0.960170507
,road,0.956741571
,sunset,0.953796983
,dusk,0.94145906
,building,0.939187944
,cityscape,0.93066442
,skyline,0.918411851
,urban,0.917966306
,travel,0.909078836
,tree,0.905830503
,skyscraper,0.897080541
,architecture,0.891962647
,landscape,0.885922372
,dawn,0.876780689
,sky,0.876114249
,highway,0.872163653
,blur,0.871589541
https://scontent.cdninstagram.com/t51.2885-15/s320x320/e35/13249943_799797720121029_1005726114_n.jpg?ig_cache_key=MTI1NTE2NDMyMDIyMzA5NzA3Ng%3D%3D.2,street,0.992463589
,indoors,0.98111558
,transportation system,0.978818297
,monochrome,0.977809072
,road,0.959024429
,horizontal,0.955930829
,light,0.951254189
,pavement,0.951045513
,shadow,0.949580431
,architecture,0.948015928
,window,0.934409916
,city,0.934140682
,business,0.932939947
,people,0.931787074
,empty,0.927181661
,reflection,0.923461139
,absence,0.919962525
,dark,0.89436388
,traffic,0.877517939
,no person,0.873655319
https://scontent.cdninstagram.com/t51.2885-15/e35/13248969_1027274460695568_196213724_n.jpg?ig_cache_key=MTI1NTc0MDc1NzQ4MTEyNDQyNw%3D%3D.2,city,0.988640547
,light,0.988569438
,evening,0.984599769
,street,0.960170507
,road,0.956741571
,sunset,0.953796983
,dusk,0.94145906
,building,0.939187944
,cityscape,0.93066442
,skyline,0.918411851
,urban,0.917966306
,travel,0.909078836
,tree,0.905830503
,skyscraper,0.897080541
,architecture,0.891962647
,landscape,0.885922372
,dawn,0.876780689
,sky,0.876114249
,highway,0.872163653
,blur,0.871589541
https://scontent.cdninstagram.com/t51.2885-15/e35/p480x480/13285230_481037735427584_927618153_n.jpg?ig_cache_key=MTI2NTEwMjYyNTg3NDE0NjE5NQ%3D%3D.2,business,0.989682376
,ink,0.983080626
,sign,0.981037915
,print,0.971528649
,dirty,0.96056056
,illustration,0.959275126
,text,0.954693794
,label,0.951449513
,success,0.948153555
,no person,0.943814158
,design,0.934135318
,paper,0.93344593
,symbol,0.933361113
,rubberize,0.927430034
,desktop,0.926045001
,graphic,0.924255967
,retro,0.913712263
,vector,0.897944152
,risk,0.896744609
,abstract,0.893700838
https://scontent.cdninstagram.com/t51.2885-15/e35/13277837_1060437660703119_1728021116_n.jpg?ig_cache_key=MTI2MzEzODc5Mjc4Nzk2NDQ2Ng%3D%3D.2,indoors,0.99477303
,woman,0.988484621
,people,0.983247697
,two,0.968113422
,man,0.957827389
,togetherness,0.955600739
,child,0.955412745
,daylight,0.952283621
,family,0.951095223
,adult,0.950680375
,portrait,0.926570296
,enjoyment,0.920015931
,facial expression,0.914336205
,love,0.913801074
,happiness,0.913750768
,affection,0.911510229
,girl,0.911265969
,wear,0.907868266
,looking,0.893550873
,outdoors,0.89205277
https://scontent.cdninstagram.com/t51.2885-15/s480x480/e35/13118031_1707751082838683_1854384349_n.jpg?ig_cache_key=MTI0NjEwNzAxNjU3NjEzNTY5Nw%3D%3D.2,luck,0.965144753
,chance,0.964081883
,no person,0.956535578
,gambling,0.951023698
,casino,0.947746813
,indoors,0.910305142
,poker,0.90385592
,desktop,0.897968411
,business,0.896535099
,fun,0.88551116
,money,0.869611323
,set,0.86955744
,risk,0.868470669
,success,0.863239884
,wealth,0.836554646
,illustration,0.819001913
,people,0.813634872
,game,0.810544252
,round,0.810080409
,money,0.800895572
https://scontent.cdninstagram.com/t51.2885-15/s320x320/e35/13249943_799797720121029_1005726114_n.jpg?ig_cache_key=MTI1NTE2NDMyMDIyMzA5NzA3Ng%3D%3D.2,street,0.992463589
,indoors,0.98111558
,transportation system,0.978818297
,monochrome,0.977809072
,road,0.959024429
,horizontal,0.955930829
,light,0.951254189
,pavement,0.951045513
,shadow,0.949580431
,architecture,0.948015928
,window,0.934409916
,city,0.934140682
,business,0.932939947
,people,0.931787074
,empty,0.927181661
,reflection,0.923461139
,absence,0.919962525
,dark,0.89436388
,traffic,0.877517939
,no person,0.873655319
https://scontent.cdninstagram.com/l/t51.2885-15/e35/13285368_1721001861505922_2066546142_n.jpg?ig_cache_key=MTI2MTcyMjg4NDg0NDU4MTM2Mg%3D%3D.2,no person,0.983584285
,travel,0.978482604
,text,0.976874471
,identity,0.968552113
,administration,0.965999544
,tourism,0.962646484
,offense,0.956373632
,security,0.955573618
,business,0.950809002
,passport,0.941580296
,travel,0.932196617
,military,0.908715725
,citizenship,0.895905375
,people,0.886820257
,symbol,0.885219991
,sign,0.883156657
,sign,0.881899118
,religion,0.878672004
,vacation,0.878620744
,visa,0.876178622
https://scontent.cdninstagram.com/t51.2885-15/e35/12912647_1720265614899858_957335622_n.jpg?ig_cache_key=MTIzMTIyOTYxMjkwNDk2ODgzMA%3D%3D.2,indoors,0.931958795
,illuminated,0.92183578
,no person,0.917255342
,monochrome,0.906071186
,horizontal,0.897669911
,business,0.895804763
,dark,0.849437952
,blur,0.825311244
,empty,0.808370352
,transportation system,0.808187008
,text,0.79887706
,safety,0.79861939
,people,0.79842186
,offense,0.765477777
,focus,0.746234536
,square,0.742598414
,abstract,0.735144377
,technology,0.733825743
,security,0.718082488
,shadow,0.691526175
https://scontent.cdninstagram.com/t51.2885-15/s750x750/sh0.08/e35/13166660_1107146302678958_2070391942_n.jpg?ig_cache_key=MTI0Nzk4MDgxODA0NjE1Mjc4NQ%3D%3D.2,woman,0.997520924
,fashion,0.986920476
,girl,0.976541042
,sexy,0.972808897
,portrait,0.97004813
,pretty,0.961070538
,glamour,0.953729987
,hair,0.94810009
,eye,0.945574045
,model,0.931005716
,people,0.925451219
,cute,0.916802168
,long,0.91412729
,young,0.900131583
,lingerie,0.863951921
,lips,0.847954273
,nude,0.828913212
,skin,0.825059116
,beautiful,0.821650147
,adolescent,0.806923151
https://scontent.cdninstagram.com/t51.2885-15/e35/13298033_1686003981663431_719412629_n.jpg?ig_cache_key=MTI2MzEzNTU5MjA3MjYzODg4NA%3D%3D.2,no person,0.961809099
,money,0.928070307
,text,0.916784823
,business,0.912318468
,paper,0.898367286
,card,0.840046883
,commerce,0.836902797
,wealth,0.831341088
,money,0.819288254
,food,0.81738925
,people,0.800602078
,symbol,0.798706412
,finance,0.797173023
,market,0.779903173
,offense,0.778863788
,desktop,0.763449669
,luck,0.743620694
,shopping,0.737557888
,sale,0.737436116
,spherical,0.730935097
https://scontent.cdninstagram.com/t51.2885-15/e15/13249697_1226782207362348_297271436_n.jpg?ig_cache_key=MTI1MTM0Mzk4NDY4Nzg3MDYzOQ%3D%3D.2,landscape,0.979149461
,no person,0.974893093
,tree,0.973284066
,water,0.969422042
,sunset,0.961622
,light,0.958462238
,action,0.955516636
,storm,0.954839349
,travel,0.954184413
,winter,0.949995995
,vehicle,0.942668617
,snow,0.940440774
,calamity,0.931612551
,rain,0.929758549
,outdoors,0.926302731
,flame,0.91881144
,people,0.91642952
,weather,0.901990294
,dawn,0.892294526
,reflection,0.888406754
https://scontent.cdninstagram.com/t51.2885-15/s640x640/e15/13285388_807111646088452_432261735_n.jpg?ig_cache_key=MTI2NTAwNjU3OTYwMDg4MDA2Mg%3D%3D.2,business,0.989765644
,computer,0.986855984
,screen,0.982437015
,technology,0.982292175
,internet,0.979064465
,text,0.95885253
,money,0.949991345
,commerce,0.948590994
,telephone,0.948457241
,finance,0.941397905
,no person,0.936099768
,communication,0.933988333
,laptop,0.931326926
,data,0.93041563
,sign,0.925418139
,World Wide Web,0.902600527
,monitor,0.897714019
,display,0.893190801
,electronics,0.885407925
,browser,0.882546902
https://scontent.cdninstagram.com/t51.2885-15/s750x750/sh0.08/e35/13150859_1595386357438319_1446407350_n.jpg?ig_cache_key=MTI1MDc1ODYxNTU0MjAzNDY1Ng%3D%3D.2,woman,0.994533658
,fashion,0.979127228
,portrait,0.976076543
,girl,0.959682107
,one,0.955106616
,adult,0.948685646
,wear,0.936030388
,model,0.935715258
,pretty,0.928810596
,young,0.928603172
,glamour,0.919791579
,sexy,0.895637155
,people,0.877714038
,hair,0.850060403
,cute,0.822213054
,studio,0.818960369
,looking,0.80110693
,pants,0.786677599
,music,0.781808913
,beautiful,0.772225261
https://scontent.cdninstagram.com/t51.2885-15/sh0.08/e35/p750x750/13117950_1033896763324248_62619152_n.jpg?ig_cache_key=MTI0MDYyMjcxMzUzNjgwMzAwMQ%3D%3D.2,woman,0.996834517
,fashion,0.994491577
,girl,0.986235142
,portrait,0.983997107
,sexy,0.980472803
,model,0.972787678
,glamour,0.967988849
,eye,0.953487396
,pretty,0.950605989
,hair,0.949028969
,nude,0.933796287
,lingerie,0.932600439
,cute,0.925403237
,people,0.907297134
,lips,0.889719605
,long,0.879362881
,skin,0.870641232
,studio,0.869433463
,young,0.865450799
,elegant,0.855498672
https://scontent.cdninstagram.com/t51.2885-15/e35/13151150_453978908133451_286714752_n.jpg?ig_cache_key=MTI0MjgzNjkyNzQ4NzcwMDk5Ng%3D%3D.2,no person,0.994012773
,treatment,0.945765734
,business,0.921530247
,paper,0.906863391
,plastic,0.898623407
,ink,0.873861372
,healthcare,0.873388469
,health,0.863677382
,security,0.857894301
,research,0.855470896
,improvement,0.844031394
,merchandise,0.826407194
,success,0.813789845
,conceptual,0.80757308
,isolated,0.79659903
,creativity,0.791542828
,safety,0.782677054
,industry,0.781517386
,text,0.773875833
,security,0.744089842
https://scontent.cdninstagram.com/t51.2885-15/e35/13181278_1255181414510612_1731118547_n.jpg?ig_cache_key=MTI1MDg2NTc5NjE4MjQ3MDgxNg%3D%3D.2,people,0.985445559
,woman,0.981375337
,two,0.973230958
,togetherness,0.97164607
,fun,0.967802227
,outdoors,0.955903709
,portrait,0.949488103
,girl,0.947961092
,man,0.942258239
,happiness,0.939522326
,child,0.936851263
,wear,0.936717033
,friendship,0.929745913
,enjoyment,0.927985609
,indoors,0.921320558
,family,0.9203704
,leisure,0.917064667
,love,0.916691899
,facial expression,0.899212122
,adult,0.888679743
https://scontent.cdninstagram.com/t51.2885-15/s480x480/e35/13437335_1734700110141459_1660925131_n.jpg?ig_cache_key=MTI4MDE0NjQyOTAwMDMxNDQwNA%3D%3D.2,tunnel,0.996711969
,tube,0.996510386
,indoors,0.978830576
,train,0.967524767
,hallway,0.960808873
,no person,0.95887208
,light,0.95404315
,passage,0.94925797
,transportation system,0.949161887
,ceiling,0.946029305
,railway,0.934898615
,architecture,0.921953559
,perspective,0.914942622
,step,0.911259353
,tube,0.891939998
,travel,0.884845793
,building,0.87733531
,guidance,0.872440815
,business,0.870908499
,station,0.863174498
https://scontent.cdninstagram.com/t51.2885-15/e35/13109015_600570573443713_552423128_n.jpg?ig_cache_key=MTI0MDYyNTMwMTY2NTY0MDc3OA%3D%3D.2,people,0.972456098
,woman,0.9561553
,paper,0.95445478
,man,0.949066877
,illustration,0.936915994
,adult,0.931703985
,retro,0.93167913
,card,0.928316653
,one,0.923095226
,vintage,0.903706133
,business,0.884389639
,wealth,0.873969734
,portrait,0.871206284
,money,0.871190608
,person,0.871152282
,print,0.865596533
,luck,0.861045003
,desktop,0.859487951
,no person,0.853931904
,art,0.824779272
https://scontent.cdninstagram.com/t51.2885-15/s480x480/e35/13437335_1734700110141459_1660925131_n.jpg?ig_cache_key=MTI4MDE0NjQyOTAwMDMxNDQwNA%3D%3D.2,tunnel,0.996711969
,tube,0.996510386
,indoors,0.978830576
,train,0.967524767
,hallway,0.960808873
,no person,0.95887208
,light,0.95404315
,passage,0.94925797
,transportation system,0.949161887
,ceiling,0.946029305
,railway,0.934898615
,architecture,0.921953559
,perspective,0.914942622
,step,0.911259353
,tube,0.891939998
,travel,0.884845793
,building,0.87733531
,guidance,0.872440815
,business,0.870908499
,station,0.863174498
https://scontent.cdninstagram.com/t51.2885-15/e35/13109015_600570573443713_552423128_n.jpg?ig_cache_key=MTI0MDYyNTMwMTY2NTY0MDc3OA%3D%3D.2,people,0.972456098
,woman,0.9561553
,paper,0.95445478
,man,0.949066877
,illustration,0.936915994
,adult,0.931703985
,retro,0.93167913
,card,0.928316653
,one,0.923095226
,vintage,0.903706133
,business,0.884389639
,wealth,0.873969734
,portrait,0.871206284
,money,0.871190608
,person,0.871152282
,print,0.865596533
,luck,0.861045003
,desktop,0.859487951
,no person,0.853931904
,art,0.824779272
https://scontent.cdninstagram.com/t51.2885-15/e15/12816818_1753212444915283_2128130973_n.jpg?ig_cache_key=MTIxNzgzODYwMDY0Mzk2NDk4OA%3D%3D.2,vehicle,0.983693004
,no person,0.982920647
,city,0.965218723
,light,0.953549147
,car,0.945949316
,road,0.944129348
,motion,0.933387041
,transportation system,0.931513309
,street,0.929578245
,science,0.925720811
,technology,0.922280848
,action,0.921824932
,people,0.897882223
,auto racing,0.890258074
,blur,0.879851341
,travel,0.879199624
,competition,0.878782749
,abstract,0.878699064
,photograph,0.877299249
,reflection,0.875367999
https://scontent.cdninstagram.com/t51.2885-15/e35/13248911_238621706512763_1446447932_n.jpg?ig_cache_key=MTI1NzMxNzkwMDUzNTIzMDc0Nw%3D%3D.2,template,0.995047688
,stripe,0.992702484
,banner,0.990810871
,layout,0.978444457
,World Wide Web,0.970492899
,heading,0.960733652
,navigation,0.955165684
,page,0.954346299
,vector,0.946107149
,site,0.939600289
,menu,0.926818371
,set,0.926142097
,presentation,0.916226029
,design,0.890112877
,label,0.878531158
,form,0.874472857
,theme,0.850345194
,illustration,0.844430327
,picture frame,0.840284348
,internet,0.810673237
https://scontent.cdninstagram.com/t51.2885-15/e35/12826278_1044633115599636_1850014784_n.jpg?ig_cache_key=MTIwMjgxMzE1MTc5MDUyNzEyNw%3D%3D.2,people,0.984953165
,no person,0.970604539
,man,0.966514766
,woman,0.947334409
,indoors,0.94177413
,military,0.939211011
,one,0.936711192
,portrait,0.914215922
,war,0.908966005
,winter,0.90154922
,battle,0.896781087
,adult,0.896395564
,offense,0.896361947
,wear,0.89472115
,fashion,0.894469023
,travel,0.893564522
,business,0.891099691
,police,0.879488289
,dark,0.828531623
,child,0.810499668
https://scontent.cdninstagram.com/t51.2885-15/s480x480/e35/12965895_1020017804739169_456374600_n.jpg?ig_cache_key=MTIzNTQxNTYwNTk1ODcwMTM3Nw%3D%3D.2,no person,0.985044479
,vehicle,0.972862363
,transportation system,0.921510339
,wheel,0.8797912
,technology,0.876735508
,military,0.872226894
,round,0.866567671
,car,0.864371121
,one,0.856454194
,people,0.855181694
,round,0.853459239
,steel,0.848245978
,industry,0.838191271
,symbol,0.832039356
,glazed,0.795274138
,travel,0.793762565
,business,0.793079138
,chrome,0.789996862
,aircraft,0.771725714
,music,0.746827841
https://scontent.cdninstagram.com/t51.2885-15/e35/12930711_1533584410276633_317863786_n.jpg?ig_cache_key=MTIxNzgzNjgwODgyMDUxODk0Mg%3D%3D.2,invertebrate,0.97350204
,science,0.970312595
,no person,0.956548691
,one,0.929013252
,motion,0.927932143
,reflection,0.927418113
,light,0.923549771
,dark,0.906098247
,desktop,0.889637709
,vehicle,0.874299765
,insect,0.844642282
,travel,0.833247185
,evening,0.824960232
,water,0.824525952
,crustacean,0.817312121
,people,0.815425813
,technology,0.806833744
,city,0.806395411
,competition,0.787581563
,sea,0.768294513
https://scontent.cdninstagram.com/t51.2885-15/e35/p480x480/13285230_481037735427584_927618153_n.jpg?ig_cache_key=MTI2NTEwMjYyNTg3NDE0NjE5NQ%3D%3D.2,business,0.989682376
,ink,0.983080626
,sign,0.981037915
,print,0.971528649
,dirty,0.96056056
,illustration,0.959275126
,text,0.954693794
,label,0.951449513
,success,0.948153555
,no person,0.943814158
,design,0.934135318
,paper,0.93344593
,symbol,0.933361113
,rubberize,0.927430034
,desktop,0.926045001
,graphic,0.924255967
,retro,0.913712263
,vector,0.897944152
,risk,0.896744609
,abstract,0.893700838
https://scontent.cdninstagram.com/t51.2885-15/e35/12940166_1705188399759025_1751811981_n.jpg?ig_cache_key=MTIyODI3NDE2NjMxNzQ3ODMxMg%3D%3D.2,business,0.969462752
,fashion,0.961946249
,paper,0.936772406
,woman,0.932654142
,no person,0.931292355
,shopping,0.912915885
,research,0.891201377
,education,0.866689682
,identity,0.861463308
,administration,0.844331741
,creativity,0.831931829
,glamour,0.831046999
,luxury,0.824604571
,wealth,0.818916678
,money,0.81865418
,text,0.810448647
,stock,0.808796406
,indoors,0.799705267
,International,0.790301561
,movie,0.785923004
https://scontent.cdninstagram.com/t51.2885-15/e35/13248995_1614180518903193_928728579_n.jpg?ig_cache_key=MTI1MDE5MzYwNzg2MzA3MTE3MQ%3D%3D.2,food,0.994993627
,meat,0.981451035
,fish,0.976148844
,salmon,0.97534591
,no person,0.974784851
,dinner,0.966077089
,seafood,0.965881288
,slice,0.957223833
,meal,0.953395784
,plate,0.941624761
,epicure,0.937564135
,dish,0.932704151
,delicious,0.929780364
,tuna,0.921756685
,closeup,0.919315696
,restaurant,0.908192158
,lunch,0.892076492
,fillet,0.891756296
,traditional,0.890688062
,cuisine,0.876408935
https://scontent.cdninstagram.com/t51.2885-15/e15/12816818_1753212444915283_2128130973_n.jpg?ig_cache_key=MTIxNzgzODYwMDY0Mzk2NDk4OA%3D%3D.2,vehicle,0.983693004
,no person,0.982920647
,city,0.965218723
,light,0.953549147
,car,0.945949316
,road,0.944129348
,motion,0.933387041
,transportation system,0.931513309
,street,0.929578245
,science,0.925720811
,technology,0.922280848
,action,0.921824932
,people,0.897882223
,auto racing,0.890258074
,blur,0.879851341
,travel,0.879199624
,competition,0.878782749
,abstract,0.878699064
,photograph,0.877299249
,reflection,0.875367999
https://scontent.cdninstagram.com/t51.2885-15/e35/13109024_567673663407211_1233316709_n.jpg?ig_cache_key=MTIzOTUzMTI5MjYzNzU1NzU3OA%3D%3D.2,World Wide Web,0.994599998
,screen,0.98820591
,internet,0.979650378
,template,0.974888444
,site,0.974532127
,browser,0.968088925
,computer,0.966151118
,page,0.964088559
,monitor,0.963686407
,interface,0.958619595
,navigation,0.957078695
,technology,0.955304801
,banner,0.947793365
,set,0.937179267
,stripe,0.935770988
,layout,0.935227633
,display,0.926256597
,card,0.925893664
,desktop,0.916172862
,business,0.913409114
https://scontent.cdninstagram.com/t51.2885-15/e35/13108626_1044408525646100_1965170903_n.jpg?ig_cache_key=MTI2MTcxNjkyMjUwNzIyNzM2MQ%3D%3D.2,shoe,0.99992615
,footwear,0.999916553
,foot,0.999887168
,couple,0.999737024
,wear,0.999270797
,leather,0.999189615
,fashion,0.998938024
,lace,0.996439934
,sole,0.995139718
,shoelace,0.993579745
,rubberize,0.990347624
,isolated,0.989461064
,casual,0.989078403
,two,0.987981558
,classic,0.986633778
,sneakers,0.98615855
,chain,0.98159492
,comfort,0.969349027
,accessory,0.964988589
,suede,0.963019431
https://scontent.cdninstagram.com/t51.2885-15/e35/13151150_453978908133451_286714752_n.jpg?ig_cache_key=MTI0MjgzNjkyNzQ4NzcwMDk5Ng%3D%3D.2,no person,0.994012773
,treatment,0.945765734
,business,0.921530247
,paper,0.906863391
,plastic,0.898623407
,ink,0.873861372
,healthcare,0.873388469
,health,0.863677382
,security,0.857894301
,research,0.855470896
,improvement,0.844031394
,merchandise,0.826407194
,success,0.813789845
,conceptual,0.80757308
,isolated,0.79659903
,creativity,0.791542828
,safety,0.782677054
,industry,0.781517386
,text,0.773875833
,security,0.744089842
https://scontent.cdninstagram.com/t51.2885-15/e35/13266856_1732028577086500_1875407738_n.jpg?ig_cache_key=MTI1NTk4NTQwODY0OTc1Mjg3Nw%3D%3D.2,city,0.989284098
,building,0.986557066
,business,0.984009683
,no person,0.979082644
,architecture,0.975574851
,light,0.971429527
,urban,0.963308036
,modern,0.954694986
,travel,0.935317874
,office,0.926776767
,road,0.908639252
,street,0.906373143
,technology,0.889199257
,skyscraper,0.873961806
,reflection,0.859293342
,sky,0.852674723
,finance,0.841312885
,downtown,0.834910035
,blur,0.834249258
,dark,0.827943444
https://scontent.cdninstagram.com/t51.2885-15/s750x750/sh0.08/e35/13150859_1595386357438319_1446407350_n.jpg?ig_cache_key=MTI1MDc1ODYxNTU0MjAzNDY1Ng%3D%3D.2,woman,0.994533658
,fashion,0.979127228
,portrait,0.976076543
,girl,0.959682107
,one,0.955106616
,adult,0.948685646
,wear,0.936030388
,model,0.935715258
,pretty,0.928810596
,young,0.928603172
,glamour,0.919791579
,sexy,0.895637155
,people,0.877714038
,hair,0.850060403
,cute,0.822213054
,studio,0.818960369
,looking,0.80110693
,pants,0.786677599
,music,0.781808913
,beautiful,0.772225261
https://scontent.cdninstagram.com/t51.2885-15/e35/13167421_589656981197258_1071849982_n.jpg?ig_cache_key=MTI1MjU0MzEwMzEyNTE4OTM3Mg%3D%3D.2,people,0.993011236
,monochrome,0.990727246
,car,0.981726885
,vehicle,0.981347322
,street,0.966090083
,man,0.961672425
,indoors,0.945541263
,adult,0.938006997
,no person,0.936993778
,woman,0.926098526
,one,0.920827746
,light,0.916877031
,transportation system,0.904748142
,city,0.88624692
,winter,0.867903829
,window,0.865792394
,nude,0.842486858
,wear,0.832764864
,vintage,0.820794582
,action,0.813963532
https://scontent.cdninstagram.com/t51.2885-15/s480x480/e35/13260972_1775826325984745_514856747_n.jpg?ig_cache_key=MTI1MjI3MTY1OTc0MDg1MzE4Mg%3D%3D.2,sign,0.961220622
,no person,0.947629094
,text,0.932848513
,illustration,0.91951859
,paper,0.907045484
,design,0.903759599
,business,0.899176598
,symbol,0.893578529
,desktop,0.88114965
,pattern,0.872577786
,graphic,0.871790767
,retro,0.866061032
,art,0.855263889
,abstract,0.84654212
,texture,0.842295408
,ink,0.836433291
,card,0.836124361
,shape,0.833818555
,love,0.83182776
,vintage,0.823881984
https://scontent.cdninstagram.com/t51.2885-15/e35/13320145_1952482384978104_1144649707_n.jpg?ig_cache_key=MTI2ODIzODYyOTA5NTEwOTU2NQ%3D%3D.2,business,0.976825237
,internet,0.972959399
,no person,0.965841055
,rack,0.958673358
,luck,0.955275536
,number,0.949138165
,service,0.943153739
,gambling,0.928041339
,game,0.918987274
,competition,0.916842699
,technology,0.915441871
,network,0.914723635
,computer,0.911797881
,communication,0.907359362
,collection,0.892515421
,food,0.890929222
,order,0.885512948
,equipment,0.88444078
,security,0.863343358
,display,0.853883326
https://scontent.cdninstagram.com/t51.2885-15/e35/13248911_238621706512763_1446447932_n.jpg?ig_cache_key=MTI1NzMxNzkwMDUzNTIzMDc0Nw%3D%3D.2,template,0.995047688
,stripe,0.992702484
,banner,0.990810871
,layout,0.978444457
,World Wide Web,0.970492899
,heading,0.960733652
,navigation,0.955165684
,page,0.954346299
,vector,0.946107149
,site,0.939600289
,menu,0.926818371
,set,0.926142097
,presentation,0.916226029
,design,0.890112877
,label,0.878531158
,form,0.874472857
,theme,0.850345194
,illustration,0.844430327
,picture frame,0.840284348
,internet,0.810673237
https://scontent.cdninstagram.com/t51.2885-15/s750x750/sh0.08/e35/13249766_1629560030701596_1677844505_n.jpg?ig_cache_key=MTI1MDU3OTc1NDUwNjI4NTg5MA%3D%3D.2,woman,0.996967793
,fashion,0.988864422
,girl,0.985728741
,pretty,0.981668949
,portrait,0.977201223
,young,0.968794465
,eyeglasses,0.966802418
,glamour,0.955012023
,eye,0.947824597
,cute,0.944365919
,model,0.927661955
,indoors,0.920959771
,skin,0.917902887
,lady,0.913228154
,people,0.911422849
,beautiful,0.907734871
,lips,0.886948824
,look,0.88644141
,sexy,0.879434109
,hair,0.870138526
https://scontent.cdninstagram.com/t51.2885-15/e35/13298033_1686003981663431_719412629_n.jpg?ig_cache_key=MTI2MzEzNTU5MjA3MjYzODg4NA%3D%3D.2,no person,0.961809099
,money,0.928070307
,text,0.916784823
,business,0.912318468
,paper,0.898367286
,card,0.840046883
,commerce,0.836902797
,wealth,0.831341088
,money,0.819288254
,food,0.81738925
,people,0.800602078
,symbol,0.798706412
,finance,0.797173023
,market,0.779903173
,offense,0.778863788
,desktop,0.763449669
,luck,0.743620694
,shopping,0.737557888
,sale,0.737436116
,spherical,0.730935097
https://scontent.cdninstagram.com/t51.2885-15/s750x750/sh0.08/e35/12965703_1067920513275175_1298304829_n.jpg?ig_cache_key=MTIzMjYxOTE5MTk2MDYyOTI1Nw%3D%3D.2,woman,0.993573606
,portrait,0.990126252
,fashion,0.984699786
,people,0.974455357
,eye,0.971365929
,girl,0.963360548
,glamour,0.960072517
,winter,0.94942683
,sexy,0.945635557
,model,0.945475936
,window,0.919189632
,one,0.918259382
,snow,0.91186583
,lips,0.897681355
,adult,0.893876493
,rain,0.887184978
,hair,0.885046959
,cold,0.880319834
,pretty,0.874170542
,outdoors,0.853227437
https://scontent.cdninstagram.com/t51.2885-15/s750x750/sh0.08/e35/13116652_461155680755003_1641614032_n.jpg?ig_cache_key=MTI1MTM0NjQ2NjQ2NTkzNjEwOA%3D%3D.2,woman,0.994047165
,girl,0.990326285
,fashion,0.989745378
,portrait,0.980624199
,glamour,0.970083594
,model,0.968251467
,sexy,0.941066325
,beautiful,0.933052719
,eye,0.933022618
,pretty,0.926694453
,people,0.909571648
,hair,0.902673066
,brunette,0.900242567
,cute,0.891142368
,lips,0.884912968
,young,0.884643555
,wedding,0.883103013
,face,0.880429506
,lady,0.87484026
,studio,0.869771421
https://scontent.cdninstagram.com/t51.2885-15/e35/13248763_990976107684161_201247715_n.jpg?ig_cache_key=MTI2MDI2ODk1MjQxNDg3NjIxNg%3D%3D.2,business,0.994080782
,no person,0.990818858
,paper,0.983908892
,data,0.975988805
,finance,0.97232461
,document,0.969177961
,data,0.968618631
,money,0.966805696
,text,0.958480895
,money,0.958422363
,security,0.954782069
,shopping,0.954510331
,pay,0.943611443
,information,0.94233048
,identity,0.941454768
,book,0.939262629
,wealth,0.928343415
,research,0.922583461
,horizontal,0.920352221
,service,0.918886781
https://scontent.cdninstagram.com/t51.2885-15/e35/12912664_1245670465460637_1516423348_n.jpg?ig_cache_key=MTIyMDIwOTc2NTQ5MjQ4NjY5NA%3D%3D.2,stock,0.967577577
,competition,0.937443912
,flower,0.933580637
,many,0.92091167
,indoors,0.917063713
,no person,0.911816776
,people,0.907830954
,decoration,0.903939068
,festival,0.899611712
,shop,0.888036251
,food,0.88167882
,religion,0.875854969
,soccer,0.875629365
,market,0.861320794
,luxury,0.854342937
,travel,0.837511897
,city,0.829649568
,ceremony,0.824569285
,industry,0.822078705
,stand,0.821804762
https://scontent.cdninstagram.com/t51.2885-15/s750x750/sh0.08/e35/12950303_1240990902597434_216628827_n.jpg?ig_cache_key=MTIyMjE4OTU2ODQ5MTgxMTE2OA%3D%3D.2,fashion,0.994322419
,woman,0.99100852
,portrait,0.979304314
,glamour,0.974636197
,model,0.941521585
,sexy,0.937037349
,elegant,0.933862686
,eye,0.927851558
,girl,0.920436382
,luxury,0.90507108
,hairdo,0.896805763
,skin,0.892233729
,hair,0.891191125
,style,0.876665831
,cute,0.87282002
,pretty,0.863590181
,lips,0.859845161
,people,0.853959322
,one,0.850215495
,young,0.825923562
https://scontent.cdninstagram.com/t51.2885-15/e35/13167421_589656981197258_1071849982_n.jpg?ig_cache_key=MTI1MjU0MzEwMzEyNTE4OTM3Mg%3D%3D.2,people,0.993011236
,monochrome,0.990727246
,car,0.981726885
,vehicle,0.981347322
,street,0.966090083
,man,0.961672425
,indoors,0.945541263
,adult,0.938006997
,no person,0.936993778
,woman,0.926098526
,one,0.920827746
,light,0.916877031
,transportation system,0.904748142
,city,0.88624692
,winter,0.867903829
,window,0.865792394
,nude,0.842486858
,wear,0.832764864
,vintage,0.820794582
,action,0.813963532
https://scontent.cdninstagram.com/t51.2885-15/e35/13261077_162627010806329_1996363472_n.jpg?ig_cache_key=MTI1MjcwODk4OTQwODY3MDIzOQ%3D%3D.2,storm,0.977478504
,landscape,0.977352321
,no person,0.97423929
,monochrome,0.97127223
,tree,0.968963087
,weather,0.961068273
,calamity,0.952692151
,people,0.941833675
,fog,0.940620303
,winter,0.939772964
,mountain,0.920720279
,snow,0.902705431
,sky,0.901497006
,light,0.894034266
,vehicle,0.874966741
,travel,0.871545553
,smoke,0.862163067
,rain,0.8618505
,cloud,0.844690979
,road,0.836155593
https://scontent.cdninstagram.com/t51.2885-15/s480x480/e35/13118031_1707751082838683_1854384349_n.jpg?ig_cache_key=MTI0NjEwNzAxNjU3NjEzNTY5Nw%3D%3D.2,luck,0.965144753
,chance,0.964081883
,no person,0.956535578
,gambling,0.951023698
,casino,0.947746813
,indoors,0.910305142
,poker,0.90385592
,desktop,0.897968411
,business,0.896535099
,fun,0.88551116
,money,0.869611323
,set,0.86955744
,risk,0.868470669
,success,0.863239884
,wealth,0.836554646
,illustration,0.819001913
,people,0.813634872
,game,0.810544252
,round,0.810080409
,money,0.800895572
https://scontent.cdninstagram.com/t51.2885-15/sh0.08/e35/p750x750/13117950_1033896763324248_62619152_n.jpg?ig_cache_key=MTI0MDYyMjcxMzUzNjgwMzAwMQ%3D%3D.2,woman,0.996834517
,fashion,0.994491577
,girl,0.986235142
,portrait,0.983997107
,sexy,0.980472803
,model,0.972787678
,glamour,0.967988849
,eye,0.953487396
,pretty,0.950605989
,hair,0.949028969
,nude,0.933796287
,lingerie,0.932600439
,cute,0.925403237
,people,0.907297134
,lips,0.889719605
,long,0.879362881
,skin,0.870641232
,studio,0.869433463
,young,0.865450799
,elegant,0.855498672
https://scontent.cdninstagram.com/t51.2885-15/sh0.08/e35/p750x750/13167482_970837873034463_1954884030_n.jpg?ig_cache_key=MTI1MTg5NTE5NjQ3MDUwNjA2Mw%3D%3D.2,girl,0.990153551
,portrait,0.989511847
,woman,0.985094666
,adult,0.97662288
,people,0.973603487
,beautiful,0.969262958
,face,0.963759363
,one,0.960934877
,brunette,0.960735381
,young,0.956553519
,pretty,0.926601768
,model,0.921951354
,hair,0.918242037
,cute,0.913835287
,attractive,0.903986394
,fashion,0.901362598
,lifestyle,0.89486599
,facial expression,0.893861175
,head,0.883852601
,hairdo,0.879347444
https://scontent.cdninstagram.com/t51.2885-15/e35/13150956_278118925859502_1904222956_n.jpg?ig_cache_key=MTI1MDc2NDgyMjYwODYzODUwMw%3D%3D.2,isolated,0.967769623
,one,0.957182288
,no person,0.947263837
,woman,0.923840761
,plastic,0.907150626
,fashion,0.89930582
,security,0.898219824
,equipment,0.877227902
,hand,0.870242119
,desktop,0.867695749
,technology,0.867584586
,shining,0.858794093
,dark,0.84671092
,accessory,0.843127012
,business,0.839187503
,ceramic,0.83349514
,glazed,0.833304882
,steel,0.832984447
,studio,0.830600142
,danger,0.823514223
https://scontent.cdninstagram.com/t51.2885-15/s750x750/sh0.08/e35/13129390_1687098024844311_1354207422_n.jpg?ig_cache_key=MTI0MDY1MzYyMjQ3ODY2NDMwMA%3D%3D.2,woman,0.998729229
,sexy,0.987267852
,fashion,0.976508021
,girl,0.973460972
,glamour,0.969000816
,pretty,0.961098433
,lingerie,0.958531082
,thin,0.956142187
,young,0.955379367
,underwear,0.954537392
,skin,0.938436031
,model,0.938153386
,portrait,0.935804963
,fitness,0.92722553
,figure,0.920768857
,elegant,0.909517884
,beautiful,0.904214621
,body,0.89421469
,hair,0.891257167
,cute,0.885877848
https://scontent.cdninstagram.com/t51.2885-15/e35/12930711_1533584410276633_317863786_n.jpg?ig_cache_key=MTIxNzgzNjgwODgyMDUxODk0Mg%3D%3D.2,invertebrate,0.97350204
,science,0.970312595
,no person,0.956548691
,one,0.929013252
,motion,0.927932143
,reflection,0.927418113
,light,0.923549771
,dark,0.906098247
,desktop,0.889637709
,vehicle,0.874299765
,insect,0.844642282
,travel,0.833247185
,evening,0.824960232
,water,0.824525952
,crustacean,0.817312121
,people,0.815425813
,technology,0.806833744
,city,0.806395411
,competition,0.787581563
,sea,0.768294513
https://scontent.cdninstagram.com/t51.2885-15/s480x480/e35/10534907_478815932310154_1586952066_n.jpg?ig_cache_key=MTIwNjM4NTY1OTEzMTIyODMwMw%3D%3D.2,sweet,0.998619735
,fruit,0.997815847
,berry,0.994050503
,strawberry,0.993256629
,food,0.991199613
,no person,0.967182398
,delicious,0.961351871
,sugar,0.960123658
,refreshment,0.949500799
,breakfast,0.942529202
,plate,0.941563249
,blueberry,0.928868055
,chocolate,0.927118659
,cream,0.9266541
,raspberry,0.924109697
,syrup,0.915868938
,yogurt,0.894986868
,freshness,0.890715718
,cake,0.880279303
,grow,0.877623975
https://scontent.cdninstagram.com/t51.2885-15/e35/13298024_1746918298861797_1724156316_n.jpg?ig_cache_key=MTI1NzMyOTEyMDczNDYzODc1Mw%3D%3D.2,vehicle,0.965168059
,woman,0.961868107
,rally,0.951066971
,people,0.948764443
,business,0.944672108
,travel,0.943698406
,sign,0.93409431
,text,0.923298419
,ticket,0.916610241
,street,0.89747268
,indoors,0.850508571
,travel,0.83716023
,sign,0.836753249
,action,0.83579582
,service,0.825929403
,man,0.81637907
,time,0.815083444
,city,0.813515902
,information,0.803784728
,hand,0.800313175
https://scontent.cdninstagram.com/t51.2885-15/e35/12907238_502124739977292_2143660847_n.jpg?ig_cache_key=MTIyMzAyMzg3NDc4MDk4NDAzNw%3D%3D.2,food,0.991827607
,lunch,0.989240289
,meat,0.986532271
,dinner,0.986389995
,meal,0.979999781
,pork,0.975994229
,no person,0.9744187
,delicious,0.968696415
,beef,0.967089891
,plate,0.965390027
,bread,0.940244675
,dish,0.932986736
,sausage,0.93195641
,vegetable,0.929544926
,hot,0.92943877
,barbecue,0.928471446
,cuisine,0.925649166
,tasty,0.921865225
,epicure,0.916037679
,nutrition,0.911990166
https://scontent.cdninstagram.com/t51.2885-15/e35/13277837_1060437660703119_1728021116_n.jpg?ig_cache_key=MTI2MzEzODc5Mjc4Nzk2NDQ2Ng%3D%3D.2,indoors,0.99477303
,woman,0.988484621
,people,0.983247697
,two,0.968113422
,man,0.957827389
,togetherness,0.955600739
,child,0.955412745
,daylight,0.952283621
,family,0.951095223
,adult,0.950680375
,portrait,0.926570296
,enjoyment,0.920015931
,facial expression,0.914336205
,love,0.913801074
,happiness,0.913750768
,affection,0.911510229
,girl,0.911265969
,wear,0.907868266
,looking,0.893550873
,outdoors,0.89205277
https://scontent.cdninstagram.com/t51.2885-15/e35/13126707_1730013083877042_1497167529_n.jpg?ig_cache_key=MTI0NTAzODY2MDM3MjY4OTQ5OQ%3D%3D.2,no person,0.998341918
,blush,0.992532253
,fashion,0.985056043
,initiation,0.968991339
,eyeshadow,0.965037584
,rouge,0.96314913
,make up,0.962233901
,powder,0.956563354
,business,0.948768854
,palette,0.940937877
,paper,0.939265609
,plastic,0.934351444
,kind,0.931943119
,improvement,0.921074271
,treatment,0.911931157
,compact,0.910127997
,application,0.897541642
,facial,0.896220565
,indoors,0.893254399
,research,0.891669631
https://scontent.cdninstagram.com/t51.2885-15/e35/13248763_990976107684161_201247715_n.jpg?ig_cache_key=MTI2MDI2ODk1MjQxNDg3NjIxNg%3D%3D.2,business,0.994080782
,no person,0.990818858
,paper,0.983908892
,data,0.975988805
,finance,0.97232461
,document,0.969177961
,data,0.968618631
,money,0.966805696
,text,0.958480895
,money,0.958422363
,security,0.954782069
,shopping,0.954510331
,pay,0.943611443
,information,0.94233048
,identity,0.941454768
,book,0.939262629
,wealth,0.928343415
,research,0.922583461
,horizontal,0.920352221
,service,0.918886781
https://scontent.cdninstagram.com/t51.2885-15/s480x480/e35/10534907_478815932310154_1586952066_n.jpg?ig_cache_key=MTIwNjM4NTY1OTEzMTIyODMwMw%3D%3D.2,sweet,0.998619735
,fruit,0.997815847
,berry,0.994050503
,strawberry,0.993256629
,food,0.991199613
,no person,0.967182398
,delicious,0.961351871
,sugar,0.960123658
,refreshment,0.949500799
,breakfast,0.942529202
,plate,0.941563249
,blueberry,0.928868055
,chocolate,0.927118659
,cream,0.9266541
,raspberry,0.924109697
,syrup,0.915868938
,yogurt,0.894986868
,freshness,0.890715718
,cake,0.880279303
,grow,0.877623975
https://scontent.cdninstagram.com/t51.2885-15/e35/13108522_1601792763466696_1738591525_n.jpg?ig_cache_key=MTI1MjI3NTgzNDEwNTEzMTA4Ng%3D%3D.2,people,0.97274065
,woman,0.967306674
,indoors,0.96031332
,adult,0.955537021
,business,0.943706751
,telephone,0.942136228
,one,0.941513598
,portrait,0.935199142
,room,0.92249012
,girl,0.906501234
,model,0.889011741
,fashion,0.886703968
,offense,0.874112725
,wear,0.85902679
,shopping,0.857860208
,commerce,0.83972311
,computer,0.832356334
,family,0.810345948
,technology,0.798024237
,two,0.725631475
https://scontent.cdninstagram.com/t51.2885-15/e35/12976382_208967579494277_473555241_n.jpg?ig_cache_key=MTIyODM3NTc5MzA3ODY2MTc5MQ%3D%3D.2,no person,0.954627991
,business,0.923905015
,industry,0.920152009
,technology,0.905120134
,indoors,0.877341866
,equipment,0.860009491
,luxury,0.839473248
,modern,0.831543684
,stock,0.827149034
,old,0.807086229
,computer,0.783888817
,desktop,0.77662921
,retro,0.773536086
,display,0.770657182
,commerce,0.759350896
,finance,0.757169008
,money,0.749792337
,vintage,0.744415522
,office,0.742284358
,power,0.740111709
https://scontent.cdninstagram.com/t51.2885-15/sh0.08/e35/p750x750/13167482_970837873034463_1954884030_n.jpg?ig_cache_key=MTI1MTg5NTE5NjQ3MDUwNjA2Mw%3D%3D.2,girl,0.990153551
,portrait,0.989511847
,woman,0.985094666
,adult,0.97662288
,people,0.973603487
,beautiful,0.969262958
,face,0.963759363
,one,0.960934877
,brunette,0.960735381
,young,0.956553519
,pretty,0.926601768
,model,0.921951354
,hair,0.918242037
,cute,0.913835287
,attractive,0.903986394
,fashion,0.901362598
,lifestyle,0.89486599
,facial expression,0.893861175
,head,0.883852601
,hairdo,0.879347444
https://scontent.cdninstagram.com/t51.2885-15/e35/13320145_1952482384978104_1144649707_n.jpg?ig_cache_key=MTI2ODIzODYyOTA5NTEwOTU2NQ%3D%3D.2,business,0.976825237
,internet,0.972959399
,no person,0.965841055
,rack,0.958673358
,luck,0.955275536
,number,0.949138165
,service,0.943153739
,gambling,0.928041339
,game,0.918987274
,competition,0.916842699
,technology,0.915441871
,network,0.914723635
,computer,0.911797881
,communication,0.907359362
,collection,0.892515421
,food,0.890929222
,order,0.885512948
,equipment,0.88444078
,security,0.863343358
,display,0.853883326
https://scontent.cdninstagram.com/t51.2885-15/s750x750/sh0.08/e35/13116652_461155680755003_1641614032_n.jpg?ig_cache_key=MTI1MTM0NjQ2NjQ2NTkzNjEwOA%3D%3D.2,woman,0.994047165
,girl,0.990326285
,fashion,0.989745378
,portrait,0.980624199
,glamour,0.970083594
,model,0.968251467
,sexy,0.941066325
,beautiful,0.933052719
,eye,0.933022618
,pretty,0.926694453
,people,0.909571648
,hair,0.902673066
,brunette,0.900242567
,cute,0.891142368
,lips,0.884912968
,young,0.884643555
,wedding,0.883103013
,face,0.880429506
,lady,0.87484026
,studio,0.869771421
https://scontent.cdninstagram.com/t51.2885-15/e35/12907238_502124739977292_2143660847_n.jpg?ig_cache_key=MTIyMzAyMzg3NDc4MDk4NDAzNw%3D%3D.2,food,0.991827607
,lunch,0.989240289
,meat,0.986532271
,dinner,0.986389995
,meal,0.979999781
,pork,0.975994229
,no person,0.9744187
,delicious,0.968696415
,beef,0.967089891
,plate,0.965390027
,bread,0.940244675
,dish,0.932986736
,sausage,0.93195641
,vegetable,0.929544926
,hot,0.92943877
,barbecue,0.928471446
,cuisine,0.925649166
,tasty,0.921865225
,epicure,0.916037679
,nutrition,0.911990166
https://scontent.cdninstagram.com/t51.2885-15/e35/13109024_567673663407211_1233316709_n.jpg?ig_cache_key=MTIzOTUzMTI5MjYzNzU1NzU3OA%3D%3D.2,World Wide Web,0.994599998
,screen,0.98820591
,internet,0.979650378
,template,0.974888444
,site,0.974532127
,browser,0.968088925
,computer,0.966151118
,page,0.964088559
,monitor,0.963686407
,interface,0.958619595
,navigation,0.957078695
,technology,0.955304801
,banner,0.947793365
,set,0.937179267
,stripe,0.935770988
,layout,0.935227633
,display,0.926256597
,card,0.925893664
,desktop,0.916172862
,business,0.913409114
https://scontent.cdninstagram.com/t51.2885-15/e35/12826278_1044633115599636_1850014784_n.jpg?ig_cache_key=MTIwMjgxMzE1MTc5MDUyNzEyNw%3D%3D.2,people,0.984953165
,no person,0.970604539
,man,0.966514766
,woman,0.947334409
,indoors,0.94177413
,military,0.939211011
,one,0.936711192
,portrait,0.914215922
,war,0.908966005
,winter,0.90154922
,battle,0.896781087
,adult,0.896395564
,offense,0.896361947
,wear,0.89472115
,fashion,0.894469023
,travel,0.893564522
,business,0.891099691
,police,0.879488289
,dark,0.828531623
,child,0.810499668
https://scontent.cdninstagram.com/t51.2885-15/s750x750/sh0.08/e35/13129548_1107757995949582_2078059306_n.jpg?ig_cache_key=MTI0MDM3MTg0ODEwNDE0NTIyOQ%3D%3D.2,girl,0.996129274
,woman,0.994082212
,fashion,0.989018559
,portrait,0.987287521
,model,0.986961722
,beautiful,0.971164048
,sexy,0.963040233
,brunette,0.95000428
,glamour,0.948176503
,lady,0.944184422
,hair,0.939956963
,bed,0.933366716
,pretty,0.928916097
,eye,0.922749519
,people,0.922581792
,young,0.910204768
,dress,0.903416157
,face,0.896647215
,dark,0.894793689
,book,0.879295707
https://scontent.cdninstagram.com/t51.2885-15/e35/12940166_1705188399759025_1751811981_n.jpg?ig_cache_key=MTIyODI3NDE2NjMxNzQ3ODMxMg%3D%3D.2,business,0.969462752
,fashion,0.961946249
,paper,0.936772406
,woman,0.932654142
,no person,0.931292355
,shopping,0.912915885
,research,0.891201377
,education,0.866689682
,identity,0.861463308
,administration,0.844331741
,creativity,0.831931829
,glamour,0.831046999
,luxury,0.824604571
,wealth,0.818916678
,money,0.81865418
,text,0.810448647
,stock,0.808796406
,indoors,0.799705267
,International,0.790301561
,movie,0.785923004
https://scontent.cdninstagram.com/t51.2885-15/s750x750/sh0.08/e35/12950303_1240990902597434_216628827_n.jpg?ig_cache_key=MTIyMjE4OTU2ODQ5MTgxMTE2OA%3D%3D.2,fashion,0.994322419
,woman,0.99100852
,portrait,0.979304314
,glamour,0.974636197
,model,0.941521585
,sexy,0.937037349
,elegant,0.933862686
,eye,0.927851558
,girl,0.920436382
,luxury,0.90507108
,hairdo,0.896805763
,skin,0.892233729
,hair,0.891191125
,style,0.876665831
,cute,0.87282002
,pretty,0.863590181
,lips,0.859845161
,people,0.853959322
,one,0.850215495
,young,0.825923562
https://scontent.cdninstagram.com/t51.2885-15/s750x750/sh0.08/e35/12965703_1067920513275175_1298304829_n.jpg?ig_cache_key=MTIzMjYxOTE5MTk2MDYyOTI1Nw%3D%3D.2,woman,0.993573606
,portrait,0.990126252
,fashion,0.984699786
,people,0.974455357
,eye,0.971365929
,girl,0.963360548
,glamour,0.960072517
,winter,0.94942683
,sexy,0.945635557
,model,0.945475936
,window,0.919189632
,one,0.918259382
,snow,0.91186583
,lips,0.897681355
,adult,0.893876493
,rain,0.887184978
,hair,0.885046959
,cold,0.880319834
,pretty,0.874170542
,outdoors,0.853227437
https://scontent.cdninstagram.com/t51.2885-15/e35/13150956_278118925859502_1904222956_n.jpg?ig_cache_key=MTI1MDc2NDgyMjYwODYzODUwMw%3D%3D.2,isolated,0.967769623
,one,0.957182288
,no person,0.947263837
,woman,0.923840761
,plastic,0.907150626
,fashion,0.89930582
,security,0.898219824
,equipment,0.877227902
,hand,0.870242119
,desktop,0.867695749
,technology,0.867584586
,shining,0.858794093
,dark,0.84671092
,accessory,0.843127012
,business,0.839187503
,ceramic,0.83349514
,glazed,0.833304882
,steel,0.832984447
,studio,0.830600142
,danger,0.823514223
https://scontent.cdninstagram.com/t51.2885-15/e35/13129480_1720869044858673_1056479501_n.jpg?ig_cache_key=MTI0MzYwOTkxMjcwODQ2MTEwMQ%3D%3D.2,window,0.99353677
,architecture,0.9933002
,monochrome,0.99187994
,city,0.987974405
,building,0.9789294
,no person,0.977951527
,light,0.975832343
,urban,0.971381068
,reflection,0.944199383
,indoors,0.94233346
,glass,0.918107271
,street,0.915897131
,room,0.909749031
,business,0.906629801
,office,0.893086493
,black and white,0.88705802
,mirror,0.887018204
,shadow,0.880645275
,abandoned,0.876654685
,apartment,0.86917007
https://scontent.cdninstagram.com/t51.2885-15/s750x750/sh0.08/e35/13166660_1107146302678958_2070391942_n.jpg?ig_cache_key=MTI0Nzk4MDgxODA0NjE1Mjc4NQ%3D%3D.2,woman,0.997520924
,fashion,0.986920476
,girl,0.976541042
,sexy,0.972808897
,portrait,0.97004813
,pretty,0.961070538
,glamour,0.953729987
,hair,0.94810009
,eye,0.945574045
,model,0.931005716
,people,0.925451219
,cute,0.916802168
,long,0.91412729
,young,0.900131583
,lingerie,0.863951921
,lips,0.847954273
,nude,0.828913212
,skin,0.825059116
,beautiful,0.821650147
,adolescent,0.806923151
https://scontent.cdninstagram.com/t51.2885-15/e35/13118342_1709566452620334_1403111768_n.jpg?ig_cache_key=MTIzOTI0NjI2NzE5OTI4NzUyMQ%3D%3D.2,business,0.988629818
,finance,0.97115922
,money,0.967640281
,application,0.948930264
,desktop,0.941606998
,computer,0.940833092
,paper,0.931515098
,financial,0.929178119
,commerce,0.925861359
,card,0.91940558
,success,0.884550691
,calculator,0.880078137
,sale,0.878586888
,keyboard,0.863928914
,economy,0.862835884
,shopping,0.861820459
,money,0.860366166
,market,0.85004425
,office,0.834921002
,bargain,0.833945751
https://scontent.cdninstagram.com/t51.2885-15/e35/13108732_255771471444515_1390336895_n.jpg?ig_cache_key=MTI1MDYxNjUwNjcwMDgyMTM0OA%3D%3D.2,no person,0.975964427
,man,0.894770086
,steel,0.888476908
,people,0.879320264
,monochrome,0.838911831
,vintage,0.830409765
,desktop,0.829200983
,kitchenware,0.820373654
,Zen,0.815698326
,wear,0.810210645
,one,0.808547854
,old,0.791213751
,coffee,0.772069037
,two,0.741200447
,hot,0.736190319
,military,0.724790394
,reflection,0.7141397
,container,0.711066484
,dark,0.70593369
,food,0.701840639
https://scontent.cdninstagram.com/t51.2885-15/s480x480/e35/12965895_1020017804739169_456374600_n.jpg?ig_cache_key=MTIzNTQxNTYwNTk1ODcwMTM3Nw%3D%3D.2,no person,0.985044479
,vehicle,0.972862363
,transportation system,0.921510339
,wheel,0.8797912
,technology,0.876735508
,military,0.872226894
,round,0.866567671
,car,0.864371121
,one,0.856454194
,people,0.855181694
,round,0.853459239
,steel,0.848245978
,industry,0.838191271
,symbol,0.832039356
,glazed,0.795274138
,travel,0.793762565
,business,0.793079138
,chrome,0.789996862
,aircraft,0.771725714
,music,0.746827841
"https://scontent.cdninstagram.com/t51.2885-15/s750x750/sh0.08/e35/13129548_1107757995949582_2078059306_n.jpg?ig_cache_key=MTI0MDM3MTg0ODEwNDE0NTIyOQ%3D%3D.2= Error Image, Not Accessible.",,
https://scontent.cdninstagram.com/t51.2885-15/e35/12976382_208967579494277_473555241_n.jpg?ig_cache_key=MTIyODM3NTc5MzA3ODY2MTc5MQ%3D%3D.2,no person,0.954627991
,business,0.923905015
,industry,0.920152009
,technology,0.905120134
,indoors,0.877341866
,equipment,0.860009491
,luxury,0.839473248
,modern,0.831543684
,stock,0.827149034
,old,0.807086229
,computer,0.783888817
,desktop,0.77662921
,retro,0.773536086
,display,0.770657182
,commerce,0.759350896
,finance,0.757169008
,money,0.749792337
,vintage,0.744415522
,office,0.742284358
,power,0.740111709
https://scontent.cdninstagram.com/t51.2885-15/e35/12912664_1245670465460637_1516423348_n.jpg?ig_cache_key=MTIyMDIwOTc2NTQ5MjQ4NjY5NA%3D%3D.2,stock,0.967577577
,competition,0.937443912
,flower,0.933580637
,many,0.92091167
,indoors,0.917063713
,no person,0.911816776
,people,0.907830954
,decoration,0.903939068
,festival,0.899611712
,shop,0.888036251
,food,0.88167882
,religion,0.875854969
,soccer,0.875629365
,market,0.861320794
,luxury,0.854342937
,travel,0.837511897
,city,0.829649568
,ceremony,0.824569285
,industry,0.822078705
,stand,0.821804762
"https://scontent.cdninstagram.com/t51.2885-15/e35/12940690_1032754730132168_84863219_n.jpg?ig_cache_key=MTIyMjk2OTIzMjkzMTk3NjA4MA%3D%3D.2= Error Image, Not Accessible.",,
https://scontent.cdninstagram.com/t51.2885-15/e35/13108732_255771471444515_1390336895_n.jpg?ig_cache_key=MTI1MDYxNjUwNjcwMDgyMTM0OA%3D%3D.2,no person,0.975964427
,man,0.894770086
,steel,0.888476908
,people,0.879320264
,monochrome,0.838911831
,vintage,0.830409765
,desktop,0.829200983
,kitchenware,0.820373654
,Zen,0.815698326
,wear,0.810210645
,one,0.808547854
,old,0.791213751
,coffee,0.772069037
,two,0.741200447
,hot,0.736190319
,military,0.724790394
,reflection,0.7141397
,container,0.711066484
,dark,0.70593369
,food,0.701840639
https://scontent.cdninstagram.com/t51.2885-15/e15/13249697_1226782207362348_297271436_n.jpg?ig_cache_key=MTI1MTM0Mzk4NDY4Nzg3MDYzOQ%3D%3D.2,landscape,0.979149461
,no person,0.974893093
,tree,0.973284066
,water,0.969422042
,sunset,0.961622
,light,0.958462238
,action,0.955516636
,storm,0.954839349
,travel,0.954184413
,winter,0.949995995
,vehicle,0.942668617
,snow,0.940440774
,calamity,0.931612551
,rain,0.929758549
,outdoors,0.926302731
,flame,0.91881144
,people,0.91642952
,weather,0.901990294
,dawn,0.892294526
,reflection,0.888406754
https://scontent.cdninstagram.com/t51.2885-15/e35/13129480_1720869044858673_1056479501_n.jpg?ig_cache_key=MTI0MzYwOTkxMjcwODQ2MTEwMQ%3D%3D.2,window,0.99353677
,architecture,0.9933002
,monochrome,0.99187994
,city,0.987974405
,building,0.9789294
,no person,0.977951527
,light,0.975832343
,urban,0.971381068
,reflection,0.944199383
,indoors,0.94233346
,glass,0.918107271
,street,0.915897131
,room,0.909749031
,business,0.906629801
,office,0.893086493
,black and white,0.88705802
,mirror,0.887018204
,shadow,0.880645275
,abandoned,0.876654685
,apartment,0.86917007
https://scontent.cdninstagram.com/t51.2885-15/s480x480/e35/13118206_1534610033513660_1725216239_n.jpg?ig_cache_key=MTI0Nzc2MjI0OTQ5MjQ5Mjc1Ng%3D%3D.2,portrait,0.991783321
,woman,0.991623163
,fashion,0.989782512
,girl,0.9812361
,model,0.967548013
,glamour,0.96431458
,people,0.955537438
,sexy,0.955090404
,hair,0.944860339
,eye,0.94079721
,pretty,0.91117084
,adult,0.899414778
,beautiful,0.896030605
,young,0.895529449
,face,0.886550605
,one,0.886324644
,cute,0.884801924
,lips,0.877757668
,studio,0.873822808
,long,0.859039187
https://scontent.cdninstagram.com/t51.2885-15/e35/13248995_1614180518903193_928728579_n.jpg?ig_cache_key=MTI1MDE5MzYwNzg2MzA3MTE3MQ%3D%3D.2,food,0.994993627
,meat,0.981451035
,fish,0.976148844
,salmon,0.97534591
,no person,0.974784851
,dinner,0.966077089
,seafood,0.965881288
,slice,0.957223833
,meal,0.953395784
,plate,0.941624761
,epicure,0.937564135
,dish,0.932704151
,delicious,0.929780364
,tuna,0.921756685
,closeup,0.919315696
,restaurant,0.908192158
,lunch,0.892076492
,fillet,0.891756296
,traditional,0.890688062
,cuisine,0.876408935
https://scontent.cdninstagram.com/t51.2885-15/e35/13118342_1709566452620334_1403111768_n.jpg?ig_cache_key=MTIzOTI0NjI2NzE5OTI4NzUyMQ%3D%3D.2,business,0.988629818
,finance,0.97115922
,money,0.967640281
,application,0.948930264
,desktop,0.941606998
,computer,0.940833092
,paper,0.931515098
,financial,0.929178119
,commerce,0.925861359
,card,0.91940558
,success,0.884550691
,calculator,0.880078137
,sale,0.878586888
,keyboard,0.863928914
,economy,0.862835884
,shopping,0.861820459
,money,0.860366166
,market,0.85004425
,office,0.834921002
,bargain,0.833945751
https://scontent.cdninstagram.com/t51.2885-15/e35/13126707_1730013083877042_1497167529_n.jpg?ig_cache_key=MTI0NTAzODY2MDM3MjY4OTQ5OQ%3D%3D.2,no person,0.998341918
,blush,0.992532253
,fashion,0.985056043
,initiation,0.968991339
,eyeshadow,0.965037584
,rouge,0.96314913
,make up,0.962233901
,powder,0.956563354
,business,0.948768854
,palette,0.940937877
,paper,0.939265609
,plastic,0.934351444
,kind,0.931943119
,improvement,0.921074271
,treatment,0.911931157
,compact,0.910127997
,application,0.897541642
,facial,0.896220565
,indoors,0.893254399
,research,0.891669631
https://scontent.cdninstagram.com/t51.2885-15/e35/12940690_1032754730132168_84863219_n.jpg?ig_cache_key=MTIyMjk2OTIzMjkzMTk3NjA4MA%3D%3D.2,coffee,0.999940038
,espresso,0.999090493
,cappuccino,0.999020278
,cup,0.99887687
,caffeine,0.998534083
,foam,0.998314261
,drink,0.998099744
,hot,0.995672345
,dawn,0.995043397
,breakfast,0.993868172
,mug,0.993718982
,break,0.991042793
,dark,0.991015077
,saucer,0.989427626
,milk,0.988021731
,mocha,0.986955404
,cream,0.985386491
,perfume,0.984656572
,chocolate,0.982993126
,no person,0.960291684
https://scontent.cdninstagram.com/t51.2885-15/e35/12965759_1559201907706388_1373995330_n.jpg?ig_cache_key=MTIyODM3MzU0MTI3NDI4NDYyMQ%3D%3D.2,business,0.938734889
,people,0.929033637
,competition,0.917951226
,shopping,0.915699959
,city,0.906306386
,vehicle,0.89908433
,technology,0.892089248
,stock,0.889708102
,commerce,0.877801478
,exhibition,0.876649857
,telephone,0.870768368
,market,0.866842866
,street,0.858144283
,no person,0.8574633
,display,0.85438931
,race,0.847687066
,fun,0.846168578
,internet,0.830558777
,computer,0.827900827
,car,0.826608062
https://scontent.cdninstagram.com/t51.2885-15/s750x750/sh0.08/e35/13249766_1629560030701596_1677844505_n.jpg?ig_cache_key=MTI1MDU3OTc1NDUwNjI4NTg5MA%3D%3D.2,woman,0.996967793
,fashion,0.988864422
,girl,0.985728741
,pretty,0.981668949
,portrait,0.977201223
,young,0.968794465
,eyeglasses,0.966802418
,glamour,0.955012023
,eye,0.947824597
,cute,0.944365919
,model,0.927661955
,indoors,0.920959771
,skin,0.917902887
,lady,0.913228154
,people,0.911422849
,beautiful,0.907734871
,lips,0.886948824
,look,0.88644141
,sexy,0.879434109
,hair,0.870138526
https://scontent.cdninstagram.com/t51.2885-15/e35/12965759_1559201907706388_1373995330_n.jpg?ig_cache_key=MTIyODM3MzU0MTI3NDI4NDYyMQ%3D%3D.2,business,0.938734889
,people,0.929033637
,competition,0.917951226
,shopping,0.915699959
,city,0.906306386
,vehicle,0.89908433
,technology,0.892089248
,stock,0.889708102
,commerce,0.877801478
,exhibition,0.876649857
,telephone,0.870768368
,market,0.866842866
,street,0.858144283
,no person,0.8574633
,display,0.85438931
,race,0.847687066
,fun,0.846168578
,internet,0.830558777
,computer,0.827900827
,car,0.826608062
https://scontent.cdninstagram.com/t51.2885-15/s750x750/sh0.08/e35/13129390_1687098024844311_1354207422_n.jpg?ig_cache_key=MTI0MDY1MzYyMjQ3ODY2NDMwMA%3D%3D.2,woman,0.998729229
,sexy,0.987267852
,fashion,0.976508021
,girl,0.973460972
,glamour,0.969000816
,pretty,0.961098433
,lingerie,0.958531082
,thin,0.956142187
,young,0.955379367
,underwear,0.954537392
,skin,0.938436031
,model,0.938153386
,portrait,0.935804963
,fitness,0.92722553
,figure,0.920768857
,elegant,0.909517884
,beautiful,0.904214621
,body,0.89421469
,hair,0.891257167
,cute,0.885877848
https://scontent.cdninstagram.com/t51.2885-15/e35/13261077_162627010806329_1996363472_n.jpg?ig_cache_key=MTI1MjcwODk4OTQwODY3MDIzOQ%3D%3D.2,storm,0.977478504
,landscape,0.977352321
,no person,0.97423929
,monochrome,0.97127223
,tree,0.968963087
,weather,0.961068273
,calamity,0.952692151
,people,0.941833675
,fog,0.940620303
,winter,0.939772964
,mountain,0.920720279
,snow,0.902705431
,sky,0.901497006
,light,0.894034266
,vehicle,0.874966741
,travel,0.871545553
,smoke,0.862163067
,rain,0.8618505
,cloud,0.844690979
,road,0.836155593
https://scontent.cdninstagram.com/t51.2885-15/e35/13108626_1044408525646100_1965170903_n.jpg?ig_cache_key=MTI2MTcxNjkyMjUwNzIyNzM2MQ%3D%3D.2,shoe,0.99992615
,footwear,0.999916553
,foot,0.999887168
,couple,0.999737024
,wear,0.999270797
,leather,0.999189615
,fashion,0.998938024
,lace,0.996439934
,sole,0.995139718
,shoelace,0.993579745
,rubberize,0.990347624
,isolated,0.989461064
,casual,0.989078403
,two,0.987981558
,classic,0.986633778
,sneakers,0.98615855
,chain,0.98159492
,comfort,0.969349027
,accessory,0.964988589
,suede,0.963019431
https://scontent.cdninstagram.com/t51.2885-15/e35/12912647_1720265614899858_957335622_n.jpg?ig_cache_key=MTIzMTIyOTYxMjkwNDk2ODgzMA%3D%3D.2,indoors,0.931958795
,illuminated,0.92183578
,no person,0.917255342
,monochrome,0.906071186
,horizontal,0.897669911
,business,0.895804763
,dark,0.849437952
,blur,0.825311244
,empty,0.808370352
,transportation system,0.808187008
,text,0.79887706
,safety,0.79861939
,people,0.79842186
,offense,0.765477777
,focus,0.746234536
,square,0.742598414
,abstract,0.735144377
,technology,0.733825743
,security,0.718082488
,shadow,0.691526175
https://scontent.cdninstagram.com/t51.2885-15/e35/13181278_1255181414510612_1731118547_n.jpg?ig_cache_key=MTI1MDg2NTc5NjE4MjQ3MDgxNg%3D%3D.2,people,0.985445559
,woman,0.981375337
,two,0.973230958
,togetherness,0.97164607
,fun,0.967802227
,outdoors,0.955903709
,portrait,0.949488103
,girl,0.947961092
,man,0.942258239
,happiness,0.939522326
,child,0.936851263
,wear,0.936717033
,friendship,0.929745913
,enjoyment,0.927985609
,indoors,0.921320558
,family,0.9203704
,leisure,0.917064667
,love,0.916691899
,facial expression,0.899212122
,adult,0.888679743
