url,class,score
https://scontent.cdninstagram.com/t51.2885-15/e35/13556911_1118651751527956_1415162567_n.jpg,woman,0.983577847
,man,0.972721577
,people,0.958998084
,group,0.956582189
,four,0.954826713
,adult,0.943072677
,togetherness,0.930350006
,indoors,0.928918839
,child,0.927137375
,restaurant,0.922002316
,furniture,0.914828956
,group,0.908845544
,sit,0.895348787
,table,0.887796998
,enjoyment,0.885945141
,five,0.865496755
,friendship,0.856583118
,family,0.849841297
,dining,0.839245439
,room,0.835432768
https://scontent.cdninstagram.com/t51.2885-15/e35/13437230_122152751546336_1092724308_n.jpg,city,0.996822417
,cityscape,0.992190719
,architecture,0.99198854
,skyline,0.990656257
,travel,0.988948703
,building,0.978081405
,no person,0.97570467
,modern,0.973104537
,urban,0.971176207
,skyscraper,0.971042097
,sky,0.957547903
,daylight,0.949314177
,sight,0.939748347
,outdoors,0.939114213
,aerial,0.924490094
,panoramic,0.92371732
,office,0.920853257
,downtown,0.919227123
,town,0.908602357
,house,0.902818978
https://scontent.cdninstagram.com/t51.2885-15/e35/13534255_158741591205890_937994252_n.jpg,people,0.988560855
,group,0.976040363
,group,0.952886522
,woman,0.94941169
,music,0.938901067
,portrait,0.934310555
,man,0.919780731
,recreation,0.902537704
,band,0.899770617
,vehicle,0.882426858
,many,0.864966989
,adult,0.863934278
,singer,0.856000304
,school,0.842261672
,wear,0.840012789
,musician,0.822191715
,fame,0.808920264
,education,0.802624226
,competition,0.801107049
,performance,0.796872139
https://scontent.cdninstagram.com/t51.2885-15/e35/13385850_993199054132731_496700384_n.jpg,glass,0.997229576
,architecture,0.995454788
,window,0.988844872
,modern,0.986070991
,no person,0.985534012
,business,0.982699037
,contemporary,0.978339732
,building,0.972011387
,city,0.966265321
,office,0.965381384
,reflection,0.961581171
,indoors,0.957016587
,urban,0.944790483
,downtown,0.94383347
,perspective,0.935783029
,travel,0.926140428
,steel,0.920196354
,outdoors,0.895683885
,futuristic,0.888474822
,construction,0.882286549
https://scontent.cdninstagram.com/t51.2885-15/e35/13385850_993199054132731_496700384_n.jpg,glass,0.997229576
,architecture,0.995454788
,window,0.988844872
,modern,0.986070991
,no person,0.985534012
,business,0.982699037
,contemporary,0.978339732
,building,0.972011387
,city,0.966265321
,office,0.965381384
,reflection,0.961581171
,indoors,0.957016587
,urban,0.944790483
,downtown,0.94383347
,perspective,0.935783029
,travel,0.926140428
,steel,0.920196354
,outdoors,0.895683885
,futuristic,0.888474822
,construction,0.882286549
https://scontent.cdninstagram.com/t51.2885-15/e35/13413282_1580503842247752_2097383772_n.jpg,no person,0.942999661
,business,0.929644465
,text,0.90759927
,light,0.903930306
,sign,0.886518717
,sign,0.860896945
,technology,0.834872365
,symbol,0.834643185
,illustration,0.824297011
,number,0.822755516
,computer,0.766121507
,desktop,0.759750962
,creativity,0.75878334
,abstract,0.741312861
,commerce,0.70960331
,people,0.704169273
,display,0.701552033
,offense,0.687259793
,bill,0.64991498
,stock,0.649309516
https://scontent.cdninstagram.com/t51.2885-15/e35/13437230_122152751546336_1092724308_n.jpg,city,0.996822417
,cityscape,0.992190719
,architecture,0.99198854
,skyline,0.990656257
,travel,0.988948703
,building,0.978081405
,no person,0.97570467
,modern,0.973104537
,urban,0.971176207
,skyscraper,0.971042097
,sky,0.957547903
,daylight,0.949314177
,sight,0.939748347
,outdoors,0.939114213
,aerial,0.924490094
,panoramic,0.92371732
,office,0.920853257
,downtown,0.919227123
,town,0.908602357
,house,0.902818978
https://scontent.cdninstagram.com/t51.2885-15/e35/13398375_1185048044858830_1499250205_n.jpg,group,0.996086895
,people,0.990215659
,music,0.978133321
,woman,0.971717
,performance,0.968885064
,group,0.968632221
,adult,0.961496949
,musician,0.959074497
,many,0.951611638
,portrait,0.9484936
,singer,0.948254824
,festival,0.946091294
,man,0.942381322
,band,0.938586235
,education,0.926863253
,school,0.914011538
,party,0.904066563
,wear,0.900341034
,enjoyment,0.897243857
,concert,0.896425247
https://scontent.cdninstagram.com/t51.2885-15/e35/13402439_261514470876930_992409160_n.jpg,column,0.998732448
,architecture,0.997070491
,support,0.99455899
,no person,0.994424045
,tower,0.978681028
,light,0.970338941
,indoors,0.969239473
,building,0.966954231
,classic,0.962611914
,perspective,0.958759785
,hallway,0.953454554
,city,0.941520691
,construction,0.940387964
,empty,0.934885144
,art,0.933816552
,museum,0.931833446
,travel,0.922208786
,justice,0.920939267
,courthouse,0.917519808
,room,0.915617585
https://scontent.cdninstagram.com/t51.2885-15/e35/13398892_304877716567007_835611453_n.jpg,architecture,0.994169772
,no person,0.993333042
,religion,0.975473523
,church,0.973567963
,building,0.966048598
,outdoors,0.962391913
,sky,0.953589916
,travel,0.952619135
,daylight,0.949010968
,old,0.944784403
,city,0.872603953
,museum,0.868307829
,ancient,0.865698218
,traditional,0.860427618
,tower,0.849197149
,tourism,0.843851447
,cross,0.840004802
,facade,0.834853709
,cathedral,0.834737778
,landmark,0.828742623
https://scontent.cdninstagram.com/t51.2885-15/e35/13388617_597654027064314_636884883_n.jpg,group,0.992010415
,adult,0.969766259
,group,0.966892779
,woman,0.966632664
,people,0.960162401
,man,0.950378418
,wear,0.938322186
,business,0.912285566
,portrait,0.900338292
,facial expression,0.898465514
,leader,0.89411819
,room,0.888676643
,education,0.886761665
,meeting,0.87518537
,employee,0.859259486
,cooperation,0.85334301
,five,0.844000816
,happiness,0.834142268
,school,0.811585903
,many,0.811312556
https://scontent.cdninstagram.com/t51.2885-15/e35/13423546_1074617182595442_2136691902_n.jpg,travel,0.988063991
,water,0.986328185
,transportation system,0.968285322
,tourism,0.963648677
,city,0.95798862
,reflection,0.955504954
,building,0.952294886
,tourist,0.949397445
,architecture,0.944950938
,urban,0.93582195
,river,0.912527561
,vacation,0.911809444
,business,0.91130501
,bridge,0.897730649
,people,0.896153629
,public,0.880252838
,boat,0.875166059
,vehicle,0.864881396
,no person,0.864639997
,canal,0.860705733
https://scontent.cdninstagram.com/t51.2885-15/e35/13423489_295408504127203_688614982_n.jpg,city,0.997956634
,cityscape,0.996035695
,skyline,0.995832324
,architecture,0.994434953
,roof,0.988393843
,aerial,0.987996042
,building,0.979472458
,panorama,0.977535248
,urban,0.97532177
,rooftop,0.973945856
,travel,0.971646488
,no person,0.967843592
,downtown,0.958261728
,town,0.957540214
,skyscraper,0.945163608
,house,0.930670023
,panoramic,0.920391738
,sight,0.912228703
,outdoors,0.88917768
,river,0.881366313
https://scontent.cdninstagram.com/t51.2885-15/e35/13398375_1185048044858830_1499250205_n.jpg,group,0.996086895
,people,0.990215659
,music,0.978133321
,woman,0.971717
,performance,0.968885064
,group,0.968632221
,adult,0.961496949
,musician,0.959074497
,many,0.951611638
,portrait,0.9484936
,singer,0.948254824
,festival,0.946091294
,man,0.942381322
,band,0.938586235
,education,0.926863253
,school,0.914011538
,party,0.904066563
,wear,0.900341034
,enjoyment,0.897243857
,concert,0.896425247
https://scontent.cdninstagram.com/t51.2885-15/e35/13423546_1074617182595442_2136691902_n.jpg,travel,0.988063991
,water,0.986328185
,transportation system,0.968285322
,tourism,0.963648677
,city,0.95798862
,reflection,0.955504954
,building,0.952294886
,tourist,0.949397445
,architecture,0.944950938
,urban,0.93582195
,river,0.912527561
,vacation,0.911809444
,business,0.91130501
,bridge,0.897730649
,people,0.896153629
,public,0.880252838
,boat,0.875166059
,vehicle,0.864881396
,no person,0.864639997
,canal,0.860705733
https://scontent.cdninstagram.com/t51.2885-15/e35/13398892_304877716567007_835611453_n.jpg,architecture,0.994169772
,no person,0.993333042
,religion,0.975473523
,church,0.973567963
,building,0.966048598
,outdoors,0.962391913
,sky,0.953589916
,travel,0.952619135
,daylight,0.949010968
,old,0.944784403
,city,0.872603953
,museum,0.868307829
,ancient,0.865698218
,traditional,0.860427618
,tower,0.849197149
,tourism,0.843851447
,cross,0.840004802
,facade,0.834853709
,cathedral,0.834737778
,landmark,0.828742623
https://scontent.cdninstagram.com/t51.2885-15/e35/13398868_626884724132981_2109689801_n.jpg,group,0.99712944
,people,0.989780188
,woman,0.983283758
,family,0.976870298
,adult,0.973906398
,man,0.966515779
,child,0.961674809
,group,0.957245588
,many,0.926809371
,friendship,0.919165671
,wear,0.918611526
,offspring,0.907360196
,portrait,0.905237436
,facial expression,0.895158529
,education,0.894241452
,school,0.879238367
,five,0.871658444
,togetherness,0.860880792
,leader,0.848010421
,four,0.845909834
https://scontent.cdninstagram.com/t51.2885-15/e35/13395172_1764511590455831_982721214_n.jpg,group,0.973441005
,woman,0.962358415
,togetherness,0.93942529
,portrait,0.935145378
,people,0.916190863
,facial expression,0.910177827
,child,0.891818762
,group,0.890779138
,man,0.877490759
,adult,0.865897179
,multicultural,0.854277968
,laughing,0.843774259
,friendship,0.831204534
,education,0.807051539
,happiness,0.793543398
,adolescent,0.783850431
,unity,0.781835675
,outdoors,0.771893382
,interaction,0.769666195
,recreation,0.750921965
https://scontent.cdninstagram.com/t51.2885-15/e35/13556911_1118651751527956_1415162567_n.jpg,woman,0.983577847
,man,0.972721577
,people,0.958998084
,group,0.956582189
,four,0.954826713
,adult,0.943072677
,togetherness,0.930350006
,indoors,0.928918839
,child,0.927137375
,restaurant,0.922002316
,furniture,0.914828956
,group,0.908845544
,sit,0.895348787
,table,0.887796998
,enjoyment,0.885945141
,five,0.865496755
,friendship,0.856583118
,family,0.849841297
,dining,0.839245439
,room,0.835432768
https://scontent.cdninstagram.com/t51.2885-15/s750x750/sh0.08/e35/13398824_140577579696477_1929142465_n.jpg,group,0.99415648
,people,0.977338552
,school,0.964993834
,many,0.961389184
,woman,0.948980451
,crowd,0.930368006
,education,0.927903593
,group,0.910450697
,portrait,0.905198693
,festival,0.904189944
,child,0.899375439
,friendship,0.885718584
,university,0.876473784
,teacher,0.864670992
,youth,0.863382518
,man,0.860262394
,motion,0.854791284
,music,0.853615284
,adult,0.85022521
,rally,0.846853256
https://scontent.cdninstagram.com/t51.2885-15/e35/13408921_237375816644201_2026126345_n.jpg,woman,0.991722167
,people,0.977561116
,two,0.977103829
,togetherness,0.972580433
,man,0.965670347
,embrace,0.950438142
,wear,0.948848426
,facial expression,0.942710996
,portrait,0.925670087
,indoors,0.917106807
,love,0.912622571
,music,0.908139586
,enjoyment,0.900536418
,family,0.895667434
,affection,0.893109798
,recreation,0.885891676
,three,0.88242954
,adult,0.869897842
,laughing,0.862282634
,multicultural,0.855159402
https://scontent.cdninstagram.com/t51.2885-15/s750x750/sh0.08/e35/13398824_140577579696477_1929142465_n.jpg,group,0.99415648
,people,0.977338552
,school,0.964993834
,many,0.961389184
,woman,0.948980451
,crowd,0.930368006
,education,0.927903593
,group,0.910450697
,portrait,0.905198693
,festival,0.904189944
,child,0.899375439
,friendship,0.885718584
,university,0.876473784
,teacher,0.864670992
,youth,0.863382518
,man,0.860262394
,motion,0.854791284
,music,0.853615284
,adult,0.85022521
,rally,0.846853256
https://scontent.cdninstagram.com/t51.2885-15/e35/13395172_1764511590455831_982721214_n.jpg,group,0.973441005
,woman,0.962358415
,togetherness,0.93942529
,portrait,0.935145378
,people,0.916190863
,facial expression,0.910177827
,child,0.891818762
,group,0.890779138
,man,0.877490759
,adult,0.865897179
,multicultural,0.854277968
,laughing,0.843774259
,friendship,0.831204534
,education,0.807051539
,happiness,0.793543398
,adolescent,0.783850431
,unity,0.781835675
,outdoors,0.771893382
,interaction,0.769666195
,recreation,0.750921965
https://scontent.cdninstagram.com/t51.2885-15/e35/13381071_823191574492235_41031355_n.jpg,man,0.989231944
,group,0.987779617
,people,0.987309337
,restaurant,0.975945592
,furniture,0.971264124
,group,0.969846487
,facial expression,0.969250441
,adult,0.968885779
,woman,0.965497851
,sit,0.944347441
,bar,0.932159305
,room,0.916568398
,four,0.915670037
,employee,0.915474832
,table,0.910101414
,enjoyment,0.908721209
,wear,0.895471454
,several,0.885803819
,recreation,0.874012589
,drink,0.865214348
https://scontent.cdninstagram.com/t51.2885-15/e35/13395022_612601168899756_806675240_n.jpg,people,0.988233685
,facial expression,0.98503536
,adult,0.984960437
,man,0.984165192
,wear,0.974936903
,portrait,0.973898172
,happiness,0.9713462
,togetherness,0.958523393
,woman,0.950976968
,two,0.93874073
,group,0.927375674
,indoors,0.917802989
,enjoyment,0.908677518
,interaction,0.881238461
,confidence,0.876063347
,commerce,0.846191287
,satisfaction,0.827035069
,three,0.816657901
,employee,0.809349298
,daylight,0.806284785
https://scontent.cdninstagram.com/t51.2885-15/e35/13355611_1385761184772718_1728974777_n.jpg,people,0.943676412
,adult,0.92801702
,education,0.926075041
,business,0.908177972
,movie,0.901914775
,recreation,0.895421445
,school,0.893121123
,competition,0.888610661
,football,0.853019953
,soccer,0.832232833
,music,0.829817176
,man,0.825313866
,stadium,0.824718118
,chalkboard,0.822211027
,red carpet,0.817990482
,accomplishment,0.796107173
,horizontal,0.785304904
,illustration,0.784470499
,science,0.774326742
,festival,0.765300035
https://scontent.cdninstagram.com/t51.2885-15/e35/13381071_823191574492235_41031355_n.jpg,man,0.989231944
,group,0.987779617
,people,0.987309337
,restaurant,0.975945592
,furniture,0.971264124
,group,0.969846487
,facial expression,0.969250441
,adult,0.968885779
,woman,0.965497851
,sit,0.944347441
,bar,0.932159305
,room,0.916568398
,four,0.915670037
,employee,0.915474832
,table,0.910101414
,enjoyment,0.908721209
,wear,0.895471454
,several,0.885803819
,recreation,0.874012589
,drink,0.865214348
https://scontent.cdninstagram.com/t51.2885-15/e35/13534255_158741591205890_937994252_n.jpg,people,0.988560855
,group,0.976040363
,group,0.952886522
,woman,0.94941169
,music,0.938901067
,portrait,0.934310555
,man,0.919780731
,recreation,0.902537704
,band,0.899770617
,vehicle,0.882426858
,many,0.864966989
,adult,0.863934278
,singer,0.856000304
,school,0.842261672
,wear,0.840012789
,musician,0.822191715
,fame,0.808920264
,education,0.802624226
,competition,0.801107049
,performance,0.796872139
https://scontent.cdninstagram.com/t51.2885-15/e35/13395080_957781761005544_2023583121_n.jpg,woman,0.98697114
,people,0.977196872
,group,0.971381783
,facial expression,0.963836074
,man,0.958754182
,portrait,0.952178419
,family,0.946745634
,enjoyment,0.935504079
,four,0.916948915
,indoors,0.913133979
,five,0.910869002
,wear,0.907303333
,group,0.904374242
,friendship,0.902365923
,child,0.899919033
,togetherness,0.899747252
,adult,0.893171191
,school,0.866990805
,laughing,0.857491732
,music,0.85586822
https://scontent.cdninstagram.com/t51.2885-15/e35/13402439_261514470876930_992409160_n.jpg,column,0.998732448
,architecture,0.997070491
,support,0.99455899
,no person,0.994424045
,tower,0.978681028
,light,0.970338941
,indoors,0.969239473
,building,0.966954231
,classic,0.962611914
,perspective,0.958759785
,hallway,0.953454554
,city,0.941520691
,construction,0.940387964
,empty,0.934885144
,art,0.933816552
,museum,0.931833446
,travel,0.922208786
,justice,0.920939267
,courthouse,0.917519808
,room,0.915617585
https://scontent.cdninstagram.com/t51.2885-15/e35/13388617_597654027064314_636884883_n.jpg,group,0.992010415
,adult,0.969766259
,group,0.966892779
,woman,0.966632664
,people,0.960162401
,man,0.950378418
,wear,0.938322186
,business,0.912285566
,portrait,0.900338292
,facial expression,0.898465514
,leader,0.89411819
,room,0.888676643
,education,0.886761665
,meeting,0.87518537
,employee,0.859259486
,cooperation,0.85334301
,five,0.844000816
,happiness,0.834142268
,school,0.811585903
,many,0.811312556
https://scontent.cdninstagram.com/t51.2885-15/e35/13381226_462020194002341_2064027722_n.jpg,no person,0.993391633
,business,0.992052138
,paper,0.991195679
,finance,0.961770535
,money,0.956572294
,security,0.954576075
,identity,0.942379773
,indoors,0.935496569
,finance,0.933522344
,shopping,0.924401522
,success,0.920839787
,document,0.920533061
,text,0.917600393
,administration,0.913188815
,money,0.900584459
,vertical,0.89059186
,education,0.871458173
,horizontal,0.865370393
,wealth,0.864583611
,wood,0.860701919
https://scontent.cdninstagram.com/t51.2885-15/e35/13414219_1700009816940227_23454570_n.jpg,child,0.995411277
,people,0.991307557
,group,0.991191268
,woman,0.978592992
,happiness,0.964570522
,facial expression,0.954165518
,boy,0.948855758
,man,0.94864434
,family,0.941469669
,four,0.940513372
,adult,0.940146327
,togetherness,0.938981771
,enjoyment,0.93860209
,portrait,0.934532225
,three,0.92833209
,wear,0.927364111
,education,0.926482558
,offspring,0.918341458
,girl,0.917532086
,group,0.907034993
https://scontent.cdninstagram.com/t51.2885-15/e35/13388694_544608692385654_884680910_n.jpg,text,0.982941389
,illustration,0.950716853
,business,0.95050329
,people,0.949555278
,bill,0.948408425
,retro,0.945759773
,paper,0.928209066
,man,0.887169182
,adult,0.88470614
,art,0.879523814
,typography,0.873479724
,communication,0.869467556
,woman,0.869062662
,spherical,0.847583175
,desktop,0.83786875
,print,0.805181026
,no person,0.799858093
,old,0.78538394
,sign,0.780154109
,internet,0.76681602
https://scontent.cdninstagram.com/t51.2885-15/e35/13380981_1755986457981703_1201673424_n.jpg,party,0.914224386
,fun,0.904925764
,woman,0.885857463
,fashion,0.876591086
,people,0.864181876
,celebration,0.852717876
,illustration,0.849353671
,wear,0.844344437
,desktop,0.841333151
,footwear,0.839039803
,no person,0.837118506
,design,0.813219607
,color,0.804709375
,bright,0.800747275
,art,0.799540043
,music,0.795858979
,Christmas,0.792319417
,drink,0.789527714
,nightlife,0.78054142
,vector,0.780013204
https://scontent.cdninstagram.com/t51.2885-15/e35/13423516_607083582793375_2045954877_n.jpg,street,0.986219764
,city,0.976539373
,building,0.96630156
,architecture,0.95861268
,no person,0.957560778
,light,0.954854965
,travel,0.954108238
,urban,0.95194298
,road,0.945106149
,town,0.931368709
,evening,0.906900167
,illuminated,0.906202912
,outdoors,0.899056971
,square,0.886095166
,tourism,0.874838948
,house,0.867329478
,tourist,0.843751848
,pavement,0.839193165
,landscape,0.833009958
,dusk,0.806968212
https://scontent.cdninstagram.com/t51.2885-15/e35/13388694_544608692385654_884680910_n.jpg,text,0.982941389
,illustration,0.950716853
,business,0.95050329
,people,0.949555278
,bill,0.948408425
,retro,0.945759773
,paper,0.928209066
,man,0.887169182
,adult,0.88470614
,art,0.879523814
,typography,0.873479724
,communication,0.869467556
,woman,0.869062662
,spherical,0.847583175
,desktop,0.83786875
,print,0.805181026
,no person,0.799858093
,old,0.78538394
,sign,0.780154109
,internet,0.76681602
https://scontent.cdninstagram.com/t51.2885-15/e35/13381144_1282765038415416_1620354642_n.jpg,no person,0.980273783
,container,0.979870915
,old,0.960316956
,retro,0.9565835
,wood,0.945105672
,vintage,0.942094922
,storage,0.90154624
,furniture,0.884484649
,desktop,0.8734321
,still life,0.872458458
,antique,0.859711409
,empty,0.832711637
,wear,0.825713754
,pot,0.819535851
,obsolete,0.816212773
,ceramic,0.799910665
,lid,0.799041152
,decoration,0.787110448
,indoors,0.783790052
,traditional,0.783383965
https://scontent.cdninstagram.com/t51.2885-15/e35/13392898_1041442175938120_1511844776_n.jpg,water,0.984969139
,architecture,0.98110652
,no person,0.977937877
,house,0.975785077
,travel,0.974058807
,tree,0.956619143
,sky,0.952785254
,building,0.952019453
,city,0.950669169
,outdoors,0.946986556
,town,0.946744561
,old,0.92964828
,summer,0.924931407
,sight,0.919113815
,tourism,0.915492773
,landscape,0.902445614
,street,0.901206493
,nature,0.89797163
,sea,0.89612639
,wood,0.887204587
https://scontent.cdninstagram.com/t51.2885-15/e35/13355611_1385761184772718_1728974777_n.jpg,people,0.943676412
,adult,0.92801702
,education,0.926075041
,business,0.908177972
,movie,0.901914775
,recreation,0.895421445
,school,0.893121123
,competition,0.888610661
,football,0.853019953
,soccer,0.832232833
,music,0.829817176
,man,0.825313866
,stadium,0.824718118
,chalkboard,0.822211027
,red carpet,0.817990482
,accomplishment,0.796107173
,horizontal,0.785304904
,illustration,0.784470499
,science,0.774326742
,festival,0.765300035
https://scontent.cdninstagram.com/t51.2885-15/e35/13402477_1730959777121996_868782185_n.jpg,seat,0.997327149
,indoors,0.995598555
,furniture,0.992898464
,no person,0.991542578
,chair,0.99120909
,room,0.978984058
,interior design,0.955078244
,wood,0.933194101
,architecture,0.92806673
,sofa,0.92339325
,travel,0.918921709
,inside,0.917286396
,luxury,0.916485667
,table,0.91016221
,group,0.90910399
,lobby,0.905562639
,people,0.89621377
,empty,0.888865352
,hotel,0.87921834
,house,0.877694905
https://scontent.cdninstagram.com/t51.2885-15/e35/13355493_1765192363766232_1352336677_n.jpg,no person,0.993099928
,room,0.986200809
,indoors,0.985704899
,furniture,0.975092292
,table,0.974179268
,chair,0.972552419
,seat,0.965324044
,interior design,0.960879266
,home,0.95485884
,people,0.924065292
,inside,0.920173407
,architecture,0.887973666
,many,0.882615685
,house,0.852733314
,vehicle,0.8521173
,travel,0.85105443
,group,0.848878145
,container,0.843822718
,industry,0.824079096
,wood,0.790252805
https://scontent.cdninstagram.com/t51.2885-15/e35/13392837_137637393307693_895790429_n.jpg,travel,0.975572705
,evening,0.969808817
,no person,0.967626989
,city,0.964711487
,people,0.95952487
,water,0.958717585
,sunset,0.951956749
,architecture,0.945641339
,light,0.942226887
,flame,0.937182784
,festival,0.935382962
,outdoors,0.934595644
,dusk,0.931405544
,vehicle,0.90976572
,bridge,0.906771302
,group,0.900741935
,building,0.896724701
,many,0.88534379
,illuminated,0.871494174
,crowd,0.861971378
https://scontent.cdninstagram.com/t51.2885-15/e35/13473265_1641787179476311_730426800_n.jpg,no person,0.982625365
,city,0.978689075
,street,0.972234011
,travel,0.971330404
,architecture,0.970363498
,urban,0.942028821
,house,0.933660865
,building,0.928878069
,tourism,0.926905632
,town,0.925419569
,outdoors,0.917511702
,patio,0.913193941
,restaurant,0.881845951
,chair,0.870117843
,seat,0.857971311
,vacation,0.855397463
,landscape,0.834224343
,tourist,0.832041025
,water,0.830796003
,family,0.812189043
https://scontent.cdninstagram.com/t51.2885-15/e35/13329242_278378679218064_392900502_n.jpg,water,0.992992043
,no person,0.984300196
,travel,0.981769502
,city,0.971059144
,outdoors,0.957653642
,watercraft,0.951930046
,architecture,0.944026351
,river,0.929523885
,house,0.917338729
,building,0.914965987
,seashore,0.914643288
,daylight,0.913833261
,town,0.912329555
,reflection,0.908451796
,vehicle,0.899652243
,tourism,0.89579612
,sky,0.895033658
,sea,0.889131188
,harbor,0.875340044
,pier,0.856055379
https://scontent.cdninstagram.com/t51.2885-15/e35/13398962_635548349928417_842487955_n.jpg,illustration,0.960216165
,head,0.955728889
,biology,0.929761529
,nature,0.927173615
,art,0.907299101
,desktop,0.892136991
,graphic,0.871415854
,flora,0.862135768
,sketch,0.86038363
,no person,0.849724174
,tree,0.838674188
,science,0.831204653
,abstract,0.817530632
,paper,0.816979587
,isolated,0.807842135
,flower,0.8069489
,vector,0.799858272
,color,0.796751142
,design,0.794566393
,scientific,0.768627644
https://scontent.cdninstagram.com/t51.2885-15/e35/13388630_1095931257168360_206175807_n.jpg,water,0.989723563
,house,0.989041805
,no person,0.976353884
,architecture,0.976006866
,building,0.971250534
,travel,0.963280857
,outdoors,0.962581158
,city,0.96192503
,home,0.960550189
,town,0.938959062
,waterfront,0.929897189
,river,0.926735878
,street,0.919043839
,urban,0.897361398
,canal,0.895749271
,tourism,0.881500363
,daylight,0.879711151
,sea,0.879659057
,seashore,0.867225945
,harbor,0.862157702
https://scontent.cdninstagram.com/t51.2885-15/e35/13402477_1730959777121996_868782185_n.jpg,seat,0.997327149
,indoors,0.995598555
,furniture,0.992898464
,no person,0.991542578
,chair,0.99120909
,room,0.978984058
,interior design,0.955078244
,wood,0.933194101
,architecture,0.92806673
,sofa,0.92339325
,travel,0.918921709
,inside,0.917286396
,luxury,0.916485667
,table,0.91016221
,group,0.90910399
,lobby,0.905562639
,people,0.89621377
,empty,0.888865352
,hotel,0.87921834
,house,0.877694905
https://scontent.cdninstagram.com/t51.2885-15/e35/13473265_1641787179476311_730426800_n.jpg,no person,0.982625365
,city,0.978689075
,street,0.972234011
,travel,0.971330404
,architecture,0.970363498
,urban,0.942028821
,house,0.933660865
,building,0.928878069
,tourism,0.926905632
,town,0.925419569
,outdoors,0.917511702
,patio,0.913193941
,restaurant,0.881845951
,chair,0.870117843
,seat,0.857971311
,vacation,0.855397463
,landscape,0.834224343
,tourist,0.832041025
,water,0.830796003
,family,0.812189043
https://scontent.cdninstagram.com/t51.2885-15/e35/13423606_1014772491946091_210370154_n.jpg,water,0.985171735
,travel,0.982856154
,no person,0.976777494
,architecture,0.95996356
,city,0.958995461
,river,0.958682299
,people,0.947429478
,tourism,0.935068011
,house,0.93324548
,town,0.932831228
,building,0.93170321
,outdoors,0.928999186
,canal,0.91599381
,tree,0.907568991
,street,0.90492779
,bridge,0.894428611
,landscape,0.89269197
,sky,0.885225177
,vehicle,0.872180998
,old,0.856538892
https://scontent.cdninstagram.com/t51.2885-15/e35/13355493_1765192363766232_1352336677_n.jpg,no person,0.993099928
,room,0.986200809
,indoors,0.985704899
,furniture,0.975092292
,table,0.974179268
,chair,0.972552419
,seat,0.965324044
,interior design,0.960879266
,home,0.95485884
,people,0.924065292
,inside,0.920173407
,architecture,0.887973666
,many,0.882615685
,house,0.852733314
,vehicle,0.8521173
,travel,0.85105443
,group,0.848878145
,container,0.843822718
,industry,0.824079096
,wood,0.790252805
https://scontent.cdninstagram.com/t51.2885-15/e35/13408921_237375816644201_2026126345_n.jpg,woman,0.991722167
,people,0.977561116
,two,0.977103829
,togetherness,0.972580433
,man,0.965670347
,embrace,0.950438142
,wear,0.948848426
,facial expression,0.942710996
,portrait,0.925670087
,indoors,0.917106807
,love,0.912622571
,music,0.908139586
,enjoyment,0.900536418
,family,0.895667434
,affection,0.893109798
,recreation,0.885891676
,three,0.88242954
,adult,0.869897842
,laughing,0.862282634
,multicultural,0.855159402
https://scontent.cdninstagram.com/t51.2885-15/e35/13423516_607083582793375_2045954877_n.jpg,street,0.986219764
,city,0.976539373
,building,0.96630156
,architecture,0.95861268
,no person,0.957560778
,light,0.954854965
,travel,0.954108238
,urban,0.95194298
,road,0.945106149
,town,0.931368709
,evening,0.906900167
,illuminated,0.906202912
,outdoors,0.899056971
,square,0.886095166
,tourism,0.874838948
,house,0.867329478
,tourist,0.843751848
,pavement,0.839193165
,landscape,0.833009958
,dusk,0.806968212
https://scontent.cdninstagram.com/t51.2885-15/e35/13381144_1282765038415416_1620354642_n.jpg,no person,0.980273783
,container,0.979870915
,old,0.960316956
,retro,0.9565835
,wood,0.945105672
,vintage,0.942094922
,storage,0.90154624
,furniture,0.884484649
,desktop,0.8734321
,still life,0.872458458
,antique,0.859711409
,empty,0.832711637
,wear,0.825713754
,pot,0.819535851
,obsolete,0.816212773
,ceramic,0.799910665
,lid,0.799041152
,decoration,0.787110448
,indoors,0.783790052
,traditional,0.783383965
https://scontent.cdninstagram.com/t51.2885-15/e35/13385797_953817221394249_404607774_n.jpg,street,0.993074775
,town,0.98329246
,city,0.977614641
,building,0.977165222
,architecture,0.974024713
,no person,0.968770683
,stock,0.962941766
,road,0.961486578
,travel,0.952915192
,urban,0.952840924
,house,0.951147676
,commerce,0.947903991
,pavement,0.940568089
,home,0.917862177
,daylight,0.91186136
,outdoors,0.910590529
,vehicle,0.888969243
,people,0.887021184
,tourism,0.869291067
,car,0.81159997
https://scontent.cdninstagram.com/t51.2885-15/e35/13398868_626884724132981_2109689801_n.jpg,group,0.99712944
,people,0.989780188
,woman,0.983283758
,family,0.976870298
,adult,0.973906398
,man,0.966515779
,child,0.961674809
,group,0.957245588
,many,0.926809371
,friendship,0.919165671
,wear,0.918611526
,offspring,0.907360196
,portrait,0.905237436
,facial expression,0.895158529
,education,0.894241452
,school,0.879238367
,five,0.871658444
,togetherness,0.860880792
,leader,0.848010421
,four,0.845909834
https://scontent.cdninstagram.com/t51.2885-15/e35/13391129_1766355293599608_1705816248_n.jpg,architecture,0.990988016
,sky,0.978103697
,glass,0.973671019
,modern,0.972708702
,downtown,0.968669832
,building,0.968390584
,city,0.966880441
,contemporary,0.961959958
,window,0.953142047
,no person,0.940831661
,urban,0.93673867
,technology,0.929894328
,business,0.924278557
,steel,0.916992664
,travel,0.913537145
,office,0.904364347
,expression,0.901195586
,outdoors,0.898015261
,futuristic,0.897924006
,perspective,0.893813968
https://scontent.cdninstagram.com/t51.2885-15/e35/13385797_953817221394249_404607774_n.jpg,street,0.993074775
,town,0.98329246
,city,0.977614641
,building,0.977165222
,architecture,0.974024713
,no person,0.968770683
,stock,0.962941766
,road,0.961486578
,travel,0.952915192
,urban,0.952840924
,house,0.951147676
,commerce,0.947903991
,pavement,0.940568089
,home,0.917862177
,daylight,0.91186136
,outdoors,0.910590529
,vehicle,0.888969243
,people,0.887021184
,tourism,0.869291067
,car,0.81159997
https://scontent.cdninstagram.com/t51.2885-15/e35/13423606_1014772491946091_210370154_n.jpg,water,0.985171735
,travel,0.982856154
,no person,0.976777494
,architecture,0.95996356
,city,0.958995461
,river,0.958682299
,people,0.947429478
,tourism,0.935068011
,house,0.93324548
,town,0.932831228
,building,0.93170321
,outdoors,0.928999186
,canal,0.91599381
,tree,0.907568991
,street,0.90492779
,bridge,0.894428611
,landscape,0.89269197
,sky,0.885225177
,vehicle,0.872180998
,old,0.856538892
https://scontent.cdninstagram.com/t51.2885-15/e35/13423489_295408504127203_688614982_n.jpg,city,0.997956634
,cityscape,0.996035695
,skyline,0.995832324
,architecture,0.994434953
,roof,0.988393843
,aerial,0.987996042
,building,0.979472458
,panorama,0.977535248
,urban,0.97532177
,rooftop,0.973945856
,travel,0.971646488
,no person,0.967843592
,downtown,0.958261728
,town,0.957540214
,skyscraper,0.945163608
,house,0.930670023
,panoramic,0.920391738
,sight,0.912228703
,outdoors,0.88917768
,river,0.881366313
https://scontent.cdninstagram.com/t51.2885-15/e35/13267587_255736414783194_1691051075_n.jpg,group,0.991359293
,group,0.98720479
,man,0.985998034
,restaurant,0.975667119
,people,0.969796479
,woman,0.961320281
,adult,0.959048033
,several,0.906094432
,music,0.890472591
,enjoyment,0.884881377
,vehicle,0.8697716
,four,0.868839741
,bar,0.862778425
,five,0.857389152
,portrait,0.84901309
,table,0.845803499
,facial expression,0.838883817
,three,0.838091612
,many,0.833654523
,education,0.832674384
https://scontent.cdninstagram.com/t51.2885-15/e35/13267587_255736414783194_1691051075_n.jpg,group,0.991359293
,group,0.98720479
,man,0.985998034
,restaurant,0.975667119
,people,0.969796479
,woman,0.961320281
,adult,0.959048033
,several,0.906094432
,music,0.890472591
,enjoyment,0.884881377
,vehicle,0.8697716
,four,0.868839741
,bar,0.862778425
,five,0.857389152
,portrait,0.84901309
,table,0.845803499
,facial expression,0.838883817
,three,0.838091612
,many,0.833654523
,education,0.832674384
https://scontent.cdninstagram.com/t51.2885-15/e35/13395080_957781761005544_2023583121_n.jpg,woman,0.98697114
,people,0.977196872
,group,0.971381783
,facial expression,0.963836074
,man,0.958754182
,portrait,0.952178419
,family,0.946745634
,enjoyment,0.935504079
,four,0.916948915
,indoors,0.913133979
,five,0.910869002
,wear,0.907303333
,group,0.904374242
,friendship,0.902365923
,child,0.899919033
,togetherness,0.899747252
,adult,0.893171191
,school,0.866990805
,laughing,0.857491732
,music,0.85586822
https://scontent.cdninstagram.com/t51.2885-15/e35/13385624_1755707528003967_1935520004_n.jpg,architecture,0.989936709
,temple,0.981352091
,building,0.978652596
,travel,0.967915773
,no person,0.956883252
,religion,0.9368788
,traditional,0.931957364
,street,0.930583894
,city,0.929042816
,outdoors,0.928391457
,roof,0.925092518
,sky,0.917422533
,castle,0.91234237
,people,0.908939362
,Buddha,0.891297579
,house,0.886179566
,culture,0.883532643
,tourism,0.874224484
,old,0.848765016
,pagoda,0.84273231
https://scontent.cdninstagram.com/t51.2885-15/e35/13260856_1022054364556953_1209164514_n.jpg,food,0.991614103
,dinner,0.976187646
,meat,0.971830368
,no person,0.970016241
,lunch,0.962759972
,delicious,0.957190633
,meal,0.94700402
,beef,0.944460392
,pork,0.939244151
,nutrition,0.909713626
,hot,0.908479095
,cooking,0.905646205
,dish,0.895205021
,traditional,0.886677027
,cuisine,0.882904887
,vegetable,0.865429997
,plate,0.842692137
,sauce,0.842646956
,tasty,0.833772659
,grow,0.813535094
https://scontent.cdninstagram.com/t51.2885-15/e35/13413238_243216326046677_572217935_n.jpg,tree,0.984382153
,landscape,0.960050821
,architecture,0.942848504
,house,0.940856457
,wood,0.939263821
,building,0.935742736
,no person,0.930316806
,travel,0.924375892
,garden,0.917307019
,nature,0.907335758
,roof,0.905482352
,flora,0.896820068
,mountain,0.891257823
,outdoors,0.884931803
,scenic,0.864685059
,park,0.864121974
,hill,0.858641565
,wall,0.831911504
,bridge,0.8303653
,leaf,0.825991392
https://scontent.cdninstagram.com/t51.2885-15/e35/13329242_278378679218064_392900502_n.jpg,water,0.992992043
,no person,0.984300196
,travel,0.981769502
,city,0.971059144
,outdoors,0.957653642
,watercraft,0.951930046
,architecture,0.944026351
,river,0.929523885
,house,0.917338729
,building,0.914965987
,seashore,0.914643288
,daylight,0.913833261
,town,0.912329555
,reflection,0.908451796
,vehicle,0.899652243
,tourism,0.89579612
,sky,0.895033658
,sea,0.889131188
,harbor,0.875340044
,pier,0.856055379
https://scontent.cdninstagram.com/t51.2885-15/e35/13388750_204585346602440_308850237_n.jpg,bridge,0.991919279
,no person,0.977246165
,city,0.973707736
,street,0.973516941
,sky,0.968054712
,travel,0.964988232
,road,0.962348282
,architecture,0.961433411
,transportation system,0.950561047
,building,0.942300081
,vehicle,0.935221672
,outdoors,0.925063491
,sunset,0.91915977
,light,0.913494468
,train,0.905088663
,people,0.899644494
,water,0.896999359
,traffic,0.887577057
,flyover,0.881406248
,railway,0.878306627
https://scontent.cdninstagram.com/t51.2885-15/e35/13391129_1766355293599608_1705816248_n.jpg,architecture,0.990988016
,sky,0.978103697
,glass,0.973671019
,modern,0.972708702
,downtown,0.968669832
,building,0.968390584
,city,0.966880441
,contemporary,0.961959958
,window,0.953142047
,no person,0.940831661
,urban,0.93673867
,technology,0.929894328
,business,0.924278557
,steel,0.916992664
,travel,0.913537145
,office,0.904364347
,expression,0.901195586
,outdoors,0.898015261
,futuristic,0.897924006
,perspective,0.893813968
https://scontent.cdninstagram.com/t51.2885-15/e35/13437332_1644911469163650_220569539_n.jpg,city,0.996570706
,architecture,0.985729396
,cityscape,0.983441949
,building,0.980301023
,travel,0.978970468
,no person,0.968952954
,skyscraper,0.962845087
,panoramic,0.960044265
,skyline,0.957509398
,urban,0.946887493
,light,0.9436059
,road,0.937788486
,transportation system,0.934466839
,tower,0.918258667
,evening,0.913016319
,river,0.895498872
,town,0.893998146
,outdoors,0.891168416
,dusk,0.888387322
,landmark,0.879609168
https://scontent.cdninstagram.com/t51.2885-15/e35/13388750_204585346602440_308850237_n.jpg,bridge,0.991919279
,no person,0.977246165
,city,0.973707736
,street,0.973516941
,sky,0.968054712
,travel,0.964988232
,road,0.962348282
,architecture,0.961433411
,transportation system,0.950561047
,building,0.942300081
,vehicle,0.935221672
,outdoors,0.925063491
,sunset,0.91915977
,light,0.913494468
,train,0.905088663
,people,0.899644494
,water,0.896999359
,traffic,0.887577057
,flyover,0.881406248
,railway,0.878306627
https://scontent.cdninstagram.com/t51.2885-15/e35/13381226_462020194002341_2064027722_n.jpg,no person,0.993391633
,business,0.992052138
,paper,0.991195679
,finance,0.961770535
,money,0.956572294
,security,0.954576075
,identity,0.942379773
,indoors,0.935496569
,finance,0.933522344
,shopping,0.924401522
,success,0.920839787
,document,0.920533061
,text,0.917600393
,administration,0.913188815
,money,0.900584459
,vertical,0.89059186
,education,0.871458173
,horizontal,0.865370393
,wealth,0.864583611
,wood,0.860701919
https://scontent.cdninstagram.com/t51.2885-15/e35/13408722_1246304968743765_1447703665_n.jpg,flag,0.988915563
,banner,0.972950578
,illustration,0.955957472
,united,0.950269222
,stripe,0.94797343
,desktop,0.946581483
,patriotism,0.941272199
,retro,0.935843885
,symbol,0.924657762
,vintage,0.914748967
,paper,0.902335763
,national,0.883712709
,democracy,0.88023448
,union,0.877658784
,no person,0.870185137
,country,0.866157353
,design,0.864448905
,quarter,0.863041997
,freedom,0.856098533
,old,0.850498796
https://scontent.cdninstagram.com/t51.2885-15/e35/13437339_1735439543339689_1514437885_n.jpg,sky,0.99515152
,no person,0.985645831
,outdoors,0.980852842
,tower,0.972619772
,architecture,0.969958901
,lighthouse,0.96940887
,daylight,0.968796611
,travel,0.967787862
,city,0.955459654
,light,0.954617381
,building,0.947346568
,high,0.94616735
,tallest,0.915173769
,landscape,0.893476844
,lamp,0.888991892
,sight,0.885070741
,one,0.881954908
,landmark,0.865317225
,guidance,0.862867832
,blue sky,0.860161364
https://scontent.cdninstagram.com/t51.2885-15/e35/13388630_1095931257168360_206175807_n.jpg,water,0.989723563
,house,0.989041805
,no person,0.976353884
,architecture,0.976006866
,building,0.971250534
,travel,0.963280857
,outdoors,0.962581158
,city,0.96192503
,home,0.960550189
,town,0.938959062
,waterfront,0.929897189
,river,0.926735878
,street,0.919043839
,urban,0.897361398
,canal,0.895749271
,tourism,0.881500363
,daylight,0.879711151
,sea,0.879659057
,seashore,0.867225945
,harbor,0.862157702
https://scontent.cdninstagram.com/t51.2885-15/e35/13380981_1755986457981703_1201673424_n.jpg,party,0.914224386
,fun,0.904925764
,woman,0.885857463
,fashion,0.876591086
,people,0.864181876
,celebration,0.852717876
,illustration,0.849353671
,wear,0.844344437
,desktop,0.841333151
,footwear,0.839039803
,no person,0.837118506
,design,0.813219607
,color,0.804709375
,bright,0.800747275
,art,0.799540043
,music,0.795858979
,Christmas,0.792319417
,drink,0.789527714
,nightlife,0.78054142
,vector,0.780013204
https://scontent.cdninstagram.com/t51.2885-15/e35/13260856_1022054364556953_1209164514_n.jpg,food,0.991614103
,dinner,0.976187646
,meat,0.971830368
,no person,0.970016241
,lunch,0.962759972
,delicious,0.957190633
,meal,0.94700402
,beef,0.944460392
,pork,0.939244151
,nutrition,0.909713626
,hot,0.908479095
,cooking,0.905646205
,dish,0.895205021
,traditional,0.886677027
,cuisine,0.882904887
,vegetable,0.865429997
,plate,0.842692137
,sauce,0.842646956
,tasty,0.833772659
,grow,0.813535094
https://scontent.cdninstagram.com/t51.2885-15/e35/13392837_137637393307693_895790429_n.jpg,travel,0.975572705
,evening,0.969808817
,no person,0.967626989
,city,0.964711487
,people,0.95952487
,water,0.958717585
,sunset,0.951956749
,architecture,0.945641339
,light,0.942226887
,flame,0.937182784
,festival,0.935382962
,outdoors,0.934595644
,dusk,0.931405544
,vehicle,0.90976572
,bridge,0.906771302
,group,0.900741935
,building,0.896724701
,many,0.88534379
,illuminated,0.871494174
,crowd,0.861971378
https://scontent.cdninstagram.com/t51.2885-15/e35/13423475_1037964042923999_1596853430_n.jpg,architecture,0.988778949
,building,0.976339579
,no person,0.974959612
,modern,0.969284415
,urban,0.953310311
,city,0.948116779
,travel,0.943988204
,glass,0.936743021
,window,0.934179306
,seat,0.929566503
,luxury,0.928659618
,public,0.919398904
,outdoors,0.916312635
,chair,0.911929905
,indoors,0.909177303
,house,0.904929817
,contemporary,0.884055316
,construction,0.88331461
,business,0.881486833
,people,0.881224871
https://scontent.cdninstagram.com/t51.2885-15/e35/13437339_1735439543339689_1514437885_n.jpg,sky,0.99515152
,no person,0.985645831
,outdoors,0.980852842
,tower,0.972619772
,architecture,0.969958901
,lighthouse,0.96940887
,daylight,0.968796611
,travel,0.967787862
,city,0.955459654
,light,0.954617381
,building,0.947346568
,high,0.94616735
,tallest,0.915173769
,landscape,0.893476844
,lamp,0.888991892
,sight,0.885070741
,one,0.881954908
,landmark,0.865317225
,guidance,0.862867832
,blue sky,0.860161364
https://scontent.cdninstagram.com/t51.2885-15/e35/13392898_1041442175938120_1511844776_n.jpg,water,0.984969139
,architecture,0.98110652
,no person,0.977937877
,house,0.975785077
,travel,0.974058807
,tree,0.956619143
,sky,0.952785254
,building,0.952019453
,city,0.950669169
,outdoors,0.946986556
,town,0.946744561
,old,0.92964828
,summer,0.924931407
,sight,0.919113815
,tourism,0.915492773
,landscape,0.902445614
,street,0.901206493
,nature,0.89797163
,sea,0.89612639
,wood,0.887204587
https://scontent.cdninstagram.com/t51.2885-15/e35/13423475_1037964042923999_1596853430_n.jpg,architecture,0.988778949
,building,0.976339579
,no person,0.974959612
,modern,0.969284415
,urban,0.953310311
,city,0.948116779
,travel,0.943988204
,glass,0.936743021
,window,0.934179306
,seat,0.929566503
,luxury,0.928659618
,public,0.919398904
,outdoors,0.916312635
,chair,0.911929905
,indoors,0.909177303
,house,0.904929817
,contemporary,0.884055316
,construction,0.88331461
,business,0.881486833
,people,0.881224871
https://scontent.cdninstagram.com/t51.2885-15/e35/13381113_725364534232970_306320129_n.jpg,train,0.994769394
,transportation system,0.994001746
,railway,0.990839779
,travel,0.985769868
,train,0.983481765
,vehicle,0.978989244
,no person,0.978213429
,road,0.957037449
,outdoors,0.956694245
,track,0.949831605
,railway,0.925791264
,city,0.92534709
,industry,0.923688591
,urban,0.916436315
,shipment,0.91590333
,traffic,0.908062935
,engine,0.904394209
,street,0.903294206
,horizontal,0.893064022
,tourism,0.891676068
https://scontent.cdninstagram.com/t51.2885-15/e35/13413238_243216326046677_572217935_n.jpg,tree,0.984382153
,landscape,0.960050821
,architecture,0.942848504
,house,0.940856457
,wood,0.939263821
,building,0.935742736
,no person,0.930316806
,travel,0.924375892
,garden,0.917307019
,nature,0.907335758
,roof,0.905482352
,flora,0.896820068
,mountain,0.891257823
,outdoors,0.884931803
,scenic,0.864685059
,park,0.864121974
,hill,0.858641565
,wall,0.831911504
,bridge,0.8303653
,leaf,0.825991392
https://scontent.cdninstagram.com/t51.2885-15/e35/13414219_1700009816940227_23454570_n.jpg,child,0.995411277
,people,0.991307557
,group,0.991191268
,woman,0.978592992
,happiness,0.964570522
,facial expression,0.954165518
,boy,0.948855758
,man,0.94864434
,family,0.941469669
,four,0.940513372
,adult,0.940146327
,togetherness,0.938981771
,enjoyment,0.93860209
,portrait,0.934532225
,three,0.92833209
,wear,0.927364111
,education,0.926482558
,offspring,0.918341458
,girl,0.917532086
,group,0.907034993
https://scontent.cdninstagram.com/t51.2885-15/e35/13398868_1042167892528363_73956029_n.jpg,travel,0.968188763
,architecture,0.967396379
,no person,0.967059135
,street,0.965486586
,building,0.943511188
,house,0.941557705
,hotel,0.939177275
,chair,0.936777353
,patio,0.934553087
,luxury,0.933880925
,vacation,0.925694942
,city,0.925200999
,tourism,0.918728709
,town,0.91325295
,outdoors,0.906237721
,pavement,0.900945365
,seat,0.896696687
,urban,0.888979316
,road,0.876689494
,resort,0.876003802
https://scontent.cdninstagram.com/t51.2885-15/e35/13381113_725364534232970_306320129_n.jpg,train,0.994769394
,transportation system,0.994001746
,railway,0.990839779
,travel,0.985769868
,train,0.983481765
,vehicle,0.978989244
,no person,0.978213429
,road,0.957037449
,outdoors,0.956694245
,track,0.949831605
,railway,0.925791264
,city,0.92534709
,industry,0.923688591
,urban,0.916436315
,shipment,0.91590333
,traffic,0.908062935
,engine,0.904394209
,street,0.903294206
,horizontal,0.893064022
,tourism,0.891676068
https://scontent.cdninstagram.com/t51.2885-15/e35/13395022_612601168899756_806675240_n.jpg,people,0.988233685
,facial expression,0.98503536
,adult,0.984960437
,man,0.984165192
,wear,0.974936903
,portrait,0.973898172
,happiness,0.9713462
,togetherness,0.958523393
,woman,0.950976968
,two,0.93874073
,group,0.927375674
,indoors,0.917802989
,enjoyment,0.908677518
,interaction,0.881238461
,confidence,0.876063347
,commerce,0.846191287
,satisfaction,0.827035069
,three,0.816657901
,employee,0.809349298
,daylight,0.806284785
https://scontent.cdninstagram.com/t51.2885-15/e35/13320220_1703391819920324_472635349_n.jpg,food,0.990836501
,no person,0.98776561
,dinner,0.972994626
,poultry,0.963527501
,delicious,0.950575829
,lunch,0.950547576
,meat,0.945996463
,grow,0.945782721
,chicken,0.945411086
,vegetable,0.921488404
,cooking,0.903741121
,nutrition,0.901631117
,root vegetable,0.89072597
,roasting,0.881793499
,meal,0.867380261
,potato,0.856021047
,parsley,0.853534937
,dish,0.837041974
,pork,0.829942584
,garlic,0.808836699
https://scontent.cdninstagram.com/t51.2885-15/e35/13398868_1042167892528363_73956029_n.jpg,travel,0.968188763
,architecture,0.967396379
,no person,0.967059135
,street,0.965486586
,building,0.943511188
,house,0.941557705
,hotel,0.939177275
,chair,0.936777353
,patio,0.934553087
,luxury,0.933880925
,vacation,0.925694942
,city,0.925200999
,tourism,0.918728709
,town,0.91325295
,outdoors,0.906237721
,pavement,0.900945365
,seat,0.896696687
,urban,0.888979316
,road,0.876689494
,resort,0.876003802
https://scontent.cdninstagram.com/t51.2885-15/e35/13408722_1246304968743765_1447703665_n.jpg,flag,0.988915563
,banner,0.972950578
,illustration,0.955957472
,united,0.950269222
,stripe,0.94797343
,desktop,0.946581483
,patriotism,0.941272199
,retro,0.935843885
,symbol,0.924657762
,vintage,0.914748967
,paper,0.902335763
,national,0.883712709
,democracy,0.88023448
,union,0.877658784
,no person,0.870185137
,country,0.866157353
,design,0.864448905
,quarter,0.863041997
,freedom,0.856098533
,old,0.850498796
https://scontent.cdninstagram.com/t51.2885-15/e35/13398962_635548349928417_842487955_n.jpg,illustration,0.960216165
,head,0.955728889
,biology,0.929761529
,nature,0.927173615
,art,0.907299101
,desktop,0.892136991
,graphic,0.871415854
,flora,0.862135768
,sketch,0.86038363
,no person,0.849724174
,tree,0.838674188
,science,0.831204653
,abstract,0.817530632
,paper,0.816979587
,isolated,0.807842135
,flower,0.8069489
,vector,0.799858272
,color,0.796751142
,design,0.794566393
,scientific,0.768627644
https://scontent.cdninstagram.com/t51.2885-15/e35/13437332_1644911469163650_220569539_n.jpg,city,0.996570706
,architecture,0.985729396
,cityscape,0.983441949
,building,0.980301023
,travel,0.978970468
,no person,0.968952954
,skyscraper,0.962845087
,panoramic,0.960044265
,skyline,0.957509398
,urban,0.946887493
,light,0.9436059
,road,0.937788486
,transportation system,0.934466839
,tower,0.918258667
,evening,0.913016319
,river,0.895498872
,town,0.893998146
,outdoors,0.891168416
,dusk,0.888387322
,landmark,0.879609168
https://scontent.cdninstagram.com/t51.2885-15/e35/13320220_1703391819920324_472635349_n.jpg,food,0.990836501
,no person,0.98776561
,dinner,0.972994626
,poultry,0.963527501
,delicious,0.950575829
,lunch,0.950547576
,meat,0.945996463
,grow,0.945782721
,chicken,0.945411086
,vegetable,0.921488404
,cooking,0.903741121
,nutrition,0.901631117
,root vegetable,0.89072597
,roasting,0.881793499
,meal,0.867380261
,potato,0.856021047
,parsley,0.853534937
,dish,0.837041974
,pork,0.829942584
,garlic,0.808836699
https://scontent.cdninstagram.com/t51.2885-15/e35/13385624_1755707528003967_1935520004_n.jpg,architecture,0.989936709
,temple,0.981352091
,building,0.978652596
,travel,0.967915773
,no person,0.956883252
,religion,0.9368788
,traditional,0.931957364
,street,0.930583894
,city,0.929042816
,outdoors,0.928391457
,roof,0.925092518
,sky,0.917422533
,castle,0.91234237
,people,0.908939362
,Buddha,0.891297579
,house,0.886179566
,culture,0.883532643
,tourism,0.874224484
,old,0.848765016
,pagoda,0.84273231
https://scontent.cdninstagram.com/t51.2885-15/e35/13413282_1580503842247752_2097383772_n.jpg,no person,0.942999661
,business,0.929644465
,text,0.90759927
,light,0.903930306
,sign,0.886518717
,sign,0.860896945
,technology,0.834872365
,symbol,0.834643185
,illustration,0.824297011
,number,0.822755516
,computer,0.766121507
,desktop,0.759750962
,creativity,0.75878334
,abstract,0.741312861
,commerce,0.70960331
,people,0.704169273
,display,0.701552033
,offense,0.687259793
,bill,0.64991498
,stock,0.649309516
