url,class,score,,,,,,,,
https://scontent.cdninstagram.com/t51.2885-15/e15/12717093_789257824512863_2005763443_n.jpg,adult,0.9950627684593201,Food,Relationships,,,"Meal time",Friends,,
,people,0.9896498918533325,,,,,,,,
,woman,0.9887775182723999,,,,,,,,
,table,0.9827450513839722,,,,,,,,
,group,0.9774725437164307,,,,,,,,
,man,0.9728670120239258,,,,,,,,
,room,0.9691951274871826,,,,,,,,
,indoors,0.962378978729248,,,,,,,,
,child,0.9541409015655518,,,,,,,,
,restaurant,0.9327155351638794,,,,,,,,
,happiness,0.9293256998062134,,,,,,,,
,meal,0.918160080909729,,,,,,,,
,furniture,0.9073706865310669,,,,,,,,
,education,0.9047664999961853,,,,,,,,
,family,0.9035041332244873,,,,,,,,
,togetherness,0.8916428089141846,,,,,,,,
,"facial expression",0.88508141040802,,,,,,,,
,drink,0.8765864372253418,,,,,,,,
,girl,0.8705236315727234,,,,,,,,
,enjoyment,0.8668880462646484,,,,,,,,
https://scontent.cdninstagram.com/t51.2885-15/e35/12523559_967360609998608_798141851_n.jpg,business,0.9885245561599731,Business,,,,Business-s,,,
,finance,0.9756557941436768,,,,,,,,
,money,0.9721497297286987,,,,,,,,
,"no person",0.9638696312904358,,,,,,,,
,finance,0.9633721113204956,,,,,,,,
,security,0.9571567177772522,,,,,,,,
,safety,0.9561591148376465,,,,,,,,
,security,0.9150346517562866,,,,,,,,
,healthcare,0.8925784826278687,,,,,,,,
,wealth,0.8886358737945557,,,,,,,,
,emergency,0.8882791996002197,,,,,,,,
,number,0.8841403126716614,,,,,,,,
,bank,0.8824084401130676,,,,,,,,
,recession,0.871017575263977,,,,,,,,
,text,0.8636153936386108,,,,,,,,
,industry,0.8577554821968079,,,,,,,,
,savings,0.8539333939552307,,,,,,,,
,paper,0.8399717211723328,,,,,,,,
,economy,0.8389140367507935,,,,,,,,
,commerce,0.833199143409729,,,,,,,,
https://scontent.cdninstagram.com/t51.2885-15/e35/12724816_1656249587982924_752370650_n.jpg,woman,0.9848494529724121,Food,Recreation,Relationships,,"Meal time",Recreation-s,Friends,
,food,0.9817516207695007,,,,,,,,
,people,0.9610096216201782,,,,,,,,
,dinner,0.954312801361084,,,,,,,,
,cooking,0.9526904225349426,,,,,,,,
,lunch,0.9489907026290894,,,,,,,,
,meal,0.9421272277832031,,,,,,,,
,indoors,0.9418783187866211,,,,,,,,
,adult,0.9252798557281494,,,,,,,,
,tea,0.920474648475647,,,,,,,,
,restaurant,0.916762113571167,,,,,,,,
,table,0.9161097407341003,,,,,,,,
,girl,0.9149950742721558,,,,,,,,
,drink,0.9119524955749512,,,,,,,,
,breakfast,0.9071454405784607,,,,,,,,
,plate,0.8949997425079346,,,,,,,,
,child,0.8905848860740662,,,,,,,,
,young,0.8897378444671631,,,,,,,,
,coffee,0.8872308731079102,,,,,,,,
,traditional,0.8770835995674133,,,,,,,,
https://scontent.cdninstagram.com/t51.2885-15/e35/13266654_1028249560589318_1584497460_n.jpg,people,0.989587664604187,Recreation,,,,Adventure,,,
,vehicle,0.9736337661743164,,,,,,,,
,stock,0.9520721435546875,,,,,,,,
,exhibition,0.93767911195755,,,,,,,,
,commerce,0.926254153251648,,,,,,,,
,group,0.9241851568222046,,,,,,,,
,city,0.9114937782287598,,,,,,,,
,man,0.8952183723449707,,,,,,,,
,adult,0.8872106075286865,,,,,,,,
,tourist,0.8796900510787964,,,,,,,,
,shopping,0.8783056735992432,,,,,,,,
,woman,0.8619251251220703,,,,,,,,
,industry,0.8598909378051758,,,,,,,,
,indoors,0.8469632267951965,,,,,,,,
,many,0.8451584577560425,,,,,,,,
,street,0.8441072702407837,,,,,,,,
,"transportation system",0.8401702046394348,,,,,,,,
,military,0.8294546604156494,,,,,,,,
,wear,0.8290510177612305,,,,,,,,
,business,0.8288800716400146,,,,,,,,
https://scontent.cdninstagram.com/t51.2885-15/e35/13108924_1071028199637826_1831620071_n.jpg,"no person",0.9855639338493347,Cute,Commerce,,,Cute,"Product/brand shots",,
,illustration,0.9663620591163635,,,,,,,,
,box,0.9498304724693298,,,,,,,,
,retro,0.9394401907920837,,,,,,,,
,family,0.9376785159111023,,,,,,,,
,wealth,0.9331268668174744,,,,,,,,
,vector,0.9316617846488953,,,,,,,,
,woman,0.9301779866218567,,,,,,,,
,indoors,0.9241012334823608,,,,,,,,
,"interior design",0.9095897674560547,,,,,,,,
,cute,0.9093624353408813,,,,,,,,
,coffee,0.9040209054946899,,,,,,,,
,money,0.9034202098846436,,,,,,,,
,child,0.901018500328064,,,,,,,,
,savings,0.8965569734573364,,,,,,,,
,fashion,0.8920528888702393,,,,,,,,
,shopping,0.8897111415863037,,,,,,,,
,tea,0.8831470012664795,,,,,,,,
,sketch,0.8627465963363647,,,,,,,,
,design,0.8588161468505859,,,,,,,,
https://scontent.cdninstagram.com/t51.2885-15/e35/10375752_469472153260478_464587617_n.jpg,seafood,0.9993581175804138,Food,,,,"Meal time",,,
,fish,0.9972753524780273,,,,,,,,
,food,0.9961633086204529,,,,,,,,
,shellfish,0.995223879814148,,,,,,,,
,crustacean,0.992682695388794,,,,,,,,
,"no person",0.9885750412940979,,,,,,,,
,shrimp,0.9856835007667542,,,,,,,,
,lobster,0.9854773283004761,,,,,,,,
,prawn,0.9853653907775879,,,,,,,,
,crab,0.9804419279098511,,,,,,,,
,dinner,0.9795344471931458,,,,,,,,
,delicious,0.9719688296318054,,,,,,,,
,restaurant,0.971752405166626,,,,,,,,
,epicure,0.970920205116272,,,,,,,,
,meal,0.9607276916503906,,,,,,,,
,plate,0.9508844017982483,,,,,,,,
,cooking,0.9464069604873657,,,,,,,,
,shell,0.9462661743164062,,,,,,,,
,meat,0.9416005611419678,,,,,,,,
,cuisine,0.9269393086433411,,,,,,,,
https://scontent.cdninstagram.com/t51.2885-15/e35/12407223_963055047120439_1910678000_n.jpg,food,0.991688072681427,Food,,,,"Meal time",,,
,"no person",0.9880390167236328,,,,,,,,
,traditional,0.9495946168899536,,,,,,,,
,dish,0.940169095993042,,,,,,,,
,delicious,0.9381476640701294,,,,,,,,
,dinner,0.9308466911315918,,,,,,,,
,plate,0.9250352382659912,,,,,,,,
,meal,0.9193635582923889,,,,,,,,
,lunch,0.9151268601417542,,,,,,,,
,bowl,0.9098725318908691,,,,,,,,
,meat,0.9035901427268982,,,,,,,,
,grow,0.9002188444137573,,,,,,,,
,cooking,0.8874054551124573,,,,,,,,
,kind,0.8793963193893433,,,,,,,,
,hot,0.8662395477294922,,,,,,,,
,wood,0.8655458688735962,,,,,,,,
,restaurant,0.8531771898269653,,,,,,,,
,nutrition,0.8512172102928162,,,,,,,,
,closeup,0.8508366346359253,,,,,,,,
,tasty,0.8406243324279785,,,,,,,,
https://scontent.cdninstagram.com/t51.2885-15/e35/13116695_1621695374822935_191227320_n.jpg,"no person",0.991753101348877,Food,,,,"Meal time",,,
,food,0.9860255718231201,,,,,,,,
,container,0.9313770532608032,,,,,,,,
,family,0.9114872217178345,,,,,,,,
,meal,0.9008440971374512,,,,,,,,
,bowl,0.8905646800994873,,,,,,,,
,table,0.8902485966682434,,,,,,,,
,health,0.8809530735015869,,,,,,,,
,indoors,0.8733493089675903,,,,,,,,
,delicious,0.8731314539909363,,,,,,,,
,breakfast,0.8701023459434509,,,,,,,,
,plate,0.8681309223175049,,,,,,,,
,dinner,0.8556942939758301,,,,,,,,
,tray,0.8489590883255005,,,,,,,,
,refreshment,0.8389970064163208,,,,,,,,
,dish,0.8258144855499268,,,,,,,,
,desktop,0.8240838050842285,,,,,,,,
,color,0.8194148540496826,,,,,,,,
,healthy,0.8103080987930298,,,,,,,,
,sweet,0.8097391128540039,,,,,,,,
https://scontent.cdninstagram.com/t51.2885-15/e35/13118208_294946887503174_1893616749_n.jpg,food,0.9968125820159912,Food,,,,Dessert,,,
,"no person",0.9923373460769653,,,,,,,,
,sweet,0.9822703003883362,,,,,,,,
,breakfast,0.9600942134857178,,,,,,,,
,cake,0.9595667123794556,,,,,,,,
,refreshment,0.9588291049003601,,,,,,,,
,fruit,0.9535431861877441,,,,,,,,
,meal,0.9411153197288513,,,,,,,,
,homemade,0.9386764764785767,,,,,,,,
,sugar,0.9371696710586548,,,,,,,,
,delicious,0.9333518147468567,,,,,,,,
,grow,0.9222999811172485,,,,,,,,
,plate,0.9113303422927856,,,,,,,,
,pastry,0.9103211164474487,,,,,,,,
,baking,0.9086606502532959,,,,,,,,
,round,0.9045395851135254,,,,,,,,
,cooking,0.8922730088233948,,,,,,,,
,tasty,0.8891528844833374,,,,,,,,
,chocolate,0.8616962432861328,,,,,,,,
,bread,0.8612930774688721,,,,,,,,
https://scontent.cdninstagram.com/t51.2885-15/e35/12531103_452570481607378_828712369_n.jpg,vanilla,0.994009256362915,Food,,,,Dessert,,,
,ice,0.9938063621520996,,,,,,,,
,cream,0.993735671043396,,,,,,,,
,"dairy product",0.9902254343032837,,,,,,,,
,chocolate,0.984266459941864,,,,,,,,
,sweet,0.978970468044281,,,,,,,,
,frozen,0.978961706161499,,,,,,,,
,scoop,0.9786471128463745,,,,,,,,
,creamy,0.9765077829360962,,,,,,,,
,cone,0.9711711406707764,,,,,,,,
,milk,0.9591615200042725,,,,,,,,
,cold,0.9460763931274414,,,,,,,,
,child,0.9368692636489868,,,,,,,,
,indulgence,0.9332554340362549,,,,,,,,
,cornet,0.9308967590332031,,,,,,,,
,candy,0.9289024472236633,,,,,,,,
,cup,0.9249255657196045,,,,,,,,
,sugar,0.9240332841873169,,,,,,,,
,cake,0.9196674227714539,,,,,,,,
,food,0.9196509122848511,,,,,,,,
https://scontent.cdninstagram.com/t51.2885-15/e35/13732090_1774018942870350_313356447_n.jpg,people,0.9814520478248596,Food,Relationships,,,"Meal time",Friends,,
,woman,0.9812918901443481,,,,,,,,
,child,0.9744683504104614,,,,,,,,
,adult,0.9681520462036133,,,,,,,,
,man,0.9657167792320251,,,,,,,,
,group,0.958568811416626,,,,,,,,
,family,0.9246891140937805,,,,,,,,
,education,0.9151217341423035,,,,,,,,
,"facial expression",0.9118444919586182,,,,,,,,
,togetherness,0.9111514091491699,,,,,,,,
,portrait,0.8923035860061646,,,,,,,,
,two,0.891025722026825,,,,,,,,
,recreation,0.8864166736602783,,,,,,,,
,fun,0.88588947057724,,,,,,,,
,enjoyment,0.8809843063354492,,,,,,,,
,girl,0.8801558017730713,,,,,,,,
,friendship,0.8663651943206787,,,,,,,,
,table,0.8572429418563843,,,,,,,,
,sit,0.8530609607696533,,,,,,,,
,happiness,0.8472890853881836,,,,,,,,
https://scontent.cdninstagram.com/t51.2885-15/e35/12729417_1651109658476923_1889610648_n.jpg,group,0.9977626800537109,Relationships,Food,,,Friends,"Meal time",,
,people,0.9955875873565674,,,,,,,,
,adult,0.9935110211372375,,,,,,,,
,"facial expression",0.9919874668121338,,,,,,,,
,group,0.9903253316879272,,,,,,,,
,woman,0.9855160713195801,,,,,,,,
,table,0.9837080240249634,,,,,,,,
,man,0.9825522899627686,,,,,,,,
,four,0.9802984595298767,,,,,,,,
,furniture,0.9690899848937988,,,,,,,,
,restaurant,0.964065432548523,,,,,,,,
,meal,0.9634177684783936,,,,,,,,
,three,0.9627587795257568,,,,,,,,
,enjoyment,0.9608844518661499,,,,,,,,
,room,0.9584766030311584,,,,,,,,
,five,0.9536957740783691,,,,,,,,
,indoors,0.9508179426193237,,,,,,,,
,several,0.9485528469085693,,,,,,,,
,happiness,0.9454121589660645,,,,,,,,
,togetherness,0.9391589164733887,,,,,,,,
https://scontent.cdninstagram.com/t51.2885-15/e35/13267344_531990683675957_415896377_n.jpg,soup,0.996584951877594,Food,,,,"Meal time",,,
,dinner,0.9771801233291626,,,,,,,,
,food,0.971991777420044,,,,,,,,
,broth,0.9649473428726196,,,,,,,,
,traditional,0.953637421131134,,,,,,,,
,hot,0.9484448432922363,,,,,,,,
,lunch,0.9478244781494141,,,,,,,,
,cuisine,0.9473084211349487,,,,,,,,
,cooking,0.9398318529129028,,,,,,,,
,bowl,0.9396125078201294,,,,,,,,
,delicious,0.939380407333374,,,,,,,,
,healthy,0.9308576583862305,,,,,,,,
,health,0.9189208745956421,,,,,,,,
,meal,0.9177920818328857,,,,,,,,
,"no person",0.9109072685241699,,,,,,,,
,dish,0.9093173146247864,,,,,,,,
,meat,0.9064428806304932,,,,,,,,
,nutrition,0.899148166179657,,,,,,,,
,carrot,0.8989766836166382,,,,,,,,
,cabbage,0.8890443444252014,,,,,,,,
https://scontent.cdninstagram.com/t51.2885-15/e35/13118214_272032829808032_1136297515_n.jpg,food,0.9949681162834167,Food,,,,Dessert,,,
,"no person",0.9944195747375488,,,,,,,,
,delicious,0.9869886636734009,,,,,,,,
,sweet,0.9642161726951599,,,,,,,,
,cream,0.9640522003173828,,,,,,,,
,"dairy product",0.9626592397689819,,,,,,,,
,creamy,0.9499251842498779,,,,,,,,
,fruit,0.9428097009658813,,,,,,,,
,vanilla,0.9312416911125183,,,,,,,,
,nutrition,0.9237256050109863,,,,,,,,
,homemade,0.9199537038803101,,,,,,,,
,sugar,0.9153146743774414,,,,,,,,
,bowl,0.9132463932037354,,,,,,,,
,lunch,0.9106653928756714,,,,,,,,
,plate,0.9098114967346191,,,,,,,,
,cooking,0.9077175259590149,,,,,,,,
,dinner,0.902057945728302,,,,,,,,
,refreshment,0.90082848072052,,,,,,,,
,dish,0.883190393447876,,,,,,,,
,milk,0.8692580461502075,,,,,,,,
https://scontent.cdninstagram.com/t51.2885-15/e35/13129682_916445028478539_624085818_n.jpg,paper,0.9851068258285522,Food,,,,"Meal time",,,
,"no person",0.9731614589691162,,,,,,,,
,food,0.9453418254852295,,,,,,,,
,business,0.9345450401306152,,,,,,,,
,document,0.8867630958557129,,,,,,,,
,finance,0.8482171297073364,,,,,,,,
,vertical,0.8340736627578735,,,,,,,,
,money,0.8313333988189697,,,,,,,,
,delicious,0.7993263006210327,,,,,,,,
,summer,0.795085608959198,,,,,,,,
,text,0.7919060587882996,,,,,,,,
,vacation,0.7828073501586914,,,,,,,,
,desktop,0.779708743095398,,,,,,,,
,chocolate,0.7773177623748779,,,,,,,,
,finance,0.7674332857131958,,,,,,,,
,sweet,0.756407618522644,,,,,,,,
,wealth,0.7313120365142822,,,,,,,,
,cake,0.7299526929855347,,,,,,,,
,money,0.7211699485778809,,,,,,,,
,indoors,0.7115204334259033,,,,,,,,
https://scontent.cdninstagram.com/t51.2885-15/e35/12446190_1723297964559088_331508228_n.jpg,restaurant,0.992947518825531,"My life",Food,,,Selfie,"Meal time",,
,food,0.9899622201919556,,,,,,,,
,people,0.9867491722106934,,,,,,,,
,exhibition,0.9773074388504028,,,,,,,,
,meal,0.9737142324447632,,,,,,,,
,table,0.9731142520904541,,,,,,,,
,indoors,0.9697905778884888,,,,,,,,
,dining,0.9669545888900757,,,,,,,,
,woman,0.962186336517334,,,,,,,,
,drink,0.9484785795211792,,,,,,,,
,cooking,0.941718578338623,,,,,,,,
,stock,0.939272403717041,,,,,,,,
,adult,0.9391077756881714,,,,,,,,
,lunch,0.9320996999740601,,,,,,,,
,party,0.9276714324951172,,,,,,,,
,man,0.914929986000061,,,,,,,,
,enjoyment,0.9036011695861816,,,,,,,,
,wear,0.9034126400947571,,,,,,,,
,dinner,0.9010956287384033,,,,,,,,
,cake,0.89930659532547,,,,,,,,
https://scontent.cdninstagram.com/t51.2885-15/e35/12407705_1634675773460706_2059009183_n.jpg,food,0.9956957101821899,Food,,,,"Meal time",,,
,"no person",0.9848884344100952,,,,,,,,
,dinner,0.9599788188934326,,,,,,,,
,meal,0.9541324377059937,,,,,,,,
,seafood,0.9474508762359619,,,,,,,,
,restaurant,0.9447013139724731,,,,,,,,
,delicious,0.9435943365097046,,,,,,,,
,sauce,0.9396399855613708,,,,,,,,
,lunch,0.9392708539962769,,,,,,,,
,plate,0.9330053329467773,,,,,,,,
,dish,0.9300534725189209,,,,,,,,
,traditional,0.920075535774231,,,,,,,,
,vegetable,0.9156041741371155,,,,,,,,
,shrimp,0.9141318798065186,,,,,,,,
,bowl,0.9111021757125854,,,,,,,,
,hot,0.9041488170623779,,,,,,,,
,cuisine,0.9017519950866699,,,,,,,,
,fish,0.9008611440658569,,,,,,,,
,shellfish,0.8819006681442261,,,,,,,,
,epicure,0.8813910484313965,,,,,,,,
https://scontent.cdninstagram.com/t51.2885-15/e35/13183291_1213100375380955_1519143240_n.jpg,food,0.9387388825416565,Business,,,,Business-s,,,
,gold,0.9351160526275635,,,,,,,,
,"no person",0.9283061623573303,,,,,,,,
,desktop,0.903910219669342,,,,,,,,
,stock,0.9014600515365601,,,,,,,,
,indoors,0.8856120109558105,,,,,,,,
,traditional,0.8705366849899292,,,,,,,,
,cooking,0.8634952902793884,,,,,,,,
,shopping,0.8588159680366516,,,,,,,,
,design,0.8392442464828491,,,,,,,,
,restaurant,0.8311245441436768,,,,,,,,
,business,0.8216792941093445,,,,,,,,
,shop,0.8202118277549744,,,,,,,,
,sale,0.8064055442810059,,,,,,,,
,decoration,0.803296685218811,,,,,,,,
,family,0.7622167468070984,,,,,,,,
,market,0.7517719864845276,,,,,,,,
,window,0.7491841316223145,,,,,,,,
,cake,0.7470420002937317,,,,,,,,
,meal,0.7461553812026978,,,,,,,,
https://scontent.cdninstagram.com/t51.2885-15/e35/12750023_232372827102699_1884551360_n.jpg,coffee,0.9901531934738159,Food,,,,Dessert,,,
,people,0.980522632598877,,,,,,,,
,restaurant,0.9709607362747192,,,,,,,,
,"dairy product",0.9441378116607666,,,,,,,,
,cup,0.9436665177345276,,,,,,,,
,food,0.9419770240783691,,,,,,,,
,indoors,0.9394747018814087,,,,,,,,
,milk,0.9355136156082153,,,,,,,,
,woman,0.9267195463180542,,,,,,,,
,adult,0.9249457120895386,,,,,,,,
,chocolate,0.9101581573486328,,,,,,,,
,table,0.9030345678329468,,,,,,,,
,stock,0.9016470909118652,,,,,,,,
,drink,0.8970286846160889,,,,,,,,
,vanilla,0.8924883604049683,,,,,,,,
,one,0.8889214992523193,,,,,,,,
,cream,0.8849911689758301,,,,,,,,
,child,0.8790409564971924,,,,,,,,
,chair,0.8768843412399292,,,,,,,,
,bar,0.865321934223175,,,,,,,,
https://scontent.cdninstagram.com/t51.2885-15/e35/12446207_1670997413183151_777791960_n.jpg,coffee,0.9890407919883728,Commerce,Business,,,"Product/brand shots",Business-s,,
,drink,0.9634603261947632,,,,,,,,
,"no person",0.9566214680671692,,,,,,,,
,cup,0.9343549013137817,,,,,,,,
,people,0.9183034896850586,,,,,,,,
,business,0.9095847010612488,,,,,,,,
,money,0.8947752714157104,,,,,,,,
,desktop,0.8904205560684204,,,,,,,,
,money,0.8896005153656006,,,,,,,,
,food,0.8851701021194458,,,,,,,,
,paper,0.8848053216934204,,,,,,,,
,espresso,0.8517675399780273,,,,,,,,
,color,0.849765419960022,,,,,,,,
,cash,0.8231033086776733,,,,,,,,
,dark,0.8163681030273438,,,,,,,,
,milk,0.8153489828109741,,,,,,,,
,vertical,0.8076528310775757,,,,,,,,
,entertainment,0.8017808198928833,,,,,,,,
,finance,0.7987568378448486,,,,,,,,
,design,0.798755407333374,,,,,,,,
https://scontent.cdninstagram.com/t51.2885-15/e35/13258961_825674400910637_1408629611_n.jpg,chocolate,0.9853336811065674,Food,Business,,,Dessert,Business-s,,
,sweet,0.9837584495544434,,,,,,,,
,food,0.9719748497009277,,,,,,,,
,candy,0.9689944982528687,,,,,,,,
,refreshment,0.9377638101577759,,,,,,,,
,cake,0.9369630813598633,,,,,,,,
,sugar,0.9317350387573242,,,,,,,,
,text,0.9023576378822327,,,,,,,,
,desktop,0.8920528292655945,,,,,,,,
,delicious,0.8853116035461426,,,,,,,,
,tasty,0.8628649711608887,,,,,,,,
,goody,0.8608255386352539,,,,,,,,
,epicure,0.8501197099685669,,,,,,,,
,cream,0.8480898141860962,,,,,,,,
,bill,0.8480478525161743,,,,,,,,
,box,0.842244029045105,,,,,,,,
,celebration,0.8408414125442505,,,,,,,,
,banner,0.8393933773040771,,,,,,,,
,"no person",0.8351284861564636,,,,,,,,
,indulgence,0.8287657499313354,,,,,,,,
https://scontent.cdninstagram.com/t51.2885-15/e35/13151229_1190376587662463_126750957_n.jpg,carnival,0.9927229881286621,Entertainment,,,,Destinations,,,
,festival,0.991769552230835,,,,,,,,
,exhilaration,0.9894863963127136,,,,,,,,
,evening,0.9850274324417114,,,,,,,,
,casino,0.982330322265625,,,,,,,,
,people,0.9807550311088562,,,,,,,,
,tourist,0.9794188141822815,,,,,,,,
,gambling,0.978360652923584,,,,,,,,
,neon,0.976386308670044,,,,,,,,
,many,0.9760442972183228,,,,,,,,
,nightlife,0.9699828028678894,,,,,,,,
,"ferris wheel",0.963904619216919,,,,,,,,
,travel,0.9562262296676636,,,,,,,,
,shopping,0.9534325003623962,,,,,,,,
,restaurant,0.9501937031745911,,,,,,,,
,illuminated,0.949822187423706,,,,,,,,
,fun,0.9496896266937256,,,,,,,,
,crowd,0.9457112550735474,,,,,,,,
,carousel,0.9412492513656616,,,,,,,,
,city,0.9369567632675171,,,,,,,,
https://scontent.cdninstagram.com/t51.2885-15/e35/13129707_1079490665425384_1955833615_n.jpg,soup,0.9987437725067139,Food,,,,"Meal time",,,
,food,0.9929560422897339,,,,,,,,
,dinner,0.9895517826080322,,,,,,,,
,"no person",0.9859760403633118,,,,,,,,
,bowl,0.9804350137710571,,,,,,,,
,lunch,0.9801169633865356,,,,,,,,
,cooking,0.9653114080429077,,,,,,,,
,vegetable,0.9647029042243958,,,,,,,,
,broth,0.9636399149894714,,,,,,,,
,delicious,0.9576069116592407,,,,,,,,
,parsley,0.9566706418991089,,,,,,,,
,meat,0.9542967677116394,,,,,,,,
,hot,0.9540330171585083,,,,,,,,
,meal,0.9533005952835083,,,,,,,,
,spoon,0.9521422982215881,,,,,,,,
,dish,0.949787974357605,,,,,,,,
,homemade,0.9494680166244507,,,,,,,,
,traditional,0.9487851858139038,,,,,,,,
,bread,0.93537437915802,,,,,,,,
,onion,0.933459997177124,,,,,,,,
https://scontent.cdninstagram.com/t51.2885-15/e35/13249865_167105477024910_1022333789_n.jpg,food,0.9967880845069885,Food,,,,Dessert,,,
,"no person",0.99518883228302,,,,,,,,
,grow,0.9840478897094727,,,,,,,,
,"dairy product",0.983790934085846,,,,,,,,
,plate,0.9817276000976562,,,,,,,,
,fruit,0.9811047911643982,,,,,,,,
,delicious,0.9633244276046753,,,,,,,,
,"still life",0.9470484256744385,,,,,,,,
,sweet,0.9430269002914429,,,,,,,,
,meal,0.9223452806472778,,,,,,,,
,bread,0.9213228225708008,,,,,,,,
,dish,0.9199745655059814,,,,,,,,
,cake,0.9049382209777832,,,,,,,,
,refreshment,0.9034561514854431,,,,,,,,
,traditional,0.9001244306564331,,,,,,,,
,cheese,0.8989636898040771,,,,,,,,
,epicure,0.898330569267273,,,,,,,,
,tableware,0.8857168555259705,,,,,,,,
,slice,0.8830626010894775,,,,,,,,
,vegetable,0.8793623447418213,,,,,,,,
https://scontent.cdninstagram.com/t51.2885-15/e35/13651826_607409592754206_955031342_n.jpg,food,0.9955992698669434,Food,,,,"Meal time",,,
,"no person",0.9741243124008179,,,,,,,,
,dish,0.9515333771705627,,,,,,,,
,cooking,0.9504081010818481,,,,,,,,
,meal,0.9444831609725952,,,,,,,,
,restaurant,0.9432908296585083,,,,,,,,
,table,0.9324498176574707,,,,,,,,
,plate,0.9309604167938232,,,,,,,,
,dinner,0.9222203493118286,,,,,,,,
,desktop,0.9159559011459351,,,,,,,,
,kind,0.9133322238922119,,,,,,,,
,dining,0.9020401239395142,,,,,,,,
,people,0.9012476801872253,,,,,,,,
,indoors,0.8969548940658569,,,,,,,,
,vegetable,0.8917891979217529,,,,,,,,
,delicious,0.8823935985565186,,,,,,,,
,healthy,0.8779330849647522,,,,,,,,
,knife,0.8749536871910095,,,,,,,,
,tableware,0.8691303133964539,,,,,,,,
,cuisine,0.8672953248023987,,,,,,,,
https://scontent.cdninstagram.com/t51.2885-15/e35/13249678_517137435145638_1715649194_n.jpg,passport,0.9991403818130493,Travel,,,,Travel-s,,,
,visa,0.9969549775123596,,,,,,,,
,abroad,0.9952196478843689,,,,,,,,
,departure,0.9942996501922607,,,,,,,,
,citizenship,0.9929196834564209,,,,,,,,
,identity,0.9910526275634766,,,,,,,,
,citizen,0.9901794195175171,,,,,,,,
,ticket,0.9886044263839722,,,,,,,,
,paper,0.9882451891899109,,,,,,,,
,pass,0.9876428842544556,,,,,,,,
,travel,0.9871442317962646,,,,,,,,
,airport,0.9857063293457031,,,,,,,,
,identification,0.9796619415283203,,,,,,,,
,administration,0.9791568517684937,,,,,,,,
,entry,0.9784021377563477,,,,,,,,
,International,0.9749364852905273,,,,,,,,
,business,0.9707521796226501,,,,,,,,
,official,0.9699498414993286,,,,,,,,
,text,0.9593383073806763,,,,,,,,
,homeland,0.9584552645683289,,,,,,,,
https://scontent.cdninstagram.com/t51.2885-15/e35/13249657_1671507066505675_293068198_n.jpg,food,0.9929804801940918,Food,,,,Dessert,,,
,"no person",0.9925179481506348,,,,,,,,
,delicious,0.9723517894744873,,,,,,,,
,fruit,0.9723212718963623,,,,,,,,
,plate,0.9645259380340576,,,,,,,,
,breakfast,0.957304835319519,,,,,,,,
,"dairy product",0.9329553842544556,,,,,,,,
,sweet,0.9307600259780884,,,,,,,,
,grow,0.9269471168518066,,,,,,,,
,bread,0.8873254060745239,,,,,,,,
,refreshment,0.8831042647361755,,,,,,,,
,"still life",0.8817425966262817,,,,,,,,
,sugar,0.8792393207550049,,,,,,,,
,chocolate,0.873573362827301,,,,,,,,
,homemade,0.8531200885772705,,,,,,,,
,cream,0.8511021137237549,,,,,,,,
,dawn,0.8433380126953125,,,,,,,,
,lunch,0.8330506086349487,,,,,,,,
,nutrition,0.8322073221206665,,,,,,,,
,strawberry,0.8248056173324585,,,,,,,,
https://scontent.cdninstagram.com/t51.2885-15/e35/12555855_196520394034944_889117341_n.jpg,food,0.9940877556800842,Food,,,,"Meal time",,,
,"no person",0.9843094348907471,,,,,,,,
,dinner,0.9830583333969116,,,,,,,,
,lunch,0.9824498891830444,,,,,,,,
,meal,0.9820742607116699,,,,,,,,
,"french fries",0.9818432331085205,,,,,,,,
,fast,0.9692152738571167,,,,,,,,
,delicious,0.9689867496490479,,,,,,,,
,traditional,0.9609034061431885,,,,,,,,
,plate,0.9550227522850037,,,,,,,,
,restaurant,0.9511063098907471,,,,,,,,
,dish,0.9498473405838013,,,,,,,,
,unhealthy,0.9486918449401855,,,,,,,,
,nutrition,0.9443233609199524,,,,,,,,
,cuisine,0.9440954923629761,,,,,,,,
,cooking,0.9414300918579102,,,,,,,,
,meat,0.9401884078979492,,,,,,,,
,hot,0.9366589784622192,,,,,,,,
,refreshment,0.9348329305648804,,,,,,,,
,tasty,0.9175971746444702,,,,,,,,
https://scontent.cdninstagram.com/t51.2885-15/e35/12797746_1137769752900828_1804093169_n.jpg,"no person",0.9960155487060547,Food,,,,Dessert,,,
,food,0.9956331253051758,,,,,,,,
,"dairy product",0.9907846450805664,,,,,,,,
,fruit,0.9891892671585083,,,,,,,,
,cake,0.9854575395584106,,,,,,,,
,grow,0.9811440706253052,,,,,,,,
,chocolate,0.9792461395263672,,,,,,,,
,plate,0.9747883081436157,,,,,,,,
,sweet,0.9704545736312866,,,,,,,,
,pastry,0.963355302810669,,,,,,,,
,delicious,0.9553223848342896,,,,,,,,
,baking,0.9466392397880554,,,,,,,,
,pie,0.9412660598754883,,,,,,,,
,cream,0.9327691793441772,,,,,,,,
,sugar,0.9244349002838135,,,,,,,,
,slice,0.9240044355392456,,,,,,,,
,homemade,0.9060194492340088,,,,,,,,
,"still life",0.8946946263313293,,,,,,,,
,bakery,0.8734847903251648,,,,,,,,
,tableware,0.8658205270767212,,,,,,,,
https://scontent.cdninstagram.com/t51.2885-15/e35/12725201_1689937724609085_172214016_n.jpg,food,0.9939305782318115,Food,,,,"Meal time",,,
,"no person",0.9927984476089478,,,,,,,,
,dinner,0.9850137829780579,,,,,,,,
,meat,0.9784954786300659,,,,,,,,
,soup,0.975339412689209,,,,,,,,
,cooking,0.9679113030433655,,,,,,,,
,lunch,0.9632977843284607,,,,,,,,
,vegetable,0.9383257627487183,,,,,,,,
,hot,0.9369723200798035,,,,,,,,
,meal,0.9332244992256165,,,,,,,,
,traditional,0.9315739274024963,,,,,,,,
,grow,0.9308234453201294,,,,,,,,
,dish,0.9241078495979309,,,,,,,,
,bread,0.9218659996986389,,,,,,,,
,delicious,0.9202072620391846,,,,,,,,
,chicken,0.9048969149589539,,,,,,,,
,pot,0.9011828899383545,,,,,,,,
,restaurant,0.893229603767395,,,,,,,,
,pork,0.8729920387268066,,,,,,,,
,fish,0.8625881671905518,,,,,,,,
https://scontent.cdninstagram.com/t51.2885-15/e35/13151344_231703240544878_706597118_n.jpg,woman,0.9905478954315186,Media,Entertainment,,,Media-s,Entertainment-s,,
,screen,0.9893947839736938,,,,,,,,
,computer,0.9893635511398315,,,,,,,,
,technology,0.9861308932304382,,,,,,,,
,adult,0.9856632947921753,,,,,,,,
,indoors,0.9796456694602966,,,,,,,,
,office,0.9732712507247925,,,,,,,,
,room,0.9724394083023071,,,,,,,,
,laptop,0.9716908931732178,,,,,,,,
,television,0.9694905281066895,,,,,,,,
,people,0.9662637114524841,,,,,,,,
,display,0.9640998840332031,,,,,,,,
,monitor,0.9532983303070068,,,,,,,,
,business,0.9531142711639404,,,,,,,,
,window,0.9386504888534546,,,,,,,,
,telephone,0.9383895397186279,,,,,,,,
,furniture,0.9249905943870544,,,,,,,,
,internet,0.9193741679191589,,,,,,,,
,"facial expression",0.911580502986908,,,,,,,,
,man,0.910999059677124,,,,,,,,
https://scontent.cdninstagram.com/t51.2885-15/e35/13259077_275123872831133_838646007_n.jpg,food,0.997478723526001,Food,,,,Dessert,,,
,"no person",0.9954680800437927,,,,,,,,
,"dairy product",0.9824889898300171,,,,,,,,
,grow,0.9802660942077637,,,,,,,,
,plate,0.9719946384429932,,,,,,,,
,cream,0.9685220718383789,,,,,,,,
,delicious,0.966584324836731,,,,,,,,
,fish,0.9543341398239136,,,,,,,,
,meal,0.9461089968681335,,,,,,,,
,cheese,0.9437671303749084,,,,,,,,
,slice,0.9432377815246582,,,,,,,,
,dish,0.9329501390457153,,,,,,,,
,epicure,0.9323334693908691,,,,,,,,
,dinner,0.9317226409912109,,,,,,,,
,vegetable,0.929943859577179,,,,,,,,
,fruit,0.9290385246276855,,,,,,,,
,rice,0.9268957376480103,,,,,,,,
,traditional,0.9202111959457397,,,,,,,,
,"still life",0.916915774345398,,,,,,,,
,seafood,0.9139547348022461,,,,,,,,
https://scontent.cdninstagram.com/t51.2885-15/e35/13151377_1740502249500237_14219644_n.jpg,cake,0.9887738227844238,Food,,,,Dessert,,,
,cup,0.9857921004295349,,,,,,,,
,coffee,0.9788342714309692,,,,,,,,
,cream,0.9659724235534668,,,,,,,,
,flower,0.9638488292694092,,,,,,,,
,rose,0.9627199172973633,,,,,,,,
,sugar,0.9618335962295532,,,,,,,,
,sweet,0.9613112807273865,,,,,,,,
,chocolate,0.9556506872177124,,,,,,,,
,birthday,0.9390957951545715,,,,,,,,
,pastry,0.931061863899231,,,,,,,,
,food,0.9306378364562988,,,,,,,,
,"no person",0.9270541071891785,,,,,,,,
,delicious,0.916390597820282,,,,,,,,
,decoration,0.9160445928573608,,,,,,,,
,love,0.9019209742546082,,,,,,,,
,table,0.9002150297164917,,,,,,,,
,candy,0.8982096910476685,,,,,,,,
,baking,0.894861102104187,,,,,,,,
,luxury,0.8940458297729492,,,,,,,,
https://scontent.cdninstagram.com/t51.2885-15/e35/10643953_1668611820094765_429181630_n.jpg,drink,0.9979655742645264,Commerce,,,,"Product/brand shots",,,
,wine,0.9972347021102905,,,,,,,,
,glass,0.997099757194519,,,,,,,,
,alcohol,0.9904630184173584,,,,,,,,
,champagne,0.9879577159881592,,,,,,,,
,"no person",0.9843484163284302,,,,,,,,
,party,0.9738256931304932,,,,,,,,
,celebration,0.9696177244186401,,,,,,,,
,bottle,0.968595564365387,,,,,,,,
,liquid,0.956916332244873,,,,,,,,
,bar,0.9519282579421997,,,,,,,,
,sparkling,0.938132643699646,,,,,,,,
,ice,0.930899441242218,,,,,,,,
,anniversary,0.9268546104431152,,,,,,,,
,liquor,0.920639157295227,,,,,,,,
,crystal,0.9092463850975037,,,,,,,,
,cold,0.9018087387084961,,,,,,,,
,glass,0.9015172123908997,,,,,,,,
,luxury,0.8795688152313232,,,,,,,,
,cocktail,0.8790785670280457,,,,,,,,
https://scontent.cdninstagram.com/t51.2885-15/e35/12479503_687155454760122_1217705052_n.jpg,food,0.9976019263267517,Food,,,,"Meal time",,,
,meal,0.988297164440155,,,,,,,,
,dinner,0.9856780767440796,,,,,,,,
,plate,0.9835894703865051,,,,,,,,
,restaurant,0.975412130355835,,,,,,,,
,dish,0.9742457866668701,,,,,,,,
,"no person",0.9694787263870239,,,,,,,,
,vegetable,0.9693902730941772,,,,,,,,
,lunch,0.9661072492599487,,,,,,,,
,meat,0.9659398794174194,,,,,,,,
,grow,0.9507107734680176,,,,,,,,
,delicious,0.936864972114563,,,,,,,,
,dining,0.9323182106018066,,,,,,,,
,table,0.9306303262710571,,,,,,,,
,cooking,0.9303845167160034,,,,,,,,
,wine,0.9264797568321228,,,,,,,,
,epicure,0.9262419939041138,,,,,,,,
,tableware,0.925021767616272,,,,,,,,
,seafood,0.9128596186637878,,,,,,,,
,cuisine,0.8989083170890808,,,,,,,,
https://scontent.cdninstagram.com/t51.2885-15/e35/12716477_1530406757257013_657344398_n.jpg,dinner,0.988176703453064,Food,,,,"Meal time",,,
,food,0.9872026443481445,,,,,,,,
,"no person",0.9830917119979858,,,,,,,,
,fish,0.9773523807525635,,,,,,,,
,seafood,0.9545052647590637,,,,,,,,
,lunch,0.954098105430603,,,,,,,,
,rice,0.9511353969573975,,,,,,,,
,delicious,0.9470083117485046,,,,,,,,
,restaurant,0.9452650547027588,,,,,,,,
,meat,0.9443212747573853,,,,,,,,
,plate,0.9260138869285583,,,,,,,,
,meal,0.9158486127853394,,,,,,,,
,tuna,0.9123889207839966,,,,,,,,
,cooking,0.9015755653381348,,,,,,,,
,vegetable,0.8924006223678589,,,,,,,,
,traditional,0.8893821835517883,,,,,,,,
,shrimp,0.8861089944839478,,,,,,,,
,sushi,0.8853745460510254,,,,,,,,
,parsley,0.8760277032852173,,,,,,,,
,salad,0.874539852142334,,,,,,,,
https://scontent.cdninstagram.com/t51.2885-15/e35/12627894_1163868453631237_326787570_n.jpg,food,0.9922805428504944,Food,,,,"Meal time",,,
,meat,0.9826858043670654,,,,,,,,
,"no person",0.9670050144195557,,,,,,,,
,meal,0.9661104679107666,,,,,,,,
,healthy,0.9557919502258301,,,,,,,,
,dinner,0.9475266933441162,,,,,,,,
,epicure,0.9446302056312561,,,,,,,,
,cuisine,0.9419434070587158,,,,,,,,
,beef,0.9398754835128784,,,,,,,,
,slice,0.9373929500579834,,,,,,,,
,closeup,0.935178279876709,,,,,,,,
,tasty,0.9308698177337646,,,,,,,,
,plate,0.9302955865859985,,,,,,,,
,delicious,0.9274313449859619,,,,,,,,
,dish,0.9236266613006592,,,,,,,,
,pork,0.9228745698928833,,,,,,,,
,lunch,0.9203982353210449,,,,,,,,
,desktop,0.9165183305740356,,,,,,,,
,diet,0.9156448245048523,,,,,,,,
,sausage,0.91428542137146,,,,,,,,
https://scontent.cdninstagram.com/t51.2885-15/e35/13181521_936451733138158_1364665281_n.jpg,food,0.9959922432899475,Food,,,,Dessert,,,
,"no person",0.9946369528770447,,,,,,,,
,plate,0.986382007598877,,,,,,,,
,vegetable,0.964392900466919,,,,,,,,
,grow,0.963385820388794,,,,,,,,
,delicious,0.9629656076431274,,,,,,,,
,"dairy product",0.9623565673828125,,,,,,,,
,dish,0.9609450101852417,,,,,,,,
,dinner,0.95839524269104,,,,,,,,
,meal,0.9543724060058594,,,,,,,,
,lunch,0.9444491267204285,,,,,,,,
,"still life",0.917382001876831,,,,,,,,
,meat,0.8968866467475891,,,,,,,,
,potato,0.8843041658401489,,,,,,,,
,seafood,0.8831291198730469,,,,,,,,
,nutrition,0.8827199935913086,,,,,,,,
,cooking,0.8793948888778687,,,,,,,,
,bread,0.8734357357025146,,,,,,,,
,traditional,0.8712176084518433,,,,,,,,
,homemade,0.8617497086524963,,,,,,,,
https://scontent.cdninstagram.com/t51.2885-15/e35/13181422_622240454591144_504580669_n.jpg,table,0.9916252493858337,Food,,,,Dessert,,,
,furniture,0.9860552549362183,,,,,,,,
,room,0.9781110286712646,,,,,,,,
,restaurant,0.9718054533004761,,,,,,,,
,chair,0.9683122634887695,,,,,,,,
,indoors,0.966692328453064,,,,,,,,
,exhibition,0.9598777294158936,,,,,,,,
,inside,0.9596372842788696,,,,,,,,
,luxury,0.9583570957183838,,,,,,,,
,decoration,0.9541535377502441,,,,,,,,
,hotel,0.9540773630142212,,,,,,,,
,dining,0.9458175301551819,,,,,,,,
,lamp,0.943310022354126,,,,,,,,
,design,0.9432104825973511,,,,,,,,
,house,0.9193359613418579,,,,,,,,
,food,0.9193281531333923,,,,,,,,
,family,0.9191542267799377,,,,,,,,
,architecture,0.9187330603599548,,,,,,,,
,"no person",0.9158386588096619,,,,,,,,
,modern,0.9156066179275513,,,,,,,,
https://scontent.cdninstagram.com/t51.2885-15/e35/13712657_275432166165322_747836051_n.jpg,pasta,0.9976004362106323,Food,,,,"Meal time",,,
,food,0.9968904256820679,,,,,,,,
,spaghetti,0.9938751459121704,,,,,,,,
,dinner,0.9901244044303894,,,,,,,,
,meal,0.9893117547035217,,,,,,,,
,lunch,0.9877316951751709,,,,,,,,
,cuisine,0.9829270839691162,,,,,,,,
,noodles,0.9819329977035522,,,,,,,,
,"no person",0.9763240218162537,,,,,,,,
,sauce,0.9742358922958374,,,,,,,,
,plate,0.9727197289466858,,,,,,,,
,dish,0.9715089797973633,,,,,,,,
,delicious,0.971031665802002,,,,,,,,
,cooking,0.95941162109375,,,,,,,,
,vegetable,0.9542241096496582,,,,,,,,
,cheese,0.9520976543426514,,,,,,,,
,restaurant,0.949063777923584,,,,,,,,
,basil,0.9451612830162048,,,,,,,,
,tasty,0.9425358772277832,,,,,,,,
,epicure,0.9411576390266418,,,,,,,,
https://scontent.cdninstagram.com/t51.2885-15/e35/13259072_1167449979972490_1525645853_n.jpg,festival,0.9977371096611023,Environment,,,,"Manmade beauty",,,
,"ferris wheel",0.9975008964538574,,,,,,,,
,exhilaration,0.9964545369148254,,,,,,,,
,light,0.9843499660491943,,,,,,,,
,fun,0.9829567670822144,,,,,,,,
,entertainment,0.9823981523513794,,,,,,,,
,evening,0.9805947542190552,,,,,,,,
,carnival,0.9795379638671875,,,,,,,,
,carousel,0.9775295257568359,,,,,,,,
,travel,0.9614584445953369,,,,,,,,
,fairground,0.9509294629096985,,,,,,,,
,city,0.9485440254211426,,,,,,,,
,wheel,0.9465641975402832,,,,,,,,
,"no person",0.915330708026886,,,,,,,,
,circus,0.914292573928833,,,,,,,,
,music,0.9135850667953491,,,,,,,,
,sky,0.9121111631393433,,,,,,,,
,illuminated,0.9010437726974487,,,,,,,,
,gambling,0.898892343044281,,,,,,,,
,celebration,0.8987569808959961,,,,,,,,
https://scontent.cdninstagram.com/t51.2885-15/e35/12383219_186355221723516_1865226009_n.jpg,food,0.9962952136993408,Food,,,,"Meal time",,,
,rice,0.9882693290710449,,,,,,,,
,sushi,0.9845612645149231,,,,,,,,
,meal,0.9815807342529297,,,,,,,,
,restaurant,0.9802316427230835,,,,,,,,
,epicure,0.9764835238456726,,,,,,,,
,dinner,0.975829005241394,,,,,,,,
,"no person",0.9708885550498962,,,,,,,,
,plate,0.9701987504959106,,,,,,,,
,cuisine,0.9599565267562866,,,,,,,,
,seafood,0.9586801528930664,,,,,,,,
,dish,0.9523974657058716,,,,,,,,
,cooking,0.9500812888145447,,,,,,,,
,ginger,0.9395531415939331,,,,,,,,
,lunch,0.9337393045425415,,,,,,,,
,wasabi,0.9227069616317749,,,,,,,,
,delicious,0.9223881959915161,,,,,,,,
,tuna,0.920589029788971,,,,,,,,
,traditional,0.9162590503692627,,,,,,,,
,set,0.9118294715881348,,,,,,,,
https://scontent.cdninstagram.com/t51.2885-15/e35/13259611_1796373523907466_1114294110_n.jpg,"no person",0.9832977056503296,Travel,,,,Travel-s,,,
,food,0.9704653024673462,,,,,,,,
,health,0.9517005085945129,,,,,,,,
,traditional,0.8945966958999634,,,,,,,,
,indoors,0.8927748203277588,,,,,,,,
,delicious,0.8894677758216858,,,,,,,,
,nutrition,0.8784421682357788,,,,,,,,
,dinner,0.8432072401046753,,,,,,,,
,cooking,0.8304105401039124,,,,,,,,
,ingredients,0.8291662931442261,,,,,,,,
,"still life",0.8171759843826294,,,,,,,,
,lunch,0.8024469614028931,,,,,,,,
,vegetable,0.78337562084198,,,,,,,,
,kind,0.7592480182647705,,,,,,,,
,color,0.7464600205421448,,,,,,,,
,closeup,0.7428939938545227,,,,,,,,
,wood,0.7404813170433044,,,,,,,,
,breakfast,0.74042809009552,,,,,,,,
,service,0.7402164936065674,,,,,,,,
,healthy,0.7396831512451172,,,,,,,,
https://scontent.cdninstagram.com/t51.2885-15/e35/13260846_1086835068041040_397757329_n.jpg,people,0.9863494634628296,"My life",,,,"Here I am",,,
,city,0.9724557399749756,,,,,,,,
,street,0.9597287178039551,,,,,,,,
,fun,0.9460141658782959,,,,,,,,
,child,0.9450144171714783,,,,,,,,
,festival,0.9396911263465881,,,,,,,,
,outdoors,0.9365729093551636,,,,,,,,
,enjoyment,0.932461142539978,,,,,,,,
,recreation,0.9274612665176392,,,,,,,,
,travel,0.9272571802139282,,,,,,,,
,woman,0.9261651039123535,,,,,,,,
,carnival,0.9257602095603943,,,,,,,,
,tourist,0.9245352745056152,,,,,,,,
,group,0.8985116481781006,,,,,,,,
,adult,0.8918961882591248,,,,,,,,
,entertainment,0.8873493671417236,,,,,,,,
,shopping,0.8843225240707397,,,,,,,,
,business,0.8837897777557373,,,,,,,,
,architecture,0.8811239004135132,,,,,,,,
,urban,0.8806235790252686,,,,,,,,
https://scontent.cdninstagram.com/t51.2885-15/e35/12725170_1964651223760295_1621656706_n.jpg,wear,0.988552987575531,Cute,,,,Cute,,,
,people,0.9845099449157715,,,,,,,,
,stock,0.9795185327529907,,,,,,,,
,festival,0.974219560623169,,,,,,,,
,costume,0.973686933517456,,,,,,,,
,shopping,0.9691594243049622,,,,,,,,
,exhibition,0.9685025811195374,,,,,,,,
,celebration,0.9471898078918457,,,,,,,,
,movie,0.9421240091323853,,,,,,,,
,group,0.9341216683387756,,,,,,,,
,woman,0.9107418656349182,,,,,,,,
,adult,0.9047557711601257,,,,,,,,
,traditional,0.9008830785751343,,,,,,,,
,dancing,0.8911935091018677,,,,,,,,
,veil,0.8855940103530884,,,,,,,,
,commerce,0.8819534778594971,,,,,,,,
,shop,0.8628396987915039,,,,,,,,
,daylight,0.8575962781906128,,,,,,,,
,street,0.8530306220054626,,,,,,,,
,two,0.8523894548416138,,,,,,,,
https://scontent.cdninstagram.com/t51.2885-15/e35/13267602_243235629373925_548862059_n.jpg,vintage,0.9597156643867493,Arts,,,,Arts-s,,,
,furniture,0.9587794542312622,,,,,,,,
,room,0.9549087882041931,,,,,,,,
,people,0.9546839594841003,,,,,,,,
,adult,0.9344612956047058,,,,,,,,
,old,0.9324734210968018,,,,,,,,
,indoors,0.9296920895576477,,,,,,,,
,illustration,0.9275710582733154,,,,,,,,
,card,0.9242370128631592,,,,,,,,
,retro,0.9181923866271973,,,,,,,,
,painting,0.9161803722381592,,,,,,,,
,paper,0.9089828729629517,,,,,,,,
,collection,0.890771746635437,,,,,,,,
,seat,0.8857378959655762,,,,,,,,
,art,0.8825896978378296,,,,,,,,
,wear,0.8794664144515991,,,,,,,,
,man,0.878838062286377,,,,,,,,
,"no person",0.8781701922416687,,,,,,,,
,print,0.876270055770874,,,,,,,,
,exhibition,0.8695216774940491,,,,,,,,
https://scontent.cdninstagram.com/t51.2885-15/e35/13258903_182571582139297_783826449_n.jpg,indoors,0.985992431640625,Business,,,,Business-s,,,
,"no person",0.9775509834289551,,,,,,,,
,table,0.968741774559021,,,,,,,,
,"interior design",0.9680196046829224,,,,,,,,
,stock,0.9560812711715698,,,,,,,,
,traditional,0.9437065124511719,,,,,,,,
,people,0.9246819019317627,,,,,,,,
,market,0.9239540100097656,,,,,,,,
,luxury,0.9230611324310303,,,,,,,,
,shop,0.9213788509368896,,,,,,,,
,shopping,0.9173674583435059,,,,,,,,
,decoration,0.9127410650253296,,,,,,,,
,restaurant,0.9058036804199219,,,,,,,,
,architecture,0.9039347767829895,,,,,,,,
,travel,0.8965460062026978,,,,,,,,
,presentation,0.8915588855743408,,,,,,,,
,exhibition,0.8884741067886353,,,,,,,,
,dining,0.8874377012252808,,,,,,,,
,merchandise,0.882980465888977,,,,,,,,
,furniture,0.8710141181945801,,,,,,,,
https://scontent.cdninstagram.com/t51.2885-15/e35/12748212_229921780684205_1000103148_n.jpg,computer,0.9719696044921875,Commerce,Technology,,,"Product/brand shots",Technology-s,,
,technology,0.9683836698532104,,,,,,,,
,"no person",0.9653937220573425,,,,,,,,
,internet,0.9549956321716309,,,,,,,,
,indoors,0.9466562271118164,,,,,,,,
,business,0.928146481513977,,,,,,,,
,screen,0.9084331393241882,,,,,,,,
,electronics,0.9054722785949707,,,,,,,,
,laptop,0.9027795791625977,,,,,,,,
,food,0.8768309354782104,,,,,,,,
,contemporary,0.8695117235183716,,,,,,,,
,table,0.8598365783691406,,,,,,,,
,monitor,0.8530900478363037,,,,,,,,
,wireless,0.843174934387207,,,,,,,,
,display,0.8296402096748352,,,,,,,,
,family,0.7901079654693604,,,,,,,,
,modern,0.7738763093948364,,,,,,,,
,healthcare,0.7473670244216919,,,,,,,,
,one,0.7390685677528381,,,,,,,,
,education,0.730112612247467,,,,,,,,
