url,class,score
https://scontent.cdninstagram.com/t51.2885-15/s640x640/sh0.08/e35/12724728_891556694292912_1044205056_n.jpg,desktop,0.9265471696853638
,clean,0.8825496435165405
,care,0.8738665580749512
,health,0.8654255867004395
,set,0.8615068197250366
,isolated,0.8610532283782959
,hygiene,0.8590751886367798
,turquoise,0.8534001111984253
,medicine,0.8325496315956116
,symbol,0.8097461462020874
,collection,0.8079055547714233
,bottle,0.8072702288627625
,container,0.8045457601547241
,business,0.8043631315231323
,plastic,0.7955971956253052
,color,0.7947907447814941
,clear,0.7881194353103638
,hand,0.7843778729438782
,woman,0.783621609210968
,healthcare,0.779205322265625
https://scontent.cdninstagram.com/t51.2885-15/s640x640/sh0.08/e35/12724728_891556694292912_1044205056_n.jpg,desktop,0.9265471696853638
,clean,0.8825496435165405
,care,0.8738665580749512
,health,0.8654255867004395
,set,0.8615068197250366
,isolated,0.8610532283782959
,hygiene,0.8590751886367798
,turquoise,0.8534001111984253
,medicine,0.8325496315956116
,symbol,0.8097461462020874
,collection,0.8079055547714233
,bottle,0.8072702288627625
,container,0.8045457601547241
,business,0.8043631315231323
,plastic,0.7955971956253052
,color,0.7947907447814941
,clear,0.7881194353103638
,hand,0.7843778729438782
,woman,0.783621609210968
,healthcare,0.779205322265625
https://scontent.cdninstagram.com/t51.2885-15/e35/11950555_1489711628021733_994718256_n.jpg,portrait,0.992194652557373
,girl,0.9861661195755005
,smile,0.985662579536438
,group,0.9847981333732605
,woman,0.9819945096969604
,people,0.9742251634597778
,beautiful,0.9717042446136475
,friendship,0.9646503329277039
,child,0.9532786011695862
,face,0.9503877758979797
,collage,0.9491613507270813
,laughing,0.9453381299972534
,cheerful,0.9319260120391846
,happiness,0.9302531480789185
,fun,0.9241310358047485
,adolescent,0.9221190214157104
,young,0.9216588735580444
,joy,0.9213225841522217
,person,0.9076071977615356
,group,0.8948984742164612
https://scontent.cdninstagram.com/t51.2885-15/e15/10843799_1414090272215475_1632981340_n.jpg,shopping,0.9962602853775024
,stock,0.995620608329773
,shop,0.9824687242507935
,supermarket,0.9819234609603882
,market,0.9492865800857544
,people,0.9471889734268188
,merchandise,0.9268773198127747
,commerce,0.9258188009262085
,woman,0.9256410598754883
,shelf,0.8898841142654419
,city,0.874713659286499
,indoors,0.8725878596305847
,department store,0.8685803413391113
,checkout,0.8524385690689087
,shopping cart,0.8510450124740601
,education,0.8462077379226685
,mall,0.8375550508499146
,exhibition,0.8275022506713867
,coffee,0.8163807392120361
,cashier,0.8098464012145996
https://scontent.cdninstagram.com/t51.2885-15/s750x750/sh0.08/e35/11349178_925425584170007_463160372_n.jpg,group,0.995376706123352
,four,0.9907893538475037
,togetherness,0.9894508123397827
,woman,0.987523078918457
,facial expression,0.9873033165931702
,wear,0.9851418733596802
,people,0.9832615852355957
,happiness,0.9815779328346252
,three,0.9809302091598511
,portrait,0.9789396524429321
,friendship,0.9779483079910278
,adult,0.9733974933624268
,laughing,0.9724276065826416
,child,0.9663406610488892
,enjoyment,0.9654445648193359
,dress,0.964722752571106
,fun,0.956433892250061
,girl,0.9499605894088745
,five,0.9433944225311279
,outdoors,0.9357832670211792
https://scontent.cdninstagram.com/t51.2885-15/e35/11950555_1489711628021733_994718256_n.jpg,portrait,0.992194652557373
,girl,0.9861661195755005
,smile,0.985662579536438
,group,0.9847981333732605
,woman,0.9819945096969604
,people,0.9742251634597778
,beautiful,0.9717042446136475
,friendship,0.9646503329277039
,child,0.9532786011695862
,face,0.9503877758979797
,collage,0.9491613507270813
,laughing,0.9453381299972534
,cheerful,0.9319260120391846
,happiness,0.9302531480789185
,fun,0.9241310358047485
,adolescent,0.9221190214157104
,young,0.9216588735580444
,joy,0.9213225841522217
,person,0.9076071977615356
,group,0.8948984742164612
https://scontent.cdninstagram.com/t51.2885-15/e35/11848970_848701438558789_577738424_n.jpg,illustration,0.9652315974235535
,business,0.9474645853042603
,communication,0.9406212568283081
,technology,0.9377948045730591
,connection,0.9218722581863403
,internet,0.9160703420639038
,image,0.9102468490600586
,symbol,0.8967305421829224
,vector,0.892704427242279
,desktop,0.8619133830070496
,fun,0.844589114189148
,computer,0.8115607500076294
,sketch,0.8064967393875122
,teamwork,0.7911540865898132
,telephone,0.7874984741210938
,data,0.786905825138092
,laptop,0.7815187573432922
,design,0.781444787979126
,network,0.7802913188934326
,card,0.7794499397277832
https://scontent.cdninstagram.com/t51.2885-15/e35/11939701_416254878573253_346481167_n.jpg,paper,0.9853270053863525
,money,0.9849038124084473
,business,0.9756715297698975
,money,0.953961968421936
,no person,0.9364943504333496
,note,0.9334878325462341
,wealth,0.9296429753303528
,desktop,0.9293849468231201
,finance,0.9021713733673096
,euro,0.9008651971817017
,color,0.896294891834259
,card,0.8829201459884644
,shopping,0.8794763088226318
,commerce,0.8717436194419861
,cash,0.8692908883094788
,people,0.8533005714416504
,telephone,0.8237152695655823
,party,0.8226519823074341
,girl,0.8098273277282715
,still life,0.8002637624740601
https://scontent.cdninstagram.com/t51.2885-15/sh0.08/e35/p750x750/13398366_845569255588114_2073233008_n.jpg,portrait,0.9957244396209717
,girl,0.9913015365600586
,woman,0.9906339645385742
,people,0.9871984124183655
,facial expression,0.9858829975128174
,one,0.9737478494644165
,wear,0.9712103605270386
,adult,0.9651522040367126
,fashion,0.9639977216720581
,model,0.9601618051528931
,child,0.9279282093048096
,brunette,0.9264833927154541
,eye,0.9078679084777832
,face,0.8549346923828125
,adolescent,0.8408632278442383
,glamour,0.8316941857337952
,indoors,0.8239777088165283
,hair,0.8186467289924622
,cute,0.7974599599838257
,lips,0.7894866466522217
https://scontent.cdninstagram.com/t51.2885-15/e15/10832089_1501527480129538_96966144_n.jpg,child,0.9761205911636353
,food,0.9640089869499207
,people,0.9633640646934509
,sit,0.9630633592605591
,woman,0.9601173996925354
,indoors,0.9545189142227173
,enjoyment,0.932867705821991
,meal,0.9177356958389282
,togetherness,0.917310893535614
,lunch,0.9069401025772095
,collage,0.9005803465843201
,man,0.8979446887969971
,summer,0.8933568000793457
,fun,0.8903301954269409
,breakfast,0.8854765892028809
,friendship,0.8830857872962952
,restaurant,0.8779999613761902
,cute,0.8420575857162476
,group,0.8214291334152222
,girl,0.819368839263916
https://scontent.cdninstagram.com/t51.2885-15/sh0.08/e35/p750x750/13398366_845569255588114_2073233008_n.jpg,portrait,0.9957244396209717
,girl,0.9913015365600586
,woman,0.9906339645385742
,people,0.9871984124183655
,facial expression,0.9858829975128174
,one,0.9737478494644165
,wear,0.9712103605270386
,adult,0.9651522040367126
,fashion,0.9639977216720581
,model,0.9601618051528931
,child,0.9279282093048096
,brunette,0.9264833927154541
,eye,0.9078679084777832
,face,0.8549346923828125
,adolescent,0.8408632278442383
,glamour,0.8316941857337952
,indoors,0.8239777088165283
,hair,0.8186467289924622
,cute,0.7974599599838257
,lips,0.7894866466522217
https://scontent.cdninstagram.com/t51.2885-15/e15/10843799_1414090272215475_1632981340_n.jpg,shopping,0.9962602853775024
,stock,0.995620608329773
,shop,0.9824687242507935
,supermarket,0.9819234609603882
,market,0.9492865800857544
,people,0.9471889734268188
,merchandise,0.9268773198127747
,commerce,0.9258188009262085
,woman,0.9256410598754883
,shelf,0.8898841142654419
,city,0.874713659286499
,indoors,0.8725878596305847
,department store,0.8685803413391113
,checkout,0.8524385690689087
,shopping cart,0.8510450124740601
,education,0.8462077379226685
,mall,0.8375550508499146
,exhibition,0.8275022506713867
,coffee,0.8163807392120361
,cashier,0.8098464012145996
https://scontent.cdninstagram.com/t51.2885-15/e15/11244973_1624495217766694_347505176_n.jpg,no person,0.9758197069168091
,art,0.9450913667678833
,wood,0.9433428049087524
,old,0.8983303308486938
,vintage,0.8879261016845703
,shadow,0.8815173506736755
,classic,0.877029538154602
,page,0.8595913648605347
,light,0.8581494092941284
,education,0.8563026785850525
,dark,0.851284921169281
,texture,0.8437649011611938
,desktop,0.8422585129737854
,abstract,0.8384842276573181
,design,0.8350001573562622
,indoors,0.8343324661254883
,empty,0.8317989110946655
,curtain,0.8198468685150146
,decoration,0.8194098472595215
,book,0.8166517019271851
https://scontent.cdninstagram.com/t51.2885-15/e15/10724848_339303239579988_1063260634_n.jpg,desktop,0.9801991581916809
,art,0.9109253883361816
,no person,0.9023456573486328
,design,0.8983600735664368
,illustration,0.8800281286239624
,light,0.8705474138259888
,round,0.868499755859375
,round,0.8681610822677612
,space,0.8584253191947937
,decoration,0.8530314564704895
,color,0.8510425686836243
,texture,0.8373729586601257
,abstract,0.8349695205688477
,symbol,0.8194960951805115
,gold,0.7988922595977783
,food,0.7987823486328125
,ball,0.7966831922531128
,dark,0.7960681915283203
,shape,0.7839010953903198
,competition,0.7727533578872681
https://scontent.cdninstagram.com/t51.2885-15/e15/11244973_1624495217766694_347505176_n.jpg,no person,0.9758197069168091
,art,0.9450913667678833
,wood,0.9433428049087524
,old,0.8983303308486938
,vintage,0.8879261016845703
,shadow,0.8815173506736755
,classic,0.877029538154602
,page,0.8595913648605347
,light,0.8581494092941284
,education,0.8563026785850525
,dark,0.851284921169281
,texture,0.8437649011611938
,desktop,0.8422585129737854
,abstract,0.8384842276573181
,design,0.8350001573562622
,indoors,0.8343324661254883
,empty,0.8317989110946655
,curtain,0.8198468685150146
,decoration,0.8194098472595215
,book,0.8166517019271851
https://scontent.cdninstagram.com/t51.2885-15/e15/10756026_1405256236437852_484953118_n.jpg,no person,0.985329806804657
,bed,0.9777665138244629
,indoors,0.9737036228179932
,food,0.965859591960907
,still life,0.9623687267303467
,bedroom,0.959443211555481
,family,0.9506919384002686
,table,0.9506441354751587
,relaxation,0.9471359848976135
,pillow,0.9419392347335815
,room,0.929772138595581
,furniture,0.9244251251220703
,wooden,0.9155276417732239
,sweet,0.9132519960403442
,wood,0.8918348550796509
,decoration,0.8888984322547913
,comfort,0.8827270865440369
,desktop,0.8767507076263428
,basket,0.876263439655304
,toy,0.8556115627288818
https://scontent.cdninstagram.com/t51.2885-15/e15/11007913_728025377312766_21668009_n.jpg,people,0.9761135578155518
,exhibition,0.9685099124908447
,festival,0.9454969167709351
,woman,0.920396089553833
,adult,0.9086990356445312
,business,0.9046592712402344
,offense,0.8978867530822754
,city,0.8976361751556396
,battle,0.8781237006187439
,wear,0.855754017829895
,portrait,0.8523588180541992
,strange,0.8516200184822083
,street,0.849448561668396
,man,0.8484580516815186
,fashion,0.8476133942604065
,girl,0.8459994792938232
,group,0.8347436189651489
,landscape,0.8308740258216858
,model,0.81825852394104
,stock,0.8146400451660156
https://scontent.cdninstagram.com/t51.2885-15/e15/10756026_1405256236437852_484953118_n.jpg,no person,0.985329806804657
,bed,0.9777665138244629
,indoors,0.9737036228179932
,food,0.965859591960907
,still life,0.9623687267303467
,bedroom,0.959443211555481
,family,0.9506919384002686
,table,0.9506441354751587
,relaxation,0.9471359848976135
,pillow,0.9419392347335815
,room,0.929772138595581
,furniture,0.9244251251220703
,wooden,0.9155276417732239
,sweet,0.9132519960403442
,wood,0.8918348550796509
,decoration,0.8888984322547913
,comfort,0.8827270865440369
,desktop,0.8767507076263428
,basket,0.876263439655304
,toy,0.8556115627288818
https://scontent.cdninstagram.com/t51.2885-15/e15/11312540_1087443991269380_1954076258_n.jpg,tropical,0.9928765296936035
,fruit,0.9879654049873352
,exotic,0.9878060817718506
,food,0.9852267503738403
,no person,0.9805864095687866
,desktop,0.9786330461502075
,nature,0.9740347266197205
,healthy,0.9607659578323364
,health,0.9598865509033203
,grow,0.9403613805770874
,skin,0.9336318373680115
,closeup,0.9270405769348145
,color,0.9230623245239258
,flora,0.92011559009552
,freshness,0.9194349050521851
,summer,0.9100026488304138
,leaf,0.9052667021751404
,juicy,0.9050172567367554
,texture,0.9001588821411133
,isolated,0.8910319805145264
https://scontent.cdninstagram.com/t51.2885-15/s750x750/sh0.08/e35/11349178_925425584170007_463160372_n.jpg,group,0.995376706123352
,four,0.9907893538475037
,togetherness,0.9894508123397827
,woman,0.987523078918457
,facial expression,0.9873033165931702
,wear,0.9851418733596802
,people,0.9832615852355957
,happiness,0.9815779328346252
,three,0.9809302091598511
,portrait,0.9789396524429321
,friendship,0.9779483079910278
,adult,0.9733974933624268
,laughing,0.9724276065826416
,child,0.9663406610488892
,enjoyment,0.9654445648193359
,dress,0.964722752571106
,fun,0.956433892250061
,girl,0.9499605894088745
,five,0.9433944225311279
,outdoors,0.9357832670211792
https://scontent.cdninstagram.com/t51.2885-15/s640x640/sh0.08/e35/11374690_113684695638247_218125446_n.jpg,illustration,0.9986602663993835
,sketch,0.9883438348770142
,vector,0.9828408360481262
,vector,0.9554827213287354
,people,0.9553482532501221
,symbol,0.954422652721405
,character,0.9463735818862915
,love,0.933917760848999
,child,0.9228844046592712
,art,0.9222407341003418
,image,0.9202276468276978
,kimono,0.911683201789856
,vector,0.9091775417327881
,baby,0.903465986251831
,communication,0.8685122728347778
,cheerful,0.861492931842804
,man,0.8538256883621216
,fun,0.8511362075805664
,design,0.8408570289611816
,toy,0.8377169370651245
https://scontent.cdninstagram.com/t51.2885-15/s750x750/sh0.08/e35/12558304_1678223215779381_277477203_n.jpg,child,0.9833171963691711
,girl,0.9817783832550049
,people,0.9803816676139832
,one,0.9583398103713989
,woman,0.9515471458435059
,adult,0.9468722343444824
,portrait,0.9449071884155273
,baby,0.9444751739501953
,sleep,0.9323626756668091
,family,0.9036781191825867
,boy,0.9001384973526001
,bed,0.8933740854263306
,person,0.8903952240943909
,education,0.8802894949913025
,beautiful,0.8744298219680786
,cute,0.8618658185005188
,indoors,0.8571330308914185
,lifestyle,0.8550010919570923
,love,0.8483176231384277
,face,0.8444498777389526
https://scontent.cdninstagram.com/t51.2885-15/s750x750/sh0.08/e35/12558304_1678223215779381_277477203_n.jpg,child,0.9833171963691711
,girl,0.9817783832550049
,people,0.9803816676139832
,one,0.9583398103713989
,woman,0.9515471458435059
,adult,0.9468722343444824
,portrait,0.9449071884155273
,baby,0.9444751739501953
,sleep,0.9323626756668091
,family,0.9036781191825867
,boy,0.9001384973526001
,bed,0.8933740854263306
,person,0.8903952240943909
,education,0.8802894949913025
,beautiful,0.8744298219680786
,cute,0.8618658185005188
,indoors,0.8571330308914185
,lifestyle,0.8550010919570923
,love,0.8483176231384277
,face,0.8444498777389526
https://scontent.cdninstagram.com/t51.2885-15/e15/10520225_1435658970031120_12759206_n.jpg,dog,0.9995396733283997
,pet,0.9949724674224854
,cute,0.9917604923248291
,animal,0.9911308288574219
,portrait,0.9909512400627136
,canine,0.9845952391624451
,mammal,0.981104850769043
,puppy,0.9772140383720398
,domestic,0.9759260416030884
,looking,0.9535220861434937
,little,0.9526847004890442
,adorable,0.9485752582550049
,sit,0.9472531080245972
,funny,0.9455429315567017
,retriever,0.9396577477455139
,indoors,0.9340367913246155
,friendship,0.9155191779136658
,no person,0.8883767127990723
,breed,0.8873633146286011
,wait,0.8829478025436401
https://scontent.cdninstagram.com/t51.2885-15/e15/10520225_1435658970031120_12759206_n.jpg,dog,0.9995396733283997
,pet,0.9949724674224854
,cute,0.9917604923248291
,animal,0.9911308288574219
,portrait,0.9909512400627136
,canine,0.9845952391624451
,mammal,0.981104850769043
,puppy,0.9772140383720398
,domestic,0.9759260416030884
,looking,0.9535220861434937
,little,0.9526847004890442
,adorable,0.9485752582550049
,sit,0.9472531080245972
,funny,0.9455429315567017
,retriever,0.9396577477455139
,indoors,0.9340367913246155
,friendship,0.9155191779136658
,no person,0.8883767127990723
,breed,0.8873633146286011
,wait,0.8829478025436401
https://scontent.cdninstagram.com/t51.2885-15/e15/11379694_495405780658470_2121553856_n.jpg,portrait,0.9952710866928101
,one,0.993576169013977
,people,0.9926838278770447
,child,0.9880077242851257
,girl,0.9746776819229126
,wear,0.9708912968635559
,adult,0.9662692546844482
,facial expression,0.9616376757621765
,woman,0.9604164958000183
,face,0.9547947645187378
,cute,0.9328036308288574
,adolescent,0.9227938652038574
,youth,0.9131464958190918
,indoors,0.9030805230140686
,sadness,0.8922240734100342
,brunette,0.8878341317176819
,serious,0.8731533288955688
,solitude,0.8695354461669922
,innocence,0.8644365072250366
,hair,0.8562339544296265
https://scontent.cdninstagram.com/t51.2885-15/e15/11379694_495405780658470_2121553856_n.jpg,portrait,0.9952710866928101
,one,0.993576169013977
,people,0.9926838278770447
,child,0.9880077242851257
,girl,0.9746776819229126
,wear,0.9708912968635559
,adult,0.9662692546844482
,facial expression,0.9616376757621765
,woman,0.9604164958000183
,face,0.9547947645187378
,cute,0.9328036308288574
,adolescent,0.9227938652038574
,youth,0.9131464958190918
,indoors,0.9030805230140686
,sadness,0.8922240734100342
,brunette,0.8878341317176819
,serious,0.8731533288955688
,solitude,0.8695354461669922
,innocence,0.8644365072250366
,hair,0.8562339544296265
https://scontent.cdninstagram.com/t51.2885-15/e15/11352137_837631402992923_847968180_n.jpg,telephone,0.9995076656341553
,screen,0.996405839920044
,touch,0.9956443309783936
,wireless,0.9954783916473389
,portable,0.9952685832977295
,technology,0.9943192005157471
,connection,0.9903973340988159
,communication,0.9895866513252258
,cellular telephone,0.9874581694602966
,internet,0.9854121208190918
,cellular,0.9833075404167175
,electronics,0.9783639907836914
,telecommunication,0.9763168692588806
,business,0.971481204032898
,appliance,0.9547301530838013
,smart,0.952773928642273
,computer,0.9510985612869263
,display,0.9495483636856079
,laptop,0.9454835653305054
,woman,0.9353637099266052
https://scontent.cdninstagram.com/t51.2885-15/e15/10727510_791864194205764_736155828_n.jpg,no person,0.9915930032730103
,wine,0.9832953214645386
,drink,0.9595944881439209
,alcohol,0.9451266527175903
,indoors,0.9187925457954407
,retro,0.9071762561798096
,elegant,0.8969689011573792
,liquor,0.8939378261566162
,vertical,0.8924061059951782
,wood,0.8797256946563721
,winery,0.8618789911270142
,beer,0.8362878561019897
,luxury,0.8317579030990601
,bar,0.8261944055557251
,decoration,0.8099647164344788
,travel,0.8049062490463257
,vintage,0.7979006767272949
,industry,0.795323371887207
,old,0.789486289024353
,dark,0.7888703942298889
https://scontent.cdninstagram.com/t51.2885-15/e15/11269575_1669808016575718_801843247_n.jpg,telephone,0.9991321563720703
,screen,0.9964728951454163
,technology,0.9923933148384094
,portable,0.9903483390808105
,cellular telephone,0.989027202129364
,cellular,0.9857285022735596
,touch,0.9854514598846436
,connection,0.9739218354225159
,wireless,0.972980260848999
,smart,0.9653043746948242
,telecommunication,0.9626477360725403
,display,0.9613343477249146
,electronics,0.9441201686859131
,internet,0.9267480373382568
,monitor,0.9188636541366577
,communication,0.9138835668563843
,people,0.9126701951026917
,television,0.9090548753738403
,device,0.9051245450973511
,computer,0.9020467400550842
https://scontent.cdninstagram.com/t51.2885-15/e15/11269575_1669808016575718_801843247_n.jpg,telephone,0.9991321563720703
,screen,0.9964728951454163
,technology,0.9923933148384094
,portable,0.9903483390808105
,cellular telephone,0.989027202129364
,cellular,0.9857285022735596
,touch,0.9854514598846436
,connection,0.9739218354225159
,wireless,0.972980260848999
,smart,0.9653043746948242
,telecommunication,0.9626477360725403
,display,0.9613343477249146
,electronics,0.9441201686859131
,internet,0.9267480373382568
,monitor,0.9188636541366577
,communication,0.9138835668563843
,people,0.9126701951026917
,television,0.9090548753738403
,device,0.9051245450973511
,computer,0.9020467400550842
https://scontent.cdninstagram.com/t51.2885-15/e35/11374251_1624522187801233_747610354_n.jpg,facial expression,0.9807819724082947
,people,0.973673939704895
,woman,0.9716786742210388
,happiness,0.969478964805603
,portrait,0.9639171957969666
,togetherness,0.9636871814727783
,enjoyment,0.9625669717788696
,child,0.9602633714675903
,adult,0.9563995003700256
,wear,0.9481570720672607
,friendship,0.9437426328659058
,man,0.9343385100364685
,group,0.9319154024124146
,drink,0.9317577481269836
,fun,0.9100214242935181
,family,0.9023854732513428
,daylight,0.9022409915924072
,girl,0.9011058211326599
,lifestyle,0.8969405293464661
,boy,0.8895907402038574
https://scontent.cdninstagram.com/t51.2885-15/e15/11352137_837631402992923_847968180_n.jpg,telephone,0.9995076656341553
,screen,0.996405839920044
,touch,0.9956443309783936
,wireless,0.9954783916473389
,portable,0.9952685832977295
,technology,0.9943192005157471
,connection,0.9903973340988159
,communication,0.9895866513252258
,cellular telephone,0.9874581694602966
,internet,0.9854121208190918
,cellular,0.9833075404167175
,electronics,0.9783639907836914
,telecommunication,0.9763168692588806
,business,0.971481204032898
,appliance,0.9547301530838013
,smart,0.952773928642273
,computer,0.9510985612869263
,display,0.9495483636856079
,laptop,0.9454835653305054
,woman,0.9353637099266052
https://scontent.cdninstagram.com/t51.2885-15/e15/11311461_1112861275396990_389335270_n.jpg,portrait,0.9979899525642395
,people,0.9870595932006836
,one,0.9705581665039062
,man,0.9524981379508972
,fashion,0.9489972591400146
,adult,0.945965051651001
,serious,0.9419806599617004
,face,0.939211905002594
,model,0.9197935461997986
,eye,0.9079885482788086
,woman,0.9007769823074341
,headshot,0.8888042569160461
,young,0.8709133267402649
,girl,0.8679968118667603
,lid,0.8670001029968262
,studio,0.8654264211654663
,wear,0.8631523847579956
,monochrome,0.8607311248779297
,dark,0.8537267446517944
,adolescent,0.8530350923538208
https://scontent.cdninstagram.com/t51.2885-15/e15/11374752_440383316128201_1681164463_n.jpg,illustration,0.9960000514984131
,sketch,0.9743340611457825
,child,0.9585762023925781
,vector,0.9567515850067139
,grass,0.9383386373519897
,fun,0.8918755054473877
,outdoors,0.8898962736129761
,animal,0.8871761560440063
,woman,0.8656215667724609
,man,0.8640122413635254
,people,0.8467750549316406
,humor,0.8399109840393066
,boy,0.8071261644363403
,field,0.8037359714508057
,graphic,0.8010240793228149
,boy,0.7991411685943604
,play,0.785751461982727
,cute,0.7746490836143494
,vector,0.7746115922927856
,game,0.748701810836792
https://scontent.cdninstagram.com/t51.2885-15/e15/11327153_853050581469875_2032013947_n.jpg,child,0.9937119483947754
,portrait,0.99315345287323
,people,0.9916150569915771
,girl,0.9709987640380859
,one,0.9653809070587158
,wear,0.9269942045211792
,boy,0.8960332870483398
,woman,0.8890498876571655
,face,0.8884881734848022
,cute,0.8853216171264648
,boy,0.8833461999893188
,adult,0.8829857110977173
,adolescent,0.8725897073745728
,fashion,0.8474915027618408
,facial expression,0.8253330588340759
,light,0.8200826644897461
,youth,0.8158277273178101
,innocence,0.7969550490379333
,indoors,0.7965053915977478
,music,0.7945188283920288
https://scontent.cdninstagram.com/t51.2885-15/s640x640/sh0.08/e35/11374690_113684695638247_218125446_n.jpg,illustration,0.9986602663993835
,sketch,0.9883438348770142
,vector,0.9828408360481262
,vector,0.9554827213287354
,people,0.9553482532501221
,symbol,0.954422652721405
,character,0.9463735818862915
,love,0.933917760848999
,child,0.9228844046592712
,art,0.9222407341003418
,image,0.9202276468276978
,kimono,0.911683201789856
,vector,0.9091775417327881
,baby,0.903465986251831
,communication,0.8685122728347778
,cheerful,0.861492931842804
,man,0.8538256883621216
,fun,0.8511362075805664
,design,0.8408570289611816
,toy,0.8377169370651245
https://scontent.cdninstagram.com/t51.2885-15/e15/10963921_1572038589705957_379529543_n.jpg,woman,0.9708492755889893
,people,0.9566690921783447
,indoors,0.9557392001152039
,adult,0.9209914207458496
,man,0.9021258354187012
,portrait,0.8865692019462585
,facial expression,0.8769784569740295
,togetherness,0.8761814832687378
,business,0.8702009916305542
,enjoyment,0.8613798022270203
,horizontal,0.8609066605567932
,happiness,0.8465577363967896
,success,0.8138127326965332
,vertical,0.809768795967102
,laughing,0.7989922761917114
,fun,0.7781996726989746
,wear,0.7742244005203247
,cheerful,0.7053864002227783
,adolescent,0.7030322551727295
,commerce,0.6759696006774902
https://scontent.cdninstagram.com/t51.2885-15/e35/11848970_848701438558789_577738424_n.jpg,illustration,0.9652315974235535
,business,0.9474645853042603
,communication,0.9406212568283081
,technology,0.9377948045730591
,connection,0.9218722581863403
,internet,0.9160703420639038
,image,0.9102468490600586
,symbol,0.8967305421829224
,vector,0.892704427242279
,desktop,0.8619133830070496
,fun,0.844589114189148
,computer,0.8115607500076294
,sketch,0.8064967393875122
,teamwork,0.7911540865898132
,telephone,0.7874984741210938
,data,0.786905825138092
,laptop,0.7815187573432922
,design,0.781444787979126
,network,0.7802913188934326
,card,0.7794499397277832
https://scontent.cdninstagram.com/t51.2885-15/e15/10561083_696558370422979_37678246_n.jpg,paper,0.9914320111274719
,money,0.9859123229980469
,business,0.9745527505874634
,cash,0.964936375617981
,finance,0.9552816152572632
,money,0.9457942247390747
,wealth,0.9442718029022217
,no person,0.9137969017028809
,bank,0.9112929105758667
,note,0.9071919918060303
,food,0.8933522701263428
,financial,0.8927655220031738
,investment,0.870641827583313
,euro,0.8667999505996704
,economy,0.8256558179855347
,fruit,0.8248263597488403
,number,0.8224990963935852
,success,0.8189918994903564
,market,0.8151746988296509
,desktop,0.808984637260437
https://scontent.cdninstagram.com/t51.2885-15/e35/11374251_1624522187801233_747610354_n.jpg,facial expression,0.9807819724082947
,people,0.973673939704895
,woman,0.9716786742210388
,happiness,0.969478964805603
,portrait,0.9639171957969666
,togetherness,0.9636871814727783
,enjoyment,0.9625669717788696
,child,0.9602633714675903
,adult,0.9563995003700256
,wear,0.9481570720672607
,friendship,0.9437426328659058
,man,0.9343385100364685
,group,0.9319154024124146
,drink,0.9317577481269836
,fun,0.9100214242935181
,family,0.9023854732513428
,daylight,0.9022409915924072
,girl,0.9011058211326599
,lifestyle,0.8969405293464661
,boy,0.8895907402038574
https://scontent.cdninstagram.com/t51.2885-15/e15/11312540_1087443991269380_1954076258_n.jpg,tropical,0.9928765296936035
,fruit,0.9879654049873352
,exotic,0.9878060817718506
,food,0.9852267503738403
,no person,0.9805864095687866
,desktop,0.9786330461502075
,nature,0.9740347266197205
,healthy,0.9607659578323364
,health,0.9598865509033203
,grow,0.9403613805770874
,skin,0.9336318373680115
,closeup,0.9270405769348145
,color,0.9230623245239258
,flora,0.92011559009552
,freshness,0.9194349050521851
,summer,0.9100026488304138
,leaf,0.9052667021751404
,juicy,0.9050172567367554
,texture,0.9001588821411133
,isolated,0.8910319805145264
https://scontent.cdninstagram.com/t51.2885-15/e15/11379848_1004787169545873_1485286844_n.jpg,portrait,0.99625563621521
,girl,0.9910743236541748
,people,0.9895183444023132
,adult,0.9820441007614136
,woman,0.9809763431549072
,one,0.9730595946311951
,model,0.95329749584198
,facial expression,0.9407037496566772
,fashion,0.9325075745582581
,face,0.9287126064300537
,wear,0.9233116507530212
,studio,0.8791574239730835
,child,0.8783536553382874
,brunette,0.8679075241088867
,music,0.8669443726539612
,lifestyle,0.8350318670272827
,light,0.8329938650131226
,youth,0.8119205832481384
,blur,0.7987071871757507
,beautiful,0.7972325682640076
https://scontent.cdninstagram.com/t51.2885-15/e35/11939701_416254878573253_346481167_n.jpg,paper,0.9853270053863525
,money,0.9849038124084473
,business,0.9756715297698975
,money,0.953961968421936
,no person,0.9364943504333496
,note,0.9334878325462341
,wealth,0.9296429753303528
,desktop,0.9293849468231201
,finance,0.9021713733673096
,euro,0.9008651971817017
,color,0.896294891834259
,card,0.8829201459884644
,shopping,0.8794763088226318
,commerce,0.8717436194419861
,cash,0.8692908883094788
,people,0.8533005714416504
,telephone,0.8237152695655823
,party,0.8226519823074341
,girl,0.8098273277282715
,still life,0.8002637624740601
https://scontent.cdninstagram.com/t51.2885-15/sh0.08/e35/p750x750/13392722_1589157144717027_1811426718_n.jpg,woman,0.9897342920303345
,indoors,0.970302939414978
,people,0.9639850854873657
,man,0.9617427587509155
,child,0.9445585012435913
,adolescent,0.9292477965354919
,portrait,0.9235705733299255
,enjoyment,0.9074705243110657
,togetherness,0.9063254594802856
,friendship,0.9049650430679321
,fun,0.9048776626586914
,sit,0.8979051113128662
,group,0.8912458419799805
,family,0.8826032876968384
,adult,0.8792716264724731
,three,0.867975115776062
,four,0.8598687648773193
,outdoors,0.845118522644043
,education,0.8440052270889282
,two,0.8433113098144531
https://scontent.cdninstagram.com/t51.2885-15/e15/10561083_696558370422979_37678246_n.jpg,paper,0.9914320111274719
,money,0.9859123229980469
,business,0.9745527505874634
,cash,0.964936375617981
,finance,0.9552816152572632
,money,0.9457942247390747
,wealth,0.9442718029022217
,no person,0.9137969017028809
,bank,0.9112929105758667
,note,0.9071919918060303
,food,0.8933522701263428
,financial,0.8927655220031738
,investment,0.870641827583313
,euro,0.8667999505996704
,economy,0.8256558179855347
,fruit,0.8248263597488403
,number,0.8224990963935852
,success,0.8189918994903564
,market,0.8151746988296509
,desktop,0.808984637260437
https://scontent.cdninstagram.com/t51.2885-15/e15/10724848_339303239579988_1063260634_n.jpg,desktop,0.9801991581916809
,art,0.9109253883361816
,no person,0.9023456573486328
,design,0.8983600735664368
,illustration,0.8800281286239624
,light,0.8705474138259888
,round,0.868499755859375
,round,0.8681610822677612
,space,0.8584253191947937
,decoration,0.8530314564704895
,color,0.8510425686836243
,texture,0.8373729586601257
,abstract,0.8349695205688477
,symbol,0.8194960951805115
,gold,0.7988922595977783
,food,0.7987823486328125
,ball,0.7966831922531128
,dark,0.7960681915283203
,shape,0.7839010953903198
,competition,0.7727533578872681
https://scontent.cdninstagram.com/t51.2885-15/e15/11379848_1004787169545873_1485286844_n.jpg,portrait,0.99625563621521
,girl,0.9910743236541748
,people,0.9895183444023132
,adult,0.9820441007614136
,woman,0.9809763431549072
,one,0.9730595946311951
,model,0.95329749584198
,facial expression,0.9407037496566772
,fashion,0.9325075745582581
,face,0.9287126064300537
,wear,0.9233116507530212
,studio,0.8791574239730835
,child,0.8783536553382874
,brunette,0.8679075241088867
,music,0.8669443726539612
,lifestyle,0.8350318670272827
,light,0.8329938650131226
,youth,0.8119205832481384
,blur,0.7987071871757507
,beautiful,0.7972325682640076
https://scontent.cdninstagram.com/t51.2885-15/e15/11419019_1664834707082043_751621318_n.jpg,woman,0.9934481382369995
,fashion,0.9825794696807861
,portrait,0.9817342758178711
,eye,0.9541835188865662
,girl,0.9458947777748108
,glamour,0.9442474842071533
,people,0.9274399876594543
,model,0.9202899932861328
,pretty,0.91852867603302
,sexy,0.9142772555351257
,lips,0.9091305732727051
,one,0.9085744619369507
,cute,0.9084552526473999
,skin,0.9075961709022522
,facial expression,0.87873375415802
,look,0.8598662614822388
,hair,0.8532669544219971
,adolescent,0.828353226184845
,pensive,0.8201942443847656
,daydreaming,0.8084774017333984
https://scontent.cdninstagram.com/t51.2885-15/e15/10727510_791864194205764_736155828_n.jpg,no person,0.9915930032730103
,wine,0.9832953214645386
,drink,0.9595944881439209
,alcohol,0.9451266527175903
,indoors,0.9187925457954407
,retro,0.9071762561798096
,elegant,0.8969689011573792
,liquor,0.8939378261566162
,vertical,0.8924061059951782
,wood,0.8797256946563721
,winery,0.8618789911270142
,beer,0.8362878561019897
,luxury,0.8317579030990601
,bar,0.8261944055557251
,decoration,0.8099647164344788
,travel,0.8049062490463257
,vintage,0.7979006767272949
,industry,0.795323371887207
,old,0.789486289024353
,dark,0.7888703942298889
https://scontent.cdninstagram.com/t51.2885-15/e15/11007913_728025377312766_21668009_n.jpg,people,0.9761135578155518
,exhibition,0.9685099124908447
,festival,0.9454969167709351
,woman,0.920396089553833
,adult,0.9086990356445312
,business,0.9046592712402344
,offense,0.8978867530822754
,city,0.8976361751556396
,battle,0.8781237006187439
,wear,0.855754017829895
,portrait,0.8523588180541992
,strange,0.8516200184822083
,street,0.849448561668396
,man,0.8484580516815186
,fashion,0.8476133942604065
,girl,0.8459994792938232
,group,0.8347436189651489
,landscape,0.8308740258216858
,model,0.81825852394104
,stock,0.8146400451660156
https://scontent.cdninstagram.com/t51.2885-15/e15/11311461_1112861275396990_389335270_n.jpg,portrait,0.9979899525642395
,people,0.9870595932006836
,one,0.9705581665039062
,man,0.9524981379508972
,fashion,0.9489972591400146
,adult,0.945965051651001
,serious,0.9419806599617004
,face,0.939211905002594
,model,0.9197935461997986
,eye,0.9079885482788086
,woman,0.9007769823074341
,headshot,0.8888042569160461
,young,0.8709133267402649
,girl,0.8679968118667603
,lid,0.8670001029968262
,studio,0.8654264211654663
,wear,0.8631523847579956
,monochrome,0.8607311248779297
,dark,0.8537267446517944
,adolescent,0.8530350923538208
https://scontent.cdninstagram.com/t51.2885-15/e15/11419019_1664834707082043_751621318_n.jpg,woman,0.9934481382369995
,fashion,0.9825794696807861
,portrait,0.9817342758178711
,eye,0.9541835188865662
,girl,0.9458947777748108
,glamour,0.9442474842071533
,people,0.9274399876594543
,model,0.9202899932861328
,pretty,0.91852867603302
,sexy,0.9142772555351257
,lips,0.9091305732727051
,one,0.9085744619369507
,cute,0.9084552526473999
,skin,0.9075961709022522
,facial expression,0.87873375415802
,look,0.8598662614822388
,hair,0.8532669544219971
,adolescent,0.828353226184845
,pensive,0.8201942443847656
,daydreaming,0.8084774017333984
https://scontent.cdninstagram.com/t51.2885-15/e15/11142411_820414814701808_1752514156_n.jpg,portrait,0.9910573959350586
,people,0.990424394607544
,girl,0.989867091178894
,woman,0.9816316366195679
,adult,0.959371030330658
,child,0.9487915635108948
,boy,0.9477788209915161
,one,0.9310503005981445
,love,0.9207876920700073
,face,0.9203810691833496
,cold,0.916568398475647
,model,0.9153477549552917
,fashion,0.9133428335189819
,winter,0.9075589179992676
,happiness,0.9067068099975586
,facial expression,0.8877803087234497
,sweater,0.8726910352706909
,wear,0.8473331332206726
,man,0.8373413681983948
,beautiful,0.83473140001297
https://scontent.cdninstagram.com/t51.2885-15/e15/11313284_521086288045204_989498170_n.jpg,girl,0.9783786535263062
,woman,0.9741687774658203
,people,0.9702869653701782
,portrait,0.9507782459259033
,fashion,0.9320852756500244
,one,0.9242029190063477
,child,0.9182204008102417
,model,0.9134236574172974
,adult,0.9036017656326294
,art,0.8949490785598755
,love,0.8884981274604797
,flower,0.8697195649147034
,wear,0.8579690456390381
,color,0.8525627851486206
,light,0.8511111736297607
,face,0.8454625606536865
,toy,0.8420120477676392
,fun,0.8406912088394165
,eye,0.840029239654541
,bed,0.8312743902206421
https://scontent.cdninstagram.com/t51.2885-15/e15/924410_716932551689857_55659618_n.jpg,ice,0.9984836578369141
,cold,0.9956578016281128
,no person,0.989182710647583
,sweet,0.9888008236885071
,delicious,0.9826294183731079
,fruit,0.9824387431144714
,food,0.9744722843170166
,sugar,0.9739750027656555
,milk,0.9713865518569946
,summer,0.9709213376045227
,drink,0.970014750957489
,cream,0.9700133204460144
,refreshment,0.9596716165542603
,strawberry,0.9432181119918823
,dairy product,0.935227632522583
,glass,0.9336029291152954
,cool,0.9324605464935303
,breakfast,0.9315692186355591
,vanilla,0.9300917983055115
,caramel,0.9273254871368408
https://scontent.cdninstagram.com/t51.2885-15/e15/11312111_870939316288754_1662314553_n.jpg,adult,0.9886179566383362
,group,0.9879534244537354
,people,0.9845473170280457
,woman,0.984490692615509
,facial expression,0.9773987531661987
,child,0.9706722497940063
,wear,0.950645923614502
,education,0.9465538859367371
,man,0.9397728443145752
,portrait,0.9375321865081787
,happiness,0.9370496273040771
,indoors,0.9285041689872742
,three,0.9158612489700317
,cooperation,0.9005727171897888
,enjoyment,0.8995347023010254
,togetherness,0.8977546691894531
,employee,0.8787793517112732
,room,0.8749786019325256
,school,0.8702189922332764
,commerce,0.8691351413726807
https://scontent.cdninstagram.com/t51.2885-15/e35/10727465_918182744920939_161928458_n.jpg,toy,0.9875888228416443
,cute,0.9683152437210083
,funny,0.9640964269638062
,fun,0.950730562210083
,no person,0.9406151175498962
,isolated,0.9266013503074646
,animal,0.924135684967041
,character,0.9179023504257202
,humor,0.9166955947875977
,doll,0.9164234399795532
,desktop,0.9086306095123291
,eye,0.8853263258934021
,bird,0.8840214014053345
,color,0.8750532269477844
,face,0.8711001873016357
,lid,0.8602157831192017
,traditional,0.8591129183769226
,one,0.8576691150665283
,child,0.856982946395874
,smile,0.8436855673789978
https://scontent.cdninstagram.com/t51.2885-15/e15/11327153_853050581469875_2032013947_n.jpg,child,0.9937119483947754
,portrait,0.99315345287323
,people,0.9916150569915771
,girl,0.9709987640380859
,one,0.9653809070587158
,wear,0.9269942045211792
,boy,0.8960332870483398
,woman,0.8890498876571655
,face,0.8884881734848022
,cute,0.8853216171264648
,boy,0.8833461999893188
,adult,0.8829857110977173
,adolescent,0.8725897073745728
,fashion,0.8474915027618408
,facial expression,0.8253330588340759
,light,0.8200826644897461
,youth,0.8158277273178101
,innocence,0.7969550490379333
,indoors,0.7965053915977478
,music,0.7945188283920288
https://scontent.cdninstagram.com/t51.2885-15/e15/11313284_521086288045204_989498170_n.jpg,girl,0.9783786535263062
,woman,0.9741687774658203
,people,0.9702869653701782
,portrait,0.9507782459259033
,fashion,0.9320852756500244
,one,0.9242029190063477
,child,0.9182204008102417
,model,0.9134236574172974
,adult,0.9036017656326294
,art,0.8949490785598755
,love,0.8884981274604797
,flower,0.8697195649147034
,wear,0.8579690456390381
,color,0.8525627851486206
,light,0.8511111736297607
,face,0.8454625606536865
,toy,0.8420120477676392
,fun,0.8406912088394165
,eye,0.840029239654541
,bed,0.8312743902206421
https://scontent.cdninstagram.com/t51.2885-15/e15/10832089_1501527480129538_96966144_n.jpg,child,0.9761205911636353
,food,0.9640089869499207
,people,0.9633640646934509
,sit,0.9630633592605591
,woman,0.9601173996925354
,indoors,0.9545189142227173
,enjoyment,0.932867705821991
,meal,0.9177356958389282
,togetherness,0.917310893535614
,lunch,0.9069401025772095
,collage,0.9005803465843201
,man,0.8979446887969971
,summer,0.8933568000793457
,fun,0.8903301954269409
,breakfast,0.8854765892028809
,friendship,0.8830857872962952
,restaurant,0.8779999613761902
,cute,0.8420575857162476
,group,0.8214291334152222
,girl,0.819368839263916
https://scontent.cdninstagram.com/t51.2885-15/e15/10706680_699799033436042_1666084669_n.jpg,people,0.9592354893684387
,celebration,0.9569780230522156
,music,0.9285609126091003
,light,0.9070013761520386
,Christmas,0.8994795680046082
,party,0.8705605268478394
,text,0.8572630882263184
,decoration,0.8341019153594971
,one,0.8317825794219971
,festival,0.8307791948318481
,ball,0.8161057233810425
,no person,0.8150906562805176
,business,0.7904595136642456
,sphere,0.7492989897727966
,fun,0.7381236553192139
,dark,0.7356845140457153
,New Year,0.7349556088447571
,bill,0.7347095012664795
,science,0.7281285524368286
,color,0.7275905609130859
https://scontent.cdninstagram.com/t51.2885-15/e15/11142411_820414814701808_1752514156_n.jpg,portrait,0.9910573959350586
,people,0.990424394607544
,girl,0.989867091178894
,woman,0.9816316366195679
,adult,0.959371030330658
,child,0.9487915635108948
,boy,0.9477788209915161
,one,0.9310503005981445
,love,0.9207876920700073
,face,0.9203810691833496
,cold,0.916568398475647
,model,0.9153477549552917
,fashion,0.9133428335189819
,winter,0.9075589179992676
,happiness,0.9067068099975586
,facial expression,0.8877803087234497
,sweater,0.8726910352706909
,wear,0.8473331332206726
,man,0.8373413681983948
,beautiful,0.83473140001297
https://scontent.cdninstagram.com/t51.2885-15/e15/11312111_870939316288754_1662314553_n.jpg,adult,0.9886179566383362
,group,0.9879534244537354
,people,0.9845473170280457
,woman,0.984490692615509
,facial expression,0.9773987531661987
,child,0.9706722497940063
,wear,0.950645923614502
,education,0.9465538859367371
,man,0.9397728443145752
,portrait,0.9375321865081787
,happiness,0.9370496273040771
,indoors,0.9285041689872742
,three,0.9158612489700317
,cooperation,0.9005727171897888
,enjoyment,0.8995347023010254
,togetherness,0.8977546691894531
,employee,0.8787793517112732
,room,0.8749786019325256
,school,0.8702189922332764
,commerce,0.8691351413726807
https://scontent.cdninstagram.com/t51.2885-15/e15/10706680_699799033436042_1666084669_n.jpg,people,0.9592354893684387
,celebration,0.9569780230522156
,music,0.9285609126091003
,light,0.9070013761520386
,Christmas,0.8994795680046082
,party,0.8705605268478394
,text,0.8572630882263184
,decoration,0.8341019153594971
,one,0.8317825794219971
,festival,0.8307791948318481
,ball,0.8161057233810425
,no person,0.8150906562805176
,business,0.7904595136642456
,sphere,0.7492989897727966
,fun,0.7381236553192139
,dark,0.7356845140457153
,New Year,0.7349556088447571
,bill,0.7347095012664795
,science,0.7281285524368286
,color,0.7275905609130859
https://scontent.cdninstagram.com/t51.2885-15/e15/10963921_1572038589705957_379529543_n.jpg,woman,0.9708492755889893
,people,0.9566690921783447
,indoors,0.9557392001152039
,adult,0.9209914207458496
,man,0.9021258354187012
,portrait,0.8865692019462585
,facial expression,0.8769784569740295
,togetherness,0.8761814832687378
,business,0.8702009916305542
,enjoyment,0.8613798022270203
,horizontal,0.8609066605567932
,happiness,0.8465577363967896
,success,0.8138127326965332
,vertical,0.809768795967102
,laughing,0.7989922761917114
,fun,0.7781996726989746
,wear,0.7742244005203247
,cheerful,0.7053864002227783
,adolescent,0.7030322551727295
,commerce,0.6759696006774902
https://scontent.cdninstagram.com/t51.2885-15/e15/11374752_440383316128201_1681164463_n.jpg,illustration,0.9960000514984131
,sketch,0.9743340611457825
,child,0.9585762023925781
,vector,0.9567515850067139
,grass,0.9383386373519897
,fun,0.8918755054473877
,outdoors,0.8898962736129761
,animal,0.8871761560440063
,woman,0.8656215667724609
,man,0.8640122413635254
,people,0.8467750549316406
,humor,0.8399109840393066
,boy,0.8071261644363403
,field,0.8037359714508057
,graphic,0.8010240793228149
,boy,0.7991411685943604
,play,0.785751461982727
,cute,0.7746490836143494
,vector,0.7746115922927856
,game,0.748701810836792
https://scontent.cdninstagram.com/t51.2885-15/e15/1724414_585694281559775_469946385_n.jpg,antique,0.9675506353378296
,old,0.9599392414093018
,vintage,0.9581642746925354
,symbol,0.955477237701416
,desktop,0.949708104133606
,retro,0.947859525680542
,design,0.94014573097229
,art,0.9096593260765076
,business,0.8867383003234863
,illustration,0.872011661529541
,painting,0.8517192602157593
,color,0.8504060506820679
,technology,0.8449268341064453
,paper,0.8371146321296692
,abstract,0.8348754048347473
,image,0.8335534334182739
,man,0.8231781721115112
,no person,0.8191632032394409
,artistic,0.8148183822631836
,decoration,0.8027050495147705
https://scontent.cdninstagram.com/t51.2885-15/e15/924410_716932551689857_55659618_n.jpg,ice,0.9984836578369141
,cold,0.9956578016281128
,no person,0.989182710647583
,sweet,0.9888008236885071
,delicious,0.9826294183731079
,fruit,0.9824387431144714
,food,0.9744722843170166
,sugar,0.9739750027656555
,milk,0.9713865518569946
,summer,0.9709213376045227
,drink,0.970014750957489
,cream,0.9700133204460144
,refreshment,0.9596716165542603
,strawberry,0.9432181119918823
,dairy product,0.935227632522583
,glass,0.9336029291152954
,cool,0.9324605464935303
,breakfast,0.9315692186355591
,vanilla,0.9300917983055115
,caramel,0.9273254871368408
https://scontent.cdninstagram.com/t51.2885-15/e35/12783357_185737131803274_2095738486_n.jpg,woman,0.977676272392273
,adult,0.973105251789093
,people,0.9706787467002869
,indoors,0.9513986110687256
,brunette,0.9511038064956665
,one,0.9500504732131958
,wear,0.9497113227844238
,portrait,0.9314981698989868
,girl,0.9148375988006592
,pants,0.9066979885101318
,step,0.895277738571167
,business,0.8823682069778442
,motion,0.8467584252357483
,ladder,0.8423963785171509
,room,0.8389043807983398
,telephone,0.8155151605606079
,recreation,0.8146640658378601
,music,0.8080669641494751
,model,0.80037921667099
,luggage,0.7836477756500244
https://scontent.cdninstagram.com/t51.2885-15/e35/10727465_918182744920939_161928458_n.jpg,toy,0.9875888228416443
,cute,0.9683152437210083
,funny,0.9640964269638062
,fun,0.950730562210083
,no person,0.9406151175498962
,isolated,0.9266013503074646
,animal,0.924135684967041
,character,0.9179023504257202
,humor,0.9166955947875977
,doll,0.9164234399795532
,desktop,0.9086306095123291
,eye,0.8853263258934021
,bird,0.8840214014053345
,color,0.8750532269477844
,face,0.8711001873016357
,lid,0.8602157831192017
,traditional,0.8591129183769226
,one,0.8576691150665283
,child,0.856982946395874
,smile,0.8436855673789978
https://scontent.cdninstagram.com/t51.2885-15/sh0.08/e35/p750x750/12383472_1023177391087047_1615766873_n.jpg,adult,0.9967097043991089
,people,0.9964498281478882
,woman,0.9912060499191284
,outdoors,0.9861093759536743
,two,0.9856923818588257
,man,0.9652441740036011
,portrait,0.9647201299667358
,side view,0.9624902009963989
,facial expression,0.9515223503112793
,enjoyment,0.9498575925827026
,motion,0.9420619010925293
,wear,0.9335929155349731
,togetherness,0.9025409817695618
,happiness,0.8783512115478516
,city,0.8691273331642151
,street,0.8672000765800476
,travel,0.8624986410140991
,road,0.8550711870193481
,love,0.8543878793716431
,interaction,0.8537353873252869
https://scontent.cdninstagram.com/t51.2885-15/e35/12783357_185737131803274_2095738486_n.jpg,woman,0.977676272392273
,adult,0.973105251789093
,people,0.9706787467002869
,indoors,0.9513986110687256
,brunette,0.9511038064956665
,one,0.9500504732131958
,wear,0.9497113227844238
,portrait,0.9314981698989868
,girl,0.9148375988006592
,pants,0.9066979885101318
,step,0.895277738571167
,business,0.8823682069778442
,motion,0.8467584252357483
,ladder,0.8423963785171509
,room,0.8389043807983398
,telephone,0.8155151605606079
,recreation,0.8146640658378601
,music,0.8080669641494751
,model,0.80037921667099
,luggage,0.7836477756500244
https://scontent.cdninstagram.com/t51.2885-15/sh0.08/e35/p750x750/12383472_1023177391087047_1615766873_n.jpg,adult,0.9967097043991089
,people,0.9964498281478882
,woman,0.9912060499191284
,outdoors,0.9861093759536743
,two,0.9856923818588257
,man,0.9652441740036011
,portrait,0.9647201299667358
,side view,0.9624902009963989
,facial expression,0.9515223503112793
,enjoyment,0.9498575925827026
,motion,0.9420619010925293
,wear,0.9335929155349731
,togetherness,0.9025409817695618
,happiness,0.8783512115478516
,city,0.8691273331642151
,street,0.8672000765800476
,travel,0.8624986410140991
,road,0.8550711870193481
,love,0.8543878793716431
,interaction,0.8537353873252869
https://scontent.cdninstagram.com/t51.2885-15/e15/1724414_585694281559775_469946385_n.jpg,antique,0.9675506353378296
,old,0.9599392414093018
,vintage,0.9581642746925354
,symbol,0.955477237701416
,desktop,0.949708104133606
,retro,0.947859525680542
,design,0.94014573097229
,art,0.9096593260765076
,business,0.8867383003234863
,illustration,0.872011661529541
,painting,0.8517192602157593
,color,0.8504060506820679
,technology,0.8449268341064453
,paper,0.8371146321296692
,abstract,0.8348754048347473
,image,0.8335534334182739
,man,0.8231781721115112
,no person,0.8191632032394409
,artistic,0.8148183822631836
,decoration,0.8027050495147705
https://scontent.cdninstagram.com/t51.2885-15/e15/11324876_379195188950955_1734279309_n.jpg,text,0.9665604829788208
,illustration,0.9370686411857605
,calendar,0.9269700050354004
,number,0.9064314365386963
,symbol,0.8817793130874634
,business,0.8804302215576172
,desktop,0.8795406222343445
,time,0.8735702037811279
,schedule,0.8689029216766357
,date,0.8619251251220703
,abstract,0.8550106287002563
,cloud,0.8503314852714539
,horizontal,0.8481559753417969
,almanac,0.848147988319397
,vector,0.8455856442451477
,give voice,0.8428235054016113
,data,0.8416931629180908
,alphabet,0.8314204216003418
,communication,0.8178335428237915
,data,0.8008241653442383
https://scontent.cdninstagram.com/t51.2885-15/s750x750/sh0.08/e35/13381259_1126680974021276_223868080_n.jpg,group,0.9979345798492432
,woman,0.9879307746887207
,group,0.9853366613388062
,adult,0.9735534191131592
,people,0.9680476188659668
,man,0.9645103216171265
,portrait,0.9560599327087402
,school,0.9441546201705933
,education,0.936715841293335
,child,0.9292260408401489
,girl,0.9120388031005859
,youth,0.9038273692131042
,five,0.8900080919265747
,exhibition,0.8850599527359009
,facial expression,0.8839749097824097
,family,0.8717411756515503
,four,0.8693814277648926
,several,0.8689855337142944
,festival,0.8667813539505005
,friendship,0.8577508926391602
https://scontent.cdninstagram.com/t51.2885-15/sh0.08/e35/p750x750/13392722_1589157144717027_1811426718_n.jpg,woman,0.9897342920303345
,indoors,0.970302939414978
,people,0.9639850854873657
,man,0.9617427587509155
,child,0.9445585012435913
,adolescent,0.9292477965354919
,portrait,0.9235705733299255
,enjoyment,0.9074705243110657
,togetherness,0.9063254594802856
,friendship,0.9049650430679321
,fun,0.9048776626586914
,sit,0.8979051113128662
,group,0.8912458419799805
,family,0.8826032876968384
,adult,0.8792716264724731
,three,0.867975115776062
,four,0.8598687648773193
,outdoors,0.845118522644043
,education,0.8440052270889282
,two,0.8433113098144531
https://scontent.cdninstagram.com/t51.2885-15/sh0.08/e35/p640x640/13391124_639523749536735_782367230_n.jpg,woman,0.9848812818527222
,people,0.978620171546936
,fun,0.970157265663147
,portrait,0.9695973992347717
,girl,0.9694044589996338
,adult,0.9638152122497559
,child,0.9352378845214844
,happiness,0.9331161975860596
,luck,0.9222831726074219
,game,0.9218628406524658
,recreation,0.9184277057647705
,one,0.9098490476608276
,toy,0.9084323048591614
,finance,0.9058175086975098
,balloon,0.9052611589431763
,enjoyment,0.901563286781311
,money,0.891319990158081
,wealth,0.8800086975097656
,leisure,0.8765053153038025
,business,0.8762595057487488
https://scontent.cdninstagram.com/t51.2885-15/sh0.08/e35/p750x750/12750340_1272807259412388_1066626915_n.jpg,people,0.9949456453323364
,girl,0.9922348856925964
,portrait,0.9904136657714844
,adult,0.9849818348884583
,one,0.9758880138397217
,woman,0.9682842493057251
,facial expression,0.9559161067008972
,man,0.952151894569397
,boy,0.9455358982086182
,indoors,0.9444338083267212
,wear,0.9422224164009094
,room,0.9363025426864624
,model,0.9282761812210083
,brunette,0.925307035446167
,bed,0.9223275184631348
,child,0.910938024520874
,face,0.9052093029022217
,furniture,0.8694264888763428
,medicine,0.867870569229126
,family,0.8597763776779175
https://scontent.cdninstagram.com/t51.2885-15/e35/12822341_999014386800836_2031401048_n.jpg,people,0.985447883605957
,woman,0.9468664526939392
,education,0.9442723989486694
,man,0.9432024955749512
,adult,0.9311186075210571
,child,0.9283280372619629
,school,0.9261688590049744
,portrait,0.9132257699966431
,group,0.9106749892234802
,crowd,0.8849308490753174
,indoors,0.8723939657211304
,exhibition,0.8225313425064087
,editorial,0.8197452425956726
,International,0.8049132823944092
,many,0.8024370074272156
,friendship,0.7976518869400024
,event,0.7962791919708252
,variation,0.7926576137542725
,stock,0.7846317291259766
,cheerful,0.7686026692390442
https://scontent.cdninstagram.com/t51.2885-15/sh0.08/e35/p750x750/12531131_952828201491826_2073952356_n.jpg,woman,0.9962841272354126
,indoors,0.9831638336181641
,fashion,0.9665400385856628
,relaxation,0.9537369608879089
,portrait,0.9529221057891846
,pretty,0.9414787292480469
,people,0.9403323531150818
,family,0.9394139051437378
,girl,0.9267880916595459
,sexy,0.9182291030883789
,facial expression,0.9156579971313477
,dawn,0.8923826813697815
,eye,0.8819200992584229
,cute,0.8731424808502197
,leisure,0.8671115636825562
,glamour,0.8567167520523071
,brunette,0.843471884727478
,adolescent,0.8377447128295898
,one,0.833209753036499
,love,0.8308631181716919
https://scontent.cdninstagram.com/t51.2885-15/sh0.08/e35/p750x750/12750340_1272807259412388_1066626915_n.jpg,people,0.9949456453323364
,girl,0.9922348856925964
,portrait,0.9904136657714844
,adult,0.9849818348884583
,one,0.9758880138397217
,woman,0.9682842493057251
,facial expression,0.9559161067008972
,man,0.952151894569397
,boy,0.9455358982086182
,indoors,0.9444338083267212
,wear,0.9422224164009094
,room,0.9363025426864624
,model,0.9282761812210083
,brunette,0.925307035446167
,bed,0.9223275184631348
,child,0.910938024520874
,face,0.9052093029022217
,furniture,0.8694264888763428
,medicine,0.867870569229126
,family,0.8597763776779175
https://scontent.cdninstagram.com/t51.2885-15/sh0.08/e35/p750x750/12531131_952828201491826_2073952356_n.jpg,woman,0.9962841272354126
,indoors,0.9831638336181641
,fashion,0.9665400385856628
,relaxation,0.9537369608879089
,portrait,0.9529221057891846
,pretty,0.9414787292480469
,people,0.9403323531150818
,family,0.9394139051437378
,girl,0.9267880916595459
,sexy,0.9182291030883789
,facial expression,0.9156579971313477
,dawn,0.8923826813697815
,eye,0.8819200992584229
,cute,0.8731424808502197
,leisure,0.8671115636825562
,glamour,0.8567167520523071
,brunette,0.843471884727478
,adolescent,0.8377447128295898
,one,0.833209753036499
,love,0.8308631181716919
https://scontent.cdninstagram.com/t51.2885-15/e15/11324876_379195188950955_1734279309_n.jpg,text,0.9665604829788208
,illustration,0.9370686411857605
,calendar,0.9269700050354004
,number,0.9064314365386963
,symbol,0.8817793130874634
,business,0.8804302215576172
,desktop,0.8795406222343445
,time,0.8735702037811279
,schedule,0.8689029216766357
,date,0.8619251251220703
,abstract,0.8550106287002563
,cloud,0.8503314852714539
,horizontal,0.8481559753417969
,almanac,0.848147988319397
,vector,0.8455856442451477
,give voice,0.8428235054016113
,data,0.8416931629180908
,alphabet,0.8314204216003418
,communication,0.8178335428237915
,data,0.8008241653442383
https://scontent.cdninstagram.com/t51.2885-15/e35/12822341_999014386800836_2031401048_n.jpg,people,0.985447883605957
,woman,0.9468664526939392
,education,0.9442723989486694
,man,0.9432024955749512
,adult,0.9311186075210571
,child,0.9283280372619629
,school,0.9261688590049744
,portrait,0.9132257699966431
,group,0.9106749892234802
,crowd,0.8849308490753174
,indoors,0.8723939657211304
,exhibition,0.8225313425064087
,editorial,0.8197452425956726
,International,0.8049132823944092
,many,0.8024370074272156
,friendship,0.7976518869400024
,event,0.7962791919708252
,variation,0.7926576137542725
,stock,0.7846317291259766
,cheerful,0.7686026692390442
https://scontent.cdninstagram.com/t51.2885-15/sh0.08/e35/p640x640/12912784_1715778335326561_1187115657_n.jpg,snow,0.9804408550262451
,winter,0.9791735410690308
,people,0.9629396200180054
,outdoors,0.9550430774688721
,sky,0.9539319276809692
,symbol,0.9513829350471497
,man,0.942180871963501
,vertical,0.9374301433563232
,silhouette,0.921864926815033
,energy,0.9153581857681274
,illustration,0.9106772541999817
,Christmas,0.8704872131347656
,ice,0.8548588156700134
,sport,0.8401635885238647
,fun,0.835802435874939
,cold,0.8274452686309814
,celebration,0.8245928287506104
,no person,0.823381781578064
,light,0.8223628997802734
,frost,0.8182419538497925
https://scontent.cdninstagram.com/t51.2885-15/sh0.08/e35/p750x750/12940161_1695335890717029_1400375931_n.jpg,child,0.9899616241455078
,woman,0.9493740797042847
,portrait,0.9194003343582153
,people,0.914901852607727
,outdoors,0.9141892194747925
,music,0.8960856795310974
,fashion,0.8883061408996582
,adolescent,0.8836885690689087
,wear,0.8435107469558716
,one,0.8406490087509155
,enjoyment,0.8375371694564819
,competition,0.8199702501296997
,festival,0.8198986053466797
,indoors,0.7992610931396484
,recreation,0.7905817031860352
,innocence,0.7890981435775757
,fun,0.783591628074646
,eye,0.7502931356430054
,cute,0.7462571263313293
,leisure,0.7355196475982666
https://scontent.cdninstagram.com/t51.2885-15/sh0.08/e35/p750x750/12940161_1695335890717029_1400375931_n.jpg,child,0.9899616241455078
,woman,0.9493740797042847
,portrait,0.9194003343582153
,people,0.914901852607727
,outdoors,0.9141892194747925
,music,0.8960856795310974
,fashion,0.8883061408996582
,adolescent,0.8836885690689087
,wear,0.8435107469558716
,one,0.8406490087509155
,enjoyment,0.8375371694564819
,competition,0.8199702501296997
,festival,0.8198986053466797
,indoors,0.7992610931396484
,recreation,0.7905817031860352
,innocence,0.7890981435775757
,fun,0.783591628074646
,eye,0.7502931356430054
,cute,0.7462571263313293
,leisure,0.7355196475982666
https://scontent.cdninstagram.com/t51.2885-15/e35/12724679_204312626611700_462623366_n.jpg,paper,0.9692037105560303
,card,0.9462374448776245
,toy,0.9385721683502197
,shopping,0.9194691181182861
,illustration,0.9026618599891663
,gift,0.9007937908172607
,birthday,0.8949691653251648
,fun,0.8853551149368286
,money,0.8849198818206787
,child,0.8839886784553528
,desktop,0.8799545168876648
,business,0.862511157989502
,pattern,0.8571352958679199
,design,0.8481084108352661
,no person,0.8444775938987732
,color,0.8162970542907715
,party,0.7985047698020935
,note,0.7976521253585815
,cute,0.7902671098709106
,celebration,0.7876670360565186
https://scontent.cdninstagram.com/t51.2885-15/sh0.08/e35/p640x640/12912784_1715778335326561_1187115657_n.jpg,snow,0.9804408550262451
,winter,0.9791735410690308
,people,0.9629396200180054
,outdoors,0.9550430774688721
,sky,0.9539319276809692
,symbol,0.9513829350471497
,man,0.942180871963501
,vertical,0.9374301433563232
,silhouette,0.921864926815033
,energy,0.9153581857681274
,illustration,0.9106772541999817
,Christmas,0.8704872131347656
,ice,0.8548588156700134
,sport,0.8401635885238647
,fun,0.835802435874939
,cold,0.8274452686309814
,celebration,0.8245928287506104
,no person,0.823381781578064
,light,0.8223628997802734
,frost,0.8182419538497925
https://scontent.cdninstagram.com/t51.2885-15/sh0.08/e35/p640x640/12935105_515606258628537_1540346534_n.jpg,food,0.9758906364440918
,drink,0.9623635411262512
,no person,0.9542531967163086
,cold,0.9536817669868469
,sweet,0.94737708568573
,ice,0.9418656826019287
,sugar,0.9376837015151978
,refreshment,0.9134159088134766
,glass,0.9132833480834961
,wood,0.9106847047805786
,liquid,0.908208429813385
,chocolate,0.8932651281356812
,indoors,0.8860981464385986
,cup,0.8818926811218262
,one,0.8776206374168396
,color,0.8618482351303101
,restaurant,0.8608606457710266
,fruit,0.8601651191711426
,party,0.8589298725128174
,foam,0.8579647541046143
https://scontent.cdninstagram.com/t51.2885-15/e35/12724679_204312626611700_462623366_n.jpg,paper,0.9692037105560303
,card,0.9462374448776245
,toy,0.9385721683502197
,shopping,0.9194691181182861
,illustration,0.9026618599891663
,gift,0.9007937908172607
,birthday,0.8949691653251648
,fun,0.8853551149368286
,money,0.8849198818206787
,child,0.8839886784553528
,desktop,0.8799545168876648
,business,0.862511157989502
,pattern,0.8571352958679199
,design,0.8481084108352661
,no person,0.8444775938987732
,color,0.8162970542907715
,party,0.7985047698020935
,note,0.7976521253585815
,cute,0.7902671098709106
,celebration,0.7876670360565186
https://scontent.cdninstagram.com/t51.2885-15/e15/13166909_264698067209386_551996258_n.jpg,competition,0.992253303527832
,action,0.989388108253479
,race,0.9839097261428833
,motion,0.9770979881286621
,people,0.9744707345962524
,vehicle,0.9496959447860718
,athlete,0.9452167749404907
,adult,0.9368664026260376
,hurry,0.9352922439575195
,bike,0.9336339235305786
,silhouette,0.9142929315567017
,wheel,0.9101847410202026
,teamwork,0.901401162147522
,man,0.8897217512130737
,exhilaration,0.8889594078063965
,championship,0.8739936351776123
,transportation system,0.873511016368866
,fast,0.862970232963562
,sitting,0.8565497994422913
,winter,0.8410436511039734
https://scontent.cdninstagram.com/t51.2885-15/sh0.08/e35/p640x640/13391124_639523749536735_782367230_n.jpg,woman,0.9848812818527222
,people,0.978620171546936
,fun,0.970157265663147
,portrait,0.9695973992347717
,girl,0.9694044589996338
,adult,0.9638152122497559
,child,0.9352378845214844
,happiness,0.9331161975860596
,luck,0.9222831726074219
,game,0.9218628406524658
,recreation,0.9184277057647705
,one,0.9098490476608276
,toy,0.9084323048591614
,finance,0.9058175086975098
,balloon,0.9052611589431763
,enjoyment,0.901563286781311
,money,0.891319990158081
,wealth,0.8800086975097656
,leisure,0.8765053153038025
,business,0.8762595057487488
https://scontent.cdninstagram.com/t51.2885-15/e35/13266684_1747948672155760_797049984_n.jpg,art,0.9394253492355347
,tree,0.938525915145874
,garden,0.9338335990905762
,wood,0.9324198961257935
,tropical,0.9308795928955078
,food,0.9280680418014526
,nature,0.9211069345474243
,leaf,0.9062039852142334
,illustration,0.9011427760124207
,flora,0.8945120573043823
,water,0.8891719579696655
,traditional,0.8807406425476074
,landscape,0.8795272707939148
,design,0.8617571592330933
,summer,0.8594894409179688
,people,0.857119083404541
,jungle,0.85649573802948
,travel,0.8483988046646118
,culture,0.8464357256889343
,color,0.8370729684829712
https://scontent.cdninstagram.com/t51.2885-15/sh0.08/e35/p750x750/13285419_620734641422607_1946369402_n.jpg,people,0.9955041408538818
,group,0.9935945868492126
,woman,0.9828845262527466
,portrait,0.969599187374115
,child,0.9617848992347717
,girl,0.959872841835022
,man,0.9551670551300049
,adult,0.9260795712471008
,collage,0.9257938861846924
,young,0.909612774848938
,family,0.9063791632652283
,person,0.904935896396637
,event,0.8947480320930481
,fun,0.8887216448783875
,friendship,0.886358380317688
,beautiful,0.868445873260498
,music,0.8636636137962341
,many,0.8525098562240601
,smile,0.8452877402305603
,editorial,0.8414031863212585
https://scontent.cdninstagram.com/t51.2885-15/e35/13266684_1747948672155760_797049984_n.jpg,art,0.9394253492355347
,tree,0.938525915145874
,garden,0.9338335990905762
,wood,0.9324198961257935
,tropical,0.9308795928955078
,food,0.9280680418014526
,nature,0.9211069345474243
,leaf,0.9062039852142334
,illustration,0.9011427760124207
,flora,0.8945120573043823
,water,0.8891719579696655
,traditional,0.8807406425476074
,landscape,0.8795272707939148
,design,0.8617571592330933
,summer,0.8594894409179688
,people,0.857119083404541
,jungle,0.85649573802948
,travel,0.8483988046646118
,culture,0.8464357256889343
,color,0.8370729684829712
https://scontent.cdninstagram.com/t51.2885-15/e15/13166909_264698067209386_551996258_n.jpg,competition,0.992253303527832
,action,0.989388108253479
,race,0.9839097261428833
,motion,0.9770979881286621
,people,0.9744707345962524
,vehicle,0.9496959447860718
,athlete,0.9452167749404907
,adult,0.9368664026260376
,hurry,0.9352922439575195
,bike,0.9336339235305786
,silhouette,0.9142929315567017
,wheel,0.9101847410202026
,teamwork,0.901401162147522
,man,0.8897217512130737
,exhilaration,0.8889594078063965
,championship,0.8739936351776123
,transportation system,0.873511016368866
,fast,0.862970232963562
,sitting,0.8565497994422913
,winter,0.8410436511039734
https://scontent.cdninstagram.com/t51.2885-15/sh0.08/e35/p640x640/12935105_515606258628537_1540346534_n.jpg,food,0.9758906364440918
,drink,0.9623635411262512
,no person,0.9542531967163086
,cold,0.9536817669868469
,sweet,0.94737708568573
,ice,0.9418656826019287
,sugar,0.9376837015151978
,refreshment,0.9134159088134766
,glass,0.9132833480834961
,wood,0.9106847047805786
,liquid,0.908208429813385
,chocolate,0.8932651281356812
,indoors,0.8860981464385986
,cup,0.8818926811218262
,one,0.8776206374168396
,color,0.8618482351303101
,restaurant,0.8608606457710266
,fruit,0.8601651191711426
,party,0.8589298725128174
,foam,0.8579647541046143
https://scontent.cdninstagram.com/t51.2885-15/s750x750/sh0.08/e35/13381259_1126680974021276_223868080_n.jpg,group,0.9979345798492432
,woman,0.9879307746887207
,group,0.9853366613388062
,adult,0.9735534191131592
,people,0.9680476188659668
,man,0.9645103216171265
,portrait,0.9560599327087402
,school,0.9441546201705933
,education,0.936715841293335
,child,0.9292260408401489
,girl,0.9120388031005859
,youth,0.9038273692131042
,five,0.8900080919265747
,exhibition,0.8850599527359009
,facial expression,0.8839749097824097
,family,0.8717411756515503
,four,0.8693814277648926
,several,0.8689855337142944
,festival,0.8667813539505005
,friendship,0.8577508926391602
https://scontent.cdninstagram.com/t51.2885-15/sh0.08/e35/p750x750/13285419_620734641422607_1946369402_n.jpg,people,0.9955041408538818
,group,0.9935945868492126
,woman,0.9828845262527466
,portrait,0.969599187374115
,child,0.9617848992347717
,girl,0.959872841835022
,man,0.9551670551300049
,adult,0.9260795712471008
,collage,0.9257938861846924
,young,0.909612774848938
,family,0.9063791632652283
,person,0.904935896396637
,event,0.8947480320930481
,fun,0.8887216448783875
,friendship,0.886358380317688
,beautiful,0.868445873260498
,music,0.8636636137962341
,many,0.8525098562240601
,smile,0.8452877402305603
,editorial,0.8414031863212585
