url,class,score,,,,,,,,
https://scontent-sit4-1.cdninstagram.com/t51.2885-15/e35/13649383_897918247020429_2011988723_n.jpg,isolated,0.9960819482803345,Commerce,,,,"Product/brand shots",,,
,shining,0.9937046766281128,,,,,,,,
,leather,0.9817115068435669,,,,,,,,
,glamour,0.981065034866333,,,,,,,,
,shopping,0.9789465665817261,,,,,,,,
,fashion,0.9787982106208801,,,,,,,,
,elegant,0.9750896692276001,,,,,,,,
,"no person",0.9719698429107666,,,,,,,,
,luxury,0.9610447883605957,,,,,,,,
,bag,0.9590483903884888,,,,,,,,
,purse,0.9469447135925293,,,,,,,,
,buckle,0.9455205202102661,,,,,,,,
,woman,0.9358389973640442,,,,,,,,
,accessory,0.9287622570991516,,,,,,,,
,shop,0.9247256517410278,,,,,,,,
,modern,0.9098862409591675,,,,,,,,
,cutout,0.8949670791625977,,,,,,,,
,handle,0.8860509395599365,,,,,,,,
,style,0.8809753656387329,,,,,,,,
,strap,0.8579453229904175,,,,,,,,
https://scontent-sit4-1.cdninstagram.com/t51.2885-15/s750x750/sh0.08/e35/13741129_1721689184747951_1686936444_n.jpg,desktop,0.9417418241500854,Technology,,,,Technology-s,,,
,people,0.9392011165618896,,,,,,,,
,person,0.9083729982376099,,,,,,,,
,woman,0.9048147201538086,,,,,,,,
,isolated,0.8919867277145386,,,,,,,,
,adult,0.8770089745521545,,,,,,,,
,hand,0.8763553500175476,,,,,,,,
,hanging,0.868855357170105,,,,,,,,
,human,0.8446714878082275,,,,,,,,
,medicine,0.8403160572052002,,,,,,,,
,business,0.8368909955024719,,,,,,,,
,blank,0.8303714990615845,,,,,,,,
,man,0.8302969336509705,,,,,,,,
,studio,0.8276606202125549,,,,,,,,
,one,0.8225522637367249,,,,,,,,
,healthcare,0.8091931343078613,,,,,,,,
,young,0.8073219060897827,,,,,,,,
,girl,0.806397020816803,,,,,,,,
,art,0.7932707667350769,,,,,,,,
,health,0.7861614227294922,,,,,,,,
https://scontent-sit4-1.cdninstagram.com/t51.2885-15/s750x750/sh0.08/e35/13774199_165793697174662_383773449_n.jpg,wear,0.9836491346359253,Commerce,,,,"Product/brand shots",,,
,fashion,0.9834038615226746,,,,,,,,
,leather,0.9811379909515381,,,,,,,,
,bag,0.9400758147239685,,,,,,,,
,dress,0.9341095089912415,,,,,,,,
,accessory,0.9161860346794128,,,,,,,,
,color,0.8927003145217896,,,,,,,,
,handle,0.8883740901947021,,,,,,,,
,desktop,0.8877479434013367,,,,,,,,
,style,0.8844768404960632,,,,,,,,
,vintage,0.884209930896759,,,,,,,,
,shopping,0.8824083805084229,,,,,,,,
,war,0.8806551694869995,,,,,,,,
,isolated,0.8779945373535156,,,,,,,,
,protection,0.8744429349899292,,,,,,,,
,purse,0.8727465867996216,,,,,,,,
,design,0.8619309663772583,,,,,,,,
,combat,0.852922797203064,,,,,,,,
,strap,0.8459893465042114,,,,,,,,
,old,0.8287205100059509,,,,,,,,
https://scontent-sit4-1.cdninstagram.com/t51.2885-15/e35/13437273_1027874980654101_381100556_n.jpg,light,0.9880220890045166,Recreation,,,,Adventure,,,
,people,0.9873460531234741,,,,,,,,
,music,0.966183066368103,,,,,,,,
,performance,0.923673152923584,,,,,,,,
,energy,0.9193171262741089,,,,,,,,
,adult,0.8998844623565674,,,,,,,,
,travel,0.8951565027236938,,,,,,,,
,festival,0.8884813189506531,,,,,,,,
,concert,0.8793758153915405,,,,,,,,
,stage,0.8778992891311646,,,,,,,,
,portrait,0.8725891709327698,,,,,,,,
,technology,0.8694477081298828,,,,,,,,
,motion,0.8456672430038452,,,,,,,,
,man,0.8247184753417969,,,,,,,,
,desktop,0.8243489861488342,,,,,,,,
,girl,0.8114560842514038,,,,,,,,
,one,0.8067942261695862,,,,,,,,
,dark,0.8002045154571533,,,,,,,,
,landscape,0.7964217662811279,,,,,,,,
,mirror,0.7695597410202026,,,,,,,,
https://scontent-sit4-1.cdninstagram.com/t51.2885-15/s750x750/sh0.08/e35/13704280_641954999304037_1075336106_n.jpg,vertical,0.9823620319366455,Commerce,,,,Promotions,,,
,text,0.9595586061477661,,,,,,,,
,paper,0.9558649063110352,,,,,,,,
,page,0.9392204880714417,,,,,,,,
,business,0.9317890405654907,,,,,,,,
,horizontal,0.9222301840782166,,,,,,,,
,square,0.9132723808288574,,,,,,,,
,"still life",0.8614038228988647,,,,,,,,
,document,0.8601012229919434,,,,,,,,
,illustration,0.8146346807479858,,,,,,,,
,celebration,0.7972350120544434,,,,,,,,
,desktop,0.7878211140632629,,,,,,,,
,box,0.782989501953125,,,,,,,,
,communication,0.7780750393867493,,,,,,,,
,security,0.7689789533615112,,,,,,,,
,education,0.7636103630065918,,,,,,,,
,label,0.7612099647521973,,,,,,,,
,thread,0.755219578742981,,,,,,,,
,time,0.7446330785751343,,,,,,,,
,success,0.7392038106918335,,,,,,,,
https://scontent-sit4-1.cdninstagram.com/t51.2885-15/s750x750/sh0.08/e35/13704345_848376901961024_75308144_n.jpg,illustration,0.9928358793258667,Commerce,,,,Promotions,,,
,business,0.9606717824935913,,,,,,,,
,vector,0.9594708681106567,,,,,,,,
,vector,0.951480507850647,,,,,,,,
,text,0.943390429019928,,,,,,,,
,sign,0.9379215240478516,,,,,,,,
,label,0.9325805306434631,,,,,,,,
,symbol,0.9314950704574585,,,,,,,,
,stock,0.9101787805557251,,,,,,,,
,sale,0.899822473526001,,,,,,,,
,promotion,0.8964370489120483,,,,,,,,
,image,0.8947945237159729,,,,,,,,
,bill,0.893200159072876,,,,,,,,
,paper,0.8756346702575684,,,,,,,,
,abstract,0.8725811243057251,,,,,,,,
,clearance,0.870099663734436,,,,,,,,
,shape,0.8693678379058838,,,,,,,,
,price,0.866066038608551,,,,,,,,
,design,0.8615666031837463,,,,,,,,
,design,0.8338592052459717,,,,,,,,
https://scontent-sit4-1.cdninstagram.com/t51.2885-15/s750x750/sh0.08/e35/13380871_566693216843002_98446026_n.jpg,business,0.9896223545074463,Entertainment,Relationships,,,Destinations,Family,,
,people,0.959410548210144,,,,,,,,
,woman,0.9162231683731079,,,,,,,,
,man,0.9098937511444092,,,,,,,,
,television,0.9037132859230042,,,,,,,,
,education,0.8793333768844604,,,,,,,,
,contemporary,0.8752976655960083,,,,,,,,
,indoors,0.8594090938568115,,,,,,,,
,travel,0.8486040830612183,,,,,,,,
,technology,0.8291071057319641,,,,,,,,
,exhibition,0.8271726369857788,,,,,,,,
,group,0.8255484104156494,,,,,,,,
,commerce,0.8064080476760864,,,,,,,,
,city,0.7963107824325562,,,,,,,,
,modern,0.7911286354064941,,,,,,,,
,movie,0.7890003323554993,,,,,,,,
,adult,0.7883518934249878,,,,,,,,
,billboard,0.7730715274810791,,,,,,,,
,school,0.7659448385238647,,,,,,,,
,bill,0.7629734873771667,,,,,,,,
https://scontent-sit4-1.cdninstagram.com/t51.2885-15/e35/13355459_528331410707175_1347514986_n.jpg,bag,0.9991357326507568,Commerce,,,,"Product/brand shots",,,
,luggage,0.9983901977539062,,,,,,,,
,purse,0.9960846900939941,,,,,,,,
,leather,0.9959904551506042,,,,,,,,
,handle,0.98903489112854,,,,,,,,
,"no person",0.9863359928131104,,,,,,,,
,isolated,0.9858871698379517,,,,,,,,
,fashion,0.9834434986114502,,,,,,,,
,luxury,0.9810633659362793,,,,,,,,
,case,0.9661726951599121,,,,,,,,
,briefcase,0.9657927751541138,,,,,,,,
,shopping,0.9613610506057739,,,,,,,,
,elegant,0.9519681930541992,,,,,,,,
,shining,0.9496136903762817,,,,,,,,
,strap,0.9228097200393677,,,,,,,,
,buckle,0.9196826219558716,,,,,,,,
,glamour,0.9157027006149292,,,,,,,,
,accessory,0.9037061929702759,,,,,,,,
,wear,0.8786096572875977,,,,,,,,
,style,0.8740879893302917,,,,,,,,
https://scontent-sit4-1.cdninstagram.com/t51.2885-15/e35/13649387_272659843102465_1490973707_n.jpg,portrait,0.9923491477966309,"My life",,,,Selfie,,,
,woman,0.991972804069519,,,,,,,,
,people,0.991400420665741,,,,,,,,
,"facial expression",0.9861561059951782,,,,,,,,
,one,0.9818345904350281,,,,,,,,
,wear,0.9748369455337524,,,,,,,,
,adult,0.9701440334320068,,,,,,,,
,indoors,0.9622510671615601,,,,,,,,
,girl,0.9499824047088623,,,,,,,,
,accomplishment,0.915330708026886,,,,,,,,
,festival,0.9146153926849365,,,,,,,,
,education,0.9100576043128967,,,,,,,,
,school,0.9070380926132202,,,,,,,,
,happiness,0.9048190116882324,,,,,,,,
,adolescent,0.8898102045059204,,,,,,,,
,movie,0.8790967464447021,,,,,,,,
,ceremony,0.8715420961380005,,,,,,,,
,music,0.8507760167121887,,,,,,,,
,actress,0.8279311060905457,,,,,,,,
,brunette,0.8251809477806091,,,,,,,,
https://scontent-sit4-1.cdninstagram.com/t51.2885-15/e35/13704257_141321619634254_179372162_n.jpg,food,0.9938652515411377,Food,,,,"Meal time",,,
,"no person",0.983077883720398,,,,,,,,
,traditional,0.96525639295578,,,,,,,,
,delicious,0.9638410210609436,,,,,,,,
,bowl,0.9624571204185486,,,,,,,,
,lunch,0.9464818835258484,,,,,,,,
,dinner,0.9440708160400391,,,,,,,,
,meal,0.9420531988143921,,,,,,,,
,dish,0.9332935810089111,,,,,,,,
,cooking,0.932641863822937,,,,,,,,
,hot,0.918800413608551,,,,,,,,
,nutrition,0.9078576564788818,,,,,,,,
,meat,0.9037313461303711,,,,,,,,
,plate,0.9028065204620361,,,,,,,,
,grow,0.9019939303398132,,,,,,,,
,rice,0.9017000198364258,,,,,,,,
,cuisine,0.8963950872421265,,,,,,,,
,vegetable,0.8955037593841553,,,,,,,,
,milk,0.8894789814949036,,,,,,,,
,wood,0.8882672786712646,,,,,,,,
https://scontent-sit4-1.cdninstagram.com/t51.2885-15/e35/13531794_911864175602536_783441036_n.jpg,vertical,0.9855691194534302,Commerce,,,,Promotions,,,
,business,0.9814838171005249,,,,,,,,
,text,0.9671639204025269,,,,,,,,
,identity,0.9438362121582031,,,,,,,,
,finance,0.8741022348403931,,,,,,,,
,data,0.8718613386154175,,,,,,,,
,people,0.8692009449005127,,,,,,,,
,"World Wide Web",0.8534026145935059,,,,,,,,
,presentation,0.8533364534378052,,,,,,,,
,page,0.8412179946899414,,,,,,,,
,illustration,0.8183825016021729,,,,,,,,
,paper,0.8175238370895386,,,,,,,,
,service,0.8146554231643677,,,,,,,,
,number,0.805720329284668,,,,,,,,
,label,0.7975152730941772,,,,,,,,
,security,0.7954659461975098,,,,,,,,
,sale,0.7904496192932129,,,,,,,,
,desktop,0.7891603708267212,,,,,,,,
,fashion,0.7864012718200684,,,,,,,,
,communication,0.7817269563674927,,,,,,,,
https://scontent-sit4-1.cdninstagram.com/t51.2885-15/s750x750/sh0.08/e35/13774587_941812575940853_759228121_n.jpg,woman,0.9829279184341431,Commerce,,,,"Product/brand shots",,,
,outdoors,0.9598597884178162,,,,,,,,
,relaxation,0.9585774540901184,,,,,,,,
,nature,0.9446828961372375,,,,,,,,
,sky,0.940800666809082,,,,,,,,
,summer,0.9306799173355103,,,,,,,,
,people,0.908183217048645,,,,,,,,
,horizontal,0.9040481448173523,,,,,,,,
,freedom,0.8801907300949097,,,,,,,,
,health,0.866722822189331,,,,,,,,
,care,0.861534595489502,,,,,,,,
,success,0.851388692855835,,,,,,,,
,"fair weather",0.8222299814224243,,,,,,,,
,carefree,0.8046232461929321,,,,,,,,
,vertical,0.7965584993362427,,,,,,,,
,text,0.775405764579773,,,,,,,,
,travel,0.7738116383552551,,,,,,,,
,adult,0.7462741136550903,,,,,,,,
,improvement,0.7363539934158325,,,,,,,,
,bottle,0.7259294986724854,,,,,,,,
https://scontent-sit4-1.cdninstagram.com/t51.2885-15/e35/13551812_100642093703616_1768156442_n.jpg,"no person",0.9888920783996582,Commerce,Arts,,,"Product/brand shots",Motivational,,
,paper,0.9882084131240845,,,,,,,,
,wood,0.9523395299911499,,,,,,,,
,business,0.9135489463806152,,,,,,,,
,indoors,0.8865594267845154,,,,,,,,
,card,0.876797080039978,,,,,,,,
,text,0.8499323725700378,,,,,,,,
,money,0.8460491299629211,,,,,,,,
,leisure,0.82859206199646,,,,,,,,
,"still life",0.824405312538147,,,,,,,,
,vertical,0.8192136287689209,,,,,,,,
,traditional,0.811490535736084,,,,,,,,
,retro,0.8077913522720337,,,,,,,,
,health,0.8071131110191345,,,,,,,,
,luxury,0.8056871891021729,,,,,,,,
,money,0.8040721416473389,,,,,,,,
,writing,0.7981809377670288,,,,,,,,
,finance,0.7764286398887634,,,,,,,,
,wealth,0.7703151106834412,,,,,,,,
,love,0.7601567506790161,,,,,,,,
https://scontent-sit4-1.cdninstagram.com/t51.2885-15/s750x750/sh0.08/e35/13534225_328136354184099_394306168_n.jpg,"no person",0.9698717594146729,Commerce,,,,"Product/brand shots",,,
,paper,0.9574958682060242,,,,,,,,
,business,0.8841890096664429,,,,,,,,
,luxury,0.8525243997573853,,,,,,,,
,shopping,0.8179078102111816,,,,,,,,
,isolated,0.8037837147712708,,,,,,,,
,health,0.7984164953231812,,,,,,,,
,plastic,0.7737354040145874,,,,,,,,
,healthcare,0.7602787017822266,,,,,,,,
,treatment,0.7597846388816833,,,,,,,,
,vacation,0.7469707131385803,,,,,,,,
,card,0.7357262372970581,,,,,,,,
,clean,0.7307474613189697,,,,,,,,
,wealth,0.7296800017356873,,,,,,,,
,indoors,0.7295997738838196,,,,,,,,
,"still life",0.6976282596588135,,,,,,,,
,money,0.6866763830184937,,,,,,,,
,vertical,0.6800968050956726,,,,,,,,
,elegant,0.663182258605957,,,,,,,,
,money,0.6611348390579224,,,,,,,,
https://scontent-sit4-1.cdninstagram.com/t51.2885-15/s750x750/sh0.08/e35/13744041_172731543144757_1516189107_n.jpg,paper,0.9881114959716797,Commerce,,,,"Product/brand shots",,,
,"no person",0.9877558946609497,,,,,,,,
,fashion,0.9687665700912476,,,,,,,,
,sewing,0.927444577217102,,,,,,,,
,thread,0.9185640811920166,,,,,,,,
,cotton,0.9149887561798096,,,,,,,,
,indoors,0.8999143838882446,,,,,,,,
,scissors,0.8840506076812744,,,,,,,,
,"arts and crafts",0.8838747143745422,,,,,,,,
,business,0.8810522556304932,,,,,,,,
,woman,0.8715821504592896,,,,,,,,
,sew,0.8604341745376587,,,,,,,,
,wear,0.8594970107078552,,,,,,,,
,creativity,0.8498207926750183,,,,,,,,
,plastic,0.840479850769043,,,,,,,,
,cardboard,0.8117855191230774,,,,,,,,
,healthcare,0.7947450876235962,,,,,,,,
,health,0.7937741279602051,,,,,,,,
,merchandise,0.7812116146087646,,,,,,,,
,luxury,0.7721197605133057,,,,,,,,
https://scontent-sit4-1.cdninstagram.com/t51.2885-15/e35/13584071_1761411484072588_662967927_n.jpg,wear,0.977617621421814,Commerce,,,,"Product/brand shots",,,
,exhibition,0.9634593725204468,,,,,,,,
,people,0.9598702192306519,,,,,,,,
,mannequin,0.9542236328125,,,,,,,,
,fashion,0.9468165040016174,,,,,,,,
,festival,0.9309567213058472,,,,,,,,
,competition,0.9284698963165283,,,,,,,,
,museum,0.9051562547683716,,,,,,,,
,man,0.9026196002960205,,,,,,,,
,shopping,0.8967007398605347,,,,,,,,
,indoors,0.8962896466255188,,,,,,,,
,stock,0.8915289044380188,,,,,,,,
,woman,0.8907166123390198,,,,,,,,
,collection,0.8846871852874756,,,,,,,,
,commerce,0.8552747964859009,,,,,,,,
,dress,0.8533976078033447,,,,,,,,
,celebration,0.8483024835586548,,,,,,,,
,outfit,0.8456976413726807,,,,,,,,
,business,0.8444052934646606,,,,,,,,
,show,0.8434944152832031,,,,,,,,
https://scontent-sit4-1.cdninstagram.com/t51.2885-15/e35/13532050_1735284953406201_1373259910_n.jpg,technology,0.987790584564209,Commerce,,,,"Product/brand shots",,,
,electronics,0.9705187678337097,,,,,,,,
,equipment,0.9699950218200684,,,,,,,,
,internet,0.9658478498458862,,,,,,,,
,sign,0.9626976251602173,,,,,,,,
,business,0.9495078921318054,,,,,,,,
,display,0.9475839138031006,,,,,,,,
,device,0.9462826251983643,,,,,,,,
,telephone,0.9452782273292542,,,,,,,,
,computer,0.9452217817306519,,,,,,,,
,illustration,0.9418326616287231,,,,,,,,
,"no person",0.9364901185035706,,,,,,,,
,symbol,0.9297463297843933,,,,,,,,
,isolated,0.9203752279281616,,,,,,,,
,"World Wide Web",0.9057401418685913,,,,,,,,
,screen,0.904393196105957,,,,,,,,
,monitor,0.9023414850234985,,,,,,,,
,vector,0.9022157192230225,,,,,,,,
,communication,0.893944501876831,,,,,,,,
,image,0.8852961659431458,,,,,,,,
https://scontent-sit4-1.cdninstagram.com/t51.2885-15/e35/13551712_921653244630390_1134071342_n.jpg,woman,0.9956986904144287,"My life",,,,Selfie,,,
,portrait,0.990807056427002,,,,,,,,
,"facial expression",0.98876953125,,,,,,,,
,one,0.9874595403671265,,,,,,,,
,people,0.9858912229537964,,,,,,,,
,adult,0.9835525751113892,,,,,,,,
,wear,0.979128360748291,,,,,,,,
,girl,0.9380511045455933,,,,,,,,
,fashion,0.9364995956420898,,,,,,,,
,actress,0.9319126605987549,,,,,,,,
,brunette,0.9187928438186646,,,,,,,,
,jewelry,0.8994664549827576,,,,,,,,
,happiness,0.8923662304878235,,,,,,,,
,indoors,0.8763998746871948,,,,,,,,
,fashionable,0.8516395092010498,,,,,,,,
,model,0.8388135433197021,,,,,,,,
,dress,0.8245875835418701,,,,,,,,
,festival,0.8205682039260864,,,,,,,,
,"red carpet",0.8152405023574829,,,,,,,,
,confidence,0.8121906518936157,,,,,,,,
https://scontent-sit4-1.cdninstagram.com/t51.2885-15/s750x750/sh0.08/e35/13774305_1055038754532892_1472635796_n.jpg,"no person",0.9987200498580933,Commerce,,,,"Product/brand shots",,,
,health,0.977605938911438,,,,,,,,
,merchandise,0.9253774285316467,,,,,,,,
,traditional,0.9239685535430908,,,,,,,,
,kind,0.9219471216201782,,,,,,,,
,food,0.9191322326660156,,,,,,,,
,wood,0.9071949124336243,,,,,,,,
,ingredients,0.8989559412002563,,,,,,,,
,bottle,0.8739476203918457,,,,,,,,
,soap,0.8722769021987915,,,,,,,,
,luxury,0.8568958640098572,,,,,,,,
,cooking,0.8560093641281128,,,,,,,,
,wine,0.8457598686218262,,,,,,,,
,glass,0.8331429958343506,,,,,,,,
,delicious,0.8163002133369446,,,,,,,,
,indoors,0.8097394704818726,,,,,,,,
,milk,0.7989784479141235,,,,,,,,
,Christmas,0.79743492603302,,,,,,,,
,option,0.7931659817695618,,,,,,,,
,healthcare,0.7883724570274353,,,,,,,,
https://scontent-sit4-1.cdninstagram.com/t51.2885-15/e35/13531968_546229475565402_1951476484_n.jpg,business,0.9292953014373779,Commerce,,,,"Product/brand shots",,,
,paper,0.9226993322372437,,,,,,,,
,"no person",0.8924576044082642,,,,,,,,
,woman,0.8592063188552856,,,,,,,,
,design,0.8373557329177856,,,,,,,,
,number,0.8335344791412354,,,,,,,,
,information,0.8235566020011902,,,,,,,,
,health,0.7727233171463013,,,,,,,,
,progress,0.7685421705245972,,,,,,,,
,"World Wide Web",0.7653523683547974,,,,,,,,
,graph,0.7481721639633179,,,,,,,,
,data,0.7459592819213867,,,,,,,,
,indoors,0.73563152551651,,,,,,,,
,booklet,0.7336828708648682,,,,,,,,
,template,0.7300032377243042,,,,,,,,
,internet,0.7209924459457397,,,,,,,,
,money,0.7202770709991455,,,,,,,,
,success,0.709801197052002,,,,,,,,
,money,0.7037005424499512,,,,,,,,
,contemporary,0.6961557865142822,,,,,,,,
https://scontent-sit4-1.cdninstagram.com/t51.2885-15/e35/13774361_648672778624634_1992980205_n.jpg,"no person",0.9928097724914551,Commerce,,,,"Product/brand shots",,,
,health,0.9137979745864868,,,,,,,,
,treatment,0.8779247999191284,,,,,,,,
,empty,0.8686539530754089,,,,,,,,
,one,0.8439614772796631,,,,,,,,
,bright,0.842706561088562,,,,,,,,
,clean,0.8328628540039062,,,,,,,,
,medicine,0.8301070332527161,,,,,,,,
,aromatherapy,0.8198961019515991,,,,,,,,
,paper,0.8040342330932617,,,,,,,,
,healthcare,0.7691774964332581,,,,,,,,
,bottle,0.7316751480102539,,,,,,,,
,luxury,0.7231965065002441,,,,,,,,
,business,0.7119594216346741,,,,,,,,
,nature,0.7040956020355225,,,,,,,,
,isolated,0.7025731801986694,,,,,,,,
,dark,0.6792643070220947,,,,,,,,
,tube,0.6749809384346008,,,,,,,,
,relaxation,0.6656267046928406,,,,,,,,
,growth,0.659549355506897,,,,,,,,
https://scontent-sit4-1.cdninstagram.com/t51.2885-15/s750x750/sh0.08/e35/13627917_146375455791251_70470033_n.jpg,illustration,0.9706377983093262,Commerce,,,,Promotions,,,
,text,0.9677679538726807,,,,,,,,
,wood,0.9615963697433472,,,,,,,,
,vertical,0.8782222270965576,,,,,,,,
,bill,0.8754634857177734,,,,,,,,
,horizontal,0.8675258159637451,,,,,,,,
,desktop,0.8411071300506592,,,,,,,,
,table,0.8274622559547424,,,,,,,,
,banner,0.823851466178894,,,,,,,,
,business,0.8233826160430908,,,,,,,,
,abstract,0.8218042850494385,,,,,,,,
,education,0.8068614602088928,,,,,,,,
,design,0.7956100702285767,,,,,,,,
,creativity,0.7917447090148926,,,,,,,,
,"picture frame",0.7759600877761841,,,,,,,,
,label,0.7643755674362183,,,,,,,,
,"give voice",0.7610852122306824,,,,,,,,
,decoration,0.7580265998840332,,,,,,,,
,vector,0.7375136613845825,,,,,,,,
,communication,0.7352122068405151,,,,,,,,
https://scontent-sit4-1.cdninstagram.com/t51.2885-15/e35/13724490_1832786693610845_261377163_n.jpg,"no person",0.9962660670280457,Commerce,,,,"Product/brand shots",,,
,business,0.9854097366333008,,,,,,,,
,kind,0.9691433906555176,,,,,,,,
,fashion,0.9478392601013184,,,,,,,,
,paper,0.9418444633483887,,,,,,,,
,technology,0.940414547920227,,,,,,,,
,plastic,0.9390465021133423,,,,,,,,
,education,0.9358577728271484,,,,,,,,
,data,0.9185831546783447,,,,,,,,
,research,0.9152528047561646,,,,,,,,
,creativity,0.9121973514556885,,,,,,,,
,composition,0.8968651294708252,,,,,,,,
,equipment,0.8962335586547852,,,,,,,,
,lipstick,0.884056568145752,,,,,,,,
,"make up",0.8791170120239258,,,,,,,,
,pencil,0.8758176565170288,,,,,,,,
,identity,0.8719053268432617,,,,,,,,
,electronics,0.8712226152420044,,,,,,,,
,glamour,0.8592310547828674,,,,,,,,
,blush,0.8560582399368286,,,,,,,,
https://scontent-sit4-1.cdninstagram.com/t51.2885-15/s750x750/sh0.08/e35/13549494_283945448625233_657906863_n.jpg,woman,0.980033278465271,"Fashion & Beauty",,,,Ootd,,,
,wear,0.9792155027389526,,,,,,,,
,fashion,0.9748622179031372,,,,,,,,
,people,0.9565314054489136,,,,,,,,
,adult,0.9557322263717651,,,,,,,,
,portrait,0.933146059513092,,,,,,,,
,model,0.928758978843689,,,,,,,,
,girl,0.8786518573760986,,,,,,,,
,dress,0.859020471572876,,,,,,,,
,one,0.8468899726867676,,,,,,,,
,museum,0.8364953398704529,,,,,,,,
,fashionable,0.8103127479553223,,,,,,,,
,festival,0.8061310052871704,,,,,,,,
,theater,0.793215811252594,,,,,,,,
,exhibition,0.7573150992393494,,,,,,,,
,glamour,0.7460485696792603,,,,,,,,
,performance,0.7424172163009644,,,,,,,,
,outfit,0.7087910175323486,,,,,,,,
,dancing,0.7019996643066406,,,,,,,,
,theater,0.6903437376022339,,,,,,,,
https://scontent-sit4-1.cdninstagram.com/t51.2885-15/e35/13745242_1238258282872477_1889768761_n.jpg,grass,0.9516825675964355,Commerce,,,,"Product/brand shots",,,
,outdoors,0.9297835826873779,,,,,,,,
,one,0.9173352718353271,,,,,,,,
,summer,0.916053295135498,,,,,,,,
,nature,0.9001115560531616,,,,,,,,
,environment,0.8869593739509583,,,,,,,,
,people,0.8640509843826294,,,,,,,,
,food,0.8565213084220886,,,,,,,,
,drink,0.8406928181648254,,,,,,,,
,hand,0.832921028137207,,,,,,,,
,park,0.8284467458724976,,,,,,,,
,medicine,0.7962294816970825,,,,,,,,
,health,0.7899006605148315,,,,,,,,
,money,0.7863239049911499,,,,,,,,
,man,0.7859773635864258,,,,,,,,
,landscape,0.7824665307998657,,,,,,,,
,generosity,0.7735083699226379,,,,,,,,
,business,0.7607296705245972,,,,,,,,
,adult,0.7418868541717529,,,,,,,,
,success,0.7412331104278564,,,,,,,,
https://scontent-sit4-1.cdninstagram.com/l/t51.2885-15/s750x750/sh0.08/e35/13423624_1773030402927557_149476368_n.jpg,people,0.9557956457138062,Commerce,,,,Promotions,,,
,man,0.9514499306678772,,,,,,,,
,woman,0.9429235458374023,,,,,,,,
,adult,0.9193698167800903,,,,,,,,
,person,0.9156990051269531,,,,,,,,
,desktop,0.8819670677185059,,,,,,,,
,portrait,0.8761993646621704,,,,,,,,
,group,0.8516240119934082,,,,,,,,
,education,0.8103758096694946,,,,,,,,
,communication,0.8047502040863037,,,,,,,,
,indoors,0.7955362796783447,,,,,,,,
,business,0.793299674987793,,,,,,,,
,squad,0.7678728103637695,,,,,,,,
,young,0.7655999064445496,,,,,,,,
,service,0.7360488176345825,,,,,,,,
,presentation,0.7347232699394226,,,,,,,,
,work,0.7327347993850708,,,,,,,,
,bill,0.721488893032074,,,,,,,,
,performance,0.7198594808578491,,,,,,,,
,teamwork,0.7063865065574646,,,,,,,,
https://scontent-sit4-1.cdninstagram.com/t51.2885-15/s750x750/sh0.08/e35/13557080_1616904071933891_1805135442_n.jpg,sunglasses,0.9945257902145386,Relationships,,,,"Best friends",,,
,woman,0.9887108206748962,,,,,,,,
,portrait,0.9808279275894165,,,,,,,,
,people,0.9807820916175842,,,,,,,,
,outdoors,0.9691131114959717,,,,,,,,
,summer,0.9683002233505249,,,,,,,,
,togetherness,0.9609867334365845,,,,,,,,
,adult,0.9598081111907959,,,,,,,,
,man,0.958842396736145,,,,,,,,
,couple,0.9464333057403564,,,,,,,,
,happiness,0.9436385631561279,,,,,,,,
,brunette,0.9412775039672852,,,,,,,,
,two,0.9362168312072754,,,,,,,,
,friendship,0.9339696168899536,,,,,,,,
,girl,0.932526171207428,,,,,,,,
,fun,0.9310657978057861,,,,,,,,
,park,0.925685703754425,,,,,,,,
,"facial expression",0.9080781936645508,,,,,,,,
,leisure,0.8703625798225403,,,,,,,,
,landscape,0.8694158792495728,,,,,,,,
https://scontent-sit4-1.cdninstagram.com/t51.2885-15/e35/13707271_1439044662788649_690913997_n.jpg,sky,0.9452810287475586,Commerce,,,,Promotions,,,
,sea,0.9450681209564209,,,,,,,,
,desktop,0.9440687894821167,,,,,,,,
,beach,0.9418669939041138,,,,,,,,
,"no person",0.9374874234199524,,,,,,,,
,illustration,0.924640417098999,,,,,,,,
,business,0.9237836599349976,,,,,,,,
,text,0.9235541224479675,,,,,,,,
,travel,0.9191696047782898,,,,,,,,
,summer,0.9185653328895569,,,,,,,,
,tropical,0.917583703994751,,,,,,,,
,water,0.9071712493896484,,,,,,,,
,vacation,0.901102602481842,,,,,,,,
,hot,0.8952073454856873,,,,,,,,
,nature,0.8842670917510986,,,,,,,,
,cloud,0.8714185953140259,,,,,,,,
,sun,0.8665475845336914,,,,,,,,
,sand,0.8645646572113037,,,,,,,,
,seashore,0.8509470820426941,,,,,,,,
,design,0.839399516582489,,,,,,,,
https://scontent-sit4-1.cdninstagram.com/t51.2885-15/s750x750/sh0.08/e35/13712259_589817471196692_240907988_n.jpg,business,0.969953715801239,Commerce,,,,Promotions,,,
,"no person",0.9516196250915527,,,,,,,,
,text,0.9456210136413574,,,,,,,,
,paper,0.9294049739837646,,,,,,,,
,thread,0.9204527139663696,,,,,,,,
,shopping,0.8943986892700195,,,,,,,,
,label,0.8844915628433228,,,,,,,,
,gift,0.881920337677002,,,,,,,,
,sign,0.8608794212341309,,,,,,,,
,sale,0.8513380289077759,,,,,,,,
,stock,0.847243070602417,,,,,,,,
,love,0.8431906700134277,,,,,,,,
,sign,0.8141080737113953,,,,,,,,
,card,0.8091596961021423,,,,,,,,
,conceptual,0.7940049171447754,,,,,,,,
,success,0.791833758354187,,,,,,,,
,box,0.7883962392807007,,,,,,,,
,symbol,0.7867394685745239,,,,,,,,
,isolated,0.7861611843109131,,,,,,,,
,tag,0.7855619192123413,,,,,,,,
https://scontent-sit4-1.cdninstagram.com/t51.2885-15/e35/13704216_1245510735482353_1468441614_n.jpg,woman,0.9953681230545044,"My life",,,,Selfie,,,
,portrait,0.9922264814376831,,,,,,,,
,girl,0.9813312888145447,,,,,,,,
,fashion,0.98050457239151,,,,,,,,
,people,0.9765415191650391,,,,,,,,
,"facial expression",0.9748444557189941,,,,,,,,
,one,0.9667490720748901,,,,,,,,
,wear,0.9617376923561096,,,,,,,,
,model,0.9451882839202881,,,,,,,,
,adolescent,0.94484543800354,,,,,,,,
,adult,0.938183069229126,,,,,,,,
,brunette,0.9280135631561279,,,,,,,,
,pretty,0.9231209754943848,,,,,,,,
,cute,0.9061092138290405,,,,,,,,
,happiness,0.8943945169448853,,,,,,,,
,joy,0.877890944480896,,,,,,,,
,indoors,0.8639534711837769,,,,,,,,
,young,0.837310791015625,,,,,,,,
,eye,0.8364638090133667,,,,,,,,
,child,0.8164746761322021,,,,,,,,
https://scontent-sit4-1.cdninstagram.com/t51.2885-15/e35/13696658_1717168071883698_1313465185_n.jpg,balloon,0.9908047914505005,Relationships,,,,"Best friends",,,
,fun,0.9848189949989319,,,,,,,,
,leisure,0.9765260219573975,,,,,,,,
,recreation,0.9652078747749329,,,,,,,,
,happiness,0.9605122804641724,,,,,,,,
,people,0.9593102335929871,,,,,,,,
,enjoyment,0.958869993686676,,,,,,,,
,outdoors,0.9579001665115356,,,,,,,,
,joy,0.9562779068946838,,,,,,,,
,sky,0.9531416296958923,,,,,,,,
,travel,0.9476691484451294,,,,,,,,
,summer,0.940438449382782,,,,,,,,
,freedom,0.9364017248153687,,,,,,,,
,active,0.9346545934677124,,,,,,,,
,nature,0.929131269454956,,,,,,,,
,adventure,0.9255056977272034,,,,,,,,
,basket,0.9181689023971558,,,,,,,,
,lifestyle,0.916225254535675,,,,,,,,
,carefree,0.903907060623169,,,,,,,,
,woman,0.9037806987762451,,,,,,,,
https://scontent-sit4-1.cdninstagram.com/t51.2885-15/s750x750/sh0.08/e35/13561813_291381154540757_320096999_n.jpg,flower,0.9796794652938843,Commerce,,,,"Product/brand shots",,,
,decoration,0.9718484878540039,,,,,,,,
,woman,0.958539605140686,,,,,,,,
,celebration,0.946824312210083,,,,,,,,
,nature,0.9423907995223999,,,,,,,,
,beautiful,0.9354610443115234,,,,,,,,
,love,0.9234539270401001,,,,,,,,
,bouquet,0.9207708239555359,,,,,,,,
,Christmas,0.9109509587287903,,,,,,,,
,girl,0.9104735851287842,,,,,,,,
,people,0.8929436802864075,,,,,,,,
,young,0.889799952507019,,,,,,,,
,season,0.8890705108642578,,,,,,,,
,floral,0.878738522529602,,,,,,,,
,leaf,0.8778979778289795,,,,,,,,
,rose,0.8707630038261414,,,,,,,,
,portrait,0.8581818342208862,,,,,,,,
,winter,0.856350839138031,,,,,,,,
,tree,0.8495917916297913,,,,,,,,
,gift,0.8446534276008606,,,,,,,,
https://scontent-sit4-1.cdninstagram.com/t51.2885-15/e35/13768207_1571584049816506_1034077455_n.jpg,"no person",0.9955403804779053,Commerce,,,,Promotions,,,
,paper,0.9951188564300537,,,,,,,,
,stacks,0.9595874547958374,,,,,,,,
,shopping,0.9589766263961792,,,,,,,,
,money,0.9459843635559082,,,,,,,,
,wealth,0.9417437314987183,,,,,,,,
,business,0.9377180337905884,,,,,,,,
,money,0.9281570315361023,,,,,,,,
,savings,0.9260896444320679,,,,,,,,
,box,0.9138118028640747,,,,,,,,
,luxury,0.8928999900817871,,,,,,,,
,retro,0.892324686050415,,,,,,,,
,Christmas,0.8783055543899536,,,,,,,,
,finance,0.8651964068412781,,,,,,,,
,success,0.8630303144454956,,,,,,,,
,love,0.8473461866378784,,,,,,,,
,passport,0.8471846580505371,,,,,,,,
,indoors,0.8042700886726379,,,,,,,,
,isolated,0.7960832118988037,,,,,,,,
,bow,0.788647472858429,,,,,,,,
https://scontent-sit4-1.cdninstagram.com/t51.2885-15/e35/13385796_1746962908909347_587895265_n.jpg,old,0.9636327624320984,Commerce,,,,Promotions,,,
,retro,0.949295163154602,,,,,,,,
,architecture,0.9479728937149048,,,,,,,,
,vertical,0.9258801937103271,,,,,,,,
,sign,0.9053522348403931,,,,,,,,
,travel,0.8817995190620422,,,,,,,,
,wall,0.8660775423049927,,,,,,,,
,symbol,0.8574212789535522,,,,,,,,
,paper,0.8560383319854736,,,,,,,,
,design,0.8555917739868164,,,,,,,,
,horizontal,0.854902446269989,,,,,,,,
,"no person",0.8502761721611023,,,,,,,,
,ancient,0.8341107368469238,,,,,,,,
,antique,0.832155168056488,,,,,,,,
,decoration,0.8138251304626465,,,,,,,,
,democracy,0.8130850791931152,,,,,,,,
,vintage,0.8119587898254395,,,,,,,,
,art,0.8045982122421265,,,,,,,,
,sign,0.7880614995956421,,,,,,,,
,pattern,0.7783333659172058,,,,,,,,
https://scontent-sit4-1.cdninstagram.com/t51.2885-15/e35/13391344_851661334963798_1704265963_n.jpg,business,0.9598264694213867,Commerce,,,,Promotions,,,
,text,0.9580981731414795,,,,,,,,
,people,0.9491058588027954,,,,,,,,
,adult,0.9218263626098633,,,,,,,,
,horizontal,0.9190076589584351,,,,,,,,
,vertical,0.9065134525299072,,,,,,,,
,conceptual,0.8899605870246887,,,,,,,,
,woman,0.883015513420105,,,,,,,,
,man,0.8730803728103638,,,,,,,,
,bill,0.8725992441177368,,,,,,,,
,cloud,0.8470149040222168,,,,,,,,
,success,0.8390007615089417,,,,,,,,
,unemployment,0.8169969320297241,,,,,,,,
,data,0.7989716529846191,,,,,,,,
,research,0.792555570602417,,,,,,,,
,technology,0.7849973440170288,,,,,,,,
,"transportation system",0.7730669975280762,,,,,,,,
,illustration,0.7706820964813232,,,,,,,,
,opportunity,0.7650359272956848,,,,,,,,
,content,0.761457085609436,,,,,,,,
https://scontent-sit4-1.cdninstagram.com/t51.2885-15/e35/13298008_868871566574503_1024125351_n.jpg,ice,0.9994999766349792,Food,Commerce,,,Dessert,Promotions,,
,cream,0.9993466138839722,,,,,,,,
,chocolate,0.9967154264450073,,,,,,,,
,vanilla,0.99651700258255,,,,,,,,
,sweet,0.9921578168869019,,,,,,,,
,cone,0.989617109298706,,,,,,,,
,goody,0.9856611490249634,,,,,,,,
,frozen,0.9831324815750122,,,,,,,,
,indulgence,0.9829323291778564,,,,,,,,
,caramel,0.9826028347015381,,,,,,,,
,cold,0.9818503856658936,,,,,,,,
,cornet,0.9808542728424072,,,,,,,,
,frozen,0.9793110489845276,,,,,,,,
,wafer,0.9766044616699219,,,,,,,,
,refreshment,0.9757336378097534,,,,,,,,
,sugar,0.9743790626525879,,,,,,,,
,"whipped cream",0.9740211963653564,,,,,,,,
,delicious,0.972914457321167,,,,,,,,
,creamy,0.9572900533676147,,,,,,,,
,glass,0.9489518404006958,,,,,,,,
https://scontent-sit4-1.cdninstagram.com/t51.2885-15/e35/13395054_1403528919954663_2120596311_n.jpg,people,0.9867863655090332,Cute,,,,Cute,,,
,woman,0.9615616202354431,,,,,,,,
,girl,0.9581445455551147,,,,,,,,
,portrait,0.9486504197120667,,,,,,,,
,exhibition,0.9305891990661621,,,,,,,,
,model,0.9229556322097778,,,,,,,,
,movie,0.9163037538528442,,,,,,,,
,adult,0.91593998670578,,,,,,,,
,street,0.9050358533859253,,,,,,,,
,group,0.8950878381729126,,,,,,,,
,event,0.8946689367294312,,,,,,,,
,stock,0.8910741806030273,,,,,,,,
,festival,0.8826260566711426,,,,,,,,
,fashion,0.8603823184967041,,,,,,,,
,university,0.8404167890548706,,,,,,,,
,wear,0.8176864385604858,,,,,,,,
,editorial,0.8159943222999573,,,,,,,,
,smile,0.8062152862548828,,,,,,,,
,family,0.7988801002502441,,,,,,,,
,couple,0.7918380498886108,,,,,,,,
https://scontent-sit4-1.cdninstagram.com/t51.2885-15/s750x750/sh0.08/e35/13827239_1069925773083608_555586937_n.jpg,"no person",0.9825807809829712,Undefined,,,,Undefined,,,
,internet,0.9659078121185303,,,,,,,,
,telephone,0.947849690914154,,,,,,,,
,image,0.9137709140777588,,,,,,,,
,symbol,0.9114668965339661,,,,,,,,
,cube,0.8909555673599243,,,,,,,,
,computer,0.8823294639587402,,,,,,,,
,sign,0.8508660793304443,,,,,,,,
,display,0.8413417339324951,,,,,,,,
,business,0.8400022983551025,,,,,,,,
,technology,0.7971667051315308,,,,,,,,
,network,0.7946298122406006,,,,,,,,
,pill,0.7867825031280518,,,,,,,,
,sign,0.7777822017669678,,,,,,,,
,connection,0.7660717964172363,,,,,,,,
,game,0.759564995765686,,,,,,,,
,television,0.7454445362091064,,,,,,,,
,text,0.7377359867095947,,,,,,,,
,industry,0.734618067741394,,,,,,,,
,"World Wide Web",0.7100813388824463,,,,,,,,
https://scontent-sit4-1.cdninstagram.com/t51.2885-15/s750x750/sh0.08/e35/13413484_276547239367149_703877593_n.jpg,child,0.9914119839668274,Commerce,,,,Promotions,,,
,people,0.9825330972671509,,,,,,,,
,fun,0.9771551489830017,,,,,,,,
,woman,0.952951192855835,,,,,,,,
,happiness,0.9526221752166748,,,,,,,,
,adult,0.9507504105567932,,,,,,,,
,friendship,0.9441637396812439,,,,,,,,
,cheerful,0.9391388893127441,,,,,,,,
,horizontal,0.9362058639526367,,,,,,,,
,togetherness,0.9354784488677979,,,,,,,,
,man,0.9109847545623779,,,,,,,,
,family,0.9103449583053589,,,,,,,,
,summer,0.9100542068481445,,,,,,,,
,enjoyment,0.9009765386581421,,,,,,,,
,education,0.8709356784820557,,,,,,,,
,sport,0.8683497905731201,,,,,,,,
,portrait,0.8642947673797607,,,,,,,,
,beach,0.8637151718139648,,,,,,,,
,laughing,0.844804048538208,,,,,,,,
,adolescent,0.8321449756622314,,,,,,,,
https://scontent-sit4-1.cdninstagram.com/t51.2885-15/e35/13652071_870192586454609_1601615936_n.jpg,woman,0.9857267737388611,"My life",Food,,,Selfie,Dessert,,
,adult,0.9806227684020996,,,,,,,,
,indoors,0.9794390201568604,,,,,,,,
,"facial expression",0.9714900255203247,,,,,,,,
,food,0.9694172739982605,,,,,,,,
,people,0.9678722620010376,,,,,,,,
,happiness,0.9408493041992188,,,,,,,,
,meal,0.9384897947311401,,,,,,,,
,portrait,0.9128848314285278,,,,,,,,
,wear,0.9090187549591064,,,,,,,,
,restaurant,0.897053599357605,,,,,,,,
,enjoyment,0.8920254111289978,,,,,,,,
,lunch,0.8757669925689697,,,,,,,,
,one,0.8720393180847168,,,,,,,,
,business,0.8662078976631165,,,,,,,,
,cooking,0.8615068197250366,,,,,,,,
,room,0.8474991321563721,,,,,,,,
,employee,0.8474212884902954,,,,,,,,
,child,0.8419800996780396,,,,,,,,
,technology,0.838951826095581,,,,,,,,
https://scontent-sit4-1.cdninstagram.com/t51.2885-15/e35/13551576_740521489422966_1447822049_n.jpg,nature,0.9934616088867188,Commerce,,,,"Product/brand shots",,,
,wood,0.9716242551803589,,,,,,,,
,"no person",0.971411943435669,,,,,,,,
,summer,0.9581887722015381,,,,,,,,
,toy,0.9229030609130859,,,,,,,,
,tree,0.9182714223861694,,,,,,,,
,flower,0.9172953367233276,,,,,,,,
,color,0.913099467754364,,,,,,,,
,desktop,0.9127887487411499,,,,,,,,
,closeup,0.911414384841919,,,,,,,,
,park,0.9047245979309082,,,,,,,,
,grass,0.8913540840148926,,,,,,,,
,outdoors,0.8866093158721924,,,,,,,,
,garden,0.8792275190353394,,,,,,,,
,season,0.8752750158309937,,,,,,,,
,cute,0.8594520092010498,,,,,,,,
,flora,0.8537071347236633,,,,,,,,
,beautiful,0.8414298295974731,,,,,,,,
,little,0.8356635570526123,,,,,,,,
,wooden,0.8345850706100464,,,,,,,,
https://scontent-sit4-1.cdninstagram.com/t51.2885-15/s750x750/sh0.08/e35/13714107_1734894880105055_464286730_n.jpg,"no person",0.9688396453857422,Commerce,,,,"Product/brand shots",,,
,medicine,0.9349983334541321,,,,,,,,
,healthcare,0.9281957149505615,,,,,,,,
,business,0.9260158538818359,,,,,,,,
,treatment,0.9216867685317993,,,,,,,,
,health,0.9082750678062439,,,,,,,,
,plastic,0.8867141008377075,,,,,,,,
,emergency,0.869579017162323,,,,,,,,
,aid,0.8445448875427246,,,,,,,,
,danger,0.8401263952255249,,,,,,,,
,number,0.8351907730102539,,,,,,,,
,paper,0.8291406631469727,,,,,,,,
,addiction,0.8203705549240112,,,,,,,,
,care,0.7631919384002686,,,,,,,,
,money,0.75336092710495,,,,,,,,
,drug,0.7523682117462158,,,,,,,,
,industry,0.7453917264938354,,,,,,,,
,label,0.7348802089691162,,,,,,,,
,money,0.7156229019165039,,,,,,,,
,litter,0.7082074880599976,,,,,,,,
https://scontent-sit4-1.cdninstagram.com/t51.2885-15/e35/13732236_1792200284326169_1723024172_n.jpg,collage,0.9750187397003174,Commerce,,,,"Product/brand shots",,,
,illustration,0.9712881445884705,,,,,,,,
,vector,0.9473541975021362,,,,,,,,
,collection,0.941974401473999,,,,,,,,
,set,0.9211608171463013,,,,,,,,
,color,0.9198347926139832,,,,,,,,
,desktop,0.917371392250061,,,,,,,,
,woman,0.915016233921051,,,,,,,,
,isolated,0.8863886594772339,,,,,,,,
,graphic,0.882230818271637,,,,,,,,
,design,0.8761334419250488,,,,,,,,
,abstract,0.8759861588478088,,,,,,,,
,party,0.8657374382019043,,,,,,,,
,symbol,0.8615118265151978,,,,,,,,
,people,0.8599632382392883,,,,,,,,
,fashion,0.8474820852279663,,,,,,,,
,fun,0.8448095321655273,,,,,,,,
,sign,0.8384928703308105,,,,,,,,
,paper,0.8262428641319275,,,,,,,,
,art,0.8256324529647827,,,,,,,,
https://scontent-sit4-1.cdninstagram.com/t51.2885-15/e35/13743388_262002020853247_1179644033_n.jpg,vertical,0.9948006868362427,Commerce,,,,"Product/brand shots",,,
,variation,0.9782168865203857,,,,,,,,
,stock,0.9770225286483765,,,,,,,,
,business,0.9752522706985474,,,,,,,,
,food,0.9752441644668579,,,,,,,,
,sale,0.9697956442832947,,,,,,,,
,shopping,0.9529420733451843,,,,,,,,
,shop,0.9516652226448059,,,,,,,,
,indoors,0.9458988904953003,,,,,,,,
,freshness,0.9432730674743652,,,,,,,,
,finance,0.936204195022583,,,,,,,,
,horizontal,0.935132622718811,,,,,,,,
,sell,0.929757833480835,,,,,,,,
,"still life",0.9294158220291138,,,,,,,,
,celebration,0.92897629737854,,,,,,,,
,merchandise,0.9262063503265381,,,,,,,,
,box,0.9247646331787109,,,,,,,,
,text,0.9217419624328613,,,,,,,,
,abundance,0.917415976524353,,,,,,,,
,people,0.9144454002380371,,,,,,,,
https://scontent-sit4-1.cdninstagram.com/t51.2885-15/s750x750/sh0.08/e35/13628319_157320284677347_274777161_n.jpg,baby,0.9874328374862671,Commerce,,,,Promotions,,,
,toy,0.9813157320022583,,,,,,,,
,child,0.9774545431137085,,,,,,,,
,shower,0.9734575748443604,,,,,,,,
,cute,0.9604777097702026,,,,,,,,
,boy,0.9382461309432983,,,,,,,,
,teddy,0.9253087043762207,,,,,,,,
,card,0.9236697554588318,,,,,,,,
,birthday,0.9186030626296997,,,,,,,,
,fun,0.9186012148857117,,,,,,,,
,birth,0.9160381555557251,,,,,,,,
,love,0.9129935503005981,,,,,,,,
,illustration,0.9126178622245789,,,,,,,,
,newborn,0.9100195169448853,,,,,,,,
,infantile,0.9079487323760986,,,,,,,,
,little,0.9028688669204712,,,,,,,,
,announcement,0.8854482769966125,,,,,,,,
,sketch,0.8821865916252136,,,,,,,,
,pacifier,0.8566029071807861,,,,,,,,
,special,0.8281174302101135,,,,,,,,
https://scontent-sit4-1.cdninstagram.com/t51.2885-15/e35/13739420_1075719792508536_663037970_n.jpg,food,0.9946770668029785,Food,,,,"Meal time",,,
,"no person",0.9858700037002563,,,,,,,,
,dinner,0.983332633972168,,,,,,,,
,meal,0.9831509590148926,,,,,,,,
,lunch,0.9753503799438477,,,,,,,,
,vegetable,0.9705986380577087,,,,,,,,
,dish,0.9660495519638062,,,,,,,,
,meat,0.9654147624969482,,,,,,,,
,plate,0.9637437462806702,,,,,,,,
,delicious,0.9586825370788574,,,,,,,,
,cooking,0.9537619352340698,,,,,,,,
,grow,0.9409197568893433,,,,,,,,
,mouth-watering,0.9320235848426819,,,,,,,,
,cuisine,0.927768349647522,,,,,,,,
,epicure,0.9102939367294312,,,,,,,,
,homemade,0.9085437059402466,,,,,,,,
,tasty,0.901276707649231,,,,,,,,
,hot,0.9009324312210083,,,,,,,,
,nutrition,0.9006349444389343,,,,,,,,
,potato,0.8996652364730835,,,,,,,,
https://scontent-sit4-1.cdninstagram.com/t51.2885-15/s750x750/sh0.08/e35/13694465_263853670662850_793254161_n.jpg,"no person",0.986113429069519,Commerce,,,,Promotions,,,
,wood,0.9568191170692444,,,,,,,,
,option,0.9514838457107544,,,,,,,,
,food,0.9276962280273438,,,,,,,,
,horizontal,0.9163937568664551,,,,,,,,
,health,0.9124690294265747,,,,,,,,
,ingredients,0.9120019674301147,,,,,,,,
,cooking,0.9066905975341797,,,,,,,,
,merchandise,0.8610610961914062,,,,,,,,
,abundance,0.8599693775177002,,,,,,,,
,stock,0.8445597887039185,,,,,,,,
,dry,0.8240737915039062,,,,,,,,
,indoors,0.8179526329040527,,,,,,,,
,kind,0.801626443862915,,,,,,,,
,taste,0.7846781015396118,,,,,,,,
,coffee,0.783429741859436,,,,,,,,
,business,0.7780839204788208,,,,,,,,
,vertical,0.7777360081672668,,,,,,,,
,shop,0.7675199508666992,,,,,,,,
,variation,0.7608367204666138,,,,,,,,
https://scontent-sit4-1.cdninstagram.com/t51.2885-15/e35/13534339_662695783878688_783322034_n.jpg,paper,0.9845430850982666,,,,,,,,
,paintbrush,0.9710323214530945,,,,,,,,
,set,0.964540958404541,,,,,,,,
,brush,0.9617596864700317,,,,,,,,
,scissors,0.9525723457336426,,,,,,,,
,capsule,0.9417687654495239,,,,,,,,
,pencil,0.9363628625869751,,,,,,,,
,needle,0.9359086751937866,,,,,,,,
,color,0.9325299263000488,,,,,,,,
,creativity,0.9021114110946655,,,,,,,,
,pill,0.9000530242919922,,,,,,,,
,treatment,0.8973077535629272,,,,,,,,
,drug,0.8893330693244934,,,,,,,,
,"no person",0.8794561624526978,,,,,,,,
,desktop,0.8775063157081604,,,,,,,,
,medicine,0.8712743520736694,,,,,,,,
,lipstick,0.8617698550224304,,,,,,,,
,sketch,0.8540464639663696,,,,,,,,
,"still life",0.8539072275161743,,,,,,,,
,business,0.8532843589782715,,,,,,,,
