url,class,score,,,,,,,,
https://scontent-sit4-1.cdninstagram.com/t51.2885-15/s640x640/e15/13714151_1635689210076649_1850775529_n.jpg,technology,0.9686617851257324,Entertainment,,,,Entertainment-s,,,
,one,0.9651994705200195,,,,,,,,
,"no person",0.9643603563308716,,,,,,,,
,people,0.9412343502044678,,,,,,,,
,tool,0.9316244125366211,,,,,,,,
,handle,0.9070952534675598,,,,,,,,
,equipment,0.9034420251846313,,,,,,,,
,support,0.8702633380889893,,,,,,,,
,image,0.8497971296310425,,,,,,,,
,vehicle,0.8320553302764893,,,,,,,,
,cutout,0.831463098526001,,,,,,,,
,painting,0.830873966217041,,,,,,,,
,energy,0.8226259350776672,,,,,,,,
,desktop,0.8205369710922241,,,,,,,,
,instrument,0.8168113231658936,,,,,,,,
,adult,0.814609169960022,,,,,,,,
,safety,0.8068299889564514,,,,,,,,
,action,0.8050315380096436,,,,,,,,
,two,0.7987736463546753,,,,,,,,
,color,0.7937208414077759,,,,,,,,
https://scontent-sit4-1.cdninstagram.com/t51.2885-15/e35/13388535_276999329356309_23501898_n.jpg,"no person",0.995646595954895,Arts,,,,Arts-s,,,
,lamp,0.9948903322219849,,,,,,,,
,light,0.9804928302764893,,,,,,,,
,room,0.956294059753418,,,,,,,,
,indoors,0.9452285766601562,,,,,,,,
,glass,0.9236960411071777,,,,,,,,
,home,0.916700005531311,,,,,,,,
,furniture,0.9086192846298218,,,,,,,,
,candle,0.9062169790267944,,,,,,,,
,house,0.8843767642974854,,,,,,,,
,architecture,0.8843386173248291,,,,,,,,
,table,0.8822640180587769,,,,,,,,
,bulb,0.8787637948989868,,,,,,,,
,one,0.8647100925445557,,,,,,,,
,luxury,0.8614028692245483,,,,,,,,
,hotel,0.8574774265289307,,,,,,,,
,inside,0.8498215079307556,,,,,,,,
,decoration,0.8464148640632629,,,,,,,,
,illuminated,0.845986545085907,,,,,,,,
,dark,0.8408889770507812,,,,,,,,
https://scontent-sit4-1.cdninstagram.com/t51.2885-15/e15/13743202_776276145848481_1323160939_n.jpg,underwater,0.9916276931762695,Arts,,,,Arts-s,,,
,fish,0.9718955755233765,,,,,,,,
,ocean,0.9536093473434448,,,,,,,,
,water,0.9466753005981445,,,,,,,,
,desktop,0.9351921677589417,,,,,,,,
,sea,0.9315813779830933,,,,,,,,
,dark,0.9223464727401733,,,,,,,,
,"no person",0.9189271926879883,,,,,,,,
,light,0.8649061918258667,,,,,,,,
,shark,0.8617806434631348,,,,,,,,
,people,0.8580873012542725,,,,,,,,
,swimming,0.8576927185058594,,,,,,,,
,travel,0.8476842641830444,,,,,,,,
,silhouette,0.8474531173706055,,,,,,,,
,nature,0.8455259203910828,,,,,,,,
,motion,0.8398789763450623,,,,,,,,
,science,0.8244879245758057,,,,,,,,
,diving,0.8087377548217773,,,,,,,,
,marine,0.7833616733551025,,,,,,,,
,color,0.7831717729568481,,,,,,,,
https://scontent-sit4-1.cdninstagram.com/t51.2885-15/e35/13398775_1104528889588850_941673908_n.jpg,"no person",0.9316684603691101,Entertainment,,,,Events,,,
,business,0.9310483932495117,,,,,,,,
,success,0.9216406941413879,,,,,,,,
,creativity,0.8881406784057617,,,,,,,,
,winter,0.8838293552398682,,,,,,,,
,symbol,0.8822110891342163,,,,,,,,
,text,0.8726099729537964,,,,,,,,
,isolated,0.8705399036407471,,,,,,,,
,illustration,0.8657938241958618,,,,,,,,
,retro,0.8645354509353638,,,,,,,,
,traditional,0.8624799251556396,,,,,,,,
,design,0.8557270765304565,,,,,,,,
,ornate,0.8551967144012451,,,,,,,,
,Christmas,0.8381873369216919,,,,,,,,
,finance,0.8254698514938354,,,,,,,,
,conceptual,0.8251940011978149,,,,,,,,
,data,0.8220325708389282,,,,,,,,
,people,0.817564845085144,,,,,,,,
,decoration,0.8129916787147522,,,,,,,,
,nature,0.805682897567749,,,,,,,,
https://scontent-sit4-1.cdninstagram.com/t51.2885-15/e35/13166751_1187991137886558_1529306076_n.jpg,people,0.986572802066803,Arts,,,,Arts-s,,,
,woman,0.9864509105682373,,,,,,,,
,adult,0.9809831380844116,,,,,,,,
,medicine,0.9724091291427612,,,,,,,,
,man,0.9639269113540649,,,,,,,,
,healthcare,0.9444760084152222,,,,,,,,
,painting,0.9416090846061707,,,,,,,,
,girl,0.9286719560623169,,,,,,,,
,competition,0.92568439245224,,,,,,,,
,skin,0.9225513935089111,,,,,,,,
,soccer,0.9216787815093994,,,,,,,,
,recreation,0.9136795997619629,,,,,,,,
,treatment,0.90547776222229,,,,,,,,
,one,0.9053730964660645,,,,,,,,
,football,0.893058180809021,,,,,,,,
,tattoo,0.8738358616828918,,,,,,,,
,patient,0.8646681308746338,,,,,,,,
,pain,0.8590428829193115,,,,,,,,
,hospital,0.8583052754402161,,,,,,,,
,"sports fan",0.8579212427139282,,,,,,,,
https://scontent-sit4-1.cdninstagram.com/t51.2885-15/s750x750/sh0.08/e35/13402523_1801040393462664_2084664510_n.jpg,leisure,0.9853228330612183,Relationships,Recreation,,,"Best friends",Beach,,
,recreation,0.9801710844039917,,,,,,,,
,fun,0.9740098118782043,,,,,,,,
,lifestyle,0.9629210233688354,,,,,,,,
,togetherness,0.9613879919052124,,,,,,,,
,enjoyment,0.958452582359314,,,,,,,,
,child,0.9533646106719971,,,,,,,,
,people,0.9507575035095215,,,,,,,,
,woman,0.9458762407302856,,,,,,,,
,man,0.942943811416626,,,,,,,,
,beach,0.9363267421722412,,,,,,,,
,summer,0.9282068610191345,,,,,,,,
,sand,0.9189393520355225,,,,,,,,
,outdoors,0.9183527827262878,,,,,,,,
,friendship,0.9167742729187012,,,,,,,,
,adult,0.9121993780136108,,,,,,,,
,seashore,0.9026333093643188,,,,,,,,
,girl,0.8861220479011536,,,,,,,,
,travel,0.8826775550842285,,,,,,,,
,young,0.8811898827552795,,,,,,,,
https://scontent-sit4-1.cdninstagram.com/t51.2885-15/e35/13694361_273103053066166_1926983183_n.jpg,chair,0.9955675601959229,Entertainment,Cute,,,Entertainment-s,Cute,,
,seat,0.9917961359024048,,,,,,,,
,hospital,0.9871995449066162,,,,,,,,
,table,0.9855173826217651,,,,,,,,
,furniture,0.9851197004318237,,,,,,,,
,medicine,0.9831504821777344,,,,,,,,
,room,0.9764877557754517,,,,,,,,
,indoors,0.9724217653274536,,,,,,,,
,patient,0.9716047644615173,,,,,,,,
,healthcare,0.9596835374832153,,,,,,,,
,school,0.9570081233978271,,,,,,,,
,desk,0.9493855237960815,,,,,,,,
,education,0.937935471534729,,,,,,,,
,"no person",0.9222017526626587,,,,,,,,
,classroom,0.9195609092712402,,,,,,,,
,office,0.9182707071304321,,,,,,,,
,medical,0.900791585445404,,,,,,,,
,child,0.8804999589920044,,,,,,,,
,surgery,0.8717047572135925,,,,,,,,
,people,0.8657094240188599,,,,,,,,
https://scontent-sit4-1.cdninstagram.com/t51.2885-15/s750x750/sh0.08/e35/13743273_830505723717565_764811900_n.jpg,people,0.9880369901657104,Relationships,"Fun Filter",,,"Best friends","Fun Filter",,
,woman,0.9868768453598022,,,,,,,,
,"facial expression",0.9847816228866577,,,,,,,,
,portrait,0.9743994474411011,,,,,,,,
,adult,0.9739892482757568,,,,,,,,
,man,0.9676427245140076,,,,,,,,
,eyeglasses,0.9645943641662598,,,,,,,,
,two,0.9618909358978271,,,,,,,,
,child,0.9560438990592957,,,,,,,,
,group,0.9454101324081421,,,,,,,,
,eyewear,0.944732666015625,,,,,,,,
,happiness,0.9378907084465027,,,,,,,,
,wear,0.9378384351730347,,,,,,,,
,three,0.935007631778717,,,,,,,,
,education,0.9235571622848511,,,,,,,,
,indoors,0.9211435317993164,,,,,,,,
,togetherness,0.9117995500564575,,,,,,,,
,school,0.9083978533744812,,,,,,,,
,girl,0.8992836475372314,,,,,,,,
,enjoyment,0.8778533935546875,,,,,,,,
https://scontent-sit4-1.cdninstagram.com/t51.2885-15/e35/13380934_263736517309932_1075929207_n.jpg,"no person",0.9882583022117615,Arts,,,,Arts-s,,,
,gold,0.9874252080917358,,,,,,,,
,luxury,0.9825422763824463,,,,,,,,
,shining,0.9765946865081787,,,,,,,,
,glass,0.9669722318649292,,,,,,,,
,jewelry,0.9607552289962769,,,,,,,,
,decoration,0.9517163038253784,,,,,,,,
,light,0.9475020170211792,,,,,,,,
,platinum,0.9377161860466003,,,,,,,,
,crystal,0.9299157857894897,,,,,,,,
,winter,0.9263626337051392,,,,,,,,
,reflection,0.9249371290206909,,,,,,,,
,"interior design",0.9125607013702393,,,,,,,,
,celebration,0.9026904702186584,,,,,,,,
,bright,0.8909782767295837,,,,,,,,
,band,0.8909444808959961,,,,,,,,
,Christmas,0.8876832723617554,,,,,,,,
,wealth,0.8869723081588745,,,,,,,,
,sparkling,0.8669642210006714,,,,,,,,
,anniversary,0.8574014902114868,,,,,,,,
https://scontent-sit4-1.cdninstagram.com/t51.2885-15/e35/13714164_103477370092369_994067208_n.jpg,template,0.9913543462753296,Commerce,,,,Promotions,,,
,"World Wide Web",0.97493976354599,,,,,,,,
,illustration,0.9741994142532349,,,,,,,,
,vector,0.9736253023147583,,,,,,,,
,label,0.9699573516845703,,,,,,,,
,page,0.9667701721191406,,,,,,,,
,banner,0.9415406584739685,,,,,,,,
,tag,0.9339406490325928,,,,,,,,
,business,0.9312081336975098,,,,,,,,
,vector,0.9271872043609619,,,,,,,,
,design,0.9265121221542358,,,,,,,,
,graphic,0.9213635325431824,,,,,,,,
,data,0.9137849807739258,,,,,,,,
,information,0.912071704864502,,,,,,,,
,text,0.8983293771743774,,,,,,,,
,symbol,0.897280216217041,,,,,,,,
,image,0.8948041200637817,,,,,,,,
,design,0.8924091458320618,,,,,,,,
,form,0.8809499740600586,,,,,,,,
,navigation,0.8723105192184448,,,,,,,,
https://scontent-sit4-1.cdninstagram.com/t51.2885-15/e35/13724496_1658486544471526_1077952429_n.jpg,nature,0.9906097650527954,Entertainment,Cute,,,Entertainment-s,Cute,,
,grass,0.9880450367927551,,,,,,,,
,water,0.9671373963356018,,,,,,,,
,summer,0.9552667737007141,,,,,,,,
,animal,0.935329020023346,,,,,,,,
,leaf,0.9275990724563599,,,,,,,,
,sun,0.9274096488952637,,,,,,,,
,outdoors,0.9232004880905151,,,,,,,,
,wood,0.9194308519363403,,,,,,,,
,"no person",0.9184609651565552,,,,,,,,
,sky,0.9140080213546753,,,,,,,,
,flora,0.9086495041847229,,,,,,,,
,landscape,0.9019618034362793,,,,,,,,
,hayfield,0.9002828598022461,,,,,,,,
,girl,0.8961825370788574,,,,,,,,
,"fair weather",0.8905638456344604,,,,,,,,
,tree,0.8862401843070984,,,,,,,,
,beautiful,0.877730667591095,,,,,,,,
,wildlife,0.8734920620918274,,,,,,,,
,sunset,0.8724119067192078,,,,,,,,
https://scontent-sit4-1.cdninstagram.com/t51.2885-15/e35/13732285_1753021564981282_1575947936_n.jpg,"no person",0.9590494632720947,Undefined,,,,Undefined,,,
,symbol,0.9139647483825684,,,,,,,,
,desktop,0.9011882543563843,,,,,,,,
,technology,0.8564183712005615,,,,,,,,
,security,0.8278582096099854,,,,,,,,
,computer,0.8245953321456909,,,,,,,,
,business,0.8215031027793884,,,,,,,,
,sign,0.812350869178772,,,,,,,,
,isolated,0.8117073774337769,,,,,,,,
,one,0.7897502183914185,,,,,,,,
,design,0.777275800704956,,,,,,,,
,text,0.7767557501792908,,,,,,,,
,dark,0.7721474170684814,,,,,,,,
,number,0.7586364150047302,,,,,,,,
,people,0.7559022903442383,,,,,,,,
,wealth,0.743369460105896,,,,,,,,
,image,0.7420053482055664,,,,,,,,
,safety,0.7385724782943726,,,,,,,,
,vehicle,0.7361907958984375,,,,,,,,
,sign,0.7260761857032776,,,,,,,,
https://scontent-sit4-1.cdninstagram.com/t51.2885-15/e35/13392864_1070037946421097_1078798717_n.jpg,water,0.9967013001441956,Environment,Travel,,,"Manmade beauty",Travel-s,,
,watercraft,0.9906629920005798,,,,,,,,
,boat,0.9871612787246704,,,,,,,,
,travel,0.9853254556655884,,,,,,,,
,"transportation system",0.9786108732223511,,,,,,,,
,sea,0.9739485383033752,,,,,,,,
,"no person",0.971426248550415,,,,,,,,
,ship,0.971133828163147,,,,,,,,
,tourism,0.952285885810852,,,,,,,,
,harbor,0.9511539340019226,,,,,,,,
,pier,0.9492497444152832,,,,,,,,
,canal,0.9437616467475891,,,,,,,,
,port,0.9414941668510437,,,,,,,,
,sight,0.9386470317840576,,,,,,,,
,house,0.9360384345054626,,,,,,,,
,city,0.9326016902923584,,,,,,,,
,river,0.9315476417541504,,,,,,,,
,town,0.9289610981941223,,,,,,,,
,seashore,0.9274609088897705,,,,,,,,
,architecture,0.9238836765289307,,,,,,,,
https://scontent-sit4-1.cdninstagram.com/t51.2885-15/e35/13473205_178003865936310_726394409_n.jpg,group,0.9959099888801575,Business,,,,Work,,,
,meeting,0.9954233765602112,,,,,,,,
,education,0.9890704154968262,,,,,,,,
,adult,0.9791854619979858,,,,,,,,
,school,0.9774141311645508,,,,,,,,
,woman,0.9731278419494629,,,,,,,,
,room,0.9688935875892639,,,,,,,,
,league,0.9638708829879761,,,,,,,,
,man,0.9570224285125732,,,,,,,,
,class,0.9558595418930054,,,,,,,,
,people,0.9377481937408447,,,,,,,,
,business,0.9331281185150146,,,,,,,,
,teacher,0.9297940731048584,,,,,,,,
,leader,0.9278689622879028,,,,,,,,
,teamwork,0.9214407205581665,,,,,,,,
,university,0.9150405526161194,,,,,,,,
,employee,0.9124312996864319,,,,,,,,
,group,0.9122297763824463,,,,,,,,
,furniture,0.9110801219940186,,,,,,,,
,office,0.9098827838897705,,,,,,,,
https://scontent-sit4-1.cdninstagram.com/t51.2885-15/e35/13737058_266120423764513_869521861_n.jpg,outdoors,0.9581292867660522,Entertainment,Cute,,,Entertainment-s,Cute,,
,people,0.9497399926185608,,,,,,,,
,tree,0.9443751573562622,,,,,,,,
,garden,0.9434157013893127,,,,,,,,
,"no person",0.935997486114502,,,,,,,,
,woman,0.9224631786346436,,,,,,,,
,daylight,0.9197499752044678,,,,,,,,
,flower,0.918750524520874,,,,,,,,
,house,0.9158612489700317,,,,,,,,
,indoors,0.9154094457626343,,,,,,,,
,architecture,0.9140009880065918,,,,,,,,
,luxury,0.9074685573577881,,,,,,,,
,adult,0.90450519323349,,,,,,,,
,furniture,0.9013774394989014,,,,,,,,
,leisure,0.8986541628837585,,,,,,,,
,"interior design",0.894729733467102,,,,,,,,
,family,0.8865270614624023,,,,,,,,
,relaxation,0.8845298290252686,,,,,,,,
,seat,0.8786872029304504,,,,,,,,
,"swimming pool",0.8655028343200684,,,,,,,,
https://scontent-sit4-1.cdninstagram.com/t51.2885-15/e35/13187968_282026292137622_1042845342_n.jpg,glass,0.9977282881736755,Environment,,,,"Manmade beauty",,,
,business,0.9968454241752625,,,,,,,,
,office,0.9934881925582886,,,,,,,,
,architecture,0.9929366111755371,,,,,,,,
,reflection,0.9897254705429077,,,,,,,,
,modern,0.9887766242027283,,,,,,,,
,downtown,0.9876254796981812,,,,,,,,
,window,0.9848158359527588,,,,,,,,
,city,0.983203113079071,,,,,,,,
,futuristic,0.982948899269104,,,,,,,,
,skyscraper,0.9823592305183411,,,,,,,,
,tallest,0.9805227518081665,,,,,,,,
,perspective,0.9792569875717163,,,,,,,,
,building,0.977097749710083,,,,,,,,
,sky,0.9746533632278442,,,,,,,,
,contemporary,0.9718899726867676,,,,,,,,
,technology,0.9705586433410645,,,,,,,,
,facade,0.9678210020065308,,,,,,,,
,finance,0.9630124568939209,,,,,,,,
,"no person",0.9624050855636597,,,,,,,,
https://scontent-sit4-1.cdninstagram.com/t51.2885-15/e35/13731195_1318250584853075_358806081_n.jpg,template,0.9810910224914551,Entertainment,,,,Events,,,
,illustration,0.9632573127746582,,,,,,,,
,label,0.9591543674468994,,,,,,,,
,vector,0.9589527249336243,,,,,,,,
,"World Wide Web",0.9554030299186707,,,,,,,,
,banner,0.9456895589828491,,,,,,,,
,page,0.94140625,,,,,,,,
,design,0.93635094165802,,,,,,,,
,text,0.9243773221969604,,,,,,,,
,information,0.9169045686721802,,,,,,,,
,bill,0.9069669246673584,,,,,,,,
,vector,0.9011743068695068,,,,,,,,
,set,0.8994784355163574,,,,,,,,
,graphic,0.896568238735199,,,,,,,,
,data,0.8942217826843262,,,,,,,,
,symbol,0.8932701349258423,,,,,,,,
,"picture frame",0.8906484842300415,,,,,,,,
,business,0.8879480361938477,,,,,,,,
,menu,0.8876803517341614,,,,,,,,
,procedure,0.8802700638771057,,,,,,,,
https://scontent-sit4-1.cdninstagram.com/t51.2885-15/s750x750/sh0.08/e35/13423640_1121714804536552_1782924476_n.jpg,man,0.9674397706985474,Relationships,Recreation,Entertainment,,Friends,Beach,Events,
,squad,0.9628691673278809,,,,,,,,
,fun,0.961233377456665,,,,,,,,
,exercise,0.959262490272522,,,,,,,,
,sport,0.9497985243797302,,,,,,,,
,athlete,0.9372034072875977,,,,,,,,
,competition,0.9368411898612976,,,,,,,,
,motion,0.9316281080245972,,,,,,,,
,fitness,0.9287794828414917,,,,,,,,
,action,0.9251002073287964,,,,,,,,
,group,0.919567346572876,,,,,,,,
,people,0.9192323684692383,,,,,,,,
,recreation,0.9191566109657288,,,,,,,,
,woman,0.9148687124252319,,,,,,,,
,young,0.9147412776947021,,,,,,,,
,lifestyle,0.910150408744812,,,,,,,,
,active,0.9079965949058533,,,,,,,,
,game,0.8980422019958496,,,,,,,,
,boy,0.8977825045585632,,,,,,,,
,child,0.8971400260925293,,,,,,,,
https://scontent-sit4-1.cdninstagram.com/t51.2885-15/e35/13391326_1188423334511457_278272671_n.jpg,group,0.9860742092132568,Relationships,Entertainment,,,Friends,Events,,
,people,0.9717558026313782,,,,,,,,
,adult,0.9563339948654175,,,,,,,,
,woman,0.947291374206543,,,,,,,,
,chair,0.9424833655357361,,,,,,,,
,meeting,0.9405274391174316,,,,,,,,
,business,0.9360611438751221,,,,,,,,
,education,0.9302830696105957,,,,,,,,
,many,0.9292000532150269,,,,,,,,
,room,0.9255379438400269,,,,,,,,
,school,0.9111099243164062,,,,,,,,
,leader,0.9085975885391235,,,,,,,,
,portrait,0.8875712752342224,,,,,,,,
,league,0.8860679268836975,,,,,,,,
,man,0.8753762245178223,,,,,,,,
,wear,0.8539818525314331,,,,,,,,
,indoors,0.8465970754623413,,,,,,,,
,group,0.8353109359741211,,,,,,,,
,music,0.7996569275856018,,,,,,,,
,administration,0.7915743589401245,,,,,,,,
https://scontent-sit4-1.cdninstagram.com/l/t51.2885-15/e35/13774671_1808617642717657_1059855255_n.jpg,sketch,0.9953981637954712,Entertainment,Cute,,,Entertainment-s,Cute,,
,illustration,0.9911490678787231,,,,,,,,
,vector,0.9875235557556152,,,,,,,,
,child,0.9759603142738342,,,,,,,,
,animal,0.9665482044219971,,,,,,,,
,fun,0.952098548412323,,,,,,,,
,graphic,0.9213384985923767,,,,,,,,
,outdoors,0.9156632423400879,,,,,,,,
,cute,0.901901125907898,,,,,,,,
,sky,0.8899103403091431,,,,,,,,
,vector,0.8614333868026733,,,,,,,,
,"no person",0.8526283502578735,,,,,,,,
,bird,0.8506828546524048,,,,,,,,
,movie,0.8484644293785095,,,,,,,,
,cloud,0.8445040583610535,,,,,,,,
,fantasy,0.8394109010696411,,,,,,,,
,grass,0.8218995928764343,,,,,,,,
,humor,0.8167254328727722,,,,,,,,
,funny,0.8162648677825928,,,,,,,,
,happiness,0.8114491701126099,,,,,,,,
https://scontent-sit4-1.cdninstagram.com/t51.2885-15/e35/13715101_305816246436260_1152549324_n.jpg,template,0.9730902910232544,Entertainment,Cute,,,Entertainment-s,Cute,,
,banner,0.9588171243667603,,,,,,,,
,layout,0.9553444385528564,,,,,,,,
,"World Wide Web",0.9508169889450073,,,,,,,,
,illustration,0.9400943517684937,,,,,,,,
,business,0.9172345399856567,,,,,,,,
,presentation,0.9138146042823792,,,,,,,,
,card,0.9094247817993164,,,,,,,,
,page,0.9089940786361694,,,,,,,,
,graphic,0.908603310585022,,,,,,,,
,vector,0.9051799178123474,,,,,,,,
,form,0.8876569271087646,,,,,,,,
,abstract,0.821843683719635,,,,,,,,
,data,0.8102648258209229,,,,,,,,
,desktop,0.8088632822036743,,,,,,,,
,design,0.8079978227615356,,,,,,,,
,graph,0.7985576391220093,,,,,,,,
,image,0.797896146774292,,,,,,,,
,internet,0.787757933139801,,,,,,,,
,blank,0.7796234488487244,,,,,,,,
https://scontent-sit4-1.cdninstagram.com/t51.2885-15/e35/13743998_1169285593141872_2045137282_n.jpg,grass,0.9602160453796387,Entertainment,Cute,,,Entertainment-s,Cute,,
,nature,0.9578649401664734,,,,,,,,
,illustration,0.9504922032356262,,,,,,,,
,"no person",0.9410728216171265,,,,,,,,
,outdoors,0.9002148509025574,,,,,,,,
,fun,0.8931969404220581,,,,,,,,
,luck,0.88789963722229,,,,,,,,
,leaf,0.8872822523117065,,,,,,,,
,sky,0.8814841508865356,,,,,,,,
,summer,0.8757853507995605,,,,,,,,
,vector,0.8641284704208374,,,,,,,,
,man,0.8514467477798462,,,,,,,,
,"graphic design",0.8452451229095459,,,,,,,,
,sketch,0.8417648077011108,,,,,,,,
,child,0.8197803497314453,,,,,,,,
,wood,0.819454550743103,,,,,,,,
,"fair weather",0.8062012195587158,,,,,,,,
,success,0.7778313159942627,,,,,,,,
,business,0.7750115394592285,,,,,,,,
,sun,0.77142333984375,,,,,,,,
https://scontent-sit4-1.cdninstagram.com/t51.2885-15/e35/13774812_276723019363051_1890754_n.jpg,steel,0.9982162714004517,Environment,,,,"Manmade beauty",,,
,iron,0.9950941205024719,,,,,,,,
,"stainless steel",0.9890576601028442,,,,,,,,
,industry,0.983269453048706,,,,,,,,
,expression,0.9815636873245239,,,,,,,,
,step,0.9765369892120361,,,,,,,,
,metallic,0.9631091356277466,,,,,,,,
,grinder,0.9615310430526733,,,,,,,,
,reflection,0.9576456546783447,,,,,,,,
,desktop,0.9519301652908325,,,,,,,,
,"no person",0.9479584693908691,,,,,,,,
,tube,0.9460759162902832,,,,,,,,
,light,0.9248911142349243,,,,,,,,
,abstract,0.9232817888259888,,,,,,,,
,heavy,0.9220191240310669,,,,,,,,
,technology,0.9213908910751343,,,,,,,,
,building,0.921225368976593,,,,,,,,
,line,0.9188204407691956,,,,,,,,
,dark,0.9176466464996338,,,,,,,,
,urban,0.9097462892532349,,,,,,,,
https://scontent-sit4-1.cdninstagram.com/t51.2885-15/e35/13381343_903754403081324_1725918361_n.jpg,"no person",0.9782388806343079,Environment,,,,"Manmade beauty",,,
,city,0.9781420826911926,,,,,,,,
,vehicle,0.9637399911880493,,,,,,,,
,landscape,0.9570130705833435,,,,,,,,
,water,0.9556551575660706,,,,,,,,
,travel,0.9554095268249512,,,,,,,,
,silhouette,0.9521410465240479,,,,,,,,
,people,0.9492819309234619,,,,,,,,
,light,0.9490500092506409,,,,,,,,
,festival,0.9292141795158386,,,,,,,,
,sky,0.9272688627243042,,,,,,,,
,dark,0.9201672077178955,,,,,,,,
,energy,0.9175511598587036,,,,,,,,
,dawn,0.9107398986816406,,,,,,,,
,evening,0.8935749530792236,,,,,,,,
,motion,0.8905580639839172,,,,,,,,
,river,0.8856215476989746,,,,,,,,
,soccer,0.8850556015968323,,,,,,,,
,backlit,0.8844711780548096,,,,,,,,
,action,0.8813410997390747,,,,,,,,
https://scontent-sit4-1.cdninstagram.com/t51.2885-15/s640x640/sh0.08/e35/13256848_553871211461218_957648992_n.jpg,"no person",0.9875879883766174,Entertainment,,,,Entertainment-s,,,
,internet,0.9728847742080688,,,,,,,,
,"graphic design",0.9375931024551392,,,,,,,,
,bright,0.920258641242981,,,,,,,,
,spherical,0.9015814065933228,,,,,,,,
,"World Wide Web",0.8970644474029541,,,,,,,,
,business,0.892195463180542,,,,,,,,
,nature,0.8852576613426208,,,,,,,,
,design,0.8816423416137695,,,,,,,,
,contemporary,0.8572535514831543,,,,,,,,
,stripe,0.8564882278442383,,,,,,,,
,connection,0.8526026010513306,,,,,,,,
,data,0.8498504161834717,,,,,,,,
,glazed,0.8415873050689697,,,,,,,,
,image,0.8398776054382324,,,,,,,,
,vector,0.8394982218742371,,,,,,,,
,illustration,0.8281704187393188,,,,,,,,
,desktop,0.8191839456558228,,,,,,,,
,template,0.8184952735900879,,,,,,,,
,technology,0.8159022331237793,,,,,,,,
https://scontent-sit4-1.cdninstagram.com/t51.2885-15/e35/13167496_250339868662098_223872764_n.jpg,group,0.9970244765281677,Relationships,Entertainment,Recreation,,Friends,Events,Beach,
,people,0.9910030364990234,,,,,,,,
,child,0.9901307821273804,,,,,,,,
,school,0.9883689880371094,,,,,,,,
,squad,0.9870924353599548,,,,,,,,
,group,0.985434353351593,,,,,,,,
,portrait,0.9850103855133057,,,,,,,,
,friendship,0.9838674068450928,,,,,,,,
,many,0.9832499623298645,,,,,,,,
,education,0.9727435111999512,,,,,,,,
,woman,0.9657905697822571,,,,,,,,
,man,0.9584988355636597,,,,,,,,
,university,0.9468351602554321,,,,,,,,
,boy,0.9446307420730591,,,,,,,,
,crowd,0.9340640306472778,,,,,,,,
,fun,0.9264785647392273,,,,,,,,
,"facial expression",0.9243937730789185,,,,,,,,
,competition,0.9213747978210449,,,,,,,,
,game,0.9202933311462402,,,,,,,,
,sport,0.9187756776809692,,,,,,,,
https://scontent-sit4-1.cdninstagram.com/t51.2885-15/e35/13721086_221485914915723_1094685361_n.jpg,food,0.9938911199569702,Food,,,,"Drinks and snack",,,
,"no person",0.993519127368927,,,,,,,,
,homemade,0.97294020652771,,,,,,,,
,plate,0.9699963331222534,,,,,,,,
,sweet,0.9697365760803223,,,,,,,,
,cooking,0.9680898785591125,,,,,,,,
,cake,0.9665610194206238,,,,,,,,
,cream,0.9610278606414795,,,,,,,,
,sugar,0.9600279331207275,,,,,,,,
,delicious,0.9403245449066162,,,,,,,,
,dish,0.9392491579055786,,,,,,,,
,baking,0.9344576597213745,,,,,,,,
,bowl,0.9252231121063232,,,,,,,,
,pastry,0.9187756776809692,,,,,,,,
,powder,0.9087849855422974,,,,,,,,
,bread,0.9084116220474243,,,,,,,,
,pudding,0.9079728722572327,,,,,,,,
,meal,0.9053120017051697,,,,,,,,
,breakfast,0.9023228883743286,,,,,,,,
,kitchenware,0.9000227451324463,,,,,,,,
https://scontent-sit4-1.cdninstagram.com/t51.2885-15/e35/13743320_930014280454695_1065344282_n.jpg,illustration,0.9950201511383057,Entertainment,Cute,,,Entertainment-s,Cute,,
,vector,0.9945303797721863,,,,,,,,
,navigation,0.9841728210449219,,,,,,,,
,grass,0.9641983509063721,,,,,,,,
,vector,0.9539872407913208,,,,,,,,
,sketch,0.9392576217651367,,,,,,,,
,template,0.9160715341567993,,,,,,,,
,child,0.906608521938324,,,,,,,,
,"no person",0.9051656723022461,,,,,,,,
,graphic,0.9040819406509399,,,,,,,,
,business,0.90050208568573,,,,,,,,
,banner,0.8932359218597412,,,,,,,,
,internet,0.8818843960762024,,,,,,,,
,"graphic design",0.8780413866043091,,,,,,,,
,"World Wide Web",0.8584758043289185,,,,,,,,
,outdoors,0.8544403910636902,,,,,,,,
,stripe,0.8423537015914917,,,,,,,,
,spherical,0.8323227167129517,,,,,,,,
,field,0.825039267539978,,,,,,,,
,cute,0.8171225786209106,,,,,,,,
https://scontent-sit4-1.cdninstagram.com/t51.2885-15/e35/13713975_291097661252916_533966557_n.jpg,woman,0.9874007701873779,Relationships,,,,Friends,,,
,people,0.9836204648017883,,,,,,,,
,adult,0.9675214290618896,,,,,,,,
,group,0.9643653035163879,,,,,,,,
,man,0.9316569566726685,,,,,,,,
,healthcare,0.9257726669311523,,,,,,,,
,vehicle,0.9237058162689209,,,,,,,,
,wear,0.9115712642669678,,,,,,,,
,child,0.9083529710769653,,,,,,,,
,many,0.8872250318527222,,,,,,,,
,education,0.8825254440307617,,,,,,,,
,indoors,0.8796297311782837,,,,,,,,
,school,0.8619140386581421,,,,,,,,
,girl,0.8496575951576233,,,,,,,,
,class,0.8409905433654785,,,,,,,,
,boy,0.8405925035476685,,,,,,,,
,recreation,0.8346573114395142,,,,,,,,
,room,0.8183975219726562,,,,,,,,
,crowd,0.7827984094619751,,,,,,,,
,seat,0.7797209024429321,,,,,,,,
https://scontent-sit4-1.cdninstagram.com/t51.2885-15/e35/13557086_277284319329373_1506082847_n.jpg,people,0.9788427352905273,Recreation,,,,Beach,,,
,man,0.9741870164871216,,,,,,,,
,outdoors,0.957431435585022,,,,,,,,
,competition,0.9516651034355164,,,,,,,,
,sand,0.9397971630096436,,,,,,,,
,beach,0.9337243437767029,,,,,,,,
,child,0.9213290214538574,,,,,,,,
,adult,0.9210703372955322,,,,,,,,
,recreation,0.9133014678955078,,,,,,,,
,fun,0.8991991877555847,,,,,,,,
,travel,0.897636890411377,,,,,,,,
,summer,0.8924981951713562,,,,,,,,
,leisure,0.8862379193305969,,,,,,,,
,soccer,0.8797036409378052,,,,,,,,
,relaxation,0.8685042262077332,,,,,,,,
,sport,0.8517955541610718,,,,,,,,
,"fair weather",0.8276084661483765,,,,,,,,
,battle,0.8241472244262695,,,,,,,,
,young,0.8211280107498169,,,,,,,,
,rally,0.8071839809417725,,,,,,,,
https://scontent-sit4-1.cdninstagram.com/t51.2885-15/s750x750/sh0.08/e35/13402523_1232894913407845_325089950_n.jpg,group,0.9808854460716248,Relationships,Entertainment,Recreation,,Friends,Events,Beach,
,woman,0.9765085577964783,,,,,,,,
,man,0.9662652015686035,,,,,,,,
,recreation,0.9579993486404419,,,,,,,,
,squad,0.9550356864929199,,,,,,,,
,people,0.9533330202102661,,,,,,,,
,exercise,0.9530549049377441,,,,,,,,
,teamwork,0.9510037899017334,,,,,,,,
,togetherness,0.9449260234832764,,,,,,,,
,friendship,0.9425062537193298,,,,,,,,
,fun,0.9418179988861084,,,,,,,,
,active,0.9386588335037231,,,,,,,,
,young,0.9296954870223999,,,,,,,,
,fitness,0.9272355437278748,,,,,,,,
,action,0.9259079694747925,,,,,,,,
,competition,0.9237948656082153,,,,,,,,
,athlete,0.9222351312637329,,,,,,,,
,group,0.917762279510498,,,,,,,,
,adolescent,0.9084815979003906,,,,,,,,
,adult,0.9041973352432251,,,,,,,,
https://scontent-sit4-1.cdninstagram.com/t51.2885-15/e15/13561883_510974725763829_212603391_n.jpg,golf,0.9999996423721313,Recreation,,,,Recreation-s,,,
,golfer,0.999988317489624,,,,,,,,
,putt,0.9999580979347229,,,,,,,,
,"golf club",0.9999539256095886,,,,,,,,
,hole,0.9997119903564453,,,,,,,,
,fairway,0.9995519518852234,,,,,,,,
,club,0.9995291233062744,,,,,,,,
,putter,0.9994573593139648,,,,,,,,
,tee,0.9981337785720825,,,,,,,,
,play,0.99808669090271,,,,,,,,
,leisure,0.9978713393211365,,,,,,,,
,recreation,0.9975096583366394,,,,,,,,
,ball,0.9974848031997681,,,,,,,,
,course,0.9973850250244141,,,,,,,,
,swing,0.994666337966919,,,,,,,,
,tournament,0.9924348592758179,,,,,,,,
,game,0.9917795658111572,,,,,,,,
,"sports equipment",0.9903122186660767,,,,,,,,
,par,0.9901994466781616,,,,,,,,
,bunker,0.9899519681930542,,,,,,,,
https://scontent-sit4-1.cdninstagram.com/t51.2885-15/e35/13732131_658001394360160_1297886382_n.jpg,"World Wide Web",0.9786440134048462,Commerce,,,,"Product/brand shots",,,
,internet,0.9636979103088379,,,,,,,,
,business,0.9598315358161926,,,,,,,,
,symbol,0.9361140727996826,,,,,,,,
,illustration,0.9311981797218323,,,,,,,,
,graphic,0.928141713142395,,,,,,,,
,technology,0.927632212638855,,,,,,,,
,text,0.9255037903785706,,,,,,,,
,vector,0.9115616083145142,,,,,,,,
,computer,0.9051427841186523,,,,,,,,
,design,0.9022663831710815,,,,,,,,
,data,0.8920862674713135,,,,,,,,
,application,0.8841559290885925,,,,,,,,
,desktop,0.8826310634613037,,,,,,,,
,image,0.8816123008728027,,,,,,,,
,software,0.8768624067306519,,,,,,,,
,sign,0.8738776445388794,,,,,,,,
,network,0.8684993982315063,,,,,,,,
,communication,0.8632211089134216,,,,,,,,
,online,0.8386824131011963,,,,,,,,
https://scontent-sit4-1.cdninstagram.com/t51.2885-15/e35/13774831_182449845504580_167783853_n.jpg,illustration,0.9360703825950623,Entertainment,Cute,,,Entertainment-s,Cute,,
,business,0.9055194854736328,,,,,,,,
,technology,0.9008219242095947,,,,,,,,
,people,0.8866499662399292,,,,,,,,
,man,0.8789547085762024,,,,,,,,
,adult,0.8458037376403809,,,,,,,,
,horizontal,0.8452205657958984,,,,,,,,
,ceremony,0.8141679763793945,,,,,,,,
,vector,0.8119137287139893,,,,,,,,
,celebration,0.8098105192184448,,,,,,,,
,competition,0.7824286222457886,,,,,,,,
,light,0.7741419076919556,,,,,,,,
,woman,0.7629561424255371,,,,,,,,
,design,0.7433618307113647,,,,,,,,
,performance,0.7430964708328247,,,,,,,,
,abstract,0.7403236627578735,,,,,,,,
,sign,0.7293405532836914,,,,,,,,
,presentation,0.729077935218811,,,,,,,,
,indoors,0.7214815616607666,,,,,,,,
,computer,0.7180602550506592,,,,,,,,
https://scontent-sit4-1.cdninstagram.com/t51.2885-15/e35/13736893_625026660989485_1129269640_n.jpg,mammal,0.9907165169715881,"My life",,,,"With me",,,
,cute,0.9816867113113403,,,,,,,,
,animal,0.978712797164917,,,,,,,,
,fur,0.9653346538543701,,,,,,,,
,pet,0.9627088308334351,,,,,,,,
,little,0.9491125345230103,,,,,,,,
,rabbit,0.9463237524032593,,,,,,,,
,downy,0.9130926132202148,,,,,,,,
,cat,0.909032940864563,,,,,,,,
,portrait,0.8946141600608826,,,,,,,,
,dog,0.8861591815948486,,,,,,,,
,eye,0.8760560750961304,,,,,,,,
,baby,0.8643437623977661,,,,,,,,
,one,0.8625178337097168,,,,,,,,
,domestic,0.8516945242881775,,,,,,,,
,looking,0.8467985987663269,,,,,,,,
,sit,0.8447131514549255,,,,,,,,
,young,0.8432470560073853,,,,,,,,
,bunny,0.833061158657074,,,,,,,,
,nature,0.8225404024124146,,,,,,,,
https://scontent-sit4-1.cdninstagram.com/t51.2885-15/e35/13704158_1112297632162991_74375718_n.jpg,competition,0.9993257522583008,Relationships,Entertainment,,,Friends,Events,,
,athlete,0.9938424825668335,,,,,,,,
,stadium,0.9929925799369812,,,,,,,,
,tennis,0.9916452169418335,,,,,,,,
,track,0.9850534200668335,,,,,,,,
,sport,0.9823362827301025,,,,,,,,
,game,0.9742861986160278,,,,,,,,
,people,0.9692344665527344,,,,,,,,
,"track and field",0.9670370817184448,,,,,,,,
,action,0.9582341909408569,,,,,,,,
,man,0.9522422552108765,,,,,,,,
,motion,0.9463068246841431,,,,,,,,
,race,0.9428814649581909,,,,,,,,
,ball,0.9355223178863525,,,,,,,,
,recreation,0.9271543025970459,,,,,,,,
,runner,0.9255077838897705,,,,,,,,
,group,0.9185393452644348,,,,,,,,
,adult,0.9154341220855713,,,,,,,,
,win,0.9002772569656372,,,,,,,,
,champion,0.8987363576889038,,,,,,,,
https://scontent-sit4-1.cdninstagram.com/t51.2885-15/e35/13741258_1162895340397288_1042750218_n.jpg,group,0.9925552010536194,Relationships,,,,Friends,,,
,group,0.9902790188789368,,,,,,,,
,woman,0.9749480485916138,,,,,,,,
,man,0.957482099533081,,,,,,,,
,people,0.9408745765686035,,,,,,,,
,education,0.9408466815948486,,,,,,,,
,school,0.9389773011207581,,,,,,,,
,adult,0.932282567024231,,,,,,,,
,student,0.9307341575622559,,,,,,,,
,squad,0.926627516746521,,,,,,,,
,child,0.919499397277832,,,,,,,,
,friendship,0.8983738422393799,,,,,,,,
,portrait,0.8978034853935242,,,,,,,,
,adolescent,0.8932020664215088,,,,,,,,
,class,0.8847390413284302,,,,,,,,
,togetherness,0.8807717561721802,,,,,,,,
,five,0.8802767992019653,,,,,,,,
,university,0.87501060962677,,,,,,,,
,many,0.871976912021637,,,,,,,,
,four,0.8635271191596985,,,,,,,,
https://scontent-sit4-1.cdninstagram.com/t51.2885-15/e35/13704178_307955899545760_1784946750_n.jpg,competition,0.994644284248352,Relationships,Celebrations,,,Friends,"Community Events",,
,game,0.9868769645690918,,,,,,,,
,stadium,0.9626368880271912,,,,,,,,
,recreation,0.9595914483070374,,,,,,,,
,sport,0.9388605356216431,,,,,,,,
,"no person",0.9353088140487671,,,,,,,,
,ball,0.9155053496360779,,,,,,,,
,people,0.9103768467903137,,,,,,,,
,line,0.9054244160652161,,,,,,,,
,equipment,0.8948487043380737,,,,,,,,
,player,0.8936038017272949,,,,,,,,
,tennis,0.868749737739563,,,,,,,,
,athlete,0.862427830696106,,,,,,,,
,win,0.8576650619506836,,,,,,,,
,field,0.8547017574310303,,,,,,,,
,desktop,0.8529508113861084,,,,,,,,
,play,0.8508428931236267,,,,,,,,
,energy,0.8438326716423035,,,,,,,,
,play,0.8227509260177612,,,,,,,,
,one,0.821344256401062,,,,,,,,
https://scontent-sit4-1.cdninstagram.com/t51.2885-15/e35/13651835_1159819767372617_1471990244_n.jpg,people,0.9734308123588562,Relationships,,,,Friends,,,
,man,0.9469208717346191,,,,,,,,
,adult,0.9302889108657837,,,,,,,,
,family,0.9149069786071777,,,,,,,,
,competition,0.9060071110725403,,,,,,,,
,woman,0.8897159695625305,,,,,,,,
,room,0.8823623061180115,,,,,,,,
,city,0.8773428201675415,,,,,,,,
,vehicle,0.864714503288269,,,,,,,,
,travel,0.8645508289337158,,,,,,,,
,road,0.8644199371337891,,,,,,,,
,soccer,0.8635857105255127,,,,,,,,
,indoors,0.8567419648170471,,,,,,,,
,street,0.8560614585876465,,,,,,,,
,daylight,0.8554957509040833,,,,,,,,
,motion,0.8544372320175171,,,,,,,,
,accident,0.8372045755386353,,,,,,,,
,education,0.8363726735115051,,,,,,,,
,business,0.8360240459442139,,,,,,,,
,"transportation system",0.8294774293899536,,,,,,,,
https://scontent-sit4-1.cdninstagram.com/t51.2885-15/e35/13713960_1774790099404543_606867636_n.jpg,map,0.9974178075790405,Undefined,,,,Undefined,,,
,cartography,0.9913761019706726,,,,,,,,
,illustration,0.9856995344161987,,,,,,,,
,ball-shaped,0.9739456176757812,,,,,,,,
,graph,0.9689164161682129,,,,,,,,
,data,0.950532853603363,,,,,,,,
,vector,0.9485664367675781,,,,,,,,
,connection,0.9227373600006104,,,,,,,,
,vector,0.9198006391525269,,,,,,,,
,geography,0.9169818162918091,,,,,,,,
,spherical,0.9125770926475525,,,,,,,,
,internet,0.9041887521743774,,,,,,,,
,symbol,0.8994191884994507,,,,,,,,
,universe,0.8919706344604492,,,,,,,,
,guidance,0.8888193964958191,,,,,,,,
,travel,0.8851065039634705,,,,,,,,
,shape,0.8828607797622681,,,,,,,,
,topography,0.8753517866134644,,,,,,,,
,communication,0.8692325353622437,,,,,,,,
,research,0.8622517585754395,,,,,,,,
https://scontent-sit4-1.cdninstagram.com/t51.2885-15/sh0.08/e35/p750x750/13731298_1779945335555262_917447817_n.jpg,portrait,0.9919990301132202,Relationships,"Fun Filter",,,"Best friends","Fun Filter",,
,people,0.9874469637870789,,,,,,,,
,man,0.977758526802063,,,,,,,,
,happiness,0.9683010578155518,,,,,,,,
,adult,0.9653723239898682,,,,,,,,
,child,0.9635894298553467,,,,,,,,
,"facial expression",0.9448590278625488,,,,,,,,
,woman,0.9414087533950806,,,,,,,,
,two,0.939483642578125,,,,,,,,
,boy,0.9356699585914612,,,,,,,,
,fun,0.9288051128387451,,,,,,,,
,lifestyle,0.9086370468139648,,,,,,,,
,cute,0.903852105140686,,,,,,,,
,girl,0.8993015289306641,,,,,,,,
,wear,0.8973659873008728,,,,,,,,
,eyeglasses,0.8966710567474365,,,,,,,,
,youth,0.894707441329956,,,,,,,,
,looking,0.8922754526138306,,,,,,,,
,young,0.8907871246337891,,,,,,,,
,adolescent,0.8896528482437134,,,,,,,,
https://scontent-sit4-1.cdninstagram.com/t51.2885-15/e35/13329233_1606220826336047_1370917614_n.jpg,animal,0.9971387386322021,Animals,,,,Animals-s,,,
,mammal,0.9969096183776855,,,,,,,,
,cat,0.9966009855270386,,,,,,,,
,pet,0.9960167407989502,,,,,,,,
,portrait,0.993464469909668,,,,,,,,
,cute,0.9859973788261414,,,,,,,,
,domestic,0.9845895767211914,,,,,,,,
,dog,0.9771242141723633,,,,,,,,
,sleep,0.9687079191207886,,,,,,,,
,one,0.9668659567832947,,,,,,,,
,kitten,0.9585445523262024,,,,,,,,
,"no person",0.9528870582580566,,,,,,,,
,street,0.9520425796508789,,,,,,,,
,family,0.9470864534378052,,,,,,,,
,little,0.9465886354446411,,,,,,,,
,looking,0.9457788467407227,,,,,,,,
,adorable,0.9428753852844238,,,,,,,,
,fur,0.9364955425262451,,,,,,,,
,eye,0.9356249570846558,,,,,,,,
,young,0.9272757172584534,,,,,,,,
https://scontent-sit4-1.cdninstagram.com/t51.2885-15/e35/13658613_264563643924559_616178346_n.jpg,navigation,0.9988846778869629,Entertainment,Cute,,,Entertainment-s,Cute,,
,template,0.9985636472702026,,,,,,,,
,stripe,0.998292088508606,,,,,,,,
,"World Wide Web",0.9970266819000244,,,,,,,,
,site,0.9960823059082031,,,,,,,,
,layout,0.9935411810874939,,,,,,,,
,banner,0.9904065132141113,,,,,,,,
,menu,0.9894471764564514,,,,,,,,
,page,0.9891804456710815,,,,,,,,
,set,0.9891605377197266,,,,,,,,
,presentation,0.9863888025283813,,,,,,,,
,interface,0.9863754510879517,,,,,,,,
,graph,0.986066460609436,,,,,,,,
,flat,0.9835816621780396,,,,,,,,
,label,0.9829609394073486,,,,,,,,
,login,0.9820851683616638,,,,,,,,
,user,0.9801976680755615,,,,,,,,
,heading,0.9757609367370605,,,,,,,,
,vector,0.9694786071777344,,,,,,,,
,set,0.965219259262085,,,,,,,,
https://scontent-sit4-1.cdninstagram.com/t51.2885-15/e35/13181527_1012132038870623_52200234_n.jpg,moon,0.985081136226654,"My life",,,,"My world today",,,
,light,0.9769665002822876,,,,,,,,
,ball,0.9585830569267273,,,,,,,,
,balloon,0.9404336214065552,,,,,,,,
,sky,0.9348605275154114,,,,,,,,
,science,0.9263476133346558,,,,,,,,
,round,0.9236456155776978,,,,,,,,
,mirror,0.9211908578872681,,,,,,,,
,"no person",0.9176824688911438,,,,,,,,
,Christmas,0.915431022644043,,,,,,,,
,planet,0.9117892384529114,,,,,,,,
,abstract,0.8949456214904785,,,,,,,,
,astronomy,0.8938347101211548,,,,,,,,
,sphere,0.8856803178787231,,,,,,,,
,levitation,0.8789949417114258,,,,,,,,
,energy,0.8617210388183594,,,,,,,,
,landscape,0.8587008714675903,,,,,,,,
,art,0.8479647636413574,,,,,,,,
,space,0.8459897637367249,,,,,,,,
,reflection,0.8386026620864868,,,,,,,,
https://scontent-sit4-1.cdninstagram.com/t51.2885-15/e35/13712154_132314527208207_895774846_n.jpg,template,0.985105037689209,Commerce,Celebrations,,,Promotions,"Community Events",,
,vector,0.9761189222335815,,,,,,,,
,illustration,0.9737057685852051,,,,,,,,
,graphic,0.9646978974342346,,,,,,,,
,text,0.9645795226097107,,,,,,,,
,design,0.9494906663894653,,,,,,,,
,business,0.9455361366271973,,,,,,,,
,presentation,0.9450387954711914,,,,,,,,
,company,0.9381074905395508,,,,,,,,
,abstract,0.9318912029266357,,,,,,,,
,desktop,0.9307751655578613,,,,,,,,
,label,0.926220178604126,,,,,,,,
,layout,0.9250998497009277,,,,,,,,
,design,0.9200268983840942,,,,,,,,
,bill,0.9190122485160828,,,,,,,,
,card,0.9160782098770142,,,,,,,,
,page,0.9069637060165405,,,,,,,,
,vector,0.9057503938674927,,,,,,,,
,data,0.9019032716751099,,,,,,,,
,"World Wide Web",0.8948915004730225,,,,,,,,
https://scontent-sit4-1.cdninstagram.com/t51.2885-15/s750x750/sh0.08/e35/13397442_907799136032691_864183244_n.jpg,people,0.9784383177757263,Relationships,,,,"Best friends",,,
,man,0.9685247540473938,,,,,,,,
,portrait,0.9494625329971313,,,,,,,,
,woman,0.9423984289169312,,,,,,,,
,outdoors,0.9384088516235352,,,,,,,,
,adult,0.9204525947570801,,,,,,,,
,wear,0.8914422988891602,,,,,,,,
,travel,0.8611189126968384,,,,,,,,
,bridge,0.8571763634681702,,,,,,,,
,one,0.8542205691337585,,,,,,,,
,city,0.8394620418548584,,,,,,,,
,water,0.8360902070999146,,,,,,,,
,daylight,0.8353610038757324,,,,,,,,
,leisure,0.8184946775436401,,,,,,,,
,"facial expression",0.8183877468109131,,,,,,,,
,fashion,0.8160514235496521,,,,,,,,
,street,0.811075747013092,,,,,,,,
,enjoyment,0.8082435131072998,,,,,,,,
,landscape,0.7940768599510193,,,,,,,,
,recreation,0.7575702667236328,,,,,,,,
https://scontent-sit4-1.cdninstagram.com/t51.2885-15/e35/13774895_1807992692756770_334329661_n.jpg,people,0.9843159914016724,Entertainment,Cute,,,Entertainment-s,Cute,,
,outdoors,0.9638477563858032,,,,,,,,
,child,0.9615480899810791,,,,,,,,
,sky,0.9416205883026123,,,,,,,,
,adult,0.9244450330734253,,,,,,,,
,landscape,0.9122295379638672,,,,,,,,
,fun,0.9102001190185547,,,,,,,,
,man,0.9063538312911987,,,,,,,,
,travel,0.8976554870605469,,,,,,,,
,summer,0.880479097366333,,,,,,,,
,sport,0.8804315328598022,,,,,,,,
,cloud,0.8619396090507507,,,,,,,,
,nature,0.8590167760848999,,,,,,,,
,illustration,0.8552589416503906,,,,,,,,
,motion,0.8493179082870483,,,,,,,,
,grass,0.839394211769104,,,,,,,,
,water,0.8330649137496948,,,,,,,,
,recreation,0.8294609189033508,,,,,,,,
,leisure,0.7900207042694092,,,,,,,,
,horizontal,0.7787133455276489,,,,,,,,
https://scontent-sit4-1.cdninstagram.com/t51.2885-15/e35/13267324_1721055731505967_1787782713_n.jpg,"no person",0.9906623959541321,Undefined,,,,Undefined,,,
,hanging,0.9721776247024536,,,,,,,,
,gold,0.9666903018951416,,,,,,,,
,shining,0.9465243816375732,,,,,,,,
,Christmas,0.9305343627929688,,,,,,,,
,traditional,0.9209887981414795,,,,,,,,
,jewelry,0.9195668697357178,,,,,,,,
,decoration,0.9078283309936523,,,,,,,,
,retro,0.8902174830436707,,,,,,,,
,one,0.8744632005691528,,,,,,,,
,winter,0.867843508720398,,,,,,,,
,thread,0.8568916320800781,,,,,,,,
,bright,0.8315636515617371,,,,,,,,
,luxury,0.8268359899520874,,,,,,,,
,wealth,0.8125668168067932,,,,,,,,
,desktop,0.8027685880661011,,,,,,,,
,symbol,0.8016629219055176,,,,,,,,
,"interior design",0.7849432229995728,,,,,,,,
,shape,0.7833048105239868,,,,,,,,
,fashion,0.7827978134155273,,,,,,,,
