url,class,score
https://scontent.cdninstagram.com/t51.2885-15/e35/13642925_1567581613537931_1725337949_n.jpg,portrait,0.9877456426620483
,people,0.9869966506958008
,facial expression,0.9759764671325684
,indoors,0.9738107919692993
,woman,0.9701937437057495
,window,0.9586395025253296
,one,0.9571537971496582
,daylight,0.9537143707275391
,wear,0.9466404914855957
,adult,0.9401754140853882
,child,0.9265567064285278
,outdoors,0.920350968837738
,girl,0.9117062091827393
,man,0.8996917009353638
,fashion,0.8906878232955933
,side view,0.881817102432251
,light,0.856452465057373
,confidence,0.840308666229248
,happiness,0.8282053470611572
,enjoyment,0.8249093294143677
https://scontent.cdninstagram.com/t51.2885-15/e35/13437343_1039583466119084_1655867108_n.jpg,desktop,0.9663686752319336
,abstract,0.9406164288520813
,symbol,0.9303869009017944
,shape,0.9147388935089111
,design,0.8902825117111206
,alphabet,0.8743600845336914
,space,0.8578118085861206
,bright,0.8386508226394653
,text,0.8381925821304321
,typography,0.826489269733429
,shining,0.8245888948440552
,texture,0.8186525702476501
,illustration,0.8135553598403931
,color,0.809380054473877
,art,0.8021939992904663
,type,0.7924408912658691
,image,0.7731678485870361
,number,0.7683055400848389
,decoration,0.765491247177124
,jellyfish,0.7605191469192505
https://scontent.cdninstagram.com/t51.2885-15/e35/13422842_105852449840893_49758558_n.jpg,book,0.9953761100769043
,library,0.9952026605606079
,literature,0.9945844411849976
,book,0.991686224937439
,page,0.9904087781906128
,education,0.9902575016021729
,paper,0.9890711307525635
,knowledge,0.986575722694397
,university,0.9860278964042664
,school,0.9857040643692017
,no person,0.9810459613800049
,college,0.9807175397872925
,magazine,0.9790002703666687
,pile,0.9746879935264587
,novel,0.9706480503082275
,study,0.9691122770309448
,document,0.966465175151825
,narrative,0.9606443643569946
,research,0.9541515111923218
,writing,0.9441506862640381
https://scontent.cdninstagram.com/t51.2885-15/s640x640/sh0.08/e35/13549629_299676647033947_1858017569_n.jpg,cloud,0.9805643558502197
,outdoors,0.9739295840263367
,horizontal,0.9667367935180664
,sky,0.9589704275131226
,horizontal,0.9317711591720581
,illustration,0.9003877639770508
,nature,0.8963291049003601
,silhouette,0.8790796995162964
,landscape,0.8645405173301697
,fog,0.8508538007736206
,people,0.8427714705467224
,dusk,0.801969051361084
,fair weather,0.8015048503875732
,travel,0.7996025085449219
,mountain,0.7946102619171143
,weather,0.7909342050552368
,shadow,0.77877277135849
,dark,0.7704058289527893
,dawn,0.7701708078384399
,vertical,0.7672348022460938
https://scontent.cdninstagram.com/t51.2885-15/e35/13584189_277297542632515_789432242_n.jpg,food,0.9949878454208374
,plate,0.9804203510284424
,meat,0.9785742163658142
,lunch,0.9782612323760986
,dinner,0.9779025316238403
,no person,0.9755045175552368
,bread,0.9743971824645996
,breakfast,0.9713495969772339
,meal,0.9673440456390381
,coffee,0.9611818790435791
,drink,0.957278847694397
,dawn,0.9539271593093872
,delicious,0.9524496793746948
,hot,0.9515224695205688
,restaurant,0.9364092350006104
,table,0.9344272613525391
,chicken,0.9271831512451172
,knife,0.9125185012817383
,poultry,0.9117370843887329
,beef,0.9066329002380371
https://scontent.cdninstagram.com/t51.2885-15/s640x640/e15/13651821_627486840759972_2037348208_n.jpg,light,0.9727874994277954
,no person,0.9708057641983032
,music,0.9657026529312134
,science,0.956086277961731
,technology,0.955838680267334
,performance,0.9257025718688965
,motion,0.8827557563781738
,concert,0.8764477372169495
,festival,0.8654264211654663
,energy,0.8654145002365112
,dark,0.8179053068161011
,abstract,0.7756419777870178
,number,0.7733156085014343
,singer,0.720630407333374
,physics,0.6986276507377625
,stage,0.6692092418670654
,astronomy,0.668797492980957
,education,0.6609386205673218
,data,0.6418687105178833
,musician,0.6381015777587891
https://scontent.cdninstagram.com/t51.2885-15/s750x750/sh0.08/e35/13561646_266958740334513_1137630489_n.jpg,child,0.996928334236145
,education,0.9796459674835205
,cute,0.9604603052139282
,people,0.9519532322883606
,little,0.9445976614952087
,school,0.9425280094146729
,creativity,0.926059365272522
,innocence,0.906409502029419
,horizontal,0.8939282298088074
,bill,0.8828165531158447
,fun,0.8822915554046631
,desktop,0.8818687200546265
,mathematics,0.8493578433990479
,happiness,0.8489512205123901
,indoors,0.8469467163085938
,writing,0.8440114259719849
,elementary school,0.8400735855102539
,paper,0.8347597718238831
,girl,0.8345707654953003
,portrait,0.8198145031929016
https://scontent.cdninstagram.com/t51.2885-15/s750x750/sh0.08/e35/13320232_610857445747701_559081368_n.jpg,portrait,0.9845231175422668
,people,0.9755033254623413
,man,0.9713499546051025
,business,0.9710314273834229
,indoors,0.9581547975540161
,one,0.9370923042297363
,adult,0.9340096116065979
,outfit,0.932041585445404
,wear,0.9155158996582031
,facial expression,0.8973997831344604
,employee,0.8373971581459045
,tie,0.8322179317474365
,fashion,0.8257454633712769
,confidence,0.8141604661941528
,intelligence,0.8121737241744995
,looking,0.7998461723327637
,suit,0.7799527645111084
,office,0.770390510559082
,serious,0.759687602519989
,finance,0.7583894729614258
https://scontent.cdninstagram.com/t51.2885-15/s750x750/sh0.08/e35/13320019_129845550769841_1452556181_n.jpg,no person,0.989029049873352
,outdoors,0.9709941148757935
,grass,0.9692221879959106
,box,0.9654871225357056
,hole,0.946819543838501
,empty,0.9466153979301453
,one,0.9387164115905762
,tree,0.9062562584877014
,blank,0.8971679210662842
,wood,0.8854568004608154
,landscape,0.8834985494613647
,nature,0.8770579099655151
,house,0.8758419752120972
,vertical,0.8668128252029419
,summer,0.857540488243103
,environment,0.8530073165893555
,garden,0.8464374542236328
,mailbox,0.8428372740745544
,daylight,0.8390448093414307
,wall,0.8163379430770874
https://scontent.cdninstagram.com/t51.2885-15/e35/13534387_488163308048758_1374028984_n.jpg,group,0.9532350897789001
,people,0.9398461580276489
,portrait,0.9397316575050354
,three,0.9037144184112549
,facial expression,0.8739134073257446
,man,0.8718068599700928
,adult,0.8715107440948486
,laughing,0.8688614368438721
,festival,0.8686084747314453
,woman,0.867583155632019
,fun,0.866519570350647
,four,0.8638189435005188
,child,0.8497351408004761
,happiness,0.8461885452270508
,family,0.8378349542617798
,group,0.8117939233779907
,fame,0.8057818412780762
,wear,0.8054783344268799
,enjoyment,0.791152834892273
,togetherness,0.7902488708496094
https://scontent.cdninstagram.com/t51.2885-15/e35/13561801_576765672494940_36071259_n.jpg,business,0.9699975252151489
,text,0.9652267694473267
,people,0.9209001660346985
,money,0.9187492728233337
,paper,0.9094251990318298
,offense,0.8966730833053589
,woman,0.8964715003967285
,indoors,0.8749891519546509
,finance,0.8745425939559937
,success,0.8731640577316284
,adult,0.8602588772773743
,vertical,0.8524614572525024
,desktop,0.8500818610191345
,conceptual,0.8374977111816406
,sign,0.8109179735183716
,security,0.8065436482429504
,education,0.7880728244781494
,identity,0.7798803448677063
,financial,0.7748439311981201
,finance,0.7727620601654053
https://scontent.cdninstagram.com/t51.2885-15/e35/13267538_274492236231391_2115308781_n.jpg,composition,0.995035707950592
,business,0.9924219846725464
,paper,0.9906581044197083
,document,0.988283097743988
,office,0.9783650636672974
,notebook,0.9560523629188538
,writing,0.9559154510498047
,blank,0.9481866955757141
,empty,0.9447182416915894
,no person,0.944029688835144
,sheet,0.925626277923584
,note,0.9249787330627441
,education,0.9029043912887573
,work,0.8994619846343994
,pad,0.8851834535598755
,data,0.8808938264846802
,form,0.8676833510398865
,contract,0.8622041940689087
,pencil,0.8604272603988647
,laptop,0.8568403720855713
https://scontent.cdninstagram.com/t51.2885-15/e35/13402724_238321949886834_235007898_n.jpg,group,0.9984786510467529
,group,0.9946227073669434
,portrait,0.9881994724273682
,facial expression,0.9856480956077576
,friendship,0.983771800994873
,togetherness,0.9772756695747375
,happiness,0.9717185497283936
,four,0.9695074558258057
,people,0.9653327465057373
,adult,0.9604251980781555
,woman,0.9601376056671143
,laughing,0.9598770141601562
,man,0.9596055746078491
,child,0.9457600116729736
,school,0.9421905279159546
,education,0.9307405948638916
,three,0.9218277931213379
,five,0.9134570360183716
,boy,0.9116183519363403
,university,0.9111527800559998
https://scontent.cdninstagram.com/t51.2885-15/e35/13402333_538402732998021_568565220_n.jpg,pendant,0.9991963505744934
,precious,0.9991475343704224
,gem,0.9985377788543701
,platinum,0.9983609318733215
,jewelry,0.9981088638305664
,necklace,0.9932563900947571
,luxury,0.9903017282485962
,shining,0.988617479801178
,hanging,0.98780757188797
,chain,0.986451268196106
,gold,0.9861843585968018
,locket,0.9861197471618652
,amethyst,0.9798861742019653
,accessory,0.9770878553390503
,bijouterie,0.9762721061706543
,gift,0.9715613126754761
,band,0.9518656134605408
,isolated,0.9496620893478394
,bracelet,0.9456864595413208
,beads,0.9426087737083435
https://scontent.cdninstagram.com/t51.2885-15/e35/13277801_1585920955071302_1170425605_n.jpg,one,0.9834411144256592
,people,0.9792104959487915
,outdoors,0.9711944460868835
,man,0.9659957885742188
,adult,0.9590522050857544
,exploration,0.9540466070175171
,portrait,0.9235626459121704
,woman,0.9156272411346436
,water,0.9073097705841064
,nature,0.9006545543670654
,wear,0.8989093899726868
,travel,0.8887700438499451
,no person,0.8685853481292725
,underwater,0.8661534786224365
,recreation,0.8595890998840332
,light,0.8567215800285339
,art,0.846483588218689
,dark,0.8390814065933228
,leisure,0.832233190536499
,side view,0.8316503167152405
https://scontent.cdninstagram.com/t51.2885-15/e35/13551808_278492569170931_1439413655_n.jpg,exhibition,0.9638644456863403
,business,0.961202085018158
,people,0.9563641548156738
,indoors,0.9149794578552246
,competition,0.9090926647186279
,woman,0.8883048295974731
,commerce,0.8835355639457703
,food,0.8813837766647339
,museum,0.8777584433555603
,festival,0.8708721399307251
,landscape,0.853168249130249
,election,0.840798020362854
,military,0.8376676440238953
,coffee,0.8371608853340149
,travel,0.831932783126831
,shopping,0.8280731439590454
,music,0.8267012238502502
,adult,0.8241510391235352
,man,0.8172452449798584
,drink,0.8133140802383423
https://scontent.cdninstagram.com/t51.2885-15/e35/13422863_1725071217769719_924702796_n.jpg,hand,0.9790409803390503
,isolated,0.9490276575088501
,people,0.9410889744758606
,one,0.9331444501876831
,woman,0.9262579679489136
,business,0.9071647524833679
,man,0.9012502431869507
,adult,0.8791508674621582
,human,0.878429651260376
,conceptual,0.8545600175857544
,young,0.8360472917556763
,person,0.8297863006591797
,fashion,0.8201270699501038
,girl,0.810447096824646
,desktop,0.8048973083496094
,telephone,0.7983670234680176
,band,0.7757550477981567
,love,0.7684909701347351
,addiction,0.7645084261894226
,indoors,0.7640948295593262
https://scontent.cdninstagram.com/t51.2885-15/e35/13398738_833574430106374_424792553_n.jpg,success,0.9907087087631226
,money,0.9898426532745361
,business,0.9886724948883057
,wealth,0.9880150556564331
,paper,0.9814881086349487
,finance,0.9724868535995483
,commerce,0.9476868510246277
,finance,0.9315215349197388
,sign,0.9282657504081726
,money,0.9226465225219727
,administration,0.9082623720169067
,people,0.9067085981369019
,gambling,0.9042130708694458
,corruptness,0.897706151008606
,bank,0.8970993757247925
,symbol,0.8753505945205688
,shopping,0.8662293553352356
,no person,0.8635244369506836
,luck,0.8617333173751831
,five,0.8450825214385986
https://scontent.cdninstagram.com/t51.2885-15/s750x750/sh0.08/e35/13298257_530854187094960_1404682066_n.jpg,facial expression,0.9967091083526611
,portrait,0.9908816814422607
,togetherness,0.9886527061462402
,interaction,0.9882366061210632
,people,0.9829393029212952
,happiness,0.9812003374099731
,adult,0.9801059365272522
,two,0.9801000356674194
,woman,0.9722912311553955
,daylight,0.9692578911781311
,wear,0.9682166576385498
,affection,0.9668184518814087
,enjoyment,0.9617847204208374
,man,0.9552044868469238
,group,0.9321236610412598
,three,0.9174529314041138
,indoors,0.9149408340454102
,laughing,0.913549542427063
,embrace,0.8951065540313721
,child,0.8864370584487915
https://scontent.cdninstagram.com/t51.2885-15/e35/13423507_1073436716079569_954859514_n.jpg,food,0.9983054399490356
,vegetable,0.9927657246589661
,traditional,0.9923961162567139
,bowl,0.9912816286087036
,cabbage,0.9894076585769653
,soup,0.9877984523773193
,cuisine,0.9866605997085571
,dinner,0.9844391942024231
,delicious,0.980806291103363
,meal,0.9805788397789001
,rice,0.9804906845092773
,dish,0.9803348779678345
,cooking,0.9762276411056519
,healthy,0.9736205339431763
,lunch,0.9722094535827637
,plate,0.9681925773620605
,noodles,0.9578191041946411
,nutrition,0.957453727722168
,hot,0.9564126133918762
,broth,0.9551465511322021
https://scontent.cdninstagram.com/t51.2885-15/e35/13260899_144271299321316_829154897_n.jpg,jewelry,0.9966555237770081
,no person,0.9906366467475891
,necklace,0.9585983753204346
,fashion,0.9510447978973389
,precious,0.9499019980430603
,chain,0.948184609413147
,shining,0.946077823638916
,luxury,0.9349755048751831
,one,0.9205762147903442
,pendant,0.9153488874435425
,beads,0.9096121788024902
,gem,0.8948804140090942
,two,0.8802739381790161
,bracelet,0.8792687654495239
,wealth,0.8687543869018555
,platinum,0.866531252861023
,woman,0.853354811668396
,love,0.8517100214958191
,gift,0.8419458866119385
,band,0.8414772748947144
https://scontent.cdninstagram.com/t51.2885-15/e35/13392822_1557698641201563_363608320_n.jpg,no person,0.9917508959770203
,paper,0.98064124584198
,education,0.9615408778190613
,research,0.9459277391433716
,stacks,0.9430370330810547
,literature,0.9414659738540649
,book,0.9340953826904297
,isolated,0.926836371421814
,knowledge,0.9217095375061035
,business,0.9213026762008667
,plastic,0.9206224083900452
,cover,0.8920512199401855
,data,0.8783541917800903
,data,0.8708425760269165
,equipment,0.858368992805481
,order,0.8405781388282776
,document,0.834895133972168
,writing,0.8300343751907349
,school,0.8234134316444397
,electronics,0.8136306405067444
https://scontent.cdninstagram.com/t51.2885-15/e35/13414416_1074972732539274_1831304911_n.jpg,business,0.9582048654556274
,computer,0.9551095962524414
,technology,0.9439823627471924
,people,0.9371161460876465
,telephone,0.9348371028900146
,laptop,0.9298349618911743
,offense,0.9108704924583435
,internet,0.9042431116104126
,connection,0.8739883899688721
,screen,0.8732455968856812
,commerce,0.8658733367919922
,money,0.8562358617782593
,wealth,0.8307170271873474
,adult,0.8149217367172241
,office,0.7973611354827881
,wireless,0.7817249894142151
,electronics,0.7720657587051392
,man,0.7707401514053345
,hand,0.7707383632659912
,one,0.7622252702713013
https://scontent.cdninstagram.com/t51.2885-15/e15/13259099_239904786375065_19115761_n.jpg,indoors,0.9775155186653137
,exhibition,0.9700939655303955
,industry,0.9639429450035095
,stock,0.9622531533241272
,no person,0.9598519802093506
,people,0.9519439339637756
,laboratory,0.948506236076355
,technology,0.944085955619812
,business,0.9392713308334351
,machinery,0.9325763583183289
,service,0.9230096340179443
,merchandise,0.9016611576080322
,shopping,0.8996864557266235
,table,0.8894323110580444
,glass,0.8862706422805786
,luxury,0.8859558701515198
,research,0.8772356510162354
,shop,0.8755741119384766
,restaurant,0.8617627620697021
,mirror,0.8591687679290771
https://scontent.cdninstagram.com/t51.2885-15/e35/13392722_195014077565011_32499418_n.jpg,business,0.9801928400993347
,offense,0.976944625377655
,security,0.9559050798416138
,people,0.9541573524475098
,leather,0.9454784393310547
,man,0.9221935272216797
,danger,0.8850619792938232
,woman,0.8747947812080383
,luggage,0.8740441799163818
,fashion,0.8673571944236755
,military,0.8665894865989685
,briefcase,0.8650726079940796
,technology,0.859533965587616
,weapon,0.8569083213806152
,vehicle,0.8501712083816528
,adult,0.8475669622421265
,indoors,0.8404438495635986
,wear,0.8346061706542969
,one,0.8159337639808655
,computer,0.8030456900596619
https://scontent.cdninstagram.com/t51.2885-15/e35/13355496_261369717557305_966180439_n.jpg,jewelry,0.9762741327285767
,gold,0.9708176851272583
,no person,0.9601157307624817
,light,0.9505177140235901
,decoration,0.9504612684249878
,luxury,0.9460458159446716
,shining,0.9415284395217896
,bright,0.9114140868186951
,Christmas,0.9049623012542725
,glisten,0.8978132009506226
,fashion,0.8800356388092041
,art,0.8797211647033691
,reflection,0.8789392709732056
,theater,0.8742228746414185
,celebration,0.8675826787948608
,band,0.8652151823043823
,wealth,0.8623716831207275
,design,0.8507404923439026
,religion,0.8472390174865723
,desktop,0.843145489692688
https://scontent.cdninstagram.com/t51.2885-15/e35/13266951_623453194484569_275090622_n.jpg,indoors,0.9826067090034485
,business,0.982248067855835
,airport,0.9613953232765198
,office,0.9295601844787598
,room,0.9266585111618042
,industry,0.9194000959396362
,people,0.9142991304397583
,technology,0.9063072800636292
,furniture,0.89674311876297
,chair,0.8956859707832336
,modern,0.8926599025726318
,computer,0.8741825222969055
,vehicle,0.8722717761993408
,contemporary,0.8578599691390991
,adult,0.8520558476448059
,no person,0.8496609926223755
,luxury,0.8370795249938965
,offense,0.8315994739532471
,telephone,0.8245136141777039
,league,0.8235365152359009
https://scontent.cdninstagram.com/t51.2885-15/e35/13397584_1096895553733195_171930362_n.jpg,woman,0.9420569539070129
,jewelry,0.9327611923217773
,fashion,0.9168685674667358
,collection,0.9035066366195679
,no person,0.896414577960968
,set,0.8687354922294617
,luxury,0.8618374466896057
,decoration,0.8579587936401367
,business,0.8485507965087891
,people,0.8473217487335205
,glass,0.8426814079284668
,collage,0.830337643623352
,band,0.8299001455307007
,wedding,0.8282220363616943
,illustration,0.8209519982337952
,love,0.813679039478302
,design,0.806695818901062
,flower,0.8054479956626892
,gift,0.801791250705719
,precious,0.7975244522094727
https://scontent.cdninstagram.com/t51.2885-15/e35/13181526_1608948026086980_1207035747_n.jpg,people,0.9911981225013733
,facial expression,0.9830572605133057
,woman,0.9820934534072876
,portrait,0.9772214293479919
,group,0.974539041519165
,wear,0.9736040830612183
,child,0.9688938856124878
,adult,0.9640533924102783
,festival,0.9375724792480469
,daylight,0.9337685108184814
,happiness,0.9310175180435181
,man,0.9245395660400391
,interaction,0.919577956199646
,enjoyment,0.9170507192611694
,vehicle,0.8998844623565674
,togetherness,0.8977549076080322
,two,0.8890010714530945
,girl,0.8881692290306091
,three,0.8685076236724854
,family,0.8424563407897949
https://scontent.cdninstagram.com/t51.2885-15/e35/13108584_1783556085194162_360002714_n.jpg,portrait,0.9807669520378113
,group,0.9748368263244629
,wedding,0.972551703453064
,people,0.9682984352111816
,woman,0.9651817083358765
,ceremony,0.9637590050697327
,facial expression,0.9531275629997253
,celebration,0.9461010694503784
,adult,0.9307950735092163
,man,0.9254781007766724
,festival,0.9227651953697205
,happiness,0.9204735159873962
,bride,0.9144048690795898
,party,0.9135751724243164
,love,0.8936744928359985
,wear,0.8902814388275146
,child,0.8881901502609253
,fun,0.8803558349609375
,family,0.8801315426826477
,groom,0.8795413970947266
https://scontent.cdninstagram.com/t51.2885-15/e35/13249817_121279921623043_1041172840_n.jpg,hand,0.9683701992034912
,business,0.9476550817489624
,closeup,0.9296363592147827
,paper,0.9257287979125977
,woman,0.9066236019134521
,desktop,0.9003221988677979
,human,0.8896544575691223
,office,0.8691727519035339
,family,0.8447353839874268
,work,0.8405399918556213
,connection,0.8165674805641174
,wire,0.8065422773361206
,technology,0.8026820421218872
,isolated,0.8004704713821411
,service,0.7803869247436523
,communication,0.7801032066345215
,equipment,0.7800008058547974
,data,0.774574875831604
,beautiful,0.7719186544418335
,money,0.7714000940322876
https://scontent.cdninstagram.com/t51.2885-15/e35/13525568_1147504641982579_2018469147_n.jpg,luxury,0.9989359378814697
,fashion,0.9979342222213745
,jewelry,0.9967568516731262
,shining,0.9947512149810791
,gem,0.9913531541824341
,wedding,0.9855997562408447
,platinum,0.9846832752227783
,band,0.9799259901046753
,leather,0.9736016988754272
,love,0.9735186100006104
,engagement,0.9728642106056213
,precious,0.9620187282562256
,desktop,0.9619719982147217
,closeup,0.9541872143745422
,elegant,0.9473681449890137
,color,0.9430385828018188
,no person,0.9378018975257874
,abstract,0.9370083808898926
,fabric,0.933017373085022
,velvet,0.9326786398887634
https://scontent.cdninstagram.com/t51.2885-15/e35/13423025_749344818539212_486230535_n.jpg,indoors,0.9835820198059082
,no person,0.9831060171127319
,paper,0.9808496236801147
,contemporary,0.9610133767127991
,business,0.9585326313972473
,document,0.9119303226470947
,desk,0.9091939330101013
,organization,0.8956550359725952
,writing,0.8952263593673706
,electronics,0.8930663466453552
,family,0.8905306458473206
,office,0.8790656924247742
,research,0.8750975131988525
,data,0.8718651533126831
,machinery,0.8435384631156921
,paperwork,0.8349127769470215
,technology,0.8212387561798096
,bureaucracy,0.816032886505127
,stacks,0.8136574029922485
,success,0.8094881176948547
https://scontent.cdninstagram.com/t51.2885-15/e35/13260882_1585832191709112_725244558_n.jpg,portrait,0.9920107126235962
,sunglasses,0.9903919100761414
,eyeglasses,0.9845515489578247
,eyewear,0.980255126953125
,people,0.9718313217163086
,adult,0.962615966796875
,one,0.9543564319610596
,man,0.9446322917938232
,business,0.9177135229110718
,facial expression,0.9162111282348633
,fashion,0.9077816009521484
,wear,0.8865799903869629
,festival,0.8832952976226807
,actor,0.8624155521392822
,movie,0.856148898601532
,strange,0.7892817258834839
,fashionable,0.7826491594314575
,looking,0.7764014005661011
,intelligence,0.76712965965271
,fame,0.7669104337692261
https://scontent.cdninstagram.com/t51.2885-15/e35/13259464_1008501329245212_1666521012_n.jpg,jewelry,0.9863104820251465
,luxury,0.9718560576438904
,no person,0.966281533241272
,fashion,0.9394831657409668
,platinum,0.9362432956695557
,shining,0.933032214641571
,gold,0.9298237562179565
,bright,0.9037874937057495
,gem,0.8864142298698425
,decoration,0.8722419738769531
,wealth,0.8719174861907959
,desktop,0.8586811423301697
,winter,0.8529601097106934
,metalwork,0.8494082093238831
,wedding,0.8435760736465454
,dark,0.8379737734794617
,elegant,0.8345544338226318
,necklace,0.8261440992355347
,abstract,0.821937084197998
,reflection,0.8145752549171448
https://scontent.cdninstagram.com/t51.2885-15/e35/13256982_890108744447898_993231948_n.jpg,adult,0.9935719966888428
,people,0.9900766015052795
,group,0.9848750233650208
,woman,0.976851224899292
,table,0.9716269373893738
,man,0.9715638160705566
,room,0.9678481817245483
,group,0.931686520576477
,two,0.9310257434844971
,indoors,0.9287451505661011
,computer,0.9132912755012512
,portrait,0.9054670333862305
,furniture,0.8997992277145386
,four,0.8893689513206482
,technology,0.8727237582206726
,restaurant,0.8720775842666626
,education,0.8662890195846558
,three,0.8585882782936096
,laptop,0.844011664390564
,family,0.8373359441757202
https://scontent.cdninstagram.com/t51.2885-15/s480x480/e35/13388754_592549437571207_381890719_n.jpg,girl,0.9965355396270752
,woman,0.9913734197616577
,portrait,0.9897992610931396
,people,0.9887499809265137
,fashion,0.9795190095901489
,beautiful,0.9779741168022156
,model,0.974620521068573
,face,0.9679595232009888
,hair,0.9553257822990417
,adult,0.9511028528213501
,brunette,0.949090838432312
,sexy,0.9476024508476257
,pretty,0.9465488195419312
,necklace,0.9423515796661377
,one,0.9407614469528198
,cute,0.9377865791320801
,lips,0.9236957430839539
,studio,0.9231359958648682
,child,0.918089747428894
,glamour,0.9172540903091431
https://scontent.cdninstagram.com/l/t51.2885-15/e35/13561601_148829232192767_616273067_n.jpg,precious,0.9983845949172974
,gem,0.9981817007064819
,jewelry,0.9979960918426514
,shining,0.986833930015564
,treasure,0.9856181740760803
,luxury,0.9834209680557251
,carat,0.980068564414978
,wealth,0.9723484516143799
,accessory,0.9674177169799805
,crystal,0.9656916856765747
,bright,0.9652486443519592
,isolated,0.9628502130508423
,turquoise,0.9626766443252563
,decoration,0.9599961042404175
,gift,0.958194375038147
,sapphire,0.9568852186203003
,desktop,0.9419659972190857
,amethyst,0.9385186433792114
,stone,0.9240967035293579
,shape,0.9240409135818481
https://scontent.cdninstagram.com/t51.2885-15/s640x640/e15/13531814_629579987207086_2147408981_n.jpg,business,0.9804945588111877
,data,0.9683678150177002
,technology,0.959086000919342
,equipment,0.9549787044525146
,communication,0.9514205455780029
,office,0.9504088759422302
,laptop,0.9461584091186523
,computer,0.9351251125335693
,electronics,0.929329514503479
,display,0.9187649488449097
,telephone,0.9187111854553223
,data,0.902741551399231
,screen,0.8944196701049805
,paper,0.8764397501945496
,blank,0.8743709325790405
,modern,0.8681143522262573
,industry,0.8430535197257996
,desktop,0.8323898911476135
,composition,0.8170784711837769
,internet,0.8066858053207397
https://scontent.cdninstagram.com/t51.2885-15/e35/13392698_209602109433854_98253601_n.jpg,no person,0.978366494178772
,technology,0.9760270714759827
,screen,0.9570307731628418
,business,0.9525759220123291
,laptop,0.9477064609527588
,office,0.9476699829101562
,telephone,0.9449129104614258
,computer,0.9440619945526123
,display,0.9279978275299072
,monochrome,0.9208749532699585
,indoors,0.9207967519760132
,museum,0.9187103509902954
,still life,0.914429783821106
,people,0.9073812961578369
,picture frame,0.8737752437591553
,blank,0.8620414137840271
,modern,0.8507128953933716
,architecture,0.8465445041656494
,wireless,0.8406084179878235
,desktop,0.8341028690338135
https://scontent.cdninstagram.com/t51.2885-15/e35/13525435_324196731245754_426482754_n.jpg,group,0.9911470413208008
,music,0.9855369329452515
,performance,0.9838149547576904
,band,0.9721071720123291
,many,0.9704105257987976
,group,0.9703920483589172
,concert,0.9627806544303894
,people,0.9601819515228271
,party,0.9580695629119873
,woman,0.9580414295196533
,singer,0.9446249604225159
,musician,0.9382222294807434
,celebration,0.9159131050109863
,club,0.9155001640319824
,festival,0.908825159072876
,friendship,0.9086717963218689
,man,0.9065808057785034
,portrait,0.8934447765350342
,stage,0.8625023365020752
,fun,0.860702633857727
https://scontent.cdninstagram.com/t51.2885-15/e35/13551556_1718394505079422_250234269_n.jpg,money,0.9976204633712769
,business,0.9962578415870667
,money,0.9954898357391357
,finance,0.9953399896621704
,paper,0.9924019575119019
,cash,0.9884399175643921
,wealth,0.9828634858131409
,bank,0.9745305180549622
,financial,0.9720926284790039
,pay,0.9669407606124878
,savings,0.9666878581047058
,success,0.9635330438613892
,commerce,0.9618440866470337
,dollar,0.9559320211410522
,debt,0.9559275507926941
,no person,0.9554217457771301
,shopping,0.9426984786987305
,note,0.9364299774169922
,finance,0.9361532926559448
,credit,0.9351392984390259
https://scontent.cdninstagram.com/t51.2885-15/e35/13414309_304783673198263_1878771058_n.jpg,child,0.9974797964096069
,family,0.9831022024154663
,togetherness,0.9776497483253479
,boy,0.9712152481079102
,people,0.970732569694519
,portrait,0.9698306918144226
,love,0.9601719975471497
,affection,0.9499441981315613
,happiness,0.927314043045044
,interaction,0.9229797124862671
,offspring,0.9103017449378967
,facial expression,0.9062117338180542
,two,0.9006659984588623
,innocence,0.8971906900405884
,baby,0.8904612064361572
,enjoyment,0.8829159736633301
,fun,0.878860592842102
,man,0.8733998537063599
,woman,0.8664222955703735
,cute,0.8531423807144165
https://scontent.cdninstagram.com/t51.2885-15/s750x750/sh0.08/e35/13597597_1821157111453094_510166970_n.jpg,portrait,0.9887255430221558
,man,0.9858022928237915
,people,0.9779858589172363
,adult,0.9570187330245972
,one,0.9519510865211487
,monochrome,0.9000471830368042
,guy,0.8801981806755066
,fashion,0.8770895004272461
,face,0.8709555268287659
,young,0.8650645017623901
,model,0.8301118612289429
,person,0.8241590261459351
,studio,0.8176736235618591
,hand,0.8054227828979492
,smile,0.7800999879837036
,actor,0.7667320966720581
,fine-looking,0.7635412216186523
,watch,0.7361773252487183
,boy,0.7197532653808594
,girl,0.7167270183563232
https://scontent.cdninstagram.com/t51.2885-15/e35/13557245_755401154602176_707915337_n.jpg,people,0.9841564297676086
,music,0.9693765044212341
,adult,0.9613826274871826
,two,0.9610123038291931
,musician,0.9550575613975525
,facial expression,0.9543952941894531
,recreation,0.9501545429229736
,portrait,0.9426929950714111
,man,0.9268411993980408
,interaction,0.9265915155410767
,festival,0.9247435331344604
,wear,0.9246857166290283
,movie,0.9237945675849915
,singer,0.9112142324447632
,group,0.9103884696960449
,light,0.9031959176063538
,woman,0.8820642232894897
,concert,0.8537505865097046
,hotel,0.8274209499359131
,competition,0.8268245458602905
https://scontent.cdninstagram.com/t51.2885-15/e35/13534110_1040061016031178_420902231_n.jpg,business,0.9822306036949158
,wear,0.9811067581176758
,man,0.9718444347381592
,fashion,0.9693859815597534
,suit,0.9588512182235718
,people,0.9491733312606812
,monochrome,0.9400309324264526
,jacket,0.9353888034820557
,elegant,0.9185348749160767
,one,0.9106718301773071
,isolated,0.9085053205490112
,contemporary,0.8773007392883301
,formal,0.8711917400360107
,no person,0.868039608001709
,tie,0.861291766166687
,office,0.860237717628479
,classic,0.8328863382339478
,adult,0.8258625268936157
,collar,0.822989821434021
,indoors,0.8028635382652283
https://scontent.cdninstagram.com/t51.2885-15/e35/13534269_219433325116987_462425147_n.jpg,furniture,0.9897183775901794
,table,0.9873826503753662
,indoors,0.9834839105606079
,chair,0.9826227426528931
,room,0.9740014672279358
,industry,0.9672702550888062
,seat,0.9670634269714355
,exhibition,0.9663832187652588
,stock,0.9578468799591064
,inside,0.9570530652999878
,business,0.9533854722976685
,luxury,0.9461449980735779
,restaurant,0.9409893751144409
,technology,0.9407445192337036
,no person,0.9406458139419556
,production,0.9381421804428101
,modern,0.9358882904052734
,machine,0.9286407232284546
,interior design,0.9184290170669556
,grinder,0.9164642691612244
https://scontent.cdninstagram.com/t51.2885-15/e35/13525411_1699575746961333_64247739_n.jpg,people,0.9895442724227905
,portrait,0.9892765283584595
,child,0.9850928783416748
,competition,0.9609851837158203
,man,0.958667516708374
,outdoors,0.9461125731468201
,rebellion,0.9450961351394653
,one,0.943662703037262
,rally,0.927321195602417
,offense,0.9112012386322021
,battle,0.9099718332290649
,education,0.9004926681518555
,recreation,0.896920919418335
,police,0.8960875868797302
,track and field,0.8885135054588318
,soccer,0.8850882649421692
,football,0.8770874738693237
,wear,0.8659462928771973
,boy,0.8446729183197021
,school,0.8438575267791748
https://scontent.cdninstagram.com/t51.2885-15/e35/13473115_663704100434839_483574330_n.jpg,city,0.9884231090545654
,architecture,0.9869657754898071
,sky,0.9750986099243164
,building,0.9723002314567566
,no person,0.9717743396759033
,downtown,0.9565356969833374
,business,0.9546734094619751
,office,0.9418715238571167
,urban,0.9384129047393799
,street,0.9367634654045105
,travel,0.9282451868057251
,skyscraper,0.9273595809936523
,light,0.9222854971885681
,window,0.9145543575286865
,cityscape,0.9017757177352905
,hotel,0.9015854597091675
,skyline,0.8961255550384521
,outdoors,0.8843921422958374
,house,0.871277391910553
,reflection,0.8647948503494263
https://scontent.cdninstagram.com/t51.2885-15/s750x750/sh0.08/e35/13380835_1730072577263227_755348106_n.jpg,woman,0.991875410079956
,facial expression,0.9819424748420715
,togetherness,0.9817672967910767
,people,0.9662168025970459
,love,0.9636361598968506
,affection,0.9574645161628723
,portrait,0.9568897485733032
,embrace,0.9336504340171814
,wear,0.9234393835067749
,friendship,0.9201615452766418
,two,0.9135701060295105
,fashion,0.9074157476425171
,adolescent,0.901964545249939
,man,0.9004483222961426
,fun,0.898684024810791
,girl,0.8969507813453674
,indoors,0.8951969146728516
,child,0.8893070220947266
,interaction,0.8858098983764648
,enjoyment,0.8842922449111938
https://scontent.cdninstagram.com/t51.2885-15/e35/13355590_139607409777867_853366656_n.jpg,jewelry,0.9775620698928833
,decoration,0.9710315465927124
,gold,0.9702321290969849
,shining,0.9648789167404175
,bright,0.9555875062942505
,luxury,0.9532472491264343
,color,0.9499024152755737
,fun,0.9410985708236694
,fashion,0.9319367408752441
,desktop,0.9281164407730103
,art,0.9101172685623169
,design,0.8988232612609863
,no person,0.8930684924125671
,pattern,0.864223837852478
,indoors,0.8538511991500854
,glass,0.8482325077056885
,gift,0.8475046157836914
,shape,0.8464042544364929
,celebration,0.8362921476364136
,creativity,0.829170286655426
