url,class,score,,,,,,,,
https://scontent.cdninstagram.com/t51.2885-15/e35/13534358_276810846016213_1490008632_n.jpg,sunset,0.9934772253036499,Environment,Travel,,,"Natural beauty",Travel-s,,
,dawn,0.9930089712142944,,,,,,,,
,water,0.9877666234970093,,,,,,,,
,dusk,0.9842115640640259,,,,,,,,
,nature,0.9816619753837585,,,,,,,,
,evening,0.979688823223114,,,,,,,,
,sun,0.979404866695404,,,,,,,,
,tree,0.9770084023475647,,,,,,,,
,sky,0.9764835238456726,,,,,,,,
,silhouette,0.9698367714881897,,,,,,,,
,silhouette,0.9639005064964294,,,,,,,,
,landscape,0.9637892246246338,,,,,,,,
,summer,0.9569892883300781,,,,,,,,
,outdoors,0.9547659158706665,,,,,,,,
,travel,0.9505548477172852,,,,,,,,
,"no person",0.9488388299942017,,,,,,,,
,reflection,0.9434272050857544,,,,,,,,
,lake,0.9363498091697693,,,,,,,,
,sea,0.9261897802352905,,,,,,,,
,seashore,0.9084113240242004,,,,,,,,
https://scontent.cdninstagram.com/t51.2885-15/e35/13381089_916371508509255_477573213_n.jpg,water,0.9925602674484253,Environment,Travel,Relationships,,"Natural beauty",Travel-s,"Young family",
,recreation,0.9666481614112854,,,,,,,,
,people,0.9635719656944275,,,,,,,,
,one,0.9631664752960205,,,,,,,,
,adult,0.9625495672225952,,,,,,,,
,girl,0.9599043130874634,,,,,,,,
,lake,0.9587194323539734,,,,,,,,
,leisure,0.9478128552436829,,,,,,,,
,swimming,0.9435322880744934,,,,,,,,
,woman,0.9291496276855469,,,,,,,,
,portrait,0.9267227649688721,,,,,,,,
,river,0.9186512231826782,,,,,,,,
,outdoors,0.9140715599060059,,,,,,,,
,nature,0.9114565253257751,,,,,,,,
,lifestyle,0.911184549331665,,,,,,,,
,summer,0.9099990129470825,,,,,,,,
,action,0.9093106985092163,,,,,,,,
,travel,0.9053515791893005,,,,,,,,
,reflection,0.9039856195449829,,,,,,,,
,landscape,0.8972301483154297,,,,,,,,
https://scontent.cdninstagram.com/t51.2885-15/e35/12501674_966677450114635_867827190_n.jpg,water,0.9952926635742188,Environment,Recreation,,,"Natural beauty",Recreation-s,,
,recreation,0.9815112352371216,,,,,,,,
,sea,0.9750924110412598,,,,,,,,
,travel,0.9679524898529053,,,,,,,,
,ocean,0.9663573503494263,,,,,,,,
,watercraft,0.9630609750747681,,,,,,,,
,leisure,0.9608573913574219,,,,,,,,
,beach,0.959012508392334,,,,,,,,
,boat,0.9518853425979614,,,,,,,,
,summer,0.9505069255828857,,,,,,,,
,relaxation,0.9483402967453003,,,,,,,,
,fisherman,0.930311918258667,,,,,,,,
,seashore,0.9261459112167358,,,,,,,,
,sky,0.925003707408905,,,,,,,,
,solitude,0.9222788214683533,,,,,,,,
,sand,0.9182306528091431,,,,,,,,
,outdoors,0.9027091264724731,,,,,,,,
,sun,0.8976130485534668,,,,,,,,
,landscape,0.8935214877128601,,,,,,,,
,composure,0.8922113180160522,,,,,,,,
https://scontent.cdninstagram.com/t51.2885-15/e35/12479130_1555662511399565_1984620328_n.jpg,beach,0.9930295944213867,Environment,Travel,Relationships,Recreation,"Natural beauty",Travel-s,"Best friends",Beach
,sunset,0.9891641736030579,,,,,,,,
,water,0.9885011911392212,,,,,,,,
,dawn,0.9842684268951416,,,,,,,,
,sea,0.9788140058517456,,,,,,,,
,ocean,0.974816620349884,,,,,,,,
,sun,0.9640758037567139,,,,,,,,
,landscape,0.9612987041473389,,,,,,,,
,"no person",0.9533792734146118,,,,,,,,
,seashore,0.948040783405304,,,,,,,,
,sand,0.9463798999786377,,,,,,,,
,dusk,0.931023359298706,,,,,,,,
,travel,0.9264664649963379,,,,,,,,
,storm,0.9238170385360718,,,,,,,,
,evening,0.9219101667404175,,,,,,,,
,people,0.9190014600753784,,,,,,,,
,sky,0.9019705057144165,,,,,,,,
,weather,0.8961353898048401,,,,,,,,
,surf,0.8939799070358276,,,,,,,,
,outdoors,0.8801308870315552,,,,,,,,
https://scontent.cdninstagram.com/t51.2885-15/e35/13597559_1775966162622101_1422924856_n.jpg,butterfly,0.9984909296035767,Environment,,,,"Natural beauty",,,
,"no person",0.9975782632827759,,,,,,,,
,insect,0.9967443943023682,,,,,,,,
,nature,0.9956871271133423,,,,,,,,
,outdoors,0.991915225982666,,,,,,,,
,invertebrate,0.9895768165588379,,,,,,,,
,summer,0.9812551140785217,,,,,,,,
,monarch,0.9720404744148254,,,,,,,,
,wildlife,0.9702073931694031,,,,,,,,
,leaf,0.9588495492935181,,,,,,,,
,flower,0.9388860464096069,,,,,,,,
,biology,0.9356613159179688,,,,,,,,
,Lepidoptera,0.923586368560791,,,,,,,,
,one,0.9183605909347534,,,,,,,,
,delicate,0.9099708795547485,,,,,,,,
,flora,0.9024521112442017,,,,,,,,
,pretty,0.8979666233062744,,,,,,,,
,bright,0.8975945115089417,,,,,,,,
,garden,0.8939391374588013,,,,,,,,
,metamorphosis,0.8829272985458374,,,,,,,,
https://scontent.cdninstagram.com/t51.2885-15/e35/13534504_1744617102493051_1285398909_n.jpg,beer,0.9980952143669128,Food,,,,"Meal time",,,
,food,0.9954214096069336,,,,,,,,
,meal,0.9891636371612549,,,,,,,,
,meat,0.9877623915672302,,,,,,,,
,dinner,0.9864029884338379,,,,,,,,
,lunch,0.9781392812728882,,,,,,,,
,restaurant,0.9756529331207275,,,,,,,,
,table,0.9727095365524292,,,,,,,,
,plate,0.9712107181549072,,,,,,,,
,pub,0.9694978594779968,,,,,,,,
,dish,0.968730092048645,,,,,,,,
,cuisine,0.9655993580818176,,,,,,,,
,"no person",0.962738037109375,,,,,,,,
,delicious,0.9614532589912415,,,,,,,,
,vegetable,0.9567475318908691,,,,,,,,
,epicure,0.9547427892684937,,,,,,,,
,pork,0.9524876475334167,,,,,,,,
,sauce,0.9506895542144775,,,,,,,,
,tasty,0.9401658177375793,,,,,,,,
,healthy,0.939961314201355,,,,,,,,
https://scontent.cdninstagram.com/t51.2885-15/e35/12950475_1767137963521796_133987089_n.jpg,travel,0.9885019063949585,Recreation,,,,Recreation-s,,,
,water,0.9863032102584839,,,,,,,,
,leisure,0.9848824739456177,,,,,,,,
,recreation,0.9753819704055786,,,,,,,,
,watercraft,0.9722543954849243,,,,,,,,
,"water sports",0.9487335681915283,,,,,,,,
,vehicle,0.9460404515266418,,,,,,,,
,outdoors,0.9393659234046936,,,,,,,,
,"transportation system",0.9371075630187988,,,,,,,,
,summer,0.925026535987854,,,,,,,,
,vacation,0.9176016449928284,,,,,,,,
,sea,0.9164395332336426,,,,,,,,
,fun,0.9129292964935303,,,,,,,,
,people,0.9043446779251099,,,,,,,,
,man,0.9032045602798462,,,,,,,,
,ocean,0.8931570053100586,,,,,,,,
,enjoyment,0.8841858506202698,,,,,,,,
,relaxation,0.8823222517967224,,,,,,,,
,boat,0.8758206367492676,,,,,,,,
,motorboat,0.8553956151008606,,,,,,,,
https://scontent.cdninstagram.com/t51.2885-15/s750x750/sh0.08/e35/13534324_1830004057228508_46556817_n.jpg,food,0.9893885254859924,Food,,,,"Meal time",,,
,dinner,0.9846100807189941,,,,,,,,
,"no person",0.9845534563064575,,,,,,,,
,lunch,0.9838221073150635,,,,,,,,
,cooking,0.974287211894989,,,,,,,,
,delicious,0.9686198234558105,,,,,,,,
,traditional,0.9644238352775574,,,,,,,,
,meal,0.9634920954704285,,,,,,,,
,hot,0.9628587961196899,,,,,,,,
,dish,0.9585956931114197,,,,,,,,
,soup,0.9581371545791626,,,,,,,,
,cuisine,0.9464166164398193,,,,,,,,
,meat,0.9451205730438232,,,,,,,,
,noodles,0.9430606365203857,,,,,,,,
,homemade,0.9349973201751709,,,,,,,,
,vegetable,0.9314640760421753,,,,,,,,
,pork,0.9252667427062988,,,,,,,,
,plate,0.9243241548538208,,,,,,,,
,nutrition,0.9203459620475769,,,,,,,,
,bowl,0.9000258445739746,,,,,,,,
https://scontent.cdninstagram.com/t51.2885-15/e35/13113898_1040811085984722_1812562083_n.jpg,graffiti,0.9616529941558838,Arts,,,,Arts-s,,,
,people,0.953465461730957,,,,,,,,
,door,0.934532105922699,,,,,,,,
,wall,0.9313235282897949,,,,,,,,
,art,0.92536860704422,,,,,,,,
,street,0.9175457954406738,,,,,,,,
,illustration,0.9037744998931885,,,,,,,,
,painting,0.8838096857070923,,,,,,,,
,old,0.8612014055252075,,,,,,,,
,vintage,0.8298259973526001,,,,,,,,
,famous,0.8109983205795288,,,,,,,,
,culture,0.7978097200393677,,,,,,,,
,city,0.7976510524749756,,,,,,,,
,spray,0.791757345199585,,,,,,,,
,color,0.7907083034515381,,,,,,,,
,business,0.7892953157424927,,,,,,,,
,vandalism,0.7892405986785889,,,,,,,,
,urban,0.7843741178512573,,,,,,,,
,symbol,0.7821750640869141,,,,,,,,
,man,0.7804113030433655,,,,,,,,
https://scontent.cdninstagram.com/t51.2885-15/e35/12917991_241170986237022_1818241117_n.jpg,water,0.9970012903213501,Environment,Recreation,,,"Manmade beauty",Recreation-s,,
,travel,0.9793894290924072,,,,,,,,
,city,0.9686195850372314,,,,,,,,
,river,0.9664244651794434,,,,,,,,
,architecture,0.9643230438232422,,,,,,,,
,"no person",0.9451287984848022,,,,,,,,
,reflection,0.9436063170433044,,,,,,,,
,outdoors,0.9313242435455322,,,,,,,,
,building,0.9289959669113159,,,,,,,,
,swimming,0.9094676971435547,,,,,,,,
,watercraft,0.900493860244751,,,,,,,,
,lake,0.8976032733917236,,,,,,,,
,sea,0.895699143409729,,,,,,,,
,sky,0.8880215287208557,,,,,,,,
,tourism,0.8861016035079956,,,,,,,,
,daylight,0.8803667426109314,,,,,,,,
,waterfront,0.8749980926513672,,,,,,,,
,leisure,0.872913122177124,,,,,,,,
,harbor,0.8562180995941162,,,,,,,,
,swimming,0.8545352220535278,,,,,,,,
https://scontent.cdninstagram.com/t51.2885-15/e35/13249652_541911905991062_521357946_n.jpg,marina,0.9994667768478394,Environment,,,,"Manmade beauty",,,
,yacht,0.9992202520370483,,,,,,,,
,harbor,0.998745322227478,,,,,,,,
,pier,0.997238278388977,,,,,,,,
,sea,0.997219443321228,,,,,,,,
,sailboat,0.9959337711334229,,,,,,,,
,water,0.995753288269043,,,,,,,,
,luxury,0.9954085350036621,,,,,,,,
,boat,0.9943599700927734,,,,,,,,
,port,0.9933972358703613,,,,,,,,
,travel,0.9908304810523987,,,,,,,,
,wealth,0.9870180487632751,,,,,,,,
,ocean,0.9869603514671326,,,,,,,,
,jetty,0.9852795004844666,,,,,,,,
,motorboat,0.9836505055427551,,,,,,,,
,ship,0.9833969473838806,,,,,,,,
,seashore,0.9792479276657104,,,,,,,,
,sail,0.9756797552108765,,,,,,,,
,"transportation system",0.9736712574958801,,,,,,,,
,nautical,0.9734021425247192,,,,,,,,
https://scontent.cdninstagram.com/t51.2885-15/e35/13551842_170362500045562_1445671103_n.jpg,sunset,0.9922013282775879,Travel,Environment,,,Travel-s,"Natural beauty",,
,nature,0.9921616315841675,,,,,,,,
,dawn,0.9893944263458252,,,,,,,,
,sun,0.9869650602340698,,,,,,,,
,water,0.9830591678619385,,,,,,,,
,sky,0.9812761545181274,,,,,,,,
,summer,0.9654319286346436,,,,,,,,
,dusk,0.9555851221084595,,,,,,,,
,tree,0.9475558996200562,,,,,,,,
,landscape,0.9454097747802734,,,,,,,,
,outdoors,0.938794732093811,,,,,,,,
,reflection,0.9340532422065735,,,,,,,,
,travel,0.9321273565292358,,,,,,,,
,"fair weather",0.9307028651237488,,,,,,,,
,silhouette,0.9259153604507446,,,,,,,,
,evening,0.9249868392944336,,,,,,,,
,moon,0.9155150055885315,,,,,,,,
,beach,0.9125350117683411,,,,,,,,
,sea,0.9083188772201538,,,,,,,,
,"no person",0.9076409935951233,,,,,,,,
https://scontent.cdninstagram.com/t51.2885-15/e35/13129832_211007889282145_604343567_n.jpg,architecture,0.9940086603164673,Environment,,,,"Manmade beauty",,,
,water,0.9934241771697998,,,,,,,,
,"no person",0.9925922155380249,,,,,,,,
,river,0.9905489087104797,,,,,,,,
,travel,0.9867401719093323,,,,,,,,
,city,0.9858375787734985,,,,,,,,
,sky,0.9673950672149658,,,,,,,,
,daylight,0.9631354808807373,,,,,,,,
,skyline,0.9622272849082947,,,,,,,,
,outdoors,0.9572749137878418,,,,,,,,
,building,0.9518730044364929,,,,,,,,
,lake,0.948556661605835,,,,,,,,
,skyscraper,0.9291642308235168,,,,,,,,
,bridge,0.9289464950561523,,,,,,,,
,cityscape,0.9264242053031921,,,,,,,,
,waterfront,0.9252991080284119,,,,,,,,
,landscape,0.9025198221206665,,,,,,,,
,ferry,0.8911675214767456,,,,,,,,
,reflection,0.8896855115890503,,,,,,,,
,harbor,0.8734623193740845,,,,,,,,
https://scontent.cdninstagram.com/t51.2885-15/e35/12407190_216064335421996_596159197_n.jpg,food,0.9964154362678528,Food,,,,"Meal time",,,
,"no person",0.9951463937759399,,,,,,,,
,delicious,0.9902043342590332,,,,,,,,
,bread,0.9889131784439087,,,,,,,,
,homemade,0.9815640449523926,,,,,,,,
,refreshment,0.972558856010437,,,,,,,,
,baking,0.9723725914955139,,,,,,,,
,sweet,0.9668833017349243,,,,,,,,
,traditional,0.9626355171203613,,,,,,,,
,breakfast,0.9598441123962402,,,,,,,,
,cake,0.9557570219039917,,,,,,,,
,unhealthy,0.9541508555412292,,,,,,,,
,"still life",0.9524175524711609,,,,,,,,
,"dairy product",0.9513481855392456,,,,,,,,
,bun,0.949288547039032,,,,,,,,
,sugar,0.9469872117042542,,,,,,,,
,grow,0.9459928274154663,,,,,,,,
,pastry,0.9383291006088257,,,,,,,,
,lunch,0.932892918586731,,,,,,,,
,cookie,0.9252258539199829,,,,,,,,
https://scontent.cdninstagram.com/t51.2885-15/e35/13259037_1736723349873107_75521043_n.jpg,food,0.9913521409034729,Food,,,,"Meal time",,,
,dinner,0.991303563117981,,,,,,,,
,meat,0.9905478954315186,,,,,,,,
,meal,0.979743242263794,,,,,,,,
,"no person",0.9781488180160522,,,,,,,,
,lunch,0.9741268754005432,,,,,,,,
,dish,0.9722144603729248,,,,,,,,
,plate,0.972159743309021,,,,,,,,
,vegetable,0.9631669521331787,,,,,,,,
,restaurant,0.9619045257568359,,,,,,,,
,beef,0.956538200378418,,,,,,,,
,delicious,0.9504430890083313,,,,,,,,
,pork,0.9470971822738647,,,,,,,,
,chicken,0.9464271068572998,,,,,,,,
,sauce,0.943825900554657,,,,,,,,
,cooking,0.9429867267608643,,,,,,,,
,cuisine,0.937861979007721,,,,,,,,
,poultry,0.9293134212493896,,,,,,,,
,barbecue,0.9274173974990845,,,,,,,,
,salad,0.9228984117507935,,,,,,,,
https://scontent.cdninstagram.com/t51.2885-15/e35/13129649_1631677613719432_1084019312_n.jpg,people,0.9869421720504761,Relationships,Commerce,,,"Best friends","Product/brand shots",,
,school,0.9698226451873779,,,,,,,,
,education,0.9685676097869873,,,,,,,,
,woman,0.9681423306465149,,,,,,,,
,adult,0.9679415822029114,,,,,,,,
,indoors,0.9669255614280701,,,,,,,,
,election,0.9663600921630859,,,,,,,,
,portrait,0.9513235092163086,,,,,,,,
,music,0.935757040977478,,,,,,,,
,"film festival",0.9253589510917664,,,,,,,,
,musician,0.9235729575157166,,,,,,,,
,festival,0.9184644818305969,,,,,,,,
,actress,0.9142496585845947,,,,,,,,
,recreation,0.9125546216964722,,,,,,,,
,administration,0.9120385646820068,,,,,,,,
,competition,0.9120018482208252,,,,,,,,
,league,0.9103456139564514,,,,,,,,
,business,0.9096167087554932,,,,,,,,
,movie,0.9089839458465576,,,,,,,,
,room,0.9077496528625488,,,,,,,,
https://scontent.cdninstagram.com/t51.2885-15/e35/12940254_245926715762125_873235203_n.jpg,window,0.9963403344154358,Environment,,,,"Manmade beauty",,,
,city,0.9855231046676636,,,,,,,,
,travel,0.9847987294197083,,,,,,,,
,architecture,0.9842717051506042,,,,,,,,
,people,0.9833732843399048,,,,,,,,
,cityscape,0.9576581120491028,,,,,,,,
,man,0.9514248371124268,,,,,,,,
,adult,0.9446251392364502,,,,,,,,
,sky,0.9387105703353882,,,,,,,,
,business,0.936420202255249,,,,,,,,
,sight,0.9346413612365723,,,,,,,,
,landscape,0.9336607456207275,,,,,,,,
,skyline,0.9335675239562988,,,,,,,,
,indoors,0.9273800849914551,,,,,,,,
,town,0.9263308644294739,,,,,,,,
,outdoors,0.921283483505249,,,,,,,,
,house,0.912237286567688,,,,,,,,
,building,0.9076650142669678,,,,,,,,
,sea,0.9072508811950684,,,,,,,,
,street,0.9004503488540649,,,,,,,,
https://scontent.cdninstagram.com/t51.2885-15/e35/12424437_208337542867734_1264141321_n.jpg,sunset,0.9985390305519104,Environment,Travel,,,"Natural beauty",Travel-s,,
,dawn,0.9916762113571167,,,,,,,,
,water,0.9910784959793091,,,,,,,,
,evening,0.9881787300109863,,,,,,,,
,reflection,0.9876487255096436,,,,,,,,
,sun,0.9867023229598999,,,,,,,,
,lake,0.9812725782394409,,,,,,,,
,beach,0.9809545278549194,,,,,,,,
,dusk,0.9747046232223511,,,,,,,,
,"no person",0.9741824269294739,,,,,,,,
,tree,0.9605935215950012,,,,,,,,
,light,0.9313726425170898,,,,,,,,
,landscape,0.9248932600021362,,,,,,,,
,sky,0.922444224357605,,,,,,,,
,summer,0.9106605052947998,,,,,,,,
,ocean,0.9062390923500061,,,,,,,,
,travel,0.8999961614608765,,,,,,,,
,"fair weather",0.89991295337677,,,,,,,,
,seashore,0.8978034853935242,,,,,,,,
,silhouette,0.8967946171760559,,,,,,,,
https://scontent.cdninstagram.com/t51.2885-15/e35/12071203_267272763615139_1539373285_n.jpg,architecture,0.9945151805877686,Environment,Travel,,,"Manmade beauty",Travel-s,,
,"no person",0.9944800138473511,,,,,,,,
,tower,0.984015703201294,,,,,,,,
,clock,0.9801265001296997,,,,,,,,
,travel,0.9736504554748535,,,,,,,,
,sky,0.9646927118301392,,,,,,,,
,old,0.9625416994094849,,,,,,,,
,outdoors,0.9606532454490662,,,,,,,,
,ancient,0.9057120084762573,,,,,,,,
,building,0.8979177474975586,,,,,,,,
,vertical,0.8879162073135376,,,,,,,,
,city,0.8705130219459534,,,,,,,,
,landmark,0.8671422004699707,,,,,,,,
,tallest,0.8640419244766235,,,,,,,,
,"blue sky",0.8006809949874878,,,,,,,,
,traditional,0.7940492033958435,,,,,,,,
,religion,0.7902228832244873,,,,,,,,
,sightseeing,0.7883244156837463,,,,,,,,
,government,0.7574647665023804,,,,,,,,
,church,0.7543606758117676,,,,,,,,
https://scontent.cdninstagram.com/t51.2885-15/sh0.08/e35/p750x750/11327011_1690075211282250_1711280661_n.jpg,bed,0.9987403154373169,Travel,,,,Travel-s,,,
,bedroom,0.9981962442398071,,,,,,,,
,furniture,0.9969077110290527,,,,,,,,
,room,0.9955002069473267,,,,,,,,
,indoors,0.9887306690216064,,,,,,,,
,lamp,0.9822156429290771,,,,,,,,
,hotel,0.9816194772720337,,,,,,,,
,"hotel room",0.9769617319107056,,,,,,,,
,pillow,0.9716224074363708,,,,,,,,
,"interior design",0.9661688804626465,,,,,,,,
,home,0.9653195738792419,,,,,,,,
,"double bed",0.9607974290847778,,,,,,,,
,house,0.9415318965911865,,,,,,,,
,cover,0.9405511021614075,,,,,,,,
,family,0.938138484954834,,,,,,,,
,table,0.9359622001647949,,,,,,,,
,rug,0.9288296699523926,,,,,,,,
,curtain,0.9246784448623657,,,,,,,,
,window,0.9230260848999023,,,,,,,,
,headboard,0.9202233552932739,,,,,,,,
https://scontent.cdninstagram.com/t51.2885-15/s750x750/sh0.08/e35/13561574_1064834173635827_821580739_n.jpg,sunset,0.9975844621658325,Environment,Travel,,,"Natural beauty",Travel-s,,
,dawn,0.9956546425819397,,,,,,,,
,water,0.9917733073234558,,,,,,,,
,evening,0.9866201877593994,,,,,,,,
,tree,0.9830960035324097,,,,,,,,
,sun,0.9809255599975586,,,,,,,,
,landscape,0.9783413410186768,,,,,,,,
,lake,0.9768725633621216,,,,,,,,
,"no person",0.9731386303901672,,,,,,,,
,dusk,0.9717679023742676,,,,,,,,
,silhouette,0.9705581068992615,,,,,,,,
,silhouette,0.9672354459762573,,,,,,,,
,reflection,0.9652523994445801,,,,,,,,
,beach,0.9573342800140381,,,,,,,,
,nature,0.9536386728286743,,,,,,,,
,sky,0.9517871737480164,,,,,,,,
,backlit,0.9385698437690735,,,,,,,,
,light,0.9380166530609131,,,,,,,,
,sea,0.9372040033340454,,,,,,,,
,ocean,0.9188668727874756,,,,,,,,
https://scontent.cdninstagram.com/t51.2885-15/e35/12918477_1024893300903182_974995135_n.jpg,architecture,0.9927965402603149,Environment,,,,"Manmade beauty",,,
,sky,0.9834163188934326,,,,,,,,
,downtown,0.9766980409622192,,,,,,,,
,city,0.9730035066604614,,,,,,,,
,building,0.9703749418258667,,,,,,,,
,tallest,0.9657371640205383,,,,,,,,
,high,0.957897424697876,,,,,,,,
,"no person",0.9561857581138611,,,,,,,,
,outdoors,0.9509142637252808,,,,,,,,
,skyscraper,0.9477219581604004,,,,,,,,
,travel,0.945946991443634,,,,,,,,
,hotel,0.9414510726928711,,,,,,,,
,urban,0.9244475960731506,,,,,,,,
,finance,0.9236340522766113,,,,,,,,
,business,0.9225887656211853,,,,,,,,
,glass,0.9204537868499756,,,,,,,,
,cityscape,0.9138071537017822,,,,,,,,
,office,0.9094911813735962,,,,,,,,
,contemporary,0.9054931998252869,,,,,,,,
,modern,0.8918512463569641,,,,,,,,
https://scontent.cdninstagram.com/t51.2885-15/e35/1169271_834793836632255_810977669_n.jpg,music,0.9966703653335571,Relationships,Entertainment,,,"Best friends",Events,,
,people,0.9933589696884155,,,,,,,,
,performance,0.9925103187561035,,,,,,,,
,stage,0.9911103248596191,,,,,,,,
,group,0.98526930809021,,,,,,,,
,concert,0.9810528755187988,,,,,,,,
,club,0.9725911021232605,,,,,,,,
,musician,0.967382550239563,,,,,,,,
,audience,0.9608566761016846,,,,,,,,
,singer,0.9504847526550293,,,,,,,,
,dancing,0.9467713832855225,,,,,,,,
,adult,0.9375579357147217,,,,,,,,
,band,0.928838849067688,,,,,,,,
,room,0.9127659797668457,,,,,,,,
,many,0.9064936637878418,,,,,,,,
,microphone,0.9036352634429932,,,,,,,,
,bar,0.9006202220916748,,,,,,,,
,festival,0.8874002695083618,,,,,,,,
,man,0.8867983818054199,,,,,,,,
,energy,0.8844664692878723,,,,,,,,
https://scontent.cdninstagram.com/t51.2885-15/e35/10818016_1542397556056008_1323552005_n.jpg,outdoors,0.9670823812484741,Commerce,,,,Promotions,,,
,water,0.9644010066986084,,,,,,,,
,horizontal,0.9622105956077576,,,,,,,,
,illustration,0.9570983648300171,,,,,,,,
,vertical,0.9455369710922241,,,,,,,,
,people,0.9445900917053223,,,,,,,,
,square,0.9136645793914795,,,,,,,,
,sea,0.903296709060669,,,,,,,,
,travel,0.888317883014679,,,,,,,,
,sunny,0.8424264192581177,,,,,,,,
,adult,0.833812952041626,,,,,,,,
,man,0.8181380033493042,,,,,,,,
,"fair weather",0.8148359656333923,,,,,,,,
,summer,0.809799075126648,,,,,,,,
,nature,0.8032442331314087,,,,,,,,
,sky,0.79856276512146,,,,,,,,
,woman,0.7925509810447693,,,,,,,,
,horizontal,0.7910923957824707,,,,,,,,
,tourism,0.7692828178405762,,,,,,,,
,cloud,0.7615365982055664,,,,,,,,
https://scontent.cdninstagram.com/t51.2885-15/s750x750/sh0.08/e35/13532100_999123643516993_1510792716_n.jpg,business,0.9703978300094604,Commerce,,,,Promotions,,,
,text,0.9405556917190552,,,,,,,,
,people,0.9376345276832581,,,,,,,,
,adult,0.9014096856117249,,,,,,,,
,man,0.8957159519195557,,,,,,,,
,conceptual,0.885673463344574,,,,,,,,
,horizontal,0.8821096420288086,,,,,,,,
,vertical,0.8778406381607056,,,,,,,,
,data,0.8594623804092407,,,,,,,,
,bill,0.847930371761322,,,,,,,,
,"transportation system",0.8467550873756409,,,,,,,,
,success,0.8362354040145874,,,,,,,,
,data,0.8107020258903503,,,,,,,,
,communication,0.8103037476539612,,,,,,,,
,preparation,0.7964046001434326,,,,,,,,
,internet,0.793932318687439,,,,,,,,
,unemployment,0.7932907938957214,,,,,,,,
,indoors,0.7852488160133362,,,,,,,,
,technology,0.768255889415741,,,,,,,,
,woman,0.7671403884887695,,,,,,,,
https://scontent.cdninstagram.com/t51.2885-15/s750x750/sh0.08/e35/13573568_1231392736893360_400280275_n.jpg,beach,0.9991323351860046,Recreation,"My life",Food,Travel,Beach,"My world today",Food-s,Travel-s
,sand,0.9991136789321899,,,,,,,,
,tropical,0.995866060256958,,,,,,,,
,seashore,0.9958065748214722,,,,,,,,
,summer,0.9940534830093384,,,,,,,,
,sea,0.9938980340957642,,,,,,,,
,ocean,0.9905672073364258,,,,,,,,
,vacation,0.9903930425643921,,,,,,,,
,water,0.9808334112167358,,,,,,,,
,shore,0.9697474837303162,,,,,,,,
,island,0.969366192817688,,,,,,,,
,travel,0.9683413505554199,,,,,,,,
,sun,0.9607455730438232,,,,,,,,
,relaxation,0.9536185264587402,,,,,,,,
,nature,0.9418483972549438,,,,,,,,
,paradise,0.9308520555496216,,,,,,,,
,wave,0.9303709864616394,,,,,,,,
,surf,0.9223911762237549,,,,,,,,
,exotic,0.9209386110305786,,,,,,,,
,resort,0.9207768440246582,,,,,,,,
https://scontent.cdninstagram.com/t51.2885-15/e35/11373919_1727126404237963_2114167574_n.jpg,water,0.9945393800735474,Environment,Travel,,,"Manmade beauty",Travel-s,,
,"no person",0.9934738874435425,,,,,,,,
,city,0.988203763961792,,,,,,,,
,travel,0.9872132539749146,,,,,,,,
,architecture,0.9734944105148315,,,,,,,,
,river,0.9681428670883179,,,,,,,,
,skyline,0.9548436403274536,,,,,,,,
,tree,0.9448531866073608,,,,,,,,
,cityscape,0.9369845390319824,,,,,,,,
,outdoors,0.9368788003921509,,,,,,,,
,seashore,0.9300558567047119,,,,,,,,
,sky,0.9287592172622681,,,,,,,,
,sea,0.9087496399879456,,,,,,,,
,building,0.908682644367218,,,,,,,,
,daylight,0.8899275064468384,,,,,,,,
,harbor,0.8896154165267944,,,,,,,,
,hotel,0.8872524499893188,,,,,,,,
,landscape,0.8779153823852539,,,,,,,,
,skyscraper,0.8767906427383423,,,,,,,,
,beach,0.8713483810424805,,,,,,,,
https://scontent.cdninstagram.com/t51.2885-15/e35/12145511_604179169757453_568751185_n.jpg,recreation,0.9734063744544983,Commerce,Technology,Recreation,,"Product/brand shots",Technology-s,Recreation-s,
,people,0.962205171585083,,,,,,,,
,competition,0.9414825439453125,,,,,,,,
,skateboard,0.9348336458206177,,,,,,,,
,man,0.9302059412002563,,,,,,,,
,snow,0.9281582832336426,,,,,,,,
,wear,0.887194037437439,,,,,,,,
,one,0.8861521482467651,,,,,,,,
,adult,0.8669420480728149,,,,,,,,
,action,0.8636019229888916,,,,,,,,
,fun,0.843538761138916,,,,,,,,
,sport,0.8362762928009033,,,,,,,,
,skate,0.8267109394073486,,,,,,,,
,boy,0.817820131778717,,,,,,,,
,leisure,0.8171591758728027,,,,,,,,
,athlete,0.8033633828163147,,,,,,,,
,mountain,0.8022501468658447,,,,,,,,
,outdoors,0.7947922945022583,,,,,,,,
,ice,0.7711248397827148,,,,,,,,
,winter,0.764385461807251,,,,,,,,
https://scontent.cdninstagram.com/t51.2885-15/e35/13388693_621775901332087_273939664_n.jpg,beach,0.9955266714096069,Environment,Travel,,,"Natural beauty",Travel-s,,
,ocean,0.9921250343322754,,,,,,,,
,resort,0.9911954402923584,,,,,,,,
,water,0.9902365207672119,,,,,,,,
,relaxation,0.9885638952255249,,,,,,,,
,vacation,0.9882981181144714,,,,,,,,
,island,0.9881919622421265,,,,,,,,
,travel,0.9876925945281982,,,,,,,,
,chair,0.9870880842208862,,,,,,,,
,seashore,0.9860198497772217,,,,,,,,
,tropical,0.9850010871887207,,,,,,,,
,idyllic,0.9826648235321045,,,,,,,,
,summer,0.9820920825004578,,,,,,,,
,sea,0.9815213680267334,,,,,,,,
,paradise,0.9770408868789673,,,,,,,,
,sun,0.9748047590255737,,,,,,,,
,sand,0.9742869734764099,,,,,,,,
,sofa,0.9620580673217773,,,,,,,,
,"no person",0.9572715163230896,,,,,,,,
,shore,0.9556745290756226,,,,,,,,
https://scontent.cdninstagram.com/t51.2885-15/e35/12519541_454800844717615_1413569770_n.jpg,city,0.998062252998352,Environment,Travel,,,"Manmade beauty",Travel-s,,
,skyscraper,0.9980318546295166,,,,,,,,
,downtown,0.9972041845321655,,,,,,,,
,skyline,0.996853232383728,,,,,,,,
,cityscape,0.9956467747688293,,,,,,,,
,architecture,0.99385666847229,,,,,,,,
,building,0.9835452437400818,,,,,,,,
,office,0.9827699661254883,,,,,,,,
,finance,0.979860782623291,,,,,,,,
,business,0.979144811630249,,,,,,,,
,urban,0.9783642292022705,,,,,,,,
,tallest,0.9743198156356812,,,,,,,,
,travel,0.9735150337219238,,,,,,,,
,modern,0.9688858985900879,,,,,,,,
,sky,0.9542714357376099,,,,,,,,
,"no person",0.9387016296386719,,,,,,,,
,tower,0.9371695518493652,,,,,,,,
,high,0.9334006309509277,,,,,,,,
,apartment,0.889636754989624,,,,,,,,
,outdoors,0.8878347873687744,,,,,,,,
https://scontent.cdninstagram.com/t51.2885-15/e35/12907444_874351969353823_696764376_n.jpg,vertical,0.9843600988388062,,,,,,,,
,guidance,0.9778642058372498,,,,,,,,
,outdoors,0.9778232574462891,,,,,,,,
,sky,0.9566851854324341,,,,,,,,
,guidance,0.9514421224594116,,,,,,,,
,sea,0.9489055871963501,,,,,,,,
,travel,0.933082103729248,,,,,,,,
,cloud,0.9254410266876221,,,,,,,,
,"transportation system",0.9239180684089661,,,,,,,,
,street,0.9215413331985474,,,,,,,,
,road,0.9101583957672119,,,,,,,,
,horizontal,0.9001476764678955,,,,,,,,
,city,0.8955931663513184,,,,,,,,
,horizontal,0.887793779373169,,,,,,,,
,people,0.8770116567611694,,,,,,,,
,business,0.8690918684005737,,,,,,,,
,"side view",0.8611147403717041,,,,,,,,
,communication,0.8606900572776794,,,,,,,,
,modern,0.853434681892395,,,,,,,,
,illustration,0.8473508358001709,,,,,,,,
https://scontent.cdninstagram.com/t51.2885-15/e35/13092267_1722708791302623_689604956_n.jpg,luxury,0.9910567402839661,,,,,,,,
,hotel,0.9904904365539551,,,,,,,,
,indoors,0.989087700843811,,,,,,,,
,furniture,0.9888680577278137,,,,,,,,
,table,0.967318058013916,,,,,,,,
,chair,0.9669660329818726,,,,,,,,
,decoration,0.9637049436569214,,,,,,,,
,curtain,0.9607895016670227,,,,,,,,
,modern,0.9561997652053833,,,,,,,,
,window,0.9408817291259766,,,,,,,,
,apartment,0.9382794499397278,,,,,,,,
,bedroom,0.9307204484939575,,,,,,,,
,seat,0.9294309616088867,,,,,,,,
,architecture,0.9286690950393677,,,,,,,,
,pillow,0.9233299493789673,,,,,,,,
,armchair,0.9219337105751038,,,,,,,,
,design,0.9133570194244385,,,,,,,,
,absence,0.9054362177848816,,,,,,,,
,horizontal,0.9033485054969788,,,,,,,,
,room,0.8989566564559937,,,,,,,,
https://scontent.cdninstagram.com/l/t51.2885-15/e35/13248971_637140896440237_546149345_n.jpg,people,0.9229419231414795,Food,Environment,,,"Drinks and snack",Landmarks,,
,man,0.9087474346160889,,,,,,,,
,travel,0.8991588354110718,,,,,,,,
,business,0.8835722804069519,,,,,,,,
,tourism,0.8827552199363708,,,,,,,,
,indoors,0.8777117729187012,,,,,,,,
,shopping,0.8702477216720581,,,,,,,,
,stock,0.8557271957397461,,,,,,,,
,glass,0.8127623796463013,,,,,,,,
,market,0.8098815679550171,,,,,,,,
,vehicle,0.8018499612808228,,,,,,,,
,drink,0.7994626760482788,,,,,,,,
,food,0.7960963845252991,,,,,,,,
,commerce,0.7784055471420288,,,,,,,,
,fun,0.7760366201400757,,,,,,,,
,color,0.7744125127792358,,,,,,,,
,container,0.7685319185256958,,,,,,,,
,woman,0.7667901515960693,,,,,,,,
,adult,0.7588188648223877,,,,,,,,
,desktop,0.7529979944229126,,,,,,,,
https://scontent.cdninstagram.com/t51.2885-15/e35/10632083_580446768786942_1310773396_n.jpg,vertical,0.954416036605835,Technology,Commerce,,,Technology-s,"Product/brand shots",,
,illustration,0.9458703398704529,,,,,,,,
,business,0.9422056078910828,,,,,,,,
,technology,0.9385693073272705,,,,,,,,
,equipment,0.9385629892349243,,,,,,,,
,vector,0.9311317205429077,,,,,,,,
,appliance,0.9061111211776733,,,,,,,,
,indoors,0.8786628842353821,,,,,,,,
,"no person",0.8752257823944092,,,,,,,,
,design,0.8664921522140503,,,,,,,,
,modern,0.8534331321716309,,,,,,,,
,plastic,0.8487367033958435,,,,,,,,
,machinery,0.8274901509284973,,,,,,,,
,electronics,0.8148888945579529,,,,,,,,
,square,0.8132330179214478,,,,,,,,
,horizontal,0.8104182481765747,,,,,,,,
,isolated,0.8036721348762512,,,,,,,,
,telephone,0.801250696182251,,,,,,,,
,paper,0.7970443964004517,,,,,,,,
,people,0.7764295339584351,,,,,,,,
https://scontent.cdninstagram.com/t51.2885-15/e35/12120391_1748068398757792_650119980_n.jpg,food,0.9942529797554016,Food,,,,"Meal time",,,
,dinner,0.9889093637466431,,,,,,,,
,"no person",0.982013463973999,,,,,,,,
,delicious,0.9792581796646118,,,,,,,,
,lunch,0.9788439869880676,,,,,,,,
,dish,0.9781627655029297,,,,,,,,
,meat,0.9763933420181274,,,,,,,,
,meal,0.9722465872764587,,,,,,,,
,plate,0.971255898475647,,,,,,,,
,cooking,0.964012861251831,,,,,,,,
,sauce,0.9578092098236084,,,,,,,,
,restaurant,0.9377635717391968,,,,,,,,
,nutrition,0.9322415590286255,,,,,,,,
,hot,0.9302189350128174,,,,,,,,
,cuisine,0.9292532205581665,,,,,,,,
,pork,0.9266915321350098,,,,,,,,
,grow,0.9198979735374451,,,,,,,,
,traditional,0.9191170930862427,,,,,,,,
,epicure,0.9082003831863403,,,,,,,,
,vegetable,0.9062340259552002,,,,,,,,
https://scontent.cdninstagram.com/t51.2885-15/e35/12080437_1529117447384861_1228630129_n.jpg,architecture,0.9937976598739624,Environment,,,,"Manmade beauty",,,
,modern,0.9918687343597412,,,,,,,,
,office,0.9904394149780273,,,,,,,,
,city,0.9898656606674194,,,,,,,,
,glass,0.9894243478775024,,,,,,,,
,building,0.9893625378608704,,,,,,,,
,skyscraper,0.9869755506515503,,,,,,,,
,urban,0.9845006465911865,,,,,,,,
,business,0.9840158820152283,,,,,,,,
,downtown,0.9827432632446289,,,,,,,,
,sky,0.9758386611938477,,,,,,,,
,cityscape,0.9755479097366333,,,,,,,,
,window,0.9735293388366699,,,,,,,,
,skyline,0.9681039452552795,,,,,,,,
,tower,0.9666742086410522,,,,,,,,
,construction,0.9638069868087769,,,,,,,,
,tallest,0.9547755718231201,,,,,,,,
,perspective,0.9539206027984619,,,,,,,,
,expression,0.953053891658783,,,,,,,,
,reflection,0.9487214088439941,,,,,,,,
https://scontent.cdninstagram.com/t51.2885-15/e35/10369552_1717900075093549_609479301_n.jpg,"no person",0.9672654867172241,Commerce,Technology,,,"Product/brand shots",Technology-s,,
,contemporary,0.9420674443244934,,,,,,,,
,"solar energy",0.9312996864318848,,,,,,,,
,grid,0.925777018070221,,,,,,,,
,pattern,0.9180893898010254,,,,,,,,
,electricity,0.9043237566947937,,,,,,,,
,technology,0.9004179239273071,,,,,,,,
,square,0.8953993320465088,,,,,,,,
,mosaic,0.8835728764533997,,,,,,,,
,illustration,0.8684426546096802,,,,,,,,
,photovoltaic,0.8636539578437805,,,,,,,,
,business,0.8626326322555542,,,,,,,,
,spherical,0.8571516275405884,,,,,,,,
,desktop,0.8511607646942139,,,,,,,,
,tile,0.8388378620147705,,,,,,,,
,texture,0.834585428237915,,,,,,,,
,bright,0.8345344066619873,,,,,,,,
,geometric,0.8312517404556274,,,,,,,,
,"graphic design",0.8271579742431641,,,,,,,,
,design,0.8146826028823853,,,,,,,,
https://scontent.cdninstagram.com/t51.2885-15/s750x750/sh0.08/e35/13398725_1163922560295540_1257047480_n.jpg,bedroom,0.9975311756134033,Travel,,,,Travel-s,,,
,bed,0.9973121881484985,,,,,,,,
,furniture,0.9956287145614624,,,,,,,,
,indoors,0.9928250312805176,,,,,,,,
,"interior design",0.9926498532295227,,,,,,,,
,room,0.9912589192390442,,,,,,,,
,contemporary,0.9905614852905273,,,,,,,,
,pillow,0.9835695028305054,,,,,,,,
,lamp,0.9820014238357544,,,,,,,,
,hotel,0.9788365364074707,,,,,,,,
,luxury,0.9724545478820801,,,,,,,,
,headboard,0.9653670787811279,,,,,,,,
,family,0.9532501697540283,,,,,,,,
,window,0.9517116546630859,,,,,,,,
,home,0.9494212865829468,,,,,,,,
,cover,0.9426331520080566,,,,,,,,
,rug,0.9414788484573364,,,,,,,,
,"double bed",0.9098341464996338,,,,,,,,
,apartment,0.9095410704612732,,,,,,,,
,floor,0.9018299579620361,,,,,,,,
https://scontent.cdninstagram.com/t51.2885-15/s480x480/e35/13397421_1075108492582118_154759721_n.jpg,indoors,0.9980599284172058,,,,,,,,
,luxury,0.9864970445632935,,,,,,,,
,contemporary,0.9816738367080688,,,,,,,,
,furniture,0.9774490594863892,,,,,,,,
,"no person",0.959199845790863,,,,,,,,
,window,0.9374096393585205,,,,,,,,
,family,0.9114154577255249,,,,,,,,
,room,0.8943536877632141,,,,,,,,
,"interior design",0.8868367671966553,,,,,,,,
,table,0.8664682507514954,,,,,,,,
,chair,0.8657704591751099,,,,,,,,
,comfort,0.8529190421104431,,,,,,,,
,empty,0.8419744968414307,,,,,,,,
,wood,0.8282743692398071,,,,,,,,
,hotel,0.788653552532196,,,,,,,,
,business,0.7836806774139404,,,,,,,,
,cozy,0.7664084434509277,,,,,,,,
,rug,0.7630106210708618,,,,,,,,
,bed,0.7467124462127686,,,,,,,,
,seat,0.7113173007965088,,,,,,,,
https://scontent.cdninstagram.com/t51.2885-15/s750x750/sh0.08/e35/12445922_249761202030350_416188138_n.jpg,mammal,0.9973313212394714,Animals,,,,Animals-s,,,
,park,0.9723526239395142,,,,,,,,
,monkey,0.9706346988677979,,,,,,,,
,wildlife,0.9621232748031616,,,,,,,,
,two,0.9602819085121155,,,,,,,,
,togetherness,0.9583903551101685,,,,,,,,
,people,0.9573068618774414,,,,,,,,
,primate,0.957198977470398,,,,,,,,
,family,0.9557666182518005,,,,,,,,
,baboon,0.9512240886688232,,,,,,,,
,friendship,0.9505760669708252,,,,,,,,
,child,0.9477759599685669,,,,,,,,
,outdoors,0.9415677785873413,,,,,,,,
,three,0.9171643257141113,,,,,,,,
,adult,0.9098720550537109,,,,,,,,
,daylight,0.9088186025619507,,,,,,,,
,"no person",0.898444414138794,,,,,,,,
,group,0.8854680061340332,,,,,,,,
,motion,0.8809882402420044,,,,,,,,
,road,0.8753609657287598,,,,,,,,
https://scontent.cdninstagram.com/t51.2885-15/e35/13534438_290513704672692_1544702944_n.jpg,"no person",0.9907925128936768,Environment,,,,"Manmade beauty",,,
,travel,0.9790323376655579,,,,,,,,
,competition,0.9783228635787964,,,,,,,,
,airport,0.9714994430541992,,,,,,,,
,airplane,0.9651682376861572,,,,,,,,
,vehicle,0.9594238996505737,,,,,,,,
,"transportation system",0.9587855339050293,,,,,,,,
,soccer,0.957862138748169,,,,,,,,
,football,0.9547349214553833,,,,,,,,
,sky,0.9518756866455078,,,,,,,,
,empty,0.9452904462814331,,,,,,,,
,summer,0.9364418983459473,,,,,,,,
,recreation,0.9297881126403809,,,,,,,,
,aircraft,0.9284259080886841,,,,,,,,
,water,0.9113660454750061,,,,,,,,
,outdoors,0.9043948650360107,,,,,,,,
,beach,0.9041140675544739,,,,,,,,
,championship,0.8961771726608276,,,,,,,,
,landscape,0.8931843042373657,,,,,,,,
,leisure,0.883975625038147,,,,,,,,
https://scontent.cdninstagram.com/t51.2885-15/e35/13473348_1766760250231758_1510903524_n.jpg,"no person",0.972326397895813,"My life",Entertainment,,,"Here I am",Events,,
,tree,0.9465543031692505,,,,,,,,
,park,0.941349983215332,,,,,,,,
,outdoors,0.9371218085289001,,,,,,,,
,travel,0.9324920773506165,,,,,,,,
,landscape,0.930635392665863,,,,,,,,
,people,0.9221542477607727,,,,,,,,
,celebration,0.9206732511520386,,,,,,,,
,summer,0.908927321434021,,,,,,,,
,flower,0.9078538417816162,,,,,,,,
,vacation,0.8933531045913696,,,,,,,,
,festival,0.8910950422286987,,,,,,,,
,environment,0.8812675476074219,,,,,,,,
,nature,0.87651526927948,,,,,,,,
,grass,0.8644787073135376,,,,,,,,
,fun,0.8405380249023438,,,,,,,,
,garden,0.8322864174842834,,,,,,,,
,leaf,0.8256163001060486,,,,,,,,
,traditional,0.814613938331604,,,,,,,,
,decoration,0.8044536709785461,,,,,,,,
https://scontent.cdninstagram.com/t51.2885-15/e35/13534254_983430351774426_968581649_n.jpg,competition,0.9836826324462891,Relationships,,,,"Young family",,,
,recreation,0.9525418281555176,,,,,,,,
,exercise,0.9522255659103394,,,,,,,,
,athlete,0.9463580846786499,,,,,,,,
,leisure,0.9431899785995483,,,,,,,,
,action,0.9376722574234009,,,,,,,,
,motion,0.9360582828521729,,,,,,,,
,lifestyle,0.9273849129676819,,,,,,,,
,adult,0.922087550163269,,,,,,,,
,people,0.9124035835266113,,,,,,,,
,sport,0.9104305505752563,,,,,,,,
,child,0.9045003056526184,,,,,,,,
,man,0.8993074893951416,,,,,,,,
,fun,0.8850486874580383,,,,,,,,
,action,0.8761719465255737,,,,,,,,
,championship,0.8752492070198059,,,,,,,,
,enjoyment,0.8620227575302124,,,,,,,,
,stadium,0.8365679979324341,,,,,,,,
,youth,0.8333617448806763,,,,,,,,
,boy,0.8249608278274536,,,,,,,,
https://scontent.cdninstagram.com/t51.2885-15/e35/13398896_1771455476433353_1222845383_n.jpg,water,0.9928452372550964,Recreation,Environment,Travel,,Recreation-s,"Natural beauty",Travel-s,
,beach,0.9927398562431335,,,,,,,,
,seashore,0.992699384689331,,,,,,,,
,resort,0.9922718405723572,,,,,,,,
,ocean,0.9911420345306396,,,,,,,,
,hotel,0.9890764951705933,,,,,,,,
,travel,0.9885976314544678,,,,,,,,
,sea,0.9878756999969482,,,,,,,,
,tropical,0.9840400815010071,,,,,,,,
,island,0.9830381274223328,,,,,,,,
,vacation,0.9827620983123779,,,,,,,,
,turquoise,0.9811998605728149,,,,,,,,
,summer,0.9793461561203003,,,,,,,,
,swimming,0.978243350982666,,,,,,,,
,villa,0.9777284860610962,,,,,,,,
,exotic,0.9516054391860962,,,,,,,,
,"swimming pool",0.9472185373306274,,,,,,,,
,paradise,0.9451040029525757,,,,,,,,
,idyllic,0.9448620080947876,,,,,,,,
,"no person",0.9438090324401855,,,,,,,,
https://scontent.cdninstagram.com/t51.2885-15/e35/13531960_813976338738885_1483635441_n.jpg,people,0.9590173959732056,Cute,,,,Cute,,,
,indoors,0.9408173561096191,,,,,,,,
,man,0.9239954948425293,,,,,,,,
,business,0.9093404412269592,,,,,,,,
,exhibition,0.9061888456344604,,,,,,,,
,room,0.8682106733322144,,,,,,,,
,"no person",0.8656944036483765,,,,,,,,
,child,0.8298218250274658,,,,,,,,
,carnival,0.8183958530426025,,,,,,,,
,stock,0.8064980506896973,,,,,,,,
,furniture,0.8053766489028931,,,,,,,,
,service,0.8010653257369995,,,,,,,,
,chair,0.800690770149231,,,,,,,,
,commerce,0.797688364982605,,,,,,,,
,family,0.7935695648193359,,,,,,,,
,fun,0.7908299565315247,,,,,,,,
,shopping,0.7817128896713257,,,,,,,,
,human,0.7654093503952026,,,,,,,,
,editorial,0.7618484497070312,,,,,,,,
,street,0.7540689706802368,,,,,,,,
https://scontent.cdninstagram.com/t51.2885-15/e35/13597791_583338745161256_295529757_n.jpg,"no person",0.9947936534881592,Cute,,,,Cute,,,
,people,0.9668992757797241,,,,,,,,
,fun,0.9548398852348328,,,,,,,,
,business,0.9530305862426758,,,,,,,,
,one,0.9399475455284119,,,,,,,,
,man,0.913020133972168,,,,,,,,
,shopping,0.9061439633369446,,,,,,,,
,"graphic design",0.8930044174194336,,,,,,,,
,woman,0.8848366737365723,,,,,,,,
,funny,0.8827946186065674,,,,,,,,
,cute,0.8645570278167725,,,,,,,,
,entertainment,0.8458040356636047,,,,,,,,
,merchandise,0.8429082632064819,,,,,,,,
,competition,0.8345917463302612,,,,,,,,
,eye,0.8340128064155579,,,,,,,,
,festival,0.8207759857177734,,,,,,,,
,adult,0.8206443786621094,,,,,,,,
,service,0.8193693161010742,,,,,,,,
,retro,0.8172531127929688,,,,,,,,
,travel,0.8162216544151306,,,,,,,,
https://scontent.cdninstagram.com/t51.2885-15/s750x750/sh0.08/e35/13561976_566383016866890_461960485_n.jpg,hotel,0.9962318539619446,Environment,Travel,,,"Manmade beauty",Travel-s,,
,travel,0.9949616193771362,,,,,,,,
,water,0.9931915998458862,,,,,,,,
,resort,0.9927796125411987,,,,,,,,
,tree,0.9897516965866089,,,,,,,,
,luxury,0.9848585724830627,,,,,,,,
,"no person",0.9842175245285034,,,,,,,,
,seashore,0.9829535484313965,,,,,,,,
,palm,0.9813635945320129,,,,,,,,
,beach,0.9812450408935547,,,,,,,,
,city,0.9801007509231567,,,,,,,,
,architecture,0.9796861410140991,,,,,,,,
,tropical,0.9673864841461182,,,,,,,,
,outdoors,0.9639860391616821,,,,,,,,
,sea,0.9637187123298645,,,,,,,,
,summer,0.9629253149032593,,,,,,,,
,building,0.9620538949966431,,,,,,,,
,vacation,0.9601567983627319,,,,,,,,
,ocean,0.9487112760543823,,,,,,,,
,tourism,0.9462786316871643,,,,,,,,
https://scontent.cdninstagram.com/t51.2885-15/s750x750/sh0.08/e35/13557000_144422982645899_696493020_n.jpg,people,0.982690691947937,,,,,,,,
,man,0.9808992147445679,,,,,,,,
,adult,0.9741129875183105,,,,,,,,
,woman,0.9658676385879517,,,,,,,,
,portrait,0.9358861446380615,,,,,,,,
,event,0.909209132194519,,,,,,,,
,group,0.8689655065536499,,,,,,,,
,indoors,0.8592026233673096,,,,,,,,
,communication,0.8549583554267883,,,,,,,,
,service,0.8377052545547485,,,,,,,,
,audience,0.8362587094306946,,,,,,,,
,squad,0.8338354229927063,,,,,,,,
,person,0.8159258365631104,,,,,,,,
,horizontal,0.8138442039489746,,,,,,,,
,sit,0.798232913017273,,,,,,,,
,table,0.790300726890564,,,,,,,,
,group,0.7889758348464966,,,,,,,,
,performance,0.7809596657752991,,,,,,,,
,teamwork,0.772040069103241,,,,,,,,
,crowd,0.7651687264442444,,,,,,,,
https://scontent.cdninstagram.com/t51.2885-15/s750x750/sh0.08/e35/13414188_559921617512914_1144530553_n.jpg,sunset,0.9989382028579712,Environment,Travel,Recreation,,"Natural beauty",Travel-s,Recreation-s,
,dawn,0.992425799369812,,,,,,,,
,water,0.9923462867736816,,,,,,,,
,sun,0.9879525899887085,,,,,,,,
,sea,0.9825735092163086,,,,,,,,
,beach,0.9798506498336792,,,,,,,,
,dusk,0.9791985154151917,,,,,,,,
,ocean,0.976589560508728,,,,,,,,
,evening,0.9720660448074341,,,,,,,,
,"no person",0.9533088207244873,,,,,,,,
,seascape,0.9313527345657349,,,,,,,,
,surf,0.9219690561294556,,,,,,,,
,silhouette,0.9122135639190674,,,,,,,,
,"fair weather",0.9107784032821655,,,,,,,,
,reflection,0.9059139490127563,,,,,,,,
,sky,0.8929816484451294,,,,,,,,
,seashore,0.8872772455215454,,,,,,,,
,backlit,0.8865893483161926,,,,,,,,
,landscape,0.8864686489105225,,,,,,,,
,travel,0.8771852254867554,,,,,,,,
https://scontent.cdninstagram.com/t51.2885-15/sh0.08/e35/p750x750/13258927_134496276967588_1970234558_n.jpg,indoors,0.98786461353302,"Fashion & Beauty",Commerce,,,"Fashion & Beauty-s","Product/brand shots",,
,woman,0.9815870523452759,,,,,,,,
,business,0.9738900661468506,,,,,,,,
,exhibition,0.9618444442749023,,,,,,,,
,airport,0.9601576328277588,,,,,,,,
,commerce,0.9560920000076294,,,,,,,,
,adult,0.9421213865280151,,,,,,,,
,people,0.9253888130187988,,,,,,,,
,fashion,0.9211095571517944,,,,,,,,
,luggage,0.9198105335235596,,,,,,,,
,portrait,0.9163856506347656,,,,,,,,
,city,0.8988303542137146,,,,,,,,
,man,0.8932694792747498,,,,,,,,
,industry,0.8849081993103027,,,,,,,,
,wear,0.8828720450401306,,,,,,,,
,model,0.8757098913192749,,,,,,,,
,education,0.8736518621444702,,,,,,,,
,tube,0.8708572387695312,,,,,,,,
,shopping,0.8696589469909668,,,,,,,,
,stock,0.8455479741096497,,,,,,,,
https://scontent.cdninstagram.com/t51.2885-15/e35/12976094_1725192421032513_1273221303_n.jpg,water,0.9925385117530823,Environment,,,,"Manmade beauty",,,
,city,0.9925256967544556,,,,,,,,
,skyline,0.9878246784210205,,,,,,,,
,travel,0.9872515201568604,,,,,,,,
,architecture,0.9872142672538757,,,,,,,,
,"no person",0.9833242893218994,,,,,,,,
,downtown,0.9807592034339905,,,,,,,,
,cityscape,0.9778357744216919,,,,,,,,
,skyscraper,0.9765548706054688,,,,,,,,
,sky,0.9600489735603333,,,,,,,,
,building,0.9567524194717407,,,,,,,,
,harbor,0.9508132338523865,,,,,,,,
,daylight,0.9291274547576904,,,,,,,,
,outdoors,0.9214138388633728,,,,,,,,
,waterfront,0.9192655682563782,,,,,,,,
,sea,0.9119718670845032,,,,,,,,
,office,0.9064970016479492,,,,,,,,
,river,0.8934473991394043,,,,,,,,
,ferry,0.8908330798149109,,,,,,,,
,sunset,0.8609709739685059,,,,,,,,
