url,class,score,,,,,,,,
https://scontent.cdninstagram.com/t51.2885-15/e15/10540297_495319650598091_1044677483_n.jpg,group,0.9995971918106079,Relationships,,,,"Best friends",,,
,people,0.9972273111343384,,,,,,,,
,portrait,0.9946762919425964,,,,,,,,
,group,0.9922261238098145,,,,,,,,
,four,0.9911020994186401,,,,,,,,
,friendship,0.9892717003822327,,,,,,,,
,kimono,0.9857606887817383,,,,,,,,
,woman,0.982624351978302,,,,,,,,
,three,0.9814859628677368,,,,,,,,
,child,0.9806829690933228,,,,,,,,
,school,0.975350022315979,,,,,,,,
,festival,0.9713927507400513,,,,,,,,
,adult,0.970343828201294,,,,,,,,
,"facial expression",0.9634648561477661,,,,,,,,
,happiness,0.9627066850662231,,,,,,,,
,girl,0.9620993733406067,,,,,,,,
,culture,0.960932731628418,,,,,,,,
,daylight,0.9563937187194824,,,,,,,,
,many,0.947614312171936,,,,,,,,
,education,0.9445080757141113,,,,,,,,
https://scontent.cdninstagram.com/t51.2885-15/e15/11023235_1631842647048009_576712535_n.jpg,technology,0.9833797216415405,Undefined,,,,Undefined,,,
,people,0.982154130935669,,,,,,,,
,"World Wide Web",0.9778189063072205,,,,,,,,
,communication,0.9770708680152893,,,,,,,,
,computer,0.9723089337348938,,,,,,,,
,internet,0.972306489944458,,,,,,,,
,laptop,0.9563791751861572,,,,,,,,
,business,0.9453357458114624,,,,,,,,
,portrait,0.9144634008407593,,,,,,,,
,screen,0.9010672569274902,,,,,,,,
,browser,0.900214433670044,,,,,,,,
,adult,0.881476879119873,,,,,,,,
,horizontal,0.8655756711959839,,,,,,,,
,woman,0.8396594524383545,,,,,,,,
,man,0.8392069935798645,,,,,,,,
,display,0.8100481033325195,,,,,,,,
,office,0.7978890538215637,,,,,,,,
,modern,0.7970186471939087,,,,,,,,
,monitor,0.7870661020278931,,,,,,,,
,child,0.7761582732200623,,,,,,,,
https://scontent.cdninstagram.com/t51.2885-15/e15/916474_710879612303146_155296784_n.jpg,fine-looking,0.9911926984786987,Media,,,,Media-s,,,
,business,0.9871529936790466,,,,,,,,
,serious,0.9804601073265076,,,,,,,,
,man,0.9802706241607666,,,,,,,,
,suit,0.9687858819961548,,,,,,,,
,tie,0.9599957466125488,,,,,,,,
,success,0.9331202507019043,,,,,,,,
,formalwear,0.9324905276298523,,,,,,,,
,indoors,0.9269845485687256,,,,,,,,
,portrait,0.9190322160720825,,,,,,,,
,looking,0.9061872959136963,,,,,,,,
,confidence,0.9061536192893982,,,,,,,,
,formal,0.9031052589416504,,,,,,,,
,intelligence,0.8886581659317017,,,,,,,,
,worried,0.8848744630813599,,,,,,,,
,wear,0.883183479309082,,,,,,,,
,success,0.8830416202545166,,,,,,,,
,dark,0.8724963665008545,,,,,,,,
,adult,0.868389368057251,,,,,,,,
,contemporary,0.8493047952651978,,,,,,,,
https://scontent.cdninstagram.com/t51.2885-15/e15/927281_743840012334127_577238552_n.jpg,people,0.9856934547424316,Culture,,,,Culture-s,,,
,woman,0.9807872176170349,,,,,,,,
,adult,0.9781029224395752,,,,,,,,
,portrait,0.9752385020256042,,,,,,,,
,two,0.9742744565010071,,,,,,,,
,outdoors,0.9740667343139648,,,,,,,,
,love,0.9500686526298523,,,,,,,,
,wear,0.9418771266937256,,,,,,,,
,girl,0.9412475824356079,,,,,,,,
,happiness,0.9336169362068176,,,,,,,,
,man,0.9332184791564941,,,,,,,,
,veil,0.9219973087310791,,,,,,,,
,togetherness,0.9213976263999939,,,,,,,,
,affection,0.9121407270431519,,,,,,,,
,wedding,0.9020116329193115,,,,,,,,
,child,0.9008241891860962,,,,,,,,
,"facial expression",0.8970433473587036,,,,,,,,
,interaction,0.8902469277381897,,,,,,,,
,one,0.8832708597183228,,,,,,,,
,family,0.8815000057220459,,,,,,,,
https://scontent.cdninstagram.com/t51.2885-15/e15/10362124_768992053132641_476483642_n.jpg,"give voice",0.9950952529907227,Undefined,,,,Undefined,,,
,schedule,0.9882663488388062,,,,,,,,
,cloud,0.9874162673950195,,,,,,,,
,text,0.9714740514755249,,,,,,,,
,calendar,0.9656426906585693,,,,,,,,
,daily,0.9635201692581177,,,,,,,,
,planner,0.9629448056221008,,,,,,,,
,annual,0.9608250260353088,,,,,,,,
,almanac,0.9588613510131836,,,,,,,,
,monthly,0.9565993547439575,,,,,,,,
,time,0.9547721147537231,,,,,,,,
,date,0.9509009122848511,,,,,,,,
,illustration,0.9487816095352173,,,,,,,,
,conceptual,0.948377251625061,,,,,,,,
,agenda,0.9445135593414307,,,,,,,,
,desktop,0.9291011095046997,,,,,,,,
,abstract,0.9204819202423096,,,,,,,,
,business,0.9184843301773071,,,,,,,,
,design,0.9034765362739563,,,,,,,,
,future,0.8956927061080933,,,,,,,,
https://scontent.cdninstagram.com/t51.2885-15/e15/10326474_694824750579523_170787454_n.jpg,festival,0.986733615398407,Media,,,,Media-s,,,
,exhibition,0.9767628908157349,,,,,,,,
,election,0.9743961095809937,,,,,,,,
,recreation,0.9711067080497742,,,,,,,,
,landscape,0.9658180475234985,,,,,,,,
,healthcare,0.9652053117752075,,,,,,,,
,business,0.961540699005127,,,,,,,,
,performance,0.961309552192688,,,,,,,,
,music,0.9601275324821472,,,,,,,,
,musician,0.9542641639709473,,,,,,,,
,singer,0.9531596302986145,,,,,,,,
,politician,0.9506241083145142,,,,,,,,
,ceremony,0.947905957698822,,,,,,,,
,people,0.940129816532135,,,,,,,,
,administration,0.93642657995224,,,,,,,,
,woman,0.9348212480545044,,,,,,,,
,candidate,0.9336624145507812,,,,,,,,
,"press conference",0.9329783916473389,,,,,,,,
,industry,0.9291524887084961,,,,,,,,
,journalist,0.9265000820159912,,,,,,,,
https://scontent.cdninstagram.com/t51.2885-15/e15/10326514_1447885205458236_1845418897_n.jpg,portrait,0.9916473031044006,,"My life","Fashion & Beauty",,,Selfie,"My look",
,people,0.9904726147651672,,,,,,,,
,one,0.9903334379196167,,,,,,,,
,man,0.986040472984314,,,,,,,,
,wear,0.977314293384552,,,,,,,,
,adult,0.9758089780807495,,,,,,,,
,business,0.9698522090911865,,,,,,,,
,"facial expression",0.9599901437759399,,,,,,,,
,outfit,0.9586043953895569,,,,,,,,
,neckwear,0.9092813730239868,,,,,,,,
,menswear,0.9046732187271118,,,,,,,,
,jacket,0.9029353260993958,,,,,,,,
,tie,0.8882666230201721,,,,,,,,
,outerwear,0.8790856599807739,,,,,,,,
,fashionable,0.8646504282951355,,,,,,,,
,indoors,0.8605965375900269,,,,,,,,
,confidence,0.8304322957992554,,,,,,,,
,light,0.825467586517334,,,,,,,,
,music,0.8229535818099976,,,,,,,,
,actor,0.8203607797622681,,,,,,,,
https://scontent.cdninstagram.com/t51.2885-15/e15/10249284_1412850092321628_847822448_n.jpg,portrait,0.9894294738769531,Media,,,,Media-s,,,
,people,0.9879091382026672,,,,,,,,
,woman,0.9875904321670532,,,,,,,,
,adult,0.9820935726165771,,,,,,,,
,recreation,0.948059618473053,,,,,,,,
,indoors,0.9477019309997559,,,,,,,,
,movie,0.933497428894043,,,,,,,,
,happiness,0.9307700395584106,,,,,,,,
,fashion,0.9188082218170166,,,,,,,,
,vertical,0.9036354422569275,,,,,,,,
,cheerful,0.8972862958908081,,,,,,,,
,dress,0.8779144287109375,,,,,,,,
,confidence,0.8730863332748413,,,,,,,,
,technology,0.8697442412376404,,,,,,,,
,model,0.8673762083053589,,,,,,,,
,festival,0.8148438930511475,,,,,,,,
,music,0.8118804097175598,,,,,,,,
,one,0.7908289432525635,,,,,,,,
,cute,0.7876880168914795,,,,,,,,
,business,0.7854971885681152,,,,,,,,
https://scontent.cdninstagram.com/t51.2885-15/e15/10299872_619849121426715_164284399_n.jpg,adult,0.9897441267967224,"My life","Fashion & Beauty",,,Selfie,"My look",,
,portrait,0.9894512891769409,,,,,,,,
,people,0.9892013072967529,,,,,,,,
,"facial expression",0.9675977826118469,,,,,,,,
,one,0.9670740365982056,,,,,,,,
,wear,0.9584167003631592,,,,,,,,
,woman,0.9576035141944885,,,,,,,,
,happiness,0.9465042948722839,,,,,,,,
,man,0.8968034982681274,,,,,,,,
,confidence,0.8886775970458984,,,,,,,,
,indoors,0.8651424646377563,,,,,,,,
,boy,0.857839822769165,,,,,,,,
,lifestyle,0.85654616355896,,,,,,,,
,adolescent,0.8380127549171448,,,,,,,,
,girl,0.8349441289901733,,,,,,,,
,young,0.8213080167770386,,,,,,,,
,face,0.8193256855010986,,,,,,,,
,education,0.8016808032989502,,,,,,,,
,child,0.8004252910614014,,,,,,,,
,contemplation,0.7929822206497192,,,,,,,,
https://scontent.cdninstagram.com/t51.2885-15/e15/10787851_571142202988639_12992255_n.jpg,portrait,0.9913520812988281,"My life",,,,Selfie,,,
,one,0.9878913164138794,,,,,,,,
,people,0.9876841902732849,,,,,,,,
,adult,0.9677392244338989,,,,,,,,
,"facial expression",0.9622682332992554,,,,,,,,
,wear,0.9562522768974304,,,,,,,,
,man,0.9288474321365356,,,,,,,,
,business,0.9211764931678772,,,,,,,,
,indoors,0.8854619860649109,,,,,,,,
,actor,0.8448361158370972,,,,,,,,
,tie,0.8135536313056946,,,,,,,,
,office,0.8135263919830322,,,,,,,,
,serious,0.8116232752799988,,,,,,,,
,boy,0.8014694452285767,,,,,,,,
,movie,0.7976083755493164,,,,,,,,
,looking,0.7935125827789307,,,,,,,,
,confidence,0.7885106801986694,,,,,,,,
,festival,0.7834808826446533,,,,,,,,
,concentration,0.7703503966331482,,,,,,,,
,happiness,0.758697509765625,,,,,,,,
https://scontent.cdninstagram.com/t51.2885-15/e15/10269003_719625101394364_1124699553_n.jpg,portrait,0.9953067302703857,Media,,,,Media-s,,,
,people,0.9854361414909363,,,,,,,,
,woman,0.9838782548904419,,,,,,,,
,adult,0.9833654165267944,,,,,,,,
,dress,0.9801843166351318,,,,,,,,
,fashion,0.9698100090026855,,,,,,,,
,jewelry,0.9476934671401978,,,,,,,,
,indoors,0.9400373697280884,,,,,,,,
,happiness,0.914810299873352,,,,,,,,
,confidence,0.9061601161956787,,,,,,,,
,glamour,0.880784273147583,,,,,,,,
,necklace,0.8774137496948242,,,,,,,,
,bride,0.8740269541740417,,,,,,,,
,model,0.8620568513870239,,,,,,,,
,cheerful,0.8546048402786255,,,,,,,,
,hairdo,0.8045099377632141,,,,,,,,
,wedding,0.8034176230430603,,,,,,,,
,contemplation,0.8015708327293396,,,,,,,,
,one,0.792357325553894,,,,,,,,
,movie,0.7736661434173584,,,,,,,,
https://scontent.cdninstagram.com/t51.2885-15/e15/10251328_671771052859401_178747192_n.jpg,indoors,0.9648008346557617,"My life",,,,Selfie,,,
,serious,0.9593605399131775,,,,,,,,
,man,0.9563734531402588,,,,,,,,
,horizontal,0.9547069072723389,,,,,,,,
,business,0.9512451887130737,,,,,,,,
,people,0.9471660852432251,,,,,,,,
,success,0.9310106635093689,,,,,,,,
,looking,0.9305828809738159,,,,,,,,
,adult,0.9108121395111084,,,,,,,,
,portrait,0.8903064131736755,,,,,,,,
,intelligence,0.8862522840499878,,,,,,,,
,young,0.878657341003418,,,,,,,,
,fine-looking,0.8751991987228394,,,,,,,,
,worried,0.8725988268852234,,,,,,,,
,attitude,0.8582199215888977,,,,,,,,
,sitting,0.8447051048278809,,,,,,,,
,multicultural,0.8354512453079224,,,,,,,,
,contemplation,0.8265984058380127,,,,,,,,
,office,0.7955029010772705,,,,,,,,
,adolescent,0.773291826248169,,,,,,,,
https://scontent.cdninstagram.com/t51.2885-15/e15/10608139_725739304159699_1259667591_n.jpg,people,0.9882976412773132,"My life",,,,Selfie,,,
,adult,0.9800916910171509,,,,,,,,
,food,0.9690288305282593,,,,,,,,
,woman,0.9060165882110596,,,,,,,,
,enjoyment,0.890727162361145,,,,,,,,
,restaurant,0.8810296058654785,,,,,,,,
,table,0.8800289630889893,,,,,,,,
,meal,0.873353123664856,,,,,,,,
,man,0.8553465604782104,,,,,,,,
,city,0.8143025636672974,,,,,,,,
,lifestyle,0.8124234080314636,,,,,,,,
,drink,0.8120795488357544,,,,,,,,
,light,0.8001499176025391,,,,,,,,
,happiness,0.7972975373268127,,,,,,,,
,travel,0.7846165895462036,,,,,,,,
,business,0.7679643630981445,,,,,,,,
,portrait,0.7678632140159607,,,,,,,,
,one,0.7668825387954712,,,,,,,,
,"facial expression",0.7337049245834351,,,,,,,,
,celebration,0.725702166557312,,,,,,,,
https://scontent.cdninstagram.com/t51.2885-15/e15/10735101_1531880587057690_1285483446_n.jpg,portrait,0.9950815439224243,Media,,,,Media-s,,,
,people,0.9937365651130676,,,,,,,,
,festival,0.9896856546401978,,,,,,,,
,ceremony,0.9748632907867432,,,,,,,,
,child,0.9710643887519836,,,,,,,,
,wear,0.9661669731140137,,,,,,,,
,adult,0.9633241891860962,,,,,,,,
,music,0.9543837308883667,,,,,,,,
,performance,0.94003826379776,,,,,,,,
,education,0.9374947547912598,,,,,,,,
,celebration,0.9368791580200195,,,,,,,,
,recreation,0.9282028675079346,,,,,,,,
,enjoyment,0.9278255701065063,,,,,,,,
,battle,0.9222146272659302,,,,,,,,
,singer,0.9188848733901978,,,,,,,,
,group,0.9170230031013489,,,,,,,,
,competition,0.9093544483184814,,,,,,,,
,"facial expression",0.9066489934921265,,,,,,,,
,army,0.8992357850074768,,,,,,,,
,military,0.8981138467788696,,,,,,,,
https://scontent.cdninstagram.com/t51.2885-15/e15/11325893_468824199942841_1734210271_n.jpg,child,0.9982647895812988,Relationships,,,,"Best friends",,,
,woman,0.9888375997543335,,,,,,,,
,togetherness,0.9872869253158569,,,,,,,,
,friendship,0.9838171601295471,,,,,,,,
,portrait,0.9830756187438965,,,,,,,,
,"facial expression",0.9795359373092651,,,,,,,,
,people,0.9783021211624146,,,,,,,,
,adolescent,0.976162314414978,,,,,,,,
,fun,0.9725632667541504,,,,,,,,
,happiness,0.9633852243423462,,,,,,,,
,joy,0.9624134302139282,,,,,,,,
,"elementary school",0.9614636301994324,,,,,,,,
,girl,0.9602817893028259,,,,,,,,
,cute,0.941023588180542,,,,,,,,
,love,0.9337237477302551,,,,,,,,
,school,0.9336442947387695,,,,,,,,
,family,0.9334434270858765,,,,,,,,
,affection,0.9315010905265808,,,,,,,,
,enjoyment,0.9306081533432007,,,,,,,,
,daylight,0.92386794090271,,,,,,,,
https://scontent.cdninstagram.com/t51.2885-15/e15/10643900_713949415361397_1877152842_n.jpg,happiness,0.992135763168335,Relationships,,,,Friends,,,
,portrait,0.9908063411712646,,,,,,,,
,togetherness,0.9879887104034424,,,,,,,,
,love,0.9865312576293945,,,,,,,,
,outdoors,0.9832403659820557,,,,,,,,
,family,0.9742596745491028,,,,,,,,
,affection,0.9634832143783569,,,,,,,,
,couple,0.9611890316009521,,,,,,,,
,woman,0.9604309797286987,,,,,,,,
,man,0.9583532214164734,,,,,,,,
,people,0.956615149974823,,,,,,,,
,adult,0.9533711075782776,,,,,,,,
,two,0.9514488577842712,,,,,,,,
,laughing,0.9491589069366455,,,,,,,,
,park,0.9470491409301758,,,,,,,,
,fun,0.9419281482696533,,,,,,,,
,cheerful,0.9407748579978943,,,,,,,,
,friendship,0.9396404027938843,,,,,,,,
,"facial expression",0.9383269548416138,,,,,,,,
,lifestyle,0.9351588487625122,,,,,,,,
https://scontent.cdninstagram.com/t51.2885-15/e15/10903620_784060618326327_1201109668_n.jpg,collage,0.9614913463592529,Undefined,,,,Undefined,,,
,people,0.9322208166122437,,,,,,,,
,horizontal,0.9268232583999634,,,,,,,,
,business,0.9184155464172363,,,,,,,,
,banner,0.8985776305198669,,,,,,,,
,presentation,0.8862885236740112,,,,,,,,
,set,0.8747075796127319,,,,,,,,
,child,0.8618732690811157,,,,,,,,
,template,0.8576655387878418,,,,,,,,
,layout,0.8434897065162659,,,,,,,,
,blank,0.8208150267601013,,,,,,,,
,company,0.8041307330131531,,,,,,,,
,identity,0.7777358293533325,,,,,,,,
,portrait,0.7743897438049316,,,,,,,,
,education,0.7742999792098999,,,,,,,,
,page,0.7688456773757935,,,,,,,,
,collection,0.7632434964179993,,,,,,,,
,"World Wide Web",0.757133960723877,,,,,,,,
,adult,0.7483004927635193,,,,,,,,
,woman,0.7339151501655579,,,,,,,,
https://scontent.cdninstagram.com/t51.2885-15/e15/11032797_343253925867848_203932194_n.jpg,"dinner jacket",0.9888036847114563,"My life",,,,Selfie,,,
,outdoors,0.9874558448791504,,,,,,,,
,people,0.9796181917190552,,,,,,,,
,bouquet,0.9737591743469238,,,,,,,,
,wedding,0.9615440368652344,,,,,,,,
,groom,0.9564573764801025,,,,,,,,
,happiness,0.954653263092041,,,,,,,,
,man,0.9489237070083618,,,,,,,,
,portrait,0.9466140270233154,,,,,,,,
,cheerful,0.9449347257614136,,,,,,,,
,boutonniere,0.9444085359573364,,,,,,,,
,adult,0.939983606338501,,,,,,,,
,celebration,0.9323360323905945,,,,,,,,
,business,0.9322537183761597,,,,,,,,
,ceremony,0.9311463832855225,,,,,,,,
,suit,0.9274735450744629,,,,,,,,
,horizontal,0.9252533912658691,,,,,,,,
,flower,0.8781834840774536,,,,,,,,
,vertical,0.8720271587371826,,,,,,,,
,formalwear,0.867818295955658,,,,,,,,
https://scontent.cdninstagram.com/t51.2885-15/e15/10326482_307695309383868_2091989204_n.jpg,fashion,0.9855978488922119,"My life",,,,Selfie,,,
,wear,0.9774729609489441,,,,,,,,
,portrait,0.9743199348449707,,,,,,,,
,one,0.9717215299606323,,,,,,,,
,man,0.9662764668464661,,,,,,,,
,people,0.9428504705429077,,,,,,,,
,menswear,0.9388515949249268,,,,,,,,
,fine-looking,0.9366830587387085,,,,,,,,
,contemporary,0.9218411445617676,,,,,,,,
,intelligence,0.8874273300170898,,,,,,,,
,tie,0.8864170908927917,,,,,,,,
,indoors,0.8840991854667664,,,,,,,,
,elegant,0.8810406923294067,,,,,,,,
,looking,0.8801701068878174,,,,,,,,
,serious,0.8798336386680603,,,,,,,,
,neckwear,0.8790971040725708,,,,,,,,
,model,0.857194185256958,,,,,,,,
,"facial expression",0.8523401021957397,,,,,,,,
,business,0.840286374092102,,,,,,,,
,trendy,0.8361693620681763,,,,,,,,
https://scontent.cdninstagram.com/t51.2885-15/e15/10727334_587138608080676_198706314_n.jpg,eyewear,0.9931752681732178,"My life",,,,Selfie,,,
,education,0.9851572513580322,,,,,,,,
,people,0.9817327260971069,,,,,,,,
,portrait,0.9776172041893005,,,,,,,,
,eyeglasses,0.975817084312439,,,,,,,,
,adult,0.9725806713104248,,,,,,,,
,wear,0.9668997526168823,,,,,,,,
,school,0.959449827671051,,,,,,,,
,man,0.9567428827285767,,,,,,,,
,stock,0.953861653804779,,,,,,,,
,indoors,0.9406039714813232,,,,,,,,
,research,0.9124469757080078,,,,,,,,
,"facial expression",0.9030994772911072,,,,,,,,
,one,0.9028348922729492,,,,,,,,
,sunglasses,0.8974481821060181,,,,,,,,
,shelf,0.893185019493103,,,,,,,,
,university,0.885765552520752,,,,,,,,
,concentration,0.8856151103973389,,,,,,,,
,library,0.8830011487007141,,,,,,,,
,business,0.8759043216705322,,,,,,,,
https://scontent.cdninstagram.com/t51.2885-15/e15/11325164_453419691505977_1500017778_n.jpg,people,0.9858896732330322,Media,Entertainment,,,Media-s,Entertainment-s,,
,lid,0.9817190170288086,,,,,,,,
,man,0.9781577587127686,,,,,,,,
,portrait,0.9778843522071838,,,,,,,,
,movie,0.973481297492981,,,,,,,,
,adult,0.9672737121582031,,,,,,,,
,television,0.9642629623413086,,,,,,,,
,business,0.9370347261428833,,,,,,,,
,woman,0.9289263486862183,,,,,,,,
,screen,0.9027664065361023,,,,,,,,
,computer,0.8976874351501465,,,,,,,,
,festival,0.8873367309570312,,,,,,,,
,technology,0.8859456777572632,,,,,,,,
,wear,0.8838386535644531,,,,,,,,
,two,0.853980302810669,,,,,,,,
,actor,0.8453596830368042,,,,,,,,
,uniform,0.8356055021286011,,,,,,,,
,display,0.8224226236343384,,,,,,,,
,looking,0.8213282823562622,,,,,,,,
,indoors,0.8135924935340881,,,,,,,,
https://scontent.cdninstagram.com/t51.2885-15/e15/10349637_635712709852062_417950223_n.jpg,child,0.9922764897346497,"My life",,,,Selfie,,,
,portrait,0.9922288656234741,,,,,,,,
,people,0.9736772775650024,,,,,,,,
,girl,0.9660665988922119,,,,,,,,
,cute,0.9530960321426392,,,,,,,,
,woman,0.9422792196273804,,,,,,,,
,face,0.9163004755973816,,,,,,,,
,eye,0.9125813245773315,,,,,,,,
,boy,0.8999682664871216,,,,,,,,
,one,0.8982514142990112,,,,,,,,
,fun,0.8828320503234863,,,,,,,,
,fashion,0.8772623538970947,,,,,,,,
,studio,0.8703800439834595,,,,,,,,
,adolescent,0.8647579550743103,,,,,,,,
,model,0.8612957000732422,,,,,,,,
,joy,0.8526993989944458,,,,,,,,
,"facial expression",0.847619891166687,,,,,,,,
,pretty,0.8459658622741699,,,,,,,,
,young,0.8306844234466553,,,,,,,,
,smile,0.8206323981285095,,,,,,,,
https://scontent.cdninstagram.com/t51.2885-15/e15/10369411_604767222953084_1657781626_n.jpg,people,0.9934333562850952,Relationships,,,,Friends,,,
,festival,0.9927516579627991,,,,,,,,
,ceremony,0.9910938143730164,,,,,,,,
,celebration,0.9793795943260193,,,,,,,,
,adult,0.9782953262329102,,,,,,,,
,horizontal,0.9647620320320129,,,,,,,,
,man,0.9639822244644165,,,,,,,,
,movie,0.9539411067962646,,,,,,,,
,performance,0.9505532383918762,,,,,,,,
,business,0.9492546916007996,,,,,,,,
,"red carpet",0.9452389478683472,,,,,,,,
,crowd,0.9428821802139282,,,,,,,,
,"film festival",0.9332186579704285,,,,,,,,
,award,0.9301526546478271,,,,,,,,
,portrait,0.9293978214263916,,,,,,,,
,actress,0.9272232055664062,,,,,,,,
,International,0.9251376390457153,,,,,,,,
,woman,0.9099439382553101,,,,,,,,
,cinema,0.8988513946533203,,,,,,,,
,recreation,0.8785282373428345,,,,,,,,
https://scontent.cdninstagram.com/t51.2885-15/e15/10617035_788817694472170_1980690665_n.jpg,group,0.9859041571617126,Relationships,,,,Friends,,,
,portrait,0.9721970558166504,,,,,,,,
,woman,0.9691482782363892,,,,,,,,
,people,0.959989607334137,,,,,,,,
,adult,0.9596279859542847,,,,,,,,
,man,0.9480233192443848,,,,,,,,
,business,0.9428537487983704,,,,,,,,
,"facial expression",0.9287929534912109,,,,,,,,
,education,0.928570032119751,,,,,,,,
,group,0.9204040765762329,,,,,,,,
,election,0.9015096426010132,,,,,,,,
,wear,0.8965357542037964,,,,,,,,
,togetherness,0.8963605165481567,,,,,,,,
,school,0.8941916227340698,,,,,,,,
,indoors,0.8896374702453613,,,,,,,,
,three,0.8889329433441162,,,,,,,,
,offense,0.8801531791687012,,,,,,,,
,university,0.8514984846115112,,,,,,,,
,singer,0.8320064544677734,,,,,,,,
,friendship,0.8318954706192017,,,,,,,,
https://scontent.cdninstagram.com/t51.2885-15/e15/10601885_757454270988649_981652413_n.jpg,"no person",0.9831928014755249,,,,,,,,
,vehicle,0.9769061803817749,,,,,,,,
,technology,0.9764827489852905,,,,,,,,
,industry,0.936813473701477,,,,,,,,
,"auto racing",0.9192243814468384,,,,,,,,
,business,0.9065912961959839,,,,,,,,
,"transportation system",0.89559006690979,,,,,,,,
,travel,0.8910881280899048,,,,,,,,
,competition,0.8821345567703247,,,,,,,,
,sign,0.8720039129257202,,,,,,,,
,championship,0.8654041290283203,,,,,,,,
,computer,0.8644818067550659,,,,,,,,
,horizontal,0.8547393679618835,,,,,,,,
,one,0.8483998775482178,,,,,,,,
,action,0.84690260887146,,,,,,,,
,"fossil fuel",0.8427044153213501,,,,,,,,
,electronics,0.8416191339492798,,,,,,,,
,people,0.841215968132019,,,,,,,,
,indoors,0.8357886672019958,,,,,,,,
,daylight,0.8305625915527344,,,,,,,,
https://scontent.cdninstagram.com/t51.2885-15/e15/10616754_701709633255223_1365390230_n.jpg,woman,0.9704614877700806,,,,,,,,
,group,0.9649007320404053,,,,,,,,
,people,0.9596849679946899,,,,,,,,
,man,0.9518020153045654,,,,,,,,
,adult,0.9282171726226807,,,,,,,,
,restaurant,0.9026405215263367,,,,,,,,
,education,0.8970582485198975,,,,,,,,
,many,0.8761118650436401,,,,,,,,
,wear,0.8360692262649536,,,,,,,,
,school,0.8309522867202759,,,,,,,,
,festival,0.8291300535202026,,,,,,,,
,city,0.8194120526313782,,,,,,,,
,bar,0.8136583566665649,,,,,,,,
,music,0.8086354732513428,,,,,,,,
,group,0.8052308559417725,,,,,,,,
,several,0.7831292152404785,,,,,,,,
,furniture,0.7830164432525635,,,,,,,,
,recreation,0.7696534395217896,,,,,,,,
,commerce,0.7670683860778809,,,,,,,,
,coffee,0.7638851404190063,,,,,,,,
https://scontent.cdninstagram.com/t51.2885-15/e35/12547224_1639319339663317_1379088481_n.jpg,woman,0.9962744116783142,,,,,,,,
,love,0.9926196336746216,,,,,,,,
,togetherness,0.9860665798187256,,,,,,,,
,romance,0.9783055782318115,,,,,,,,
,indoors,0.9711039066314697,,,,,,,,
,man,0.9653076529502869,,,,,,,,
,two,0.9647297859191895,,,,,,,,
,family,0.9633850455284119,,,,,,,,
,groom,0.9526689052581787,,,,,,,,
,wedding,0.9361512660980225,,,,,,,,
,happiness,0.9337056875228882,,,,,,,,
,affection,0.9322388172149658,,,,,,,,
,people,0.9262673854827881,,,,,,,,
,bouquet,0.9226416349411011,,,,,,,,
,adult,0.9207080602645874,,,,,,,,
,marriage,0.9080566167831421,,,,,,,,
,looking,0.8931825757026672,,,,,,,,
,bride,0.8669321537017822,,,,,,,,
,enjoyment,0.8655810356140137,,,,,,,,
,child,0.8197021484375,,,,,,,,
https://scontent.cdninstagram.com/t51.2885-15/e15/10431996_662797347130541_1311860723_n.jpg,girl,0.9982302188873291,,,,,,,,
,portrait,0.9973137378692627,,,,,,,,
,people,0.9945963621139526,,,,,,,,
,child,0.9885657429695129,,,,,,,,
,one,0.9756902456283569,,,,,,,,
,adult,0.9679853916168213,,,,,,,,
,model,0.961453914642334,,,,,,,,
,woman,0.9600716829299927,,,,,,,,
,brunette,0.9543740153312683,,,,,,,,
,face,0.9476122856140137,,,,,,,,
,happiness,0.9463255405426025,,,,,,,,
,"facial expression",0.9343445301055908,,,,,,,,
,boy,0.9340118765830994,,,,,,,,
,youth,0.9266188144683838,,,,,,,,
,beautiful,0.9146178960800171,,,,,,,,
,smile,0.9129390716552734,,,,,,,,
,light,0.896979570388794,,,,,,,,
,wear,0.8908156156539917,,,,,,,,
,cute,0.8776910305023193,,,,,,,,
,lifestyle,0.8683106303215027,,,,,,,,
https://scontent.cdninstagram.com/t51.2885-15/e15/10881789_308914049299359_567196227_n.jpg,woman,0.978757381439209,,,,,,,,
,people,0.97562575340271,,,,,,,,
,man,0.9671065807342529,,,,,,,,
,celebration,0.9559680223464966,,,,,,,,
,group,0.9383364915847778,,,,,,,,
,adult,0.9359838962554932,,,,,,,,
,festival,0.9344311952590942,,,,,,,,
,ceremony,0.9216166138648987,,,,,,,,
,many,0.9111050367355347,,,,,,,,
,child,0.9044148921966553,,,,,,,,
,group,0.9030120968818665,,,,,,,,
,traditional,0.8868069648742676,,,,,,,,
,horizontal,0.8859649896621704,,,,,,,,
,enjoyment,0.867986798286438,,,,,,,,
,table,0.8640753030776978,,,,,,,,
,sit,0.8638911247253418,,,,,,,,
,party,0.8603984117507935,,,,,,,,
,togetherness,0.8443807363510132,,,,,,,,
,happiness,0.8322020769119263,,,,,,,,
,family,0.8205448985099792,,,,,,,,
https://scontent.cdninstagram.com/t51.2885-15/e15/10853079_1532943316948092_741062781_n.jpg,music,0.9125747680664062,,,,,,,,
,people,0.9058338403701782,,,,,,,,
,technology,0.8778198957443237,,,,,,,,
,desktop,0.8716139793395996,,,,,,,,
,woman,0.8456343412399292,,,,,,,,
,illustration,0.8406131267547607,,,,,,,,
,business,0.8372032642364502,,,,,,,,
,adult,0.8305959701538086,,,,,,,,
,man,0.8169571161270142,,,,,,,,
,communication,0.8071115016937256,,,,,,,,
,light,0.7920631170272827,,,,,,,,
,competition,0.7717728018760681,,,,,,,,
,group,0.7434355616569519,,,,,,,,
,computer,0.7426868677139282,,,,,,,,
,science,0.7341938614845276,,,,,,,,
,bill,0.731425940990448,,,,,,,,
,horizontal,0.7277991771697998,,,,,,,,
,internet,0.727012038230896,,,,,,,,
,food,0.7266519069671631,,,,,,,,
,exhibition,0.7265247106552124,,,,,,,,
https://scontent.cdninstagram.com/t51.2885-15/e15/11417513_1404514509877016_587036742_n.jpg,woman,0.994270920753479,,,,,,,,
,fashion,0.9757614135742188,,,,,,,,
,wear,0.9603749513626099,,,,,,,,
,togetherness,0.9338682889938354,,,,,,,,
,family,0.9286153316497803,,,,,,,,
,indoors,0.926588773727417,,,,,,,,
,two,0.923393964767456,,,,,,,,
,looking,0.9195486307144165,,,,,,,,
,love,0.9031328558921814,,,,,,,,
,people,0.9026368856430054,,,,,,,,
,romance,0.9005429744720459,,,,,,,,
,adult,0.8907785415649414,,,,,,,,
,outdoors,0.8885334730148315,,,,,,,,
,summer,0.8713134527206421,,,,,,,,
,enjoyment,0.8558703660964966,,,,,,,,
,glamour,0.8520581722259521,,,,,,,,
,elegant,0.8402164578437805,,,,,,,,
,contemporary,0.8382236957550049,,,,,,,,
,affection,0.817863941192627,,,,,,,,
,"facial expression",0.8013105392456055,,,,,,,,
https://scontent.cdninstagram.com/t51.2885-15/e35/p320x320/12357801_181587625525799_837476695_n.jpg,collage,0.9912803173065186,,,,,,,,
,people,0.9749730825424194,,,,,,,,
,sport,0.9646006226539612,,,,,,,,
,game,0.9630096554756165,,,,,,,,
,event,0.9105647206306458,,,,,,,,
,competition,0.8992096185684204,,,,,,,,
,man,0.8956078290939331,,,,,,,,
,fun,0.8926396369934082,,,,,,,,
,crowd,0.8900846242904663,,,,,,,,
,ball,0.876320481300354,,,,,,,,
,collection,0.8572045564651489,,,,,,,,
,many,0.8537188768386841,,,,,,,,
,"sports fan",0.8501005172729492,,,,,,,,
,cup,0.8411523103713989,,,,,,,,
,squad,0.8373764157295227,,,,,,,,
,portrait,0.8362458944320679,,,,,,,,
,entertainment,0.8249964714050293,,,,,,,,
,football,0.8178725838661194,,,,,,,,
,show,0.8158614635467529,,,,,,,,
,victory,0.8153733015060425,,,,,,,,
https://scontent.cdninstagram.com/t51.2885-15/e35/13398720_788360171305546_338634509_n.jpg,people,0.9896605014801025,,,,,,,,
,adult,0.9746936559677124,,,,,,,,
,two,0.9715487360954285,,,,,,,,
,woman,0.9714924097061157,,,,,,,,
,indoors,0.9566904306411743,,,,,,,,
,man,0.9429655075073242,,,,,,,,
,interaction,0.9427300691604614,,,,,,,,
,portrait,0.9379498958587646,,,,,,,,
,togetherness,0.933422327041626,,,,,,,,
,education,0.9291934967041016,,,,,,,,
,wear,0.9069980382919312,,,,,,,,
,business,0.8993126153945923,,,,,,,,
,love,0.87364661693573,,,,,,,,
,school,0.8651920557022095,,,,,,,,
,"facial expression",0.8627419471740723,,,,,,,,
,technology,0.8513244390487671,,,,,,,,
,family,0.8461976647377014,,,,,,,,
,child,0.8406861424446106,,,,,,,,
,"side view",0.8294419646263123,,,,,,,,
,happiness,0.8075723648071289,,,,,,,,
https://scontent.cdninstagram.com/t51.2885-15/e15/11116821_354173788112625_1716864050_n.jpg,people,0.9812338352203369,,,,,,,,
,technology,0.9663866758346558,,,,,,,,
,business,0.9485532641410828,,,,,,,,
,communication,0.9429905414581299,,,,,,,,
,laptop,0.9195574522018433,,,,,,,,
,computer,0.9154801368713379,,,,,,,,
,"World Wide Web",0.9112040996551514,,,,,,,,
,screen,0.9105349779129028,,,,,,,,
,internet,0.8997311592102051,,,,,,,,
,man,0.8558313846588135,,,,,,,,
,portrait,0.8499256372451782,,,,,,,,
,display,0.8466956615447998,,,,,,,,
,adult,0.8445680737495422,,,,,,,,
,"picture frame",0.8434342741966248,,,,,,,,
,horizontal,0.8232154846191406,,,,,,,,
,woman,0.8209424018859863,,,,,,,,
,movie,0.7859784364700317,,,,,,,,
,telephone,0.7826125025749207,,,,,,,,
,presentation,0.7786312699317932,,,,,,,,
,modern,0.7720385193824768,,,,,,,,
https://scontent.cdninstagram.com/t51.2885-15/e15/927135_872074379482366_1821342813_n.jpg,woman,0.988728404045105,,,,,,,,
,indoors,0.9825975894927979,,,,,,,,
,telephone,0.9753535389900208,,,,,,,,
,people,0.9706101417541504,,,,,,,,
,girl,0.9642049074172974,,,,,,,,
,portrait,0.963986873626709,,,,,,,,
,adult,0.9639372229576111,,,,,,,,
,window,0.9337505102157593,,,,,,,,
,train,0.9302283525466919,,,,,,,,
,business,0.9239030480384827,,,,,,,,
,travel,0.8612854480743408,,,,,,,,
,two,0.8527382612228394,,,,,,,,
,one,0.8434628248214722,,,,,,,,
,office,0.8422272205352783,,,,,,,,
,airport,0.8357250690460205,,,,,,,,
,fashion,0.8102410435676575,,,,,,,,
,luggage,0.806556224822998,,,,,,,,
,model,0.7910809516906738,,,,,,,,
,looking,0.7765884399414062,,,,,,,,
,happiness,0.7723032832145691,,,,,,,,
https://scontent.cdninstagram.com/t51.2885-15/e15/10299800_869578023057796_1368352716_n.jpg,competition,0.9867168664932251,,,,,,,,
,people,0.986146092414856,,,,,,,,
,many,0.9745556712150574,,,,,,,,
,athlete,0.9723936915397644,,,,,,,,
,woman,0.9686694145202637,,,,,,,,
,basketball,0.9674737453460693,,,,,,,,
,crowd,0.9647645950317383,,,,,,,,
,adult,0.9645350575447083,,,,,,,,
,audience,0.9640271663665771,,,,,,,,
,festival,0.9610985517501831,,,,,,,,
,man,0.9599409103393555,,,,,,,,
,tennis,0.9532612562179565,,,,,,,,
,wear,0.9384042024612427,,,,,,,,
,school,0.9376242160797119,,,,,,,,
,recreation,0.9269279837608337,,,,,,,,
,education,0.9203103184700012,,,,,,,,
,portrait,0.9183712005615234,,,,,,,,
,performance,0.9060531258583069,,,,,,,,
,indoors,0.9039126634597778,,,,,,,,
,group,0.9005556106567383,,,,,,,,
https://scontent.cdninstagram.com/t51.2885-15/e15/10948854_1420089791625571_1391372216_n.jpg,people,0.9835087656974792,,,,,,,,
,business,0.9777792096138,,,,,,,,
,portrait,0.9693561792373657,,,,,,,,
,"dinner jacket",0.9666040539741516,,,,,,,,
,man,0.9630317091941833,,,,,,,,
,horizontal,0.9523127675056458,,,,,,,,
,suit,0.9435063600540161,,,,,,,,
,adult,0.9416801333427429,,,,,,,,
,indoors,0.940571129322052,,,,,,,,
,"bow tie",0.9339141845703125,,,,,,,,
,formalwear,0.9228075742721558,,,,,,,,
,happiness,0.9047566652297974,,,,,,,,
,confidence,0.9032540321350098,,,,,,,,
,outdoors,0.8953098058700562,,,,,,,,
,cheerful,0.8924393653869629,,,,,,,,
,service,0.8896857500076294,,,,,,,,
,wedding,0.8746155500411987,,,,,,,,
,intelligence,0.8702250719070435,,,,,,,,
,celebration,0.8638662099838257,,,,,,,,
,vertical,0.8572142720222473,,,,,,,,
https://scontent.cdninstagram.com/t51.2885-15/e35/12479613_1572100866450913_1052114898_n.jpg,portrait,0.9957507252693176,,,,,,,,
,outdoors,0.9947453737258911,,,,,,,,
,people,0.9929473400115967,,,,,,,,
,adult,0.9804738759994507,,,,,,,,
,horizontal,0.9703935384750366,,,,,,,,
,vertical,0.9694831371307373,,,,,,,,
,happiness,0.9480464458465576,,,,,,,,
,relaxation,0.9479519128799438,,,,,,,,
,man,0.9359026551246643,,,,,,,,
,nature,0.9255808591842651,,,,,,,,
,contemplation,0.9139735698699951,,,,,,,,
,cheerful,0.9040657877922058,,,,,,,,
,wear,0.901818037033081,,,,,,,,
,confidence,0.8963447213172913,,,,,,,,
,individuality,0.8914366364479065,,,,,,,,
,enjoyment,0.8641043901443481,,,,,,,,
,content,0.860990047454834,,,,,,,,
,summer,0.8540774583816528,,,,,,,,
,child,0.8535951972007751,,,,,,,,
,sit,0.8489867448806763,,,,,,,,
https://scontent.cdninstagram.com/t51.2885-15/e15/10507841_793034380727796_2062173300_n.jpg,woman,0.994446337223053,,,,,,,,
,two,0.9942706823348999,,,,,,,,
,people,0.99213707447052,,,,,,,,
,togetherness,0.9908442497253418,,,,,,,,
,"facial expression",0.9856210947036743,,,,,,,,
,wear,0.9783296585083008,,,,,,,,
,adult,0.9635465145111084,,,,,,,,
,family,0.9628110527992249,,,,,,,,
,love,0.9624190926551819,,,,,,,,
,indoors,0.9618841409683228,,,,,,,,
,man,0.9576880931854248,,,,,,,,
,affection,0.9447135925292969,,,,,,,,
,enjoyment,0.9444835782051086,,,,,,,,
,portrait,0.9444515109062195,,,,,,,,
,interaction,0.9279239773750305,,,,,,,,
,fun,0.9267051219940186,,,,,,,,
,leisure,0.9255510568618774,,,,,,,,
,romance,0.9254744052886963,,,,,,,,
,friendship,0.9197773337364197,,,,,,,,
,embrace,0.9149026870727539,,,,,,,,
https://scontent.cdninstagram.com/t51.2885-15/e15/10611148_1474158959509071_698356087_n.jpg,group,0.9937305450439453,,,,,,,,
,man,0.9878180027008057,,,,,,,,
,people,0.986153244972229,,,,,,,,
,group,0.983411431312561,,,,,,,,
,adult,0.9813268780708313,,,,,,,,
,woman,0.9718061089515686,,,,,,,,
,wear,0.9385325312614441,,,,,,,,
,"facial expression",0.9354068040847778,,,,,,,,
,four,0.9348371028900146,,,,,,,,
,portrait,0.9239150881767273,,,,,,,,
,leader,0.9146809577941895,,,,,,,,
,cooperation,0.908967912197113,,,,,,,,
,five,0.9086787104606628,,,,,,,,
,teamwork,0.8994444608688354,,,,,,,,
,vehicle,0.8899468183517456,,,,,,,,
,outdoors,0.887212336063385,,,,,,,,
,togetherness,0.8838114142417908,,,,,,,,
,accomplishment,0.8728727102279663,,,,,,,,
,partnership,0.8698087930679321,,,,,,,,
,daylight,0.8684675693511963,,,,,,,,
https://scontent.cdninstagram.com/t51.2885-15/e15/10683892_371802839636502_333574681_n.jpg,dress,0.9819879531860352,,,,,,,,
,woman,0.9790792465209961,,,,,,,,
,portrait,0.9687138795852661,,,,,,,,
,fashion,0.9683816432952881,,,,,,,,
,people,0.9683250784873962,,,,,,,,
,two,0.9680242538452148,,,,,,,,
,wear,0.9555096626281738,,,,,,,,
,man,0.9534104466438293,,,,,,,,
,adult,0.9462149143218994,,,,,,,,
,wedding,0.9198411703109741,,,,,,,,
,girl,0.9091850519180298,,,,,,,,
,three,0.8927918672561646,,,,,,,,
,young,0.8659690022468567,,,,,,,,
,model,0.8619180917739868,,,,,,,,
,romance,0.8572136163711548,,,,,,,,
,love,0.8502756357192993,,,,,,,,
,beautiful,0.8385071158409119,,,,,,,,
,actress,0.8310492038726807,,,,,,,,
,group,0.8258746862411499,,,,,,,,
,groom,0.8258261680603027,,,,,,,,
https://scontent.cdninstagram.com/t51.2885-15/e15/13402207_111145985975288_1887672323_n.jpg,adult,0.995542049407959,,,,,,,,
,indoors,0.9943832159042358,,,,,,,,
,people,0.992810845375061,,,,,,,,
,portrait,0.9881820678710938,,,,,,,,
,confidence,0.9620119333267212,,,,,,,,
,horizontal,0.9595706462860107,,,,,,,,
,happiness,0.9539920091629028,,,,,,,,
,woman,0.9516764879226685,,,,,,,,
,man,0.9510209560394287,,,,,,,,
,business,0.9161534309387207,,,,,,,,
,window,0.9157360792160034,,,,,,,,
,"facial expression",0.9142513275146484,,,,,,,,
,office,0.9078496694564819,,,,,,,,
,technology,0.9009647965431213,,,,,,,,
,headshot,0.8987871408462524,,,,,,,,
,cheerful,0.8829444050788879,,,,,,,,
,"side view",0.8817533254623413,,,,,,,,
,focus,0.8674744367599487,,,,,,,,
,education,0.8422837257385254,,,,,,,,
,pride,0.8403327465057373,,,,,,,,
https://scontent.cdninstagram.com/t51.2885-15/e15/10576112_1455594754725319_1822377117_n.jpg,people,0.9752830266952515,,,,,,,,
,group,0.9699069857597351,,,,,,,,
,portrait,0.9604182839393616,,,,,,,,
,adult,0.9560765027999878,,,,,,,,
,woman,0.9529017806053162,,,,,,,,
,man,0.9497631788253784,,,,,,,,
,many,0.919941782951355,,,,,,,,
,rally,0.9186924695968628,,,,,,,,
,wear,0.9137407541275024,,,,,,,,
,festival,0.9011870622634888,,,,,,,,
,"facial expression",0.8952348232269287,,,,,,,,
,music,0.8870381116867065,,,,,,,,
,singer,0.8770310282707214,,,,,,,,
,group,0.8739322423934937,,,,,,,,
,education,0.8703266382217407,,,,,,,,
,performance,0.8612726330757141,,,,,,,,
,enjoyment,0.8584730625152588,,,,,,,,
,musician,0.8542957305908203,,,,,,,,
,"sports fan",0.8360609412193298,,,,,,,,
,indoors,0.831845760345459,,,,,,,,
https://scontent.cdninstagram.com/t51.2885-15/e15/10706899_471468962995202_282592654_n.jpg,food,0.9480969309806824,,,,,,,,
,woman,0.945659875869751,,,,,,,,
,man,0.9301620125770569,,,,,,,,
,indoors,0.9188961982727051,,,,,,,,
,meal,0.916165828704834,,,,,,,,
,lunch,0.9138582944869995,,,,,,,,
,healthy,0.8992759585380554,,,,,,,,
,cooking,0.8934148550033569,,,,,,,,
,dinner,0.8723206520080566,,,,,,,,
,people,0.8577321171760559,,,,,,,,
,health,0.8540422916412354,,,,,,,,
,table,0.8415324687957764,,,,,,,,
,lifestyle,0.8385239243507385,,,,,,,,
,horizontal,0.8143802285194397,,,,,,,,
,boy,0.8116404414176941,,,,,,,,
,togetherness,0.7975548505783081,,,,,,,,
,restaurant,0.7923587560653687,,,,,,,,
,adult,0.7909269332885742,,,,,,,,
,family,0.7892565727233887,,,,,,,,
,enjoyment,0.7756297588348389,,,,,,,,
https://scontent.cdninstagram.com/t51.2885-15/e15/10584669_824761200897065_1663078431_n.jpg,indoors,0.9738823175430298,,,,,,,,
,actor,0.960879921913147,,,,,,,,
,people,0.9460015296936035,,,,,,,,
,business,0.9451514482498169,,,,,,,,
,fashion,0.9401446580886841,,,,,,,,
,movie,0.9331481456756592,,,,,,,,
,exhibition,0.9155250787734985,,,,,,,,
,recreation,0.9117268919944763,,,,,,,,
,room,0.9117188453674316,,,,,,,,
,"film festival",0.9022728204727173,,,,,,,,
,festival,0.9008896350860596,,,,,,,,
,portrait,0.8927016258239746,,,,,,,,
,fashionable,0.8912586569786072,,,,,,,,
,wear,0.8810097575187683,,,,,,,,
,adult,0.8789031505584717,,,,,,,,
,woman,0.8722887635231018,,,,,,,,
,man,0.8427430987358093,,,,,,,,
,one,0.8422896862030029,,,,,,,,
,actress,0.8281605839729309,,,,,,,,
,"red carpet",0.8251969218254089,,,,,,,,
https://scontent.cdninstagram.com/t51.2885-15/e15/10593463_1443989525882442_69659944_n.jpg,people,0.9846537113189697,,,,,,,,
,wear,0.9831230640411377,,,,,,,,
,adult,0.9716281890869141,,,,,,,,
,man,0.9668252468109131,,,,,,,,
,woman,0.95220547914505,,,,,,,,
,portrait,0.9151419997215271,,,,,,,,
,two,0.899956464767456,,,,,,,,
,veil,0.8766096234321594,,,,,,,,
,industry,0.8692344427108765,,,,,,,,
,group,0.8637281656265259,,,,,,,,
,service,0.8527795076370239,,,,,,,,
,stock,0.8497214317321777,,,,,,,,
,commerce,0.8493099212646484,,,,,,,,
,indoors,0.8430864810943604,,,,,,,,
,happiness,0.8288732767105103,,,,,,,,
,enjoyment,0.8248107433319092,,,,,,,,
,shopping,0.8151566982269287,,,,,,,,
,daylight,0.8122557401657104,,,,,,,,
,togetherness,0.8112236261367798,,,,,,,,
,education,0.8041396141052246,,,,,,,,
https://scontent.cdninstagram.com/t51.2885-15/e15/10608133_752065961505843_1647262216_n.jpg,people,0.988566517829895,,,,,,,,
,group,0.9829078912734985,,,,,,,,
,man,0.980230987071991,,,,,,,,
,adult,0.9569037556648254,,,,,,,,
,education,0.9267501831054688,,,,,,,,
,woman,0.92600417137146,,,,,,,,
,commerce,0.9172430038452148,,,,,,,,
,wear,0.9083123207092285,,,,,,,,
,many,0.8990610241889954,,,,,,,,
,portrait,0.8635762333869934,,,,,,,,
,school,0.8506569862365723,,,,,,,,
,street,0.8371871113777161,,,,,,,,
,city,0.826171875,,,,,,,,
,music,0.8223487734794617,,,,,,,,
,restaurant,0.8096458911895752,,,,,,,,
,child,0.808247447013855,,,,,,,,
,offense,0.808127760887146,,,,,,,,
,industry,0.8028671741485596,,,,,,,,
,festival,0.7985254526138306,,,,,,,,
,group,0.7940847873687744,,,,,,,,
https://scontent.cdninstagram.com/t51.2885-15/e15/10608064_692120444175564_2021987010_n.jpg,people,0.990361750125885,,,,,,,,
,wear,0.9685176610946655,,,,,,,,
,competition,0.9501401782035828,,,,,,,,
,festival,0.9497992992401123,,,,,,,,
,many,0.929705023765564,,,,,,,,
,group,0.9067243933677673,,,,,,,,
,man,0.8999547362327576,,,,,,,,
,crowd,0.8999502062797546,,,,,,,,
,music,0.8952356576919556,,,,,,,,
,adult,0.8895690441131592,,,,,,,,
,"sports fan",0.8619025945663452,,,,,,,,
,race,0.8578454256057739,,,,,,,,
,portrait,0.8563472032546997,,,,,,,,
,performance,0.8560153245925903,,,,,,,,
,street,0.8470489978790283,,,,,,,,
,recreation,0.8423320055007935,,,,,,,,
,outfit,0.8419212698936462,,,,,,,,
,celebration,0.8388197422027588,,,,,,,,
,woman,0.8303118944168091,,,,,,,,
,parade,0.8272385597229004,,,,,,,,
