url,class,score,,,,,,,,
https://scontent-sit4-1.cdninstagram.com/t51.2885-15/s480x480/e35/12142219_1669048216666328_592057639_n.jpg,purse,0.9714285135269165,,,,,,,,
,shopping,0.9675703048706055,,,,,,,,
,leather,0.9673379063606262,,,,,,,,
,fashion,0.9508483409881592,,,,,,,,
,"no person",0.9404525756835938,,,,,,,,
,business,0.9394134879112244,,,,,,,,
,card,0.9391335248947144,,,,,,,,
,paper,0.9383660554885864,,,,,,,,
,wallet,0.9358910322189331,,,,,,,,
,luxury,0.9335958361625671,,,,,,,,
,retro,0.9258460998535156,,,,,,,,
,elegant,0.9250024557113647,,,,,,,,
,vintage,0.918523907661438,,,,,,,,
,desktop,0.9148720502853394,,,,,,,,
,wealth,0.9029536247253418,,,,,,,,
,old,0.8858708143234253,,,,,,,,
,accessory,0.8754391670227051,,,,,,,,
,money,0.8748986124992371,,,,,,,,
,color,0.8637589812278748,,,,,,,,
,design,0.8637024164199829,,,,,,,,
https://scontent-sit4-1.cdninstagram.com/t51.2885-15/s750x750/sh0.08/e35/11939297_1499418837023550_417827354_n.jpg,food,0.981459379196167,,,,,,,,
,drink,0.9497073292732239,,,,,,,,
,appliance,0.9289814233779907,,,,,,,,
,"no person",0.9277251958847046,,,,,,,,
,vertical,0.9186073541641235,,,,,,,,
,cooking,0.917678952217102,,,,,,,,
,refreshment,0.912779688835144,,,,,,,,
,breakfast,0.9094784259796143,,,,,,,,
,blender,0.9028396606445312,,,,,,,,
,plastic,0.9012409448623657,,,,,,,,
,milk,0.8988013863563538,,,,,,,,
,bottle,0.8940346837043762,,,,,,,,
,health,0.8827905654907227,,,,,,,,
,glass,0.8739547729492188,,,,,,,,
,preparation,0.8702677488327026,,,,,,,,
,heat,0.8596591949462891,,,,,,,,
,meal,0.8583055734634399,,,,,,,,
,nutrition,0.8544437885284424,,,,,,,,
,indoors,0.8544211387634277,,,,,,,,
,vegetable,0.8521332740783691,,,,,,,,
https://scontent-sit4-1.cdninstagram.com/t51.2885-15/e35/12145519_745791848899644_87601821_n.jpg,health,0.9388777017593384,,,,,,,,
,woman,0.935918390750885,,,,,,,,
,young,0.9093586206436157,,,,,,,,
,indoors,0.9026398658752441,,,,,,,,
,people,0.8883455991744995,,,,,,,,
,adult,0.8686792850494385,,,,,,,,
,healthcare,0.8647584915161133,,,,,,,,
,clean,0.8187598586082458,,,,,,,,
,cute,0.8176610469818115,,,,,,,,
,desktop,0.8056688904762268,,,,,,,,
,vertical,0.8017289042472839,,,,,,,,
,fun,0.7964332103729248,,,,,,,,
,treatment,0.7830332517623901,,,,,,,,
,pretty,0.7482764720916748,,,,,,,,
,purity,0.7417463064193726,,,,,,,,
,hand,0.728329062461853,,,,,,,,
,isolated,0.7269625663757324,,,,,,,,
,retro,0.7260903120040894,,,,,,,,
,business,0.7205016613006592,,,,,,,,
,family,0.7099496126174927,,,,,,,,
https://scontent-sit4-1.cdninstagram.com/t51.2885-15/sh0.08/e35/p750x750/12120299_1658411914437063_1174272717_n.jpg,horizontal,0.976848840713501,,,,,,,,
,business,0.9647681713104248,,,,,,,,
,communication,0.9589297771453857,,,,,,,,
,hand,0.9527639746665955,,,,,,,,
,page,0.9416319131851196,,,,,,,,
,text,0.9411652088165283,,,,,,,,
,composition,0.9345031976699829,,,,,,,,
,internet,0.9278566837310791,,,,,,,,
,"World Wide Web",0.9098182916641235,,,,,,,,
,people,0.9020048379898071,,,,,,,,
,desktop,0.901425838470459,,,,,,,,
,square,0.8989943265914917,,,,,,,,
,blank,0.89210045337677,,,,,,,,
,illustration,0.8899471163749695,,,,,,,,
,sign,0.8752142190933228,,,,,,,,
,technology,0.8661090135574341,,,,,,,,
,data,0.8581796884536743,,,,,,,,
,presentation,0.8490167856216431,,,,,,,,
,education,0.8246732354164124,,,,,,,,
,symbol,0.8241400718688965,,,,,,,,
https://scontent-sit4-1.cdninstagram.com/t51.2885-15/e35/11809882_164268903911069_975659215_n.jpg,desktop,0.9848635196685791,,,,,,,,
,equipment,0.9827160835266113,,,,,,,,
,pencil,0.9719164967536926,,,,,,,,
,school,0.9717880487442017,,,,,,,,
,composition,0.9717651605606079,,,,,,,,
,isolated,0.9698708057403564,,,,,,,,
,tool,0.966674268245697,,,,,,,,
,ink,0.9660888910293579,,,,,,,,
,brush,0.9619506597518921,,,,,,,,
,set,0.9568502306938171,,,,,,,,
,tube,0.9524353742599487,,,,,,,,
,isolated,0.952343225479126,,,,,,,,
,color,0.9512573480606079,,,,,,,,
,closeup,0.9388697147369385,,,,,,,,
,tip,0.9386580586433411,,,,,,,,
,lipstick,0.9382612705230713,,,,,,,,
,"make up",0.9286702871322632,,,,,,,,
,tool,0.9250727295875549,,,,,,,,
,education,0.9198673367500305,,,,,,,,
,palette,0.9180408716201782,,,,,,,,
https://scontent-sit4-1.cdninstagram.com/t51.2885-15/e35/12139801_934498053289446_1455524048_n.jpg,vertical,0.9980038404464722,,,,,,,,
,text,0.9812024831771851,,,,,,,,
,drink,0.9713709950447083,,,,,,,,
,illustration,0.9673793315887451,,,,,,,,
,food,0.9550604820251465,,,,,,,,
,neon,0.9510986804962158,,,,,,,,
,celebration,0.9500136375427246,,,,,,,,
,business,0.9449946880340576,,,,,,,,
,bill,0.9321690797805786,,,,,,,,
,indoors,0.9295063614845276,,,,,,,,
,communication,0.9236631393432617,,,,,,,,
,fruit,0.9180642366409302,,,,,,,,
,soda,0.9093821048736572,,,,,,,,
,variation,0.9047340154647827,,,,,,,,
,refreshment,0.8961231112480164,,,,,,,,
,party,0.8928804397583008,,,,,,,,
,outdoors,0.8861621618270874,,,,,,,,
,freshness,0.8764885663986206,,,,,,,,
,ice,0.8747889995574951,,,,,,,,
,"still life",0.8722521066665649,,,,,,,,
https://scontent-sit4-1.cdninstagram.com/t51.2885-15/e35/11930777_1660822044204051_1914192790_n.jpg,technology,0.9464741945266724,,,,,,,,
,business,0.9253008365631104,,,,,,,,
,communication,0.9164574146270752,,,,,,,,
,illustration,0.9163620471954346,,,,,,,,
,"no person",0.9129220247268677,,,,,,,,
,internet,0.9052956700325012,,,,,,,,
,laptop,0.8885766267776489,,,,,,,,
,modern,0.8845713138580322,,,,,,,,
,computer,0.8776402473449707,,,,,,,,
,telephone,0.8630436658859253,,,,,,,,
,equipment,0.8508000373840332,,,,,,,,
,design,0.8485953211784363,,,,,,,,
,desktop,0.8465802669525146,,,,,,,,
,wireless,0.8440390825271606,,,,,,,,
,image,0.8341960906982422,,,,,,,,
,isolated,0.8078399896621704,,,,,,,,
,paper,0.7997096180915833,,,,,,,,
,indoors,0.7806692123413086,,,,,,,,
,electronics,0.7797918319702148,,,,,,,,
,blank,0.779665470123291,,,,,,,,
https://scontent-sit4-1.cdninstagram.com/t51.2885-15/sh0.08/e35/p750x750/12070857_187050964963006_134692798_n.jpg,people,0.9880363941192627,"Fashion & Beauty",,,,Ootd,,,
,one,0.9657149910926819,,,,,,,,
,adult,0.9536105394363403,,,,,,,,
,illustration,0.9386228322982788,,,,,,,,
,seat,0.9373490810394287,,,,,,,,
,art,0.932168185710907,,,,,,,,
,indoors,0.9277289509773254,,,,,,,,
,painting,0.9160622358322144,,,,,,,,
,man,0.915699303150177,,,,,,,,
,"no person",0.8959251046180725,,,,,,,,
,chair,0.8944004774093628,,,,,,,,
,wear,0.8842576742172241,,,,,,,,
,symbol,0.8449373245239258,,,,,,,,
,desktop,0.8354610204696655,,,,,,,,
,furniture,0.8237463235855103,,,,,,,,
,business,0.822155773639679,,,,,,,,
,sitting,0.8165087699890137,,,,,,,,
,woman,0.8138384819030762,,,,,,,,
,portrait,0.770654559135437,,,,,,,,
,design,0.7565998435020447,,,,,,,,
https://scontent-sit4-1.cdninstagram.com/t51.2885-15/e35/12716934_1003723816342090_779960414_n.jpg,label,0.9967906475067139,,,,,,,,
,template,0.9940638542175293,,,,,,,,
,medicine,0.980288028717041,,,,,,,,
,bottle,0.9766815900802612,,,,,,,,
,number,0.9591500163078308,,,,,,,,
,treatment,0.9552011489868164,,,,,,,,
,banner,0.953045129776001,,,,,,,,
,sign,0.9408104419708252,,,,,,,,
,cure,0.9348258972167969,,,,,,,,
,health,0.9302626848220825,,,,,,,,
,advertising,0.9252609014511108,,,,,,,,
,vector,0.9247446060180664,,,,,,,,
,vector,0.9097161293029785,,,,,,,,
,tag,0.9095418453216553,,,,,,,,
,promotion,0.9031724333763123,,,,,,,,
,illness,0.901134729385376,,,,,,,,
,healthcare,0.8973674178123474,,,,,,,,
,liquid,0.8973661065101624,,,,,,,,
,spray,0.8942599296569824,,,,,,,,
,"no person",0.8941816091537476,,,,,,,,
https://scontent-sit4-1.cdninstagram.com/t51.2885-15/e35/12063265_163099550705903_836809125_n.jpg,indoors,0.9992215633392334,,,,,,,,
,bedroom,0.9975144267082214,,,,,,,,
,pillow,0.9956993460655212,,,,,,,,
,furniture,0.9940133094787598,,,,,,,,
,bed,0.9938647747039795,,,,,,,,
,cozy,0.9931605458259583,,,,,,,,
,luxury,0.9903081059455872,,,,,,,,
,comfort,0.9804700613021851,,,,,,,,
,contemporary,0.9767253398895264,,,,,,,,
,cushion,0.9725435972213745,,,,,,,,
,curtain,0.9588512182235718,,,,,,,,
,"interior design",0.9585198163986206,,,,,,,,
,rug,0.9529669284820557,,,,,,,,
,window,0.9520453810691833,,,,,,,,
,relaxation,0.9509143829345703,,,,,,,,
,hotel,0.9482927322387695,,,,,,,,
,chair,0.9479427337646484,,,,,,,,
,armchair,0.9458401203155518,,,,,,,,
,family,0.9413319230079651,,,,,,,,
,apartment,0.9400701522827148,,,,,,,,
https://scontent-sit4-1.cdninstagram.com/t51.2885-15/e35/12063052_1139448859400314_1779066116_n.jpg,gold,0.9758881330490112,,,,,,,,
,"no person",0.9687246084213257,,,,,,,,
,theater,0.9661442041397095,,,,,,,,
,movie,0.9627857804298401,,,,,,,,
,retro,0.9505716562271118,,,,,,,,
,celebration,0.9298957586288452,,,,,,,,
,decoration,0.9288610816001892,,,,,,,,
,luxury,0.9114214181900024,,,,,,,,
,vintage,0.909928023815155,,,,,,,,
,classic,0.9034404754638672,,,,,,,,
,performance,0.8982166647911072,,,,,,,,
,symbol,0.897750198841095,,,,,,,,
,music,0.8916189670562744,,,,,,,,
,award,0.8904900550842285,,,,,,,,
,travel,0.8884716033935547,,,,,,,,
,festival,0.8860759139060974,,,,,,,,
,imperial,0.8834053874015808,,,,,,,,
,entertainment,0.878940761089325,,,,,,,,
,royalty,0.8776504993438721,,,,,,,,
,marquee,0.8775949478149414,,,,,,,,
https://scontent-sit4-1.cdninstagram.com/t51.2885-15/s750x750/sh0.08/e35/12256692_1504689939859732_153678203_n.jpg,illustration,0.985825777053833,,,,,,,,
,vertical,0.9823289513587952,,,,,,,,
,text,0.9806743860244751,,,,,,,,
,cloud,0.9780572652816772,,,,,,,,
,abstract,0.9669304490089417,,,,,,,,
,desktop,0.9185316562652588,,,,,,,,
,horizontal,0.9132812023162842,,,,,,,,
,business,0.860289454460144,,,,,,,,
,"give voice",0.8590632081031799,,,,,,,,
,pattern,0.8521910905838013,,,,,,,,
,spiral,0.8438973426818848,,,,,,,,
,creativity,0.8404867649078369,,,,,,,,
,technology,0.838461697101593,,,,,,,,
,communication,0.8297147154808044,,,,,,,,
,focus,0.8281686305999756,,,,,,,,
,identity,0.8119215369224548,,,,,,,,
,decoration,0.7833537459373474,,,,,,,,
,bill,0.7643059492111206,,,,,,,,
,conceptual,0.7369345426559448,,,,,,,,
,modern,0.7251776456832886,,,,,,,,
https://scontent-sit4-1.cdninstagram.com/t51.2885-15/s750x750/sh0.08/e35/11917897_677084422428930_1157020686_n.jpg,illustration,0.9883734583854675,,,,,,,,
,car,0.9840918183326721,,,,,,,,
,vector,0.9675857424736023,,,,,,,,
,"transportation system",0.9480542540550232,,,,,,,,
,vehicle,0.9137425422668457,,,,,,,,
,child,0.9009995460510254,,,,,,,,
,graphic,0.8996323347091675,,,,,,,,
,people,0.8982951641082764,,,,,,,,
,card,0.8702473044395447,,,,,,,,
,banner,0.8689855933189392,,,,,,,,
,bill,0.852782666683197,,,,,,,,
,desktop,0.8518363833427429,,,,,,,,
,design,0.8409168124198914,,,,,,,,
,bus,0.8399674892425537,,,,,,,,
,man,0.8361356854438782,,,,,,,,
,woman,0.8290860056877136,,,,,,,,
,"no person",0.8262783885002136,,,,,,,,
,set,0.8237876892089844,,,,,,,,
,collection,0.8236376047134399,,,,,,,,
,sketch,0.8176885843276978,,,,,,,,
https://scontent-sit4-1.cdninstagram.com/t51.2885-15/e15/12144282_136039076753851_2131872300_n.jpg,athlete,0.9922658205032349,"Fashion & Beauty",,,,Ootd,,,
,wear,0.983716607093811,,,,,,,,
,competition,0.9801540374755859,,,,,,,,
,one,0.9795166254043579,,,,,,,,
,indoors,0.9789003133773804,,,,,,,,
,recreation,0.9755030870437622,,,,,,,,
,people,0.9618362188339233,,,,,,,,
,adult,0.959857165813446,,,,,,,,
,motion,0.9594153165817261,,,,,,,,
,leisure,0.9580690860748291,,,,,,,,
,enjoyment,0.9383540153503418,,,,,,,,
,action,0.9309002161026001,,,,,,,,
,portrait,0.9220439195632935,,,,,,,,
,exercise,0.921464204788208,,,,,,,,
,energy,0.9161344766616821,,,,,,,,
,"facial expression",0.9121731519699097,,,,,,,,
,game,0.9091269969940186,,,,,,,,
,ball,0.9009995460510254,,,,,,,,
,footwear,0.900600016117096,,,,,,,,
,woman,0.8972744941711426,,,,,,,,
https://scontent-sit4-1.cdninstagram.com/t51.2885-15/e35/12139587_1630330043891954_367421845_n.jpg,illustration,0.9592869281768799,,,,,,,,
,desktop,0.9569182395935059,,,,,,,,
,symbol,0.9523829817771912,,,,,,,,
,paper,0.950764536857605,,,,,,,,
,card,0.9454426765441895,,,,,,,,
,gift,0.9213500618934631,,,,,,,,
,image,0.9143550992012024,,,,,,,,
,celebration,0.9118982553482056,,,,,,,,
,birthday,0.9056328535079956,,,,,,,,
,fun,0.8955700397491455,,,,,,,,
,bag,0.8941187858581543,,,,,,,,
,box,0.8909891843795776,,,,,,,,
,color,0.8909293413162231,,,,,,,,
,child,0.8834095001220703,,,,,,,,
,design,0.8831967115402222,,,,,,,,
,toy,0.873165488243103,,,,,,,,
,shopping,0.8612684011459351,,,,,,,,
,vector,0.860946536064148,,,,,,,,
,bargain,0.8558124303817749,,,,,,,,
,money,0.8478769659996033,,,,,,,,
https://scontent-sit4-1.cdninstagram.com/t51.2885-15/s750x750/sh0.08/e35/12139579_1070772992953002_1676514674_n.jpg,car,0.999995231628418,,,,,,,,
,dashboard,0.999912679195404,,,,,,,,
,vehicle,0.999646782875061,,,,,,,,
,drive,0.9992865324020386,,,,,,,,
,guidance,0.9992142915725708,,,,,,,,
,"transportation system",0.9989132881164551,,,,,,,,
,driver,0.9987192153930664,,,,,,,,
,odometer,0.9986605644226074,,,,,,,,
,"steering wheel",0.9984337091445923,,,,,,,,
,dash,0.9980572462081909,,,,,,,,
,speedometer,0.9980529546737671,,,,,,,,
,fast,0.9957436323165894,,,,,,,,
,shift,0.991815447807312,,,,,,,,
,wheel,0.9885890483856201,,,,,,,,
,control,0.987257719039917,,,,,,,,
,speed,0.98377525806427,,,,,,,,
,gasoline,0.981501579284668,,,,,,,,
,automotive,0.9808640480041504,,,,,,,,
,power,0.9724721312522888,,,,,,,,
,airbags,0.970759391784668,,,,,,,,
https://scontent-sit4-1.cdninstagram.com/t51.2885-15/e35/12106087_982024495172447_726314453_n.jpg,woman,0.9866774678230286,,,,,,,,
,fashion,0.9538848400115967,,,,,,,,
,people,0.9484420418739319,,,,,,,,
,portrait,0.901868999004364,,,,,,,,
,adolescent,0.8991042375564575,,,,,,,,
,outdoors,0.8917797803878784,,,,,,,,
,adult,0.841275691986084,,,,,,,,
,enjoyment,0.8370082378387451,,,,,,,,
,wear,0.8353015780448914,,,,,,,,
,jewelry,0.8174757957458496,,,,,,,,
,cute,0.8072994947433472,,,,,,,,
,fun,0.8051356077194214,,,,,,,,
,summer,0.8036760687828064,,,,,,,,
,joy,0.790114164352417,,,,,,,,
,glamour,0.7893028259277344,,,,,,,,
,relaxation,0.780534565448761,,,,,,,,
,bright,0.7728047370910645,,,,,,,,
,elegant,0.7694255113601685,,,,,,,,
,pretty,0.7517756223678589,,,,,,,,
,young,0.749381422996521,,,,,,,,
https://scontent-sit4-1.cdninstagram.com/t51.2885-15/e35/12224217_854075881374835_1864185828_n.jpg,text,0.9850237369537354,,,,,,,,
,vertical,0.9782872200012207,,,,,,,,
,illustration,0.9764863848686218,,,,,,,,
,love,0.9606927633285522,,,,,,,,
,business,0.917239248752594,,,,,,,,
,romance,0.9161045551300049,,,,,,,,
,bill,0.8919143080711365,,,,,,,,
,abstract,0.8883218765258789,,,,,,,,
,label,0.8870360851287842,,,,,,,,
,paper,0.8843748569488525,,,,,,,,
,horizontal,0.869412899017334,,,,,,,,
,communication,0.8660132884979248,,,,,,,,
,symbol,0.8463473320007324,,,,,,,,
,celebration,0.8302143812179565,,,,,,,,
,design,0.8192659616470337,,,,,,,,
,shape,0.8129738569259644,,,,,,,,
,vector,0.8118267059326172,,,,,,,,
,heart,0.8068695664405823,,,,,,,,
,greeting,0.8048670291900635,,,,,,,,
,square,0.8015379905700684,,,,,,,,
https://scontent-sit4-1.cdninstagram.com/t51.2885-15/e35/11849142_1493877607576963_984147359_n.jpg,label,0.9983381032943726,,,,,,,,
,template,0.9962298274040222,,,,,,,,
,banner,0.9937872886657715,,,,,,,,
,layout,0.9915252923965454,,,,,,,,
,booklet,0.9891339540481567,,,,,,,,
,number,0.9716925621032715,,,,,,,,
,page,0.9653500318527222,,,,,,,,
,"World Wide Web",0.9562907218933105,,,,,,,,
,card,0.9480987191200256,,,,,,,,
,information,0.9400131106376648,,,,,,,,
,tag,0.9368447661399841,,,,,,,,
,presentation,0.9341473579406738,,,,,,,,
,step,0.924521803855896,,,,,,,,
,option,0.9239002466201782,,,,,,,,
,origami,0.9077706336975098,,,,,,,,
,check,0.8817938566207886,,,,,,,,
,advertising,0.8697015047073364,,,,,,,,
,order,0.8666344881057739,,,,,,,,
,"picture frame",0.8617986440658569,,,,,,,,
,menu,0.852087140083313,,,,,,,,
https://scontent-sit4-1.cdninstagram.com/t51.2885-15/e35/12135466_1664796420457535_2044398030_n.jpg,festival,0.9671894311904907,"Fashion & Beauty",Relationships,,,Ootd,Friends,,
,celebration,0.9667096734046936,,,,,,,,
,people,0.9510754346847534,,,,,,,,
,costume,0.9439833164215088,,,,,,,,
,parade,0.9427489042282104,,,,,,,,
,education,0.9362669587135315,,,,,,,,
,child,0.9336585998535156,,,,,,,,
,school,0.930733859539032,,,,,,,,
,pride,0.9098695516586304,,,,,,,,
,group,0.9083946943283081,,,,,,,,
,fun,0.9073245525360107,,,,,,,,
,wear,0.888317346572876,,,,,,,,
,ceremony,0.8577775955200195,,,,,,,,
,woman,0.8498610258102417,,,,,,,,
,family,0.8264554142951965,,,,,,,,
,university,0.8195737600326538,,,,,,,,
,party,0.8187024593353271,,,,,,,,
,street,0.8181196451187134,,,,,,,,
,mask,0.8032257556915283,,,,,,,,
,competition,0.8012847900390625,,,,,,,,
https://scontent-sit4-1.cdninstagram.com/t51.2885-15/e35/10957233_1639166749695192_222769692_n.jpg,Christmas,0.9937573671340942,,,,,,,,
,shining,0.9923373460769653,,,,,,,,
,winter,0.9885659217834473,,,,,,,,
,celebration,0.9879076480865479,,,,,,,,
,gold,0.9827428460121155,,,,,,,,
,decoration,0.9778519868850708,,,,,,,,
,luxury,0.9727319478988647,,,,,,,,
,ornate,0.9597902297973633,,,,,,,,
,love,0.9509451985359192,,,,,,,,
,sphere,0.9430631995201111,,,,,,,,
,gift,0.9398043155670166,,,,,,,,
,"no person",0.9390353560447693,,,,,,,,
,greeting,0.9324110746383667,,,,,,,,
,traditional,0.9285820126533508,,,,,,,,
,bright,0.9048166275024414,,,,,,,,
,"interior design",0.9016587734222412,,,,,,,,
,vacation,0.8853633403778076,,,,,,,,
,horizontal,0.8749815225601196,,,,,,,,
,desktop,0.8740010261535645,,,,,,,,
,romance,0.8657270073890686,,,,,,,,
https://scontent-sit4-1.cdninstagram.com/t51.2885-15/e35/12135213_1008621162493020_280023345_n.jpg,"no person",0.9792114496231079,,,,,,,,
,decoration,0.9624192714691162,,,,,,,,
,traditional,0.9621933698654175,,,,,,,,
,handmade,0.9487500190734863,,,,,,,,
,desktop,0.9441661238670349,,,,,,,,
,celebration,0.9439114332199097,,,,,,,,
,food,0.9429149627685547,,,,,,,,
,design,0.9127728343009949,,,,,,,,
,round,0.8991647958755493,,,,,,,,
,flower,0.889563798904419,,,,,,,,
,retro,0.8489866256713867,,,,,,,,
,Christmas,0.8456336259841919,,,,,,,,
,sweet,0.8402723670005798,,,,,,,,
,homemade,0.8361668586730957,,,,,,,,
,love,0.8267530202865601,,,,,,,,
,wood,0.8241723775863647,,,,,,,,
,heart,0.8226314783096313,,,,,,,,
,gift,0.8210158348083496,,,,,,,,
,set,0.8095492124557495,,,,,,,,
,art,0.8044809103012085,,,,,,,,
https://scontent-sit4-1.cdninstagram.com/t51.2885-15/e35/12145211_1044020348975800_839321300_n.jpg,fun,0.9836104512214661,,,,,,,,
,color,0.9702351093292236,,,,,,,,
,set,0.9603427648544312,,,,,,,,
,leisure,0.9561507701873779,,,,,,,,
,design,0.9555028676986694,,,,,,,,
,child,0.9483232498168945,,,,,,,,
,toy,0.9443378448486328,,,,,,,,
,game,0.9388858079910278,,,,,,,,
,play,0.9374546408653259,,,,,,,,
,desktop,0.9341374635696411,,,,,,,,
,smiley,0.9299880266189575,,,,,,,,
,ball,0.9289081692695618,,,,,,,,
,Halloween,0.9246206283569336,,,,,,,,
,bright,0.9219473600387573,,,,,,,,
,pool,0.9045825004577637,,,,,,,,
,"no person",0.8939249515533447,,,,,,,,
,candle,0.8872582912445068,,,,,,,,
,image,0.8774118423461914,,,,,,,,
,round,0.8744958639144897,,,,,,,,
,round,0.8737863302230835,,,,,,,,
https://scontent-sit4-1.cdninstagram.com/t51.2885-15/e35/10616895_1650159028565808_1746846476_n.jpg,food,0.9890727996826172,Food,,,,"Meal time",,,
,"no person",0.984343409538269,,,,,,,,
,dinner,0.9765620827674866,,,,,,,,
,lunch,0.9572131633758545,,,,,,,,
,seafood,0.9566291570663452,,,,,,,,
,meal,0.9521796703338623,,,,,,,,
,delicious,0.9457476139068604,,,,,,,,
,vegetable,0.9439414143562317,,,,,,,,
,cooking,0.9402021169662476,,,,,,,,
,garlic,0.9397741556167603,,,,,,,,
,horizontal,0.9266507625579834,,,,,,,,
,epicure,0.9108982086181641,,,,,,,,
,rustic,0.9034831523895264,,,,,,,,
,pepper,0.8981868624687195,,,,,,,,
,traditional,0.8965190052986145,,,,,,,,
,spice,0.8900220990180969,,,,,,,,
,dish,0.889794647693634,,,,,,,,
,plate,0.8861921429634094,,,,,,,,
,health,0.8839051723480225,,,,,,,,
,homemade,0.881824254989624,,,,,,,,
https://scontent-sit4-1.cdninstagram.com/t51.2885-15/s640x640/sh0.08/e35/11374450_513730418802156_1264024527_n.jpg,outdoors,0.9772588610649109,Environment,,,,"Natural beauty",,,
,nature,0.9717661142349243,,,,,,,,
,summer,0.9630287289619446,,,,,,,,
,water,0.9426474571228027,,,,,,,,
,woman,0.9358248710632324,,,,,,,,
,people,0.9158880710601807,,,,,,,,
,sky,0.9085865020751953,,,,,,,,
,grass,0.8979610204696655,,,,,,,,
,travel,0.8759270310401917,,,,,,,,
,beautiful,0.8747742772102356,,,,,,,,
,tree,0.8747694492340088,,,,,,,,
,adult,0.8519607782363892,,,,,,,,
,river,0.8432778716087341,,,,,,,,
,landscape,0.8379838466644287,,,,,,,,
,leisure,0.8306131362915039,,,,,,,,
,horizontal,0.8288041353225708,,,,,,,,
,sport,0.8204720616340637,,,,,,,,
,"fair weather",0.8127691745758057,,,,,,,,
,relaxation,0.7969736456871033,,,,,,,,
,man,0.7854431867599487,,,,,,,,
https://scontent-sit4-1.cdninstagram.com/t51.2885-15/e35/12237579_207615609570485_583589421_n.jpg,celebration,0.9686944484710693,,,,,,,,
,illustration,0.96617591381073,,,,,,,,
,fun,0.9604806900024414,,,,,,,,
,Christmas,0.9388105869293213,,,,,,,,
,party,0.9324548840522766,,,,,,,,
,desktop,0.9323365688323975,,,,,,,,
,exhilaration,0.92879718542099,,,,,,,,
,entertainment,0.9160952568054199,,,,,,,,
,light,0.9130897521972656,,,,,,,,
,illuminated,0.9030998945236206,,,,,,,,
,design,0.9022867679595947,,,,,,,,
,nightlife,0.9010263681411743,,,,,,,,
,festival,0.8963249921798706,,,,,,,,
,sky,0.8872154951095581,,,,,,,,
,vector,0.8760164976119995,,,,,,,,
,motion,0.8702925443649292,,,,,,,,
,bright,0.8573075532913208,,,,,,,,
,bill,0.8514545559883118,,,,,,,,
,circus,0.8471875190734863,,,,,,,,
,travel,0.8340754508972168,,,,,,,,
https://scontent-sit4-1.cdninstagram.com/t51.2885-15/e35/12080408_386401574879458_945357543_n.jpg,bread,0.9986729025840759,Business,,,,Work,,,
,"no person",0.9975217580795288,,,,,,,,
,breakfast,0.9971069097518921,,,,,,,,
,wheat,0.995017409324646,,,,,,,,
,baking,0.9855474233627319,,,,,,,,
,delicious,0.9840254187583923,,,,,,,,
,dough,0.982120931148529,,,,,,,,
,croissant,0.9804401993751526,,,,,,,,
,bakery,0.9775989055633545,,,,,,,,
,food,0.9680116176605225,,,,,,,,
,bun,0.9645026326179504,,,,,,,,
,butter,0.9588845372200012,,,,,,,,
,health,0.9576303362846375,,,,,,,,
,flour,0.9513300657272339,,,,,,,,
,pastry,0.9476197361946106,,,,,,,,
,merchandise,0.9476117491722107,,,,,,,,
,traditional,0.9468120336532593,,,,,,,,
,whole,0.9435317516326904,,,,,,,,
,wood,0.9427545070648193,,,,,,,,
,nutrition,0.9408416748046875,,,,,,,,
https://scontent-sit4-1.cdninstagram.com/t51.2885-15/e35/12107653_775646052557434_1468769352_n.jpg,illustration,0.9700075387954712,Food,,,,Dessert,,,
,indulgence,0.965535581111908,,,,,,,,
,celebration,0.9555971026420593,,,,,,,,
,candle,0.9539223313331604,,,,,,,,
,vector,0.9509820938110352,,,,,,,,
,chocolate,0.944956362247467,,,,,,,,
,party,0.9305229187011719,,,,,,,,
,vertical,0.920486330986023,,,,,,,,
,square,0.912402868270874,,,,,,,,
,decoration,0.9047200679779053,,,,,,,,
,cake,0.9019007682800293,,,,,,,,
,candy,0.8710034489631653,,,,,,,,
,Christmas,0.8513098955154419,,,,,,,,
,horizontal,0.8384200930595398,,,,,,,,
,text,0.8381882905960083,,,,,,,,
,indoors,0.8187886476516724,,,,,,,,
,bill,0.7641527652740479,,,,,,,,
,design,0.7631467580795288,,,,,,,,
,birthday,0.7597715854644775,,,,,,,,
,"greeting card",0.7597565650939941,,,,,,,,
https://scontent-sit4-1.cdninstagram.com/t51.2885-15/e35/12145581_1517158645268747_335970655_n.jpg,gold,0.9758881330490112,,,,,,,,
,"no person",0.9687246084213257,,,,,,,,
,theater,0.9661442041397095,,,,,,,,
,movie,0.9627857804298401,,,,,,,,
,retro,0.9505716562271118,,,,,,,,
,celebration,0.9298957586288452,,,,,,,,
,decoration,0.9288610816001892,,,,,,,,
,luxury,0.9114214181900024,,,,,,,,
,vintage,0.909928023815155,,,,,,,,
,classic,0.9034404754638672,,,,,,,,
,performance,0.8982166647911072,,,,,,,,
,symbol,0.897750198841095,,,,,,,,
,music,0.8916189670562744,,,,,,,,
,award,0.8904900550842285,,,,,,,,
,travel,0.8884716033935547,,,,,,,,
,festival,0.8860759139060974,,,,,,,,
,imperial,0.8834053874015808,,,,,,,,
,entertainment,0.878940761089325,,,,,,,,
,royalty,0.8776504993438721,,,,,,,,
,marquee,0.8775949478149414,,,,,,,,
https://scontent-sit4-1.cdninstagram.com/t51.2885-15/e35/11939313_956924681049081_312399861_n.jpg,people,0.9866973757743835,,,,,,,,
,festival,0.9701322317123413,,,,,,,,
,stock,0.9492194652557373,,,,,,,,
,city,0.9483799934387207,,,,,,,,
,market,0.9464528560638428,,,,,,,,
,food,0.9433600306510925,,,,,,,,
,child,0.9264342784881592,,,,,,,,
,balloon,0.9204752445220947,,,,,,,,
,street,0.9183124303817749,,,,,,,,
,commerce,0.903443455696106,,,,,,,,
,exhibition,0.8991189002990723,,,,,,,,
,adult,0.8926153182983398,,,,,,,,
,shopping,0.8887776732444763,,,,,,,,
,toy,0.8679825067520142,,,,,,,,
,many,0.8601571321487427,,,,,,,,
,tourist,0.859734058380127,,,,,,,,
,business,0.8555673360824585,,,,,,,,
,landscape,0.8495379686355591,,,,,,,,
,tourism,0.8459320068359375,,,,,,,,
,fun,0.8416870832443237,,,,,,,,
https://scontent-sit4-1.cdninstagram.com/t51.2885-15/e35/12716515_194107257614659_221654315_n.jpg,woman,0.9605988264083862,,,,,,,,
,people,0.9603263735771179,,,,,,,,
,adult,0.9552804231643677,,,,,,,,
,illustration,0.9508221745491028,,,,,,,,
,child,0.9159828424453735,,,,,,,,
,happiness,0.8943867683410645,,,,,,,,
,vector,0.8937860727310181,,,,,,,,
,fun,0.878576397895813,,,,,,,,
,desktop,0.8322498798370361,,,,,,,,
,girl,0.8271719217300415,,,,,,,,
,cute,0.8231611251831055,,,,,,,,
,portrait,0.8210768699645996,,,,,,,,
,cheerful,0.8140279650688171,,,,,,,,
,text,0.800464391708374,,,,,,,,
,young,0.7951527237892151,,,,,,,,
,outdoors,0.7812262773513794,,,,,,,,
,fashion,0.777129054069519,,,,,,,,
,shopping,0.7762405872344971,,,,,,,,
,summer,0.7600027918815613,,,,,,,,
,joy,0.7509747743606567,,,,,,,,
https://scontent-sit4-1.cdninstagram.com/t51.2885-15/s750x750/sh0.08/e35/11950724_1503921759905927_1220431204_n.jpg,text,0.9835205078125,,,,,,,,
,business,0.9744033813476562,,,,,,,,
,label,0.9472087621688843,,,,,,,,
,bill,0.9432159662246704,,,,,,,,
,"World Wide Web",0.9308983087539673,,,,,,,,
,"no person",0.9287823438644409,,,,,,,,
,identity,0.9164751768112183,,,,,,,,
,banner,0.9119045734405518,,,,,,,,
,tag,0.902857780456543,,,,,,,,
,data,0.8887138366699219,,,,,,,,
,presentation,0.8843424320220947,,,,,,,,
,logo,0.8603323698043823,,,,,,,,
,information,0.8553573489189148,,,,,,,,
,conceptual,0.8491925001144409,,,,,,,,
,sign,0.8448115587234497,,,,,,,,
,internet,0.8414545059204102,,,,,,,,
,page,0.8372724056243896,,,,,,,,
,template,0.8362866044044495,,,,,,,,
,card,0.8349332809448242,,,,,,,,
,communication,0.8229825496673584,,,,,,,,
https://scontent-sit4-1.cdninstagram.com/t51.2885-15/e35/12142205_1064127840264013_848492090_n.jpg,people,0.9967288970947266,"My life",,,,Selfie,,,
,one,0.9896830320358276,,,,,,,,
,adult,0.9847438335418701,,,,,,,,
,theater,0.9777253866195679,,,,,,,,
,festival,0.9776340126991272,,,,,,,,
,theater,0.9768475890159607,,,,,,,,
,portrait,0.9767507314682007,,,,,,,,
,food,0.9697229862213135,,,,,,,,
,"facial expression",0.9662249088287354,,,,,,,,
,woman,0.9660739898681641,,,,,,,,
,man,0.9647515416145325,,,,,,,,
,mask,0.9603391885757446,,,,,,,,
,indoors,0.959315299987793,,,,,,,,
,face,0.9481226205825806,,,,,,,,
,calamity,0.9479424357414246,,,,,,,,
,wear,0.9324966669082642,,,,,,,,
,lid,0.9224511384963989,,,,,,,,
,mask,0.9220758676528931,,,,,,,,
,fun,0.9167826175689697,,,,,,,,
,play,0.9102621078491211,,,,,,,,
https://scontent-sit4-1.cdninstagram.com/t51.2885-15/e35/11351758_1673789492863234_838397839_n.jpg,"no person",0.9966058731079102,Food,,,,Dessert,,,
,health,0.9792212247848511,,,,,,,,
,delicious,0.9762651324272156,,,,,,,,
,blueberry,0.9678306579589844,,,,,,,,
,fruit,0.9641883373260498,,,,,,,,
,food,0.959606409072876,,,,,,,,
,cream,0.9472253322601318,,,,,,,,
,berry,0.9455075263977051,,,,,,,,
,summer,0.9381515979766846,,,,,,,,
,ingredients,0.9335798025131226,,,,,,,,
,leaf,0.927335262298584,,,,,,,,
,nutrition,0.9271126985549927,,,,,,,,
,wood,0.9214774370193481,,,,,,,,
,breakfast,0.9142910242080688,,,,,,,,
,indoors,0.9115375280380249,,,,,,,,
,yogurt,0.8808144927024841,,,,,,,,
,creamy,0.8697443008422852,,,,,,,,
,sweet,0.864729642868042,,,,,,,,
,rustic,0.8594818115234375,,,,,,,,
,traditional,0.8590692281723022,,,,,,,,
https://scontent-sit4-1.cdninstagram.com/t51.2885-15/e35/11311611_428273450711514_2037531715_n.jpg,desktop,0.94346022605896,,,,,,,,
,money,0.9289315938949585,,,,,,,,
,business,0.9201040267944336,,,,,,,,
,"no person",0.8847134709358215,,,,,,,,
,success,0.8748385906219482,,,,,,,,
,finance,0.874579668045044,,,,,,,,
,food,0.8680349588394165,,,,,,,,
,bank,0.8667307496070862,,,,,,,,
,financial,0.8651130199432373,,,,,,,,
,shopping,0.8611747026443481,,,,,,,,
,color,0.8580746650695801,,,,,,,,
,wood,0.8478789329528809,,,,,,,,
,celebration,0.8351966142654419,,,,,,,,
,finance,0.8351815342903137,,,,,,,,
,wooden,0.8311979174613953,,,,,,,,
,cash,0.8284772634506226,,,,,,,,
,commerce,0.8235305547714233,,,,,,,,
,symbol,0.8219144940376282,,,,,,,,
,love,0.8065798878669739,,,,,,,,
,economy,0.803790807723999,,,,,,,,
https://scontent-sit4-1.cdninstagram.com/t51.2885-15/s750x750/sh0.08/e35/11850131_930340167040977_1751629296_n.jpg,people,0.9906212091445923,Relationships,,,,Friends,,,
,child,0.9804182052612305,,,,,,,,
,group,0.9718844890594482,,,,,,,,
,family,0.9680129289627075,,,,,,,,
,celebration,0.9634695649147034,,,,,,,,
,many,0.9584322571754456,,,,,,,,
,festival,0.9472309350967407,,,,,,,,
,religion,0.9162439703941345,,,,,,,,
,portrait,0.8985532522201538,,,,,,,,
,street,0.8606173992156982,,,,,,,,
,lantern,0.8593858480453491,,,,,,,,
,man,0.8410100936889648,,,,,,,,
,outdoors,0.8409278988838196,,,,,,,,
,wear,0.8367165327072144,,,,,,,,
,woman,0.8337576389312744,,,,,,,,
,adult,0.8202381730079651,,,,,,,,
,love,0.8027925491333008,,,,,,,,
,fun,0.7916013598442078,,,,,,,,
,group,0.787749171257019,,,,,,,,
,enjoyment,0.7868053317070007,,,,,,,,
https://scontent-sit4-1.cdninstagram.com/t51.2885-15/e35/12107527_103399383352523_578666890_n.jpg,time,0.9974669814109802,,,,,,,,
,"no person",0.9958566427230835,,,,,,,,
,clock,0.9804325103759766,,,,,,,,
,watch,0.9571592807769775,,,,,,,,
,antique,0.9507154226303101,,,,,,,,
,classic,0.9369420409202576,,,,,,,,
,wristwatch,0.936852753162384,,,,,,,,
,luxury,0.9314886927604675,,,,,,,,
,minute,0.9297945499420166,,,,,,,,
,elegant,0.9288341999053955,,,,,,,,
,precision,0.9277933835983276,,,,,,,,
,retro,0.9122970104217529,,,,,,,,
,outdoors,0.9029988646507263,,,,,,,,
,business,0.9026698470115662,,,,,,,,
,late,0.8980741500854492,,,,,,,,
,old,0.8915669918060303,,,,,,,,
,timer,0.8886114358901978,,,,,,,,
,nostalgia,0.885377049446106,,,,,,,,
,machinery,0.8751993775367737,,,,,,,,
,pressure,0.8560413122177124,,,,,,,,
https://scontent-sit4-1.cdninstagram.com/t51.2885-15/e35/12338931_915360235210388_709260160_n.jpg,"no person",0.9480490684509277,,,,,,,,
,luxury,0.9203285574913025,,,,,,,,
,gold,0.9154182076454163,,,,,,,,
,business,0.9120063781738281,,,,,,,,
,wealth,0.9006073474884033,,,,,,,,
,isolated,0.8592857718467712,,,,,,,,
,paper,0.8525457382202148,,,,,,,,
,desktop,0.8491957187652588,,,,,,,,
,symbol,0.8471283912658691,,,,,,,,
,savings,0.8351437449455261,,,,,,,,
,money,0.8346861600875854,,,,,,,,
,finance,0.8091339468955994,,,,,,,,
,health,0.7982205152511597,,,,,,,,
,money,0.775871753692627,,,,,,,,
,success,0.7668086290359497,,,,,,,,
,isolated,0.7521861791610718,,,,,,,,
,soap,0.699505090713501,,,,,,,,
,Christmas,0.6836918592453003,,,,,,,,
,medicine,0.676551103591919,,,,,,,,
,bottle,0.6592493653297424,,,,,,,,
https://scontent-sit4-1.cdninstagram.com/l/t51.2885-15/sh0.08/e35/p750x750/11265029_1668556333361740_267515621_n.jpg,candle,0.9802792072296143,,,,,,,,
,illustration,0.9534755945205688,,,,,,,,
,"no person",0.9482538104057312,,,,,,,,
,birthday,0.9420946836471558,,,,,,,,
,vector,0.9420298337936401,,,,,,,,
,cake,0.935343861579895,,,,,,,,
,vertical,0.9129750728607178,,,,,,,,
,horizontal,0.8902182579040527,,,,,,,,
,celebration,0.8862819671630859,,,,,,,,
,indoors,0.8355680704116821,,,,,,,,
,collage,0.8309030532836914,,,,,,,,
,paper,0.8256071209907532,,,,,,,,
,decoration,0.8218874931335449,,,,,,,,
,desktop,0.8070185780525208,,,,,,,,
,set,0.7968433499336243,,,,,,,,
,design,0.7918728590011597,,,,,,,,
,square,0.7716556787490845,,,,,,,,
,Christmas,0.7680892944335938,,,,,,,,
,card,0.7499715685844421,,,,,,,,
,symbol,0.7463107109069824,,,,,,,,
https://scontent-sit4-1.cdninstagram.com/t51.2885-15/e35/12292853_636296683140566_1532710781_n.jpg,people,0.9897825717926025,,,,,,,,
,vehicle,0.9784416556358337,,,,,,,,
,festival,0.9752477407455444,,,,,,,,
,street,0.9427672624588013,,,,,,,,
,competition,0.9369091987609863,,,,,,,,
,group,0.9236010313034058,,,,,,,,
,city,0.9208415150642395,,,,,,,,
,exhibition,0.9048824310302734,,,,,,,,
,carnival,0.9042987823486328,,,,,,,,
,celebration,0.9010975956916809,,,,,,,,
,road,0.8923706412315369,,,,,,,,
,rally,0.8858773708343506,,,,,,,,
,many,0.8822021484375,,,,,,,,
,parade,0.8789865970611572,,,,,,,,
,fun,0.8624279499053955,,,,,,,,
,man,0.8484678268432617,,,,,,,,
,tourist,0.8338444232940674,,,,,,,,
,action,0.8315618634223938,,,,,,,,
,group,0.8312808275222778,,,,,,,,
,car,0.8224005699157715,,,,,,,,
https://scontent-sit4-1.cdninstagram.com/t51.2885-15/e35/12145239_881187285291823_970595951_n.jpg,vertical,0.9863473176956177,,,,,,,,
,indoors,0.9568590521812439,,,,,,,,
,square,0.9567348957061768,,,,,,,,
,horizontal,0.9440439343452454,,,,,,,,
,food,0.9415475130081177,,,,,,,,
,biology,0.9403204321861267,,,,,,,,
,illustration,0.9391818046569824,,,,,,,,
,anatomy,0.912872314453125,,,,,,,,
,people,0.8585957288742065,,,,,,,,
,pattern,0.8342206478118896,,,,,,,,
,decoration,0.8340975642204285,,,,,,,,
,animal,0.8261121511459351,,,,,,,,
,indulgence,0.8076198101043701,,,,,,,,
,sweet,0.8025941848754883,,,,,,,,
,science,0.789065420627594,,,,,,,,
,design,0.7840277552604675,,,,,,,,
,woman,0.7755427360534668,,,,,,,,
,shape,0.7712939977645874,,,,,,,,
,bakery,0.768324613571167,,,,,,,,
,symbol,0.7647318840026855,,,,,,,,
https://scontent-sit4-1.cdninstagram.com/t51.2885-15/e35/12105206_991447720927510_641796650_n.jpg,child,0.9956672191619873,Relationships,,,,Friends,,,
,group,0.9942973256111145,,,,,,,,
,people,0.9909660220146179,,,,,,,,
,family,0.9792205095291138,,,,,,,,
,group,0.9571770429611206,,,,,,,,
,many,0.9544351100921631,,,,,,,,
,offspring,0.9484385251998901,,,,,,,,
,woman,0.9455951452255249,,,,,,,,
,portrait,0.9333860874176025,,,,,,,,
,wear,0.9293712377548218,,,,,,,,
,adult,0.9258381128311157,,,,,,,,
,education,0.9242629408836365,,,,,,,,
,daylight,0.9229674339294434,,,,,,,,
,man,0.9207642078399658,,,,,,,,
,school,0.9139754772186279,,,,,,,,
,enjoyment,0.9082066416740417,,,,,,,,
,sibling,0.900068998336792,,,,,,,,
,"facial expression",0.89024418592453,,,,,,,,
,boy,0.885525107383728,,,,,,,,
,festival,0.8750932812690735,,,,,,,,
https://scontent-sit4-1.cdninstagram.com/t51.2885-15/e35/13473247_244106672640271_105724732_n.jpg,food,0.990868091583252,"My life",Food,,,Selfie,"Meal time",,
,indoors,0.9661118984222412,,,,,,,,
,people,0.9587712287902832,,,,,,,,
,child,0.9515851736068726,,,,,,,,
,corn,0.9497915506362915,,,,,,,,
,delicious,0.9338451027870178,,,,,,,,
,nutrition,0.9319344162940979,,,,,,,,
,breakfast,0.92352294921875,,,,,,,,
,milk,0.9231932163238525,,,,,,,,
,woman,0.9212461709976196,,,,,,,,
,sugar,0.9119783639907837,,,,,,,,
,meal,0.9108626842498779,,,,,,,,
,traditional,0.908507227897644,,,,,,,,
,sweet,0.9029217958450317,,,,,,,,
,vertical,0.9000481367111206,,,,,,,,
,health,0.8910790681838989,,,,,,,,
,popcorn,0.8856031894683838,,,,,,,,
,family,0.8853753805160522,,,,,,,,
,"no person",0.8790234923362732,,,,,,,,
,refreshment,0.8605352640151978,,,,,,,,
https://scontent-sit4-1.cdninstagram.com/t51.2885-15/e35/12093314_445150612344019_1022859149_n.jpg,underwater,0.9983925819396973,,,,,,,,
,fish,0.9926241636276245,,,,,,,,
,water,0.9893283843994141,,,,,,,,
,swimming,0.9806922674179077,,,,,,,,
,submarine,0.9616401195526123,,,,,,,,
,school,0.9608970284461975,,,,,,,,
,sea,0.953860878944397,,,,,,,,
,exploration,0.9407036304473877,,,,,,,,
,school,0.9383445978164673,,,,,,,,
,aquatic,0.9343932271003723,,,,,,,,
,coral,0.9267609715461731,,,,,,,,
,tropical,0.9064909815788269,,,,,,,,
,outdoors,0.891716480255127,,,,,,,,
,horizontal,0.8699505925178528,,,,,,,,
,nature,0.8606696724891663,,,,,,,,
,reef,0.8594865798950195,,,,,,,,
,vertical,0.8549054861068726,,,,,,,,
,travel,0.833946704864502,,,,,,,,
,education,0.8194785118103027,,,,,,,,
,illustration,0.8155325651168823,,,,,,,,
https://scontent-sit4-1.cdninstagram.com/t51.2885-15/e35/11925759_1205633906119301_1550652499_n.jpg,nightlife,0.9948644638061523,Relationships,,,,Friends,,,
,celebration,0.9930353164672852,,,,,,,,
,club,0.9917082786560059,,,,,,,,
,party,0.9857478737831116,,,,,,,,
,dancing,0.9673748016357422,,,,,,,,
,woman,0.9582316279411316,,,,,,,,
,vertical,0.949370265007019,,,,,,,,
,people,0.947806715965271,,,,,,,,
,adult,0.9403266906738281,,,,,,,,
,music,0.9324173927307129,,,,,,,,
,dark,0.9264631271362305,,,,,,,,
,fashion,0.9122908115386963,,,,,,,,
,Christmas,0.9002909064292908,,,,,,,,
,portrait,0.8999166488647461,,,,,,,,
,fun,0.891323447227478,,,,,,,,
,indoors,0.8874669075012207,,,,,,,,
,glamour,0.8865640759468079,,,,,,,,
,illuminated,0.8865468502044678,,,,,,,,
,enjoyment,0.8828270435333252,,,,,,,,
,shining,0.8538459539413452,,,,,,,,
https://scontent-sit4-1.cdninstagram.com/t51.2885-15/e35/11950625_146333499052474_17742862_n.jpg,pattern,0.972598135471344,,,,,,,,
,design,0.9631392955780029,,,,,,,,
,decoration,0.9614163637161255,,,,,,,,
,flower,0.9473316669464111,,,,,,,,
,art,0.9321810007095337,,,,,,,,
,ornate,0.9269005060195923,,,,,,,,
,round,0.9167040586471558,,,,,,,,
,desktop,0.9094823002815247,,,,,,,,
,handmade,0.909216046333313,,,,,,,,
,ceramic,0.9079105854034424,,,,,,,,
,"no person",0.8933095932006836,,,,,,,,
,craft,0.8848326206207275,,,,,,,,
,abstract,0.8727443218231201,,,,,,,,
,nature,0.8662399053573608,,,,,,,,
,traditional,0.859479546546936,,,,,,,,
,style,0.8553516864776611,,,,,,,,
,wood,0.8505654335021973,,,,,,,,
,shape,0.8496347665786743,,,,,,,,
,summer,0.8473149538040161,,,,,,,,
,ceramic,0.8433842658996582,,,,,,,,
https://scontent-sit4-1.cdninstagram.com/t51.2885-15/e35/11899664_918013491579875_1639434032_n.jpg,label,0.9941235184669495,,,,,,,,
,template,0.9938104152679443,,,,,,,,
,set,0.9907145500183105,,,,,,,,
,card,0.9893222451210022,,,,,,,,
,banner,0.9784966707229614,,,,,,,,
,collection,0.9754526019096375,,,,,,,,
,vintage,0.9443241357803345,,,,,,,,
,"picture frame",0.9379847645759583,,,,,,,,
,sign,0.9332334995269775,,,,,,,,
,layout,0.9281811118125916,,,,,,,,
,number,0.9244024157524109,,,,,,,,
,presentation,0.9170268774032593,,,,,,,,
,vector,0.908539891242981,,,,,,,,
,stripe,0.9004694223403931,,,,,,,,
,retro,0.8716545701026917,,,,,,,,
,design,0.8644282221794128,,,,,,,,
,illustration,0.8629074096679688,,,,,,,,
,"no person",0.8601043224334717,,,,,,,,
,paper,0.8516116142272949,,,,,,,,
,navigation,0.8454231023788452,,,,,,,,
https://scontent-sit4-1.cdninstagram.com/t51.2885-15/e35/12298938_201456116855480_1333092875_n.jpg,people,0.9768581986427307,,,,,,,,
,painting,0.9367942810058594,,,,,,,,
,woman,0.9304258823394775,,,,,,,,
,man,0.9278918504714966,,,,,,,,
,indoors,0.9210423827171326,,,,,,,,
,exhibition,0.9107977151870728,,,,,,,,
,adult,0.9100648164749146,,,,,,,,
,group,0.9013781547546387,,,,,,,,
,recreation,0.8996232151985168,,,,,,,,
,museum,0.8985649943351746,,,,,,,,
,business,0.8928500413894653,,,,,,,,
,one,0.891842246055603,,,,,,,,
,wear,0.8780062198638916,,,,,,,,
,"no person",0.8706880211830139,,,,,,,,
,fashion,0.8515336513519287,,,,,,,,
,portrait,0.8485262989997864,,,,,,,,
,food,0.847959578037262,,,,,,,,
,art,0.8195481300354004,,,,,,,,
,two,0.8135570883750916,,,,,,,,
,retro,0.8031919002532959,,,,,,,,
