url,class,score,,,,,,,,
https://scontent-sit4-1.cdninstagram.com/t51.2885-15/s480x480/e35/13712726_159765164430775_1441414516_n.jpg,people,0.9659563302993774,Commerce,,,,Promotions,,,
,text,0.9572130441665649,,,,,,,,
,paper,0.9088946580886841,,,,,,,,
,adult,0.8874443769454956,,,,,,,,
,education,0.8597921133041382,,,,,,,,
,desktop,0.8376227617263794,,,,,,,,
,old,0.8355873823165894,,,,,,,,
,paper,0.8248579502105713,,,,,,,,
,document,0.8050580024719238,,,,,,,,
,business,0.7974021434783936,,,,,,,,
,horizontal,0.7882041931152344,,,,,,,,
,outdoors,0.7802900075912476,,,,,,,,
,landscape,0.7787598371505737,,,,,,,,
,wall,0.7659167051315308,,,,,,,,
,communication,0.753987193107605,,,,,,,,
,guidance,0.7518606185913086,,,,,,,,
,symbol,0.7440183758735657,,,,,,,,
,nature,0.7388467788696289,,,,,,,,
,city,0.738727331161499,,,,,,,,
,man,0.7350009083747864,,,,,,,,
https://scontent-sit4-1.cdninstagram.com/t51.2885-15/e35/13774652_1771089099829082_1690806444_n.jpg,woman,0.9806176424026489,Commerce,,,,Promotions,,,
,business,0.960074782371521,,,,,,,,
,people,0.9363733530044556,,,,,,,,
,paper,0.9256070852279663,,,,,,,,
,adult,0.9130173921585083,,,,,,,,
,indoors,0.8840490579605103,,,,,,,,
,sign,0.882491946220398,,,,,,,,
,young,0.8623976707458496,,,,,,,,
,portrait,0.8600096106529236,,,,,,,,
,technology,0.841245710849762,,,,,,,,
,girl,0.8196048736572266,,,,,,,,
,internet,0.8092102408409119,,,,,,,,
,blank,0.7969886064529419,,,,,,,,
,one,0.7949916124343872,,,,,,,,
,pretty,0.7868425846099854,,,,,,,,
,bill,0.7750323414802551,,,,,,,,
,fashion,0.7747609615325928,,,,,,,,
,looking,0.7742089033126831,,,,,,,,
,computer,0.7478882074356079,,,,,,,,
,presentation,0.7036618590354919,,,,,,,,
https://scontent-sit4-1.cdninstagram.com/t51.2885-15/s640x640/sh0.08/e35/13651854_297415510599574_2093362446_n.jpg,people,0.9963972568511963,Relationships,,,,"Best friends",,,
,actress,0.9785478115081787,,,,,,,,
,movie,0.9742579460144043,,,,,,,,
,wear,0.9721584320068359,,,,,,,,
,portrait,0.9628458619117737,,,,,,,,
,adult,0.9625362157821655,,,,,,,,
,two,0.957154393196106,,,,,,,,
,woman,0.9525253176689148,,,,,,,,
,theater,0.9485445022583008,,,,,,,,
,man,0.9389455914497375,,,,,,,,
,music,0.9240385293960571,,,,,,,,
,lid,0.9182602167129517,,,,,,,,
,musician,0.9131990671157837,,,,,,,,
,retro,0.9096560478210449,,,,,,,,
,recreation,0.9037860035896301,,,,,,,,
,"facial expression",0.9005840420722961,,,,,,,,
,actor,0.894105076789856,,,,,,,,
,singer,0.8638808727264404,,,,,,,,
,veil,0.8210857510566711,,,,,,,,
,necklace,0.7792763113975525,,,,,,,,
https://scontent-sit4-1.cdninstagram.com/t51.2885-15/e35/13694507_1239318762765120_2011870526_n.jpg,woman,0.9978992938995361,Commerce,,,,Promotions,,,
,fashion,0.9808062314987183,,,,,,,,
,luggage,0.965330958366394,,,,,,,,
,pretty,0.9618241786956787,,,,,,,,
,young,0.9460733532905579,,,,,,,,
,glamour,0.9454138278961182,,,,,,,,
,isolated,0.9349654316902161,,,,,,,,
,sexy,0.9283223152160645,,,,,,,,
,girl,0.9271279573440552,,,,,,,,
,cute,0.9253088235855103,,,,,,,,
,elegant,0.9015946388244629,,,,,,,,
,casual,0.8956527709960938,,,,,,,,
,contemporary,0.8682748079299927,,,,,,,,
,retro,0.867586612701416,,,,,,,,
,adolescent,0.8577973246574402,,,,,,,,
,looking,0.8384400606155396,,,,,,,,
,figure,0.8150752186775208,,,,,,,,
,joy,0.7968118786811829,,,,,,,,
,portrait,0.7847168445587158,,,,,,,,
,bag,0.7840617895126343,,,,,,,,
https://scontent-sit4-1.cdninstagram.com/t51.2885-15/e35/13628134_1036467873104448_298909592_n.jpg,illustration,0.9940963983535767,Commerce,,,,Promotions,,,
,vector,0.9734147787094116,,,,,,,,
,business,0.9706195592880249,,,,,,,,
,text,0.956760048866272,,,,,,,,
,label,0.9540113806724548,,,,,,,,
,vector,0.9477136135101318,,,,,,,,
,sale,0.9464468955993652,,,,,,,,
,promotion,0.9440689086914062,,,,,,,,
,design,0.9425578117370605,,,,,,,,
,symbol,0.9384077787399292,,,,,,,,
,sign,0.9378619194030762,,,,,,,,
,stock,0.9308652877807617,,,,,,,,
,bill,0.919331431388855,,,,,,,,
,paper,0.9133813977241516,,,,,,,,
,banner,0.9062596559524536,,,,,,,,
,price,0.9017201662063599,,,,,,,,
,image,0.900983989238739,,,,,,,,
,abstract,0.9003838300704956,,,,,,,,
,tag,0.8916766047477722,,,,,,,,
,design,0.8903729915618896,,,,,,,,
https://scontent-sit4-1.cdninstagram.com/t51.2885-15/e35/13736071_1771132073101013_1527955751_n.jpg,movie,0.9920452833175659,Relationships,,,,"Young family",,,
,recreation,0.9914307594299316,,,,,,,,
,wear,0.9868457317352295,,,,,,,,
,actress,0.9858936071395874,,,,,,,,
,television,0.9801731109619141,,,,,,,,
,people,0.9778879880905151,,,,,,,,
,music,0.9776292443275452,,,,,,,,
,festival,0.9738725423812866,,,,,,,,
,portrait,0.9656472206115723,,,,,,,,
,fashion,0.9630874991416931,,,,,,,,
,"red carpet",0.9567919373512268,,,,,,,,
,cinema,0.9554740190505981,,,,,,,,
,musician,0.9505887031555176,,,,,,,,
,adult,0.9453942775726318,,,,,,,,
,"film festival",0.9412535429000854,,,,,,,,
,exhibition,0.9399603605270386,,,,,,,,
,woman,0.9318772554397583,,,,,,,,
,business,0.9300123453140259,,,,,,,,
,actor,0.9146191477775574,,,,,,,,
,singer,0.9143333435058594,,,,,,,,
https://scontent-sit4-1.cdninstagram.com/t51.2885-15/e35/13703182_1547253565582698_1109605651_n.jpg,"facial expression",0.9923691749572754,Relationships,,,,"Best friends",,,
,people,0.9896866083145142,,,,,,,,
,portrait,0.9843206405639648,,,,,,,,
,indoors,0.9793301820755005,,,,,,,,
,woman,0.978891134262085,,,,,,,,
,man,0.9728332757949829,,,,,,,,
,adult,0.9720370769500732,,,,,,,,
,group,0.9659191370010376,,,,,,,,
,two,0.961197018623352,,,,,,,,
,three,0.9604038000106812,,,,,,,,
,child,0.9363393783569336,,,,,,,,
,wear,0.9322396516799927,,,,,,,,
,family,0.9200433492660522,,,,,,,,
,togetherness,0.9149595499038696,,,,,,,,
,interaction,0.9099324941635132,,,,,,,,
,room,0.8918225169181824,,,,,,,,
,administration,0.8910831212997437,,,,,,,,
,enjoyment,0.8871477842330933,,,,,,,,
,four,0.8696466088294983,,,,,,,,
,stock,0.8671438694000244,,,,,,,,
https://scontent-sit4-1.cdninstagram.com/t51.2885-15/e35/13736914_1159117844111779_1179770411_n.jpg,isolated,0.9958699941635132,Commerce,,,,"Product/brand shots",,,
,shining,0.9944813251495361,,,,,,,,
,leather,0.9846383333206177,,,,,,,,
,glamour,0.9813270568847656,,,,,,,,
,fashion,0.980067253112793,,,,,,,,
,shopping,0.9757803082466125,,,,,,,,
,elegant,0.9731090068817139,,,,,,,,
,"no person",0.9638909101486206,,,,,,,,
,luxury,0.9557603597640991,,,,,,,,
,bag,0.9540098309516907,,,,,,,,
,purse,0.9480026960372925,,,,,,,,
,buckle,0.947973370552063,,,,,,,,
,woman,0.9349792003631592,,,,,,,,
,accessory,0.9274448752403259,,,,,,,,
,modern,0.926019549369812,,,,,,,,
,shop,0.9255273938179016,,,,,,,,
,style,0.889533281326294,,,,,,,,
,cutout,0.8859974145889282,,,,,,,,
,handle,0.8857054114341736,,,,,,,,
,strap,0.8708159327507019,,,,,,,,
https://scontent-sit4-1.cdninstagram.com/t51.2885-15/e35/13827214_897364463722474_1369722921_n.jpg,business,0.9726239442825317,Commerce,,,,Promotions,,,
,briefcase,0.923975944519043,,,,,,,,
,luggage,0.9169865846633911,,,,,,,,
,horizontal,0.912642240524292,,,,,,,,
,paper,0.8989744186401367,,,,,,,,
,illustration,0.8988674879074097,,,,,,,,
,technology,0.8865315318107605,,,,,,,,
,box,0.8838821649551392,,,,,,,,
,vertical,0.8813619017601013,,,,,,,,
,symbol,0.8670394420623779,,,,,,,,
,communication,0.8613665103912354,,,,,,,,
,data,0.8581786155700684,,,,,,,,
,modern,0.8459204435348511,,,,,,,,
,bag,0.8336105346679688,,,,,,,,
,organization,0.8308717012405396,,,,,,,,
,lock,0.8220775127410889,,,,,,,,
,office,0.817986011505127,,,,,,,,
,design,0.8169839978218079,,,,,,,,
,security,0.8106656074523926,,,,,,,,
,finance,0.8071051239967346,,,,,,,,
https://scontent-sit4-1.cdninstagram.com/t51.2885-15/e35/13768132_601166746728813_1415718824_n.jpg,illustration,0.9937858581542969,Commerce,,,,Promotions,,,
,business,0.9735640287399292,,,,,,,,
,vector,0.9719476699829102,,,,,,,,
,text,0.9640244245529175,,,,,,,,
,sale,0.9544991254806519,,,,,,,,
,stock,0.9533448219299316,,,,,,,,
,sign,0.9382606744766235,,,,,,,,
,label,0.9356555938720703,,,,,,,,
,bill,0.9335065484046936,,,,,,,,
,design,0.9331086277961731,,,,,,,,
,symbol,0.930172324180603,,,,,,,,
,vector,0.927009105682373,,,,,,,,
,clearance,0.9224593639373779,,,,,,,,
,paper,0.9207826852798462,,,,,,,,
,promotion,0.9024454951286316,,,,,,,,
,merchandise,0.8898016214370728,,,,,,,,
,price,0.8888475894927979,,,,,,,,
,image,0.8855718970298767,,,,,,,,
,shape,0.8754860162734985,,,,,,,,
,retail,0.8678030967712402,,,,,,,,
https://scontent-sit4-1.cdninstagram.com/t51.2885-15/e35/13694962_279731675721835_1732513180_n.jpg,illustration,0.9768180847167969,Commerce,,,,Promotions,,,
,vector,0.9767496585845947,,,,,,,,
,child,0.9643328189849854,,,,,,,,
,"no person",0.9553183317184448,,,,,,,,
,design,0.8969258069992065,,,,,,,,
,bottle,0.8832619190216064,,,,,,,,
,decoration,0.8820788860321045,,,,,,,,
,flower,0.8601057529449463,,,,,,,,
,gift,0.8430955410003662,,,,,,,,
,horizontal,0.8350552320480347,,,,,,,,
,indoors,0.8270161747932434,,,,,,,,
,woman,0.8095754384994507,,,,,,,,
,celebration,0.8053094744682312,,,,,,,,
,sketch,0.7990256547927856,,,,,,,,
,cute,0.7983366250991821,,,,,,,,
,fun,0.7945724725723267,,,,,,,,
,family,0.787783682346344,,,,,,,,
,sit,0.7834244966506958,,,,,,,,
,candle,0.7729697227478027,,,,,,,,
,baby,0.7624200582504272,,,,,,,,
https://scontent-sit4-1.cdninstagram.com/t51.2885-15/e35/13694913_1143421339043620_2118117115_n.jpg,sweet,0.99005126953125,Food,,,,Dessert,,,
,cake,0.9784128069877625,,,,,,,,
,"no person",0.9693065881729126,,,,,,,,
,sugar,0.965492308139801,,,,,,,,
,chocolate,0.9635342359542847,,,,,,,,
,cream,0.9608443379402161,,,,,,,,
,slice,0.9571322202682495,,,,,,,,
,food,0.9546176195144653,,,,,,,,
,slice,0.9516078233718872,,,,,,,,
,desktop,0.9382857084274292,,,,,,,,
,delicious,0.9302533864974976,,,,,,,,
,pastry,0.9294092655181885,,,,,,,,
,bakery,0.9203410148620605,,,,,,,,
,homemade,0.9167893528938293,,,,,,,,
,dark,0.8922851085662842,,,,,,,,
,bed,0.8815485239028931,,,,,,,,
,baking,0.87639319896698,,,,,,,,
,sponge,0.865801215171814,,,,,,,,
,pie,0.8631389141082764,,,,,,,,
,creamy,0.8452484607696533,,,,,,,,
https://scontent-sit4-1.cdninstagram.com/t51.2885-15/s750x750/sh0.08/e35/13827305_1004600682991659_343600577_n.jpg,wear,0.9862596392631531,Relationships,,,,"Best friends",,,
,adult,0.9828777313232422,,,,,,,,
,woman,0.9815744757652283,,,,,,,,
,"facial expression",0.9793207049369812,,,,,,,,
,people,0.9774916172027588,,,,,,,,
,stock,0.9755063652992249,,,,,,,,
,man,0.9729904532432556,,,,,,,,
,portrait,0.9703464508056641,,,,,,,,
,group,0.9698470830917358,,,,,,,,
,commerce,0.9550868272781372,,,,,,,,
,happiness,0.9473325610160828,,,,,,,,
,festival,0.9305803775787354,,,,,,,,
,business,0.912539005279541,,,,,,,,
,indoors,0.8997634053230286,,,,,,,,
,daylight,0.897091269493103,,,,,,,,
,shopping,0.8925348520278931,,,,,,,,
,two,0.8825153112411499,,,,,,,,
,enjoyment,0.8785264492034912,,,,,,,,
,three,0.8578633069992065,,,,,,,,
,leader,0.8531664609909058,,,,,,,,
https://scontent-sit4-1.cdninstagram.com/t51.2885-15/e35/13741229_1406905189611044_1242015894_n.jpg,man,0.989478349685669,Relationships,,,,"Best friends",,,
,people,0.9881341457366943,,,,,,,,
,adult,0.9852222204208374,,,,,,,,
,woman,0.9814587831497192,,,,,,,,
,group,0.9598157405853271,,,,,,,,
,indoors,0.9508252143859863,,,,,,,,
,portrait,0.9483430981636047,,,,,,,,
,"facial expression",0.9446760416030884,,,,,,,,
,two,0.9420884847640991,,,,,,,,
,three,0.9286011457443237,,,,,,,,
,business,0.9017773866653442,,,,,,,,
,togetherness,0.8737975358963013,,,,,,,,
,wear,0.8731746077537537,,,,,,,,
,actor,0.872832715511322,,,,,,,,
,interaction,0.8666293621063232,,,,,,,,
,room,0.85261070728302,,,,,,,,
,actress,0.8476138114929199,,,,,,,,
,recreation,0.841640830039978,,,,,,,,
,hotel,0.8097662925720215,,,,,,,,
,four,0.7965363264083862,,,,,,,,
https://scontent-sit4-1.cdninstagram.com/t51.2885-15/s750x750/sh0.08/e35/13743064_1331810363514621_293719379_n.jpg,people,0.9814813137054443,Relationships,,,,"Best friends",,,
,woman,0.9805705547332764,,,,,,,,
,portrait,0.9619978666305542,,,,,,,,
,man,0.9421976804733276,,,,,,,,
,adult,0.939955472946167,,,,,,,,
,family,0.9297924637794495,,,,,,,,
,group,0.917954683303833,,,,,,,,
,enjoyment,0.9136131405830383,,,,,,,,
,love,0.895601749420166,,,,,,,,
,festival,0.8948255777359009,,,,,,,,
,wear,0.8879145979881287,,,,,,,,
,"facial expression",0.8873727321624756,,,,,,,,
,outdoors,0.8717265129089355,,,,,,,,
,togetherness,0.8702458143234253,,,,,,,,
,two,0.86661297082901,,,,,,,,
,education,0.85079026222229,,,,,,,,
,child,0.8440192937850952,,,,,,,,
,competition,0.8216412663459778,,,,,,,,
,pride,0.8189619779586792,,,,,,,,
,happiness,0.8136343359947205,,,,,,,,
https://scontent-sit4-1.cdninstagram.com/t51.2885-15/e35/13636091_1750419741837219_1241637175_n.jpg,shopping,0.9979342818260193,Relationships,,,,"Best friends",,,
,stock,0.9922692179679871,,,,,,,,
,shop,0.9870535135269165,,,,,,,,
,woman,0.9764961004257202,,,,,,,,
,commerce,0.9638258218765259,,,,,,,,
,man,0.9468486309051514,,,,,,,,
,boutique,0.9461427927017212,,,,,,,,
,indoors,0.9424200057983398,,,,,,,,
,merchandise,0.9411110281944275,,,,,,,,
,fashion,0.9350191354751587,,,,,,,,
,people,0.9259835481643677,,,,,,,,
,mall,0.9053307771682739,,,,,,,,
,wear,0.893404483795166,,,,,,,,
,togetherness,0.8508658409118652,,,,,,,,
,"shopping bag",0.8453332185745239,,,,,,,,
,exhibition,0.8320671319961548,,,,,,,,
,happiness,0.8299933671951294,,,,,,,,
,portrait,0.8294530510902405,,,,,,,,
,enjoyment,0.8217445015907288,,,,,,,,
,luggage,0.8137280344963074,,,,,,,,
https://scontent-sit4-1.cdninstagram.com/t51.2885-15/e35/13671366_1718885371698250_981332700_n.jpg,people,0.9985378980636597,Relationships,,,,"Best friends",,,
,adult,0.9946156144142151,,,,,,,,
,two,0.9933772087097168,,,,,,,,
,woman,0.9873462915420532,,,,,,,,
,portrait,0.984726071357727,,,,,,,,
,"facial expression",0.9792194366455078,,,,,,,,
,brunette,0.9694378972053528,,,,,,,,
,man,0.9665621519088745,,,,,,,,
,wear,0.9652590155601501,,,,,,,,
,girl,0.9589271545410156,,,,,,,,
,pants,0.9561018943786621,,,,,,,,
,sweater,0.9558120369911194,,,,,,,,
,interaction,0.9537577629089355,,,,,,,,
,knitwear,0.9471570253372192,,,,,,,,
,family,0.9365006685256958,,,,,,,,
,skirt,0.9355639219284058,,,,,,,,
,boy,0.9236540794372559,,,,,,,,
,child,0.9132060408592224,,,,,,,,
,three,0.9060145616531372,,,,,,,,
,group,0.890466034412384,,,,,,,,
https://scontent-sit4-1.cdninstagram.com/t51.2885-15/e35/13827265_532468293620632_1113173813_n.jpg,people,0.9941087365150452,Relationships,,,,"Best friends",,,
,two,0.9910812377929688,,,,,,,,
,wear,0.9891740083694458,,,,,,,,
,woman,0.986936628818512,,,,,,,,
,"facial expression",0.9838262796401978,,,,,,,,
,portrait,0.982620358467102,,,,,,,,
,adult,0.981354296207428,,,,,,,,
,girl,0.946529746055603,,,,,,,,
,happiness,0.945804238319397,,,,,,,,
,outdoors,0.9389755129814148,,,,,,,,
,group,0.917000412940979,,,,,,,,
,fashion,0.9059725403785706,,,,,,,,
,dress,0.8925937414169312,,,,,,,,
,recreation,0.88109290599823,,,,,,,,
,family,0.8595515489578247,,,,,,,,
,one,0.8585792183876038,,,,,,,,
,child,0.8566638827323914,,,,,,,,
,actress,0.8490127325057983,,,,,,,,
,three,0.8443480730056763,,,,,,,,
,festival,0.8438382148742676,,,,,,,,
https://scontent-sit4-1.cdninstagram.com/t51.2885-15/e35/13741075_278752142484153_131803999_n.jpg,people,0.974259614944458,"My life",,,,Selfie,,,
,stock,0.973202109336853,,,,,,,,
,shopping,0.9714891314506531,,,,,,,,
,exhibition,0.9675331115722656,,,,,,,,
,wear,0.9451924562454224,,,,,,,,
,shop,0.9357041120529175,,,,,,,,
,editorial,0.9197864532470703,,,,,,,,
,commerce,0.9056361317634583,,,,,,,,
,carnival,0.905576765537262,,,,,,,,
,adult,0.9049242734909058,,,,,,,,
,recreation,0.8990718722343445,,,,,,,,
,woman,0.8934985995292664,,,,,,,,
,athlete,0.8784551024436951,,,,,,,,
,competition,0.8558957576751709,,,,,,,,
,mall,0.837528645992279,,,,,,,,
,festival,0.8116506338119507,,,,,,,,
,city,0.8110448122024536,,,,,,,,
,vehicle,0.8056665658950806,,,,,,,,
,pride,0.7935783863067627,,,,,,,,
,merchandise,0.7847254872322083,,,,,,,,
https://scontent-sit4-1.cdninstagram.com/t51.2885-15/e35/13744154_1773746262847061_1705425421_n.jpg,"no person",0.9257893562316895,Commerce,,,,Promotions,,,
,Christmas,0.9169405698776245,,,,,,,,
,box,0.9144848585128784,,,,,,,,
,paper,0.8936929106712341,,,,,,,,
,gift,0.8866913318634033,,,,,,,,
,desktop,0.8697023391723633,,,,,,,,
,symbol,0.8546470999717712,,,,,,,,
,celebration,0.8428130149841309,,,,,,,,
,business,0.8265496492385864,,,,,,,,
,text,0.8231656551361084,,,,,,,,
,traditional,0.802009105682373,,,,,,,,
,thread,0.790473222732544,,,,,,,,
,card,0.7843488454818726,,,,,,,,
,sale,0.7822866439819336,,,,,,,,
,shopping,0.7728257775306702,,,,,,,,
,plastic,0.7623190879821777,,,,,,,,
,winter,0.7572782039642334,,,,,,,,
,color,0.7510602474212646,,,,,,,,
,indoors,0.7408472299575806,,,,,,,,
,decoration,0.7133188247680664,,,,,,,,
https://scontent-sit4-1.cdninstagram.com/t51.2885-15/e35/13743478_924415667664248_381955953_n.jpg,people,0.9646446704864502,"My life",,,,Selfie,,,
,man,0.9464521408081055,,,,,,,,
,woman,0.9393694996833801,,,,,,,,
,police,0.9335052967071533,,,,,,,,
,competition,0.9228991270065308,,,,,,,,
,portrait,0.9204902052879333,,,,,,,,
,festival,0.9193793535232544,,,,,,,,
,outdoors,0.9126662611961365,,,,,,,,
,two,0.872560977935791,,,,,,,,
,wear,0.8621165752410889,,,,,,,,
,adult,0.8573770523071289,,,,,,,,
,family,0.8540952205657959,,,,,,,,
,calamity,0.8540031909942627,,,,,,,,
,group,0.8476391434669495,,,,,,,,
,rally,0.8473843336105347,,,,,,,,
,child,0.8433570861816406,,,,,,,,
,recreation,0.8348881602287292,,,,,,,,
,street,0.8180501461029053,,,,,,,,
,enjoyment,0.8074922561645508,,,,,,,,
,action,0.7770399451255798,,,,,,,,
https://scontent-sit4-1.cdninstagram.com/t51.2885-15/e35/13745247_1788282858119677_2142984823_n.jpg,medicine,0.9794784784317017,Commerce,,,,"Product/brand shots",,,
,research,0.9783685803413391,,,,,,,,
,science,0.9762414693832397,,,,,,,,
,"no person",0.9695107936859131,,,,,,,,
,education,0.9668103456497192,,,,,,,,
,container,0.9662401676177979,,,,,,,,
,equipment,0.9625489711761475,,,,,,,,
,treatment,0.9589407444000244,,,,,,,,
,school,0.9461736083030701,,,,,,,,
,tube,0.9427639245986938,,,,,,,,
,laboratory,0.9422264099121094,,,,,,,,
,ink,0.9268519878387451,,,,,,,,
,plastic,0.9204389452934265,,,,,,,,
,chemistry,0.9154350161552429,,,,,,,,
,biology,0.9126449823379517,,,,,,,,
,medical,0.9124659299850464,,,,,,,,
,color,0.9099264144897461,,,,,,,,
,glass,0.9086651802062988,,,,,,,,
,bottle,0.907875120639801,,,,,,,,
,pharmacology,0.8998470306396484,,,,,,,,
https://scontent-sit4-1.cdninstagram.com/t51.2885-15/e35/13704172_1713649578886731_454924496_n.jpg,business,0.980242133140564,Commerce,,,,Promotions,,,
,text,0.9646515846252441,,,,,,,,
,paper,0.9567067623138428,,,,,,,,
,thread,0.9206213355064392,,,,,,,,
,gift,0.9147090911865234,,,,,,,,
,"no person",0.8985741138458252,,,,,,,,
,label,0.8899027109146118,,,,,,,,
,isolated,0.8877400159835815,,,,,,,,
,illustration,0.8818044662475586,,,,,,,,
,shopping,0.8693153262138367,,,,,,,,
,sale,0.86716628074646,,,,,,,,
,sign,0.8634952306747437,,,,,,,,
,desktop,0.857262372970581,,,,,,,,
,stock,0.8551487922668457,,,,,,,,
,isolated,0.8525309562683105,,,,,,,,
,symbol,0.8387874364852905,,,,,,,,
,success,0.8312093615531921,,,,,,,,
,conceptual,0.827470064163208,,,,,,,,
,love,0.8248480558395386,,,,,,,,
,card,0.8228398561477661,,,,,,,,
https://scontent-sit4-1.cdninstagram.com/t51.2885-15/e35/13714236_546207032232380_1999595712_n.jpg,"no person",0.9931008815765381,Food,,,,"Meal time",,,
,food,0.9907334446907043,,,,,,,,
,delicious,0.9793143272399902,,,,,,,,
,bread,0.95222407579422,,,,,,,,
,lunch,0.9514931440353394,,,,,,,,
,homemade,0.9505723714828491,,,,,,,,
,baking,0.9450695514678955,,,,,,,,
,dinner,0.9437271356582642,,,,,,,,
,nutrition,0.9300299882888794,,,,,,,,
,traditional,0.9299755096435547,,,,,,,,
,breakfast,0.9258816838264465,,,,,,,,
,meal,0.9144762754440308,,,,,,,,
,grow,0.9139584302902222,,,,,,,,
,cooking,0.9127485752105713,,,,,,,,
,health,0.8980740308761597,,,,,,,,
,toast,0.8926990032196045,,,,,,,,
,ready,0.8659135103225708,,,,,,,,
,hot,0.8634380102157593,,,,,,,,
,wood,0.8549668788909912,,,,,,,,
,sugar,0.853499174118042,,,,,,,,
https://scontent-sit4-1.cdninstagram.com/t51.2885-15/e35/13741022_1713459165581132_2136626110_n.jpg,people,0.9735991954803467,Entertainment,,,,Entertainment-s,,,
,portrait,0.9698671102523804,,,,,,,,
,adult,0.9419920444488525,,,,,,,,
,woman,0.9059861302375793,,,,,,,,
,business,0.8923766016960144,,,,,,,,
,man,0.8880537748336792,,,,,,,,
,headshot,0.8488140106201172,,,,,,,,
,fashion,0.840116024017334,,,,,,,,
,indoors,0.8210887908935547,,,,,,,,
,identity,0.8183070421218872,,,,,,,,
,pride,0.806645393371582,,,,,,,,
,vertical,0.8025084733963013,,,,,,,,
,attitude,0.7894008159637451,,,,,,,,
,happiness,0.7784806489944458,,,,,,,,
,cheerful,0.77376389503479,,,,,,,,
,joy,0.7624412775039673,,,,,,,,
,confidence,0.7525501251220703,,,,,,,,
,young,0.7445423603057861,,,,,,,,
,adolescent,0.7336958646774292,,,,,,,,
,horizontal,0.7186287641525269,,,,,,,,
https://scontent-sit4-1.cdninstagram.com/t51.2885-15/e35/13584159_1746295178971430_777199398_n.jpg,man,0.9462893009185791,Entertainment,,,,Concerts,,,
,people,0.9438880681991577,,,,,,,,
,woman,0.9392349123954773,,,,,,,,
,family,0.9311043620109558,,,,,,,,
,child,0.9219697713851929,,,,,,,,
,togetherness,0.8955091238021851,,,,,,,,
,adult,0.8929941654205322,,,,,,,,
,friendship,0.8714452385902405,,,,,,,,
,celebration,0.8648754358291626,,,,,,,,
,love,0.8620035648345947,,,,,,,,
,light,0.8590785264968872,,,,,,,,
,couple,0.8390414714813232,,,,,,,,
,fun,0.8090395927429199,,,,,,,,
,young,0.7944819331169128,,,,,,,,
,portrait,0.7944124937057495,,,,,,,,
,happiness,0.7938287854194641,,,,,,,,
,education,0.784283459186554,,,,,,,,
,technology,0.7352133989334106,,,,,,,,
,horizontal,0.7250471115112305,,,,,,,,
,enjoyment,0.7214938402175903,,,,,,,,
https://scontent-sit4-1.cdninstagram.com/t51.2885-15/e35/13694912_161010807641039_443505225_n.jpg,"no person",0.993261456489563,Gifts,,,,Gifts-s,,,
,glass,0.9472066760063171,,,,,,,,
,indoors,0.9416356086730957,,,,,,,,
,romance,0.9401899576187134,,,,,,,,
,elegant,0.9373035430908203,,,,,,,,
,vase,0.934086799621582,,,,,,,,
,flower,0.9338693618774414,,,,,,,,
,nature,0.9253239631652832,,,,,,,,
,leaf,0.9235376715660095,,,,,,,,
,"interior design",0.9137634038925171,,,,,,,,
,luxury,0.9107571840286255,,,,,,,,
,decoration,0.9105587601661682,,,,,,,,
,bright,0.9083859324455261,,,,,,,,
,horizontal,0.897361159324646,,,,,,,,
,vertical,0.8920259475708008,,,,,,,,
,bouquet,0.8863545656204224,,,,,,,,
,love,0.8788282871246338,,,,,,,,
,illustration,0.8744197487831116,,,,,,,,
,business,0.873440682888031,,,,,,,,
,"still life",0.8717368245124817,,,,,,,,
https://scontent-sit4-1.cdninstagram.com/t51.2885-15/e35/13725701_1767470420203999_386661661_n.jpg,"facial expression",0.9897017478942871,Relationships,,,,"Best friends",,,
,woman,0.9841591119766235,,,,,,,,
,people,0.964236855506897,,,,,,,,
,adult,0.9614362716674805,,,,,,,,
,wear,0.9563306570053101,,,,,,,,
,togetherness,0.951693594455719,,,,,,,,
,enjoyment,0.944767951965332,,,,,,,,
,man,0.9439123868942261,,,,,,,,
,happiness,0.9431896209716797,,,,,,,,
,daylight,0.9339883327484131,,,,,,,,
,outdoors,0.9324731826782227,,,,,,,,
,portrait,0.9195622205734253,,,,,,,,
,family,0.9167338013648987,,,,,,,,
,two,0.9111040830612183,,,,,,,,
,indoors,0.9004058837890625,,,,,,,,
,shopping,0.8935300707817078,,,,,,,,
,affection,0.8888627290725708,,,,,,,,
,furniture,0.8783360719680786,,,,,,,,
,group,0.8766743540763855,,,,,,,,
,recreation,0.8760479688644409,,,,,,,,
https://scontent-sit4-1.cdninstagram.com/t51.2885-15/e35/13696847_755615824578036_857243709_n.jpg,people,0.9889779090881348,Relationships,,,,"Young family",,,
,woman,0.9830836653709412,,,,,,,,
,girl,0.9821643829345703,,,,,,,,
,portrait,0.9708566665649414,,,,,,,,
,adult,0.9457966089248657,,,,,,,,
,wear,0.9399271607398987,,,,,,,,
,fashion,0.9333286881446838,,,,,,,,
,group,0.9235695004463196,,,,,,,,
,"facial expression",0.9151415228843689,,,,,,,,
,happiness,0.896217942237854,,,,,,,,
,family,0.8873148560523987,,,,,,,,
,two,0.8872421979904175,,,,,,,,
,fun,0.880272388458252,,,,,,,,
,dancing,0.8747063279151917,,,,,,,,
,music,0.8665813207626343,,,,,,,,
,child,0.8600066900253296,,,,,,,,
,dress,0.8509383201599121,,,,,,,,
,friendship,0.8492947220802307,,,,,,,,
,three,0.8321661353111267,,,,,,,,
,stock,0.8234805464744568,,,,,,,,
https://scontent-sit4-1.cdninstagram.com/t51.2885-15/e35/13707363_1338150936212449_607104792_n.jpg,indoors,0.9879770278930664,Relationships,,,,"Best friends",,,
,people,0.9849435091018677,,,,,,,,
,adult,0.9830371141433716,,,,,,,,
,room,0.9795463681221008,,,,,,,,
,man,0.9765599966049194,,,,,,,,
,woman,0.9760628938674927,,,,,,,,
,furniture,0.9728670120239258,,,,,,,,
,"facial expression",0.9593492150306702,,,,,,,,
,group,0.9362729787826538,,,,,,,,
,wear,0.9255176782608032,,,,,,,,
,seat,0.9172888994216919,,,,,,,,
,portrait,0.9100973606109619,,,,,,,,
,recreation,0.9067253470420837,,,,,,,,
,happiness,0.9043823480606079,,,,,,,,
,two,0.8817647695541382,,,,,,,,
,table,0.8802608251571655,,,,,,,,
,togetherness,0.8647032976150513,,,,,,,,
,enjoyment,0.8635814189910889,,,,,,,,
,restaurant,0.8466927409172058,,,,,,,,
,business,0.8464992046356201,,,,,,,,
https://scontent-sit4-1.cdninstagram.com/t51.2885-15/e35/13715114_546285488888044_289016368_n.jpg,people,0.9875960350036621,Relationships,,,,"Best friends",,,
,woman,0.9809062480926514,,,,,,,,
,portrait,0.9793120622634888,,,,,,,,
,adult,0.9788776636123657,,,,,,,,
,group,0.9737862348556519,,,,,,,,
,"facial expression",0.9710513353347778,,,,,,,,
,man,0.9693751335144043,,,,,,,,
,happiness,0.9537652730941772,,,,,,,,
,wear,0.9485150575637817,,,,,,,,
,two,0.9440947771072388,,,,,,,,
,togetherness,0.9418870210647583,,,,,,,,
,musician,0.920637845993042,,,,,,,,
,friendship,0.9157323837280273,,,,,,,,
,enjoyment,0.914094090461731,,,,,,,,
,stock,0.903967559337616,,,,,,,,
,celebration,0.9035884141921997,,,,,,,,
,indoors,0.9002646803855896,,,,,,,,
,movie,0.9001572132110596,,,,,,,,
,three,0.8993287086486816,,,,,,,,
,fun,0.8948655128479004,,,,,,,,
https://scontent-sit4-1.cdninstagram.com/t51.2885-15/e35/13735836_1753989968173513_606486570_n.jpg,bag,0.9947139024734497,Commerce,,,,"Product/brand shots",,,
,leather,0.9946599006652832,,,,,,,,
,fashion,0.9927669167518616,,,,,,,,
,purse,0.9889457821846008,,,,,,,,
,handle,0.9859420657157898,,,,,,,,
,wear,0.9830819368362427,,,,,,,,
,shopping,0.9784616231918335,,,,,,,,
,accessory,0.9748666882514954,,,,,,,,
,isolated,0.9544352293014526,,,,,,,,
,luxury,0.9526987075805664,,,,,,,,
,protection,0.9427279233932495,,,,,,,,
,strap,0.9417145252227783,,,,,,,,
,shop,0.9392733573913574,,,,,,,,
,elegant,0.9316335916519165,,,,,,,,
,style,0.9266272783279419,,,,,,,,
,war,0.9248229265213013,,,,,,,,
,belt,0.899037778377533,,,,,,,,
,modern,0.8949880599975586,,,,,,,,
,desktop,0.8855887651443481,,,,,,,,
,weapon,0.8847383260726929,,,,,,,,
https://scontent-sit4-1.cdninstagram.com/t51.2885-15/e35/13704137_984062051715997_1938307001_n.jpg,people,0.991600751876831,Commerce,,,,Promotions,,,
,celebration,0.9894832372665405,,,,,,,,
,group,0.9871060848236084,,,,,,,,
,portrait,0.9810129404067993,,,,,,,,
,group,0.9647425413131714,,,,,,,,
,festival,0.9603259563446045,,,,,,,,
,music,0.9599120616912842,,,,,,,,
,singer,0.9594190120697021,,,,,,,,
,musician,0.9536464810371399,,,,,,,,
,party,0.9397282600402832,,,,,,,,
,man,0.9377965331077576,,,,,,,,
,woman,0.9351918697357178,,,,,,,,
,performance,0.9317636489868164,,,,,,,,
,"facial expression",0.9274536371231079,,,,,,,,
,recreation,0.9170645475387573,,,,,,,,
,movie,0.9103283882141113,,,,,,,,
,friendship,0.8923527598381042,,,,,,,,
,actress,0.8904894590377808,,,,,,,,
,adult,0.8894981741905212,,,,,,,,
,fame,0.8832928538322449,,,,,,,,
https://scontent-sit4-1.cdninstagram.com/t51.2885-15/e35/13712748_274589432899365_1721227388_n.jpg,adult,0.9498369097709656,Entertainment,,,,Concerts,,,
,education,0.942965567111969,,,,,,,,
,school,0.9390581846237183,,,,,,,,
,business,0.929523766040802,,,,,,,,
,text,0.9288767576217651,,,,,,,,
,display,0.9167467355728149,,,,,,,,
,people,0.9135119915008545,,,,,,,,
,man,0.8639791011810303,,,,,,,,
,bill,0.8577451705932617,,,,,,,,
,woman,0.835591197013855,,,,,,,,
,portrait,0.82887864112854,,,,,,,,
,competition,0.7952229976654053,,,,,,,,
,group,0.7902301549911499,,,,,,,,
,illustration,0.7624431252479553,,,,,,,,
,science,0.75523841381073,,,,,,,,
,sign,0.752463698387146,,,,,,,,
,set,0.7477166652679443,,,,,,,,
,presentation,0.7474117875099182,,,,,,,,
,desktop,0.7472244501113892,,,,,,,,
,accomplishment,0.7467241287231445,,,,,,,,
https://scontent-sit4-1.cdninstagram.com/t51.2885-15/e35/13768156_219296351804119_515554663_n.jpg,celebration,0.9846628904342651,Relationships,,,,"Best friends",,,
,people,0.9757282733917236,,,,,,,,
,woman,0.9747378826141357,,,,,,,,
,friendship,0.970980167388916,,,,,,,,
,man,0.9653241634368896,,,,,,,,
,togetherness,0.9640325307846069,,,,,,,,
,adult,0.95355623960495,,,,,,,,
,happiness,0.9529066681861877,,,,,,,,
,family,0.9288904666900635,,,,,,,,
,laughing,0.9282166957855225,,,,,,,,
,group,0.9250941276550293,,,,,,,,
,horizontal,0.9250659942626953,,,,,,,,
,birthday,0.9189136028289795,,,,,,,,
,portrait,0.9149206876754761,,,,,,,,
,love,0.8857740759849548,,,,,,,,
,enjoyment,0.8712139129638672,,,,,,,,
,fun,0.8580724000930786,,,,,,,,
,nightlife,0.8516511917114258,,,,,,,,
,indoors,0.8500406742095947,,,,,,,,
,party,0.8455549478530884,,,,,,,,
https://scontent-sit4-1.cdninstagram.com/t51.2885-15/e35/13724517_160422517712781_2044419381_n.jpg,food,0.9957338571548462,Food,,,,"Meal time",,,
,dinner,0.9939705729484558,,,,,,,,
,"no person",0.9923114776611328,,,,,,,,
,lunch,0.9885565638542175,,,,,,,,
,meat,0.9841347932815552,,,,,,,,
,delicious,0.9831491112709045,,,,,,,,
,chicken,0.9797530174255371,,,,,,,,
,meal,0.9787377715110779,,,,,,,,
,vegetable,0.9768537282943726,,,,,,,,
,poultry,0.9667952656745911,,,,,,,,
,grow,0.9657242298126221,,,,,,,,
,plate,0.9577851295471191,,,,,,,,
,dish,0.9489578008651733,,,,,,,,
,nutrition,0.947807788848877,,,,,,,,
,"root vegetable",0.946948766708374,,,,,,,,
,cooking,0.9428417682647705,,,,,,,,
,dining,0.9405217170715332,,,,,,,,
,pork,0.9236757755279541,,,,,,,,
,parsley,0.9043172597885132,,,,,,,,
,hot,0.9013873338699341,,,,,,,,
https://scontent-sit4-1.cdninstagram.com/t51.2885-15/e35/13651793_1760720314150753_1284979879_n.jpg,woman,0.9897212982177734,Relationships,,,,"Best friends",,,
,friendship,0.9727942943572998,,,,,,,,
,togetherness,0.9599651098251343,,,,,,,,
,man,0.9568900465965271,,,,,,,,
,people,0.954836905002594,,,,,,,,
,indoors,0.9291589856147766,,,,,,,,
,multicultural,0.9265768527984619,,,,,,,,
,recreation,0.9163398742675781,,,,,,,,
,enjoyment,0.9070615768432617,,,,,,,,
,group,0.9043060541152954,,,,,,,,
,adolescent,0.8978673815727234,,,,,,,,
,child,0.8920519351959229,,,,,,,,
,family,0.8857401013374329,,,,,,,,
,horizontal,0.8541607856750488,,,,,,,,
,fun,0.8499364852905273,,,,,,,,
,laughing,0.8441601991653442,,,,,,,,
,adult,0.8363158106803894,,,,,,,,
,student,0.8003976345062256,,,,,,,,
,dancing,0.7923990488052368,,,,,,,,
,education,0.7765129804611206,,,,,,,,
https://scontent-sit4-1.cdninstagram.com/t51.2885-15/e35/13744256_1574428569526941_1950773786_n.jpg,"no person",0.9741055965423584,Undefined,,,,Undefined,,,
,internet,0.9591282606124878,,,,,,,,
,telephone,0.9171092510223389,,,,,,,,
,symbol,0.9085068702697754,,,,,,,,
,display,0.8871147036552429,,,,,,,,
,image,0.8760024309158325,,,,,,,,
,cube,0.8646234273910522,,,,,,,,
,computer,0.8382014036178589,,,,,,,,
,business,0.8225581645965576,,,,,,,,
,technology,0.8045333623886108,,,,,,,,
,connection,0.7949929237365723,,,,,,,,
,sign,0.7926072478294373,,,,,,,,
,sign,0.7858120203018188,,,,,,,,
,network,0.7598205804824829,,,,,,,,
,"World Wide Web",0.736915111541748,,,,,,,,
,spherical,0.7311218976974487,,,,,,,,
,text,0.7154685854911804,,,,,,,,
,game,0.7025741338729858,,,,,,,,
,industry,0.6606366634368896,,,,,,,,
,information,0.642633318901062,,,,,,,,
https://scontent-sit4-1.cdninstagram.com/t51.2885-15/e35/13628087_297152720631853_1597188372_n.jpg,people,0.9916188716888428,Relationships,,,,"Best friends",,,
,"facial expression",0.9816768169403076,,,,,,,,
,woman,0.9797147512435913,,,,,,,,
,portrait,0.9765251278877258,,,,,,,,
,adult,0.968125581741333,,,,,,,,
,two,0.9592993259429932,,,,,,,,
,group,0.9539467096328735,,,,,,,,
,wear,0.9482008218765259,,,,,,,,
,girl,0.931715726852417,,,,,,,,
,three,0.9300107955932617,,,,,,,,
,child,0.9286321401596069,,,,,,,,
,family,0.8988569974899292,,,,,,,,
,happiness,0.898272693157196,,,,,,,,
,man,0.8937342166900635,,,,,,,,
,offspring,0.8767992258071899,,,,,,,,
,friendship,0.8358185887336731,,,,,,,,
,four,0.831483006477356,,,,,,,,
,togetherness,0.8313950300216675,,,,,,,,
,enjoyment,0.8144758939743042,,,,,,,,
,administration,0.812839150428772,,,,,,,,
https://scontent-sit4-1.cdninstagram.com/t51.2885-15/e35/13696738_541554336036630_857090183_n.jpg,people,0.9764621257781982,"My life",,,,Selfie,,,
,stock,0.969659686088562,,,,,,,,
,exhibition,0.9682914018630981,,,,,,,,
,shopping,0.9678489565849304,,,,,,,,
,commerce,0.9432073831558228,,,,,,,,
,woman,0.9281365871429443,,,,,,,,
,shop,0.9235553741455078,,,,,,,,
,wear,0.9143002033233643,,,,,,,,
,indoors,0.90081387758255,,,,,,,,
,adult,0.8853811025619507,,,,,,,,
,portrait,0.8482049703598022,,,,,,,,
,festival,0.8428235054016113,,,,,,,,
,man,0.8359768986701965,,,,,,,,
,fashion,0.8349294662475586,,,,,,,,
,carnival,0.8249044418334961,,,,,,,,
,market,0.8247171640396118,,,,,,,,
,two,0.812203049659729,,,,,,,,
,business,0.8065338730812073,,,,,,,,
,celebration,0.7804907560348511,,,,,,,,
,editorial,0.774914026260376,,,,,,,,
https://scontent-sit4-1.cdninstagram.com/t51.2885-15/e35/13636261_280339102331932_789068531_n.jpg,group,0.9928786754608154,Relationships,,,,"Best friends",,,
,woman,0.9743434190750122,,,,,,,,
,people,0.9725748300552368,,,,,,,,
,group,0.9669822454452515,,,,,,,,
,man,0.9658850431442261,,,,,,,,
,portrait,0.9599325060844421,,,,,,,,
,adult,0.9484302997589111,,,,,,,,
,friendship,0.9387390613555908,,,,,,,,
,togetherness,0.9345608949661255,,,,,,,,
,four,0.9288197755813599,,,,,,,,
,business,0.9212498068809509,,,,,,,,
,"facial expression",0.9101805686950684,,,,,,,,
,happiness,0.9044402837753296,,,,,,,,
,indoors,0.8971991539001465,,,,,,,,
,laughing,0.8959358334541321,,,,,,,,
,celebration,0.8932936787605286,,,,,,,,
,squad,0.8892230987548828,,,,,,,,
,family,0.8866146802902222,,,,,,,,
,teamwork,0.88238525390625,,,,,,,,
,three,0.8711296319961548,,,,,,,,
https://scontent-sit4-1.cdninstagram.com/t51.2885-15/e35/13732147_1121952071212294_1249871087_n.jpg,group,0.9865548610687256,Relationships,,,,"Best friends",,,
,friendship,0.9850996732711792,,,,,,,,
,woman,0.9783827066421509,,,,,,,,
,people,0.9736112356185913,,,,,,,,
,man,0.9687785506248474,,,,,,,,
,group,0.9677531719207764,,,,,,,,
,"facial expression",0.9579662084579468,,,,,,,,
,togetherness,0.9341039657592773,,,,,,,,
,enjoyment,0.9179441928863525,,,,,,,,
,school,0.9106547832489014,,,,,,,,
,portrait,0.9105459451675415,,,,,,,,
,happiness,0.9076179265975952,,,,,,,,
,adolescent,0.9064522981643677,,,,,,,,
,adult,0.9058635234832764,,,,,,,,
,laughing,0.9041064977645874,,,,,,,,
,indoors,0.8985000848770142,,,,,,,,
,club,0.8910427093505859,,,,,,,,
,five,0.8892725706100464,,,,,,,,
,student,0.882082462310791,,,,,,,,
,multicultural,0.881968080997467,,,,,,,,
https://scontent-sit4-1.cdninstagram.com/t51.2885-15/e35/13658583_620599661440149_1786722301_n.jpg,people,0.9805507659912109,Commerce,,,,Promotions,,,
,woman,0.9763296842575073,,,,,,,,
,man,0.9707707166671753,,,,,,,,
,adult,0.9605796337127686,,,,,,,,
,indoors,0.9467253088951111,,,,,,,,
,drink,0.8977087140083313,,,,,,,,
,friendship,0.8948109149932861,,,,,,,,
,group,0.8801356554031372,,,,,,,,
,horizontal,0.8727174997329712,,,,,,,,
,togetherness,0.8711800575256348,,,,,,,,
,child,0.8570852279663086,,,,,,,,
,family,0.8506804704666138,,,,,,,,
,portrait,0.8422322273254395,,,,,,,,
,outdoors,0.8418129086494446,,,,,,,,
,enjoyment,0.8289121389389038,,,,,,,,
,stock,0.8225913643836975,,,,,,,,
,fun,0.8056778907775879,,,,,,,,
,restaurant,0.804995059967041,,,,,,,,
,cheerful,0.8016733527183533,,,,,,,,
,adolescent,0.7922075986862183,,,,,,,,
https://scontent-sit4-1.cdninstagram.com/t51.2885-15/e35/13636056_301487846907763_2040567213_n.jpg,people,0.9772067070007324,Commerce,,,,Promotions,,,
,woman,0.971716046333313,,,,,,,,
,group,0.937792181968689,,,,,,,,
,exhibition,0.9154454469680786,,,,,,,,
,stock,0.9091553688049316,,,,,,,,
,child,0.9038679599761963,,,,,,,,
,city,0.9002262353897095,,,,,,,,
,man,0.8919718861579895,,,,,,,,
,indoors,0.8884971141815186,,,,,,,,
,recreation,0.882469892501831,,,,,,,,
,fashion,0.8788660764694214,,,,,,,,
,mall,0.8781822919845581,,,,,,,,
,fun,0.8778992891311646,,,,,,,,
,street,0.8777433037757874,,,,,,,,
,person,0.8584935069084167,,,,,,,,
,young,0.855627179145813,,,,,,,,
,friendship,0.8550838232040405,,,,,,,,
,girl,0.8534239530563354,,,,,,,,
,restaurant,0.8502267599105835,,,,,,,,
,adult,0.8470981121063232,,,,,,,,
https://scontent-sit4-1.cdninstagram.com/t51.2885-15/e35/13722152_276192916090453_1588626985_n.jpg,people,0.9913636445999146,Relationships,,,,"Young family",,,
,"facial expression",0.9877066612243652,,,,,,,,
,woman,0.9838094711303711,,,,,,,,
,two,0.9758341908454895,,,,,,,,
,adult,0.974740743637085,,,,,,,,
,portrait,0.9736884236335754,,,,,,,,
,man,0.9656503796577454,,,,,,,,
,wear,0.9627568125724792,,,,,,,,
,group,0.9280023574829102,,,,,,,,
,love,0.9270996451377869,,,,,,,,
,togetherness,0.914620041847229,,,,,,,,
,three,0.9116668701171875,,,,,,,,
,happiness,0.9115536212921143,,,,,,,,
,affection,0.9069033861160278,,,,,,,,
,enjoyment,0.9034695625305176,,,,,,,,
,family,0.9024008512496948,,,,,,,,
,child,0.893265426158905,,,,,,,,
,interaction,0.8885157704353333,,,,,,,,
,music,0.8794894218444824,,,,,,,,
,recreation,0.8728535175323486,,,,,,,,
https://scontent-sit4-1.cdninstagram.com/t51.2885-15/e35/13696367_1573934872901802_1416435757_n.jpg,sushi,0.9942234754562378,Food,,,,"Meal time",,,
,rice,0.9899176359176636,,,,,,,,
,food,0.9890434741973877,,,,,,,,
,fish,0.9873528480529785,,,,,,,,
,salmon,0.9805958271026611,,,,,,,,
,set,0.9789498448371887,,,,,,,,
,"no person",0.9729273319244385,,,,,,,,
,meal,0.9668632745742798,,,,,,,,
,seafood,0.9661282300949097,,,,,,,,
,dish,0.9598996639251709,,,,,,,,
,wasabi,0.9543017745018005,,,,,,,,
,seaweed,0.9496836066246033,,,,,,,,
,ginger,0.9437130689620972,,,,,,,,
,plate,0.9435573816299438,,,,,,,,
,traditional,0.9429854154586792,,,,,,,,
,dinner,0.9405109286308289,,,,,,,,
,delicious,0.9387702941894531,,,,,,,,
,tuna,0.933022141456604,,,,,,,,
,shrimp,0.9231594800949097,,,,,,,,
,lunch,0.9212645888328552,,,,,,,,
https://scontent-sit4-1.cdninstagram.com/t51.2885-15/e35/13706913_1022123837903660_1257383888_n.jpg,"no person",0.9901688098907471,Commerce,Business,,,Promotions,Business-s,,
,coffee,0.9887257814407349,,,,,,,,
,food,0.9869226217269897,,,,,,,,
,dawn,0.9811207056045532,,,,,,,,
,chocolate,0.9796724319458008,,,,,,,,
,sugar,0.9744850397109985,,,,,,,,
,cream,0.9694641828536987,,,,,,,,
,cake,0.9654355049133301,,,,,,,,
,breakfast,0.9647084474563599,,,,,,,,
,sweet,0.9629898071289062,,,,,,,,
,delicious,0.9629058837890625,,,,,,,,
,drink,0.958307147026062,,,,,,,,
,tea,0.9426847696304321,,,,,,,,
,cup,0.93393474817276,,,,,,,,
,milk,0.9322801828384399,,,,,,,,
,baking,0.8928029537200928,,,,,,,,
,indoors,0.8818118572235107,,,,,,,,
,unhealthy,0.8811677694320679,,,,,,,,
,espresso,0.876984715461731,,,,,,,,
,homemade,0.8748645782470703,,,,,,,,
https://scontent-sit4-1.cdninstagram.com/t51.2885-15/e35/13707076_1023289264428444_2050752973_n.jpg,adult,0.9886882305145264,Relationships,,,,"Young family",,,
,indoors,0.9827321767807007,,,,,,,,
,portrait,0.9797623157501221,,,,,,,,
,people,0.9797354936599731,,,,,,,,
,competition,0.9780241250991821,,,,,,,,
,recreation,0.9725949764251709,,,,,,,,
,woman,0.968154788017273,,,,,,,,
,movie,0.958877682685852,,,,,,,,
,soccer,0.9581714868545532,,,,,,,,
,wear,0.9578827619552612,,,,,,,,
,festival,0.9472209811210632,,,,,,,,
,man,0.9449371099472046,,,,,,,,
,actress,0.9378464221954346,,,,,,,,
,education,0.9332479238510132,,,,,,,,
,music,0.919249415397644,,,,,,,,
,happiness,0.9063905477523804,,,,,,,,
,"facial expression",0.9027441740036011,,,,,,,,
,business,0.8982309103012085,,,,,,,,
,togetherness,0.8972446918487549,,,,,,,,
,enjoyment,0.8660050630569458,,,,,,,,
