url,class,score,,,,,,,,
https://scontent-sit4-1.cdninstagram.com/t51.2885-15/s480x480/e35/13745189_1746468715632932_2102895864_n.jpg,"no person",0.9871286153793335,Undefined,,,,Undefined,,,
,page,0.933085560798645,,,,,,,,
,business,0.9233144521713257,,,,,,,,
,"graphic design",0.9045689702033997,,,,,,,,
,time,0.8993951082229614,,,,,,,,
,template,0.8874396085739136,,,,,,,,
,conceptual,0.8868619799613953,,,,,,,,
,data,0.8766893148422241,,,,,,,,
,paper,0.8754874467849731,,,,,,,,
,education,0.8726859092712402,,,,,,,,
,illustration,0.8449599146842957,,,,,,,,
,text,0.8302944898605347,,,,,,,,
,monthly,0.8103138208389282,,,,,,,,
,diary,0.8022310733795166,,,,,,,,
,document,0.8007575869560242,,,,,,,,
,donation,0.7807779908180237,,,,,,,,
,order,0.78049635887146,,,,,,,,
,stripe,0.7769210338592529,,,,,,,,
,blank,0.757156491279602,,,,,,,,
,vertical,0.7504722476005554,,,,,,,,
https://scontent-sit4-1.cdninstagram.com/t51.2885-15/s480x480/e35/13652069_210878729308970_2012941898_n.jpg,girl,0.9757397174835205,"Fashion & Beauty",Commerce,"My life",,"My look","Product/brand shots",Selfie,
,person,0.9751760959625244,,,,,,,,
,isolated,0.974274218082428,,,,,,,,
,woman,0.9705900549888611,,,,,,,,
,young,0.9689903259277344,,,,,,,,
,blank,0.950843334197998,,,,,,,,
,cute,0.9488006830215454,,,,,,,,
,people,0.9470968842506409,,,,,,,,
,desktop,0.9431116580963135,,,,,,,,
,portrait,0.9394441843032837,,,,,,,,
,child,0.9365583658218384,,,,,,,,
,technology,0.9328341484069824,,,,,,,,
,beautiful,0.9328268766403198,,,,,,,,
,smile,0.9268286824226379,,,,,,,,
,paper,0.9118877649307251,,,,,,,,
,pretty,0.9057265520095825,,,,,,,,
,computer,0.8974648714065552,,,,,,,,
,adult,0.8930389285087585,,,,,,,,
,internet,0.8845347166061401,,,,,,,,
,modern,0.8819426894187927,,,,,,,,
https://scontent-sit4-1.cdninstagram.com/t51.2885-15/e15/13724494_170058710080497_297722894_n.jpg,people,0.9836113452911377,Entertainment,Media,,,Entertainment-s,Media-s,,
,music,0.9747565984725952,,,,,,,,
,performance,0.9721642732620239,,,,,,,,
,vertical,0.9500860571861267,,,,,,,,
,adult,0.943753719329834,,,,,,,,
,indoors,0.8982372283935547,,,,,,,,
,musician,0.8929648399353027,,,,,,,,
,portrait,0.891146183013916,,,,,,,,
,microphone,0.8906319737434387,,,,,,,,
,horizontal,0.8838398456573486,,,,,,,,
,stage,0.8288538455963135,,,,,,,,
,"side view",0.8232558965682983,,,,,,,,
,man,0.749842643737793,,,,,,,,
,concentration,0.7288577556610107,,,,,,,,
,festival,0.7278904914855957,,,,,,,,
,light,0.7073920965194702,,,,,,,,
,concert,0.6869953274726868,,,,,,,,
,event,0.6692250370979309,,,,,,,,
,sound,0.6609053611755371,,,,,,,,
,instrument,0.6533776521682739,,,,,,,,
https://scontent-sit4-1.cdninstagram.com/t51.2885-15/s480x480/e35/13745168_306124129721397_399843181_n.jpg,isolated,0.9906428456306458,Undefined,,,,Undefined,,,
,"no person",0.9905552864074707,,,,,,,,
,plastic,0.9695529937744141,,,,,,,,
,electronics,0.9489759206771851,,,,,,,,
,broad,0.9404473304748535,,,,,,,,
,stripe,0.939797043800354,,,,,,,,
,technology,0.9359334707260132,,,,,,,,
,equipment,0.9352136254310608,,,,,,,,
,internet,0.9312200546264648,,,,,,,,
,browser,0.9275054931640625,,,,,,,,
,interface,0.9268056154251099,,,,,,,,
,navigation,0.9248834848403931,,,,,,,,
,business,0.9126410484313965,,,,,,,,
,family,0.9107609987258911,,,,,,,,
,horizontal,0.8696295619010925,,,,,,,,
,site,0.8694102764129639,,,,,,,,
,user,0.8686408996582031,,,,,,,,
,appliance,0.8634399175643921,,,,,,,,
,skidder,0.8501715660095215,,,,,,,,
,machinery,0.831873893737793,,,,,,,,
https://scontent-sit4-1.cdninstagram.com/t51.2885-15/e15/13686894_635508483269539_494607636_n.jpg,blur,0.9807409644126892,Media,Entertainment,,,Media-s,Entertainment-s,,
,reflection,0.9626502990722656,,,,,,,,
,city,0.9468098282814026,,,,,,,,
,outdoors,0.9434014558792114,,,,,,,,
,people,0.9339082837104797,,,,,,,,
,"transportation system",0.9040421843528748,,,,,,,,
,travel,0.8802724480628967,,,,,,,,
,motion,0.8799178600311279,,,,,,,,
,action,0.8665608167648315,,,,,,,,
,"no person",0.8640159368515015,,,,,,,,
,street,0.847887396812439,,,,,,,,
,water,0.8478854298591614,,,,,,,,
,vehicle,0.8456089496612549,,,,,,,,
,portrait,0.8401311635971069,,,,,,,,
,light,0.835979163646698,,,,,,,,
,abstract,0.8189917802810669,,,,,,,,
,business,0.8164339065551758,,,,,,,,
,road,0.8126685619354248,,,,,,,,
,car,0.8062844276428223,,,,,,,,
,flower,0.8011064529418945,,,,,,,,
https://scontent-sit4-1.cdninstagram.com/t51.2885-15/s640x640/sh0.08/e35/13739543_1673066329683389_1525301320_n.jpg,eye,0.9892711639404297,"Fashion & Beauty","My life",,,"My look",Selfie,,
,lips,0.9863319396972656,,,,,,,,
,woman,0.9799599647521973,,,,,,,,
,skin,0.972233235836029,,,,,,,,
,fashion,0.9663793444633484,,,,,,,,
,glamour,0.963750958442688,,,,,,,,
,child,0.9505348801612854,,,,,,,,
,cute,0.9498250484466553,,,,,,,,
,look,0.9328004717826843,,,,,,,,
,pretty,0.9278688430786133,,,,,,,,
,portrait,0.9268313646316528,,,,,,,,
,clean,0.8954324126243591,,,,,,,,
,lipstick,0.8937356472015381,,,,,,,,
,sexy,0.8905644416809082,,,,,,,,
,health,0.8783667683601379,,,,,,,,
,girl,0.8698419332504272,,,,,,,,
,purity,0.864581823348999,,,,,,,,
,face,0.8377851247787476,,,,,,,,
,joy,0.8361252546310425,,,,,,,,
,adolescent,0.8251980543136597,,,,,,,,
https://scontent-sit4-1.cdninstagram.com/l/t51.2885-15/s750x750/sh0.08/e35/13704368_1081078058613906_1499781726_n.jpg,people,0.9825103282928467,Entertainment,Media,,,Entertainment-s,Media-s,,
,adult,0.9765973687171936,,,,,,,,
,portrait,0.9461431503295898,,,,,,,,
,man,0.9203330278396606,,,,,,,,
,horizontal,0.9166116118431091,,,,,,,,
,outdoors,0.8592079281806946,,,,,,,,
,relaxation,0.8543585538864136,,,,,,,,
,woman,0.8509259819984436,,,,,,,,
,communication,0.8447767496109009,,,,,,,,
,vertical,0.8411353826522827,,,,,,,,
,indoors,0.8143661022186279,,,,,,,,
,happiness,0.8139508962631226,,,,,,,,
,cheerful,0.8114519119262695,,,,,,,,
,business,0.8102206587791443,,,,,,,,
,technology,0.8028913736343384,,,,,,,,
,looking,0.7968518733978271,,,,,,,,
,young,0.7828750610351562,,,,,,,,
,contemplation,0.7815707921981812,,,,,,,,
,internet,0.7746370434761047,,,,,,,,
,computer,0.7529575824737549,,,,,,,,
https://scontent-sit4-1.cdninstagram.com/t51.2885-15/e15/13721112_635336769956825_1960514311_n.jpg,people,0.9790837168693542,Entertainment,Media,,,Entertainment-s,Media-s,,
,indoors,0.9713512063026428,,,,,,,,
,vertical,0.9530335068702698,,,,,,,,
,adult,0.9481303095817566,,,,,,,,
,performance,0.9468177556991577,,,,,,,,
,music,0.9445918798446655,,,,,,,,
,portrait,0.9394235014915466,,,,,,,,
,business,0.9286303520202637,,,,,,,,
,communication,0.9192442893981934,,,,,,,,
,technology,0.9103859663009644,,,,,,,,
,horizontal,0.9037991762161255,,,,,,,,
,sitting,0.8586578369140625,,,,,,,,
,microphone,0.815494179725647,,,,,,,,
,man,0.8089288473129272,,,,,,,,
,"side view",0.8009682893753052,,,,,,,,
,telephone,0.7822321653366089,,,,,,,,
,festival,0.777212381362915,,,,,,,,
,musician,0.7743238210678101,,,,,,,,
,sit,0.7590174674987793,,,,,,,,
,stage,0.7538963556289673,,,,,,,,
https://scontent-sit4-1.cdninstagram.com/t51.2885-15/e15/13671338_1190694580982291_1918642639_n.jpg,people,0.9855524301528931,Entertainment,Media,,,Entertainment-s,Media-s,,
,man,0.9750045537948608,,,,,,,,
,music,0.952383279800415,,,,,,,,
,performance,0.9497995972633362,,,,,,,,
,adult,0.9483535289764404,,,,,,,,
,competition,0.9281625151634216,,,,,,,,
,concert,0.9220048189163208,,,,,,,,
,stage,0.9176992774009705,,,,,,,,
,wear,0.8983856439590454,,,,,,,,
,singer,0.8983850479125977,,,,,,,,
,theater,0.8901718258857727,,,,,,,,
,group,0.874031662940979,,,,,,,,
,musician,0.8735553026199341,,,,,,,,
,theater,0.8667691946029663,,,,,,,,
,two,0.8572416305541992,,,,,,,,
,woman,0.8446489572525024,,,,,,,,
,athlete,0.8345139622688293,,,,,,,,
,sport,0.8227978944778442,,,,,,,,
,festival,0.8150990009307861,,,,,,,,
,boxer,0.8006432056427002,,,,,,,,
https://scontent-sit4-1.cdninstagram.com/t51.2885-15/e35/13736832_106754823097359_1641233010_n.jpg,man,0.9762460589408875,Media,Entertainment,,,Media-s,Entertainment-s,,
,people,0.9627014398574829,,,,,,,,
,fashion,0.9467922449111938,,,,,,,,
,young,0.9181417226791382,,,,,,,,
,adult,0.9166139364242554,,,,,,,,
,woman,0.9103575944900513,,,,,,,,
,health,0.9031175374984741,,,,,,,,
,model,0.8874112367630005,,,,,,,,
,fitness,0.883843183517456,,,,,,,,
,exercise,0.8777103424072266,,,,,,,,
,isolated,0.8592993021011353,,,,,,,,
,lifestyle,0.8575922250747681,,,,,,,,
,fine-looking,0.852620005607605,,,,,,,,
,wear,0.8474385738372803,,,,,,,,
,strength,0.8469330668449402,,,,,,,,
,body,0.8306856155395508,,,,,,,,
,brawny,0.8274796009063721,,,,,,,,
,sexy,0.8242859244346619,,,,,,,,
,fashionable,0.8094675540924072,,,,,,,,
,active,0.8007651567459106,,,,,,,,
https://scontent-sit4-1.cdninstagram.com/t51.2885-15/s480x480/e35/13743425_1183107925088350_39969215_n.jpg,indoors,0.9940589666366577,"Fashion & Beauty",,,,"My look",,,
,woman,0.9821720123291016,,,,,,,,
,room,0.967269778251648,,,,,,,,
,adult,0.9657604694366455,,,,,,,,
,people,0.9330021142959595,,,,,,,,
,family,0.9213645458221436,,,,,,,,
,furniture,0.918837308883667,,,,,,,,
,one,0.8997796773910522,,,,,,,,
,"side view",0.8960471749305725,,,,,,,,
,looking,0.8859312534332275,,,,,,,,
,sitting,0.8721860647201538,,,,,,,,
,office,0.8650764226913452,,,,,,,,
,wear,0.8634060621261597,,,,,,,,
,relaxation,0.856621265411377,,,,,,,,
,technology,0.854493260383606,,,,,,,,
,house,0.8485879302024841,,,,,,,,
,business,0.8431116938591003,,,,,,,,
,portrait,0.8298636674880981,,,,,,,,
,sit,0.821969747543335,,,,,,,,
,window,0.8196505308151245,,,,,,,,
https://scontent-sit4-1.cdninstagram.com/t51.2885-15/s750x750/sh0.08/e35/13724577_903025673142655_913598795_n.jpg,music,0.9960411787033081,Media,Entertainment,,,Media-s,Entertainment-s,,
,performance,0.9943763017654419,,,,,,,,
,concert,0.9890797734260559,,,,,,,,
,musician,0.9861266613006592,,,,,,,,
,singer,0.9838302135467529,,,,,,,,
,stage,0.9623059034347534,,,,,,,,
,guitar,0.9583467245101929,,,,,,,,
,guitarist,0.9475836157798767,,,,,,,,
,festival,0.9471901655197144,,,,,,,,
,band,0.9357069730758667,,,,,,,,
,theater,0.9181112051010132,,,,,,,,
,people,0.917975664138794,,,,,,,,
,instrument,0.8508942127227783,,,,,,,,
,pop,0.8470935821533203,,,,,,,,
,"stringed instrument",0.8446402549743652,,,,,,,,
,"concert hall",0.8235980272293091,,,,,,,,
,rock,0.7994805574417114,,,,,,,,
,adult,0.7913120985031128,,,,,,,,
,man,0.7739923596382141,,,,,,,,
,light,0.764460027217865,,,,,,,,
https://scontent-sit4-1.cdninstagram.com/t51.2885-15/e35/13724697_312854385724141_1478490288_n.jpg,airplane,0.9999714493751526,Travel,Environment,,,Travel-s,"Natural beauty",,
,aircraft,0.9998962879180908,,,,,,,,
,jet,0.9981441497802734,,,,,,,,
,flight,0.9979438185691833,,,,,,,,
,fly,0.9978921413421631,,,,,,,,
,airport,0.9972299933433533,,,,,,,,
,"transportation system",0.9961672425270081,,,,,,,,
,wing,0.994756817817688,,,,,,,,
,air,0.9902153611183167,,,,,,,,
,travel,0.9886434674263,,,,,,,,
,sky,0.9868170022964478,,,,,,,,
,vehicle,0.9850401878356934,,,,,,,,
,fly,0.9835928678512573,,,,,,,,
,"no person",0.9764147996902466,,,,,,,,
,airliner,0.9574239253997803,,,,,,,,
,takeoff,0.9173834323883057,,,,,,,,
,engine,0.9171997308731079,,,,,,,,
,airbus,0.9088064432144165,,,,,,,,
,space,0.8906873464584351,,,,,,,,
,travel,0.8789018988609314,,,,,,,,
https://scontent-sit4-1.cdninstagram.com/t51.2885-15/sh0.08/e35/p640x640/13721051_635377933282577_2049473244_n.jpg,portrait,0.9964877367019653,"Fashion & Beauty","My life",,,"My look",Selfie,,
,woman,0.9930897951126099,,,,,,,,
,girl,0.992627739906311,,,,,,,,
,fashion,0.9919694662094116,,,,,,,,
,monochrome,0.9919028282165527,,,,,,,,
,model,0.9857398271560669,,,,,,,,
,eye,0.9822971820831299,,,,,,,,
,hair,0.9695085287094116,,,,,,,,
,glamour,0.9684441089630127,,,,,,,,
,sexy,0.9665431380271912,,,,,,,,
,pretty,0.9663039445877075,,,,,,,,
,skin,0.9633391499519348,,,,,,,,
,face,0.958656370639801,,,,,,,,
,cute,0.9475980401039124,,,,,,,,
,lips,0.9456997513771057,,,,,,,,
,beautiful,0.9441123604774475,,,,,,,,
,smile,0.936316728591919,,,,,,,,
,studio,0.9260415434837341,,,,,,,,
,sepia,0.9195005893707275,,,,,,,,
,long,0.9107697010040283,,,,,,,,
https://scontent-sit4-1.cdninstagram.com/t51.2885-15/sh0.08/e35/p750x750/13696933_1721782144749686_1092339426_n.jpg,portrait,0.9613851308822632,Media,Entertainment,,,Media-s,Entertainment-s,,
,one,0.9561051726341248,,,,,,,,
,fashion,0.9557735919952393,,,,,,,,
,wear,0.9548684358596802,,,,,,,,
,adult,0.9414900541305542,,,,,,,,
,man,0.9311583638191223,,,,,,,,
,model,0.9262278079986572,,,,,,,,
,fashionable,0.9231030941009521,,,,,,,,
,people,0.9096744060516357,,,,,,,,
,business,0.8917969465255737,,,,,,,,
,lid,0.8841714262962341,,,,,,,,
,woman,0.8710721731185913,,,,,,,,
,competition,0.8665401935577393,,,,,,,,
,music,0.8399620056152344,,,,,,,,
,winter,0.8274320363998413,,,,,,,,
,looking,0.8197975158691406,,,,,,,,
,performance,0.817054033279419,,,,,,,,
,musician,0.7963371276855469,,,,,,,,
,show,0.783862829208374,,,,,,,,
,pants,0.7809496521949768,,,,,,,,
https://scontent-sit4-1.cdninstagram.com/t51.2885-15/e35/13741485_1155558877799442_385550040_n.jpg,food,0.9901376962661743,Food,,,,Dessert,,,
,"no person",0.9716939926147461,,,,,,,,
,table,0.9434471726417542,,,,,,,,
,drink,0.9272334575653076,,,,,,,,
,delicious,0.9202805757522583,,,,,,,,
,knife,0.9179202914237976,,,,,,,,
,sweet,0.9170406460762024,,,,,,,,
,fruit,0.9127476215362549,,,,,,,,
,chocolate,0.9089643955230713,,,,,,,,
,wooden,0.8865951299667358,,,,,,,,
,wood,0.8855631351470947,,,,,,,,
,cake,0.8806289434432983,,,,,,,,
,"dairy product",0.8799651265144348,,,,,,,,
,traditional,0.8659891486167908,,,,,,,,
,cooking,0.8497569561004639,,,,,,,,
,"still life",0.8486347794532776,,,,,,,,
,restaurant,0.8475348353385925,,,,,,,,
,refreshment,0.8466935157775879,,,,,,,,
,cream,0.8464851379394531,,,,,,,,
,desktop,0.8458534479141235,,,,,,,,
https://scontent-sit4-1.cdninstagram.com/t51.2885-15/e35/13658406_1753318404948327_253724152_n.jpg,business,0.9698507785797119,Celebrations,,,,"Community Events",,,
,shopping,0.9544676542282104,,,,,,,,
,"no person",0.9091335535049438,,,,,,,,
,stock,0.9024336338043213,,,,,,,,
,indoors,0.8919943571090698,,,,,,,,
,shop,0.8847200274467468,,,,,,,,
,paper,0.866023063659668,,,,,,,,
,horizontal,0.8581035733222961,,,,,,,,
,text,0.8504220843315125,,,,,,,,
,wholesale,0.8452755212783813,,,,,,,,
,merchandise,0.8395077586174011,,,,,,,,
,sale,0.8365716338157654,,,,,,,,
,service,0.8364981412887573,,,,,,,,
,communication,0.8163999319076538,,,,,,,,
,market,0.8027596473693848,,,,,,,,
,sign,0.8011757135391235,,,,,,,,
,internet,0.7975329160690308,,,,,,,,
,vertical,0.7959682941436768,,,,,,,,
,data,0.7669703960418701,,,,,,,,
,design,0.7617763876914978,,,,,,,,
https://scontent-sit4-1.cdninstagram.com/t51.2885-15/e35/13721258_1556186401355958_1517100088_n.jpg,child,0.9779603481292725,Relationships,Food,,,"Best friends","Meal time",,
,woman,0.9620537757873535,,,,,,,,
,cute,0.9554114937782288,,,,,,,,
,indoors,0.9435307383537292,,,,,,,,
,family,0.9159927368164062,,,,,,,,
,fun,0.8976295590400696,,,,,,,,
,people,0.8962597250938416,,,,,,,,
,togetherness,0.87859046459198,,,,,,,,
,pretty,0.878111720085144,,,,,,,,
,joy,0.87769615650177,,,,,,,,
,little,0.8763108253479004,,,,,,,,
,enjoyment,0.861053466796875,,,,,,,,
,sit,0.8457846641540527,,,,,,,,
,breakfast,0.8275490999221802,,,,,,,,
,young,0.8246593475341797,,,,,,,,
,love,0.823320746421814,,,,,,,,
,adolescent,0.8004708290100098,,,,,,,,
,hungry,0.7774526476860046,,,,,,,,
,happiness,0.7592583894729614,,,,,,,,
,nutrition,0.7398926019668579,,,,,,,,
https://scontent-sit4-1.cdninstagram.com/t51.2885-15/e35/13827405_1832532300310964_17129643_n.jpg,"no person",0.9842797517776489,Undefined,,,,Undefined,,,
,document,0.977885365486145,,,,,,,,
,business,0.9769366979598999,,,,,,,,
,paper,0.9763063192367554,,,,,,,,
,text,0.9509073495864868,,,,,,,,
,administration,0.9215604662895203,,,,,,,,
,money,0.8886275291442871,,,,,,,,
,travel,0.8717263340950012,,,,,,,,
,card,0.8630372881889343,,,,,,,,
,desktop,0.8400676250457764,,,,,,,,
,wealth,0.825951874256134,,,,,,,,
,finance,0.8258894681930542,,,,,,,,
,time,0.8054100275039673,,,,,,,,
,calligraphy,0.80084228515625,,,,,,,,
,money,0.7902248501777649,,,,,,,,
,margin,0.7837656736373901,,,,,,,,
,passport,0.7733325958251953,,,,,,,,
,horizontal,0.7707881331443787,,,,,,,,
,writing,0.7633024454116821,,,,,,,,
,illustration,0.7467296123504639,,,,,,,,
https://scontent-sit4-1.cdninstagram.com/t51.2885-15/sh0.08/e35/p750x750/13732372_1163018113760743_136214973_n.jpg,woman,0.9888110160827637,"Fashion & Beauty","My life",,,"My look",Selfie,,
,girl,0.9871001243591309,,,,,,,,
,portrait,0.9817925095558167,,,,,,,,
,people,0.9681837558746338,,,,,,,,
,fashion,0.9553580284118652,,,,,,,,
,beautiful,0.9228464961051941,,,,,,,,
,model,0.9072517156600952,,,,,,,,
,cute,0.8967682123184204,,,,,,,,
,one,0.8935865759849548,,,,,,,,
,pretty,0.8922375440597534,,,,,,,,
,happiness,0.8808526396751404,,,,,,,,
,young,0.8726903796195984,,,,,,,,
,fun,0.8636859059333801,,,,,,,,
,enjoyment,0.85105299949646,,,,,,,,
,"facial expression",0.8436063528060913,,,,,,,,
,nature,0.8383567333221436,,,,,,,,
,face,0.8329581022262573,,,,,,,,
,joy,0.8329382538795471,,,,,,,,
,child,0.8323543071746826,,,,,,,,
,adult,0.8288204669952393,,,,,,,,
https://scontent-sit4-1.cdninstagram.com/t51.2885-15/e35/13707439_1916865485207136_108918604_n.jpg,conceptual,0.9721007347106934,Undefined,,,,Undefined,,,
,"give voice",0.9419088959693909,,,,,,,,
,text,0.9373458027839661,,,,,,,,
,illustration,0.9249293804168701,,,,,,,,
,phase,0.9217406511306763,,,,,,,,
,desktop,0.9101846814155579,,,,,,,,
,"no person",0.9012299180030823,,,,,,,,
,cloud,0.8872417211532593,,,,,,,,
,business,0.8786677122116089,,,,,,,,
,typographic,0.8439117670059204,,,,,,,,
,abstract,0.8430261015892029,,,,,,,,
,horizontal,0.8166724443435669,,,,,,,,
,method,0.8037465810775757,,,,,,,,
,graphic,0.773705244064331,,,,,,,,
,education,0.7715823650360107,,,,,,,,
,time,0.7634642124176025,,,,,,,,
,science,0.7614771127700806,,,,,,,,
,creativity,0.7574886679649353,,,,,,,,
,success,0.7530486583709717,,,,,,,,
,vertical,0.7529134154319763,,,,,,,,
https://scontent-sit4-1.cdninstagram.com/t51.2885-15/sh0.08/e35/p750x750/13636193_297463750608149_1534157708_n.jpg,child,0.9936380386352539,"Fashion & Beauty","My life",,,"My look",Selfie,,
,cute,0.972053587436676,,,,,,,,
,portrait,0.9680616855621338,,,,,,,,
,eye,0.95859694480896,,,,,,,,
,woman,0.9446626901626587,,,,,,,,
,fashion,0.9397459030151367,,,,,,,,
,girl,0.9359433650970459,,,,,,,,
,innocence,0.9333463907241821,,,,,,,,
,fun,0.9266326427459717,,,,,,,,
,people,0.9162734746932983,,,,,,,,
,little,0.9123989343643188,,,,,,,,
,joy,0.9090836048126221,,,,,,,,
,indoors,0.9041926264762878,,,,,,,,
,"facial expression",0.9001536965370178,,,,,,,,
,one,0.8937996625900269,,,,,,,,
,pretty,0.8852342367172241,,,,,,,,
,enjoyment,0.8584845066070557,,,,,,,,
,adolescent,0.82440584897995,,,,,,,,
,relaxation,0.813303530216217,,,,,,,,
,hair,0.7705967426300049,,,,,,,,
https://scontent-sit4-1.cdninstagram.com/t51.2885-15/sh0.08/e35/p750x750/13743209_1604515459846897_2078354487_n.jpg,child,0.9859115481376648,Celebrations,Food,"Fashion & Beauty",,"Personal Events",Dessert,"My look",
,woman,0.975251317024231,,,,,,,,
,people,0.9719061851501465,,,,,,,,
,indoors,0.9662678241729736,,,,,,,,
,portrait,0.9457376003265381,,,,,,,,
,cute,0.9401098489761353,,,,,,,,
,girl,0.9328584671020508,,,,,,,,
,fun,0.9157853126525879,,,,,,,,
,enjoyment,0.8936382532119751,,,,,,,,
,pretty,0.8723530173301697,,,,,,,,
,education,0.8436788320541382,,,,,,,,
,stock,0.8369203805923462,,,,,,,,
,family,0.832862138748169,,,,,,,,
,little,0.8271267414093018,,,,,,,,
,looking,0.8246392607688904,,,,,,,,
,adolescent,0.8154863715171814,,,,,,,,
,shopping,0.8137233853340149,,,,,,,,
,one,0.8010118007659912,,,,,,,,
,joy,0.7898716330528259,,,,,,,,
,happiness,0.7796920537948608,,,,,,,,
https://scontent-sit4-1.cdninstagram.com/t51.2885-15/e35/13732128_905539739574050_1869253673_n.jpg,group,0.9953900575637817,Relationships,,,,Friends,,,
,child,0.993348240852356,,,,,,,,
,togetherness,0.988365650177002,,,,,,,,
,room,0.9862494468688965,,,,,,,,
,people,0.9807495474815369,,,,,,,,
,"facial expression",0.9802590608596802,,,,,,,,
,woman,0.9783294200897217,,,,,,,,
,happiness,0.9760390520095825,,,,,,,,
,adult,0.9755702614784241,,,,,,,,
,indoors,0.9753780364990234,,,,,,,,
,friendship,0.9720759391784668,,,,,,,,
,boy,0.9657138586044312,,,,,,,,
,man,0.960002064704895,,,,,,,,
,group,0.9587042331695557,,,,,,,,
,offspring,0.9564923048019409,,,,,,,,
,enjoyment,0.9557084441184998,,,,,,,,
,four,0.9551534652709961,,,,,,,,
,family,0.9547146558761597,,,,,,,,
,lifestyle,0.9506174921989441,,,,,,,,
,education,0.9464648962020874,,,,,,,,
https://scontent-sit4-1.cdninstagram.com/t51.2885-15/sh0.08/e35/p750x750/13712271_293674800984920_569205101_n.jpg,woman,0.9961730241775513,"Fashion & Beauty","My life",,,"My look",Selfie,,
,fashion,0.977940559387207,,,,,,,,
,eye,0.9708722829818726,,,,,,,,
,portrait,0.9688866138458252,,,,,,,,
,glamour,0.9633033871650696,,,,,,,,
,sexy,0.9617109298706055,,,,,,,,
,lips,0.9606647491455078,,,,,,,,
,skin,0.959619402885437,,,,,,,,
,pretty,0.9504700899124146,,,,,,,,
,girl,0.9422027468681335,,,,,,,,
,cute,0.9133734703063965,,,,,,,,
,adolescent,0.8725483417510986,,,,,,,,
,people,0.8640767335891724,,,,,,,,
,model,0.8531875610351562,,,,,,,,
,elegant,0.8529719114303589,,,,,,,,
,nude,0.850612461566925,,,,,,,,
,hair,0.8410654067993164,,,,,,,,
,young,0.8180403113365173,,,,,,,,
,indoors,0.8050988912582397,,,,,,,,
,love,0.8050662279129028,,,,,,,,
https://scontent-sit4-1.cdninstagram.com/t51.2885-15/s750x750/sh0.08/e35/13706941_1165999570088198_2096687094_n.jpg,people,0.9951553344726562,Entertainment,,,,Events,,,
,music,0.98505699634552,,,,,,,,
,adult,0.9608527421951294,,,,,,,,
,group,0.9588279128074646,,,,,,,,
,group,0.9505985975265503,,,,,,,,
,many,0.9462065696716309,,,,,,,,
,concert,0.938011646270752,,,,,,,,
,man,0.9241931438446045,,,,,,,,
,performance,0.9218877553939819,,,,,,,,
,crowd,0.9199004769325256,,,,,,,,
,musician,0.9195985794067383,,,,,,,,
,one,0.9131879210472107,,,,,,,,
,light,0.9050626754760742,,,,,,,,
,singer,0.8955796957015991,,,,,,,,
,ceremony,0.8904037475585938,,,,,,,,
,festival,0.8817918300628662,,,,,,,,
,recreation,0.8792470693588257,,,,,,,,
,woman,0.8750295042991638,,,,,,,,
,athlete,0.8741850256919861,,,,,,,,
,motion,0.8728283643722534,,,,,,,,
https://scontent-sit4-1.cdninstagram.com/t51.2885-15/e35/13706855_1735561183383889_1747485331_n.jpg,architecture,0.9949337244033813,"My life",,,,"My world today",,,
,building,0.9936512112617493,,,,,,,,
,window,0.9881153702735901,,,,,,,,
,apartment,0.9858438968658447,,,,,,,,
,city,0.9853301048278809,,,,,,,,
,"no person",0.9751725196838379,,,,,,,,
,house,0.9743545055389404,,,,,,,,
,business,0.9689818024635315,,,,,,,,
,family,0.9684526324272156,,,,,,,,
,office,0.9599173069000244,,,,,,,,
,urban,0.9589077234268188,,,,,,,,
,home,0.9574570655822754,,,,,,,,
,glass,0.9496598243713379,,,,,,,,
,balcony,0.945506751537323,,,,,,,,
,outdoors,0.9440805912017822,,,,,,,,
,sky,0.939444899559021,,,,,,,,
,real,0.9392803311347961,,,,,,,,
,estate,0.9341913461685181,,,,,,,,
,downtown,0.932573139667511,,,,,,,,
,expression,0.9273664355278015,,,,,,,,
https://scontent-sit4-1.cdninstagram.com/t51.2885-15/e35/13743621_629467970545294_906573400_n.jpg,room,0.9319343566894531,Environment,,,,"Manmade beauty",,,
,architecture,0.92387855052948,,,,,,,,
,"no person",0.9026393890380859,,,,,,,,
,family,0.8906892538070679,,,,,,,,
,business,0.8861851692199707,,,,,,,,
,contemporary,0.8733298778533936,,,,,,,,
,house,0.8670467138290405,,,,,,,,
,indoors,0.8653468489646912,,,,,,,,
,people,0.8651337027549744,,,,,,,,
,city,0.863426685333252,,,,,,,,
,monochrome,0.8596917390823364,,,,,,,,
,furniture,0.8594200611114502,,,,,,,,
,light,0.8591582775115967,,,,,,,,
,window,0.8543779850006104,,,,,,,,
,modern,0.8435343503952026,,,,,,,,
,building,0.8408502340316772,,,,,,,,
,office,0.8206110000610352,,,,,,,,
,apartment,0.8139300346374512,,,,,,,,
,museum,0.8047052621841431,,,,,,,,
,technology,0.8046125173568726,,,,,,,,
https://scontent-sit4-1.cdninstagram.com/t51.2885-15/sh0.08/e35/p750x750/13732122_648947901924389_531022203_n.jpg,child,0.9980231523513794,Food,Celebrations,"Fashion & Beauty",,Dessert,"Personal Events","My look",
,cake,0.991855263710022,,,,,,,,
,indoors,0.9905463457107544,,,,,,,,
,people,0.9812940955162048,,,,,,,,
,enjoyment,0.9702014923095703,,,,,,,,
,fun,0.9653769731521606,,,,,,,,
,cute,0.9575328826904297,,,,,,,,
,food,0.952625036239624,,,,,,,,
,"dairy product",0.9390302896499634,,,,,,,,
,"birthday cake",0.9376322031021118,,,,,,,,
,one,0.930548369884491,,,,,,,,
,education,0.9283204078674316,,,,,,,,
,happiness,0.9271566867828369,,,,,,,,
,birthday,0.9259774684906006,,,,,,,,
,table,0.9218865633010864,,,,,,,,
,chocolate,0.9205535650253296,,,,,,,,
,school,0.9202902913093567,,,,,,,,
,girl,0.9146703481674194,,,,,,,,
,"elementary school",0.9103178977966309,,,,,,,,
,"facial expression",0.9070876836776733,,,,,,,,
https://scontent-sit4-1.cdninstagram.com/t51.2885-15/e35/13704079_1984351715124582_346297821_n.jpg,apple,0.9965589046478271,Food,,,,"Drinks and snack",,,
,health,0.9908829927444458,,,,,,,,
,fruit,0.990220844745636,,,,,,,,
,"no person",0.9892534017562866,,,,,,,,
,food,0.988957405090332,,,,,,,,
,delicious,0.9832972288131714,,,,,,,,
,juicy,0.9794661998748779,,,,,,,,
,nutrition,0.9696855545043945,,,,,,,,
,nature,0.9642674922943115,,,,,,,,
,juice,0.960928201675415,,,,,,,,
,leaf,0.9566928148269653,,,,,,,,
,agriculture,0.9396488666534424,,,,,,,,
,wet,0.9305449724197388,,,,,,,,
,bright,0.9264057874679565,,,,,,,,
,fall,0.925743818283081,,,,,,,,
,summer,0.9169068336486816,,,,,,,,
,healthy,0.913446307182312,,,,,,,,
,vitamin,0.9112025499343872,,,,,,,,
,sweet,0.9000042676925659,,,,,,,,
,confection,0.8973653316497803,,,,,,,,
https://scontent-sit4-1.cdninstagram.com/t51.2885-15/sh0.08/e35/p750x750/13768183_637952983039680_1877277360_n.jpg,music,0.9961137771606445,Entertainment,Media,,,Entertainment-s,Media-s,,
,performance,0.9943222403526306,,,,,,,,
,concert,0.9927384853363037,,,,,,,,
,musician,0.9897990226745605,,,,,,,,
,singer,0.9851546883583069,,,,,,,,
,festival,0.9763517379760742,,,,,,,,
,stage,0.9445915222167969,,,,,,,,
,fashion,0.9383768439292908,,,,,,,,
,dress,0.934645414352417,,,,,,,,
,adult,0.9083446264266968,,,,,,,,
,people,0.9066838622093201,,,,,,,,
,pop,0.8981989622116089,,,,,,,,
,woman,0.8958127498626709,,,,,,,,
,show,0.8911775946617126,,,,,,,,
,band,0.8837743997573853,,,,,,,,
,wear,0.8713744878768921,,,,,,,,
,beautiful,0.8674502372741699,,,,,,,,
,portrait,0.8427268266677856,,,,,,,,
,ceremony,0.8234977722167969,,,,,,,,
,veil,0.8092470765113831,,,,,,,,
https://scontent-sit4-1.cdninstagram.com/t51.2885-15/sh0.08/e35/p750x750/13732368_1705033359717337_1135256223_n.jpg,portrait,0.9912469387054443,"Fashion & Beauty",,,,"My look",,,
,woman,0.9904664754867554,,,,,,,,
,hair,0.988365650177002,,,,,,,,
,beautiful,0.9881051778793335,,,,,,,,
,young,0.9824210405349731,,,,,,,,
,girl,0.9823893308639526,,,,,,,,
,face,0.9796173572540283,,,,,,,,
,fashion,0.9759417772293091,,,,,,,,
,model,0.9666551351547241,,,,,,,,
,pretty,0.9641532897949219,,,,,,,,
,person,0.9531126022338867,,,,,,,,
,people,0.9443058967590332,,,,,,,,
,eye,0.9428668022155762,,,,,,,,
,sexy,0.9399554133415222,,,,,,,,
,skin,0.9353886842727661,,,,,,,,
,long,0.9274026155471802,,,,,,,,
,cute,0.9273039102554321,,,,,,,,
,glamour,0.9239999651908875,,,,,,,,
,attractive,0.9224979281425476,,,,,,,,
,adult,0.9139057397842407,,,,,,,,
https://scontent-sit4-1.cdninstagram.com/t51.2885-15/e35/13707168_487979478078578_1407717656_n.jpg,paper,0.9735108613967896,Commerce,,,,"Product/brand shots",,,
,recycling,0.9712668657302856,,,,,,,,
,garbage,0.9661716222763062,,,,,,,,
,"no person",0.9611771106719971,,,,,,,,
,trash,0.959726095199585,,,,,,,,
,litter,0.9554404020309448,,,,,,,,
,business,0.9528379440307617,,,,,,,,
,waste,0.9127935767173767,,,,,,,,
,man,0.8956784009933472,,,,,,,,
,sheet,0.8749150037765503,,,,,,,,
,indoors,0.8599311113357544,,,,,,,,
,offense,0.8433077335357666,,,,,,,,
,luxury,0.836674690246582,,,,,,,,
,dirty,0.8360399007797241,,,,,,,,
,wealth,0.8356379270553589,,,,,,,,
,people,0.8299136161804199,,,,,,,,
,pollution,0.8230230212211609,,,,,,,,
,money,0.8215261697769165,,,,,,,,
,vertical,0.8209261298179626,,,,,,,,
,emergency,0.8045114874839783,,,,,,,,
https://scontent-sit4-1.cdninstagram.com/t51.2885-15/sh0.08/e35/p750x750/13731229_712895305518063_1379894676_n.jpg,performance,0.9769321084022522,Media,Entertainment,,,Media-s,Entertainment-s,,
,music,0.974217414855957,,,,,,,,
,concert,0.9594904184341431,,,,,,,,
,fashion,0.9554723501205444,,,,,,,,
,singer,0.9531378746032715,,,,,,,,
,festival,0.9444864988327026,,,,,,,,
,musician,0.9436670541763306,,,,,,,,
,wear,0.921347439289093,,,,,,,,
,people,0.908583402633667,,,,,,,,
,model,0.8966293334960938,,,,,,,,
,adult,0.8928807377815247,,,,,,,,
,glamour,0.8901776075363159,,,,,,,,
,band,0.8849737644195557,,,,,,,,
,woman,0.8837113380432129,,,,,,,,
,man,0.8805072903633118,,,,,,,,
,stage,0.8663710951805115,,,,,,,,
,dress,0.8509276509284973,,,,,,,,
,fashionable,0.8500204086303711,,,,,,,,
,show,0.8455144762992859,,,,,,,,
,sexy,0.8449490666389465,,,,,,,,
https://scontent-sit4-1.cdninstagram.com/t51.2885-15/sh0.08/e35/p750x750/13687287_644074515757418_907705153_n.jpg,child,0.99431312084198,"Fashion & Beauty","My life",,,"My look",Selfie,,
,cute,0.9820191860198975,,,,,,,,
,portrait,0.9792478084564209,,,,,,,,
,girl,0.9785053133964539,,,,,,,,
,woman,0.9559648036956787,,,,,,,,
,fashion,0.9548561573028564,,,,,,,,
,people,0.9532288908958435,,,,,,,,
,little,0.9390162229537964,,,,,,,,
,one,0.936320424079895,,,,,,,,
,pretty,0.9280574917793274,,,,,,,,
,eye,0.9233357906341553,,,,,,,,
,fun,0.9160840511322021,,,,,,,,
,innocence,0.8994658589363098,,,,,,,,
,hair,0.8738465309143066,,,,,,,,
,model,0.8734209537506104,,,,,,,,
,cold,0.8584680557250977,,,,,,,,
,indoors,0.8575369119644165,,,,,,,,
,"facial expression",0.8569717407226562,,,,,,,,
,joy,0.8418726921081543,,,,,,,,
,winter,0.8344428539276123,,,,,,,,
https://scontent-sit4-1.cdninstagram.com/t51.2885-15/e35/13774808_285220151854130_818678535_n.jpg,people,0.9473105669021606,Commerce,,,,"Product/brand shots",,,
,child,0.942091703414917,,,,,,,,
,family,0.9056904911994934,,,,,,,,
,business,0.8903436660766602,,,,,,,,
,text,0.865707516670227,,,,,,,,
,woman,0.8256519436836243,,,,,,,,
,love,0.792220950126648,,,,,,,,
,fun,0.7891063094139099,,,,,,,,
,man,0.7758744955062866,,,,,,,,
,bill,0.7728443145751953,,,,,,,,
,paper,0.767367422580719,,,,,,,,
,adult,0.7672964334487915,,,,,,,,
,money,0.7654405832290649,,,,,,,,
,commerce,0.7413196563720703,,,,,,,,
,girl,0.7341985702514648,,,,,,,,
,retro,0.73193359375,,,,,,,,
,toy,0.7275592684745789,,,,,,,,
,card,0.7274851202964783,,,,,,,,
,illustration,0.7150474786758423,,,,,,,,
,education,0.7146811485290527,,,,,,,,
https://scontent-sit4-1.cdninstagram.com/t51.2885-15/e35/13734370_276456202722932_1986815194_n.jpg,Christmas,0.9884911775588989,Commerce,,,,Promotions,,,
,winter,0.9716275930404663,,,,,,,,
,"no person",0.9360253810882568,,,,,,,,
,paper,0.9304196238517761,,,,,,,,
,shopping,0.928189754486084,,,,,,,,
,outdoors,0.9280674457550049,,,,,,,,
,snow,0.9216356873512268,,,,,,,,
,celebration,0.9038365483283997,,,,,,,,
,gift,0.8915215730667114,,,,,,,,
,bag,0.8887609243392944,,,,,,,,
,illustration,0.8513820767402649,,,,,,,,
,vertical,0.847154974937439,,,,,,,,
,fun,0.8318946361541748,,,,,,,,
,container,0.8241963386535645,,,,,,,,
,people,0.8191467523574829,,,,,,,,
,shop,0.818179190158844,,,,,,,,
,merchandise,0.8022387623786926,,,,,,,,
,"christmas present",0.7960857152938843,,,,,,,,
,man,0.7906618118286133,,,,,,,,
,box,0.7904077768325806,,,,,,,,
https://scontent-sit4-1.cdninstagram.com/t51.2885-15/sh0.08/e35/p750x750/13732187_280458202318112_1668734204_n.jpg,child,0.9917579889297485,Celebrations,"Fashion & Beauty",Food,,"Personal Events","My look",Dessert,
,cute,0.9652841687202454,,,,,,,,
,girl,0.9646613597869873,,,,,,,,
,fun,0.9579797983169556,,,,,,,,
,people,0.9415543079376221,,,,,,,,
,woman,0.9212993383407593,,,,,,,,
,joy,0.897781491279602,,,,,,,,
,enjoyment,0.8910535573959351,,,,,,,,
,lifestyle,0.8754400014877319,,,,,,,,
,happiness,0.8716167211532593,,,,,,,,
,food,0.865165114402771,,,,,,,,
,pretty,0.8452500104904175,,,,,,,,
,portrait,0.829187273979187,,,,,,,,
,beautiful,0.8083236217498779,,,,,,,,
,confection,0.8064924478530884,,,,,,,,
,indoors,0.7994096279144287,,,,,,,,
,young,0.7708985805511475,,,,,,,,
,one,0.7657245397567749,,,,,,,,
,apple,0.7582557201385498,,,,,,,,
,health,0.7478547692298889,,,,,,,,
https://scontent-sit4-1.cdninstagram.com/t51.2885-15/e35/13715319_1725750491018304_537692205_n.jpg,paper,0.9563961029052734,Commerce,,,,"Product/brand shots",,,
,business,0.9554243683815002,,,,,,,,
,communication,0.9027228355407715,,,,,,,,
,"no person",0.8892820477485657,,,,,,,,
,desktop,0.8622357845306396,,,,,,,,
,data,0.8606793284416199,,,,,,,,
,text,0.8579137325286865,,,,,,,,
,technology,0.8542449474334717,,,,,,,,
,internet,0.8383417129516602,,,,,,,,
,computer,0.8192747831344604,,,,,,,,
,display,0.8179491758346558,,,,,,,,
,education,0.8171094059944153,,,,,,,,
,"World Wide Web",0.8141897916793823,,,,,,,,
,design,0.8111541271209717,,,,,,,,
,blank,0.8097176551818848,,,,,,,,
,money,0.8032709360122681,,,,,,,,
,symbol,0.8004766702651978,,,,,,,,
,finance,0.7845070362091064,,,,,,,,
,data,0.7799310088157654,,,,,,,,
,illustration,0.7717950344085693,,,,,,,,
https://scontent-sit4-1.cdninstagram.com/t51.2885-15/e35/13743995_1078724542210610_478950707_n.jpg,building,0.9872716665267944,"My life",,,,"My world today",,,
,architecture,0.984827995300293,,,,,,,,
,house,0.9816277623176575,,,,,,,,
,apartment,0.980883002281189,,,,,,,,
,city,0.978827953338623,,,,,,,,
,home,0.9693447947502136,,,,,,,,
,urban,0.9556026458740234,,,,,,,,
,outdoors,0.9492111206054688,,,,,,,,
,business,0.9454172253608704,,,,,,,,
,family,0.9398481845855713,,,,,,,,
,street,0.9394447207450867,,,,,,,,
,"no person",0.9296741485595703,,,,,,,,
,window,0.9274635314941406,,,,,,,,
,daylight,0.9272410869598389,,,,,,,,
,modern,0.9249474406242371,,,,,,,,
,balcony,0.9066368937492371,,,,,,,,
,travel,0.8967761993408203,,,,,,,,
,construction,0.8652961850166321,,,,,,,,
,office,0.8616344928741455,,,,,,,,
,light,0.8428014516830444,,,,,,,,
https://scontent-sit4-1.cdninstagram.com/t51.2885-15/e35/13707263_646117705551136_1341339177_n.jpg,child,0.9504660964012146,Commerce,Culture,,,"Product/brand shots",Culture-s,,
,illustration,0.9457415342330933,,,,,,,,
,toy,0.9406845569610596,,,,,,,,
,"no person",0.931831419467926,,,,,,,,
,fun,0.916276752948761,,,,,,,,
,sketch,0.9061324596405029,,,,,,,,
,card,0.9033330678939819,,,,,,,,
,vector,0.861872136592865,,,,,,,,
,boy,0.8347238302230835,,,,,,,,
,celebration,0.8217006325721741,,,,,,,,
,mammal,0.8159833550453186,,,,,,,,
,graphic,0.8029943704605103,,,,,,,,
,travel,0.7579368352890015,,,,,,,,
,art,0.7485439777374268,,,,,,,,
,gift,0.7450430989265442,,,,,,,,
,cat,0.7309079766273499,,,,,,,,
,Christmas,0.7252346277236938,,,,,,,,
,people,0.7162721157073975,,,,,,,,
,bird,0.715673565864563,,,,,,,,
,box,0.7148305177688599,,,,,,,,
https://scontent-sit4-1.cdninstagram.com/l/t51.2885-15/e35/13741278_828915110541684_1394480161_n.jpg,house,0.9909859299659729,"My life",Commerce,,,"Here I am","Product/brand shots",,
,"no person",0.9907025694847107,,,,,,,,
,architecture,0.9883804321289062,,,,,,,,
,family,0.9702023267745972,,,,,,,,
,window,0.9680872559547424,,,,,,,,
,door,0.9537659287452698,,,,,,,,
,outdoors,0.946990966796875,,,,,,,,
,home,0.9039434194564819,,,,,,,,
,"interior design",0.9010279178619385,,,,,,,,
,entrance,0.8899160623550415,,,,,,,,
,balcony,0.8679980039596558,,,,,,,,
,building,0.8620166778564453,,,,,,,,
,exterior,0.8511344194412231,,,,,,,,
,luxury,0.8500058650970459,,,,,,,,
,facade,0.8451578617095947,,,,,,,,
,travel,0.8413222432136536,,,,,,,,
,front,0.8200548887252808,,,,,,,,
,patio,0.8194900155067444,,,,,,,,
,wood,0.8172576427459717,,,,,,,,
,door,0.8150234222412109,,,,,,,,
https://scontent-sit4-1.cdninstagram.com/t51.2885-15/e35/13628181_1097599150307306_278195978_n.jpg,business,0.9688671827316284,Commerce,"Fashion & Beauty",,,"Product/brand shots","Fashion & Beauty-s",,
,money,0.9629952907562256,,,,,,,,
,"no person",0.9611485004425049,,,,,,,,
,paper,0.9405646324157715,,,,,,,,
,card,0.9147858619689941,,,,,,,,
,desktop,0.8967369794845581,,,,,,,,
,shopping,0.8960074186325073,,,,,,,,
,fashion,0.8934492468833923,,,,,,,,
,old,0.8832470178604126,,,,,,,,
,money,0.8675286769866943,,,,,,,,
,retro,0.858710527420044,,,,,,,,
,vintage,0.8435721397399902,,,,,,,,
,wealth,0.837532639503479,,,,,,,,
,color,0.8370864391326904,,,,,,,,
,cash,0.8368242979049683,,,,,,,,
,design,0.8346303701400757,,,,,,,,
,finance,0.8305294513702393,,,,,,,,
,commerce,0.826854407787323,,,,,,,,
,wear,0.8170648813247681,,,,,,,,
,symbol,0.8165980577468872,,,,,,,,
https://scontent-sit4-1.cdninstagram.com/t51.2885-15/e35/13712373_513227052194474_882323545_n.jpg,"no person",0.9907742738723755,Celebrations,Gifts,Commerce,,"Personal Events",Gifts-s,"Product/brand shots",
,indoors,0.9854716062545776,,,,,,,,
,paper,0.9622029066085815,,,,,,,,
,family,0.9432756900787354,,,,,,,,
,business,0.928502082824707,,,,,,,,
,retro,0.9259596467018127,,,,,,,,
,furniture,0.9230521321296692,,,,,,,,
,room,0.8981983661651611,,,,,,,,
,container,0.8818150758743286,,,,,,,,
,festival,0.8794509172439575,,,,,,,,
,Christmas,0.8745691776275635,,,,,,,,
,messy,0.8675739169120789,,,,,,,,
,one,0.8674088716506958,,,,,,,,
,relaxation,0.8634836673736572,,,,,,,,
,child,0.8326048851013184,,,,,,,,
,celebration,0.8321897983551025,,,,,,,,
,food,0.8191245794296265,,,,,,,,
,"interior design",0.8120507001876831,,,,,,,,
,fun,0.811295211315155,,,,,,,,
,leisure,0.8041529655456543,,,,,,,,
https://scontent-sit4-1.cdninstagram.com/t51.2885-15/e35/13745234_1564916340481376_652877784_n.jpg,label,0.9990639686584473,Commerce,,,,"Product/brand shots",,,
,template,0.9985382556915283,,,,,,,,
,layout,0.9937061071395874,,,,,,,,
,banner,0.9898837804794312,,,,,,,,
,"World Wide Web",0.9895685911178589,,,,,,,,
,page,0.9855941534042358,,,,,,,,
,presentation,0.9851396083831787,,,,,,,,
,booklet,0.9829869270324707,,,,,,,,
,set,0.9793661832809448,,,,,,,,
,bill,0.9791455268859863,,,,,,,,
,card,0.9763498306274414,,,,,,,,
,name,0.9672345519065857,,,,,,,,
,advertising,0.9659963846206665,,,,,,,,
,illustration,0.9654728174209595,,,,,,,,
,company,0.9604063034057617,,,,,,,,
,sign,0.9495140314102173,,,,,,,,
,information,0.9457113742828369,,,,,,,,
,tag,0.9445006847381592,,,,,,,,
,heading,0.9410200119018555,,,,,,,,
,box,0.9396789073944092,,,,,,,,
https://scontent-sit4-1.cdninstagram.com/t51.2885-15/e35/13712684_824566364340105_611540580_n.jpg,sky,0.9827371835708618,,Environment,,,,"Natural beauty",,
,"no person",0.9794198870658875,,,,,,,,
,tree,0.9659883379936218,,,,,,,,
,outdoors,0.9576717019081116,,,,,,,,
,architecture,0.9530801773071289,,,,,,,,
,summer,0.931894063949585,,,,,,,,
,nature,0.925324559211731,,,,,,,,
,building,0.9159542918205261,,,,,,,,
,travel,0.9007536172866821,,,,,,,,
,city,0.8955020904541016,,,,,,,,
,daylight,0.8914541006088257,,,,,,,,
,house,0.8815261125564575,,,,,,,,
,landscape,0.8739597201347351,,,,,,,,
,wood,0.8720793724060059,,,,,,,,
,"fair weather",0.8410104513168335,,,,,,,,
,park,0.8319059610366821,,,,,,,,
,high,0.8208129405975342,,,,,,,,
,modern,0.8020254969596863,,,,,,,,
,sun,0.7924025058746338,,,,,,,,
,bright,0.7795089483261108,,,,,,,,
https://scontent-sit4-1.cdninstagram.com/t51.2885-15/e35/13739491_972168616226121_1314096452_n.jpg,food,0.9745938777923584,Commerce,Food,,,"Product/brand shots",Food-s,,
,candy,0.9658972024917603,,,,,,,,
,"no person",0.9622622728347778,,,,,,,,
,horizontal,0.9340794086456299,,,,,,,,
,business,0.9288416504859924,,,,,,,,
,desktop,0.9233671426773071,,,,,,,,
,sugar,0.9224838018417358,,,,,,,,
,vertical,0.9036262631416321,,,,,,,,
,indoors,0.9010950326919556,,,,,,,,
,shopping,0.8915927410125732,,,,,,,,
,box,0.8901911973953247,,,,,,,,
,delicious,0.8847948312759399,,,,,,,,
,plastic,0.8758536577224731,,,,,,,,
,glass,0.8744892477989197,,,,,,,,
,color,0.873971700668335,,,,,,,,
,stock,0.8726674318313599,,,,,,,,
,health,0.8684142827987671,,,,,,,,
,merchandise,0.8536404371261597,,,,,,,,
,bright,0.8533542156219482,,,,,,,,
,container,0.8478661775588989,,,,,,,,
https://scontent-sit4-1.cdninstagram.com/t51.2885-15/e35/13696951_1712674172319764_2113985864_n.jpg,city,0.995147705078125,Environment,,,,"Natural beauty",,,
,tree,0.9920341372489929,,,,,,,,
,architecture,0.9909547567367554,,,,,,,,
,"no person",0.9867395162582397,,,,,,,,
,travel,0.984706461429596,,,,,,,,
,building,0.983799934387207,,,,,,,,
,daylight,0.9791949987411499,,,,,,,,
,sky,0.9788243174552917,,,,,,,,
,park,0.9786697030067444,,,,,,,,
,outdoors,0.9670805931091309,,,,,,,,
,street,0.9636560678482056,,,,,,,,
,urban,0.9422574043273926,,,,,,,,
,skyscraper,0.9292418956756592,,,,,,,,
,university,0.9175366163253784,,,,,,,,
,tallest,0.9092177748680115,,,,,,,,
,cityscape,0.905236542224884,,,,,,,,
,tower,0.9013909101486206,,,,,,,,
,downtown,0.8981448411941528,,,,,,,,
,road,0.891517162322998,,,,,,,,
,modern,0.8860232830047607,,,,,,,,
