url,class,score
https://scontent.cdninstagram.com/t51.2885-15/e15/13388613_1717339878525992_1739883240_n.jpg,woman,0.9669796228408813
,adult,0.9413700103759766
,people,0.9376043081283569
,vertical,0.8886390924453735
,young,0.8465652465820312
,portrait,0.8446171879768372
,body,0.8237807750701904
,contemplation,0.8219082355499268
,human,0.8120502829551697
,pain,0.8101722002029419
,man,0.7891972064971924
,head,0.7777078151702881
,dark,0.7608860731124878
,serious,0.749941349029541
,person,0.7428466081619263
,science,0.7403459548950195
,isolated,0.7148091793060303
,image,0.7103927731513977
,health,0.7096185684204102
,sexy,0.6892483234405518
https://scontent.cdninstagram.com/t51.2885-15/e35/13269541_247498145616748_2107861597_n.jpg,performance,0.9841854572296143
,people,0.9816086888313293
,many,0.9804947376251221
,group,0.9591900110244751
,music,0.9569165110588074
,group,0.9490633010864258
,stage,0.944839358329773
,adult,0.938190221786499
,musician,0.9275197982788086
,woman,0.926863968372345
,festival,0.9254690408706665
,wear,0.9208682775497437
,man,0.9176215529441833
,singer,0.9117317795753479
,concert,0.9037209749221802
,outfit,0.8745901584625244
,portrait,0.8439608812332153
,leader,0.8349806070327759
,band,0.8108425736427307
,theater,0.7938851118087769
https://scontent.cdninstagram.com/t51.2885-15/e35/13259101_1732392843673927_1137425122_n.jpg,people,0.994335412979126
,child,0.9900245070457458
,group,0.9861255288124084
,facial expression,0.985541045665741
,wear,0.9803687334060669
,daylight,0.9683931469917297
,veil,0.9574390649795532
,adult,0.9515199661254883
,woman,0.9508078098297119
,enjoyment,0.9467673301696777
,education,0.932913601398468
,group,0.9268338680267334
,uniform,0.9220393896102905
,many,0.9194194078445435
,school,0.9162958860397339
,happiness,0.9156438112258911
,vehicle,0.8990311622619629
,portrait,0.8873341083526611
,boy,0.8724081516265869
,family,0.8650619983673096
https://scontent.cdninstagram.com/t51.2885-15/e35/13257161_663864230432501_537026908_n.jpg,exploration,0.9591031074523926
,no person,0.9357243776321411
,travel,0.9268124103546143
,science,0.9253439903259277
,people,0.9251546859741211
,invertebrate,0.9239105582237244
,underwater,0.9072760939598083
,one,0.8758761286735535
,nature,0.8757023811340332
,water,0.8685340881347656
,outdoors,0.8587712049484253
,environment,0.8549419641494751
,wear,0.8383486866950989
,space,0.8365951776504517
,woman,0.8271628022193909
,adult,0.8270238637924194
,Christmas,0.825850784778595
,winter,0.8256820440292358
,light,0.8146783709526062
,calamity,0.8123079538345337
https://scontent.cdninstagram.com/t51.2885-15/e35/13402433_1625654557751782_1688596114_n.jpg,woman,0.9882850050926208
,fun,0.9738782644271851
,people,0.9687261581420898
,portrait,0.9678299427032471
,friendship,0.947376012802124
,girl,0.942448079586029
,laughing,0.941108226776123
,eyeglasses,0.9349322319030762
,togetherness,0.9345122575759888
,adolescent,0.9311120510101318
,fashion,0.9167572259902954
,pretty,0.9114900827407837
,joy,0.9108349084854126
,young,0.9072697162628174
,love,0.906904935836792
,adult,0.8971788883209229
,two,0.895044207572937
,facial expression,0.8949891328811646
,happiness,0.8889577388763428
,cute,0.8861160278320312
https://scontent.cdninstagram.com/t51.2885-15/s750x750/sh0.08/e35/13108496_1726574697625282_504379934_n.jpg,portrait,0.9923031330108643
,woman,0.9898889064788818
,group,0.9886751174926758
,child,0.9850786328315735
,facial expression,0.9848117232322693
,people,0.9810208678245544
,girl,0.9781266450881958
,happiness,0.9761791229248047
,friendship,0.9682254791259766
,boy,0.9634026288986206
,laughing,0.9479395747184753
,three,0.9469338655471802
,adult,0.9462980031967163
,family,0.9429417848587036
,adolescent,0.94153892993927
,group,0.939345121383667
,four,0.938700795173645
,togetherness,0.9300800561904907
,school,0.9188723564147949
,fun,0.9088338613510132
https://scontent.cdninstagram.com/t51.2885-15/e35/13381131_1626540670999574_2117103908_n.jpg,people,0.9903250336647034
,business,0.9858835935592651
,portrait,0.9858753681182861
,woman,0.9828975200653076
,adult,0.9789667129516602
,city,0.9767553806304932
,window,0.9734205603599548
,office,0.9666514992713928
,one,0.9617339372634888
,telephone,0.9505858421325684
,street,0.9416829347610474
,building,0.9247924089431763
,girl,0.9158347249031067
,urban,0.91084223985672
,finance,0.8827837109565735
,travel,0.8524383306503296
,reflection,0.8448120355606079
,daylight,0.8332687020301819
,wear,0.8230744004249573
,technology,0.8130582571029663
https://scontent.cdninstagram.com/t51.2885-15/e35/13113815_171128653283875_173193126_n.jpg,group,0.992003858089447
,portrait,0.9881993532180786
,group,0.9728256464004517
,woman,0.970819354057312
,facial expression,0.9688100814819336
,adult,0.9638622999191284
,performance,0.9603896141052246
,people,0.9587785601615906
,music,0.9557002782821655
,musician,0.9548079967498779
,singer,0.9547725319862366
,band,0.944355309009552
,many,0.9343074560165405
,friendship,0.9234286546707153
,festival,0.9140293598175049
,wear,0.8983270525932312
,man,0.8958368301391602
,girl,0.8944905996322632
,model,0.8903372287750244
,recreation,0.8664417862892151
https://scontent.cdninstagram.com/t51.2885-15/e35/12331725_563441667142257_1418845521_n.jpg,group,0.9770338535308838
,child,0.9722437858581543
,school,0.9698857069015503
,woman,0.9674843549728394
,people,0.9660242199897766
,education,0.9610106945037842
,group,0.9521097540855408
,adult,0.9410780072212219
,man,0.9336165189743042
,portrait,0.933508574962616
,friendship,0.9227393865585327
,adolescent,0.8984774351119995
,many,0.8896554708480835
,enjoyment,0.8731658458709717
,university,0.8727973699569702
,facial expression,0.8699604272842407
,togetherness,0.8630123734474182
,boy,0.8378696441650391
,girl,0.8347524404525757
,competition,0.8321326971054077
https://scontent.cdninstagram.com/t51.2885-15/e35/12328373_1717515511871248_612499469_n.jpg,woman,0.9938653707504272
,people,0.9920570254325867
,wedding,0.9888820648193359
,portrait,0.9856159687042236
,girl,0.9807994365692139
,exhibition,0.9788236618041992
,bride,0.9765979051589966
,moment,0.9758272171020508
,adult,0.9739642143249512
,love,0.9705958962440491
,family,0.9699282646179199
,indoors,0.9675114154815674
,man,0.9656343460083008
,museum,0.9615437388420105
,groom,0.9595963954925537
,landscape,0.9587644338607788
,model,0.9530551433563232
,album,0.9499470591545105
,couple,0.9473738670349121
,ceremony,0.9392039775848389
https://scontent.cdninstagram.com/t51.2885-15/e35/13129490_1011234518972313_1064409751_n.jpg,people,0.9903697371482849
,portrait,0.9854556918144226
,adult,0.9848760366439819
,group,0.9826375246047974
,man,0.9666071534156799
,woman,0.9651415348052979
,facial expression,0.9530160427093506
,eyewear,0.9423491954803467
,three,0.9399573802947998
,eyeglasses,0.9152824282646179
,happiness,0.8989499807357788
,sunglasses,0.8870234489440918
,battle,0.884696364402771
,offense,0.8840189576148987
,music,0.8831944465637207
,girl,0.8789503574371338
,youth,0.877492368221283
,child,0.8774086236953735
,interaction,0.876903772354126
,wear,0.865729570388794
https://scontent.cdninstagram.com/t51.2885-15/e15/11259241_373415916188947_1022610931_n.jpg,group,0.9876692891120911
,portrait,0.9801658987998962
,woman,0.9682515859603882
,people,0.9626297950744629
,adult,0.9471749067306519
,happiness,0.9425349235534668
,education,0.9408960938453674
,university,0.9273324012756348
,friendship,0.925838828086853
,accomplishment,0.9217067956924438
,business,0.9160369634628296
,girl,0.9150741100311279
,school,0.8900766968727112
,youth,0.8878415822982788
,young,0.876721978187561
,group,0.8755089044570923
,fun,0.8752750158309937
,adolescent,0.8669735193252563
,music,0.8644086122512817
,success,0.8637466430664062
https://scontent.cdninstagram.com/t51.2885-15/e35/12912423_1734918333410074_1623912775_n.jpg,woman,0.9869167804718018
,people,0.9861958622932434
,girl,0.9560592174530029
,indoors,0.9554649591445923
,portrait,0.9511895775794983
,togetherness,0.93770831823349
,two,0.9284386038780212
,facial expression,0.9282757639884949
,adult,0.9274411797523499
,adolescent,0.9118202328681946
,happiness,0.9091586470603943
,friendship,0.9079091548919678
,enjoyment,0.9018667936325073
,fun,0.8997336626052856
,brunette,0.8947328329086304
,wear,0.8797438144683838
,child,0.8782588839530945
,man,0.8761609792709351
,daylight,0.871380090713501
,family,0.8671448230743408
https://scontent.cdninstagram.com/t51.2885-15/e35/1389526_455535311316536_2087224227_n.jpg,portrait,0.996982991695404
,group,0.9959568977355957
,people,0.9864945411682129
,eyeglasses,0.9793330430984497
,facial expression,0.9698246717453003
,woman,0.9568566083908081
,eyewear,0.9534811973571777
,man,0.9508042335510254
,adult,0.9383997917175293
,graduation,0.9358258247375488
,group,0.9280928373336792
,university,0.9152877926826477
,three,0.902163028717041
,girl,0.8999534845352173
,education,0.8891640901565552
,school,0.885627269744873
,four,0.8830463886260986
,laughing,0.8727922439575195
,five,0.8584949374198914
,happiness,0.832170307636261
https://scontent.cdninstagram.com/t51.2885-15/e35/11363947_1626808170902217_459615397_n.jpg,school,0.9959666132926941
,woman,0.9925144910812378
,education,0.984257698059082
,people,0.9837872982025146
,group,0.9818515777587891
,group,0.9755687713623047
,adult,0.9754836559295654
,many,0.9686497449874878
,squad,0.9666873812675476
,competition,0.960739254951477
,portrait,0.9602806568145752
,man,0.9491344690322876
,university,0.9456849098205566
,recreation,0.9450950026512146
,wear,0.92476487159729
,ball,0.9212198257446289
,student,0.9187672734260559
,adolescent,0.910155177116394
,teamwork,0.9031884074211121
,friendship,0.8998478651046753
https://scontent.cdninstagram.com/t51.2885-15/e35/12356433_1230011663707501_528013756_n.jpg,group,0.9834080934524536
,people,0.9748505353927612
,portrait,0.965914249420166
,woman,0.9653615951538086
,adult,0.9624624252319336
,group,0.9489434361457825
,girl,0.934230625629425
,wear,0.910496711730957
,many,0.8959077596664429
,music,0.8942358493804932
,performance,0.8899375200271606
,man,0.8889492750167847
,facial expression,0.8815348744392395
,happiness,0.8811335563659668
,fun,0.8695504665374756
,singer,0.842768669128418
,festival,0.8390010595321655
,fashion,0.8276830911636353
,child,0.8257344961166382
,business,0.8210222721099854
https://scontent.cdninstagram.com/t51.2885-15/sh0.08/e35/p750x750/12930931_1005102709582049_1623151346_n.jpg,woman,0.9899159669876099
,girl,0.9660689830780029
,people,0.9638441801071167
,portrait,0.9492568969726562
,fun,0.9419662952423096
,family,0.9368153810501099
,pretty,0.9233067631721497
,love,0.906660795211792
,indoors,0.8822827935218811
,child,0.8782203197479248
,togetherness,0.876389741897583
,wear,0.8754754662513733
,two,0.8693037629127502
,friendship,0.8684665560722351
,fashion,0.8607133626937866
,adolescent,0.857032299041748
,young,0.8537825345993042
,cute,0.8421120643615723
,enjoyment,0.8386805653572083
,beautiful,0.8330940008163452
https://scontent.cdninstagram.com/t51.2885-15/e35/11380127_858028327585457_1431012880_n.jpg,people,0.986331582069397
,music,0.9828991889953613
,festival,0.978365957736969
,performance,0.9766228199005127
,group,0.9681893587112427
,woman,0.9584709405899048
,concert,0.9483232498168945
,rally,0.9327335357666016
,singer,0.9234015941619873
,wear,0.916378378868103
,musician,0.9035193920135498
,city,0.902132511138916
,portrait,0.8869649171829224
,youth,0.886163592338562
,adult,0.885040283203125
,election,0.8781806230545044
,stage,0.8761586546897888
,crowd,0.8737196326255798
,club,0.872562050819397
,competition,0.8686478137969971
https://scontent.cdninstagram.com/t51.2885-15/e35/11809707_1631129063802809_1469176600_n.jpg,group,0.9995052814483643
,portrait,0.9894400835037231
,people,0.9881691932678223
,school,0.9865632057189941
,woman,0.9859592914581299
,education,0.9827088117599487
,many,0.9749263525009155
,child,0.9714634418487549
,adult,0.9656301736831665
,religion,0.9516181945800781
,group,0.9445164203643799
,facial expression,0.9425944089889526
,youth,0.9408522844314575
,teacher,0.9396340847015381
,friendship,0.9312698841094971
,university,0.9036486148834229
,girl,0.8829824328422546
,several,0.8803387880325317
,leader,0.8775588274002075
,landscape,0.8763864040374756
https://scontent.cdninstagram.com/t51.2885-15/e35/12424622_775624942568103_428686051_n.jpg,festival,0.9929037690162659
,music,0.9925861954689026
,people,0.9870187044143677
,celebration,0.9712069034576416
,performance,0.9678299427032471
,party,0.9677556753158569
,crowd,0.9657190442085266
,concert,0.9615105390548706
,competition,0.9587616920471191
,many,0.9548941850662231
,club,0.945507287979126
,group,0.939873218536377
,dancing,0.932968258857727
,rave,0.9272493124008179
,sports fan,0.9193021655082703
,street,0.9150217175483704
,club,0.9073183536529541
,singer,0.9058805704116821
,musician,0.9055957794189453
,band,0.9043824076652527
https://scontent.cdninstagram.com/t51.2885-15/sh0.08/e35/p750x750/10832062_1064520803590929_1509349225_n.jpg,woman,0.9918663501739502
,people,0.9868069887161255
,portrait,0.9816968441009521
,adult,0.9597207307815552
,girl,0.959160566329956
,two,0.952593207359314
,indoors,0.9475982189178467
,wear,0.9440968632698059
,facial expression,0.9418283700942993
,man,0.9322103261947632
,happiness,0.9303625822067261
,togetherness,0.9252942204475403
,love,0.9066684246063232
,child,0.8880908489227295
,fun,0.8641357421875
,interaction,0.8624800443649292
,laughing,0.853503942489624
,friendship,0.8395582437515259
,fashion,0.8334236741065979
,brunette,0.827293336391449
https://scontent.cdninstagram.com/t51.2885-15/s750x750/sh0.08/e35/12912658_734332403335855_849436222_n.jpg,portrait,0.9924830198287964
,group,0.9920743107795715
,woman,0.9860380291938782
,adult,0.9805452823638916
,people,0.9786843061447144
,facial expression,0.9784306287765503
,education,0.9711901545524597
,group,0.9612340927124023
,school,0.9570653438568115
,university,0.9538987874984741
,happiness,0.9469509124755859
,youth,0.9423274993896484
,friendship,0.9374395608901978
,music,0.9337724447250366
,man,0.927890956401825
,musician,0.9227069616317749
,adolescent,0.9119809865951538
,indoors,0.9107665419578552
,wear,0.9053219556808472
,festival,0.8898367881774902
https://scontent.cdninstagram.com/t51.2885-15/e35/1170994_449506825254012_1437684764_n.jpg,people,0.9938424825668335
,soccer,0.9870372414588928
,group,0.986487627029419
,man,0.9857269525527954
,competition,0.9850273728370667
,crowd,0.9842660427093506
,football,0.9837260246276855
,squad,0.9824932813644409
,many,0.9786469340324402
,stadium,0.9741729497909546
,sports fan,0.96986985206604
,sport,0.9550191164016724
,adult,0.9514450430870056
,cup,0.9494438171386719
,woman,0.9487717151641846
,athlete,0.9459387063980103
,bleachers,0.9412585496902466
,game,0.9387166500091553
,group,0.9370044469833374
,flag,0.9338116645812988
https://scontent.cdninstagram.com/t51.2885-15/e35/12627874_1689519931289641_1371873627_n.jpg,group,0.9971134066581726
,school,0.975711464881897
,portrait,0.9732294082641602
,people,0.9678478240966797
,woman,0.967775285243988
,education,0.9665194749832153
,adult,0.9614822864532471
,child,0.9590361714363098
,facial expression,0.9498476982116699
,group,0.9266287088394165
,happiness,0.9095187783241272
,man,0.9094953536987305
,university,0.9081326723098755
,festival,0.8959338665008545
,many,0.8791640996932983
,friendship,0.8752661943435669
,youth,0.8721868395805359
,offense,0.8588388562202454
,wear,0.8559648990631104
,togetherness,0.8521921634674072
https://scontent.cdninstagram.com/t51.2885-15/e15/11356476_786129921484335_39558738_n.jpg,group,0.9932266473770142
,group,0.9822307825088501
,many,0.9574874043464661
,people,0.9458760023117065
,student,0.9303711652755737
,woman,0.9176725745201111
,man,0.9171095490455627
,friendship,0.8996134400367737
,child,0.8953692317008972
,sit,0.8754621744155884
,family,0.870948076248169
,adolescent,0.8204667568206787
,school,0.8131633400917053
,boy,0.8107645511627197
,adult,0.8066384792327881
,education,0.8058401346206665
,squad,0.7975672483444214
,togetherness,0.7340772151947021
,portrait,0.7251428961753845
,wear,0.687657356262207
https://scontent.cdninstagram.com/t51.2885-15/e35/12357456_955045824588392_106972181_n.jpg,woman,0.9830812215805054
,sit,0.9769508838653564
,portrait,0.9728140830993652
,girl,0.9717817306518555
,winter,0.9627846479415894
,people,0.9620957970619202
,fashion,0.9576231241226196
,cute,0.9573807716369629
,fun,0.9498493075370789
,child,0.9490078687667847
,one,0.9465504884719849
,fall,0.9458931088447571
,young,0.9282339811325073
,outdoors,0.9265387058258057
,nature,0.9261691570281982
,love,0.9253799915313721
,dog,0.9234126806259155
,leisure,0.9219310283660889
,pretty,0.9181269407272339
,beautiful,0.9071000814437866
https://scontent.cdninstagram.com/t51.2885-15/e35/12825840_175964279454327_1993118981_n.jpg,group,0.9979777336120605
,group,0.991966724395752
,portrait,0.9825048446655273
,woman,0.9806244373321533
,four,0.9786924123764038
,school,0.9742512702941895
,child,0.9711512327194214
,friendship,0.9608757495880127
,facial expression,0.9599473476409912
,togetherness,0.9592406749725342
,people,0.9569398164749146
,education,0.9561232328414917
,laughing,0.9493643045425415
,happiness,0.9492269158363342
,three,0.9464079737663269
,cooperation,0.9461593627929688
,teamwork,0.9461190700531006
,student,0.9424549341201782
,university,0.9345251321792603
,interaction,0.9316627979278564
https://scontent.cdninstagram.com/t51.2885-15/e35/1599491_1708497559367349_1525848936_n.jpg,people,0.9878675937652588
,travel,0.9811201095581055
,aircraft,0.9582379460334778
,recreation,0.9566539525985718
,woman,0.9536168575286865
,museum,0.9475321769714355
,military,0.9468571543693542
,wear,0.9445526599884033
,child,0.9439542293548584
,festival,0.9309934973716736
,man,0.9246068596839905
,airplane,0.9238437414169312
,adult,0.9130176901817322
,building,0.9118950366973877
,group,0.8933231830596924
,landscape,0.8892983198165894
,competition,0.882853627204895
,one,0.879349946975708
,enjoyment,0.8733309507369995
,city,0.8689548373222351
https://scontent.cdninstagram.com/t51.2885-15/e35/10549706_876058482493519_736638097_n.jpg,group,0.9992791414260864
,education,0.9944368600845337
,woman,0.9934760332107544
,room,0.9931933879852295
,university,0.9905574321746826
,school,0.9896057844161987
,portrait,0.9825574159622192
,adult,0.9795854091644287
,furniture,0.9743479490280151
,indoors,0.9575015306472778
,group,0.9540258049964905
,teamwork,0.952958881855011
,teacher,0.9529048204421997
,four,0.9514405131340027
,sitting,0.9481173753738403
,classroom,0.9469465017318726
,seat,0.9436237215995789
,many,0.9408073425292969
,facial expression,0.9382054805755615
,class,0.9333599209785461
https://scontent.cdninstagram.com/t51.2885-15/e35/12816926_1751683821727728_466209968_n.jpg,friendship,0.994329571723938
,group,0.993071973323822
,woman,0.9909770488739014
,student,0.9839061498641968
,group,0.9790897369384766
,laughing,0.9732840061187744
,fun,0.9726446866989136
,togetherness,0.9717332124710083
,adolescent,0.9698781967163086
,child,0.9663274884223938
,people,0.9656504988670349
,four,0.9595590829849243
,girl,0.9565200805664062
,portrait,0.9538728594779968
,joy,0.9475122690200806
,smile,0.9307035207748413
,three,0.9290932416915894
,family,0.9168097972869873
,man,0.9167242050170898
,love,0.8973777294158936
https://scontent.cdninstagram.com/t51.2885-15/e35/12552310_214639082210406_260038161_n.jpg,people,0.9936296939849854
,group,0.9899098873138428
,portrait,0.9885345697402954
,facial expression,0.9856618642807007
,eyeglasses,0.9776185750961304
,happiness,0.9671416282653809
,adult,0.9608330130577087
,child,0.9592283964157104
,eyewear,0.9575406312942505
,school,0.9569699764251709
,education,0.9535256028175354
,woman,0.9459617137908936
,festival,0.9452887177467346
,girl,0.9378960728645325
,three,0.931486964225769
,youth,0.9300343990325928
,wear,0.9172188639640808
,friendship,0.899481475353241
,interaction,0.8982553482055664
,togetherness,0.8939624428749084
https://scontent.cdninstagram.com/t51.2885-15/e35/12362151_200470316959495_1633626414_n.jpg,outdoors,0.9719399809837341
,people,0.9660334587097168
,travel,0.9561217427253723
,no person,0.9468287229537964
,man,0.9399667978286743
,woman,0.9288733601570129
,vehicle,0.9086915254592896
,water,0.9083181619644165
,fun,0.9054707884788513
,sky,0.8932480812072754
,two,0.8864894509315491
,many,0.8810727000236511
,winter,0.8698953986167908
,child,0.8500024080276489
,one,0.8496965169906616
,reflection,0.8329275250434875
,business,0.8329060077667236
,recreation,0.8287134170532227
,leisure,0.8171929121017456
,enjoyment,0.8051917552947998
https://scontent.cdninstagram.com/t51.2885-15/e35/12080457_424271434447424_49242293_n.jpg,many,0.9962749481201172
,group,0.9930142164230347
,woman,0.9903916120529175
,people,0.9900170564651489
,school,0.985630452632904
,class,0.9793539643287659
,man,0.9782931208610535
,education,0.9765634536743164
,conformity,0.9738403558731079
,uniform,0.9681081771850586
,crowd,0.9593709707260132
,group,0.9529150724411011
,military,0.9486116170883179
,boy,0.9456665515899658
,wear,0.9364087581634521
,squad,0.9356038570404053
,adult,0.9260536432266235
,portrait,0.9129102826118469
,child,0.9041508436203003
,variation,0.9037992358207703
https://scontent.cdninstagram.com/t51.2885-15/e35/11849094_984899141546569_204542843_n.jpg,woman,0.9902940988540649
,girl,0.9889534115791321
,young,0.9873074889183044
,people,0.9868438243865967
,beautiful,0.9791063070297241
,person,0.9714184999465942
,cute,0.9668700098991394
,pretty,0.9639973640441895
,portrait,0.9619633555412292
,smile,0.9593337774276733
,child,0.9530052542686462
,two,0.9503127336502075
,attractive,0.9330909848213196
,cheerful,0.9251387119293213
,school,0.9247241020202637
,health,0.9241186380386353
,fun,0.9234941005706787
,education,0.921157956123352
,lifestyle,0.9205852746963501
,happiness,0.9154955148696899
https://scontent.cdninstagram.com/t51.2885-15/e35/12237199_1122261401132464_188781347_n.jpg,woman,0.9890887141227722
,portrait,0.9770675897598267
,group,0.9739434719085693
,people,0.9529038667678833
,facial expression,0.934935986995697
,university,0.9330817461013794
,coffee,0.9264259338378906
,happiness,0.9209164381027222
,indoors,0.9136221408843994
,adult,0.9127424955368042
,togetherness,0.8995224237442017
,man,0.8940126895904541
,friendship,0.8833205103874207
,enjoyment,0.8814658522605896
,school,0.880679726600647
,education,0.8724644184112549
,group,0.854628324508667
,laughing,0.8515851497650146
,student,0.8271892070770264
,three,0.8271727561950684
https://scontent.cdninstagram.com/t51.2885-15/e35/12338597_1004019939639896_1550227055_n.jpg,portrait,0.9947667121887207
,group,0.9934332966804504
,eyeglasses,0.9852837324142456
,people,0.9851202964782715
,eyewear,0.972610592842102
,woman,0.9696340560913086
,child,0.9693946838378906
,three,0.963324785232544
,facial expression,0.9583491683006287
,adult,0.9475557804107666
,fame,0.939911961555481
,singer,0.9317513108253479
,musician,0.9261202812194824
,four,0.923019289970398
,celebration,0.9145036935806274
,happiness,0.9116816520690918
,retro,0.9101100564002991
,indoors,0.9045792818069458
,man,0.9036366939544678
,laughing,0.8996235132217407
https://scontent.cdninstagram.com/t51.2885-15/sh0.08/e35/p640x640/12317773_1691060831163057_341773895_n.jpg,people,0.9866052865982056
,group,0.9830193519592285
,woman,0.9495174288749695
,street,0.9455457925796509
,man,0.8827629089355469
,many,0.8820785284042358
,portrait,0.880037784576416
,stock,0.8796720504760742
,child,0.8722884058952332
,music,0.852186918258667
,family,0.8466042280197144
,group,0.8407836556434631
,adult,0.837847888469696
,festival,0.8314582109451294
,fun,0.8252072930335999
,road,0.8070741891860962
,city,0.7997413873672485
,dancing,0.7929925918579102
,shopping,0.7909671068191528
,enjoyment,0.7760099172592163
