url,class,score
https://scontent.cdninstagram.com/t51.2885-15/e35/13413272_619506218206305_1191196935_n.jpg,no person,0.99183189868927
,food,0.9878565073013306
,delicious,0.9570890665054321
,grow,0.9482166767120361
,traditional,0.9374567270278931
,vegetable,0.9259161949157715
,hot,0.9258173108100891
,dinner,0.9226823449134827
,lunch,0.916733980178833
,cooking,0.9114806652069092
,meal,0.9059900641441345
,dish,0.9009060859680176
,sauce,0.8978921175003052
,plate,0.8896446228027344
,nutrition,0.8877285718917847
,fruit,0.8855200409889221
,dairy product,0.8813045620918274
,meat,0.8802309036254883
,still life,0.8801036477088928
,cutlery,0.8738442659378052
https://scontent.cdninstagram.com/t51.2885-15/e35/13118336_1711098925816164_97864796_n.jpg,paper,0.9820258021354675
,graph,0.9784283638000488
,data,0.9760527610778809
,business,0.9755617380142212
,composition,0.9697047472000122
,statistics,0.969079852104187
,document,0.9607003331184387
,growth,0.9559279084205627
,no person,0.9502785205841064
,diagram,0.949716329574585
,money,0.9361618161201477
,balance,0.9303340911865234
,success,0.9203513860702515
,data,0.9197807312011719
,study,0.916236400604248
,office,0.9047932028770447
,research,0.9013465046882629
,finance,0.9005172252655029
,technology,0.8978522419929504
,graph,0.8956414461135864
https://scontent.cdninstagram.com/t51.2885-15/e35/12907299_1155627124457286_1885407709_n.jpg,marathon,0.9979538917541504
,runner,0.9969605207443237
,competition,0.9967837333679199
,jogger,0.9949353933334351
,people,0.9890059232711792
,athlete,0.9841903448104858
,road,0.9826056957244873
,track and field,0.9769284129142761
,footrace,0.9759451150894165
,motion,0.9722476005554199
,recreation,0.9687873125076294
,man,0.9672317504882812
,woman,0.9651994705200195
,race,0.9592038989067078
,street,0.9485902190208435
,child,0.9438967704772949
,race,0.9427661895751953
,rally,0.9323666095733643
,group,0.9152050018310547
,outdoors,0.9035063982009888
https://scontent.cdninstagram.com/t51.2885-15/e35/12818985_211239645903236_352882874_n.jpg,food,0.9922381043434143
,no person,0.9865996241569519
,poultry,0.9551764130592346
,meat,0.9516846537590027
,cooking,0.936724066734314
,grow,0.9318486452102661
,dinner,0.9263371825218201
,chicken,0.9139690399169922
,meal,0.9137061834335327
,dish,0.9072377681732178
,egg,0.9008845090866089
,lunch,0.8983765840530396
,vegetable,0.8921672105789185
,delicious,0.8910776376724243
,pork,0.8860654830932617
,plate,0.841065526008606
,bread,0.8272010684013367
,seafood,0.8245429396629333
,bacon,0.8179296851158142
,potato,0.7972952723503113
https://scontent.cdninstagram.com/t51.2885-15/e35/13437151_1050038625073004_1281074212_n.jpg,woman,0.9769983887672424
,people,0.9553934335708618
,group,0.9457935690879822
,portrait,0.9444891214370728
,accomplishment,0.9293519258499146
,graduation,0.912652850151062
,adolescent,0.9006598591804504
,education,0.8983633518218994
,student,0.8962430357933044
,man,0.8871229887008667
,multicultural,0.8813135027885437
,school,0.8753442764282227
,child,0.8708295226097107
,college,0.8695434331893921
,university,0.8528721332550049
,outdoors,0.8387795686721802
,girl,0.8010616302490234
,indoors,0.7962875962257385
,facial expression,0.7655259966850281
,ceremony,0.762227475643158
https://scontent.cdninstagram.com/t51.2885-15/sh0.08/e35/p750x750/12783480_977391265669980_522240961_n.jpg,competition,0.9950494766235352
,athlete,0.9692717790603638
,one,0.9593552350997925
,sport,0.9573876261711121
,movie,0.9552357196807861
,championship,0.9549638032913208
,recreation,0.9463998079299927
,adult,0.9426831603050232
,people,0.9408221244812012
,strength,0.9366098046302795
,boxer,0.9363600015640259
,football,0.9320013523101807
,soccer,0.927543580532074
,champion,0.9192737340927124
,sports fan,0.9175846576690674
,game,0.8883386850357056
,boy,0.8797913789749146
,stadium,0.8789610862731934
,festival,0.8776383399963379
,action,0.8633522987365723
https://scontent.cdninstagram.com/t51.2885-15/e35/12479073_1520023404973488_969762706_n.jpg,people,0.9858103394508362
,group,0.9828685522079468
,portrait,0.9800987839698792
,rally,0.9744468927383423
,man,0.9550329446792603
,offense,0.9510354995727539
,woman,0.9499139785766602
,music,0.9456303119659424
,adult,0.9444431066513062
,education,0.9428060054779053
,election,0.9389966130256653
,three,0.9379830360412598
,musician,0.9330594539642334
,facial expression,0.8982974290847778
,singer,0.895869255065918
,administration,0.8905726671218872
,four,0.8791006207466125
,rebellion,0.8619351983070374
,school,0.8617116212844849
,police,0.8550773859024048
https://scontent.cdninstagram.com/t51.2885-15/s750x750/sh0.08/e35/12530836_517749191737911_1475854624_n.jpg,people,0.9832656979560852
,competition,0.9700003862380981
,athlete,0.95516437292099
,street,0.9392035007476807
,group,0.9340479373931885
,woman,0.9180400371551514
,sport,0.9169600009918213
,man,0.9150295257568359
,squad,0.9055644273757935
,city,0.8947749137878418
,adult,0.8906468152999878
,festival,0.8865046501159668
,crowd,0.8731539249420166
,wear,0.8711259961128235
,runner,0.862022876739502
,recreation,0.8600161671638489
,marathon,0.8498395085334778
,motion,0.8480157852172852
,event,0.847505509853363
,populace,0.8472690582275391
https://scontent.cdninstagram.com/t51.2885-15/s640x640/e15/13556943_238581166524106_518591706_n.jpg,group,0.9973524212837219
,people,0.9868165850639343
,education,0.9781339168548584
,adult,0.9755412936210632
,school,0.9736878871917725
,woman,0.9714502096176147
,many,0.9653369188308716
,university,0.9479058980941772
,portrait,0.9373739957809448
,religion,0.922863245010376
,man,0.9182015061378479
,several,0.8996875286102295
,group,0.8957343101501465
,graduation,0.8937569260597229
,leader,0.8935525417327881
,wear,0.8842737674713135
,facial expression,0.8674582242965698
,class,0.8480736017227173
,crowd,0.846776008605957
,child,0.8446097373962402
https://scontent.cdninstagram.com/t51.2885-15/e35/12339021_725953060868957_228092613_n.jpg,indoors,0.9551277160644531
,people,0.9457480907440186
,paper,0.9226212501525879
,woman,0.9148367643356323
,painting,0.9070779085159302
,business,0.9023313522338867
,family,0.8602694869041443
,moment,0.8596519231796265
,adult,0.8594181537628174
,one,0.8551886081695557
,man,0.8498425483703613
,wood,0.8450148105621338
,vertical,0.8320018649101257
,picture frame,0.810389518737793
,technology,0.7992138266563416
,desktop,0.7833985090255737
,education,0.7805806398391724
,touch,0.7634035348892212
,room,0.762808084487915
,no person,0.7495427131652832
https://scontent.cdninstagram.com/t51.2885-15/e35/13129405_270738779929351_1607365272_n.jpg,sunglasses,0.9998863339424133
,eyeglasses,0.9973382949829102
,eyewear,0.9969868659973145
,fashion,0.9881389737129211
,people,0.9814860820770264
,woman,0.9684209823608398
,portrait,0.9660979509353638
,one,0.9659577012062073
,man,0.9611165523529053
,eye,0.9595787525177002
,fun,0.9593663215637207
,eyesight,0.9580121040344238
,goggles,0.952970564365387
,funny,0.9473421573638916
,music,0.926488995552063
,trendy,0.925993800163269
,look,0.925323486328125
,lens,0.9215957522392273
,child,0.9157427549362183
,sexy,0.9118020534515381
https://scontent.cdninstagram.com/t51.2885-15/e35/13531988_634606866696057_43948615_n.jpg,people,0.9653500318527222
,school,0.9652501344680786
,group,0.9571942090988159
,woman,0.9561641216278076
,education,0.9538293480873108
,adult,0.9444305300712585
,competition,0.9409898519515991
,university,0.9222930669784546
,athlete,0.8996130228042603
,child,0.8947924375534058
,motion,0.8813832402229309
,many,0.8750300407409668
,man,0.8694649338722229
,group,0.8654501438140869
,youth,0.85481858253479
,portrait,0.8382073640823364
,family,0.8272841572761536
,recreation,0.8271135687828064
,fun,0.8170508742332458
,teacher,0.8160330057144165
https://scontent.cdninstagram.com/t51.2885-15/e35/12797868_1035085366548335_1291697865_n.jpg,squad,0.9904588460922241
,people,0.9808328151702881
,group,0.9789108037948608
,man,0.9762557744979858
,woman,0.9718258380889893
,group,0.9705309271812439
,many,0.9616836309432983
,crowd,0.9516928195953369
,child,0.9449585676193237
,friendship,0.9403208494186401
,athlete,0.9387247562408447
,portrait,0.9326127767562866
,adult,0.9310941100120544
,school,0.9255124926567078
,teamwork,0.9250421524047852
,togetherness,0.917330265045166
,sport,0.8992993235588074
,unity,0.883216381072998
,boy,0.8705432415008545
,class,0.8639176487922668
https://scontent.cdninstagram.com/t51.2885-15/e35/12543178_518588351653021_789282455_n.jpg,athlete,0.9852520227432251
,people,0.9845181107521057
,recreation,0.9829717874526978
,runner,0.9767703413963318
,school,0.9720174074172974
,group,0.9695740938186646
,competition,0.965528130531311
,woman,0.9607765674591064
,exercise,0.9555966854095459
,adult,0.9459336996078491
,education,0.9405898451805115
,sport,0.9352802038192749
,man,0.9318605065345764
,jogger,0.9262409210205078
,outdoors,0.9238388538360596
,motion,0.9123687744140625
,fitness,0.8991534113883972
,leisure,0.8981337547302246
,group,0.8831580281257629
,wear,0.8710871934890747
https://scontent.cdninstagram.com/t51.2885-15/e35/12729532_1679375752342446_1370431848_n.jpg,food,0.9921792149543762
,delicious,0.9864934682846069
,lunch,0.9834162592887878
,dinner,0.9808988571166992
,no person,0.9742588996887207
,traditional,0.963646411895752
,cooking,0.9619208574295044
,fish,0.9576935172080994
,meat,0.9568740129470825
,meal,0.955923318862915
,hot,0.9531627893447876
,nutrition,0.9489179849624634
,pork,0.9452856779098511
,vegetable,0.9279344081878662
,health,0.9241424202919006
,egg,0.9215216636657715
,dining,0.9196447134017944
,cuisine,0.9131810665130615
,breakfast,0.9099692106246948
,dish,0.9059275984764099
https://scontent.cdninstagram.com/t51.2885-15/e35/12356450_1525833941042606_807510502_n.jpg,education,0.9811707735061646
,school,0.980104923248291
,people,0.9786685705184937
,woman,0.9784212112426758
,group,0.9784083962440491
,adult,0.9782477617263794
,portrait,0.9697996377944946
,wear,0.959891140460968
,university,0.9481385946273804
,indoors,0.9343103170394897
,man,0.9227272272109985
,facial expression,0.9152124524116516
,eyewear,0.9014079570770264
,rally,0.8957713842391968
,festival,0.8943650722503662
,room,0.8934644460678101
,enjoyment,0.885683536529541
,commerce,0.8699116706848145
,many,0.8631343841552734
,election,0.8616644740104675
https://scontent.cdninstagram.com/t51.2885-15/e35/10475185_172482929776704_653352345_n.jpg,woman,0.9591571688652039
,girl,0.9413437247276306
,health,0.924481987953186
,love,0.9215798377990723
,weight,0.9090442061424255
,tape,0.9074618816375732
,waist,0.8833224177360535
,body,0.8804758787155151
,support,0.8685014247894287
,healthcare,0.8597368001937866
,people,0.8594474792480469
,slender,0.8465471267700195
,conceptual,0.843098521232605
,business,0.8305066823959351
,text,0.8285423517227173
,care,0.8276222944259644
,fashion,0.8247636556625366
,summer,0.8230358362197876
,exercise,0.8081856966018677
,fitness,0.8047991991043091
https://scontent.cdninstagram.com/t51.2885-15/e35/12501930_204262079923039_1410289923_n.jpg,flower,0.9971400499343872
,nature,0.995903491973877
,flora,0.9890186190605164
,summer,0.988611102104187
,no person,0.9836595058441162
,bright,0.9791610240936279
,garden,0.9711763262748718
,petal,0.9658005833625793
,color,0.9647947549819946
,leaf,0.9624655842781067
,beautiful,0.9599311351776123
,floral,0.9553800821304321
,head,0.9370096921920776
,growth,0.9347119927406311
,blooming,0.9311491847038269
,love,0.9304892420768738
,closeup,0.9126947522163391
,bouquet,0.9009119868278503
,season,0.8972771763801575
,pollen,0.8908000588417053
https://scontent.cdninstagram.com/t51.2885-15/e35/12345997_156413288050242_830853037_n.jpg,group,0.9972777366638184
,people,0.996737539768219
,adult,0.9931430816650391
,wear,0.9923219680786133
,woman,0.989298939704895
,portrait,0.9852654933929443
,facial expression,0.9825372695922852
,child,0.9766978025436401
,man,0.9742615818977356
,veil,0.9710802435874939
,three,0.9674588441848755
,four,0.9664046168327332
,five,0.9633415937423706
,two,0.9551078081130981
,offspring,0.9523534774780273
,music,0.905393123626709
,happiness,0.9031587839126587
,togetherness,0.8957874178886414
,religion,0.894960880279541
,boy,0.8878142237663269
https://scontent.cdninstagram.com/t51.2885-15/e35/12523699_893870837395090_1427419507_n.jpg,indoors,0.994186520576477
,woman,0.9925560355186462
,healthcare,0.9838718175888062
,adult,0.9821036458015442
,man,0.9606072902679443
,people,0.9439041614532471
,sitting,0.9387649297714233
,medicine,0.9344766139984131
,room,0.9262076020240784
,togetherness,0.8981651663780212
,sit,0.8568997383117676
,looking,0.855699896812439
,health,0.8469493389129639
,hospital,0.8259571194648743
,office,0.8181401491165161
,facial expression,0.8083418011665344
,patient,0.8063991069793701
,teamwork,0.7929891347885132
,exercise,0.7913463711738586
,happiness,0.7742217779159546
https://scontent.cdninstagram.com/t51.2885-15/e35/12543281_1120139534687390_1266322454_n.jpg,food,0.9856370091438293
,meal,0.9608560800552368
,dinner,0.9571956396102905
,restaurant,0.9442838430404663
,plate,0.9370759725570679
,lunch,0.9304075241088867
,cuisine,0.9248861074447632
,vegetable,0.9197653532028198
,dish,0.9151639938354492
,cooking,0.9049733281135559
,closeup,0.9011123180389404
,healthy,0.8989566564559937
,traditional,0.8964539170265198
,table,0.8933581709861755
,epicure,0.8863283395767212
,delicious,0.8766422271728516
,refreshment,0.8684016466140747
,tasty,0.8682145476341248
,knife,0.8517434000968933
,meat,0.8380950093269348
https://scontent.cdninstagram.com/t51.2885-15/e35/12276736_1643059862603299_84329815_n.jpg,sweet,0.9958982467651367
,food,0.9941270351409912
,fruit,0.9878079891204834
,ice,0.9790177345275879
,frozen,0.9775607585906982
,summer,0.9718911051750183
,scoop,0.9615699648857117
,delicious,0.9578717947006226
,refreshment,0.9551653861999512
,cold,0.9304932355880737
,cream,0.9209581017494202
,bowl,0.9108330607414246
,ball,0.8807742595672607
,color,0.8790007829666138
,no person,0.8727208375930786
,freshness,0.8726726770401001
,ball-shaped,0.865265429019928
,sugar,0.8617119789123535
,sorbet,0.8595930337905884
,tasty,0.8593349456787109
https://scontent.cdninstagram.com/t51.2885-15/s480x480/e35/12237382_1511983489095348_808658239_n.jpg,parachute,0.9993703365325928
,adventure,0.9975584745407104
,recreation,0.9965740442276001
,air,0.9944729208946228
,skydiving,0.9943612813949585
,leisure,0.991284966468811
,action,0.9899371862411499
,fly,0.9884538650512695
,glider,0.987963080406189
,parasail,0.9874415993690491
,wind,0.9871882796287537
,people,0.9869438409805298
,sport,0.9861210584640503
,kite,0.9842103123664856
,fun,0.9827686548233032
,paraglider,0.982695996761322
,travel,0.9811865091323853
,freedom,0.9792020916938782
,sky,0.976603627204895
,vehicle,0.9732096195220947
https://scontent.cdninstagram.com/t51.2885-15/e35/12534537_1531753560451095_1783236366_n.jpg,no person,0.9965847730636597
,time,0.9896313548088074
,business,0.9878138303756714
,text,0.9844484925270081
,isolated,0.976457417011261
,display,0.9654418230056763
,desktop,0.9592031240463257
,alarm clock,0.9558535814285278
,minute,0.935983419418335
,midnight,0.935837984085083
,creativity,0.9141647219657898
,isolated,0.9136263728141785
,give voice,0.9098527431488037
,cutout,0.9092772603034973
,symbol,0.905133843421936
,alphabet,0.9050511121749878
,early,0.8952680230140686
,timer,0.8886897563934326
,countdown,0.8886300325393677
,head,0.8859641551971436
https://scontent.cdninstagram.com/t51.2885-15/e35/12317375_1482797002027490_1571767709_n.jpg,movie,0.9823286533355713
,people,0.9541541337966919
,soccer,0.9225306510925293
,woman,0.9164893627166748
,adult,0.91545569896698
,exhibition,0.9115180969238281
,indoors,0.9005652666091919
,school,0.8998777866363525
,football,0.8933760523796082
,child,0.8870176672935486
,group,0.8615633249282837
,man,0.850049614906311
,landscape,0.8480486869812012
,competition,0.8467923402786255
,vehicle,0.8457324504852295
,education,0.8362094759941101
,wear,0.8311634063720703
,boy,0.8248241543769836
,festival,0.8090906143188477
,room,0.8069448471069336
https://scontent.cdninstagram.com/t51.2885-15/e35/12825978_253297918343453_1180907466_n.jpg,no person,0.9631258249282837
,round,0.9505102038383484
,round,0.9028279781341553
,award,0.8683878183364868
,celebration,0.8666796088218689
,thread,0.8469676971435547
,symbol,0.8414130806922913
,award,0.8384439945220947
,design,0.8199458122253418
,set,0.8145201206207275
,desktop,0.8029635548591614
,palm,0.7998491525650024
,glazed,0.7993475198745728
,gold,0.7805536985397339
,business,0.7746533155441284
,shining,0.7744218111038208
,label,0.766636312007904
,decoration,0.7585859894752502
,traditional,0.7403898239135742
,image,0.7297834157943726
https://scontent.cdninstagram.com/t51.2885-15/e35/13414143_158385027908570_1055101434_n.jpg,flame,0.988025426864624
,festival,0.9752618074417114
,burnt,0.9342057704925537
,dark,0.933899998664856
,candle,0.9262127876281738
,people,0.9189687967300415
,celebration,0.9103177189826965
,Christmas,0.9059774875640869
,light,0.9051468968391418
,fireworks,0.8878194093704224
,hot,0.8861076235771179
,heat,0.8852602243423462
,party,0.8755260109901428
,bright,0.8519058227539062
,smoke,0.8401387929916382
,luminescence,0.8356579542160034
,danger,0.8346426486968994
,flash,0.8254567384719849
,light,0.8250083923339844
,shining,0.8096820116043091
https://scontent.cdninstagram.com/t51.2885-15/e35/12965764_195460477507316_1372736795_n.jpg,group,0.9925885200500488
,education,0.9793503284454346
,school,0.9715818166732788
,woman,0.9573795199394226
,student,0.93442702293396
,group,0.9341593384742737
,portrait,0.9327369928359985
,people,0.9295772314071655
,man,0.9228754043579102
,university,0.9210593700408936
,adult,0.9110943675041199
,child,0.8964865207672119
,business,0.8958675861358643
,happiness,0.8618506193161011
,friendship,0.8610794544219971
,togetherness,0.8542779088020325
,laughing,0.8408721089363098
,squad,0.8406332731246948
,facial expression,0.8287789821624756
,teamwork,0.8253277540206909
https://scontent.cdninstagram.com/t51.2885-15/e35/13381388_1160188324046134_431332749_n.jpg,people,0.9945416450500488
,adult,0.9890375137329102
,woman,0.9863913059234619
,facial expression,0.9818195104598999
,indoors,0.9796401858329773
,portrait,0.9685920476913452
,girl,0.9672490358352661
,wear,0.9623152017593384
,group,0.9582326412200928
,room,0.9434751272201538
,two,0.9419184923171997
,three,0.9418191909790039
,happiness,0.9397832155227661
,vehicle,0.9394714832305908
,man,0.9315932989120483
,seat,0.9090011119842529
,exhibition,0.8817387819290161
,child,0.8697779178619385
,music,0.8650290369987488
,class,0.8649446964263916
https://scontent.cdninstagram.com/t51.2885-15/e35/13423507_269623526729533_1597940575_n.jpg,portrait,0.9691015481948853
,people,0.9641374349594116
,woman,0.9583213329315186
,man,0.9358842968940735
,family,0.922065258026123
,outdoors,0.9212853908538818
,recreation,0.9210895299911499
,adult,0.909916877746582
,girl,0.9053813219070435
,group,0.9007326364517212
,music,0.8993525505065918
,friendship,0.8970747590065002
,group,0.8747409582138062
,fun,0.8694175481796265
,adolescent,0.8600671291351318
,child,0.858906090259552
,wear,0.825300395488739
,band,0.8023660778999329
,happiness,0.7900451421737671
,togetherness,0.7858576774597168
https://scontent.cdninstagram.com/t51.2885-15/e35/12552212_193255441031288_1466075912_n.jpg,indoors,0.9932021498680115
,telephone,0.988760232925415
,woman,0.983605146408081
,people,0.9812819957733154
,shopping,0.9742788672447205
,food,0.9703811407089233
,adult,0.9658958911895752
,one,0.965696394443512
,coffee,0.9571622610092163
,facial expression,0.9546530842781067
,portrait,0.9465887546539307
,convenience,0.9439197778701782
,technology,0.9298861026763916
,access,0.9099165201187134
,stock,0.9097844362258911
,wear,0.9072657823562622
,girl,0.9009077548980713
,window,0.8956527709960938
,restaurant,0.8875730037689209
,side view,0.8821852803230286
https://scontent.cdninstagram.com/t51.2885-15/e35/13099101_1580712675572199_810890109_n.jpg,group,0.9823323488235474
,education,0.9777460694313049
,man,0.975995659828186
,school,0.9620081782341003
,child,0.960024893283844
,people,0.958906888961792
,woman,0.9564235210418701
,friendship,0.9499145746231079
,group,0.9369676113128662
,classroom,0.9239534735679626
,squad,0.9200726747512817
,class,0.9155185222625732
,togetherness,0.9010969400405884
,boy,0.9007447957992554
,fun,0.9000647664070129
,adolescent,0.8988758325576782
,teamwork,0.8942660689353943
,student,0.8876193761825562
,happiness,0.887214183807373
,university,0.8841723799705505
https://scontent.cdninstagram.com/t51.2885-15/e35/12093563_1073684949365177_1062346345_n.jpg,woman,0.9741010665893555
,education,0.9694807529449463
,people,0.967327892780304
,group,0.9643322229385376
,child,0.9614681005477905
,adult,0.9591390490531921
,man,0.9405590295791626
,school,0.9347862005233765
,table,0.9309870004653931
,restaurant,0.9308458566665649
,class,0.9071944952011108
,indoors,0.8869529366493225
,classroom,0.8751614093780518
,room,0.8749293684959412
,furniture,0.8746144771575928
,exhibition,0.8713672757148743
,girl,0.8360735774040222
,teacher,0.8127894401550293
,happiness,0.8045741319656372
,dining,0.7986458539962769
https://scontent.cdninstagram.com/t51.2885-15/s480x480/e35/10475041_1068805536483217_771831429_n.jpg,people,0.9937953948974609
,adult,0.9902321100234985
,woman,0.9884707927703857
,two,0.9827841520309448
,portrait,0.9784867763519287
,wear,0.9734295606613159
,group,0.9703515768051147
,facial expression,0.9701255559921265
,man,0.9569150805473328
,happiness,0.9552701711654663
,girl,0.9543951749801636
,family,0.9448524713516235
,music,0.9365200996398926
,room,0.9317013025283813
,child,0.9302805662155151
,indoors,0.9292266368865967
,three,0.9288307428359985
,eyewear,0.9232373833656311
,enjoyment,0.9166003465652466
,education,0.9141494035720825
https://scontent.cdninstagram.com/t51.2885-15/e35/1661026_160209861010571_1084498944_n.jpg,indoors,0.9955335855484009
,people,0.9877116680145264
,woman,0.9876390695571899
,facial expression,0.9869273900985718
,enjoyment,0.9858901500701904
,meal,0.9826397895812988
,child,0.980339765548706
,adult,0.9747018814086914
,family,0.9737499952316284
,furniture,0.9709346890449524
,room,0.966506838798523
,tableware,0.9609407186508179
,food,0.953568696975708
,two,0.9522902965545654
,cookware,0.9412161111831665
,lunch,0.9361903667449951
,table,0.9351106286048889
,sit,0.9312057495117188
,breakfast,0.9282956123352051
,flatware,0.9279978275299072
https://scontent.cdninstagram.com/t51.2885-15/e35/11252575_960596774022739_462467722_n.jpg,people,0.949525773525238
,summer,0.9446594715118408
,woman,0.940500020980835
,outdoors,0.8970201015472412
,street,0.8864759206771851
,man,0.8839017152786255
,girl,0.8666061758995056
,one,0.8602131605148315
,adult,0.8425098061561584
,child,0.8407207131385803
,plastic,0.8382359743118286
,flower,0.8345931768417358
,road,0.8343853950500488
,sport,0.8242271542549133
,health,0.8173544406890869
,fun,0.8049178719520569
,action,0.8037536144256592
,competition,0.8000015020370483
,person,0.7914560437202454
,motion,0.790980339050293
https://scontent.cdninstagram.com/t51.2885-15/e35/1171683_1538514046459654_1872114922_n.jpg,woman,0.9863718748092651
,wear,0.9554867744445801
,indoors,0.9537016153335571
,adult,0.9386292695999146
,people,0.9380331039428711
,health,0.9340828657150269
,shopping,0.9317222833633423
,man,0.9102799892425537
,lifestyle,0.8796321153640747
,happiness,0.8770160675048828
,young,0.8500632047653198
,two,0.8488646745681763
,togetherness,0.8455051183700562
,enjoyment,0.8450093269348145
,healthcare,0.8108617067337036
,uniform,0.8039504289627075
,looking,0.8020566701889038
,portrait,0.7967433333396912
,leisure,0.7888509035110474
,shop,0.7833567261695862
https://scontent.cdninstagram.com/t51.2885-15/s750x750/sh0.08/e35/12393658_558049311020730_230166881_n.jpg,exhibition,0.9803141355514526
,people,0.9716125726699829
,museum,0.9655361175537109
,painting,0.9582555294036865
,adult,0.933475911617279
,indoors,0.9329218864440918
,woman,0.9319437742233276
,technology,0.926267147064209
,screen,0.9160964488983154
,moment,0.9038009643554688
,picture frame,0.8956303000450134
,internet,0.8954616785049438
,furniture,0.8854634165763855
,man,0.885249137878418
,computer,0.8850983381271362
,business,0.8787809014320374
,album,0.875556468963623
,wear,0.8656176924705505
,telephone,0.8499570488929749
,room,0.8456900119781494
https://scontent.cdninstagram.com/t51.2885-15/e35/12256827_1692142907696866_1611373631_n.jpg,wheel,0.9894293546676636
,people,0.9877897500991821
,street,0.9834045171737671
,child,0.9739896059036255
,road,0.9695674180984497
,motion,0.9628403186798096
,boy,0.957146167755127
,urban,0.9549508094787598
,bike,0.9420766234397888
,exercise,0.9399096965789795
,man,0.9383531808853149
,adult,0.9371519088745117
,city,0.9309499263763428
,cyclist,0.9270726442337036
,young,0.904028058052063
,recreation,0.9029419422149658
,vehicle,0.8992185592651367
,one,0.8826617002487183
,fun,0.8817112445831299
,rain,0.8814670443534851
https://scontent.cdninstagram.com/t51.2885-15/e35/12445955_985118688225202_605139309_n.jpg,man,0.9877351522445679
,togetherness,0.986382007598877
,woman,0.9836757183074951
,indoors,0.9606765508651733
,teamwork,0.9530316591262817
,group,0.9500868320465088
,multicultural,0.9428392052650452
,child,0.9210736751556396
,sit,0.9062219858169556
,cooperation,0.8944059610366821
,education,0.8869640231132507
,laughing,0.8867946863174438
,looking,0.8808573484420776
,four,0.8767574429512024
,friendship,0.8764659762382507
,enjoyment,0.8747699856758118
,adolescent,0.8723284602165222
,family,0.8701555728912354
,contemporary,0.8669716119766235
,people,0.8663877844810486
https://scontent.cdninstagram.com/t51.2885-15/e35/12747608_103367886720098_1905781671_n.jpg,flower,0.9810133576393127
,no person,0.9511874914169312
,leaf,0.9412028193473816
,summer,0.9287835359573364
,outdoors,0.9226811528205872
,battle,0.9089138507843018
,nature,0.9063297510147095
,love,0.9052799940109253
,flora,0.9012725949287415
,people,0.8888430595397949
,war,0.8870230913162231
,military,0.8701425790786743
,rose,0.8616431951522827
,garden,0.8516128063201904
,celebration,0.8189680576324463
,vertical,0.8073588609695435
,anniversary,0.7956396341323853
,bouquet,0.7903607487678528
,romance,0.7825084924697876
,color,0.7631771564483643
https://scontent.cdninstagram.com/t51.2885-15/e35/13355471_292051277813067_1387766548_n.jpg,resort,0.999323844909668
,pool,0.998860776424408
,hotel,0.9985772371292114
,swimming pool,0.9980352520942688
,swimming,0.9975250363349915
,palm,0.9967032670974731
,tropical,0.9960348606109619
,poolside,0.9956755638122559
,luxury,0.9954765439033508
,chair,0.9950578212738037
,leisure,0.9940791726112366
,relaxation,0.9918630719184875
,umbrella,0.9876163005828857
,beach,0.9867428541183472
,recreation,0.9863889217376709
,exotic,0.9852732419967651
,vacation,0.9847832322120667
,coconut,0.9815073013305664
,travel,0.9811840057373047
,villa,0.9806956052780151
https://scontent.cdninstagram.com/t51.2885-15/s750x750/sh0.08/e35/12729678_1036080759806157_1684535775_n.jpg,people,0.9829353094100952
,family,0.9814777374267578
,portrait,0.981282651424408
,girl,0.9810587167739868
,two,0.9805496335029602
,child,0.9802677631378174
,friendship,0.9773871898651123
,woman,0.9717277884483337
,togetherness,0.9628247022628784
,fun,0.9614881277084351
,happiness,0.9604232907295227
,love,0.9596492052078247
,young,0.9498577117919922
,beautiful,0.9489670991897583
,adult,0.9405174851417542
,boy,0.9328974485397339
,adolescent,0.9292154312133789
,three,0.9277915358543396
,lifestyle,0.9248461723327637
,couple,0.912796139717102
https://scontent.cdninstagram.com/t51.2885-15/e35/13102333_253681454983716_595033262_n.jpg,portrait,0.988092303276062
,one,0.9869049787521362
,adult,0.9857099652290344
,people,0.9856590032577515
,woman,0.9728689789772034
,sunglasses,0.9650514125823975
,fashion,0.9632614850997925
,eyewear,0.954200029373169
,girl,0.9367151856422424
,indoors,0.9243828058242798
,man,0.8689538240432739
,wear,0.8667876124382019
,model,0.8622798919677734
,facial expression,0.8602874279022217
,competition,0.8530620336532593
,glamour,0.8509157299995422
,light,0.8493956327438354
,fun,0.848867654800415
,young,0.840807318687439
,jewelry,0.8390018939971924
https://scontent.cdninstagram.com/t51.2885-15/e35/13285488_1410040935688729_1861183467_n.jpg,people,0.9721558690071106
,competition,0.9669960737228394
,many,0.9602206945419312
,school,0.9568564891815186
,portrait,0.9551653861999512
,group,0.9532999992370605
,sports fan,0.9434361457824707
,education,0.9331519603729248
,university,0.9252400398254395
,adult,0.9233789443969727
,woman,0.9189260005950928
,basketball,0.8968104720115662
,wear,0.8938831686973572
,facial expression,0.8931235074996948
,race,0.8825896978378296
,man,0.881678581237793
,soccer,0.8787846565246582
,group,0.8760716319084167
,enjoyment,0.8516252040863037
,crowd,0.8481512069702148
https://scontent.cdninstagram.com/t51.2885-15/s750x750/sh0.08/e35/13108608_1625993191052796_1477224166_n.jpg,food,0.9937769174575806
,people,0.9900861978530884
,cooking,0.9800658226013184
,chef,0.9719950556755066
,adult,0.9639110565185547
,restaurant,0.9579392671585083
,meal,0.9491457939147949
,indoors,0.9455630779266357
,woman,0.9277812242507935
,one,0.923966109752655
,drink,0.923029899597168
,grow,0.914444088935852
,table,0.8858364820480347
,lunch,0.8841805458068848
,preparation,0.8704270124435425
,man,0.8665279150009155
,no person,0.8615279793739319
,dairy product,0.8602801561355591
,dinner,0.8590790033340454
,kitchenware,0.841806173324585
https://scontent.cdninstagram.com/t51.2885-15/e35/13355440_1205805559453200_1747727228_n.jpg,group,0.980726957321167
,woman,0.9757931232452393
,people,0.9746202230453491
,man,0.9702990651130676
,indoors,0.9486726522445679
,adult,0.9412484765052795
,togetherness,0.9348840713500977
,business,0.9203072786331177
,luggage,0.9164195656776428
,child,0.9063637256622314
,wear,0.8515207171440125
,room,0.835519552230835
,education,0.8257719278335571
,recreation,0.8162895441055298
,silhouette,0.8150298595428467
,girl,0.8134213089942932
,group,0.8098915219306946
,crowd,0.8069919943809509
,school,0.8031520843505859
,friendship,0.7999835014343262
https://scontent.cdninstagram.com/t51.2885-15/e35/13402197_1704945243104416_1792474631_n.jpg,fun,0.9874319434165955
,people,0.9831238985061646
,child,0.9735132455825806
,woman,0.969905436038971
,outdoors,0.9682121276855469
,portrait,0.963962733745575
,summer,0.9470168948173523
,happiness,0.9451174736022949
,man,0.9369877576828003
,enjoyment,0.9321203827857971
,girl,0.9244741797447205
,vacation,0.9112147688865662
,two,0.9108465313911438
,joy,0.8990360498428345
,adult,0.893404483795166
,laughing,0.8875622749328613
,love,0.8845052719116211
,recreation,0.861862063407898
,festival,0.8589844107627869
,sky,0.8550107479095459
https://scontent.cdninstagram.com/t51.2885-15/s750x750/sh0.08/e35/13248861_1037663212988851_254082629_n.jpg,spaghetti,0.9937632083892822
,pasta,0.9899203181266785
,traditional,0.9733838438987732
,dinner,0.9731991291046143
,noodles,0.9683049321174622
,food,0.9675474166870117
,no person,0.9647787809371948
,delicious,0.9619801640510559
,cooking,0.958330512046814
,lunch,0.9577336311340332
,nutrition,0.9438886046409607
,closeup,0.9334884881973267
,chili,0.933353066444397
,vegetable,0.9287849068641663
,cuisine,0.9281022548675537
,macaroni,0.9102041721343994
,restaurant,0.9096785187721252
,meal,0.9074836373329163
,pepper,0.8947608470916748
,healthy,0.8867791891098022
https://scontent.cdninstagram.com/t51.2885-15/e35/13256968_1260226833995334_2130157588_n.jpg,woman,0.9933328032493591
,girl,0.9793403148651123
,young,0.9775311946868896
,happiness,0.9756484031677246
,lifestyle,0.9751362204551697
,adult,0.956072986125946
,summer,0.9553828239440918
,leisure,0.9553693532943726
,togetherness,0.9505952596664429
,love,0.9501926898956299
,people,0.9418113827705383
,family,0.9262069463729858
,outdoors,0.9253169298171997
,portrait,0.9246699213981628
,water,0.9232146739959717
,fun,0.9191251397132874
,enjoyment,0.910512387752533
,smile,0.9038126468658447
,vacation,0.9024428129196167
,beautiful,0.899533748626709
