url,class,score
https://scontent.cdninstagram.com/t51.2885-15/e15/13257152_724967274310030_1324821591_n.jpg,car,0.993630409
,transportation system,0.99350059
,adult,0.993265629
,vehicle,0.98992306
,people,0.987281382
,window,0.97995007
,man,0.974985123
,portrait,0.969168186
,indoors,0.95355916
,tube,0.952634513
,airport,0.952610433
,woman,0.949560761
,business,0.948982596
,commuter,0.945053458
,window,0.93579793
,bus,0.922125816
,side view,0.918065548
,blur,0.915351391
,airplane,0.908403635
,train,0.89190346
https://scontent.cdninstagram.com/t51.2885-15/e35/13392734_1122576527816282_1793205896_n.jpg,girl,0.991808832
,woman,0.98800087
,beautiful,0.980395973
,portrait,0.96219182
,face,0.949371696
,young,0.942804098
,skin,0.923498631
,care,0.915786028
,lady,0.905493498
,desktop,0.903688073
,pretty,0.897901535
,treatment,0.896555066
,isolated,0.893723071
,fashion,0.89343977
,health,0.892149687
,relaxation,0.888306737
,people,0.884945929
,model,0.882836819
,sexy,0.869431973
,cute,0.861810446
https://scontent.cdninstagram.com/t51.2885-15/e35/13285366_958282387617907_1899054333_n.jpg,woman,0.976029873
,nightlife,0.967479944
,group,0.948913813
,man,0.944128036
,group,0.941385388
,party,0.93625927
,music,0.929617107
,club,0.92890203
,people,0.926279306
,friendship,0.925522625
,fashion,0.917396247
,fun,0.917382121
,dark,0.902628005
,band,0.897230864
,performance,0.886261463
,portrait,0.876271605
,pop,0.869915605
,adolescent,0.864815176
,stage,0.855068326
,multicultural,0.854614496
https://scontent.cdninstagram.com/t51.2885-15/e35/13277732_243752249334391_1153547096_n.jpg,woman,0.991410375
,girl,0.977906168
,sit,0.968012273
,pretty,0.967587113
,fashion,0.967179954
,sexy,0.952117324
,young,0.939563811
,beautiful,0.930881023
,glamour,0.924788713
,model,0.921998739
,portrait,0.907158613
,people,0.903530717
,cute,0.898970187
,hair,0.888864517
,relaxation,0.85461688
,health,0.843286872
,erotic,0.835212111
,indoors,0.829602718
,nude,0.827694893
,lady,0.825326622
https://scontent.cdninstagram.com/t51.2885-15/e35/13259617_242244299476160_683957071_n.jpg,woman,0.995818377
,girl,0.99227643
,beautiful,0.990321159
,young,0.987042308
,pretty,0.979260087
,fashion,0.973707259
,portrait,0.973699272
,model,0.965078592
,lady,0.962667227
,smile,0.954100013
,cute,0.93992281
,studio,0.935810745
,attractive,0.930760622
,person,0.927078426
,sexy,0.913005769
,hair,0.911988974
,people,0.907670856
,face,0.897089005
,isolated,0.892950416
,glamour,0.890244484
https://scontent.cdninstagram.com/t51.2885-15/e15/13257053_1204225612941424_949432419_n.jpg,one,0.997486115
,people,0.996982217
,portrait,0.996043444
,adult,0.982092857
,actress,0.978160501
,wear,0.969883919
,woman,0.965275288
,girl,0.955348015
,monochrome,0.952395499
,singer,0.909286976
,facial expression,0.909112215
,model,0.909000516
,music,0.854829669
,theater,0.829134166
,black and white,0.812826633
,veil,0.811168134
,musician,0.804337382
,movie,0.802932501
,fashion,0.776643872
,actor,0.745093465
https://scontent.cdninstagram.com/t51.2885-15/e35/13249682_254151234943762_805990000_n.jpg,isolated,0.976446748
,desktop,0.933043122
,fashion,0.932681024
,leather,0.920538425
,no person,0.917217255
,luxury,0.875998259
,business,0.871098995
,blank,0.86506772
,band,0.863595366
,closeup,0.848083615
,elegant,0.826206267
,one,0.819808483
,modern,0.806571007
,container,0.798442423
,equipment,0.795207739
,design,0.770715714
,woman,0.768806338
,reflection,0.74602294
,retro,0.734551489
,celebration,0.731271267
https://scontent.cdninstagram.com/t51.2885-15/e35/13391150_1037578492996382_630398302_n.jpg,woman,0.994647264
,portrait,0.991215348
,isolated,0.990298808
,girl,0.980587363
,young,0.977368712
,face,0.975001991
,group,0.974996984
,people,0.971157551
,smile,0.969615877
,unity,0.964853764
,person,0.958598018
,laughing,0.95331502
,fun,0.950254321
,friendship,0.944547951
,adult,0.942923248
,joy,0.936111569
,beautiful,0.935211658
,desktop,0.929032445
,spherical,0.927264094
,togetherness,0.921845615
https://scontent.cdninstagram.com/t51.2885-15/e35/13355471_1828918097336649_1387577023_n.jpg,girl,0.988666952
,woman,0.985994577
,beautiful,0.981210291
,fashion,0.977324724
,young,0.975756347
,pretty,0.969639897
,cute,0.967280984
,isolated,0.939535737
,fun,0.939079523
,portrait,0.925995588
,people,0.917458296
,hair,0.906250656
,adolescent,0.903486967
,person,0.891083598
,child,0.877266347
,model,0.87488997
,one,0.870902896
,joy,0.863390803
,lady,0.856220841
,smile,0.855832934
https://scontent.cdninstagram.com/t51.2885-15/e35/13269363_1045086278894991_1889734279_n.jpg,girl,0.992835104
,woman,0.992795467
,step,0.99253118
,model,0.988366961
,fashion,0.987350285
,sexy,0.986453772
,pretty,0.973564267
,young,0.96762526
,glamour,0.966318369
,beautiful,0.962076962
,lady,0.945630074
,dress,0.939747751
,portrait,0.936213851
,hair,0.935746074
,long,0.919973612
,people,0.919160008
,cute,0.916028142
,adult,0.912115932
,person,0.898768187
,style,0.896291018
https://scontent.cdninstagram.com/t51.2885-15/e35/13525383_257942021240610_1756617473_n.jpg,woman,0.990784168
,beautiful,0.971398056
,girl,0.961694598
,young,0.960271657
,joy,0.94356215
,cute,0.937195718
,fun,0.933965266
,fashion,0.932806909
,cheerful,0.931320965
,pretty,0.928144574
,isolated,0.927541971
,happiness,0.916350663
,portrait,0.895175874
,smile,0.894953966
,attractive,0.887828469
,desktop,0.884464979
,people,0.877204835
,person,0.843793631
,adolescent,0.839431822
,celebration,0.838969231
https://scontent.cdninstagram.com/t51.2885-15/e35/13167356_1038023626288094_4025358_n.jpg,illustration,0.984349966
,desktop,0.981485009
,art,0.981481314
,isolated,0.976735711
,design,0.974620938
,graphic,0.973903418
,pattern,0.970182717
,abstract,0.969431221
,decoration,0.967778921
,vector,0.942702293
,no person,0.931722164
,template,0.931010306
,element,0.923127532
,symbol,0.917343795
,text,0.912519217
,picture frame,0.904282272
,ornate,0.900325
,color,0.895999908
,background,0.895831108
,education,0.89339596
https://scontent.cdninstagram.com/t51.2885-15/e35/13116607_609464589220853_671773682_n.jpg,isolated,0.986861467
,woman,0.98524493
,dog,0.976385534
,young,0.976314902
,portrait,0.969538808
,people,0.960140824
,animal,0.929683268
,cute,0.925389469
,pretty,0.921540499
,studio,0.920803785
,puppy,0.91719389
,girl,0.912252784
,love,0.907584369
,funny,0.907498121
,fashion,0.906897366
,man,0.897687435
,pet,0.893125653
,adult,0.890987754
,one,0.886410713
,sit,0.886273742
https://scontent.cdninstagram.com/t51.2885-15/e35/13258873_718945324911589_1572049782_n.jpg,woman,0.986883402
,isolated,0.965792
,fashion,0.963288724
,pretty,0.943620205
,young,0.928675175
,cute,0.926194787
,hair,0.921793938
,glance,0.905478597
,portrait,0.903534651
,elegant,0.900653303
,adolescent,0.890578985
,looking,0.886369228
,redhead,0.881912708
,girl,0.866689146
,glamour,0.865513921
,contemporary,0.864241123
,empty,0.863102555
,beautiful,0.85647881
,people,0.854267538
,sexy,0.835530877
https://scontent.cdninstagram.com/t51.2885-15/e15/13269481_1053745304719393_1703498936_n.jpg,woman,0.990976512
,girl,0.985755324
,young,0.981365085
,beautiful,0.97005111
,fashion,0.962322593
,fun,0.958383501
,face,0.937588573
,person,0.936444104
,pretty,0.931823969
,lady,0.929628313
,attractive,0.915112793
,people,0.911216617
,portrait,0.909957647
,style,0.907035708
,hair,0.901660144
,cute,0.900166631
,hairdo,0.895524383
,desktop,0.892172933
,haircut,0.886458158
,adult,0.870200694
https://scontent.cdninstagram.com/t51.2885-15/e35/13259528_112134192541319_303704371_n.jpg,woman,0.99006176
,pretty,0.977841496
,young,0.964982271
,cute,0.964259505
,fashion,0.956969321
,people,0.956623435
,indoors,0.934206724
,one,0.931077302
,isolated,0.926452041
,sexy,0.917623043
,elegant,0.914808989
,beautiful,0.910454154
,looking,0.906834066
,girl,0.897591829
,adult,0.894282103
,glamour,0.890286088
,adolescent,0.875664949
,contemporary,0.874335408
,fun,0.856412649
,sit,0.846463203
https://scontent.cdninstagram.com/t51.2885-15/e35/13267606_281919742160325_2120104370_n.jpg,woman,0.990969479
,fashion,0.989037931
,pretty,0.974406838
,young,0.970104337
,glamour,0.966317773
,cute,0.963100314
,one,0.956743836
,isolated,0.956282496
,beautiful,0.94606781
,sexy,0.944773436
,elegant,0.938507438
,portrait,0.934087694
,looking,0.931473374
,hair,0.913748682
,attractive,0.901535869
,girl,0.899769366
,people,0.899021983
,adult,0.888532996
,model,0.884309828
,winter,0.86831677
https://scontent.cdninstagram.com/t51.2885-15/e35/13277829_1040477829320933_1667659561_n.jpg,people,0.965429425
,man,0.959242344
,business,0.891155481
,adult,0.890199542
,light,0.867904902
,indoors,0.857580304
,one,0.841338277
,woman,0.790591359
,dark,0.788857341
,technology,0.761321187
,thief,0.754594684
,freedom,0.724464476
,offense,0.711916327
,music,0.705539286
,portrait,0.686127186
,force,0.681394517
,conceptual,0.681140661
,wear,0.675438166
,desktop,0.662652969
,computer,0.661857128
https://scontent.cdninstagram.com/t51.2885-15/e35/13257135_598434420331281_444100138_n.jpg,woman,0.98073709
,young,0.961021125
,people,0.954175949
,girl,0.939897299
,business,0.938741744
,beautiful,0.912968934
,portrait,0.909659266
,fashion,0.908295751
,adult,0.898176312
,pretty,0.89588058
,one,0.876909792
,person,0.868962049
,model,0.853160143
,cute,0.846372902
,smile,0.821469903
,modern,0.817566037
,lifestyle,0.812602282
,fun,0.810718298
,outdoors,0.809486747
,attractive,0.807662249
https://scontent.cdninstagram.com/t51.2885-15/s750x750/sh0.08/e35/13266896_1605627326419729_1711849185_n.jpg,woman,0.990996122
,isolated,0.98242116
,young,0.95538187
,fashion,0.95411551
,hair,0.942656398
,pretty,0.921648502
,portrait,0.919062674
,girl,0.912605226
,sexy,0.878225327
,cute,0.866718411
,people,0.85430795
,desktop,0.846740007
,eye,0.84589839
,beautiful,0.832853556
,elegant,0.832419395
,nude,0.828164637
,glamour,0.823156953
,skin,0.819908857
,adolescent,0.819237053
,long,0.811448395
https://scontent.cdninstagram.com/t51.2885-15/e35/13181373_584725655036920_559849414_n.jpg,woman,0.994842768
,girl,0.99355334
,beautiful,0.987076461
,fashion,0.983948767
,young,0.980926812
,pretty,0.978281558
,cute,0.975062966
,portrait,0.971838534
,model,0.965986609
,glamour,0.963511229
,sexy,0.962736487
,hair,0.942099988
,attractive,0.938529611
,face,0.935290635
,lady,0.931649685
,isolated,0.929287076
,one,0.916667044
,person,0.904328883
,studio,0.903394878
,style,0.888094544
https://scontent.cdninstagram.com/t51.2885-15/e15/13188049_1740170762934868_959657096_n.jpg,woman,0.991812944
,beautiful,0.983380795
,girl,0.976784348
,young,0.974117279
,indoors,0.969081044
,fashion,0.958874464
,people,0.955071211
,pretty,0.94547987
,portrait,0.94083035
,glamour,0.937827229
,adult,0.934435487
,mirror,0.928983808
,person,0.926941991
,cute,0.924696445
,attractive,0.924130321
,fun,0.907004118
,luxury,0.906362474
,face,0.904737949
,sexy,0.900997281
,style,0.897462845
https://scontent.cdninstagram.com/t51.2885-15/e35/13102562_1777056745846428_230638567_n.jpg,woman,0.992657244
,fashion,0.967345536
,pretty,0.966336608
,young,0.96112442
,shopping,0.940427184
,girl,0.937693834
,beautiful,0.933682919
,people,0.931942105
,cute,0.92134583
,looking,0.887062788
,isolated,0.886351824
,sexy,0.882052541
,joy,0.881748676
,portrait,0.876997054
,glamour,0.876866341
,fun,0.868899703
,elegant,0.85703814
,contemporary,0.853699207
,one,0.848191023
,smile,0.842661381
https://scontent.cdninstagram.com/t51.2885-15/e35/13167214_576660229168086_1297601431_n.jpg,woman,0.992888451
,young,0.9884727
,girl,0.986510038
,beautiful,0.986184597
,fashion,0.980440974
,cute,0.977094293
,pretty,0.97501719
,retro,0.970366001
,attractive,0.964672923
,one,0.964194775
,portrait,0.962352574
,elegant,0.94154644
,person,0.940943003
,lady,0.940688491
,glamour,0.939314604
,adult,0.934986949
,people,0.924907088
,looking,0.899754882
,style,0.898062348
,pinup,0.897031188
https://scontent.cdninstagram.com/t51.2885-15/s750x750/sh0.08/e35/13248960_278428405834362_874731811_n.jpg,woman,0.989746273
,young,0.976271152
,girl,0.975182414
,pretty,0.971592903
,beautiful,0.969221175
,cute,0.963873744
,people,0.948710799
,person,0.936621904
,portrait,0.936501861
,isolated,0.935993433
,fashion,0.922174454
,attractive,0.912951589
,one,0.908232093
,fun,0.891296506
,face,0.887048721
,adult,0.869115114
,desktop,0.863153338
,lady,0.854473412
,health,0.844586313
,hair,0.829059482
https://scontent.cdninstagram.com/t51.2885-15/e35/13129482_1057388351001287_729306017_n.jpg,girl,0.994607151
,woman,0.991100788
,fashion,0.969558537
,model,0.969067216
,beautiful,0.968306661
,hair,0.964836001
,portrait,0.961905241
,people,0.960067987
,adult,0.932229996
,nude,0.909264684
,sexy,0.908023536
,hairdo,0.904609025
,face,0.898396015
,young,0.897591352
,studio,0.891988754
,music,0.88478756
,relaxation,0.882086754
,lady,0.877214313
,glamour,0.876308441
,pretty,0.875417709
https://scontent.cdninstagram.com/t51.2885-15/e35/13113858_236131346762766_1787570119_n.jpg,woman,0.989125729
,girl,0.963549972
,young,0.953690886
,beautiful,0.952985406
,pretty,0.944214761
,tea,0.942055464
,people,0.936663985
,coffee,0.934469819
,fashion,0.934251785
,cute,0.918893337
,drink,0.913267255
,portrait,0.905493736
,lady,0.882139683
,sit,0.875689864
,person,0.868012547
,attractive,0.839739084
,one,0.835114181
,model,0.817427397
,elegant,0.812978804
,business,0.810077548
https://scontent.cdninstagram.com/t51.2885-15/e35/13391248_1095209330540388_703102752_n.jpg,woman,0.985344291
,isolated,0.978441834
,people,0.972933412
,adult,0.970112562
,love,0.968645275
,desktop,0.968044996
,girl,0.957219243
,portrait,0.952709794
,young,0.937204361
,heart,0.924114108
,happiness,0.91361022
,person,0.908716798
,beautiful,0.906490326
,fun,0.882393301
,romance,0.878484488
,cute,0.848266482
,symbol,0.841559529
,pretty,0.832422853
,child,0.829464078
,fashion,0.82237947
https://scontent.cdninstagram.com/t51.2885-15/s750x750/sh0.08/e35/13269535_1207247489300166_2032322305_n.jpg,woman,0.997255683
,girl,0.990335822
,fashion,0.990121841
,pretty,0.976550817
,young,0.969570994
,glamour,0.962534666
,portrait,0.954114974
,beautiful,0.952572227
,cute,0.952331185
,model,0.949822545
,sexy,0.946304381
,hair,0.938116431
,adolescent,0.908201814
,eye,0.907379627
,lady,0.900222957
,face,0.892529488
,isolated,0.891444683
,elegant,0.886973619
,long,0.875463903
,smile,0.872611523
https://scontent.cdninstagram.com/t51.2885-15/e35/13188067_127037311033666_66308524_n.jpg,woman,0.991610527
,fashion,0.98673296
,young,0.976424396
,pretty,0.971710324
,beautiful,0.96759212
,girl,0.965795457
,model,0.93904984
,glamour,0.935433149
,isolated,0.925253808
,sexy,0.924997568
,one,0.92241621
,cute,0.921508729
,attractive,0.91877687
,portrait,0.913420141
,lady,0.906613946
,person,0.890663981
,hair,0.887087703
,adult,0.883100748
,elegant,0.879365802
,people,0.876440763
https://scontent.cdninstagram.com/t51.2885-15/e15/12976361_957575874350400_543061171_n.jpg,fashion,0.996248186
,woman,0.991617203
,glamour,0.98626256
,sexy,0.971859932
,portrait,0.954549193
,elegant,0.947740078
,lips,0.947055578
,skin,0.946404934
,hair,0.925073624
,eye,0.9195894
,seduction,0.913694739
,cute,0.907751024
,long,0.903633833
,luxury,0.893842041
,pretty,0.882544219
,nude,0.873910427
,look,0.869225025
,jewelry,0.858663499
,one,0.857717752
,young,0.840746641
https://scontent.cdninstagram.com/t51.2885-15/e35/13248682_1078922275513304_2048736755_n.jpg,girl,0.9606148
,woman,0.958796084
,street,0.95791769
,people,0.929985642
,sport,0.900517523
,fashion,0.900019526
,model,0.885429263
,exercise,0.879925847
,young,0.869900823
,portrait,0.86889708
,pretty,0.8362571
,summer,0.836227536
,road,0.816400647
,beautiful,0.810329854
,fitness,0.809290051
,recreation,0.806108832
,one,0.804431558
,leisure,0.781159282
,smile,0.774096608
,sexy,0.765059352
https://scontent.cdninstagram.com/t51.2885-15/s750x750/sh0.08/e35/13380934_136091906809640_63503938_n.jpg,woman,0.988271713
,fashion,0.985066354
,girl,0.964324415
,sexy,0.961293578
,model,0.954594731
,glamour,0.946193874
,portrait,0.942917228
,young,0.93582952
,pretty,0.934222221
,beautiful,0.925649107
,isolated,0.916144252
,style,0.894382238
,people,0.891782284
,retro,0.882936239
,hair,0.873712838
,lady,0.861370921
,one,0.855682552
,elegant,0.853926778
,sit,0.849442124
,adult,0.848656595
https://scontent.cdninstagram.com/t51.2885-15/e15/13166772_529084140626911_824343863_n.jpg,woman,0.988348544
,portrait,0.985868931
,one,0.973750353
,girl,0.972787023
,fashion,0.970599651
,adult,0.965344906
,people,0.963566303
,model,0.959025562
,face,0.949116349
,glamour,0.930078149
,beautiful,0.92100668
,young,0.907502055
,dark,0.882211804
,wear,0.881828308
,facial expression,0.870525956
,fashionable,0.869491637
,brunette,0.867338657
,sexy,0.866245985
,hair,0.841255963
,hairdo,0.804555714
https://scontent.cdninstagram.com/t51.2885-15/e35/12519519_1699475260300247_786940889_n.jpg,woman,0.996957421
,fashion,0.989565969
,young,0.98582232
,pretty,0.980119348
,beautiful,0.977270663
,girl,0.975415468
,portrait,0.975315809
,isolated,0.964652479
,hair,0.963372111
,cute,0.961378157
,glamour,0.95914346
,sexy,0.956778765
,model,0.956736386
,one,0.952434003
,adult,0.941050649
,retro,0.929816842
,person,0.924023747
,attractive,0.922387719
,look,0.915194154
,face,0.915011406
https://scontent.cdninstagram.com/t51.2885-15/e35/13385881_1002365063186876_600396386_n.jpg,people,0.979082227
,woman,0.966279626
,portrait,0.960473418
,group,0.96006012
,child,0.95442903
,girl,0.931600749
,adult,0.918346882
,beautiful,0.899261713
,family,0.885090709
,fun,0.881071031
,education,0.864670873
,school,0.856784463
,young,0.850883603
,man,0.840542316
,two,0.837598205
,person,0.81164968
,winter,0.800069094
,fashion,0.799464703
,three,0.798004985
,lifestyle,0.782010436
https://scontent.cdninstagram.com/t51.2885-15/e35/12950473_2008582889365970_783322132_n.jpg,woman,0.998109341
,girl,0.994552255
,young,0.990196586
,fashion,0.989998698
,beautiful,0.985064149
,pretty,0.984310925
,portrait,0.984248281
,model,0.981294632
,sexy,0.972547174
,hair,0.972411275
,glamour,0.971062243
,cute,0.95739305
,redhead,0.953177929
,lady,0.944059014
,lips,0.942570925
,face,0.937520862
,style,0.936755538
,person,0.935815513
,isolated,0.931542158
,attractive,0.924172401
https://scontent.cdninstagram.com/t51.2885-15/e15/p640x640/13329039_1554661768171056_1499714521_n.jpg,monochrome,0.998606384
,woman,0.987822652
,people,0.985958695
,portrait,0.974956691
,one,0.968680024
,fashion,0.947397053
,girl,0.946910977
,adult,0.941326559
,indoors,0.939377964
,monochrome,0.936867833
,black and white,0.910274029
,model,0.900056005
,wear,0.89173305
,outdoors,0.891490817
,eye,0.847200274
,street,0.839079201
,sexy,0.821150541
,pensive,0.818572998
,sepia,0.811541021
,side view,0.786253035
https://scontent.cdninstagram.com/t51.2885-15/s750x750/sh0.08/e35/10919108_497893097077628_1899719600_n.jpg,dog,0.999457598
,canine,0.995230198
,pet,0.993154943
,puppy,0.985789895
,cute,0.983915091
,animal,0.982184529
,portrait,0.98169899
,terrier,0.976234794
,mammal,0.971095204
,studio,0.967929363
,domestic,0.965282202
,young,0.963793993
,purebred,0.956055701
,funny,0.953180909
,sit,0.94451201
,collar,0.944434643
,breed,0.943871737
,one,0.942940116
,pedigree,0.941548944
,looking,0.940805912
https://scontent.cdninstagram.com/t51.2885-15/e35/13355608_1738530639728355_1164852153_n.jpg,Halloween,0.992263019
,woman,0.987083793
,vicious,0.980323195
,fantasy,0.969822109
,fashion,0.968511581
,bizarre,0.964960277
,horror,0.960977435
,Satan,0.94901067
,ghost,0.945708394
,glamour,0.944404662
,isolated,0.937771797
,sexy,0.918581486
,horror,0.913970172
,young,0.904852629
,adult,0.901633441
,blood,0.889294922
,nightmare,0.878276408
,pretty,0.877728045
,skittish,0.871733844
,elegant,0.860041142
https://scontent.cdninstagram.com/t51.2885-15/e35/13151228_256132414774247_875002202_n.jpg,woman,0.995870233
,fashion,0.990046382
,girl,0.985722065
,young,0.980951428
,beautiful,0.980481505
,pretty,0.979084373
,glamour,0.959938824
,portrait,0.956612945
,model,0.954953671
,sexy,0.954226911
,cute,0.942686558
,lady,0.933294713
,hair,0.925080478
,elegant,0.924896359
,style,0.909185529
,dress,0.903249621
,attractive,0.900241375
,studio,0.884454548
,luxury,0.876429081
,people,0.870921493
https://scontent.cdninstagram.com/t51.2885-15/e15/13092306_893299360815854_1270154083_n.jpg,woman,0.991539776
,girl,0.985927582
,portrait,0.977895737
,people,0.967856169
,fashion,0.962181211
,beautiful,0.938847542
,model,0.934373975
,adult,0.932164133
,one,0.931206584
,young,0.925347567
,hair,0.918118298
,pretty,0.872955203
,sexy,0.865388513
,indoors,0.854303002
,blond,0.848747551
,lifestyle,0.848390102
,cute,0.837684989
,leisure,0.835479915
,face,0.824831665
,family,0.818897903
https://scontent.cdninstagram.com/t51.2885-15/e35/12501877_999533643427102_1115054631_n.jpg,woman,0.995658755
,pretty,0.989260435
,cute,0.989165545
,fashion,0.97532177
,isolated,0.966301978
,young,0.96621573
,adolescent,0.956264257
,casual,0.95583272
,looking,0.950995445
,glamour,0.945575953
,sexy,0.924716234
,joy,0.918328881
,girl,0.91155684
,hair,0.908792675
,elegant,0.90776515
,portrait,0.894536376
,friendly,0.876508772
,fun,0.86843884
,one,0.86722225
,eye,0.851256251
https://scontent.cdninstagram.com/t51.2885-15/e35/p480x480/13394924_1559386704364232_1452682670_n.jpg,fashion,0.986884594
,woman,0.981471896
,beautiful,0.980565071
,girl,0.969925523
,portrait,0.946376085
,glamour,0.945238829
,model,0.937815189
,cute,0.936162412
,pretty,0.92840147
,people,0.923802614
,young,0.916121304
,bright,0.898691773
,lady,0.888246179
,hair,0.882346988
,face,0.8628968
,style,0.862374663
,luxury,0.852670431
,sexy,0.84339565
,fun,0.842638075
,one,0.835442066
https://scontent.cdninstagram.com/t51.2885-15/e35/13320086_1054310624648994_937184399_n.jpg,blank,0.973095
,woman,0.96459651
,business,0.963127494
,isolated,0.952865243
,desktop,0.94881916
,portrait,0.945173979
,young,0.930969119
,bill,0.922792017
,girl,0.921232045
,paper,0.917442739
,pretty,0.911304533
,face,0.89614296
,person,0.893583536
,people,0.887618542
,display,0.872542143
,beautiful,0.8723557
,cute,0.87097019
,fashion,0.866197348
,education,0.865605295
,identity,0.858618617
https://scontent.cdninstagram.com/t51.2885-15/e35/13408747_251249621917410_1295613923_n.jpg,woman,0.992658079
,portrait,0.984879136
,girl,0.965869844
,one,0.952536106
,fashion,0.949554205
,beautiful,0.949542642
,hair,0.949148774
,young,0.945927262
,face,0.943905592
,people,0.94318074
,pretty,0.941716135
,adult,0.930169821
,sexy,0.921949625
,model,0.910112262
,dark,0.904535174
,isolated,0.903006792
,person,0.891619146
,desktop,0.890226781
,lady,0.876054764
,eye,0.875274062
https://scontent.cdninstagram.com/t51.2885-15/e35/13395076_139900233084471_541619882_n.jpg,woman,0.993964493
,fashion,0.990598679
,beautiful,0.982684493
,glamour,0.976482749
,pretty,0.97041595
,girl,0.96998322
,sexy,0.967454433
,elegant,0.960785449
,cute,0.959081471
,young,0.955540657
,style,0.95230329
,portrait,0.951783478
,model,0.92737633
,lady,0.916983485
,hair,0.91536051
,attractive,0.876157641
,luxury,0.869607449
,hairdo,0.869423509
,adult,0.866158187
,bright,0.858419657
https://scontent.cdninstagram.com/t51.2885-15/s750x750/sh0.08/e35/13422970_154750364939102_1764020199_n.jpg,monochrome,0.994645953
,woman,0.993325591
,girl,0.991357684
,portrait,0.989581943
,fashion,0.988777399
,model,0.98522383
,beautiful,0.973213077
,black and white,0.97300756
,sexy,0.963914871
,pretty,0.950769663
,eye,0.946894884
,glamour,0.944837451
,people,0.944402814
,style,0.943247557
,young,0.938812375
,face,0.935848117
,hair,0.935224414
,music,0.930732667
,sepia,0.926969767
,classic,0.924786747
https://scontent.cdninstagram.com/t51.2885-15/e35/13392804_270508536636410_45648707_n.jpg,woman,0.962510407
,people,0.959800601
,indoors,0.949428678
,young,0.913784623
,man,0.906203628
,vertical,0.904495716
,family,0.903058767
,portrait,0.900514126
,contemporary,0.899796247
,no person,0.898255348
,one,0.895256877
,retro,0.877061248
,girl,0.875984669
,adult,0.875829339
,person,0.875016987
,business,0.873801351
,fashion,0.87266463
,pretty,0.865552187
,sexy,0.825950921
,glamour,0.823873878
https://scontent.cdninstagram.com/t51.2885-15/e35/13329206_935101146587296_320015099_n.jpg,woman,0.989472508
,young,0.979032636
,fashion,0.973105073
,isolated,0.972092509
,girl,0.958398223
,beautiful,0.951600552
,retro,0.935558081
,desktop,0.930135608
,face,0.929584086
,style,0.92767489
,pretty,0.927041352
,person,0.925516665
,cute,0.910966694
,lady,0.906824708
,hair,0.894421339
,portrait,0.889240026
,one,0.887008488
,costume,0.88667196
,funny,0.882975578
,fun,0.879230142
https://scontent.cdninstagram.com/t51.2885-15/e35/13381269_1545065065802829_1183206730_n.jpg,woman,0.977354646
,cute,0.972457767
,girl,0.97045505
,child,0.969526649
,beautiful,0.962720037
,young,0.958636284
,pretty,0.951585174
,portrait,0.951443791
,fun,0.947199643
,people,0.939168572
,joy,0.93835336
,little,0.934673429
,isolated,0.928891599
,happiness,0.914502919
,face,0.914099693
,love,0.897484183
,cheerful,0.880944848
,smile,0.873159885
,health,0.866836011
,attractive,0.866035998
