url,class,score,,,,,,,,
https://scontent.cdninstagram.com/t51.2885-15/e35/13355414_533329960209157_1667098642_n.jpg,business,0.9828941226005554,Commerce,,,,"Product/brand shots",,,
,"no person",0.9643751382827759,,,,,,,,
,equipment,0.9612489938735962,,,,,,,,
,footwear,0.9118804931640625,,,,,,,,
,commerce,0.8942553400993347,,,,,,,,
,paper,0.8898540735244751,,,,,,,,
,isolated,0.880059003829956,,,,,,,,
,industry,0.8785467147827148,,,,,,,,
,power,0.8745965957641602,,,,,,,,
,money,0.8691970109939575,,,,,,,,
,wear,0.8629552721977234,,,,,,,,
,leisure,0.8557660579681396,,,,,,,,
,sneakers,0.8550509214401245,,,,,,,,
,technology,0.8542540669441223,,,,,,,,
,finance,0.8538405895233154,,,,,,,,
,plastic,0.8512097597122192,,,,,,,,
,office,0.840792179107666,,,,,,,,
,foot,0.8381450772285461,,,,,,,,
,electronics,0.8358590602874756,,,,,,,,
,exercise,0.8265124559402466,,,,,,,,
https://scontent.cdninstagram.com/t51.2885-15/e35/13398513_1384887294871803_1368645375_n.jpg,fashion,0.9947768449783325,"Fun Filter","Fashion & Beauty","My life",,"Fun Filter","My look",Selfie,
,woman,0.9939807653427124,,,,,,,,
,model,0.9806901216506958,,,,,,,,
,glamour,0.9778858423233032,,,,,,,,
,portrait,0.9709535837173462,,,,,,,,
,sexy,0.9680427312850952,,,,,,,,
,girl,0.9672627449035645,,,,,,,,
,pretty,0.9353376626968384,,,,,,,,
,dress,0.9157712459564209,,,,,,,,
,beautiful,0.9153302907943726,,,,,,,,
,hair,0.9142815470695496,,,,,,,,
,lips,0.9087529182434082,,,,,,,,
,eye,0.9066975116729736,,,,,,,,
,people,0.8899800777435303,,,,,,,,
,elegant,0.8836475014686584,,,,,,,,
,style,0.8650435209274292,,,,,,,,
,luxury,0.861689567565918,,,,,,,,
,young,0.8570561408996582,,,,,,,,
,dark,0.8530325293540955,,,,,,,,
,brunette,0.8482531309127808,,,,,,,,
https://scontent.cdninstagram.com/t51.2885-15/s640x640/e15/13329121_148180538931047_1139085040_n.jpg,music,0.9912033677101135,Entertainment,,,,Events,,,
,concert,0.9849623441696167,,,,,,,,
,festival,0.9744490385055542,,,,,,,,
,light,0.970535933971405,,,,,,,,
,performance,0.9587262868881226,,,,,,,,
,stage,0.954451322555542,,,,,,,,
,flame,0.9342707395553589,,,,,,,,
,audience,0.9218591451644897,,,,,,,,
,energy,0.9148246049880981,,,,,,,,
,spotlight,0.9092663526535034,,,,,,,,
,blur,0.8862316012382507,,,,,,,,
,band,0.8821707367897034,,,,,,,,
,explosion,0.8664548993110657,,,,,,,,
,singer,0.8414528369903564,,,,,,,,
,club,0.8343232870101929,,,,,,,,
,"no person",0.8336300849914551,,,,,,,,
,battle,0.8284379243850708,,,,,,,,
,police,0.8275641202926636,,,,,,,,
,street,0.8260185718536377,,,,,,,,
,action,0.8255972862243652,,,,,,,,
https://scontent.cdninstagram.com/t51.2885-15/e35/13249857_513599152183390_626814947_n.jpg,wine,0.9867538213729858,Food,Entertainment,,,"Drinks and snack",Events,,
,bottle,0.9845438003540039,,,,,,,,
,industry,0.9715849757194519,,,,,,,,
,party,0.9702936410903931,,,,,,,,
,alcohol,0.9559693336486816,,,,,,,,
,container,0.9559511542320251,,,,,,,,
,celebration,0.9521746635437012,,,,,,,,
,drink,0.9454241991043091,,,,,,,,
,champagne,0.9413480758666992,,,,,,,,
,people,0.9345414638519287,,,,,,,,
,science,0.9296932220458984,,,,,,,,
,equipment,0.9168311357498169,,,,,,,,
,glass,0.9148505926132202,,,,,,,,
,bar,0.9013738632202148,,,,,,,,
,chemistry,0.8982073068618774,,,,,,,,
,club,0.8947244882583618,,,,,,,,
,glass,0.877048134803772,,,,,,,,
,laboratory,0.8713501691818237,,,,,,,,
,technology,0.8651509284973145,,,,,,,,
,stock,0.8623040914535522,,,,,,,,
https://scontent.cdninstagram.com/t51.2885-15/e35/13413339_1778795319033873_1882886485_n.jpg,flag,0.9935557842254639,Entertainment,,,,Events,,,
,election,0.9776214361190796,,,,,,,,
,people,0.9658197164535522,,,,,,,,
,festival,0.9508224129676819,,,,,,,,
,battle,0.95015949010849,,,,,,,,
,celebration,0.9448691606521606,,,,,,,,
,music,0.9310652017593384,,,,,,,,
,rebellion,0.9227432012557983,,,,,,,,
,rally,0.9214264154434204,,,,,,,,
,administration,0.9166058301925659,,,,,,,,
,light,0.908270001411438,,,,,,,,
,landscape,0.894264817237854,,,,,,,,
,democracy,0.8907712697982788,,,,,,,,
,group,0.8874175548553467,,,,,,,,
,Christmas,0.8698373436927795,,,,,,,,
,rally,0.8540804386138916,,,,,,,,
,audience,0.8455389738082886,,,,,,,,
,crowd,0.8438960909843445,,,,,,,,
,concert,0.8429340124130249,,,,,,,,
,soccer,0.835820198059082,,,,,,,,
https://scontent.cdninstagram.com/t51.2885-15/e35/1172609_235769223459868_1929964341_n.jpg,food,0.9976131916046143,Food,,,,"Meal time",,,
,"no person",0.991682231426239,,,,,,,,
,meat,0.9752557277679443,,,,,,,,
,dinner,0.9687695503234863,,,,,,,,
,potato,0.9568493366241455,,,,,,,,
,meal,0.9566389322280884,,,,,,,,
,delicious,0.952518880367279,,,,,,,,
,lunch,0.9522373676300049,,,,,,,,
,vegetable,0.9427446722984314,,,,,,,,
,fish,0.9316864013671875,,,,,,,,
,bread,0.929751992225647,,,,,,,,
,"french fries",0.9247608184814453,,,,,,,,
,plate,0.921876072883606,,,,,,,,
,grow,0.9214296340942383,,,,,,,,
,dish,0.9188659191131592,,,,,,,,
,hot,0.9112062454223633,,,,,,,,
,pork,0.9071965217590332,,,,,,,,
,onion,0.900646448135376,,,,,,,,
,fast,0.8947408199310303,,,,,,,,
,"still life",0.8938777446746826,,,,,,,,
https://scontent.cdninstagram.com/t51.2885-15/e35/13249943_1764534153781856_1319139280_n.jpg,woman,0.9947960376739502,"Fun Filter","My life",,,"Fun Filter",Selfie,,
,portrait,0.9776914715766907,,,,,,,,
,girl,0.9702637195587158,,,,,,,,
,people,0.9697664976119995,,,,,,,,
,fashion,0.9636627435684204,,,,,,,,
,pretty,0.948479950428009,,,,,,,,
,one,0.9474126696586609,,,,,,,,
,young,0.9363096952438354,,,,,,,,
,cute,0.9248453378677368,,,,,,,,
,adult,0.9235131740570068,,,,,,,,
,sexy,0.9139101505279541,,,,,,,,
,glamour,0.9129009246826172,,,,,,,,
,face,0.8995308876037598,,,,,,,,
,model,0.890975832939148,,,,,,,,
,lips,0.8778001666069031,,,,,,,,
,fun,0.8776296377182007,,,,,,,,
,isolated,0.8701857328414917,,,,,,,,
,beautiful,0.857068657875061,,,,,,,,
,hair,0.855974018573761,,,,,,,,
,eye,0.8549289703369141,,,,,,,,
https://scontent.cdninstagram.com/t51.2885-15/e35/13266819_1635221436801367_1402330316_n.jpg,portrait,0.9848679304122925,"Fun Filter","My life",,,"Fun Filter",Selfie,,
,fashion,0.984271764755249,,,,,,,,
,girl,0.9839854836463928,,,,,,,,
,woman,0.9811015129089355,,,,,,,,
,model,0.9767065048217773,,,,,,,,
,beautiful,0.9698849320411682,,,,,,,,
,people,0.9514727592468262,,,,,,,,
,face,0.9501396417617798,,,,,,,,
,flower,0.9390476942062378,,,,,,,,
,hair,0.9254188537597656,,,,,,,,
,glamour,0.9249523282051086,,,,,,,,
,adult,0.9129459857940674,,,,,,,,
,wreath,0.9117650985717773,,,,,,,,
,one,0.9106691479682922,,,,,,,,
,eye,0.9096227884292603,,,,,,,,
,retro,0.9042646884918213,,,,,,,,
,young,0.9030624032020569,,,,,,,,
,veil,0.8986273407936096,,,,,,,,
,fairy,0.89339679479599,,,,,,,,
,summer,0.8917115926742554,,,,,,,,
https://scontent.cdninstagram.com/t51.2885-15/e15/13381069_1743403795900325_815307214_n.jpg,performance,0.9736415147781372,Entertainment,,,,Concerts,,,
,stage,0.9613205194473267,,,,,,,,
,concert,0.9611988067626953,,,,,,,,
,festival,0.9573966264724731,,,,,,,,
,people,0.9517138600349426,,,,,,,,
,blur,0.9293032884597778,,,,,,,,
,music,0.9193501472473145,,,,,,,,
,motion,0.9154316782951355,,,,,,,,
,energy,0.9020195007324219,,,,,,,,
,light,0.8902547955513,,,,,,,,
,audience,0.8881292343139648,,,,,,,,
,celebration,0.8624286651611328,,,,,,,,
,dancing,0.8566606044769287,,,,,,,,
,club,0.8460157513618469,,,,,,,,
,band,0.8293708562850952,,,,,,,,
,party,0.8231241703033447,,,,,,,,
,adult,0.7853096723556519,,,,,,,,
,outdoors,0.7752107381820679,,,,,,,,
,singer,0.7737393975257874,,,,,,,,
,nightlife,0.7680950164794922,,,,,,,,
https://scontent.cdninstagram.com/t51.2885-15/e35/13298218_904408729669828_1781625398_n.jpg,"no person",0.9633610844612122,Food,Entertainment,,,"Drinks and snack",Events,,
,food,0.9150406122207642,,,,,,,,
,watercraft,0.8999693989753723,,,,,,,,
,people,0.8950222730636597,,,,,,,,
,healthcare,0.8851849436759949,,,,,,,,
,glass,0.8567802309989929,,,,,,,,
,vehicle,0.851320743560791,,,,,,,,
,one,0.8491003513336182,,,,,,,,
,medicine,0.8344477415084839,,,,,,,,
,drink,0.8255184888839722,,,,,,,,
,recreation,0.7963066101074219,,,,,,,,
,luxury,0.7934988737106323,,,,,,,,
,industry,0.7910991907119751,,,,,,,,
,science,0.7899477481842041,,,,,,,,
,business,0.7868773341178894,,,,,,,,
,two,0.7852978706359863,,,,,,,,
,health,0.7805178165435791,,,,,,,,
,fun,0.750992476940155,,,,,,,,
,wine,0.7440903782844543,,,,,,,,
,desktop,0.7185941934585571,,,,,,,,
https://scontent.cdninstagram.com/t51.2885-15/sh0.08/e35/p750x750/13126731_484843691725135_1008527239_n.jpg,food,0.9964102506637573,Food,,,,"Meal time",,,
,salmon,0.9895002841949463,,,,,,,,
,fish,0.9837030172348022,,,,,,,,
,"no person",0.977532148361206,,,,,,,,
,dinner,0.977338433265686,,,,,,,,
,delicious,0.972516655921936,,,,,,,,
,cooking,0.9706594347953796,,,,,,,,
,seafood,0.9669829607009888,,,,,,,,
,meal,0.9498292207717896,,,,,,,,
,lunch,0.9490354061126709,,,,,,,,
,sushi,0.9446065425872803,,,,,,,,
,healthy,0.9408185482025146,,,,,,,,
,restaurant,0.9392123222351074,,,,,,,,
,caviar,0.9351562261581421,,,,,,,,
,health,0.9316630363464355,,,,,,,,
,nutrition,0.9316240549087524,,,,,,,,
,traditional,0.9306665062904358,,,,,,,,
,epicure,0.9297569990158081,,,,,,,,
,roe,0.9296276569366455,,,,,,,,
,closeup,0.9236505031585693,,,,,,,,
https://scontent.cdninstagram.com/t51.2885-15/e15/12917960_1530599653912816_2045528171_n.jpg,woman,0.9870766401290894,"Fun Filter","My life",,,"Fun Filter",Selfie,,
,fashion,0.9709881544113159,,,,,,,,
,flower,0.9299904108047485,,,,,,,,
,young,0.9288415908813477,,,,,,,,
,pretty,0.9267280697822571,,,,,,,,
,girl,0.924616813659668,,,,,,,,
,people,0.9231750965118408,,,,,,,,
,nature,0.913312554359436,,,,,,,,
,cute,0.9106923341751099,,,,,,,,
,portrait,0.909963846206665,,,,,,,,
,summer,0.9085354804992676,,,,,,,,
,elegant,0.9058977961540222,,,,,,,,
,beautiful,0.8893535733222961,,,,,,,,
,glamour,0.8856664896011353,,,,,,,,
,outdoors,0.883758008480072,,,,,,,,
,one,0.8667339086532593,,,,,,,,
,fun,0.8580727577209473,,,,,,,,
,sexy,0.8497639894485474,,,,,,,,
,indoors,0.8354384303092957,,,,,,,,
,dress,0.834392249584198,,,,,,,,
https://scontent.cdninstagram.com/t51.2885-15/e35/12965695_1595998547394073_1190456492_n.jpg,bathroom,0.9830167293548584,"Fashion & Beauty",,,,Ootd,,,
,indoors,0.9824036359786987,,,,,,,,
,family,0.9681946039199829,,,,,,,,
,people,0.9599432349205017,,,,,,,,
,bathtub,0.9579929113388062,,,,,,,,
,child,0.9569451808929443,,,,,,,,
,room,0.9542192220687866,,,,,,,,
,mirror,0.9438759088516235,,,,,,,,
,hygiene,0.942995548248291,,,,,,,,
,woman,0.9429330229759216,,,,,,,,
,wear,0.9272728562355042,,,,,,,,
,lifestyle,0.9216777086257935,,,,,,,,
,one,0.9193757772445679,,,,,,,,
,soap,0.8983001708984375,,,,,,,,
,inside,0.8978681564331055,,,,,,,,
,housework,0.896324872970581,,,,,,,,
,adult,0.8957449197769165,,,,,,,,
,girl,0.863127589225769,,,,,,,,
,enjoyment,0.8571289777755737,,,,,,,,
,happiness,0.8543004393577576,,,,,,,,
https://scontent.cdninstagram.com/t51.2885-15/s750x750/sh0.08/e35/12479101_224533941255494_493240615_n.jpg,desktop,0.9836107492446899,Literature,,,,Literature-s,,,
,text,0.96431565284729,,,,,,,,
,symbol,0.9448489546775818,,,,,,,,
,"no person",0.93781578540802,,,,,,,,
,design,0.9295057058334351,,,,,,,,
,business,0.9256242513656616,,,,,,,,
,pattern,0.9227207899093628,,,,,,,,
,abstract,0.90818190574646,,,,,,,,
,horizontal,0.9046587944030762,,,,,,,,
,communication,0.8991903066635132,,,,,,,,
,alphabet,0.8954082727432251,,,,,,,,
,sign,0.8938615322113037,,,,,,,,
,number,0.8803547620773315,,,,,,,,
,illustration,0.8770687580108643,,,,,,,,
,image,0.8436607122421265,,,,,,,,
,"give voice",0.8407827615737915,,,,,,,,
,education,0.8401496410369873,,,,,,,,
,isolated,0.8368608951568604,,,,,,,,
,element,0.8276042342185974,,,,,,,,
,dark,0.8261475563049316,,,,,,,,
https://scontent.cdninstagram.com/t51.2885-15/e35/13402660_1403264086647213_136335976_n.jpg,people,0.9879064559936523,Cute,"Fashion & Beauty",,,Cute,Ootd,,
,child,0.9846952557563782,,,,,,,,
,man,0.97651207447052,,,,,,,,
,family,0.902389407157898,,,,,,,,
,fun,0.9022421836853027,,,,,,,,
,business,0.899472713470459,,,,,,,,
,one,0.8943825960159302,,,,,,,,
,toy,0.8847219347953796,,,,,,,,
,baby,0.8824630975723267,,,,,,,,
,person,0.8821249008178711,,,,,,,,
,human,0.8756557703018188,,,,,,,,
,character,0.8741016983985901,,,,,,,,
,adult,0.8732095956802368,,,,,,,,
,boy,0.8643214106559753,,,,,,,,
,future,0.8531290292739868,,,,,,,,
,ball,0.8421345949172974,,,,,,,,
,commerce,0.8242719173431396,,,,,,,,
,exhibition,0.8237658143043518,,,,,,,,
,food,0.8186607360839844,,,,,,,,
,ma,0.8161075115203857,,,,,,,,
https://scontent.cdninstagram.com/t51.2885-15/e35/13102522_1538982989742278_751901567_n.jpg,woman,0.997947096824646,"Fashion & Beauty","My life",,,"My look",Selfie,,
,girl,0.9882735013961792,,,,,,,,
,fashion,0.9754537343978882,,,,,,,,
,pretty,0.9703652858734131,,,,,,,,
,portrait,0.9654839634895325,,,,,,,,
,people,0.9623610973358154,,,,,,,,
,relaxation,0.9597639441490173,,,,,,,,
,leisure,0.9479579925537109,,,,,,,,
,family,0.9472570419311523,,,,,,,,
,indoors,0.946402907371521,,,,,,,,
,sexy,0.9449185132980347,,,,,,,,
,young,0.94117271900177,,,,,,,,
,model,0.9378383159637451,,,,,,,,
,hair,0.9309598207473755,,,,,,,,
,dawn,0.9142109155654907,,,,,,,,
,bed,0.9135490655899048,,,,,,,,
,beautiful,0.9067314863204956,,,,,,,,
,eye,0.9062214493751526,,,,,,,,
,glamour,0.9008321762084961,,,,,,,,
,cute,0.8960132002830505,,,,,,,,
https://scontent.cdninstagram.com/t51.2885-15/e35/12960109_102303446843972_175753457_n.jpg,woman,0.9959526062011719,"Fashion & Beauty",,,,"My look",,,
,adult,0.9517554044723511,,,,,,,,
,young,0.9493768215179443,,,,,,,,
,looking,0.9459004402160645,,,,,,,,
,pretty,0.9419246912002563,,,,,,,,
,indoors,0.9281628131866455,,,,,,,,
,girl,0.924249529838562,,,,,,,,
,beautiful,0.9161365032196045,,,,,,,,
,one,0.9153112769126892,,,,,,,,
,people,0.8968973159790039,,,,,,,,
,fashion,0.896650493144989,,,,,,,,
,cute,0.8925338387489319,,,,,,,,
,vertical,0.8902790546417236,,,,,,,,
,family,0.8830609321594238,,,,,,,,
,lifestyle,0.8610280752182007,,,,,,,,
,sexy,0.8557647466659546,,,,,,,,
,portrait,0.8437814116477966,,,,,,,,
,attractive,0.8377627730369568,,,,,,,,
,leisure,0.8276015520095825,,,,,,,,
,shopping,0.8164940476417542,,,,,,,,
https://scontent.cdninstagram.com/t51.2885-15/e35/13414193_160117467727204_704410894_n.jpg,flower,0.9985437393188477,Environment,Celebrations,,,"Natural beauty","Personal Events",,
,rose,0.9979031682014465,,,,,,,,
,wedding,0.9971709251403809,,,,,,,,
,bouquet,0.99653160572052,,,,,,,,
,celebration,0.9861853718757629,,,,,,,,
,bride,0.9860994219779968,,,,,,,,
,love,0.9839495420455933,,,,,,,,
,floral,0.9820330142974854,,,,,,,,
,ceremony,0.9808138608932495,,,,,,,,
,decoration,0.9777369499206543,,,,,,,,
,marriage,0.9777342081069946,,,,,,,,
,groom,0.9729620218276978,,,,,,,,
,romance,0.969709038734436,,,,,,,,
,engagement,0.9674333333969116,,,,,,,,
,petal,0.9603112936019897,,,,,,,,
,blooming,0.9595344662666321,,,,,,,,
,gift,0.9571747779846191,,,,,,,,
,"flower arrangement",0.9530948400497437,,,,,,,,
,romantic,0.9465680122375488,,,,,,,,
,bridal,0.9429020881652832,,,,,,,,
https://scontent.cdninstagram.com/t51.2885-15/e35/12825718_1715419105361301_1765040148_n.jpg,woman,0.9903136491775513,"Fashion & Beauty","My life",,,"My look",Selfie,,
,fashion,0.9698237180709839,,,,,,,,
,people,0.968342661857605,,,,,,,,
,young,0.9630939364433289,,,,,,,,
,girl,0.9544546604156494,,,,,,,,
,beautiful,0.9462138414382935,,,,,,,,
,pretty,0.9458794593811035,,,,,,,,
,portrait,0.9442911148071289,,,,,,,,
,adult,0.9334774017333984,,,,,,,,
,sexy,0.9249407649040222,,,,,,,,
,cute,0.9188741445541382,,,,,,,,
,hair,0.9037753343582153,,,,,,,,
,glamour,0.899475634098053,,,,,,,,
,person,0.8955010771751404,,,,,,,,
,one,0.89537113904953,,,,,,,,
,attractive,0.8720134496688843,,,,,,,,
,model,0.8698792457580566,,,,,,,,
,long,0.8434840440750122,,,,,,,,
,dress,0.8387494087219238,,,,,,,,
,adolescent,0.8370671272277832,,,,,,,,
https://scontent.cdninstagram.com/t51.2885-15/e15/12940208_963070133788980_1963827851_n.jpg,celebration,0.9823744297027588,Entertainment,,,,Concerts,,,
,Christmas,0.9721447825431824,,,,,,,,
,bright,0.9542333483695984,,,,,,,,
,music,0.9504532217979431,,,,,,,,
,party,0.9408029317855835,,,,,,,,
,festival,0.9343595504760742,,,,,,,,
,light,0.9250078201293945,,,,,,,,
,abstract,0.9175189137458801,,,,,,,,
,shining,0.9166491031646729,,,,,,,,
,desktop,0.9036729335784912,,,,,,,,
,concert,0.8784424066543579,,,,,,,,
,club,0.8676766157150269,,,,,,,,
,space,0.8624966144561768,,,,,,,,
,decoration,0.8600535988807678,,,,,,,,
,club,0.854784369468689,,,,,,,,
,stage,0.8255020976066589,,,,,,,,
,performance,0.8123829364776611,,,,,,,,
,dark,0.8075697422027588,,,,,,,,
,dancing,0.7988001108169556,,,,,,,,
,disco,0.7954363822937012,,,,,,,,
https://scontent.cdninstagram.com/t51.2885-15/e35/13397567_493290204195035_1838376011_n.jpg,woman,0.9934196472167969,"Fun Filter","My life",,,"Fun Filter",Selfie,,
,fashion,0.9872360229492188,,,,,,,,
,sunglasses,0.9781304597854614,,,,,,,,
,pretty,0.9484379291534424,,,,,,,,
,girl,0.9421924948692322,,,,,,,,
,glamour,0.9406033158302307,,,,,,,,
,portrait,0.9369468688964844,,,,,,,,
,sexy,0.9332223534584045,,,,,,,,
,eye,0.9291026592254639,,,,,,,,
,elegant,0.9279841184616089,,,,,,,,
,people,0.9224525690078735,,,,,,,,
,young,0.9172235727310181,,,,,,,,
,fun,0.9097574353218079,,,,,,,,
,cute,0.8917045593261719,,,,,,,,
,model,0.8592411279678345,,,,,,,,
,Halloween,0.8426454067230225,,,,,,,,
,lips,0.8403497934341431,,,,,,,,
,indoors,0.8288135528564453,,,,,,,,
,style,0.8124055862426758,,,,,,,,
,luxury,0.8096007704734802,,,,,,,,
https://scontent.cdninstagram.com/t51.2885-15/e35/12976628_229870180702395_1159853948_n.jpg,woman,0.9960711598396301,Relationships,,,,"Best friends",,,
,people,0.9787169694900513,,,,,,,,
,fashion,0.9778344631195068,,,,,,,,
,indoors,0.9585354328155518,,,,,,,,
,two,0.9561630487442017,,,,,,,,
,portrait,0.9485074281692505,,,,,,,,
,wear,0.9421464204788208,,,,,,,,
,love,0.9355799555778503,,,,,,,,
,togetherness,0.9253566861152649,,,,,,,,
,family,0.918782114982605,,,,,,,,
,pretty,0.9083022475242615,,,,,,,,
,adolescent,0.8974143266677856,,,,,,,,
,fun,0.8947241306304932,,,,,,,,
,friendship,0.8926534056663513,,,,,,,,
,girl,0.8913838863372803,,,,,,,,
,sexy,0.8889046907424927,,,,,,,,
,glamour,0.8815921545028687,,,,,,,,
,cute,0.8607760071754456,,,,,,,,
,adult,0.8589380979537964,,,,,,,,
,looking,0.8533083200454712,,,,,,,,
https://scontent.cdninstagram.com/t51.2885-15/e35/12959966_714445298659210_2033096486_n.jpg,woman,0.9960907697677612,"Fashion & Beauty","My life",,,"My look",Selfie,,
,pretty,0.9738172292709351,,,,,,,,
,young,0.9643166065216064,,,,,,,,
,fashion,0.9584147930145264,,,,,,,,
,portrait,0.9554553031921387,,,,,,,,
,girl,0.9535543322563171,,,,,,,,
,people,0.9349573850631714,,,,,,,,
,indoors,0.9316461086273193,,,,,,,,
,one,0.916968584060669,,,,,,,,
,business,0.903592050075531,,,,,,,,
,elegant,0.8974522352218628,,,,,,,,
,cute,0.8969441056251526,,,,,,,,
,sexy,0.890358567237854,,,,,,,,
,attractive,0.8871592283248901,,,,,,,,
,beautiful,0.8864772915840149,,,,,,,,
,adult,0.8818280696868896,,,,,,,,
,model,0.8699942827224731,,,,,,,,
,looking,0.8627371788024902,,,,,,,,
,isolated,0.8614414930343628,,,,,,,,
,casual,0.8477948307991028,,,,,,,,
https://scontent.cdninstagram.com/t51.2885-15/e35/13408972_1788526471362650_2070871604_n.jpg,luggage,0.9965962767601013,Travel,"Fashion & Beauty",,,Travel-s,Ootd,,
,street,0.9908512830734253,,,,,,,,
,city,0.9870722889900208,,,,,,,,
,people,0.9780290126800537,,,,,,,,
,fashion,0.9671929478645325,,,,,,,,
,woman,0.9495317935943604,,,,,,,,
,urban,0.9477800726890564,,,,,,,,
,airport,0.9417378306388855,,,,,,,,
,shopping,0.9300684928894043,,,,,,,,
,bag,0.9294708967208862,,,,,,,,
,tourist,0.9253191351890564,,,,,,,,
,departure,0.9171721935272217,,,,,,,,
,wait,0.9167347550392151,,,,,,,,
,wear,0.8676269054412842,,,,,,,,
,travel,0.8650329113006592,,,,,,,,
,business,0.864372968673706,,,,,,,,
,road,0.8599538207054138,,,,,,,,
,girl,0.8537806272506714,,,,,,,,
,adult,0.8398555517196655,,,,,,,,
,travel,0.8353867530822754,,,,,,,,
https://scontent.cdninstagram.com/t51.2885-15/e35/12912812_983847278318934_1325138117_n.jpg,woman,0.9968705773353577,"Fashion & Beauty","My life",,,"My look",Selfie,,
,girl,0.9851961135864258,,,,,,,,
,fashion,0.9784562587738037,,,,,,,,
,pretty,0.9748691916465759,,,,,,,,
,sexy,0.9737780094146729,,,,,,,,
,hair,0.9665237665176392,,,,,,,,
,portrait,0.9638135433197021,,,,,,,,
,eye,0.9385786056518555,,,,,,,,
,model,0.938057541847229,,,,,,,,
,young,0.9293478727340698,,,,,,,,
,people,0.9154115915298462,,,,,,,,
,beautiful,0.909735918045044,,,,,,,,
,glamour,0.9043599367141724,,,,,,,,
,cute,0.890854001045227,,,,,,,,
,blond,0.8872630000114441,,,,,,,,
,long,0.8860028982162476,,,,,,,,
,summer,0.8798568248748779,,,,,,,,
,love,0.8623133897781372,,,,,,,,
,nude,0.8593566417694092,,,,,,,,
,face,0.856029748916626,,,,,,,,
https://scontent.cdninstagram.com/t51.2885-15/e35/13398942_1218759904815304_509559930_n.jpg,beach,0.9902783632278442,Recreation,"Fashion & Beauty",,,Beach,Ootd,,
,woman,0.98699951171875,,,,,,,,
,sand,0.986565887928009,,,,,,,,
,girl,0.9764437675476074,,,,,,,,
,leisure,0.9695192575454712,,,,,,,,
,water,0.9643106460571289,,,,,,,,
,summer,0.9619073867797852,,,,,,,,
,fun,0.9552626013755798,,,,,,,,
,travel,0.9504998326301575,,,,,,,,
,enjoyment,0.9494065046310425,,,,,,,,
,young,0.9384950399398804,,,,,,,,
,fashion,0.9370399713516235,,,,,,,,
,relaxation,0.9303476810455322,,,,,,,,
,sea,0.9247624278068542,,,,,,,,
,exotic,0.9110442399978638,,,,,,,,
,love,0.9104762077331543,,,,,,,,
,sun,0.9097528457641602,,,,,,,,
,recreation,0.9058700203895569,,,,,,,,
,people,0.9039554595947266,,,,,,,,
,tropical,0.9022364020347595,,,,,,,,
https://scontent.cdninstagram.com/t51.2885-15/e35/13256890_470006646523210_187672562_n.jpg,food,0.9940406084060669,Food,Commerce,,,"Drinks and snack","Product/brand shots",,
,"no person",0.9906949996948242,,,,,,,,
,delicious,0.9869703054428101,,,,,,,,
,coffee,0.968285322189331,,,,,,,,
,drink,0.9608615040779114,,,,,,,,
,chocolate,0.9558083415031433,,,,,,,,
,breakfast,0.9525021314620972,,,,,,,,
,milk,0.9500832557678223,,,,,,,,
,hot,0.9363781213760376,,,,,,,,
,nutrition,0.9292758107185364,,,,,,,,
,restaurant,0.9187419414520264,,,,,,,,
,sweet,0.913122296333313,,,,,,,,
,sugar,0.9124743938446045,,,,,,,,
,bread,0.9086359739303589,,,,,,,,
,traditional,0.907295286655426,,,,,,,,
,cream,0.9030004739761353,,,,,,,,
,taste,0.9011821150779724,,,,,,,,
,indoors,0.8875664472579956,,,,,,,,
,tasty,0.8785998225212097,,,,,,,,
,dawn,0.8781495094299316,,,,,,,,
https://scontent.cdninstagram.com/t51.2885-15/e35/13259030_505540542974161_2050825115_n.jpg,woman,0.9973585605621338,"Fashion & Beauty",,,,"My look",,,
,fashion,0.9951691627502441,,,,,,,,
,glamour,0.981084406375885,,,,,,,,
,portrait,0.9710690975189209,,,,,,,,
,pretty,0.9589132070541382,,,,,,,,
,girl,0.958310604095459,,,,,,,,
,hair,0.9535484910011292,,,,,,,,
,sexy,0.9474644660949707,,,,,,,,
,cute,0.938438892364502,,,,,,,,
,model,0.9345135688781738,,,,,,,,
,eye,0.9239490032196045,,,,,,,,
,lips,0.9182270765304565,,,,,,,,
,young,0.8964753746986389,,,,,,,,
,elegant,0.8896191716194153,,,,,,,,
,long,0.8839128613471985,,,,,,,,
,music,0.855238676071167,,,,,,,,
,look,0.8546379804611206,,,,,,,,
,studio,0.853264331817627,,,,,,,,
,skin,0.8448499441146851,,,,,,,,
,brunette,0.8411281108856201,,,,,,,,
https://scontent.cdninstagram.com/t51.2885-15/e35/12383124_466913363500164_1491085025_n.jpg,woman,0.9969512820243835,"Fashion & Beauty","My life",,,"My look",Selfie,,
,girl,0.9826256632804871,,,,,,,,
,people,0.9817401170730591,,,,,,,,
,indoors,0.9806296825408936,,,,,,,,
,family,0.9683427810668945,,,,,,,,
,adult,0.9615090489387512,,,,,,,,
,portrait,0.9545199871063232,,,,,,,,
,relaxation,0.9353655576705933,,,,,,,,
,one,0.9350610971450806,,,,,,,,
,young,0.9349395036697388,,,,,,,,
,beautiful,0.9330126643180847,,,,,,,,
,room,0.9172945022583008,,,,,,,,
,pretty,0.9171289205551147,,,,,,,,
,leisure,0.9080102443695068,,,,,,,,
,sit,0.9022548198699951,,,,,,,,
,fashion,0.8958230018615723,,,,,,,,
,brunette,0.8885501027107239,,,,,,,,
,bed,0.8764920830726624,,,,,,,,
,house,0.8671725988388062,,,,,,,,
,model,0.8629324436187744,,,,,,,,
https://scontent.cdninstagram.com/t51.2885-15/e35/917292_1590160781309470_1958163913_n.jpg,fashion,0.996741533279419,"Fashion & Beauty","My life",,,"My look",Selfie,,
,woman,0.9965049028396606,,,,,,,,
,glamour,0.9841964244842529,,,,,,,,
,sexy,0.9769121408462524,,,,,,,,
,eye,0.9721272587776184,,,,,,,,
,pretty,0.9710127115249634,,,,,,,,
,lips,0.9666488170623779,,,,,,,,
,portrait,0.9623744487762451,,,,,,,,
,cute,0.9603374004364014,,,,,,,,
,girl,0.93557208776474,,,,,,,,
,elegant,0.9347114562988281,,,,,,,,
,model,0.9304239153862,,,,,,,,
,long,0.9214872121810913,,,,,,,,
,look,0.9131816029548645,,,,,,,,
,hair,0.8977432250976562,,,,,,,,
,skin,0.8825579881668091,,,,,,,,
,seduction,0.8564447164535522,,,,,,,,
,adolescent,0.8469677567481995,,,,,,,,
,daydreaming,0.8332152962684631,,,,,,,,
,young,0.8240880966186523,,,,,,,,
https://scontent.cdninstagram.com/t51.2885-15/e35/12328022_781758048591273_1970563650_n.jpg,nightlife,0.9916836023330688,Food,Relationships,Entertainment,,"Drinks and snack","Best friends",Events,
,fun,0.9783453345298767,,,,,,,,
,party,0.9665732979774475,,,,,,,,
,woman,0.9659470915794373,,,,,,,,
,Christmas,0.9652633666992188,,,,,,,,
,celebration,0.9537384510040283,,,,,,,,
,club,0.9342211484909058,,,,,,,,
,indoors,0.9190164804458618,,,,,,,,
,champagne,0.9188145399093628,,,,,,,,
,enjoyment,0.9180693626403809,,,,,,,,
,young,0.9169045090675354,,,,,,,,
,club,0.9160628318786621,,,,,,,,
,shopping,0.9104564189910889,,,,,,,,
,people,0.9021193981170654,,,,,,,,
,joy,0.8996275663375854,,,,,,,,
,pretty,0.8908424973487854,,,,,,,,
,leisure,0.8904715776443481,,,,,,,,
,glass,0.8900781869888306,,,,,,,,
,cute,0.8845672607421875,,,,,,,,
,friendship,0.8823036551475525,,,,,,,,
https://scontent.cdninstagram.com/t51.2885-15/e35/12912689_235556823472253_1857677027_n.jpg,woman,0.9944592714309692,"Fashion & Beauty","My life",,,"My look",Selfie,,
,indoors,0.984632134437561,,,,,,,,
,girl,0.9824126958847046,,,,,,,,
,people,0.9810307025909424,,,,,,,,
,family,0.979749858379364,,,,,,,,
,portrait,0.9619816541671753,,,,,,,,
,sit,0.9503670930862427,,,,,,,,
,room,0.9492521286010742,,,,,,,,
,one,0.927452564239502,,,,,,,,
,pretty,0.9212642908096313,,,,,,,,
,fashion,0.9174298048019409,,,,,,,,
,cute,0.9112552404403687,,,,,,,,
,adult,0.9026046991348267,,,,,,,,
,coffee,0.8960540294647217,,,,,,,,
,leisure,0.8837698698043823,,,,,,,,
,fun,0.8781177997589111,,,,,,,,
,young,0.8705740571022034,,,,,,,,
,relaxation,0.8697324395179749,,,,,,,,
,model,0.8611623048782349,,,,,,,,
,enjoyment,0.8531539440155029,,,,,,,,
https://scontent.cdninstagram.com/t51.2885-15/e35/12826287_247727415565987_1463778494_n.jpg,woman,0.992175817489624,Commerce,,,,Shopping,,,
,paper,0.9908264875411987,,,,,,,,
,shopping,0.9905878305435181,,,,,,,,
,wealth,0.9864540100097656,,,,,,,,
,money,0.9815924167633057,,,,,,,,
,money,0.9775009155273438,,,,,,,,
,business,0.964968204498291,,,,,,,,
,savings,0.960304856300354,,,,,,,,
,success,0.956938624382019,,,,,,,,
,isolated,0.955655574798584,,,,,,,,
,indoors,0.948319673538208,,,,,,,,
,pretty,0.9428488612174988,,,,,,,,
,young,0.9385411739349365,,,,,,,,
,finance,0.9383745193481445,,,,,,,,
,contemporary,0.9257311820983887,,,,,,,,
,cash,0.9216164350509644,,,,,,,,
,eyeglasses,0.916196346282959,,,,,,,,
,looking,0.9121887683868408,,,,,,,,
,sit,0.9031202793121338,,,,,,,,
,people,0.8864396810531616,,,,,,,,
https://scontent.cdninstagram.com/t51.2885-15/e35/1172418_1749129415318449_526026813_n.jpg,woman,0.9809414148330688,"Fashion & Beauty",,,,Ootd,,,
,indoors,0.9680503606796265,,,,,,,,
,people,0.9642898440361023,,,,,,,,
,family,0.9455093741416931,,,,,,,,
,fashion,0.944030225276947,,,,,,,,
,adult,0.9379850625991821,,,,,,,,
,room,0.9271154999732971,,,,,,,,
,girl,0.9131219387054443,,,,,,,,
,wear,0.8944048881530762,,,,,,,,
,housework,0.8874582052230835,,,,,,,,
,retro,0.8794821500778198,,,,,,,,
,house,0.8632974624633789,,,,,,,,
,portrait,0.8622457981109619,,,,,,,,
,young,0.8536831140518188,,,,,,,,
,luggage,0.8442902565002441,,,,,,,,
,beautiful,0.843498706817627,,,,,,,,
,man,0.8370941877365112,,,,,,,,
,one,0.8349345922470093,,,,,,,,
,bag,0.8233611583709717,,,,,,,,
,lid,0.8232167959213257,,,,,,,,
https://scontent.cdninstagram.com/t51.2885-15/e15/12930912_251371995214980_20352133_n.jpg,festival,0.9816675186157227,Entertainment,,,,Concerts,,,
,light,0.9794377684593201,,,,,,,,
,concert,0.963127851486206,,,,,,,,
,dark,0.9613213539123535,,,,,,,,
,flame,0.9572721719741821,,,,,,,,
,music,0.9528884887695312,,,,,,,,
,stage,0.9524424076080322,,,,,,,,
,spotlight,0.9502304792404175,,,,,,,,
,fog,0.9476499557495117,,,,,,,,
,astronomy,0.9324986338615417,,,,,,,,
,performance,0.9324816465377808,,,,,,,,
,illuminated,0.9310309886932373,,,,,,,,
,landscape,0.9172390699386597,,,,,,,,
,smoke,0.9021518230438232,,,,,,,,
,energy,0.8842971324920654,,,,,,,,
,explosion,0.8711103796958923,,,,,,,,
,"no person",0.8647560477256775,,,,,,,,
,mystery,0.8581817150115967,,,,,,,,
,singer,0.8565041422843933,,,,,,,,
,space,0.8386254906654358,,,,,,,,
https://scontent.cdninstagram.com/t51.2885-15/e35/13437284_1836508616592540_1421591318_n.jpg,"no person",0.991719126701355,Food,,,,"Drinks and snack",,,
,cup,0.9828459620475769,,,,,,,,
,food,0.9710812568664551,,,,,,,,
,drink,0.9700760841369629,,,,,,,,
,traditional,0.9654778242111206,,,,,,,,
,coffee,0.9638761281967163,,,,,,,,
,tea,0.9588983058929443,,,,,,,,
,table,0.9576399326324463,,,,,,,,
,hot,0.9514696598052979,,,,,,,,
,color,0.9436219930648804,,,,,,,,
,breakfast,0.9421652555465698,,,,,,,,
,desktop,0.9155192375183105,,,,,,,,
,wood,0.9111584424972534,,,,,,,,
,culture,0.9077810049057007,,,,,,,,
,flower,0.8957470059394836,,,,,,,,
,sugar,0.8747583627700806,,,,,,,,
,restaurant,0.8675504922866821,,,,,,,,
,bright,0.8595988750457764,,,,,,,,
,health,0.8542734384536743,,,,,,,,
,relaxation,0.8470379114151001,,,,,,,,
https://scontent.cdninstagram.com/t51.2885-15/e35/1169132_1553498524944539_1114182840_n.jpg,dog,0.9901542663574219,"My life",,,,"With me",,,
,cute,0.9895732402801514,,,,,,,,
,pet,0.9692630171775818,,,,,,,,
,animal,0.9655165076255798,,,,,,,,
,portrait,0.9596951007843018,,,,,,,,
,little,0.9546497464179993,,,,,,,,
,puppy,0.945984959602356,,,,,,,,
,young,0.9305866360664368,,,,,,,,
,bed,0.9134213328361511,,,,,,,,
,fur,0.9112889170646667,,,,,,,,
,mammal,0.9035390019416809,,,,,,,,
,terrier,0.900464653968811,,,,,,,,
,woman,0.8953148126602173,,,,,,,,
,domestic,0.8938581943511963,,,,,,,,
,adorable,0.8889784216880798,,,,,,,,
,sleep,0.8848873376846313,,,,,,,,
,girl,0.8784047365188599,,,,,,,,
,family,0.8729535341262817,,,,,,,,
,sit,0.8639214038848877,,,,,,,,
,dream,0.8614888191223145,,,,,,,,
https://scontent.cdninstagram.com/t51.2885-15/e15/13102347_952219701542349_1317782255_n.jpg,woman,0.9922965168952942,"Fun Filter","My life",,,"Fun Filter",Selfie,,
,portrait,0.9647795557975769,,,,,,,,
,girl,0.9637042284011841,,,,,,,,
,people,0.9528518319129944,,,,,,,,
,nature,0.9389247894287109,,,,,,,,
,outdoors,0.9382868409156799,,,,,,,,
,relaxation,0.9260735511779785,,,,,,,,
,one,0.9187724590301514,,,,,,,,
,leisure,0.9120367765426636,,,,,,,,
,flower,0.9040355682373047,,,,,,,,
,adult,0.9038574695587158,,,,,,,,
,fashion,0.9026360511779785,,,,,,,,
,pretty,0.9012941122055054,,,,,,,,
,beautiful,0.895668089389801,,,,,,,,
,summer,0.8898612260818481,,,,,,,,
,blur,0.8815856575965881,,,,,,,,
,young,0.8805984258651733,,,,,,,,
,enjoyment,0.8790687322616577,,,,,,,,
,happiness,0.8703110814094543,,,,,,,,
,cute,0.8618185520172119,,,,,,,,
https://scontent.cdninstagram.com/t51.2885-15/e35/13267321_1548588982113058_1495177703_n.jpg,woman,0.9820578694343567,"My life","Fashion & Beauty",,,Selfie,"My look",,
,child,0.9744998216629028,,,,,,,,
,pretty,0.96817547082901,,,,,,,,
,cute,0.9661537408828735,,,,,,,,
,fun,0.9489178657531738,,,,,,,,
,adolescent,0.9411790370941162,,,,,,,,
,indoors,0.9411699771881104,,,,,,,,
,fashion,0.9363688826560974,,,,,,,,
,isolated,0.9133728742599487,,,,,,,,
,vertical,0.9094547033309937,,,,,,,,
,one,0.9068061113357544,,,,,,,,
,looking,0.903889000415802,,,,,,,,
,little,0.8908972144126892,,,,,,,,
,military,0.8896377086639404,,,,,,,,
,people,0.8888469934463501,,,,,,,,
,young,0.8805465698242188,,,,,,,,
,contemporary,0.8767367601394653,,,,,,,,
,funny,0.8741440176963806,,,,,,,,
,precious,0.8739556074142456,,,,,,,,
,eye,0.8669764399528503,,,,,,,,
https://scontent.cdninstagram.com/t51.2885-15/e35/13394963_1066439066773766_1521310663_n.jpg,illuminated,0.9730353355407715,Literature,Arts,,,Literature-s,Arts-s,,
,business,0.9608794450759888,,,,,,,,
,technology,0.9426244497299194,,,,,,,,
,"no person",0.9174830913543701,,,,,,,,
,text,0.9038379192352295,,,,,,,,
,sign,0.8533675670623779,,,,,,,,
,emergency,0.8476430177688599,,,,,,,,
,desktop,0.8453500270843506,,,,,,,,
,screen,0.8448061943054199,,,,,,,,
,science,0.8376915454864502,,,,,,,,
,design,0.8330386877059937,,,,,,,,
,horizontal,0.8310836553573608,,,,,,,,
,communication,0.830790638923645,,,,,,,,
,display,0.8306126594543457,,,,,,,,
,creativity,0.8287675380706787,,,,,,,,
,abstract,0.8147259950637817,,,,,,,,
,money,0.8139970898628235,,,,,,,,
,illustration,0.79644376039505,,,,,,,,
,success,0.795616865158081,,,,,,,,
,conceptual,0.7910667657852173,,,,,,,,
https://scontent.cdninstagram.com/t51.2885-15/e35/13355486_1377970505550052_1680814249_n.jpg,woman,0.9966919422149658,"Fashion & Beauty","My life",,,"My look",Selfie,,
,fashion,0.9917546510696411,,,,,,,,
,girl,0.9896067976951599,,,,,,,,
,portrait,0.9818652272224426,,,,,,,,
,model,0.9788568019866943,,,,,,,,
,pretty,0.9616743326187134,,,,,,,,
,people,0.9405409097671509,,,,,,,,
,beautiful,0.9390124082565308,,,,,,,,
,eye,0.9364732503890991,,,,,,,,
,glamour,0.9266567230224609,,,,,,,,
,sexy,0.924514651298523,,,,,,,,
,indoors,0.9219126105308533,,,,,,,,
,cute,0.9081631898880005,,,,,,,,
,one,0.9046497344970703,,,,,,,,
,young,0.9044941067695618,,,,,,,,
,elegant,0.8978238105773926,,,,,,,,
,face,0.8836140632629395,,,,,,,,
,lady,0.8826544284820557,,,,,,,,
,long,0.8779653310775757,,,,,,,,
,hair,0.8777105212211609,,,,,,,,
https://scontent.cdninstagram.com/t51.2885-15/e35/12940046_1796117047276535_774845173_n.jpg,woman,0.9932582974433899,"Fashion & Beauty","My life",,,"My look",Selfie,,
,fashion,0.9879745244979858,,,,,,,,
,portrait,0.9877145290374756,,,,,,,,
,girl,0.985163688659668,,,,,,,,
,model,0.9660990238189697,,,,,,,,
,people,0.9579705595970154,,,,,,,,
,glamour,0.9178730845451355,,,,,,,,
,dress,0.9045763611793518,,,,,,,,
,adult,0.891587495803833,,,,,,,,
,sexy,0.8895907402038574,,,,,,,,
,one,0.8822193741798401,,,,,,,,
,beautiful,0.8557453155517578,,,,,,,,
,jewelry,0.851391077041626,,,,,,,,
,music,0.8503358960151672,,,,,,,,
,actress,0.8395970463752747,,,,,,,,
,pretty,0.8258500695228577,,,,,,,,
,hair,0.8082993030548096,,,,,,,,
,wear,0.7997353076934814,,,,,,,,
,festival,0.7926602363586426,,,,,,,,
,eye,0.7744969129562378,,,,,,,,
https://scontent.cdninstagram.com/t51.2885-15/e35/13092354_1318103541536573_925075207_n.jpg,wine,0.9960730075836182,Food,"My life","Fashion & Beauty",,"Drinks and snack",Selfie,"My look",
,woman,0.991025447845459,,,,,,,,
,drink,0.9904627203941345,,,,,,,,
,people,0.976402223110199,,,,,,,,
,adult,0.9687952995300293,,,,,,,,
,restaurant,0.9686203002929688,,,,,,,,
,portrait,0.9676978588104248,,,,,,,,
,alcohol,0.9610973596572876,,,,,,,,
,bar,0.9572415947914124,,,,,,,,
,girl,0.9464138150215149,,,,,,,,
,indoors,0.9415749311447144,,,,,,,,
,enjoyment,0.8946399092674255,,,,,,,,
,party,0.8883771896362305,,,,,,,,
,champagne,0.8853665590286255,,,,,,,,
,room,0.882318377494812,,,,,,,,
,glass,0.8809698820114136,,,,,,,,
,celebration,0.8760868310928345,,,,,,,,
,one,0.8760629892349243,,,,,,,,
,sit,0.8706908226013184,,,,,,,,
,fashion,0.8561389446258545,,,,,,,,
https://scontent.cdninstagram.com/t51.2885-15/e35/12904988_580934652079877_453613529_n.jpg,woman,0.9883809685707092,Commerce,Food,"Fashion & Beauty","My life","Product/brand shots","Drinks and snack","My look",Selfie
,indoors,0.9790738821029663,,,,,,,,
,pretty,0.9497888088226318,,,,,,,,
,cute,0.9322851300239563,,,,,,,,
,family,0.927082896232605,,,,,,,,
,young,0.9073135852813721,,,,,,,,
,vertical,0.9071285724639893,,,,,,,,
,fun,0.9070432186126709,,,,,,,,
,fashion,0.8970233201980591,,,,,,,,
,sit,0.8937811851501465,,,,,,,,
,adolescent,0.8936939835548401,,,,,,,,
,casual,0.891231119632721,,,,,,,,
,looking,0.8826246857643127,,,,,,,,
,enjoyment,0.8801605701446533,,,,,,,,
,coffee,0.8737044334411621,,,,,,,,
,relaxation,0.8711425065994263,,,,,,,,
,leisure,0.8710641860961914,,,,,,,,
,people,0.8525135517120361,,,,,,,,
,joy,0.8339741230010986,,,,,,,,
,girl,0.8225897550582886,,,,,,,,
https://scontent.cdninstagram.com/t51.2885-15/e35/12917948_1143141812416639_1859818989_n.jpg,indoors,0.9964108467102051,Travel,,,,Travel-s,,,
,seat,0.9882227182388306,,,,,,,,
,chair,0.9727816581726074,,,,,,,,
,furniture,0.9708389043807983,,,,,,,,
,inside,0.9550787210464478,,,,,,,,
,room,0.9499725103378296,,,,,,,,
,vehicle,0.9436315298080444,,,,,,,,
,people,0.9413644075393677,,,,,,,,
,sleep,0.9402186870574951,,,,,,,,
,cabin,0.9330784678459167,,,,,,,,
,luxury,0.9204868078231812,,,,,,,,
,family,0.9163854122161865,,,,,,,,
,airplane,0.9105940461158752,,,,,,,,
,mirror,0.8904485702514648,,,,,,,,
,comfort,0.8846015930175781,,,,,,,,
,woman,0.8805294632911682,,,,,,,,
,"interior design",0.8793150186538696,,,,,,,,
,travel,0.8687136769294739,,,,,,,,
,"transportation system",0.863264262676239,,,,,,,,
,bed,0.8493732810020447,,,,,,,,
https://scontent.cdninstagram.com/t51.2885-15/e35/13423065_908134402642315_2023857015_n.jpg,shoe,0.9997166395187378,Commerce,,,,"Product/brand shots",,,
,footwear,0.9994931817054749,,,,,,,,
,foot,0.9993498921394348,,,,,,,,
,leather,0.9990407228469849,,,,,,,,
,fashion,0.9983989000320435,,,,,,,,
,couple,0.9978862404823303,,,,,,,,
,wear,0.9975922703742981,,,,,,,,
,lace,0.9968388080596924,,,,,,,,
,sneakers,0.996279239654541,,,,,,,,
,shoelace,0.994088888168335,,,,,,,,
,classic,0.9936017394065857,,,,,,,,
,rubberize,0.993356466293335,,,,,,,,
,sole,0.9878086447715759,,,,,,,,
,walk,0.9745429754257202,,,,,,,,
,style,0.9499217867851257,,,,,,,,
,equipment,0.945162296295166,,,,,,,,
,casual,0.9424876570701599,,,,,,,,
,modern,0.9387789368629456,,,,,,,,
,isolated,0.9332858324050903,,,,,,,,
,sport,0.9292062520980835,,,,,,,,
https://scontent.cdninstagram.com/t51.2885-15/e35/13534500_1725733117695535_657139624_n.jpg,model,0.9861048460006714,Celebrations,"Fashion & Beauty",,,Celebrations-s,Ootd,,
,balloon,0.9856390953063965,,,,,,,,
,fashion,0.9816553592681885,,,,,,,,
,people,0.9714668989181519,,,,,,,,
,beautiful,0.9705350399017334,,,,,,,,
,party,0.9660531282424927,,,,,,,,
,celebration,0.9633280038833618,,,,,,,,
,person,0.9624422788619995,,,,,,,,
,fun,0.949856162071228,,,,,,,,
,girl,0.9497880339622498,,,,,,,,
,woman,0.9487416744232178,,,,,,,,
,style,0.9379339218139648,,,,,,,,
,portrait,0.9225239753723145,,,,,,,,
,ball,0.9186874628067017,,,,,,,,
,young,0.9103145599365234,,,,,,,,
,pretty,0.9088718891143799,,,,,,,,
,adult,0.9062209129333496,,,,,,,,
,elegant,0.9030803442001343,,,,,,,,
,sexy,0.8931222558021545,,,,,,,,
,event,0.8831801414489746,,,,,,,,
https://scontent.cdninstagram.com/t51.2885-15/e35/13380888_1723650121256975_2072254523_n.jpg,party,0.9808151721954346,Food,Entertainment,,,"Drinks and snack",Events,,
,food,0.9615281820297241,,,,,,,,
,restaurant,0.951352059841156,,,,,,,,
,celebration,0.9472748041152954,,,,,,,,
,drink,0.9443327188491821,,,,,,,,
,desktop,0.9436555504798889,,,,,,,,
,glass,0.9328513145446777,,,,,,,,
,decoration,0.9213736057281494,,,,,,,,
,alcohol,0.9208688735961914,,,,,,,,
,Christmas,0.9113963842391968,,,,,,,,
,wine,0.9055042862892151,,,,,,,,
,luxury,0.8828083872795105,,,,,,,,
,bar,0.8585313558578491,,,,,,,,
,dark,0.8541074991226196,,,,,,,,
,gold,0.8519954681396484,,,,,,,,
,table,0.8471036553382874,,,,,,,,
,industry,0.8470525741577148,,,,,,,,
,box,0.8434032201766968,,,,,,,,
,color,0.8392422795295715,,,,,,,,
,light,0.8384286761283875,,,,,,,,
https://scontent.cdninstagram.com/l/t51.2885-15/e35/12912565_1675447729385843_207467692_n.jpg,people,0.9870896935462952,Entertainment,Relationships,,,Events,"Best friends",,
,festival,0.9649997353553772,,,,,,,,
,street,0.9547361135482788,,,,,,,,
,crowd,0.9499685764312744,,,,,,,,
,man,0.9444702863693237,,,,,,,,
,group,0.9409664869308472,,,,,,,,
,many,0.9404906630516052,,,,,,,,
,music,0.9334851503372192,,,,,,,,
,woman,0.9277410507202148,,,,,,,,
,fun,0.9254844188690186,,,,,,,,
,enjoyment,0.9201561212539673,,,,,,,,
,event,0.9169398546218872,,,,,,,,
,performance,0.9137619733810425,,,,,,,,
,city,0.9116913676261902,,,,,,,,
,adult,0.8917773962020874,,,,,,,,
,group,0.8790652751922607,,,,,,,,
,competition,0.8785380125045776,,,,,,,,
,shopping,0.8767361640930176,,,,,,,,
,party,0.874214231967926,,,,,,,,
,vehicle,0.866430938243866,,,,,,,,
https://scontent.cdninstagram.com/t51.2885-15/e35/13394902_1738129809733019_2133585380_n.jpg,food,0.993694543838501,Food,,,,Dessert,,,
,cookie,0.9688260555267334,,,,,,,,
,"no person",0.963800311088562,,,,,,,,
,delicious,0.9593220949172974,,,,,,,,
,bakery,0.9589290618896484,,,,,,,,
,baking,0.943722128868103,,,,,,,,
,sweet,0.9414046406745911,,,,,,,,
,pastry,0.9356697201728821,,,,,,,,
,sugar,0.9288389682769775,,,,,,,,
,homemade,0.9274890422821045,,,,,,,,
,traditional,0.9263602495193481,,,,,,,,
,refreshment,0.9232326745986938,,,,,,,,
,cooking,0.9110137224197388,,,,,,,,
,market,0.9091023802757263,,,,,,,,
,nutrition,0.9073288440704346,,,,,,,,
,table,0.9012061357498169,,,,,,,,
,bread,0.8931155204772949,,,,,,,,
,cake,0.8824654817581177,,,,,,,,
,tasty,0.8809393644332886,,,,,,,,
,meal,0.8758542537689209,,,,,,,,
