url,class,score
https://scontent.cdninstagram.com/t51.2885-15/e35/13397497_1757304674527510_909474503_n.jpg,group,0.9944232106208801
,portrait,0.9859248399734497
,group,0.9763234853744507
,people,0.9760470390319824
,woman,0.9734740257263184
,adult,0.9604840278625488
,man,0.9510228633880615
,many,0.9457279443740845
,facial expression,0.9329532384872437
,business,0.9143233299255371
,music,0.9023791551589966
,friendship,0.8996033668518066
,performance,0.8935465812683105
,child,0.8896265625953674
,teamwork,0.8876782655715942
,leader,0.886650800704956
,school,0.8795223236083984
,education,0.8767089247703552
,squad,0.8686628937721252
,singer,0.8563640117645264
https://scontent.cdninstagram.com/t51.2885-15/e35/13532061_1717272445201679_299625523_n.jpg,group,0.9982166886329651
,portrait,0.9920129776000977
,child,0.9888112545013428
,four,0.9796948432922363
,education,0.9778711795806885
,group,0.9765955805778503
,laughing,0.9761488437652588
,friendship,0.9758875966072083
,school,0.9756765365600586
,happiness,0.9708075523376465
,togetherness,0.9695043563842773
,people,0.9691938161849976
,man,0.9688208699226379
,student,0.9678242206573486
,facial expression,0.9666438698768616
,three,0.9665869474411011
,woman,0.9607520699501038
,boy,0.9558002948760986
,adult,0.9417985677719116
,family,0.936935544013977
https://scontent.cdninstagram.com/t51.2885-15/e35/13320048_1710926419156343_607831503_n.jpg,woman,0.9936623573303223
,portrait,0.9863311648368835
,people,0.9844887256622314
,facial expression,0.9732736349105835
,wear,0.9730875492095947
,friendship,0.969234824180603
,group,0.9495632648468018
,girl,0.9425357580184937
,fashion,0.9417711496353149
,togetherness,0.93955397605896
,adult,0.9350335597991943
,adolescent,0.9293395280838013
,happiness,0.9073408842086792
,school,0.900039792060852
,man,0.8973923325538635
,festival,0.8752846121788025
,indoors,0.8617110252380371
,enjoyment,0.8563227653503418
,two,0.8531148433685303
,child,0.8519790172576904
https://scontent.cdninstagram.com/t51.2885-15/e35/13259057_883982685046246_1810811290_n.jpg,architecture,0.9851243495941162
,street,0.9839208722114563
,city,0.9731298685073853
,business,0.9544142484664917
,building,0.9522870779037476
,light,0.9481083154678345
,urban,0.9397051930427551
,travel,0.9396827220916748
,window,0.9340139627456665
,perspective,0.9329849481582642
,sky,0.9310593605041504
,door,0.9211861491203308
,modern,0.9090523719787598
,no person,0.9057382345199585
,empty,0.8999426364898682
,reflection,0.8900543451309204
,guidance,0.8896836042404175
,downtown,0.8861736059188843
,road,0.8813682198524475
,house,0.8800020217895508
https://scontent.cdninstagram.com/t51.2885-15/s750x750/sh0.08/e35/13181549_1720866724822089_416094459_n.jpg,woman,0.9869164228439331
,fashion,0.9716596603393555
,girl,0.9671946167945862
,people,0.9647953510284424
,young,0.9390372037887573
,portrait,0.9359437823295593
,indoors,0.9050405025482178
,adult,0.9034010767936707
,pretty,0.9021809101104736
,glamour,0.8904019594192505
,sexy,0.8874515295028687
,model,0.8872195482254028
,beautiful,0.8860445022583008
,hair,0.8859653472900391
,dress,0.850744366645813
,one,0.8502236604690552
,person,0.8445150852203369
,eye,0.8321164846420288
,face,0.810697078704834
,adolescent,0.8100157976150513
https://scontent.cdninstagram.com/t51.2885-15/e35/13256946_244685869244562_1175076892_n.jpg,group,0.9992079734802246
,facial expression,0.998289942741394
,teamwork,0.9952571392059326
,group,0.9950113296508789
,four,0.995009183883667
,woman,0.9948431253433228
,togetherness,0.9938138127326965
,man,0.9888908863067627
,three,0.9886844158172607
,cooperation,0.9882088303565979
,happiness,0.9830623865127563
,accomplishment,0.975692629814148
,four,0.9737508296966553
,student,0.9726176261901855
,confidence,0.9712820053100586
,people,0.9679083824157715
,laughing,0.9678616523742676
,portrait,0.967558741569519
,adult,0.9663988947868347
,indoors,0.9607746601104736
https://scontent.cdninstagram.com/t51.2885-15/e35/12093551_1102338869837189_1611945534_n.jpg,group,0.999819278717041
,teamwork,0.9993588328361511
,group,0.9981676936149597
,cooperation,0.9975051283836365
,office,0.9954366087913513
,woman,0.9952663779258728
,adult,0.9935071468353271
,four,0.9913062453269958
,employee,0.9907429218292236
,meeting,0.9883255958557129
,facial expression,0.9866877794265747
,four,0.9866350889205933
,man,0.9861475229263306
,partnership,0.984722912311554
,education,0.9832629561424255
,confidence,0.9827953577041626
,indoors,0.9825707674026489
,three,0.9817445278167725
,togetherness,0.980854868888855
,squad,0.976337730884552
https://scontent.cdninstagram.com/t51.2885-15/e35/13109098_1003848736364428_520703474_n.jpg,people,0.9742133021354675
,woman,0.9732249975204468
,many,0.9547151327133179
,group,0.9479848146438599
,man,0.9119275808334351
,wear,0.9083995819091797
,child,0.9053237438201904
,competition,0.9006593823432922
,group,0.896264910697937
,street,0.8908569812774658
,fashion,0.8779842853546143
,adult,0.8719666004180908
,city,0.8490612506866455
,military,0.8475168943405151
,recreation,0.8328638076782227
,school,0.8185101747512817
,education,0.8156068325042725
,band,0.8138253092765808
,action,0.8126413822174072
,police,0.7925015091896057
https://scontent.cdninstagram.com/t51.2885-15/e35/13118150_1546413745655008_672044967_n.jpg,people,0.9899070858955383
,television,0.9893951416015625
,screen,0.9797971248626709
,portrait,0.9762300848960876
,museum,0.9741640090942383
,room,0.9736933708190918
,adult,0.9684088230133057
,music,0.963781476020813
,exhibition,0.9565775394439697
,technology,0.9562344551086426
,one,0.9554182887077332
,girl,0.9468653202056885
,movie,0.9416115283966064
,child,0.9396493434906006
,display,0.9326261878013611
,landscape,0.929710865020752
,computer,0.9292420744895935
,festival,0.9282546043395996
,indoors,0.9277563095092773
,laptop,0.9277029633522034
https://scontent.cdninstagram.com/t51.2885-15/e35/13118303_988984807855486_62165786_n.jpg,people,0.9664618372917175
,woman,0.9520325660705566
,group,0.9477988481521606
,squad,0.9437461495399475
,group,0.9210543632507324
,many,0.907500147819519
,education,0.8975936770439148
,man,0.895793080329895
,teamwork,0.8933124542236328
,school,0.8926101922988892
,crowd,0.8891066312789917
,adult,0.8854184150695801
,competition,0.8498573899269104
,friendship,0.8177945613861084
,business,0.8072308301925659
,festival,0.7968502044677734
,university,0.7888791561126709
,child,0.7871048450469971
,motion,0.7786537408828735
,multicultural,0.7703092694282532
https://scontent.cdninstagram.com/t51.2885-15/e35/13108863_1596295577350310_2103279998_n.jpg,woman,0.9761567115783691
,group,0.9694573879241943
,people,0.9625683426856995
,adult,0.9295480251312256
,education,0.9234486818313599
,commerce,0.9220604300498962
,vehicle,0.8970490097999573
,man,0.8924633264541626
,school,0.8792768120765686
,restaurant,0.8769431114196777
,city,0.8698121309280396
,enjoyment,0.869661808013916
,indoors,0.8694037199020386
,exhibition,0.8590352535247803
,portrait,0.8387035727500916
,festival,0.8314276933670044
,shopping,0.8168315887451172
,wear,0.8147788047790527
,stock,0.8031464219093323
,child,0.8029161691665649
https://scontent.cdninstagram.com/t51.2885-15/e35/13102449_1344553928894843_281754048_n.jpg,woman,0.9815875291824341
,child,0.9767751693725586
,cute,0.9696706533432007
,fun,0.9554033279418945
,people,0.9527214169502258
,fashion,0.9430810213088989
,adolescent,0.9328359365463257
,pretty,0.9141495227813721
,indoors,0.9106217622756958
,portrait,0.9033247232437134
,young,0.8757622241973877
,joy,0.8666954636573792
,little,0.8423298597335815
,looking,0.822339653968811
,love,0.81580650806427
,friendship,0.8135393261909485
,girl,0.8099136352539062
,enjoyment,0.8074586987495422
,casual,0.8023737072944641
,family,0.7879908084869385
https://scontent.cdninstagram.com/t51.2885-15/e35/13129578_1272823779398603_1247858537_n.jpg,child,0.9930909276008606
,people,0.9830907583236694
,group,0.9815267324447632
,facial expression,0.9810707569122314
,togetherness,0.9749525785446167
,portrait,0.9725407361984253
,happiness,0.9703027606010437
,woman,0.9621998071670532
,adult,0.9594638347625732
,girl,0.9581138491630554
,room,0.9555506706237793
,school,0.9452078342437744
,education,0.9441885948181152
,fun,0.94257652759552
,laughing,0.9418052434921265
,boy,0.9393191337585449
,indoors,0.9392291307449341
,offspring,0.9348831176757812
,friendship,0.9228935241699219
,lifestyle,0.919380247592926
https://scontent.cdninstagram.com/t51.2885-15/e35/13392719_270026653387890_863472648_n.jpg,group,0.9928535223007202
,friendship,0.9823323488235474
,woman,0.974722683429718
,people,0.9711179733276367
,child,0.9708833694458008
,portrait,0.963761568069458
,group,0.9619348049163818
,togetherness,0.9534207582473755
,student,0.948308527469635
,fun,0.9480004906654358
,four,0.9462540149688721
,laughing,0.9461515545845032
,three,0.9456836581230164
,girl,0.9298904538154602
,adolescent,0.9150537252426147
,man,0.9148784875869751
,education,0.9022186994552612
,family,0.8847885727882385
,school,0.8815536499023438
,vehicle,0.8776710033416748
https://scontent.cdninstagram.com/t51.2885-15/e35/13130064_1011030962311763_1706239156_n.jpg,child,0.9944832921028137
,woman,0.9926729202270508
,fun,0.989667534828186
,family,0.9867151975631714
,friendship,0.9793829917907715
,girl,0.9776158928871155
,people,0.9768210649490356
,blond,0.9683359861373901
,togetherness,0.964223325252533
,laughing,0.9611713886260986
,group,0.9566688537597656
,adolescent,0.9541763067245483
,little,0.9473553895950317
,joy,0.9461408853530884
,young,0.941726565361023
,beautiful,0.9297605752944946
,cute,0.9289203882217407
,pretty,0.9212970733642578
,boy,0.8933346271514893
,smile,0.8813077807426453
https://scontent.cdninstagram.com/t51.2885-15/e35/13269361_493145467541911_670039086_n.jpg,group,0.9995642900466919
,child,0.998306155204773
,boy,0.9949014186859131
,group,0.9947237968444824
,people,0.9925105571746826
,happiness,0.9885382652282715
,facial expression,0.9857177734375
,four,0.9850035309791565
,friendship,0.984541654586792
,portrait,0.9843355417251587
,class,0.9816488027572632
,school,0.9810906648635864
,three,0.9785416722297668
,girl,0.9762372374534607
,woman,0.9729844331741333
,room,0.9670171737670898
,education,0.9599806666374207
,togetherness,0.9591482877731323
,fun,0.9587125182151794
,youth,0.9570325613021851
https://scontent.cdninstagram.com/t51.2885-15/e35/12950396_802022176569342_1408337019_n.jpg,group,0.993422269821167
,friendship,0.9929471015930176
,woman,0.9857631325721741
,child,0.9830495119094849
,indoors,0.9828418493270874
,room,0.9737973809242249
,four,0.9734795093536377
,cat,0.9706705808639526
,togetherness,0.9694340229034424
,people,0.9616653919219971
,family,0.9601850509643555
,fun,0.9588198661804199
,three,0.9429448843002319
,portrait,0.939786970615387
,girl,0.9371789693832397
,happiness,0.9359133243560791
,enjoyment,0.9278950095176697
,adult,0.9206012487411499
,group,0.915917158126831
,laughing,0.9127400517463684
https://scontent.cdninstagram.com/t51.2885-15/e35/13092345_511932858994230_510172783_n.jpg,friendship,0.9911051392555237
,woman,0.9886435270309448
,group,0.9884862899780273
,people,0.983057975769043
,laughing,0.9757928252220154
,portrait,0.9722046852111816
,togetherness,0.9635553956031799
,smile,0.9629555940628052
,girl,0.9616525173187256
,beautiful,0.9532962441444397
,group,0.9509899616241455
,fun,0.9509621858596802
,lifestyle,0.9433503150939941
,man,0.9411969780921936
,happiness,0.9396710395812988
,young,0.9347708225250244
,three,0.9156566858291626
,student,0.9144237041473389
,adult,0.9130154848098755
,cheerful,0.9058617949485779
https://scontent.cdninstagram.com/t51.2885-15/e35/13116627_1056721581074435_1038614275_n.jpg,education,0.9706503748893738
,woman,0.9702077507972717
,group,0.97019362449646
,school,0.9593303203582764
,facial expression,0.9557899236679077
,people,0.9526258707046509
,portrait,0.9295284152030945
,adult,0.926852822303772
,university,0.9249202013015747
,business,0.9217953681945801
,child,0.9158892631530762
,man,0.8976153135299683
,indoors,0.8945685625076294
,election,0.8916611075401306
,festival,0.8831750154495239
,recreation,0.8795867562294006
,teacher,0.8716166019439697
,accomplishment,0.8681657314300537
,student,0.8596247434616089
,finance,0.8565384149551392
https://scontent.cdninstagram.com/t51.2885-15/e35/13129906_1384246898267673_1517403578_n.jpg,group,0.9947340488433838
,portrait,0.9928764700889587
,woman,0.9925385117530823
,girl,0.9916449785232544
,people,0.9811494946479797
,three,0.9808393716812134
,four,0.9802917242050171
,fun,0.9705749154090881
,friendship,0.9613409042358398
,group,0.9563125371932983
,child,0.953871488571167
,student,0.94627845287323
,smile,0.9391206502914429
,beautiful,0.9251325130462646
,togetherness,0.9122958183288574
,laughing,0.90580815076828
,facial expression,0.9035469889640808
,family,0.8949078321456909
,adolescent,0.8913906812667847
,model,0.8870370388031006
https://scontent.cdninstagram.com/t51.2885-15/e35/12599306_203641896674892_289482645_n.jpg,child,0.9971873164176941
,group,0.9970712661743164
,many,0.9944711327552795
,people,0.9926450848579407
,crowd,0.9675804972648621
,friendship,0.965518593788147
,woman,0.9544789791107178
,group,0.951117992401123
,school,0.944969654083252
,boy,0.9339660406112671
,fun,0.9336633682250977
,family,0.9179459810256958
,education,0.9099398851394653
,celebration,0.9083976745605469
,togetherness,0.908034086227417
,man,0.9057326316833496
,unity,0.9042290449142456
,boy,0.9009699821472168
,portrait,0.8995582461357117
,girl,0.8856294751167297
https://scontent.cdninstagram.com/t51.2885-15/e35/12543374_557342647769154_83483255_n.jpg,woman,0.9831154346466064
,love,0.9830907583236694
,cute,0.9745275378227234
,indoors,0.9735727310180664
,friendship,0.9732514023780823
,dog,0.9720128774642944
,fur,0.9468235373497009
,little,0.9359031915664673
,portrait,0.9328411817550659
,togetherness,0.93282151222229
,family,0.924770712852478
,fun,0.9164618253707886
,affection,0.9096636772155762
,mammal,0.9082076549530029
,people,0.9002318382263184
,fashion,0.897812008857727
,child,0.8977433443069458
,canine,0.8911337852478027
,girl,0.8911099433898926
,wear,0.8856331706047058
https://scontent.cdninstagram.com/t51.2885-15/e35/12950310_1665779047002296_1770067991_n.jpg,group,0.9991483688354492
,child,0.991321325302124
,facial expression,0.9900217056274414
,group,0.9892740249633789
,friendship,0.9834694862365723
,portrait,0.9802032709121704
,school,0.9789328575134277
,education,0.9773602485656738
,togetherness,0.9746644496917725
,people,0.9729756712913513
,woman,0.9723014235496521
,boy,0.9619648456573486
,happiness,0.9567633867263794
,adult,0.9494859576225281
,four,0.94684898853302
,five,0.9453021287918091
,many,0.941433310508728
,laughing,0.9277842044830322
,man,0.9233142137527466
,offspring,0.922953724861145
https://scontent.cdninstagram.com/t51.2885-15/s750x750/sh0.08/e35/13413213_1573715692922653_38673942_n.jpg,people,0.9938479661941528
,adult,0.9853746294975281
,group,0.9842562675476074
,woman,0.982115626335144
,group,0.9776422381401062
,man,0.976393461227417
,competition,0.9451817274093628
,portrait,0.9428272843360901
,girl,0.9336484670639038
,many,0.9248595237731934
,indoors,0.9229161739349365
,school,0.9226388931274414
,wear,0.919387936592102
,seat,0.9049109220504761
,recreation,0.8992137908935547
,lifestyle,0.8961970806121826
,education,0.894560694694519
,happiness,0.8879671096801758
,togetherness,0.8860166072845459
,facial expression,0.8812475204467773
https://scontent.cdninstagram.com/t51.2885-15/sh0.08/e35/p750x750/13266819_184494721945950_2129805224_n.jpg,fashion,0.9852440357208252
,model,0.9833115339279175
,people,0.9833093881607056
,portrait,0.9823704957962036
,woman,0.9811733961105347
,girl,0.9623166918754578
,wear,0.959071695804596
,adult,0.9588234424591064
,one,0.9467270374298096
,winter,0.9453601837158203
,museum,0.9394553899765015
,city,0.9379153251647949
,punk,0.9255688190460205
,festival,0.9228838682174683
,building,0.9164832830429077
,fashionable,0.9075512290000916
,music,0.9057694673538208
,light,0.892928421497345
,knitwear,0.8812350034713745
,indoors,0.8747506141662598
https://scontent.cdninstagram.com/t51.2885-15/e35/12558776_963829507041411_1136944478_n.jpg,group,0.9997849464416504
,portrait,0.9912511110305786
,facial expression,0.9880903959274292
,education,0.9838566780090332
,adult,0.9818601608276367
,school,0.981284499168396
,man,0.976196825504303
,many,0.9738831520080566
,people,0.9696946144104004
,happiness,0.9610379934310913
,woman,0.9587877988815308
,child,0.9510961771011353
,group,0.9495998620986938
,room,0.9364826679229736
,togetherness,0.9351688623428345
,teacher,0.9137173891067505
,friendship,0.8889838457107544
,university,0.8798567652702332
,interaction,0.8643150329589844
,classroom,0.8479843735694885
https://scontent.cdninstagram.com/t51.2885-15/e35/13249925_272384909777779_1229329933_n.jpg,woman,0.9924101233482361
,portrait,0.985272228717804
,fashion,0.9831985235214233
,people,0.975609540939331
,one,0.9742372632026672
,girl,0.9739495515823364
,wear,0.9524785280227661
,hair,0.9482546448707581
,redhead,0.9395058155059814
,pretty,0.9379292726516724
,model,0.935778021812439
,cute,0.9098554849624634
,adult,0.9042800068855286
,eye,0.888359785079956
,glamour,0.8863701820373535
,young,0.8662024736404419
,studio,0.8588301539421082
,elegant,0.8372752666473389
,sexy,0.8359581232070923
,looking,0.8302717208862305
https://scontent.cdninstagram.com/t51.2885-15/e35/12918532_1705276753082728_1681879330_n.jpg,woman,0.9994367361068726
,fashion,0.9927507638931274
,pretty,0.9892548322677612
,young,0.9860578775405884
,sexy,0.9771453142166138
,girl,0.9698182344436646
,glamour,0.9641649723052979
,cute,0.9501983523368835
,elegant,0.9487412571907043
,collage,0.947607159614563
,thin,0.9438575506210327
,adolescent,0.9416813850402832
,contemporary,0.9361420273780823
,casual,0.9359680414199829
,model,0.928277313709259
,health,0.928095817565918
,hair,0.9080972671508789
,portrait,0.9039766192436218
,shopping,0.8924650549888611
,fitness,0.8759748339653015
https://scontent.cdninstagram.com/t51.2885-15/e35/12530910_1099510310071338_526834812_n.jpg,group,0.9965505599975586
,friendship,0.9958627223968506
,group,0.9946902990341187
,student,0.9812248349189758
,togetherness,0.975348949432373
,woman,0.9743952751159668
,man,0.9691810607910156
,fun,0.9593980312347412
,squad,0.9589458703994751
,people,0.9558716416358948
,unity,0.9479813575744629
,adolescent,0.9448522329330444
,many,0.9396460056304932
,happiness,0.9378865957260132
,child,0.9277682304382324
,four,0.9270715713500977
,outdoors,0.9077590703964233
,joy,0.9064723253250122
,laughing,0.8989907503128052
,lifestyle,0.892646074295044
https://scontent.cdninstagram.com/t51.2885-15/e35/12383149_1592727977709336_1108514617_n.jpg,group,0.9994408488273621
,child,0.9991984367370605
,school,0.9974138736724854
,education,0.9948865175247192
,facial expression,0.9946023225784302
,boy,0.9930020570755005
,boy,0.9925817251205444
,group,0.9912303686141968
,happiness,0.9901332259178162
,people,0.9888840913772583
,class,0.9878084659576416
,portrait,0.9865816831588745
,five,0.9807871580123901
,classroom,0.9739339351654053
,friendship,0.9719241857528687
,four,0.971534252166748
,room,0.9703187942504883
,man,0.9702355265617371
,adult,0.9631688594818115
,togetherness,0.9629005193710327
https://scontent.cdninstagram.com/t51.2885-15/e35/12558701_1076005142421070_337408871_n.jpg,people,0.9930523633956909
,adult,0.9920766949653625
,wear,0.9911051988601685
,group,0.989856481552124
,portrait,0.9846615791320801
,woman,0.9840523600578308
,facial expression,0.9785768985748291
,two,0.9698054194450378
,veil,0.9618099927902222
,dinner jacket,0.9580022692680359
,room,0.9550376534461975
,man,0.9343473315238953
,ceremony,0.9313359260559082
,three,0.923017144203186
,one,0.9162251949310303
,four,0.9156180620193481
,flower arrangement,0.9125222563743591
,outfit,0.9119135141372681
,celebration,0.9041022062301636
,happiness,0.9029217958450317
https://scontent.cdninstagram.com/t51.2885-15/e35/12141992_779102652226454_1892755086_n.jpg,woman,0.9894871711730957
,fall,0.9815143346786499
,outdoors,0.9768444299697876
,people,0.9589125514030457
,girl,0.9518821239471436
,fashion,0.9505256414413452
,wear,0.9364112615585327
,portrait,0.9293946623802185
,adult,0.9181761741638184
,child,0.9114645719528198
,enjoyment,0.9065179228782654
,man,0.8993450999259949
,street,0.8965650796890259
,park,0.8792495131492615
,shopping,0.8774868249893188
,city,0.8616902828216553
,togetherness,0.8402421474456787
,model,0.8354992866516113
,school,0.8312495946884155
,adolescent,0.8256770372390747
https://scontent.cdninstagram.com/t51.2885-15/e35/12917807_217885318571495_380387385_n.jpg,many,0.9707732796669006
,people,0.9704665541648865
,woman,0.9642022252082825
,competition,0.9600932598114014
,music,0.9466757774353027
,man,0.9403815269470215
,performance,0.9401954412460327
,group,0.9320787191390991
,festival,0.9239438772201538
,adult,0.921822190284729
,collection,0.9173437356948853
,exhibition,0.9041980504989624
,crowd,0.8805627226829529
,recreation,0.879845917224884
,dancing,0.8507033586502075
,fashion,0.8445112109184265
,wear,0.8369251489639282
,education,0.8291988372802734
,concert,0.8224949836730957
,school,0.8032674789428711
https://scontent.cdninstagram.com/t51.2885-15/e35/1516905_809986882478416_1360153273_n.jpg,child,0.995964765548706
,family,0.9866290092468262
,fun,0.976509690284729
,little,0.9745661020278931
,cute,0.9728012084960938
,people,0.9686644077301025
,love,0.9654151201248169
,girl,0.9634310007095337
,woman,0.9577124118804932
,togetherness,0.9522287845611572
,joy,0.9454212784767151
,friendship,0.9307032823562622
,young,0.925358772277832
,indoors,0.9219858646392822
,beautiful,0.9194353818893433
,maternity,0.8938335180282593
,pretty,0.8921827077865601
,portrait,0.8907393217086792
,boy,0.8774601817131042
,baby,0.8743114471435547
https://scontent.cdninstagram.com/t51.2885-15/e35/13129297_230498870657760_990032962_n.jpg,school,0.9813152551651001
,woman,0.9775177836418152
,education,0.9768608808517456
,people,0.9651432037353516
,group,0.9379137754440308
,adult,0.9246042966842651
,university,0.9169328212738037
,portrait,0.888454794883728
,festival,0.8875550627708435
,many,0.8863310813903809
,motion,0.8805882930755615
,music,0.8768455386161804
,youth,0.8589444160461426
,squad,0.8195840120315552
,child,0.8177841305732727
,person,0.803783655166626
,teacher,0.8008137345314026
,competition,0.7966993451118469
,man,0.7884470224380493
,concert,0.7882368564605713
https://scontent.cdninstagram.com/t51.2885-15/e35/13269516_1742032966040187_1594580842_n.jpg,glass,0.9896799325942993
,building,0.9840428829193115
,business,0.9821783304214478
,architecture,0.9813023805618286
,city,0.9804885387420654
,reflection,0.974647045135498
,window,0.9707472324371338
,office,0.9688546061515808
,urban,0.967839241027832
,modern,0.9613600969314575
,travel,0.9515576362609863
,construction,0.9485701322555542
,steel,0.941255509853363
,no person,0.9296152591705322
,light,0.9136515855789185
,expression,0.9128624796867371
,downtown,0.9040912389755249
,road,0.8957391381263733
,transportation system,0.8927072286605835
,skyscraper,0.8914655447006226
https://scontent.cdninstagram.com/t51.2885-15/s640x640/e15/12519299_980459615322630_1001323009_n.jpg,child,0.9987015724182129
,indoors,0.9947192668914795
,people,0.9937528371810913
,vertical,0.9915846586227417
,portrait,0.9874516129493713
,innocence,0.9819397330284119
,headshot,0.9763815402984619
,horizontal,0.9612963199615479
,adult,0.9430823922157288
,cute,0.9418359994888306
,happiness,0.9308587312698364
,contemplation,0.9260581135749817
,facial expression,0.9223920106887817
,enjoyment,0.91693115234375
,cheerful,0.9127370119094849
,fun,0.8998653292655945
,serious,0.8825500011444092
,little,0.8731645345687866
,woman,0.8631916046142578
,individuality,0.8624435663223267
https://scontent.cdninstagram.com/t51.2885-15/e35/12716703_1123313111046595_349095741_n.jpg,pet,0.9983829259872437
,friendship,0.9978882670402527
,cat,0.9971134662628174
,dog,0.9970210790634155
,mammal,0.9944472312927246
,animal,0.99373459815979
,cute,0.9935812950134277
,portrait,0.9933207035064697
,domestic,0.9912146329879761
,little,0.9884333610534668
,puppy,0.9872748851776123
,canine,0.9838045835494995
,family,0.9837919473648071
,kitten,0.9826459884643555
,indoors,0.9785069823265076
,fun,0.9776148796081543
,sit,0.9724994897842407
,child,0.9696717262268066
,funny,0.96929931640625
,adorable,0.9552286267280579
https://scontent.cdninstagram.com/t51.2885-15/e35/13534107_595904173921453_959346271_n.jpg,group,0.994245707988739
,people,0.9858009815216064
,woman,0.9803471565246582
,group,0.9755969047546387
,many,0.9691544771194458
,adult,0.9613454341888428
,portrait,0.958122968673706
,man,0.9445328116416931
,education,0.9422998428344727
,competition,0.9367209076881409
,teamwork,0.925538182258606
,squad,0.9050450325012207
,school,0.8923317193984985
,indoors,0.8821637630462646
,music,0.873834490776062
,performance,0.8615383505821228
,crowd,0.8461891412734985
,leader,0.8351286053657532
,business,0.8300876021385193
,wear,0.8192477226257324
https://scontent.cdninstagram.com/t51.2885-15/e35/13126746_1024055494354378_1205199762_n.jpg,group,0.9883981943130493
,friendship,0.982406735420227
,group,0.9792810678482056
,people,0.9787557125091553
,portrait,0.9769699573516846
,woman,0.9746884703636169
,fun,0.9712342619895935
,child,0.9709658622741699
,youth,0.955767810344696
,laughing,0.9499789476394653
,adolescent,0.9399573802947998
,family,0.9352784156799316
,togetherness,0.9205788373947144
,man,0.9112780094146729
,student,0.8985506296157837
,joy,0.8752275705337524
,facial expression,0.8628174066543579
,four,0.8576854467391968
,enjoyment,0.8572667837142944
,music,0.8500477075576782
https://scontent.cdninstagram.com/t51.2885-15/e35/12543192_1683509398601754_274264091_n.jpg,festival,0.9813803434371948
,people,0.9709231853485107
,group,0.9592355489730835
,many,0.9505117535591125
,woman,0.9479110836982727
,music,0.9391988515853882
,vehicle,0.9288821220397949
,man,0.9109306931495667
,street,0.9045783281326294
,fun,0.8910229206085205
,enjoyment,0.883427619934082
,exhibition,0.877739667892456
,parade,0.8771559000015259
,city,0.8656216263771057
,tourist,0.8547666072845459
,celebration,0.8484383821487427
,road,0.8352142572402954
,carnival,0.8336272239685059
,performance,0.8298648595809937
,event,0.7914589643478394
https://scontent.cdninstagram.com/t51.2885-15/e35/13166953_1782045175340901_747988543_n.jpg,exhibition,0.9795563817024231
,people,0.9603205919265747
,woman,0.9531756639480591
,many,0.9514524936676025
,shopping,0.9264167547225952
,man,0.9252617955207825
,carnival,0.9244673848152161
,crowd,0.9071036577224731
,business,0.9045536518096924
,city,0.895465612411499
,education,0.8744006156921387
,festival,0.8679594993591309
,group,0.8621394038200378
,school,0.8571068048477173
,stock,0.8553825616836548
,indoors,0.8507267236709595
,performance,0.8449201583862305
,music,0.8431360721588135
,adult,0.8228510618209839
,fashion,0.8187236785888672
https://scontent.cdninstagram.com/t51.2885-15/e35/13126701_1147072078670516_723750659_n.jpg,group,0.9971498250961304
,woman,0.9962910413742065
,portrait,0.9911981821060181
,group,0.984787106513977
,friendship,0.976620614528656
,people,0.9735819101333618
,multicultural,0.9707179069519043
,adult,0.9570291042327881
,music,0.9443888664245605
,laughing,0.9423332214355469
,student,0.9416499137878418
,girl,0.9414709806442261
,adolescent,0.9397491216659546
,university,0.9324062466621399
,model,0.9218677282333374
,fashion,0.9205421209335327
,singer,0.9166827201843262
,education,0.913653552532196
,musician,0.9064285755157471
,teamwork,0.9050285220146179
https://scontent.cdninstagram.com/t51.2885-15/e35/13098993_806873319414707_800403777_n.jpg,competition,0.9798792600631714
,school,0.9785339832305908
,people,0.9650716781616211
,exhibition,0.9636166095733643
,education,0.9608278274536133
,athlete,0.9598001837730408
,class,0.9509844779968262
,International,0.9418119192123413
,woman,0.9322620034217834
,man,0.9270621538162231
,many,0.9240473508834839
,motion,0.9115012288093567
,city,0.891810417175293
,populace,0.8916287422180176
,recreation,0.8888512849807739
,crowd,0.8879812955856323
,child,0.878362774848938
,university,0.8732418417930603
,group,0.8691781163215637
,wear,0.8630374670028687
https://scontent.cdninstagram.com/t51.2885-15/e35/13108605_1560239510939771_152244627_n.jpg,many,0.9888147711753845
,group,0.9869818687438965
,people,0.9853998422622681
,group,0.9752059578895569
,performance,0.9746800065040588
,festival,0.9635015726089478
,school,0.9582898616790771
,education,0.9572125673294067
,adult,0.9549462199211121
,woman,0.9541008472442627
,portrait,0.9536842107772827
,band,0.952710747718811
,music,0.9523971080780029
,man,0.9469971656799316
,singer,0.9387149810791016
,competition,0.9360939264297485
,concert,0.9328495264053345
,crowd,0.9207240343093872
,musician,0.9105211496353149
,sports fan,0.9045298099517822
https://scontent.cdninstagram.com/t51.2885-15/e35/10570092_1071843946213874_1605569203_n.jpg,people,0.9682310819625854
,woman,0.942811131477356
,leisure,0.9420321583747864
,adult,0.9139630794525146
,fun,0.9110991358757019
,game,0.9092022180557251
,portrait,0.882599949836731
,grass,0.88144850730896
,recreation,0.8706264495849609
,landscape,0.8559256196022034
,girl,0.8404779434204102
,competition,0.8370803594589233
,outdoors,0.836346447467804
,man,0.8341509103775024
,summer,0.8170323371887207
,card,0.8154078125953674
,person,0.8133083581924438
,soccer,0.8034040927886963
,business,0.7857234477996826
,enjoyment,0.7649383544921875
https://scontent.cdninstagram.com/t51.2885-15/e35/12599359_543536595813254_1604370138_n.jpg,child,0.9983533620834351
,group,0.9958110451698303
,fun,0.9893510341644287
,friendship,0.9881957769393921
,portrait,0.9869105219841003
,laughing,0.9841320514678955
,school,0.9812357425689697
,people,0.9788365364074707
,girl,0.9726757407188416
,education,0.9686137437820435
,happiness,0.9520226716995239
,smile,0.9492394924163818
,four,0.9459034204483032
,togetherness,0.9394478797912598
,cheerful,0.9300976395606995
,classroom,0.9245123267173767
,facial expression,0.9208986759185791
,woman,0.9203342199325562
,family,0.9201414585113525
,three,0.9183051586151123
https://scontent.cdninstagram.com/t51.2885-15/e35/12912531_1724442284480335_767540672_n.jpg,many,0.9972012042999268
,people,0.9955195188522339
,group,0.9926950931549072
,group,0.9881665706634521
,crowd,0.9838332533836365
,man,0.9687968492507935
,music,0.9643336534500122
,band,0.9619109630584717
,ceremony,0.9548527002334595
,wear,0.9529002904891968
,military,0.9422111511230469
,woman,0.9414278268814087
,flag,0.9397412538528442
,performance,0.932156503200531
,parade,0.9298373460769653
,competition,0.9164541959762573
,adult,0.9009599685668945
,school,0.898828387260437
,outfit,0.8848041296005249
,education,0.8694193363189697
https://scontent.cdninstagram.com/t51.2885-15/e35/12383245_199368687112890_1059317823_n.jpg,ball,0.9942531585693359
,competition,0.9925426244735718
,athlete,0.9921754598617554
,many,0.9808439016342163
,people,0.979921817779541
,game,0.9749021530151367
,basketball,0.9701830148696899
,tournament,0.962363600730896
,web,0.9503742456436157
,sport,0.943463146686554
,crowd,0.9422172904014587
,school,0.9402925968170166
,woman,0.9367961883544922
,celebration,0.9347649216651917
,victory,0.9334771037101746
,sports fan,0.9326940774917603
,stadium,0.923557698726654
,match,0.9146155118942261
,volleyball,0.9105238914489746
,soccer,0.9093723297119141
https://scontent.cdninstagram.com/t51.2885-15/e35/12556013_820505198076705_2065534747_n.jpg,celebration,0.9856122732162476
,people,0.9801676273345947
,music,0.9719382524490356
,Christmas,0.9696072340011597
,party,0.9587255716323853
,dancing,0.9559643268585205
,festival,0.9511444568634033
,light,0.9447461366653442
,stage,0.9440793991088867
,candle,0.9408662915229797
,performance,0.9330612421035767
,nightlife,0.9121648669242859
,concert,0.909126877784729
,singer,0.8974751234054565
,club,0.8959336876869202
,evening,0.8774282336235046
,flame,0.8745419979095459
,woman,0.8589508533477783
,musician,0.8585300445556641
,lamp,0.8533176779747009
