url,class,score
https://scontent-sit4-1.cdninstagram.com/t51.2885-15/s640x640/e15/13643620_1755022094744040_1757562796_n.jpg,performance,0.9997847676277161
,concert,0.9996955394744873
,music,0.9993631839752197
,stage,0.9982143640518188
,festival,0.9979716539382935
,singer,0.9956591129302979
,musician,0.9948253631591797
,band,0.9866682291030884
,pop,0.9677877426147461
,audience,0.957421600818634
,party,0.9507402777671814
,club,0.9425963163375854
,club,0.9380072355270386
,light,0.9373753070831299
,celebration,0.9325169324874878
,energy,0.926926851272583
,rap,0.9267876148223877
,venue,0.9263048768043518
,spotlight,0.9193768501281738
,dancing,0.8896809816360474
https://scontent-sit4-1.cdninstagram.com/t51.2885-15/e15/13627933_570898943111831_256368154_n.jpg,indoors,0.985797643661499
,people,0.9764603972434998
,woman,0.9523745179176331
,man,0.9498081207275391
,silhouette,0.9451555609703064
,horizontal,0.9441462755203247
,business,0.9178133010864258
,tube,0.8739988803863525
,airport,0.8601720333099365
,fashion,0.8595684766769409
,expect,0.8482295274734497
,adult,0.8473080992698669
,lobby,0.8469937443733215
,modern,0.8267334699630737
,reflection,0.8256583213806152
,light,0.8132457733154297
,illuminated,0.7995219230651855
,stage,0.799006998538971
,luggage,0.7929400205612183
,togetherness,0.7907072305679321
https://scontent-sit4-1.cdninstagram.com/t51.2885-15/e35/13651926_1626738654309023_1112400580_n.jpg,performance,0.9987660646438599
,concert,0.9973104000091553
,music,0.9971832036972046
,musician,0.9938560724258423
,singer,0.9919108748435974
,festival,0.9887151718139648
,stage,0.9822514653205872
,people,0.9687288999557495
,band,0.9579658508300781
,audience,0.9255578517913818
,guitar,0.9125834703445435
,songwriter,0.9069744348526001
,instrument,0.9047000408172607
,concert hall,0.8922094106674194
,rap,0.8918150663375854
,theater,0.890884518623352
,adult,0.8878394365310669
,one,0.8673273324966431
,stringed instrument,0.866096019744873
,film festival,0.85882568359375
https://scontent-sit4-1.cdninstagram.com/t51.2885-15/e35/13652070_287871761564494_110715241_n.jpg,performance,0.9983516931533813
,music,0.9932432174682617
,concert,0.9912997484207153
,festival,0.9856045246124268
,stage,0.9854007959365845
,musician,0.983546257019043
,singer,0.9823157787322998
,people,0.9692833423614502
,band,0.9362868666648865
,theater,0.9278320074081421
,audience,0.9155789017677307
,film festival,0.9046501517295837
,group,0.9027185440063477
,adult,0.9007335901260376
,microphone,0.8770793676376343
,concert hall,0.867351770401001
,wear,0.8571478128433228
,instrument,0.8456022143363953
,theater,0.8328025341033936
,election,0.8278387188911438
https://scontent-sit4-1.cdninstagram.com/t51.2885-15/s640x640/e15/13584152_651540148329381_2012669120_n.jpg,performance,0.9998658299446106
,concert,0.9989036321640015
,music,0.9982975125312805
,musician,0.9952484369277954
,singer,0.9943493604660034
,band,0.9809281826019287
,festival,0.9743562936782837
,stage,0.9690272808074951
,songwriter,0.9447362422943115
,concert hall,0.9320102334022522
,indie,0.9211625456809998
,guitarist,0.9039565324783325
,audience,0.8599169254302979
,pop,0.8527368307113647
,guitar,0.8346810340881348
,stringed instrument,0.8249664306640625
,rap,0.8222095966339111
,light,0.7413366436958313
,idol,0.7195580005645752
,energy,0.7086657285690308
https://scontent-sit4-1.cdninstagram.com/t51.2885-15/e15/13734284_1711156239138711_1841698852_n.jpg,people,0.9818600416183472
,indoors,0.9813209772109985
,woman,0.9812942743301392
,horizontal,0.9764620661735535
,man,0.9715840816497803
,togetherness,0.9613260626792908
,business,0.9150344729423523
,fashion,0.9109736680984497
,silhouette,0.8978084325790405
,adult,0.8959432244300842
,young,0.8760493993759155
,computer graphic,0.8646910190582275
,travel,0.8627884387969971
,outdoors,0.8611326217651367
,relaxation,0.8607736229896545
,collection,0.8594282865524292
,contemporary,0.8549516201019287
,romance,0.8465118408203125
,expect,0.8448688387870789
,family,0.8429217338562012
https://scontent-sit4-1.cdninstagram.com/t51.2885-15/s640x640/e15/13652044_523134907879028_294611216_n.jpg,performance,0.9992163777351379
,concert,0.997555136680603
,music,0.9967625141143799
,musician,0.9952794313430786
,singer,0.9941327571868896
,festival,0.9909976720809937
,band,0.9852105379104614
,guitarist,0.9783361554145813
,stage,0.9777905941009521
,guitar,0.9746814966201782
,stringed instrument,0.9623194932937622
,instrument,0.9509801864624023
,film festival,0.9291191101074219
,songwriter,0.9064691066741943
,concert hall,0.8740510940551758
,energy,0.8697450757026672
,people,0.8648687601089478
,pop,0.8566293716430664
,bassist,0.8552743792533875
,indie,0.8306131362915039
https://scontent-sit4-1.cdninstagram.com/t51.2885-15/s640x640/e15/13557051_1826303854266308_1009479849_n.jpg,water,0.9951555132865906
,pool,0.9915693998336792
,reflection,0.9845705032348633
,travel,0.9819009304046631
,swimming pool,0.9792317748069763
,hotel,0.9765090346336365
,swimming,0.9758562445640564
,city,0.9746205806732178
,umbrella,0.9701822996139526
,modern,0.9649377465248108
,luxury,0.9556447267532349
,building,0.9510064721107483
,architecture,0.9495046138763428
,urban,0.945939302444458
,tourism,0.9389315843582153
,resort,0.9310175776481628
,vacation,0.9205493927001953
,no person,0.9154253005981445
,outdoors,0.9130851030349731
,poolside,0.8876147270202637
https://scontent-sit4-1.cdninstagram.com/t51.2885-15/e15/13725526_636426926511925_1285844589_n.jpg,indoors,0.9958076477050781
,people,0.9919730424880981
,woman,0.9913514852523804
,adult,0.9906036853790283
,portrait,0.9884811639785767
,vertical,0.9781496524810791
,horizontal,0.977489709854126
,stock,0.9618263244628906
,togetherness,0.9615875482559204
,wear,0.9532279968261719
,fashion,0.9420950412750244
,happiness,0.9373421669006348
,enjoyment,0.9271154403686523
,friendship,0.9248919486999512
,facial expression,0.921086311340332
,shopping,0.9184888601303101
,adolescent,0.9042977690696716
,child,0.8977124691009521
,cheerful,0.8889341950416565
,option,0.8832744359970093
https://scontent-sit4-1.cdninstagram.com/t51.2885-15/e35/13643022_266782110364353_592869371_n.jpg,child,0.9993351697921753
,fun,0.9801214933395386
,happiness,0.9723113179206848
,birthday,0.9720183610916138
,indoors,0.9720080494880676
,family,0.9696834087371826
,people,0.9658344984054565
,toy,0.9622416496276855
,celebration,0.96151202917099
,innocence,0.956924557685852
,cute,0.95477294921875
,portrait,0.9518734812736511
,baby,0.9501751661300659
,vertical,0.9451234936714172
,gift,0.9429773092269897
,cheerful,0.9234368801116943
,birthday cake,0.92265784740448
,little,0.9199262857437134
,education,0.9152110815048218
,horizontal,0.9064798355102539
https://scontent-sit4-1.cdninstagram.com/t51.2885-15/e35/13534408_1165711680139732_439977123_n.jpg,people,0.9859288930892944
,business,0.9689337015151978
,woman,0.9422162175178528
,group,0.9394930601119995
,man,0.936377227306366
,city,0.9344230890274048
,adult,0.9156230092048645
,many,0.9119995832443237
,portrait,0.9116642475128174
,league,0.9026840925216675
,meeting,0.9012380838394165
,ceremony,0.8930617570877075
,public,0.8781437277793884
,water,0.876943826675415
,exhibition,0.8756310939788818
,travel,0.8707865476608276
,summer,0.8706597685813904
,annual,0.8605132699012756
,landscape,0.8579882383346558
,chair,0.8534648418426514
https://scontent-sit4-1.cdninstagram.com/t51.2885-15/e35/13642947_168552180225819_1906020094_n.jpg,child,0.9979342222213745
,gift,0.9668550491333008
,happiness,0.9658433794975281
,people,0.9626293778419495
,family,0.9618532061576843
,cheerful,0.9552916288375854
,indoors,0.950588583946228
,celebration,0.9399176836013794
,portrait,0.9372214078903198
,togetherness,0.9324248433113098
,birthday,0.9316188097000122
,fun,0.9295172691345215
,horizontal,0.9186986684799194
,toy,0.9110513925552368
,adult,0.8991296291351318
,vertical,0.8880587816238403
,cute,0.88028484582901
,love,0.8591618537902832
,innocence,0.8496260643005371
,exhilaration,0.8472754955291748
https://scontent-sit4-1.cdninstagram.com/t51.2885-15/e35/13531846_163200617419025_1227951011_n.jpg,performance,0.9988588690757751
,concert,0.9980435371398926
,music,0.9941312074661255
,musician,0.9937149286270142
,singer,0.9925820827484131
,festival,0.9909582734107971
,band,0.9831615090370178
,guitar,0.9830453395843506
,guitarist,0.9824110269546509
,stage,0.9737914800643921
,stringed instrument,0.9637138843536377
,instrument,0.9635972380638123
,energy,0.9565954208374023
,concert hall,0.9113267064094543
,rock,0.8957765102386475
,film festival,0.882136344909668
,indie,0.8815043568611145
,microphone,0.8590191602706909
,songwriter,0.851560115814209
,light,0.8502950668334961
https://scontent-sit4-1.cdninstagram.com/t51.2885-15/e35/13562149_145608512527707_2117460545_n.jpg,festival,0.9857336282730103
,people,0.9799181222915649
,dancing,0.9712711572647095
,music,0.9584897756576538
,show,0.9453598260879517
,celebration,0.9425711631774902
,woman,0.9382575750350952
,pageant,0.9329761862754822
,event,0.9297226667404175
,performance,0.9235222339630127
,parade,0.9145424365997314
,group,0.9144627451896667
,dancer,0.9142955541610718
,party,0.9031769633293152
,competition,0.9019721746444702
,fun,0.8976445198059082
,club,0.8886970281600952
,class,0.8844771981239319
,carnival,0.882373034954071
,exhibition,0.8727691173553467
https://scontent-sit4-1.cdninstagram.com/t51.2885-15/e35/13636121_905065072972742_1794695276_n.jpg,woman,0.97894287109375
,man,0.9585229158401489
,music,0.9516642093658447
,people,0.9419769048690796
,group,0.934622585773468
,performance,0.9015533328056335
,wear,0.8996398448944092
,recreation,0.8947671055793762
,movie,0.8778042197227478
,friendship,0.8687924146652222
,fashion,0.8667815923690796
,enjoyment,0.8563414216041565
,adult,0.8473631143569946
,fun,0.8469191789627075
,dancing,0.831803560256958
,festival,0.8224537968635559
,nightlife,0.8105096220970154
,adolescent,0.799706220626831
,outdoors,0.7891151905059814
,group,0.7877310514450073
https://scontent-sit4-1.cdninstagram.com/t51.2885-15/e35/13584196_155467324864345_1966137714_n.jpg,competition,0.9855350255966187
,athlete,0.9853544235229492
,lifestyle,0.982979416847229
,woman,0.982001543045044
,model,0.9789251685142517
,show,0.9781763553619385
,adult,0.9763508439064026
,people,0.9640379548072815
,fitness,0.9607038497924805
,fashion,0.9604070782661438
,class,0.9581936597824097
,event,0.9558621644973755
,group,0.9501132965087891
,energy,0.941537618637085
,exercise,0.940592885017395
,body,0.9280797243118286
,fashionable,0.9191271066665649
,collection,0.9111481308937073
,endurance,0.90848708152771
,wear,0.8996286392211914
https://scontent-sit4-1.cdninstagram.com/t51.2885-15/s750x750/sh0.08/e35/13573565_163420920740909_1767365662_n.jpg,swimming,0.9977995157241821
,pool,0.9959380626678467
,swimmer,0.9890581369400024
,people,0.9834465980529785
,water,0.9786436557769775
,recreation,0.9714126586914062
,group,0.9663203954696655
,lifestyle,0.964722752571106
,competition,0.9642833471298218
,leisure,0.9578425288200378
,swimming pool,0.9508514404296875
,sport,0.9485375881195068
,event,0.9383095502853394
,resort,0.9349350929260254
,adult,0.9348458051681519
,woman,0.9330359101295471
,fitness,0.921700119972229
,show,0.919743537902832
,body,0.9187870025634766
,water sports,0.9053471684455872
https://scontent-sit4-1.cdninstagram.com/t51.2885-15/e35/13525261_1554723851501290_460852958_n.jpg,woman,0.9775692224502563
,fun,0.9672107696533203
,child,0.9645982980728149
,people,0.9522829651832581
,pretty,0.9357962608337402
,fashion,0.9352788925170898
,cute,0.9273681044578552
,girl,0.9233729839324951
,friendship,0.9179626703262329
,togetherness,0.9123209714889526
,portrait,0.9121716022491455
,summer,0.903673529624939
,indoors,0.8941802978515625
,enjoyment,0.8892921805381775
,joy,0.8720684051513672
,recreation,0.8507193326950073
,leisure,0.8260574340820312
,adolescent,0.8192384243011475
,love,0.8188319206237793
,family,0.8165460228919983
https://scontent-sit4-1.cdninstagram.com/t51.2885-15/e35/13573475_1565175127117122_1906930356_n.jpg,people,0.9919196367263794
,many,0.970034122467041
,adult,0.9697861671447754
,woman,0.9696191549301147
,group,0.9660348296165466
,competition,0.9627363681793213
,athlete,0.9565017223358154
,man,0.9557033777236938
,group,0.9510939121246338
,wear,0.9120295643806458
,recreation,0.9040313959121704
,school,0.8835748434066772
,portrait,0.8711229562759399
,enjoyment,0.8563973903656006
,crowd,0.8405740261077881
,teamwork,0.839260995388031
,fun,0.8258085250854492
,outdoors,0.8115886449813843
,basketball,0.8099822998046875
,sports equipment,0.7995856404304504
https://scontent-sit4-1.cdninstagram.com/t51.2885-15/e35/13551839_1713488932243315_1290919128_n.jpg,people,0.992229700088501
,group,0.9868185520172119
,festival,0.9819341897964478
,many,0.9814852476119995
,competition,0.9685541391372681
,crowd,0.9662140607833862
,group,0.9634694457054138
,woman,0.9623321890830994
,wear,0.9583871364593506
,city,0.942620038986206
,parade,0.9396121501922607
,race,0.9280113577842712
,track and field,0.8895817995071411
,man,0.8823771476745605
,marathon,0.8763076066970825
,music,0.8743826150894165
,dancing,0.8730781674385071
,footrace,0.8678191900253296
,adult,0.8565628528594971
,recreation,0.8453801274299622
https://scontent-sit4-1.cdninstagram.com/t51.2885-15/e35/13628199_1110434095684322_1459729574_n.jpg,child,0.990725576877594
,people,0.9838787317276001
,woman,0.9490976333618164
,portrait,0.9310727119445801
,fun,0.9280644655227661
,dress,0.9228225946426392
,festival,0.9103525876998901
,wear,0.9004238843917847
,fashion,0.9001052379608154
,indoors,0.886775016784668
,outdoors,0.8849594593048096
,vertical,0.8716018199920654
,street,0.8706076145172119
,enjoyment,0.8640122413635254
,togetherness,0.8608347773551941
,family,0.8583793640136719
,recreation,0.852471113204956
,celebration,0.8516659736633301
,horizontal,0.8482885956764221
,girl,0.8471490144729614
https://scontent-sit4-1.cdninstagram.com/t51.2885-15/e35/13597843_1235087306503662_1875225450_n.jpg,athlete,0.995877742767334
,competition,0.9911090135574341
,adult,0.9789935946464539
,people,0.9758991003036499
,group,0.9694724082946777
,school,0.9544329643249512
,woman,0.9514991044998169
,exercise,0.933742344379425
,man,0.932476282119751
,sport,0.9322953224182129
,portrait,0.9299402832984924
,squad,0.9271012544631958
,motion,0.9199156761169434
,race,0.9142671227455139
,energy,0.9049110412597656
,train,0.8937716484069824
,many,0.8908525109291077
,group,0.890185534954071
,track and field,0.8840324878692627
,race,0.8801645040512085
https://scontent-sit4-1.cdninstagram.com/t51.2885-15/e35/13584186_1002850813166410_632940937_n.jpg,child,0.9979342222213745
,gift,0.9668550491333008
,happiness,0.9658433794975281
,people,0.9626293778419495
,family,0.9618532061576843
,cheerful,0.9552916288375854
,indoors,0.950588583946228
,celebration,0.9399176836013794
,portrait,0.9372214078903198
,togetherness,0.9324248433113098
,birthday,0.9316188097000122
,fun,0.9295172691345215
,horizontal,0.9186986684799194
,toy,0.9110513925552368
,adult,0.8991296291351318
,vertical,0.8880587816238403
,cute,0.88028484582901
,love,0.8591618537902832
,innocence,0.8496260643005371
,exhilaration,0.8472754955291748
https://scontent-sit4-1.cdninstagram.com/t51.2885-15/e35/13556909_1738099606464801_1056925170_n.jpg,competition,0.9987508058547974
,people,0.9950870871543884
,swimming,0.9948328733444214
,group,0.9919140338897705
,athlete,0.9858905673027039
,swimmer,0.9854331016540527
,pool,0.983364999294281
,recreation,0.9826651215553284
,wear,0.9741725921630859
,swimming pool,0.970729410648346
,water sports,0.969658613204956
,woman,0.9692972898483276
,adult,0.9673356413841248
,track and field,0.9584578275680542
,race,0.9578606486320496
,race,0.9562191963195801
,sport,0.9505418539047241
,man,0.9501156806945801
,leisure,0.9429359436035156
,fun,0.9318513870239258
https://scontent-sit4-1.cdninstagram.com/t51.2885-15/e35/13561768_1719405988322302_1841775654_n.jpg,swimming,0.9999015927314758
,pool,0.9998981356620789
,water,0.9990731477737427
,swimmer,0.9988151788711548
,goggles,0.998771071434021
,swimming pool,0.9976716637611389
,recreation,0.996540367603302
,leisure,0.9956380128860474
,wet,0.9944767951965332
,resort,0.991182804107666
,vacation,0.9808380603790283
,poolside,0.9722222089767456
,sport,0.9657037854194641
,water sports,0.9648417234420776
,splash,0.9597451686859131
,summer,0.9367295503616333
,fun,0.9296743869781494
,diving,0.9197194576263428
,travel,0.9178409576416016
,play,0.91255784034729
https://scontent-sit4-1.cdninstagram.com/t51.2885-15/e15/13715178_1733317163601690_1165401022_n.jpg,people,0.9772306680679321
,indoors,0.9610912799835205
,woman,0.954770565032959
,man,0.9454494714736938
,horizontal,0.9338867664337158
,silhouette,0.9277257919311523
,fashion,0.9184781312942505
,adult,0.9060736894607544
,light,0.83138507604599
,business,0.829706609249115
,sexy,0.8256131410598755
,togetherness,0.8200846910476685
,outdoors,0.7894514799118042
,motion,0.7826807498931885
,model,0.7796193957328796
,young,0.7744271755218506
,glamour,0.7657413482666016
,shadow,0.7598674297332764
,love,0.7565361857414246
,athlete,0.7442828416824341
https://scontent-sit4-1.cdninstagram.com/t51.2885-15/e35/13532103_639656459519965_1422378819_n.jpg,people,0.9616857171058655
,fun,0.9570306539535522
,woman,0.9390119314193726
,recreation,0.934617280960083
,group,0.9229872226715088
,party,0.9139060974121094
,enjoyment,0.9100719690322876
,music,0.9078536033630371
,event,0.8986208438873291
,group,0.896873950958252
,bikini,0.8938900232315063
,summer,0.8870518803596497
,festival,0.8812862038612366
,swimming,0.8783637285232544
,active,0.8741012811660767
,sport,0.8737667202949524
,leisure,0.8398871421813965
,beach,0.8315343856811523
,club,0.826967179775238
,wear,0.8227571249008179
https://scontent-sit4-1.cdninstagram.com/t51.2885-15/e35/13573419_1755372028083879_157915584_n.jpg,pool,0.995223879814148
,water,0.9951685667037964
,swimming,0.9926555156707764
,swimming pool,0.9857863783836365
,vacation,0.9804784059524536
,recreation,0.9777336120605469
,leisure,0.9765856266021729
,fun,0.9751341342926025
,bikini,0.9656575918197632
,group,0.9628059267997742
,swimmer,0.9577813744544983
,travel,0.9392341375350952
,resort,0.9358245730400085
,summer,0.9283190369606018
,water sports,0.926433265209198
,wet,0.9032902717590332
,enjoyment,0.9007171392440796
,people,0.890091061592102
,lifestyle,0.8897563219070435
,four,0.8822816610336304
https://scontent-sit4-1.cdninstagram.com/t51.2885-15/e15/13704284_630764470420773_2139209495_n.jpg,indoors,0.995532751083374
,architecture,0.9603902697563171
,empty,0.9484767913818359
,horizontal,0.9441055059432983
,window,0.9313513040542603
,modern,0.9131268858909607
,contemporary,0.9085631966590881
,light,0.9074783325195312
,people,0.8886258602142334
,no person,0.8691732883453369
,business,0.8687305450439453
,illuminated,0.8592187166213989
,chair,0.8559962511062622
,step,0.8468919992446899
,family,0.8467584848403931
,luxury,0.8433965444564819
,room,0.8316742181777954
,outdoors,0.8260862827301025
,horizontal,0.819057822227478
,absence,0.8159139156341553
https://scontent-sit4-1.cdninstagram.com/t51.2885-15/e35/13549485_1042713489149590_1357152939_n.jpg,group,0.9832594394683838
,people,0.9737294912338257
,festival,0.9673596620559692
,woman,0.9612064361572266
,fun,0.9524862766265869
,group,0.9521713852882385
,many,0.9500625729560852
,recreation,0.9287533760070801
,enjoyment,0.9281870126724243
,music,0.9183038473129272
,wear,0.8961310982704163
,performance,0.8795251250267029
,competition,0.8616487979888916
,dancing,0.8538508415222168
,crowd,0.849061131477356
,portrait,0.8482485413551331
,energy,0.8363749980926514
,party,0.8357981443405151
,child,0.8067094087600708
,concert,0.7915131449699402
https://scontent-sit4-1.cdninstagram.com/t51.2885-15/e35/13561546_1742689052687188_461049791_n.jpg,swimming,0.9996558427810669
,pool,0.999652087688446
,water,0.9985716938972473
,swimmer,0.9974618554115295
,swimming pool,0.9953272938728333
,recreation,0.9939326047897339
,leisure,0.9906469583511353
,goggles,0.9886246919631958
,resort,0.9796614646911621
,people,0.9725900888442993
,poolside,0.9718725085258484
,sport,0.9677801132202148
,vacation,0.9563330411911011
,wet,0.9534871578216553
,summer,0.9382803440093994
,travel,0.9355712532997131
,water sports,0.9246950149536133
,child,0.9241319894790649
,fun,0.919234573841095
,sea,0.9154101014137268
https://scontent-sit4-1.cdninstagram.com/t51.2885-15/s640x640/e15/13525450_1742641209339467_2040976848_n.jpg,water,0.9951555132865906
,pool,0.9915693998336792
,reflection,0.9845705032348633
,travel,0.9819009304046631
,swimming pool,0.9792317748069763
,hotel,0.9765090346336365
,swimming,0.9758562445640564
,city,0.9746205806732178
,umbrella,0.9701822996139526
,modern,0.9649377465248108
,luxury,0.9556447267532349
,building,0.9510064721107483
,architecture,0.9495046138763428
,urban,0.945939302444458
,tourism,0.9389315843582153
,resort,0.9310175776481628
,vacation,0.9205493927001953
,no person,0.9154253005981445
,outdoors,0.9130851030349731
,poolside,0.8876147270202637
https://scontent-sit4-1.cdninstagram.com/t51.2885-15/e35/13643071_1562456957390280_508060495_n.jpg,kimono,0.9895150661468506
,people,0.9814738035202026
,geisha,0.9787888526916504
,fashion,0.9694907069206238
,festival,0.9692027568817139
,wear,0.9665864706039429
,woman,0.9661362171173096
,family,0.9472724795341492
,traditional,0.9437152743339539
,portrait,0.9401215314865112
,girl,0.9356508255004883
,dress,0.9251141548156738
,costume,0.9129629135131836
,child,0.8927031755447388
,young,0.8850828409194946
,stock,0.8848949670791626
,exhibition,0.8826051950454712
,indoors,0.8746989369392395
,two,0.867843747138977
,adult,0.8602917194366455
https://scontent-sit4-1.cdninstagram.com/t51.2885-15/e35/13573525_843250649139213_2115340603_n.jpg,indoors,0.988479495048523
,woman,0.9848862886428833
,fashion,0.9812628030776978
,wear,0.9609154462814331
,portrait,0.9563677310943604
,people,0.9411386251449585
,room,0.9169220924377441
,glamour,0.9113731384277344
,actress,0.90775465965271
,facial expression,0.8895577192306519
,chair,0.8781377673149109
,backstage,0.8579272031784058
,movie,0.8523677587509155
,adult,0.8501139879226685
,furniture,0.8468016386032104
,jewelry,0.844017744064331
,exhibition,0.8413466811180115
,business,0.8394871950149536
,one,0.8336831331253052
,dress,0.8237122297286987
https://scontent-sit4-1.cdninstagram.com/t51.2885-15/s750x750/sh0.08/e35/13561661_1410470352587849_2026999564_n.jpg,celebration,0.9932630062103271
,Christmas,0.9855931401252747
,fireworks,0.9565762281417847
,illustration,0.9558203220367432
,festival,0.9519840478897095
,card,0.9433808326721191
,desktop,0.9417906999588013
,party,0.9381844997406006
,New Year,0.9374197721481323
,silhouette,0.9321621656417847
,quarter,0.9296866655349731
,season,0.9250531196594238
,tree,0.9125887751579285
,postcard,0.8966836929321289
,sky,0.8901081681251526
,independence day,0.8853870630264282
,merry,0.8820006847381592
,greeting,0.8794407248497009
,eve,0.8763752579689026
,winter,0.8732574582099915
https://scontent-sit4-1.cdninstagram.com/t51.2885-15/e35/13687001_308429519502085_460078603_n.jpg,people,0.9930087327957153
,woman,0.9850428104400635
,facial expression,0.9834402799606323
,group,0.9726465940475464
,wear,0.9713534712791443
,portrait,0.9690753221511841
,festival,0.9659072160720825
,adult,0.963750958442688
,happiness,0.9598032236099243
,fun,0.9581606388092041
,recreation,0.9537650346755981
,girl,0.9528768658638
,two,0.9521883726119995
,celebration,0.9474897384643555
,enjoyment,0.929530143737793
,birthday,0.9274870157241821
,child,0.921959400177002
,family,0.9191508293151855
,friendship,0.9130374193191528
,man,0.9100351929664612
https://scontent-sit4-1.cdninstagram.com/t51.2885-15/e35/13628183_1610673365928681_1326690858_n.jpg,group,0.9926971197128296
,people,0.9876426458358765
,woman,0.9735257625579834
,man,0.9699960947036743
,portrait,0.9644317626953125
,education,0.9333162307739258
,adult,0.9319037199020386
,school,0.9201884269714355
,child,0.9095873236656189
,religion,0.8963399529457092
,family,0.8921482563018799
,festival,0.8843294382095337
,facial expression,0.8834323883056641
,university,0.8730932474136353
,friendship,0.8581970930099487
,group,0.8517558574676514
,movie,0.8505306243896484
,happiness,0.8391494750976562
,three,0.8387755155563354
,celebration,0.7896332740783691
https://scontent-sit4-1.cdninstagram.com/t51.2885-15/e35/13627950_1755648418053340_297243822_n.jpg,performance,0.9972842931747437
,stage,0.9939837455749512
,audience,0.9913270473480225
,music,0.9899038076400757
,concert,0.9842079877853394
,festival,0.9651015996932983
,many,0.9438122510910034
,singer,0.9322147369384766
,auditorium,0.9308863878250122
,movie,0.9288551807403564
,theater,0.9241425395011902
,theater,0.9113464951515198
,musician,0.9022828340530396
,spotlight,0.8871188163757324
,stump,0.8809048533439636
,people,0.872744619846344
,television,0.8683395385742188
,ceremony,0.8682871460914612
,band,0.8173580169677734
,light,0.8101835250854492
https://scontent-sit4-1.cdninstagram.com/t51.2885-15/s750x750/sh0.08/e35/13551831_1025535474198542_918055598_n.jpg,swimming,0.999792218208313
,swimming pool,0.9994949102401733
,pool,0.9993013143539429
,swimmer,0.99705970287323
,recreation,0.9957175254821777
,water sports,0.9956182241439819
,water,0.9948145151138306
,leisure,0.9944553375244141
,fun,0.9898316860198975
,goggles,0.9755324125289917
,poolside,0.9753663539886475
,wet,0.9647704362869263
,competition,0.9631201028823853
,boy,0.9509360194206238
,action,0.9414459466934204
,people,0.936942458152771
,exercise,0.9337698221206665
,resort,0.9336279630661011
,diving,0.9335657358169556
,group,0.9282169342041016
https://scontent-sit4-1.cdninstagram.com/t51.2885-15/e35/13721251_1738612363059430_23405886_n.jpg,child,0.9974454641342163
,group,0.9888051748275757
,people,0.9861180782318115
,celebration,0.9717610478401184
,family,0.949374794960022
,education,0.9473586082458496
,festival,0.9432530403137207
,school,0.9277242422103882
,many,0.9273084402084351
,fun,0.9161750078201294
,religion,0.8998210430145264
,wear,0.897710382938385
,boy,0.8889665007591248
,boy,0.8750478029251099
,friendship,0.8693408370018005
,woman,0.8283216953277588
,group,0.8152680397033691
,party,0.8051387071609497
,teacher,0.8049300312995911
,crowd,0.797930121421814
https://scontent-sit4-1.cdninstagram.com/t51.2885-15/e35/13549585_1747390035503018_1825208803_n.jpg,athlete,0.9760631322860718
,recreation,0.9732258319854736
,woman,0.9696217775344849
,competition,0.9689702987670898
,people,0.9588868618011475
,group,0.9530314803123474
,group,0.9478999376296997
,fitness,0.9322934150695801
,exercise,0.9192909002304077
,festival,0.9094564318656921
,many,0.9066665172576904
,leisure,0.8946496844291687
,enjoyment,0.8912333250045776
,wear,0.8908066749572754
,fun,0.8873441219329834
,class,0.8856830596923828
,man,0.8697719573974609
,dancing,0.8663206100463867
,energy,0.8626599311828613
,adult,0.8360700607299805
https://scontent-sit4-1.cdninstagram.com/t51.2885-15/e35/13597612_229785950748108_919270626_n.jpg,group,0.9816536903381348
,people,0.9803828001022339
,festival,0.9705272912979126
,many,0.9572439193725586
,group,0.9511674046516418
,woman,0.9479869604110718
,fun,0.9295733571052551
,recreation,0.9189248085021973
,music,0.9154037237167358
,enjoyment,0.9149779081344604
,performance,0.8889650702476501
,crowd,0.8751903772354126
,competition,0.873504638671875
,wear,0.8634463548660278
,portrait,0.8537519574165344
,athlete,0.8351840972900391
,energy,0.8297224640846252
,concert,0.8130221366882324
,adult,0.8116058111190796
,dancing,0.7841156721115112
https://scontent-sit4-1.cdninstagram.com/t51.2885-15/e35/13573486_190957301306751_949173342_n.jpg,athlete,0.9951925873756409
,competition,0.986640989780426
,people,0.9729800820350647
,group,0.9725788831710815
,adult,0.9724693894386292
,woman,0.9642269015312195
,school,0.943282961845398
,exercise,0.9304399490356445
,track and field,0.9276307225227356
,fitness,0.9219356775283813
,man,0.9200962781906128
,energy,0.902606725692749
,runner,0.8954516649246216
,motion,0.8933765292167664
,many,0.8918924927711487
,sport,0.8903902769088745
,train,0.868401050567627
,university,0.8647898435592651
,class,0.8594427108764648
,squad,0.8573776483535767
https://scontent-sit4-1.cdninstagram.com/t51.2885-15/e35/13473283_1758883077667723_1130166557_n.jpg,people,0.9963843822479248
,group,0.9912301301956177
,competition,0.9903828501701355
,woman,0.9790717363357544
,recreation,0.9773426055908203
,man,0.9719353914260864
,athlete,0.9712543487548828
,adult,0.9692660570144653
,swimming,0.951276957988739
,many,0.9468101859092712
,leisure,0.9311162233352661
,swimming pool,0.9280914068222046
,enjoyment,0.9234654307365417
,group,0.9202927350997925
,school,0.9172403812408447
,game,0.916110634803772
,stadium,0.9107373952865601
,pool,0.9093410968780518
,track and field,0.8897912502288818
,ball,0.8888088464736938
https://scontent-sit4-1.cdninstagram.com/t51.2885-15/e35/13584310_1775071059403538_162177319_n.jpg,athlete,0.9941904544830322
,competition,0.9879017472267151
,people,0.9758397340774536
,adult,0.9610292911529541
,woman,0.9597032070159912
,exercise,0.9531542658805847
,group,0.943995475769043
,fitness,0.9347519874572754
,school,0.9205725193023682
,track and field,0.91935133934021
,energy,0.9104924201965332
,recreation,0.9050904512405396
,sport,0.8935489654541016
,man,0.8861472606658936
,motion,0.8702741861343384
,wear,0.866385281085968
,university,0.8572299480438232
,train,0.849522590637207
,runner,0.8488457202911377
,group,0.8449650406837463
https://scontent-sit4-1.cdninstagram.com/t51.2885-15/e35/13573479_644524712381162_1238282108_n.jpg,pool,0.9998087882995605
,swimming,0.999785840511322
,water,0.9996793270111084
,swimming pool,0.9984207153320312
,swimmer,0.9983807802200317
,leisure,0.997660219669342
,goggles,0.9955443143844604
,recreation,0.9940217733383179
,resort,0.9893039464950562
,wet,0.9876365661621094
,summer,0.9857568740844727
,vacation,0.9841544032096863
,poolside,0.9741330146789551
,bikini,0.9723619222640991
,tan,0.9690383672714233
,swimsuit,0.9673304557800293
,diving,0.9642156362533569
,fun,0.9642012715339661
,water sports,0.9539594650268555
,travel,0.9392077922821045
https://scontent-sit4-1.cdninstagram.com/t51.2885-15/s750x750/sh0.08/e35/13573633_989130721204503_482799037_n.jpg,athlete,0.9830996990203857
,sport,0.9802097678184509
,competition,0.9774984121322632
,active,0.9388798475265503
,gymnastics,0.9335408210754395
,woman,0.9334743022918701
,populace,0.9108440279960632
,International,0.9031258821487427
,people,0.9029789566993713
,championship,0.8924857378005981
,body,0.8792685866355896
,adult,0.8787851333618164
,champion,0.8787726759910583
,recreation,0.871009886264801
,victory,0.8696843385696411
,flag,0.868537187576294
,event,0.8652125597000122
,action,0.8622568845748901
,exercise,0.8460136651992798
,man,0.83758544921875
https://scontent-sit4-1.cdninstagram.com/t51.2885-15/e35/13561808_1767993783413441_1890255887_n.jpg,swimming,0.9995110630989075
,pool,0.9994561672210693
,water,0.9987035393714905
,swimmer,0.9977162480354309
,swimming pool,0.9927699565887451
,recreation,0.9902886152267456
,leisure,0.9865913391113281
,resort,0.9827905297279358
,people,0.9776211977005005
,goggles,0.9764893651008606
,wet,0.9732387065887451
,travel,0.9651633501052856
,poolside,0.9587005376815796
,vacation,0.9561750888824463
,sea,0.9364845752716064
,water sports,0.9316107034683228
,fun,0.9193575382232666
,sport,0.9137144088745117
,child,0.9040987491607666
,group,0.8836354613304138
