url,class,score
https://scontent.cdninstagram.com/t51.2885-15/e35/13381395_487639754764518_133414342_n.jpg,woman,0.977778316
,people,0.97684586
,portrait,0.968735039
,togetherness,0.948056698
,two,0.945362389
,man,0.937256813
,child,0.930687904
,girl,0.920526743
,outdoors,0.914938211
,love,0.892519236
,group,0.884234846
,adult,0.883826017
,happiness,0.882390141
,friendship,0.868748903
,education,0.86827457
,family,0.861142337
,facial expression,0.855996728
,adolescent,0.851144671
,school,0.848398268
,fun,0.845802844
https://scontent.cdninstagram.com/t51.2885-15/e35/13557167_957304474378962_840626660_n.jpg,dog,0.994285583
,friendship,0.987310648
,cute,0.984749317
,fun,0.982555747
,sunglasses,0.974444211
,love,0.973492742
,animal,0.966330469
,puppy,0.96281302
,canine,0.958501577
,pet,0.948621631
,young,0.946944952
,funny,0.944912672
,little,0.922349572
,grass,0.904527187
,portrait,0.902682781
,fur,0.899533689
,togetherness,0.891232252
,summer,0.879307628
,looking,0.859286666
,humor,0.857577324
https://scontent.cdninstagram.com/t51.2885-15/e35/13473246_1139625969435601_824527708_n.jpg,rose,0.999669254
,bouquet,0.999510407
,flower,0.999132812
,wedding,0.998163879
,floral,0.996925414
,arrangement,0.996785998
,bride,0.995064616
,cluster,0.994074047
,love,0.99335593
,florist,0.992802739
,flora,0.992043495
,romance,0.991966844
,petal,0.99175334
,bridal,0.989836156
,gift,0.989488363
,marriage,0.988423765
,blooming,0.982190549
,decoration,0.981984735
,engagement,0.978148401
,celebration,0.965236604
https://scontent.cdninstagram.com/t51.2885-15/e35/13398753_1790052437893688_1499143224_n.jpg,woman,0.990089715
,fashion,0.966676235
,people,0.958887935
,girl,0.953948498
,pretty,0.95008111
,portrait,0.945311904
,indoors,0.944912672
,kimono,0.928710461
,cute,0.89374429
,adolescent,0.88471359
,college,0.882953823
,young,0.87600702
,model,0.856619716
,beautiful,0.84824419
,geisha,0.847019017
,one,0.836348891
,outdoors,0.829488635
,child,0.820131063
,hair,0.815122008
,serious,0.812315464
https://scontent.cdninstagram.com/t51.2885-15/e35/13381177_710092912462348_1569555052_n.jpg,education,0.953725874
,science,0.937968493
,people,0.936773598
,wear,0.932299614
,portrait,0.925630689
,woman,0.92424643
,school,0.910475254
,one,0.90986073
,business,0.904201388
,adult,0.889671385
,display,0.888155222
,intelligence,0.887059927
,writing,0.874052048
,girl,0.855214596
,retro,0.836861253
,indoors,0.822021842
,facial expression,0.820764184
,technology,0.820637405
,fashion,0.817131162
,chalk,0.81293112
https://scontent.cdninstagram.com/t51.2885-15/e35/13531891_1700223693572892_1344465850_n.jpg,nature,0.993474603
,food,0.992777348
,fruit,0.992015541
,flora,0.98878181
,agriculture,0.985515058
,grow,0.983604908
,garden,0.981972098
,tropical,0.978853703
,no person,0.975594521
,leaf,0.974227846
,plantation,0.972693086
,tree,0.970312595
,vegetable,0.963890135
,growth,0.961945057
,hanging,0.958973289
,farm,0.958183646
,exotic,0.953319252
,color,0.951990366
,outdoors,0.946643114
,growth,0.938580453
https://scontent.cdninstagram.com/t51.2885-15/e35/13398562_956841841081724_203846969_n.jpg,graduation,0.987154007
,woman,0.966454387
,college,0.961344898
,diploma,0.95908308
,business,0.955808043
,accomplishment,0.954067349
,fashion,0.953528345
,success,0.950921655
,university,0.950459123
,outdoors,0.934653163
,education,0.932739258
,gown,0.929627299
,mortarboard,0.928640604
,success,0.928536534
,people,0.925791562
,indoors,0.910825968
,young,0.895646453
,pretty,0.89134872
,contemporary,0.876909375
,intelligence,0.875795364
https://scontent.cdninstagram.com/t51.2885-15/e35/13395077_212294579169488_1618343462_n.jpg,classroom,0.999011278
,school,0.998766661
,chalkboard,0.998424649
,class,0.9975245
,education,0.997011065
,chalk,0.99522543
,lesson,0.988304496
,mathematics,0.983161926
,schoolgirl,0.982526779
,elementary school,0.981168628
,teacher,0.977231145
,knowledge,0.967302024
,display,0.961082578
,elementary,0.946154118
,study,0.944676042
,college,0.939369559
,people,0.92915833
,writing,0.923079252
,indoors,0.913403392
,science,0.912474632
https://scontent.cdninstagram.com/t51.2885-15/e35/13414191_1798101600418621_968177223_n.jpg,business,0.972305536
,office,0.959846973
,desktop,0.953296781
,people,0.950308681
,one,0.937582016
,employee,0.936010599
,adult,0.931964278
,corporate,0.906542897
,building,0.900773525
,young,0.89372468
,paper,0.889456034
,person,0.885957718
,woman,0.881405532
,girl,0.87666738
,beautiful,0.85926044
,portrait,0.852113843
,outdoors,0.850497365
,sitting,0.812767386
,sit,0.809314251
,suit,0.803218484
https://scontent.cdninstagram.com/t51.2885-15/e35/13320019_625710460925854_1602487065_n.jpg,people,0.967466414
,woman,0.949619532
,portrait,0.943790436
,adult,0.939729095
,one,0.933249116
,building,0.929390252
,business,0.923901439
,outdoors,0.917985559
,architecture,0.913467407
,indoors,0.910037935
,girl,0.90914607
,man,0.902421534
,city,0.898209751
,university,0.895359755
,wear,0.882310212
,urban,0.871377587
,school,0.868908405
,education,0.860260129
,expression,0.833286524
,office,0.821457148
https://scontent.cdninstagram.com/t51.2885-15/e35/13380988_968561603265249_336571161_n.jpg,woman,0.987802982
,portrait,0.969937146
,fashion,0.968237281
,people,0.961907268
,girl,0.940755725
,kimono,0.925373733
,wear,0.920974433
,indoors,0.919012606
,geisha,0.916600347
,adult,0.898085296
,facial expression,0.894747853
,outdoors,0.891754568
,model,0.880084336
,one,0.873646617
,school,0.865785599
,window,0.865278006
,pretty,0.85964793
,daylight,0.855738163
,education,0.851333737
,adolescent,0.849121213
https://scontent.cdninstagram.com/t51.2885-15/e35/13402758_864233763722472_1743417195_n.jpg,people,0.979735851
,portrait,0.976051152
,one,0.970148623
,adult,0.960609674
,man,0.955608606
,fashion,0.946139216
,woman,0.939841032
,girl,0.930380464
,wear,0.922099471
,outdoors,0.911686838
,sky,0.86547482
,young,0.864934206
,model,0.862478495
,face,0.82027781
,looking,0.804426432
,person,0.791328669
,side view,0.784985304
,adolescent,0.783432484
,business,0.781157255
,sexy,0.768835187
https://scontent.cdninstagram.com/t51.2885-15/e35/13397704_303670876632361_1920194497_n.jpg,woman,0.979082346
,people,0.955434084
,business,0.945397496
,adult,0.933556378
,man,0.925395787
,wear,0.91709125
,accomplishment,0.879245281
,interaction,0.870160162
,two,0.866589427
,cooperation,0.864421606
,education,0.862068355
,office,0.861308455
,looking,0.858711839
,confidence,0.854477286
,indoors,0.854466915
,facial expression,0.839535236
,employee,0.836403012
,portrait,0.820743203
,teamwork,0.81707406
,group,0.810506821
https://scontent.cdninstagram.com/t51.2885-15/e35/13398934_1799453823611542_1864863994_n.jpg,people,0.990585804
,adult,0.981228054
,portrait,0.977131188
,girl,0.970760942
,woman,0.970198929
,one,0.966847777
,business,0.950858951
,city,0.945052028
,daylight,0.938921392
,facial expression,0.936361909
,wear,0.934983671
,building,0.930331111
,bridge,0.923516154
,architecture,0.922708869
,sky,0.921811581
,travel,0.921771169
,window,0.915674925
,lifestyle,0.914552629
,telephone,0.913344979
,outdoors,0.89938581
https://scontent.cdninstagram.com/t51.2885-15/e35/13402458_578063789022242_145773659_n.jpg,dairy product,0.985603929
,no person,0.973056138
,food,0.962647676
,table,0.959666371
,fruit,0.948626399
,indoors,0.942803025
,chocolate,0.938319147
,ice,0.935339093
,cream,0.93086648
,sweet,0.91440624
,party,0.914019406
,furniture,0.909535766
,drink,0.888405204
,cup,0.883843422
,interior design,0.879929185
,two,0.868082762
,still life,0.864426374
,tableware,0.863998413
,one,0.852807879
,decoration,0.832169831
https://scontent.cdninstagram.com/t51.2885-15/e35/13380923_596299650547891_1876613676_n.jpg,people,0.992678225
,adult,0.975399256
,business,0.971066415
,building,0.959183693
,city,0.957932055
,competition,0.95747292
,one,0.953824401
,man,0.945226789
,recreation,0.943400621
,action,0.942348301
,daylight,0.939589739
,outdoors,0.938648283
,street,0.936424434
,woman,0.920726418
,urban,0.913382769
,architecture,0.909193397
,landscape,0.904115677
,travel,0.886366129
,motion,0.885176957
,office,0.871063828
https://scontent.cdninstagram.com/t51.2885-15/e35/13388694_147468592329383_901893715_n.jpg,people,0.977869868
,woman,0.974329233
,one,0.966672897
,adult,0.956874728
,wear,0.954760432
,indoors,0.942959547
,business,0.94254601
,fashion,0.937767148
,portrait,0.936272264
,girl,0.907146215
,young,0.905502439
,music,0.873233795
,education,0.860746324
,room,0.839108884
,facial expression,0.8390522
,pretty,0.826527834
,cute,0.825401425
,adolescent,0.822952151
,telephone,0.817834258
,looking,0.814077973
https://scontent.cdninstagram.com/t51.2885-15/e35/13413437_1588552084777580_1613807950_n.jpg,group,0.991368532
,child,0.970422804
,man,0.969429255
,woman,0.967094779
,adult,0.955392897
,group,0.947383523
,people,0.945793688
,fun,0.94288075
,togetherness,0.938493967
,office,0.93459034
,education,0.928763986
,three,0.928621173
,young,0.925647259
,friendship,0.913652301
,lifestyle,0.905988812
,family,0.902569175
,school,0.900956094
,facial expression,0.900653422
,four,0.898190498
,room,0.898085117
https://scontent.cdninstagram.com/t51.2885-15/e35/13398362_1723085354628685_533672804_n.jpg,people,0.993380547
,business,0.983569801
,adult,0.980224967
,man,0.978821635
,one,0.966220975
,office,0.949306369
,building,0.946508288
,portrait,0.941402674
,finance,0.922885299
,city,0.905050874
,daylight,0.896933138
,wear,0.888425469
,competition,0.882670283
,ambition,0.873820245
,outdoors,0.866024613
,action,0.859831452
,landscape,0.849837124
,leader,0.844367862
,light,0.833280981
,woman,0.829718947
https://scontent.cdninstagram.com/t51.2885-15/e35/13414172_289421941406008_1791738867_n.jpg,adult,0.986578584
,woman,0.982825398
,group,0.970346272
,room,0.96977973
,people,0.967683792
,office,0.966778398
,facial expression,0.966776967
,business,0.965271831
,employee,0.952289522
,man,0.944826484
,education,0.940663457
,indoors,0.940130711
,league,0.934411108
,two,0.934052587
,teamwork,0.932045579
,togetherness,0.924678326
,portrait,0.913975835
,happiness,0.903814554
,wear,0.899136305
,cooperation,0.890473306
https://scontent.cdninstagram.com/t51.2885-15/e35/13422954_491272451069316_1546481280_n.jpg,man,0.98481214
,group,0.980204463
,adult,0.978794098
,office,0.97353363
,woman,0.971734524
,employee,0.966110945
,people,0.958303511
,sitting,0.939597368
,desk,0.936266422
,business,0.936263084
,room,0.931224942
,table,0.92728889
,education,0.919897139
,furniture,0.91534245
,indoors,0.911895037
,corporate,0.902760446
,teamwork,0.89633745
,work,0.883990645
,classroom,0.872712553
,executive,0.863940477
https://scontent.cdninstagram.com/t51.2885-15/e35/13437403_522925584575722_216775761_n.jpg,woman,0.980715036
,people,0.979814291
,group,0.978581488
,portrait,0.970806122
,outdoors,0.968064308
,happiness,0.961200714
,facial expression,0.955322146
,man,0.949174702
,adult,0.941244245
,togetherness,0.939525366
,family,0.935100913
,friendship,0.926882505
,girl,0.926396251
,wear,0.915239096
,child,0.912560225
,fun,0.904175699
,school,0.901361942
,enjoyment,0.894402027
,lifestyle,0.892535925
,adolescent,0.871932626
https://scontent.cdninstagram.com/t51.2885-15/e35/13423007_830002110434342_1907228_n.jpg,woman,0.98750937
,pretty,0.929267287
,people,0.9270913
,togetherness,0.927041948
,outdoors,0.926081359
,fun,0.91772902
,love,0.915881574
,adolescent,0.910802722
,cute,0.910030007
,joy,0.908046126
,fashion,0.902910709
,summer,0.879541099
,nature,0.875416994
,child,0.866871774
,vertical,0.864004135
,portrait,0.860346079
,young,0.859699726
,casual,0.854040861
,enjoyment,0.847567976
,girl,0.840986967
https://scontent.cdninstagram.com/t51.2885-15/e35/13385846_1019495194766338_1753187429_n.jpg,indoors,0.996977091
,safety,0.981544137
,people,0.979611814
,vehicle,0.965472043
,wear,0.961815417
,one,0.953604102
,woman,0.951339722
,room,0.940923035
,adult,0.938981891
,portrait,0.932251692
,family,0.926939487
,man,0.9179492
,security,0.915704548
,industry,0.913796782
,transportation system,0.902615309
,light,0.901427448
,winter,0.894754767
,car,0.893829048
,security,0.893451691
,box,0.879262865
https://scontent.cdninstagram.com/l/t51.2885-15/e35/13355521_1738473153036155_893606814_n.jpg,no person,0.988528371
,wood,0.98558116
,drink,0.978392959
,food,0.976390004
,bottle,0.945582747
,wooden,0.94026351
,health,0.938877106
,indoors,0.938139796
,family,0.930155039
,coffee,0.928487718
,color,0.926546693
,breakfast,0.910435557
,traditional,0.906435311
,table,0.892495751
,container,0.852449298
,healthy,0.845535874
,cup,0.843318582
,medicine,0.834903359
,dawn,0.829359293
,delicious,0.818454683
https://scontent.cdninstagram.com/t51.2885-15/sh0.08/e35/p750x750/13414268_975338999230502_1964508221_n.jpg,woman,0.98869276
,man,0.95775032
,people,0.957626581
,two,0.953447342
,fashion,0.917271376
,adult,0.913079023
,wear,0.911892653
,looking,0.883876324
,portrait,0.877025247
,young,0.861719251
,education,0.839476824
,girl,0.832343459
,togetherness,0.832037389
,business,0.830768943
,group,0.802610934
,outdoors,0.785990953
,casual,0.780082822
,contemporary,0.778080165
,lifestyle,0.771573305
,adolescent,0.761326551
https://scontent.cdninstagram.com/t51.2885-15/e35/13388746_1719230021664417_317154708_n.jpg,people,0.979365468
,graffiti,0.974443078
,woman,0.950913429
,adult,0.945462465
,painting,0.919472992
,one,0.893522441
,wall,0.8886168
,art,0.87920171
,creativity,0.866030216
,flower,0.861035466
,outdoors,0.846912742
,business,0.845614135
,portrait,0.841949224
,text,0.834078312
,man,0.832137585
,festival,0.8279531
,sign,0.82386899
,girl,0.811872602
,culture,0.80635649
,urban,0.804936051
https://scontent.cdninstagram.com/t51.2885-15/e35/13422874_1733638663585279_704244626_n.jpg,group,0.991448641
,woman,0.988655567
,adult,0.983242154
,man,0.975459218
,education,0.975041628
,room,0.965176105
,classroom,0.956690788
,togetherness,0.95532161
,desk,0.953940392
,indoors,0.950602889
,office,0.942760944
,furniture,0.941408753
,people,0.941281736
,teamwork,0.937314153
,facial expression,0.936672568
,table,0.935252905
,school,0.921460748
,child,0.917198062
,sitting,0.912628591
,class,0.910985708
https://scontent.cdninstagram.com/t51.2885-15/e35/13385892_1611765742471232_1783896794_n.jpg,woman,0.98787415
,fashion,0.985236764
,indoors,0.970413864
,portrait,0.968855381
,girl,0.966966152
,one,0.961128473
,people,0.942971528
,adult,0.937492132
,wear,0.923377454
,pretty,0.921049535
,young,0.916189611
,dress,0.903562784
,shopping,0.902114034
,trendy,0.897144556
,contemporary,0.888697624
,model,0.880908966
,glamour,0.87780261
,fun,0.875486255
,sexy,0.856972098
,beautiful,0.848620057
https://scontent.cdninstagram.com/t51.2885-15/e35/13408781_877714152337938_20792320_n.jpg,travel,0.992745519
,water,0.992114902
,evening,0.989495635
,city,0.981316984
,no person,0.968253493
,river,0.964158714
,dusk,0.963337541
,transportation system,0.962638617
,light,0.957109571
,harbor,0.949548125
,illuminated,0.948607326
,building,0.947270751
,waterfront,0.947213054
,architecture,0.942724228
,sea,0.939069867
,urban,0.933928013
,sky,0.932595253
,reflection,0.923726916
,cityscape,0.921040118
,outdoors,0.916049838
https://scontent.cdninstagram.com/t51.2885-15/e35/13381312_1726638994273856_753642419_n.jpg,woman,0.98339045
,adolescent,0.979937196
,child,0.978589296
,friendship,0.97422719
,student,0.971031785
,man,0.955541611
,togetherness,0.955236554
,education,0.935604334
,school,0.928378344
,fun,0.923132539
,college,0.919654012
,group,0.906136394
,people,0.890970349
,casual,0.880602002
,laughing,0.871506393
,looking,0.862395644
,elementary school,0.844162822
,joy,0.833745897
,love,0.822496712
,teamwork,0.818401098
https://scontent.cdninstagram.com/t51.2885-15/s640x640/e15/13329150_1083696811710586_1243974424_n.jpg,city,0.992912054
,water,0.9917081
,evening,0.990073442
,travel,0.987166047
,river,0.982284307
,urban,0.970777631
,bridge,0.970324516
,light,0.966934502
,cityscape,0.965558648
,building,0.961179495
,waterfront,0.959653139
,opera,0.958307266
,no person,0.957519054
,reflection,0.955481648
,architecture,0.952576995
,festival,0.940434456
,harbor,0.934086323
,hotel,0.933706522
,sky,0.932673275
,dusk,0.931039691
https://scontent.cdninstagram.com/t51.2885-15/e35/13402143_1796944553872074_1369821709_n.jpg,water,0.992696822
,woman,0.985296369
,girl,0.980457306
,summer,0.9779284
,water,0.970623195
,sea,0.969117522
,beach,0.953212619
,beautiful,0.951987386
,travel,0.950190187
,nature,0.948121548
,model,0.94619453
,pool,0.940960824
,sexy,0.938782454
,ocean,0.93585968
,relaxation,0.924625039
,portrait,0.922776282
,fashion,0.919242322
,young,0.915396571
,leisure,0.911627054
,people,0.905428648
https://scontent.cdninstagram.com/t51.2885-15/e35/13437234_1645398575782156_2140423060_n.jpg,street,0.988622546
,shopping,0.985328197
,people,0.954888821
,city,0.944635332
,urban,0.937764466
,road,0.93707037
,man,0.888216019
,vehicle,0.864669263
,pavement,0.849633574
,woman,0.848760188
,commerce,0.828025579
,outdoors,0.827208638
,fashion,0.82542336
,luggage,0.81629324
,offense,0.813042045
,market,0.81270802
,one,0.791338563
,cart,0.790116489
,portrait,0.779400945
,shop,0.776366949
https://scontent.cdninstagram.com/t51.2885-15/e35/13392734_887758371330756_590002843_n.jpg,food,0.997805834
,beer,0.995188773
,drink,0.99006331
,knife,0.987898707
,table,0.986852884
,restaurant,0.981171966
,meal,0.97744441
,people,0.974551797
,no person,0.969448328
,plate,0.953494668
,dinner,0.949128926
,tableware,0.948466778
,glass,0.947420597
,man,0.937727869
,indoors,0.934481978
,lunch,0.930283546
,breakfast,0.923187375
,bar,0.92032218
,fork,0.919643581
,adult,0.918241024
https://scontent.cdninstagram.com/t51.2885-15/e35/13408941_543784519132005_1974477920_n.jpg,woman,0.9822101
,fashion,0.96682179
,girl,0.966820598
,people,0.950604439
,beautiful,0.943494022
,young,0.915143013
,one,0.904411435
,dress,0.894427598
,summer,0.883324265
,hair,0.878728986
,wind,0.876881301
,adult,0.874097943
,festival,0.865436435
,face,0.863809884
,portrait,0.860811353
,outdoors,0.850166082
,desktop,0.838725328
,pretty,0.834453583
,style,0.831950188
,person,0.825664818
https://scontent.cdninstagram.com/t51.2885-15/e35/13402222_1102593549820708_651675801_n.jpg,woman,0.996817827
,travel,0.994828463
,girl,0.987387419
,summer,0.985443354
,people,0.985421121
,sky,0.979131341
,water,0.976552367
,outdoors,0.9755615
,nature,0.964153528
,beautiful,0.953857422
,window,0.952866256
,portrait,0.951374531
,one,0.949872792
,vacation,0.947869956
,young,0.947174847
,leisure,0.946089149
,train,0.945386171
,pretty,0.93777132
,city,0.930099487
,fashion,0.927667141
https://scontent.cdninstagram.com/t51.2885-15/e35/13402636_1648377742152965_1234935056_n.jpg,no person,0.988786221
,food,0.973902047
,delicious,0.969761133
,health,0.934548855
,breakfast,0.930615008
,nutrition,0.926897824
,wood,0.916681945
,cooking,0.90930891
,traditional,0.906230032
,homemade,0.895407319
,baking,0.891334891
,ingredients,0.887305498
,dinner,0.883886695
,sugar,0.862886965
,bread,0.852816522
,butter,0.849475622
,lunch,0.84243083
,sweet,0.838074327
,cuisine,0.836444497
,vegetable,0.810585618
https://scontent.cdninstagram.com/t51.2885-15/e35/13381345_1620654494917815_679373757_n.jpg,festival,0.997022688
,city,0.994542837
,light,0.99418354
,evening,0.989579201
,building,0.979997277
,road,0.975444198
,street,0.973344803
,skyscraper,0.961614728
,urban,0.954441309
,travel,0.949752629
,cityscape,0.947509527
,motion,0.94199121
,action,0.935143232
,hotel,0.935131073
,downtown,0.926368058
,blur,0.924110889
,business,0.923976183
,bridge,0.91481328
,dusk,0.912498713
,architecture,0.91107887
https://scontent.cdninstagram.com/t51.2885-15/e35/13414326_1056883101034307_262697884_n.jpg,travel,0.995727658
,woman,0.995671391
,summer,0.991404891
,girl,0.987193227
,beach,0.985970497
,sky,0.982110739
,water,0.979465961
,sea,0.974219203
,fashion,0.960199416
,window,0.957387567
,vacation,0.955858588
,nature,0.955606282
,people,0.954847634
,train,0.944787204
,sexy,0.939264596
,sun,0.935469151
,portrait,0.934318721
,model,0.934188008
,ocean,0.930698872
,outdoors,0.929546952
https://scontent.cdninstagram.com/t51.2885-15/e35/13355495_1791910814374336_520007323_n.jpg,city,0.989566565
,architecture,0.985635519
,skyline,0.981276691
,building,0.979747176
,cityscape,0.974743128
,travel,0.973983288
,sky,0.971819103
,skyscraper,0.971689701
,downtown,0.971023798
,business,0.969771266
,urban,0.968976617
,modern,0.958687425
,water,0.947402954
,dusk,0.946677387
,no person,0.944620252
,bridge,0.932751656
,tower,0.929090142
,office,0.924955189
,pollution,0.92350316
,river,0.898406088
https://scontent.cdninstagram.com/t51.2885-15/e35/13402626_660411384116912_179456642_n.jpg,portrait,0.983795047
,woman,0.981577754
,people,0.980135679
,girl,0.975447893
,adult,0.968093276
,one,0.953603029
,beautiful,0.909646571
,fashion,0.89372617
,face,0.88321203
,wear,0.880475342
,facial expression,0.852948546
,young,0.851864636
,model,0.851127505
,music,0.85095787
,profile,0.846107244
,man,0.840386569
,brunette,0.838212132
,smile,0.826079726
,happiness,0.804710686
,person,0.79288578
https://scontent.cdninstagram.com/t51.2885-15/e35/13398877_104431669984823_787731623_n.jpg,tube,0.997591376
,airport,0.990655184
,people,0.989164829
,city,0.986497879
,street,0.985882163
,urban,0.966270089
,commuter,0.95884788
,train,0.95875001
,transportation system,0.953261495
,railway,0.952148616
,reflection,0.951610446
,escalator,0.947380424
,vehicle,0.943577647
,woman,0.939448118
,adult,0.938045144
,one,0.935066938
,luggage,0.93274039
,train,0.931522727
,departure,0.93144238
,portrait,0.924040914
https://scontent.cdninstagram.com/t51.2885-15/e35/13381066_124334707989491_904852985_n.jpg,child,0.994058847
,toy,0.981707096
,people,0.978802145
,mammal,0.948854208
,boy,0.94599843
,cute,0.935773373
,group,0.935121894
,teddy,0.906614065
,indoors,0.89831984
,no person,0.898138404
,baby,0.897889733
,dog,0.894990206
,family,0.885804176
,facial expression,0.88526696
,girl,0.881270945
,little,0.880171657
,doll,0.874970913
,wear,0.873593688
,one,0.865856767
,fun,0.865825355
https://scontent.cdninstagram.com/t51.2885-15/e35/13381358_1005440232865480_1268678842_n.jpg,water,0.989001513
,woman,0.985049129
,summer,0.980967045
,outdoors,0.980649471
,relaxation,0.976928592
,leisure,0.976284742
,travel,0.972290397
,recreation,0.963085055
,people,0.958476067
,beach,0.948531032
,nature,0.947737634
,fair weather,0.936763108
,enjoyment,0.932913303
,sky,0.932552516
,yoga,0.905135036
,one,0.900683284
,portrait,0.899820805
,sea,0.899261475
,health,0.885952711
,tropical,0.880887032
https://scontent.cdninstagram.com/t51.2885-15/e35/13423601_612920655532106_1886880294_n.jpg,water,0.991362333
,woman,0.984180689
,people,0.974787116
,girl,0.974093437
,travel,0.971856415
,portrait,0.968553066
,summer,0.935169399
,one,0.927801251
,outdoors,0.925725102
,fashion,0.921833038
,sea,0.920773268
,beach,0.909138203
,leisure,0.898363233
,adult,0.895328641
,recreation,0.894350886
,sky,0.885593891
,sun,0.876106024
,city,0.875383973
,sunset,0.874726653
,fun,0.869844913
https://scontent.cdninstagram.com/t51.2885-15/e35/13397563_573185462852399_1165470215_n.jpg,drink,0.99075532
,glass,0.964006424
,food,0.95187676
,milk,0.948454142
,refreshment,0.922666073
,cold,0.922609091
,ice,0.919439852
,cup,0.912229657
,fruit,0.902277827
,sweet,0.899811029
,tea,0.890325308
,cocktail,0.888863981
,breakfast,0.886606455
,straw,0.874064326
,vertical,0.873043597
,summer,0.864516497
,table,0.863594174
,color,0.855645299
,indoors,0.853066564
,bar,0.851265073
https://scontent.cdninstagram.com/t51.2885-15/e35/13408815_1797842467101469_534080479_n.jpg,woman,0.979945481
,people,0.963137627
,education,0.937177539
,one,0.926305652
,indoors,0.914835036
,adolescent,0.912388921
,young,0.903683662
,fashion,0.898827434
,school,0.893314362
,portrait,0.892688513
,adult,0.886041403
,pretty,0.884672403
,business,0.873689294
,wear,0.872153163
,cute,0.865250587
,girl,0.854366183
,isolated,0.840603352
,success,0.832968414
,joy,0.826514602
,intelligence,0.824763477
https://scontent.cdninstagram.com/t51.2885-15/e35/13355505_478581629004521_268206101_n.jpg,fountain,0.998968363
,city,0.997134566
,water,0.996858239
,downtown,0.992807865
,business,0.992265224
,skyscraper,0.992214084
,architecture,0.990545392
,travel,0.989766717
,cityscape,0.987839937
,urban,0.983534634
,building,0.982247949
,river,0.981972992
,skyline,0.978050947
,hotel,0.974709332
,modern,0.96694386
,street,0.96406424
,office,0.959574819
,finance,0.955680549
,casino,0.955299616
,park,0.955073953
https://scontent.cdninstagram.com/t51.2885-15/e35/13422881_1095181093862169_1358649756_n.jpg,no person,0.985612869
,wood,0.983785748
,drink,0.982252598
,food,0.97626245
,coffee,0.941944003
,family,0.940011501
,indoors,0.937897325
,wooden,0.937298179
,bottle,0.935444593
,color,0.928094625
,health,0.916199684
,breakfast,0.912114859
,traditional,0.904824972
,table,0.904244304
,cup,0.889676511
,container,0.848156035
,dawn,0.844103217
,tea,0.842894435
,healthy,0.832430899
,ceramic,0.827954769
https://scontent.cdninstagram.com/t51.2885-15/e35/13408863_1637584383232573_1260370762_n.jpg,travel,0.982729673
,vacation,0.968693316
,no person,0.966960132
,fun,0.94833988
,traditional,0.947336078
,summer,0.946150899
,sky,0.920457721
,tourism,0.916431189
,design,0.914351106
,outdoors,0.907793403
,hotel,0.907184601
,luxury,0.901709437
,decoration,0.889730275
,water,0.886941254
,leisure,0.881063938
,architecture,0.876810551
,symbol,0.876425087
,gold,0.863498211
,ball,0.85027194
,casino,0.848985612
https://scontent.cdninstagram.com/t51.2885-15/s640x640/e15/13413493_887833404660796_1091877_n.jpg,watercraft,0.997509122
,water,0.995360494
,ship,0.992636919
,transportation system,0.991759539
,no person,0.986217856
,harbor,0.983409047
,travel,0.980296254
,river,0.978787303
,sea,0.975244999
,boat,0.969480813
,vehicle,0.958230138
,pier,0.95105803
,sky,0.950212836
,shipment,0.916471958
,barge,0.910603046
,port,0.896689951
,ferry,0.892807424
,outdoors,0.884321451
,waterfront,0.880418122
,bay,0.877764881
https://scontent.cdninstagram.com/t51.2885-15/e35/13422898_253777078323721_1136748751_n.jpg,people,0.987251163
,woman,0.971507072
,one,0.968896508
,travel,0.968004227
,adult,0.967333078
,music,0.928208709
,light,0.914776206
,wear,0.909786284
,business,0.892213941
,luxury,0.887418032
,industry,0.883402109
,vehicle,0.881988287
,technology,0.870774984
,transportation system,0.854352593
,indoors,0.850171506
,man,0.844483614
,girl,0.839770198
,recreation,0.822661161
,fashion,0.818269849
,portrait,0.81596148
https://scontent.cdninstagram.com/t51.2885-15/e35/13408947_520510161466441_610411273_n.jpg,city,0.989160657
,architecture,0.985376894
,water,0.980830193
,travel,0.96924758
,no person,0.968897402
,sky,0.950382829
,landscape,0.949655652
,skyline,0.948533773
,building,0.946094751
,cityscape,0.946089149
,urban,0.936651886
,outdoors,0.919557929
,sea,0.910138905
,seashore,0.907050192
,town,0.880950034
,hotel,0.875523865
,sight,0.871938527
,river,0.871760726
,ocean,0.85020709
,skyscraper,0.848677218
