url,class,score,,,,,,,,
https://scontent.cdninstagram.com/t51.2885-15/e35/11264876_1150127531672047_30857837_n.jpg,concert,0.9968173503875732,Entertainment,,,,Concerts,,,
,festival,0.9936132431030273,,,,,,,,
,performance,0.9927291870117188,,,,,,,,
,music,0.9919947981834412,,,,,,,,
,stage,0.9720436334609985,,,,,,,,
,light,0.9593698978424072,,,,,,,,
,energy,0.9546728134155273,,,,,,,,
,audience,0.9429125785827637,,,,,,,,
,fireworks,0.9372267127037048,,,,,,,,
,musician,0.9370803236961365,,,,,,,,
,singer,0.9370455741882324,,,,,,,,
,band,0.9273498058319092,,,,,,,,
,flame,0.9255912899971008,,,,,,,,
,motion,0.9096188545227051,,,,,,,,
,celebration,0.892601728439331,,,,,,,,
,explosion,0.8826771974563599,,,,,,,,
,party,0.8441334962844849,,,,,,,,
,calamity,0.833662748336792,,,,,,,,
,city,0.8288148641586304,,,,,,,,
,venue,0.8134946823120117,,,,,,,,
https://scontent.cdninstagram.com/t51.2885-15/e35/12135325_1166630263350704_178218889_n.jpg,conceptual,0.9225022792816162,Commerce,,,,"Product/brand shots",,,
,business,0.9211368560791016,,,,,,,,
,woman,0.9077773690223694,,,,,,,,
,paper,0.8960156440734863,,,,,,,,
,"no person",0.8823825120925903,,,,,,,,
,people,0.8614365458488464,,,,,,,,
,generosity,0.839845597743988,,,,,,,,
,success,0.8370110392570496,,,,,,,,
,hand,0.8278262615203857,,,,,,,,
,isolated,0.7996609210968018,,,,,,,,
,text,0.797130823135376,,,,,,,,
,money,0.7955454587936401,,,,,,,,
,dawn,0.7825078964233398,,,,,,,,
,food,0.774437665939331,,,,,,,,
,indoors,0.7719576358795166,,,,,,,,
,aid,0.770424485206604,,,,,,,,
,coffee,0.768307089805603,,,,,,,,
,nature,0.7650840282440186,,,,,,,,
,love,0.7566598057746887,,,,,,,,
,one,0.7492765784263611,,,,,,,,
https://scontent.cdninstagram.com/t51.2885-15/e35/12523575_542060432610456_2031016453_n.jpg,people,0.9842997789382935,"Fashion & Beauty",Arts,,,Ootd,Arts-s,,
,man,0.9754939675331116,,,,,,,,
,two,0.9532609581947327,,,,,,,,
,street,0.9423936605453491,,,,,,,,
,fashion,0.9402609467506409,,,,,,,,
,woman,0.9394165277481079,,,,,,,,
,portrait,0.9331690073013306,,,,,,,,
,business,0.9325129985809326,,,,,,,,
,wear,0.9295001029968262,,,,,,,,
,adult,0.91295325756073,,,,,,,,
,model,0.910956859588623,,,,,,,,
,competition,0.8875962495803833,,,,,,,,
,city,0.8868905901908875,,,,,,,,
,girl,0.8409795165061951,,,,,,,,
,recreation,0.8268177509307861,,,,,,,,
,commerce,0.8241000175476074,,,,,,,,
,love,0.7989692687988281,,,,,,,,
,urban,0.7986816167831421,,,,,,,,
,family,0.7965935468673706,,,,,,,,
,togetherness,0.7952971458435059,,,,,,,,
https://scontent.cdninstagram.com/t51.2885-15/e35/11311338_1506854899606775_1356452994_n.jpg,vertical,0.988179087638855,Commerce,,,,"Product/brand shots",,,
,illustration,0.9879979491233826,,,,,,,,
,vector,0.9810693264007568,,,,,,,,
,business,0.9639760851860046,,,,,,,,
,blank,0.9612060785293579,,,,,,,,
,presentation,0.9359829425811768,,,,,,,,
,text,0.9262006878852844,,,,,,,,
,square,0.9257318377494812,,,,,,,,
,template,0.924239993095398,,,,,,,,
,page,0.922999382019043,,,,,,,,
,label,0.9087109565734863,,,,,,,,
,modern,0.8998056054115295,,,,,,,,
,box,0.8937240839004517,,,,,,,,
,luster,0.8905380368232727,,,,,,,,
,abstract,0.8852282762527466,,,,,,,,
,decoration,0.8801153898239136,,,,,,,,
,banner,0.8791693449020386,,,,,,,,
,"picture frame",0.8782111406326294,,,,,,,,
,order,0.8611091375350952,,,,,,,,
,identity,0.8560002446174622,,,,,,,,
https://scontent.cdninstagram.com/t51.2885-15/e35/12716749_1036703589719105_1292045773_n.jpg,people,0.9947097301483154,"Fashion & Beauty",Arts,,,Ootd,Arts-s,,
,smoke,0.9907137751579285,,,,,,,,
,woman,0.9890801310539246,,,,,,,,
,"no person",0.98541259765625,,,,,,,,
,wear,0.973089337348938,,,,,,,,
,adult,0.9687292575836182,,,,,,,,
,soccer,0.9685825109481812,,,,,,,,
,blur,0.9664225578308105,,,,,,,,
,competition,0.9655606746673584,,,,,,,,
,one,0.9650459289550781,,,,,,,,
,vehicle,0.9629308581352234,,,,,,,,
,travel,0.9564322829246521,,,,,,,,
,action,0.9560613036155701,,,,,,,,
,man,0.9510253071784973,,,,,,,,
,recreation,0.9478594660758972,,,,,,,,
,two,0.9376484155654907,,,,,,,,
,outdoors,0.9363805651664734,,,,,,,,
,business,0.9291970729827881,,,,,,,,
,football,0.9164565801620483,,,,,,,,
,love,0.9153928756713867,,,,,,,,
https://scontent.cdninstagram.com/t51.2885-15/s750x750/sh0.08/e35/11371270_1622878454641249_1497412939_n.jpg,portrait,0.9747571349143982,Commerce,"Fashion & Beauty",,,"Product/brand shots","My look",,
,people,0.9679034948348999,,,,,,,,
,one,0.9499321579933167,,,,,,,,
,adult,0.9402590394020081,,,,,,,,
,woman,0.9390367269515991,,,,,,,,
,wear,0.8939300775527954,,,,,,,,
,outdoors,0.8909562230110168,,,,,,,,
,business,0.8613265752792358,,,,,,,,
,leader,0.7979615926742554,,,,,,,,
,recreation,0.7817314863204956,,,,,,,,
,indoors,0.7738871574401855,,,,,,,,
,man,0.7301661968231201,,,,,,,,
,movie,0.7050672769546509,,,,,,,,
,"facial expression",0.6987776756286621,,,,,,,,
,actor,0.6591460704803467,,,,,,,,
,actress,0.6519008874893188,,,,,,,,
,commerce,0.6439749002456665,,,,,,,,
,administration,0.6255940198898315,,,,,,,,
,energy,0.6178107261657715,,,,,,,,
,education,0.6130324602127075,,,,,,,,
https://scontent.cdninstagram.com/t51.2885-15/e35/12120300_169609976716978_935145903_n.jpg,woman,0.9915487766265869,Undefined,,,,Undefined,,,
,fashion,0.9904298782348633,,,,,,,,
,street,0.9773581027984619,,,,,,,,
,pretty,0.9698690176010132,,,,,,,,
,outdoors,0.9563735723495483,,,,,,,,
,people,0.9560621976852417,,,,,,,,
,young,0.9531803131103516,,,,,,,,
,girl,0.9441431164741516,,,,,,,,
,model,0.9437260627746582,,,,,,,,
,city,0.9358945488929749,,,,,,,,
,sexy,0.9316273927688599,,,,,,,,
,hair,0.9284319877624512,,,,,,,,
,urban,0.9246696829795837,,,,,,,,
,portrait,0.9245254397392273,,,,,,,,
,glamour,0.9195442199707031,,,,,,,,
,contemporary,0.9118796586990356,,,,,,,,
,sit,0.9117693305015564,,,,,,,,
,elegant,0.9053094983100891,,,,,,,,
,cute,0.9035646915435791,,,,,,,,
,beautiful,0.8751780986785889,,,,,,,,
https://scontent.cdninstagram.com/t51.2885-15/e35/13534268_1113040662068529_1081674986_n.jpg,people,0.976855993270874,"Fashion & Beauty",,,,Ootd,,,
,girl,0.9688359498977661,,,,,,,,
,portrait,0.968053936958313,,,,,,,,
,woman,0.9638481140136719,,,,,,,,
,street,0.9570388793945312,,,,,,,,
,adult,0.9487638473510742,,,,,,,,
,fashion,0.946850061416626,,,,,,,,
,city,0.9454919695854187,,,,,,,,
,wall,0.9423337578773499,,,,,,,,
,model,0.9388284683227539,,,,,,,,
,man,0.9315594434738159,,,,,,,,
,business,0.9285801649093628,,,,,,,,
,urban,0.9278894662857056,,,,,,,,
,young,0.9223915934562683,,,,,,,,
,one,0.906822919845581,,,,,,,,
,person,0.8625426292419434,,,,,,,,
,beautiful,0.857801079750061,,,,,,,,
,success,0.856367826461792,,,,,,,,
,telephone,0.8529349565505981,,,,,,,,
,bag,0.8416785001754761,,,,,,,,
https://scontent.cdninstagram.com/t51.2885-15/e35/10369536_193524307662870_556433791_n.jpg,people,0.9789844155311584,"Fashion & Beauty",,,,Ootd,,,
,woman,0.9721353054046631,,,,,,,,
,business,0.9550797343254089,,,,,,,,
,fashion,0.9539624452590942,,,,,,,,
,city,0.8839173316955566,,,,,,,,
,portrait,0.8759995698928833,,,,,,,,
,indoors,0.8739435076713562,,,,,,,,
,music,0.8477025032043457,,,,,,,,
,landscape,0.8411653637886047,,,,,,,,
,street,0.8316304683685303,,,,,,,,
,glamour,0.8145856857299805,,,,,,,,
,winter,0.8139873743057251,,,,,,,,
,model,0.8105713129043579,,,,,,,,
,building,0.8045557737350464,,,,,,,,
,girl,0.7972555160522461,,,,,,,,
,urban,0.7941440939903259,,,,,,,,
,step,0.7935449481010437,,,,,,,,
,adult,0.7767543196678162,,,,,,,,
,chair,0.7640970349311829,,,,,,,,
,travel,0.7626364231109619,,,,,,,,
https://scontent.cdninstagram.com/t51.2885-15/e35/12558850_524469294398803_234203732_n.jpg,dog,0.995081901550293,"My life","Fashion & Beauty",,,"With me",Ootd,,
,road,0.9853386878967285,,,,,,,,
,people,0.9824296236038208,,,,,,,,
,one,0.9607694149017334,,,,,,,,
,adult,0.9570279121398926,,,,,,,,
,woman,0.9538546800613403,,,,,,,,
,landscape,0.9428385496139526,,,,,,,,
,pavement,0.9359811544418335,,,,,,,,
,mammal,0.9319883584976196,,,,,,,,
,child,0.9283827543258667,,,,,,,,
,recreation,0.9281080961227417,,,,,,,,
,park,0.9236425161361694,,,,,,,,
,pants,0.9221404790878296,,,,,,,,
,man,0.9202834367752075,,,,,,,,
,outdoors,0.91139155626297,,,,,,,,
,street,0.9105445146560669,,,,,,,,
,tree,0.9018189311027527,,,,,,,,
,canine,0.8980574607849121,,,,,,,,
,girl,0.8961279988288879,,,,,,,,
,travel,0.8930903077125549,,,,,,,,
https://scontent.cdninstagram.com/t51.2885-15/e35/11939435_1070850972926616_446810453_n.jpg,street,0.997722864151001,Environment,,,,"Manmade beauty",,,
,city,0.9927071928977966,,,,,,,,
,road,0.9844505786895752,,,,,,,,
,pavement,0.9713897705078125,,,,,,,,
,people,0.9658083915710449,,,,,,,,
,shopping,0.9643008708953857,,,,,,,,
,urban,0.93562912940979,,,,,,,,
,commerce,0.9315454959869385,,,,,,,,
,stock,0.927827000617981,,,,,,,,
,daylight,0.9099771976470947,,,,,,,,
,rally,0.9061832427978516,,,,,,,,
,business,0.8867950439453125,,,,,,,,
,police,0.8798432350158691,,,,,,,,
,town,0.8667224645614624,,,,,,,,
,tourist,0.85147625207901,,,,,,,,
,building,0.8319414854049683,,,,,,,,
,architecture,0.8277807235717773,,,,,,,,
,group,0.8207374811172485,,,,,,,,
,crossing,0.8203433752059937,,,,,,,,
,travel,0.8106570243835449,,,,,,,,
https://scontent.cdninstagram.com/t51.2885-15/e35/11910073_189126981425050_903662972_n.jpg,togetherness,0.990168571472168,Relationships,,,,Family,,,
,family,0.98720383644104,,,,,,,,
,woman,0.9786620140075684,,,,,,,,
,child,0.9772123098373413,,,,,,,,
,group,0.9757181406021118,,,,,,,,
,love,0.9722850918769836,,,,,,,,
,man,0.9645075798034668,,,,,,,,
,laughing,0.9572815895080566,,,,,,,,
,fun,0.9530467987060547,,,,,,,,
,indoors,0.9513074159622192,,,,,,,,
,four,0.949830174446106,,,,,,,,
,multicultural,0.939835250377655,,,,,,,,
,embrace,0.9363588094711304,,,,,,,,
,enjoyment,0.9305270910263062,,,,,,,,
,affection,0.9252962470054626,,,,,,,,
,friendship,0.9065756797790527,,,,,,,,
,three,0.8886382579803467,,,,,,,,
,people,0.8882321119308472,,,,,,,,
,group,0.8826793432235718,,,,,,,,
,joy,0.8520663976669312,,,,,,,,
https://scontent.cdninstagram.com/t51.2885-15/e35/10593523_596092920545074_1614313216_n.jpg,desktop,0.9188276529312134,Relationships,,,,"Best friends",,,
,music,0.9087220430374146,,,,,,,,
,energy,0.8872932195663452,,,,,,,,
,celebration,0.8632965087890625,,,,,,,,
,science,0.8454830646514893,,,,,,,,
,graphic,0.8320839405059814,,,,,,,,
,abstract,0.8305028080940247,,,,,,,,
,illustration,0.8304117918014526,,,,,,,,
,technology,0.8256283402442932,,,,,,,,
,adult,0.8239198923110962,,,,,,,,
,people,0.8063610792160034,,,,,,,,
,light,0.799735426902771,,,,,,,,
,performance,0.7990740537643433,,,,,,,,
,symbol,0.7841396927833557,,,,,,,,
,woman,0.7689242362976074,,,,,,,,
,concert,0.7606562376022339,,,,,,,,
,festival,0.7562658786773682,,,,,,,,
,dark,0.754824697971344,,,,,,,,
,musician,0.745614767074585,,,,,,,,
,art,0.7362892627716064,,,,,,,,
https://scontent.cdninstagram.com/t51.2885-15/e35/12446134_156843958017826_86894427_n.jpg,people,0.9925503134727478,"Fashion & Beauty",,,,Ootd,,,
,adult,0.9810471534729004,,,,,,,,
,offense,0.9708231687545776,,,,,,,,
,one,0.9698082208633423,,,,,,,,
,police,0.9534567594528198,,,,,,,,
,vehicle,0.9479987621307373,,,,,,,,
,man,0.9468823671340942,,,,,,,,
,battle,0.9402373433113098,,,,,,,,
,room,0.9346814155578613,,,,,,,,
,calamity,0.9308100938796997,,,,,,,,
,grinder,0.926589846611023,,,,,,,,
,education,0.9177699685096741,,,,,,,,
,industry,0.9172391891479492,,,,,,,,
,indoors,0.9070355892181396,,,,,,,,
,military,0.9069496393203735,,,,,,,,
,injury,0.9039583802223206,,,,,,,,
,war,0.8962939977645874,,,,,,,,
,group,0.8944936990737915,,,,,,,,
,woman,0.8886339068412781,,,,,,,,
,production,0.885195255279541,,,,,,,,
https://scontent.cdninstagram.com/t51.2885-15/e35/12338813_172864613067323_1227887025_n.jpg,fashion,0.9790469408035278,Commerce,,,,"Product/brand shots",,,
,wear,0.9781423807144165,,,,,,,,
,man,0.9617883563041687,,,,,,,,
,people,0.9508374929428101,,,,,,,,
,adult,0.9414694309234619,,,,,,,,
,one,0.9221459627151489,,,,,,,,
,footwear,0.905430018901825,,,,,,,,
,indoors,0.8985065221786499,,,,,,,,
,casual,0.8937954306602478,,,,,,,,
,elegant,0.8925586938858032,,,,,,,,
,woman,0.8832184076309204,,,,,,,,
,foot,0.8737426996231079,,,,,,,,
,business,0.8725262880325317,,,,,,,,
,classic,0.868095874786377,,,,,,,,
,style,0.8675593137741089,,,,,,,,
,desktop,0.8552628755569458,,,,,,,,
,retro,0.8513125777244568,,,,,,,,
,bathroom,0.8428913950920105,,,,,,,,
,person,0.8424873948097229,,,,,,,,
,young,0.8367801308631897,,,,,,,,
https://scontent.cdninstagram.com/t51.2885-15/e35/914285_138962146473846_1412271553_n.jpg,outdoors,0.9789111614227295,Commerce,,,,"Product/brand shots",,,
,footwear,0.9781512022018433,,,,,,,,
,shoe,0.9708874225616455,,,,,,,,
,fashion,0.9667969942092896,,,,,,,,
,foot,0.9628618955612183,,,,,,,,
,summer,0.9553954005241394,,,,,,,,
,"no person",0.9502920508384705,,,,,,,,
,leisure,0.9404582977294922,,,,,,,,
,recreation,0.9346677660942078,,,,,,,,
,nature,0.9335752725601196,,,,,,,,
,wear,0.9254778027534485,,,,,,,,
,park,0.9240686893463135,,,,,,,,
,sneakers,0.9073421955108643,,,,,,,,
,lifestyle,0.8902001976966858,,,,,,,,
,people,0.8707498908042908,,,,,,,,
,one,0.8695213794708252,,,,,,,,
,girl,0.8618729114532471,,,,,,,,
,garden,0.8491227626800537,,,,,,,,
,leather,0.8337495923042297,,,,,,,,
,child,0.8240935802459717,,,,,,,,
https://scontent.cdninstagram.com/t51.2885-15/s750x750/sh0.08/e35/11906115_1478880439083881_1002281700_n.jpg,man,0.98504638671875,Relationships,,,,"Best friends",,,
,people,0.9837479591369629,,,,,,,,
,adult,0.9513312578201294,,,,,,,,
,wear,0.9468981027603149,,,,,,,,
,military,0.9465528726577759,,,,,,,,
,portrait,0.933525025844574,,,,,,,,
,outfit,0.9253773093223572,,,,,,,,
,business,0.9198521375656128,,,,,,,,
,two,0.9105217456817627,,,,,,,,
,"facial expression",0.86455237865448,,,,,,,,
,finance,0.8538193702697754,,,,,,,,
,police,0.8449990749359131,,,,,,,,
,lid,0.8355416059494019,,,,,,,,
,group,0.8229590058326721,,,,,,,,
,looking,0.8081835508346558,,,,,,,,
,leader,0.8081176280975342,,,,,,,,
,offense,0.7942997217178345,,,,,,,,
,one,0.7627305388450623,,,,,,,,
,administration,0.7487005591392517,,,,,,,,
,commerce,0.720289945602417,,,,,,,,
https://scontent.cdninstagram.com/t51.2885-15/e35/12940746_1036370603101464_177074898_n.jpg,road,0.994831383228302,Recreation,Environment,,,Fitness,"Natural beauty",,
,jogger,0.9887517690658569,,,,,,,,
,runner,0.9887312650680542,,,,,,,,
,tree,0.9808335900306702,,,,,,,,
,girl,0.9804989099502563,,,,,,,,
,fall,0.9787975549697876,,,,,,,,
,leaf,0.970740556716919,,,,,,,,
,guidance,0.9687628149986267,,,,,,,,
,street,0.9666882753372192,,,,,,,,
,exercise,0.9625617265701294,,,,,,,,
,nature,0.960027277469635,,,,,,,,
,fitness,0.9593392610549927,,,,,,,,
,park,0.9571884870529175,,,,,,,,
,walk,0.9526321291923523,,,,,,,,
,recreation,0.9496428966522217,,,,,,,,
,outdoors,0.9444252252578735,,,,,,,,
,landscape,0.9431532621383667,,,,,,,,
,solo,0.9428291320800781,,,,,,,,
,people,0.9403951168060303,,,,,,,,
,marathon,0.9300049543380737,,,,,,,,
https://scontent.cdninstagram.com/t51.2885-15/e35/10424631_1639667372973031_1197132657_n.jpg,people,0.9828206896781921,Relationships,,,,Family,,,
,adult,0.9796176552772522,,,,,,,,
,woman,0.9770246148109436,,,,,,,,
,man,0.9745314121246338,,,,,,,,
,indoors,0.9612964391708374,,,,,,,,
,"facial expression",0.9482654333114624,,,,,,,,
,room,0.9360440969467163,,,,,,,,
,family,0.9314524531364441,,,,,,,,
,group,0.9266459941864014,,,,,,,,
,portrait,0.9258392453193665,,,,,,,,
,enjoyment,0.9243541955947876,,,,,,,,
,furniture,0.9125323295593262,,,,,,,,
,happiness,0.8802872896194458,,,,,,,,
,togetherness,0.8787131309509277,,,,,,,,
,wear,0.8731086254119873,,,,,,,,
,four,0.8457139134407043,,,,,,,,
,stock,0.8243453502655029,,,,,,,,
,three,0.8219038248062134,,,,,,,,
,daylight,0.8193674087524414,,,,,,,,
,drink,0.8147293925285339,,,,,,,,
https://scontent.cdninstagram.com/t51.2885-15/e35/12530803_176837876004843_363700058_n.jpg,people,0.9809257388114929,Blank,,,,Photography,,,
,commerce,0.9669173359870911,,,,,,,,
,street,0.9479249715805054,,,,,,,,
,city,0.9459033012390137,,,,,,,,
,calamity,0.9298673868179321,,,,,,,,
,police,0.9247413873672485,,,,,,,,
,vehicle,0.9147253036499023,,,,,,,,
,road,0.905817985534668,,,,,,,,
,stock,0.8992702960968018,,,,,,,,
,adult,0.8868695497512817,,,,,,,,
,battle,0.8842648267745972,,,,,,,,
,military,0.8811363577842712,,,,,,,,
,business,0.8671493530273438,,,,,,,,
,bomb,0.8606539964675903,,,,,,,,
,daylight,0.8604145050048828,,,,,,,,
,weapon,0.851477861404419,,,,,,,,
,"transportation system",0.8481361865997314,,,,,,,,
,group,0.8401360511779785,,,,,,,,
,man,0.8351706266403198,,,,,,,,
,offense,0.8343120813369751,,,,,,,,
https://scontent.cdninstagram.com/t51.2885-15/e35/11925758_1006830926004173_1484569197_n.jpg,indoors,0.9970101118087769,Blank,,,,Photography,,,
,modern,0.9893581867218018,,,,,,,,
,business,0.9893124103546143,,,,,,,,
,luxury,0.9873709678649902,,,,,,,,
,exhibition,0.975913405418396,,,,,,,,
,contemporary,0.9730571508407593,,,,,,,,
,lobby,0.971615731716156,,,,,,,,
,airport,0.9708070755004883,,,,,,,,
,architecture,0.9619449377059937,,,,,,,,
,window,0.9613372087478638,,,,,,,,
,floor,0.9554445743560791,,,,,,,,
,inside,0.9535192251205444,,,,,,,,
,glass,0.9509178400039673,,,,,,,,
,room,0.943067193031311,,,,,,,,
,reflection,0.9410775303840637,,,,,,,,
,people,0.9396340847015381,,,,,,,,
,public,0.9388396739959717,,,,,,,,
,city,0.9314521551132202,,,,,,,,
,luggage,0.9274042844772339,,,,,,,,
,escalator,0.9182215929031372,,,,,,,,
https://scontent.cdninstagram.com/t51.2885-15/e35/11821655_540128382809396_381165520_n.jpg,woman,0.9909158945083618,"Fashion & Beauty",,,,"My look",,,
,blond,0.9891954660415649,,,,,,,,
,portrait,0.9314368963241577,,,,,,,,
,girl,0.9286310076713562,,,,,,,,
,pretty,0.9210196733474731,,,,,,,,
,people,0.9129536747932434,,,,,,,,
,young,0.9047936201095581,,,,,,,,
,relaxation,0.9027677774429321,,,,,,,,
,one,0.9026193618774414,,,,,,,,
,cute,0.8706872463226318,,,,,,,,
,fashion,0.8655345439910889,,,,,,,,
,beautiful,0.8605160117149353,,,,,,,,
,adult,0.8566418886184692,,,,,,,,
,hair,0.8535727262496948,,,,,,,,
,looking,0.8473630547523499,,,,,,,,
,casual,0.8453850746154785,,,,,,,,
,indoors,0.8345171809196472,,,,,,,,
,leisure,0.8199159502983093,,,,,,,,
,sexy,0.8054572939872742,,,,,,,,
,attractive,0.782694935798645,,,,,,,,
https://scontent.cdninstagram.com/t51.2885-15/e35/11427262_507621212724214_628290969_n.jpg,indoors,0.987441897392273,"Fashion & Beauty",Transportation,,,"My look",Transportation-s,,
,people,0.9745818376541138,,,,,,,,
,train,0.9615473747253418,,,,,,,,
,portrait,0.9578069448471069,,,,,,,,
,man,0.9548629522323608,,,,,,,,
,sitting,0.9271810054779053,,,,,,,,
,one,0.920937716960907,,,,,,,,
,business,0.9042692184448242,,,,,,,,
,tube,0.8868570327758789,,,,,,,,
,woman,0.8862063884735107,,,,,,,,
,looking,0.8811861276626587,,,,,,,,
,adult,0.8799253702163696,,,,,,,,
,exercise,0.8778616189956665,,,,,,,,
,child,0.8660567998886108,,,,,,,,
,boy,0.8515709638595581,,,,,,,,
,light,0.8503444194793701,,,,,,,,
,girl,0.8311939835548401,,,,,,,,
,technology,0.8303190469741821,,,,,,,,
,sit,0.8302997350692749,,,,,,,,
,health,0.8244805932044983,,,,,,,,
https://scontent.cdninstagram.com/t51.2885-15/e35/13117897_1627472120623242_1109258456_n.jpg,people,0.995993971824646,"Fashion & Beauty",,,,Ootd,,,
,adult,0.9830294847488403,,,,,,,,
,industry,0.9785524606704712,,,,,,,,
,one,0.968273937702179,,,,,,,,
,wear,0.9580850005149841,,,,,,,,
,woman,0.9528224468231201,,,,,,,,
,man,0.9192548394203186,,,,,,,,
,grinder,0.9100023508071899,,,,,,,,
,vehicle,0.8950517773628235,,,,,,,,
,indoors,0.8917866945266724,,,,,,,,
,portrait,0.8426632285118103,,,,,,,,
,energy,0.8421376347541809,,,,,,,,
,room,0.8345314264297485,,,,,,,,
,education,0.8256306648254395,,,,,,,,
,two,0.8216756582260132,,,,,,,,
,production,0.8031506538391113,,,,,,,,
,military,0.7946508526802063,,,,,,,,
,commerce,0.7775634527206421,,,,,,,,
,container,0.7507674694061279,,,,,,,,
,flame,0.730871319770813,,,,,,,,
https://scontent.cdninstagram.com/t51.2885-15/e35/13388543_233304690388116_952199686_n.jpg,togetherness,0.9946542382240295,Relationships,,,,"Best friends",,,
,woman,0.986622154712677,,,,,,,,
,people,0.9767180681228638,,,,,,,,
,"facial expression",0.9767097234725952,,,,,,,,
,child,0.9746143817901611,,,,,,,,
,affection,0.9716696739196777,,,,,,,,
,daylight,0.9696763753890991,,,,,,,,
,love,0.9689836502075195,,,,,,,,
,indoors,0.9652687907218933,,,,,,,,
,laughing,0.9618880748748779,,,,,,,,
,enjoyment,0.9583005905151367,,,,,,,,
,portrait,0.9549692869186401,,,,,,,,
,joy,0.9514398574829102,,,,,,,,
,happiness,0.9512879848480225,,,,,,,,
,two,0.9504976272583008,,,,,,,,
,fun,0.9447662830352783,,,,,,,,
,embrace,0.9421030282974243,,,,,,,,
,interaction,0.933631181716919,,,,,,,,
,man,0.9184470176696777,,,,,,,,
,girl,0.8850659132003784,,,,,,,,
https://scontent.cdninstagram.com/t51.2885-15/e35/12407271_532920756876196_655976654_n.jpg,togetherness,0.9936606287956238,Relationships,,,,"Best friends",,,
,"facial expression",0.990990400314331,,,,,,,,
,woman,0.9902440309524536,,,,,,,,
,portrait,0.9781147241592407,,,,,,,,
,people,0.9720953702926636,,,,,,,,
,two,0.9709429740905762,,,,,,,,
,embrace,0.9619899988174438,,,,,,,,
,affection,0.9589592814445496,,,,,,,,
,wear,0.956128716468811,,,,,,,,
,love,0.9545225501060486,,,,,,,,
,happiness,0.9526586532592773,,,,,,,,
,interaction,0.949151873588562,,,,,,,,
,friendship,0.9439378380775452,,,,,,,,
,man,0.9437506198883057,,,,,,,,
,laughing,0.9403364658355713,,,,,,,,
,joy,0.9331681728363037,,,,,,,,
,adolescent,0.9117639064788818,,,,,,,,
,fun,0.9101752042770386,,,,,,,,
,enjoyment,0.9071313142776489,,,,,,,,
,indoors,0.8687061071395874,,,,,,,,
https://scontent.cdninstagram.com/t51.2885-15/e35/13381120_146469012429853_2042723971_n.jpg,woman,0.9899134635925293,Relationships,,,,"Best friends",,,
,portrait,0.9865099787712097,,,,,,,,
,people,0.9827854633331299,,,,,,,,
,outdoors,0.9805483818054199,,,,,,,,
,street,0.9476463794708252,,,,,,,,
,togetherness,0.9425336122512817,,,,,,,,
,enjoyment,0.9303230047225952,,,,,,,,
,two,0.9299538135528564,,,,,,,,
,girl,0.927450954914093,,,,,,,,
,daylight,0.9219948053359985,,,,,,,,
,"facial expression",0.9158144593238831,,,,,,,,
,wear,0.902319610118866,,,,,,,,
,fun,0.8960202932357788,,,,,,,,
,happiness,0.8769766092300415,,,,,,,,
,adult,0.8689233660697937,,,,,,,,
,fashion,0.8677006363868713,,,,,,,,
,friendship,0.8645752668380737,,,,,,,,
,child,0.8641577959060669,,,,,,,,
,love,0.8578157424926758,,,,,,,,
,city,0.8438897132873535,,,,,,,,
https://scontent.cdninstagram.com/t51.2885-15/e35/12298808_778612408952076_2091616623_n.jpg,people,0.9725638628005981,Environment,"My life",,,"Manmade beauty","Here I am",,
,outdoors,0.9607659578323364,,,,,,,,
,woman,0.9371104836463928,,,,,,,,
,architecture,0.9267438054084778,,,,,,,,
,business,0.9031046032905579,,,,,,,,
,building,0.9011698365211487,,,,,,,,
,adult,0.8827224969863892,,,,,,,,
,city,0.8822535276412964,,,,,,,,
,competition,0.876946210861206,,,,,,,,
,recreation,0.8482689261436462,,,,,,,,
,man,0.8409159183502197,,,,,,,,
,daylight,0.8405857682228088,,,,,,,,
,one,0.8372079730033875,,,,,,,,
,wear,0.8056616187095642,,,,,,,,
,street,0.7852660417556763,,,,,,,,
,motion,0.7727762460708618,,,,,,,,
,travel,0.7725341320037842,,,,,,,,
,many,0.7694735527038574,,,,,,,,
,child,0.7639476656913757,,,,,,,,
,military,0.7561346292495728,,,,,,,,
https://scontent.cdninstagram.com/t51.2885-15/e35/11311558_853355378115582_68904025_n.jpg,woman,0.9934065341949463,Relationships,,,,"Best friends",,,
,love,0.9865672588348389,,,,,,,,
,togetherness,0.9830148816108704,,,,,,,,
,fun,0.9777593016624451,,,,,,,,
,pretty,0.9756006002426147,,,,,,,,
,casual,0.9736182689666748,,,,,,,,
,fashion,0.9710308313369751,,,,,,,,
,adolescent,0.9675099849700928,,,,,,,,
,man,0.96305251121521,,,,,,,,
,joy,0.9618005752563477,,,,,,,,
,contemporary,0.9552425146102905,,,,,,,,
,romance,0.9516603946685791,,,,,,,,
,cute,0.9361037015914917,,,,,,,,
,student,0.9346635341644287,,,,,,,,
,laughing,0.9341589212417603,,,,,,,,
,friendship,0.9336785078048706,,,,,,,,
,family,0.9281214475631714,,,,,,,,
,eyeglasses,0.9249724745750427,,,,,,,,
,embrace,0.9238879084587097,,,,,,,,
,indoors,0.9178028702735901,,,,,,,,
https://scontent.cdninstagram.com/t51.2885-15/e35/11375142_1617537405194760_834895649_n.jpg,people,0.9975066184997559,Blank,,,,Photography,,,
,street,0.9899247288703918,,,,,,,,
,woman,0.9808669686317444,,,,,,,,
,many,0.9694147109985352,,,,,,,,
,wear,0.9513894319534302,,,,,,,,
,adult,0.9505009651184082,,,,,,,,
,child,0.9463735818862915,,,,,,,,
,man,0.9420753717422485,,,,,,,,
,group,0.9348527193069458,,,,,,,,
,group,0.9287512302398682,,,,,,,,
,monochrome,0.9221211075782776,,,,,,,,
,crowd,0.9106758832931519,,,,,,,,
,recreation,0.841189444065094,,,,,,,,
,boy,0.7817061543464661,,,,,,,,
,pavement,0.7779632806777954,,,,,,,,
,outfit,0.7744797468185425,,,,,,,,
,music,0.7583865523338318,,,,,,,,
,dancing,0.7554311752319336,,,,,,,,
,city,0.7501860857009888,,,,,,,,
,spectator,0.7274235486984253,,,,,,,,
https://scontent.cdninstagram.com/t51.2885-15/e35/11192893_1466957380295934_1299587151_n.jpg,marathon,0.9986274242401123,Blank,,,,Photography,,,
,street,0.9982926249504089,,,,,,,,
,runner,0.9978148341178894,,,,,,,,
,road,0.9959350824356079,,,,,,,,
,city,0.9937689304351807,,,,,,,,
,jogger,0.9933105707168579,,,,,,,,
,footrace,0.9930502772331238,,,,,,,,
,"track and field",0.9917773008346558,,,,,,,,
,competition,0.9907238483428955,,,,,,,,
,people,0.988352358341217,,,,,,,,
,motion,0.9811354875564575,,,,,,,,
,race,0.9565178155899048,,,,,,,,
,athlete,0.9501396417617798,,,,,,,,
,crowd,0.9274488687515259,,,,,,,,
,action,0.9236123561859131,,,,,,,,
,festival,0.9220515489578247,,,,,,,,
,many,0.9205212593078613,,,,,,,,
,race,0.9125386476516724,,,,,,,,
,hurry,0.9106416702270508,,,,,,,,
,rally,0.8970152139663696,,,,,,,,
https://scontent.cdninstagram.com/t51.2885-15/e35/11910389_884455918315019_567441531_n.jpg,dog,0.9881503582000732,"My life",,,,"With me",,,
,cute,0.9878911972045898,,,,,,,,
,woman,0.9842795133590698,,,,,,,,
,mammal,0.9781206846237183,,,,,,,,
,portrait,0.9729707837104797,,,,,,,,
,pet,0.9708466529846191,,,,,,,,
,love,0.969305157661438,,,,,,,,
,people,0.9646804332733154,,,,,,,,
,little,0.9615992307662964,,,,,,,,
,indoors,0.959845781326294,,,,,,,,
,canine,0.958461344242096,,,,,,,,
,child,0.9565887451171875,,,,,,,,
,fun,0.9534322619438171,,,,,,,,
,sit,0.950879693031311,,,,,,,,
,girl,0.9498558044433594,,,,,,,,
,animal,0.9373788833618164,,,,,,,,
,friendship,0.936447024345398,,,,,,,,
,young,0.9269819259643555,,,,,,,,
,puppy,0.913434624671936,,,,,,,,
,affection,0.9097018837928772,,,,,,,,
https://scontent.cdninstagram.com/t51.2885-15/e35/11850106_1700952383458254_112606462_n.jpg,people,0.9912838935852051,Cute,,,,Cute,,,
,woman,0.979509711265564,,,,,,,,
,adult,0.977283239364624,,,,,,,,
,food,0.9565503597259521,,,,,,,,
,portrait,0.9496248364448547,,,,,,,,
,coffee,0.9348573684692383,,,,,,,,
,man,0.9257990121841431,,,,,,,,
,one,0.909509539604187,,,,,,,,
,girl,0.8866143226623535,,,,,,,,
,restaurant,0.8828507661819458,,,,,,,,
,tea,0.862425684928894,,,,,,,,
,drink,0.8570809364318848,,,,,,,,
,hot,0.8453530073165894,,,,,,,,
,breakfast,0.8258746266365051,,,,,,,,
,two,0.8049002289772034,,,,,,,,
,indoors,0.7993671894073486,,,,,,,,
,lid,0.7858272194862366,,,,,,,,
,child,0.7711331248283386,,,,,,,,
,bar,0.7706011533737183,,,,,,,,
,cute,0.7703686952590942,,,,,,,,
https://scontent.cdninstagram.com/t51.2885-15/e35/12230845_1660931684188240_1555653399_n.jpg,people,0.9761686325073242,Relationships,,,,Family,,,
,festival,0.9724447727203369,,,,,,,,
,stock,0.9722510576248169,,,,,,,,
,commerce,0.9580758213996887,,,,,,,,
,group,0.9233294129371643,,,,,,,,
,portrait,0.9224293231964111,,,,,,,,
,shopping,0.9024969339370728,,,,,,,,
,competition,0.8989855051040649,,,,,,,,
,landscape,0.8758997321128845,,,,,,,,
,market,0.8750618696212769,,,,,,,,
,editorial,0.8731107711791992,,,,,,,,
,city,0.8693751096725464,,,,,,,,
,many,0.8562142848968506,,,,,,,,
,exhibition,0.8476071357727051,,,,,,,,
,street,0.8434420824050903,,,,,,,,
,adult,0.8416308164596558,,,,,,,,
,election,0.839514434337616,,,,,,,,
,ceremony,0.8372091054916382,,,,,,,,
,wear,0.8296239376068115,,,,,,,,
,woman,0.8216742873191833,,,,,,,,
https://scontent.cdninstagram.com/t51.2885-15/e35/11881654_918473914903250_748781069_n.jpg,woman,0.994310736656189,Undefined,,,,Undefined,,,
,people,0.9824408292770386,,,,,,,,
,girl,0.9822031259536743,,,,,,,,
,fashion,0.9675517082214355,,,,,,,,
,outdoors,0.966310977935791,,,,,,,,
,adult,0.9624772071838379,,,,,,,,
,foot,0.9532161951065063,,,,,,,,
,one,0.9523540735244751,,,,,,,,
,sexy,0.9328749179840088,,,,,,,,
,street,0.9326192140579224,,,,,,,,
,punishment,0.923178493976593,,,,,,,,
,handcuff,0.9142343997955322,,,,,,,,
,model,0.9135218262672424,,,,,,,,
,footwear,0.9117305278778076,,,,,,,,
,offense,0.9088808298110962,,,,,,,,
,skirt,0.8983089923858643,,,,,,,,
,young,0.8951016068458557,,,,,,,,
,wear,0.8927445411682129,,,,,,,,
,recreation,0.879941463470459,,,,,,,,
,leisure,0.8553885221481323,,,,,,,,
https://scontent.cdninstagram.com/t51.2885-15/e35/12292892_1244796635535578_804421365_n.jpg,portrait,0.9940770864486694,"Fashion & Beauty",,,,Ootd,,,
,people,0.99046391248703,,,,,,,,
,adult,0.9846050143241882,,,,,,,,
,one,0.9805551767349243,,,,,,,,
,urban,0.9804362058639526,,,,,,,,
,street,0.9773859977722168,,,,,,,,
,man,0.9642432928085327,,,,,,,,
,city,0.9453036785125732,,,,,,,,
,boy,0.9337701797485352,,,,,,,,
,lifestyle,0.9234044551849365,,,,,,,,
,girl,0.9096399545669556,,,,,,,,
,child,0.9090344905853271,,,,,,,,
,happiness,0.9082856178283691,,,,,,,,
,business,0.9073213338851929,,,,,,,,
,smile,0.9037018418312073,,,,,,,,
,family,0.8977454900741577,,,,,,,,
,young,0.8934311866760254,,,,,,,,
,outdoors,0.8906474113464355,,,,,,,,
,wear,0.8904432654380798,,,,,,,,
,"facial expression",0.8847188949584961,,,,,,,,
https://scontent.cdninstagram.com/t51.2885-15/e35/12501907_1549493878702723_1355909407_n.jpg,street,0.993039608001709,"Fashion & Beauty",Travel,,,Ootd,Travel-s,,
,people,0.9930036067962646,,,,,,,,
,city,0.9698205590248108,,,,,,,,
,woman,0.9478937387466431,,,,,,,,
,step,0.9340232610702515,,,,,,,,
,man,0.9339046478271484,,,,,,,,
,road,0.9149325489997864,,,,,,,,
,pavement,0.9138974547386169,,,,,,,,
,shopping,0.9028139114379883,,,,,,,,
,umbrella,0.8638761639595032,,,,,,,,
,tourist,0.8463051319122314,,,,,,,,
,group,0.833906352519989,,,,,,,,
,many,0.8294237852096558,,,,,,,,
,adult,0.828538179397583,,,,,,,,
,commerce,0.8246322870254517,,,,,,,,
,urban,0.8205485343933105,,,,,,,,
,wear,0.8054580688476562,,,,,,,,
,luggage,0.7919870615005493,,,,,,,,
,fashion,0.7519516944885254,,,,,,,,
,festival,0.7254000902175903,,,,,,,,
https://scontent.cdninstagram.com/t51.2885-15/e35/12599362_1725077097736804_1784381519_n.jpg,portrait,0.9880119562149048,"Fashion & Beauty","My life",,,"My look",Selfie,,
,girl,0.9684159755706787,,,,,,,,
,group,0.9675813913345337,,,,,,,,
,woman,0.9651708602905273,,,,,,,,
,smile,0.9632295370101929,,,,,,,,
,laughing,0.9618375897407532,,,,,,,,
,fun,0.9580157995223999,,,,,,,,
,four,0.9574283361434937,,,,,,,,
,child,0.954166054725647,,,,,,,,
,people,0.9479804635047913,,,,,,,,
,friendship,0.9459890723228455,,,,,,,,
,happiness,0.9200931787490845,,,,,,,,
,group,0.9159198999404907,,,,,,,,
,"facial expression",0.9111123085021973,,,,,,,,
,joy,0.9100881218910217,,,,,,,,
,togetherness,0.9092203974723816,,,,,,,,
,adolescent,0.9057049751281738,,,,,,,,
,family,0.8885157108306885,,,,,,,,
,three,0.8752855062484741,,,,,,,,
,student,0.8612312078475952,,,,,,,,
https://scontent.cdninstagram.com/t51.2885-15/e35/12748329_1284164638265588_652458177_n.jpg,food,0.992918848991394,Food,,,,"Meal time",,,
,adult,0.9916601181030273,,,,,,,,
,people,0.9905105829238892,,,,,,,,
,cooking,0.9841994047164917,,,,,,,,
,indoors,0.980703592300415,,,,,,,,
,chef,0.9795635342597961,,,,,,,,
,man,0.9793039560317993,,,,,,,,
,meal,0.9675101041793823,,,,,,,,
,preparation,0.9632017612457275,,,,,,,,
,kitchenware,0.961641788482666,,,,,,,,
,restaurant,0.9445859789848328,,,,,,,,
,woman,0.9399206638336182,,,,,,,,
,daylight,0.9378260374069214,,,,,,,,
,room,0.9357399940490723,,,,,,,,
,grow,0.9355031251907349,,,,,,,,
,one,0.9279224872589111,,,,,,,,
,lifestyle,0.9221545457839966,,,,,,,,
,cookware,0.9203163385391235,,,,,,,,
,furniture,0.9109675884246826,,,,,,,,
,table,0.9028680324554443,,,,,,,,
https://scontent.cdninstagram.com/t51.2885-15/e35/12362245_924472980954638_412648401_n.jpg,people,0.9785520434379578,"My life",,,,"With me",,,
,portrait,0.9646445512771606,,,,,,,,
,woman,0.9564401507377625,,,,,,,,
,girl,0.910354733467102,,,,,,,,
,festival,0.8965345025062561,,,,,,,,
,dog,0.8964334726333618,,,,,,,,
,fun,0.8716166019439697,,,,,,,,
,adult,0.8614617586135864,,,,,,,,
,rally,0.8538073301315308,,,,,,,,
,child,0.8444666862487793,,,,,,,,
,one,0.824691891670227,,,,,,,,
,wear,0.8106144070625305,,,,,,,,
,strange,0.7933351397514343,,,,,,,,
,city,0.7700303792953491,,,,,,,,
,"sports fan",0.7661478519439697,,,,,,,,
,man,0.7627074718475342,,,,,,,,
,street,0.7567778825759888,,,,,,,,
,indoors,0.7546351552009583,,,,,,,,
,two,0.7381889820098877,,,,,,,,
,exhibition,0.737429141998291,,,,,,,,
https://scontent.cdninstagram.com/t51.2885-15/sh0.08/e35/p750x750/13167449_238706989823608_675441418_n.jpg,sunglasses,0.9976171255111694,"Fun Filter",,,,"Fun Filter",,,
,army,0.9932793378829956,,,,,,,,
,military,0.9915754795074463,,,,,,,,
,people,0.9891290664672852,,,,,,,,
,soldier,0.9852864742279053,,,,,,,,
,man,0.97864830493927,,,,,,,,
,war,0.9705850481987,,,,,,,,
,uniform,0.9665272235870361,,,,,,,,
,adult,0.9526216387748718,,,,,,,,
,weapon,0.9486322402954102,,,,,,,,
,wear,0.9475272297859192,,,,,,,,
,camouflage,0.9465746879577637,,,,,,,,
,eyewear,0.941562294960022,,,,,,,,
,summer,0.9414706230163574,,,,,,,,
,outdoors,0.9401534795761108,,,,,,,,
,portrait,0.9374446868896484,,,,,,,,
,two,0.9182065725326538,,,,,,,,
,police,0.9137285351753235,,,,,,,,
,group,0.9112728834152222,,,,,,,,
,protection,0.902671217918396,,,,,,,,
https://scontent.cdninstagram.com/t51.2885-15/e35/11252208_1972696799622244_1416907101_n.jpg,flower,0.9954893589019775,"Fashion & Beauty",,,,"My look",,,
,people,0.9896084666252136,,,,,,,,
,one,0.9713371992111206,,,,,,,,
,portrait,0.9613993167877197,,,,,,,,
,outdoors,0.9610799551010132,,,,,,,,
,child,0.9336309432983398,,,,,,,,
,wear,0.9258528351783752,,,,,,,,
,adult,0.9173571467399597,,,,,,,,
,garden,0.9124960899353027,,,,,,,,
,"flower arrangement",0.8830670118331909,,,,,,,,
,tree,0.8739632368087769,,,,,,,,
,park,0.8482363224029541,,,,,,,,
,family,0.8397161960601807,,,,,,,,
,woman,0.8279962539672852,,,,,,,,
,man,0.8208500742912292,,,,,,,,
,happiness,0.8069032430648804,,,,,,,,
,boy,0.8046058416366577,,,,,,,,
,daylight,0.747829258441925,,,,,,,,
,veil,0.7277275323867798,,,,,,,,
,"facial expression",0.7013426423072815,,,,,,,,
https://scontent.cdninstagram.com/t51.2885-15/e35/12747559_939879249413767_492584069_n.jpg,summer,0.9810612797737122,Recreation,Relationships,,,Recreation-s,"Best friends",,
,people,0.9803717136383057,,,,,,,,
,leisure,0.969541072845459,,,,,,,,
,water,0.9589661359786987,,,,,,,,
,recreation,0.9501947164535522,,,,,,,,
,travel,0.9475775957107544,,,,,,,,
,lifestyle,0.9423822164535522,,,,,,,,
,woman,0.940678060054779,,,,,,,,
,adult,0.930342435836792,,,,,,,,
,vacation,0.9267468452453613,,,,,,,,
,outdoors,0.9253973960876465,,,,,,,,
,man,0.901212215423584,,,,,,,,
,relaxation,0.8999184370040894,,,,,,,,
,tropical,0.8926509618759155,,,,,,,,
,fun,0.885513424873352,,,,,,,,
,two,0.8825095891952515,,,,,,,,
,girl,0.8822469711303711,,,,,,,,
,nature,0.8805259466171265,,,,,,,,
,enjoyment,0.8698552250862122,,,,,,,,
,happiness,0.8647645711898804,,,,,,,,
https://scontent.cdninstagram.com/t51.2885-15/e35/12940965_471812086361874_142705647_n.jpg,wheel,0.9990705251693726,Recreation,Environment,,,Recreation-s,"Natural beauty",,
,cyclist,0.9939855337142944,,,,,,,,
,bike,0.9931604862213135,,,,,,,,
,recreation,0.9897308349609375,,,,,,,,
,fitness,0.9839823246002197,,,,,,,,
,sitting,0.983943521976471,,,,,,,,
,exercise,0.9815644025802612,,,,,,,,
,road,0.9814735651016235,,,,,,,,
,leisure,0.9778274297714233,,,,,,,,
,lifestyle,0.967816948890686,,,,,,,,
,active,0.9634127020835876,,,,,,,,
,people,0.9610306024551392,,,,,,,,
,summer,0.9494710564613342,,,,,,,,
,outdoors,0.9450415372848511,,,,,,,,
,biker,0.9449257254600525,,,,,,,,
,man,0.92879718542099,,,,,,,,
,tree,0.926835298538208,,,,,,,,
,street,0.9188011884689331,,,,,,,,
,park,0.9174772500991821,,,,,,,,
,motion,0.9166932106018066,,,,,,,,
https://scontent.cdninstagram.com/t51.2885-15/e35/11910445_1514368215520042_493805052_n.jpg,street,0.9990094304084778,"Fashion & Beauty",,,,Ootd,,,
,city,0.9922436475753784,,,,,,,,
,child,0.9878886342048645,,,,,,,,
,people,0.9877594113349915,,,,,,,,
,pavement,0.9686053395271301,,,,,,,,
,road,0.9534950256347656,,,,,,,,
,urban,0.9477362632751465,,,,,,,,
,boy,0.9220582246780396,,,,,,,,
,shopping,0.9169542789459229,,,,,,,,
,market,0.9168933629989624,,,,,,,,
,man,0.9130547046661377,,,,,,,,
,woman,0.8980679512023926,,,,,,,,
,girl,0.894324779510498,,,,,,,,
,commerce,0.8912522196769714,,,,,,,,
,portrait,0.866316556930542,,,,,,,,
,group,0.8581302762031555,,,,,,,,
,family,0.8235749006271362,,,,,,,,
,tourist,0.8196109533309937,,,,,,,,
,travel,0.8185459971427917,,,,,,,,
,education,0.8011728525161743,,,,,,,,
https://scontent.cdninstagram.com/t51.2885-15/e35/12558503_763173287122524_710048643_n.jpg,people,0.9812196493148804,"My life",,,,"With me",,,
,man,0.9790724515914917,,,,,,,,
,one,0.9699070453643799,,,,,,,,
,portrait,0.9446624517440796,,,,,,,,
,two,0.917719304561615,,,,,,,,
,adult,0.9122750163078308,,,,,,,,
,fun,0.9109988212585449,,,,,,,,
,mammal,0.9086840152740479,,,,,,,,
,child,0.901070237159729,,,,,,,,
,friendship,0.8836737871170044,,,,,,,,
,dog,0.8796991109848022,,,,,,,,
,young,0.8741398453712463,,,,,,,,
,woman,0.8605325818061829,,,,,,,,
,outdoors,0.8482476472854614,,,,,,,,
,fashion,0.8426696062088013,,,,,,,,
,recreation,0.8364149332046509,,,,,,,,
,love,0.8247095346450806,,,,,,,,
,cute,0.8191546201705933,,,,,,,,
,competition,0.8037976026535034,,,,,,,,
,music,0.8019895553588867,,,,,,,,
