url,class,score
https://scontent-sit4-1.cdninstagram.com/t51.2885-15/s750x750/sh0.08/e35/13277625_1018253141599704_34218749_n.jpg,outdoors,0.9864146113395691
,summer,0.9812015891075134
,no person,0.9809284210205078
,travel,0.9406396150588989
,woman,0.9400521516799927
,nature,0.9287984371185303
,food,0.9246693849563599
,health,0.9169073104858398
,delicious,0.8622894287109375
,sign,0.8598082661628723
,fair weather,0.8530017137527466
,safety,0.8460567593574524
,leisure,0.84203040599823
,street,0.829370379447937
,family,0.8249820470809937
,shopping,0.8247892260551453
,child,0.8208982944488525
,vertical,0.8202252388000488
,architecture,0.8118637800216675
,contemporary,0.8075379729270935
https://scontent-sit4-1.cdninstagram.com/t51.2885-15/e35/13385697_1798290167057332_323268417_n.jpg,text,0.9652214050292969
,no person,0.9554578065872192
,sign,0.8944753408432007
,business,0.8892002105712891
,sign,0.8844870328903198
,paper,0.8567132353782654
,wood,0.8515965938568115
,communication,0.8217298984527588
,display,0.7766772508621216
,information,0.7723338603973389
,warning,0.7530333995819092
,symbol,0.7270376682281494
,time,0.7121902704238892
,message,0.7121664881706238
,money,0.7105716466903687
,option,0.7027896046638489
,security,0.6979831457138062
,alphabet,0.6868035793304443
,service,0.6808675527572632
,internet,0.6765406131744385
https://scontent-sit4-1.cdninstagram.com/t51.2885-15/s750x750/sh0.08/e35/13249700_1748270042118162_178580102_n.jpg,food,0.991262674331665
,lettuce,0.9859863519668579
,no person,0.9818406105041504
,lunch,0.9814616441726685
,meat,0.9652813673019409
,dinner,0.9624437093734741
,meal,0.9578505754470825
,sausage,0.9528374671936035
,mustard,0.9507378339767456
,nutrition,0.9490633010864258
,delicious,0.9423328638076782
,bread,0.9411979913711548
,vegetable,0.9389113187789917
,ketchup,0.9384909868240356
,refreshment,0.9319884777069092
,breakfast,0.9258358478546143
,health,0.9248558878898621
,tomato,0.9242236614227295
,unhealthy,0.9233981370925903
,cooking,0.9160333871841431
https://scontent-sit4-1.cdninstagram.com/t51.2885-15/s750x750/sh0.08/e35/13188061_129172630825550_891548419_n.jpg,no person,0.9977056980133057
,delicious,0.9779177904129028
,tea,0.9716726541519165
,coffee,0.9710781574249268
,breakfast,0.9690933227539062
,traditional,0.9662411212921143
,food,0.9627823829650879
,sugar,0.9616155624389648
,homemade,0.9487978219985962
,health,0.9449284672737122
,baking,0.9359993934631348
,chocolate,0.934639573097229
,dawn,0.9205361008644104
,wood,0.9125072360038757
,sweet,0.9103962779045105
,ingredients,0.9096304178237915
,nutrition,0.9062660336494446
,lunch,0.9051418900489807
,bread,0.9045544266700745
,dinner,0.9043594598770142
https://scontent-sit4-1.cdninstagram.com/t51.2885-15/e35/13277595_136483700089406_790555355_n.jpg,no person,0.9931331872940063
,dinner,0.9930177927017212
,food,0.9905039072036743
,lunch,0.9894955158233643
,french fries,0.9867795705795288
,meat,0.9867634773254395
,chicken,0.9802427291870117
,plate,0.9798396825790405
,delicious,0.977836549282074
,meal,0.97685706615448
,dish,0.9602171182632446
,restaurant,0.9544858336448669
,poultry,0.9453667402267456
,pork,0.9448514580726624
,unhealthy,0.9436368942260742
,sauce,0.9344885945320129
,cooking,0.9272748231887817
,cuisine,0.9240781664848328
,fast,0.9205410480499268
,crisp,0.9128543138504028
https://scontent-sit4-1.cdninstagram.com/t51.2885-15/s750x750/sh0.08/e35/13116801_1032124653534688_1213217303_n.jpg,no person,0.9984210729598999
,food,0.9916176795959473
,wood,0.9708385467529297
,health,0.960574209690094
,Easter,0.9489588737487793
,delicious,0.9487532377243042
,breakfast,0.9369609355926514
,traditional,0.9335277080535889
,nutrition,0.9293445348739624
,cooking,0.9284684658050537
,ingredients,0.914206326007843
,grow,0.9061370491981506
,indoors,0.9049309492111206
,rustic,0.9033123254776001
,fruit,0.8911421298980713
,homemade,0.8905801773071289
,little,0.8882457613945007
,basket,0.8684477210044861
,sweet,0.8452496528625488
,nature,0.8422234058380127
https://scontent-sit4-1.cdninstagram.com/t51.2885-15/s750x750/sh0.08/e35/13297984_1730295267227069_704456525_n.jpg,people,0.9695942401885986
,sign,0.963570773601532
,woman,0.960085391998291
,business,0.9440441727638245
,outdoors,0.9322394132614136
,rally,0.9081255793571472
,sign,0.8904833793640137
,sign,0.8783979415893555
,travel,0.8765901327133179
,adult,0.8580734729766846
,person,0.8505399823188782
,nature,0.8478721380233765
,information,0.8252094984054565
,man,0.8154356479644775
,street,0.8136253356933594
,road,0.8111547827720642
,internet,0.8090658783912659
,bill,0.8014019131660461
,communication,0.7929903268814087
,festival,0.7906285524368286
https://scontent-sit4-1.cdninstagram.com/t51.2885-15/e35/13188040_1695647787362956_1414736034_n.jpg,food,0.9866024851799011
,dinner,0.986533522605896
,delicious,0.980541467666626
,lunch,0.9782412648200989
,noodles,0.973463773727417
,vegetable,0.9687132835388184
,cuisine,0.967818021774292
,traditional,0.9644643068313599
,nutrition,0.9633382558822632
,meal,0.9622844457626343
,cooking,0.9608050584793091
,cabbage,0.958275318145752
,shrimp,0.9579468369483948
,dish,0.9576221704483032
,health,0.9539393186569214
,chili,0.9449484348297119
,chicken,0.941972017288208
,healthy,0.9413223266601562
,plate,0.9321742057800293
,rice,0.9231342673301697
https://scontent-sit4-1.cdninstagram.com/t51.2885-15/e35/13388765_1549842568654414_123394116_n.jpg,coffee,0.992849588394165
,food,0.9922060966491699
,delicious,0.9903998374938965
,cola,0.9878754615783691
,cream,0.9861507415771484
,refreshment,0.9838629961013794
,drink,0.9837677478790283
,dawn,0.9823160767555237
,chocolate,0.9798202514648438
,milk,0.9744659662246704
,breakfast,0.9734059572219849
,ice,0.9717811346054077
,takeout,0.970076858997345
,cup,0.9695724844932556
,sweet,0.9633324146270752
,cappuccino,0.9626582860946655
,restaurant,0.9562703371047974
,espresso,0.9558621048927307
,sugar,0.9555983543395996
,hot,0.9539221525192261
https://scontent-sit4-1.cdninstagram.com/t51.2885-15/s750x750/sh0.08/e35/13298164_918624384950991_1535113448_n.jpg,food,0.9976528882980347
,dinner,0.9930671453475952
,delicious,0.9910820722579956
,meal,0.9896255731582642
,lunch,0.988556981086731
,rice,0.9831792116165161
,dish,0.977551281452179
,epicure,0.9761855602264404
,restaurant,0.9755635261535645
,plate,0.9754661321640015
,chicken,0.9736297130584717
,cuisine,0.9735762476921082
,shrimp,0.9710309505462646
,seafood,0.9709927439689636
,vegetable,0.9662668704986572
,hot,0.9650982618331909
,cooking,0.9620462656021118
,meat,0.9616162180900574
,tasty,0.9544249773025513
,healthy,0.9494454860687256
https://scontent-sit4-1.cdninstagram.com/t51.2885-15/e35/13561690_259330341105054_1661540962_n.jpg,business,0.9116770029067993
,wood,0.9088886976242065
,no person,0.9003092050552368
,text,0.8743301630020142
,money,0.8526310920715332
,paper,0.8501084446907043
,sign,0.8385787010192871
,service,0.8234758377075195
,market,0.8180655837059021
,food,0.7945724725723267
,commerce,0.7897017002105713
,education,0.7874159216880798
,finance,0.7867995500564575
,shopping,0.7856296896934509
,sell,0.781094491481781
,retail,0.7526942491531372
,wooden,0.7524000406265259
,stock,0.7447027564048767
,symbol,0.7402273416519165
,merchandise,0.7328764200210571
https://scontent-sit4-1.cdninstagram.com/t51.2885-15/e35/13249630_1710549929204142_1468125998_n.jpg,wine,0.9988012313842773
,drink,0.9907705187797546
,no person,0.9896042943000793
,alcohol,0.9837803840637207
,bar,0.9685839414596558
,bottle,0.965467095375061
,luxury,0.9635583758354187
,glass,0.9582232236862183
,one,0.9418677091598511
,liquor,0.9408475160598755
,food,0.9342958927154541
,indoors,0.9293237924575806
,wine bottle,0.9245181083679199
,two,0.9148136377334595
,restaurant,0.8950802683830261
,winery,0.8766661286354065
,party,0.8708768486976624
,celebration,0.8620572090148926
,red wine,0.8563835024833679
,dark,0.8475159406661987
https://scontent-sit4-1.cdninstagram.com/t51.2885-15/e35/13392879_1579897628976988_326183249_n.jpg,people,0.9763704538345337
,stock,0.9577471017837524
,indoors,0.9575400352478027
,room,0.9433490037918091
,editorial,0.9406130313873291
,door,0.9296556115150452
,exhibition,0.9293817281723022
,commerce,0.9106796979904175
,girl,0.908624529838562
,school,0.9081423282623291
,booth,0.8913679718971252
,woman,0.8865886926651001
,child,0.886089563369751
,business,0.878997802734375
,machine,0.8779629468917847
,mannequin,0.8711841106414795
,wear,0.8585649728775024
,shopping,0.8573155403137207
,portrait,0.8517282009124756
,adult,0.839389443397522
https://scontent-sit4-1.cdninstagram.com/t51.2885-15/e35/13397684_1564130437222661_2111742083_n.jpg,child,0.9967806935310364
,toy,0.9939980506896973
,teddy,0.9873102903366089
,people,0.9816917181015015
,sketch,0.9734389781951904
,doll,0.9693894982337952
,family,0.9691034555435181
,movie,0.964810848236084
,boy,0.9611406326293945
,group,0.9438368082046509
,man,0.9383776783943176
,baby,0.9324475526809692
,animal,0.925727367401123
,little,0.9205211997032166
,dog,0.9188199043273926
,cute,0.9142491221427917
,mammal,0.8972575068473816
,play,0.8940744400024414
,Christmas,0.8863630294799805
,exhibition,0.8844780921936035
https://scontent-sit4-1.cdninstagram.com/t51.2885-15/e35/13402306_1319701894709985_1596373976_n.jpg,no person,0.9950156211853027
,food,0.9879160523414612
,delicious,0.9829659461975098
,breakfast,0.9817743301391602
,bread,0.9705917835235596
,plate,0.94970703125
,dinner,0.945128321647644
,lunch,0.9433777332305908
,cheese,0.9315211176872253
,toast,0.9244941473007202
,homemade,0.9218446016311646
,nutrition,0.9209379553794861
,refreshment,0.9151618480682373
,cooking,0.905247688293457
,dairy product,0.9026861190795898
,knife,0.8979463577270508
,meal,0.8978472948074341
,health,0.8977173566818237
,slice,0.8903807401657104
,traditional,0.8901095390319824
https://scontent-sit4-1.cdninstagram.com/t51.2885-15/e35/13129333_577113769124102_1550196256_n.jpg,food,0.9736242294311523
,no person,0.946124255657196
,wood,0.8814144134521484
,milk,0.8704489469528198
,apple,0.8613741397857666
,drink,0.8465590476989746
,bowl,0.8453789949417114
,still life,0.8275068998336792
,meal,0.8218910694122314
,dawn,0.8085238933563232
,healthy,0.8070501685142517
,cup,0.8053392171859741
,health,0.8034311532974243
,nutrition,0.7909049987792969
,fruit,0.7891597747802734
,desktop,0.7746948003768921
,bread,0.774584174156189
,wheat,0.7737948894500732
,color,0.7723084688186646
,delicious,0.7445546984672546
https://scontent-sit4-1.cdninstagram.com/t51.2885-15/e35/13398985_1169195726487445_2071014804_n.jpg,no person,0.992499828338623
,summer,0.9868067502975464
,sweet,0.9813894033432007
,delicious,0.9803045988082886
,fruit,0.9697632193565369
,leaf,0.9643145203590393
,sugar,0.9643051624298096
,food,0.9612103700637817
,fall,0.9389678835868835
,cream,0.9389133453369141
,health,0.937642514705658
,berry,0.9236564040184021
,chocolate,0.9166677594184875
,strawberry,0.901185154914856
,nature,0.9010872840881348
,nutrition,0.8998501300811768
,homemade,0.8972367644309998
,breakfast,0.8969295620918274
,cake,0.8936270475387573
,jam,0.8745849132537842
https://scontent-sit4-1.cdninstagram.com/t51.2885-15/e35/13534097_1723807561210036_423910588_n.jpg,celebration,0.9512949585914612
,Christmas,0.9276572465896606
,people,0.9271692037582397
,party,0.8946042060852051
,food,0.894302248954773
,stock,0.8942710757255554
,candle,0.8854146599769592
,no person,0.8845821619033813
,shopping,0.8806509971618652
,traditional,0.8595456480979919
,decoration,0.8566956520080566
,indoors,0.8495056629180908
,luxury,0.8476742506027222
,gift,0.8152980804443359
,cake,0.8151997327804565
,birthday,0.8145385980606079
,candy,0.8144580125808716
,chocolate,0.8077967762947083
,market,0.7904863953590393
,shop,0.7886600494384766
https://scontent-sit4-1.cdninstagram.com/t51.2885-15/e35/13473134_1766120727001144_1867917847_n.jpg,no person,0.9173370599746704
,business,0.9019087553024292
,food,0.884223222732544
,desktop,0.8411543965339661
,World Wide Web,0.8317207098007202
,health,0.8038784265518188
,pill,0.8019419312477112
,label,0.7699182033538818
,money,0.7694510221481323
,nutrition,0.758188009262085
,commerce,0.7543787360191345
,money,0.7369559407234192
,ingredients,0.7126232981681824
,delicious,0.7083033323287964
,information,0.7077682018280029
,finance,0.699738621711731
,sign,0.6813607215881348
,internet,0.6796729564666748
,energy,0.6701407432556152
,number,0.6687957644462585
https://scontent-sit4-1.cdninstagram.com/t51.2885-15/s750x750/sh0.08/e35/13183333_700325733442229_1511789743_n.jpg,food,0.9987144470214844
,meal,0.9967923164367676
,dinner,0.9963728189468384
,lunch,0.9950359463691711
,plate,0.9931168556213379
,dish,0.9867775440216064
,restaurant,0.9866935014724731
,table,0.9841513633728027
,vegetable,0.9806399345397949
,bowl,0.9745962619781494
,cuisine,0.9717533588409424
,hot,0.9682450294494629
,napkin,0.967155933380127
,no person,0.9497429132461548
,potato,0.9477322697639465
,tasty,0.946082353591919
,appetizer,0.9442014694213867
,fork,0.9425963163375854
,delicious,0.9393771290779114
,dining,0.9359414577484131
https://scontent-sit4-1.cdninstagram.com/t51.2885-15/e35/13732072_1723952794520672_518178267_n.jpg,chair,0.9893985390663147
,table,0.9886530041694641
,restaurant,0.9860695004463196
,bar,0.9786900281906128
,seat,0.967161238193512
,furniture,0.9667457342147827
,indoors,0.958646297454834
,luxury,0.9544199705123901
,room,0.9409292936325073
,dining,0.9377636909484863
,coffee,0.9346158504486084
,interior design,0.9136325120925903
,hotel,0.9109722375869751
,no person,0.9041380286216736
,business,0.8989686965942383
,sofa,0.8937669396400452
,window,0.8683912754058838
,relaxation,0.8560910224914551
,sit,0.8505637049674988
,armchair,0.8387513160705566
https://scontent-sit4-1.cdninstagram.com/t51.2885-15/e35/13551841_145837215822479_2142186603_n.jpg,no person,0.9863172769546509
,paper,0.9801509380340576
,plastic,0.9390685558319092
,vertical,0.9247074127197266
,business,0.9131151437759399
,horizontal,0.9074252843856812
,box,0.9044973254203796
,money,0.8891363739967346
,success,0.8752387762069702
,money,0.8708280324935913
,indoors,0.8682212829589844
,food,0.841417133808136
,still life,0.8339732885360718
,nature,0.8331894874572754
,wood,0.8315474390983582
,wealth,0.8294488787651062
,outdoors,0.8277010321617126
,abundance,0.8075224161148071
,shopping,0.8054054975509644
,recycling,0.8006836175918579
https://scontent-sit4-1.cdninstagram.com/t51.2885-15/e35/13715134_1075959069159238_45797844_n.jpg,no person,0.9923309087753296
,delicious,0.980973482131958
,homemade,0.9519089460372925
,sugar,0.9509778022766113
,food,0.9472454786300659
,breakfast,0.9407311677932739
,traditional,0.93753981590271
,cooking,0.9281042218208313
,dinner,0.9238177537918091
,lunch,0.9234656095504761
,cream,0.9132579565048218
,health,0.9125849008560181
,nutrition,0.9074033498764038
,indoors,0.9007127285003662
,knife,0.8983470797538757
,baking,0.8975076675415039
,bread,0.8895144462585449
,candy,0.8809802532196045
,ingredients,0.8721708655357361
,luxury,0.8691601753234863
https://scontent-sit4-1.cdninstagram.com/t51.2885-15/e35/13398437_533554326832437_1843741041_n.jpg,no person,0.9719813466072083
,light,0.922946572303772
,festival,0.9220285415649414
,evening,0.9213367700576782
,food,0.9005624055862427
,hotel,0.8935185074806213
,street,0.8915286064147949
,travel,0.8782740831375122
,city,0.8765819072723389
,fun,0.8416439890861511
,carnival,0.8078793883323669
,party,0.8070608377456665
,casino,0.7985775470733643
,restaurant,0.797103762626648
,business,0.7948355078697205
,people,0.794663667678833
,building,0.7897007465362549
,architecture,0.7878789901733398
,stock,0.7866316437721252
,art,0.7862663269042969
https://scontent-sit4-1.cdninstagram.com/t51.2885-15/e35/13437331_205167843216277_1845546335_n.jpg,food,0.9966384172439575
,sweet,0.9775670170783997
,drink,0.9642505645751953
,bread,0.9636361598968506
,breakfast,0.9566131830215454
,meal,0.9558488130569458
,refreshment,0.9543589949607849
,coffee,0.9463415741920471
,delicious,0.9459039568901062
,chocolate,0.9438241720199585
,no person,0.9430302381515503
,plate,0.9413708448410034
,fruit,0.9398255944252014
,cup,0.9369109869003296
,cream,0.9246715903282166
,restaurant,0.9163436889648438
,milk,0.9113332629203796
,takeout,0.8996508717536926
,dawn,0.8962662220001221
,hot,0.8960428833961487
https://scontent-sit4-1.cdninstagram.com/t51.2885-15/e35/13649263_1636180830032940_645233709_n.jpg,no person,0.9912537932395935
,wood,0.974164605140686
,food,0.9668762683868408
,table,0.9585751295089722
,still life,0.9425285458564758
,wooden,0.9082742929458618
,delicious,0.8940922021865845
,flower,0.8639754056930542
,milk,0.8590946197509766
,bowl,0.8560057878494263
,traditional,0.8466581106185913
,summer,0.8450016975402832
,sweet,0.8423380851745605
,health,0.8418936729431152
,leaf,0.8367016315460205
,coffee,0.8242881298065186
,indoors,0.8174172639846802
,nature,0.8122982978820801
,cup,0.8090065717697144
,rustic,0.8054795265197754
https://scontent-sit4-1.cdninstagram.com/t51.2885-15/e35/13320283_1723488627922763_1693115940_n.jpg,food,0.994989275932312
,dinner,0.9829268455505371
,meal,0.9755091667175293
,delicious,0.9749426245689392
,healthy,0.9695621728897095
,lunch,0.9638307094573975
,cuisine,0.9617384076118469
,plate,0.9609386920928955
,epicure,0.9568426012992859
,cooking,0.9567127227783203
,nutrition,0.9524708986282349
,dish,0.9514312148094177
,diet,0.9489496946334839
,closeup,0.9470932483673096
,vegetable,0.945117175579071
,no person,0.9450337886810303
,traditional,0.9392737150192261
,health,0.9382410049438477
,desktop,0.9370653033256531
,meat,0.9350709915161133
https://scontent-sit4-1.cdninstagram.com/t51.2885-15/e35/13385598_1768102710093754_1600708047_n.jpg,food,0.9902353286743164
,bread,0.9835916757583618
,breakfast,0.9793622493743896
,plate,0.9511982202529907
,meal,0.9449648857116699
,healthy,0.943942129611969
,knife,0.941636323928833
,cheese,0.9407641887664795
,no person,0.9373887777328491
,milk,0.9343231916427612
,egg,0.9246716499328613
,butter,0.9213773608207703
,delicious,0.9199491739273071
,traditional,0.9160306453704834
,table,0.9158324599266052
,wooden,0.9146217703819275
,refreshment,0.9138196706771851
,toast,0.9101343154907227
,desktop,0.9033844470977783
,cooking,0.9003036618232727
https://scontent-sit4-1.cdninstagram.com/t51.2885-15/e35/13277519_179213745812495_1307643072_n.jpg,lettuce,0.9963618516921997
,salad,0.9963412284851074
,food,0.9932091236114502
,healthy,0.9879047870635986
,lunch,0.9870352745056152
,diet,0.9865939617156982
,meal,0.9857642650604248
,dinner,0.9845002889633179
,appetizer,0.9844914674758911
,refreshment,0.979274332523346
,plate,0.9777933359146118
,delicious,0.9757201671600342
,nutrition,0.9730987548828125
,vegetable,0.9714514017105103
,closeup,0.9708279371261597
,epicure,0.9680023193359375
,tomato,0.9660669565200806
,cuisine,0.9569219946861267
,tasty,0.9557843804359436
,dish,0.9536856412887573
https://scontent-sit4-1.cdninstagram.com/t51.2885-15/s750x750/sh0.08/e35/13267474_258445534509052_595661801_n.jpg,breakfast,0.9927127957344055
,food,0.9788533449172974
,no person,0.9687796831130981
,sweet,0.9634658694267273
,delicious,0.9502095580101013
,drink,0.9490071535110474
,dawn,0.9441306591033936
,strawberry,0.9363797307014465
,cup,0.9358701705932617
,egg,0.9357157945632935
,juice,0.9344180822372437
,hot,0.9245725870132446
,wood,0.9228967428207397
,sugar,0.9172973036766052
,wooden,0.9106508493423462
,table,0.9052969217300415
,healthy,0.902417004108429
,plate,0.8924605250358582
,refreshment,0.8853992223739624
,fruit,0.8828830122947693
https://scontent-sit4-1.cdninstagram.com/t51.2885-15/e35/13473112_1072605896146962_1154881960_n.jpg,food,0.9930333495140076
,delicious,0.9797130823135376
,plate,0.9731341600418091
,sweet,0.9706248044967651
,sugar,0.95622718334198
,tasty,0.9531102180480957
,cake,0.952610194683075
,chocolate,0.9512290358543396
,meal,0.9482144117355347
,no person,0.9476445913314819
,traditional,0.937225878238678
,breakfast,0.9356124401092529
,refreshment,0.935387134552002
,restaurant,0.9336435794830322
,fruit,0.926159143447876
,dish,0.92401522397995
,party,0.9233371019363403
,hot,0.9204845428466797
,desktop,0.9190301299095154
,pastry,0.9173674583435059
https://scontent-sit4-1.cdninstagram.com/t51.2885-15/e35/13437389_614635585370044_2145318418_n.jpg,no person,0.9957053661346436
,food,0.9662216901779175
,business,0.9490906000137329
,still life,0.9169825315475464
,money,0.905121922492981
,shopping,0.9032756090164185
,paper,0.8833208084106445
,finance,0.8758563995361328
,wealth,0.873582124710083
,health,0.8734127283096313
,money,0.8626888990402222
,stacks,0.8611593246459961
,indoors,0.8569396138191223
,delicious,0.8415700197219849
,merchandise,0.8183267116546631
,success,0.8039405345916748
,commerce,0.8038067817687988
,wood,0.8033440113067627
,healthcare,0.796895444393158
,box,0.7827735543251038
https://scontent-sit4-1.cdninstagram.com/t51.2885-15/e35/13188019_203733710019487_137944901_n.jpg,Easter,0.9895224571228027
,child,0.9860648512840271
,grass,0.9770466089248657
,no person,0.9761956930160522
,fun,0.9567219018936157
,people,0.944675624370575
,cute,0.9218816161155701
,food,0.9172786474227905
,toy,0.9145224094390869
,girl,0.9065351486206055
,funny,0.9019988775253296
,wood,0.896976888179779
,celebration,0.8860734105110168
,woman,0.8793540000915527
,man,0.871932864189148
,little,0.8651553988456726
,egg,0.856652557849884
,box,0.8541969060897827
,outdoors,0.8539485931396484
,love,0.8488845825195312
https://scontent-sit4-1.cdninstagram.com/t51.2885-15/e35/13525273_951686354940220_2005083595_n.jpg,food,0.9963601231575012
,dinner,0.9926439523696899
,lunch,0.9912105202674866
,no person,0.989395260810852
,chicken,0.9833489656448364
,meal,0.982883870601654
,plate,0.9804514646530151
,poultry,0.9770777225494385
,french fries,0.9726821184158325
,dish,0.970193088054657
,restaurant,0.9614942073822021
,delicious,0.9609581232070923
,unhealthy,0.957089900970459
,meat,0.9516800045967102
,fast,0.9459541440010071
,beer,0.9447764754295349
,dining,0.9302549362182617
,knife,0.9291374683380127
,refreshment,0.9225754141807556
,crisp,0.9141440391540527
https://scontent-sit4-1.cdninstagram.com/t51.2885-15/e35/13277625_1066236900114658_879795446_n.jpg,bread,0.9959406852722168
,no person,0.9922177791595459
,food,0.9841243028640747
,dinner,0.9836363196372986
,delicious,0.9769657850265503
,health,0.9726106524467468
,appetizer,0.9638478755950928
,lunch,0.9604682326316833
,creamy,0.9523189067840576
,ingredients,0.9398149251937866
,traditional,0.9394725561141968
,nutrition,0.9359272718429565
,cream,0.9317905902862549
,homemade,0.9285295009613037
,soup,0.9220214486122131
,wood,0.9150137901306152
,milk,0.8975411653518677
,cooking,0.8619116544723511
,bowl,0.8609189987182617
,meal,0.8602279424667358
https://scontent-sit4-1.cdninstagram.com/t51.2885-15/e35/13385685_1546470505660821_1078260587_n.jpg,food,0.9761360883712769
,healthy,0.9541848301887512
,health,0.9511319398880005
,candle,0.9421703219413757
,traditional,0.9404405355453491
,watermelon,0.9339126348495483
,fruit,0.9262862801551819
,refreshment,0.9174401760101318
,no person,0.9074851274490356
,sweet,0.9012542366981506
,bowl,0.8997534513473511
,melon,0.8873900771141052
,flame,0.8570653200149536
,tropical,0.8111596703529358
,hot,0.7982338666915894
,delicious,0.7957559823989868
,market,0.7754734754562378
,vegetable,0.7738049030303955
,freshness,0.7658475637435913
,summer,0.7501814365386963
https://scontent-sit4-1.cdninstagram.com/t51.2885-15/e35/13658495_619381354887511_1640492090_n.jpg,no person,0.9426461458206177
,celebration,0.9186737537384033
,Easter,0.9041963815689087
,cake,0.9011186957359314
,birthday,0.8719134330749512
,delicious,0.8651424646377563
,food,0.8620783090591431
,fun,0.8589136004447937
,decoration,0.8459451198577881
,grass,0.8424463272094727
,candy,0.8321090936660767
,desktop,0.8174597024917603
,sweet,0.8157976865768433
,party,0.8032659292221069
,color,0.7952231764793396
,Christmas,0.7810124158859253
,child,0.7775741219520569
,cute,0.7710546255111694
,bright,0.7597896456718445
,little,0.7589883804321289
https://scontent-sit4-1.cdninstagram.com/t51.2885-15/s750x750/sh0.08/e35/13256949_735423593261339_1726527655_n.jpg,food,0.990676760673523
,dinner,0.9813340306282043
,meal,0.9793575406074524
,lunch,0.9733544588088989
,meat,0.971859335899353
,plate,0.9614664912223816
,dish,0.9463585615158081
,bowl,0.9416587352752686
,sauce,0.9369446039199829
,epicure,0.9358450174331665
,delicious,0.934101402759552
,cooking,0.9309923648834229
,vegetable,0.930010199546814
,restaurant,0.9210844039916992
,tomato,0.9165283441543579
,chili,0.9119859337806702
,no person,0.907685399055481
,traditional,0.903980016708374
,curry,0.9033007621765137
,pasta,0.9010188579559326
https://scontent-sit4-1.cdninstagram.com/t51.2885-15/e35/13696823_306533249690170_1911863611_n.jpg,dining,0.9971877932548523
,tableware,0.9946004152297974
,table,0.9936100840568542
,tea,0.990168035030365
,restaurant,0.9894099235534668
,no person,0.9869365096092224
,breakfast,0.9868756532669067
,food,0.9858145117759705
,indoors,0.9812553524971008
,dinner,0.9767593145370483
,cup,0.9759560823440552
,cutlery,0.9727863073348999
,lunch,0.969833493232727
,plate,0.9668536186218262
,coffee,0.9658166766166687
,tablecloth,0.9582418203353882
,collage,0.9549208879470825
,set,0.9477857947349548
,drink,0.9477187991142273
,dishware,0.9472223520278931
https://scontent-sit4-1.cdninstagram.com/t51.2885-15/e35/13398651_794387243995294_300243194_n.jpg,no person,0.9942437410354614
,paper,0.9911987781524658
,coffee,0.9832097291946411
,breakfast,0.9535499215126038
,traditional,0.9503557682037354
,business,0.9348416328430176
,cup,0.9345988035202026
,creativity,0.9312280416488647
,contemporary,0.9262322783470154
,tea,0.9129579067230225
,table,0.901738166809082
,porcelain,0.8879490494728088
,knife,0.8849769830703735
,indoors,0.8682315349578857
,delicious,0.8649803400039673
,success,0.8448229432106018
,composition,0.837317943572998
,glass,0.8306949734687805
,dawn,0.8271217346191406
,drink,0.8258562684059143
https://scontent-sit4-1.cdninstagram.com/t51.2885-15/e35/13408765_576646822496309_317153924_n.jpg,apple,0.9934436082839966
,food,0.9910833835601807
,fruit,0.9890102744102478
,no person,0.9832534193992615
,healthy,0.969550371170044
,juicy,0.9678541421890259
,summer,0.9542261958122253
,health,0.9534165859222412
,sweet,0.9473773241043091
,diet,0.9458835124969482
,pasture,0.9434154033660889
,nutrition,0.9431355595588684
,delicious,0.9340630769729614
,nature,0.9335132837295532
,fall,0.9330850839614868
,confection,0.9325249791145325
,freshness,0.9302300810813904
,desktop,0.9263709187507629
,color,0.9255104064941406
,garden,0.9212988615036011
https://scontent-sit4-1.cdninstagram.com/t51.2885-15/e35/13150862_130419140698908_6997487_n.jpg,pizza,0.999842643737793
,cheese,0.9968671798706055
,dough,0.995772659778595
,food,0.9957678318023682
,crust,0.9957004189491272
,pepperoni,0.9955476522445679
,mozzarella,0.9924461841583252
,refreshment,0.9889178276062012
,unhealthy,0.9872877597808838
,delicious,0.9845669269561768
,fast,0.9843864440917969
,pie,0.982428789138794
,lunch,0.9808634519577026
,dinner,0.9787914752960205
,baking,0.9779611825942993
,junk,0.9756226539611816
,restaurant,0.9739938974380493
,pastry,0.9738460779190063
,ham,0.9701372385025024
,pizzeria,0.9685278534889221
https://scontent-sit4-1.cdninstagram.com/t51.2885-15/s750x750/sh0.08/e35/13166971_273258256352246_206497733_n.jpg,coffee,0.9954513311386108
,breakfast,0.993722677230835
,no person,0.9873824119567871
,dawn,0.9807145595550537
,food,0.9758780002593994
,cup,0.9690300226211548
,delicious,0.9687784910202026
,hot,0.956752359867096
,tea,0.94499671459198
,milk,0.9445996284484863
,drink,0.9445939064025879
,espresso,0.938111424446106
,bread,0.9346840977668762
,table,0.9340923428535461
,sugar,0.9275286197662354
,sweet,0.9264342784881592
,wood,0.925812840461731
,croissant,0.9129492044448853
,pastry,0.8974690437316895
,knife,0.8953096866607666
https://scontent-sit4-1.cdninstagram.com/t51.2885-15/e35/13525367_1076322269108588_1587419138_n.jpg,celebration,0.9545606374740601
,Christmas,0.9444007873535156
,food,0.9304467439651489
,thread,0.9239217042922974
,no person,0.9204218983650208
,desktop,0.9100309610366821
,fun,0.9071974754333496
,symbol,0.9021687507629395
,outdoors,0.8933829069137573
,party,0.8872804641723633
,football,0.8856701254844666
,design,0.884621262550354
,grass,0.8842514753341675
,box,0.8784605264663696
,color,0.8768371939659119
,decoration,0.8742344379425049
,gift,0.8734835386276245
,paper,0.8691141605377197
,festival,0.8650933504104614
,card,0.8507178425788879
https://scontent-sit4-1.cdninstagram.com/t51.2885-15/s750x750/sh0.08/e35/13556803_1649428412049944_602818270_n.jpg,food,0.9988634586334229
,meal,0.9953702688217163
,dinner,0.9930514097213745
,dish,0.9907115697860718
,restaurant,0.990662693977356
,plate,0.9890554547309875
,cuisine,0.9871073961257935
,lunch,0.985802948474884
,delicious,0.9856144189834595
,seafood,0.9839536547660828
,epicure,0.9786467552185059
,tasty,0.977120578289032
,cooking,0.9726629257202148
,shrimp,0.9713394641876221
,hot,0.970004141330719
,meat,0.9673998951911926
,vegetable,0.9651959538459778
,healthy,0.9594937562942505
,table,0.9523241519927979
,sauce,0.9510847330093384
https://scontent-sit4-1.cdninstagram.com/t51.2885-15/e35/13397613_317944915210357_1108226091_n.jpg,apple,0.9835338592529297
,drink,0.981469988822937
,bottle,0.9639049768447876
,no person,0.96361243724823
,food,0.957451581954956
,glass,0.9247187376022339
,summer,0.9083248376846313
,fruit,0.903947114944458
,wine,0.8810791373252869
,desktop,0.8685736656188965
,still life,0.857559084892273
,health,0.8545151948928833
,color,0.840991735458374
,alcohol,0.8404226303100586
,abundance,0.827329158782959
,nature,0.7964032292366028
,cider,0.780123770236969
,kind,0.7780969738960266
,healthy,0.7548381090164185
,party,0.7459463477134705
https://scontent-sit4-1.cdninstagram.com/t51.2885-15/e35/13260901_233567600357425_832179057_n.jpg,food,0.9947651028633118
,no person,0.9850367307662964
,delicious,0.9739938974380493
,plate,0.9587956070899963
,fruit,0.9420013427734375
,traditional,0.9358932971954346
,bread,0.9293670654296875
,breakfast,0.9236868619918823
,coffee,0.9216159582138062
,sweet,0.9209271669387817
,meal,0.912329912185669
,dinner,0.908320426940918
,tea,0.904498815536499
,drink,0.8993418216705322
,lunch,0.8874384164810181
,sugar,0.8857501745223999
,cake,0.8855456113815308
,hot,0.8840227127075195
,cooking,0.8839102983474731
,homemade,0.8800781965255737
https://scontent-sit4-1.cdninstagram.com/t51.2885-15/s750x750/sh0.08/e35/13150881_973211636108124_2054198640_n.jpg,food,0.99629807472229
,meal,0.9631695747375488
,cuisine,0.9622714519500732
,delicious,0.9614143371582031
,dish,0.9606020450592041
,vegetable,0.9588878750801086
,cooking,0.9548306465148926
,desktop,0.9524235725402832
,plate,0.951678991317749
,epicure,0.9500018358230591
,closeup,0.9493962526321411
,healthy,0.9427946209907532
,sweet,0.9425778985023499
,refreshment,0.9422103762626648
,tasty,0.9408014416694641
,no person,0.9365009665489197
,homemade,0.9279049038887024
,traditional,0.9265825748443604
,appetizer,0.9219207763671875
,dinner,0.9190430641174316
