url,class,score
https://scontent.cdninstagram.com/t51.2885-15/s640x640/sh0.08/e35/13549472_1229272593780297_1599690449_n.jpg,fashion,0.988092184
,people,0.981807351
,music,0.949945092
,event,0.949294627
,fame,0.948658466
,dress,0.94485414
,movie,0.94361949
,trendy,0.939628482
,actress,0.93447715
,woman,0.926154256
,editorial,0.921653509
,festival,0.916404963
,singer,0.889394701
,model,0.889388084
,pop,0.88319242
,wear,0.869335473
,actor,0.866158903
,fashionable,0.861450493
,group,0.859009624
,show,0.856763363
https://scontent.cdninstagram.com/t51.2885-15/e35/13392736_1548592555447759_1693683771_n.jpg,woman,0.957661271
,indoors,0.955328405
,family,0.939758539
,people,0.930805326
,pretty,0.92044878
,young,0.880228281
,casual,0.850212514
,person,0.832336903
,contemporary,0.811931014
,sexy,0.805388689
,chair,0.792069554
,cute,0.78740406
,adolescent,0.782994866
,fashion,0.782915115
,option,0.770050406
,housework,0.755793929
,sit,0.727304578
,relaxation,0.725060046
,room,0.72013092
,shopping,0.710119128
https://scontent.cdninstagram.com/t51.2885-15/e35/13298159_1070811119621195_1410709312_n.jpg,indoors,0.99526751
,woman,0.992916584
,room,0.983555317
,family,0.96942842
,togetherness,0.965453982
,shopping,0.964436531
,people,0.946895361
,furniture,0.941690683
,enjoyment,0.937978566
,adult,0.924930215
,girl,0.912463188
,man,0.902620912
,happiness,0.89754951
,lifestyle,0.896746635
,relaxation,0.895344853
,shop,0.861514568
,stock,0.860550761
,love,0.857379198
,facial expression,0.850241184
,contemporary,0.838637114
https://scontent.cdninstagram.com/t51.2885-15/e35/13397504_435705233266543_1639248752_n.jpg,health,0.982955575
,liquid,0.973477125
,healthcare,0.961219311
,glass,0.960407495
,no person,0.959030151
,juice,0.946199238
,medicine,0.929744303
,woman,0.905991316
,drink,0.905737579
,bottle,0.894129157
,healthy,0.886634886
,food,0.876598477
,one,0.868300736
,treatment,0.866285741
,plastic,0.859702349
,isolated,0.85648632
,container,0.851588428
,refreshment,0.839564443
,nutrition,0.837264359
,care,0.798150539
https://scontent.cdninstagram.com/t51.2885-15/e35/13398632_515630551979522_773531133_n.jpg,food,0.968268275
,traditional,0.953921735
,collage,0.943318427
,celebration,0.921933889
,delicious,0.904762268
,fruit,0.904213667
,people,0.87952733
,candy,0.87860167
,healthy,0.878156602
,market,0.86938417
,cake,0.864755511
,party,0.855271697
,Christmas,0.840782523
,drink,0.836058021
,woman,0.835644484
,tasty,0.834279895
,many,0.83029747
,chocolate,0.830087364
,festival,0.822377563
,meal,0.814628899
https://scontent.cdninstagram.com/t51.2885-15/s640x640/sh0.08/e35/13298247_987668924673461_86824953_n.jpg,woman,0.986926913
,people,0.958600402
,girl,0.942709506
,indoors,0.937456965
,portrait,0.931058764
,nude,0.904803097
,fashion,0.902708292
,one,0.89164412
,adult,0.877980828
,sexy,0.873708189
,pretty,0.858731866
,enjoyment,0.82921797
,model,0.810708165
,relaxation,0.804163873
,wear,0.777750731
,glamour,0.777069926
,fun,0.758101642
,light,0.754046857
,recreation,0.749670982
,sit,0.72051841
https://scontent.cdninstagram.com/t51.2885-15/s750x750/sh0.08/e35/13260922_238156169896150_2042329570_n.jpg,togetherness,0.987155616
,woman,0.984664381
,enjoyment,0.974891901
,adult,0.972115397
,happiness,0.970101476
,friendship,0.966479599
,man,0.965349853
,facial expression,0.961009204
,coffee,0.956009388
,restaurant,0.955318511
,indoors,0.955287635
,people,0.954606414
,furniture,0.922233641
,sit,0.918357968
,two,0.909131885
,family,0.903621197
,leisure,0.89291513
,table,0.891955614
,laughing,0.888946772
,drink,0.887750149
https://scontent.cdninstagram.com/t51.2885-15/e35/13260874_1055678717820742_1145756465_n.jpg,people,0.975219488
,group,0.970133245
,group,0.964476824
,woman,0.951601028
,portrait,0.932156086
,man,0.925401568
,girl,0.900905967
,friendship,0.896613836
,child,0.893785059
,adult,0.884485483
,fun,0.883952856
,recreation,0.858516455
,many,0.841048539
,young,0.823989034
,celebration,0.82327354
,outdoors,0.81831187
,event,0.805510402
,adolescent,0.793670654
,beautiful,0.791075349
,person,0.788508773
https://scontent.cdninstagram.com/t51.2885-15/e35/13258893_596235747206575_1455274995_n.jpg,food,0.99309361
,delicious,0.99193126
,lunch,0.98773241
,dinner,0.985274613
,traditional,0.967496634
,meal,0.965455413
,no person,0.957426667
,plate,0.956243515
,epicure,0.955037415
,dish,0.949274659
,cuisine,0.94583863
,nutrition,0.939837039
,restaurant,0.939451218
,hot,0.936719775
,tasty,0.934574306
,cooking,0.92726028
,vegetable,0.92085284
,breakfast,0.918892145
,sauce,0.916835308
,tomato,0.910941243
https://scontent.cdninstagram.com/t51.2885-15/e35/13285410_846366418826717_1015271734_n.jpg,child,0.962366104
,woman,0.961729944
,people,0.954679966
,outdoors,0.932659388
,recreation,0.932436109
,man,0.910021901
,fun,0.900514841
,education,0.897558331
,togetherness,0.894764841
,enjoyment,0.891517341
,leisure,0.886204541
,adolescent,0.875284016
,family,0.856299996
,friendship,0.839537978
,student,0.789306879
,horizontal,0.779295087
,exercise,0.775219321
,joy,0.769258022
,wear,0.768787146
,young,0.74847436
https://scontent.cdninstagram.com/t51.2885-15/e35/13259064_1152092331476491_361011214_n.jpg,food,0.992473602
,restaurant,0.982411325
,drink,0.979298949
,stock,0.974093854
,indoors,0.968651414
,table,0.95852828
,cake,0.953138709
,chocolate,0.949998021
,people,0.946641743
,collection,0.94547528
,sweet,0.944902897
,buffet,0.944255173
,dining,0.944183111
,celebration,0.935689449
,plate,0.932868958
,breakfast,0.932662249
,no person,0.932513833
,party,0.929063797
,fruit,0.928646624
,meal,0.92730546
https://scontent.cdninstagram.com/t51.2885-15/e35/13129243_1599447563716258_1546082073_n.jpg,woman,0.9943012
,table,0.983557343
,restaurant,0.98249948
,sit,0.98238802
,enjoyment,0.980831206
,drink,0.970378339
,lifestyle,0.968512774
,meal,0.96818608
,family,0.967898488
,lunch,0.967121005
,coffee,0.966878653
,togetherness,0.966044366
,happiness,0.961717427
,friendship,0.957748532
,indoors,0.957186759
,adult,0.947204828
,breakfast,0.935971141
,people,0.932132483
,room,0.927443624
,young,0.926344037
https://scontent.cdninstagram.com/t51.2885-15/e35/12599389_254749344873287_409893976_n.jpg,food,0.994402051
,dinner,0.986917078
,cooking,0.981055737
,meal,0.980688989
,lunch,0.97588253
,restaurant,0.97004199
,cuisine,0.966295481
,plate,0.959764123
,pasta,0.95959115
,delicious,0.956829786
,spaghetti,0.949320793
,dish,0.948896706
,epicure,0.942084253
,nutrition,0.936326742
,vegetable,0.934480667
,tasty,0.933152139
,healthy,0.932083368
,hot,0.919860482
,seafood,0.898105741
,no person,0.892618418
https://scontent.cdninstagram.com/t51.2885-15/e35/12424918_227822260909153_632658041_n.jpg,food,0.988937974
,no person,0.943796039
,hot,0.9275316
,traditional,0.922951579
,meal,0.904316902
,desktop,0.903054714
,bread,0.878720641
,isolated,0.863775969
,lunch,0.863666356
,refreshment,0.86294663
,tasty,0.858106375
,dinner,0.853163481
,delicious,0.846303046
,closeup,0.842644811
,cuisine,0.835558474
,breakfast,0.823450089
,cooking,0.813671231
,round,0.796449125
,appetizer,0.793322682
,plate,0.776674986
https://scontent.cdninstagram.com/t51.2885-15/e35/13092477_1537514989887625_45217066_n.jpg,paper,0.971641123
,flower,0.961201012
,desktop,0.959536195
,business,0.955829859
,money,0.947396517
,money,0.946188211
,note,0.939774454
,isolated,0.917537451
,finance,0.897679508
,color,0.893867373
,no person,0.883047819
,wealth,0.877653122
,set,0.873893142
,financial,0.858967602
,savings,0.856903553
,cash,0.844398379
,luxury,0.839901567
,leaf,0.827009857
,decoration,0.825556099
,bank,0.824079275
https://scontent.cdninstagram.com/t51.2885-15/e35/12934896_1554575268169937_646511388_n.jpg,egg,0.994331181
,sweet,0.99408567
,no person,0.991463006
,food,0.988739014
,homemade,0.984439254
,cake,0.983214378
,egg yolk,0.982028484
,baking,0.981048703
,delicious,0.979438782
,pastry,0.977348566
,custard,0.975984395
,breakfast,0.973935246
,cooking,0.9709903
,sugar,0.965954781
,cream,0.962024808
,fruit,0.951035738
,tart,0.916284204
,nutrition,0.915052652
,desktop,0.913976192
,bakery,0.909597278
https://scontent.cdninstagram.com/t51.2885-15/e35/12502010_1573339569661072_720230826_n.jpg,no person,0.986583948
,cute,0.967396617
,hoggish,0.958268642
,savings,0.948200941
,funny,0.915029705
,little,0.911545634
,Easter,0.90004921
,chicken,0.8958323
,isolated,0.884358644
,child,0.867672205
,desktop,0.818130732
,egg,0.811849594
,baby,0.806481898
,food,0.80547595
,nutrition,0.791710496
,sketch,0.784436047
,hen,0.773716211
,bright,0.772672296
,box,0.772080183
,emoticon,0.771764874
https://scontent.cdninstagram.com/t51.2885-15/e35/12950214_1733386946881543_839737905_n.jpg,woman,0.991914749
,people,0.976559341
,togetherness,0.97468394
,man,0.964576304
,enjoyment,0.953343749
,group,0.943897188
,shopping,0.937566876
,daylight,0.937137961
,happiness,0.932522893
,portrait,0.928598404
,facial expression,0.927016497
,adult,0.911480665
,wear,0.898330808
,laughing,0.892944813
,indoors,0.892380834
,outdoors,0.885960877
,business,0.875871301
,travel,0.85298562
,city,0.835212231
,friendship,0.831449449
https://scontent.cdninstagram.com/t51.2885-15/e35/13099060_1173859046011467_1095950093_n.jpg,food,0.995978534
,traditional,0.968744755
,restaurant,0.96372211
,table,0.962630749
,meal,0.961900473
,cake,0.951971054
,cooking,0.948117614
,drink,0.944490671
,tea,0.941476703
,plate,0.939826846
,dinner,0.931841075
,no person,0.924452662
,dining,0.921401739
,dish,0.919330478
,sweet,0.914398074
,breakfast,0.913974345
,delicious,0.913452685
,buffet,0.911016226
,lunch,0.911010861
,party,0.905513525
https://scontent.cdninstagram.com/t51.2885-15/e35/12912818_1717544075184620_764345413_n.jpg,food,0.991930008
,breakfast,0.988146305
,no person,0.982624412
,plate,0.980368018
,dinner,0.973947883
,meal,0.971413434
,lunch,0.968644619
,delicious,0.963693023
,restaurant,0.959821224
,table,0.959027648
,dish,0.958903372
,dining,0.953594685
,coffee,0.943675637
,knife,0.943257451
,egg,0.940956831
,dawn,0.939070582
,hot,0.934236526
,cooking,0.924195051
,traditional,0.922251821
,milk,0.922010064
https://scontent.cdninstagram.com/t51.2885-15/e35/12912455_1526894090950985_2018414045_n.jpg,people,0.981831908
,woman,0.970938206
,man,0.963861942
,architecture,0.955940604
,city,0.955684602
,outdoors,0.949797988
,street,0.949091792
,many,0.923154831
,travel,0.897989988
,child,0.896569371
,competition,0.873056889
,building,0.870732307
,tourist,0.857238233
,young,0.848924816
,group,0.843986869
,urban,0.82380259
,victory,0.815429449
,adult,0.809738398
,military,0.800951838
,fun,0.797213197
https://scontent.cdninstagram.com/l/t51.2885-15/e35/12479434_1339062552776504_1989047795_n.jpg,no person,0.97221005
,coffee,0.916968465
,cute,0.913581789
,plastic,0.910234928
,chocolate,0.901848793
,cup,0.897573113
,milk,0.895075142
,isolated,0.88375324
,indoors,0.831231713
,fun,0.828019619
,food,0.825573087
,tea,0.807148337
,family,0.79794991
,porcelain,0.79499805
,child,0.793649077
,design,0.792929113
,sugar,0.773619294
,ceramic,0.772610486
,empty,0.768831551
,kind,0.767326117
https://scontent.cdninstagram.com/t51.2885-15/e35/12907279_1162552887111466_672532683_n.jpg,cream,0.982754111
,sweet,0.980261028
,food,0.979356408
,chocolate,0.9704777
,no person,0.96311295
,refreshment,0.962343335
,vertical,0.939247727
,delicious,0.934278369
,ice,0.921449363
,indulgence,0.907493353
,milk,0.902889371
,yogurt,0.899983525
,goody,0.8882882
,cake,0.88013041
,decoration,0.866149426
,glass,0.862003088
,sugar,0.852216482
,cookie,0.849078298
,vanilla,0.845789194
,breakfast,0.844757378
https://scontent.cdninstagram.com/t51.2885-15/e35/12531043_991504367602399_1785391019_n.jpg,people,0.958396435
,woman,0.956666112
,friendship,0.932735741
,child,0.921453476
,fun,0.89067781
,family,0.883208156
,celebration,0.878933311
,man,0.878072798
,group,0.875000715
,street,0.859326243
,traditional,0.847315192
,portrait,0.836896241
,outdoors,0.824658751
,enjoyment,0.821802735
,festival,0.81762588
,togetherness,0.809028089
,group,0.79199791
,music,0.770515919
,multicultural,0.744039297
,girl,0.741418242
https://scontent.cdninstagram.com/t51.2885-15/e35/12784072_1202802673081563_1567981761_n.jpg,no person,0.989701152
,coffee,0.98834759
,drink,0.982845008
,tea,0.982814908
,cup,0.975745618
,breakfast,0.945760846
,glass,0.944927931
,milk,0.938493013
,food,0.938064814
,delicious,0.925237358
,cream,0.918671787
,summer,0.913298965
,dawn,0.912596047
,cold,0.912028313
,hot,0.907260895
,health,0.897638679
,traditional,0.894906759
,chocolate,0.894115448
,bright,0.893622994
,sugar,0.876424015
https://scontent.cdninstagram.com/t51.2885-15/e35/12530824_1656972941235083_334180393_n.jpg,woman,0.994721651
,indoors,0.984888554
,restaurant,0.982786655
,people,0.982402802
,happiness,0.981832206
,cooking,0.979848504
,family,0.975711226
,adult,0.974698067
,lifestyle,0.9725281
,togetherness,0.971125782
,girl,0.968981326
,enjoyment,0.966171265
,table,0.963361204
,food,0.961296201
,meal,0.960170865
,cookware,0.94737649
,coffee,0.931891739
,friendship,0.93057704
,facial expression,0.928289771
,smile,0.917185545
https://scontent.cdninstagram.com/t51.2885-15/e35/10561032_1179096575434815_276763541_n.jpg,woman,0.976392269
,people,0.974285722
,indoors,0.972623289
,one,0.971322119
,portrait,0.96685046
,girl,0.958853781
,facial expression,0.953677177
,adult,0.933998942
,wear,0.910915136
,lid,0.907143354
,child,0.907049894
,cute,0.887362242
,fashion,0.852959335
,happiness,0.851498485
,enjoyment,0.846092761
,looking,0.840177178
,brunette,0.837450624
,fun,0.80144316
,room,0.792742848
,lifestyle,0.755659103
https://scontent.cdninstagram.com/t51.2885-15/e35/12905047_1728279020762658_212970589_n.jpg,food,0.997958183
,meal,0.991857767
,dinner,0.988909006
,lunch,0.988497913
,meat,0.987519622
,restaurant,0.981686473
,chicken,0.979881644
,delicious,0.970470607
,plate,0.969715476
,fast,0.953109264
,hot,0.949941218
,dish,0.94833082
,tasty,0.940980494
,nutrition,0.939571738
,french fries,0.93945682
,potato,0.936130226
,no person,0.928586423
,refreshment,0.927185059
,cooking,0.926917791
,salad,0.920246482
https://scontent.cdninstagram.com/t51.2885-15/e35/12269807_1697452150531610_219073530_n.jpg,restaurant,0.987568974
,food,0.985982358
,people,0.982778013
,woman,0.965682745
,adult,0.964928389
,indoors,0.948987484
,portrait,0.924329937
,stock,0.914070606
,drink,0.914056301
,happiness,0.913300276
,meal,0.912519693
,group,0.911057889
,party,0.902394414
,table,0.895139337
,lifestyle,0.894456804
,bar,0.888565481
,man,0.879254818
,girl,0.878569245
,chef,0.874796391
,market,0.867379189
https://scontent.cdninstagram.com/t51.2885-15/e35/12519582_1028810780524624_1060205141_n.jpg,food,0.965979874
,no person,0.96261251
,sweet,0.960618496
,chocolate,0.959267914
,desktop,0.949766338
,cream,0.947539747
,candle,0.935164928
,delicious,0.932519913
,glass,0.931666136
,sugar,0.926829696
,cake,0.917161405
,color,0.912337124
,homemade,0.902671933
,candy,0.898216307
,decoration,0.897458851
,box,0.897063613
,health,0.878212452
,celebration,0.874612033
,traditional,0.871704578
,party,0.861118555
https://scontent.cdninstagram.com/t51.2885-15/s750x750/sh0.08/e35/12383436_1221909921171808_1600525400_n.jpg,people,0.973123312
,energy,0.969745576
,woman,0.967224836
,girl,0.962713361
,one,0.959652901
,adult,0.954999268
,leisure,0.940308928
,relaxation,0.933609486
,sky,0.929366112
,water,0.924719989
,lifestyle,0.924649358
,summer,0.923348963
,motion,0.907411575
,pier,0.902005672
,happiness,0.901135921
,outdoors,0.899345756
,city,0.896168828
,travel,0.895339727
,portrait,0.891670644
,fun,0.886564255
https://scontent.cdninstagram.com/t51.2885-15/e35/12940256_481465482047922_1993860197_n.jpg,food,0.990719914
,noodles,0.978761494
,pasta,0.975084603
,bowl,0.967828572
,vertical,0.948717117
,horizontal,0.928988993
,cooking,0.921663702
,indoors,0.90889889
,no person,0.904391885
,vegetable,0.900899529
,traditional,0.900763392
,bamboo,0.893486023
,dinner,0.888449192
,plate,0.878858447
,lunch,0.852526426
,spaghetti,0.847113609
,health,0.846776545
,meal,0.845538259
,soup,0.84425211
,dish,0.816771686
https://scontent.cdninstagram.com/t51.2885-15/e35/12677455_191993541163094_1953591188_n.jpg,people,0.969738424
,woman,0.918427408
,man,0.901609659
,child,0.900250554
,group,0.879296422
,sport,0.87035495
,education,0.868844688
,friendship,0.860359907
,adult,0.849321604
,school,0.816786885
,person,0.814847112
,portrait,0.805757284
,squad,0.804412723
,event,0.772325277
,girl,0.769636035
,fun,0.739349544
,young,0.724190295
,family,0.70477128
,illustration,0.702059567
,recreation,0.680655479
https://scontent.cdninstagram.com/t51.2885-15/e35/12728662_228380064169350_1478774508_n.jpg,group,0.99598217
,people,0.988518476
,adult,0.983057559
,woman,0.98034519
,room,0.978893161
,restaurant,0.978790879
,many,0.974681139
,indoors,0.961074889
,group,0.956397295
,table,0.955329955
,man,0.95106709
,bar,0.939185858
,furniture,0.938794851
,drink,0.93130517
,commerce,0.930546403
,portrait,0.9263978
,employee,0.925528765
,recreation,0.92437005
,exhibition,0.920836329
,festival,0.913182259
https://scontent.cdninstagram.com/t51.2885-15/s750x750/sh0.08/e35/12716914_1158390220852662_730457615_n.jpg,restaurant,0.993325591
,woman,0.98901093
,people,0.987392187
,enjoyment,0.982299209
,adult,0.98151511
,facial expression,0.981476784
,group,0.980150223
,group,0.972769737
,drink,0.970817149
,four,0.969793558
,friendship,0.955635846
,table,0.95343101
,food,0.944875836
,meal,0.944446802
,daylight,0.939471126
,happiness,0.937603295
,vehicle,0.931544662
,indoors,0.92617172
,party,0.924286067
,furniture,0.919045269
https://scontent.cdninstagram.com/t51.2885-15/s640x640/sh0.08/e35/12558922_837851366344531_882913941_n.jpg,group,0.991286814
,adult,0.991137981
,woman,0.990653634
,group,0.986807823
,people,0.980638385
,table,0.979670405
,four,0.979516625
,facial expression,0.971031785
,furniture,0.96973294
,restaurant,0.969067872
,room,0.960910499
,enjoyment,0.940292358
,happiness,0.926268578
,indoors,0.925674558
,man,0.925249338
,friendship,0.924453557
,portrait,0.916899204
,several,0.906719923
,wear,0.90451318
,employee,0.88410455
https://scontent.cdninstagram.com/t51.2885-15/e35/12555967_166586450382077_349282287_n.jpg,food,0.997418404
,no person,0.991606414
,bacon,0.961681604
,delicious,0.948736787
,meat,0.934192896
,dairy product,0.932742953
,fruit,0.931850016
,ham,0.930237293
,desktop,0.928093195
,grow,0.913022518
,meal,0.910709262
,pork,0.902990103
,nutrition,0.898676574
,dinner,0.895057321
,sausage,0.889147878
,refreshment,0.887583733
,closeup,0.882736683
,vegetable,0.877952099
,plate,0.875531197
,dish,0.867066145
https://scontent.cdninstagram.com/t51.2885-15/e35/12716784_548611641983538_1151678633_n.jpg,child,0.985146582
,game,0.964137554
,people,0.957871675
,soccer,0.957820296
,sport,0.947762251
,football,0.947096467
,outdoors,0.941076159
,family,0.933038831
,squad,0.930681229
,fun,0.923181295
,group,0.918989241
,man,0.88635242
,cheerful,0.884140551
,portrait,0.87651372
,boy,0.873942733
,friendship,0.872867346
,happiness,0.865508199
,recreation,0.854688764
,group,0.847823381
,smile,0.832349479
https://scontent.cdninstagram.com/t51.2885-15/e35/12751083_1020049794735664_765130852_n.jpg,no person,0.997651219
,wood,0.972287774
,delicious,0.952740192
,health,0.932474077
,milk,0.904714704
,food,0.889261127
,ingredients,0.87905407
,indoors,0.876187086
,nutrition,0.870491564
,summer,0.843299448
,stacks,0.834622204
,merchandise,0.824725032
,ready,0.82272017
,taste,0.822424054
,plastic,0.815901399
,scoop,0.809248745
,chocolate,0.798704922
,isolated,0.793970704
,indulgence,0.791743994
,cream,0.788787425
https://scontent.cdninstagram.com/t51.2885-15/e35/12677608_229602314051714_89079054_n.jpg,woman,0.994484425
,nature,0.986304164
,summer,0.974988997
,girl,0.972723186
,young,0.95906055
,pretty,0.95467627
,leisure,0.952641606
,outdoors,0.949743569
,relaxation,0.940959156
,fashion,0.923191428
,water,0.903827786
,beautiful,0.902391672
,park,0.891241968
,joy,0.878100693
,cute,0.875514209
,fun,0.870329142
,people,0.866854727
,portrait,0.850206137
,sexy,0.848941803
,hair,0.847554684
https://scontent.cdninstagram.com/t51.2885-15/e35/12407571_975312269228770_2112471540_n.jpg,people,0.991671443
,woman,0.985637546
,child,0.951799273
,indoors,0.943105936
,adult,0.940365672
,family,0.924177647
,girl,0.917188287
,exhibition,0.893889964
,sit,0.88948369
,group,0.888110638
,fun,0.879028678
,dress,0.869634807
,friendship,0.862287879
,young,0.861787558
,fashion,0.861397624
,togetherness,0.856738746
,illustration,0.854708254
,model,0.84968698
,horizontal,0.848749876
,beautiful,0.845489502
https://scontent.cdninstagram.com/t51.2885-15/s750x750/sh0.08/e35/12407339_456637027868140_852490968_n.jpg,room,0.99022758
,indoors,0.988444507
,woman,0.985705614
,adult,0.984921813
,table,0.983699918
,people,0.9820261
,furniture,0.977171063
,facial expression,0.976798773
,food,0.968301296
,meal,0.962536693
,girl,0.961334467
,lifestyle,0.960126638
,happiness,0.95926398
,family,0.957811356
,knife,0.957489133
,enjoyment,0.9490484
,kitchenware,0.948210418
,portrait,0.940999389
,restaurant,0.931170642
,cooking,0.92551434
https://scontent.cdninstagram.com/t51.2885-15/e35/12568144_1666062503648347_907498214_n.jpg,woman,0.994199932
,girl,0.984346747
,fashion,0.981645703
,pretty,0.980375648
,young,0.979850769
,cute,0.975981951
,bag,0.969892323
,portrait,0.937850714
,adolescent,0.937083364
,beautiful,0.930102706
,casual,0.926802993
,shopping,0.921752036
,dress,0.916913271
,smile,0.913529873
,glamour,0.910824537
,person,0.902838588
,elegant,0.894409776
,sexy,0.893501759
,skirt,0.890626073
,one,0.878780305
https://scontent.cdninstagram.com/t51.2885-15/s640x640/sh0.08/e35/1530808_159004541139529_1924362319_n.jpg,group,0.983520031
,facial expression,0.972859144
,restaurant,0.972185493
,man,0.971510768
,woman,0.971316814
,people,0.97105068
,group,0.967509747
,adult,0.967457056
,four,0.965400577
,three,0.953158379
,indoors,0.942479432
,furniture,0.925053358
,friendship,0.917781711
,several,0.915780544
,five,0.913481236
,togetherness,0.911471605
,enjoyment,0.906519651
,table,0.900682211
,room,0.882723451
,portrait,0.876858056
https://scontent.cdninstagram.com/t51.2885-15/e35/12479347_203335800013128_2061916062_n.jpg,child,0.990396857
,people,0.941009343
,education,0.922837496
,group,0.922114491
,school,0.917122841
,fun,0.903332591
,boy,0.882789373
,family,0.875255942
,portrait,0.864454985
,cheerful,0.8637532
,happiness,0.863295019
,friendship,0.840762973
,outdoors,0.818379045
,woman,0.805961013
,cute,0.787989914
,elementary,0.786522865
,man,0.786478758
,schoolboy,0.752389371
,smile,0.751711369
,enjoyment,0.733781397
https://scontent.cdninstagram.com/t51.2885-15/e35/12568982_775807305896458_1587197118_n.jpg,woman,0.971795142
,table,0.939658642
,man,0.928725779
,child,0.92488867
,people,0.920100808
,indoors,0.918646455
,fun,0.908153117
,sit,0.865140736
,group,0.859247208
,girl,0.85027194
,education,0.838533223
,food,0.822485089
,multicultural,0.821320951
,adult,0.810547471
,young,0.802601218
,celebration,0.792053103
,family,0.768662691
,party,0.763157666
,cake,0.750303864
,love,0.736795545
https://scontent.cdninstagram.com/t51.2885-15/e35/12383606_826050344188585_890377008_n.jpg,woman,0.99117136
,group,0.990962505
,friendship,0.987759233
,people,0.975087285
,group,0.973618388
,restaurant,0.959471464
,facial expression,0.959378004
,happiness,0.952813387
,togetherness,0.95251888
,portrait,0.951509356
,indoors,0.949922681
,four,0.948784471
,adult,0.947470784
,celebration,0.94094032
,sit,0.939663708
,laughing,0.937608063
,table,0.923633933
,bar,0.922264278
,room,0.913641095
,party,0.906662703
https://scontent.cdninstagram.com/t51.2885-15/s750x750/sh0.08/e35/12558712_584750025009595_568292593_n.jpg,people,0.960075855
,exhibition,0.94599545
,cake,0.942580819
,party,0.935486674
,restaurant,0.934782088
,celebration,0.922522902
,table,0.922336042
,food,0.918796897
,indoors,0.908640385
,stock,0.903643608
,fun,0.887469888
,woman,0.882159472
,adult,0.880547166
,birthday,0.843786001
,commerce,0.839100957
,drink,0.838962734
,child,0.831720352
,man,0.82625258
,shopping,0.805369675
,coffee,0.801550031
