url,class,score
https://scontent-sit4-1.cdninstagram.com/t51.2885-15/s750x750/sh0.08/e35/13388751_522491177935375_1101494431_n.jpg,ice skate,0.992581844329834
,people,0.9861527681350708
,woman,0.9855197668075562
,winter,0.9806159734725952
,indoors,0.9800153374671936
,man,0.9675591588020325
,adult,0.9670403003692627
,enjoyment,0.9661036729812622
,wear,0.9606035947799683
,child,0.9562214612960815
,fun,0.9454885721206665
,portrait,0.9397672414779663
,luggage,0.9298584461212158
,togetherness,0.9287109375
,two,0.9220582246780396
,ice hockey,0.9167269468307495
,recreation,0.9133806824684143
,business,0.9077503085136414
,blur,0.9067496657371521
,facial expression,0.9032761454582214
https://scontent-sit4-1.cdninstagram.com/t51.2885-15/s640x640/e15/13739450_1619267471736520_543196244_n.jpg,adult,0.990146279335022
,blur,0.9858541488647461
,people,0.9806190133094788
,focus,0.9745529890060425
,indoors,0.9718488454818726
,business,0.969990074634552
,man,0.952950119972229
,woman,0.9481213092803955
,horizontal,0.9433138370513916
,teamwork,0.9072277545928955
,office,0.8901774883270264
,technology,0.864901065826416
,confidence,0.8521563410758972
,side view,0.8520144820213318
,cooperation,0.8245452642440796
,happiness,0.7843325138092041
,concentration,0.7828013896942139
,connection,0.7725015878677368
,outdoors,0.7623794078826904
,communication,0.7573851346969604
https://scontent-sit4-1.cdninstagram.com/t51.2885-15/e15/p640x640/13423597_105378036555672_870921359_n.jpg,girl,0.9928858876228333
,face,0.9922347068786621
,woman,0.9895387887954712
,portrait,0.9828975200653076
,beautiful,0.9783352613449097
,cute,0.9727746248245239
,young,0.9725170135498047
,pretty,0.9702105522155762
,eye,0.953747034072876
,fashion,0.9534666538238525
,skin,0.9494426250457764
,person,0.9317272901535034
,smile,0.9303156137466431
,hair,0.9303014874458313
,lips,0.9292550086975098
,glamour,0.9217475652694702
,model,0.9124013185501099
,people,0.9069522619247437
,studio,0.9031634330749512
,attractive,0.9016561508178711
https://scontent-sit4-1.cdninstagram.com/t51.2885-15/s640x640/e15/13573395_1715339138686694_517839073_n.jpg,woman,0.9849936962127686
,cute,0.9833414554595947
,girl,0.9822285771369934
,pretty,0.9738916158676147
,portrait,0.9669499397277832
,young,0.9630475044250488
,face,0.9622331261634827
,beautiful,0.9490066766738892
,child,0.9302619695663452
,skin,0.9264612793922424
,eye,0.9252963066101074
,health,0.9075535535812378
,one,0.9064042568206787
,people,0.9045922160148621
,little,0.8940598964691162
,fashion,0.8875914812088013
,hair,0.880959153175354
,brunette,0.8691222667694092
,lips,0.8646714687347412
,funny,0.8545752763748169
https://scontent-sit4-1.cdninstagram.com/t51.2885-15/e15/p640x640/13408803_620385404786380_1734244013_n.jpg,woman,0.9899724721908569
,portrait,0.9734048843383789
,eye,0.968621015548706
,girl,0.9671368598937988
,face,0.9639263153076172
,young,0.9609621167182922
,fashion,0.9569581747055054
,cute,0.9543039798736572
,pretty,0.9519405364990234
,glamour,0.9285991191864014
,skin,0.9214179515838623
,sexy,0.9072566032409668
,beautiful,0.9031800031661987
,people,0.8974931240081787
,model,0.8927521705627441
,lips,0.889246940612793
,health,0.8848185539245605
,one,0.8847303986549377
,hair,0.8676206469535828
,look,0.8641533851623535
https://scontent-sit4-1.cdninstagram.com/t51.2885-15/s640x640/e15/13743582_1737834759839327_1813049711_n.jpg,people,0.990902304649353
,ceremony,0.9752428531646729
,celebration,0.9744340181350708
,flag,0.9315189123153687
,adult,0.9290072917938232
,performance,0.9275591373443604
,exhibition,0.9259657859802246
,festival,0.9128845930099487
,man,0.8780668377876282
,religion,0.8775342106819153
,chair,0.8641161918640137
,city,0.8367528915405273
,tourism,0.8283682465553284
,rally,0.8239679336547852
,landscape,0.8217965364456177
,rally,0.8191051483154297
,competition,0.8069348931312561
,decoration,0.8009214997291565
,building,0.790901780128479
,military,0.7668366432189941
https://scontent-sit4-1.cdninstagram.com/t51.2885-15/s640x640/e15/13397608_1635046290077383_1509730391_n.jpg,woman,0.9939101338386536
,togetherness,0.9880960583686829
,fun,0.9775789380073547
,friendship,0.9765858054161072
,indoors,0.9751080274581909
,people,0.9750422239303589
,child,0.973630428314209
,girl,0.9628971815109253
,facial expression,0.9617202281951904
,portrait,0.9545952081680298
,love,0.9457772970199585
,enjoyment,0.9425324201583862
,cute,0.940630316734314
,joy,0.9377957582473755
,happiness,0.9359859228134155
,two,0.9315901398658752
,laughing,0.9213462471961975
,family,0.9106248617172241
,adolescent,0.9071349501609802
,pretty,0.8783138990402222
https://scontent-sit4-1.cdninstagram.com/t51.2885-15/s640x640/sh0.08/e35/13556740_521494121374648_389663315_n.jpg,mask,0.9815472364425659
,portrait,0.980462908744812
,art,0.9795901775360107
,woman,0.9768073558807373
,costume,0.968346357345581
,face,0.9640958309173584
,traditional,0.9636362791061401
,fashion,0.9424852132797241
,illustration,0.9402984380722046
,girl,0.939666748046875
,people,0.9360009431838989
,beautiful,0.9346258640289307
,culture,0.9272054433822632
,desktop,0.926408052444458
,wear,0.9240474700927734
,one,0.9191336631774902
,person,0.9030126929283142
,fun,0.8998578786849976
,style,0.88832026720047
,adult,0.8878567218780518
https://scontent-sit4-1.cdninstagram.com/t51.2885-15/e15/13737043_150057428732497_853479976_n.jpg,woman,0.9930763840675354
,foot,0.9885170459747314
,wet,0.9872677326202393
,foam,0.9773783683776855
,water,0.9766495227813721
,skin,0.9714726805686951
,people,0.9712088108062744
,relaxation,0.9707499742507935
,soap,0.9685063362121582
,outdoors,0.9656294584274292
,hygiene,0.9597851634025574
,clean,0.9574729800224304
,one,0.9532228112220764
,adult,0.936260461807251
,health,0.9345991015434265
,bathroom,0.9214854836463928
,nude,0.9204695820808411
,treatment,0.9204293489456177
,barefoot,0.917489767074585
,summer,0.9130058288574219
https://scontent-sit4-1.cdninstagram.com/t51.2885-15/e15/13256701_252565588440250_2060706934_n.jpg,woman,0.990998387336731
,cute,0.9839844703674316
,fashion,0.9802733659744263
,pretty,0.9795078039169312
,child,0.9766612648963928
,fun,0.9621338248252869
,girl,0.9613169431686401
,portrait,0.9499801397323608
,joy,0.9486353397369385
,young,0.9397615194320679
,adolescent,0.9346110224723816
,eye,0.9325029253959656
,people,0.9303580522537231
,glamour,0.8885838985443115
,indoors,0.8788133859634399
,hair,0.8748860955238342
,little,0.8706744909286499
,casual,0.8632917404174805
,scarf,0.849341630935669
,winter,0.8419378995895386
https://scontent-sit4-1.cdninstagram.com/t51.2885-15/sh0.08/e35/p750x750/13398769_1135176963213470_520932033_n.jpg,woman,0.9964909553527832
,fashion,0.9896384477615356
,portrait,0.9861524701118469
,girl,0.9833328723907471
,sexy,0.9777787327766418
,glamour,0.9743955731391907
,eye,0.9679573178291321
,model,0.9640353918075562
,hair,0.9611114263534546
,skin,0.9601935744285583
,lips,0.9578393697738647
,pretty,0.9503337144851685
,cute,0.9313542246818542
,beautiful,0.9215739369392395
,face,0.9170434474945068
,young,0.9155651330947876
,nude,0.9109523296356201
,long,0.9078127145767212
,people,0.9078113436698914
,elegant,0.8673229217529297
https://scontent-sit4-1.cdninstagram.com/t51.2885-15/s750x750/sh0.08/e35/13534259_1585110831786506_1159325861_n.jpg,people,0.990218997001648
,chef,0.9806919693946838
,child,0.9788041114807129
,woman,0.9771520495414734
,girl,0.9692188501358032
,fun,0.9578392505645752
,man,0.9563832879066467
,smile,0.9381715059280396
,funny,0.9364796876907349
,art,0.9228529930114746
,adult,0.9014042615890503
,wear,0.8980371952056885
,lid,0.8977060914039612
,cute,0.8930927515029907
,portrait,0.8879287242889404
,happiness,0.8838123083114624
,education,0.8828030824661255
,family,0.8794736862182617
,food,0.8689368963241577
,cooking,0.8649176359176636
https://scontent-sit4-1.cdninstagram.com/t51.2885-15/e35/13380976_1646846298968618_1174719527_n.jpg,woman,0.996444582939148
,fashion,0.9945774078369141
,model,0.9847174882888794
,glamour,0.9818049669265747
,portrait,0.981497049331665
,girl,0.9709392189979553
,wear,0.9652774333953857
,sexy,0.9581109285354614
,one,0.9254011511802673
,pretty,0.9253561496734619
,dress,0.9157311916351318
,adult,0.8988265991210938
,trendy,0.872894287109375
,studio,0.870667576789856
,looking,0.8706485033035278
,brunette,0.868135929107666
,cute,0.865909218788147
,casual,0.8625643253326416
,fashionable,0.8343983292579651
,elegant,0.8337518572807312
https://scontent-sit4-1.cdninstagram.com/t51.2885-15/e35/13702928_279708782386656_271010502_n.jpg,people,0.9860429167747498
,child,0.971720814704895
,fun,0.9605823755264282
,woman,0.9155027866363525
,portrait,0.912429690361023
,one,0.9035135507583618
,festival,0.898650050163269
,recreation,0.8794839978218079
,adult,0.854951024055481
,girl,0.8180513381958008
,school,0.8167281150817871
,toy,0.8163532018661499
,enjoyment,0.8105665445327759
,competition,0.8082921504974365
,happiness,0.8049010038375854
,education,0.7999999523162842
,cute,0.7998692393302917
,outdoors,0.7997713088989258
,youth,0.7847414016723633
,editorial,0.7709280252456665
https://scontent-sit4-1.cdninstagram.com/t51.2885-15/e35/13329086_827779820690938_955749697_n.jpg,woman,0.9883495569229126
,pretty,0.9721640944480896
,young,0.9696751832962036
,cute,0.9676399827003479
,indoors,0.9495209455490112
,fun,0.9410035014152527
,adolescent,0.9358648061752319
,casual,0.9293434619903564
,relaxation,0.9276473522186279
,fashion,0.9265172481536865
,joy,0.9116529226303101
,people,0.9058024287223816
,contemporary,0.8914330005645752
,girl,0.8798861503601074
,family,0.8762940168380737
,sit,0.8729221820831299
,child,0.8339220285415649
,looking,0.8301899433135986
,bright,0.8244144916534424
,paper,0.8223682641983032
https://scontent-sit4-1.cdninstagram.com/t51.2885-15/e15/13402283_1634053120220310_1442508579_n.jpg,vertical,0.9931707382202148
,business,0.9647855758666992
,outdoors,0.9526269435882568
,indoors,0.9489296674728394
,freshness,0.9179636240005493
,growth,0.9173257350921631
,window,0.908826470375061
,horizontal,0.8943972587585449
,variation,0.8756776452064514
,still life,0.8661953210830688
,house,0.8537174463272095
,glass,0.8476862907409668
,communication,0.827934980392456
,flora,0.8234703540802002
,leaf,0.821582555770874
,tree,0.8116629123687744
,fair weather,0.8100384473800659
,flower,0.7988618612289429
,decoration,0.7940769195556641
,people,0.7891050577163696
https://scontent-sit4-1.cdninstagram.com/t51.2885-15/s750x750/sh0.08/e35/13408777_149638478775369_875890537_n.jpg,woman,0.9987276792526245
,student,0.9681053161621094
,adolescent,0.9519443511962891
,smile,0.9489412307739258
,young,0.9339955449104309
,pretty,0.9319685697555542
,girl,0.9143316149711609
,beautiful,0.9125005006790161
,joy,0.9090695381164551
,people,0.9087563753128052
,friendship,0.8987733125686646
,casual,0.8838733434677124
,fun,0.8734419941902161
,indoors,0.863922655582428
,togetherness,0.8631693124771118
,looking,0.8472813367843628
,cute,0.8419115543365479
,laughing,0.8381816148757935
,family,0.8267776966094971
,cheerful,0.8221162557601929
https://scontent-sit4-1.cdninstagram.com/t51.2885-15/sh0.08/e35/p750x750/13392690_840433266088750_1879937535_n.jpg,fashion,0.9951845407485962
,glamour,0.9927817583084106
,woman,0.9917571544647217
,portrait,0.981993556022644
,girl,0.978020966053009
,model,0.9749373197555542
,eye,0.9705444574356079
,lips,0.9660089015960693
,skin,0.9627208709716797
,sexy,0.9596986770629883
,elegant,0.9376177787780762
,hair,0.9355322122573853
,beautiful,0.9310604333877563
,face,0.9300804734230042
,hairdo,0.9246872663497925
,style,0.9230974316596985
,pretty,0.9138232469558716
,luxury,0.90949547290802
,studio,0.8813618421554565
,lipstick,0.8788411617279053
https://scontent-sit4-1.cdninstagram.com/t51.2885-15/e35/13381376_1128998323851726_1646154628_n.jpg,woman,0.9897457361221313
,indoors,0.9743467569351196
,people,0.9579969644546509
,shopping,0.9371826648712158
,young,0.9292682409286499
,pretty,0.920822262763977
,fun,0.9188356995582581
,girl,0.8949809074401855
,fashion,0.8934762477874756
,cute,0.89019775390625
,joy,0.8825892210006714
,adult,0.8752222061157227
,adolescent,0.8667871952056885
,enjoyment,0.8665268421173096
,healthcare,0.8643152713775635
,one,0.8605942130088806
,family,0.8535410165786743
,sit,0.8327863216400146
,relaxation,0.8309168815612793
,leisure,0.829006552696228
https://scontent-sit4-1.cdninstagram.com/t51.2885-15/s750x750/sh0.08/e35/13423653_1055200594526950_1484256632_n.jpg,woman,0.9954434633255005
,pretty,0.9896255731582642
,cute,0.9821749329566956
,adolescent,0.9754766225814819
,young,0.9724006652832031
,girl,0.9664087891578674
,joy,0.9655976295471191
,fun,0.9580776691436768
,family,0.951602578163147
,casual,0.950398325920105
,relaxation,0.9375185966491699
,indoors,0.9348713159561157
,child,0.9231624603271484
,fashion,0.9013645648956299
,leisure,0.9013113975524902
,sit,0.8967189192771912
,looking,0.8932737708091736
,beautiful,0.867926836013794
,people,0.8645038604736328
,enjoyment,0.8573520183563232
https://scontent-sit4-1.cdninstagram.com/t51.2885-15/e15/13402229_319956185022312_140699517_n.jpg,woman,0.9937490224838257
,fashion,0.9819378852844238
,skin,0.9698039293289185
,portrait,0.9646306037902832
,glamour,0.960466206073761
,pretty,0.9466920495033264
,sexy,0.9377725124359131
,eye,0.9243433475494385
,cute,0.9154471158981323
,girl,0.9152497053146362
,young,0.901353120803833
,lips,0.8908674716949463
,hair,0.8817393779754639
,model,0.8765374422073364
,one,0.8262662887573242
,face,0.8257746696472168
,clean,0.8195555210113525
,elegant,0.8126009702682495
,look,0.808059811592102
,brunette,0.7957897186279297
https://scontent-sit4-1.cdninstagram.com/t51.2885-15/s750x750/sh0.08/e35/13422895_1602495456747454_1229579157_n.jpg,indoors,0.9962977766990662
,woman,0.991547703742981
,family,0.9848950505256653
,togetherness,0.9755768775939941
,enjoyment,0.9715369939804077
,room,0.9459364414215088
,sit,0.9447317123413086
,people,0.936901330947876
,shopping,0.9346485137939453
,facial expression,0.9315277934074402
,relaxation,0.9262004494667053
,friendship,0.9204487800598145
,love,0.91205894947052
,laughing,0.8963491916656494
,fun,0.8922571539878845
,looking,0.8800925612449646
,two,0.8778637051582336
,furniture,0.863310694694519
,joy,0.8620897531509399
,leisure,0.852942705154419
https://scontent-sit4-1.cdninstagram.com/t51.2885-15/e35/13774840_967024760061624_98894680_n.jpg,girl,0.9894049167633057
,woman,0.9784852862358093
,portrait,0.9694716930389404
,people,0.96711665391922
,wedding,0.9652407169342041
,beautiful,0.9529172778129578
,dress,0.9503278136253357
,tent,0.9489618539810181
,fashion,0.9482787847518921
,one,0.9286445379257202
,adult,0.9276704788208008
,brunette,0.9265535473823547
,room,0.9258222579956055
,model,0.9221997261047363
,young,0.9192730188369751
,happiness,0.9070253372192383
,wear,0.9065430164337158
,pretty,0.8970863819122314
,family,0.8946268558502197
,indoors,0.8926223516464233
https://scontent-sit4-1.cdninstagram.com/t51.2885-15/e35/13531802_1089862891106043_1286703081_n.jpg,people,0.98100346326828
,adult,0.9633893370628357
,woman,0.9468915462493896
,man,0.9467196464538574
,group,0.9265981912612915
,portrait,0.9046151638031006
,child,0.8922542333602905
,happiness,0.8798406720161438
,family,0.8526008129119873
,festival,0.8393136262893677
,horizontal,0.8211209774017334
,many,0.8058432340621948
,togetherness,0.7881157398223877
,celebration,0.7869008779525757
,cheerful,0.7858322262763977
,market,0.7830120921134949
,education,0.7828203439712524
,group,0.745597243309021
,table,0.7404415607452393
,outdoors,0.7399613857269287
https://scontent-sit4-1.cdninstagram.com/t51.2885-15/e35/13437415_119514908472026_1807408486_n.jpg,fashion,0.9947909116744995
,woman,0.9946363568305969
,nature,0.9848492741584778
,flower,0.9716418981552124
,portrait,0.9697263240814209
,glamour,0.967726469039917
,summer,0.9663650393486023
,pretty,0.9633930921554565
,eye,0.9593849182128906
,cute,0.9530259370803833
,sexy,0.9455692768096924
,elegant,0.945517897605896
,girl,0.9319027662277222
,young,0.9265978336334229
,hair,0.9213734269142151
,model,0.9171861410140991
,skin,0.9076226949691772
,beautiful,0.899145245552063
,bright,0.8781212568283081
,lips,0.8773776888847351
https://scontent-sit4-1.cdninstagram.com/t51.2885-15/s750x750/sh0.08/e35/13408886_1096363983791588_1521205555_n.jpg,woman,0.9954829216003418
,fashion,0.9879662990570068
,pretty,0.984724760055542
,eye,0.9793987274169922
,glamour,0.9762768149375916
,skin,0.9756864905357361
,girl,0.9733563661575317
,portrait,0.9703575372695923
,sexy,0.9642691612243652
,lips,0.9604491591453552
,cute,0.9544553756713867
,young,0.9467816352844238
,model,0.9433619976043701
,hair,0.9334627985954285
,face,0.9204193949699402
,look,0.9175233840942383
,beautiful,0.8927924633026123
,long,0.8821255564689636
,adolescent,0.8795697093009949
,elegant,0.8609294891357422
https://scontent-sit4-1.cdninstagram.com/t51.2885-15/e35/13573372_1703865176532747_856466567_n.jpg,people,0.992418646812439
,water,0.9881020784378052
,woman,0.9764151573181152
,outdoors,0.9716808199882507
,travel,0.9683910608291626
,sky,0.9676070213317871
,city,0.9579139947891235
,adult,0.9572683572769165
,architecture,0.9512691497802734
,one,0.9502875208854675
,vehicle,0.9465059041976929
,portrait,0.9342514276504517
,hotel,0.9133386611938477
,river,0.9105140566825867
,daylight,0.9097292423248291
,sunset,0.9063889980316162
,summer,0.9001193642616272
,girl,0.8945558071136475
,dawn,0.8926217555999756
,recreation,0.8907198905944824
https://scontent-sit4-1.cdninstagram.com/t51.2885-15/e35/13741025_267437980301063_1478095073_n.jpg,group,0.9891546368598938
,woman,0.9767818450927734
,child,0.9656862020492554
,portrait,0.9596743583679199
,group,0.9561318159103394
,people,0.9477107524871826
,adult,0.9420949220657349
,girl,0.9364502429962158
,man,0.9315866231918335
,education,0.9297724366188049
,facial expression,0.9184333682060242
,indoors,0.9080839157104492
,business,0.905759871006012
,togetherness,0.9046096801757812
,happiness,0.8996970653533936
,boy,0.8979483842849731
,school,0.8954414129257202
,four,0.8949399590492249
,friendship,0.8714818358421326
,three,0.8641039133071899
https://scontent-sit4-1.cdninstagram.com/t51.2885-15/s750x750/sh0.08/e35/13628305_1037186796329280_1028280801_n.jpg,shopping,0.9817013740539551
,birthday,0.9666152000427246
,party,0.9608434438705444
,fun,0.9585299491882324
,celebration,0.9537010192871094
,woman,0.9535799026489258
,shop,0.9512165784835815
,joy,0.9508804082870483
,gift,0.9494261741638184
,bill,0.9450690746307373
,people,0.9406718611717224
,fashion,0.935745120048523
,beautiful,0.9241243004798889
,desktop,0.916593611240387
,Christmas,0.9084383249282837
,cute,0.9042778015136719
,young,0.8994784951210022
,pretty,0.897435188293457
,girl,0.8967106342315674
,shopper,0.8885929584503174
https://scontent-sit4-1.cdninstagram.com/t51.2885-15/e35/13402228_1117501108306647_17313734_n.jpg,woman,0.9968219995498657
,fashion,0.9931375980377197
,pretty,0.9852566719055176
,eye,0.9807165861129761
,glamour,0.980399489402771
,sexy,0.9770052433013916
,lips,0.967525839805603
,cute,0.9667096734046936
,skin,0.9595805406570435
,look,0.9269036054611206
,elegant,0.9134693145751953
,hair,0.908282458782196
,adolescent,0.9002175331115723
,long,0.8975945115089417
,girl,0.895697832107544
,young,0.874117374420166
,portrait,0.8601731061935425
,joy,0.8587014675140381
,seduction,0.8479477167129517
,precious,0.8455543518066406
https://scontent-sit4-1.cdninstagram.com/t51.2885-15/e35/13402456_633034676852008_1681963704_n.jpg,woman,0.9975762367248535
,pretty,0.9933693408966064
,cute,0.9838780164718628
,joy,0.9838153719902039
,adolescent,0.9832265377044678
,casual,0.977398157119751
,family,0.9770463705062866
,fun,0.9738131165504456
,relaxation,0.9694327116012573
,young,0.9600226283073425
,girl,0.9509443044662476
,indoors,0.9485050439834595
,leisure,0.9383498430252075
,fashion,0.9362847805023193
,enjoyment,0.9214688539505005
,child,0.9205524921417236
,charming,0.9137717485427856
,looking,0.89792400598526
,college,0.8928249478340149
,sit,0.8919928073883057
https://scontent-sit4-1.cdninstagram.com/t51.2885-15/s750x750/sh0.08/e35/13707287_1780173932219538_1864112160_n.jpg,sunglasses,0.989658772945404
,eyewear,0.9869975447654724
,people,0.9854738712310791
,group,0.9720373153686523
,woman,0.9578456878662109
,festival,0.9487075209617615
,man,0.9424442052841187
,fun,0.9311974048614502
,eyeglasses,0.9269171953201294
,adult,0.9217574000358582
,wear,0.9189184904098511
,portrait,0.9161478877067566
,stock,0.9093267321586609
,party,0.8982642292976379
,celebration,0.8892295360565186
,fashion,0.882582426071167
,shopping,0.8709582090377808
,music,0.8634968400001526
,girl,0.8613724708557129
,exhibition,0.8584597110748291
https://scontent-sit4-1.cdninstagram.com/t51.2885-15/sh0.08/e35/p750x750/13397583_617382151761808_657081263_n.jpg,woman,0.9894545078277588
,fashion,0.9816848039627075
,portrait,0.976636528968811
,girl,0.9675130844116211
,people,0.9442791938781738
,glamour,0.9435635805130005
,cute,0.943490743637085
,pretty,0.9406164288520813
,young,0.9377596378326416
,face,0.9352338314056396
,beautiful,0.932970404624939
,elegant,0.9245995283126831
,eye,0.9048773050308228
,model,0.9013321399688721
,one,0.8913878202438354
,adult,0.8792428970336914
,brunette,0.8721306324005127
,attractive,0.856552004814148
,sexy,0.8562783598899841
,hair,0.8472856879234314
https://scontent-sit4-1.cdninstagram.com/t51.2885-15/e35/13636306_641537379334384_1388588419_n.jpg,woman,0.9871937036514282
,people,0.9615314602851868
,indoors,0.9584007263183594
,shopping,0.9197204113006592
,man,0.8954126834869385
,music,0.879459023475647
,adult,0.8707851767539978
,coffee,0.8686411380767822
,fashion,0.8613660335540771
,enjoyment,0.8343650102615356
,togetherness,0.8230053186416626
,child,0.8169057369232178
,girl,0.8100963830947876
,room,0.809983491897583
,group,0.8085720539093018
,wine,0.80338454246521
,fun,0.7997835874557495
,family,0.7980883121490479
,wear,0.7815199494361877
,exhibition,0.773371696472168
https://scontent-sit4-1.cdninstagram.com/t51.2885-15/e35/13385829_187407374989936_272915441_n.jpg,togetherness,0.9901752471923828
,woman,0.9888603091239929
,love,0.9815267324447632
,fun,0.978665828704834
,friendship,0.9745014905929565
,family,0.9687857627868652
,joy,0.9676939249038696
,two,0.9616723656654358
,laughing,0.955559492111206
,enjoyment,0.9465510845184326
,people,0.9455622434616089
,child,0.9418004751205444
,happiness,0.9327333569526672
,affection,0.9231717586517334
,embrace,0.920229434967041
,cute,0.9107529520988464
,girl,0.9073493480682373
,adolescent,0.904555082321167
,portrait,0.901664137840271
,pretty,0.8967140913009644
https://scontent-sit4-1.cdninstagram.com/t51.2885-15/e35/13398790_1798543400365621_995825776_n.jpg,woman,0.9976327419281006
,pretty,0.9919689893722534
,cute,0.9823285341262817
,adolescent,0.9822690486907959
,casual,0.9726278781890869
,joy,0.97148597240448
,girl,0.964682936668396
,young,0.9622820615768433
,fun,0.9610491991043091
,family,0.9548577070236206
,fashion,0.9485325813293457
,relaxation,0.9437220096588135
,indoors,0.9324178695678711
,child,0.9018900394439697
,looking,0.901127815246582
,leisure,0.8902043104171753
,enjoyment,0.8818135261535645
,student,0.8790264129638672
,charming,0.878827691078186
,college,0.8784715533256531
https://scontent-sit4-1.cdninstagram.com/t51.2885-15/e35/13320097_248336162211926_932275960_n.jpg,restaurant,0.9967774152755737
,food,0.9913389682769775
,table,0.9814916849136353
,meal,0.9809107780456543
,dining,0.980901300907135
,lunch,0.9800420999526978
,dinner,0.9789459705352783
,people,0.9735177159309387
,woman,0.9548240900039673
,coffee,0.952073872089386
,breakfast,0.9437155723571777
,cooking,0.9397464990615845
,drink,0.9391375184059143
,diner,0.937340259552002
,knife,0.9348138570785522
,man,0.9297226667404175
,dish,0.9154391288757324
,plate,0.9089486598968506
,service,0.8992622494697571
,tea,0.8981337547302246
https://scontent-sit4-1.cdninstagram.com/t51.2885-15/e35/13774636_1058746870883539_999745803_n.jpg,group,0.9921116828918457
,group,0.9775129556655884
,woman,0.9696924686431885
,adult,0.9645755290985107
,business,0.9493610858917236
,meeting,0.9449491500854492
,man,0.9371312856674194
,leader,0.928012490272522
,many,0.8989822268486023
,people,0.8981793522834778
,portrait,0.8973087072372437
,togetherness,0.890029788017273
,employee,0.8870116472244263
,facial expression,0.8862982392311096
,teamwork,0.8782573938369751
,happiness,0.874643087387085
,indoors,0.865067183971405
,interaction,0.8606023788452148
,restaurant,0.8576457500457764
,room,0.8570653200149536
https://scontent-sit4-1.cdninstagram.com/t51.2885-15/e35/13827254_299372930411851_1546932728_n.jpg,child,0.9843064546585083
,people,0.9774388074874878
,illustration,0.9638582468032837
,desktop,0.9586610794067383
,bill,0.9573643803596497
,woman,0.9249167442321777
,happiness,0.9206695556640625
,beautiful,0.9145157337188721
,person,0.9112050533294678
,adult,0.9017671346664429
,fun,0.8966485261917114
,man,0.8907746076583862
,portrait,0.8896081447601318
,girl,0.8824371695518494
,cheerful,0.8786715269088745
,retro,0.8679461479187012
,young,0.8624501824378967
,banner,0.8390109539031982
,celebration,0.8386237621307373
,vector,0.8355287909507751
https://scontent-sit4-1.cdninstagram.com/t51.2885-15/e35/13731201_1320783621267000_620991732_n.jpg,sunset,0.9974747896194458
,backlit,0.9748833179473877
,sun,0.971637487411499
,people,0.9709190726280212
,dawn,0.9708757400512695
,landscape,0.9697487354278564
,two,0.9677678346633911
,girl,0.9635312557220459
,evening,0.9609377980232239
,man,0.947822093963623
,dusk,0.9432638883590698
,light,0.9355078935623169
,outdoors,0.9341825246810913
,love,0.9312841296195984
,couple,0.9270473122596741
,nature,0.9247395992279053
,sky,0.9210964441299438
,adult,0.9161738157272339
,boy,0.911386251449585
,fog,0.888333261013031
https://scontent-sit4-1.cdninstagram.com/t51.2885-15/e35/13408741_874966835982267_269004481_n.jpg,woman,0.9965461492538452
,nude,0.9720278978347778
,relaxation,0.9641531705856323
,skin,0.9427132606506348
,fashion,0.9421910047531128
,sexy,0.933678388595581
,portrait,0.9329049587249756
,girl,0.9307540655136108
,pretty,0.9282572269439697
,glamour,0.8994162082672119
,brunette,0.885077953338623
,bed,0.873501181602478
,clean,0.8733896613121033
,eye,0.860010027885437
,indoors,0.8578841090202332
,cute,0.8476583957672119
,love,0.8300346732139587
,purity,0.8197246789932251
,composure,0.8189870119094849
,family,0.8137396574020386
https://scontent-sit4-1.cdninstagram.com/t51.2885-15/e35/13525519_1750765801874930_1784115691_n.jpg,people,0.9890127778053284
,adult,0.9850948452949524
,woman,0.9835940003395081
,daylight,0.9677842259407043
,outdoors,0.9669504761695862
,water,0.958694577217102
,sky,0.9555838704109192
,modern,0.9554612636566162
,portrait,0.9491719007492065
,city,0.9470689296722412
,lifestyle,0.9438107013702393
,girl,0.9436155557632446
,business,0.9299178719520569
,travel,0.9256068468093872
,technology,0.9136967062950134
,one,0.9133957028388977
,architecture,0.9065415859222412
,building,0.9065394401550293
,vehicle,0.9062517881393433
,beautiful,0.8902114033699036
https://scontent-sit4-1.cdninstagram.com/t51.2885-15/e35/13381103_1189743431063666_1201558848_n.jpg,woman,0.9713534116744995
,education,0.9695561528205872
,school,0.9688235521316528
,group,0.9687288999557495
,people,0.9563243389129639
,laptop,0.9506155252456665
,computer,0.9480541944503784
,girl,0.9436155557632446
,man,0.9340147972106934
,class,0.93318772315979
,child,0.9301089644432068
,adult,0.928032636642456
,room,0.9136937856674194
,friendship,0.9072296619415283
,university,0.8864462375640869
,portrait,0.8737066984176636
,technology,0.873417854309082
,happiness,0.8597393035888672
,sit,0.8555482625961304
,classroom,0.8522613048553467
https://scontent-sit4-1.cdninstagram.com/t51.2885-15/e35/13380827_230903350624035_410420526_n.jpg,food,0.9851597547531128
,meal,0.983509361743927
,restaurant,0.9817745089530945
,lunch,0.9813497066497803
,dinner,0.9790058135986328
,table,0.9673271775245667
,cooking,0.9646682739257812
,breakfast,0.9630212187767029
,knife,0.9610331654548645
,woman,0.9504808187484741
,dining,0.939665675163269
,people,0.9389061331748962
,dish,0.9323705434799194
,tea,0.9315139055252075
,indoors,0.9303750991821289
,coffee,0.9256800413131714
,plate,0.9004371762275696
,tableware,0.8899219036102295
,drink,0.886913537979126
,sit,0.8836790323257446
https://scontent-sit4-1.cdninstagram.com/t51.2885-15/e35/13398986_988020231317976_1634110453_n.jpg,no person,0.984304666519165
,medicine,0.9786248803138733
,kind,0.9572305083274841
,tea,0.943108081817627
,nature,0.9392119646072388
,health,0.9338499307632446
,food,0.9336275458335876
,dry,0.9306235313415527
,ingredients,0.9240171909332275
,healthcare,0.9131803512573242
,wood,0.9125410914421082
,herb,0.9097613096237183
,alternative,0.9052918553352356
,Christmas,0.9051743149757385
,drink,0.9042541980743408
,herbal medicine,0.9026733636856079
,herbal,0.8853400945663452
,cure,0.8715225458145142
,collection,0.8682531118392944
,option,0.8573963642120361
https://scontent-sit4-1.cdninstagram.com/t51.2885-15/e35/13525487_296520727347449_1091370708_n.jpg,child,0.9879888296127319
,family,0.9770524501800537
,people,0.9729965925216675
,woman,0.9688870906829834
,girl,0.9668448567390442
,fun,0.9619326591491699
,togetherness,0.9391912221908569
,indoors,0.9358261227607727
,cute,0.932120680809021
,portrait,0.9194022417068481
,sit,0.9191628694534302
,two,0.9134410619735718
,happiness,0.9056369066238403
,adolescent,0.8956857919692993
,love,0.8889471292495728
,boy,0.8810251951217651
,friendship,0.8776828050613403
,education,0.8772273063659668
,joy,0.8732337951660156
,laughing,0.8581151962280273
https://scontent-sit4-1.cdninstagram.com/t51.2885-15/e35/13736051_1752737411662179_1379849805_n.jpg,woman,0.9923557043075562
,girl,0.9889998435974121
,portrait,0.9844950437545776
,people,0.9804558157920837
,one,0.978363037109375
,adult,0.9780129194259644
,park,0.9694218635559082
,fashion,0.9649019241333008
,model,0.9594792127609253
,lifestyle,0.9390383958816528
,summer,0.9375526905059814
,street,0.9334839582443237
,wear,0.926080584526062
,outdoors,0.9248172044754028
,relaxation,0.9235092401504517
,leisure,0.9214966297149658
,urban,0.9168023467063904
,city,0.9122122526168823
,brunette,0.906978964805603
,garden,0.9046186208724976
https://scontent-sit4-1.cdninstagram.com/t51.2885-15/e35/13628153_1102674456473757_450968518_n.jpg,tree,0.9983766078948975
,wood,0.994330883026123
,nature,0.9942508935928345
,leaf,0.982761800289154
,summer,0.9768663644790649
,park,0.9728662967681885
,garden,0.9716225862503052
,outdoors,0.9661885499954224
,landscape,0.9653298854827881
,flora,0.9640353918075562
,grass,0.9613113403320312
,no person,0.9563813209533691
,trunk,0.9488429427146912
,branch,0.9396702647209167
,environment,0.9386307597160339
,log,0.9349491000175476
,tropical,0.9133695363998413
,outside,0.9099794030189514
,season,0.8955907821655273
,wooden,0.8911610841751099
