url,class,score
https://scontent.cdninstagram.com/t51.2885-15/s640x640/sh0.08/e35/13098914_1533767033599764_1159030276_n.jpg,people,0.9965331554412842
,adult,0.9941054582595825
,indoors,0.989352822303772
,man,0.979140043258667
,horizontal,0.9765446186065674
,woman,0.9737952947616577
,bar,0.9583759903907776
,child,0.9582774639129639
,horizontal,0.9347822070121765
,vertical,0.9204692840576172
,collection,0.9109453558921814
,portrait,0.904494047164917
,city,0.9033686518669128
,education,0.8968353271484375
,variation,0.8875705599784851
,transportation system,0.855893075466156
,business,0.8532702922821045
,wait,0.8499888777732849
,tube,0.8390339612960815
,school,0.8244078159332275
https://scontent.cdninstagram.com/t51.2885-15/e15/13248992_241205606258434_985541773_n.jpg,people,0.9729715585708618
,music,0.970271646976471
,man,0.9670518636703491
,woman,0.9567689299583435
,recreation,0.9556227922439575
,group,0.9437256455421448
,band,0.9416110515594482
,adult,0.9282236099243164
,television,0.9205721616744995
,portrait,0.9009926319122314
,performance,0.8984036445617676
,movie,0.8975493907928467
,horizontal,0.8916670083999634
,friendship,0.8847994804382324
,child,0.8815547227859497
,singer,0.8664901256561279
,musician,0.8661999702453613
,togetherness,0.8646883964538574
,exhibition,0.8602075576782227
,city,0.8574393391609192
https://scontent.cdninstagram.com/t51.2885-15/s640x640/sh0.08/e35/13102556_1033237100105057_891879338_n.jpg,music,0.9894038438796997
,performance,0.9864789247512817
,people,0.9659284353256226
,dancing,0.9630007743835449
,stage,0.951113224029541
,light,0.9480050206184387
,illustration,0.9471660852432251
,outdoors,0.9297925233840942
,silhouette,0.9285728335380554
,horizontal,0.9130390882492065
,party,0.9089257717132568
,illuminated,0.9064440727233887
,nightlife,0.9053972959518433
,club,0.899752140045166
,concert,0.8936294913291931
,energy,0.8892672061920166
,technology,0.8890060186386108
,modern,0.8880171775817871
,motion,0.8871933221817017
,vector,0.8800835609436035
https://scontent.cdninstagram.com/t51.2885-15/e35/13557130_1754049891547700_325883373_n.jpg,woman,0.9914852380752563
,people,0.9862671494483948
,two,0.9802885055541992
,facial expression,0.9787552356719971
,wear,0.9685037136077881
,adult,0.9637104272842407
,portrait,0.9557121992111206
,togetherness,0.9529807567596436
,stock,0.947253942489624
,shopping,0.9416775107383728
,indoors,0.9267941117286682
,happiness,0.9247058629989624
,man,0.9169795513153076
,enjoyment,0.913349449634552
,friendship,0.8925544023513794
,group,0.8872792720794678
,girl,0.8770756721496582
,love,0.8581569194793701
,fun,0.8488444089889526
,interaction,0.8464798927307129
https://scontent.cdninstagram.com/t51.2885-15/s480x480/e35/13151241_1165918253440052_2069875940_n.jpg,adult,0.9923014640808105
,facial expression,0.9899604320526123
,happiness,0.9862158298492432
,woman,0.9835938215255737
,man,0.9818568229675293
,people,0.9788328409194946
,two,0.9784784317016602
,wear,0.97311931848526
,togetherness,0.9600566625595093
,portrait,0.9593860507011414
,family,0.9365178346633911
,lifestyle,0.9282481670379639
,three,0.91744464635849
,medicine,0.912672758102417
,group,0.9078118801116943
,healthcare,0.9044829607009888
,indoors,0.8956927061080933
,enjoyment,0.8743269443511963
,affection,0.8731400966644287
,friendship,0.8639642000198364
https://scontent.cdninstagram.com/t51.2885-15/s640x640/sh0.08/e35/12950189_612269312282385_817367104_n.jpg,competition,0.9767223596572876
,recreation,0.967688798904419
,portrait,0.9527380466461182
,people,0.9499255418777466
,movie,0.9216852188110352
,actress,0.9170552492141724
,wear,0.9080953001976013
,athlete,0.903777003288269
,music,0.897368311882019
,fashion,0.8889788389205933
,two,0.8807886838912964
,man,0.8708038330078125
,facial expression,0.8649811148643494
,award,0.8641598224639893
,festival,0.8537884950637817
,adult,0.8270116448402405
,television,0.824708104133606
,woman,0.8150287866592407
,championship,0.8023073673248291
,track,0.7828675508499146
https://scontent.cdninstagram.com/t51.2885-15/e35/13388648_1779993602215222_997547058_n.jpg,group,0.9987523555755615
,hijab,0.995742678642273
,woman,0.9943221807479858
,headscarf,0.992555558681488
,veil,0.9906280636787415
,facial expression,0.9900549054145813
,wear,0.9885743856430054
,man,0.9868758916854858
,religion,0.9856854677200317
,people,0.984033465385437
,adult,0.9748545289039612
,portrait,0.9730172157287598
,education,0.9615504741668701
,school,0.9477020502090454
,five,0.9458792805671692
,child,0.9214146137237549
,happiness,0.919608473777771
,togetherness,0.8918472528457642
,many,0.8786667585372925
,university,0.8736554384231567
https://scontent.cdninstagram.com/t51.2885-15/s640x640/sh0.08/e35/12446306_1009031372522885_138196055_n.jpg,indoors,0.9796812534332275
,people,0.9788365364074707
,business,0.9756184816360474
,communication,0.9581871032714844
,airport,0.9520573019981384
,adult,0.9505825042724609
,man,0.9325980544090271
,horizontal,0.9281306862831116
,shopping,0.9255269765853882
,stock,0.924751341342926
,technology,0.9228096008300781
,shop,0.9204847812652588
,woman,0.9007807970046997
,service,0.8731818199157715
,city,0.8257642388343811
,horizontal,0.8222095966339111
,teamwork,0.8008291721343994
,modern,0.7996490597724915
,station,0.7967610955238342
,industry,0.7935199737548828
https://scontent.cdninstagram.com/t51.2885-15/e35/13437207_1806491146250910_1326997009_n.jpg,veil,0.9821980595588684
,group,0.974531888961792
,woman,0.9696025252342224
,people,0.9646626710891724
,man,0.962207555770874
,wear,0.9509488344192505
,education,0.9470980167388916
,hijab,0.9319753646850586
,school,0.9235869646072388
,portrait,0.9214224815368652
,child,0.890682578086853
,headscarf,0.8719338178634644
,facial expression,0.8666539192199707
,religion,0.8637251853942871
,bill,0.8575453758239746
,music,0.8463667631149292
,competition,0.8442860841751099
,adolescent,0.8390680551528931
,family,0.8349086046218872
,three,0.8262161016464233
https://scontent.cdninstagram.com/t51.2885-15/e35/13532011_819443861490863_325981304_n.jpg,woman,0.9805493354797363
,people,0.9738264679908752
,movie,0.952100396156311
,fashion,0.9317770004272461
,wear,0.9202995896339417
,portrait,0.9103519916534424
,two,0.9029957056045532
,man,0.8793346285820007
,festival,0.8761957883834839
,togetherness,0.86879563331604
,recreation,0.8658430576324463
,indoors,0.8571956753730774
,family,0.8535051345825195
,adult,0.8501256704330444
,shopping,0.8486754298210144
,red carpet,0.843869686126709
,actress,0.8420599699020386
,love,0.8371010422706604
,enjoyment,0.8370312452316284
,fun,0.8281470537185669
https://scontent.cdninstagram.com/t51.2885-15/e15/13259542_1722430928005432_703537531_n.jpg,music,0.9922888278961182
,people,0.9697096347808838
,musician,0.9691025018692017
,performance,0.9674733877182007
,computer,0.9650378227233887
,technology,0.945911169052124
,internet,0.9456435441970825
,concert,0.9333173036575317
,woman,0.9315946102142334
,singer,0.9224350452423096
,man,0.9223069548606873
,television,0.9190365672111511
,adult,0.8972861766815186
,business,0.8954674005508423
,band,0.8689979314804077
,festival,0.8667697310447693
,communication,0.8381583094596863
,group,0.8376016616821289
,room,0.8188048601150513
,guitar,0.8156328797340393
https://scontent.cdninstagram.com/t51.2885-15/s640x640/sh0.08/e35/13118168_657144241102297_2032142201_n.jpg,indoors,0.9908766746520996
,people,0.9877936840057373
,horizontal,0.9832368493080139
,adult,0.9792057275772095
,woman,0.9681260585784912
,sitting,0.9672724604606628
,man,0.9506714344024658
,togetherness,0.9481807947158813
,technology,0.942764401435852
,business,0.9382960796356201
,portrait,0.9198518991470337
,vertical,0.8970996141433716
,communication,0.8895726203918457
,sit,0.8842527866363525
,friendship,0.8789472579956055
,enjoyment,0.847111701965332
,education,0.8401708602905273
,presentation,0.8305376768112183
,music,0.8251311779022217
,illustration,0.8209893107414246
https://scontent.cdninstagram.com/t51.2885-15/e35/13188048_1053932511309475_2092146785_n.jpg,woman,0.9813802242279053
,man,0.9796477556228638
,people,0.9675316214561462
,portrait,0.9567781090736389
,adult,0.9418959617614746
,competition,0.9409774541854858
,indoors,0.9401466846466064
,wear,0.9372360706329346
,two,0.9287276268005371
,facial expression,0.9185467958450317
,enjoyment,0.886344313621521
,three,0.8470299243927002
,happiness,0.8376091718673706
,coffee,0.8344238996505737
,group,0.8343017101287842
,togetherness,0.828163743019104
,business,0.8076515197753906
,interaction,0.7748274803161621
,cooperation,0.7665154933929443
,championship,0.7652418613433838
https://scontent.cdninstagram.com/t51.2885-15/e35/13256873_1748793422070250_1200558964_n.jpg,music,0.9789897203445435
,show,0.97858726978302
,performance,0.9697012901306152
,landscape,0.9678022861480713
,festival,0.9607275724411011
,band,0.9426125884056091
,presentation,0.938962459564209
,group,0.9218868613243103
,concert,0.9198024868965149
,adult,0.9191004037857056
,people,0.914452075958252
,woman,0.9000808000564575
,tennis,0.898247241973877
,collection,0.8974807858467102
,competition,0.8963638544082642
,exhibition,0.8945120573043823
,populace,0.8828606605529785
,International,0.8738863468170166
,musician,0.8518403768539429
,man,0.8393808603286743
https://scontent.cdninstagram.com/t51.2885-15/s640x640/sh0.08/e35/13129762_1559807830980020_862270728_n.jpg,people,0.9826591610908508
,illustration,0.975885272026062
,music,0.9728695154190063
,horizontal,0.9700324535369873
,man,0.9411790370941162
,adult,0.9398291707038879
,stage,0.9187183976173401
,performance,0.9128344058990479
,woman,0.9034571051597595
,party,0.8996604681015015
,nightlife,0.8994807004928589
,club,0.8967995643615723
,illuminated,0.8926376104354858
,business,0.8885564804077148
,technology,0.8829760551452637
,light,0.8798260688781738
,silhouette,0.8589819669723511
,dancing,0.8543692231178284
,audience,0.8518773913383484
,indoors,0.8287431597709656
https://scontent.cdninstagram.com/t51.2885-15/s750x750/sh0.08/e35/13260948_1615320065461499_306479969_n.jpg,people,0.9944037795066833
,coffee,0.9875957369804382
,drink,0.9851859211921692
,woman,0.9829628467559814
,enjoyment,0.9763191938400269
,adult,0.968225359916687
,facial expression,0.9290884733200073
,two,0.8984313011169434
,man,0.8727012276649475
,indoors,0.8635706901550293
,portrait,0.8522878885269165
,happiness,0.8427718281745911
,wear,0.8312864303588867
,tea,0.8235061168670654
,sit,0.8166952133178711
,group,0.8080555200576782
,leisure,0.7987615466117859
,cup,0.7911657094955444
,beer,0.7491964101791382
,mug,0.7450323104858398
https://scontent.cdninstagram.com/t51.2885-15/s640x640/sh0.08/e35/13181470_1579771032334544_601172382_n.jpg,people,0.9641216397285461
,competition,0.9609919786453247
,woman,0.9558664560317993
,music,0.9438780546188354
,portrait,0.9277957677841187
,adult,0.9206756353378296
,group,0.9142124652862549
,man,0.9133517742156982
,festival,0.9128212928771973
,rally,0.9086340665817261
,education,0.8997686505317688
,wear,0.8894119262695312
,election,0.8855431079864502
,school,0.8794286251068115
,battle,0.8779779672622681
,race,0.8778321743011475
,rally,0.8664476871490479
,performance,0.8662416934967041
,singer,0.8660298585891724
,offense,0.8468468189239502
https://scontent.cdninstagram.com/t51.2885-15/s640x640/sh0.08/e35/12519410_796875033780863_1779271482_n.jpg,people,0.9953035116195679
,adult,0.9951212406158447
,portrait,0.9941608905792236
,woman,0.9909154772758484
,man,0.9868044257164001
,wear,0.9764679670333862
,two,0.963839054107666
,facial expression,0.9469910860061646
,happiness,0.9317749738693237
,movie,0.9300287961959839
,indoors,0.9172670841217041
,recreation,0.9112108945846558
,business,0.9005619287490845
,girl,0.896072506904602
,actor,0.8694707155227661
,festival,0.8693975210189819
,group,0.845980167388916
,office,0.8310431241989136
,medicine,0.82795649766922
,love,0.8234267234802246
https://scontent.cdninstagram.com/t51.2885-15/s640x640/sh0.08/e35/12950478_253189708365046_707890614_n.jpg,people,0.9630639553070068
,competition,0.9622845649719238
,man,0.9609129428863525
,portrait,0.9544821977615356
,track,0.949344277381897
,adult,0.9071446657180786
,indoors,0.9041144847869873
,wear,0.8550032377243042
,race,0.8173086047172546
,championship,0.8130974769592285
,military,0.8005622625350952
,athlete,0.7987082004547119
,vehicle,0.7955018281936646
,race,0.7779818773269653
,commerce,0.7757071852684021
,enjoyment,0.7614571452140808
,coffee,0.7389507293701172
,group,0.7383527755737305
,soccer,0.7375919818878174
,auto racing,0.73286372423172
https://scontent.cdninstagram.com/t51.2885-15/s640x640/sh0.08/e35/13126652_963102917137915_51891766_n.jpg,facial expression,0.9813761711120605
,people,0.9758909940719604
,wear,0.9705570936203003
,portrait,0.961555004119873
,recreation,0.958442211151123
,indoors,0.9574947357177734
,man,0.9490506052970886
,two,0.9429194927215576
,group,0.9347659945487976
,room,0.922272801399231
,adult,0.919847309589386
,actress,0.8991372585296631
,happiness,0.8928365111351013
,daylight,0.8823418617248535
,stock,0.8788221478462219
,woman,0.875927746295929
,togetherness,0.863781750202179
,three,0.8531771898269653
,eyewear,0.8512799739837646
,musician,0.8454098701477051
https://scontent.cdninstagram.com/t51.2885-15/s640x640/sh0.08/e35/12912497_1037028223051275_1893983063_n.jpg,people,0.9814009666442871
,man,0.9455916881561279
,horizontal,0.9451897144317627
,woman,0.9369058609008789
,outdoors,0.9328931570053101
,illustration,0.9293615818023682
,adult,0.9112357497215271
,silhouette,0.8942878246307373
,sport,0.8778399229049683
,vector,0.8704299330711365
,collection,0.8576505184173584
,competition,0.8510152101516724
,bill,0.8457089066505432
,communication,0.8257949352264404
,horizontal,0.8187018036842346
,music,0.8186002969741821
,togetherness,0.8026598691940308
,child,0.7975351214408875
,fun,0.7862074375152588
,business,0.7824594974517822
https://scontent.cdninstagram.com/t51.2885-15/e35/13534609_138509553240837_22932357_n.jpg,celebration,0.9945922493934631
,party,0.9845110177993774
,group,0.9724428653717041
,movie,0.9681200981140137
,portrait,0.9528946876525879
,performance,0.9497411251068115
,people,0.9495559930801392
,group,0.9474265575408936
,laughing,0.945858359336853
,man,0.9433859586715698
,happiness,0.9401950836181641
,woman,0.9334843158721924
,enjoyment,0.9294394850730896
,festival,0.9260754585266113
,fun,0.9176114797592163
,exhibition,0.9108685255050659
,birthday,0.8914437890052795
,family,0.8898318409919739
,friendship,0.8884881734848022
,exhilaration,0.8819697499275208
https://scontent.cdninstagram.com/t51.2885-15/e35/12959961_1607854256201423_845874904_n.jpg,people,0.9784641265869141
,woman,0.9731067419052124
,indoors,0.9713460803031921
,man,0.961847722530365
,portrait,0.9535664319992065
,two,0.9508363008499146
,adult,0.9486185908317566
,wear,0.9426730871200562
,family,0.9299275875091553
,facial expression,0.9134321212768555
,togetherness,0.9025577306747437
,child,0.8933957815170288
,music,0.8692888021469116
,fashion,0.8563438653945923
,enjoyment,0.8504542708396912
,education,0.8482654094696045
,battle,0.8448543548583984
,competition,0.8338514566421509
,room,0.8263421654701233
,fun,0.8165596127510071
https://scontent.cdninstagram.com/t51.2885-15/e35/13561807_1710589712520095_910594110_n.jpg,people,0.9910510182380676
,man,0.9843789339065552
,portrait,0.9813897609710693
,adult,0.9804356694221497
,room,0.9700747728347778
,family,0.9631730914115906
,education,0.9619507789611816
,happiness,0.9393603801727295
,indoors,0.9393022060394287
,school,0.9374025464057922
,child,0.9351657629013062
,woman,0.9262799024581909
,two,0.9245195388793945
,wear,0.9240534901618958
,enjoyment,0.9194962382316589
,group,0.9049860239028931
,facial expression,0.9046647548675537
,lifestyle,0.899056613445282
,boy,0.8936147689819336
,sit,0.878147542476654
https://scontent.cdninstagram.com/t51.2885-15/e35/12976541_214070665651001_771880660_n.jpg,people,0.9875850677490234
,woman,0.9865798950195312
,adult,0.97234708070755
,portrait,0.9621788263320923
,indoors,0.9582763314247131
,man,0.9570362567901611
,two,0.9520783424377441
,wear,0.9509894847869873
,girl,0.9206283092498779
,family,0.8753472566604614
,three,0.856035053730011
,competition,0.8550333380699158
,education,0.8522688746452332
,eyewear,0.8480657339096069
,music,0.8452670574188232
,facial expression,0.8353992700576782
,child,0.8300917148590088
,eyeglasses,0.8252235651016235
,battle,0.8098334074020386
,room,0.8023898601531982
https://scontent.cdninstagram.com/t51.2885-15/e35/13092364_271328229878826_1933199210_n.jpg,portrait,0.9982560873031616
,man,0.9945443272590637
,people,0.9914777874946594
,adult,0.98492032289505
,one,0.966823935508728
,light,0.9575710296630859
,guy,0.9344910383224487
,face,0.9316630363464355
,boy,0.9243226051330566
,urban,0.9227818846702576
,wear,0.9184336066246033
,business,0.9021674990653992
,youth,0.8933186531066895
,window,0.8813333511352539
,model,0.8761822581291199
,auto racing,0.8750706315040588
,lid,0.8658393621444702
,pensive,0.8641732931137085
,confidence,0.8629766702651978
,athlete,0.862028181552887
https://scontent.cdninstagram.com/t51.2885-15/e35/13150957_582329141941664_864761808_n.jpg,people,0.9921143054962158
,street,0.988753080368042
,competition,0.970471203327179
,city,0.9677919149398804
,group,0.9634602069854736
,man,0.9580332040786743
,woman,0.9274834394454956
,race,0.9137319326400757
,crowd,0.9118660092353821
,road,0.9095128774642944
,urban,0.9050367474555969
,vehicle,0.895058274269104
,adult,0.8935770988464355
,championship,0.8887556791305542
,rally,0.8671658039093018
,soccer,0.8547281622886658
,bill,0.8344261646270752
,many,0.8291631937026978
,bar,0.8109463453292847
,action,0.8081039786338806
https://scontent.cdninstagram.com/t51.2885-15/e35/12940181_624047707743297_192885879_n.jpg,group,0.983649492263794
,people,0.9835999011993408
,woman,0.9762781262397766
,family,0.9724174737930298
,man,0.9633610248565674
,portrait,0.9515815377235413
,adult,0.9428302049636841
,child,0.9304724931716919
,music,0.9185235500335693
,four,0.9174880981445312
,three,0.9159485101699829
,festival,0.8882153034210205
,musician,0.8876923322677612
,group,0.8845138549804688
,two,0.8791183233261108
,interaction,0.8726049661636353
,girl,0.8671371936798096
,indoors,0.8631078600883484
,facial expression,0.8487353324890137
,room,0.8451385498046875
https://scontent.cdninstagram.com/t51.2885-15/e35/13266886_1365779916771349_597595736_n.jpg,movie,0.9936001896858215
,performance,0.9931232929229736
,music,0.9869831800460815
,stage,0.9834849834442139
,portrait,0.9808142185211182
,people,0.9778388738632202
,musician,0.975766658782959
,concert,0.9719245433807373
,theater,0.9703913927078247
,singer,0.9626899361610413
,festival,0.9601951837539673
,theater,0.946040153503418
,facial expression,0.9299004077911377
,adult,0.926680326461792
,recreation,0.9157841205596924
,two,0.913522481918335
,cinema,0.906386137008667
,woman,0.8938765525817871
,ceremony,0.8882094621658325
,man,0.8872948884963989
https://scontent.cdninstagram.com/t51.2885-15/e35/12918048_539976599514627_1670066472_n.jpg,people,0.9930952787399292
,music,0.9928942918777466
,singer,0.9896067380905151
,performance,0.9886484742164612
,concert,0.9883340001106262
,musician,0.9830873012542725
,microphone,0.978180468082428
,brunette,0.9413689374923706
,festival,0.9234562516212463
,pop,0.9085941314697266
,stage,0.8991323709487915
,portrait,0.8983488082885742
,band,0.8809534311294556
,adult,0.8759571313858032
,pop,0.853324294090271
,event,0.83810955286026
,jacket,0.8154304027557373
,fame,0.8080322742462158
,room,0.8019065260887146
,landscape,0.789587676525116
https://scontent.cdninstagram.com/t51.2885-15/e35/13551716_1118639931528086_2079662945_n.jpg,group,0.9681025743484497
,woman,0.9674782156944275
,people,0.9491547346115112
,man,0.9418882131576538
,collection,0.9385455846786499
,meeting,0.8971095085144043
,many,0.8852942585945129
,teamwork,0.8847024440765381
,business,0.881932258605957
,fashion,0.8725113272666931
,presentation,0.8630772829055786
,league,0.8555172681808472
,group,0.8470076322555542
,adult,0.8432165384292603
,leader,0.8385969400405884
,portrait,0.8238425254821777
,stump,0.8158310651779175
,exhibition,0.8155965209007263
,competition,0.8109387755393982
,festival,0.7988671064376831
https://scontent.cdninstagram.com/t51.2885-15/e35/13129269_856370207801288_840217324_n.jpg,competition,0.9787497520446777
,people,0.9659004211425781
,woman,0.9500543475151062
,music,0.9247103929519653
,portrait,0.9233266115188599
,adult,0.9193961024284363
,man,0.9181880950927734
,race,0.8897903561592102
,group,0.8821454048156738
,wear,0.8758305907249451
,education,0.8753194808959961
,festival,0.8688319325447083
,performance,0.8643378019332886
,soccer,0.8571617603302002
,championship,0.8535041809082031
,rally,0.8533064126968384
,rally,0.851218581199646
,school,0.8508914709091187
,celebration,0.8419443368911743
,election,0.8412851095199585
https://scontent.cdninstagram.com/t51.2885-15/s640x640/sh0.08/e35/12960003_1045924402119915_310692905_n.jpg,group,0.9903687238693237
,portrait,0.9901503324508667
,woman,0.9885678291320801
,adult,0.9865818023681641
,man,0.9787694215774536
,people,0.9781928658485413
,wear,0.9775048494338989
,three,0.9584539532661438
,two,0.9477101564407349
,facial expression,0.9433178901672363
,business,0.9181770086288452
,education,0.9130334258079529
,group,0.9075444936752319
,recreation,0.9062497019767761
,togetherness,0.8939236402511597
,four,0.8933354020118713
,indoors,0.8840428590774536
,room,0.8807344436645508
,school,0.8736735582351685
,friendship,0.8670637607574463
https://scontent.cdninstagram.com/t51.2885-15/e35/12976492_1738311793100675_1553844357_n.jpg,people,0.990811824798584
,portrait,0.99043869972229
,hijab,0.9847292900085449
,scarf,0.9814736843109131
,headscarf,0.9803506135940552
,group,0.9786859750747681
,woman,0.9737933874130249
,child,0.964580774307251
,family,0.9645156860351562
,veil,0.961752712726593
,adult,0.9607206583023071
,wear,0.9598689079284668
,man,0.9593343734741211
,two,0.9461700916290283
,interaction,0.9298527240753174
,religion,0.912628173828125
,three,0.9058066606521606
,boy,0.9025688171386719
,girl,0.8826358318328857
,facial expression,0.87995445728302
https://scontent.cdninstagram.com/t51.2885-15/s640x640/sh0.08/e35/13129484_1593746237603240_526758261_n.jpg,people,0.9915197491645813
,adult,0.9717564582824707
,man,0.9635943174362183
,illustration,0.9621075391769409
,horizontal,0.9551394581794739
,horizontal,0.9427603483200073
,building,0.9168287515640259
,city,0.9106146097183228
,woman,0.8899294137954712
,outdoors,0.8781592845916748
,business,0.8695988655090332
,street,0.8695041537284851
,portrait,0.8676744699478149
,indoors,0.860261082649231
,house,0.8440418243408203
,road,0.841166615486145
,actor,0.8347852230072021
,sign,0.8304092884063721
,movie,0.8301894664764404
,vertical,0.8280669450759888
https://scontent.cdninstagram.com/t51.2885-15/s640x640/sh0.08/e35/13380938_650812068399422_469789599_n.jpg,technology,0.9968206286430359
,business,0.9924710988998413
,computer,0.987841010093689
,communication,0.974585771560669
,people,0.9721254110336304
,internet,0.971237063407898
,horizontal,0.9658488631248474
,data,0.9542434215545654
,adult,0.9341548681259155
,science,0.9320501089096069
,indoors,0.9165134429931641
,display,0.9079769849777222
,investor,0.9047863483428955
,industry,0.902121901512146
,screen,0.8944780826568604
,market,0.8891812562942505
,data,0.8862223625183105
,illustration,0.8734167814254761
,World Wide Web,0.8607485294342041
,analytics,0.8576912879943848
https://scontent.cdninstagram.com/t51.2885-15/s480x480/e35/13277587_1561236394170760_1038296650_n.jpg,people,0.9931018352508545
,group,0.9853744506835938
,adult,0.9847497344017029
,woman,0.9820410013198853
,man,0.9814626574516296
,portrait,0.9787852764129639
,wear,0.97586989402771
,facial expression,0.9666576385498047
,two,0.9582529664039612
,indoors,0.9291911125183105
,happiness,0.8977506160736084
,three,0.8940930962562561
,room,0.8911888599395752
,commerce,0.8891030550003052
,togetherness,0.8810327649116516
,outerwear,0.8717119693756104
,business,0.8711526393890381
,stock,0.8525477647781372
,eyewear,0.8414846062660217
,enjoyment,0.8198564052581787
https://scontent.cdninstagram.com/t51.2885-15/s750x750/sh0.08/e35/13381100_992394020875431_1551385187_n.jpg,wear,0.9920276403427124
,people,0.9919224977493286
,woman,0.9899265766143799
,two,0.9890716671943665
,facial expression,0.9844909906387329
,portrait,0.9824792742729187
,adult,0.9801832437515259
,man,0.9710894227027893
,wedding,0.953812837600708
,jewelry,0.9523943066596985
,indoors,0.941825270652771
,three,0.9362080097198486
,girl,0.9210702180862427
,fashion,0.9147728681564331
,actress,0.9126461148262024
,love,0.9081555604934692
,happiness,0.9012740850448608
,festival,0.9002548456192017
,togetherness,0.899273693561554
,bride,0.8939421772956848
https://scontent.cdninstagram.com/t51.2885-15/e35/13573514_1810514379181451_144457027_n.jpg,portrait,0.9979734420776367
,people,0.9938862323760986
,facial expression,0.9918822050094604
,adult,0.9900267124176025
,girl,0.987149715423584
,woman,0.9855382442474365
,wear,0.9835175275802612
,happiness,0.979385495185852
,two,0.9756007790565491
,interaction,0.9736331701278687
,veil,0.9700148105621338
,man,0.9623638987541199
,togetherness,0.9540443420410156
,love,0.9536461234092712
,boy,0.9510883092880249
,hijab,0.9317344427108765
,headscarf,0.899549663066864
,brunette,0.8921481370925903
,child,0.8810551762580872
,face,0.880845308303833
https://scontent.cdninstagram.com/t51.2885-15/s640x640/sh0.08/e35/13394950_1734520176819715_244167084_n.jpg,group,0.9954323768615723
,people,0.987373411655426
,woman,0.9844897985458374
,portrait,0.9687490463256836
,adult,0.9413507580757141
,headscarf,0.9405293464660645
,man,0.9385125637054443
,facial expression,0.9345043897628784
,veil,0.9197695851325989
,hijab,0.9189455509185791
,wear,0.89984130859375
,religion,0.8987290859222412
,family,0.8723440170288086
,many,0.868446409702301
,laughing,0.8624080419540405
,celebration,0.8516021966934204
,child,0.8473160862922668
,music,0.8422698974609375
,festival,0.835608959197998
,eyewear,0.833283543586731
https://scontent.cdninstagram.com/t51.2885-15/e35/13320238_1042724545804116_1400922199_n.jpg,people,0.9893929362297058
,woman,0.9698576927185059
,performance,0.9626897573471069
,adult,0.949566125869751
,man,0.9480845928192139
,competition,0.9423862099647522
,wear,0.9186724424362183
,festival,0.904578447341919
,soccer,0.900367259979248
,indoors,0.8958803415298462
,stage,0.8844425678253174
,actress,0.8828927278518677
,fashion,0.880760669708252
,music,0.8740577697753906
,portrait,0.8716726899147034
,ceremony,0.8644771575927734
,singer,0.8406935930252075
,athlete,0.8386135101318359
,education,0.8346064686775208
,exhibition,0.830730140209198
https://scontent.cdninstagram.com/t51.2885-15/s480x480/e35/13277582_640798416068362_276193926_n.jpg,woman,0.9842596054077148
,man,0.9803241491317749
,family,0.9798605442047119
,happiness,0.9792841076850891
,shopping,0.9780052900314331
,togetherness,0.976058840751648
,adult,0.9682209491729736
,people,0.9667626023292542
,indoors,0.9631838798522949
,facial expression,0.9561468362808228
,love,0.9534000158309937
,stock,0.9530054330825806
,enjoyment,0.9426021575927734
,two,0.9407256245613098
,portrait,0.9308428764343262
,affection,0.921008288860321
,wear,0.9163617491722107
,group,0.907495379447937
,daylight,0.8877590894699097
,shop,0.8725128173828125
https://scontent.cdninstagram.com/t51.2885-15/e35/13414283_1804426943112907_565436246_n.jpg,hanging,0.998526930809021
,shirt,0.9985120892524719
,wear,0.9983728528022766
,garment,0.9969362616539001
,fashion,0.9963942766189575
,jersey,0.995781660079956
,hanger,0.9948426485061646
,wardrobe,0.994474470615387
,jacket,0.993424654006958
,sleeve,0.9929534792900085
,cotton,0.9927768707275391
,dress,0.9919238090515137
,boutique,0.9913142919540405
,polo,0.9904981851577759
,apparel,0.9893664121627808
,man,0.9873896241188049
,shopping,0.986404538154602
,outfit,0.9856662750244141
,mannequin,0.984785795211792
,stock,0.9846360087394714
https://scontent.cdninstagram.com/t51.2885-15/e35/13392807_1107338945994695_1624898997_n.jpg,layout,0.9952440857887268
,template,0.9934313297271729
,stripe,0.993247389793396
,set,0.9911084175109863
,banner,0.9882005453109741
,vector,0.9870859384536743
,skidder,0.9777857065200806
,presentation,0.9745837450027466
,sandbank,0.9697158336639404
,World Wide Web,0.9614294767379761
,heading,0.9552541971206665
,graph,0.9549641609191895
,site,0.948309063911438
,number,0.94446861743927
,form,0.9422955513000488
,vector,0.9384287595748901
,illustration,0.9360939264297485
,label,0.931685745716095
,square,0.931342601776123
,navigation,0.9298869967460632
https://scontent.cdninstagram.com/t51.2885-15/e35/13473250_631594550341390_1322763748_n.jpg,man,0.9921959042549133
,people,0.9833418130874634
,adult,0.9780973792076111
,group,0.967273473739624
,wear,0.965691089630127
,facial expression,0.961168646812439
,portrait,0.949895977973938
,woman,0.9335331320762634
,happiness,0.9319171905517578
,indoors,0.9271790981292725
,three,0.8964499831199646
,togetherness,0.8834069967269897
,two,0.8717103004455566
,commerce,0.8537092208862305
,room,0.842713475227356
,family,0.8412629961967468
,enjoyment,0.8300448656082153
,stock,0.8210818767547607
,education,0.798751950263977
,friendship,0.796810507774353
https://scontent.cdninstagram.com/t51.2885-15/e35/13129385_1036093109761812_1770859228_n.jpg,competition,0.9842959046363831
,championship,0.9765802621841431
,people,0.9561359882354736
,banner,0.9550057053565979
,champion,0.9505681395530701
,bill,0.9475375413894653
,sport,0.9428900480270386
,game,0.9322974681854248
,populace,0.9309451580047607
,squad,0.9278596639633179
,athlete,0.9142535924911499
,man,0.8968409895896912
,presentation,0.8905459046363831
,logo,0.8903480768203735
,soccer,0.8816601037979126
,football,0.8541210889816284
,screen,0.8388745784759521
,editorial,0.8240312337875366
,display,0.8228158950805664
,television,0.8214681148529053
https://scontent.cdninstagram.com/t51.2885-15/e35/13392853_998660420229283_8032231_n.jpg,people,0.9554561376571655
,business,0.8971126079559326
,text,0.8966372013092041
,actor,0.8633847236633301
,adult,0.8280009031295776
,music,0.8223253488540649
,man,0.8213245868682861
,actress,0.7868585586547852
,recreation,0.782023549079895
,festival,0.7737898826599121
,movie,0.7513793110847473
,illustration,0.7407305240631104
,education,0.7238736748695374
,bill,0.7193273901939392
,portrait,0.6626452803611755
,technology,0.6616170406341553
,light,0.6545177698135376
,event,0.6483643054962158
,communication,0.6310103535652161
,cloud,0.6270102262496948
https://scontent.cdninstagram.com/t51.2885-15/e35/13402398_933563103433805_657414060_n.jpg,woman,0.9927681088447571
,indoors,0.9802908897399902
,man,0.9708993434906006
,togetherness,0.968002438545227
,family,0.9510730504989624
,enjoyment,0.9218415021896362
,people,0.9186622500419617
,multicultural,0.9137161374092102
,facial expression,0.9113490581512451
,looking,0.8996343612670898
,child,0.8891119956970215
,adolescent,0.8832492232322693
,laughing,0.8679591417312622
,wear,0.8507260084152222
,portrait,0.8479528427124023
,friendship,0.8153092265129089
,student,0.8142217397689819
,love,0.8100383281707764
,sitting,0.8026073575019836
,group,0.7947826981544495
https://scontent.cdninstagram.com/t51.2885-15/e35/13557203_297854243885716_759346066_n.jpg,facial expression,0.9819934368133545
,people,0.9746840000152588
,woman,0.9738056659698486
,portrait,0.9503934979438782
,man,0.9477437734603882
,outdoors,0.9406882524490356
,adult,0.9374057650566101
,enjoyment,0.9356563091278076
,togetherness,0.9308096170425415
,wear,0.9291123151779175
,two,0.9140321612358093
,happiness,0.8735816478729248
,election,0.8626806735992432
,group,0.8610047698020935
,friendship,0.8365402221679688
,child,0.8319525122642517
,interaction,0.826086163520813
,fun,0.8196170926094055
,rally,0.8193766474723816
,recreation,0.8159931898117065
https://scontent.cdninstagram.com/t51.2885-15/e15/13167208_222854434765000_705777328_n.jpg,performance,0.9898569583892822
,portrait,0.988770604133606
,people,0.9834696650505066
,fashion,0.9816645383834839
,adult,0.9773697257041931
,stage,0.9755256175994873
,wear,0.9696993231773376
,music,0.9694467782974243
,festival,0.9657614231109619
,concert,0.944200873374939
,man,0.9373372793197632
,dress,0.9320374727249146
,singer,0.9277729988098145
,musician,0.9258980751037598
,party,0.9047044515609741
,woman,0.9024160504341125
,show,0.8984748125076294
,model,0.890669584274292
,collection,0.8813689947128296
,celebration,0.8753014802932739
https://scontent.cdninstagram.com/t51.2885-15/s640x640/sh0.08/e35/13258986_1016080195155657_1015676253_n.jpg,people,0.9732402563095093
,illustration,0.96309494972229
,adult,0.9614542126655579
,horizontal,0.9515522122383118
,vector,0.9387898445129395
,man,0.9368352890014648
,sport,0.9361083507537842
,woman,0.908090353012085
,vertical,0.8961098194122314
,competition,0.8922735452651978
,game,0.8812485337257385
,soccer,0.8765698075294495
,indoors,0.8737199306488037
,child,0.8734136819839478
,fun,0.872087836265564
,business,0.8447251915931702
,friendship,0.8303591012954712
,portrait,0.8291353583335876
,motion,0.8254605531692505
,football,0.8156665563583374
