url,class,score
https://scontent-sit4-1.cdninstagram.com/t51.2885-15/s320x320/e35/13722007_645284175620547_1125403537_n.jpg,symbol,0.9909353256225586
,illustration,0.9885660409927368
,sign,0.9864619374275208
,business,0.941010594367981
,design,0.9400897026062012
,text,0.934756875038147
,isolated,0.9308797121047974
,vector,0.9297231435775757
,number,0.9194636344909668
,alphabet,0.9172937870025635
,cross,0.9120614528656006
,image,0.9047470092773438
,art,0.884052574634552
,no person,0.8773469924926758
,traffic,0.8724113702774048
,character,0.8640459775924683
,shape,0.858885645866394
,letter,0.8487775921821594
,isolated,0.8431886434555054
,graphic,0.8406195640563965
https://scontent-sit4-1.cdninstagram.com/t51.2885-15/s640x640/e15/13549584_1102925953130096_1533607321_n.jpg,no person,0.973443865776062
,car,0.9727757573127747
,transportation system,0.9700340032577515
,vehicle,0.9689268469810486
,travel,0.9626656174659729
,street,0.9604473114013672
,city,0.9560257196426392
,blur,0.9511857032775879
,light,0.9491904973983765
,road,0.9310266971588135
,industry,0.9079296588897705
,airport,0.9047121405601501
,traffic,0.8980557918548584
,action,0.8758962750434875
,business,0.8741524815559387
,urban,0.8720760345458984
,indoors,0.8605126142501831
,building,0.8542114496231079
,modern,0.8520615100860596
,steel,0.850896954536438
https://scontent-sit4-1.cdninstagram.com/t51.2885-15/s320x320/e35/13557091_566996913472533_228101876_n.jpg,military,0.9998466968536377
,army,0.9993821382522583
,soldier,0.9991554021835327
,war,0.9980217218399048
,uniform,0.9962753057479858
,rifle,0.9959516525268555
,weapon,0.9950171709060669
,battle,0.9942864179611206
,military uniform,0.9933226108551025
,people,0.9833923578262329
,gun,0.9830368757247925
,outfit,0.9790791869163513
,wear,0.9773165583610535
,machine gun,0.976874589920044
,commando,0.9603961110115051
,group,0.9564760327339172
,parade,0.9507635235786438
,combat,0.9410929679870605
,security,0.9395626187324524
,recruit,0.9338018894195557
https://scontent-sit4-1.cdninstagram.com/t51.2885-15/e35/13557225_1403102569706167_648226616_n.jpg,light,0.9846230745315552
,street,0.9808559417724609
,car,0.9788007736206055
,road,0.9683107137680054
,city,0.9660773277282715
,no person,0.9439769983291626
,urban,0.9386551380157471
,building,0.9357086420059204
,landscape,0.9243898391723633
,architecture,0.9192512631416321
,museum,0.9183109402656555
,offense,0.9095033407211304
,vehicle,0.9074615240097046
,indoors,0.8983924984931946
,travel,0.8982871770858765
,reflection,0.8949941992759705
,business,0.8850303292274475
,storm,0.8831827640533447
,industry,0.8677717447280884
,blur,0.8665670156478882
https://scontent-sit4-1.cdninstagram.com/t51.2885-15/s320x320/e35/13562043_723206051153014_1526942280_n.jpg,illustration,0.9769213199615479
,water,0.9456121921539307
,art,0.9383831024169922
,desktop,0.9087199568748474
,color,0.8864023685455322
,nature,0.8835228681564331
,ocean,0.877196729183197
,travel,0.864068865776062
,sea,0.8538069725036621
,symbol,0.8392937183380127
,man,0.8376402854919434
,outdoors,0.8039236068725586
,sand,0.8017158508300781
,landscape,0.7968619465827942
,design,0.7866227626800537
,beautiful,0.7842119336128235
,people,0.7809972167015076
,vintage,0.7744735479354858
,vector,0.773633599281311
,young,0.7659950852394104
https://scontent-sit4-1.cdninstagram.com/t51.2885-15/e35/13671718_1136437579746084_1550506275_n.jpg,hand,0.9722346663475037
,woman,0.947136402130127
,people,0.927505373954773
,one,0.9205889701843262
,relaxation,0.9029521942138672
,adult,0.8933601379394531
,child,0.8843181133270264
,skin,0.8729761838912964
,two,0.865866482257843
,gift,0.8599392175674438
,card,0.8449674844741821
,sign,0.8351926207542419
,love,0.8234178423881531
,human,0.8224676251411438
,man,0.810291051864624
,recreation,0.8072268962860107
,paper,0.7900010347366333
,symbol,0.7860574722290039
,conceptual,0.7780792117118835
,care,0.763312578201294
https://scontent-sit4-1.cdninstagram.com/t51.2885-15/e35/13557198_512476915627869_1453010649_n.jpg,child,0.9994708299636841
,people,0.9911963939666748
,boy,0.9896659851074219
,portrait,0.9888461232185364
,family,0.9888228178024292
,baby,0.98056960105896
,boy,0.9694185853004456
,girl,0.9688989520072937
,two,0.9588603973388672
,group,0.9564067721366882
,wear,0.9378252029418945
,happiness,0.9376775026321411
,recreation,0.9276726245880127
,sibling,0.9224418997764587
,three,0.9210776686668396
,fun,0.9134399890899658
,offspring,0.9109945297241211
,youth,0.9099951386451721
,toddler,0.9020147323608398
,outdoors,0.8846429586410522
https://scontent-sit4-1.cdninstagram.com/t51.2885-15/e35/13722294_1756451691274560_1366547649_n.jpg,business,0.9804911017417908
,text,0.9802226424217224
,horizontal,0.9773611426353455
,no person,0.9714672565460205
,isolated,0.9115015268325806
,desktop,0.9113815426826477
,education,0.9092229604721069
,illustration,0.9027716517448425
,internet,0.8970569372177124
,conceptual,0.8907555341720581
,success,0.8891156911849976
,give voice,0.8833867907524109
,paper,0.860349178314209
,data,0.8318581581115723
,page,0.8286805152893066
,printout,0.8191443681716919
,abstract,0.8139568567276001
,opportunity,0.8125613927841187
,computer graphic,0.8077298402786255
,impact,0.8047136068344116
https://scontent-sit4-1.cdninstagram.com/t51.2885-15/s750x750/sh0.08/e35/13643137_253901248323369_103882904_n.jpg,people,0.9619104862213135
,man,0.9583684206008911
,business,0.9273075461387634
,illustration,0.9137930870056152
,vertical,0.8835520148277283
,vector,0.8817800283432007
,woman,0.8744577169418335
,internet,0.8583295345306396
,technology,0.8412226438522339
,outdoors,0.8350965976715088
,adult,0.8341909646987915
,indoors,0.8058257102966309
,desktop,0.7936701774597168
,connection,0.7569398880004883
,recreation,0.7517375946044922
,light,0.745902419090271
,illuminated,0.7429101467132568
,success,0.7234771251678467
,design,0.7137037515640259
,banner,0.7061591744422913
https://scontent-sit4-1.cdninstagram.com/t51.2885-15/s640x640/e15/13473378_596488927182238_1648672591_n.jpg,portrait,0.9923412799835205
,adult,0.980016827583313
,group,0.973386287689209
,people,0.9654824733734131
,woman,0.9552602171897888
,man,0.9413565397262573
,business,0.9285998344421387
,education,0.89385986328125
,offense,0.8708493709564209
,school,0.8547408580780029
,happiness,0.8537124395370483
,meeting,0.7659997940063477
,office,0.7648756504058838
,battle,0.7446367740631104
,facial expression,0.7425567507743835
,wear,0.7422016859054565
,university,0.736974835395813
,youth,0.7321764230728149
,group,0.7312823534011841
,rally,0.7290828227996826
https://scontent-sit4-1.cdninstagram.com/t51.2885-15/e35/13696944_1405769486396501_1802106701_n.jpg,illustration,0.9693254232406616
,vector,0.9638081789016724
,dark,0.9481608867645264
,number,0.9372364282608032
,illuminated,0.937122106552124
,technology,0.937097430229187
,time,0.9320732355117798
,no person,0.9196423292160034
,desktop,0.9134872555732727
,vertical,0.9055353403091431
,design,0.8983206748962402
,horizontal,0.8960349559783936
,display,0.8693845272064209
,full moon,0.8627919554710388
,light,0.8442516326904297
,control,0.8359383344650269
,symbol,0.8335975408554077
,equipment,0.8207470178604126
,round,0.8174794912338257
,connection,0.7872787117958069
https://scontent-sit4-1.cdninstagram.com/t51.2885-15/e35/13534506_614211008752725_1048768682_n.jpg,stripe,0.9962936639785767
,navigation,0.9962840676307678
,menu,0.989988386631012
,template,0.9896608591079712
,World Wide Web,0.9859322309494019
,site,0.9854182004928589
,login,0.9767422676086426
,layout,0.9736776947975159
,banner,0.9732133746147156
,interface,0.960053563117981
,page,0.9473589062690735
,user,0.9395182728767395
,set,0.9339064359664917
,form,0.9296725988388062
,label,0.9209831953048706
,heading,0.9190566539764404
,browse,0.9097815752029419
,browse,0.9095925092697144
,theme,0.9040746688842773
,check,0.8981442451477051
https://scontent-sit4-1.cdninstagram.com/t51.2885-15/e35/13696538_1050960541625449_1300109981_n.jpg,food,0.9957135915756226
,meat,0.9792970418930054
,no person,0.9781790375709534
,dinner,0.9778856635093689
,unhealthy,0.9600235223770142
,meal,0.9549765586853027
,one,0.9535561800003052
,chicken,0.9524429440498352
,lunch,0.9510930776596069
,people,0.9393864870071411
,delicious,0.9387831091880798
,pork,0.9360542297363281
,cooking,0.9348636269569397
,grow,0.8985968828201294
,flame,0.8972210884094238
,beef,0.8869553804397583
,hot,0.8838695287704468
,refreshment,0.8815194964408875
,fast,0.8758496046066284
,plate,0.8621224761009216
https://scontent-sit4-1.cdninstagram.com/t51.2885-15/e35/13714219_1618389915118095_1542890845_n.jpg,no person,0.949111819267273
,business,0.9077081084251404
,dark,0.9044537544250488
,nature,0.9037628769874573
,success,0.8914333581924438
,vector,0.8881401419639587
,illustration,0.8838626146316528
,graphic design,0.8832714557647705
,meditation,0.8793551921844482
,conceptual,0.8653526902198792
,spirituality,0.8601040840148926
,relaxation,0.8440256714820862
,technology,0.8424804210662842
,outdoors,0.8384071588516235
,creativity,0.8304903507232666
,man,0.8231176733970642
,sky,0.8167645335197449
,family,0.812743067741394
,contemporary,0.7998420596122742
,religion,0.7892559766769409
https://scontent-sit4-1.cdninstagram.com/t51.2885-15/e35/13722124_297172943966631_424598419_n.jpg,template,0.977363109588623
,illustration,0.9639784693717957
,vector,0.9633828401565552
,page,0.9496680498123169
,banner,0.9481988549232483
,no person,0.9454387426376343
,World Wide Web,0.9382949471473694
,business,0.9363501071929932
,identity,0.9259297847747803
,number,0.9087272882461548
,internet,0.9078894853591919
,horizontal,0.9061206579208374
,design,0.902733325958252
,stripe,0.9003912210464478
,form,0.8964072465896606
,label,0.890062689781189
,navigation,0.8894774913787842
,order,0.8891838788986206
,graphic,0.8819066286087036
,desktop,0.8671122789382935
https://scontent-sit4-1.cdninstagram.com/t51.2885-15/e35/13671744_1092463234160908_631321176_n.jpg,label,0.9886089563369751
,template,0.9861878156661987
,vector,0.9810638427734375
,illustration,0.9810230731964111
,banner,0.9772545099258423
,World Wide Web,0.9713300466537476
,internet,0.961138129234314
,layout,0.9599848985671997
,no person,0.9484909772872925
,card,0.9442919492721558
,design,0.9436333179473877
,vector,0.9399101734161377
,bill,0.9192049503326416
,vertical,0.9179054498672485
,presentation,0.9159665107727051
,data,0.9139608144760132
,business,0.9136086702346802
,set,0.909462571144104
,symbol,0.9073046445846558
,booklet,0.8931537866592407
https://scontent-sit4-1.cdninstagram.com/t51.2885-15/s640x640/e15/13636261_159917304429107_838743873_n.jpg,no person,0.9874725341796875
,hotel,0.9696334004402161
,patio,0.965753436088562
,architecture,0.96352219581604
,people,0.9472701549530029
,tree,0.9452987909317017
,flower,0.9434916377067566
,house,0.9369605779647827
,swimming pool,0.9359309673309326
,daylight,0.9345285892486572
,building,0.9312566518783569
,city,0.9221203327178955
,pool,0.9120917320251465
,home,0.9108119606971741
,landscape,0.909324049949646
,outdoors,0.9057700037956238
,travel,0.8998860120773315
,window,0.8900710940361023
,resort,0.8889028429985046
,luxury,0.8871887922286987
https://scontent-sit4-1.cdninstagram.com/t51.2885-15/s480x480/e35/13740989_1569672716668569_1846567689_n.jpg,indoors,0.9912539124488831
,bedroom,0.9623762369155884
,furniture,0.9594243168830872
,pillow,0.9437910318374634
,education,0.9352902173995972
,no person,0.9302061796188354
,bed,0.9285110235214233
,room,0.9183255434036255
,chalkboard,0.9174961447715759
,table,0.8848023414611816
,comfort,0.8721413612365723
,wood,0.8711957931518555
,wall,0.8655167818069458
,contemporary,0.858322262763977
,chalk,0.8580675721168518
,family,0.8269452452659607
,business,0.8204336166381836
,cozy,0.818935751914978
,horizontal,0.8171235918998718
,school,0.8039382696151733
https://scontent-sit4-1.cdninstagram.com/t51.2885-15/s640x640/e15/13707389_164532113957856_1629573065_n.jpg,no person,0.9948587417602539
,architecture,0.9834720492362976
,outdoors,0.9654117822647095
,daylight,0.9583176374435425
,tree,0.9572341442108154
,people,0.9546436071395874
,travel,0.9502872228622437
,city,0.9483375549316406
,hotel,0.9437633752822876
,house,0.9313666224479675
,building,0.9260914325714111
,home,0.921625018119812
,street,0.9144765138626099
,chair,0.9063100218772888
,luxury,0.9060726761817932
,swimming pool,0.893997073173523
,flower,0.8884139657020569
,patio,0.8879378437995911
,seat,0.8756128549575806
,summer,0.8710572719573975
https://scontent-sit4-1.cdninstagram.com/t51.2885-15/e35/13534503_633369860153173_6429072_n.jpg,paper,0.9366205930709839
,illustration,0.9122625589370728
,desktop,0.9069512486457825
,business,0.905535876750946
,symbol,0.8830405473709106
,wine,0.8825819492340088
,design,0.8818508982658386
,sketch,0.8731441497802734
,art,0.8717095255851746
,sign,0.8679955005645752
,celebration,0.8516377210617065
,note,0.8431843519210815
,drink,0.8427784442901611
,card,0.8310626745223999
,color,0.8181077241897583
,people,0.8055092096328735
,text,0.8017803430557251
,old,0.7779973745346069
,party,0.7709581255912781
,money,0.7662681341171265
https://scontent-sit4-1.cdninstagram.com/t51.2885-15/e35/13551765_566118680235219_49187862_n.jpg,child,0.9936906099319458
,people,0.9907262921333313
,baby,0.9846594333648682
,mammal,0.9778788089752197
,two,0.9763748049736023
,dog,0.9758647680282593
,one,0.9605382680892944
,adult,0.9549746513366699
,girl,0.9532074332237244
,portrait,0.9531962871551514
,boy,0.9517347812652588
,family,0.9438855051994324
,room,0.9415699243545532
,indoors,0.9368255138397217
,cute,0.9305226802825928
,love,0.9252403974533081
,affection,0.9210391044616699
,toy,0.9071650505065918
,facial expression,0.8997014760971069
,woman,0.8875229954719543
https://scontent-sit4-1.cdninstagram.com/t51.2885-15/e35/13732331_1112332512167225_2032491965_n.jpg,television,0.9908844828605652
,screen,0.9715237021446228
,video,0.948416531085968
,technology,0.943923830986023
,exhibition,0.9411488175392151
,landscape,0.9347907304763794
,design,0.9247946739196777
,industry,0.9241819381713867
,business,0.9235938191413879
,no person,0.922366201877594
,travel,0.9223524332046509
,indoors,0.9189929366111755
,monitor,0.9132322072982788
,soccer,0.9105453491210938
,festival,0.8869153261184692
,modern,0.8839215040206909
,medicine,0.8816457986831665
,competition,0.8809406757354736
,movie,0.8766912817955017
,graphic,0.8734526634216309
https://scontent-sit4-1.cdninstagram.com/t51.2885-15/e35/13741239_131099747326541_676763562_n.jpg,no person,0.9920504093170166
,food,0.9914271831512451
,grow,0.9565693736076355
,dinner,0.9538544416427612
,delicious,0.947819709777832
,lunch,0.9443660974502563
,bowl,0.9440879821777344
,cooking,0.9245421886444092
,vegetable,0.9149788618087769
,nutrition,0.911074161529541
,dish,0.9019426107406616
,flatware,0.880229115486145
,traditional,0.8799468278884888
,meal,0.8735074400901794
,fish,0.8653254508972168
,hot,0.8618596792221069
,plate,0.855970025062561
,dairy product,0.8528540730476379
,rice,0.846782922744751
,tableware,0.8406822085380554
https://scontent-sit4-1.cdninstagram.com/t51.2885-15/e35/13556777_1585261355100471_1392507887_n.jpg,telephone,0.9804604649543762
,technology,0.9698206782341003
,wireless,0.964226245880127
,screen,0.9639366865158081
,touch,0.958983302116394
,communication,0.950246274471283
,cellular telephone,0.9384117722511292
,cellular,0.9333674907684326
,electronics,0.9280800819396973
,no person,0.9267832636833191
,display,0.9257998466491699
,business,0.9090344905853271
,World Wide Web,0.9041018486022949
,isolated,0.8977257013320923
,portable,0.8956489562988281
,internet,0.8941880464553833
,desktop,0.8932479619979858
,illustration,0.8932268023490906
,device,0.889122724533081
,equipment,0.8782025575637817
https://scontent-sit4-1.cdninstagram.com/t51.2885-15/e35/13712611_275678986122814_148276145_n.jpg,food,0.981776237487793
,no person,0.9683473110198975
,traditional,0.900348424911499
,delicious,0.8886644244194031
,fish,0.8857531547546387
,cooking,0.883301854133606
,indoors,0.875603199005127
,health,0.8517570495605469
,family,0.828235387802124
,dinner,0.8178747892379761
,lunch,0.8014015555381775
,plastic,0.8011441230773926
,water,0.7873391509056091
,homemade,0.7664790153503418
,paper,0.7644445896148682
,festival,0.7629083395004272
,container,0.7594524621963501
,nutrition,0.7579143643379211
,vegetable,0.7577897906303406
,meal,0.7537003755569458
https://scontent-sit4-1.cdninstagram.com/t51.2885-15/e15/p640x640/13642862_1637603133224568_1268421789_n.jpg,industry,0.9957141876220703
,transportation system,0.9882539510726929
,vehicle,0.9864038825035095
,sky,0.9765051603317261
,business,0.9763035774230957
,no person,0.968788206577301
,airport,0.9619227051734924
,technology,0.9594802856445312
,airplane,0.9461848735809326
,shipment,0.9459574818611145
,travel,0.9320046305656433
,action,0.9310044646263123
,environment,0.9296770095825195
,pollution,0.9256298542022705
,aircraft,0.923022985458374
,expression,0.9092546701431274
,safety,0.904563307762146
,crane,0.8912087678909302
,city,0.8879488706588745
,terminal,0.8789901733398438
https://scontent-sit4-1.cdninstagram.com/t51.2885-15/e35/13741501_854782701323271_1450909046_n.jpg,business,0.9713083505630493
,television,0.9645400047302246
,indoors,0.9549111127853394
,technology,0.9532448649406433
,screen,0.9493837356567383
,travel,0.9445925951004028
,exhibition,0.9365386962890625
,landscape,0.9318656921386719
,industry,0.9210283756256104
,action,0.9113113880157471
,environment,0.9035712480545044
,soccer,0.8994821310043335
,building,0.8928155899047852
,no person,0.8892639875411987
,people,0.8806867599487305
,office,0.8791821002960205
,room,0.8734095096588135
,computer,0.8719214200973511
,museum,0.870301365852356
,competition,0.8674660921096802
https://scontent-sit4-1.cdninstagram.com/t51.2885-15/e35/13642839_1743880642521712_1480630813_n.jpg,coffee,0.9982234239578247
,no person,0.9950164556503296
,cup,0.9937509298324585
,tea,0.9930907487869263
,paper,0.9917461276054382
,drink,0.9836663603782654
,business,0.9772725105285645
,wood,0.9751520156860352
,still life,0.9705870151519775
,mug,0.9644116163253784
,hot,0.9503391981124878
,table,0.9459567070007324
,espresso,0.9443002939224243
,breakfast,0.9331134557723999
,money,0.9325913190841675
,dawn,0.9278298020362854
,food,0.8952218294143677
,traditional,0.8877140283584595
,retro,0.8860989212989807
,finance,0.8857391476631165
https://scontent-sit4-1.cdninstagram.com/t51.2885-15/e35/13573640_149177735503778_2016957772_n.jpg,people,0.9935903549194336
,woman,0.988101601600647
,illustration,0.9807007908821106
,man,0.9614405035972595
,art,0.9456104040145874
,group,0.9427562952041626
,child,0.9357008934020996
,adult,0.933919370174408
,wear,0.9269769191741943
,family,0.8949897289276123
,retro,0.8912372589111328
,dress,0.8895919919013977
,fashion,0.8650553226470947
,portrait,0.8586307764053345
,girl,0.8438552618026733
,boy,0.8184088468551636
,young,0.8137407898902893
,collection,0.8127196431159973
,painting,0.7811833620071411
,vintage,0.7646517753601074
https://scontent-sit4-1.cdninstagram.com/t51.2885-15/e35/13573598_1109177202457469_1011717658_n.jpg,car,0.997075080871582
,vehicle,0.9908133149147034
,automotive,0.9489368796348572
,transportation system,0.9341410398483276
,wheel,0.9131837487220764
,exhibition,0.9122482538223267
,no person,0.8991186618804932
,sedan,0.8805164098739624
,coupe,0.877230167388916
,show,0.8418115377426147
,drive,0.8033434152603149
,International,0.7986230850219727
,hood,0.7894939184188843
,convertible,0.7488628625869751
,fast,0.7287957668304443
,road,0.7158365249633789
,luxury,0.7126308083534241
,pavement,0.7122365236282349
,chrome,0.6986913681030273
,prototype,0.6940528154373169
https://scontent-sit4-1.cdninstagram.com/t51.2885-15/e35/13649325_1874784592749004_900002089_n.jpg,technology,0.9941236972808838
,equipment,0.9843624234199524
,electronics,0.9801427125930786
,portable,0.9778581261634827
,telephone,0.9705145955085754
,business,0.9631443023681641
,screen,0.943923830986023
,lens,0.9407142400741577
,device,0.93902587890625
,display,0.9184924364089966
,surveillance,0.9091237783432007
,machinery,0.9035472869873047
,modern,0.8997803926467896
,no person,0.8994486331939697
,control,0.8971105813980103
,touch,0.8741323947906494
,computer,0.8740606307983398
,video recording,0.8686715364456177
,cellular telephone,0.8660442233085632
,connection,0.8532310724258423
https://scontent-sit4-1.cdninstagram.com/t51.2885-15/e35/13715140_197330130669913_1925489714_n.jpg,rain,0.9810190796852112
,street,0.9584043025970459
,no person,0.9234695434570312
,city,0.9115686416625977
,dark,0.9076294898986816
,urban,0.8919996023178101
,light,0.8902573585510254
,window,0.879443347454071
,road,0.8783024549484253
,storm,0.8445231914520264
,weather,0.8366571664810181
,desktop,0.8358275890350342
,building,0.8253641128540039
,old,0.800789475440979
,decay,0.7936307191848755
,industry,0.7758601903915405
,train,0.7677512764930725
,abandoned,0.7543424367904663
,landscape,0.7510195970535278
,color,0.748363196849823
https://scontent-sit4-1.cdninstagram.com/t51.2885-15/e35/13534347_242288156155643_1408585863_n.jpg,people,0.9801794290542603
,woman,0.9768427014350891
,portrait,0.961291491985321
,education,0.9472231864929199
,election,0.9460874795913696
,administration,0.9450463056564331
,adult,0.9441749453544617
,business,0.935604453086853
,recreation,0.9216210246086121
,wear,0.91205894947052
,healthcare,0.9068422317504883
,group,0.9032934904098511
,festival,0.8915717601776123
,school,0.8876837491989136
,ceremony,0.8844910860061646
,university,0.8799360394477844
,finance,0.8786524534225464
,book,0.8712997436523438
,competition,0.8672804832458496
,industry,0.8649596571922302
https://scontent-sit4-1.cdninstagram.com/t51.2885-15/e35/13671173_484615711741527_1953807195_n.jpg,illustration,0.9754030704498291
,desktop,0.9472267031669617
,card,0.9381886720657349
,vector,0.9333670139312744
,map,0.9098107814788818
,symbol,0.8959301710128784
,sketch,0.8918359279632568
,fun,0.8904909491539001
,business,0.8856340050697327
,man,0.8840022087097168
,design,0.8735361099243164
,people,0.8718317747116089
,art,0.8582873940467834
,internet,0.8576111197471619
,communication,0.8563750982284546
,abstract,0.8391358852386475
,graphic,0.833877682685852
,paper,0.8328841924667358
,spherical,0.823661744594574
,image,0.81679767370224
https://scontent-sit4-1.cdninstagram.com/t51.2885-15/s750x750/sh0.08/e35/13557037_1029688977120487_1480571750_n.jpg,bag,0.9946391582489014
,woman,0.9816960096359253
,shopping,0.9792330861091614
,fashion,0.9778574705123901
,wear,0.9660156965255737
,indoors,0.9643517732620239
,portrait,0.9476714134216309
,people,0.9369896650314331
,shopping bag,0.9275592565536499
,girl,0.9260557889938354
,shop,0.9230979681015015
,stock,0.9223837852478027
,one,0.8867501020431519
,happiness,0.8841813802719116
,facial expression,0.8670047521591187
,luggage,0.8584609031677246
,looking,0.8405303955078125
,adult,0.8395029306411743
,purse,0.823291540145874
,eyeglasses,0.8156764507293701
https://scontent-sit4-1.cdninstagram.com/t51.2885-15/e35/13745082_1632941550288738_1008941280_n.jpg,people,0.9925708770751953
,woman,0.9924216270446777
,adult,0.9800369739532471
,indoors,0.9753233194351196
,one,0.9713232517242432
,wear,0.9709174633026123
,fashion,0.9704578518867493
,girl,0.9552958011627197
,portrait,0.9487576484680176
,healthcare,0.9235836267471313
,man,0.9156696796417236
,model,0.8884496688842773
,winter,0.8586618900299072
,street,0.8520090579986572
,business,0.8491964340209961
,outdoors,0.8400446176528931
,city,0.8360050320625305
,medicine,0.8173221349716187
,landscape,0.8142521977424622
,vehicle,0.8127776384353638
https://scontent-sit4-1.cdninstagram.com/t51.2885-15/e35/13584230_1115079978558438_869235598_n.jpg,no person,0.9377530813217163
,vehicle,0.9133296012878418
,competition,0.8965655565261841
,people,0.879260778427124
,industry,0.8675166368484497
,sport,0.8394652605056763
,business,0.8384453058242798
,equipment,0.8337261080741882
,savings,0.8212234973907471
,plastic,0.8079012632369995
,recreation,0.8060003519058228
,rally,0.7971171140670776
,building,0.7907638549804688
,environment,0.7896137833595276
,street,0.7828118801116943
,technology,0.7807912826538086
,power,0.778282642364502
,action,0.7751220464706421
,outdoors,0.7579521536827087
,sign,0.7528506517410278
https://scontent-sit4-1.cdninstagram.com/t51.2885-15/sh0.08/e35/p750x750/13745155_305889699756892_578251367_n.jpg,hijab,0.9832797050476074
,portrait,0.9817367196083069
,woman,0.9802314043045044
,people,0.972316563129425
,man,0.9579296112060547
,sunglasses,0.9545980095863342
,headscarf,0.949910044670105
,eyeglasses,0.9493787288665771
,scarf,0.9483002424240112
,wear,0.9467907547950745
,battle,0.9292619228363037
,fashion,0.9242305755615234
,adult,0.9218525886535645
,veil,0.9210044145584106
,eyewear,0.9185290336608887
,education,0.9020125865936279
,adolescent,0.9013439416885376
,girl,0.8687679767608643
,school,0.8596259355545044
,looking,0.8496861457824707
https://scontent-sit4-1.cdninstagram.com/t51.2885-15/e35/13712797_1022228101206938_1734679920_n.jpg,people,0.9570047855377197
,portrait,0.9310208559036255
,man,0.9257115125656128
,horizontal,0.9135444164276123
,adolescent,0.9115633368492126
,young,0.8999947905540466
,child,0.8949145078659058
,cute,0.8818381428718567
,woman,0.8818260431289673
,fun,0.8705484867095947
,hair,0.8641221523284912
,adult,0.8555697202682495
,casual,0.8464580774307251
,fine-looking,0.843813419342041
,pretty,0.820368766784668
,looking,0.8193657994270325
,fashion,0.818823516368866
,eye,0.8146184682846069
,grief,0.8094295859336853
,despair,0.8067042827606201
https://scontent-sit4-1.cdninstagram.com/t51.2885-15/e35/13696514_1723710594559886_339206236_n.jpg,soccer,0.9882280230522156
,football,0.9835231900215149
,people,0.9772162437438965
,competition,0.9737306833267212
,adult,0.9398754239082336
,man,0.9288489818572998
,athlete,0.9259616136550903
,portrait,0.9236077070236206
,outfit,0.7995036840438843
,wear,0.7994040250778198
,sports equipment,0.7901987433433533
,championship,0.7806851267814636
,one,0.7699800729751587
,stadium,0.7597501873970032
,recreation,0.7496880292892456
,education,0.7354171276092529
,sports fan,0.7136231660842896
,action,0.6896864175796509
,uniform,0.672260046005249
,league,0.6719174981117249
https://scontent-sit4-1.cdninstagram.com/t51.2885-15/s750x750/sh0.08/e35/13714154_1637223453273262_426579716_n.jpg,portrait,0.9902148246765137
,people,0.9808210730552673
,two,0.9791597127914429
,man,0.9624255895614624
,girl,0.9602491855621338
,woman,0.9410154819488525
,fun,0.9408581852912903
,smile,0.9360389709472656
,love,0.9353986978530884
,couple,0.9292130470275879
,adult,0.9241443276405334
,happiness,0.9237955808639526
,child,0.9200852513313293
,beautiful,0.9125521183013916
,retro,0.9115496873855591
,joy,0.8995614051818848
,face,0.8966397643089294
,laughing,0.8795737624168396
,young,0.8750755786895752
,eyeglasses,0.8718031644821167
https://scontent-sit4-1.cdninstagram.com/t51.2885-15/e35/13557195_296641057346680_1385537576_n.jpg,car,0.9990029335021973
,vehicle,0.9947487115859985
,transportation system,0.9863865375518799
,road,0.9781830310821533
,travel,0.9735623598098755
,drive,0.939271092414856
,no person,0.9275877475738525
,street,0.9268362522125244
,landscape,0.9184337854385376
,traffic,0.9098547697067261
,business,0.8967103958129883
,accident,0.8814458847045898
,automotive,0.8654669523239136
,truck,0.8609610795974731
,hurry,0.8445125222206116
,rally,0.8111574649810791
,technology,0.8039333820343018
,offense,0.8024105429649353
,fast,0.8010271787643433
,industry,0.796831488609314
https://scontent-sit4-1.cdninstagram.com/t51.2885-15/e35/13573493_1626808117635523_2136318167_n.jpg,car,0.9996914863586426
,vehicle,0.9987172484397888
,automotive,0.9804650545120239
,transportation system,0.979647159576416
,road,0.9702098369598389
,wheel,0.9662117958068848
,drive,0.9420366287231445
,traffic,0.9378550052642822
,show,0.9371330738067627
,sedan,0.9364662170410156
,accident,0.9250152111053467
,offense,0.9221858382225037
,exhibition,0.9220753908157349
,police,0.9152887463569641
,pavement,0.9145016074180603
,coupe,0.9060289859771729
,windshield,0.897669792175293
,hood,0.8960490226745605
,street,0.8887660503387451
,speed,0.8764360547065735
https://scontent-sit4-1.cdninstagram.com/t51.2885-15/e35/13694341_946295015482171_1868187589_n.jpg,people,0.9906085729598999
,group,0.9704164266586304
,man,0.965918242931366
,adult,0.9570822715759277
,many,0.9342642426490784
,competition,0.9319467544555664
,action,0.9284442663192749
,wear,0.918305516242981
,group,0.9141445159912109
,vehicle,0.912326455116272
,container,0.9065316319465637
,motion,0.8929719924926758
,city,0.8890639543533325
,crowd,0.8804032206535339
,furniture,0.8789819478988647
,woman,0.8764270544052124
,seat,0.8564413785934448
,environment,0.8549810647964478
,ceremony,0.8532530069351196
,chair,0.8431735038757324
https://scontent-sit4-1.cdninstagram.com/t51.2885-15/s750x750/sh0.08/e35/13557045_979309448849771_2008925004_n.jpg,facial expression,0.9960546493530273
,group,0.9939649105072021
,people,0.9918100833892822
,veil,0.98790043592453
,woman,0.9870367050170898
,man,0.9796081781387329
,wear,0.9792450666427612
,adult,0.9677836894989014
,child,0.9652342796325684
,portrait,0.9642504453659058
,daylight,0.9534715414047241
,togetherness,0.9400612115859985
,hijab,0.9220559597015381
,headscarf,0.9123374223709106
,recreation,0.9119759202003479
,religion,0.9098476767539978
,happiness,0.9085659980773926
,five,0.9054864645004272
,boy,0.8969999551773071
,indoors,0.891172468662262
https://scontent-sit4-1.cdninstagram.com/t51.2885-15/e35/13724689_1077238235685096_623315941_n.jpg,seafood,0.9990428686141968
,market,0.9916626214981079
,crab,0.9884183406829834
,fish,0.9878143072128296
,no person,0.9835971593856812
,shellfish,0.9813885688781738
,crustacean,0.9762558341026306
,stock,0.9748883843421936
,lobster,0.9738093018531799
,food,0.9606823921203613
,sale,0.9580411911010742
,presentation,0.9489517211914062
,stall,0.9429936408996582
,shrimp,0.9135816097259521
,booth,0.913312554359436
,many,0.906647801399231
,invertebrate,0.9053665995597839
,color,0.9017215967178345
,container,0.8998452425003052
,abundance,0.8894602060317993
https://scontent-sit4-1.cdninstagram.com/t51.2885-15/e35/13636319_1069777119780340_344490624_n.jpg,navigation,0.9985790252685547
,check,0.9972548484802246
,template,0.9967523217201233
,layout,0.9953190684318542
,stripe,0.994648277759552
,World Wide Web,0.9939161539077759
,page,0.9935141801834106
,form,0.9931354522705078
,site,0.9862853288650513
,menu,0.9842458963394165
,label,0.9793933629989624
,step,0.9779722094535828
,presentation,0.9760397672653198
,banner,0.9680054187774658
,login,0.9679102897644043
,diagram,0.9631688594818115
,information,0.9628748297691345
,data,0.9627206325531006
,browse,0.9608715176582336
,graph,0.9598493576049805
https://scontent-sit4-1.cdninstagram.com/t51.2885-15/e35/13694554_1750104055259797_1611326423_n.jpg,give voice,0.9717997908592224
,text,0.9674664735794067
,conceptual,0.9420749545097351
,desktop,0.9366105794906616
,business,0.9273152351379395
,medicine,0.8966726064682007
,education,0.8903744220733643
,illustration,0.8829693794250488
,data,0.8781775236129761
,research,0.867398202419281
,typographic,0.8256760239601135
,abstract,0.823501706123352
,knowledge,0.8184148073196411
,science,0.8170332908630371
,time,0.8090358376502991
,disease,0.7951703071594238
,management,0.7926106452941895
,internet,0.7886087894439697
,no person,0.7806992530822754
,cloud,0.7746667861938477
