url,class,score
https://scontent-sit4-1.cdninstagram.com/t51.2885-15/e15/12599403_1548500632110374_1157301351_n.jpg,people,0.9923419952392578
,adult,0.982720136642456
,portrait,0.9814838767051697
,one,0.9800177812576294
,man,0.9596676230430603
,wear,0.8729301691055298
,woman,0.852834939956665
,child,0.8436989784240723
,eyewear,0.8415025472640991
,boy,0.8254076242446899
,person,0.8099231123924255
,eyeglasses,0.8050599098205566
,facial expression,0.7936000823974609
,business,0.7887322902679443
,music,0.7803723812103271
,education,0.7752407789230347
,face,0.7675875425338745
,girl,0.7648333311080933
,indoors,0.7395650744438171
,leader,0.7375694513320923
https://scontent-sit4-1.cdninstagram.com/t51.2885-15/e15/p640x640/12725160_192779881085958_487902483_n.jpg,portrait,0.9873981475830078
,people,0.9833130836486816
,child,0.9765599966049194
,adult,0.9525624513626099
,one,0.9461324214935303
,eyeglasses,0.9445854425430298
,education,0.9445585012435913
,boy,0.933160126209259
,fun,0.9288982152938843
,man,0.922648549079895
,indoors,0.9161254167556763
,school,0.9085853099822998
,girl,0.9040712714195251
,happiness,0.9001916646957397
,eyewear,0.8979965448379517
,funny,0.8953886032104492
,cute,0.8687140345573425
,young,0.8679865002632141
,facial expression,0.8651137351989746
,smile,0.8484678268432617
https://scontent-sit4-1.cdninstagram.com/t51.2885-15/e35/13549519_1129559260427827_1582192607_n.jpg,woman,0.9881056547164917
,adult,0.9756282567977905
,people,0.9689685106277466
,portrait,0.961685299873352
,recreation,0.9613848328590393
,group,0.9598890542984009
,man,0.9427629709243774
,music,0.936610996723175
,facial expression,0.9332996606826782
,girl,0.9175108671188354
,lifestyle,0.8953391909599304
,wear,0.8813601732254028
,education,0.8742994070053101
,happiness,0.8734740614891052
,singer,0.8697166442871094
,indoors,0.8658450841903687
,group,0.8648111820220947
,togetherness,0.8564209938049316
,room,0.8544738292694092
,fun,0.8539463877677917
https://scontent-sit4-1.cdninstagram.com/t51.2885-15/e35/12568315_1152786048072447_173764221_n.jpg,people,0.9956493973731995
,child,0.9948081970214844
,portrait,0.9866061210632324
,indoors,0.9843604564666748
,education,0.9788854122161865
,school,0.9786693453788757
,adult,0.9729261994361877
,wear,0.9616360664367676
,woman,0.9578351378440857
,facial expression,0.9508069753646851
,man,0.9425000548362732
,eyeglasses,0.9373528957366943
,two,0.9187647104263306
,boy,0.9110837578773499
,happiness,0.9023388624191284
,elementary school,0.8998693823814392
,classroom,0.8970115780830383
,one,0.8867729902267456
,eyewear,0.8788498640060425
,girl,0.8670071363449097
https://scontent-sit4-1.cdninstagram.com/t51.2885-15/e15/12558654_1050603358318599_343277412_n.jpg,people,0.9830727577209473
,adult,0.9614050388336182
,child,0.9442147016525269
,man,0.9418447017669678
,woman,0.9316806793212891
,festival,0.9018816947937012
,group,0.8932749032974243
,motion,0.8903801441192627
,school,0.8796792030334473
,competition,0.8693496584892273
,group,0.8530328273773193
,education,0.8464218378067017
,wear,0.8407775163650513
,fun,0.8013796806335449
,recreation,0.7948300838470459
,celebration,0.7897601127624512
,portrait,0.7778846025466919
,boy,0.771247386932373
,ball,0.759658932685852
,indoors,0.7566527128219604
https://scontent-sit4-1.cdninstagram.com/t51.2885-15/e15/12783983_1563779470615562_132977726_n.jpg,portrait,0.9924346208572388
,people,0.9769914150238037
,eyeglasses,0.9635897874832153
,fashion,0.9466158151626587
,man,0.944866955280304
,child,0.9406424760818481
,eyewear,0.9070450067520142
,facial expression,0.8983793258666992
,one,0.8917962312698364
,fun,0.8864200115203857
,eye,0.8751868009567261
,young,0.8708868622779846
,adolescent,0.8704805374145508
,adult,0.8670247793197632
,cute,0.8644278049468994
,boy,0.862846314907074
,looking,0.8504653573036194
,smile,0.8483045101165771
,face,0.8391561508178711
,intelligence,0.8375450372695923
https://scontent-sit4-1.cdninstagram.com/t51.2885-15/e15/13118241_467075383496197_25700262_n.jpg,water,0.9963680505752563
,sea,0.9936254620552063
,ocean,0.9923280477523804
,surf,0.9911372661590576
,wave,0.9892717599868774
,seashore,0.9802044630050659
,beach,0.9782832860946655
,summer,0.9686402678489685
,nature,0.9630598425865173
,no person,0.9615433812141418
,travel,0.9599299430847168
,recreation,0.9523037672042847
,action,0.9434077739715576
,outdoors,0.9417750239372253
,sky,0.9367371201515198
,seascape,0.9343323707580566
,landscape,0.9197494983673096
,motion,0.9190608263015747
,foam,0.913702130317688
,vacation,0.9085887670516968
https://scontent-sit4-1.cdninstagram.com/t51.2885-15/e35/13573645_477259009150967_2096795613_n.jpg,people,0.9878193140029907
,child,0.9865343570709229
,facial expression,0.9804571866989136
,indoors,0.973447859287262
,woman,0.9710279703140259
,two,0.9604696035385132
,togetherness,0.952171802520752
,adult,0.9506679773330688
,portrait,0.9449859857559204
,fun,0.9414015412330627
,wear,0.9377456903457642
,happiness,0.929722785949707
,friendship,0.9296185970306396
,education,0.9258862733840942
,man,0.9235708713531494
,group,0.9225505590438843
,enjoyment,0.9195429086685181
,family,0.9086157083511353
,girl,0.9031241536140442
,room,0.8947901725769043
https://scontent-sit4-1.cdninstagram.com/t51.2885-15/e35/12797670_1090522110989103_1587533918_n.jpg,music,0.98664391040802
,stage,0.9836518168449402
,performance,0.9690766930580139
,light,0.9678424596786499
,concert,0.9656195640563965
,festival,0.9591326713562012
,people,0.9563336968421936
,silhouette,0.9307987689971924
,party,0.9214154481887817
,spotlight,0.917435884475708
,audience,0.9079723358154297
,show,0.8896783590316772
,technology,0.8849928975105286
,band,0.8831352591514587
,movie,0.8822451829910278
,man,0.8815963268280029
,theater,0.8533797264099121
,singer,0.8462471961975098
,celebration,0.8417303562164307
,musician,0.8396033048629761
https://scontent-sit4-1.cdninstagram.com/t51.2885-15/e35/13402403_259259071103138_250421566_n.jpg,woman,0.9858683347702026
,people,0.9768049716949463
,adult,0.9739888906478882
,group,0.9483642578125
,indoors,0.9389327168464661
,wear,0.9380927085876465
,man,0.9356869459152222
,facial expression,0.9275321960449219
,education,0.9233304262161255
,recreation,0.9192928075790405
,school,0.8897148370742798
,room,0.8863329291343689
,portrait,0.8810088038444519
,healthcare,0.8760796785354614
,adolescent,0.8734859824180603
,happiness,0.8697869777679443
,competition,0.8674641847610474
,togetherness,0.8661056756973267
,girl,0.8363029360771179
,friendship,0.8329648375511169
https://scontent-sit4-1.cdninstagram.com/t51.2885-15/e35/12558812_994382853966461_2132162881_n.jpg,eyeglasses,0.9955565929412842
,indoors,0.9945956468582153
,child,0.9893138408660889
,people,0.9860094785690308
,portrait,0.9829740524291992
,eyewear,0.9776186943054199
,man,0.9640941619873047
,one,0.9487601518630981
,woman,0.9250372052192688
,eye,0.8976188898086548
,family,0.8947420120239258
,boy,0.8843672275543213
,girl,0.87890625
,looking,0.8733883500099182
,research,0.8647885322570801
,fun,0.8579108119010925
,cute,0.85028076171875
,healthcare,0.8502801656723022
,intelligence,0.8479464054107666
,facial expression,0.8360813856124878
https://scontent-sit4-1.cdninstagram.com/t51.2885-15/e35/13151181_685457941592032_882637573_n.jpg,sunset,0.9984124302864075
,beach,0.9966170787811279
,water,0.9920225739479065
,sea,0.9909131526947021
,dawn,0.9896475076675415
,ocean,0.9892549514770508
,sun,0.9823893308639526
,landscape,0.9738779067993164
,dusk,0.9663413763046265
,seascape,0.9648870229721069
,seashore,0.9619330167770386
,evening,0.9484170079231262
,light,0.9245383739471436
,surf,0.916759729385376
,backlit,0.9115845561027527
,sand,0.8992544412612915
,travel,0.8893688917160034
,people,0.8791263103485107
,silhouette,0.8789181709289551
,storm,0.8686864376068115
https://scontent-sit4-1.cdninstagram.com/t51.2885-15/e35/13413465_1212221158788141_1196810630_n.jpg,people,0.983853816986084
,outdoors,0.9809385538101196
,woman,0.9694564342498779
,adult,0.9568591117858887
,togetherness,0.9547433853149414
,portrait,0.9538929462432861
,horizontal,0.9450341463088989
,child,0.929314136505127
,happiness,0.9030018448829651
,wear,0.8784288763999939
,bonding,0.8711152672767639
,man,0.869037389755249
,enjoyment,0.8669120073318481
,friendship,0.8605884313583374
,love,0.8587738275527954
,looking,0.8402012586593628
,vertical,0.826400637626648
,fun,0.8080787658691406
,sit,0.8034710884094238
,relaxation,0.7945877909660339
https://scontent-sit4-1.cdninstagram.com/t51.2885-15/e35/13118135_502218103294909_1412216765_n.jpg,people,0.9930860996246338
,portrait,0.9860023260116577
,adult,0.967979907989502
,child,0.961006760597229
,happiness,0.9557142853736877
,facial expression,0.9549920558929443
,girl,0.9459053874015808
,woman,0.9430335760116577
,fun,0.9357509613037109
,two,0.9210461378097534
,man,0.9185163974761963
,one,0.9081425070762634
,enjoyment,0.9035341739654541
,wear,0.902876615524292
,joy,0.8973489999771118
,love,0.8925070762634277
,festival,0.8825781345367432
,laughing,0.8761599063873291
,group,0.8501481413841248
,youth,0.8326554298400879
https://scontent-sit4-1.cdninstagram.com/t51.2885-15/e35/13398443_296590330682973_164934985_n.jpg,child,0.9792089462280273
,people,0.9513123035430908
,education,0.9294930100440979
,woman,0.89875727891922
,man,0.8864090442657471
,adult,0.8690133094787598
,indoors,0.8670895099639893
,movie,0.8393356800079346
,classroom,0.8344621658325195
,elementary school,0.8330256342887878
,school,0.8056192994117737
,fun,0.7942996621131897
,horizontal,0.7894629836082458
,adolescent,0.7176765203475952
,boy,0.7115492224693298
,family,0.7085184454917908
,outdoors,0.6972130537033081
,game,0.6810036301612854
,group,0.6729912161827087
,competition,0.6540201902389526
https://scontent-sit4-1.cdninstagram.com/t51.2885-15/e15/10540331_957259767684564_1770423922_n.jpg,fashion,0.9852556586265564
,portrait,0.9826960563659668
,people,0.9762740135192871
,face,0.9706335067749023
,sunglasses,0.9641510248184204
,adult,0.9621223211288452
,eye,0.9611002802848816
,young,0.9550758600234985
,man,0.9483309984207153
,one,0.9464560747146606
,eyesight,0.9455827474594116
,model,0.9448179602622986
,glamour,0.9438996315002441
,hair,0.9380538463592529
,hairdo,0.9325766563415527
,style,0.9316951036453247
,eyeglasses,0.9247257709503174
,skin,0.9112653732299805
,beautiful,0.9017431735992432
,health,0.9006894826889038
https://scontent-sit4-1.cdninstagram.com/t51.2885-15/e15/13248809_1719147461690682_1819704227_n.jpg,people,0.9940552115440369
,portrait,0.9920662045478821
,festival,0.9705520868301392
,adult,0.9694200754165649
,child,0.9642070531845093
,happiness,0.942010760307312
,man,0.9346041083335876
,one,0.9297085404396057
,girl,0.9281654953956604
,boy,0.9269530177116394
,fun,0.9176371097564697
,wear,0.9150749444961548
,light,0.9088798761367798
,face,0.9060848951339722
,facial expression,0.8934121131896973
,city,0.887000560760498
,group,0.8770461082458496
,street,0.8759163618087769
,youth,0.8686907887458801
,competition,0.8676056861877441
https://scontent-sit4-1.cdninstagram.com/t51.2885-15/e35/13557044_2168339379971637_915640337_n.jpg,woman,0.976952075958252
,man,0.9705588221549988
,people,0.9657766222953796
,indoors,0.9538217186927795
,enjoyment,0.9433335661888123
,coffee,0.9255468845367432
,food,0.9211064577102661
,facial expression,0.9176359176635742
,child,0.9134953022003174
,adult,0.9021119475364685
,wear,0.9019114971160889
,fun,0.8806672096252441
,family,0.8781353235244751
,togetherness,0.8413158655166626
,restaurant,0.8338843584060669
,drink,0.8277811408042908
,portrait,0.8102690577507019
,two,0.8053921461105347
,table,0.7942692637443542
,recreation,0.786558985710144
https://scontent-sit4-1.cdninstagram.com/t51.2885-15/e35/13355538_1721604051411223_606789567_n.jpg,people,0.9907270669937134
,group,0.9747055172920227
,adult,0.9587723016738892
,wear,0.9496060609817505
,festival,0.9417035579681396
,many,0.9408766031265259
,man,0.9311968088150024
,performance,0.9250761270523071
,music,0.9223124384880066
,musician,0.9172945618629456
,woman,0.9163392782211304
,religion,0.8922003507614136
,chef,0.8902052044868469
,singer,0.8771083950996399
,competition,0.8730649352073669
,leader,0.8709006905555725
,recreation,0.8563997745513916
,group,0.840032696723938
,lid,0.838567316532135
,administration,0.8375200629234314
https://scontent-sit4-1.cdninstagram.com/t51.2885-15/e35/12822562_1683438071929992_713102330_n.jpg,people,0.9898205995559692
,group,0.9812999963760376
,portrait,0.9511500597000122
,woman,0.9409893751144409
,child,0.9396772384643555
,facial expression,0.9343619346618652
,man,0.9289150238037109
,adult,0.928857684135437
,enjoyment,0.9126807451248169
,two,0.9052741527557373
,family,0.8978328108787537
,fun,0.8930140137672424
,music,0.8900834918022156
,happiness,0.8550448417663574
,interaction,0.8508909940719604
,wear,0.8410862684249878
,group,0.8252326846122742
,friendship,0.8208701014518738
,girl,0.8174992203712463
,indoors,0.8100987672805786
https://scontent-sit4-1.cdninstagram.com/t51.2885-15/sh0.08/e35/p750x750/12328196_123061581418044_1669767946_n.jpg,portrait,0.9809205532073975
,people,0.9793124198913574
,child,0.9790599346160889
,two,0.9471333622932434
,man,0.9449241757392883
,eyeglasses,0.9364888072013855
,woman,0.9247592091560364
,fun,0.9240289330482483
,wear,0.9238356351852417
,fashion,0.9190753698348999
,boy,0.9171843528747559
,boy,0.9027998447418213
,cute,0.8998036980628967
,music,0.8984622955322266
,love,0.8924580216407776
,movie,0.8920053243637085
,facial expression,0.8838057518005371
,festival,0.8810691833496094
,adolescent,0.8577377796173096
,togetherness,0.8563927412033081
https://scontent-sit4-1.cdninstagram.com/t51.2885-15/e35/13183318_1616465498668509_1546343917_n.jpg,people,0.9819110631942749
,portrait,0.9617924690246582
,adult,0.9605228304862976
,horizontal,0.9595437049865723
,indoors,0.958315372467041
,child,0.9551931619644165
,man,0.9236584901809692
,business,0.9141653180122375
,headshot,0.884925365447998
,happiness,0.8706614971160889
,intelligence,0.8646917343139648
,looking,0.857537031173706
,education,0.8412531614303589
,fun,0.8401050567626953
,enjoyment,0.8374208211898804
,tie,0.8192682266235352
,wear,0.8091252446174622
,confidence,0.8086652755737305
,eyeglasses,0.7930912971496582
,vertical,0.7797266244888306
https://scontent-sit4-1.cdninstagram.com/t51.2885-15/e35/13129358_1707199779554129_1562823946_n.jpg,sunglasses,0.9901524782180786
,people,0.9872779846191406
,portrait,0.9855283498764038
,summer,0.9745442867279053
,one,0.9735022783279419
,sky,0.9608354568481445
,travel,0.9564111232757568
,adult,0.9530056715011597
,water,0.9490131139755249
,outdoors,0.9472167491912842
,girl,0.9444195032119751
,beach,0.9349915981292725
,vacation,0.9315074682235718
,child,0.920465886592865
,sun,0.9200547933578491
,beautiful,0.9168674945831299
,woman,0.9157273173332214
,leisure,0.9102436304092407
,landscape,0.902022123336792
,sea,0.9007084369659424
https://scontent-sit4-1.cdninstagram.com/t51.2885-15/e35/12918429_846411452152756_311354383_n.jpg,people,0.9866121411323547
,woman,0.9828188419342041
,man,0.977035641670227
,portrait,0.9678202867507935
,adult,0.9675048589706421
,group,0.965316891670227
,two,0.9582460522651672
,friendship,0.943425178527832
,indoors,0.9418076276779175
,three,0.939609169960022
,facial expression,0.9281347990036011
,fun,0.9202759265899658
,family,0.9160096645355225
,togetherness,0.9013065099716187
,laughing,0.9011257886886597
,child,0.9009819030761719
,wear,0.8973798751831055
,happiness,0.8910404443740845
,girl,0.8901244401931763
,four,0.8867621421813965
https://scontent-sit4-1.cdninstagram.com/t51.2885-15/e35/11930787_982986988451604_1464262224_n.jpg,eyeglasses,0.9996390342712402
,portrait,0.9915242195129395
,funny,0.9897527694702148
,young,0.9738613963127136
,people,0.9737658500671387
,fine-looking,0.9734551906585693
,eyewear,0.9723243713378906
,man,0.9721380472183228
,eccentric,0.9698647856712341
,fun,0.9677026867866516
,sunglasses,0.9674394130706787
,cute,0.9638853669166565
,face,0.9626153707504272
,boy,0.9624667167663574
,looking,0.9614205360412598
,intelligence,0.959529459476471
,child,0.9566348791122437
,isolated,0.9532579183578491
,fashion,0.9523093700408936
,surprise,0.9499422311782837
https://scontent-sit4-1.cdninstagram.com/t51.2885-15/e35/12424756_569172416590222_1727816010_n.jpg,woman,0.9732120633125305
,man,0.9715967178344727
,group,0.9637121558189392
,people,0.9531866908073425
,togetherness,0.9401322603225708
,group,0.9268878102302551
,facial expression,0.9266899824142456
,portrait,0.9183838367462158
,family,0.9152783155441284
,four,0.9133020639419556
,adult,0.9079373478889465
,enjoyment,0.894202470779419
,three,0.893915057182312
,music,0.8771873712539673
,indoors,0.871475100517273
,fun,0.8645827770233154
,child,0.8600281476974487
,love,0.8560140132904053
,wear,0.8522244691848755
,laughing,0.8499417304992676
https://scontent-sit4-1.cdninstagram.com/t51.2885-15/e35/12825751_445984102264337_1908266488_n.jpg,woman,0.9877746105194092
,man,0.972931981086731
,family,0.9652214050292969
,friendship,0.9604824781417847
,togetherness,0.9604395627975464
,people,0.9583234786987305
,fun,0.9485687017440796
,group,0.9443807601928711
,child,0.9430093765258789
,laughing,0.934869647026062
,adolescent,0.9293183088302612
,indoors,0.9256824254989624
,student,0.9196977615356445
,girl,0.8958172798156738
,portrait,0.8899968266487122
,adult,0.8852548003196716
,enjoyment,0.8782819509506226
,love,0.877983570098877
,four,0.8679085969924927
,sit,0.8410389423370361
https://scontent-sit4-1.cdninstagram.com/t51.2885-15/e35/12917897_1730485807226837_487767722_n.jpg,collage,0.9976073503494263
,people,0.990325927734375
,collection,0.9727805852890015
,woman,0.9641230702400208
,man,0.9631732702255249
,many,0.9589457511901855
,group,0.9454889297485352
,adult,0.9362620115280151
,exhibition,0.9098546504974365
,desktop,0.900760293006897
,show,0.8933325409889221
,indoors,0.8897515535354614
,event,0.8877158761024475
,person,0.8806730508804321
,business,0.8778557777404785
,collage,0.8757116198539734
,isolated,0.8744889497756958
,young,0.8718050718307495
,set,0.8702009916305542
,picture frame,0.8668139576911926
https://scontent-sit4-1.cdninstagram.com/t51.2885-15/e35/12934946_464373463751651_402532221_n.jpg,music,0.9794971942901611
,technology,0.9646854400634766
,no person,0.963660717010498
,competition,0.9609959125518799
,people,0.955446720123291
,display,0.9500880241394043
,room,0.9479036331176758
,light,0.9435385465621948
,analogue,0.9367631077766418
,soccer,0.9280334711074829
,performance,0.9190261960029602
,recreation,0.9170525074005127
,stadium,0.9160633087158203
,travel,0.9120758771896362
,screen,0.9060506820678711
,phonograph record,0.9056701064109802
,one,0.9014043807983398
,concert,0.8984520435333252
,mixer,0.896869957447052
,club,0.8960556983947754
https://scontent-sit4-1.cdninstagram.com/t51.2885-15/e35/12627984_704673789668200_537868415_n.jpg,woman,0.9865043759346008
,indoors,0.9764941930770874
,girl,0.9687376022338867
,people,0.964932918548584
,portrait,0.9594581723213196
,one,0.9554847478866577
,relaxation,0.9227994084358215
,adult,0.9073240756988525
,nude,0.9061568379402161
,beautiful,0.9060255289077759
,pretty,0.9038686752319336
,young,0.8860259056091309
,fashion,0.8826751708984375
,face,0.8749297857284546
,child,0.8742005825042725
,family,0.8711613416671753
,model,0.8501355648040771
,sleep,0.8426740169525146
,skin,0.8374074697494507
,dawn,0.8344801068305969
https://scontent-sit4-1.cdninstagram.com/t51.2885-15/e35/13573377_1754964238055015_1011704332_n.jpg,woman,0.9846174716949463
,man,0.9697549939155579
,people,0.961509108543396
,fun,0.9480537176132202
,adult,0.947901725769043
,portrait,0.9437121152877808
,family,0.9435763359069824
,love,0.9394715428352356
,young,0.9359737634658813
,girl,0.9251450896263123
,indoors,0.9189359545707703
,togetherness,0.9029029607772827
,two,0.9028810858726501
,leisure,0.8810652494430542
,music,0.8800245523452759
,beautiful,0.8727491497993469
,cute,0.8725709915161133
,fashion,0.8712905645370483
,couple,0.8684720396995544
,pretty,0.8629187345504761
https://scontent-sit4-1.cdninstagram.com/t51.2885-15/e35/12446121_1703973266516663_1568249234_n.jpg,portrait,0.9822165966033936
,people,0.9809349775314331
,woman,0.9774341583251953
,group,0.9695637226104736
,adult,0.9634913206100464
,man,0.9568115472793579
,facial expression,0.9461956024169922
,eyewear,0.9411229491233826
,eyeglasses,0.9209206104278564
,wear,0.9071052670478821
,two,0.9055784344673157
,three,0.9034318923950195
,girl,0.9008458852767944
,music,0.892582893371582
,togetherness,0.8884658813476562
,indoors,0.8607162237167358
,business,0.8565818071365356
,friendship,0.8515957593917847
,fashion,0.8489394783973694
,fun,0.8445062637329102
https://scontent-sit4-1.cdninstagram.com/t51.2885-15/e35/13531825_794126514049587_280990732_n.jpg,group,0.996944010257721
,group,0.9859148859977722
,people,0.9816055297851562
,five,0.9652646780014038
,woman,0.9609934091567993
,man,0.9597312211990356
,adult,0.9474072456359863
,many,0.9385352730751038
,four,0.9381422400474548
,music,0.9273734092712402
,several,0.9214659929275513
,recreation,0.9039115905761719
,child,0.8974956274032593
,wear,0.8933897614479065
,portrait,0.8754818439483643
,school,0.8338457942008972
,athlete,0.8314418792724609
,education,0.8088210821151733
,band,0.800846517086029
,singer,0.7962093353271484
https://scontent-sit4-1.cdninstagram.com/t51.2885-15/e35/12558496_1666302160307330_1448863599_n.jpg,people,0.9971144199371338
,portrait,0.9951007962226868
,adult,0.9900496006011963
,group,0.9846827983856201
,two,0.9837782382965088
,facial expression,0.9820833206176758
,woman,0.973576545715332
,man,0.9695098400115967
,eyewear,0.9682853817939758
,wear,0.9601224660873413
,movie,0.9535496234893799
,three,0.9403798580169678
,interaction,0.9381129145622253
,vehicle,0.9265096783638
,happiness,0.9251819849014282
,festival,0.9217339754104614
,girl,0.9151530265808105
,eyeglasses,0.8859190344810486
,music,0.8812286257743835
,child,0.8714878559112549
https://scontent-sit4-1.cdninstagram.com/t51.2885-15/e35/13129289_1561970230763303_2086653825_n.jpg,landscape,0.9826281070709229
,daylight,0.9744772911071777
,tree,0.9727980494499207
,outdoors,0.9696004390716553
,water,0.9686854481697083
,travel,0.9680231809616089
,sky,0.9609793424606323
,recreation,0.9506626725196838
,nature,0.9385232925415039
,people,0.9373198747634888
,summer,0.9185758233070374
,leisure,0.9064154028892517
,mountain,0.9017102122306824
,adult,0.8979346752166748
,scenic,0.8932170867919922
,man,0.8899163603782654
,seashore,0.8812199831008911
,one,0.8606665134429932
,sea,0.8518100380897522
,ocean,0.8453590273857117
https://scontent-sit4-1.cdninstagram.com/t51.2885-15/e35/12798014_504773989695490_1747616122_n.jpg,woman,0.9869968891143799
,man,0.967784583568573
,people,0.9677184820175171
,portrait,0.9588112831115723
,togetherness,0.9581049680709839
,friendship,0.9440611004829407
,adult,0.9427703619003296
,group,0.9400718212127686
,facial expression,0.935081958770752
,happiness,0.9309074282646179
,child,0.9145913124084473
,fun,0.9142425060272217
,enjoyment,0.8944196701049805
,laughing,0.8917603492736816
,girl,0.889588475227356
,adolescent,0.8858926296234131
,outdoors,0.8777104020118713
,three,0.8769803047180176
,travel,0.8670812845230103
,two,0.8506441116333008
https://scontent-sit4-1.cdninstagram.com/t51.2885-15/e35/12558868_1112547542110100_1581804180_n.jpg,cute,0.9895471334457397
,child,0.9866346120834351
,little,0.9849825501441956
,funny,0.9640980958938599
,baby,0.962242603302002
,fun,0.9590778350830078
,portrait,0.953911542892456
,love,0.9487414360046387
,adorable,0.9353499412536621
,people,0.9322909712791443
,girl,0.9297868609428406
,young,0.9251999258995056
,boy,0.9153870344161987
,confection,0.900998055934906
,winter,0.8694651126861572
,beautiful,0.8676979541778564
,friendship,0.8654705286026001
,one,0.8482215404510498
,lid,0.8409355878829956
,joy,0.8366436958312988
https://scontent-sit4-1.cdninstagram.com/t51.2885-15/e35/12519157_1712851692284714_472543398_n.jpg,people,0.9869330525398254
,stock,0.953533411026001
,commerce,0.9522936940193176
,adult,0.9213784337043762
,business,0.9138513803482056
,street,0.8998866081237793
,wear,0.8982292413711548
,offense,0.8980593085289001
,travel,0.8911734819412231
,city,0.8810010552406311
,man,0.871659517288208
,building,0.8522157669067383
,industry,0.8455779552459717
,vehicle,0.8283247351646423
,woman,0.8171415328979492
,police,0.8005747199058533
,tourism,0.7990995645523071
,portrait,0.7867246866226196
,sign,0.7860709428787231
,rally,0.7780787944793701
https://scontent-sit4-1.cdninstagram.com/t51.2885-15/e35/12751608_960267137419795_927376015_n.jpg,portrait,0.9980801343917847
,people,0.9958201050758362
,child,0.9948323965072632
,eyeglasses,0.9932610988616943
,monochrome,0.9914871454238892
,one,0.9865816235542297
,eyewear,0.982551634311676
,sunglasses,0.9666550755500793
,fisheye,0.9562411308288574
,street,0.9549423456192017
,girl,0.9451273679733276
,eye,0.9437471032142639
,boy,0.9413087368011475
,music,0.9381839036941528
,fun,0.9232863187789917
,car,0.9163010716438293
,fashion,0.9146727323532104
,face,0.8941147327423096
,retro,0.8865734338760376
,smile,0.881127119064331
https://scontent-sit4-1.cdninstagram.com/t51.2885-15/e35/13102545_566554950189274_1884505846_n.jpg,people,0.9948490858078003
,portrait,0.991949200630188
,man,0.9822287559509277
,adult,0.9787957072257996
,two,0.973983645439148
,woman,0.9645061492919922
,facial expression,0.9522619247436523
,movie,0.9514001607894897
,group,0.9479673504829407
,wear,0.9327199459075928
,family,0.9073103666305542
,festival,0.8847070932388306
,three,0.882312536239624
,child,0.8625205755233765
,music,0.8578667044639587
,eyewear,0.85343337059021
,happiness,0.8463444709777832
,recreation,0.8398738503456116
,musician,0.8348223567008972
,fun,0.8257105350494385
https://scontent-sit4-1.cdninstagram.com/t51.2885-15/e35/12556045_225885331085727_1618853590_n.jpg,child,0.9705765247344971
,hungry,0.9657312631607056
,fun,0.9650914072990417
,people,0.9588178396224976
,funny,0.9580161571502686
,cute,0.9570024013519287
,indoors,0.9558394551277161
,apple,0.9523714780807495
,little,0.9449527263641357
,health,0.9436423778533936
,one,0.9292045831680298
,woman,0.9292019009590149
,young,0.9196741580963135
,cake,0.9075175523757935
,candy,0.9055724143981934
,food,0.905004620552063
,family,0.9049525260925293
,unhealthy,0.8980875015258789
,portrait,0.8841785192489624
,pretty,0.8800550103187561
https://scontent-sit4-1.cdninstagram.com/t51.2885-15/e35/12751321_529239310570779_370695273_n.jpg,luck,0.99422287940979
,game,0.9941440224647522
,leisure,0.9927830696105957
,table,0.9905138611793518
,chance,0.9889455437660217
,gambling,0.9821996688842773
,risk,0.9783477783203125
,one,0.9775902032852173
,strategy,0.9774836301803589
,business,0.9765568971633911
,indoors,0.9721693992614746
,people,0.9692792892456055
,number,0.967786431312561
,two,0.9335281252861023
,casino,0.9309672117233276
,lucky,0.929455041885376
,adult,0.9283032417297363
,board game,0.9235312342643738
,fun,0.923326849937439
,money,0.9220763444900513
https://scontent-sit4-1.cdninstagram.com/t51.2885-15/e35/12446257_1673833732886947_1737846229_n.jpg,people,0.9990241527557373
,adult,0.9958599805831909
,monochrome,0.9859308004379272
,portrait,0.9807506799697876
,man,0.9541218280792236
,sit,0.9475653171539307
,one,0.9413573741912842
,woman,0.9395209550857544
,music,0.9144735336303711
,vertical,0.9122042655944824
,two,0.9042015075683594
,child,0.901064395904541
,indoors,0.8893605470657349
,retro,0.8742445707321167
,group,0.8318463563919067
,street,0.8254756331443787
,vehicle,0.8188681602478027
,facial expression,0.8162194490432739
,text,0.8161319494247437
,nostalgia,0.8146252036094666
https://scontent-sit4-1.cdninstagram.com/t51.2885-15/e35/12748258_1747493232148009_327237259_n.jpg,vehicle,0.9944398403167725
,indoors,0.9904220104217529
,car,0.9897922873497009
,people,0.9867795705795288
,transportation system,0.985742449760437
,luxury,0.9836468696594238
,woman,0.9733773469924927
,man,0.9641616344451904
,adult,0.9519765973091125
,exhibition,0.9230340719223022
,travel,0.9058002233505249
,machine,0.9041391611099243
,service,0.9041265845298767
,coffee,0.8631613254547119
,machinery,0.859038770198822
,two,0.8518720865249634
,industry,0.8321241140365601
,chrome,0.8317553400993347
,business,0.8225736618041992
,group,0.8177622556686401
https://scontent-sit4-1.cdninstagram.com/t51.2885-15/e35/12547672_1032901013411986_142259009_n.jpg,people,0.9878056049346924
,one,0.9696981906890869
,portrait,0.9670320749282837
,woman,0.9669674634933472
,adult,0.9611591100692749
,outdoors,0.910542368888855
,girl,0.9092072248458862
,child,0.8884488344192505
,business,0.8652974367141724
,person,0.8280946016311646
,leisure,0.7888036966323853
,wear,0.7854359149932861
,greenhouse,0.7837117910385132
,man,0.778560221195221
,fun,0.7781720161437988
,happiness,0.7768611907958984
,park,0.775129497051239
,beautiful,0.7632508277893066
,eyeglasses,0.7629091739654541
,young,0.7583014965057373
https://scontent-sit4-1.cdninstagram.com/t51.2885-15/e35/13423068_1718461421737971_1356508858_n.jpg,business,0.9850503206253052
,paper,0.9833620190620422
,paper,0.9830282330513
,annual,0.9717597365379333
,people,0.9494372606277466
,adult,0.9455835819244385
,date,0.9280132055282593
,number,0.9218423962593079
,administration,0.916688084602356
,horizontal,0.8850204944610596
,text,0.842542290687561
,monthly,0.8392425775527954
,time,0.8304435014724731
,document,0.8206130266189575
,office,0.8178222179412842
,schedule,0.8126530647277832
,woman,0.8087419271469116
,future,0.8007438778877258
,wealth,0.7846850156784058
,group,0.7722034454345703
https://scontent-sit4-1.cdninstagram.com/t51.2885-15/e35/13116723_1751794801711128_198146396_n.jpg,recreation,0.9837596416473389
,leisure,0.9828567504882812
,outdoors,0.9808476567268372
,child,0.974139928817749
,people,0.955759584903717
,one,0.9464071989059448
,girl,0.9390183687210083
,hiking,0.9367203712463379
,enjoyment,0.9364340901374817
,boy,0.9351117610931396
,adult,0.9346605539321899
,lifestyle,0.9323194026947021
,man,0.9267768859863281
,fun,0.9146707653999329
,summer,0.9119012355804443
,adventure,0.9118238687515259
,portrait,0.9114339351654053
,daylight,0.8875751495361328
,happiness,0.8863859176635742
,wear,0.8846386671066284
https://scontent-sit4-1.cdninstagram.com/t51.2885-15/e35/13113795_824753494296076_263144147_n.jpg,water,0.9882991313934326
,people,0.984096348285675
,waterfall,0.9787400960922241
,adult,0.9657691121101379
,man,0.9637892246246338
,outdoors,0.961845874786377
,wet,0.9589650630950928
,recreation,0.9467636346817017
,travel,0.9344756603240967
,two,0.9177601337432861
,woman,0.898528516292572
,rock,0.8921984434127808
,nature,0.8799707889556885
,motion,0.8614120483398438
,one,0.8581973314285278
,summer,0.8417550325393677
,enjoyment,0.8412269353866577
,child,0.8347854614257812
,river,0.8128519654273987
,adventure,0.8121520280838013
