url,class,score
https://scontent.cdninstagram.com/t51.2885-15/e35/13320089_1219602278050380_443958991_n.jpg,vector,0.9889829158782959
,vector,0.9836146831512451
,page,0.9825298190116882
,illustration,0.9774225354194641
,template,0.9750948548316956
,label,0.9745690822601318
,World Wide Web,0.9725391864776611
,banner,0.9721570014953613
,site,0.9663966298103333
,menu,0.9539605379104614
,internet,0.9517198801040649
,image,0.951427161693573
,business,0.9467856884002686
,symbol,0.9428693056106567
,shadow,0.926613986492157
,form,0.9241189956665039
,navigation,0.9119846224784851
,identity,0.9098659753799438
,stripe,0.882094144821167
,document,0.8802862763404846
https://scontent.cdninstagram.com/t51.2885-15/e35/12725043_557591557748278_906735236_n.jpg,many,0.984886646270752
,people,0.9755079746246338
,festival,0.956367015838623
,crowd,0.9293330907821655
,group,0.9099695086479187
,ceremony,0.8843593597412109
,woman,0.8826430439949036
,election,0.8716767430305481
,landscape,0.8709825277328491
,man,0.8643244504928589
,wear,0.8604508638381958
,performance,0.8499929904937744
,adult,0.838537871837616
,education,0.8361313343048096
,recreation,0.8291578888893127
,competition,0.827457845211029
,concert,0.8216585516929626
,leader,0.8081226348876953
,religion,0.7882407903671265
,music,0.784853458404541
https://scontent.cdninstagram.com/t51.2885-15/e35/13534045_597853137052498_840202754_n.jpg,dog,0.9979892373085022
,portrait,0.9941132664680481
,canine,0.9912152290344238
,pet,0.9862887263298035
,mammal,0.9847250580787659
,pug,0.9815541505813599
,one,0.9662673473358154
,animal,0.9569562673568726
,people,0.9534562826156616
,puppy,0.9459967017173767
,face,0.9344743490219116
,no person,0.9158694744110107
,exhibition,0.9088903665542603
,mask,0.869391679763794
,funny,0.8654401302337646
,humor,0.8344444632530212
,domestic,0.8315699100494385
,bulldog,0.8289076089859009
,head,0.8272677063941956
,Halloween,0.8197721838951111
https://scontent.cdninstagram.com/t51.2885-15/e35/12930963_1728298764075351_1056208656_n.jpg,girl,0.9963562488555908
,woman,0.9946894645690918
,model,0.9870938062667847
,beach,0.9858211278915405
,fashion,0.983916699886322
,sexy,0.9839061498641968
,one,0.9813685417175293
,sea,0.9745520353317261
,people,0.9674375653266907
,adult,0.9625498056411743
,ocean,0.9625446200370789
,water,0.9554262757301331
,portrait,0.9454399943351746
,young,0.9402428865432739
,pier,0.935673713684082
,glamour,0.9316257238388062
,lady,0.9287774562835693
,beautiful,0.920482873916626
,travel,0.918018102645874
,summer,0.9135703444480896
https://scontent.cdninstagram.com/t51.2885-15/s480x480/e35/13556988_1714513042141963_664377971_n.jpg,woman,0.9884191751480103
,people,0.9861359596252441
,portrait,0.9847592115402222
,adult,0.975953221321106
,monochrome,0.9564459323883057
,indoors,0.943071722984314
,facial expression,0.9378681778907776
,one,0.9210318326950073
,sit,0.8974461555480957
,recreation,0.887367844581604
,pretty,0.8571853041648865
,wear,0.8503767848014832
,actress,0.8491283655166626
,fashion,0.8474941253662109
,girl,0.845117449760437
,adolescent,0.8259122371673584
,movie,0.8239637613296509
,young,0.8109140396118164
,street,0.8046590685844421
,leisure,0.8001432418823242
https://scontent.cdninstagram.com/t51.2885-15/sh0.08/e35/p750x750/13109067_1197565400283844_2098356526_n.jpg,people,0.9826984405517578
,woman,0.9699513912200928
,friendship,0.9623006582260132
,togetherness,0.9569351077079773
,horizontal,0.956800103187561
,portrait,0.9542510509490967
,adult,0.9504879713058472
,happiness,0.9356317520141602
,indoors,0.9240217208862305
,fun,0.9206723570823669
,family,0.9181432723999023
,cheerful,0.9162014722824097
,adolescent,0.9159286022186279
,child,0.9046565294265747
,man,0.8748358488082886
,love,0.8618139028549194
,laughing,0.8609683513641357
,joy,0.8505548238754272
,casual,0.8304158449172974
,bonding,0.8240548372268677
https://scontent.cdninstagram.com/t51.2885-15/s640x640/sh0.08/e35/12677211_212654382436612_194569134_n.jpg,text,0.9940351247787476
,collage,0.9882863163948059
,cloud,0.9779435992240906
,give voice,0.9746831655502319
,bill,0.9555813074111938
,creativity,0.9281057715415955
,variation,0.9250653982162476
,abstract,0.9166848063468933
,child,0.9149243831634521
,business,0.9148554801940918
,stock,0.9045346975326538
,collection,0.9035606384277344
,horizontal,0.8942623138427734
,sale,0.8911560773849487
,market,0.8901003003120422
,communication,0.8868772387504578
,illustration,0.8866099119186401
,abundance,0.8755178451538086
,desktop,0.8459213972091675
,vertical,0.8420446515083313
https://scontent.cdninstagram.com/t51.2885-15/e35/12751386_470890569766733_903895946_n.jpg,telephone,0.9951372742652893
,touch,0.9759379625320435
,wireless,0.9612187743186951
,woman,0.9594705700874329
,people,0.9585427641868591
,no person,0.9491544365882874
,business,0.9480639696121216
,technology,0.9433260560035706
,communication,0.9384661316871643
,internet,0.9344059228897095
,screen,0.930019736289978
,travel,0.9171913862228394
,portable,0.9021995663642883
,adult,0.8812661170959473
,cellular telephone,0.8724946975708008
,connection,0.8650457262992859
,illustration,0.8598449230194092
,isolated,0.8546199202537537
,young,0.8371830582618713
,spherical,0.8358950614929199
https://scontent.cdninstagram.com/t51.2885-15/e35/12917871_863745660404461_1045675925_n.jpg,woman,0.9950166940689087
,portrait,0.9727998971939087
,facial expression,0.9663549065589905
,brunette,0.958311915397644
,girl,0.9570242166519165
,fashion,0.9444581270217896
,people,0.9320101737976074
,pretty,0.9309514760971069
,cute,0.9257165789604187
,one,0.9254075884819031
,model,0.8931518793106079
,adolescent,0.8800650238990784
,child,0.8767168521881104
,joy,0.8649348020553589
,sexy,0.857677161693573
,studio,0.8575134873390198
,wear,0.8494257926940918
,happiness,0.8384147882461548
,adult,0.8333828449249268
,indoors,0.8254229426383972
https://scontent.cdninstagram.com/t51.2885-15/e35/12912666_1583891391926733_367167261_n.jpg,festival,0.9796140789985657
,music,0.9727827310562134
,woman,0.9642936587333679
,singer,0.9612715244293213
,recreation,0.9505691528320312
,fashion,0.9493533968925476
,performance,0.9480390548706055
,portrait,0.9444272518157959
,many,0.941409707069397
,band,0.9385976195335388
,group,0.9375418424606323
,wear,0.933550238609314
,film festival,0.9294923543930054
,musician,0.9274149537086487
,people,0.9210441708564758
,friendship,0.9034568071365356
,red carpet,0.8868826627731323
,concert,0.8746590614318848
,competition,0.864499032497406
,movie,0.8621494770050049
https://scontent.cdninstagram.com/l/t51.2885-15/e35/12555968_1529239060703320_1632417766_n.jpg,food,0.9951934814453125
,no person,0.9840619564056396
,dinner,0.9815139770507812
,delicious,0.9802910089492798
,meat,0.9720120429992676
,meal,0.9707410335540771
,lunch,0.9702364206314087
,vegetable,0.9534510970115662
,grow,0.949881911277771
,beef,0.9471069574356079
,cooking,0.9469985961914062
,plate,0.9458024501800537
,cuisine,0.9325889348983765
,chicken,0.9305916428565979
,nutrition,0.9284523725509644
,dish,0.927039384841919
,pepper,0.9225083589553833
,restaurant,0.9099336862564087
,pork,0.904148519039154
,tasty,0.9031915664672852
https://scontent.cdninstagram.com/t51.2885-15/e35/12783838_543670072468817_392008969_n.jpg,city,0.992998480796814
,no person,0.9836769104003906
,sunset,0.982964277267456
,architecture,0.9821525812149048
,travel,0.9809662103652954
,sky,0.9756920337677002
,evening,0.9691144227981567
,building,0.965179443359375
,outdoors,0.9579952955245972
,cityscape,0.9543302655220032
,dusk,0.9506709575653076
,light,0.9488785266876221
,water,0.9346145391464233
,skyline,0.9337705969810486
,street,0.9241821765899658
,dawn,0.9177663326263428
,landscape,0.912372350692749
,house,0.9012576937675476
,skyscraper,0.9009572267532349
,apartment,0.9002249836921692
https://scontent.cdninstagram.com/t51.2885-15/e35/12912690_1039124356166275_1877356522_n.jpg,dog,0.9983199834823608
,mammal,0.9916115403175354
,canine,0.9899735450744629
,portrait,0.9866299629211426
,pet,0.9820815324783325
,cute,0.979090690612793
,one,0.9730061888694763
,pug,0.9711755514144897
,animal,0.9702364206314087
,puppy,0.9679330587387085
,people,0.957716166973114
,little,0.9409395456314087
,eye,0.916074275970459
,no person,0.9131039381027222
,looking,0.9118059277534485
,face,0.8902525901794434
,funny,0.8855175971984863
,friendship,0.8750282526016235
,young,0.8695940971374512
,adult,0.8634189367294312
https://scontent.cdninstagram.com/t51.2885-15/e35/10413935_234126293590877_691665809_n.jpg,woman,0.9944913387298584
,people,0.9862239360809326
,portrait,0.9829639196395874
,lid,0.9691620469093323
,girl,0.9580787420272827
,fashion,0.9407691955566406
,adult,0.9362741112709045
,wear,0.935082197189331
,one,0.9307860136032104
,adolescent,0.9298319816589355
,indoors,0.9265203475952148
,veil,0.8832811117172241
,pretty,0.87497878074646
,looking,0.8356214165687561
,outdoors,0.8286191821098328
,model,0.8264961242675781
,cute,0.8198767900466919
,facial expression,0.8196327686309814
,business,0.8151537179946899
,child,0.81135493516922
https://scontent.cdninstagram.com/t51.2885-15/e35/12725100_214903422192328_2049125754_n.jpg,people,0.9824106693267822
,woman,0.9713664650917053
,portrait,0.9624402523040771
,adult,0.9537525177001953
,movie,0.9509729146957397
,music,0.9442403316497803
,girl,0.9412038326263428
,young,0.9364447593688965
,indoors,0.8834594488143921
,love,0.877754271030426
,one,0.8693711757659912
,recreation,0.8671526908874512
,pretty,0.8612016439437866
,fashion,0.858830451965332
,attractive,0.8466156721115112
,sexy,0.8418393731117249
,performance,0.8385828733444214
,two,0.8350778222084045
,beautiful,0.8335355520248413
,person,0.8240072727203369
https://scontent.cdninstagram.com/t51.2885-15/s480x480/e35/12816815_1334095116616331_209064346_n.jpg,girl,0.9963005781173706
,woman,0.9959414601325989
,adult,0.9926353693008423
,portrait,0.9852774143218994
,wear,0.9847191572189331
,brunette,0.9808183908462524
,model,0.9756102561950684
,one,0.9748233556747437
,lingerie,0.9655334949493408
,blouse,0.9645177125930786
,fashion,0.9629518389701843
,skirt,0.935350775718689
,underwear,0.9326678514480591
,pants,0.9290981292724609
,people,0.9225335121154785
,sexy,0.9177544116973877
,dress,0.8968989253044128
,studio,0.8895856738090515
,footwear,0.8826864957809448
,hair,0.8538779020309448
https://scontent.cdninstagram.com/t51.2885-15/e15/12748332_1045207685533598_1573616040_n.jpg,people,0.9937331676483154
,adult,0.9917577505111694
,woman,0.9907640814781189
,group,0.9876753687858582
,grow,0.9799903631210327
,facial expression,0.9744104146957397
,wear,0.9604321718215942
,child,0.9576375484466553
,happiness,0.9463357925415039
,man,0.9434635639190674
,togetherness,0.9332067966461182
,food,0.927495002746582
,indoors,0.923914909362793
,girl,0.9133251905441284
,offspring,0.9119862914085388
,two,0.8940625190734863
,recreation,0.8908616304397583
,fruit,0.8903570175170898
,enjoyment,0.889672040939331
,family,0.8874233961105347
https://scontent.cdninstagram.com/t51.2885-15/e35/13408885_599287770234179_1014871570_n.jpg,no person,0.9968558549880981
,delicious,0.9840288162231445
,food,0.9723832607269287
,grow,0.9555628895759583
,homemade,0.935207724571228
,sugar,0.9333513975143433
,lunch,0.9249361753463745
,sweet,0.9205517768859863
,nutrition,0.9204350709915161
,crisp,0.9200018644332886
,ready,0.9150137901306152
,health,0.9112667441368103
,fruit,0.9068398475646973
,breakfast,0.9032875299453735
,honey,0.900348424911499
,taste,0.8921693563461304
,bowl,0.8838127851486206
,dinner,0.8777849078178406
,traditional,0.8745486736297607
,cooking,0.868321418762207
https://scontent.cdninstagram.com/t51.2885-15/s640x640/sh0.08/e35/917348_252708061734234_1636269049_n.jpg,adult,0.9830776453018188
,people,0.9830097556114197
,woman,0.9792759418487549
,indoors,0.9644882678985596
,fashion,0.9288655519485474
,horizontal,0.9127989411354065
,portrait,0.9118317365646362
,square,0.8976898789405823
,shopping,0.887664258480072
,business,0.880250096321106
,coffee,0.8787132501602173
,relaxation,0.8574888110160828
,vector,0.8558216094970703
,set,0.8461074233055115
,happiness,0.8413379192352295
,communication,0.8291057348251343
,option,0.8289002180099487
,illustration,0.82485431432724
,cheerful,0.8140751123428345
,vertical,0.8124073147773743
https://scontent.cdninstagram.com/t51.2885-15/e15/12728662_1045593718837670_1441309239_n.jpg,people,0.9801422357559204
,school,0.9598565101623535
,adult,0.954247236251831
,woman,0.9395358562469482
,education,0.918779730796814
,child,0.910689115524292
,portrait,0.8864803910255432
,wear,0.8841482996940613
,indoors,0.8834813833236694
,girl,0.8775453567504883
,stock,0.875238299369812
,competition,0.8541836142539978
,athlete,0.842883825302124
,group,0.8316278457641602
,man,0.7997084856033325
,teacher,0.7894601821899414
,concentration,0.788619875907898
,class,0.7880939245223999
,many,0.7849755883216858
,daylight,0.7812044620513916
https://scontent.cdninstagram.com/t51.2885-15/e35/12818989_579538028866492_1038064943_n.jpg,group,0.9923547506332397
,people,0.990971565246582
,woman,0.9888084530830383
,group,0.9675540328025818
,portrait,0.9675452709197998
,music,0.96672123670578
,friendship,0.9621891975402832
,child,0.9602317810058594
,adult,0.9450467228889465
,fun,0.9286908507347107
,man,0.919076681137085
,smile,0.9032458066940308
,fame,0.895601212978363
,girl,0.8950238227844238
,singer,0.8900322318077087
,indoors,0.8878629803657532
,squad,0.8871015310287476
,many,0.8867779970169067
,adolescent,0.8843791484832764
,musician,0.8805893659591675
https://scontent.cdninstagram.com/t51.2885-15/e35/12751534_548830515289666_219463211_n.jpg,girl,0.9930589199066162
,woman,0.9898399114608765
,people,0.9872583150863647
,portrait,0.9861371517181396
,beautiful,0.9595407247543335
,face,0.9553506970405579
,brunette,0.9532585740089417
,child,0.9516270160675049
,happiness,0.9489666819572449
,indoors,0.9484248757362366
,cute,0.938037633895874
,leisure,0.9294674396514893
,one,0.9285651445388794
,daylight,0.925865650177002
,smile,0.9247192144393921
,adult,0.9217615127563477
,pretty,0.9193099737167358
,hair,0.9126501083374023
,relaxation,0.9053628444671631
,facial expression,0.9050356149673462
https://scontent.cdninstagram.com/t51.2885-15/e35/12728450_533579246824285_1897621945_n.jpg,woman,0.990761935710907
,indoors,0.9826681017875671
,girl,0.9781051278114319
,people,0.9667277336120605
,portrait,0.955348789691925
,cute,0.9487097263336182
,child,0.944179892539978
,fashion,0.9431108236312866
,facial expression,0.9341904520988464
,relaxation,0.9306985139846802
,dawn,0.9226062297821045
,pretty,0.9154181480407715
,enjoyment,0.9140027165412903
,fun,0.9058582782745361
,one,0.8898740410804749
,nude,0.8845343589782715
,sit,0.8754501342773438
,room,0.8753536939620972
,family,0.8724085092544556
,eye,0.8701567649841309
https://scontent.cdninstagram.com/t51.2885-15/e35/12976279_1720793624802247_717934964_n.jpg,sketch,0.9932003021240234
,illustration,0.9908618927001953
,cute,0.9898154139518738
,mascot,0.9864621758460999
,character,0.9826633930206299
,funny,0.9809281229972839
,vector,0.9789643287658691
,fun,0.9707698822021484
,amusing,0.9672455787658691
,smile,0.9642496705055237
,cheerful,0.9551602602005005
,toy,0.9533364772796631
,isolated,0.9504331350326538
,eye,0.9436306953430176
,humor,0.9416793584823608
,graphic,0.9324991703033447
,animal,0.9211869835853577
,teeth,0.9174885749816895
,art,0.9070731401443481
,image,0.904904842376709
https://scontent.cdninstagram.com/t51.2885-15/e35/12716993_1728661820701807_75338143_n.jpg,woman,0.9968872666358948
,girl,0.9894223213195801
,beautiful,0.9791567325592041
,portrait,0.9785327911376953
,young,0.9778504371643066
,adult,0.9730075597763062
,pretty,0.9648195505142212
,blond,0.9510435461997986
,fashion,0.9436931610107422
,attractive,0.9403073191642761
,people,0.938502311706543
,model,0.9349797368049622
,sexy,0.9325587749481201
,cute,0.9318230152130127
,hair,0.9297869205474854
,one,0.9296362400054932
,lifestyle,0.9255701303482056
,person,0.9181079864501953
,face,0.907362699508667
,looking,0.8987925052642822
https://scontent.cdninstagram.com/t51.2885-15/e35/12912615_1733147250264621_411422944_n.jpg,no person,0.9897205829620361
,sunset,0.9803403615951538
,city,0.9745143055915833
,sky,0.9681817889213562
,travel,0.9646884202957153
,architecture,0.9604790210723877
,outdoors,0.9561278223991394
,dawn,0.954161524772644
,water,0.9502308368682861
,landscape,0.9500787258148193
,daylight,0.9285864233970642
,fog,0.9148410558700562
,light,0.9081824421882629
,sun,0.9071167707443237
,building,0.9063412547111511
,evening,0.893944263458252
,tree,0.8739535808563232
,street,0.8689979910850525
,dusk,0.8683796525001526
,house,0.8437000513076782
https://scontent.cdninstagram.com/t51.2885-15/e35/12905225_951838318217599_1577810239_n.jpg,science,0.9762359857559204
,no person,0.9480987787246704
,medicine,0.9478561878204346
,illustration,0.9428023099899292
,donation,0.9345127940177917
,abstract,0.9208088517189026
,conceptual,0.9143419861793518
,desktop,0.9033522009849548
,business,0.9022657871246338
,horizontal,0.9014232158660889
,phase,0.896436870098114
,education,0.8928143978118896
,system,0.8792240619659424
,page,0.8496619462966919
,form,0.8424705266952515
,disease,0.8421812653541565
,graphic,0.8418983221054077
,illness,0.8250104188919067
,text,0.8223841786384583
,medical,0.8126516342163086
https://scontent.cdninstagram.com/t51.2885-15/e35/13556707_1742718932674888_339003172_n.jpg,group,0.9994606971740723
,group,0.9993079304695129
,people,0.9947082996368408
,four,0.9888042211532593
,woman,0.9804114103317261
,portrait,0.9794566631317139
,many,0.979019045829773
,adult,0.9701906442642212
,five,0.9664531946182251
,facial expression,0.9580002427101135
,adolescent,0.9489904642105103
,several,0.9276533126831055
,friendship,0.9194345474243164
,music,0.9175195693969727
,education,0.9070271849632263
,three,0.9064583778381348
,child,0.905096709728241
,man,0.9014371633529663
,school,0.8899972438812256
,musician,0.8850650191307068
https://scontent.cdninstagram.com/t51.2885-15/s480x480/e35/11259430_700726390069318_1247790638_n.jpg,no person,0.9499968886375427
,paper,0.9208666682243347
,text,0.901504635810852
,illustration,0.8826242685317993
,vintage,0.8722572922706604
,decoration,0.8661105632781982
,retro,0.8648582100868225
,wear,0.8637011647224426
,pattern,0.8553038835525513
,graphic,0.8472009897232056
,art,0.8471678495407104
,design,0.8322545886039734
,desktop,0.8316769599914551
,card,0.8224064111709595
,vector,0.8180918097496033
,fun,0.8179882168769836
,child,0.8159001469612122
,sketch,0.8153367042541504
,people,0.8128324747085571
,travel,0.8106236457824707
https://scontent.cdninstagram.com/t51.2885-15/e15/12479086_1773812876186043_422015418_n.jpg,people,0.9913442134857178
,adult,0.9839603900909424
,man,0.9403691291809082
,woman,0.9337852001190186
,group,0.9065848588943481
,technology,0.8987962007522583
,option,0.8955347537994385
,indoors,0.8830946683883667
,communication,0.8609015941619873
,connection,0.8567639589309692
,business,0.8392587304115295
,computer,0.8180004358291626
,interaction,0.7800146341323853
,vertical,0.7630228996276855
,stock,0.7596701383590698
,monochrome,0.7565979957580566
,internet,0.7547610998153687
,commerce,0.7322297096252441
,two,0.7123033404350281
,wear,0.6946194171905518
https://scontent.cdninstagram.com/t51.2885-15/e35/10296623_971672386250840_1914445167_n.jpg,woman,0.9903137683868408
,portrait,0.9880516529083252
,wear,0.9841287732124329
,adult,0.9840689897537231
,one,0.9783306121826172
,dress,0.9749107360839844
,girl,0.9707446694374084
,fashion,0.949142336845398
,cute,0.9415527582168579
,people,0.9340068101882935
,skirt,0.9286929368972778
,young,0.9197378158569336
,indoors,0.9193233847618103
,happiness,0.9142544269561768
,model,0.9089944958686829
,beautiful,0.9000369310379028
,pretty,0.8957533836364746
,room,0.8930100202560425
,looking,0.8896238207817078
,bag,0.8818299174308777
https://scontent.cdninstagram.com/l/t51.2885-15/e35/12547484_828122143982612_819211507_n.jpg,dog,0.9997445344924927
,canine,0.9982605576515198
,puppy,0.9980727434158325
,pet,0.997719943523407
,cute,0.9947932958602905
,animal,0.9930328130722046
,mammal,0.9909547567367554
,portrait,0.9907788634300232
,domestic,0.9894847273826599
,little,0.9883196949958801
,adorable,0.9880080223083496
,purebred,0.98427414894104
,breed,0.9830471277236938
,pug,0.9818382263183594
,funny,0.9778974652290344
,bulldog,0.9769227504730225
,studio,0.9768639206886292
,sit,0.9705872535705566
,pedigree,0.9645395874977112
,puppy,0.953336238861084
https://scontent.cdninstagram.com/t51.2885-15/e35/12479057_1725030221088888_322627587_n.jpg,group,0.9914796352386475
,portrait,0.9870830178260803
,friendship,0.9860481023788452
,people,0.9789843559265137
,woman,0.9745796918869019
,facial expression,0.971495509147644
,girl,0.9640443325042725
,child,0.9623360633850098
,group,0.9549463987350464
,togetherness,0.9461491107940674
,music,0.9403060674667358
,wear,0.9224505424499512
,five,0.9168580770492554
,four,0.9150355458259583
,adult,0.9146300554275513
,school,0.9111318588256836
,boy,0.9047279357910156
,laughing,0.9019720554351807
,recreation,0.8998175859451294
,fun,0.8944109678268433
https://scontent.cdninstagram.com/t51.2885-15/e35/12724841_1654168254844345_819032748_n.jpg,love,0.9798328876495361
,hand,0.9771977663040161
,woman,0.9398800730705261
,human,0.9107828140258789
,closeup,0.9106380939483643
,romance,0.8987277746200562
,conceptual,0.8962163925170898
,little,0.8864902257919312
,health,0.886120080947876
,isolated,0.8726928234100342
,desktop,0.8615336418151855
,security,0.8520671129226685
,symbol,0.8390501737594604
,detail,0.8385345339775085
,business,0.837601900100708
,no person,0.8225566148757935
,care,0.8224658966064453
,heart,0.8205999135971069
,finger,0.8048317432403564
,medicine,0.8016633987426758
https://scontent.cdninstagram.com/t51.2885-15/e35/11311426_479192622279080_1441331613_n.jpg,fashion,0.9976773858070374
,woman,0.9914827346801758
,model,0.9880038499832153
,glamour,0.9727832674980164
,girl,0.968010663986206
,sexy,0.9654852747917175
,pretty,0.962751030921936
,indoors,0.9603801965713501
,wear,0.9582101106643677
,portrait,0.953762412071228
,elegant,0.9237105250358582
,people,0.9124904870986938
,fashionable,0.9084731936454773
,dress,0.8866617679595947
,contemporary,0.8661554455757141
,long,0.8604795932769775
,style,0.8561698794364929
,young,0.8538367748260498
,trendy,0.8501148223876953
,casual,0.8381206393241882
https://scontent.cdninstagram.com/t51.2885-15/e35/13267572_1737337136548343_1861845677_n.jpg,people,0.9902389049530029
,group,0.9825739860534668
,woman,0.9756559133529663
,portrait,0.9750999212265015
,adult,0.9610694646835327
,child,0.9442979097366333
,group,0.9437700510025024
,facial expression,0.9311543703079224
,girl,0.9177829027175903
,three,0.9090009927749634
,fun,0.8780080080032349
,family,0.8573437929153442
,four,0.8513321876525879
,happiness,0.8508639335632324
,adolescent,0.849029004573822
,school,0.8395612239837646
,man,0.8355261087417603
,laughing,0.8298423290252686
,friendship,0.8286497592926025
,indoors,0.8276243209838867
https://scontent.cdninstagram.com/t51.2885-15/e35/12545366_1124746047537621_930013820_n.jpg,woman,0.993564248085022
,girl,0.990066647529602
,portrait,0.9794209599494934
,fashion,0.9789275527000427
,model,0.9658423066139221
,people,0.94713294506073
,cute,0.9448968172073364
,beautiful,0.9425783157348633
,adult,0.9412252306938171
,brunette,0.9336795806884766
,one,0.9163743257522583
,dress,0.9085967540740967
,wear,0.908395528793335
,pretty,0.9055670499801636
,happiness,0.8978772163391113
,studio,0.893998384475708
,young,0.862671971321106
,hair,0.8529768586158752
,fun,0.8340882062911987
,joy,0.8240872621536255
https://scontent.cdninstagram.com/t51.2885-15/e35/12070766_215976695444995_583802250_n.jpg,people,0.9974072575569153
,one,0.9910410642623901
,woman,0.9891762137413025
,adult,0.9869648218154907
,man,0.977236270904541
,two,0.9672242403030396
,wear,0.9664266109466553
,wedding,0.9552927017211914
,gloves,0.9452153444290161
,bride,0.9261137247085571
,love,0.9228753447532654
,indoors,0.9195535182952881
,fashion,0.9129939079284668
,foot,0.9091933369636536
,veil,0.9041042327880859
,portrait,0.9016798734664917
,monochrome,0.9001787900924683
,nude,0.8549388647079468
,medicine,0.8543717861175537
,elegant,0.8535429835319519
https://scontent.cdninstagram.com/t51.2885-15/e35/12751621_1047117428686338_1273656503_n.jpg,paper,0.9943411350250244
,business,0.9743001461029053
,money,0.9714162349700928
,money,0.9367189407348633
,wealth,0.9156463742256165
,finance,0.9137371778488159
,financial,0.9115169048309326
,text,0.8820266723632812
,number,0.8704605102539062
,time,0.8590373396873474
,cash,0.8556984066963196
,paper,0.8552602529525757
,investment,0.8544145822525024
,print,0.8496946096420288
,commerce,0.846188485622406
,document,0.8389627933502197
,note,0.8372246026992798
,data,0.8329593539237976
,savings,0.832426905632019
,finance,0.832268238067627
https://scontent.cdninstagram.com/t51.2885-15/e15/13277507_1633469836973192_720035194_n.jpg,art,0.9923261404037476
,abstract,0.9796225428581238
,no person,0.9774571061134338
,illustration,0.9739563465118408
,design,0.9696122407913208
,isolated,0.9662033319473267
,desktop,0.963397204875946
,pattern,0.9488495588302612
,decoration,0.9461807012557983
,graphic,0.9300609827041626
,old,0.9232814311981201
,color,0.9232535362243652
,ornate,0.921231210231781
,isolated,0.9109273552894592
,vector,0.9091495275497437
,texture,0.9023354053497314
,template,0.895518958568573
,style,0.8925085067749023
,background,0.8918859362602234
,element,0.8823541402816772
https://scontent.cdninstagram.com/t51.2885-15/e35/13256579_982553041865135_904665285_n.jpg,conceptual,0.9845499992370605
,donation,0.9800592660903931
,no person,0.9643490314483643
,give voice,0.9640421867370605
,disease,0.9607596397399902
,text,0.9605032205581665
,business,0.9581563472747803
,medicine,0.9558658599853516
,phase,0.9500443339347839
,horizontal,0.9248045086860657
,science,0.9238179922103882
,illustration,0.9199864864349365
,illness,0.9178029894828796
,education,0.9121478796005249
,cloud,0.890592098236084
,company,0.8880771398544312
,desktop,0.8813788890838623
,insurance,0.8748446106910706
,system,0.8665587306022644
,disorder,0.8478642106056213
https://scontent.cdninstagram.com/t51.2885-15/sh0.08/e35/p640x640/13573509_473680589505543_864626074_n.jpg,wear,0.9911620616912842
,woman,0.9890297651290894
,people,0.9862256050109863
,adult,0.9831660389900208
,portrait,0.9789637327194214
,group,0.9759030938148499
,facial expression,0.9620763063430786
,two,0.9615131616592407
,festival,0.9579168558120728
,girl,0.9575191736221313
,happiness,0.9490228891372681
,three,0.9432340860366821
,exhibition,0.939766526222229
,fashion,0.9385772943496704
,child,0.9382325410842896
,movie,0.9345089793205261
,family,0.926746666431427
,actress,0.9213709831237793
,togetherness,0.9123642444610596
,dress,0.9043493866920471
https://scontent.cdninstagram.com/t51.2885-15/e35/13166807_1621513908174131_926601522_n.jpg,food,0.9922811985015869
,no person,0.972844123840332
,cooking,0.9611403942108154
,dinner,0.941463828086853
,lunch,0.9290207624435425
,meal,0.9205890893936157
,dish,0.9203834533691406
,vegetable,0.9173781871795654
,wood,0.8946459293365479
,delicious,0.8914437294006348
,pan,0.8687244653701782
,cuisine,0.8619619011878967
,pasta,0.8502206802368164
,grow,0.8347666263580322
,noodles,0.8340365886688232
,bowl,0.8312010765075684
,traditional,0.82454913854599
,table,0.810732364654541
,nutrition,0.8004758954048157
,restaurant,0.7992846965789795
https://scontent.cdninstagram.com/t51.2885-15/e35/12965280_885809421565733_1206782320_n.jpg,no person,0.9371622800827026
,coffee,0.9086211919784546
,drink,0.8925772905349731
,wood,0.8652294278144836
,health,0.8574755191802979
,business,0.8476701974868774
,indoors,0.8421235084533691
,foam,0.8195856809616089
,dawn,0.8065896034240723
,breakfast,0.8014606237411499
,milk,0.785664975643158
,cold,0.778756856918335
,food,0.770519495010376
,beer,0.7578522562980652
,aid,0.7431204319000244
,one,0.7257357835769653
,people,0.7206501960754395
,service,0.7074443697929382
,container,0.7062509655952454
,vertical,0.7051218748092651
https://scontent.cdninstagram.com/t51.2885-15/e35/13277658_1082690338462624_373567796_n.jpg,no person,0.9929990172386169
,architecture,0.9869487881660461
,travel,0.9809292554855347
,water,0.9608401656150818
,city,0.9418041706085205
,outdoors,0.9379512667655945
,sky,0.9337078332901001
,business,0.9262034893035889
,building,0.9129496812820435
,sunset,0.9066601991653442
,daylight,0.8893333673477173
,hotel,0.8491911888122559
,dusk,0.8346208930015564
,home,0.8276032209396362
,modern,0.8099440336227417
,vehicle,0.795448899269104
,dawn,0.7857402563095093
,sea,0.7796774506568909
,cityscape,0.773415744304657
,landscape,0.7707457542419434
https://scontent.cdninstagram.com/t51.2885-15/e35/12750122_1041427555928776_891185997_n.jpg,people,0.9446387887001038
,technology,0.9199966192245483
,internet,0.9046294093132019
,communication,0.9034407734870911
,illustration,0.8975551128387451
,adult,0.8891235589981079
,business,0.8880181312561035
,woman,0.8715908527374268
,desktop,0.8518543243408203
,man,0.8286842703819275
,computer,0.8239348530769348
,family,0.8236377835273743
,indoors,0.8114205002784729
,isolated,0.8111215829849243
,screen,0.7911720275878906
,card,0.7867826819419861
,image,0.785580575466156
,wireless,0.7823809385299683
,touch,0.7803907990455627
,World Wide Web,0.7791319489479065
https://scontent.cdninstagram.com/t51.2885-15/e35/13183452_776152522485619_2070450155_n.jpg,woman,0.9894767999649048
,facial expression,0.9878510236740112
,friendship,0.9787321090698242
,togetherness,0.9753884077072144
,portrait,0.9738389849662781
,fun,0.970797598361969
,people,0.9684266448020935
,adolescent,0.9525101184844971
,enjoyment,0.9508434534072876
,child,0.9465513229370117
,laughing,0.9294507503509521
,wear,0.9181836247444153
,group,0.9090274572372437
,joy,0.90780109167099
,fashion,0.9028948545455933
,indoors,0.9009261131286621
,happiness,0.8939977884292603
,girl,0.8888871669769287
,music,0.8781741857528687
,embrace,0.859386682510376
https://scontent.cdninstagram.com/t51.2885-15/e35/13258898_283143618692907_41461714_n.jpg,no person,0.9867920875549316
,round,0.8933714628219604
,indoors,0.8781059980392456
,food,0.8779433369636536
,traditional,0.8500360250473022
,bright,0.8472805023193359
,cooking,0.8368023633956909
,wood,0.8320692777633667
,business,0.8318038582801819
,recreation,0.8029862642288208
,success,0.7930105924606323
,festival,0.7765122652053833
,travel,0.7755230665206909
,balloon,0.759943962097168
,glass,0.7525385618209839
,celebration,0.7423330545425415
,desktop,0.7420628666877747
,industry,0.7410284280776978
,rubberize,0.7396054267883301
,design,0.7369385361671448
https://scontent.cdninstagram.com/t51.2885-15/e35/13151163_1737585246482216_1426374105_n.jpg,no person,0.9798547029495239
,number,0.9487734436988831
,business,0.9425586462020874
,internet,0.9319795966148376
,data,0.9218701124191284
,vertical,0.9183971881866455
,technology,0.9181804656982422
,identity,0.91697096824646
,data,0.8900229930877686
,still life,0.8884361982345581
,connection,0.8879929780960083
,order,0.8831145167350769
,paper,0.8633910417556763
,document,0.8607825040817261
,telephone,0.8604986071586609
,navigation,0.8458043336868286
,equipment,0.8458032608032227
,indoors,0.8423264026641846
,machinery,0.8361611366271973
,World Wide Web,0.8309611082077026
https://scontent.cdninstagram.com/t51.2885-15/s640x640/sh0.08/e35/13277671_1104882216251722_768655504_n.jpg,portrait,0.995887041091919
,woman,0.9820595979690552
,girl,0.9808042049407959
,people,0.9767891764640808
,adult,0.9705719947814941
,one,0.9693958163261414
,fashion,0.9667714834213257
,model,0.9591244459152222
,monochrome,0.9585656523704529
,wear,0.9240905046463013
,profile,0.915625810623169
,facial expression,0.8970752358436584
,side view,0.890998363494873
,hair,0.8821567296981812
,glamour,0.8756325244903564
,fashionable,0.8734840750694275
,music,0.8645142316818237
,beautiful,0.859778881072998
,hairdo,0.8499358892440796
,studio,0.8381365537643433
https://scontent.cdninstagram.com/t51.2885-15/e35/13257164_1035423609884797_719175755_n.jpg,portrait,0.9972718954086304
,group,0.9970999956130981
,facial expression,0.9941058158874512
,group,0.9917372465133667
,laughing,0.9891897439956665
,people,0.9842259883880615
,friendship,0.969275176525116
,child,0.9637316465377808
,school,0.9613543748855591
,adult,0.944550633430481
,woman,0.9330763816833496
,fun,0.9330639839172363
,education,0.9284543395042419
,university,0.9270581603050232
,youth,0.9267868995666504
,four,0.9264751672744751
,adolescent,0.921905517578125
,happiness,0.9140942096710205
,many,0.9138046503067017
,music,0.9098749160766602
https://scontent.cdninstagram.com/t51.2885-15/sh0.08/e35/p640x640/13260798_144546015957386_975424496_n.jpg,indoors,0.9692330360412598
,street,0.9622310400009155
,woman,0.940211296081543
,girl,0.9373611211776733
,people,0.9336857199668884
,train,0.9298253655433655
,fashion,0.9071524143218994
,business,0.9045488238334656
,portrait,0.8997374773025513
,hallway,0.8872394561767578
,city,0.8776099681854248
,model,0.872330367565155
,door,0.8654149770736694
,adult,0.8360861539840698
,luggage,0.8221615552902222
,sport,0.8200885057449341
,window,0.817601203918457
,one,0.8079993724822998
,modern,0.8063563108444214
,tube,0.7960522174835205
https://scontent.cdninstagram.com/t51.2885-15/e35/12918678_1709091796025141_1471384431_n.jpg,group,0.9960544109344482
,portrait,0.9879633784294128
,woman,0.9833621978759766
,group,0.9822573661804199
,adult,0.9810562133789062
,people,0.9769246578216553
,child,0.9694561958312988
,facial expression,0.9668599963188171
,girl,0.9641242027282715
,boy,0.9390469789505005
,room,0.9274722337722778
,friendship,0.9161470532417297
,wear,0.913063645362854
,school,0.9113497734069824
,youth,0.8980345129966736
,adolescent,0.8904886245727539
,band,0.8802335858345032
,youth,0.8799991607666016
,happiness,0.8797657489776611
,model,0.8789085745811462
https://scontent.cdninstagram.com/t51.2885-15/e35/12934881_512043895668382_473654902_n.jpg,sunset,0.9951478838920593
,no person,0.9862154722213745
,dawn,0.9692609310150146
,sky,0.963481068611145
,city,0.9529902935028076
,landscape,0.9458380937576294
,evening,0.9435479640960693
,daylight,0.9346450567245483
,outdoors,0.9248666763305664
,light,0.9219624996185303
,skyline,0.9214239716529846
,sun,0.9173029065132141
,dusk,0.9102953672409058
,travel,0.9006762504577637
,architecture,0.890799880027771
,water,0.881546139717102
,weather,0.8672667145729065
,storm,0.8406729698181152
,cityscape,0.8339649438858032
,silhouette,0.8218568563461304
