url,class,score
https://scontent.cdninstagram.com/t51.2885-15/s640x640/sh0.08/e35/13259584_1168961729800822_1814426572_n.jpg,no person,0.9517310261726379
,toy,0.9274084568023682
,street,0.9181705713272095
,winter,0.9023662805557251
,people,0.8921850323677063
,one,0.8886961936950684
,action,0.885611891746521
,child,0.8641268014907837
,car,0.8624324798583984
,fun,0.8402717113494873
,city,0.8204940557479858
,lid,0.8197736740112305
,competition,0.8183814287185669
,man,0.7898885011672974
,snow,0.7869700193405151
,vehicle,0.7737105488777161
,game,0.7490782737731934
,football,0.7242403030395508
,travel,0.7198247909545898
,color,0.6987764239311218
https://scontent.cdninstagram.com/t51.2885-15/e35/13381308_1608371899453853_180445952_n.jpg,indoors,0.9940015077590942
,people,0.986607551574707
,portrait,0.983924388885498
,adult,0.9772201180458069
,woman,0.9667031764984131
,one,0.9563438296318054
,fun,0.94633948802948
,happiness,0.9438693523406982
,facial expression,0.9411016702651978
,girl,0.9376497268676758
,lifestyle,0.9276678562164307
,child,0.9242016077041626
,man,0.9221640825271606
,young,0.9218165874481201
,enjoyment,0.9209133982658386
,eyeglasses,0.9155786633491516
,smile,0.9152736067771912
,room,0.9053677320480347
,education,0.8974802494049072
,school,0.8870518207550049
https://scontent.cdninstagram.com/t51.2885-15/e35/13398605_687013524770158_1940204578_n.jpg,group,0.997832179069519
,woman,0.9952744245529175
,people,0.9910439848899841
,friendship,0.9906201362609863
,many,0.9860574007034302
,school,0.9744629859924316
,education,0.9734147787094116
,child,0.9727352857589722
,portrait,0.9681239128112793
,university,0.9591832160949707
,adolescent,0.9435745477676392
,girl,0.940165102481842
,adult,0.9342216849327087
,variation,0.9294565916061401
,collage,0.9226891994476318
,class,0.9208981990814209
,academic,0.9158444404602051
,student,0.9112897515296936
,laughing,0.9073002338409424
,happiness,0.8971768021583557
https://scontent.cdninstagram.com/t51.2885-15/s640x640/sh0.08/e35/13266735_1702590499958691_173443987_n.jpg,paper,0.9792898297309875
,business,0.9690680503845215
,text,0.9465510845184326
,number,0.9305022954940796
,document,0.9211037158966064
,education,0.8962053656578064
,sign,0.8961538672447205
,no person,0.8877716064453125
,finance,0.8685147762298584
,money,0.8685019016265869
,wood,0.8590181469917297
,note,0.8242788314819336
,notebook,0.7927285432815552
,book,0.7863737344741821
,money,0.7851766347885132
,office,0.7841359972953796
,display,0.7694809436798096
,page,0.7620522379875183
,still life,0.7579001188278198
,table,0.7519258260726929
https://scontent.cdninstagram.com/t51.2885-15/s640x640/sh0.08/e35/13573612_825694360895435_1498834220_n.jpg,no person,0.9951128959655762
,coffee,0.9691036939620972
,indoors,0.9638776779174805
,still life,0.9455869197845459
,food,0.9436893463134766
,drink,0.9316054582595825
,paper,0.9279047250747681
,business,0.9257798194885254
,breakfast,0.8891427516937256
,finance,0.8847236037254333
,money,0.8817108273506165
,wealth,0.8621009588241577
,vertical,0.8602883815765381
,milk,0.8564339876174927
,dairy product,0.8505517244338989
,chocolate,0.838927149772644
,tea,0.8355985879898071
,cup,0.8323439955711365
,money,0.8232300281524658
,delicious,0.8194977641105652
https://scontent.cdninstagram.com/t51.2885-15/e35/13385731_101221426976883_1553242011_n.jpg,room,0.982701301574707
,family,0.9760473966598511
,furniture,0.9718209505081177
,sofa,0.9597208499908447
,indoors,0.9582924842834473
,house,0.9476583003997803
,inside,0.9448979496955872
,people,0.9423307180404663
,table,0.921263575553894
,chair,0.9155086278915405
,man,0.9040509462356567
,adult,0.8989533185958862
,seat,0.8985148668289185
,sit,0.8813730478286743
,wood,0.8772250413894653
,design,0.8489919900894165
,young,0.843615710735321
,one,0.8356531262397766
,armchair,0.8253562450408936
,floor,0.8222144842147827
https://scontent.cdninstagram.com/t51.2885-15/s640x640/sh0.08/e35/13388651_137192856702322_1475244862_n.jpg,no person,0.9865605235099792
,paper,0.9573462009429932
,money,0.9297033548355103
,plastic,0.9214096069335938
,business,0.8956273794174194
,card,0.8842588067054749
,success,0.8807070255279541
,wealth,0.8689070343971252
,isolated,0.8650976419448853
,money,0.8608222603797913
,number,0.8566799163818359
,finance,0.8566131591796875
,toy,0.8466207385063171
,savings,0.846469521522522
,color,0.8335199952125549
,wood,0.831199586391449
,text,0.8311331272125244
,child,0.8218793869018555
,health,0.8196794986724854
,desktop,0.7858041524887085
https://scontent.cdninstagram.com/t51.2885-15/e35/13188005_1095631603842874_536756228_n.jpg,horizontal,0.9826065301895142
,nature,0.9573090076446533
,outdoors,0.9331461191177368
,empty,0.9211399555206299
,people,0.8542870283126831
,protection,0.8370354175567627
,little,0.836418867111206
,hand,0.8293485641479492
,desktop,0.8228305578231812
,woman,0.8136504888534546
,relaxation,0.7942734956741333
,indoors,0.7870272397994995
,summer,0.7803070545196533
,water,0.77044278383255
,bright,0.764427125453949
,no person,0.7457312345504761
,dark,0.7446373701095581
,fair weather,0.739173173904419
,abstract,0.736544132232666
,child,0.73531174659729
https://scontent.cdninstagram.com/t51.2885-15/e35/13652030_1723788254549995_219253678_n.jpg,food,0.9708727598190308
,market,0.9403464794158936
,desktop,0.92857825756073
,no person,0.9214205741882324
,nature,0.9178834557533264
,color,0.9118074178695679
,traditional,0.9023610353469849
,healthy,0.8941695094108582
,decoration,0.8896323442459106
,art,0.8873945474624634
,culture,0.8622711896896362
,fish,0.8603833913803101
,delicious,0.8456876277923584
,many,0.8401522636413574
,closeup,0.8272192478179932
,meat,0.823354959487915
,summer,0.8194833397865295
,flora,0.8082079887390137
,health,0.804529070854187
,cooking,0.7994084358215332
https://scontent.cdninstagram.com/t51.2885-15/e35/13739589_177893565960721_1875042543_n.jpg,mammal,0.9875010251998901
,indoors,0.9830844402313232
,grinder,0.9816403388977051
,industry,0.9796786904335022
,no person,0.9747173190116882
,business,0.9740355610847473
,cage,0.9652973413467407
,reflection,0.9522955417633057
,daylight,0.9522358775138855
,building,0.9461390376091003
,one,0.9400217533111572
,steel,0.9279942512512207
,people,0.9246385097503662
,production,0.92341548204422
,transportation system,0.9132601022720337
,technology,0.8928353786468506
,train,0.8857545852661133
,airport,0.8854057788848877
,train,0.8827286958694458
,looking,0.875857949256897
https://scontent.cdninstagram.com/t51.2885-15/e35/13183451_881231932002344_889045897_n.jpg,ice,0.9933215379714966
,cream,0.9931544065475464
,chocolate,0.993079662322998
,no person,0.9929935932159424
,delicious,0.9906130433082581
,vanilla,0.990582287311554
,scoop,0.989892840385437
,sweet,0.9787552356719971
,creamy,0.9772797226905823
,frozen,0.977127194404602
,food,0.9761354923248291
,indulgence,0.9668339490890503
,cone,0.9652503728866577
,dairy product,0.9651995301246643
,cold,0.9645590782165527
,sugar,0.9637718200683594
,caramel,0.9637634754180908
,whipped cream,0.9569447040557861
,cornet,0.9458401203155518
,goody,0.9441293478012085
https://scontent.cdninstagram.com/t51.2885-15/e35/13739481_1792707017682177_838556607_n.jpg,city,0.9991700649261475
,skyscraper,0.9990708231925964
,cityscape,0.9985337853431702
,skyline,0.998257040977478
,architecture,0.9979485273361206
,office,0.9924201965332031
,tallest,0.9914237260818481
,modern,0.9898484945297241
,sky,0.985405683517456
,tower,0.9834412336349487
,downtown,0.9788162708282471
,dusk,0.9763054847717285
,business,0.9752261638641357
,apartment,0.9695194959640503
,horizontal,0.964388370513916
,building,0.9541307687759399
,cloud,0.9484347105026245
,outdoors,0.9477072954177856
,illuminated,0.9447305202484131
,river,0.9385474920272827
https://scontent.cdninstagram.com/t51.2885-15/e35/13658356_260062451040232_809482085_n.jpg,architecture,0.9610579013824463
,no person,0.9569369554519653
,house,0.940955638885498
,light,0.9368221759796143
,travel,0.924247682094574
,window,0.9201323390007019
,city,0.9132328033447266
,indoors,0.9078996181488037
,street,0.8846547603607178
,family,0.8819109201431274
,home,0.8450859189033508
,outdoors,0.8327540159225464
,hotel,0.8198879361152649
,daylight,0.8072327375411987
,contemporary,0.7924246788024902
,modern,0.7824192047119141
,business,0.7765883207321167
,apartment,0.7723239660263062
,building,0.7662628889083862
,room,0.7572070360183716
https://scontent.cdninstagram.com/t51.2885-15/s640x640/sh0.08/e35/13269461_1604334693210014_641668790_n.jpg,aquarium,0.9993273615837097
,fish,0.9992011785507202
,underwater,0.9980594515800476
,ocean,0.9922707080841064
,aquatic,0.99211186170578
,water,0.9920455813407898
,sea,0.9918010234832764
,goldfish,0.991728663444519
,marine,0.991244912147522
,fishbowl,0.9866335391998291
,tank,0.9857050180435181
,tropical,0.9735149145126343
,movie,0.9700790643692017
,nature,0.9600661993026733
,animal,0.9572551250457764
,no person,0.9535734057426453
,exhibition,0.945056140422821
,family,0.9412139654159546
,deep,0.9408011436462402
,swimming,0.9391433000564575
https://scontent.cdninstagram.com/t51.2885-15/s640x640/sh0.08/e35/13628240_1562020350770007_1700696363_n.jpg,business,0.9521197080612183
,technology,0.9438976049423218
,shopping,0.9402066469192505
,bar,0.9281154870986938
,stock,0.9227584600448608
,modern,0.9109702110290527
,industry,0.9025880098342896
,city,0.8969576358795166
,rack,0.8845736980438232
,no person,0.876970648765564
,urban,0.8672223687171936
,service,0.8535845279693604
,food,0.8531819581985474
,commerce,0.8485265970230103
,power,0.8448864221572876
,glass,0.844581127166748
,shop,0.8441545963287354
,display,0.8438280820846558
,drink,0.8283226490020752
,equipment,0.823371410369873
https://scontent.cdninstagram.com/t51.2885-15/e35/13671324_1182202898491793_1797754031_n.jpg,woman,0.9967573881149292
,people,0.9863316416740417
,facial expression,0.9842832088470459
,enjoyment,0.9773174524307251
,adult,0.9749153256416321
,indoors,0.970679759979248
,two,0.9591275453567505
,portrait,0.9401904344558716
,happiness,0.9395800828933716
,girl,0.9195926189422607
,togetherness,0.913130521774292
,fun,0.9095197916030884
,family,0.9085729122161865
,leisure,0.9072243571281433
,wear,0.9031165838241577
,adolescent,0.8906511068344116
,friendship,0.890396237373352
,laughing,0.8769258260726929
,man,0.875519871711731
,group,0.8746688365936279
https://scontent.cdninstagram.com/t51.2885-15/s640x640/sh0.08/e35/13652039_1056958161006940_256851688_n.jpg,no person,0.9880862236022949
,wood,0.982219934463501
,wooden,0.9572970867156982
,energy,0.9474146366119385
,creativity,0.9235007762908936
,electricity,0.911179780960083
,indoors,0.8983261585235596
,arts and crafts,0.88914555311203
,power,0.8712607026100159
,family,0.8663439750671387
,glass,0.8508684635162354
,equipment,0.8462157249450684
,color,0.8247443437576294
,painting,0.8244969844818115
,bulb,0.8129875659942627
,health,0.8101789951324463
,desktop,0.7693855166435242
,bright,0.7657448053359985
,table,0.7639647722244263
,handmade,0.7574360370635986
https://scontent.cdninstagram.com/t51.2885-15/s640x640/sh0.08/e35/13355595_1128155803892559_104920370_n.jpg,paper,0.9915279150009155
,money,0.9791552424430847
,business,0.9753988981246948
,money,0.9748630523681641
,no person,0.964836597442627
,savings,0.9578917026519775
,wealth,0.9518436789512634
,success,0.9453939199447632
,one,0.9331574440002441
,dollar,0.9325563907623291
,finance,0.9284309148788452
,container,0.9197843074798584
,isolated,0.9097257852554321
,financial,0.8934905529022217
,retro,0.8898980617523193
,cash,0.8888639807701111
,coffee,0.8828667998313904
,vertical,0.8808358907699585
,old,0.878605842590332
,finance,0.8778797388076782
https://scontent.cdninstagram.com/t51.2885-15/e35/13151306_999665696790582_1092418345_n.jpg,no person,0.994830310344696
,food,0.9939619898796082
,breakfast,0.9840551614761353
,delicious,0.9772424101829529
,sugar,0.9700842499732971
,homemade,0.9577329158782959
,traditional,0.9546895027160645
,baking,0.9502887725830078
,cooking,0.948776364326477
,nutrition,0.921301007270813
,wood,0.9209016561508179
,sweet,0.9159177541732788
,table,0.903178334236145
,health,0.8982130289077759
,cream,0.8913849592208862
,plate,0.8908036947250366
,refreshment,0.890527606010437
,hot,0.8897520303726196
,cake,0.8894178867340088
,meal,0.8830425143241882
https://scontent.cdninstagram.com/t51.2885-15/e35/13277691_1617798701872603_1538237422_n.jpg,people,0.9837257862091064
,child,0.9680960178375244
,portrait,0.9375272989273071
,wear,0.934183657169342
,one,0.931814432144165
,festival,0.931652307510376
,fun,0.9210282564163208
,girl,0.9171139001846313
,woman,0.9167860746383667
,adult,0.9069507122039795
,education,0.8837331533432007
,actress,0.8780410289764404
,technology,0.8674119710922241
,happiness,0.8606311082839966
,recreation,0.8393622636795044
,school,0.8369821310043335
,facial expression,0.8352134227752686
,indoors,0.806936502456665
,business,0.7889646291732788
,music,0.7858223915100098
https://scontent.cdninstagram.com/t51.2885-15/e35/13398742_264364747253045_742334500_n.jpg,mammal,0.9696558117866516
,family,0.9630323648452759
,people,0.9597344398498535
,house,0.9487821459770203
,illustration,0.9401633143424988
,domestic,0.9394114017486572
,animal,0.9280860424041748
,dog,0.9226133823394775
,exhibition,0.9031511545181274
,painting,0.893731951713562
,pet,0.8808108568191528
,landscape,0.8790867924690247
,furniture,0.8605244159698486
,old,0.8398067951202393
,fence,0.8392592668533325
,inside,0.8387911915779114
,child,0.8328537940979004
,art,0.823920726776123
,indoors,0.8216184377670288
,man,0.8214102983474731
https://scontent.cdninstagram.com/t51.2885-15/s640x640/sh0.08/e35/13573483_279407742420123_282984585_n.jpg,no person,0.9968795776367188
,food,0.9935439825057983
,delicious,0.9898325204849243
,dinner,0.973751425743103
,lunch,0.969607412815094
,rice,0.968406081199646
,nutrition,0.9648520946502686
,traditional,0.9630979299545288
,meal,0.9596239328384399
,health,0.9453814029693604
,cuisine,0.9265029430389404
,cooking,0.923392653465271
,bowl,0.9231123924255371
,homemade,0.9208149313926697
,epicure,0.9135002493858337
,cream,0.9085708856582642
,ready,0.9081624150276184
,ingredients,0.8999706506729126
,refreshment,0.8951056599617004
,tasty,0.8794702291488647
https://scontent.cdninstagram.com/t51.2885-15/s640x640/sh0.08/e35/13248827_895990600510847_1467556178_n.jpg,text,0.9801390171051025
,illustration,0.973788857460022
,symbol,0.9710479378700256
,label,0.9529082179069519
,business,0.9430075287818909
,round,0.9379388093948364
,design,0.9302754402160645
,vector,0.9071762561798096
,round,0.8977514505386353
,shape,0.8820081949234009
,sign,0.8791279792785645
,no person,0.868581235408783
,bill,0.8511991500854492
,graphic,0.8317807912826538
,vector,0.8291566371917725
,banner,0.826919674873352
,isolated,0.8219190239906311
,image,0.8131008744239807
,art,0.810103178024292
,desktop,0.7970097064971924
https://scontent.cdninstagram.com/t51.2885-15/e35/13745229_1809889232589232_181761127_n.jpg,time,0.9058561325073242
,schedule,0.8905152082443237
,annual,0.8801813721656799
,business,0.8763577938079834
,number,0.8553862571716309
,daily,0.8223304748535156
,no person,0.8108662366867065
,design,0.8105556964874268
,date,0.7872483730316162
,monthly,0.7525066137313843
,give voice,0.7317056655883789
,conceptual,0.7316498756408691
,data,0.7308502197265625
,money,0.7143499255180359
,calendar,0.690654456615448
,page,0.687706470489502
,text,0.6711249351501465
,success,0.6606354713439941
,form,0.6547622680664062
,growth,0.650719404220581
https://scontent.cdninstagram.com/t51.2885-15/s640x640/e15/13725734_1639164399733273_1218554957_n.jpg,illustration,0.9801523685455322
,no person,0.9730184078216553
,child,0.967282772064209
,sketch,0.9560737609863281
,one,0.9491199254989624
,toy,0.9120858907699585
,fun,0.8851038217544556
,people,0.8794029951095581
,humor,0.8759176731109619
,lid,0.8657959699630737
,boy,0.8593510389328003
,man,0.849738359451294
,funny,0.844982385635376
,outfit,0.8433388471603394
,character,0.8415228724479675
,movie,0.8255418539047241
,grow,0.8050236701965332
,graphic,0.7840763330459595
,mascot,0.7809635400772095
,mammal,0.7805569171905518
https://scontent.cdninstagram.com/t51.2885-15/s640x640/sh0.08/e35/13266739_602716843226960_38163978_n.jpg,city,0.9950781464576721
,no person,0.9875368475914001
,architecture,0.9870495796203613
,sunset,0.9851270318031311
,downtown,0.9793685674667358
,sky,0.975850522518158
,building,0.9715385437011719
,business,0.9654139280319214
,skyscraper,0.9640995264053345
,skyline,0.9593710899353027
,office,0.9577351808547974
,dusk,0.9576472640037537
,street,0.9571863412857056
,cityscape,0.9560085535049438
,urban,0.9493095874786377
,travel,0.948538064956665
,outdoors,0.9360569715499878
,evening,0.9333973526954651
,dawn,0.9257916212081909
,light,0.9251593351364136
https://scontent.cdninstagram.com/t51.2885-15/s640x640/sh0.08/e35/13423422_296479394022515_1757122598_n.jpg,no person,0.9923705458641052
,exhibition,0.9576821327209473
,soccer,0.955420732498169
,business,0.9525402188301086
,stock,0.9511668086051941
,competition,0.9489537477493286
,football,0.9379580020904541
,indoors,0.9340121150016785
,merchandise,0.9146687984466553
,people,0.9132034778594971
,shopping,0.8960202932357788
,sign,0.8678148984909058
,editorial,0.8503320217132568
,presentation,0.8480578660964966
,commerce,0.8463400602340698
,entertainment,0.8387397527694702
,character,0.8367855548858643
,industry,0.8306499719619751
,contemporary,0.8234149813652039
,man,0.816770076751709
https://scontent.cdninstagram.com/t51.2885-15/e35/13381005_125028237918068_448991154_n.jpg,dog,0.9980238676071167
,pet,0.9969217777252197
,canine,0.9944660663604736
,mammal,0.9875260591506958
,little,0.97958904504776
,puppy,0.9791386723518372
,one,0.9775130152702332
,movie,0.9725955128669739
,animal,0.9659932851791382
,cute,0.9624597430229187
,no person,0.9582692384719849
,indoors,0.9250047206878662
,domestic,0.920720100402832
,portrait,0.9064929485321045
,funny,0.9055379033088684
,family,0.9039816856384277
,humor,0.888896107673645
,sit,0.8770833611488342
,fun,0.8652282357215881
,wear,0.8636486530303955
https://scontent.cdninstagram.com/t51.2885-15/s640x640/sh0.08/e35/13355544_253207691707616_1228750108_n.jpg,bottle,0.9936337471008301
,no person,0.9913733005523682
,glass,0.9869716167449951
,container,0.9806476831436157
,medicine,0.9595028162002563
,health,0.9582453966140747
,beer,0.9516105651855469
,drink,0.9494521021842957
,liquid,0.9457786679267883
,cure,0.9348016381263733
,cold,0.9293901324272156
,plastic,0.9222371578216553
,healthcare,0.9194334745407104
,thirst,0.88373863697052
,vertical,0.8808467388153076
,one,0.8697608709335327
,food,0.861735463142395
,water,0.8413176536560059
,oil,0.8392702341079712
,still life,0.819869875907898
https://scontent.cdninstagram.com/t51.2885-15/e35/13671790_1732521520354707_1873058280_n.jpg,street,0.9935749173164368
,monochrome,0.9917477369308472
,people,0.969308614730835
,no person,0.9621678590774536
,black and white,0.9499020576477051
,city,0.9492254257202148
,architecture,0.9463516473770142
,house,0.9101290702819824
,light,0.9095271229743958
,group,0.8724225163459778
,many,0.8668239116668701
,art,0.8607932329177856
,window,0.8453527092933655
,building,0.834627628326416
,urban,0.8280994892120361
,road,0.8122483491897583
,apartment,0.8086601495742798
,travel,0.8052693605422974
,modern,0.7938255071640015
,group,0.7898386716842651
https://scontent.cdninstagram.com/t51.2885-15/s640x640/sh0.08/e35/13706950_1705441783051124_798217707_n.jpg,flag,0.9871618747711182
,paper,0.9797760248184204
,no person,0.9707751274108887
,patriotism,0.9543455243110657
,retro,0.922329306602478
,post,0.9180126190185547
,democracy,0.9075441360473633
,country,0.904225766658783
,symbol,0.8961131572723389
,travel,0.8938522338867188
,old,0.8930854201316833
,International,0.8707185983657837
,national,0.857771635055542
,illustration,0.8510206937789917
,freedom,0.8419225215911865
,design,0.8374626636505127
,correspondence,0.8250949382781982
,desktop,0.8168523907661438
,spherical,0.8154184222221375
,administration,0.8133449554443359
https://scontent.cdninstagram.com/t51.2885-15/s640x640/sh0.08/e35/13768280_1101911796521447_1705107747_n.jpg,food,0.990780234336853
,indoors,0.9516319632530212
,no person,0.9482163786888123
,still life,0.9239096641540527
,breakfast,0.9198128581047058
,plate,0.9176766872406006
,indulgence,0.8943557739257812
,vertical,0.8931899070739746
,freshness,0.8921161890029907
,sweet,0.8911479711532593
,horizontal,0.8841733932495117
,delicious,0.8810786008834839
,dawn,0.845224142074585
,meal,0.8424328565597534
,fork,0.8353163003921509
,refreshment,0.8343033790588379
,fruit,0.8329521417617798
,jam,0.8308605551719666
,homemade,0.8188092112541199
,sugar,0.8099771738052368
https://scontent.cdninstagram.com/t51.2885-15/e35/13745256_1391313080882157_41979599_n.jpg,mammal,0.9949816465377808
,livestock,0.9879639148712158
,no person,0.9853019118309021
,people,0.9825882911682129
,two,0.9809650182723999
,cattle,0.9776456952095032
,agriculture,0.9738541841506958
,transportation system,0.9725816249847412
,one,0.9703469276428223
,industry,0.9548377990722656
,farm,0.9547551870346069
,business,0.9535121917724609
,indoors,0.9079989790916443
,adult,0.9045509099960327
,group,0.9039813280105591
,cart,0.9008092880249023
,three,0.8958454132080078
,daylight,0.8913811445236206
,building,0.8808830976486206
,cavalry,0.8800110220909119
https://scontent.cdninstagram.com/t51.2885-15/e35/13694389_1554062331568559_1688826805_n.jpg,medicine,0.9927082657814026
,no person,0.9881026744842529
,health,0.9642832279205322
,bottle,0.9587453603744507
,one,0.9463657140731812
,drug,0.942960262298584
,container,0.9376474022865295
,illness,0.9340553283691406
,healthcare,0.9286790490150452
,cure,0.9114492535591125
,treatment,0.9107595682144165
,paper,0.9018000364303589
,glass,0.8924922943115234
,medical,0.8880784511566162
,food,0.8855800628662109
,science,0.8841266632080078
,research,0.881084680557251
,prescription,0.8697172403335571
,pill,0.8673688173294067
,hospital,0.8661054372787476
https://scontent.cdninstagram.com/t51.2885-15/s640x640/sh0.08/e35/13422962_1152575411460786_142118553_n.jpg,paper,0.9935986399650574
,business,0.9777906537055969
,document,0.9670507907867432
,page,0.951088547706604
,no person,0.9257166385650635
,reminder,0.9181259274482727
,text,0.905267596244812
,information,0.9031555652618408
,number,0.8925589919090271
,note,0.8907148838043213
,writing,0.8762397766113281
,education,0.8727896213531494
,wood,0.8503490686416626
,money,0.818077564239502
,post,0.8053790330886841
,office,0.7995268106460571
,finance,0.7968922853469849
,notebook,0.7869476079940796
,data,0.7864987254142761
,law,0.7620625495910645
https://scontent.cdninstagram.com/t51.2885-15/e35/13116702_267430233610801_1557093018_n.jpg,no person,0.993342399597168
,isolated,0.9407297372817993
,food,0.9197078943252563
,traditional,0.8944380283355713
,health,0.8878182768821716
,symbol,0.8807694911956787
,box,0.8794940710067749
,delicious,0.8777033090591431
,love,0.8683908581733704
,shining,0.836891770362854
,heart,0.83443284034729
,plastic,0.829136312007904
,paper,0.8258143663406372
,Christmas,0.8149011135101318
,nutrition,0.8147672414779663
,glazed,0.8135420083999634
,isolated,0.8112656474113464
,sugar,0.7991513013839722
,color,0.7973991632461548
,wood,0.7932838201522827
https://scontent.cdninstagram.com/t51.2885-15/s640x640/sh0.08/e35/13643747_1206948715983854_317334821_n.jpg,food,0.9969635009765625
,no person,0.9959394931793213
,delicious,0.9695560932159424
,sweet,0.9688439965248108
,grow,0.9605138301849365
,breakfast,0.9540855884552002
,still life,0.9485865235328674
,homemade,0.9428768754005432
,bread,0.941383421421051
,tableware,0.9344156980514526
,dairy product,0.9309890270233154
,chocolate,0.9194092154502869
,sugar,0.9182721376419067
,fruit,0.9141325950622559
,plate,0.9126569032669067
,baking,0.9089058041572571
,wood,0.9078675508499146
,refreshment,0.907817006111145
,knife,0.905670166015625
,cooking,0.9031690359115601
https://scontent.cdninstagram.com/t51.2885-15/e35/13707173_1748692435409078_973519872_n.jpg,architecture,0.995140552520752
,downtown,0.9948937296867371
,city,0.9946174621582031
,skyscraper,0.9929693937301636
,cityscape,0.9898116588592529
,skyline,0.9847134351730347
,building,0.983638346195221
,business,0.9826911687850952
,office,0.9734556674957275
,modern,0.9726191759109497
,travel,0.9723602533340454
,apartment,0.9637864828109741
,no person,0.9593764543533325
,finance,0.9578803777694702
,sky,0.9563406705856323
,urban,0.952522337436676
,tallest,0.9211678504943848
,outdoors,0.913492739200592
,traffic,0.9070941209793091
,contemporary,0.8863092064857483
https://scontent.cdninstagram.com/t51.2885-15/e35/13722314_1805409616345992_461893809_n.jpg,city,0.9974316358566284
,skyline,0.9936853051185608
,sunset,0.9917103052139282
,architecture,0.9912610650062561
,sky,0.9903844594955444
,cityscape,0.9856053590774536
,downtown,0.9842575788497925
,skyscraper,0.9756779670715332
,building,0.9747000336647034
,travel,0.9704222083091736
,no person,0.9610691666603088
,dawn,0.9539366960525513
,urban,0.9508447051048279
,dusk,0.9450212717056274
,business,0.9377682209014893
,office,0.920653223991394
,apartment,0.915463924407959
,outdoors,0.9142063856124878
,light,0.9094960689544678
,evening,0.9059314131736755
https://scontent.cdninstagram.com/t51.2885-15/s640x640/sh0.08/e35/13259037_607234499445376_1057934281_n.jpg,wood,0.9838560223579407
,no person,0.9745473861694336
,paper,0.9516294598579407
,food,0.9385557174682617
,money,0.9225231409072876
,business,0.9174745082855225
,retro,0.9117133021354675
,wooden,0.9082713723182678
,indoors,0.9015067219734192
,money,0.886189341545105
,drink,0.8792498111724854
,container,0.8708493709564209
,text,0.8696195483207703
,finance,0.8612262010574341
,offense,0.8364872932434082
,sign,0.8288898468017578
,security,0.8210691213607788
,old,0.8146007061004639
,vintage,0.8111989498138428
,desktop,0.8002079725265503
https://scontent.cdninstagram.com/t51.2885-15/e35/13636064_1703630496555682_2108268940_n.jpg,paper,0.9606103897094727
,template,0.9484125375747681
,number,0.9466186761856079
,card,0.9196979999542236
,page,0.9125829935073853
,layout,0.8983376026153564
,label,0.8675246238708496
,vintage,0.8534382581710815
,sign,0.8167335987091064
,desktop,0.8099485635757446
,form,0.8025892376899719
,food,0.7799056768417358
,text,0.778243899345398
,illustration,0.7719579935073853
,booklet,0.7534945607185364
,collection,0.7440332770347595
,presentation,0.7398276925086975
,banner,0.739687442779541
,retro,0.7353578805923462
,pie,0.7134764194488525
https://scontent.cdninstagram.com/t51.2885-15/s640x640/sh0.08/e35/13402179_491904841006319_1045742674_n.jpg,coffee,0.9921141862869263
,no person,0.9901607036590576
,cup,0.9859637022018433
,dawn,0.9820051193237305
,drink,0.9819254279136658
,hot,0.97818922996521
,breakfast,0.9754289388656616
,table,0.9656802415847778
,espresso,0.9555453658103943
,saucer,0.9523853063583374
,food,0.9498909711837769
,caffeine,0.937929093837738
,mug,0.9354019165039062
,wood,0.9121208190917969
,plate,0.9074537754058838
,still life,0.9065502882003784
,dark,0.9061834812164307
,tea,0.8953171968460083
,traditional,0.8857656717300415
,cappuccino,0.8655612468719482
https://scontent.cdninstagram.com/t51.2885-15/e35/13381255_1061896700560894_921279534_n.jpg,food,0.98630690574646
,no person,0.9808067679405212
,chocolate,0.9644246697425842
,cup,0.9618902206420898
,cinnamon,0.9601092338562012
,sweet,0.9447120428085327
,coffee,0.9441540241241455
,sugar,0.9365310072898865
,cookie,0.9341888427734375
,indoors,0.929880678653717
,plate,0.9291108250617981
,milk,0.9270857572555542
,delicious,0.9217562675476074
,homemade,0.9200313091278076
,cream,0.9155488014221191
,cooking,0.9149965643882751
,Christmas,0.9067835807800293
,vertical,0.9067672491073608
,baking,0.9055137634277344
,drink,0.8997768759727478
https://scontent.cdninstagram.com/t51.2885-15/e35/13696665_150116098725966_727268195_n.jpg,indoors,0.9926599860191345
,woman,0.9849646091461182
,enjoyment,0.9741654396057129
,lunch,0.9507433176040649
,family,0.9459677338600159
,meal,0.9363390803337097
,coffee,0.9222711324691772
,food,0.9165902733802795
,togetherness,0.9144101142883301
,breakfast,0.9088095426559448
,drink,0.8996267318725586
,tea,0.891623318195343
,cooking,0.8817947506904602
,restaurant,0.8779419660568237
,shopping,0.8632659912109375
,fun,0.8337538242340088
,dining,0.8267135620117188
,laughing,0.8225788474082947
,traditional,0.8107080459594727
,table,0.8061380386352539
https://scontent.cdninstagram.com/t51.2885-15/e35/13707075_899917283453201_2097513427_n.jpg,city,0.9984778165817261
,cityscape,0.9934709072113037
,skyline,0.9934161901473999
,architecture,0.9927285313606262
,skyscraper,0.9812509417533875
,downtown,0.9809046983718872
,travel,0.9805686473846436
,no person,0.9798578023910522
,building,0.977567195892334
,office,0.9701308012008667
,sky,0.9597979784011841
,urban,0.9521481990814209
,outdoors,0.9266703128814697
,sunset,0.9251940250396729
,daylight,0.9239746332168579
,business,0.9175025224685669
,town,0.9084194898605347
,apartment,0.9053344130516052
,dawn,0.9019596576690674
,tree,0.8779120445251465
https://scontent.cdninstagram.com/t51.2885-15/e35/13649265_275879776113588_151315780_n.jpg,people,0.987608790397644
,portrait,0.9709727764129639
,one,0.9688589572906494
,man,0.9680263996124268
,indoors,0.9662270545959473
,adult,0.9596155881881714
,eyeglasses,0.9196444153785706
,education,0.9022144675254822
,woman,0.9013913869857788
,wear,0.9013848304748535
,business,0.8882907629013062
,eyewear,0.8701579570770264
,young,0.8593472242355347
,looking,0.847144365310669
,fashion,0.8470429182052612
,intelligence,0.8274580240249634
,school,0.8255256414413452
,fun,0.8185372352600098
,leisure,0.8060206174850464
,travel,0.80007004737854
https://scontent.cdninstagram.com/t51.2885-15/e35/13562086_1743682275873172_1320746990_n.jpg,no person,0.9908417463302612
,business,0.9729896783828735
,graphic design,0.9410254955291748
,paper,0.9367930889129639
,people,0.907927393913269
,data,0.9060901999473572
,administration,0.8987656831741333
,number,0.8768662810325623
,man,0.8703252673149109
,sign,0.8670628070831299
,text,0.8601891994476318
,illustration,0.8553580045700073
,data,0.8408265113830566
,bill,0.8395397663116455
,information,0.8305267095565796
,time,0.8268318772315979
,one,0.8238092660903931
,retro,0.8233782052993774
,soccer,0.816085696220398
,editorial,0.8137577176094055
https://scontent.cdninstagram.com/t51.2885-15/e35/13713956_315996115402561_1080807842_n.jpg,woman,0.9852001070976257
,fashion,0.9622176885604858
,people,0.958816647529602
,cute,0.9339938163757324
,adult,0.9281641840934753
,retro,0.9193207025527954
,portrait,0.9176573753356934
,fun,0.9172697067260742
,young,0.8965093493461609
,funny,0.8902266621589661
,identity,0.8647972345352173
,pretty,0.8563482761383057
,glamour,0.8534801006317139
,style,0.8502000570297241
,business,0.8050627112388611
,isolated,0.8025896549224854
,looking,0.8025758266448975
,adolescent,0.7932524681091309
,elegant,0.7908409833908081
,cheerful,0.788955807685852
