URL,CLASS,SCORE,primary_passion_point_1,primary_passion_point_2,primary_passion_point_3,primary_passion_point_4,secondary_passion_point_1,secondary_passion_point_2,secondary_passion_point_3,secondary_passion_point_4
https://scontent.cdninstagram.com/t51.2885-15/s750x750/sh0.08/e35/13414181_1000317780063891_213847488_n.jpg,desktop,0.9595475196838379,Arts,,,,Arts-s,,,
,illustration,0.9409518241882324,,,,,,,,
,business,0.9301247596740723,,,,,,,,
,design,0.8932347297668457,,,,,,,,
,symbol,0.8896894454956055,,,,,,,,
,"no person",0.8822195529937744,,,,,,,,
,dark,0.8813189268112183,,,,,,,,
,image,0.8706862926483154,,,,,,,,
,technology,0.8677473068237305,,,,,,,,
,graphic,0.8632499575614929,,,,,,,,
,vector,0.837115466594696,,,,,,,,
,internet,0.8149644136428833,,,,,,,,
,illuminated,0.8035914897918701,,,,,,,,
,abstract,0.7942350506782532,,,,,,,,
,sign,0.7804003953933716,,,,,,,,
,display,0.766190230846405,,,,,,,,
,text,0.7560495734214783,,,,,,,,
,conceptual,0.7508500814437866,,,,,,,,
,market,0.7459201812744141,,,,,,,,
,computer,0.7442967891693115,,,,,,,,
https://scontent.cdninstagram.com/t51.2885-15/s750x750/sh0.08/e35/13398499_1192854967425697_1618270013_n.jpg,monochrome,0.9987355470657349,Relationships,Commerce,,,Friends,"Product/brand shots",,
,people,0.9925459623336792,,,,,,,,
,adult,0.9889572858810425,,,,,,,,
,portrait,0.9885308742523193,,,,,,,,
,woman,0.9837993383407593,,,,,,,,
,education,0.9750810861587524,,,,,,,,
,child,0.9502527713775635,,,,,,,,
,vertical,0.948698878288269,,,,,,,,
,adolescent,0.9379988312721252,,,,,,,,
,indoors,0.9299946427345276,,,,,,,,
,collage,0.9159775972366333,,,,,,,,
,man,0.9133203029632568,,,,,,,,
,group,0.9117317199707031,,,,,,,,
,collage,0.8949630260467529,,,,,,,,
,friendship,0.8657945394515991,,,,,,,,
,"facial expression",0.8642333149909973,,,,,,,,
,business,0.8582513332366943,,,,,,,,
,presentation,0.8554226160049438,,,,,,,,
,horizontal,0.8487310409545898,,,,,,,,
,headshot,0.8391938209533691,,,,,,,,
https://scontent.cdninstagram.com/t51.2885-15/s750x750/sh0.08/e35/13392787_1069502949795242_1181811972_n.jpg,woman,0.9765344858169556,Environment,Relationships,,,"Manmade beauty","Best friends",,
,people,0.9751271605491638,,,,,,,,
,portrait,0.9662345051765442,,,,,,,,
,girl,0.963521420955658,,,,,,,,
,light,0.951379656791687,,,,,,,,
,couple,0.9409610033035278,,,,,,,,
,man,0.9395521879196167,,,,,,,,
,gold,0.9351854920387268,,,,,,,,
,fashion,0.9054667949676514,,,,,,,,
,love,0.8975552320480347,,,,,,,,
,adult,0.883122444152832,,,,,,,,
,fall,0.8795052766799927,,,,,,,,
,fun,0.8752720355987549,,,,,,,,
,group,0.8716704249382019,,,,,,,,
,beautiful,0.8563860058784485,,,,,,,,
,smile,0.8385263085365295,,,,,,,,
,music,0.8319991827011108,,,,,,,,
,color,0.8275859951972961,,,,,,,,
,happiness,0.8240823745727539,,,,,,,,
,model,0.820563018321991,,,,,,,,
https://scontent.cdninstagram.com/t51.2885-15/s750x750/sh0.08/e35/13298115_1721125934836022_141785145_n.jpg,"no person",0.9832972884178162,Food,,,,Dessert,,,
,health,0.9233832359313965,,,,,,,,
,broken,0.8915061950683594,,,,,,,,
,food,0.8734639883041382,,,,,,,,
,nature,0.8624695539474487,,,,,,,,
,delicious,0.855209469795227,,,,,,,,
,isolated,0.8298691511154175,,,,,,,,
,winter,0.8122991323471069,,,,,,,,
,sweet,0.8042078614234924,,,,,,,,
,slice,0.7870568037033081,,,,,,,,
,isolated,0.782550036907196,,,,,,,,
,cream,0.7801114916801453,,,,,,,,
,desktop,0.7750684022903442,,,,,,,,
,cooking,0.7704179286956787,,,,,,,,
,dark,0.7619227170944214,,,,,,,,
,sugar,0.7612320184707642,,,,,,,,
,water,0.7377052307128906,,,,,,,,
,slice,0.7367010116577148,,,,,,,,
,nutrition,0.7323693037033081,,,,,,,,
,isolated,0.7207509279251099,,,,,,,,
https://scontent.cdninstagram.com/t51.2885-15/s750x750/sh0.08/e35/13116823_1089881287751894_1868782215_n.jpg,window,0.9949562549591064,Environment,,,,"Manmade beauty",,,
,indoors,0.9864165782928467,,,,,,,,
,furniture,0.9853911399841309,,,,,,,,
,room,0.9808817505836487,,,,,,,,
,house,0.9794453978538513,,,,,,,,
,contemporary,0.9756633639335632,,,,,,,,
,family,0.9741110801696777,,,,,,,,
,"interior design",0.9683747291564941,,,,,,,,
,chair,0.9677478075027466,,,,,,,,
,luxury,0.9649505615234375,,,,,,,,
,architecture,0.9646407961845398,,,,,,,,
,"no person",0.9489874839782715,,,,,,,,
,seat,0.935982346534729,,,,,,,,
,apartment,0.9355539679527283,,,,,,,,
,door,0.9238059520721436,,,,,,,,
,home,0.9164524078369141,,,,,,,,
,table,0.8947911262512207,,,,,,,,
,wood,0.8880147933959961,,,,,,,,
,inside,0.8746668100357056,,,,,,,,
,estate,0.8649206161499023,,,,,,,,
https://scontent.cdninstagram.com/t51.2885-15/e35/12905008_1154216754618922_793460337_n.jpg,design,0.9861403107643127,Environment,,,,"Manmade beauty",,,
,texture,0.9796924591064453,,,,,,,,
,furniture,0.9757323861122131,,,,,,,,
,pattern,0.9757280349731445,,,,,,,,
,desktop,0.9656044840812683,,,,,,,,
,family,0.9649854898452759,,,,,,,,
,sofa,0.9641907811164856,,,,,,,,
,room,0.9459635019302368,,,,,,,,
,decoration,0.9418972730636597,,,,,,,,
,fabric,0.9397685527801514,,,,,,,,
,house,0.928841233253479,,,,,,,,
,"no person",0.9287732243537903,,,,,,,,
,wall,0.9285743236541748,,,,,,,,
,wood,0.9197443127632141,,,,,,,,
,seat,0.9172706007957458,,,,,,,,
,inside,0.9164775609970093,,,,,,,,
,modern,0.9152418375015259,,,,,,,,
,style,0.9054276943206787,,,,,,,,
,square,0.8940149545669556,,,,,,,,
,"interior design",0.8935225009918213,,,,,,,,
https://scontent.cdninstagram.com/t51.2885-15/s640x640/sh0.08/e35/13388731_275608916132655_1973662258_n.jpg,illustration,0.9828422665596008,Literature,,,,Literature-s,,,
,art,0.981934666633606,,,,,,,,
,design,0.9537094831466675,,,,,,,,
,scribble,0.9509192109107971,,,,,,,,
,desktop,0.9261181354522705,,,,,,,,
,retro,0.9232431054115295,,,,,,,,
,text,0.9222949743270874,,,,,,,,
,symbol,0.9191569089889526,,,,,,,,
,vector,0.908576250076294,,,,,,,,
,isolated,0.9009189605712891,,,,,,,,
,cute,0.8981411457061768,,,,,,,,
,writing,0.8808823823928833,,,,,,,,
,character,0.8804111480712891,,,,,,,,
,funny,0.8745386600494385,,,,,,,,
,art,0.8714496493339539,,,,,,,,
,alphabet,0.8689447641372681,,,,,,,,
,decoration,0.8676570653915405,,,,,,,,
,abstract,0.8600092530250549,,,,,,,,
,graphic,0.8515284061431885,,,,,,,,
,sketch,0.8506984710693359,,,,,,,,
https://scontent.cdninstagram.com/t51.2885-15/s750x750/sh0.08/e35/13320116_569677516544581_673677311_n.jpg,desktop,0.9688412547111511,Food,,,,"Meal time",,,
,food,0.9672276377677917,,,,,,,,
,cup,0.9576534032821655,,,,,,,,
,drink,0.9553422927856445,,,,,,,,
,restaurant,0.9173609614372253,,,,,,,,
,bowl,0.9063531160354614,,,,,,,,
,color,0.8988155126571655,,,,,,,,
,business,0.8926314115524292,,,,,,,,
,plate,0.8878073692321777,,,,,,,,
,closeup,0.8842083215713501,,,,,,,,
,healthy,0.8769623041152954,,,,,,,,
,traditional,0.8730753660202026,,,,,,,,
,table,0.8696325421333313,,,,,,,,
,coffee,0.8620517253875732,,,,,,,,
,container,0.8487473726272583,,,,,,,,
,tea,0.846954345703125,,,,,,,,
,refreshment,0.8354043364524841,,,,,,,,
,soup,0.8314339518547058,,,,,,,,
,"no person",0.8272111415863037,,,,,,,,
,gift,0.8146591782569885,,,,,,,,
https://scontent.cdninstagram.com/t51.2885-15/e35/12677373_576042499231154_1504379611_n.jpg,furniture,0.9974559545516968,Environment,,,,"Manmade beauty",,,
,table,0.9967069625854492,,,,,,,,
,indoors,0.9965156316757202,,,,,,,,
,chair,0.9930652976036072,,,,,,,,
,room,0.9923356771469116,,,,,,,,
,contemporary,0.990041971206665,,,,,,,,
,seat,0.9884655475616455,,,,,,,,
,luxury,0.9802342057228088,,,,,,,,
,inside,0.9790223836898804,,,,,,,,
,floor,0.9764696359634399,,,,,,,,
,"interior design",0.975163996219635,,,,,,,,
,dining,0.9665994644165039,,,,,,,,
,sofa,0.9660747051239014,,,,,,,,
,house,0.9569929242134094,,,,,,,,
,window,0.9535600543022156,,,,,,,,
,hotel,0.9466902017593384,,,,,,,,
,family,0.9389396905899048,,,,,,,,
,lamp,0.9360864162445068,,,,,,,,
,"no person",0.929449200630188,,,,,,,,
,empty,0.9096892476081848,,,,,,,,
https://scontent.cdninstagram.com/t51.2885-15/s750x750/sh0.08/e35/13385871_903540163126003_257101772_n.jpg,family,0.9650827646255493,Food,,,,"Drinks and snack",,,
,wood,0.9546677470207214,,,,,,,,
,house,0.9347467422485352,,,,,,,,
,inside,0.9316697120666504,,,,,,,,
,table,0.9233468770980835,,,,,,,,
,indoors,0.9183498620986938,,,,,,,,
,pot,0.9111090898513794,,,,,,,,
,flora,0.9096672534942627,,,,,,,,
,"no person",0.9044793844223022,,,,,,,,
,herb,0.9016619920730591,,,,,,,,
,wooden,0.9005028009414673,,,,,,,,
,desktop,0.8983532190322876,,,,,,,,
,leaf,0.8889480829238892,,,,,,,,
,luxury,0.8839253187179565,,,,,,,,
,decoration,0.8785783052444458,,,,,,,,
,herbal,0.858504056930542,,,,,,,,
,window,0.8449583053588867,,,,,,,,
,nature,0.8389955759048462,,,,,,,,
,style,0.8287782669067383,,,,,,,,
,design,0.8124151229858398,,,,,,,,
https://scontent.cdninstagram.com/t51.2885-15/s750x750/sh0.08/e35/13167343_1569208463376770_1928146599_n.jpg,people,0.9782748222351074,Environment,,,,"Manmade beauty",,,
,adult,0.9720273613929749,,,,,,,,
,coffee,0.9662899971008301,,,,,,,,
,indoors,0.9593875408172607,,,,,,,,
,woman,0.9432734251022339,,,,,,,,
,furniture,0.94162517786026,,,,,,,,
,table,0.9409343600273132,,,,,,,,
,chair,0.9386279582977295,,,,,,,,
,room,0.9277434349060059,,,,,,,,
,one,0.9209758043289185,,,,,,,,
,window,0.8633735179901123,,,,,,,,
,business,0.8508555889129639,,,,,,,,
,restaurant,0.8473310470581055,,,,,,,,
,seat,0.8389375805854797,,,,,,,,
,drink,0.8295638561248779,,,,,,,,
,man,0.8135847449302673,,,,,,,,
,hotel,0.8079550266265869,,,,,,,,
,office,0.8015458583831787,,,,,,,,
,two,0.7991995811462402,,,,,,,,
,group,0.7954162359237671,,,,,,,,
https://scontent.cdninstagram.com/t51.2885-15/s750x750/sh0.08/e35/13267595_1072231989530963_169645345_n.jpg,wood,0.9454960823059082,Food,,,,"Drinks and snack",,,
,"no person",0.9373748302459717,,,,,,,,
,drink,0.9299840331077576,,,,,,,,
,wooden,0.9211692214012146,,,,,,,,
,glass,0.9202293753623962,,,,,,,,
,cold,0.87237948179245,,,,,,,,
,table,0.8535265922546387,,,,,,,,
,juice,0.8234259486198425,,,,,,,,
,family,0.7949845790863037,,,,,,,,
,isolated,0.794869601726532,,,,,,,,
,equipment,0.7826976776123047,,,,,,,,
,desktop,0.7667534947395325,,,,,,,,
,wheel,0.7643795013427734,,,,,,,,
,fun,0.7547749280929565,,,,,,,,
,bamboo,0.7529249787330627,,,,,,,,
,fruit,0.7523168325424194,,,,,,,,
,cocktail,0.7521644234657288,,,,,,,,
,summer,0.734458327293396,,,,,,,,
,traditional,0.7290657758712769,,,,,,,,
,tropical,0.7231682538986206,,,,,,,,
https://scontent.cdninstagram.com/t51.2885-15/s750x750/sh0.08/e35/13108526_1191237020916787_956738285_n.jpg,people,0.9770767688751221,"Fashion & Beauty",,,,Ootd,,,
,portrait,0.9636025428771973,,,,,,,,
,woman,0.959121584892273,,,,,,,,
,one,0.9540185928344727,,,,,,,,
,fashion,0.9539246559143066,,,,,,,,
,girl,0.9387322664260864,,,,,,,,
,model,0.9385610818862915,,,,,,,,
,adult,0.9373772144317627,,,,,,,,
,wall,0.9301050901412964,,,,,,,,
,wear,0.9131902456283569,,,,,,,,
,street,0.9021762609481812,,,,,,,,
,man,0.8840523958206177,,,,,,,,
,outdoors,0.8832957148551941,,,,,,,,
,dress,0.8756661415100098,,,,,,,,
,young,0.8224111795425415,,,,,,,,
,child,0.7717751860618591,,,,,,,,
,fun,0.7619308233261108,,,,,,,,
,lifestyle,0.7565279603004456,,,,,,,,
,fashionable,0.750737190246582,,,,,,,,
,window,0.7439188361167908,,,,,,,,
https://scontent.cdninstagram.com/t51.2885-15/s750x750/sh0.08/e35/13391217_1015728125182632_1763197220_n.jpg,woman,0.9642207622528076,Food,"Fashion & Beauty","My life",,"Drinks and snack","My look","Here I am",
,people,0.9627720713615417,,,,,,,,
,indoors,0.956542432308197,,,,,,,,
,young,0.9554072618484497,,,,,,,,
,adult,0.9424523115158081,,,,,,,,
,window,0.9335390329360962,,,,,,,,
,portrait,0.9168708324432373,,,,,,,,
,beautiful,0.9152195453643799,,,,,,,,
,sit,0.9139631986618042,,,,,,,,
,one,0.9127339720726013,,,,,,,,
,person,0.9006698131561279,,,,,,,,
,girl,0.8892620801925659,,,,,,,,
,house,0.8705157041549683,,,,,,,,
,family,0.8640706539154053,,,,,,,,
,pretty,0.848019540309906,,,,,,,,
,looking,0.8425027132034302,,,,,,,,
,attractive,0.8419123888015747,,,,,,,,
,room,0.8399021625518799,,,,,,,,
,man,0.8375364542007446,,,,,,,,
,business,0.8330223560333252,,,,,,,,
https://scontent.cdninstagram.com/t51.2885-15/s750x750/sh0.08/e35/13183395_217136158673610_1058897208_n.jpg,pattern,0.9681835174560547,Animals,,,,"Non Usable",,,
,design,0.9651934504508972,,,,,,,,
,paper,0.9587562084197998,,,,,,,,
,abstract,0.9380397796630859,,,,,,,,
,desktop,0.9286794066429138,,,,,,,,
,card,0.9237962961196899,,,,,,,,
,wallpaper,0.9061294794082642,,,,,,,,
,invitation,0.9060901999473572,,,,,,,,
,decoration,0.9057759642601013,,,,,,,,
,"no person",0.8976918458938599,,,,,,,,
,business,0.8911354541778564,,,,,,,,
,elegant,0.8677350282669067,,,,,,,,
,contemporary,0.8652002811431885,,,,,,,,
,retro,0.8648098707199097,,,,,,,,
,texture,0.864200234413147,,,,,,,,
,template,0.8522545695304871,,,,,,,,
,illustration,0.848188042640686,,,,,,,,
,modern,0.8428569436073303,,,,,,,,
,"picture frame",0.8396993279457092,,,,,,,,
,empty,0.8396931886672974,,,,,,,,
https://scontent.cdninstagram.com/t51.2885-15/e15/13256867_610569845777864_1153925900_n.jpg,winter,0.9903584122657776,Travel,"Fashion & Beauty",,,Travel-s,"My look",,
,snow,0.9872919321060181,,,,,,,,
,people,0.9686717391014099,,,,,,,,
,cold,0.9676145315170288,,,,,,,,
,girl,0.9638122916221619,,,,,,,,
,woman,0.9567595720291138,,,,,,,,
,beach,0.9566425085067749,,,,,,,,
,nature,0.9526617527008057,,,,,,,,
,sea,0.9469626545906067,,,,,,,,
,water,0.9243253469467163,,,,,,,,
,travel,0.9240999817848206,,,,,,,,
,portrait,0.9091717600822449,,,,,,,,
,one,0.9049110412597656,,,,,,,,
,sky,0.8859771490097046,,,,,,,,
,vacation,0.8770382404327393,,,,,,,,
,monochrome,0.8727647066116333,,,,,,,,
,landscape,0.8723676204681396,,,,,,,,
,adult,0.8684806823730469,,,,,,,,
,fun,0.8566569089889526,,,,,,,,
,ocean,0.8557551503181458,,,,,,,,
https://scontent.cdninstagram.com/l/t51.2885-15/s750x750/sh0.08/e35/13398988_895521960577276_1545654899_n.jpg,fun,0.9887865781784058,Recreation,Travel,Relationships,,Beach,Travel-s,"Best friends",
,sunglasses,0.9886283874511719,,,,,,,,
,summer,0.9782620668411255,,,,,,,,
,vacation,0.9777435660362244,,,,,,,,
,people,0.9736740589141846,,,,,,,,
,woman,0.970077395439148,,,,,,,,
,happiness,0.9652670621871948,,,,,,,,
,joy,0.9527343511581421,,,,,,,,
,young,0.9520437717437744,,,,,,,,
,beautiful,0.9479923248291016,,,,,,,,
,leisure,0.9478064775466919,,,,,,,,
,beach,0.9456177949905396,,,,,,,,
,girl,0.9427023530006409,,,,,,,,
,lifestyle,0.9361873865127563,,,,,,,,
,love,0.9189352989196777,,,,,,,,
,sea,0.9177325963973999,,,,,,,,
,friendship,0.9155071973800659,,,,,,,,
,portrait,0.9066531658172607,,,,,,,,
,cheerful,0.8905156850814819,,,,,,,,
,smile,0.8869859576225281,,,,,,,,
https://scontent.cdninstagram.com/t51.2885-15/s750x750/sh0.08/e35/13381303_253345948356673_1065301120_n.jpg,"no person",0.9837407469749451,Environment,,,,"Manmade beauty",,,
,furniture,0.9702639579772949,,,,,,,,
,indoors,0.9672136306762695,,,,,,,,
,wood,0.9651471376419067,,,,,,,,
,bathroom,0.9620522856712341,,,,,,,,
,contemporary,0.955498456954956,,,,,,,,
,room,0.9523100852966309,,,,,,,,
,inside,0.9420105218887329,,,,,,,,
,family,0.9392143487930298,,,,,,,,
,"interior design",0.9352438449859619,,,,,,,,
,table,0.9337212443351746,,,,,,,,
,house,0.9325881600379944,,,,,,,,
,design,0.8913568258285522,,,,,,,,
,empty,0.8890610337257385,,,,,,,,
,shelf,0.8641901016235352,,,,,,,,
,faucet,0.8387020826339722,,,,,,,,
,cabinet,0.8327593803405762,,,,,,,,
,retro,0.8310952186584473,,,,,,,,
,bathroom,0.8219599723815918,,,,,,,,
,clean,0.8183730840682983,,,,,,,,
https://scontent.cdninstagram.com/t51.2885-15/s750x750/sh0.08/e35/13413238_1707907146128528_913776824_n.jpg,milk,0.9909837245941162,Food,,,,"Drinks and snack",,,
,drink,0.9532140493392944,,,,,,,,
,merchandise,0.9465359449386597,,,,,,,,
,stock,0.9409610033035278,,,,,,,,
,shopping,0.9303314089775085,,,,,,,,
,shop,0.9254547357559204,,,,,,,,
,people,0.9202986359596252,,,,,,,,
,food,0.9093121886253357,,,,,,,,
,adult,0.8528563976287842,,,,,,,,
,bar,0.8497381210327148,,,,,,,,
,woman,0.8432376384735107,,,,,,,,
,yogurt,0.8328920602798462,,,,,,,,
,restaurant,0.8278166055679321,,,,,,,,
,market,0.8228983879089355,,,,,,,,
,city,0.817545473575592,,,,,,,,
,man,0.813585638999939,,,,,,,,
,carnival,0.7876691818237305,,,,,,,,
,tourist,0.7834514379501343,,,,,,,,
,child,0.7619227170944214,,,,,,,,
,enjoyment,0.7236560583114624,,,,,,,,
https://scontent.cdninstagram.com/t51.2885-15/e35/13277761_1768028613483623_13612386_n.jpg,group,0.9920167326927185,Relationships,,,,Family,,,
,"facial expression",0.9869656562805176,,,,,,,,
,group,0.9814263582229614,,,,,,,,
,happiness,0.9802800416946411,,,,,,,,
,adult,0.9773005247116089,,,,,,,,
,man,0.9754149913787842,,,,,,,,
,togetherness,0.971908688545227,,,,,,,,
,four,0.9651861190795898,,,,,,,,
,woman,0.9635463356971741,,,,,,,,
,room,0.9606702923774719,,,,,,,,
,people,0.9499717950820923,,,,,,,,
,furniture,0.9450269937515259,,,,,,,,
,indoors,0.9438987970352173,,,,,,,,
,three,0.941619873046875,,,,,,,,
,laughing,0.9282626509666443,,,,,,,,
,lifestyle,0.9274022579193115,,,,,,,,
,education,0.9197944402694702,,,,,,,,
,friendship,0.9196663498878479,,,,,,,,
,portrait,0.9146778583526611,,,,,,,,
,enjoyment,0.9124628305435181,,,,,,,,
https://scontent.cdninstagram.com/t51.2885-15/s750x750/sh0.08/e35/12959988_1665460020383768_434106084_n.jpg,dog,0.9991984367370605,Animals,,,,Animals-s,,,
,pet,0.9973264932632446,,,,,,,,
,canine,0.9946408271789551,,,,,,,,
,puppy,0.9926551580429077,,,,,,,,
,animal,0.9922634363174438,,,,,,,,
,domestic,0.9909529685974121,,,,,,,,
,cute,0.9907633066177368,,,,,,,,
,mammal,0.9852497577667236,,,,,,,,
,adorable,0.9819736480712891,,,,,,,,
,breed,0.9702311158180237,,,,,,,,
,little,0.9609841108322144,,,,,,,,
,purebred,0.9604476690292358,,,,,,,,
,puppy,0.9551944136619568,,,,,,,,
,portrait,0.9363110065460205,,,,,,,,
,pedigree,0.9347023963928223,,,,,,,,
,terrier,0.9193090200424194,,,,,,,,
,funny,0.9185023307800293,,,,,,,,
,desktop,0.9140458106994629,,,,,,,,
,bed,0.8827520608901978,,,,,,,,
,studio,0.880079448223114,,,,,,,,
https://scontent.cdninstagram.com/t51.2885-15/s750x750/sh0.08/e35/13266687_139756136436210_180001508_n.jpg,sea,0.9942218661308289,Environment,,,,"Natural beauty",,,
,landscape,0.9940164089202881,,,,,,,,
,beach,0.9875200390815735,,,,,,,,
,water,0.9837616682052612,,,,,,,,
,ocean,0.9826869964599609,,,,,,,,
,mountain,0.9802053570747375,,,,,,,,
,seashore,0.9778907299041748,,,,,,,,
,rock,0.9765738248825073,,,,,,,,
,nature,0.9764783382415771,,,,,,,,
,sky,0.9686836004257202,,,,,,,,
,travel,0.9661107659339905,,,,,,,,
,island,0.9489923715591431,,,,,,,,
,fog,0.9467159509658813,,,,,,,,
,seascape,0.9285106062889099,,,,,,,,
,sight,0.9284853935241699,,,,,,,,
,vacation,0.9101616740226746,,,,,,,,
,scenic,0.9082357883453369,,,,,,,,
,hill,0.8933357000350952,,,,,,,,
,tourism,0.8920918703079224,,,,,,,,
,beautiful,0.8886502981185913,,,,,,,,
https://scontent.cdninstagram.com/t51.2885-15/s750x750/sh0.08/e35/13150924_1701613200094606_546868129_n.jpg,illustration,0.9498289823532104,Arts,,,,Arts-s,,,
,art,0.9346849918365479,,,,,,,,
,design,0.933628499507904,,,,,,,,
,paper,0.9299464821815491,,,,,,,,
,symbol,0.9274142980575562,,,,,,,,
,graphic,0.9156879186630249,,,,,,,,
,abstract,0.9038951992988586,,,,,,,,
,love,0.9030876159667969,,,,,,,,
,card,0.8927300572395325,,,,,,,,
,sign,0.8862589597702026,,,,,,,,
,desktop,0.8801350593566895,,,,,,,,
,decoration,0.878200352191925,,,,,,,,
,shape,0.8754727840423584,,,,,,,,
,pattern,0.861470103263855,,,,,,,,
,note,0.8566178679466248,,,,,,,,
,confusion,0.8467280864715576,,,,,,,,
,image,0.8384042978286743,,,,,,,,
,retro,0.836872935295105,,,,,,,,
,element,0.8255667686462402,,,,,,,,
,vector,0.8252835273742676,,,,,,,,
https://scontent.cdninstagram.com/t51.2885-15/s750x750/sh0.08/e35/13413334_128084840945527_144320786_n.jpg,desktop,0.9491924047470093,Environment,Entertainment,,,"Manmade beauty",Entertainment-s,,
,design,0.9272738695144653,,,,,,,,
,art,0.9206355810165405,,,,,,,,
,pattern,0.9170159697532654,,,,,,,,
,"no person",0.8955402374267578,,,,,,,,
,abstract,0.8950368165969849,,,,,,,,
,color,0.8780393004417419,,,,,,,,
,texture,0.8778011798858643,,,,,,,,
,shape,0.8702300786972046,,,,,,,,
,illustration,0.826683521270752,,,,,,,,
,light,0.8209712505340576,,,,,,,,
,dark,0.8141943216323853,,,,,,,,
,decoration,0.8126516342163086,,,,,,,,
,crowd,0.7626700401306152,,,,,,,,
,old,0.7589726448059082,,,,,,,,
,artistic,0.7567951679229736,,,,,,,,
,people,0.7455084323883057,,,,,,,,
,modern,0.741680383682251,,,,,,,,
,graphic,0.7405132055282593,,,,,,,,
,concert,0.7245240211486816,,,,,,,,
https://scontent.cdninstagram.com/t51.2885-15/s750x750/sh0.08/e35/13260802_290624384604129_1626283430_n.jpg,door,0.9911637306213379,"My life",Commerce,,,"Here I am","Product/brand shots",,
,window,0.9541665315628052,,,,,,,,
,entrance,0.9426113963127136,,,,,,,,
,architecture,0.9380538463592529,,,,,,,,
,door,0.9310123920440674,,,,,,,,
,house,0.9147512912750244,,,,,,,,
,wall,0.9078576564788818,,,,,,,,
,"no person",0.9021228551864624,,,,,,,,
,building,0.8862602710723877,,,,,,,,
,people,0.8764185309410095,,,,,,,,
,wood,0.8437392115592957,,,,,,,,
,travel,0.8424193859100342,,,,,,,,
,outdoors,0.8402414321899414,,,,,,,,
,gate,0.83537757396698,,,,,,,,
,desktop,0.8329916000366211,,,,,,,,
,indoors,0.8127855062484741,,,,,,,,
,old,0.8127785921096802,,,,,,,,
,design,0.8063457012176514,,,,,,,,
,business,0.7994329929351807,,,,,,,,
,decoration,0.7990682125091553,,,,,,,,
https://scontent.cdninstagram.com/t51.2885-15/s750x750/sh0.08/e35/13398742_1267876926563621_663162341_n.jpg,vehicle,0.9974931478500366,Relationships,Environment,Travel,Blank,Friends,"Manmade beauty",Travel-s,Photography
,car,0.9968138933181763,,,,,,,,
,road,0.9865071177482605,,,,,,,,
,street,0.9840116500854492,,,,,,,,
,people,0.9764834642410278,,,,,,,,
,driver,0.9595214128494263,,,,,,,,
,traffic,0.9541912078857422,,,,,,,,
,"transportation system",0.9499129056930542,,,,,,,,
,rally,0.944514274597168,,,,,,,,
,city,0.9206184148788452,,,,,,,,
,business,0.9153105020523071,,,,,,,,
,drive,0.9054712057113647,,,,,,,,
,fast,0.8941697478294373,,,,,,,,
,action,0.8868697881698608,,,,,,,,
,exhibition,0.8805935382843018,,,,,,,,
,industry,0.8707849979400635,,,,,,,,
,bus,0.8654475212097168,,,,,,,,
,wheel,0.8542665243148804,,,,,,,,
,shopping,0.842610239982605,,,,,,,,
,race,0.8349584937095642,,,,,,,,
https://scontent.cdninstagram.com/t51.2885-15/s750x750/sh0.08/e35/13320279_494230330772225_1224924334_n.jpg,girl,0.9953311681747437,Travel,Environment,,,Travel-s,"Natural beauty",,
,beach,0.994935154914856,,,,,,,,
,sea,0.9928430318832397,,,,,,,,
,sky,0.9872468709945679,,,,,,,,
,nature,0.9864728450775146,,,,,,,,
,beautiful,0.9846988320350647,,,,,,,,
,portrait,0.981104850769043,,,,,,,,
,ocean,0.975584864616394,,,,,,,,
,summer,0.9752005338668823,,,,,,,,
,sand,0.9742366075515747,,,,,,,,
,woman,0.9737350940704346,,,,,,,,
,desert,0.9602404832839966,,,,,,,,
,travel,0.9593788385391235,,,,,,,,
,model,0.95512855052948,,,,,,,,
,landscape,0.9544411897659302,,,,,,,,
,smile,0.9531861543655396,,,,,,,,
,people,0.9474078416824341,,,,,,,,
,sunset,0.9473351240158081,,,,,,,,
,vacation,0.9380690455436707,,,,,,,,
,sun,0.9368158578872681,,,,,,,,
https://scontent.cdninstagram.com/t51.2885-15/e35/12677396_1680083815577147_564258516_n.jpg,nature,0.994725227355957,Environment,"My life",,,"Natural beauty","My world today",,
,sky,0.9846054315567017,,,,,,,,
,"no person",0.9791253805160522,,,,,,,,
,summer,0.9784911870956421,,,,,,,,
,tree,0.9689183235168457,,,,,,,,
,sun,0.9634170532226562,,,,,,,,
,outdoors,0.9586820602416992,,,,,,,,
,landscape,0.9541422128677368,,,,,,,,
,"fair weather",0.9507565498352051,,,,,,,,
,beach,0.9382939338684082,,,,,,,,
,winter,0.9346158504486084,,,,,,,,
,idyllic,0.9243947267532349,,,,,,,,
,tropical,0.9118146896362305,,,,,,,,
,snow,0.9052505493164062,,,,,,,,
,travel,0.9040533900260925,,,,,,,,
,wood,0.9013789296150208,,,,,,,,
,cloud,0.9003051519393921,,,,,,,,
,sand,0.8921347856521606,,,,,,,,
,Heaven,0.8898903131484985,,,,,,,,
,bright,0.8892322778701782,,,,,,,,
https://scontent.cdninstagram.com/t51.2885-15/s750x750/sh0.08/e35/13129928_1646896195532912_1635310357_n.jpg,dog,0.9877144694328308,"Fashion & Beauty",,,,"Fashion & Beauty-s",,,
,cute,0.9870727062225342,,,,,,,,
,pet,0.9767155647277832,,,,,,,,
,young,0.9724247455596924,,,,,,,,
,puppy,0.9651197195053101,,,,,,,,
,domestic,0.9637298583984375,,,,,,,,
,friendship,0.9622207283973694,,,,,,,,
,woman,0.9616561532020569,,,,,,,,
,portrait,0.9604460597038269,,,,,,,,
,animal,0.9600374698638916,,,,,,,,
,canine,0.9494850635528564,,,,,,,,
,little,0.9440065026283264,,,,,,,,
,studio,0.9404525756835938,,,,,,,,
,adorable,0.9343060255050659,,,,,,,,
,love,0.9340779781341553,,,,,,,,
,beautiful,0.9252785444259644,,,,,,,,
,girl,0.922347903251648,,,,,,,,
,fur,0.9060622453689575,,,,,,,,
,looking,0.8974079489707947,,,,,,,,
,purebred,0.8813572525978088,,,,,,,,
https://scontent.cdninstagram.com/t51.2885-15/s750x750/sh0.08/e35/12918565_1734182613485009_1966990490_n.jpg,food,0.9922589063644409,Food,,,,"Meal time",,,
,lunch,0.9808840155601501,,,,,,,,
,table,0.9798572063446045,,,,,,,,
,"no person",0.9743248820304871,,,,,,,,
,dinner,0.9738298058509827,,,,,,,,
,breakfast,0.9732941389083862,,,,,,,,
,meal,0.9728708267211914,,,,,,,,
,bread,0.9678850769996643,,,,,,,,
,indoors,0.9631045460700989,,,,,,,,
,plate,0.9384066462516785,,,,,,,,
,delicious,0.9322323799133301,,,,,,,,
,cooking,0.9074794054031372,,,,,,,,
,cheese,0.9055630564689636,,,,,,,,
,meat,0.897461473941803,,,,,,,,
,family,0.8969283103942871,,,,,,,,
,dining,0.8965860605239868,,,,,,,,
,dish,0.8920006155967712,,,,,,,,
,salmon,0.8787375688552856,,,,,,,,
,traditional,0.8762920498847961,,,,,,,,
,knife,0.8640841245651245,,,,,,,,
https://scontent.cdninstagram.com/t51.2885-15/e35/13355641_136390306765379_1564873127_n.jpg,people,0.9611536264419556,Relationships,,,,"Best friends",,,
,woman,0.9505865573883057,,,,,,,,
,business,0.9383038282394409,,,,,,,,
,indoors,0.9247994422912598,,,,,,,,
,adult,0.921897828578949,,,,,,,,
,room,0.8976415395736694,,,,,,,,
,education,0.8791186213493347,,,,,,,,
,family,0.8673611283302307,,,,,,,,
,young,0.8429288864135742,,,,,,,,
,portrait,0.8137056827545166,,,,,,,,
,person,0.7989310026168823,,,,,,,,
,food,0.7909003496170044,,,,,,,,
,desktop,0.7820346355438232,,,,,,,,
,happiness,0.7788152098655701,,,,,,,,
,group,0.765572726726532,,,,,,,,
,table,0.7546171545982361,,,,,,,,
,cheerful,0.7534816861152649,,,,,,,,
,one,0.7474770545959473,,,,,,,,
,girl,0.7411161065101624,,,,,,,,
,school,0.7382237911224365,,,,,,,,
https://scontent.cdninstagram.com/t51.2885-15/e35/12501816_1548143558819093_1570857035_n.jpg,illustration,0.9701124429702759,Literature,,,,Literature-s,,,
,"no person",0.9605045318603516,,,,,,,,
,vector,0.943557620048523,,,,,,,,
,business,0.9212777614593506,,,,,,,,
,design,0.9180823564529419,,,,,,,,
,desktop,0.9015357494354248,,,,,,,,
,symbol,0.9003825187683105,,,,,,,,
,technology,0.8579951524734497,,,,,,,,
,image,0.8417782783508301,,,,,,,,
,family,0.8254867792129517,,,,,,,,
,paper,0.8167333602905273,,,,,,,,
,graphic,0.8160571455955505,,,,,,,,
,isolated,0.809904932975769,,,,,,,,
,internet,0.7908450961112976,,,,,,,,
,isolated,0.7876657247543335,,,,,,,,
,modern,0.7570233345031738,,,,,,,,
,display,0.7540298700332642,,,,,,,,
,data,0.7449513673782349,,,,,,,,
,text,0.7279418706893921,,,,,,,,
,contemporary,0.7193727493286133,,,,,,,,
https://scontent.cdninstagram.com/t51.2885-15/e35/11934856_1710028199243904_744901559_n.jpg,chair,0.995327353477478,Environment,,,,"Manmade beauty",,,
,furniture,0.9896065592765808,,,,,,,,
,table,0.9855948090553284,,,,,,,,
,woman,0.9773879051208496,,,,,,,,
,luxury,0.9750361442565918,,,,,,,,
,seat,0.9739626049995422,,,,,,,,
,indoors,0.9642214775085449,,,,,,,,
,sit,0.9637176990509033,,,,,,,,
,patio,0.955186128616333,,,,,,,,
,sofa,0.9512617588043213,,,,,,,,
,adult,0.9511281251907349,,,,,,,,
,people,0.9471639394760132,,,,,,,,
,relaxation,0.9429593682289124,,,,,,,,
,room,0.9298166632652283,,,,,,,,
,lifestyle,0.9209620952606201,,,,,,,,
,young,0.9155175685882568,,,,,,,,
,leisure,0.9105739593505859,,,,,,,,
,hotel,0.9080289602279663,,,,,,,,
,girl,0.895241379737854,,,,,,,,
,tree,0.8829683065414429,,,,,,,,
https://scontent.cdninstagram.com/l/t51.2885-15/s750x750/sh0.08/e35/13249952_1749404335316975_729832589_n.jpg,woman,0.9802741408348083,"Fashion & Beauty",,,,"Fashion & Beauty-s",,,
,fashion,0.9711061716079712,,,,,,,,
,people,0.9551212787628174,,,,,,,,
,girl,0.9533685445785522,,,,,,,,
,young,0.9481797218322754,,,,,,,,
,adult,0.9247190952301025,,,,,,,,
,one,0.9225912094116211,,,,,,,,
,model,0.920867919921875,,,,,,,,
,pretty,0.9050968289375305,,,,,,,,
,portrait,0.9033869504928589,,,,,,,,
,dress,0.9015700817108154,,,,,,,,
,beautiful,0.9012917280197144,,,,,,,,
,sit,0.8991678357124329,,,,,,,,
,attractive,0.8735992312431335,,,,,,,,
,brunette,0.8642759323120117,,,,,,,,
,lifestyle,0.852881669998169,,,,,,,,
,summer,0.8376480937004089,,,,,,,,
,fashionable,0.831941545009613,,,,,,,,
,sexy,0.8280315399169922,,,,,,,,
,person,0.8214105367660522,,,,,,,,
https://scontent.cdninstagram.com/t51.2885-15/s750x750/sh0.08/e35/13248712_270305529984940_1270211495_n.jpg,coffee,0.9926309585571289,Commerce,Food,,,"Product/brand shots","Drinks and snack",,
,food,0.9880911111831665,,,,,,,,
,cup,0.9866255521774292,,,,,,,,
,cake,0.9848635196685791,,,,,,,,
,sweet,0.9797791242599487,,,,,,,,
,cream,0.9743489027023315,,,,,,,,
,milk,0.9725993275642395,,,,,,,,
,chocolate,0.9698883891105652,,,,,,,,
,delicious,0.9636684656143188,,,,,,,,
,sugar,0.961007833480835,,,,,,,,
,breakfast,0.9585203528404236,,,,,,,,
,tea,0.947284460067749,,,,,,,,
,drink,0.9388204216957092,,,,,,,,
,"no person",0.936669111251831,,,,,,,,
,cookie,0.923087477684021,,,,,,,,
,muffin,0.9136843681335449,,,,,,,,
,baking,0.9113731980323792,,,,,,,,
,bakery,0.8838194608688354,,,,,,,,
,pastry,0.878925085067749,,,,,,,,
,candy,0.8773049116134644,,,,,,,,
https://scontent.cdninstagram.com/t51.2885-15/e35/12917972_221001458264965_2018579259_n.jpg,food,0.9923478364944458,Food,,,,"Meal time",,,
,dinner,0.9849043488502502,,,,,,,,
,meal,0.973689079284668,,,,,,,,
,lunch,0.9693950414657593,,,,,,,,
,plate,0.9688916206359863,,,,,,,,
,sauce,0.964000940322876,,,,,,,,
,meat,0.9631394147872925,,,,,,,,
,dish,0.9539145827293396,,,,,,,,
,beef,0.9482412338256836,,,,,,,,
,delicious,0.9349243640899658,,,,,,,,
,vegetable,0.9326733350753784,,,,,,,,
,tomato,0.929919421672821,,,,,,,,
,parsley,0.9154645204544067,,,,,,,,
,"no person",0.9151726961135864,,,,,,,,
,cooking,0.9133551120758057,,,,,,,,
,epicure,0.9022446870803833,,,,,,,,
,nutrition,0.896538257598877,,,,,,,,
,bowl,0.8915234208106995,,,,,,,,
,pepper,0.8747866153717041,,,,,,,,
,seafood,0.8728656768798828,,,,,,,,
https://scontent.cdninstagram.com/t51.2885-15/e35/11931039_769372753194394_1956083139_n.jpg,flora,0.983651876449585,Environment,,,,"Manmade beauty",,,
,leaf,0.9813212156295776,,,,,,,,
,desktop,0.9788651466369629,,,,,,,,
,design,0.9561342597007751,,,,,,,,
,decoration,0.9375511407852173,,,,,,,,
,pattern,0.9359361529350281,,,,,,,,
,abstract,0.9337635040283203,,,,,,,,
,nature,0.9264968633651733,,,,,,,,
,"no person",0.9254151582717896,,,,,,,,
,grass,0.9237476587295532,,,,,,,,
,growth,0.9192407727241516,,,,,,,,
,illustration,0.9057576656341553,,,,,,,,
,flower,0.8996407985687256,,,,,,,,
,texture,0.8960021138191223,,,,,,,,
,garden,0.8940949440002441,,,,,,,,
,"picture frame",0.8748310804367065,,,,,,,,
,graphic,0.8704510927200317,,,,,,,,
,shape,0.8657272458076477,,,,,,,,
,art,0.8535205125808716,,,,,,,,
,color,0.8466648459434509,,,,,,,,
https://scontent.cdninstagram.com/t51.2885-15/e35/12907172_1526626170975673_38375012_n.jpg,architecture,0.9949522018432617,Environment,,,,"Manmade beauty",,,
,building,0.9856693744659424,,,,,,,,
,modern,0.9846704006195068,,,,,,,,
,business,0.9835793972015381,,,,,,,,
,city,0.9833176732063293,,,,,,,,
,apartment,0.9797699451446533,,,,,,,,
,urban,0.971842348575592,,,,,,,,
,real,0.9672167301177979,,,,,,,,
,downtown,0.9651613235473633,,,,,,,,
,sky,0.9590159058570862,,,,,,,,
,office,0.9513462781906128,,,,,,,,
,outdoors,0.9502475261688232,,,,,,,,
,tallest,0.9457162618637085,,,,,,,,
,estate,0.9429931640625,,,,,,,,
,glass,0.9381402730941772,,,,,,,,
,"no person",0.9339209794998169,,,,,,,,
,expression,0.9321355819702148,,,,,,,,
,window,0.9257512092590332,,,,,,,,
,contemporary,0.924981951713562,,,,,,,,
,facade,0.9221386909484863,,,,,,,,
https://scontent.cdninstagram.com/t51.2885-15/e35/12724910_592150604283252_1214814214_n.jpg,window,0.992023766040802,Environment,,,,"Manmade beauty",,,
,luxury,0.9830532073974609,,,,,,,,
,table,0.971489667892456,,,,,,,,
,glass,0.9690715670585632,,,,,,,,
,inside,0.9677438735961914,,,,,,,,
,house,0.9637857675552368,,,,,,,,
,furniture,0.9632763266563416,,,,,,,,
,indoors,0.9623093008995056,,,,,,,,
,chair,0.9566476345062256,,,,,,,,
,"no person",0.9486349821090698,,,,,,,,
,family,0.9364678859710693,,,,,,,,
,architecture,0.9359732866287231,,,,,,,,
,modern,0.9313412308692932,,,,,,,,
,contemporary,0.9304133057594299,,,,,,,,
,room,0.9252771735191345,,,,,,,,
,patio,0.9081565141677856,,,,,,,,
,estate,0.8524414300918579,,,,,,,,
,home,0.8412570953369141,,,,,,,,
,seat,0.8266449570655823,,,,,,,,
,hotel,0.8247082233428955,,,,,,,,
https://scontent.cdninstagram.com/t51.2885-15/s750x750/sh0.08/e35/13408753_245765845793215_1485078170_n.jpg,portrait,0.994062066078186,Relationships,Entertainment,,,"Best friends",Entertainment-s,,
,"facial expression",0.9882147312164307,,,,,,,,
,people,0.9866161942481995,,,,,,,,
,two,0.9857465028762817,,,,,,,,
,togetherness,0.9798448085784912,,,,,,,,
,adult,0.972053050994873,,,,,,,,
,happiness,0.9700950384140015,,,,,,,,
,woman,0.9673065543174744,,,,,,,,
,wear,0.9577028751373291,,,,,,,,
,friendship,0.9524682760238647,,,,,,,,
,love,0.9512433409690857,,,,,,,,
,interaction,0.9493286609649658,,,,,,,,
,girl,0.9333862066268921,,,,,,,,
,affection,0.913917601108551,,,,,,,,
,embrace,0.909771203994751,,,,,,,,
,man,0.9079561233520508,,,,,,,,
,three,0.9026504755020142,,,,,,,,
,actress,0.8613146543502808,,,,,,,,
,festival,0.857869029045105,,,,,,,,
,family,0.8574577569961548,,,,,,,,
https://scontent.cdninstagram.com/t51.2885-15/s750x750/sh0.08/e35/13385652_1729798573946060_2125246293_n.jpg,table,0.9910920858383179,Food,,,,"Meal time",,,
,coffee,0.9872099161148071,,,,,,,,
,window,0.9856866598129272,,,,,,,,
,indoors,0.9849216938018799,,,,,,,,
,breakfast,0.9783903360366821,,,,,,,,
,cup,0.9781042337417603,,,,,,,,
,dining,0.9738637208938599,,,,,,,,
,tableware,0.9708291292190552,,,,,,,,
,family,0.9695190191268921,,,,,,,,
,dawn,0.9676618576049805,,,,,,,,
,inside,0.9497818946838379,,,,,,,,
,tea,0.9436178803443909,,,,,,,,
,drink,0.9237442016601562,,,,,,,,
,room,0.9209891557693481,,,,,,,,
,dishware,0.91300368309021,,,,,,,,
,silverware,0.910868227481842,,,,,,,,
,furniture,0.9022481441497803,,,,,,,,
,kitchenware,0.9005416631698608,,,,,,,,
,glass,0.8988176584243774,,,,,,,,
,hot,0.8981163501739502,,,,,,,,
https://scontent.cdninstagram.com/t51.2885-15/s750x750/sh0.08/e35/13408830_1218769931512499_959592779_n.jpg,business,0.9711003303527832,Environment,Commerce,,,"Manmade beauty","Product/brand shots",,
,people,0.9476884007453918,,,,,,,,
,stock,0.9421157836914062,,,,,,,,
,architecture,0.9283427000045776,,,,,,,,
,entrance,0.9157345294952393,,,,,,,,
,door,0.902050256729126,,,,,,,,
,shop,0.8817964792251587,,,,,,,,
,shopping,0.8761205673217773,,,,,,,,
,city,0.8730658292770386,,,,,,,,
,bar,0.8618484735488892,,,,,,,,
,street,0.8599933385848999,,,,,,,,
,commerce,0.8564260601997375,,,,,,,,
,woman,0.855060338973999,,,,,,,,
,man,0.8494796752929688,,,,,,,,
,indoors,0.846295952796936,,,,,,,,
,finance,0.845913290977478,,,,,,,,
,outdoors,0.8329533338546753,,,,,,,,
,building,0.8289265036582947,,,,,,,,
,exhibition,0.8260998129844666,,,,,,,,
,urban,0.8135236501693726,,,,,,,,
https://scontent.cdninstagram.com/t51.2885-15/e35/13413267_584850441691088_471450266_n.jpg,illustration,0.989896297454834,Literature,Arts,,,Literature-s,Arts-s,,
,art,0.9807851910591125,,,,,,,,
,scribble,0.9577281475067139,,,,,,,,
,sign,0.9538488984107971,,,,,,,,
,art,0.9509810209274292,,,,,,,,
,symbol,0.9483131170272827,,,,,,,,
,simple,0.9295485019683838,,,,,,,,
,text,0.9275540113449097,,,,,,,,
,sketch,0.9237114787101746,,,,,,,,
,character,0.9186705946922302,,,,,,,,
,business,0.91762775182724,,,,,,,,
,funny,0.905427098274231,,,,,,,,
,retro,0.9052424430847168,,,,,,,,
,design,0.893596351146698,,,,,,,,
,"give voice",0.8822988271713257,,,,,,,,
,vector,0.865749716758728,,,,,,,,
,isolated,0.8650485873222351,,,,,,,,
,texture,0.859978437423706,,,,,,,,
,communication,0.8585271835327148,,,,,,,,
,internet,0.8469781875610352,,,,,,,,
https://scontent.cdninstagram.com/t51.2885-15/s750x750/sh0.08/e35/13320301_1048268241915986_983877690_n.jpg,growth,0.9250272512435913,Food,,,,Dessert,,,
,man,0.9117573499679565,,,,,,,,
,people,0.9021079540252686,,,,,,,,
,food,0.8973277807235718,,,,,,,,
,success,0.8944135904312134,,,,,,,,
,one,0.8886716961860657,,,,,,,,
,woman,0.882799506187439,,,,,,,,
,business,0.8798682689666748,,,,,,,,
,family,0.8716371059417725,,,,,,,,
,desktop,0.8600527048110962,,,,,,,,
,glass,0.8598740100860596,,,,,,,,
,hand,0.8431955575942993,,,,,,,,
,flower,0.8421016931533813,,,,,,,,
,glass,0.8331792950630188,,,,,,,,
,vase,0.8314776420593262,,,,,,,,
,indoors,0.8256430625915527,,,,,,,,
,adult,0.8186123967170715,,,,,,,,
,pot,0.7972105741500854,,,,,,,,
,young,0.7838932871818542,,,,,,,,
,conceptual,0.7756532430648804,,,,,,,,
https://scontent.cdninstagram.com/t51.2885-15/s750x750/sh0.08/e35/13413311_269920580029573_792871187_n.jpg,woman,0.9936180114746094,Relationships,,,,Friends,,,
,fashion,0.9745532274246216,,,,,,,,
,young,0.9627737998962402,,,,,,,,
,friendship,0.9574132561683655,,,,,,,,
,group,0.9475802183151245,,,,,,,,
,fun,0.945662260055542,,,,,,,,
,people,0.9446924924850464,,,,,,,,
,portrait,0.9413468837738037,,,,,,,,
,girl,0.9330083131790161,,,,,,,,
,togetherness,0.9285823106765747,,,,,,,,
,adolescent,0.9147366285324097,,,,,,,,
,joy,0.9095291495323181,,,,,,,,
,family,0.9059607982635498,,,,,,,,
,student,0.9055115580558777,,,,,,,,
,love,0.8857653141021729,,,,,,,,
,adult,0.8832786679267883,,,,,,,,
,outdoors,0.8800841569900513,,,,,,,,
,pretty,0.8734821081161499,,,,,,,,
,wear,0.8712445497512817,,,,,,,,
,laughing,0.870567798614502,,,,,,,,
https://scontent.cdninstagram.com/t51.2885-15/s750x750/sh0.08/e35/13380967_926497230793117_392429609_n.jpg,coffee,0.9976268410682678,Food,,,,"Drinks and snack",,,
,cup,0.9887703657150269,,,,,,,,
,espresso,0.9870070219039917,,,,,,,,
,drink,0.9846807718276978,,,,,,,,
,cappuccino,0.9827462434768677,,,,,,,,
,breakfast,0.9783486127853394,,,,,,,,
,dawn,0.9709483981132507,,,,,,,,
,food,0.9690934419631958,,,,,,,,
,hot,0.9601468443870544,,,,,,,,
,caffeine,0.9600331783294678,,,,,,,,
,mug,0.9580886363983154,,,,,,,,
,table,0.952339768409729,,,,,,,,
,desktop,0.9449523091316223,,,,,,,,
,restaurant,0.9149554967880249,,,,,,,,
,cream,0.9082522392272949,,,,,,,,
,saucer,0.90297532081604,,,,,,,,
,foam,0.8968161344528198,,,,,,,,
,sweet,0.8957825899124146,,,,,,,,
,refreshment,0.8932914733886719,,,,,,,,
,modern,0.8743436336517334,,,,,,,,
https://scontent.cdninstagram.com/t51.2885-15/s750x750/sh0.08/e35/13381178_1594663530845703_990963455_n.jpg,people,0.9545775055885315,"Fashion & Beauty",Environment,,,"Fashion & Beauty-s","Manmade beauty",,
,woman,0.949470579624176,,,,,,,,
,fashion,0.9456545114517212,,,,,,,,
,beautiful,0.9365440607070923,,,,,,,,
,portrait,0.9263250231742859,,,,,,,,
,girl,0.9182872772216797,,,,,,,,
,light,0.9172300100326538,,,,,,,,
,winter,0.9170398712158203,,,,,,,,
,gold,0.9101777076721191,,,,,,,,
,business,0.9026511907577515,,,,,,,,
,adult,0.8987431526184082,,,,,,,,
,modern,0.8779740333557129,,,,,,,,
,desktop,0.8669796586036682,,,,,,,,
,bright,0.8430041074752808,,,,,,,,
,one,0.8406764268875122,,,,,,,,
,design,0.8399742841720581,,,,,,,,
,music,0.8363379240036011,,,,,,,,
,style,0.8275953531265259,,,,,,,,
,young,0.8224403262138367,,,,,,,,
,abstract,0.8213127851486206,,,,,,,,
https://scontent.cdninstagram.com/t51.2885-15/s750x750/sh0.08/e35/13423455_1574483562846150_1587316982_n.jpg,bedroom,0.9956932663917542,Travel,,,,Travel-s,,,
,bed,0.9953874349594116,,,,,,,,
,furniture,0.9929838180541992,,,,,,,,
,indoors,0.9906919598579407,,,,,,,,
,pillow,0.9848630428314209,,,,,,,,
,contemporary,0.9838789105415344,,,,,,,,
,lamp,0.9798392653465271,,,,,,,,
,room,0.9784180521965027,,,,,,,,
,window,0.9762604236602783,,,,,,,,
,family,0.9645382165908813,,,,,,,,
,luxury,0.960003137588501,,,,,,,,
,apartment,0.9576612710952759,,,,,,,,
,comfort,0.9471697211265564,,,,,,,,
,headboard,0.9343304634094238,,,,,,,,
,hotel,0.9219381809234619,,,,,,,,
,curtain,0.8973190784454346,,,,,,,,
,double,0.8869145512580872,,,,,,,,
,cushion,0.8824862241744995,,,,,,,,
,"double bed",0.8813743591308594,,,,,,,,
,cozy,0.8718383312225342,,,,,,,,
https://scontent.cdninstagram.com/t51.2885-15/s750x750/sh0.08/e35/13398595_1302140906480742_2145895661_n.jpg,people,0.968481719493866,Environment,,,,"Manmade beauty",,,
,woman,0.949219822883606,,,,,,,,
,fashion,0.904690146446228,,,,,,,,
,girl,0.8989710807800293,,,,,,,,
,fun,0.8951705694198608,,,,,,,,
,man,0.8733132481575012,,,,,,,,
,travel,0.8718705773353577,,,,,,,,
,adult,0.8659507036209106,,,,,,,,
,style,0.8609646558761597,,,,,,,,
,desktop,0.8538671731948853,,,,,,,,
,summer,0.8471450805664062,,,,,,,,
,wear,0.8318458795547485,,,,,,,,
,person,0.8270974159240723,,,,,,,,
,illustration,0.8207611441612244,,,,,,,,
,young,0.8058305978775024,,,,,,,,
,dress,0.8041322231292725,,,,,,,,
,design,0.8017467856407166,,,,,,,,
,outdoors,0.7963110208511353,,,,,,,,
,art,0.7925885915756226,,,,,,,,
,lifestyle,0.7912139892578125,,,,,,,,
https://scontent.cdninstagram.com/t51.2885-15/s750x750/sh0.08/e35/13398875_234015613649606_1406986062_n.jpg,"no person",0.9943076372146606,Literature,Arts,,,Literature-s,Arts-s,,
,"graphic design",0.9768670797348022,,,,,,,,
,business,0.9674765467643738,,,,,,,,
,paper,0.9605464339256287,,,,,,,,
,illustration,0.946179986000061,,,,,,,,
,internet,0.9315948486328125,,,,,,,,
,glazed,0.9142274260520935,,,,,,,,
,isolated,0.9114165902137756,,,,,,,,
,contemporary,0.9103267788887024,,,,,,,,
,bright,0.8928247094154358,,,,,,,,
,conceptual,0.8878244161605835,,,,,,,,
,creativity,0.8876521587371826,,,,,,,,
,merchandise,0.8876365423202515,,,,,,,,
,design,0.8857744336128235,,,,,,,,
,shopping,0.870856523513794,,,,,,,,
,technology,0.8656613826751709,,,,,,,,
,empty,0.8420524001121521,,,,,,,,
,data,0.8370332717895508,,,,,,,,
,shining,0.8363502025604248,,,,,,,,
,futuristic,0.8297449350357056,,,,,,,,
