url,class,score
https://scontent-sit4-1.cdninstagram.com/t51.2885-15/e35/13715205_1133100033413047_2134968628_n.jpg,text,0.9939035177230835
,business,0.9724135398864746
,give voice,0.9644269347190857
,data,0.9641163945198059
,paper,0.9560267329216003
,communication,0.9349390268325806
,education,0.9344522356987
,success,0.9342116117477417
,finance,0.9093747735023499
,language,0.9073663949966431
,accomplishment,0.9016356468200684
,symbol,0.8971537351608276
,desktop,0.8969388604164124
,data,0.8909969925880432
,page,0.8875911235809326
,knowledge,0.8867196440696716
,no person,0.8821941018104553
,letter,0.8789610266685486
,money,0.8779927492141724
,internet,0.8541306853294373
https://scontent-sit4-1.cdninstagram.com/t51.2885-15/e35/13744273_1106756046047496_599824683_n.jpg,music,0.9909922480583191
,performance,0.9810467958450317
,technology,0.9748595952987671
,people,0.9533934593200684
,concert,0.9504337310791016
,musician,0.9454210996627808
,singer,0.9213918447494507
,science,0.9131535291671753
,computer,0.9114452004432678
,stage,0.8881272673606873
,light,0.8618258833885193
,festival,0.8548702001571655
,internet,0.839306652545929
,business,0.8381658792495728
,connection,0.8033086061477661
,band,0.7982020974159241
,energy,0.7699782252311707
,adult,0.7667874693870544
,one,0.7648794651031494
,telephone,0.7211230993270874
https://scontent-sit4-1.cdninstagram.com/t51.2885-15/e35/12917891_1017912531621323_506715813_n.jpg,indoors,0.9925661087036133
,no person,0.9908403158187866
,architecture,0.9785547256469727
,light,0.9716585278511047
,ceiling,0.9592229127883911
,travel,0.9535630941390991
,home,0.9535349607467651
,room,0.948954701423645
,building,0.9480303525924683
,inside,0.9433466196060181
,house,0.9322446584701538
,interior design,0.9276460409164429
,city,0.9135447144508362
,window,0.9122391939163208
,museum,0.910000205039978
,furniture,0.8791936635971069
,people,0.8738193511962891
,daylight,0.8710170984268188
,church,0.8670988082885742
,art,0.8642621040344238
https://scontent-sit4-1.cdninstagram.com/t51.2885-15/e35/13687284_1622104188079734_527683821_n.jpg,food,0.9755000472068787
,no person,0.9750288724899292
,delicious,0.9309828281402588
,health,0.918529212474823
,plate,0.917182207107544
,traditional,0.9159978628158569
,kind,0.9114029407501221
,dish,0.9104629755020142
,rice,0.8869755268096924
,desktop,0.8800148963928223
,cream,0.8799151182174683
,healthy,0.8795837163925171
,set,0.8763262033462524
,collection,0.8681867718696594
,meal,0.8498320579528809
,leaf,0.8477089405059814
,restaurant,0.8363831043243408
,sushi,0.8339550495147705
,sweet,0.8333045244216919
,fruit,0.8269386291503906
https://scontent-sit4-1.cdninstagram.com/t51.2885-15/e35/13118196_1695204114065889_128214783_n.jpg,woman,0.9894172549247742
,fashion,0.9373295903205872
,togetherness,0.9147164225578308
,multicultural,0.9094496965408325
,family,0.9078410267829895
,child,0.8935703039169312
,sit,0.8875800371170044
,adolescent,0.8750921487808228
,pretty,0.861899197101593
,love,0.8399571180343628
,indoors,0.8316526412963867
,cute,0.7881549596786499
,man,0.7698842883110046
,enjoyment,0.7603006362915039
,people,0.7544144988059998
,fun,0.7535891532897949
,wear,0.7387053370475769
,laughing,0.718497633934021
,sitting,0.7013393640518188
,contemporary,0.6934380531311035
https://scontent-sit4-1.cdninstagram.com/t51.2885-15/e35/13549352_1166909783330214_1088417846_n.jpg,no person,0.9980720281600952
,food,0.9868231415748596
,delicious,0.9711918830871582
,refreshment,0.9643279910087585
,unhealthy,0.9522036910057068
,sweet,0.943801999092102
,sugar,0.9329369068145752
,fast,0.9205440282821655
,crisp,0.9160925149917603
,bread,0.9138081669807434
,baking,0.9112930297851562
,homemade,0.9027526378631592
,nutrition,0.9019750356674194
,traditional,0.8964886665344238
,pastry,0.8939282894134521
,breakfast,0.8923341035842896
,crisp,0.8833298683166504
,lunch,0.8818936347961426
,tasty,0.8810433149337769
,isolated,0.8729256391525269
https://scontent-sit4-1.cdninstagram.com/t51.2885-15/sh0.08/e35/p750x750/13394925_1799970023569417_484292307_n.jpg,cup,0.9914711713790894
,coffee,0.9889600276947021
,drink,0.9864010810852051
,hot,0.9758336544036865
,no person,0.9749380350112915
,food,0.9698448181152344
,cream,0.9690764546394348
,foam,0.9684829115867615
,chocolate,0.9671030044555664
,sugar,0.9557041525840759
,espresso,0.9554576873779297
,breakfast,0.953742265701294
,table,0.9509655237197876
,sweet,0.9487048387527466
,cappuccino,0.9483950138092041
,perfume,0.9470665454864502
,dark,0.9405428767204285
,caffeine,0.9342477321624756
,dawn,0.931196928024292
,plate,0.93058180809021
https://scontent-sit4-1.cdninstagram.com/t51.2885-15/e35/13423021_1707501999510649_520066847_n.jpg,food,0.9965105056762695
,no person,0.9932351112365723
,still life,0.9809638261795044
,dairy product,0.979390025138855
,cheese,0.9762165546417236
,rice,0.9741103649139404
,dinner,0.9688442349433899
,slice,0.9672805070877075
,sushi,0.9671047925949097
,lunch,0.9628005027770996
,fish,0.9596337080001831
,knife,0.9552264213562012
,dining,0.9533928632736206
,delicious,0.9511072635650635
,plate,0.9477626085281372
,grow,0.9275359511375427
,traditional,0.8972642421722412
,slice,0.8853405714035034
,milk,0.8842717409133911
,meal,0.8837835788726807
https://scontent-sit4-1.cdninstagram.com/t51.2885-15/e35/13636064_930500937096692_705052540_n.jpg,bright,0.9746455550193787
,design,0.9538597464561462
,technology,0.9481073617935181
,abstract,0.9344303607940674
,light,0.9342682957649231
,no person,0.923913300037384
,light,0.9178241491317749
,illustration,0.9104892015457153
,color,0.9064592123031616
,art,0.9045346975326538
,energy,0.9031546115875244
,round,0.8873010873794556
,shining,0.8741124868392944
,desktop,0.8615615367889404
,graphic,0.8480126857757568
,modern,0.8440018892288208
,line,0.8404860496520996
,lamp,0.8403638601303101
,blur,0.8375937938690186
,power,0.8339425325393677
https://scontent-sit4-1.cdninstagram.com/t51.2885-15/e35/12724636_990177554368906_1837340293_n.jpg,desktop,0.9744105339050293
,no person,0.9627146124839783
,box,0.9540165662765503
,equipment,0.9475008249282837
,isolated,0.9382897019386292
,luxury,0.9360754489898682
,chrome,0.9288120269775391
,gift,0.9127283692359924
,instrument,0.9112202525138855
,technology,0.9038200378417969
,shining,0.9016861915588379
,steel,0.8985591530799866
,money,0.8927760720252991
,wealth,0.885198712348938
,fashion,0.8773863315582275
,closeup,0.8740840554237366
,design,0.873813807964325
,glazed,0.872959554195404
,thread,0.8692675232887268
,vintage,0.8545169830322266
https://scontent-sit4-1.cdninstagram.com/t51.2885-15/e35/13269311_1058250370907321_1189020400_n.jpg,child,0.9964867830276489
,family,0.99031662940979
,togetherness,0.9872106313705444
,people,0.9864203929901123
,two,0.9837859869003296
,fun,0.9824833869934082
,indoors,0.9737062454223633
,love,0.9715895652770996
,woman,0.9710220098495483
,cute,0.9667878150939941
,little,0.9487345218658447
,boy,0.9418016672134399
,portrait,0.9396392107009888
,facial expression,0.9389181137084961
,girl,0.9340759515762329
,affection,0.9266330003738403
,wear,0.913142204284668
,friendship,0.910270094871521
,leisure,0.9070388078689575
,offspring,0.8990245461463928
https://scontent-sit4-1.cdninstagram.com/t51.2885-15/e35/13562127_1604052279892806_335019927_n.jpg,landscape,0.9922651052474976
,water,0.9906220436096191
,sky,0.9867696166038513
,nature,0.9855372905731201
,travel,0.9826875925064087
,island,0.9816640019416809
,tree,0.9793155789375305
,beach,0.9787415266036987
,no person,0.9777060747146606
,seashore,0.9759974479675293
,summer,0.9746350049972534
,sea,0.974114716053009
,ocean,0.9632683992385864
,outdoors,0.9389350414276123
,mountain,0.9338973760604858
,seascape,0.9277544021606445
,tropical,0.9258358478546143
,sun,0.9219421744346619
,daylight,0.9174332618713379
,fair weather,0.9081213474273682
https://scontent-sit4-1.cdninstagram.com/t51.2885-15/e35/12965694_735594983248878_1272933403_n.jpg,footwear,0.9985132813453674
,foot,0.9979368448257446
,shoe,0.9963749051094055
,leather,0.9901139736175537
,fashion,0.9890903234481812
,lace,0.9867674112319946
,wear,0.9853596091270447
,sneakers,0.9851456880569458
,sport,0.9739996194839478
,rubberize,0.9728909134864807
,skate,0.9624730944633484
,shoelace,0.9574073553085327
,couple,0.9501440525054932
,exercise,0.9488933086395264
,choice,0.9372453689575195
,sole,0.9347167015075684
,competition,0.934066653251648
,soccer,0.9059654474258423
,recreation,0.8974018096923828
,skateboard,0.8871777057647705
https://scontent-sit4-1.cdninstagram.com/t51.2885-15/e35/13129188_1697351470534793_2143535539_n.jpg,food,0.9948375225067139
,no person,0.9931522607803345
,sweet,0.9852602481842041
,delicious,0.981178879737854
,sugar,0.9772485494613647
,cake,0.9766695499420166
,plate,0.970313310623169
,chocolate,0.9597954750061035
,candy,0.9466151595115662
,pastry,0.9435122609138489
,homemade,0.9312846660614014
,refreshment,0.9263237714767456
,fruit,0.9198830127716064
,meal,0.908541738986969
,dish,0.9065422415733337
,tasty,0.8972755670547485
,baking,0.8970056772232056
,epicure,0.8889554142951965
,cooking,0.8800191879272461
,slice,0.8683996200561523
https://scontent-sit4-1.cdninstagram.com/t51.2885-15/e35/13741490_567782626737378_663640501_n.jpg,no person,0.9942276477813721
,food,0.9799016714096069
,desktop,0.9324313998222351
,group,0.9175790548324585
,one,0.9034953117370605
,chocolate,0.8990585803985596
,still life,0.8881797790527344
,collection,0.8761184215545654
,fruit,0.872748851776123
,sweet,0.8594417572021484
,delicious,0.8549222946166992
,isolated,0.8542364835739136
,many,0.8523937463760376
,candy,0.8520880937576294
,sugar,0.8485591411590576
,kind,0.8267719745635986
,confection,0.820672869682312
,Christmas,0.8158525228500366
,traditional,0.7927249073982239
,grow,0.7862071990966797
https://scontent-sit4-1.cdninstagram.com/t51.2885-15/e35/13381333_532821343594879_191363855_n.jpg,woman,0.9960158467292786
,people,0.982169508934021
,portrait,0.9798156023025513
,adult,0.9691002368927002
,indoors,0.9457573890686035
,happiness,0.9383622407913208
,multicultural,0.9311208128929138
,friendship,0.9257861375808716
,beautiful,0.9087499380111694
,young,0.907832145690918
,girl,0.9064836502075195
,cheerful,0.9016389846801758
,facial expression,0.901543140411377
,pretty,0.8877210021018982
,recreation,0.8874617218971252
,energy,0.8795697689056396
,lifestyle,0.8753185272216797
,adolescent,0.8606749773025513
,enjoyment,0.8600814342498779
,outdoors,0.8572455644607544
https://scontent-sit4-1.cdninstagram.com/t51.2885-15/e35/12976555_1138355232888902_7116352_n.jpg,display,0.9681047201156616
,screen,0.9606565237045288
,time,0.9572262763977051
,business,0.9563345909118652
,computer,0.9423670172691345
,data,0.932220458984375
,calendar,0.9203253388404846
,money,0.9128078818321228
,technology,0.9102067947387695
,date,0.9094268083572388
,commerce,0.9017678499221802
,text,0.9004974961280823
,data,0.8619873523712158
,finance,0.8565808534622192
,schedule,0.8511127233505249
,number,0.8441805839538574
,monitor,0.841140627861023
,no person,0.8352805376052856
,preparation,0.8246378898620605
,reminder,0.823996901512146
https://scontent-sit4-1.cdninstagram.com/t51.2885-15/e35/12934901_1687390008180740_207111659_n.jpg,food,0.9961336851119995
,dinner,0.9818291664123535
,meal,0.9799147844314575
,lunch,0.9717996716499329
,delicious,0.9649113416671753
,plate,0.9614084959030151
,no person,0.9558967351913452
,vegetable,0.9520896077156067
,seafood,0.9509488344192505
,fish,0.9509254097938538
,meat,0.95026695728302
,dish,0.9454513788223267
,cooking,0.932955801486969
,nutrition,0.9233867526054382
,cuisine,0.9223142862319946
,epicure,0.9217737913131714
,restaurant,0.9150378108024597
,lemon,0.9051243662834167
,sauce,0.8957962393760681
,hot,0.8813374042510986
https://scontent-sit4-1.cdninstagram.com/t51.2885-15/e35/12960160_164397823954521_1558966702_n.jpg,pizza,0.9999723434448242
,cheese,0.9994858503341675
,dough,0.9992814064025879
,mozzarella,0.9990624189376831
,crust,0.9980016350746155
,food,0.9974401593208313
,pepperoni,0.9950788021087646
,sauce,0.9924888610839844
,tomato,0.9921326637268066
,lunch,0.9906872510910034
,meal,0.990479052066803
,dinner,0.9866824150085449
,fast,0.9837732315063477
,pie,0.9825426340103149
,slice,0.9816703200340271
,restaurant,0.9813649654388428
,no person,0.9779422283172607
,ham,0.9778321981430054
,refreshment,0.9735580682754517
,tasty,0.9727841019630432
https://scontent-sit4-1.cdninstagram.com/t51.2885-15/e35/13437269_880448322063676_481648903_n.jpg,woman,0.9905165433883667
,togetherness,0.9790528416633606
,indoors,0.9672199487686157
,man,0.9492099285125732
,adolescent,0.9290148019790649
,education,0.9260575771331787
,multicultural,0.9231822490692139
,adult,0.9204642176628113
,people,0.9097476005554199
,enjoyment,0.9083532094955444
,friendship,0.9018322229385376
,wear,0.9007424116134644
,recreation,0.8979594707489014
,group,0.8881160616874695
,facial expression,0.8810977935791016
,teamwork,0.8731646537780762
,laughing,0.8620254397392273
,student,0.8589584827423096
,university,0.8552809953689575
,family,0.8138604760169983
https://scontent-sit4-1.cdninstagram.com/t51.2885-15/e35/10903202_1730788407140132_118321604_n.jpg,food,0.9859218597412109
,no person,0.9777247905731201
,soup,0.9551962018013
,cooking,0.9506282806396484
,hot,0.9396232962608337
,traditional,0.9363924264907837
,pot,0.9348834753036499
,dinner,0.9346417188644409
,meal,0.9341014623641968
,vegetable,0.9311790466308594
,healthy,0.9104374647140503
,bowl,0.9102426767349243
,restaurant,0.9090985059738159
,table,0.9051511287689209
,dish,0.9026448726654053
,cuisine,0.8817522525787354
,delicious,0.8789012432098389
,desktop,0.8698658347129822
,pan,0.8637185096740723
,plate,0.8599134087562561
https://scontent-sit4-1.cdninstagram.com/t51.2885-15/e35/13744160_294703074214535_82954382_n.jpg,food,0.9952229261398315
,dinner,0.9909207820892334
,meal,0.9898990392684937
,no person,0.9898150563240051
,skewer,0.9883239269256592
,meat,0.987470269203186
,plate,0.9820631742477417
,lunch,0.9819456338882446
,dish,0.9706504940986633
,chicken,0.9663206338882446
,delicious,0.9571083188056946
,restaurant,0.9566468000411987
,grow,0.9515923261642456
,dining,0.9434359073638916
,tableware,0.9410844445228577
,cuisine,0.939926266670227
,rice,0.9385188817977905
,traditional,0.9368804693222046
,sauce,0.9343466758728027
,vegetable,0.9339823722839355
https://scontent-sit4-1.cdninstagram.com/t51.2885-15/e35/13573365_995406177223963_2123264410_n.jpg,recreation,0.9727771282196045
,woman,0.9717057943344116
,man,0.9573912620544434
,school,0.9487652778625488
,education,0.9466086626052856
,child,0.9441806077957153
,people,0.9396567344665527
,adolescent,0.9320840239524841
,student,0.9310256242752075
,indoors,0.9120121002197266
,group,0.892285943031311
,togetherness,0.8834697604179382
,teamwork,0.8828023076057434
,competition,0.8810044527053833
,friendship,0.875032901763916
,adult,0.8613684177398682
,young,0.8611990213394165
,fun,0.851692795753479
,university,0.8465536832809448
,multicultural,0.8361483812332153
https://scontent-sit4-1.cdninstagram.com/t51.2885-15/e35/12917795_707151366091260_897441500_n.jpg,drink,0.996478259563446
,glass,0.994301438331604
,cold,0.9890611171722412
,ice,0.9849158525466919
,juice,0.9777544736862183
,milk,0.9756754636764526
,food,0.9749329686164856
,no person,0.9743407964706421
,fruit,0.966666579246521
,cocktail,0.96399986743927
,yogurt,0.9511019587516785
,sweet,0.9472789764404297
,strawberry,0.9369133114814758
,summer,0.9359450340270996
,smoothie,0.9345123767852783
,health,0.933061420917511
,party,0.9163472652435303
,cream,0.9159213304519653
,cool,0.910202145576477
,delicious,0.9071145057678223
https://scontent-sit4-1.cdninstagram.com/t51.2885-15/e35/13437313_1633638903622835_1691750865_n.jpg,food,0.9858365654945374
,fruit,0.9858096837997437
,glass,0.9774434566497803
,healthy,0.9759234189987183
,sweet,0.9731838703155518
,no person,0.9706195592880249
,refreshment,0.9604382514953613
,homemade,0.9593097567558289
,health,0.9351469278335571
,traditional,0.9324121475219727
,closeup,0.9255199432373047
,desktop,0.918667197227478
,bowl,0.8983701467514038
,freshness,0.895275354385376
,gelatin,0.8927564024925232
,epicure,0.8843765258789062
,delicious,0.8760983943939209
,sugar,0.87173992395401
,jar,0.8683199882507324
,breakfast,0.8584551811218262
https://scontent-sit4-1.cdninstagram.com/t51.2885-15/e35/12918649_1701881186760311_989589918_n.jpg,food,0.9874029159545898
,dinner,0.9739080667495728
,lunch,0.963447093963623
,no person,0.9580200910568237
,delicious,0.9515352249145508
,vegetable,0.951350212097168
,meal,0.9487372636795044
,dish,0.9438803195953369
,healthy,0.9373289346694946
,plate,0.934427797794342
,cooking,0.9329192638397217
,bowl,0.9277999401092529
,health,0.92041015625
,traditional,0.917770504951477
,rice,0.9145452380180359
,cuisine,0.9053010940551758
,nutrition,0.903305172920227
,pepper,0.8992748260498047
,epicure,0.8902828097343445
,hot,0.8862894773483276
https://scontent-sit4-1.cdninstagram.com/t51.2885-15/e35/13597725_346841135646828_2008765166_n.jpg,sport,0.9714198112487793
,isolated,0.9514727592468262
,competition,0.9316776990890503
,leather,0.9220950603485107
,equipment,0.9189915657043457
,exercise,0.8893579244613647
,man,0.8823747038841248
,no person,0.8761966824531555
,wear,0.8545922040939331
,race,0.8497673273086548
,illustration,0.8479533195495605
,technology,0.8474304676055908
,business,0.8385053873062134
,desktop,0.8374181985855103
,recreation,0.835279107093811
,fashion,0.8351622819900513
,one,0.8175435066223145
,modern,0.8142462968826294
,hurry,0.8130170106887817
,safety,0.8070710301399231
https://scontent-sit4-1.cdninstagram.com/t51.2885-15/e35/13414403_252865591754494_1125124025_n.jpg,child,0.9985898733139038
,people,0.9825667142868042
,woman,0.9777666926383972
,group,0.969428539276123
,family,0.9623139500617981
,enjoyment,0.9606561064720154
,togetherness,0.955372154712677
,outdoors,0.9532222747802734
,recreation,0.9508688449859619
,fun,0.9492478370666504
,girl,0.9209752082824707
,education,0.9207818508148193
,leisure,0.9153863191604614
,friendship,0.9121702909469604
,offspring,0.9080148935317993
,three,0.9058015942573547
,facial expression,0.8953949213027954
,wear,0.8936126232147217
,sibling,0.8912890553474426
,school,0.8852201700210571
https://scontent-sit4-1.cdninstagram.com/t51.2885-15/e35/13398800_870050519790618_1213774178_n.jpg,water,0.997931718826294
,no person,0.9833463430404663
,travel,0.9802543520927429
,tropical,0.979110836982727
,nature,0.9767343401908875
,summer,0.9657764434814453
,sky,0.9475152492523193
,island,0.9374239444732666
,landscape,0.9327030181884766
,beach,0.9260210990905762
,outdoors,0.9119625091552734
,idyllic,0.9111051559448242
,exotic,0.9078002572059631
,tree,0.9023070335388184
,swimming,0.8985156416893005
,fair weather,0.8981644511222839
,sun,0.8949986696243286
,sea,0.8899209499359131
,ocean,0.884768009185791
,relaxation,0.8812023401260376
https://scontent-sit4-1.cdninstagram.com/t51.2885-15/e35/12917987_525056151015080_291886089_n.jpg,food,0.9948272705078125
,salad,0.9945273399353027
,healthy,0.9891884326934814
,vegetable,0.9877985715866089
,meal,0.9869217872619629
,plate,0.9834227561950684
,diet,0.9769740700721741
,cuisine,0.9765528440475464
,lunch,0.9732863903045654
,closeup,0.9727870225906372
,delicious,0.9716759920120239
,dinner,0.9698918461799622
,dish,0.9666380882263184
,epicure,0.9648034572601318
,appetizer,0.9565473198890686
,nutrition,0.9542416334152222
,lettuce,0.9494088292121887
,tomato,0.9434797763824463
,oil,0.9401583075523376
,cooking,0.938482940196991
https://scontent-sit4-1.cdninstagram.com/t51.2885-15/e35/13707175_1643595295954026_1466887369_n.jpg,woman,0.9955498576164246
,togetherness,0.9919281005859375
,indoors,0.9793336987495422
,people,0.9760464429855347
,two,0.9718797206878662
,facial expression,0.9707803726196289
,man,0.9704334735870361
,enjoyment,0.9671830534934998
,love,0.9443703889846802
,happiness,0.9401460886001587
,laughing,0.9399082660675049
,adolescent,0.9365302324295044
,fun,0.926602840423584
,friendship,0.9235632419586182
,joy,0.9211916327476501
,interaction,0.9092855453491211
,wear,0.9010580778121948
,adult,0.9006145000457764
,affection,0.8995742201805115
,family,0.8699002265930176
https://scontent-sit4-1.cdninstagram.com/t51.2885-15/e35/13355439_1720478258227196_1994779565_n.jpg,no person,0.994733452796936
,glass,0.9898953437805176
,drink,0.9787276983261108
,water,0.9681042432785034
,cold,0.9625301361083984
,ice,0.9490271210670471
,cool,0.9280449151992798
,contemporary,0.9130843877792358
,wet,0.9066647291183472
,reflection,0.9057648777961731
,container,0.8939511775970459
,one,0.8854641914367676
,indoors,0.8814815878868103
,action,0.8655893206596375
,thirst,0.8545268774032593
,vertical,0.8523834943771362
,liquor,0.8508866429328918
,full,0.8205210566520691
,liquid,0.8175814151763916
,empty,0.8147254586219788
https://scontent-sit4-1.cdninstagram.com/t51.2885-15/e35/10903279_588926717931117_1795428326_n.jpg,food,0.9941550493240356
,dinner,0.9929801225662231
,meal,0.9849172830581665
,lunch,0.9816311001777649
,delicious,0.9789623022079468
,meat,0.9779142737388611
,plate,0.9740493893623352
,restaurant,0.9732308387756348
,epicure,0.9719569683074951
,cuisine,0.9703259468078613
,dish,0.9699488878250122
,cooking,0.9614766836166382
,seafood,0.9612650275230408
,sauce,0.956684947013855
,lobster,0.9463252425193787
,vegetable,0.9449046850204468
,shellfish,0.9388067722320557
,tasty,0.9385061264038086
,nutrition,0.9285886287689209
,no person,0.9271849393844604
https://scontent-sit4-1.cdninstagram.com/t51.2885-15/e35/13744088_1805104079721633_135031492_n.jpg,pizza,0.9854907989501953
,no person,0.9818918704986572
,food,0.9814264178276062
,lunch,0.9768130779266357
,dinner,0.9762006402015686
,delicious,0.9751214981079102
,cheese,0.9705272912979126
,meal,0.958317756652832
,vegetable,0.9569519758224487
,ingredients,0.9541552662849426
,nutrition,0.9496797323226929
,meat,0.9458080530166626
,tomato,0.9371243715286255
,cooking,0.9200098514556885
,ham,0.9102182388305664
,sauce,0.9077736139297485
,slice,0.9073380827903748
,pepper,0.8876925706863403
,traditional,0.8875582218170166
,pepperoni,0.8858046531677246
https://scontent-sit4-1.cdninstagram.com/t51.2885-15/e35/13117807_1024852034262425_1343899624_n.jpg,food,0.9928237795829773
,vegetable,0.975471019744873
,dinner,0.966765284538269
,pepper,0.9649622440338135
,no person,0.96183842420578
,meal,0.9571245908737183
,cooking,0.9508700370788574
,healthy,0.949711799621582
,delicious,0.9490649700164795
,lunch,0.9414101243019104
,cuisine,0.9385963678359985
,chili,0.9350558519363403
,diet,0.9313931465148926
,epicure,0.9312556982040405
,dish,0.9303953647613525
,nutrition,0.9225857257843018
,spice,0.9204308390617371
,closeup,0.9173955917358398
,tasty,0.9044589400291443
,onion,0.8989166021347046
https://scontent-sit4-1.cdninstagram.com/t51.2885-15/e35/12940964_1690209157926021_592469169_n.jpg,wear,0.9940935373306274
,shirt,0.992894172668457
,cotton,0.9875686764717102
,garment,0.9846832752227783
,fashion,0.9824724793434143
,apparel,0.9793773293495178
,casual,0.9786596894264221
,stock,0.9697341918945312
,no person,0.9662089347839355
,laundry,0.9634640216827393
,shopping,0.9634138345718384
,shop,0.9554396867752075
,business,0.9512308835983276
,jacket,0.9368603825569153
,boutique,0.9346274137496948
,sale,0.9345962405204773
,pants,0.9329052567481995
,sleeve,0.9305319786071777
,dress,0.9298150539398193
,isolated,0.9277944564819336
https://scontent-sit4-1.cdninstagram.com/t51.2885-15/e35/13277557_147053945700075_1621270258_n.jpg,glass,0.9894381761550903
,drink,0.9890243411064148
,no person,0.9803589582443237
,cold,0.9676909446716309
,alcohol,0.9597095251083374
,bottle,0.9558150172233582
,sparkling,0.9524500370025635
,tropical,0.9518522024154663
,food,0.9483335018157959
,party,0.9431710243225098
,liquid,0.9279534816741943
,water,0.9141443371772766
,summer,0.9077542424201965
,beer,0.9046710133552551
,wine,0.9000970125198364
,health,0.898659884929657
,ice,0.8861740231513977
,juice,0.8833533525466919
,champagne,0.8811932802200317
,cool,0.8728282451629639
https://scontent-sit4-1.cdninstagram.com/t51.2885-15/e35/13707188_1351843628176871_1896324257_n.jpg,people,0.9753127098083496
,fun,0.9594451189041138
,festival,0.9386488199234009
,street,0.9291483163833618
,city,0.9240823984146118
,woman,0.9234356880187988
,group,0.9150642156600952
,recreation,0.8969331383705139
,friendship,0.892088770866394
,outdoors,0.8915685415267944
,travel,0.881844162940979
,group,0.8709318041801453
,enjoyment,0.863764762878418
,vacation,0.8583810329437256
,tourist,0.8417141437530518
,leisure,0.8393296599388123
,crowd,0.8373595476150513
,music,0.8357492685317993
,wear,0.826640248298645
,many,0.8175680041313171
https://scontent-sit4-1.cdninstagram.com/t51.2885-15/e35/12750142_483368358514674_1905472466_n.jpg,food,0.9922692179679871
,no person,0.9914549589157104
,breakfast,0.9657713174819946
,plate,0.9610308408737183
,bread,0.9587571620941162
,delicious,0.9560971260070801
,grow,0.9509438276290894
,lunch,0.9392673969268799
,dinner,0.9309338331222534
,dish,0.929397463798523
,egg,0.9268282055854797
,coffee,0.9252723455429077
,meal,0.92337965965271
,milk,0.9209768772125244
,still life,0.9205690622329712
,cooking,0.9158437252044678
,dairy product,0.912024736404419
,knife,0.911933183670044
,traditional,0.9095234870910645
,hot,0.9079054594039917
https://scontent-sit4-1.cdninstagram.com/t51.2885-15/e35/12940188_221702834854039_1525471026_n.jpg,no person,0.9939447045326233
,food,0.9656779766082764
,delicious,0.9600192308425903
,cup,0.9538439512252808
,chocolate,0.9469704627990723
,cream,0.9301078915596008
,drink,0.924923300743103
,homemade,0.923153281211853
,hot,0.9229998588562012
,grow,0.9224823713302612
,sugar,0.9174035787582397
,indoors,0.916702389717102
,tea,0.9155856370925903
,traditional,0.9097306728363037
,health,0.9091122150421143
,sweet,0.896249532699585
,tableware,0.8961214423179626
,breakfast,0.8849919438362122
,glass,0.8833081722259521
,spoon,0.8822922110557556
https://scontent-sit4-1.cdninstagram.com/t51.2885-15/e35/13414389_1029177423843212_1537688626_n.jpg,foot,0.9997197985649109
,shoe,0.9994590282440186
,footwear,0.9953304529190063
,fashion,0.992419958114624
,girl,0.9915243983268738
,recreation,0.9914064407348633
,sneakers,0.987048327922821
,exercise,0.9868288040161133
,fitness,0.9839688539505005
,sport,0.9829168319702148
,child,0.9813763499259949
,summer,0.9736582040786743
,walk,0.9676178693771362
,couple,0.9671703577041626
,people,0.9639771580696106
,active,0.9607806205749512
,sandal,0.9597835540771484
,leisure,0.956240177154541
,woman,0.9540688395500183
,lifestyle,0.9490355253219604
https://scontent-sit4-1.cdninstagram.com/t51.2885-15/e35/11373802_1791267357760901_1173196636_n.jpg,food,0.9929639101028442
,delicious,0.9862316846847534
,rice,0.9754367470741272
,lunch,0.9698737263679504
,dinner,0.9654099941253662
,traditional,0.958153486251831
,no person,0.9570285677909851
,meal,0.9534575939178467
,breakfast,0.9490821957588196
,plate,0.9425566792488098
,hot,0.9418480396270752
,dish,0.9381595849990845
,vegetable,0.9365861415863037
,epicure,0.9351688623428345
,cooking,0.9315708875656128
,cuisine,0.9284635782241821
,nutrition,0.9197379350662231
,restaurant,0.9084287285804749
,egg,0.867132306098938
,bowl,0.8650621771812439
https://scontent-sit4-1.cdninstagram.com/t51.2885-15/e35/13402402_1589104501419827_2076113410_n.jpg,food,0.9931225776672363
,no person,0.987481951713562
,bowl,0.9564874172210693
,cooking,0.9442245364189148
,meal,0.9419328570365906
,dinner,0.919689416885376
,meat,0.9116736650466919
,dish,0.9054266214370728
,lunch,0.9034913778305054
,cuisine,0.89054274559021
,plate,0.8863950371742249
,delicious,0.8856778144836426
,homemade,0.8766831159591675
,vegetable,0.8726873397827148
,nutrition,0.8593497276306152
,hot,0.8578777313232422
,fish,0.8488854169845581
,grow,0.834598183631897
,seafood,0.8248193264007568
,rustic,0.8173316717147827
https://scontent-sit4-1.cdninstagram.com/t51.2885-15/e35/13108670_548713598634386_236631842_n.jpg,food,0.9871736764907837
,dinner,0.970392644405365
,cooking,0.9648184180259705
,traditional,0.9617944955825806
,meal,0.9554191827774048
,cuisine,0.9522665739059448
,vegetable,0.9461061954498291
,soup,0.9389488697052002
,no person,0.9334575533866882
,lunch,0.9289728403091431
,bowl,0.9260581135749817
,dish,0.9259058833122253
,healthy,0.9247273206710815
,corn,0.918298602104187
,spoon,0.9164741039276123
,homemade,0.9067066311836243
,delicious,0.905573844909668
,epicure,0.9007830619812012
,hot,0.9002362489700317
,restaurant,0.8989952802658081
https://scontent-sit4-1.cdninstagram.com/t51.2885-15/e35/13277639_1146769922032756_614221531_n.jpg,meat,0.9982147216796875
,food,0.9973810315132141
,dinner,0.99721360206604
,poultry,0.9925350546836853
,chicken,0.9923872947692871
,barbecue,0.991331934928894
,lunch,0.9910180568695068
,no person,0.9898213148117065
,meal,0.9892870187759399
,cooking,0.9851626753807068
,delicious,0.9836110472679138
,knuckle,0.9829546213150024
,pork,0.9817864894866943
,cuisine,0.9815930128097534
,restaurant,0.9777387976646423
,plate,0.9773301482200623
,Thanksgiving,0.9769610166549683
,hot,0.9744446277618408
,sauce,0.9740521311759949
,dish,0.9696679711341858
https://scontent-sit4-1.cdninstagram.com/t51.2885-15/e35/13099096_234729226887552_1213963503_n.jpg,wear,0.9969794154167175
,fashion,0.9960399866104126
,garment,0.995581865310669
,apparel,0.992178201675415
,dress,0.991132378578186
,shirt,0.9900427460670471
,jacket,0.9844032526016235
,boutique,0.9833276271820068
,cotton,0.9830583333969116
,casual,0.9807379841804504
,shopping,0.9797423481941223
,textile,0.977212131023407
,wardrobe,0.9739183187484741
,shop,0.9651017189025879
,style,0.9567921161651611
,pants,0.9543559551239014
,vest,0.9440772533416748
,desktop,0.9398748874664307
,color,0.932553768157959
,sleeve,0.9286775588989258
https://scontent-sit4-1.cdninstagram.com/t51.2885-15/e35/13584055_654016104753389_465642984_n.jpg,woman,0.9859163761138916
,friendship,0.964668333530426
,portrait,0.9537123441696167
,people,0.948458194732666
,girl,0.9456686973571777
,togetherness,0.923653781414032
,adolescent,0.9113354086875916
,group,0.9093927145004272
,student,0.9053071141242981
,fun,0.8946918249130249
,child,0.8734698295593262
,laughing,0.8661231994628906
,multicultural,0.8659043908119202
,fashion,0.8384950160980225
,smile,0.8376210927963257
,indoors,0.8363230228424072
,lifestyle,0.8211849927902222
,joy,0.8014327883720398
,four,0.7983145117759705
,model,0.7919487953186035
https://scontent-sit4-1.cdninstagram.com/t51.2885-15/e35/13551707_1730496233834904_348136812_n.jpg,industry,0.9919123649597168
,technology,0.9704760313034058
,no person,0.9563621282577515
,repair,0.9378064274787903
,business,0.9376921057701111
,equipment,0.9219051599502563
,grinder,0.9178261756896973
,machine,0.9079029560089111
,computer,0.8875058889389038
,production,0.881485104560852
,power,0.8808969259262085
,tool,0.8789125680923462
,machinery,0.8403003811836243
,retro,0.8307938575744629
,science,0.829673707485199
,display,0.8250927925109863
,precision,0.8098613023757935
,sewing,0.7932404279708862
,instrument,0.7870634198188782
,craft,0.7822952270507812
