url,class,score
https://scontent.cdninstagram.com/t51.2885-15/e35/13398600_502804953252841_1630113885_n.jpg,chocolate,0.9959959983825684
,no person,0.9941377639770508
,cream,0.98194420337677
,food,0.9807230234146118
,sweet,0.9792978763580322
,sugar,0.9781805276870728
,indulgence,0.9618315100669861
,milk,0.9499531984329224
,cake,0.9478855729103088
,delicious,0.9447805285453796
,coffee,0.9415014386177063
,candy,0.9404059648513794
,dark,0.9241613149642944
,drink,0.923790693283081
,table,0.9075632095336914
,wood,0.8910578489303589
,indoors,0.8803490400314331
,cup,0.8698365688323975
,luxury,0.86350417137146
,creamy,0.8606595993041992
https://scontent.cdninstagram.com/t51.2885-15/e35/13381164_487892038083245_2081018387_n.jpg,people,0.9871178865432739
,one,0.9576430320739746
,wear,0.9524968862533569
,festival,0.9066576957702637
,no person,0.9028760194778442
,road,0.9012373685836792
,man,0.9007553458213806
,street,0.9007043838500977
,adult,0.8988461494445801
,religion,0.8870165944099426
,business,0.8795955181121826
,food,0.8729876279830933
,industry,0.8649148941040039
,vehicle,0.8595581650733948
,woman,0.8530810475349426
,city,0.8524062633514404
,shopping,0.8478108644485474
,ceremony,0.8422244787216187
,many,0.8232613801956177
,travel,0.8087295293807983
https://scontent.cdninstagram.com/t51.2885-15/e35/13395104_297947570545039_1645758486_n.jpg,group,0.9937049746513367
,facial expression,0.988871693611145
,daylight,0.979710042476654
,group,0.9775535464286804
,friendship,0.9764452576637268
,four,0.9726698398590088
,togetherness,0.9725127220153809
,portrait,0.9687250852584839
,child,0.9680579304695129
,happiness,0.9657316207885742
,people,0.9651554822921753
,enjoyment,0.9604322910308838
,three,0.9583016633987427
,woman,0.9499539732933044
,outdoors,0.9495118856430054
,man,0.9462897777557373
,five,0.9203258752822876
,landscape,0.9194630980491638
,fun,0.9185662269592285
,recreation,0.9154447913169861
https://scontent.cdninstagram.com/t51.2885-15/e35/13414384_1753156911567852_1826927733_n.jpg,child,0.9996026754379272
,fun,0.9875208139419556
,family,0.9860119819641113
,cute,0.9773007035255432
,elementary school,0.9643763303756714
,woman,0.9567984342575073
,little,0.9548013210296631
,student,0.9533687233924866
,multicultural,0.9528356790542603
,enjoyment,0.9498051404953003
,indoors,0.9493668079376221
,friendship,0.9431067705154419
,girl,0.94089674949646
,laughing,0.9399241209030151
,togetherness,0.9365509748458862
,people,0.9301173686981201
,joy,0.9239170551300049
,group,0.9220138788223267
,education,0.914779782295227
,three,0.9095653891563416
https://scontent.cdninstagram.com/t51.2885-15/s640x640/sh0.08/e35/13267426_507369146125913_1685626270_n.jpg,food,0.9949531555175781
,dinner,0.9704225063323975
,delicious,0.9627809524536133
,no person,0.9595982432365417
,meat,0.9553179740905762
,meal,0.9540841579437256
,cuisine,0.9476155638694763
,dish,0.9374724626541138
,traditional,0.9332122802734375
,tasty,0.9321826696395874
,beef,0.9319353103637695
,nutrition,0.9306222200393677
,sauce,0.9303637742996216
,desktop,0.9294679164886475
,epicure,0.9276193380355835
,plate,0.9206051826477051
,lunch,0.920295000076294
,hot,0.916955828666687
,cooking,0.9166882634162903
,restaurant,0.9160484075546265
https://scontent.cdninstagram.com/t51.2885-15/e15/p640x640/13402685_1742751059306158_506593092_n.jpg,child,0.9802922010421753
,woman,0.972643256187439
,people,0.9694180488586426
,cute,0.960110068321228
,portrait,0.9554992318153381
,girl,0.951615571975708
,one,0.9236791729927063
,fun,0.9113092422485352
,young,0.9098714590072632
,face,0.9090868234634399
,pretty,0.8893587589263916
,fashion,0.8780927658081055
,adult,0.8736885786056519
,happiness,0.8531879782676697
,hair,0.851650595664978
,eye,0.8380593061447144
,adolescent,0.8351194858551025
,boy,0.8148466348648071
,funny,0.8115586042404175
,little,0.8113635182380676
https://scontent.cdninstagram.com/t51.2885-15/e35/13398837_1215041898515428_1748764933_n.jpg,woman,0.9790824055671692
,man,0.9708083868026733
,togetherness,0.9687809944152832
,outdoors,0.9578852653503418
,people,0.9504938721656799
,happiness,0.9503065347671509
,family,0.9455302953720093
,adult,0.9369571208953857
,love,0.933300256729126
,portrait,0.9275082349777222
,facial expression,0.9255180358886719
,enjoyment,0.9244934320449829
,group,0.9222947359085083
,two,0.9188644289970398
,affection,0.8987513780593872
,wear,0.8919024467468262
,daylight,0.8600193858146667
,friendship,0.8434958457946777
,three,0.8318306803703308
,offspring,0.82576584815979
https://scontent.cdninstagram.com/t51.2885-15/e35/13402270_1733474513607054_729439978_n.jpg,portrait,0.9827783703804016
,group,0.9794468879699707
,child,0.973076343536377
,group,0.9716815948486328
,people,0.9486889839172363
,friendship,0.9400307536125183
,facial expression,0.9310982823371887
,laughing,0.9179388284683228
,woman,0.902299702167511
,fun,0.897642970085144
,man,0.889196515083313
,youth,0.8828217387199402
,adult,0.8791135549545288
,happiness,0.8764390349388123
,school,0.8747448921203613
,outdoors,0.8670533299446106
,togetherness,0.8614588975906372
,four,0.856635570526123
,university,0.8510701060295105
,many,0.8467646837234497
https://scontent.cdninstagram.com/t51.2885-15/sh0.08/e35/p750x750/13413257_665963290220833_1680211319_n.jpg,water,0.9940295815467834
,watercraft,0.9853712320327759
,travel,0.9802621603012085
,no person,0.9795841574668884
,vehicle,0.964486300945282
,sky,0.9571974277496338
,ship,0.9514234662055969
,transportation system,0.9490762948989868
,sea,0.9428262710571289
,architecture,0.9358969926834106
,outdoors,0.915964663028717
,harbor,0.911787748336792
,sunset,0.9046869874000549
,city,0.8993027210235596
,bay,0.8940826654434204
,building,0.8937883377075195
,river,0.8858320713043213
,ocean,0.8778595328330994
,daylight,0.8692877292633057
,boat,0.8518079519271851
https://scontent.cdninstagram.com/t51.2885-15/s640x640/e15/13355414_260538814308279_80991773_n.jpg,child,0.9787629842758179
,portrait,0.9777560234069824
,woman,0.9766053557395935
,fun,0.9679422974586487
,fashion,0.9676783680915833
,people,0.9642919301986694
,girl,0.9513955116271973
,cute,0.9358066916465759
,pretty,0.8927748799324036
,joy,0.8905504941940308
,summer,0.8884075880050659
,eye,0.8870736360549927
,young,0.8652671575546265
,hair,0.8537665605545044
,face,0.844429612159729
,little,0.8426402807235718
,one,0.8402917981147766
,sunglasses,0.8354326486587524
,enjoyment,0.8321267366409302
,wear,0.8245280981063843
https://scontent.cdninstagram.com/t51.2885-15/e35/13395166_520416604833657_1389005964_n.jpg,woman,0.995417058467865
,girl,0.9874199032783508
,portrait,0.9830992817878723
,adult,0.9817600250244141
,wear,0.9795594811439514
,people,0.971605658531189
,one,0.9688196182250977
,fashion,0.9602673053741455
,brunette,0.9463082551956177
,indoors,0.9420362710952759
,dress,0.9242180585861206
,model,0.9202257394790649
,skirt,0.9113714694976807
,facial expression,0.9054497480392456
,blouse,0.8799054026603699
,sexy,0.8692956566810608
,pretty,0.8465288281440735
,shopping,0.8219876289367676
,happiness,0.8162013292312622
,lifestyle,0.8064709901809692
https://scontent.cdninstagram.com/t51.2885-15/s640x640/sh0.08/e35/13328978_196576684072773_1695531463_n.jpg,woman,0.9885295629501343
,girl,0.9859020709991455
,people,0.9762969017028809
,adult,0.9711105823516846
,portrait,0.9507137537002563
,one,0.942211925983429
,street,0.928458034992218
,outdoors,0.9283077716827393
,fashion,0.9252771139144897
,park,0.9091646671295166
,walk,0.9025837779045105
,wear,0.8950262069702148
,road,0.8927739858627319
,lifestyle,0.8923265337944031
,city,0.8882443904876709
,dress,0.8862998485565186
,tree,0.8766738176345825
,nature,0.8651329278945923
,summer,0.8606328964233398
,umbrella,0.8555029630661011
https://scontent.cdninstagram.com/t51.2885-15/e35/13408933_1803893893172294_1697613606_n.jpg,tree,0.9643406867980957
,outdoors,0.958837628364563
,people,0.9493184089660645
,nature,0.948287308216095
,leaf,0.9469369649887085
,child,0.9457904696464539
,leisure,0.9407145380973816
,woman,0.9392497539520264
,two,0.9332841634750366
,adult,0.924353837966919
,grass,0.9195245504379272
,one,0.910813570022583
,man,0.9000163078308105
,togetherness,0.8965734243392944
,park,0.8844188451766968
,summer,0.8817378282546997
,wood,0.8793669939041138
,family,0.8762271404266357
,landscape,0.8608046770095825
,happiness,0.8416187763214111
https://scontent.cdninstagram.com/t51.2885-15/e35/13267531_1754798971465499_209826129_n.jpg,girl,0.9696983098983765
,woman,0.9657485485076904
,landscape,0.9579693675041199
,water,0.9572263956069946
,people,0.9572067856788635
,sunset,0.9428169131278992
,portrait,0.9427522420883179
,beach,0.9402412176132202
,model,0.9397038221359253
,adult,0.9383561611175537
,fashion,0.9301977157592773
,seashore,0.9301208853721619
,wear,0.9207903146743774
,one,0.9170722961425781
,sea,0.8808556795120239
,travel,0.8768008947372437
,energy,0.874367356300354
,evening,0.8551422357559204
,outdoors,0.8464421033859253
,city,0.8452929854393005
https://scontent.cdninstagram.com/t51.2885-15/e35/13267478_1734237866789532_71070808_n.jpg,child,0.9968106746673584
,portrait,0.9853034019470215
,girl,0.9838457107543945
,woman,0.9838087558746338
,fun,0.9819426536560059
,happiness,0.9801873564720154
,togetherness,0.9739878177642822
,people,0.9727087616920471
,family,0.9687423706054688
,boy,0.9672280550003052
,friendship,0.9638723134994507
,facial expression,0.9624532461166382
,enjoyment,0.9540262222290039
,laughing,0.9510517120361328
,group,0.9480899572372437
,love,0.9406501054763794
,adolescent,0.9403107166290283
,cute,0.930256724357605
,joy,0.9298362135887146
,offspring,0.9229990243911743
https://scontent.cdninstagram.com/t51.2885-15/e35/13260933_1693987190864174_1160509377_n.jpg,food,0.9974346160888672
,no person,0.9941816926002502
,grow,0.9813262820243835
,cooking,0.9721567630767822
,meal,0.9532672166824341
,pan,0.9399920701980591
,delicious,0.937717080116272
,kitchenware,0.9355791807174683
,bread,0.9332817792892456
,sausage,0.9290378093719482
,meat,0.9289909601211548
,hot,0.927422285079956
,traditional,0.9269457459449768
,fruit,0.9144662618637085
,vegetable,0.9128468036651611
,dish,0.8831221461296082
,lunch,0.8740918636322021
,dinner,0.8740684390068054
,seafood,0.867276668548584
,sweet,0.864470362663269
https://scontent.cdninstagram.com/t51.2885-15/e35/13402222_1065316730225721_62258788_n.jpg,no person,0.9860771894454956
,one,0.9846570491790771
,isolated,0.9701244831085205
,food,0.9640381932258606
,people,0.9603215456008911
,hand,0.9508037567138672
,leisure,0.9442844390869141
,woman,0.9421848654747009
,two,0.9279516935348511
,wood,0.9265655279159546
,group,0.8903613090515137
,conceptual,0.8878368139266968
,indoors,0.8769387006759644
,adult,0.8736611604690552
,child,0.8730757236480713
,business,0.8714086413383484
,health,0.8652030229568481
,cutout,0.8479611873626709
,grow,0.83794105052948
,vertical,0.8292528986930847
https://scontent.cdninstagram.com/t51.2885-15/e35/13257058_1342990215717223_1277472449_n.jpg,woman,0.9823176264762878
,indoors,0.9700744152069092
,enjoyment,0.9531834125518799
,cute,0.9490569829940796
,food,0.9473824501037598
,fun,0.9413769841194153
,table,0.9407402276992798
,milk,0.9389472007751465
,people,0.9380966424942017
,breakfast,0.9310307502746582
,cooking,0.9307034015655518
,lunch,0.9279140830039978
,child,0.9265384674072266
,sit,0.9132423400878906
,meal,0.9126838445663452
,nutrition,0.9103021025657654
,family,0.9081420302391052
,pretty,0.9044145345687866
,young,0.8752304315567017
,health,0.8658031821250916
https://scontent.cdninstagram.com/t51.2885-15/e35/13531884_1036554833066710_196630848_n.jpg,food,0.9931373596191406
,no person,0.9919828772544861
,delicious,0.975239634513855
,homemade,0.969101071357727
,breakfast,0.9676120281219482
,sugar,0.9614880084991455
,sweet,0.9592353105545044
,baking,0.9506528377532959
,traditional,0.9502677917480469
,jam,0.9421007037162781
,tea,0.9398027658462524
,cake,0.9336832761764526
,fruit,0.93075031042099
,egg,0.9218518733978271
,bread,0.9124531745910645
,pastry,0.9097684025764465
,cooking,0.9075732827186584
,coffee,0.9006202220916748
,knife,0.8901123404502869
,dawn,0.8870744705200195
https://scontent.cdninstagram.com/t51.2885-15/e35/13267432_1608018319508576_1439977579_n.jpg,outdoors,0.9926482439041138
,woman,0.9910528659820557
,togetherness,0.9854974746704102
,daylight,0.9853982925415039
,people,0.9778872132301331
,two,0.9720889329910278
,enjoyment,0.9677854180335999
,leisure,0.9593867063522339
,affection,0.9544138312339783
,love,0.9407440423965454
,facial expression,0.9342790842056274
,child,0.9275102615356445
,happiness,0.922858715057373
,man,0.9201666116714478
,friendship,0.9162359237670898
,family,0.9070180654525757
,park,0.9060605764389038
,portrait,0.9004448056221008
,fun,0.896510660648346
,travel,0.8848260641098022
https://scontent.cdninstagram.com/t51.2885-15/s640x640/e15/13397660_301587700178072_3303781_n.jpg,adult,0.9946244955062866
,people,0.9933831691741943
,one,0.9927054047584534
,facial expression,0.9841644167900085
,food,0.9831146597862244
,woman,0.9772135615348816
,happiness,0.9750147461891174
,indoors,0.973845899105072
,portrait,0.9686274528503418
,wear,0.9657244682312012
,enjoyment,0.9438929557800293
,lifestyle,0.9211469888687134
,unhealthy,0.9199951887130737
,girl,0.9025025963783264
,fun,0.8964089751243591
,joy,0.874811589717865
,desktop,0.86673504114151
,traditional,0.8175709247589111
,corn,0.8117938041687012
,leisure,0.8070985078811646
https://scontent.cdninstagram.com/t51.2885-15/s640x640/sh0.08/e35/13256638_948221658629817_1743040659_n.jpg,market,0.9994958639144897
,people,0.9972519874572754
,booth,0.9968433976173401
,festival,0.9960359334945679
,shopping,0.9958231449127197
,commerce,0.9942224025726318
,carnival,0.9911302328109741
,many,0.9874533414840698
,crowd,0.9867324829101562
,group,0.9846981763839722
,street,0.9823042154312134
,tourist,0.9821921586990356
,city,0.9819626212120056
,marketplace,0.9765129089355469
,stock,0.9759117960929871
,bazaar,0.9744890928268433
,sell,0.9687122702598572
,stall,0.9525919556617737
,flea,0.9480754733085632
,road,0.9407967925071716
https://scontent.cdninstagram.com/t51.2885-15/e35/13320160_611601402341453_1783250588_n.jpg,skyscraper,0.9921678304672241
,travel,0.9910562038421631
,skyline,0.9904952049255371
,water,0.9901145696640015
,city,0.984958291053772
,downtown,0.9842407703399658
,cityscape,0.9815571904182434
,no person,0.9814044833183289
,waterfront,0.9772485494613647
,harbor,0.9764267802238464
,architecture,0.974489152431488
,river,0.9731581211090088
,finance,0.970383882522583
,watercraft,0.9679663777351379
,ferry,0.963996171951294
,sky,0.9614423513412476
,sunset,0.9604380130767822
,dusk,0.95637047290802
,business,0.9520694613456726
,building,0.9519597291946411
https://scontent.cdninstagram.com/t51.2885-15/e35/13256768_249469252089163_1151261896_n.jpg,group,0.9940868020057678
,group,0.9853230714797974
,portrait,0.9759497046470642
,people,0.9668898582458496
,many,0.9327012300491333
,school,0.9274292588233948
,child,0.9223406910896301
,woman,0.9025095701217651
,facial expression,0.9009139537811279
,adult,0.889240562915802
,education,0.8844135403633118
,friendship,0.8480179309844971
,festival,0.8368959426879883
,crowd,0.833381175994873
,youth,0.8237013220787048
,happiness,0.8221231698989868
,energy,0.8167386054992676
,university,0.8136040568351746
,enjoyment,0.8080627918243408
,man,0.8062573075294495
https://scontent.cdninstagram.com/t51.2885-15/e35/13402520_1911553482404519_1891772698_n.jpg,woman,0.9924039244651794
,people,0.9783352613449097
,adult,0.9707504510879517
,togetherness,0.9615488648414612
,portrait,0.9561740159988403
,happiness,0.9489175081253052
,man,0.944999098777771
,group,0.9320755004882812
,family,0.9305585622787476
,facial expression,0.9262746572494507
,friendship,0.9248807430267334
,outdoors,0.9177548885345459
,enjoyment,0.913833737373352
,sit,0.8966938257217407
,daylight,0.8851183652877808
,adolescent,0.8836021423339844
,wear,0.8809834718704224
,education,0.8713772892951965
,school,0.8614460229873657
,lifestyle,0.8518155217170715
https://scontent.cdninstagram.com/t51.2885-15/e35/13391137_1732854450286120_581256856_n.jpg,paper,0.9945995211601257
,no person,0.9923490881919861
,business,0.9854017496109009
,money,0.9840279221534729
,money,0.9747633934020996
,card,0.9695446491241455
,sign,0.9608743190765381
,wealth,0.9599733352661133
,finance,0.9596271514892578
,note,0.9515476822853088
,luck,0.91152024269104
,shopping,0.9045886993408203
,number,0.8970266580581665
,still life,0.8840451240539551
,success,0.8708722591400146
,tourism,0.8688371181488037
,gambling,0.866463303565979
,commerce,0.8600115776062012
,text,0.8577374815940857
,cash,0.8502929210662842
https://scontent.cdninstagram.com/t51.2885-15/e35/13385602_583712851788774_1718506839_n.jpg,food,0.9978140592575073
,vegetable,0.9887951016426086
,meal,0.9883261919021606
,lunch,0.9636960029602051
,dinner,0.9627541303634644
,delicious,0.9619325399398804
,meat,0.959640622138977
,no person,0.9547569751739502
,dish,0.9507460594177246
,cuisine,0.9446307420730591
,grow,0.9438909292221069
,epicure,0.943499743938446
,plate,0.9394110441207886
,salad,0.9223860502243042
,healthy,0.9199097156524658
,chicken,0.9164972901344299
,tasty,0.9133621454238892
,cooking,0.9082993865013123
,onion,0.8976677656173706
,nutrition,0.8971579074859619
https://scontent.cdninstagram.com/t51.2885-15/e35/13269576_270727066611345_1736705312_n.jpg,leisure,0.9852613210678101
,beach,0.9820510745048523
,sand,0.9751262664794922
,girl,0.973797082901001
,lifestyle,0.9706109762191772
,sea,0.960692286491394
,summer,0.9523828029632568
,fun,0.9523340463638306
,water,0.9483975172042847
,relaxation,0.9427865743637085
,recreation,0.9409536123275757
,young,0.9376420378684998
,fitness,0.935178279876709
,sky,0.9269345998764038
,woman,0.9216787815093994
,nature,0.9134222269058228
,ocean,0.9106965065002441
,vacation,0.9104681015014648
,solo,0.8997434973716736
,sun,0.8985660076141357
https://scontent.cdninstagram.com/t51.2885-15/sh0.08/e35/p750x750/13381114_1014545855295384_365750511_n.jpg,happiness,0.9964933395385742
,togetherness,0.9941059350967407
,enjoyment,0.9913995265960693
,child,0.9894733428955078
,friendship,0.9822299480438232
,indoors,0.9791924357414246
,woman,0.9785414934158325
,cheerful,0.978524386882782
,drink,0.9779925346374512
,facial expression,0.9739116430282593
,fun,0.9710028171539307
,people,0.9706622362136841
,family,0.9700313806533813
,joy,0.969468355178833
,laughing,0.9664669036865234
,cute,0.9654555320739746
,portrait,0.954739511013031
,two,0.9418244957923889
,girl,0.938237190246582
,room,0.9369003176689148
https://scontent.cdninstagram.com/t51.2885-15/e35/13413454_193596801038322_816587351_n.jpg,group,0.9906529188156128
,woman,0.9748452305793762
,portrait,0.9679546356201172
,group,0.9648857116699219
,people,0.9579876661300659
,school,0.952888011932373
,university,0.9341835379600525
,friendship,0.9222233295440674
,education,0.9193264245986938
,adult,0.9105651378631592
,student,0.9064321517944336
,many,0.9048357009887695
,man,0.8996075391769409
,multicultural,0.8774756193161011
,happiness,0.8548702001571655
,squad,0.853670597076416
,facial expression,0.8529194593429565
,pride,0.8391107320785522
,adolescent,0.8352118730545044
,unity,0.8275121450424194
https://scontent.cdninstagram.com/t51.2885-15/e35/13381056_1703396786580570_544790645_n.jpg,people,0.9881172180175781
,city,0.9877282977104187
,vehicle,0.9727849960327148
,travel,0.9695931673049927
,water,0.9658180475234985
,building,0.9595080018043518
,portrait,0.9533126354217529
,river,0.9500224590301514
,architecture,0.9479050040245056
,bridge,0.9460217952728271
,outdoors,0.9418193101882935
,daylight,0.94093918800354
,adult,0.9383096694946289
,woman,0.9261929988861084
,skyscraper,0.9253259897232056
,transportation system,0.9225252866744995
,sunset,0.9044008255004883
,business,0.9022985696792603
,cityscape,0.9013249278068542
,street,0.8948459625244141
https://scontent.cdninstagram.com/t51.2885-15/e35/13388608_228140050903764_1063718358_n.jpg,outdoors,0.984173059463501
,people,0.9652772545814514
,nature,0.955209493637085
,summer,0.9523651599884033
,woman,0.9326339960098267
,one,0.9207103848457336
,man,0.9189403653144836
,recreation,0.9048501253128052
,environment,0.8978708386421204
,leisure,0.8826415538787842
,adult,0.8778293132781982
,park,0.863391637802124
,grass,0.8633590936660767
,child,0.8419053554534912
,landscape,0.8316465020179749
,adolescent,0.8270571827888489
,road,0.8263393044471741
,food,0.8113725185394287
,tree,0.8107672929763794
,sign,0.8069425821304321
https://scontent.cdninstagram.com/t51.2885-15/e35/13261045_1067934816577243_972727902_n.jpg,child,0.9923034906387329
,woman,0.9795128107070923
,togetherness,0.9750726222991943
,friendship,0.9641590118408203
,people,0.9624803066253662
,fun,0.9507862329483032
,girl,0.9483729600906372
,adolescent,0.9451308250427246
,love,0.9388452768325806
,portrait,0.9354100227355957
,group,0.9327564239501953
,family,0.9190913438796997
,boy,0.8939121961593628
,joy,0.8882520198822021
,affection,0.8830553889274597
,student,0.8658255338668823
,school,0.8655191659927368
,three,0.865450382232666
,cute,0.8653744459152222
,facial expression,0.8607842922210693
https://scontent.cdninstagram.com/t51.2885-15/sh0.08/e35/p750x750/13391174_1232159066797115_1319984194_n.jpg,cute,0.9969197511672974
,dog,0.9951529502868652
,sit,0.9932929277420044
,little,0.9892697334289551
,pet,0.9834570288658142
,indoors,0.9812201261520386
,portrait,0.9795551300048828
,child,0.9784426093101501
,friendship,0.9756284356117249
,girl,0.9722849726676941
,mammal,0.9722137451171875
,family,0.9702544212341309
,sofa,0.9701893329620361
,young,0.9658120274543762
,canine,0.9618966579437256
,fun,0.9618163704872131
,love,0.9596552848815918
,puppy,0.9568804502487183
,woman,0.9560085535049438
,owner,0.9544067978858948
https://scontent.cdninstagram.com/t51.2885-15/e35/13397519_141892389563379_515298480_n.jpg,people,0.9925258159637451
,recreation,0.9893883466720581
,one,0.987852931022644
,adult,0.976524829864502
,leisure,0.9711105823516846
,outdoors,0.9635683298110962
,action,0.9429115056991577
,endurance,0.9336053133010864
,adventure,0.9299650192260742
,man,0.926948070526123
,competition,0.9191207885742188
,child,0.9137626886367798
,woman,0.911325216293335
,motion,0.9103525876998901
,daylight,0.9045038223266602
,accomplishment,0.9006702899932861
,lifestyle,0.8951271772384644
,effort,0.8941515684127808
,hike,0.8922380208969116
,travel,0.8914531469345093
https://scontent.cdninstagram.com/t51.2885-15/sh0.08/e35/p750x750/13381184_1271758759519169_2088361715_n.jpg,food,0.9966539144515991
,meal,0.9831839203834534
,dinner,0.982697606086731
,plate,0.9822273254394531
,restaurant,0.9789183139801025
,dish,0.9744101762771606
,table,0.9710252285003662
,lunch,0.9668866395950317
,drink,0.963967502117157
,dining,0.9596354961395264
,cutlery,0.9571001529693604
,wine,0.956045389175415
,cuisine,0.9551398754119873
,no person,0.9509578943252563
,tableware,0.9464869499206543
,cooking,0.9457166790962219
,traditional,0.9426456689834595
,healthy,0.9358198642730713
,delicious,0.9332818984985352
,tea,0.9296602606773376
https://scontent.cdninstagram.com/t51.2885-15/e35/13355439_618690671629488_905622787_n.jpg,food,0.9888398051261902
,cooking,0.988093376159668
,meal,0.9786618947982788
,meat,0.9660036563873291
,soup,0.9608141779899597
,cookware,0.9521312117576599
,people,0.9516196250915527
,woman,0.9447539448738098
,lunch,0.9385732412338257
,dinner,0.9202953577041626
,restaurant,0.9131528735160828
,chef,0.9093190431594849
,adult,0.8950866460800171
,stove,0.8938626646995544
,dish,0.8771479725837708
,rice,0.8620303273200989
,kitchenware,0.8575599193572998
,grow,0.8492189645767212
,pan,0.8463134765625
,table,0.8431869149208069
https://scontent.cdninstagram.com/t51.2885-15/e35/13398954_254289378276983_236023522_n.jpg,food,0.9899513721466064
,egg,0.987700343132019
,delicious,0.9814335107803345
,lunch,0.9755609035491943
,no person,0.9729596972465515
,dinner,0.9700959920883179
,traditional,0.9651678800582886
,cooking,0.9646990299224854
,meal,0.9645636081695557
,dish,0.9584136605262756
,hot,0.9535548090934753
,noodles,0.9477559328079224
,soup,0.9400373697280884
,cuisine,0.9214285612106323
,vegetable,0.9205261468887329
,dining,0.9177588224411011
,plate,0.9165147542953491
,nutrition,0.9151028394699097
,seafood,0.9077694416046143
,rice,0.8946512937545776
https://scontent.cdninstagram.com/t51.2885-15/e35/13402651_859560550814827_1284805759_n.jpg,woman,0.9903651475906372
,people,0.9852463006973267
,portrait,0.9840158224105835
,adult,0.9647809267044067
,girl,0.9574183225631714
,child,0.9481088519096375
,outdoors,0.9477620124816895
,wear,0.9390488862991333
,facial expression,0.9366140365600586
,daylight,0.9336768388748169
,man,0.9283323287963867
,two,0.9269289374351501
,leisure,0.9240323305130005
,enjoyment,0.9201247692108154
,recreation,0.9085841774940491
,adolescent,0.9075992107391357
,togetherness,0.9039933681488037
,happiness,0.8934162259101868
,group,0.8879514336585999
,friendship,0.8870199918746948
https://3qavo4pxvf2azitf.igsonar.com/hphotos-ak-xfa1/t51.2885-15/e35/13398404_1773990929534260_1111651265_n.jpg,woman,0.9844052791595459
,outdoors,0.9788438081741333
,people,0.9762511253356934
,facial expression,0.9740133285522461
,togetherness,0.9709940552711487
,man,0.9607343673706055
,child,0.9589143991470337
,leisure,0.9510875940322876
,water,0.9498385190963745
,enjoyment,0.9489762783050537
,two,0.9487883448600769
,recreation,0.9482378959655762
,portrait,0.946902871131897
,fun,0.9401423931121826
,friendship,0.9331232309341431
,affection,0.9229182004928589
,girl,0.9216190576553345
,adult,0.9212440252304077
,daylight,0.9166075587272644
,happiness,0.9034927487373352
https://scontent.cdninstagram.com/t51.2885-15/e35/13398840_804199859679662_1431159985_n.jpg,food,0.9980456233024597
,hot,0.9918255805969238
,soup,0.9916839599609375
,bowl,0.9848060011863708
,dish,0.9819984436035156
,dinner,0.9802782535552979
,cooking,0.9794003367424011
,traditional,0.9784396886825562
,meal,0.978205680847168
,cuisine,0.9706878662109375
,vegetable,0.9675593376159668
,lunch,0.965449869632721
,restaurant,0.9645063877105713
,delicious,0.9547619819641113
,plate,0.9497076272964478
,meat,0.9452219009399414
,no person,0.9430394172668457
,epicure,0.941977858543396
,table,0.9394190311431885
,curry,0.9294020533561707
https://scontent.cdninstagram.com/t51.2885-15/e35/13398497_523685084498532_260796668_n.jpg,woman,0.9947752952575684
,fashion,0.9876036643981934
,portrait,0.9766703844070435
,pretty,0.9726176261901855
,cute,0.9674865007400513
,girl,0.9655579328536987
,model,0.9412715435028076
,glamour,0.9362046718597412
,eye,0.9329761266708374
,young,0.9301067590713501
,people,0.9184533357620239
,beautiful,0.9117937088012695
,adolescent,0.8996207118034363
,cold,0.8946465253829956
,winter,0.8860503435134888
,sexy,0.8812326192855835
,looking,0.8788772225379944
,elegant,0.8674571514129639
,lady,0.8658863306045532
,look,0.8619880080223083
https://scontent.cdninstagram.com/t51.2885-15/e35/13320262_1027676283988341_1938432286_n.jpg,woman,0.9882007837295532
,togetherness,0.9831710457801819
,four,0.9795951843261719
,friendship,0.9791173338890076
,enjoyment,0.9780324101448059
,group,0.9748766422271729
,group,0.9673553109169006
,facial expression,0.9671225547790527
,indoors,0.9533841013908386
,laughing,0.951704740524292
,happiness,0.9312919974327087
,family,0.9309185743331909
,room,0.9275386333465576
,people,0.927386999130249
,adult,0.9144484996795654
,fun,0.9116999506950378
,coffee,0.9038039445877075
,man,0.8972941040992737
,three,0.8936041593551636
,sit,0.8665661215782166
https://scontent.cdninstagram.com/t51.2885-15/e35/13391256_1419782958047331_1262550852_n.jpg,people,0.9785282015800476
,festival,0.9478310346603394
,movie,0.9477165937423706
,woman,0.9397804737091064
,man,0.9332184791564941
,recreation,0.9309070110321045
,competition,0.9061685800552368
,wear,0.9000017642974854
,exhibition,0.8957222700119019
,adult,0.8895522356033325
,celebration,0.8652322292327881
,group,0.865143895149231
,group,0.8554580807685852
,portrait,0.8542914390563965
,music,0.8418641686439514
,indoors,0.8284871578216553
,sports fan,0.8256442546844482
,performance,0.809707522392273
,singer,0.8067110776901245
,stock,0.7916706800460815
https://scontent.cdninstagram.com/t51.2885-15/e35/13473326_1016583311764824_1650721460_n.jpg,food,0.9984062910079956
,cuisine,0.9881747961044312
,meal,0.9823904037475586
,vegetable,0.9783567786216736
,hot,0.9770678281784058
,sauce,0.9765059947967529
,dinner,0.9758607745170593
,dish,0.9735910892486572
,cooking,0.9705386161804199
,lunch,0.9683598279953003
,bowl,0.9672964811325073
,epicure,0.966883659362793
,herb,0.9599238634109497
,pepper,0.9534803628921509
,delicious,0.9517982602119446
,restaurant,0.9507237672805786
,plate,0.9468904733657837
,chili,0.9467318654060364
,no person,0.9316917657852173
,tasty,0.9306771755218506
https://scontent.cdninstagram.com/t51.2885-15/e35/13402552_826896177411503_1558007911_n.jpg,water,0.9959076642990112
,river,0.993838369846344
,environment,0.9897801876068115
,tree,0.9855313301086426
,rainforest,0.9846948981285095
,travel,0.9782862067222595
,motion,0.9756402969360352
,landscape,0.9751619100570679
,stream,0.9750645160675049
,wood,0.974357008934021
,jungle,0.9684236645698547
,daylight,0.966808557510376
,mountain,0.9640476703643799
,people,0.9618226289749146
,rain,0.9595861434936523
,nature,0.9567008018493652
,adventure,0.9528167843818665
,rock,0.9509619474411011
,tropical,0.949181854724884
,outdoors,0.94898521900177
https://scontent.cdninstagram.com/t51.2885-15/e35/13402160_1719671008245749_2045330730_n.jpg,woman,0.9940184354782104
,meal,0.9893637895584106
,adult,0.9838442802429199
,indoors,0.9777917861938477
,room,0.9766743183135986
,lifestyle,0.9748977422714233
,lunch,0.9727113246917725
,table,0.9642949104309082
,enjoyment,0.9632296562194824
,happiness,0.9626680016517639
,people,0.9625824689865112
,togetherness,0.950800895690918
,furniture,0.946466863155365
,family,0.9462435841560364
,girl,0.9437816739082336
,facial expression,0.9425159692764282
,food,0.9362759590148926
,cookware,0.9245967268943787
,daylight,0.9226044416427612
,cooking,0.8962591886520386
https://scontent.cdninstagram.com/t51.2885-15/e35/13473083_1747518908797939_1704792187_n.jpg,group,0.9941197633743286
,group,0.9939321875572205
,friendship,0.9829000234603882
,woman,0.9773271083831787
,people,0.9754384756088257
,school,0.9735231399536133
,portrait,0.9637672901153564
,education,0.9630670547485352
,student,0.9514086842536926
,child,0.9501641392707825
,adolescent,0.9494759440422058
,four,0.9486865997314453
,university,0.9411834478378296
,laughing,0.9264711141586304
,exhilaration,0.909892201423645
,multicultural,0.9004936218261719
,happiness,0.8966939449310303
,enjoyment,0.8924857974052429
,fun,0.8923701643943787
,adult,0.8915103673934937
https://scontent.cdninstagram.com/t51.2885-15/e35/13422816_255542394805309_653946177_n.jpg,woman,0.9861716032028198
,people,0.9727800488471985
,fun,0.9652483463287354
,girl,0.9608221054077148
,outdoors,0.9587706327438354
,friendship,0.9570568203926086
,togetherness,0.9464768171310425
,child,0.9449741244316101
,young,0.9351968765258789
,enjoyment,0.935005784034729
,family,0.928851306438446
,happiness,0.9282902479171753
,lifestyle,0.9275049567222595
,adult,0.9238569736480713
,leisure,0.918255090713501
,group,0.9124928712844849
,summer,0.9106848835945129
,man,0.8975160121917725
,love,0.8943154215812683
,recreation,0.8826061487197876
https://scontent.cdninstagram.com/t51.2885-15/e35/13355514_1710444792557198_1604745983_n.jpg,coffee,0.999055027961731
,drink,0.9986077547073364
,cup,0.9965729117393494
,espresso,0.9903140068054199
,cappuccino,0.9875333309173584
,milk,0.9828611016273499
,dawn,0.979812741279602
,breakfast,0.977041482925415
,caffeine,0.9731432199478149
,food,0.9716308116912842
,hot,0.960188090801239
,bar,0.9491009712219238
,table,0.9478734731674194
,mug,0.9448909759521484
,restaurant,0.9426542520523071
,cream,0.9424697160720825
,no person,0.9264802932739258
,cafeteria,0.9007959365844727
,glass,0.8925520777702332
,foam,0.8921794295310974
https://scontent.cdninstagram.com/t51.2885-15/e35/13413296_1712153559047150_1272300861_n.jpg,togetherness,0.9871666431427002
,people,0.9848408699035645
,child,0.9815201759338379
,group,0.9798293709754944
,recreation,0.9795417189598083
,lifestyle,0.975965142250061
,man,0.971781313419342
,leisure,0.9693573713302612
,adult,0.9689695835113525
,friendship,0.9676327109336853
,outdoors,0.9637222290039062
,girl,0.9547488689422607
,woman,0.9545687437057495
,happiness,0.9541841745376587
,fun,0.947017252445221
,boy,0.9451502561569214
,enjoyment,0.9413021802902222
,love,0.9158706665039062
,adolescent,0.9145082831382751
,affection,0.9143707752227783
