url,class,score
https://scontent.cdninstagram.com/t51.2885-15/e35/12976141_886462901480360_1777956203_n.jpg?ig_cache_key=MTIzNzczMDYxMjA3MTM2MjAyNA%3D%3D.2,food,0.994103134
,soup,0.978967428
,meat,0.978070855
,dinner,0.97659564
,no person,0.967167377
,vegetable,0.953786373
,lunch,0.953128457
,meal,0.951699972
,dish,0.950376451
,spoon,0.94284308
,cooking,0.941053987
,bowl,0.924654603
,pot,0.920949936
,bread,0.919519782
,cuisine,0.908707559
,plate,0.902765512
,onion,0.901157737
,hot,0.893837869
,table,0.887734532
,traditional,0.88418591
https://scontent.cdninstagram.com/t51.2885-15/e35/12930851_1040189479395540_253458795_n.jpg?ig_cache_key=MTIzNDAxODQzMTA3NzE4Mjk0Mg%3D%3D.2,no person,0.999290586
,electronics,0.984043479
,indoors,0.97851634
,paper,0.976243258
,business,0.97082454
,contemporary,0.970428944
,technology,0.946448624
,computer,0.943914771
,one,0.939929307
,laptop,0.928629398
,keyboard,0.922240376
,family,0.910133898
,data,0.904183626
,writing,0.896628618
,portable,0.890513122
,internet,0.885063469
,journalism,0.869489074
,photocopy,0.863358378
,still life,0.85930866
,mac,0.851103723
https://scontent.cdninstagram.com/t51.2885-15/e35/13298033_471569133037328_1246768957_n.jpg?ig_cache_key=MTI2OTYwNTkzMzkzODYzNDI5OA%3D%3D.2,woman,0.990076542
,people,0.98883605
,shopping,0.97716099
,indoors,0.972674608
,restaurant,0.968526125
,enjoyment,0.963175118
,adult,0.958399713
,stock,0.954032898
,drink,0.931997061
,facial expression,0.911490977
,portrait,0.909774244
,wine,0.906337678
,commerce,0.90519917
,celebration,0.895083547
,happiness,0.881411195
,coffee,0.879469752
,one,0.873572588
,table,0.868136466
,bar,0.858259678
,girl,0.8313182
https://scontent.cdninstagram.com/t51.2885-15/e35/13260824_1091927727546804_920771442_n.jpg?ig_cache_key=MTI1OTQ0MzcyOTIwOTc0OTA5OQ%3D%3D.2,no person,0.962029517
,indoors,0.961699486
,business,0.92914474
,table,0.92855072
,lamp,0.916710019
,paper,0.903590381
,glass,0.901766956
,furniture,0.894938111
,technology,0.889334023
,still life,0.885149956
,wood,0.873197079
,education,0.845517159
,old,0.845324039
,writing,0.840530813
,room,0.836782336
,office,0.812946796
,telephone,0.81279099
,light,0.810683012
,science,0.810681939
,research,0.803603172
https://scontent.cdninstagram.com/t51.2885-15/e35/13413365_1616527975326083_1602695513_n.jpg?ig_cache_key=MTI3NTEyMTQ3ODIwOTM2Nzg0OA%3D%3D.2,cat,0.999226332
,kitten,0.996081769
,cute,0.993728042
,fur,0.990982413
,pet,0.987579107
,domestic,0.98400867
,young,0.983290672
,downy,0.98318851
,portrait,0.97737813
,eye,0.976082683
,animal,0.975592494
,mammal,0.968150973
,funny,0.963824749
,sit,0.960593581
,whisker,0.958945274
,little,0.950464487
,looking,0.9459126
,tabby,0.931771755
,friendship,0.929727674
,no person,0.926114619
https://scontent.cdninstagram.com/t51.2885-15/e35/13098875_542495215959118_277291511_n.jpg?ig_cache_key=MTI0ODYwNjkwNDYzOTU0OTI5NA%3D%3D.2,car,0.999086082
,vehicle,0.989951611
,transportation system,0.97680527
,road,0.968385816
,traffic,0.948116899
,exhibition,0.919109464
,street,0.914080977
,automotive,0.911931634
,drive,0.890374541
,wheel,0.858445942
,speed,0.855352044
,city,0.843846023
,fast,0.825910926
,industry,0.797789931
,urban,0.796051919
,International,0.795987427
,action,0.742383242
,competition,0.713116229
,show,0.71168983
,race,0.706452131
https://scontent.cdninstagram.com/t51.2885-15/e35/12965724_707256366083321_715210239_n.jpg?ig_cache_key=MTIyODMxMjM1MjA0OTU4OTU0Mw%3D%3D.2,garden,0.986529887
,flower,0.967381835
,nature,0.958554268
,flora,0.957920134
,travel,0.95316714
,leaf,0.936329961
,summer,0.935461402
,tree,0.931638658
,tropical,0.918588877
,tourism,0.918327987
,Zen,0.917568207
,park,0.915759504
,color,0.910738349
,beautiful,0.901311874
,no person,0.899921656
,landscape,0.894758105
,water,0.891772151
,traditional,0.884310901
,culture,0.884061694
,botanical,0.876101494
https://scontent.cdninstagram.com/t51.2885-15/e35/13385762_1807004126186046_1261924492_n.jpg?ig_cache_key=MTI3NTQyMTAxNzcxNzg2MjAwOA%3D%3D.2,minaret,0.990988553
,architecture,0.986136019
,no person,0.983837485
,religion,0.982738614
,travel,0.970061779
,sky,0.961058736
,outdoors,0.953587711
,dome,0.942496419
,building,0.933960915
,Muslim,0.921755195
,city,0.915571213
,holy,0.902742565
,old,0.899088919
,traditional,0.898432493
,religious,0.893024087
,spirituality,0.892066419
,prayer,0.890626073
,sacred,0.889223814
,ancient,0.870573699
,worship,0.861586154
https://scontent.cdninstagram.com/t51.2885-15/e35/13167372_1711620362449614_714869047_n.jpg?ig_cache_key=MTI0MjcxNjk0MjMxNjU5NjQ1MQ%3D%3D.2,people,0.985052824
,woman,0.972170115
,girl,0.960294843
,outdoors,0.949643612
,travel,0.938523293
,summer,0.936249912
,adult,0.925489664
,street,0.920585871
,one,0.917918444
,leisure,0.912432492
,city,0.901122332
,tourist,0.885693789
,lifestyle,0.884384096
,beautiful,0.87159586
,step,0.860288978
,landscape,0.85966289
,portrait,0.853337169
,urban,0.853244066
,water,0.851506591
,patio,0.81498456
https://scontent.cdninstagram.com/t51.2885-15/e35/13183337_1752117438378835_1276850759_n.jpg?ig_cache_key=MTI1NDI5NjE5MDc3MjgzMzM1MQ%3D%3D.2,chair,0.998624504
,furniture,0.997925758
,table,0.990120411
,room,0.98985219
,indoors,0.986617446
,seat,0.985657275
,interior design,0.98181057
,family,0.970021605
,inside,0.958774269
,contemporary,0.958164752
,lamp,0.947116792
,window,0.946271181
,house,0.930120945
,wood,0.927181959
,no person,0.925848007
,luxury,0.918164253
,dining,0.904995501
,empty,0.900890708
,hotel,0.899747491
,dining room,0.890558898
https://scontent.cdninstagram.com/t51.2885-15/e35/12965739_1047995121912699_1691407369_n.jpg?ig_cache_key=MTIzNjY2NjIxNTIxNTM5NDA1Mw%3D%3D.2,set,0.997307479
,collection,0.992067218
,image,0.968706727
,pattern,0.957448959
,kind,0.956375957
,design,0.953887582
,art,0.953786254
,vector,0.946720839
,desktop,0.942646265
,color,0.920892954
,pill,0.919097304
,decoration,0.916893303
,texture,0.912021399
,no person,0.907068074
,seamless,0.905905902
,illustration,0.903416038
,vintage,0.89267689
,fashion,0.880876064
,square,0.88045609
,symbol,0.880242229
https://scontent.cdninstagram.com/t51.2885-15/e35/13248825_1712143292407438_709061115_n.jpg?ig_cache_key=MTI0OTk4NTIwMDAxMDgxNjY3OQ%3D%3D.2,food,0.991718531
,bowl,0.982653737
,hot,0.975960672
,cuisine,0.962738574
,traditional,0.96162951
,meal,0.959555507
,cooking,0.953541279
,dinner,0.952900887
,dish,0.951244295
,delicious,0.939783335
,vegetable,0.939365387
,no person,0.938880742
,healthy,0.936511159
,soup,0.933699012
,spoon,0.930813849
,epicure,0.925636768
,desktop,0.917948127
,glass,0.915182829
,restaurant,0.914634347
,sweet,0.912090898
https://scontent.cdninstagram.com/t51.2885-15/e35/12965747_155342178195912_1811587753_n.jpg?ig_cache_key=MTIzMzI4MTcwMDA5NDc5OTA0NA%3D%3D.2,food,0.996446609
,meal,0.982762575
,dinner,0.982184231
,dish,0.980368912
,delicious,0.97707212
,lunch,0.976600051
,cooking,0.975860119
,no person,0.970908761
,meat,0.969561815
,cuisine,0.967055202
,vegetable,0.964331388
,plate,0.962145567
,homemade,0.956297576
,pan,0.950704455
,hot,0.947510242
,parsley,0.946534157
,frying pan,0.945735335
,egg,0.936531425
,bread,0.931245446
,traditional,0.928049147
https://scontent.cdninstagram.com/t51.2885-15/e35/13266896_1713099742302482_999019261_n.jpg?ig_cache_key=MTI1NDM3NTIyNzY0MTgxOTAxNQ%3D%3D.2,lock,0.993381023
,old,0.99268496
,iron,0.979558229
,antique,0.974901557
,entrance,0.97028029
,door,0.968788385
,steel,0.968138814
,retro,0.967692196
,vintage,0.966294885
,rusty,0.966250658
,key,0.957722247
,security,0.957696617
,wood,0.954344034
,desktop,0.953054547
,wooden,0.949909806
,gate,0.942070484
,handle,0.940193295
,ancient,0.940065563
,design,0.923299253
,family,0.920702994
https://scontent.cdninstagram.com/t51.2885-15/e35/13381295_1093044717423064_265202948_n.jpg?ig_cache_key=MTI3MDk1NTY1NzI1ODA2OTM0NQ%3D%3D.2,architecture,0.994758487
,urban,0.991087198
,city,0.989670157
,business,0.988430858
,steel,0.986171484
,glass,0.985438108
,building,0.980736434
,tube,0.979916096
,no person,0.968724012
,perspective,0.966410041
,transportation system,0.966099024
,modern,0.964457154
,blur,0.963732183
,futuristic,0.961281776
,downtown,0.957723022
,travel,0.956869483
,tunnel,0.955837786
,contemporary,0.950521946
,expression,0.944791675
,bridge,0.939271092
https://scontent.cdninstagram.com/t51.2885-15/e35/13129127_507267369481016_424392379_n.jpg?ig_cache_key=MTI0NTUxMzkwMzMyNzQwNzI4MA%3D%3D.2,water,0.994037151
,city,0.990529239
,bridge,0.989907622
,river,0.988156676
,travel,0.988056302
,reflection,0.974632859
,architecture,0.974028349
,building,0.965897262
,street,0.958961725
,evening,0.956278443
,no person,0.952206254
,light,0.949371099
,urban,0.938548684
,sky,0.931096017
,sunset,0.929256201
,outdoors,0.926671326
,cityscape,0.916041613
,canal,0.906942487
,tourism,0.901216745
,town,0.892068982
https://scontent.cdninstagram.com/t51.2885-15/e35/13150951_999482450099957_1843497612_n.jpg?ig_cache_key=MTI0NDI5NzczODg0NDM2ODc2MQ%3D%3D.2,people,0.957182646
,woman,0.949590206
,indoors,0.931021333
,exhibition,0.925633073
,man,0.919948697
,wear,0.851991177
,festival,0.849472165
,fashion,0.849416375
,girl,0.832242012
,competition,0.822326541
,adult,0.811680436
,music,0.798530579
,fun,0.788687468
,exercise,0.759772837
,robot,0.755303919
,art,0.753964782
,health,0.751618862
,model,0.749758124
,editorial,0.739788294
,costume,0.735704541
https://scontent.cdninstagram.com/t51.2885-15/e35/13320042_913527018773198_740498357_n.jpg?ig_cache_key=MTI2MDA1ODUyMTA5NjE1NTAxNA%3D%3D.2,food,0.992873669
,cooking,0.979212403
,no person,0.976439476
,traditional,0.959378004
,delicious,0.95866245
,dinner,0.952184916
,meal,0.946784198
,homemade,0.927342296
,nutrition,0.926315308
,hot,0.921897292
,lunch,0.917464256
,baking,0.916215777
,meat,0.915508807
,vegetable,0.90289849
,cuisine,0.898674846
,restaurant,0.886108398
,epicure,0.873712778
,tasty,0.872543097
,healthy,0.866366386
,fish,0.863448739
https://scontent.cdninstagram.com/t51.2885-15/e35/13187998_218166548564915_151372277_n.jpg?ig_cache_key=MTI0OTc4NjM3MDY5MDY0MTY2MA%3D%3D.2,window,0.988993168
,architecture,0.988116205
,house,0.986659944
,door,0.974013209
,indoors,0.96942246
,family,0.968064845
,building,0.962785721
,modern,0.95981884
,travel,0.945085764
,step,0.944220483
,no person,0.937195957
,inside,0.929528296
,city,0.926158547
,glass,0.916329622
,urban,0.903138816
,wood,0.899939895
,street,0.895071924
,light,0.885639668
,luxury,0.866447806
,sight,0.862376392
https://scontent.cdninstagram.com/t51.2885-15/e35/13118193_262518707427554_1132912144_n.jpg?ig_cache_key=MTI0NjMzODI0NjAyMjI2MjA1Mw%3D%3D.2,vehicle,0.964774728
,mirror,0.959941864
,light,0.951763034
,car,0.942819357
,hot,0.920699596
,luxury,0.91578871
,flame,0.915134072
,glass,0.914158344
,no person,0.906715333
,one,0.897466183
,reflection,0.89282167
,indoors,0.881215155
,jewelry,0.876334906
,glass,0.875178695
,blur,0.871201158
,people,0.870578408
,travel,0.860869288
,woman,0.845726728
,recreation,0.840610266
,vintage,0.813287199
https://scontent.cdninstagram.com/t51.2885-15/e35/12677369_108788426190565_870173403_n.jpg?ig_cache_key=MTIyMTY2MjE0MTc0MzA5OTI4MQ%3D%3D.2,people,0.979048014
,exhibition,0.953323364
,presentation,0.942675591
,convention,0.941166282
,man,0.940220237
,mannequin,0.93964684
,wear,0.918420136
,human,0.887131095
,superhero,0.884457469
,pride,0.880299211
,stock,0.872052252
,science,0.847407579
,indoors,0.83346653
,event,0.829752386
,person,0.828662694
,shopping,0.828261197
,carnival,0.81418097
,mall,0.81196022
,city,0.793871999
,religion,0.793863535
https://scontent.cdninstagram.com/t51.2885-15/e35/13249657_1539918879647246_1442159947_n.jpg?ig_cache_key=MTI1MzY1MjQ2NjExNjA2MjY3Mw%3D%3D.2,business,0.979615808
,technology,0.976001322
,telephone,0.975871563
,computer,0.971106112
,laptop,0.96274662
,wireless,0.955811858
,display,0.950344741
,equipment,0.950132132
,device,0.946320534
,money,0.919694662
,desktop,0.916445851
,office,0.908597469
,electronics,0.906069517
,connection,0.895771861
,work,0.891449571
,monitor,0.881376982
,communication,0.879066288
,internet,0.873534977
,screen,0.871648252
,finance,0.858898401
https://scontent.cdninstagram.com/t51.2885-15/e35/13108621_103583730051534_415023382_n.jpg?ig_cache_key=MTIzNTk2NTgzODcyMzY0MTE2Mw%3D%3D.2,wood,0.996334314
,no person,0.991021276
,wooden,0.945311904
,carpentry,0.941202879
,one,0.921571255
,furniture,0.912775636
,retro,0.901121378
,indoors,0.887371302
,industry,0.880194485
,family,0.877488017
,equipment,0.860728621
,food,0.850451827
,interior design,0.842912078
,instrument,0.833987236
,still life,0.829778194
,old,0.818209469
,precision,0.784892321
,table,0.783368349
,safety,0.779559135
,log,0.750023007
https://scontent.cdninstagram.com/t51.2885-15/e35/13129556_670017143147751_1471000584_n.jpg?ig_cache_key=MTI0NTQ5MTM5MDc2MTM5Nzc5NA%3D%3D.2,no person,0.989097416
,food,0.987592816
,delicious,0.980436563
,breakfast,0.975592852
,sesame,0.957789361
,nutrition,0.957177281
,dinner,0.952989817
,meal,0.951162994
,lunch,0.949945688
,unhealthy,0.949833989
,traditional,0.949552417
,health,0.946836114
,refreshment,0.942557931
,bread,0.934998035
,sugar,0.906269848
,fast,0.903833866
,plate,0.895211697
,cooking,0.889244437
,tasty,0.882237434
,meat,0.873986006
https://scontent.cdninstagram.com/t51.2885-15/e35/13408890_303772293296015_822663730_n.jpg?ig_cache_key=MTI4MDI0NTUyNjEwODkyMzIzNA%3D%3D.2,noodles,0.997873664
,pasta,0.997749865
,dinner,0.995485008
,food,0.993488848
,lunch,0.99211514
,spaghetti,0.989088058
,no person,0.983996749
,cooking,0.980350077
,delicious,0.974574924
,cuisine,0.972245097
,traditional,0.960493445
,meal,0.956958652
,dish,0.953967929
,soup,0.948966801
,sauce,0.925538242
,basil,0.923634648
,nutrition,0.920101643
,vegetable,0.911025763
,homemade,0.908929229
,fork,0.907727838
https://scontent.cdninstagram.com/t51.2885-15/e35/12501573_1537246523249175_955254062_n.jpg?ig_cache_key=MTIzMTUyOTgyMzY5NTAwNjc4OA%3D%3D.2,no person,0.973229051
,business,0.969027281
,laptop,0.965170145
,coffee,0.963686943
,table,0.953088522
,wood,0.95080471
,paper,0.941747189
,cup,0.932529926
,writing,0.9300735
,hot,0.926623583
,office,0.90900445
,education,0.904478908
,text,0.897777438
,food,0.897254467
,computer,0.896836042
,composition,0.873625278
,desk,0.870404959
,internet,0.868026853
,drink,0.863765955
,espresso,0.825380623
https://scontent.cdninstagram.com/t51.2885-15/e35/13108865_1293908480639317_2001056984_n.jpg?ig_cache_key=MTI0ODU5MzE1NTIwNzcyMDI4NA%3D%3D.2,house,0.982305169
,people,0.979101777
,wall,0.975062013
,family,0.974960446
,girl,0.971176744
,woman,0.970663369
,portrait,0.961438775
,one,0.958642662
,child,0.931350589
,lifestyle,0.927340031
,adult,0.922713518
,brick,0.922190905
,young,0.906385899
,model,0.896862507
,indoors,0.892165482
,room,0.886471868
,window,0.886239588
,fashion,0.885616481
,recreation,0.878918409
,street,0.876682401
https://scontent.cdninstagram.com/t51.2885-15/e35/12918000_219242555104658_469912216_n.jpg?ig_cache_key=MTIxOTI3MTg3MTkxNTM1NTg5NA%3D%3D.2,art,0.922897696
,people,0.92072916
,no person,0.88347578
,sculpture,0.877865195
,entertainment,0.876016498
,travel,0.872952282
,religion,0.870196581
,gold,0.870149553
,design,0.85813725
,carnival,0.856598258
,traditional,0.853286147
,theme,0.852130413
,veil,0.835252523
,festival,0.833852172
,decoration,0.829922795
,ornate,0.826183558
,culture,0.814775646
,statue,0.805369735
,symbol,0.802858651
,ancient,0.802263618
https://scontent.cdninstagram.com/t51.2885-15/e35/12729648_1033065146765236_294947475_n.jpg?ig_cache_key=MTE4NzU4Mzg1NjIzOTQzOTExMA%3D%3D.2,time,0.999137759
,clock,0.998674393
,watch,0.995000362
,alarm clock,0.991452336
,number,0.980779529
,timer,0.975472927
,precision,0.971078873
,minute,0.968722582
,analogue,0.966890574
,deadline,0.96293354
,dial,0.961118281
,instrument,0.959388494
,no person,0.956839085
,classic,0.937119246
,dial,0.935240865
,countdown,0.92930162
,wake,0.89880389
,midnight,0.886619329
,round,0.884643435
,late,0.881700516
https://scontent.cdninstagram.com/t51.2885-15/e35/12677266_485550448298976_401355435_n.jpg?ig_cache_key=MTE3NjEyMzMzNjczNTA1OTYyNw%3D%3D.2,market,0.9838112
,stock,0.980111837
,no person,0.969655871
,souvenir,0.95797646
,commerce,0.948700309
,shelf,0.940338612
,bazaar,0.940053582
,presentation,0.938953519
,shopping,0.93591392
,travel,0.925866365
,street,0.924328685
,indoors,0.916446745
,traditional,0.914309144
,religion,0.910966754
,shop,0.900015831
,hanging,0.883512259
,city,0.883409023
,culture,0.865352035
,sale,0.856112242
,temple,0.852116704
https://scontent.cdninstagram.com/t51.2885-15/e35/12141899_589588544523518_374088449_n.jpg?ig_cache_key=MTE5NDEyMTM1NjMxMTI2MDY0Nw%3D%3D.2,drink,0.994747162
,glass,0.992659569
,alcohol,0.977331698
,juice,0.964355588
,ice,0.96048224
,cold,0.959494352
,cocktail,0.956009269
,party,0.954045177
,fruit,0.953580737
,bar,0.953259885
,summer,0.949287772
,cool,0.944451928
,liquid,0.934635878
,desktop,0.923662543
,refreshment,0.920487404
,tropical,0.909127593
,soda,0.904916942
,straw,0.87048614
,water,0.866993546
,decoration,0.857992947
https://scontent.cdninstagram.com/t51.2885-15/e35/13398362_254141224949652_1936830337_n.jpg?ig_cache_key=MTI2NTkxODA3NjMxNzMzMTA0MA%3D%3D.2,monochrome,0.996520281
,city,0.992714643
,architecture,0.991822481
,street,0.984369099
,building,0.983389139
,modern,0.974177361
,window,0.971890688
,urban,0.96816957
,business,0.962996244
,office,0.958289325
,black and white,0.948650599
,glass,0.948157907
,no person,0.936564207
,perspective,0.921945214
,downtown,0.911753416
,reflection,0.90824455
,cityscape,0.894929111
,square,0.892218232
,facade,0.881518006
,skyscraper,0.860413551
https://scontent.cdninstagram.com/t51.2885-15/e35/12568307_1653452538253425_1070293201_n.jpg?ig_cache_key=MTE4MDM0NTIxNjY1NjQ2OTcwNQ%3D%3D.2,leaf,0.997053325
,no person,0.99213618
,nature,0.988886356
,tropical,0.983146429
,tree,0.976788521
,palm,0.975135088
,outdoors,0.969249487
,flora,0.968541384
,summer,0.966667175
,growth,0.956895351
,garden,0.949614286
,environment,0.938064337
,rainforest,0.934508562
,exotic,0.933411241
,one,0.926798403
,jungle,0.913089633
,lush,0.912716746
,rain,0.878935814
,food,0.868624568
,wildlife,0.840600848
https://scontent.cdninstagram.com/t51.2885-15/e35/12568217_1006580802750240_1779120211_n.jpg?ig_cache_key=MTE4MTU3MTI5OTMzNDY4MDMwNw%3D%3D.2,desktop,0.984993935
,snake,0.967504382
,gold,0.958332777
,food,0.953285396
,texture,0.950795531
,no person,0.949453235
,color,0.924510539
,sweet,0.917782426
,image,0.911162734
,sculpture,0.908201575
,pattern,0.90226984
,closeup,0.901326597
,decoration,0.888964057
,isolated,0.873190582
,religion,0.865274787
,traditional,0.857967257
,plate,0.857518256
,textile,0.837025642
,art,0.826200962
,symbol,0.821604729
https://scontent.cdninstagram.com/t51.2885-15/e35/12677641_906277386158805_2083928655_n.jpg?ig_cache_key=MTE3NTM4OTk4MDk3NjIxMzU5NA%3D%3D.2,architecture,0.98922503
,city,0.978708804
,no person,0.976586699
,monochrome,0.971081138
,building,0.960370779
,office,0.955067694
,business,0.942612529
,sky,0.937792063
,window,0.937536776
,reflection,0.926884234
,modern,0.922989011
,urban,0.916967511
,outdoors,0.912051499
,glass,0.910085201
,travel,0.892383993
,downtown,0.880030632
,light,0.879767776
,futuristic,0.866957128
,skyscraper,0.851072669
,street,0.8505162
https://scontent.cdninstagram.com/t51.2885-15/e35/12748247_178815582494510_850239459_n.jpg?ig_cache_key=MTE4NzAxNDAyMzQ3NTA5NjcwOA%3D%3D.2,summer,0.994119883
,water,0.986958027
,beach,0.981912374
,tropical,0.979254842
,sea,0.976793051
,seashore,0.972200036
,sun,0.969307899
,ocean,0.967417359
,travel,0.966676772
,vacation,0.966665149
,no person,0.964587808
,fair weather,0.952756226
,reflection,0.948698878
,relaxation,0.942126572
,boat,0.936949193
,color,0.935705125
,outdoors,0.930466771
,sunset,0.922196984
,nature,0.915290475
,watercraft,0.914136529
https://scontent.cdninstagram.com/t51.2885-15/e35/12751480_791868877623178_1211668243_n.jpg?ig_cache_key=MTE5MTc2OTEyNDExNDc4ODIxNg%3D%3D.2,food,0.997105956
,bread,0.995605886
,lettuce,0.994621396
,cheese,0.991436124
,bun,0.986884952
,sandwich,0.985593915
,fast,0.980389535
,no person,0.978630543
,unhealthy,0.971846819
,lunch,0.97183609
,dinner,0.966196358
,vegetable,0.964512467
,meal,0.955460489
,nutrition,0.953323007
,delicious,0.953306317
,burger,0.949954987
,meat,0.949912846
,refreshment,0.945616782
,ham,0.944978356
,tomato,0.941395462
https://scontent.cdninstagram.com/t51.2885-15/e35/12729667_978492832186728_1554765580_n.jpg?ig_cache_key=MTE5NDEzMTY5OTMzOTA5NTgxNA%3D%3D.2,nature,0.989560604
,wood,0.986498356
,tree,0.962800205
,leaf,0.952750802
,water,0.949506402
,landscape,0.93491286
,light,0.930237293
,travel,0.919862509
,beautiful,0.914550662
,summer,0.908124685
,dawn,0.904174089
,park,0.897436857
,sun,0.889206052
,flora,0.877212167
,outdoors,0.856932402
,tropical,0.856541276
,sky,0.854193687
,river,0.844060302
,guidance,0.842891455
,color,0.833669305
https://scontent.cdninstagram.com/l/t51.2885-15/e35/12523708_215832872093296_1597026242_n.jpg?ig_cache_key=MTE3NTA3NzQxNjE5OTI1Mzk2NA%3D%3D.2,no person,0.993185878
,leaf,0.968136072
,nature,0.951836228
,food,0.942585826
,health,0.922618926
,business,0.922229528
,paper,0.921912253
,ingredients,0.893053889
,flora,0.876740396
,vertical,0.863902032
,growth,0.862681985
,indoors,0.862081945
,summer,0.851843297
,cooking,0.826874614
,wood,0.816390038
,medicine,0.810102999
,desktop,0.798324466
,vegetable,0.787771165
,note,0.784193099
,card,0.783741593
https://scontent.cdninstagram.com/t51.2885-15/e35/12534404_896676270451344_1992797551_n.jpg?ig_cache_key=MTE3OTUyMTQwMDc5MTM2MzMyNw%3D%3D.2,tropical,0.998866558
,beach,0.995432615
,exotic,0.993630409
,sand,0.993180633
,summer,0.991353154
,nature,0.979851484
,sun,0.973718047
,seashore,0.96771878
,no person,0.967209339
,fair weather,0.960968733
,island,0.957992315
,relaxation,0.955656707
,paradise,0.952278376
,water,0.951007962
,ocean,0.949591637
,vacation,0.947582603
,sky,0.941784382
,travel,0.940673232
,idyllic,0.930477858
,sea,0.910642147
https://scontent.cdninstagram.com/t51.2885-15/e35/13391199_1071441682950378_1750983934_n.jpg?ig_cache_key=MTI2NTgyMDI0NTI2NzA0OTgyNg%3D%3D.2,business,0.996607006
,office,0.995845616
,glass,0.994386435
,sky,0.992055893
,architecture,0.991771579
,skyscraper,0.990580261
,downtown,0.990545392
,city,0.986761332
,no person,0.982171297
,contemporary,0.981794477
,modern,0.981210113
,window,0.980225444
,tallest,0.979334712
,building,0.979137421
,technology,0.978513539
,perspective,0.978307128
,steel,0.971462369
,finance,0.971087456
,urban,0.964568615
,futuristic,0.957788885
https://scontent.cdninstagram.com/t51.2885-15/e35/12547752_475504475982561_2116679098_n.jpg?ig_cache_key=MTE4MDMzNTU5MTM5MTQ4OTU1Ng%3D%3D.2,nature,0.994195104
,insect,0.985540271
,outdoors,0.982773662
,leaf,0.974939466
,no person,0.962263465
,flora,0.957783461
,tree,0.949602127
,fair weather,0.946843684
,wildlife,0.940632343
,wing,0.9392308
,environment,0.939219832
,garden,0.935783982
,park,0.934732378
,butterfly,0.930916607
,flower,0.924294889
,wild,0.919553876
,summer,0.91635108
,bird,0.902993262
,fly,0.898818254
,daylight,0.892699242
https://scontent.cdninstagram.com/t51.2885-15/e35/13392892_1593492744297043_1779034336_n.jpg?ig_cache_key=MTI2NTI1NDAzNDkwNDk2ODUyMg%3D%3D.2,people,0.971651077
,man,0.952926338
,child,0.94594419
,woman,0.91032958
,fun,0.906453609
,painting,0.896530509
,boy,0.889778793
,family,0.876861811
,adult,0.850949943
,event,0.813928723
,wear,0.795141578
,person,0.785091996
,indoors,0.774953961
,graffiti,0.774388433
,fame,0.768790364
,music,0.763814211
,game,0.763598204
,education,0.762773693
,entertainment,0.74751687
,street,0.74445498
https://scontent.cdninstagram.com/t51.2885-15/e35/12558842_1090123021007741_1300350318_n.jpg?ig_cache_key=MTE3NjkwNTcxMDU3ODE2NzM5MA%3D%3D.2,garden,0.987516165
,tree,0.984506249
,architecture,0.984191537
,no person,0.974051416
,travel,0.972458661
,park,0.959554851
,building,0.94932282
,outdoors,0.940331459
,flower,0.931394219
,religion,0.909165978
,house,0.908636808
,city,0.902225018
,street,0.901646972
,flora,0.897508144
,tourism,0.892392397
,light,0.884954453
,people,0.88140583
,leaf,0.875009775
,court,0.871433735
,vacation,0.866346836
https://scontent.cdninstagram.com/t51.2885-15/e35/13260794_1820506951510652_1480491580_n.jpg?ig_cache_key=MTI2NDUyNDcwMDY1MzE4NjY5OA%3D%3D.2,woman,0.99103868
,chocolate,0.983820438
,indoors,0.979600787
,cream,0.973353207
,indulgence,0.97314775
,dairy product,0.96549952
,sweet,0.96030283
,enjoyment,0.958473563
,milk,0.952672005
,strawberry,0.943853974
,food,0.942380071
,ice,0.941417694
,vanilla,0.930473566
,cute,0.929884255
,delicious,0.923273206
,cake,0.923158288
,coffee,0.910390019
,fruit,0.9078722
,temptation,0.900479674
,breakfast,0.898970485
