url,class,score
"Post-Text,date,likes_count,viewer_has_liked,owner_username,owner_fullname,display_src,location_id,location_has_public_page,location_name,Change your last name to 🐔 if you have yet to ride this 🤗,July 14, 2016,   9:02 am,31,,atxkah,atxkah,https://scontent-sit4-1.cdninstagram.com/t51.2885-15/s750x750/sh0.08/e35/13737040_306378549706685_1455940277_n.jpg,313147050,1,G-max Clark Quey,,April 11, 2016,   2:10 pm,52,,atxkah,atxkah,https://scontent-sit4-1.cdninstagram.com/t51.2885-15/e35/12677380_1079225452100096_1483919009_n.jpg,,,,Life is... 💁,April 12, 2016,   3:06 pm,55,,atxkah,atxkah,https://scontent-sit4-1.cdninstagram.com/t51.2885-15/e35/12912495_241613429525918_1197939042_n.jpg,,,,,April 13, 2016,   2:32 am,71,,atxkah,atxkah,https://scontent-sit4-1.cdninstagram.com/t51.2885-15/e35/12965281_479636178908489_1470013921_n.jpg,,,,Sharing is caring 💕 Thanks for letting me draw on you 🙌,April 15, 2016,   9:13 am,21,,atxkah,atxkah,https://scontent-sit4-1.cdninstagram.com/t51.2885-15/e35/12930706_256179381400246_1041332429_n.jpg,,,,Sunday break 🙌,April 17, 2016,   6:35 am,52,,atxkah,atxkah,https://scontent-sit4-1.cdninstagram.com/t51.2885-15/e35/12501790_584348658391722_1014119520_n.jpg,,,,,April 18, 2016,   2:42 pm,39,,atxkah,atxkah,https://scontent-sit4-1.cdninstagram.com/t51.2885-15/e35/12930819_1780208128874070_466006806_n.jpg,,,,So done 🙌,April 20, 2016,   10:08 am,53,,atxkah,atxkah,https://scontent-sit4-1.cdninstagram.com/t51.2885-15/s640x640/sh0.08/e35/12724696_218716898504793_918562886_n.jpg,,,,Bad bad bad 👟👟,April 24, 2016,   10:46 am,43,,atxkah,atxkah,https://scontent-sit4-1.cdninstagram.com/t51.2885-15/s750x750/sh0.08/e35/12930773_750597231742332_856442669_n.jpg,,,,When tomorrow comes, id be Nineteen 🙌,May 1, 2016,   4:19 pm,68,,atxkah,atxkah,https://scontent-sit4-1.cdninstagram.com/t51.2885-15/e35/13109078_630731037083735_4007304_n.jpg,,,,The main for today, Happy Birthday Ry 💕,May 7, 2016,   4:03 pm,51,,atxkah,atxkah,https://scontent-sit4-1.cdninstagram.com/t51.2885-15/e35/13166879_1376104295740450_878441007_n.jpg,214874824,1,Bugis+,,May 9, 2016,   11:06 am,43,,atxkah,atxkah,https://scontent-sit4-1.cdninstagram.com/t51.2885-15/e35/13116722_473978369443993_1411647683_n.jpg,396851476,1,Temasek Polytechnic,,May 9, 2016,   11:07 am,60,,atxkah,atxkah,https://scontent-sit4-1.cdninstagram.com/t51.2885-15/e35/13118323_1094601177265884_110717082_n.jpg,396851476,1,Temasek Polytechnic,You're not worth my time 🙌
📷: Ugly 💕,May 12, 2016,   3:49 am,65,,atxkah,atxkah,https://scontent-sit4-1.cdninstagram.com/t51.2885-15/e35/13126737_1715492615330132_1683354449_n.jpg,396851476,1,Temasek Polytechnic,This is Ugly 🙄 He turns Nineteen tomorrow so Happy Advance Ugly 🙏,May 12, 2016,   6:12 am,19,,atxkah,atxkah,https://scontent-sit4-1.cdninstagram.com/t51.2885-15/e35/13129728_1244999248857977_557935600_n.jpg,396851476,1,Temasek Polytechnic,That High bun tho 🙏,May 14, 2016,   5:54 pm,26,,atxkah,atxkah,https://scontent-sit4-1.cdninstagram.com/t51.2885-15/e35/13108788_1715066812108402_1323415709_n.jpg,,,,Remember how we used to take these kind of shots cause face cmi ? 🙃🙂,May 15, 2016,   1:01 am,38,,atxkah,atxkah,https://scontent-sit4-1.cdninstagram.com/t51.2885-15/sh0.08/e35/p750x750/13150747_485833848273135_1035968347_n.jpg,,,,👀,May 20, 2016,   2:32 pm,27,,atxkah,atxkah,https://scontent-sit4-1.cdninstagram.com/t51.2885-15/e35/13188038_896361867141015_1244157292_n.jpg,,,,,May 23, 2016,   11:00 am,22,,atxkah,atxkah,https://scontent-sit4-1.cdninstagram.com/t51.2885-15/e35/13258946_1548391412130476_257106185_n.jpg,396851476,1,Temasek Polytechnic,Tolerating my nonsense for the past 3 years.. You're truly blessed 🙌 Thanks for being my friend 🎈,May 26, 2016,   11:23 am,48,,atxkah,atxkah,https://scontent-sit4-1.cdninstagram.com/t51.2885-15/e35/13248753_1592692944393617_2128430592_n.jpg,396851476,1,Temasek Polytechnic,👀,May 31, 2016,   9:43 am,37,,atxkah,atxkah,https://scontent-sit4-1.cdninstagram.com/t51.2885-15/e35/13285291_827946304004245_876550720_n.jpg,,,,Tired of everything 😑,May 31, 2016,   4:24 pm,31,,atxkah,atxkah,https://scontent-sit4-1.cdninstagram.com/t51.2885-15/s750x750/sh0.08/e35/13259529_1050937074941907_585244598_n.jpg,,,,,May 31, 2016,   4:26 pm,29,,atxkah,atxkah,https://scontent-sit4-1.cdninstagram.com/t51.2885-15/s750x750/sh0.08/e35/13267401_1016277381759696_2129571853_n.jpg,,,,,May 31, 2016,   4:29 pm,22,,atxkah,atxkah,https://scontent-sit4-1.cdninstagram.com/t51.2885-15/s750x750/sh0.08/e35/13277716_1404740402885593_1484204081_n.jpg,,,,The highlight of our short meetup after work was the One Ice Cafe bingsu. Highly recommended by friends and it was worth it 👍,June 1, 2016,   4:33 pm,36,,atxkah,atxkah,https://scontent-sit4-1.cdninstagram.com/t51.2885-15/e35/13328945_1712400955666289_1410896907_n.jpg,1030723989,1,One Ice Cafe,[01/06/2016] To many more years of friendship (and good food) with you two gems 🙌 InshaAllah 💕 
It's funny how food brought us together and is keeping us strong despite our busy schedules. Even after we graduated and had to go our separate ways, I really appreciate all the time and effort both of you had given me 🙆 And thank you for being there for me throughout even if we don't meet everyday ❤️ That's Friendship and sometime, best-friends comes in threes 😉🌚💕 P.s you see me but they're a mystery (not really) 😉,June 1, 2016,   5:21 pm,43,,atxkah,atxkah,https://scontent-sit4-1.cdninstagram.com/t51.2885-15/s640x640/sh0.08/e35/13320196_237567876622742_1668933881_n.jpg,,,,Ootn 🙌,June 1, 2016,   5:41 pm,38,,atxkah,atxkah,https://scontent-sit4-1.cdninstagram.com/t51.2885-15/e35/13260990_1040217046060854_1108769107_n.jpg,,,,Haram bro ➰,June 3, 2016,   7:52 am,22,,atxkah,atxkah,https://scontent-sit4-1.cdninstagram.com/t51.2885-15/sh0.08/e35/p750x750/13385840_573240179512493_245685288_n.jpg,,,,You're never too old 🙌,June 4, 2016,   4:48 pm,19,,atxkah,atxkah,https://scontent-sit4-1.cdninstagram.com/t51.2885-15/sh0.08/e35/p750x750/13285404_147007785702805_1941605285_n.jpg,,,,Feeling tourist-y 👀,June 4, 2016,   4:52 pm,18,,atxkah,atxkah,https://scontent-sit4-1.cdninstagram.com/t51.2885-15/sh0.08/e35/p750x750/13388526_1601952440095087_144241564_n.jpg,,,,30cents 🙌,June 5, 2016,   1:57 am,22,,atxkah,atxkah,https://scontent-sit4-1.cdninstagram.com/t51.2885-15/s640x640/sh0.08/e35/13320236_1577136435919371_1705259614_n.jpg,,,,It's been a great weekend 👟,June 5, 2016,   3:51 am,26,,atxkah,atxkah,https://scontent-sit4-1.cdninstagram.com/t51.2885-15/e35/13381111_1131777063561843_1914992677_n.jpg,216034109,1,Batam, Riau, Indonesia,Stretch. Breathe in positivities. Breathe out negativities. Smile and start your day ... I'm home, Singapore 🙌 📷 : @yunhuiiiiii 💕
Ps taken in Batam on the first day tho 🙂,June 5, 2016,   10:18 am,45,,atxkah,atxkah,https://scontent-sit4-1.cdninstagram.com/t51.2885-15/s750x750/sh0.08/e35/13277839_1735971790012510_1319969448_n.jpg,274029466,1,Singapore,Im a confused child right now with FYP and Intern but I have food(Sunflower seeds) in my hand because Patrick decided to be thoughtful x 
P.s I'm fasting 😊,June 8, 2016,   9:28 am,72,,atxkah,atxkah,https://scontent-sit4-1.cdninstagram.com/t51.2885-15/e35/13402302_121867188235105_307065585_n.jpg,396851476,1,Temasek Polytechnic,Wondering what colour this year would be 😊 #tb,June 13, 2016,   2:01 pm,64,,atxkah,atxkah,https://scontent-sit4-1.cdninstagram.com/t51.2885-15/s750x750/sh0.08/e35/13397633_1739186786342148_1388457980_n.jpg,,,,Trekking this morning after so long.. Great weather and amazing company 🙌,June 19, 2016,   6:45 am,55,,atxkah,atxkah,https://scontent-sit4-1.cdninstagram.com/t51.2885-15/e35/13398988_1236690189704379_1234357817_n.jpg,,,,I think I kinda have an obsession with Korean shaved ice recently. Its so heavenly 💕 Chocolate Banana is a fave no doubt 😌,June 30, 2016,   4:33 pm,57,,atxkah,atxkah,https://scontent-sit4-1.cdninstagram.com/t51.2885-15/sh0.08/e35/p750x750/13549649_1044301155658462_1567264149_n.jpg,443511753,1,One Ice Cafe,Selamat Hari Raya 🙌 Mandatory pic with my brother 🍃,July 6, 2016,   12:38 pm,64,,atxkah,atxkah,https://scontent-sit4-1.cdninstagram.com/t51.2885-15/e35/13597592_1556637594632403_667288104_n.jpg,,,,🙌,July 7, 2016,   2:27 am,30,,atxkah,atxkah,https://scontent-sit4-1.cdninstagram.com/t51.2885-15/s640x640/sh0.08/e35/13556829_632519646908344_259187404_n.jpg,,,,Thank you for coming 😊💕😛,July 9, 2016,   9:15 am,69,,atxkah,atxkah,https://scontent-sit4-1.cdninstagram.com/t51.2885-15/e15/p640x640/13649295_154831264925491_382828366_n.jpg,1021357499,1,Woodlands Peak,Im not a photographer so don't judge. Waffles &Hazelnut Ice Cream and Brownie with Coconut Ice cream 💕

The coconut Ice cream was so good 🤗,July 13, 2016,   1:58 pm,38,,atxkah,atxkah,https://scontent-sit4-1.cdninstagram.com/t51.2885-15/e35/13707420_1666104107044755_605365498_n.jpg,322904828,1,Daily Ice Scream Scoop, Holland Village, Singapore,Coconut ice cream with brownie 🤗,July 13, 2016,   2:49 pm,36,,atxkah,atxkah,https://scontent-sit4-1.cdninstagram.com/t51.2885-15/e35/13714191_531734820355345_1254114505_n.jpg,322904828,1,Daily Ice Scream Scoop, Holland Village, Singapore,Big Red Chair 👀,July 15, 2016,   12:50 pm,71,,atxkah,atxkah,https://scontent-sit4-1.cdninstagram.com/t51.2885-15/e35/13703090_159300327823482_2040017848_n.jpg,,,,,July 23, 2016,   7:02 pm,75,,atxkah,atxkah,https://scontent-sit4-1.cdninstagram.com/t51.2885-15/e35/13734338_168801776872644_2103104_n.jpg,,,,Specs of colours in my life that will be remembered. A good experience and cheers to new found friends 💕😊,July 24, 2016,   3:32 pm,80,,atxkah,atxkah,https://scontent-sit4-1.cdninstagram.com/t51.2885-15/e35/13694560_284276201963852_1589603640_n.jpg,396851476,1,Temasek Polytechnic,,July 25, 2016,   10:51 am,84,,atxkah,atxkah,https://scontent-sit4-1.cdninstagram.com/t51.2885-15/e35/13739496_1668149523507493_1684374480_n.jpg,,,,Shiok maki! Was so good and worth it.. I recommend ! 🤗,July 31, 2016,   7:10 am,42,,atxkah,atxkah,https://scontent-sit4-1.cdninstagram.com/t51.2885-15/e35/13744132_643277319173540_1081296126_n.jpg,534151,1,Koh Grill & Sushi Bar,Good food Sunday 🤗 Thank you for coming out after work 🙌,July 31, 2016,   7:14 am,50,,atxkah,atxkah,https://scontent-sit4-1.cdninstagram.com/t51.2885-15/e35/13735959_1765714133717781_1213928020_n.jpg,765965619,1,Hvala Waffle Bar= Error Image, Not Accessible.",,
"Post-Text,date,likes_count,viewer_has_liked,owner_username,owner_fullname,display_src,location_id,location_has_public_page,location_name,Change your last name to 🐔 if you have yet to ride this 🤗,July 14, 2016,   9:02 am,31,,atxkah,atxkah,https://scontent-sit4-1.cdninstagram.com/t51.2885-15/s750x750/sh0.08/e35/13737040_306378549706685_1455940277_n.jpg,313147050,1,G-max Clark Quey,,April 11, 2016,   2:10 pm,52,,atxkah,atxkah,https://scontent-sit4-1.cdninstagram.com/t51.2885-15/e35/12677380_1079225452100096_1483919009_n.jpg,,,,Life is... 💁,April 12, 2016,   3:06 pm,55,,atxkah,atxkah,https://scontent-sit4-1.cdninstagram.com/t51.2885-15/e35/12912495_241613429525918_1197939042_n.jpg,,,,,April 13, 2016,   2:32 am,71,,atxkah,atxkah,https://scontent-sit4-1.cdninstagram.com/t51.2885-15/e35/12965281_479636178908489_1470013921_n.jpg,,,,Sharing is caring 💕 Thanks for letting me draw on you 🙌,April 15, 2016,   9:13 am,21,,atxkah,atxkah,https://scontent-sit4-1.cdninstagram.com/t51.2885-15/e35/12930706_256179381400246_1041332429_n.jpg,,,,Sunday break 🙌,April 17, 2016,   6:35 am,52,,atxkah,atxkah,https://scontent-sit4-1.cdninstagram.com/t51.2885-15/e35/12501790_584348658391722_1014119520_n.jpg,,,,,April 18, 2016,   2:42 pm,39,,atxkah,atxkah,https://scontent-sit4-1.cdninstagram.com/t51.2885-15/e35/12930819_1780208128874070_466006806_n.jpg,,,,So done 🙌,April 20, 2016,   10:08 am,53,,atxkah,atxkah,https://scontent-sit4-1.cdninstagram.com/t51.2885-15/s640x640/sh0.08/e35/12724696_218716898504793_918562886_n.jpg,,,,Bad bad bad 👟👟,April 24, 2016,   10:46 am,43,,atxkah,atxkah,https://scontent-sit4-1.cdninstagram.com/t51.2885-15/s750x750/sh0.08/e35/12930773_750597231742332_856442669_n.jpg,,,,When tomorrow comes, id be Nineteen 🙌,May 1, 2016,   4:19 pm,68,,atxkah,atxkah,https://scontent-sit4-1.cdninstagram.com/t51.2885-15/e35/13109078_630731037083735_4007304_n.jpg,,,,The main for today, Happy Birthday Ry 💕,May 7, 2016,   4:03 pm,51,,atxkah,atxkah,https://scontent-sit4-1.cdninstagram.com/t51.2885-15/e35/13166879_1376104295740450_878441007_n.jpg,214874824,1,Bugis+,,May 9, 2016,   11:06 am,43,,atxkah,atxkah,https://scontent-sit4-1.cdninstagram.com/t51.2885-15/e35/13116722_473978369443993_1411647683_n.jpg,396851476,1,Temasek Polytechnic,,May 9, 2016,   11:07 am,60,,atxkah,atxkah,https://scontent-sit4-1.cdninstagram.com/t51.2885-15/e35/13118323_1094601177265884_110717082_n.jpg,396851476,1,Temasek Polytechnic,You're not worth my time 🙌
📷: Ugly 💕,May 12, 2016,   3:49 am,65,,atxkah,atxkah,https://scontent-sit4-1.cdninstagram.com/t51.2885-15/e35/13126737_1715492615330132_1683354449_n.jpg,396851476,1,Temasek Polytechnic,This is Ugly 🙄 He turns Nineteen tomorrow so Happy Advance Ugly 🙏,May 12, 2016,   6:12 am,19,,atxkah,atxkah,https://scontent-sit4-1.cdninstagram.com/t51.2885-15/e35/13129728_1244999248857977_557935600_n.jpg,396851476,1,Temasek Polytechnic,That High bun tho 🙏,May 14, 2016,   5:54 pm,26,,atxkah,atxkah,https://scontent-sit4-1.cdninstagram.com/t51.2885-15/e35/13108788_1715066812108402_1323415709_n.jpg,,,,Remember how we used to take these kind of shots cause face cmi ? 🙃🙂,May 15, 2016,   1:01 am,38,,atxkah,atxkah,https://scontent-sit4-1.cdninstagram.com/t51.2885-15/sh0.08/e35/p750x750/13150747_485833848273135_1035968347_n.jpg,,,,👀,May 20, 2016,   2:32 pm,27,,atxkah,atxkah,https://scontent-sit4-1.cdninstagram.com/t51.2885-15/e35/13188038_896361867141015_1244157292_n.jpg,,,,,May 23, 2016,   11:00 am,22,,atxkah,atxkah,https://scontent-sit4-1.cdninstagram.com/t51.2885-15/e35/13258946_1548391412130476_257106185_n.jpg,396851476,1,Temasek Polytechnic,Tolerating my nonsense for the past 3 years.. You're truly blessed 🙌 Thanks for being my friend 🎈,May 26, 2016,   11:23 am,48,,atxkah,atxkah,https://scontent-sit4-1.cdninstagram.com/t51.2885-15/e35/13248753_1592692944393617_2128430592_n.jpg,396851476,1,Temasek Polytechnic,👀,May 31, 2016,   9:43 am,37,,atxkah,atxkah,https://scontent-sit4-1.cdninstagram.com/t51.2885-15/e35/13285291_827946304004245_876550720_n.jpg,,,,Tired of everything 😑,May 31, 2016,   4:24 pm,31,,atxkah,atxkah,https://scontent-sit4-1.cdninstagram.com/t51.2885-15/s750x750/sh0.08/e35/13259529_1050937074941907_585244598_n.jpg,,,,,May 31, 2016,   4:26 pm,29,,atxkah,atxkah,https://scontent-sit4-1.cdninstagram.com/t51.2885-15/s750x750/sh0.08/e35/13267401_1016277381759696_2129571853_n.jpg,,,,,May 31, 2016,   4:29 pm,22,,atxkah,atxkah,https://scontent-sit4-1.cdninstagram.com/t51.2885-15/s750x750/sh0.08/e35/13277716_1404740402885593_1484204081_n.jpg,,,,The highlight of our short meetup after work was the One Ice Cafe bingsu. Highly recommended by friends and it was worth it 👍,June 1, 2016,   4:33 pm,36,,atxkah,atxkah,https://scontent-sit4-1.cdninstagram.com/t51.2885-15/e35/13328945_1712400955666289_1410896907_n.jpg,1030723989,1,One Ice Cafe,[01/06/2016] To many more years of friendship (and good food) with you two gems 🙌 InshaAllah 💕 
It's funny how food brought us together and is keeping us strong despite our busy schedules. Even after we graduated and had to go our separate ways, I really appreciate all the time and effort both of you had given me 🙆 And thank you for being there for me throughout even if we don't meet everyday ❤️ That's Friendship and sometime, best-friends comes in threes 😉🌚💕 P.s you see me but they're a mystery (not really) 😉,June 1, 2016,   5:21 pm,43,,atxkah,atxkah,https://scontent-sit4-1.cdninstagram.com/t51.2885-15/s640x640/sh0.08/e35/13320196_237567876622742_1668933881_n.jpg,,,,Ootn 🙌,June 1, 2016,   5:41 pm,38,,atxkah,atxkah,https://scontent-sit4-1.cdninstagram.com/t51.2885-15/e35/13260990_1040217046060854_1108769107_n.jpg,,,,Haram bro ➰,June 3, 2016,   7:52 am,22,,atxkah,atxkah,https://scontent-sit4-1.cdninstagram.com/t51.2885-15/sh0.08/e35/p750x750/13385840_573240179512493_245685288_n.jpg,,,,You're never too old 🙌,June 4, 2016,   4:48 pm,19,,atxkah,atxkah,https://scontent-sit4-1.cdninstagram.com/t51.2885-15/sh0.08/e35/p750x750/13285404_147007785702805_1941605285_n.jpg,,,,Feeling tourist-y 👀,June 4, 2016,   4:52 pm,18,,atxkah,atxkah,https://scontent-sit4-1.cdninstagram.com/t51.2885-15/sh0.08/e35/p750x750/13388526_1601952440095087_144241564_n.jpg,,,,30cents 🙌,June 5, 2016,   1:57 am,22,,atxkah,atxkah,https://scontent-sit4-1.cdninstagram.com/t51.2885-15/s640x640/sh0.08/e35/13320236_1577136435919371_1705259614_n.jpg,,,,It's been a great weekend 👟,June 5, 2016,   3:51 am,26,,atxkah,atxkah,https://scontent-sit4-1.cdninstagram.com/t51.2885-15/e35/13381111_1131777063561843_1914992677_n.jpg,216034109,1,Batam, Riau, Indonesia,Stretch. Breathe in positivities. Breathe out negativities. Smile and start your day ... I'm home, Singapore 🙌 📷 : @yunhuiiiiii 💕
Ps taken in Batam on the first day tho 🙂,June 5, 2016,   10:18 am,45,,atxkah,atxkah,https://scontent-sit4-1.cdninstagram.com/t51.2885-15/s750x750/sh0.08/e35/13277839_1735971790012510_1319969448_n.jpg,274029466,1,Singapore,Im a confused child right now with FYP and Intern but I have food(Sunflower seeds) in my hand because Patrick decided to be thoughtful x 
P.s I'm fasting 😊,June 8, 2016,   9:28 am,72,,atxkah,atxkah,https://scontent-sit4-1.cdninstagram.com/t51.2885-15/e35/13402302_121867188235105_307065585_n.jpg,396851476,1,Temasek Polytechnic,Wondering what colour this year would be 😊 #tb,June 13, 2016,   2:01 pm,64,,atxkah,atxkah,https://scontent-sit4-1.cdninstagram.com/t51.2885-15/s750x750/sh0.08/e35/13397633_1739186786342148_1388457980_n.jpg,,,,Trekking this morning after so long.. Great weather and amazing company 🙌,June 19, 2016,   6:45 am,55,,atxkah,atxkah,https://scontent-sit4-1.cdninstagram.com/t51.2885-15/e35/13398988_1236690189704379_1234357817_n.jpg,,,,I think I kinda have an obsession with Korean shaved ice recently. Its so heavenly 💕 Chocolate Banana is a fave no doubt 😌,June 30, 2016,   4:33 pm,57,,atxkah,atxkah,https://scontent-sit4-1.cdninstagram.com/t51.2885-15/sh0.08/e35/p750x750/13549649_1044301155658462_1567264149_n.jpg,443511753,1,One Ice Cafe,Selamat Hari Raya 🙌 Mandatory pic with my brother 🍃,July 6, 2016,   12:38 pm,64,,atxkah,atxkah,https://scontent-sit4-1.cdninstagram.com/t51.2885-15/e35/13597592_1556637594632403_667288104_n.jpg,,,,🙌,July 7, 2016,   2:27 am,30,,atxkah,atxkah,https://scontent-sit4-1.cdninstagram.com/t51.2885-15/s640x640/sh0.08/e35/13556829_632519646908344_259187404_n.jpg,,,,Thank you for coming 😊💕😛,July 9, 2016,   9:15 am,69,,atxkah,atxkah,https://scontent-sit4-1.cdninstagram.com/t51.2885-15/e15/p640x640/13649295_154831264925491_382828366_n.jpg,1021357499,1,Woodlands Peak,Im not a photographer so don't judge. Waffles &Hazelnut Ice Cream and Brownie with Coconut Ice cream 💕

The coconut Ice cream was so good 🤗,July 13, 2016,   1:58 pm,38,,atxkah,atxkah,https://scontent-sit4-1.cdninstagram.com/t51.2885-15/e35/13707420_1666104107044755_605365498_n.jpg,322904828,1,Daily Ice Scream Scoop, Holland Village, Singapore,Coconut ice cream with brownie 🤗,July 13, 2016,   2:49 pm,36,,atxkah,atxkah,https://scontent-sit4-1.cdninstagram.com/t51.2885-15/e35/13714191_531734820355345_1254114505_n.jpg,322904828,1,Daily Ice Scream Scoop, Holland Village, Singapore,Big Red Chair 👀,July 15, 2016,   12:50 pm,71,,atxkah,atxkah,https://scontent-sit4-1.cdninstagram.com/t51.2885-15/e35/13703090_159300327823482_2040017848_n.jpg,,,,,July 23, 2016,   7:02 pm,75,,atxkah,atxkah,https://scontent-sit4-1.cdninstagram.com/t51.2885-15/e35/13734338_168801776872644_2103104_n.jpg,,,,Specs of colours in my life that will be remembered. A good experience and cheers to new found friends 💕😊,July 24, 2016,   3:32 pm,80,,atxkah,atxkah,https://scontent-sit4-1.cdninstagram.com/t51.2885-15/e35/13694560_284276201963852_1589603640_n.jpg,396851476,1,Temasek Polytechnic,,July 25, 2016,   10:51 am,84,,atxkah,atxkah,https://scontent-sit4-1.cdninstagram.com/t51.2885-15/e35/13739496_1668149523507493_1684374480_n.jpg,,,,Shiok maki! Was so good and worth it.. I recommend ! 🤗,July 31, 2016,   7:10 am,42,,atxkah,atxkah,https://scontent-sit4-1.cdninstagram.com/t51.2885-15/e35/13744132_643277319173540_1081296126_n.jpg,534151,1,Koh Grill & Sushi Bar,Good food Sunday 🤗 Thank you for coming out after work 🙌,July 31, 2016,   7:14 am,50,,atxkah,atxkah,https://scontent-sit4-1.cdninstagram.com/t51.2885-15/e35/13735959_1765714133717781_1213928020_n.jpg,765965619,1,Hvala Waffle Bar= Error Image, Not Accessible.",,
"Post-Text,date,likes_count,viewer_has_liked,owner_username,owner_fullname,display_src,location_id,location_has_public_page,location_name,Change your last name to 🐔 if you have yet to ride this 🤗,July 14, 2016,   9:02 am,31,,atxkah,atxkah,https://scontent-sit4-1.cdninstagram.com/t51.2885-15/s750x750/sh0.08/e35/13737040_306378549706685_1455940277_n.jpg,313147050,1,G-max Clark Quey,,April 11, 2016,   2:10 pm,52,,atxkah,atxkah,https://scontent-sit4-1.cdninstagram.com/t51.2885-15/e35/12677380_1079225452100096_1483919009_n.jpg,,,,Life is... 💁,April 12, 2016,   3:06 pm,55,,atxkah,atxkah,https://scontent-sit4-1.cdninstagram.com/t51.2885-15/e35/12912495_241613429525918_1197939042_n.jpg,,,,,April 13, 2016,   2:32 am,71,,atxkah,atxkah,https://scontent-sit4-1.cdninstagram.com/t51.2885-15/e35/12965281_479636178908489_1470013921_n.jpg,,,,Sharing is caring 💕 Thanks for letting me draw on you 🙌,April 15, 2016,   9:13 am,21,,atxkah,atxkah,https://scontent-sit4-1.cdninstagram.com/t51.2885-15/e35/12930706_256179381400246_1041332429_n.jpg,,,,Sunday break 🙌,April 17, 2016,   6:35 am,52,,atxkah,atxkah,https://scontent-sit4-1.cdninstagram.com/t51.2885-15/e35/12501790_584348658391722_1014119520_n.jpg,,,,,April 18, 2016,   2:42 pm,39,,atxkah,atxkah,https://scontent-sit4-1.cdninstagram.com/t51.2885-15/e35/12930819_1780208128874070_466006806_n.jpg,,,,So done 🙌,April 20, 2016,   10:08 am,53,,atxkah,atxkah,https://scontent-sit4-1.cdninstagram.com/t51.2885-15/s640x640/sh0.08/e35/12724696_218716898504793_918562886_n.jpg,,,,Bad bad bad 👟👟,April 24, 2016,   10:46 am,43,,atxkah,atxkah,https://scontent-sit4-1.cdninstagram.com/t51.2885-15/s750x750/sh0.08/e35/12930773_750597231742332_856442669_n.jpg,,,,When tomorrow comes, id be Nineteen 🙌,May 1, 2016,   4:19 pm,68,,atxkah,atxkah,https://scontent-sit4-1.cdninstagram.com/t51.2885-15/e35/13109078_630731037083735_4007304_n.jpg,,,,The main for today, Happy Birthday Ry 💕,May 7, 2016,   4:03 pm,51,,atxkah,atxkah,https://scontent-sit4-1.cdninstagram.com/t51.2885-15/e35/13166879_1376104295740450_878441007_n.jpg,214874824,1,Bugis+,,May 9, 2016,   11:06 am,43,,atxkah,atxkah,https://scontent-sit4-1.cdninstagram.com/t51.2885-15/e35/13116722_473978369443993_1411647683_n.jpg,396851476,1,Temasek Polytechnic,,May 9, 2016,   11:07 am,60,,atxkah,atxkah,https://scontent-sit4-1.cdninstagram.com/t51.2885-15/e35/13118323_1094601177265884_110717082_n.jpg,396851476,1,Temasek Polytechnic,You're not worth my time 🙌
📷: Ugly 💕,May 12, 2016,   3:49 am,65,,atxkah,atxkah,https://scontent-sit4-1.cdninstagram.com/t51.2885-15/e35/13126737_1715492615330132_1683354449_n.jpg,396851476,1,Temasek Polytechnic,This is Ugly 🙄 He turns Nineteen tomorrow so Happy Advance Ugly 🙏,May 12, 2016,   6:12 am,19,,atxkah,atxkah,https://scontent-sit4-1.cdninstagram.com/t51.2885-15/e35/13129728_1244999248857977_557935600_n.jpg,396851476,1,Temasek Polytechnic,That High bun tho 🙏,May 14, 2016,   5:54 pm,26,,atxkah,atxkah,https://scontent-sit4-1.cdninstagram.com/t51.2885-15/e35/13108788_1715066812108402_1323415709_n.jpg,,,,Remember how we used to take these kind of shots cause face cmi ? 🙃🙂,May 15, 2016,   1:01 am,38,,atxkah,atxkah,https://scontent-sit4-1.cdninstagram.com/t51.2885-15/sh0.08/e35/p750x750/13150747_485833848273135_1035968347_n.jpg,,,,👀,May 20, 2016,   2:32 pm,27,,atxkah,atxkah,https://scontent-sit4-1.cdninstagram.com/t51.2885-15/e35/13188038_896361867141015_1244157292_n.jpg,,,,,May 23, 2016,   11:00 am,22,,atxkah,atxkah,https://scontent-sit4-1.cdninstagram.com/t51.2885-15/e35/13258946_1548391412130476_257106185_n.jpg,396851476,1,Temasek Polytechnic,Tolerating my nonsense for the past 3 years.. You're truly blessed 🙌 Thanks for being my friend 🎈,May 26, 2016,   11:23 am,48,,atxkah,atxkah,https://scontent-sit4-1.cdninstagram.com/t51.2885-15/e35/13248753_1592692944393617_2128430592_n.jpg,396851476,1,Temasek Polytechnic,👀,May 31, 2016,   9:43 am,37,,atxkah,atxkah,https://scontent-sit4-1.cdninstagram.com/t51.2885-15/e35/13285291_827946304004245_876550720_n.jpg,,,,Tired of everything 😑,May 31, 2016,   4:24 pm,31,,atxkah,atxkah,https://scontent-sit4-1.cdninstagram.com/t51.2885-15/s750x750/sh0.08/e35/13259529_1050937074941907_585244598_n.jpg,,,,,May 31, 2016,   4:26 pm,29,,atxkah,atxkah,https://scontent-sit4-1.cdninstagram.com/t51.2885-15/s750x750/sh0.08/e35/13267401_1016277381759696_2129571853_n.jpg,,,,,May 31, 2016,   4:29 pm,22,,atxkah,atxkah,https://scontent-sit4-1.cdninstagram.com/t51.2885-15/s750x750/sh0.08/e35/13277716_1404740402885593_1484204081_n.jpg,,,,The highlight of our short meetup after work was the One Ice Cafe bingsu. Highly recommended by friends and it was worth it 👍,June 1, 2016,   4:33 pm,36,,atxkah,atxkah,https://scontent-sit4-1.cdninstagram.com/t51.2885-15/e35/13328945_1712400955666289_1410896907_n.jpg,1030723989,1,One Ice Cafe,[01/06/2016] To many more years of friendship (and good food) with you two gems 🙌 InshaAllah 💕 
It's funny how food brought us together and is keeping us strong despite our busy schedules. Even after we graduated and had to go our separate ways, I really appreciate all the time and effort both of you had given me 🙆 And thank you for being there for me throughout even if we don't meet everyday ❤️ That's Friendship and sometime, best-friends comes in threes 😉🌚💕 P.s you see me but they're a mystery (not really) 😉,June 1, 2016,   5:21 pm,43,,atxkah,atxkah,https://scontent-sit4-1.cdninstagram.com/t51.2885-15/s640x640/sh0.08/e35/13320196_237567876622742_1668933881_n.jpg,,,,Ootn 🙌,June 1, 2016,   5:41 pm,38,,atxkah,atxkah,https://scontent-sit4-1.cdninstagram.com/t51.2885-15/e35/13260990_1040217046060854_1108769107_n.jpg,,,,Haram bro ➰,June 3, 2016,   7:52 am,22,,atxkah,atxkah,https://scontent-sit4-1.cdninstagram.com/t51.2885-15/sh0.08/e35/p750x750/13385840_573240179512493_245685288_n.jpg,,,,You're never too old 🙌,June 4, 2016,   4:48 pm,19,,atxkah,atxkah,https://scontent-sit4-1.cdninstagram.com/t51.2885-15/sh0.08/e35/p750x750/13285404_147007785702805_1941605285_n.jpg,,,,Feeling tourist-y 👀,June 4, 2016,   4:52 pm,18,,atxkah,atxkah,https://scontent-sit4-1.cdninstagram.com/t51.2885-15/sh0.08/e35/p750x750/13388526_1601952440095087_144241564_n.jpg,,,,30cents 🙌,June 5, 2016,   1:57 am,22,,atxkah,atxkah,https://scontent-sit4-1.cdninstagram.com/t51.2885-15/s640x640/sh0.08/e35/13320236_1577136435919371_1705259614_n.jpg,,,,It's been a great weekend 👟,June 5, 2016,   3:51 am,26,,atxkah,atxkah,https://scontent-sit4-1.cdninstagram.com/t51.2885-15/e35/13381111_1131777063561843_1914992677_n.jpg,216034109,1,Batam, Riau, Indonesia,Stretch. Breathe in positivities. Breathe out negativities. Smile and start your day ... I'm home, Singapore 🙌 📷 : @yunhuiiiiii 💕
Ps taken in Batam on the first day tho 🙂,June 5, 2016,   10:18 am,45,,atxkah,atxkah,https://scontent-sit4-1.cdninstagram.com/t51.2885-15/s750x750/sh0.08/e35/13277839_1735971790012510_1319969448_n.jpg,274029466,1,Singapore,Im a confused child right now with FYP and Intern but I have food(Sunflower seeds) in my hand because Patrick decided to be thoughtful x 
P.s I'm fasting 😊,June 8, 2016,   9:28 am,72,,atxkah,atxkah,https://scontent-sit4-1.cdninstagram.com/t51.2885-15/e35/13402302_121867188235105_307065585_n.jpg,396851476,1,Temasek Polytechnic,Wondering what colour this year would be 😊 #tb,June 13, 2016,   2:01 pm,64,,atxkah,atxkah,https://scontent-sit4-1.cdninstagram.com/t51.2885-15/s750x750/sh0.08/e35/13397633_1739186786342148_1388457980_n.jpg,,,,Trekking this morning after so long.. Great weather and amazing company 🙌,June 19, 2016,   6:45 am,55,,atxkah,atxkah,https://scontent-sit4-1.cdninstagram.com/t51.2885-15/e35/13398988_1236690189704379_1234357817_n.jpg,,,,I think I kinda have an obsession with Korean shaved ice recently. Its so heavenly 💕 Chocolate Banana is a fave no doubt 😌,June 30, 2016,   4:33 pm,57,,atxkah,atxkah,https://scontent-sit4-1.cdninstagram.com/t51.2885-15/sh0.08/e35/p750x750/13549649_1044301155658462_1567264149_n.jpg,443511753,1,One Ice Cafe,Selamat Hari Raya 🙌 Mandatory pic with my brother 🍃,July 6, 2016,   12:38 pm,64,,atxkah,atxkah,https://scontent-sit4-1.cdninstagram.com/t51.2885-15/e35/13597592_1556637594632403_667288104_n.jpg,,,,🙌,July 7, 2016,   2:27 am,30,,atxkah,atxkah,https://scontent-sit4-1.cdninstagram.com/t51.2885-15/s640x640/sh0.08/e35/13556829_632519646908344_259187404_n.jpg,,,,Thank you for coming 😊💕😛,July 9, 2016,   9:15 am,69,,atxkah,atxkah,https://scontent-sit4-1.cdninstagram.com/t51.2885-15/e15/p640x640/13649295_154831264925491_382828366_n.jpg,1021357499,1,Woodlands Peak,Im not a photographer so don't judge. Waffles &Hazelnut Ice Cream and Brownie with Coconut Ice cream 💕

The coconut Ice cream was so good 🤗,July 13, 2016,   1:58 pm,38,,atxkah,atxkah,https://scontent-sit4-1.cdninstagram.com/t51.2885-15/e35/13707420_1666104107044755_605365498_n.jpg,322904828,1,Daily Ice Scream Scoop, Holland Village, Singapore,Coconut ice cream with brownie 🤗,July 13, 2016,   2:49 pm,36,,atxkah,atxkah,https://scontent-sit4-1.cdninstagram.com/t51.2885-15/e35/13714191_531734820355345_1254114505_n.jpg,322904828,1,Daily Ice Scream Scoop, Holland Village, Singapore,Big Red Chair 👀,July 15, 2016,   12:50 pm,71,,atxkah,atxkah,https://scontent-sit4-1.cdninstagram.com/t51.2885-15/e35/13703090_159300327823482_2040017848_n.jpg,,,,,July 23, 2016,   7:02 pm,75,,atxkah,atxkah,https://scontent-sit4-1.cdninstagram.com/t51.2885-15/e35/13734338_168801776872644_2103104_n.jpg,,,,Specs of colours in my life that will be remembered. A good experience and cheers to new found friends 💕😊,July 24, 2016,   3:32 pm,80,,atxkah,atxkah,https://scontent-sit4-1.cdninstagram.com/t51.2885-15/e35/13694560_284276201963852_1589603640_n.jpg,396851476,1,Temasek Polytechnic,,July 25, 2016,   10:51 am,84,,atxkah,atxkah,https://scontent-sit4-1.cdninstagram.com/t51.2885-15/e35/13739496_1668149523507493_1684374480_n.jpg,,,,Shiok maki! Was so good and worth it.. I recommend ! 🤗,July 31, 2016,   7:10 am,42,,atxkah,atxkah,https://scontent-sit4-1.cdninstagram.com/t51.2885-15/e35/13744132_643277319173540_1081296126_n.jpg,534151,1,Koh Grill & Sushi Bar,Good food Sunday 🤗 Thank you for coming out after work 🙌,July 31, 2016,   7:14 am,50,,atxkah,atxkah,https://scontent-sit4-1.cdninstagram.com/t51.2885-15/e35/13735959_1765714133717781_1213928020_n.jpg,765965619,1,Hvala Waffle Bar= Error Image, Not Accessible.",,
https://scontent-sit4-1.cdninstagram.com/t51.2885-15/s750x750/sh0.08/e35/13259529_1050937074941907_585244598_n.jpg,portrait,0.9868589639663696
,adult,0.9841533899307251
,people,0.981045126914978
,girl,0.9795318841934204
,woman,0.9792792797088623
,model,0.9733568429946899
,one,0.9696936011314392
,side view,0.9564417600631714
,wear,0.9541105628013611
,brunette,0.952589750289917
,fashion,0.938809871673584
,profile,0.9374199509620667
,fashionable,0.9065232276916504
,music,0.9003403186798096
,light,0.8801172971725464
,facial expression,0.8783730268478394
,hairdo,0.8724644184112549
,studio,0.871832013130188
,backlit,0.8709903955459595
,dress,0.8268413543701172
https://scontent-sit4-1.cdninstagram.com/t51.2885-15/s750x750/sh0.08/e35/13277716_1404740402885593_1484204081_n.jpg,footwear,0.9995107054710388
,foot,0.9970398545265198
,wear,0.9938153028488159
,girl,0.9910533428192139
,fashion,0.9808390140533447
,fashionable,0.975312352180481
,shoe,0.9736225605010986
,people,0.9700484275817871
,beach,0.96467125415802
,woman,0.9608437418937683
,room,0.9542720317840576
,dress,0.9400197267532349
,model,0.9384413361549377
,street,0.9378476142883301
,adult,0.9376149773597717
,landscape,0.9333134889602661
,recreation,0.9151252508163452
,two,0.9112772345542908
,leather,0.9057135581970215
,train,0.8646280169487
https://scontent-sit4-1.cdninstagram.com/t51.2885-15/e35/13126737_1715492615330132_1683354449_n.jpg,people,0.9812772274017334
,adult,0.9759676456451416
,one,0.9750945568084717
,woman,0.9728877544403076
,portrait,0.9640851020812988
,model,0.9592249393463135
,indoors,0.9583114385604858
,fashion,0.9575455784797668
,girl,0.942253828048706
,footwear,0.9359060525894165
,wear,0.9320430755615234
,music,0.9270447492599487
,room,0.9249650239944458
,fashionable,0.9153677225112915
,musician,0.8997665643692017
,performance,0.8929162621498108
,glamour,0.881365180015564
,singer,0.875410795211792
,festival,0.856818437576294
,sexy,0.8563239574432373
https://scontent-sit4-1.cdninstagram.com/t51.2885-15/e35/13116722_473978369443993_1411647683_n.jpg,fashion,0.9893263578414917
,woman,0.9861087799072266
,portrait,0.9797573089599609
,model,0.9531382322311401
,one,0.9518064260482788
,wear,0.9485352039337158
,adult,0.9404457807540894
,girl,0.92442786693573
,sunglasses,0.9175392389297485
,people,0.9100953340530396
,glamour,0.8768191933631897
,fashionable,0.8730506300926208
,punk,0.8586434125900269
,business,0.8582354187965393
,sexy,0.8321061134338379
,pretty,0.8159679174423218
,pants,0.8059210777282715
,jacket,0.799344539642334
,dress,0.7764720916748047
,street,0.7751028537750244
https://scontent-sit4-1.cdninstagram.com/t51.2885-15/e35/13739496_1668149523507493_1684374480_n.jpg,portrait,0.9942357540130615
,woman,0.9941390752792358
,fashion,0.9883425235748291
,one,0.9837690591812134
,girl,0.9834017753601074
,model,0.9811033010482788
,adult,0.9798824787139893
,wear,0.9746189713478088
,brunette,0.9719802141189575
,people,0.9363086819648743
,skirt,0.9293794631958008
,facial expression,0.9121932983398438
,dress,0.897208571434021
,glamour,0.8930938243865967
,fashionable,0.8807500004768372
,sexy,0.8777486085891724
,pants,0.8756147623062134
,actress,0.853569746017456
,studio,0.8527029752731323
,music,0.8379295468330383
https://scontent-sit4-1.cdninstagram.com/t51.2885-15/e35/12965281_479636178908489_1470013921_n.jpg,woman,0.987998366355896
,fashion,0.9742148518562317
,portrait,0.9715729355812073
,business,0.9696817398071289
,one,0.961215615272522
,people,0.9565788507461548
,indoors,0.9526169300079346
,adult,0.9270068407058716
,girl,0.9167966246604919
,wear,0.9128170013427734
,model,0.8963638544082642
,music,0.8666239976882935
,glamour,0.8176472187042236
,contemporary,0.7983115911483765
,pretty,0.7929932475090027
,sexy,0.7892380952835083
,office,0.7822319269180298
,actor,0.7669180631637573
,looking,0.7564988136291504
,sunglasses,0.7544171810150146
https://scontent-sit4-1.cdninstagram.com/t51.2885-15/s750x750/sh0.08/e35/13737040_306378549706685_1455940277_n.jpg,business,0.9468024969100952
,text,0.9433187246322632
,paper,0.9131495952606201
,symbol,0.8852730989456177
,desktop,0.8815886974334717
,sign,0.8799279928207397
,communication,0.8779022693634033
,people,0.8349100351333618
,give voice,0.8310564756393433
,time,0.8235280513763428
,sign,0.7867864370346069
,money,0.7800673842430115
,financial,0.775860071182251
,number,0.763542890548706
,hand,0.7624878883361816
,form,0.7543517351150513
,finance,0.7307687997817993
,page,0.7242911458015442
,data,0.7217026948928833
,woman,0.7210985422134399
https://scontent-sit4-1.cdninstagram.com/t51.2885-15/s640x640/sh0.08/e35/13556829_632519646908344_259187404_n.jpg,time,0.9876887798309326
,no person,0.9773954153060913
,number,0.9766603708267212
,text,0.973853349685669
,reminder,0.9635205268859863
,business,0.9541496634483337
,sign,0.9391897320747375
,risk,0.9231029748916626
,chance,0.9226131439208984
,game,0.9162173867225647
,leisure,0.9108521938323975
,success,0.8946791887283325
,win,0.8929766416549683
,give voice,0.8921250700950623
,conceptual,0.882595419883728
,paper,0.8815299272537231
,card,0.8803544044494629
,winner,0.8758019208908081
,symbol,0.8655472993850708
,challenge,0.8523733615875244
https://scontent-sit4-1.cdninstagram.com/t51.2885-15/e35/13129728_1244999248857977_557935600_n.jpg,indoors,0.9885733127593994
,people,0.9838989973068237
,one,0.9769306182861328
,room,0.9754185676574707
,portrait,0.9737288951873779
,adult,0.9684653282165527
,business,0.9559544324874878
,wear,0.931159257888794
,furniture,0.9274585247039795
,man,0.922784686088562
,woman,0.9168634414672852
,model,0.9118109941482544
,television,0.9105863571166992
,window,0.9093875885009766
,home,0.8793805241584778
,museum,0.8788362145423889
,fashion,0.8773102164268494
,technology,0.8486809730529785
,office,0.8468021154403687
,computer,0.8435362577438354
https://scontent-sit4-1.cdninstagram.com/t51.2885-15/e35/13188038_896361867141015_1244157292_n.jpg,vehicle,0.9984884858131409
,car,0.9982394576072693
,transportation system,0.9885901808738708
,driver,0.9817768931388855
,indoors,0.978784441947937
,dashboard,0.9652005434036255
,steering wheel,0.9614858031272888
,travel,0.9517661333084106
,people,0.9488561153411865
,guidance,0.9448679685592651
,adult,0.9370294809341431
,fast,0.9342063665390015
,woman,0.9305694103240967
,man,0.9065002799034119
,one,0.9064517021179199
,airplane,0.8996187448501587
,drive,0.8727165460586548
,control,0.8710759878158569
,window,0.8691641688346863
,blur,0.8668824434280396
https://scontent-sit4-1.cdninstagram.com/t51.2885-15/s640x640/sh0.08/e35/12724696_218716898504793_918562886_n.jpg,woman,0.9895347356796265
,fashion,0.9758429527282715
,people,0.9531629085540771
,portrait,0.9407243132591248
,sexy,0.9376368522644043
,glamour,0.9243313074111938
,girl,0.9193761944770813
,one,0.8959805965423584
,model,0.8935636281967163
,business,0.884447455406189
,adult,0.8777124881744385
,indoors,0.8643419742584229
,hair,0.8570001125335693
,luxury,0.8178709745407104
,wealth,0.800909698009491
,offense,0.7987470626831055
,rebellion,0.7808159589767456
,music,0.7717176079750061
,hairdo,0.7407832741737366
,pretty,0.7395477890968323
https://scontent-sit4-1.cdninstagram.com/t51.2885-15/s640x640/sh0.08/e35/13320196_237567876622742_1668933881_n.jpg,woman,0.9891467094421387
,people,0.9876653552055359
,portrait,0.980595588684082
,indoors,0.9772608876228333
,adult,0.9683173298835754
,movie,0.9600339531898499
,facial expression,0.9568524360656738
,girl,0.9343863725662231
,wear,0.9298677444458008
,festival,0.8861406445503235
,seat,0.8853507041931152
,actress,0.8848878145217896
,room,0.8756551742553711
,music,0.866241455078125
,interaction,0.863370418548584
,brunette,0.859290361404419
,child,0.8525839447975159
,happiness,0.8505582213401794
,adolescent,0.8432748913764954
,two,0.8405758142471313
https://scontent-sit4-1.cdninstagram.com/t51.2885-15/e35/13381111_1131777063561843_1914992677_n.jpg,people,0.9938477873802185
,girl,0.9925535321235657
,adult,0.9897304773330688
,woman,0.9887300729751587
,one,0.9838639497756958
,portrait,0.9715099334716797
,model,0.9263601899147034
,laptop,0.920421838760376
,nude,0.9133812189102173
,brunette,0.9113579988479614
,telephone,0.8946233987808228
,room,0.892905592918396
,computer,0.8888788223266602
,technology,0.881618857383728
,wear,0.8494386672973633
,education,0.8423922061920166
,child,0.8405988216400146
,business,0.8376337885856628
,offense,0.8328347206115723
,two,0.8250608444213867
https://scontent-sit4-1.cdninstagram.com/t51.2885-15/s750x750/sh0.08/e35/12930773_750597231742332_856442669_n.jpg,foot,0.9787752628326416
,people,0.9736208319664001
,woman,0.9653960466384888
,girl,0.9571174383163452
,street,0.947620689868927
,sport,0.9412049055099487
,footwear,0.9341691136360168
,adult,0.9265968799591064
,competition,0.9234589338302612
,athlete,0.9201856851577759
,two,0.9113367199897766
,urban,0.903043270111084
,exercise,0.9003486633300781
,leather,0.8972653746604919
,road,0.8859870433807373
,shoe,0.8840433359146118
,outdoors,0.8733704090118408
,park,0.8564577102661133
,runner,0.8554002046585083
,landscape,0.8466476202011108
https://scontent-sit4-1.cdninstagram.com/t51.2885-15/s640x640/sh0.08/e35/13320236_1577136435919371_1705259614_n.jpg,car,0.991371750831604
,road,0.9868479371070862
,vehicle,0.9853359460830688
,people,0.9769854545593262
,transportation system,0.9530547857284546
,rally,0.9277541041374207
,street,0.9212089776992798
,hurry,0.9158772230148315
,sign,0.903313934803009
,drive,0.8862126469612122
,woman,0.8673596978187561
,competition,0.8666473627090454
,driver,0.8649781942367554
,adult,0.8599663972854614
,action,0.8528722524642944
,traffic,0.8511689305305481
,race,0.8454529047012329
,event,0.8287705183029175
,fast,0.815406084060669
,travel,0.8031541109085083
https://scontent-sit4-1.cdninstagram.com/t51.2885-15/e35/12912495_241613429525918_1197939042_n.jpg,woman,0.9869371652603149
,wear,0.9683681130409241
,fashion,0.9677519202232361
,one,0.9652506113052368
,pants,0.9625868201255798
,man,0.9460883736610413
,casual,0.9377437829971313
,sneakers,0.9112832546234131
,sexy,0.8973243832588196
,adult,0.8943606615066528
,contemporary,0.8881057500839233
,indoors,0.8860763311386108
,portrait,0.8833320140838623
,looking,0.8781620264053345
,adolescent,0.861243486404419
,thin,0.8216766715049744
,serious,0.8207850456237793
,vertical,0.8030336499214172
,people,0.8026448488235474
,young,0.8013936281204224
https://scontent-sit4-1.cdninstagram.com/t51.2885-15/s750x750/sh0.08/e35/13277839_1735971790012510_1319969448_n.jpg,window,0.9934635758399963
,people,0.9912809133529663
,girl,0.9838758707046509
,one,0.9832769632339478
,woman,0.981715202331543
,fashion,0.9677406549453735
,door,0.9661780595779419
,model,0.9651141166687012
,shadow,0.9519815444946289
,silhouette,0.951073169708252
,portrait,0.9480352401733398
,wear,0.946319580078125
,indoors,0.9454416632652283
,light,0.9450443387031555
,adult,0.9447690844535828
,dress,0.9417610168457031
,backlit,0.9394689798355103
,building,0.9371681809425354
,city,0.9296631217002869
,street,0.9248212575912476
https://scontent-sit4-1.cdninstagram.com/t51.2885-15/e35/13260990_1040217046060854_1108769107_n.jpg,music,0.980798602104187
,people,0.9801913499832153
,woman,0.9682141542434692
,girl,0.9676246643066406
,concert,0.9665094614028931
,one,0.9577455520629883
,performance,0.9555160999298096
,portrait,0.9513468742370605
,adult,0.9473056197166443
,musician,0.9420187473297119
,fashion,0.9409833550453186
,model,0.938465416431427
,singer,0.9066490530967712
,urban,0.8966127038002014
,festival,0.8904985189437866
,band,0.858343243598938
,light,0.8525874614715576
,city,0.8431483507156372
,dark,0.8334559202194214
,street,0.8235893249511719
https://scontent-sit4-1.cdninstagram.com/t51.2885-15/e35/13703090_159300327823482_2040017848_n.jpg,woman,0.9914722442626953
,pretty,0.9866676330566406
,young,0.9840813875198364
,girl,0.9826144576072693
,beautiful,0.9802682995796204
,portrait,0.9708466529846191
,sit,0.9702455401420593
,fashion,0.9656475782394409
,one,0.9617235064506531
,person,0.9603542685508728
,isolated,0.9558900594711304
,attractive,0.9549641609191895
,model,0.9514719843864441
,cute,0.9457261562347412
,elegant,0.9394436478614807
,adult,0.936087965965271
,sexy,0.9341236352920532
,lifestyle,0.9303600788116455
,studio,0.9287341237068176
,smile,0.9138970375061035
https://scontent-sit4-1.cdninstagram.com/t51.2885-15/e15/p640x640/13649295_154831264925491_382828366_n.jpg,child,0.9855676293373108
,portrait,0.9846917390823364
,people,0.9798057675361633
,woman,0.9680138826370239
,facial expression,0.957726240158081
,girl,0.9538861513137817
,happiness,0.9428846836090088
,adult,0.9426867365837097
,school,0.9344754219055176
,group,0.9329285025596619
,togetherness,0.9295699596405029
,family,0.927631139755249
,friendship,0.9253218770027161
,adolescent,0.9188754558563232
,three,0.9128274917602539
,education,0.9020357131958008
,indoors,0.8931845426559448
,fun,0.8833812475204468
,boy,0.8752131462097168
,wear,0.872016191482544
https://scontent-sit4-1.cdninstagram.com/t51.2885-15/e35/13714191_531734820355345_1254114505_n.jpg,chocolate,0.999047040939331
,sweet,0.9948323369026184
,cream,0.9932309985160828
,sugar,0.9895914793014526
,vanilla,0.9879747629165649
,delicious,0.9873045086860657
,no person,0.9822637438774109
,food,0.9777646064758301
,creamy,0.9766905903816223
,cake,0.9723085165023804
,chocolate,0.9699645042419434
,indulgence,0.9696454405784607
,plate,0.9563758373260498
,milk,0.9517822265625
,baking,0.944320559501648
,fork,0.9382461309432983
,epicure,0.9371010065078735
,pastry,0.9244065880775452
,dairy product,0.9194363355636597
,restaurant,0.9163854718208313
https://scontent-sit4-1.cdninstagram.com/t51.2885-15/s750x750/sh0.08/e35/13267401_1016277381759696_2129571853_n.jpg,people,0.9935176968574524
,portrait,0.9778146147727966
,adult,0.9768328666687012
,girl,0.9749873876571655
,one,0.9739241600036621
,model,0.9701735973358154
,woman,0.9642820954322815
,wear,0.9364113211631775
,fashion,0.9244352579116821
,music,0.8930457830429077
,beach,0.8818739056587219
,light,0.8762807846069336
,man,0.8681421279907227
,two,0.8605498671531677
,footwear,0.8525865077972412
,landscape,0.850286066532135
,pants,0.8406533002853394
,city,0.8371993899345398
,fashionable,0.8257879614830017
,street,0.8210513591766357
https://scontent-sit4-1.cdninstagram.com/t51.2885-15/e35/13166879_1376104295740450_878441007_n.jpg,people,0.990664005279541
,adult,0.9731541872024536
,woman,0.9589313268661499
,music,0.9509252309799194
,two,0.9368138313293457
,one,0.9334397315979004
,recreation,0.9332215785980225
,girl,0.9010031223297119
,pants,0.8950720429420471
,man,0.8944509029388428
,portrait,0.8809273838996887
,wear,0.8650777339935303
,performance,0.8648321628570557
,group,0.8481099605560303
,musician,0.8476881980895996
,concert,0.8376622200012207
,child,0.8231230974197388
,festival,0.8209664821624756
,singer,0.8062167763710022
,competition,0.7904921770095825
https://scontent-sit4-1.cdninstagram.com/t51.2885-15/e35/12930819_1780208128874070_466006806_n.jpg,coffee,0.978635311126709
,drink,0.9462271928787231
,cup,0.9403139352798462
,woman,0.9320260286331177
,business,0.9135904312133789
,hot,0.9132450819015503
,people,0.9095120429992676
,food,0.9061077237129211
,container,0.87897789478302
,traditional,0.8720114231109619
,no person,0.8695633411407471
,espresso,0.8673667907714844
,hand,0.8655074834823608
,mug,0.8639888763427734
,tea,0.8536575436592102
,caffeine,0.8484120965003967
,money,0.826090931892395
,text,0.8156427145004272
,adult,0.8066284656524658
,wood,0.8028875589370728
https://scontent-sit4-1.cdninstagram.com/t51.2885-15/e35/12501790_584348658391722_1014119520_n.jpg,people,0.9973967671394348
,adult,0.9556863903999329
,bed,0.9549946188926697
,woman,0.9459084272384644
,medicine,0.9380587935447693
,man,0.9249581694602966
,reclining,0.9226294755935669
,one,0.9197014570236206
,healthcare,0.9109784364700317
,bedroom,0.9027769565582275
,wear,0.8834714889526367
,hospital,0.8833941221237183
,girl,0.866590678691864
,sleep,0.8640769720077515
,two,0.8606807589530945
,love,0.8069396018981934
,foot,0.7757498025894165
,child,0.7679698467254639
,ailment,0.7653391361236572
,nude,0.7618579864501953
https://scontent-sit4-1.cdninstagram.com/t51.2885-15/e35/12930706_256179381400246_1041332429_n.jpg,people,0.9726388454437256
,business,0.9652539491653442
,man,0.9609270095825195
,hand,0.9545178413391113
,indoors,0.9183905124664307
,finance,0.9162131547927856
,offense,0.9012614488601685
,woman,0.8948653936386108
,adult,0.8871795535087585
,one,0.8519566059112549
,human,0.7763791084289551
,fashion,0.7736389636993408
,person,0.7540147304534912
,danger,0.7538548707962036
,light,0.7368212342262268
,support,0.7346655130386353
,paper,0.718522846698761
,office,0.6972459554672241
,young,0.6924179196357727
,groom,0.6906642913818359
https://scontent-sit4-1.cdninstagram.com/t51.2885-15/s750x750/sh0.08/e35/13397633_1739186786342148_1388457980_n.jpg,woman,0.9882237315177917
,portrait,0.9797652363777161
,girl,0.9773698449134827
,people,0.976071834564209
,street,0.9705220460891724
,wear,0.9573016166687012
,adult,0.9547122120857239
,road,0.9504918456077576
,one,0.9481064081192017
,outdoors,0.944929838180542
,fashion,0.9439952373504639
,luggage,0.9243266582489014
,jacket,0.9059457778930664
,facial expression,0.8969059586524963
,travel,0.8881840109825134
,city,0.8813880681991577
,recreation,0.8650460243225098
,skirt,0.8596216440200806
,pants,0.8557523488998413
,model,0.8532341718673706
https://scontent-sit4-1.cdninstagram.com/t51.2885-15/sh0.08/e35/p750x750/13385840_573240179512493_245685288_n.jpg,footwear,0.9979448914527893
,fashion,0.9952355623245239
,leather,0.9950591921806335
,foot,0.9896745085716248
,woman,0.987869143486023
,wear,0.9820449352264404
,shoe,0.9701716899871826
,girl,0.9518740177154541
,people,0.9490325450897217
,elegant,0.9471279382705688
,body,0.9330756664276123
,business,0.9197547435760498
,lace,0.9050672054290771
,pants,0.9008655548095703
,indoors,0.897458016872406
,adult,0.8954033851623535
,isolated,0.8914093375205994
,sexy,0.8849724531173706
,exercise,0.8562514781951904
,human,0.8479771614074707
https://scontent-sit4-1.cdninstagram.com/t51.2885-15/sh0.08/e35/p750x750/13150747_485833848273135_1035968347_n.jpg,woman,0.9862062931060791
,girl,0.9850485920906067
,portrait,0.9838716983795166
,fashion,0.9815988540649414
,people,0.9727045297622681
,model,0.9703905582427979
,young,0.9617407917976379
,adult,0.9613825678825378
,sexy,0.9589492082595825
,beautiful,0.9571917653083801
,one,0.9343863725662231
,hair,0.9041761159896851
,brunette,0.9039007425308228
,person,0.8924123048782349
,glamour,0.8841689825057983
,face,0.8821732997894287
,studio,0.8813396692276001
,cute,0.8685051202774048
,attractive,0.8669658899307251
,skin,0.8583846092224121
https://scontent-sit4-1.cdninstagram.com/t51.2885-15/e35/13108788_1715066812108402_1323415709_n.jpg,car,0.997943639755249
,vehicle,0.9969075918197632
,indoors,0.9831253290176392
,driver,0.979972243309021
,sitting,0.9775749444961548
,woman,0.977562427520752
,transportation system,0.9690208435058594
,adult,0.9683890342712402
,man,0.9661731719970703
,people,0.9657084941864014
,steering wheel,0.9634124040603638
,guidance,0.9535055160522461
,dashboard,0.9452053904533386
,travel,0.9278160333633423
,looking,0.9255979061126709
,seat,0.9137661457061768
,window,0.8974202871322632
,drive,0.8864771127700806
,one,0.8779568076133728
,cabin,0.863154947757721
https://scontent-sit4-1.cdninstagram.com/t51.2885-15/sh0.08/e35/p750x750/13388526_1601952440095087_144241564_n.jpg,street,0.9943259954452515
,festival,0.9785113334655762
,city,0.9783905744552612
,parade,0.9521273374557495
,people,0.9516737461090088
,shopping,0.9236164093017578
,rally,0.9198052883148193
,strange,0.9110909104347229
,woman,0.901984453201294
,crowd,0.9019433259963989
,man,0.888209879398346
,urban,0.8825751543045044
,pride,0.8759195804595947
,police,0.8635600805282593
,exhibition,0.8569427728652954
,commerce,0.8324086666107178
,tourist,0.8316418528556824
,editorial,0.827142596244812
,carnival,0.8169524669647217
,market,0.7981604337692261
https://scontent-sit4-1.cdninstagram.com/t51.2885-15/sh0.08/e35/p750x750/13285404_147007785702805_1941605285_n.jpg,people,0.9977075457572937
,adult,0.9801218509674072
,group,0.9768458604812622
,recreation,0.9619936347007751
,man,0.9554067254066467
,woman,0.9438575506210327
,child,0.933964192867279
,commerce,0.927278459072113
,many,0.9261472225189209
,wear,0.9245666265487671
,indoors,0.9238005876541138
,education,0.8968545198440552
,festival,0.8957135677337646
,portrait,0.8957065939903259
,stock,0.884463906288147
,room,0.8521761894226074
,school,0.8485761880874634
,shopping,0.8408668637275696
,market,0.8212473392486572
,religion,0.815852165222168
https://scontent-sit4-1.cdninstagram.com/t51.2885-15/e35/13597592_1556637594632403_667288104_n.jpg,people,0.9867608547210693
,woman,0.98592209815979
,portrait,0.9828548431396484
,adult,0.976874053478241
,two,0.9584782123565674
,girl,0.940726637840271
,wear,0.9324220418930054
,man,0.9220044612884521
,facial expression,0.9058753252029419
,indoors,0.8989583849906921
,fashion,0.8953787684440613
,togetherness,0.8634960651397705
,happiness,0.8577448129653931
,outdoors,0.8554314374923706
,three,0.8505561947822571
,group,0.8347347974777222
,model,0.8320385217666626
,family,0.8280409574508667
,young,0.8153287172317505
,telephone,0.7908076643943787
https://scontent-sit4-1.cdninstagram.com/t51.2885-15/e35/13735959_1765714133717781_1213928020_n.jpg,chocolate,0.9967978000640869
,no person,0.9965256452560425
,delicious,0.9927082657814026
,sugar,0.9922800660133362
,indulgence,0.9870467185974121
,food,0.977105975151062
,sweet,0.9708895087242126
,homemade,0.9662539958953857
,unhealthy,0.966036856174469
,candy,0.9596145153045654
,baking,0.9554482698440552
,cream,0.9542681574821472
,kind,0.9261302947998047
,indoors,0.922549307346344
,goody,0.9111959338188171
,cake,0.8970564007759094
,temptation,0.8883967399597168
,merchandise,0.8857306241989136
,sprinkles,0.8750795125961304
,refreshment,0.8682796955108643
https://scontent-sit4-1.cdninstagram.com/t51.2885-15/sh0.08/e35/p750x750/13549649_1044301155658462_1567264149_n.jpg,chocolate,0.999419093132019
,sweet,0.997706413269043
,delicious,0.9976547956466675
,no person,0.9951341152191162
,food,0.994502067565918
,sugar,0.993320643901825
,cream,0.9928929805755615
,indulgence,0.9912985563278198
,vanilla,0.9840048551559448
,caramel,0.980812668800354
,candy,0.9632043838500977
,temptation,0.9623063802719116
,goody,0.9564741253852844
,creamy,0.9554591178894043
,fudge,0.9531576037406921
,epicure,0.952505886554718
,baking,0.9520741105079651
,tasty,0.9433443546295166
,homemade,0.9363729357719421
,scoop,0.9358340501785278
https://scontent-sit4-1.cdninstagram.com/t51.2885-15/e35/13285291_827946304004245_876550720_n.jpg,business,0.9876858592033386
,fashion,0.9773699045181274
,woman,0.9720761775970459
,model,0.9552421569824219
,office,0.9523837566375732
,fashionable,0.9171828031539917
,girl,0.913138747215271
,adult,0.9097075462341309
,indoors,0.8908151388168335
,people,0.8811801671981812
,city,0.8744999170303345
,portrait,0.8727350234985352
,suit,0.871327817440033
,hallway,0.86241614818573
,skirt,0.8538171052932739
,wear,0.8428229093551636
,glamour,0.8389818072319031
,luggage,0.8371790647506714
,building,0.831586480140686
,street,0.8223872780799866
https://scontent-sit4-1.cdninstagram.com/t51.2885-15/e35/13248753_1592692944393617_2128430592_n.jpg,woman,0.9909914135932922
,business,0.97151780128479
,pretty,0.9703330993652344
,fashion,0.9696583151817322
,contemporary,0.9666575789451599
,success,0.9494988918304443
,elegant,0.947152853012085
,formal,0.9449930191040039
,young,0.9356513619422913
,looking,0.884520411491394
,cute,0.8765236139297485
,partnership,0.8619027733802795
,casual,0.8593239188194275
,sexy,0.8470311760902405
,success,0.8388726711273193
,isolated,0.8075091242790222
,teamwork,0.8055113554000854
,professional,0.785254716873169
,full,0.7813067436218262
,actor,0.7771650552749634
https://scontent-sit4-1.cdninstagram.com/t51.2885-15/e35/13694560_284276201963852_1589603640_n.jpg,group,0.9901895523071289
,people,0.9846644401550293
,woman,0.9792355298995972
,portrait,0.9750173091888428
,group,0.971351683139801
,adult,0.9638172388076782
,many,0.9620190858840942
,music,0.9448997974395752
,wear,0.912895917892456
,singer,0.9117882251739502
,performance,0.9081076979637146
,musician,0.9046885967254639
,man,0.9032472372055054
,competition,0.9003986120223999
,school,0.891384482383728
,band,0.8791571855545044
,education,0.875828742980957
,recreation,0.8734920024871826
,business,0.8660213351249695
,concert,0.8480802774429321
https://scontent-sit4-1.cdninstagram.com/t51.2885-15/e35/13707420_1666104107044755_605365498_n.jpg,chocolate,0.9928253889083862
,food,0.9925987720489502
,sweet,0.9844940900802612
,delicious,0.9734840393066406
,epicure,0.9691755771636963
,tasty,0.9612858295440674
,goody,0.9596550464630127
,refreshment,0.9520244598388672
,no person,0.9482510089874268
,sugar,0.9479479789733887
,sweetmeat,0.9424121975898743
,indulgence,0.9390187859535217
,chocolate,0.936644971370697
,cream,0.9365548491477966
,candy,0.9308326840400696
,closeup,0.9177814722061157
,dark,0.9012411236763
,cake,0.8929706811904907
,confection,0.8786992430686951
,meal,0.8765146732330322
https://scontent-sit4-1.cdninstagram.com/t51.2885-15/e35/12677380_1079225452100096_1483919009_n.jpg,girl,0.9959477782249451
,portrait,0.9924492239952087
,people,0.9906681776046753
,woman,0.9891659021377563
,adult,0.984378457069397
,brunette,0.9820687770843506
,one,0.966291606426239
,model,0.9643447399139404
,facial expression,0.918165922164917
,wear,0.9164868593215942
,music,0.9069303274154663
,room,0.904393196105957
,fashion,0.8767877817153931
,chair,0.8719104528427124
,seat,0.870793342590332
,dress,0.8689024448394775
,skirt,0.846338152885437
,telephone,0.8359490633010864
,street,0.8322654962539673
,indoors,0.826433539390564
https://scontent-sit4-1.cdninstagram.com/t51.2885-15/e35/13328945_1712400955666289_1410896907_n.jpg,food,0.9874998927116394
,little,0.9711117744445801
,no person,0.9668424129486084
,ground,0.9634302854537964
,closeup,0.954770028591156
,pot,0.9360383749008179
,desktop,0.9329737424850464
,seed,0.9055130481719971
,chocolate,0.8940856456756592
,epicure,0.8912615776062012
,nature,0.8892303705215454
,round,0.8799901008605957
,sweet,0.8635725975036621
,traditional,0.8515938520431519
,drink,0.8497538566589355
,batch,0.8473377227783203
,soil,0.8466322422027588
,wood,0.833548367023468
,sugar,0.8180334568023682
,dark,0.7979674339294434
https://scontent-sit4-1.cdninstagram.com/t51.2885-15/e35/13744132_643277319173540_1081296126_n.jpg,food,0.9975486993789673
,meal,0.9973509907722473
,seafood,0.9948619604110718
,dinner,0.9942550659179688
,fish,0.9925869703292847
,salmon,0.9899589419364929
,lunch,0.9871939420700073
,meat,0.9799647331237793
,cuisine,0.9768689870834351
,plate,0.9755751490592957
,dish,0.9754936695098877
,epicure,0.9705592393875122
,no person,0.9683665633201599
,restaurant,0.9680044651031494
,sauce,0.9636790752410889
,delicious,0.9585203528404236
,vegetable,0.9547719359397888
,cooking,0.9458790421485901
,tasty,0.9451988339424133
,chicken,0.944082498550415
https://scontent-sit4-1.cdninstagram.com/t51.2885-15/e35/13398988_1236690189704379_1234357817_n.jpg,girl,0.9925953149795532
,nature,0.9810123443603516
,woman,0.9549909830093384
,people,0.9524147510528564
,landscape,0.9509420990943909
,portrait,0.9410774111747742
,one,0.9267057776451111
,summer,0.922015905380249
,outdoors,0.912655234336853
,beautiful,0.9103168249130249
,sky,0.90616375207901
,model,0.9019345045089722
,smile,0.8869537115097046
,solo,0.8656536340713501
,grass,0.8598987460136414
,young,0.8512318134307861
,adult,0.8506482839584351
,field,0.8491846919059753
,sun,0.8477509021759033
,fashion,0.841800332069397
https://scontent-sit4-1.cdninstagram.com/t51.2885-15/e35/13258946_1548391412130476_257106185_n.jpg,road,0.9991916418075562
,street,0.9987017512321472
,jogger,0.9859524965286255
,marathon,0.9856895208358765
,people,0.9839750528335571
,runner,0.9798223972320557
,blur,0.9692205786705017
,sunset,0.9669456481933594
,motion,0.9600151181221008
,city,0.9474999308586121
,travel,0.9402748346328735
,action,0.9400542974472046
,car,0.9368925094604492
,light,0.9306766986846924
,adult,0.9188011884689331
,highway,0.9164090156555176
,portrait,0.9156038165092468
,traffic,0.905362606048584
,man,0.9052609801292419
,transportation system,0.8965858221054077
https://scontent-sit4-1.cdninstagram.com/t51.2885-15/e35/13402302_121867188235105_307065585_n.jpg,people,0.9865241050720215
,road,0.9795963168144226
,car,0.9745221138000488
,woman,0.963549792766571
,adult,0.9533784985542297
,vehicle,0.9518681764602661
,business,0.9436302185058594
,street,0.9327330589294434
,transportation system,0.9320793151855469
,portrait,0.9141889810562134
,one,0.8740886449813843
,leader,0.8737455606460571
,girl,0.8574745655059814
,wear,0.8479374647140503
,fashion,0.842583179473877
,travel,0.8351237773895264
,pavement,0.8164327144622803
,city,0.81264328956604
,home,0.7915162444114685
,school,0.7880808115005493
