url,class,score
https://scontent.cdninstagram.com/t51.2885-15/s640x640/sh0.08/e35/13423407_1545846635724630_913621043_n.jpg?ig_cache_key=MTI3ODY3NzM1ODkzMzMxMjI3OA%3D%3D.2,business,0.9756453633308411
,World Wide Web,0.9750074148178101
,presentation,0.9423421621322632
,technology,0.9391687512397766
,internet,0.9340063333511353
,data,0.9293776750564575
,form,0.9249465465545654
,page,0.912206768989563
,data,0.8997019529342651
,information,0.8690437078475952
,text,0.8683153390884399
,template,0.8607866764068604
,computer,0.8457746505737305
,number,0.8358972072601318
,identity,0.7909821271896362
,no person,0.7827830910682678
,paper,0.7742713093757629
,document,0.7667069435119629
,layout,0.756157398223877
,horizontal,0.7533029317855835
https://scontent.cdninstagram.com/t51.2885-15/e15/13381103_1767926906784551_245271716_n.jpg?ig_cache_key=MTI3MjEwMzA4MzM4MDE3OTY4NQ%3D%3D.2,outdoors,0.995103120803833
,people,0.9816268682479858
,lid,0.980655312538147
,horizontal,0.9777728319168091
,adult,0.9773918390274048
,woman,0.9529983997344971
,vertical,0.9411704540252686
,portrait,0.9363548755645752
,side view,0.9331737756729126
,fair weather,0.9050880074501038
,headshot,0.9035682678222656
,headwear,0.8967077732086182
,child,0.8951126337051392
,nature,0.8567106127738953
,enjoyment,0.8529647588729858
,summer,0.7983206510543823
,focus,0.7912696599960327
,relaxation,0.7874692678451538
,happiness,0.7874348163604736
,water,0.771097719669342
https://scontent.cdninstagram.com/t51.2885-15/s640x640/e15/13423647_265506890472174_34516267_n.jpg?ig_cache_key=MTI3OTEzOTIxNzA1ODY5MzMxMw%3D%3D.2,performance,0.999690055847168
,music,0.9989646673202515
,concert,0.9983599185943604
,musician,0.993935227394104
,singer,0.9921308159828186
,stage,0.9906430840492249
,band,0.9856574535369873
,festival,0.9705298542976379
,indie,0.9668594598770142
,drum,0.9488778114318848
,drummer,0.9452154636383057
,pop,0.9268263578414917
,songwriter,0.9122733473777771
,instrument,0.9102474451065063
,guitarist,0.8999394178390503
,audience,0.8627609014511108
,energy,0.8305452466011047
,guitar,0.8199704885482788
,venue,0.7988929152488708
,light,0.795605480670929
https://scontent.cdninstagram.com/t51.2885-15/e35/13380897_961411180642074_107476486_n.jpg?ig_cache_key=MTI3Mjg1ODA4MDE5NTc3MjQ5Nw%3D%3D.2,woman,0.997295618057251
,pretty,0.9774717092514038
,sexy,0.9744284749031067
,fashion,0.9741452932357788
,skin,0.9529179334640503
,glamour,0.9410866498947144
,eye,0.939072847366333
,adolescent,0.9263715744018555
,cute,0.9239819049835205
,relaxation,0.9165278673171997
,nude,0.9016342759132385
,enjoyment,0.8963459730148315
,lips,0.8949264287948608
,hair,0.8941522836685181
,joy,0.8867009282112122
,young,0.885589599609375
,long,0.8694251775741577
,fun,0.8644337058067322
,portrait,0.8574901223182678
,look,0.8447273373603821
https://scontent.cdninstagram.com/t51.2885-15/e35/13473178_265300303830817_1042681854_n.jpg?ig_cache_key=MTI3NTIwOTc4NDU0NzQ3NTk4MA%3D%3D.2,people,0.9859313368797302
,adult,0.9799840450286865
,man,0.9775948524475098
,woman,0.9723614454269409
,table,0.9628334641456604
,restaurant,0.9607675075531006
,group,0.9591007232666016
,facial expression,0.9525669813156128
,indoors,0.9512229561805725
,drink,0.9248514771461487
,group,0.9026833772659302
,happiness,0.8969283103942871
,portrait,0.8877812623977661
,enjoyment,0.8792852759361267
,togetherness,0.8781106472015381
,meal,0.8623448610305786
,friendship,0.8442310094833374
,girl,0.8261855840682983
,room,0.8247845768928528
,wear,0.8119397163391113
https://scontent.cdninstagram.com/t51.2885-15/e35/13402564_194388320957520_1565213137_n.jpg?ig_cache_key=MTI3MjM5Mjg2MzQ2NDY4NTU3Ng%3D%3D.2,water,0.9923650026321411
,summer,0.9862810373306274
,woman,0.9834442734718323
,leisure,0.9779590368270874
,travel,0.9740290641784668
,beach,0.9687367677688599
,recreation,0.9554045796394348
,vacation,0.954715371131897
,sexy,0.9536948204040527
,fun,0.9509401321411133
,enjoyment,0.9508272409439087
,sea,0.936024010181427
,relaxation,0.9234352111816406
,fair weather,0.9186691045761108
,bikini,0.9182217121124268
,sun,0.9162871837615967
,sand,0.9146283864974976
,sky,0.9078472852706909
,swimming,0.9017232656478882
,outdoors,0.8781046867370605
https://scontent.cdninstagram.com/t51.2885-15/e35/13414343_188741484861567_1250559351_n.jpg?ig_cache_key=MTI3NDYzMzU4MTQ0OTA1MjY1NQ%3D%3D.2,woman,0.9877101182937622
,people,0.9705842733383179
,pool,0.9673435688018799
,swimming pool,0.96586012840271
,leisure,0.9647297859191895
,relaxation,0.9399315118789673
,recreation,0.937758207321167
,water,0.9362472891807556
,summer,0.9088218212127686
,girl,0.9071141481399536
,adult,0.9034497141838074
,outdoors,0.9011900424957275
,enjoyment,0.8882454633712769
,travel,0.8875384330749512
,poolside,0.8857765197753906
,swimming,0.8803572654724121
,family,0.879467248916626
,fun,0.8753429055213928
,lifestyle,0.8504763841629028
,health,0.8403750658035278
https://scontent.cdninstagram.com/t51.2885-15/e35/13381052_251855911858288_38471074_n.jpg?ig_cache_key=MTI3ODA1NDkzNDYyOTk3NDcwNA%3D%3D.2,woman,0.9861377477645874
,person,0.9544615149497986
,girl,0.9537134170532227
,young,0.9527092576026917
,fashion,0.9451022744178772
,people,0.9367709755897522
,adult,0.9217738509178162
,man,0.9126937389373779
,style,0.9087315201759338
,fun,0.8897194862365723
,portrait,0.8794059753417969
,leisure,0.8736225366592407
,beautiful,0.8675392866134644
,lifestyle,0.8670437335968018
,family,0.8556668758392334
,wear,0.8400218486785889
,child,0.8351317048072815
,one,0.8324400186538696
,sit,0.8307360410690308
,human,0.8108745217323303
https://scontent.cdninstagram.com/t51.2885-15/e35/13397618_1143839192346422_2144175130_n.jpg?ig_cache_key=MTI3MDgxOTY0MTA2MTQwOTI3NQ%3D%3D.2,woman,0.9853502511978149
,togetherness,0.9727380275726318
,adult,0.9681673645973206
,happiness,0.9623387455940247
,group,0.9509753584861755
,friendship,0.9487974643707275
,people,0.9482118487358093
,indoors,0.9439500570297241
,man,0.9414660334587097
,portrait,0.9362890720367432
,facial expression,0.9168919920921326
,girl,0.9037965536117554
,enjoyment,0.8970159292221069
,shopping,0.8961467146873474
,lifestyle,0.8936991095542908
,laughing,0.8931738138198853
,group,0.8910026550292969
,daylight,0.8701136112213135
,wear,0.8666075468063354
,school,0.8629173636436462
https://scontent.cdninstagram.com/t51.2885-15/e35/13422946_1583142201984601_255322023_n.jpg?ig_cache_key=MTI3MjE4MjAxNzY0ODA5OTcwMg%3D%3D.2,child,0.9841684103012085
,people,0.9757223129272461
,fun,0.9694987535476685
,movie,0.921582818031311
,street,0.8961602449417114
,Christmas,0.8864073753356934
,woman,0.8723944425582886
,man,0.8651784658432007
,celebration,0.8524348735809326
,costume,0.8401656150817871
,smile,0.838514506816864
,character,0.8228096961975098
,art,0.7857769727706909
,family,0.7835853695869446
,entertainment,0.7792923450469971
,circus,0.7752717137336731
,sketch,0.7699341177940369
,funny,0.7555563449859619
,rainbow,0.752909779548645
,toy,0.7398285269737244
https://scontent.cdninstagram.com/t51.2885-15/e35/13397678_1642908952701191_1823958209_n.jpg?ig_cache_key=MTI3Mzg4MzM5NjE3MTIzNTM5Mw%3D%3D.2,people,0.9913638830184937
,adult,0.9810993671417236
,woman,0.9800695776939392
,furniture,0.9784479141235352
,group,0.9782254695892334
,man,0.9640937447547913
,table,0.9626944065093994
,room,0.9532384276390076
,indoors,0.9475587606430054
,many,0.9386523365974426
,meal,0.9378756880760193
,restaurant,0.9357777237892151
,grow,0.910811185836792
,wear,0.8992490768432617
,child,0.8975592851638794
,facial expression,0.8801907896995544
,tableware,0.8792746663093567
,group,0.8729307651519775
,education,0.8677491545677185
,enjoyment,0.8655256032943726
https://scontent.cdninstagram.com/t51.2885-15/e35/13402548_192162384518460_1935702729_n.jpg?ig_cache_key=MTI3MjQ0NDY0MTA1NzA0Njk5Nw%3D%3D.2,city,0.9890824556350708
,skyscraper,0.9730607271194458
,travel,0.9612924456596375
,road,0.9577921628952026
,skyline,0.9564869403839111
,people,0.9554519653320312
,building,0.9549188017845154
,street,0.9548001289367676
,downtown,0.9459623694419861
,urban,0.9442451596260071
,cityscape,0.9403952360153198
,landscape,0.9247853755950928
,light,0.9175730347633362
,water,0.8918062448501587
,vehicle,0.890904426574707
,business,0.8893632888793945
,architecture,0.8808347582817078
,bridge,0.8740009069442749
,adult,0.8715970516204834
,transportation system,0.8708788156509399
https://scontent.cdninstagram.com/t51.2885-15/e35/13329244_1270799169599235_610474833_n.jpg?ig_cache_key=MTI3MzAwNDA5MjY3NTcxOTg5MA%3D%3D.2,woman,0.9852749109268188
,fashion,0.9581775665283203
,people,0.951667308807373
,wear,0.9476044178009033
,one,0.9441972374916077
,portrait,0.939820408821106
,adult,0.9086099863052368
,umbrella,0.8961608409881592
,girl,0.8681118488311768
,model,0.8560613393783569
,business,0.8451184630393982
,lid,0.8419052362442017
,outdoors,0.8409255743026733
,intelligence,0.8299924731254578
,glamour,0.8109782934188843
,man,0.8094446063041687
,ambition,0.7899512052536011
,outerwear,0.778901219367981
,street,0.7647562026977539
,adolescent,0.7628512382507324
https://scontent.cdninstagram.com/t51.2885-15/s750x750/sh0.08/e35/13525416_1796241817274778_1000762994_n.jpg?ig_cache_key=MTI3OTQwNzUzMzQzNzkyMzA5NQ%3D%3D.2,woman,0.9901337623596191
,people,0.9655264019966125
,vertical,0.9505531787872314
,indoors,0.9339884519577026
,portrait,0.9325485229492188
,adult,0.9309285879135132
,fashion,0.8723053932189941
,anticipation,0.8680177927017212
,happiness,0.867203950881958
,fruit,0.8593363165855408
,enjoyment,0.8518717288970947
,relaxation,0.8275912404060364
,horizontal,0.8239692449569702
,cute,0.7970893383026123
,sit,0.7817738056182861
,joy,0.7745705842971802
,love,0.7653464078903198
,food,0.7614625096321106
,cheerful,0.7336457371711731
,dress,0.727373480796814
https://scontent.cdninstagram.com/t51.2885-15/e35/13398596_1054491954639167_1682316707_n.jpg?ig_cache_key=MTI3ODM2OTc2NDg5MzEzMDc4Mg%3D%3D.2,woman,0.9793954491615295
,togetherness,0.9752299189567566
,friendship,0.9743534326553345
,man,0.9523849487304688
,indoors,0.9437896609306335
,facial expression,0.9425872564315796
,four,0.9422675371170044
,adolescent,0.9364725947380066
,people,0.9299092292785645
,group,0.9176621437072754
,child,0.9130129218101501
,multicultural,0.8961811065673828
,student,0.8836000561714172
,enjoyment,0.8654173612594604
,laughing,0.8632441759109497
,portrait,0.8407713770866394
,family,0.8232607841491699
,group,0.8231487274169922
,sit,0.8160138130187988
,fun,0.7889928221702576
https://scontent.cdninstagram.com/t51.2885-15/e35/13422965_191092721292079_541523626_n.jpg?ig_cache_key=MTI3NTMxMjExMzg2Mjk2NzM1NA%3D%3D.2,traditional,0.978893518447876
,people,0.965867280960083
,wear,0.9656305313110352
,child,0.9623301029205322
,outdoors,0.9350671768188477
,woman,0.9195077419281006
,family,0.9173141717910767
,costume,0.911941647529602
,dress,0.9118027687072754
,summer,0.8832629919052124
,festival,0.8815710544586182
,fun,0.8708900213241577
,girl,0.8678308129310608
,portrait,0.8628071546554565
,travel,0.8575788736343384
,lid,0.8530362844467163
,umbrella,0.8479654788970947
,leisure,0.8245702981948853
,one,0.819257915019989
,happiness,0.7935435771942139
https://scontent.cdninstagram.com/t51.2885-15/s750x750/sh0.08/e35/13320250_219834431743013_26702644_n.jpg?ig_cache_key=MTI3MTc2NDAxMjI2Mjg4NDE3OA%3D%3D.2,woman,0.9961659908294678
,indoors,0.986413836479187
,people,0.950982391834259
,fashion,0.9494248628616333
,shopping,0.9485474228858948
,pretty,0.9339702129364014
,enjoyment,0.8688743114471436
,portrait,0.8503012657165527
,adolescent,0.8445109128952026
,coffee,0.8382726907730103
,looking,0.8021136522293091
,girl,0.7985314130783081
,fun,0.7868640422821045
,family,0.7704448699951172
,stock,0.7667539715766907
,sit,0.7621538639068604
,casual,0.7548015117645264
,young,0.7505571246147156
,relaxation,0.7459138631820679
,cute,0.7424651384353638
https://scontent.cdninstagram.com/t51.2885-15/s750x750/sh0.08/e35/13402251_149951485421779_1436711732_n.jpg?ig_cache_key=MTI3MzY1ODU4NTI3Njg3NTY5OA%3D%3D.2,woman,0.9769642353057861
,fun,0.9743756055831909
,family,0.9732104539871216
,friendship,0.970660924911499
,togetherness,0.9666218757629395
,happiness,0.960496187210083
,outdoors,0.9570912718772888
,summer,0.9467231035232544
,lifestyle,0.9461626410484314
,girl,0.942462682723999
,young,0.9401525259017944
,nature,0.9399526119232178
,joy,0.9387105703353882
,child,0.9300109148025513
,people,0.9214296340942383
,leisure,0.9200241565704346
,love,0.9191077351570129
,grass,0.918282151222229
,laughing,0.9181623458862305
,smile,0.9079026579856873
https://scontent.cdninstagram.com/t51.2885-15/s750x750/sh0.08/e35/13388583_291973494471730_1907028569_n.jpg?ig_cache_key=MTI3NDQyNTc3ODgzNDg5OTE3MQ%3D%3D.2,woman,0.9875208139419556
,fashion,0.9838340282440186
,people,0.9641386270523071
,portrait,0.9597147703170776
,adult,0.9547473192214966
,dress,0.9422556161880493
,girl,0.941321074962616
,young,0.928758978843689
,beautiful,0.9052081108093262
,couple,0.8899029493331909
,happiness,0.8890103101730347
,model,0.8816868662834167
,love,0.8565733432769775
,pretty,0.8422362804412842
,party,0.8409343957901001
,friendship,0.837311863899231
,fun,0.8370373249053955
,person,0.8362475633621216
,attractive,0.8325985074043274
,cute,0.8311790227890015
https://scontent.cdninstagram.com/t51.2885-15/e35/13355590_1730024677239208_2081821268_n.jpg?ig_cache_key=MTI3MjI3NDk1MTY2MzkxMTQxOQ%3D%3D.2,sunglasses,0.9982597827911377
,woman,0.9945164918899536
,eyeglasses,0.9916184544563293
,fashion,0.9767283201217651
,people,0.9623253345489502
,street,0.9612648487091064
,eyewear,0.9540977478027344
,portrait,0.9168187379837036
,pretty,0.9037452936172485
,fun,0.8890457153320312
,glamour,0.8863967657089233
,casual,0.8669764995574951
,summer,0.8538601398468018
,sexy,0.8442180156707764
,city,0.8311467170715332
,festival,0.8292863368988037
,adolescent,0.8218787908554077
,urban,0.8155465126037598
,education,0.8144056797027588
,young,0.8135930895805359
https://scontent.cdninstagram.com/t51.2885-15/s750x750/sh0.08/e35/13423647_1097243723666322_757968400_n.jpg?ig_cache_key=MTI3MDI5MTI3MTI0MDI1NDQ1Mg%3D%3D.2,family,0.9913431406021118
,woman,0.9904923439025879
,two,0.9876224994659424
,man,0.983802080154419
,love,0.9837836027145386
,people,0.9775123596191406
,indoors,0.9773287773132324
,togetherness,0.9754683971405029
,leisure,0.9643698930740356
,adult,0.9470810890197754
,affection,0.9214649200439453
,child,0.9193371534347534
,fun,0.9190489053726196
,romance,0.9128605127334595
,sit,0.905754804611206
,enjoyment,0.8987747430801392
,three,0.8915420770645142
,portrait,0.8876054286956787
,embrace,0.8858102560043335
,room,0.8698996305465698
https://scontent.cdninstagram.com/t51.2885-15/e35/13388718_1649050825415486_1349989060_n.jpg?ig_cache_key=MTI3MTQ3MjY2MjkzODI1NTY2MQ%3D%3D.2,woman,0.9849405288696289
,man,0.9708884954452515
,indoors,0.9685039520263672
,seat,0.9646717309951782
,facial expression,0.9635341167449951
,sitting,0.961849570274353
,togetherness,0.9412263631820679
,group,0.9361994862556458
,adult,0.9359707236289978
,people,0.9333459138870239
,enjoyment,0.8911798596382141
,sit,0.8821320533752441
,education,0.8770882487297058
,child,0.8684449195861816
,furniture,0.864661455154419
,wear,0.8616436719894409
,adolescent,0.8484244346618652
,happiness,0.8342292308807373
,portrait,0.833031177520752
,looking,0.8166577219963074
https://scontent.cdninstagram.com/t51.2885-15/e35/13402666_1234913883227670_74630782_n.jpg?ig_cache_key=MTI3ODkzNTk5NDg1OTM4OTk1MQ%3D%3D.2,woman,0.9962809681892395
,pretty,0.9872230887413025
,fashion,0.9787909984588623
,elegant,0.9771236181259155
,sexy,0.9770820140838623
,glamour,0.9755412340164185
,thin,0.9662188291549683
,contemporary,0.9627574682235718
,cute,0.9528073668479919
,figure,0.9335498809814453
,young,0.9216399788856506
,casual,0.8976322412490845
,thin,0.8908402919769287
,seduction,0.8902713060379028
,isolated,0.8598395586013794
,fitness,0.8399457931518555
,energetic,0.8281206488609314
,adolescent,0.8217304944992065
,exercise,0.8187440633773804
,looking,0.8068336248397827
https://scontent.cdninstagram.com/t51.2885-15/e35/13402321_828156587328939_1518806992_n.jpg?ig_cache_key=MTI3MjE1Njg1MjYyOTQwNjMwMg%3D%3D.2,people,0.9709680080413818
,person,0.9474995136260986
,woman,0.9431793689727783
,man,0.9137069582939148
,young,0.9112976789474487
,fun,0.9015545845031738
,girl,0.880324125289917
,travel,0.8534958362579346
,vacation,0.8496143817901611
,human,0.8402462601661682
,casual,0.8399074077606201
,business,0.8334925174713135
,education,0.8310889601707458
,beautiful,0.8228311538696289
,house,0.8203348517417908
,child,0.8129269480705261
,desktop,0.8114745616912842
,tourist,0.8101515173912048
,street,0.8086458444595337
,adult,0.8081400394439697
https://scontent.cdninstagram.com/t51.2885-15/e35/13381039_1001188533328471_1590282648_n.jpg?ig_cache_key=MTI3MjM4MDE2NjE1NzIzOTAwNw%3D%3D.2,city,0.9570497274398804
,people,0.9555651545524597
,woman,0.949554443359375
,travel,0.943496823310852
,girl,0.9216471910476685
,adult,0.9123271703720093
,portrait,0.9118102788925171
,sky,0.9109218120574951
,urban,0.9108568429946899
,landscape,0.9020493030548096
,street,0.8973909020423889
,water,0.8925290107727051
,downtown,0.8745651245117188
,outdoors,0.855737566947937
,light,0.8546584844589233
,one,0.8505065441131592
,winter,0.8485167026519775
,business,0.842954158782959
,cityscape,0.8359878063201904
,road,0.8321642875671387
https://scontent.cdninstagram.com/t51.2885-15/e35/13408731_1093696094024633_34444907_n.jpg?ig_cache_key=MTI3OTUyMjI0ODM5MDUzMTcxOQ%3D%3D.2,woman,0.9946896433830261
,indoors,0.9718577861785889
,girl,0.9361568093299866
,fashion,0.9336672425270081
,people,0.9328523874282837
,portrait,0.9175885915756226
,pretty,0.9085912704467773
,facial expression,0.8883633017539978
,brunette,0.8803060054779053
,relaxation,0.8638194799423218
,adolescent,0.8503650426864624
,sit,0.8437604308128357
,room,0.8181882500648499
,wear,0.8102853298187256
,enjoyment,0.7974385023117065
,cute,0.7900201082229614
,casual,0.7864835262298584
,family,0.7752388119697571
,glamour,0.770114004611969
,model,0.7593742609024048
https://scontent.cdninstagram.com/t51.2885-15/s750x750/sh0.08/e35/13473197_653960661425591_1958083963_n.jpg?ig_cache_key=MTI3NDM4NDgyNDA5MDM2MjE1Nw%3D%3D.2,portrait,0.993352472782135
,girl,0.9926565885543823
,woman,0.987403392791748
,fashion,0.9861558675765991
,beautiful,0.9807406663894653
,model,0.9763032793998718
,happiness,0.9677128195762634
,people,0.9650447368621826
,adult,0.9619024991989136
,young,0.9468226432800293
,wear,0.9448771476745605
,lifestyle,0.9372774958610535
,joy,0.9348336458206177
,dress,0.9325186014175415
,smile,0.9239858984947205
,cute,0.9189044833183289
,studio,0.9181408882141113
,shopping,0.9081900119781494
,fun,0.9056535363197327
,pretty,0.9021944999694824
https://scontent.cdninstagram.com/t51.2885-15/e35/13413441_1879216392305266_366031911_n.jpg?ig_cache_key=MTI3NDY4ODYxMjY4ODg1NTQ1Mw%3D%3D.2,food,0.9843704700469971
,woman,0.9809011220932007
,meal,0.9709063768386841
,people,0.9636048078536987
,seafood,0.9634096622467041
,restaurant,0.9612501859664917
,cooking,0.9544658660888672
,lunch,0.9428133964538574
,adult,0.9287437200546265
,dinner,0.919535756111145
,one,0.9122845530509949
,indoors,0.9034905433654785
,table,0.8903627395629883
,young,0.8847380876541138
,girl,0.8715487122535706
,drink,0.8418352603912354
,shellfish,0.8382077217102051
,portrait,0.8290612697601318
,nutrition,0.8212889432907104
,delicious,0.8082510828971863
https://scontent.cdninstagram.com/t51.2885-15/e35/13473186_953103994806630_2025225_n.jpg?ig_cache_key=MTI3NTM3MTI2MzU3Mzc1Mzk0NQ%3D%3D.2,woman,0.9953709244728088
,leisure,0.9914379119873047
,relaxation,0.9886360168457031
,summer,0.9836591482162476
,enjoyment,0.9829390048980713
,recreation,0.9746317863464355
,water,0.9721671938896179
,pool,0.9628554582595825
,togetherness,0.9593980312347412
,outdoors,0.9504493474960327
,swimming pool,0.9453743696212769
,fair weather,0.9150025248527527
,fun,0.9124554991722107
,happiness,0.9118814468383789
,joy,0.9103349447250366
,travel,0.9034944772720337
,sitting,0.9029461145401001
,people,0.8998535871505737
,facial expression,0.8997197151184082
,water,0.8982095718383789
https://scontent.cdninstagram.com/t51.2885-15/e35/13423584_1070238339712176_1706141207_n.jpg?ig_cache_key=MTI3NDYxODYwNjIyMzQ5MTk3NQ%3D%3D.2,water,0.9888941645622253
,woman,0.9665840864181519
,pool,0.9656886458396912
,fun,0.9646998643875122
,people,0.9617791175842285
,swimming,0.9523382186889648
,enjoyment,0.9496170878410339
,summer,0.9461715817451477
,leisure,0.9407030344009399
,togetherness,0.9379482269287109
,outdoors,0.9378236532211304
,two,0.9195735454559326
,child,0.9164499640464783
,recreation,0.915877103805542
,joy,0.9150387048721313
,love,0.9053430557250977
,man,0.9030511379241943
,happiness,0.9013453722000122
,travel,0.8921230435371399
,family,0.8919587135314941
https://scontent.cdninstagram.com/t51.2885-15/e35/13329222_1331917240155977_1142083763_n.jpg?ig_cache_key=MTI3MzgwNDAxNjUxODU2Mjc1MQ%3D%3D.2,family,0.9825519323348999
,woman,0.9809592962265015
,girl,0.9744237661361694
,indoors,0.9683074951171875
,friendship,0.9669575691223145
,sofa,0.9650771617889404
,people,0.9591491222381592
,togetherness,0.9569785594940186
,happiness,0.956790566444397
,casual,0.9547511339187622
,sit,0.9538702368736267
,couple,0.9538618922233582
,room,0.9479305744171143
,lifestyle,0.9413866996765137
,fun,0.93735671043396
,two,0.9198358654975891
,smile,0.9197639226913452
,adult,0.9055129289627075
,portrait,0.8979329466819763
,beautiful,0.8970961570739746
https://scontent.cdninstagram.com/t51.2885-15/e35/13394913_1730161400600233_390700587_n.jpg?ig_cache_key=MTI3MjM4NTA4ODgwMjEyODcxNw%3D%3D.2,water,0.9982243776321411
,travel,0.9913520812988281
,recreation,0.9823575019836426
,people,0.980316162109375
,leisure,0.9757839441299438
,swimming,0.9599297046661377
,water sports,0.9524497985839844
,outdoors,0.9501912593841553
,fun,0.9345231056213379
,beach,0.927140474319458
,summer,0.921868085861206
,enjoyment,0.9163892269134521
,child,0.9103676080703735
,woman,0.9066402316093445
,vacation,0.9055771827697754
,sun,0.8897452354431152
,man,0.8857648968696594
,sky,0.8750986456871033
,city,0.8706715106964111
,relaxation,0.8682516813278198
https://scontent.cdninstagram.com/t51.2885-15/e35/13423504_138402769897069_1098799934_n.jpg?ig_cache_key=MTI3MTYzMDc2NjIyMDkwMzI4OQ%3D%3D.2,city,0.9807589650154114
,street,0.9804700613021851
,shopping,0.9690133333206177
,tourist,0.9600069522857666
,stock,0.9588651061058044
,road,0.9578850865364075
,tourism,0.9509772062301636
,people,0.9367661476135254
,traffic,0.8915971517562866
,travel,0.8911100029945374
,commerce,0.8883161544799805
,crowd,0.880847692489624
,business,0.8615808486938477
,many,0.8340030908584595
,urban,0.8295193910598755
,daylight,0.8281979560852051
,competition,0.8280608057975769
,group,0.8190469741821289
,bus,0.8124289512634277
,town,0.8056817054748535
https://scontent.cdninstagram.com/t51.2885-15/e35/13437258_609554759202803_380755538_n.jpg?ig_cache_key=MTI3NTA5NDg1NDE5MjIwMjQ1Ng%3D%3D.2,woman,0.9909514784812927
,fashion,0.9811912775039673
,people,0.9809367060661316
,stock,0.9786475896835327
,girl,0.9759849905967712
,beautiful,0.9747927188873291
,shopping,0.9712551832199097
,portrait,0.9708712697029114
,pretty,0.9675805568695068
,casual,0.9627885222434998
,young,0.9626991748809814
,adult,0.955959677696228
,indoors,0.9490407109260559
,shop,0.9462062120437622
,wear,0.9433839917182922
,lifestyle,0.9405821561813354
,attractive,0.9329705238342285
,one,0.9319994449615479
,happiness,0.9076207876205444
,cute,0.9024670124053955
https://scontent.cdninstagram.com/t51.2885-15/e35/13402594_607102852798411_957572628_n.jpg?ig_cache_key=MTI3MjIxMjIwODU0MTg5Mjg0NQ%3D%3D.2,architecture,0.9962159395217896
,street,0.9898288249969482
,city,0.9871045351028442
,outdoors,0.9869942665100098
,travel,0.9812977313995361
,no person,0.9767948389053345
,urban,0.9674328565597534
,old,0.9673024415969849
,town,0.9668721556663513
,building,0.9662814140319824
,house,0.9653176665306091
,window,0.9556138515472412
,facade,0.9337434768676758
,pavement,0.9242792725563049
,tourism,0.9210565090179443
,sightseeing,0.9178371429443359
,family,0.9076564311981201
,downtown,0.9065967202186584
,apartment,0.9050387740135193
,traditional,0.9002246260643005
https://scontent.cdninstagram.com/l/t51.2885-15/s750x750/sh0.08/e35/13423586_1157988637565790_591136374_n.jpg?ig_cache_key=MTI3NzMxOTk0MTMxNDE4NDE3NQ%3D%3D.2,woman,0.9877265095710754
,nude,0.9616686701774597
,purity,0.9550250768661499
,skin,0.9433037638664246
,pretty,0.9410986304283142
,clean,0.9404287338256836
,young,0.9289687275886536
,health,0.9266130924224854
,relaxation,0.9256527423858643
,sexy,0.9182132482528687
,treatment,0.9112688899040222
,fashion,0.8905825614929199
,isolated,0.8820357322692871
,cute,0.8699458241462708
,elegant,0.8660614490509033
,glamour,0.8500254154205322
,people,0.8471609354019165
,healthcare,0.84455406665802
,composure,0.836937427520752
,beautiful,0.8332626819610596
https://scontent.cdninstagram.com/t51.2885-15/e15/13385881_212706675794930_1637823217_n.jpg?ig_cache_key=MTI3Njc4OTc0MTgzNjk2MDQzMg%3D%3D.2,candle,0.946230411529541
,people,0.9421036243438721
,celebration,0.9293391704559326
,flame,0.9232000112533569
,woman,0.8773289918899536
,desktop,0.8769248723983765
,man,0.8596317768096924
,hand,0.8528792858123779
,human,0.845100998878479
,one,0.8389827013015747
,adult,0.8291085958480835
,burnt,0.8262722492218018
,love,0.8234837055206299
,light,0.8120449781417847
,hot,0.8039645552635193
,party,0.7988244891166687
,dark,0.7870540618896484
,young,0.7670692801475525
,fun,0.762839674949646
,candlelight,0.7619572877883911
https://scontent.cdninstagram.com/t51.2885-15/e35/13402335_929799070476919_602777950_n.jpg?ig_cache_key=MTI3NzM2NDU3NDk1ODI1NzEzNQ%3D%3D.2,family,0.9807542562484741
,woman,0.9720074534416199
,drink,0.9584888219833374
,people,0.9334025382995605
,indoors,0.9293719530105591
,man,0.9279815554618835
,togetherness,0.910329282283783
,fun,0.9096984267234802
,friendship,0.9030150175094604
,food,0.8956481218338013
,wine,0.8876640796661377
,restaurant,0.8784806728363037
,adult,0.8760221004486084
,two,0.8703404068946838
,cooking,0.8666437864303589
,celebration,0.8616229295730591
,couple,0.8567289113998413
,love,0.8562781810760498
,meal,0.8435989022254944
,child,0.839556097984314
https://scontent.cdninstagram.com/t51.2885-15/e35/13388718_243968632650174_542933066_n.jpg?ig_cache_key=MTI3NTkxNzA1NzcwODEzMTIxNg%3D%3D.2,woman,0.996112585067749
,sexy,0.9665142297744751
,fashion,0.9558134078979492
,pretty,0.953067421913147
,portrait,0.9509954452514648
,girl,0.9367837905883789
,nude,0.9348046779632568
,skin,0.9323717951774597
,relaxation,0.9302610158920288
,summer,0.9301282167434692
,people,0.9115668535232544
,young,0.9067963361740112
,glamour,0.8947001695632935
,cute,0.8896000385284424
,hair,0.8834478855133057
,model,0.8700723648071289
,eye,0.8670556545257568
,leisure,0.8587411642074585
,fair weather,0.8539168834686279
,one,0.8383194804191589
https://scontent.cdninstagram.com/t51.2885-15/s750x750/sh0.08/e35/13381176_1234456039911370_685697252_n.jpg?ig_cache_key=MTI3NzkyMzIxNDU4NDg0MDk3Nw%3D%3D.2,woman,0.9818131923675537
,health,0.9696383476257324
,nutrition,0.9217084646224976
,nude,0.9196794033050537
,isolated,0.9187301397323608
,sexy,0.9145827889442444
,purity,0.9053937196731567
,fashion,0.8983856439590454
,pretty,0.8918293714523315
,glamour,0.884183943271637
,elegant,0.8796484470367432
,cute,0.8604187965393066
,healthcare,0.8445699214935303
,retro,0.8283053636550903
,clean,0.8179179430007935
,one,0.8143079280853271
,portrait,0.814002275466919
,young,0.8089215755462646
,dawn,0.7911601066589355
,relaxation,0.7757695317268372
https://scontent.cdninstagram.com/t51.2885-15/e35/13402334_961173080647175_1140396108_n.jpg?ig_cache_key=MTI3NjAwMDgxODE5Mzg5MTQ1Nw%3D%3D.2,religion,0.9508129358291626
,outdoors,0.9266103506088257
,people,0.9229831695556641
,woman,0.9100761413574219
,architecture,0.90587317943573
,travel,0.9036401510238647
,man,0.8246171474456787
,statue,0.8171457052230835
,spirituality,0.780890941619873
,respect,0.7654983997344971
,temple,0.7643043398857117
,Buddha,0.756040096282959
,adult,0.742840588092804
,gold,0.7140741348266602
,portrait,0.7103595733642578
,administration,0.6997079849243164
,group,0.6856334209442139
,sculpture,0.6785793900489807
,victory,0.6757185459136963
,daylight,0.6681888103485107
https://scontent.cdninstagram.com/t51.2885-15/e35/13534099_1052113864858729_556992338_n.jpg?ig_cache_key=MTI3ODc1ODk0ODQ3MjQ4ODk1Nw%3D%3D.2,woman,0.990149736404419
,indoors,0.9771249294281006
,pretty,0.9548231363296509
,relaxation,0.9449304342269897
,family,0.9366295337677002
,people,0.9322775602340698
,fashion,0.9201555252075195
,cute,0.9117055535316467
,young,0.8982906937599182
,one,0.893153190612793
,looking,0.8822924494743347
,joy,0.8693503737449646
,portrait,0.8646868467330933
,enjoyment,0.8637956380844116
,leisure,0.8538124561309814
,sit,0.8501443266868591
,sexy,0.8459042310714722
,adolescent,0.8407468795776367
,casual,0.8294143676757812
,elegant,0.8104055523872375
https://scontent.cdninstagram.com/t51.2885-15/e35/13423069_101780050250580_581942211_n.jpg?ig_cache_key=MTI3MDkwNjcxNjUwNjk0ODE2OQ%3D%3D.2,woman,0.9982061386108398
,indoors,0.9963316917419434
,coffee,0.9905558824539185
,girl,0.9749158620834351
,tea,0.9695717692375183
,sit,0.9691201448440552
,people,0.9678196310997009
,facial expression,0.9560931921005249
,family,0.9544799327850342
,cup,0.9496681690216064
,enjoyment,0.9444031715393066
,breakfast,0.9425380229949951
,dawn,0.9404316544532776
,adult,0.934612512588501
,room,0.9344660043716431
,furniture,0.916844367980957
,portrait,0.8882656693458557
,telephone,0.874696671962738
,lifestyle,0.8701536655426025
,pretty,0.8622544407844543
https://scontent.cdninstagram.com/t51.2885-15/s750x750/sh0.08/e35/13413393_1723858214543905_1856306572_n.jpg?ig_cache_key=MTI3NzY0OTI1MzAzMjY1NzY5OQ%3D%3D.2,woman,0.9896667003631592
,bed,0.9813604354858398
,girl,0.9731093645095825
,portrait,0.9718413352966309
,bedroom,0.9601374864578247
,indoors,0.9591280817985535
,people,0.954276978969574
,one,0.9541983604431152
,adult,0.9541454315185547
,relaxation,0.953345000743866
,reclining,0.9518407583236694
,family,0.9255635738372803
,facial expression,0.9249971508979797
,telephone,0.9150004386901855
,sleep,0.9128934144973755
,blond,0.9127892255783081
,love,0.9126367568969727
,dawn,0.9009677171707153
,face,0.8941650986671448
,room,0.8908264636993408
https://scontent.cdninstagram.com/t51.2885-15/e35/13422959_1563617440608081_520429816_n.jpg?ig_cache_key=MTI3NjcxNzE3NDM4ODI5NDE1MQ%3D%3D.2,indoors,0.9888569116592407
,woman,0.9783778190612793
,window,0.9769368171691895
,people,0.9737005233764648
,man,0.9578812718391418
,offense,0.9370667338371277
,adult,0.9367622137069702
,two,0.9165863990783691
,facial expression,0.9051480293273926
,outdoors,0.9047769904136658
,daylight,0.8889715671539307
,looking,0.8786118030548096
,wear,0.8697951436042786
,togetherness,0.8637263774871826
,family,0.8619333505630493
,enjoyment,0.8489055037498474
,child,0.8449487686157227
,one,0.842760443687439
,force,0.8356190919876099
,room,0.8351952433586121
https://scontent.cdninstagram.com/t51.2885-15/e35/13355479_1609513372692191_1121098511_n.jpg?ig_cache_key=MTI3NjY0NTk1MTAxMjczMzc2Mg%3D%3D.2,indoors,0.9917027950286865
,weightlifting,0.9794954061508179
,exercise,0.9789978861808777
,weight,0.9783631563186646
,woman,0.9664666056632996
,train,0.9615296125411987
,strength,0.9553635716438293
,people,0.9470847845077515
,adult,0.9443403482437134
,club,0.9392866492271423
,recreation,0.9353915452957153
,portrait,0.9210327863693237
,train,0.9115090370178223
,athlete,0.9026777744293213
,teacher,0.8925341963768005
,fitness,0.8899745345115662
,wear,0.8887863159179688
,thin,0.8799005746841431
,brawny,0.8765298128128052
,facial expression,0.8606964945793152
