url,class,score
https://scontent.cdninstagram.com/t51.2885-15/e35/13381234_1030770726971349_591492318_n.jpg,commerce,0.97355628
,many,0.973429322
,education,0.973022699
,stock,0.971769691
,people,0.9694103
,group,0.966657043
,school,0.96176064
,woman,0.948733091
,religion,0.929096818
,man,0.927638054
,university,0.920576811
,adult,0.910733759
,indoors,0.901230454
,market,0.897068143
,shopping,0.873239517
,shop,0.872652411
,shelf,0.869482517
,portrait,0.852782428
,festival,0.851796567
,restaurant,0.833242893
https://scontent.cdninstagram.com/t51.2885-15/e35/13408720_1830723530476302_1282897744_n.jpg,illustration,0.992074728
,art,0.982799888
,design,0.978295863
,desktop,0.962195754
,simple,0.927030563
,image,0.919234693
,character,0.917658567
,graphic,0.914696991
,abstract,0.908617139
,vector,0.908155799
,symbol,0.885996103
,shape,0.882449269
,element,0.867826462
,color,0.844621062
,isolated,0.835413218
,texture,0.830196142
,round,0.821820498
,decoration,0.816147983
,light,0.813200831
,pattern,0.808696032
https://scontent.cdninstagram.com/t51.2885-15/e35/13437197_1701112580106472_575391932_n.jpg,sweet,0.994520545
,cake,0.988708258
,cream,0.980923176
,chocolate,0.977625251
,pastry,0.973179221
,food,0.97262466
,desktop,0.969201982
,confection,0.960440576
,refreshment,0.960211754
,bakery,0.957400143
,sugar,0.956700087
,delicious,0.948316693
,fruit,0.940894663
,no person,0.940215945
,closeup,0.934883833
,cup,0.931014061
,cookie,0.920472145
,goody,0.907374859
,candy,0.891893387
,indulgence,0.886250496
https://scontent.cdninstagram.com/t51.2885-15/s640x640/sh0.08/e35/13320155_1012392358836687_905223357_n.jpg,painting,0.994711459
,facial expression,0.989214778
,art,0.988395393
,illustration,0.983986974
,creativity,0.977423251
,artistic,0.951950669
,adult,0.945859075
,two,0.933102727
,wear,0.925786614
,one,0.921030998
,people,0.918889046
,no person,0.90985322
,man,0.903038859
,graffiti,0.885196805
,portrait,0.874500513
,print,0.873447657
,art,0.872143984
,paper,0.85977304
,messy,0.853417158
,woman,0.853028834
https://scontent.cdninstagram.com/t51.2885-15/s750x750/sh0.08/e35/13473382_1027973893946963_321761474_n.jpg,people,0.980308592
,water,0.979245067
,outdoors,0.978768945
,man,0.97622484
,woman,0.972182751
,two,0.970713854
,togetherness,0.963406265
,adult,0.948139191
,love,0.945328534
,portrait,0.9431265
,leisure,0.94042182
,travel,0.931916356
,lake,0.920916259
,affection,0.915421844
,family,0.911116362
,happiness,0.905136883
,recreation,0.899478912
,enjoyment,0.889958262
,romance,0.879612207
,summer,0.86101675
https://scontent.cdninstagram.com/t51.2885-15/s640x640/e15/13381301_1718368455079547_470049346_n.jpg,beach,0.994930148
,sea,0.994236827
,water,0.990596414
,sand,0.987790644
,relaxation,0.97646445
,seashore,0.975646734
,sun,0.973871291
,ocean,0.972154021
,sunset,0.97059828
,leisure,0.970461369
,summer,0.970330477
,sky,0.954186022
,travel,0.926599741
,outdoors,0.911451638
,fair weather,0.911107481
,nature,0.910605192
,lifestyle,0.905379593
,wave,0.903147936
,vacation,0.900583208
,recreation,0.894423604
https://scontent.cdninstagram.com/t51.2885-15/e35/13534180_256118264763059_1690761136_n.jpg,people,0.983175576
,outdoors,0.919739008
,adult,0.906062007
,summer,0.889981866
,man,0.88824439
,water,0.886958659
,sport,0.864011705
,recreation,0.86165154
,leisure,0.838371038
,environment,0.836143136
,travel,0.836114168
,motion,0.824061513
,woman,0.803205132
,tree,0.803202629
,road,0.783296943
,landscape,0.76690948
,child,0.761809945
,fun,0.759016097
,horizontal,0.749232233
,nature,0.736415982
https://scontent.cdninstagram.com/t51.2885-15/e35/13437159_140648976341293_719336666_n.jpg,food,0.98481214
,sweet,0.931401134
,stock,0.929961383
,color,0.913491249
,bowl,0.891475379
,milk,0.876051664
,chocolate,0.874930859
,International,0.873211324
,merchandise,0.8632406
,spoon,0.854924917
,dairy product,0.854431272
,no person,0.849822879
,Easter,0.837334037
,scoop,0.830715239
,ball-shaped,0.825149775
,breakfast,0.822244227
,indoors,0.815003395
,people,0.807450056
,market,0.806867123
,coffee,0.7953614
https://scontent.cdninstagram.com/t51.2885-15/e35/13414200_301890070151301_1630065025_n.jpg,sunset,0.998072982
,beach,0.991092563
,evening,0.989352047
,dawn,0.988615751
,water,0.986159325
,backlit,0.985194564
,dusk,0.980513215
,sea,0.977251053
,landscape,0.974902272
,ocean,0.97079283
,silhouette,0.96995306
,no person,0.967772424
,seashore,0.962003946
,seascape,0.95891118
,lake,0.932043076
,sun,0.927515626
,sky,0.916414499
,light,0.902956128
,reflection,0.901899219
,daylight,0.898968697
https://scontent.cdninstagram.com/t51.2885-15/e35/13397472_1726634767575372_2077794120_n.jpg,water,0.992323637
,seashore,0.990249753
,no person,0.99012804
,beach,0.986777425
,sea,0.985548317
,ocean,0.983207881
,travel,0.982664108
,landscape,0.976992488
,surf,0.966363192
,rock,0.962568045
,outdoors,0.955520391
,daylight,0.946626902
,sky,0.944660783
,cliff,0.929763198
,wave,0.916858375
,sand,0.910512447
,nature,0.910111606
,scenic,0.90951103
,seascape,0.909161329
,sunset,0.859860361
https://scontent.cdninstagram.com/t51.2885-15/s750x750/sh0.08/e35/13381174_1083038721768007_1157793325_n.jpg,people,0.981288671
,man,0.965368509
,business,0.959992766
,outdoors,0.932906151
,woman,0.926189661
,adult,0.922062337
,teamwork,0.910416722
,group,0.909343839
,portrait,0.908182859
,energy,0.885527015
,squad,0.864403307
,competition,0.854190946
,togetherness,0.853779852
,group,0.849524915
,city,0.843043447
,industry,0.834488392
,soccer,0.832927287
,child,0.813196957
,education,0.80426228
,horizontal,0.801078677
https://scontent.cdninstagram.com/t51.2885-15/e35/13385612_249557905424713_881792885_n.jpg,city,0.988894105
,window,0.988565564
,people,0.983007371
,travel,0.979734421
,water,0.969392657
,business,0.965192199
,architecture,0.96293664
,vehicle,0.952872396
,street,0.952344179
,building,0.946603715
,adult,0.944737554
,sea,0.941079915
,reflection,0.933851838
,cityscape,0.928950727
,storm,0.922815561
,landscape,0.916628122
,weather,0.913917899
,transportation system,0.912838519
,offense,0.904993534
,sky,0.902572632
https://scontent.cdninstagram.com/t51.2885-15/e35/13398616_648893058598119_1982375_n.jpg,water,0.987336874
,no person,0.986972809
,winter,0.973286271
,sea,0.965454102
,travel,0.963064909
,snow,0.952718019
,sky,0.935823381
,outdoors,0.93381691
,beach,0.932926536
,landscape,0.928192139
,seashore,0.92626965
,city,0.911470294
,ocean,0.906177223
,architecture,0.905655503
,sunset,0.884763718
,ice,0.865962982
,cold,0.845665812
,light,0.843575358
,pier,0.838194132
,daylight,0.821122885
https://scontent.cdninstagram.com/t51.2885-15/s640x640/e15/13388681_1777520229160144_726892069_n.jpg,no person,0.997283936
,nature,0.988094091
,outdoors,0.975661457
,ground,0.969420314
,wildlife,0.956203401
,summer,0.937854528
,little,0.935961008
,bird,0.934577882
,one,0.852473438
,leaf,0.851717651
,water,0.846446037
,wood,0.842171073
,horizontal,0.841291904
,soil,0.835109949
,sand,0.805259109
,two,0.797530413
,animal,0.786141515
,food,0.78315568
,grass,0.777071953
,stone,0.77681005
https://scontent.cdninstagram.com/t51.2885-15/e35/13422866_961522757301927_1945286428_n.jpg,man,0.962350965
,people,0.942420244
,indoors,0.938280821
,adult,0.919908643
,wear,0.895936489
,enjoyment,0.885403752
,food,0.867028356
,one,0.859889388
,woman,0.823424637
,facial expression,0.785042048
,recreation,0.772753954
,festival,0.770054102
,restaurant,0.743487597
,portrait,0.743218958
,fun,0.733291626
,competition,0.715760767
,happiness,0.687384605
,relaxation,0.675427854
,dinner,0.665343046
,leisure,0.656487763
https://scontent.cdninstagram.com/t51.2885-15/e35/13266831_588527811327480_1745741994_n.jpg,woman,0.983546972
,man,0.974972129
,adult,0.97177577
,people,0.966773868
,facial expression,0.96041286
,indoors,0.957699537
,togetherness,0.938515306
,group,0.935342193
,daylight,0.933731496
,wear,0.932684541
,enjoyment,0.918543458
,portrait,0.905303836
,happiness,0.898621202
,two,0.857936382
,shopping,0.855912089
,school,0.842557073
,education,0.829146147
,university,0.825042725
,commerce,0.820261419
,room,0.819283068
https://scontent.cdninstagram.com/t51.2885-15/s640x640/e15/13381402_1723826704550414_1769475186_n.jpg,travel,0.982967675
,people,0.981781483
,outdoors,0.951990247
,water,0.940502644
,competition,0.927258015
,sign,0.92669487
,business,0.926075935
,tourism,0.922628582
,city,0.921566367
,tourist,0.915310502
,recreation,0.909953713
,reflection,0.904353023
,no person,0.895292521
,man,0.870408058
,logo,0.864275575
,vacation,0.863960147
,stock,0.845080376
,umbrella,0.83972466
,group,0.834446847
,fun,0.833729863
https://scontent.cdninstagram.com/t51.2885-15/e35/13385756_1740915666197582_1064730609_n.jpg,fence,0.990914106
,landscape,0.989665031
,farm,0.987210035
,cavalry,0.985754371
,tree,0.980032444
,agriculture,0.975505948
,livestock,0.974301696
,grass,0.972486019
,sheep,0.968183517
,country,0.967272103
,countryside,0.957489014
,cattle,0.953936756
,no person,0.950996101
,nature,0.949066341
,mammal,0.945153236
,outdoors,0.942538619
,sky,0.941575408
,field,0.932650805
,hayfield,0.931603968
,rural,0.927722931
https://scontent.cdninstagram.com/t51.2885-15/e35/13392764_1203063203060686_1588847026_n.jpg,fisherman,0.994497776
,fishing rod,0.990645289
,water,0.990411341
,recreation,0.989999413
,leisure,0.98447299
,man,0.984443665
,people,0.983329296
,watercraft,0.976379812
,rod,0.968638957
,vehicle,0.968096256
,river,0.965647638
,adult,0.962064624
,travel,0.958209515
,outdoors,0.939785719
,lake,0.933602333
,two,0.932596445
,vacation,0.910613418
,one,0.904017806
,daylight,0.902906954
,angler,0.90124929
https://scontent.cdninstagram.com/t51.2885-15/e35/13181474_508852529321707_288609594_n.jpg,group,0.997915268
,friendship,0.995746672
,group,0.993695617
,man,0.987060249
,four,0.983657956
,portrait,0.978237629
,woman,0.965361238
,student,0.965000749
,togetherness,0.960521162
,laughing,0.956602573
,people,0.95191133
,three,0.930784822
,five,0.911675572
,multicultural,0.905979514
,water,0.880043983
,facial expression,0.866152048
,pool,0.858637094
,recreation,0.857501388
,enjoyment,0.855895281
,embrace,0.839228749
https://scontent.cdninstagram.com/t51.2885-15/e35/13423421_881963111933342_2003944990_n.jpg,sunset,0.99868983
,dawn,0.991484046
,water,0.987311006
,sun,0.983366966
,dusk,0.977811873
,evening,0.976682067
,sea,0.954142213
,ocean,0.938456118
,no person,0.935323477
,beach,0.934303761
,sky,0.915436804
,silhouette,0.915142
,reflection,0.908186913
,fair weather,0.90410018
,landscape,0.902825832
,seascape,0.902821422
,backlit,0.864879131
,light,0.864283562
,nature,0.860956192
,summer,0.789205134
https://scontent.cdninstagram.com/t51.2885-15/e35/13108802_1018343218235388_312322893_n.jpg,education,0.981829405
,people,0.971978307
,school,0.968517303
,woman,0.963057518
,adult,0.958373606
,man,0.942069173
,indoors,0.938448429
,recreation,0.92873323
,business,0.909287989
,university,0.894839764
,room,0.891130567
,portrait,0.881789565
,wear,0.868565321
,group,0.849495649
,competition,0.8493343
,league,0.833969653
,industry,0.820646644
,teacher,0.802923322
,healthcare,0.800744534
,facial expression,0.774404585
https://scontent.cdninstagram.com/t51.2885-15/e35/13256689_1014423185279622_1732454997_n.jpg,people,0.995888531
,two,0.985075474
,kimono,0.98122716
,adult,0.980682731
,man,0.979625642
,dancer,0.97485745
,dancing,0.972940564
,athlete,0.971494198
,karate,0.96810782
,woman,0.966705561
,monochrome,0.958684385
,competition,0.958016634
,skill,0.957382441
,group,0.955683947
,motion,0.9484694
,action,0.943477154
,sport,0.940565944
,exercise,0.929592192
,action,0.924536467
,uniform,0.922424793
https://scontent.cdninstagram.com/t51.2885-15/e35/13423058_611924038970214_1231337063_n.jpg,tree,0.994267583
,landscape,0.975917935
,no person,0.964764416
,grass,0.963614106
,competition,0.959981441
,golf,0.958058596
,outdoors,0.947531343
,travel,0.941611052
,people,0.937795341
,sky,0.934996963
,daylight,0.92759496
,park,0.919548154
,soccer,0.910319924
,recreation,0.910161793
,nature,0.909194589
,environment,0.885535896
,road,0.877728939
,summer,0.87578249
,leisure,0.855585814
,auto racing,0.838701487
https://scontent.cdninstagram.com/t51.2885-15/e35/13267349_248642795500010_2128223154_n.jpg,crowd,0.996781051
,competition,0.994392872
,soccer,0.993982077
,people,0.992251158
,many,0.987957716
,sports fan,0.983392
,football,0.98197186
,stadium,0.97451508
,athlete,0.972710729
,audience,0.966822743
,group,0.96382165
,game,0.963113427
,spectator,0.957481503
,grandstand,0.936846256
,man,0.934762061
,champion,0.929375172
,victory,0.917637229
,ball,0.912834764
,action,0.902611792
,foot,0.88009119
https://scontent.cdninstagram.com/t51.2885-15/s750x750/sh0.08/e35/13269562_1924315921128559_1800015612_n.jpg,people,0.970518947
,shopping,0.962922752
,city,0.957344353
,competition,0.947191417
,many,0.947037101
,group,0.929309547
,stock,0.925185144
,street,0.92069149
,crowd,0.909947753
,wear,0.8999089
,motion,0.89776206
,commerce,0.895605206
,market,0.874168277
,road,0.866654217
,man,0.865921855
,enjoyment,0.859167933
,portrait,0.857184172
,music,0.85231328
,action,0.841680527
,school,0.83933866
https://scontent.cdninstagram.com/t51.2885-15/e35/13249829_610568499108168_775011362_n.jpg,people,0.993312716
,adult,0.958905101
,food,0.956554532
,indoors,0.955346286
,meal,0.942420602
,facial expression,0.936015487
,enjoyment,0.917749584
,woman,0.912791431
,portrait,0.902048349
,one,0.89503628
,child,0.893582523
,hungry,0.893089414
,family,0.891580522
,daylight,0.884962857
,breakfast,0.876563132
,cooking,0.85265249
,happiness,0.830096424
,lifestyle,0.827672243
,room,0.824139953
,wear,0.809664249
https://scontent.cdninstagram.com/t51.2885-15/e35/13126775_789338031166372_1627698152_n.jpg,man,0.967291236
,group,0.967063546
,people,0.961975574
,soccer,0.961935639
,group,0.950944006
,woman,0.93744266
,competition,0.93676877
,portrait,0.930851698
,family,0.907850802
,football,0.897196531
,recreation,0.891000152
,flag,0.890889049
,adult,0.886039317
,celebration,0.885841608
,festival,0.865178227
,sports fan,0.862525523
,performance,0.862267971
,music,0.85033977
,child,0.839016914
,championship,0.834685087
https://scontent.cdninstagram.com/t51.2885-15/e35/13116717_1607254516258722_942851053_n.jpg,city,0.991061151
,travel,0.990471959
,water,0.988960743
,no person,0.988662124
,architecture,0.988487363
,building,0.972587109
,sky,0.972027898
,reflection,0.959877372
,river,0.958671808
,business,0.95631665
,cityscape,0.951498985
,bridge,0.948434949
,hotel,0.948060513
,skyscraper,0.9476794
,urban,0.946869254
,downtown,0.945197105
,skyline,0.935548127
,outdoors,0.931503773
,waterfront,0.931079388
,modern,0.914137423
https://scontent.cdninstagram.com/t51.2885-15/e35/13249783_636917459792475_604429187_n.jpg,people,0.985556126
,group,0.984483361
,woman,0.984406829
,adult,0.977121174
,portrait,0.976409495
,man,0.973021746
,facial expression,0.967097163
,group,0.966933012
,four,0.919908464
,recreation,0.917478263
,five,0.912163973
,friendship,0.906445742
,wear,0.88785702
,three,0.867671669
,enjoyment,0.855406165
,girl,0.850543976
,music,0.842052996
,family,0.835895479
,child,0.826388657
,drink,0.823932648
https://scontent.cdninstagram.com/t51.2885-15/e35/13166956_601512316679989_1815523747_n.jpg,ceremony,0.99721241
,people,0.991270423
,military,0.978953481
,man,0.964905679
,education,0.962832808
,school,0.960334122
,army,0.956183553
,university,0.95521009
,wear,0.953959346
,adult,0.952678084
,war,0.9508003
,uniform,0.93823117
,leader,0.934017539
,award,0.923739374
,group,0.922057867
,graduation,0.918872535
,soldier,0.909633756
,celebration,0.908110142
,administration,0.895969152
,many,0.895332932
https://scontent.cdninstagram.com/t51.2885-15/e35/13102501_934305726677093_1944696753_n.jpg,group,0.984563828
,technology,0.976309299
,people,0.975293756
,education,0.975168705
,woman,0.968157411
,computer,0.964467645
,many,0.963557363
,display,0.952545404
,screen,0.952209055
,internet,0.948720813
,collage,0.948221028
,communication,0.948079467
,man,0.946091831
,business,0.934491694
,student,0.919810295
,child,0.911260962
,monitor,0.877960086
,laptop,0.855941236
,school,0.848387837
,teamwork,0.84151125
https://scontent.cdninstagram.com/t51.2885-15/e35/13188056_216500082065699_182423000_n.jpg,city,0.966833651
,many,0.965789735
,vehicle,0.95993948
,people,0.959557772
,tourism,0.957860529
,group,0.951738
,travel,0.936325788
,town,0.927601814
,street,0.909645557
,urban,0.90933764
,tourist,0.908013403
,daylight,0.899306417
,market,0.894307494
,commerce,0.885847688
,transportation system,0.885665417
,competition,0.882014275
,festival,0.87633431
,building,0.874801338
,outdoors,0.867981672
,crowd,0.858673155
https://scontent.cdninstagram.com/t51.2885-15/e35/p480x480/13166733_852065434939554_174868744_n.jpg,no person,0.989581466
,text,0.978320599
,education,0.939982176
,time,0.916551352
,paper,0.915936232
,business,0.901606739
,give voice,0.875548124
,calendar,0.865144074
,annual,0.843832135
,research,0.841503441
,science,0.827485561
,schedule,0.823535442
,page,0.820971429
,writing,0.804849267
,almanac,0.798374712
,school,0.797112465
,travel,0.795021772
,document,0.791801751
,monthly,0.784695148
,book,0.774273157
https://scontent.cdninstagram.com/t51.2885-15/s640x640/sh0.08/e35/12935143_231335993895982_2054516231_n.jpg,school,0.996167719
,education,0.991738439
,people,0.988869667
,child,0.979037642
,portrait,0.973968327
,adult,0.973287046
,competition,0.971493185
,woman,0.969131291
,squad,0.951065361
,group,0.947429061
,university,0.94740802
,recreation,0.926269472
,man,0.918443203
,athlete,0.917996645
,boy,0.916346908
,wear,0.908121526
,youth,0.906136751
,many,0.902277589
,class,0.901961327
,group,0.901879072
https://scontent.cdninstagram.com/t51.2885-15/s480x480/e35/13166720_361418140648938_2005566355_n.jpg,people,0.979966283
,woman,0.964929581
,adult,0.961068153
,happiness,0.948356628
,portrait,0.938464284
,cheerful,0.932062745
,horizontal,0.927922606
,celebration,0.926254153
,man,0.897514462
,indoors,0.880284667
,actor,0.86864841
,love,0.856591105
,movie,0.841573715
,actress,0.834950209
,business,0.829312444
,recreation,0.820253313
,birthday,0.819595218
,fun,0.810748935
,ceremony,0.807105184
,togetherness,0.803446412
https://scontent.cdninstagram.com/t51.2885-15/e35/13092371_242882152768331_804761080_n.jpg,people,0.990290642
,festival,0.977651477
,ceremony,0.976934254
,celebration,0.961581707
,competition,0.960895896
,school,0.943519592
,award,0.943063259
,singer,0.939610124
,woman,0.932308078
,performance,0.927543759
,recreation,0.924534202
,adult,0.918732762
,soccer,0.917816162
,man,0.911786675
,education,0.909608662
,group,0.898446679
,event,0.898391426
,wear,0.896020472
,editorial,0.891800284
,band,0.88166219
https://scontent.cdninstagram.com/t51.2885-15/e35/13129720_831426050297508_716983800_n.jpg,people,0.995370984
,many,0.993116796
,ceremony,0.981830001
,competition,0.980688453
,crowd,0.978667796
,celebration,0.970850945
,university,0.965545893
,school,0.965512395
,adult,0.965024471
,victory,0.961329341
,stadium,0.960507154
,man,0.957175612
,uniform,0.954020023
,education,0.953178406
,group,0.931619167
,lid,0.927760601
,wear,0.919593334
,woman,0.917883039
,sports fan,0.917695642
,award,0.909745336
https://scontent.cdninstagram.com/t51.2885-15/e35/13248746_983066111811309_2015620624_n.jpg,people,0.994936109
,group,0.984650552
,man,0.976495624
,woman,0.973534286
,group,0.963692367
,adult,0.959853768
,religion,0.958178639
,wear,0.956820667
,competition,0.955072284
,squad,0.953662872
,festival,0.951763391
,celebration,0.942199469
,performance,0.941607952
,ceremony,0.936144173
,crowd,0.934150159
,many,0.928668022
,music,0.925999761
,sports fan,0.903667331
,recreation,0.897936106
,game,0.888055265
https://scontent.cdninstagram.com/t51.2885-15/s750x750/sh0.08/e35/13129450_594998097343153_1258098885_n.jpg,woman,0.983810902
,man,0.980931938
,group,0.980060577
,people,0.973319054
,adult,0.96332711
,table,0.95702374
,child,0.955400169
,group,0.940109313
,restaurant,0.93714577
,indoors,0.9347592
,coffee,0.929684103
,enjoyment,0.918096304
,togetherness,0.916142821
,facial expression,0.907578111
,happiness,0.899208486
,sit,0.89413476
,furniture,0.878544688
,friendship,0.855950832
,education,0.85308075
,girl,0.834837675
https://scontent.cdninstagram.com/t51.2885-15/e15/13113943_1714066085478123_1885085811_n.jpg,adult,0.99771595
,indoors,0.994637728
,people,0.986466765
,office,0.981714249
,desk,0.979919553
,side view,0.97944963
,room,0.967324734
,man,0.966039896
,computer,0.965320051
,hospital,0.96102345
,technology,0.959287405
,table,0.954440832
,woman,0.953607202
,furniture,0.946901917
,concentration,0.946874559
,medicine,0.936737657
,education,0.932184935
,business,0.923700929
,scrutiny,0.918416679
,facial expression,0.911314905
https://scontent.cdninstagram.com/t51.2885-15/e35/13116625_1019066754853608_497974705_n.jpg,accomplishment,0.991369963
,people,0.984927416
,celebration,0.977599263
,success,0.976327658
,graduation,0.973889172
,man,0.971755683
,wear,0.967050791
,one,0.965126991
,success,0.96005559
,adult,0.939874411
,fun,0.935281396
,ceremony,0.933924913
,victory,0.92026037
,enjoyment,0.899641395
,ball,0.887685537
,soccer,0.885300994
,outfit,0.882016242
,action,0.881135464
,competition,0.869364858
,education,0.867223918
https://scontent.cdninstagram.com/t51.2885-15/e35/13102342_1027101040711246_1687640051_n.jpg,competition,0.98643285
,people,0.984595895
,city,0.976343215
,festival,0.971113324
,ceremony,0.944570661
,man,0.942504644
,woman,0.929812789
,athlete,0.920732856
,soccer,0.919227719
,race,0.914967656
,street,0.914792657
,adult,0.913653255
,wear,0.904276371
,celebration,0.903034151
,shopping,0.898465991
,group,0.893161356
,parade,0.891898036
,many,0.890360951
,exhibition,0.889610171
,school,0.88581866
https://scontent.cdninstagram.com/t51.2885-15/sh0.08/e35/p750x750/13117849_1154473337920877_461199719_n.jpg,indoors,0.98403424
,group,0.974462152
,man,0.973100245
,adult,0.969919801
,woman,0.968701482
,room,0.968495607
,family,0.965930581
,leisure,0.959449887
,togetherness,0.958536804
,people,0.956453681
,child,0.950544536
,table,0.949096084
,four,0.946691394
,fun,0.94299978
,game,0.931491435
,facial expression,0.928310812
,happiness,0.924966693
,sit,0.920691729
,enjoyment,0.916557908
,three,0.911018908
https://scontent.cdninstagram.com/t51.2885-15/e35/13108593_1151600588192502_1813455997_n.jpg,sea,0.989170671
,water,0.988705695
,seashore,0.985990763
,beach,0.985742569
,ocean,0.98021102
,travel,0.97617507
,vacation,0.9554829
,lifestyle,0.946667194
,sky,0.946495056
,outdoors,0.929948449
,summer,0.929857731
,sand,0.914953113
,leisure,0.914924502
,daylight,0.913195789
,recreation,0.909157157
,nature,0.909097552
,people,0.904118419
,landscape,0.900451005
,adult,0.870151281
,relaxation,0.862431049
https://scontent.cdninstagram.com/t51.2885-15/e35/13130029_1112945022082243_1543163313_n.jpg,people,0.973037004
,city,0.966332257
,competition,0.94698143
,man,0.936076283
,street,0.931868553
,crowd,0.920051336
,many,0.915322542
,woman,0.907882512
,school,0.907592714
,road,0.885098159
,wear,0.87944597
,festival,0.872552514
,group,0.84000504
,adult,0.83814466
,police,0.834719896
,university,0.832579255
,soccer,0.827580452
,portrait,0.824410617
,group,0.823430538
,education,0.8209005
https://scontent.cdninstagram.com/t51.2885-15/e35/13150809_493157854225982_849180142_n.jpg,celebration,0.994887948
,people,0.978865325
,ceremony,0.976669669
,woman,0.960673571
,man,0.957516909
,outdoors,0.936551094
,festival,0.923958302
,fun,0.917750061
,award,0.917536855
,event,0.909676492
,happiness,0.907525897
,love,0.904764771
,competition,0.899212241
,adult,0.896113217
,flower,0.883821428
,family,0.881867051
,portrait,0.874667346
,pride,0.866095901
,recreation,0.860588789
,party,0.853805423
https://scontent.cdninstagram.com/t51.2885-15/e35/12976659_1082756971782812_709690731_n.jpg,portrait,0.993463576
,people,0.981746078
,adult,0.975362062
,competition,0.957235336
,facial expression,0.949153066
,auto racing,0.939095199
,festival,0.930544972
,outdoors,0.922715783
,woman,0.919986725
,race,0.919314027
,wear,0.917775869
,interaction,0.898358941
,race,0.894715011
,one,0.892444432
,two,0.8891114
,man,0.886414051
,championship,0.884264469
,happiness,0.876776934
,musician,0.873232126
,street,0.869723976
