url,class,score
https://scontent.cdninstagram.com/t51.2885-15/e35/13652244_263469400695835_480310030_n.jpg,people,0.9833786487579346
,man,0.9541506767272949
,indoors,0.9538730382919312
,woman,0.9371340274810791
,monochrome,0.9326986074447632
,adult,0.9211331605911255
,business,0.9140949249267578
,chair,0.9033346176147461
,seat,0.9031825065612793
,foot,0.8941049575805664
,healthcare,0.8855644464492798
,vehicle,0.8740449547767639
,person,0.8598541021347046
,one,0.8580209016799927
,studio,0.8542810678482056
,girl,0.8528473377227783
,medicine,0.812946617603302
,conceptual,0.8119521737098694
,hand,0.8031153678894043
,technology,0.7981953620910645
https://scontent.cdninstagram.com/t51.2885-15/e35/13525514_515060348689600_192280731_n.jpg,woman,0.9884598255157471
,fashion,0.9751098155975342
,portrait,0.9638833999633789
,girl,0.9473495483398438
,cute,0.9334594011306763
,glamour,0.9253809452056885
,model,0.8797887563705444
,sexy,0.8782192468643188
,eye,0.8647503852844238
,pretty,0.8599069118499756
,people,0.8446731567382812
,hair,0.8215210437774658
,one,0.816921591758728
,lips,0.7945222854614258
,enjoyment,0.7551909685134888
,joy,0.7548164129257202
,dress,0.7540880441665649
,skin,0.7502069473266602
,indoors,0.7439069747924805
,long,0.7272887825965881
https://scontent.cdninstagram.com/t51.2885-15/e35/13573576_868279246650300_698274986_n.jpg,car,0.9987245798110962
,travel,0.9969106912612915
,woman,0.9960173964500427
,indoors,0.9916999340057373
,seat,0.9908097982406616
,transportation system,0.9893549680709839
,vehicle,0.9869745969772339
,travel,0.9862102270126343
,sit,0.9849557876586914
,driver,0.9751039743423462
,people,0.9731760621070862
,window,0.9724210500717163
,steering wheel,0.9602369070053101
,outdoors,0.9594371318817139
,guidance,0.958428144454956
,summer,0.9556188583374023
,child,0.9543260335922241
,relaxation,0.9517874717712402
,sitting,0.9512280225753784
,girl,0.9427998661994934
https://scontent.cdninstagram.com/t51.2885-15/e35/13562015_844914062318829_840945056_n.jpg,woman,0.9667936563491821
,indoors,0.9653635025024414
,people,0.9651303291320801
,business,0.9437292218208313
,adult,0.9352995157241821
,man,0.9283294677734375
,two,0.9176494479179382
,fashion,0.912526547908783
,one,0.8724661469459534
,portrait,0.8662134408950806
,glamour,0.853172242641449
,music,0.8505064845085144
,coffee,0.8497657775878906
,sexy,0.8361551761627197
,commerce,0.8355828523635864
,room,0.8353627920150757
,young,0.82431560754776
,technology,0.8087073564529419
,backstage,0.8027753829956055
,sit,0.7906605005264282
https://scontent.cdninstagram.com/t51.2885-15/e35/13423653_1068432716577508_1753922300_n.jpg,indoors,0.9780926704406738
,chair,0.9770253896713257
,furniture,0.9765975475311279
,people,0.9751040935516357
,adult,0.972762942314148
,man,0.9692763090133667
,room,0.9675905704498291
,seat,0.9660130739212036
,woman,0.9441635012626648
,table,0.8975077867507935
,sit,0.8867310881614685
,business,0.8823361396789551
,group,0.8576358556747437
,travel,0.8287495374679565
,office,0.8193627595901489
,portrait,0.8180562257766724
,coffee,0.805597722530365
,restaurant,0.7974287271499634
,sofa,0.797264814376831
,hotel,0.7968416213989258
https://scontent.cdninstagram.com/t51.2885-15/e35/13092215_975995602476038_952931767_n.jpg,group,0.9943432807922363
,people,0.9931187629699707
,ceremony,0.9768860936164856
,leader,0.9674910306930542
,woman,0.960111141204834
,adult,0.9596986770629883
,man,0.9528038501739502
,several,0.9445254802703857
,administration,0.9283616542816162
,four,0.9202459454536438
,group,0.9201451539993286
,five,0.9170951247215271
,religion,0.9098320007324219
,three,0.8932452201843262
,business,0.8750012516975403
,celebration,0.8489505052566528
,dinner jacket,0.844656765460968
,wedding,0.8275675773620605
,musician,0.8268540501594543
,many,0.8211609125137329
https://scontent.cdninstagram.com/t51.2885-15/e35/13549462_1144231025599449_133070000_n.jpg,woman,0.9976359009742737
,girl,0.9928990602493286
,portrait,0.9880661964416504
,fashion,0.9836554527282715
,beautiful,0.9750453233718872
,pretty,0.9742802977561951
,model,0.9663148522377014
,young,0.954656720161438
,eye,0.9429867267608643
,people,0.9404785633087158
,sexy,0.9309943914413452
,cute,0.9279600977897644
,glamour,0.9186154007911682
,hair,0.9058250188827515
,face,0.8943777084350586
,lady,0.8887053728103638
,one,0.8674426078796387
,indoors,0.8672223091125488
,brunette,0.8481394052505493
,music,0.8480700254440308
https://scontent.cdninstagram.com/t51.2885-15/e35/12677218_931318056975145_1162176269_n.jpg,furniture,0.9981696009635925
,indoors,0.9971919059753418
,interior design,0.9965791702270508
,room,0.9960423707962036
,contemporary,0.9907917976379395
,floor,0.9878463745117188
,lamp,0.9840742349624634
,home,0.9837076663970947
,chair,0.9807446599006653
,table,0.9785102605819702
,window,0.9751783609390259
,mirror,0.9647215008735657
,seat,0.9645038843154907
,luxury,0.9610993266105652
,bedroom,0.9546323418617249
,house,0.9536176919937134
,apartment,0.9487419128417969
,bed,0.9474846720695496
,family,0.9473872184753418
,rug,0.9393516778945923
https://scontent.cdninstagram.com/t51.2885-15/e35/13597689_205062113228358_1660612548_n.jpg,woman,0.9880084991455078
,indoors,0.9816081523895264
,adult,0.9721464514732361
,people,0.9682977199554443
,business,0.9631526470184326
,yoga,0.9605141878128052
,man,0.9479289054870605
,two,0.9469509124755859
,room,0.9377213716506958
,sitting,0.9343172907829285
,wear,0.9302690029144287
,togetherness,0.9157611131668091
,office,0.910855770111084
,teamwork,0.9013277292251587
,balance,0.8976289629936218
,furniture,0.8924045562744141
,meeting,0.8741894960403442
,confidence,0.8664720058441162
,cooperation,0.8663867712020874
,employee,0.8642969727516174
https://scontent.cdninstagram.com/t51.2885-15/s480x480/e35/929369_793844650719349_1997474237_n.jpg,woman,0.984011173248291
,portrait,0.9783958196640015
,adult,0.9778503179550171
,people,0.9694130420684814
,girl,0.9540953636169434
,fashion,0.9451373815536499
,music,0.9442400932312012
,one,0.9401358962059021
,wear,0.9222548007965088
,movie,0.907616376876831
,indoors,0.9061204791069031
,dress,0.8989163637161255
,young,0.8985263705253601
,recreation,0.8981354832649231
,retro,0.8675358295440674
,business,0.8641402721405029
,lifestyle,0.8457109332084656
,model,0.8414242267608643
,party,0.8342978954315186
,sunglasses,0.831027626991272
https://scontent.cdninstagram.com/l/t51.2885-15/e35/12725014_203009733394215_577668893_n.jpg,woman,0.9966036677360535
,fashion,0.9939168691635132
,glamour,0.9831753969192505
,pretty,0.9723048210144043
,eye,0.9625656604766846
,sexy,0.9577853679656982
,elegant,0.954147219657898
,portrait,0.9385451078414917
,cute,0.9221526384353638
,lips,0.9205209612846375
,skin,0.9031407237052917
,model,0.8867942094802856
,look,0.8847968578338623
,seduction,0.878929615020752
,contemporary,0.8500717878341675
,girl,0.8076667189598083
,long,0.7831365466117859
,charming,0.7526650428771973
,serious,0.7488377094268799
,pensive,0.7410746812820435
https://scontent.cdninstagram.com/t51.2885-15/e35/12907445_1113452762051882_1438222923_n.jpg,fashion,0.9969128370285034
,woman,0.9951704144477844
,beautiful,0.9927061796188354
,girl,0.9926420450210571
,sexy,0.9894940853118896
,portrait,0.9882332682609558
,model,0.9845782518386841
,sunglasses,0.9810985326766968
,pretty,0.9809213876724243
,glamour,0.9772441983222961
,young,0.9668024182319641
,hair,0.966110110282898
,lid,0.9639471173286438
,brunette,0.963691234588623
,lady,0.9561449289321899
,people,0.9515647888183594
,dress,0.9486964344978333
,gorgeous,0.9362180233001709
,style,0.9214253425598145
,long,0.9207282066345215
https://scontent.cdninstagram.com/t51.2885-15/e35/12547473_567554300073699_24590311_n.jpg,woman,0.9967758655548096
,girl,0.9875873327255249
,fashion,0.9826298952102661
,portrait,0.9734577536582947
,people,0.9675396680831909
,relaxation,0.9663094878196716
,pretty,0.963802695274353
,model,0.9396686553955078
,indoors,0.93318772315979
,young,0.931875467300415
,beautiful,0.9312806725502014
,hair,0.930590808391571
,sexy,0.9106511473655701
,one,0.9080936312675476
,glamour,0.8994601368904114
,skin,0.8952672481536865
,cute,0.8951108455657959
,brunette,0.8780555129051208
,adult,0.8671495914459229
,eye,0.8657669425010681
https://scontent.cdninstagram.com/t51.2885-15/e35/13584016_625842737571500_547128842_n.jpg,child,0.9947943687438965
,love,0.9947909116744995
,togetherness,0.9921931624412537
,family,0.9902698993682861
,affection,0.9869474172592163
,woman,0.9844088554382324
,cute,0.9696503281593323
,fun,0.9620988368988037
,maternity,0.9607013463973999
,two,0.958613395690918
,embrace,0.9538364410400391
,joy,0.9507466554641724
,people,0.930535078048706
,leisure,0.9159971475601196
,little,0.9149156808853149
,indoors,0.9105315804481506
,boy,0.9070241451263428
,enjoyment,0.9017340540885925
,laughing,0.8750482797622681
,casual,0.8723703622817993
https://scontent.cdninstagram.com/t51.2885-15/s640x640/e15/12797996_1098879373466157_1696498932_n.jpg,water,0.9909812211990356
,nature,0.9907047748565674
,sea,0.9843764901161194
,summer,0.98307865858078
,sky,0.9823783040046692
,no person,0.9773941040039062
,landscape,0.9683921337127686
,outdoors,0.9618262052536011
,fair weather,0.9589945673942566
,ocean,0.9587432146072388
,sun,0.9522459506988525
,travel,0.9360291957855225
,seascape,0.9334239959716797
,daylight,0.9289876222610474
,scenic,0.9251801371574402
,cloud,0.9183673858642578
,beach,0.918342113494873
,turquoise,0.9021778106689453
,composure,0.8984412550926208
,light,0.8892737030982971
https://scontent.cdninstagram.com/t51.2885-15/e35/925164_477700395748833_1178689399_n.jpg,woman,0.988131046295166
,sunglasses,0.9768245816230774
,people,0.9726840257644653
,fun,0.9520155191421509
,girl,0.9241940975189209
,indoors,0.9207592010498047
,sit,0.9196248054504395
,adult,0.9167702198028564
,portrait,0.909433901309967
,fashion,0.9085315465927124
,man,0.9082773923873901
,business,0.9064660668373108
,young,0.8884918093681335
,two,0.8824571371078491
,pretty,0.8763912320137024
,recreation,0.8688280582427979
,movie,0.8675613403320312
,family,0.8625843524932861
,beautiful,0.8524606227874756
,music,0.8509355187416077
https://scontent.cdninstagram.com/t51.2885-15/e35/12822460_1744256242487129_1146813692_n.jpg,people,0.9877949953079224
,girl,0.9857865571975708
,woman,0.9792900681495667
,indoors,0.9633650779724121
,family,0.9628069400787354
,meal,0.9403767585754395
,child,0.9401313066482544
,sit,0.9229415655136108
,breakfast,0.9183132648468018
,lifestyle,0.9178354740142822
,food,0.9045701026916504
,portrait,0.8930555582046509
,beautiful,0.8906651139259338
,fun,0.8603000044822693
,lunch,0.8581414222717285
,two,0.8561081886291504
,adult,0.851934552192688
,one,0.8467347025871277
,enjoyment,0.8399246335029602
,dawn,0.8324328660964966
https://scontent.cdninstagram.com/t51.2885-15/e35/12677424_1652810434981537_2097487964_n.jpg,woman,0.9800995588302612
,girl,0.9769446849822998
,people,0.9738999605178833
,leisure,0.9556679129600525
,outdoors,0.9496103525161743
,travel,0.9438941478729248
,one,0.9408672451972961
,adult,0.9339063763618469
,portrait,0.9338414669036865
,lifestyle,0.9312065839767456
,summer,0.9298492670059204
,fashion,0.9061460494995117
,enjoyment,0.9014896750450134
,recreation,0.8997856378555298
,fun,0.8919194936752319
,happiness,0.8824255466461182
,wear,0.8774561882019043
,adolescent,0.874701738357544
,young,0.8697604537010193
,vacation,0.8666857481002808
https://scontent.cdninstagram.com/t51.2885-15/e35/12783390_1003659713042783_167453049_n.jpg,woman,0.9825522899627686
,business,0.9809778928756714
,people,0.9550778269767761
,office,0.9549577236175537
,adult,0.9541285634040833
,indoors,0.9510679244995117
,shopping,0.9408003687858582
,fashion,0.9259929656982422
,girl,0.9003976583480835
,young,0.8802875280380249
,person,0.8591499328613281
,model,0.8402879238128662
,portrait,0.8342986106872559
,room,0.816882848739624
,success,0.8165614604949951
,suit,0.8165385723114014
,employee,0.8070473670959473
,luggage,0.8054131269454956
,stock,0.8032110929489136
,modern,0.795396625995636
https://scontent.cdninstagram.com/t51.2885-15/e35/11848838_192400681127952_1121239993_n.jpg,woman,0.9954618811607361
,fashion,0.9824478030204773
,pretty,0.9599040746688843
,glamour,0.9431713819503784
,portrait,0.9325011968612671
,cute,0.9292613863945007
,eye,0.9247685670852661
,indoors,0.9178663492202759
,girl,0.9126134514808655
,elegant,0.9108054637908936
,people,0.8977168202400208
,sexy,0.8976205587387085
,model,0.8521136045455933
,young,0.837368905544281
,adolescent,0.8363264799118042
,love,0.8347437381744385
,fun,0.8225961923599243
,lips,0.8135107755661011
,joy,0.8104464411735535
,contemporary,0.7987687587738037
https://scontent.cdninstagram.com/t51.2885-15/e35/13098887_617249245104152_1198468016_n.jpg,woman,0.9924342632293701
,pretty,0.9864770174026489
,cute,0.984683096408844
,fashion,0.9783310294151306
,eye,0.9723389148712158
,adolescent,0.957227885723114
,child,0.9534645080566406
,casual,0.9503026008605957
,isolated,0.9500682950019836
,glamour,0.9474551677703857
,sexy,0.9338235855102539
,young,0.9336810111999512
,precious,0.9304025173187256
,skin,0.9225038290023804
,lips,0.9160807132720947
,elegant,0.9159317016601562
,girl,0.9124863147735596
,joy,0.9102579355239868
,fun,0.9011002779006958
,hair,0.8972663879394531
https://scontent.cdninstagram.com/t51.2885-15/e35/12144163_1672996902960008_921038040_n.jpg,woman,0.9972811937332153
,fashion,0.9727159738540649
,sexy,0.9699656367301941
,pretty,0.9623629450798035
,glamour,0.9514868855476379
,nude,0.9501557350158691
,indoors,0.9229543209075928
,seduction,0.9162518978118896
,eye,0.9095990657806396
,long,0.9056283235549927
,cute,0.8895580768585205
,love,0.8878614902496338
,skin,0.8868074417114258
,lingerie,0.8853045701980591
,elegant,0.8718509674072266
,adolescent,0.8667706251144409
,lips,0.8569693565368652
,relaxation,0.8545640707015991
,look,0.8529493808746338
,brassiere,0.8449348211288452
https://scontent.cdninstagram.com/t51.2885-15/e35/13388720_1732681056991101_1554958006_n.jpg,illustration,0.985040009021759
,science,0.984595775604248
,horizontal,0.9734985828399658
,medicine,0.9684581160545349
,business,0.9578765630722046
,no person,0.9559623599052429
,text,0.9545321464538574
,education,0.954013466835022
,conceptual,0.9521785974502563
,donation,0.9491170644760132
,system,0.9399036169052124
,disease,0.9387302398681641
,graphic,0.9307106733322144
,page,0.930026650428772
,hormone,0.9272619485855103
,medical,0.9145307540893555
,give voice,0.9143821001052856
,abstract,0.9086650609970093
,procedure,0.9079279899597168
,research,0.9022444486618042
https://scontent.cdninstagram.com/t51.2885-15/e35/12479177_419506768244486_1283348254_n.jpg,woman,0.9953880906105042
,portrait,0.9903560876846313
,girl,0.9882686138153076
,fashion,0.9797013998031616
,model,0.9725313186645508
,monochrome,0.9642536640167236
,people,0.9617747664451599
,one,0.9608291983604431
,adult,0.9468885064125061
,brunette,0.9268566370010376
,dress,0.9254454374313354
,sexy,0.9196534156799316
,beautiful,0.9148136377334595
,wear,0.9058294296264648
,pretty,0.9056607484817505
,face,0.8898167610168457
,glamour,0.8733332753181458
,studio,0.8634414672851562
,young,0.860662579536438
,cute,0.8512572050094604
https://scontent.cdninstagram.com/t51.2885-15/e35/12783199_1693897014185427_1384648083_n.jpg,woman,0.9974451065063477
,fashion,0.9829891920089722
,sexy,0.9804505109786987
,pretty,0.9774037599563599
,glamour,0.9682375192642212
,cute,0.9355117082595825
,seduction,0.9275861978530884
,eye,0.9228382110595703
,lips,0.9165815114974976
,adolescent,0.9156315326690674
,elegant,0.9071919918060303
,thin,0.9049587845802307
,skin,0.8718686699867249
,long,0.861738920211792
,portrait,0.8606992959976196
,hair,0.8467432856559753
,look,0.8425089120864868
,girl,0.8362894058227539
,indoors,0.8217430114746094
,thin,0.8131632804870605
https://scontent.cdninstagram.com/t51.2885-15/e35/13108730_1755624378002758_1206296505_n.jpg,woman,0.988834798336029
,fashion,0.9812803864479065
,contemporary,0.9575501680374146
,business,0.9460560083389282
,pretty,0.9422798156738281
,young,0.9321326017379761
,elegant,0.9294091463088989
,looking,0.9286000728607178
,one,0.92584627866745
,sexy,0.9178323745727539
,glamour,0.8854575157165527
,casual,0.8777666091918945
,luggage,0.8756896257400513
,wear,0.8673813939094543
,cute,0.8646276593208313
,indoors,0.8434252738952637
,portrait,0.8398046493530273
,people,0.8135693073272705
,adult,0.8123250007629395
,retro,0.8082276582717896
https://scontent.cdninstagram.com/t51.2885-15/e35/13151327_595297640646159_1203226193_n.jpg,woman,0.9926279783248901
,fashion,0.9910752177238464
,glamour,0.9678031206130981
,portrait,0.9631093740463257
,sexy,0.9627221822738647
,pretty,0.9560655355453491
,eye,0.9508461356163025
,elegant,0.95068359375
,girl,0.9332132339477539
,cute,0.9277046918869019
,model,0.9239159822463989
,lips,0.9215105175971985
,skin,0.8789952993392944
,hair,0.8642948865890503
,long,0.8439193964004517
,beautiful,0.8205568194389343
,style,0.8169883489608765
,look,0.8078709840774536
,young,0.7955715656280518
,seduction,0.7931462526321411
https://scontent.cdninstagram.com/t51.2885-15/e35/12912602_564640673698634_1694501272_n.jpg,food,0.9949872493743896
,no person,0.9936256408691406
,dinner,0.9780813455581665
,rice,0.9743849039077759
,delicious,0.9675396680831909
,meal,0.9653192758560181
,lunch,0.9639089107513428
,hot,0.9602861404418945
,cooking,0.96025151014328
,vegetable,0.9506004452705383
,dish,0.9473958015441895
,chili,0.9365313649177551
,bowl,0.9327351450920105
,noodles,0.9314558506011963
,sauce,0.9247075319290161
,meat,0.9202877283096313
,plate,0.9133813977241516
,grow,0.9093648195266724
,traditional,0.8997332453727722
,cuisine,0.8984740972518921
https://scontent.cdninstagram.com/t51.2885-15/e35/12912311_1032496590130516_1817734322_n.jpg,woman,0.9862967729568481
,indoors,0.9771875143051147
,patient,0.9623574018478394
,adult,0.9445334672927856
,mirror,0.9371359348297119
,chair,0.9364587068557739
,people,0.9348838329315186
,man,0.9297794103622437
,sit,0.9201709032058716
,healthcare,0.9170323610305786
,medicine,0.9058870077133179
,room,0.8953362107276917
,clinic,0.8926950097084045
,luxury,0.8906936645507812
,office,0.8883458375930786
,seat,0.8873717784881592
,hospital,0.8774412870407104
,surgery,0.8716391921043396
,young,0.8695805668830872
,girl,0.8581746816635132
https://scontent.cdninstagram.com/t51.2885-15/e35/13092340_610082722502656_731772192_n.jpg,food,0.9803950786590576
,hand,0.9654010534286499
,indoors,0.9225015640258789
,dinner,0.9184809327125549
,health,0.9081188440322876
,cooking,0.9080774188041687
,people,0.9034022092819214
,restaurant,0.9011329412460327
,dish,0.8877533078193665
,table,0.8832918405532837
,lunch,0.8816938400268555
,bowl,0.8741315603256226
,color,0.8706817626953125
,plate,0.8646812438964844
,healthy,0.8606102466583252
,no person,0.8589434027671814
,woman,0.8582125902175903
,delicious,0.857284665107727
,meal,0.8486477732658386
,vegetable,0.8473146557807922
https://scontent.cdninstagram.com/t51.2885-15/e35/12912615_740204629448898_565455645_n.jpg,woman,0.9890364408493042
,people,0.9886364936828613
,portrait,0.9863046407699585
,one,0.974212646484375
,fashion,0.973728358745575
,girl,0.9676316380500793
,adult,0.964663028717041
,festival,0.9447286128997803
,actress,0.9354190826416016
,model,0.9050424098968506
,wear,0.8921602368354797
,glamour,0.8840567469596863
,ceremony,0.8762795925140381
,movie,0.8658754825592041
,dress,0.8596612811088562
,singer,0.8589842319488525
,jewelry,0.8462905883789062
,pretty,0.8435544967651367
,sexy,0.8427128791809082
,musician,0.8295013308525085
https://scontent.cdninstagram.com/t51.2885-15/e35/12783432_1087596744596255_1169414051_n.jpg,woman,0.9830735921859741
,people,0.9606906175613403
,young,0.9562075734138489
,girl,0.9510315656661987
,portrait,0.9384535551071167
,adult,0.92935711145401
,indoors,0.9260426759719849
,beautiful,0.9152694940567017
,family,0.9090427160263062
,sit,0.900684654712677
,pretty,0.885583758354187
,smile,0.8840547204017639
,looking,0.8790237903594971
,one,0.8789592981338501
,leisure,0.8760639429092407
,relaxation,0.8637612462043762
,computer,0.8562829494476318
,business,0.854273796081543
,technology,0.8450356721878052
,laptop,0.8337604999542236
https://scontent.cdninstagram.com/t51.2885-15/e35/12552297_1671323133149476_803668913_n.jpg,people,0.9739851951599121
,indoors,0.9615658521652222
,industry,0.9299870729446411
,business,0.9295318722724915
,computer,0.9240987300872803
,offense,0.9173674583435059
,one,0.9069784283638
,technology,0.8951330184936523
,vehicle,0.8876931667327881
,adult,0.8794525265693665
,man,0.8741323947906494
,light,0.8706338405609131
,jewelry,0.8701640367507935
,competition,0.8464476466178894
,exhibition,0.8380036354064941
,car,0.8150409460067749
,woman,0.7971404790878296
,room,0.787763774394989
,telephone,0.7835484147071838
,service,0.7738304138183594
https://scontent.cdninstagram.com/t51.2885-15/e35/13166895_1722243061388591_847852446_n.jpg,food,0.9976625442504883
,meal,0.9824772477149963
,plate,0.9823356866836548
,no person,0.9793626070022583
,dinner,0.9723026752471924
,knife,0.9654688835144043
,delicious,0.9640891551971436
,dish,0.9581961631774902
,lunch,0.9539526700973511
,restaurant,0.9522713422775269
,vegetable,0.9506816864013672
,cooking,0.9483250379562378
,drink,0.940589427947998
,tea,0.9402291774749756
,hot,0.9396443367004395
,coffee,0.9354175925254822
,healthy,0.9346952438354492
,table,0.9325946569442749
,egg,0.9310306310653687
,epicure,0.9277558326721191
https://scontent.cdninstagram.com/t51.2885-15/e35/12534443_578447945645467_568628407_n.jpg,woman,0.995930016040802
,fashion,0.9875746965408325
,pretty,0.9826244711875916
,girl,0.9788174629211426
,cute,0.9632892608642578
,young,0.9488791227340698
,people,0.9437320232391357
,sexy,0.9342304468154907
,relaxation,0.928369402885437
,portrait,0.9214845895767212
,model,0.9205523133277893
,glamour,0.9203547239303589
,beautiful,0.9104175567626953
,fun,0.8991763591766357
,joy,0.8963632583618164
,one,0.8901153206825256
,indoors,0.8884401321411133
,hair,0.8724294900894165
,adolescent,0.8716637492179871
,eye,0.8678420782089233
https://scontent.cdninstagram.com/t51.2885-15/e35/13102420_1715161478765825_720986246_n.jpg,paper,0.97088623046875
,no person,0.9567801356315613
,celebration,0.8927326202392578
,wear,0.8905543088912964
,post,0.87129807472229
,vacation,0.8568701148033142
,travel,0.8566983938217163
,thread,0.855122983455658
,card,0.7964911460876465
,retro,0.7899314165115356
,woman,0.7890342473983765
,traditional,0.7840720415115356
,fashion,0.7835969924926758
,love,0.7734390497207642
,elegant,0.7540386319160461
,ceremony,0.7450502514839172
,design,0.7333971261978149
,romance,0.7325525879859924
,vintage,0.7233520746231079
,wood,0.7125324010848999
https://scontent.cdninstagram.com/t51.2885-15/e35/13260879_104589379960766_579662386_n.jpg,people,0.9907567501068115
,woman,0.9777929782867432
,adult,0.9737780690193176
,house,0.9636058807373047
,room,0.9573732614517212
,girl,0.957245409488678
,portrait,0.9523271322250366
,street,0.9443728923797607
,window,0.9430224895477295
,family,0.941388726234436
,man,0.9284474849700928
,computer,0.9256751537322998
,city,0.9073705673217773
,indoors,0.9071736931800842
,furniture,0.8951265811920166
,tree,0.8946017622947693
,sofa,0.8930402994155884
,technology,0.890591025352478
,telephone,0.8895628452301025
,love,0.8854241967201233
https://scontent.cdninstagram.com/t51.2885-15/e35/12558406_1742173652682740_1554416209_n.jpg,portrait,0.9919235110282898
,fashion,0.9813098907470703
,girl,0.9790877103805542
,woman,0.9786521792411804
,people,0.9738972783088684
,one,0.9689110517501831
,adult,0.9585630893707275
,model,0.954852819442749
,face,0.9255008697509766
,winter,0.9204102158546448
,glamour,0.906044602394104
,brunette,0.8985917568206787
,beautiful,0.8857594728469849
,cute,0.8835874199867249
,wear,0.8814829587936401
,hair,0.870037853717804
,fashionable,0.8575003147125244
,eye,0.8279941082000732
,hairdo,0.8269466757774353
,cold,0.822395384311676
https://scontent.cdninstagram.com/t51.2885-15/e35/13129839_963484667105516_838581052_n.jpg,woman,0.9906439781188965
,restaurant,0.9892960786819458
,people,0.9830254316329956
,dinner,0.9607365727424622
,wine,0.9554336667060852
,hotel,0.9481364488601685
,bar,0.9382797479629517
,adult,0.9376523494720459
,indoors,0.9361121654510498
,food,0.9351601600646973
,dining,0.9293625354766846
,celebration,0.9234236478805542
,sit,0.9172443747520447
,meal,0.9080514311790466
,lunch,0.9040930271148682
,one,0.9030592441558838
,table,0.8978706002235413
,girl,0.8953018188476562
,portrait,0.8942914009094238
,actress,0.8930236101150513
https://scontent.cdninstagram.com/t51.2885-15/e35/13150907_236856606674224_1768460378_n.jpg,woman,0.9818428754806519
,young,0.9688850045204163
,drink,0.9584885835647583
,sit,0.9566778540611267
,adult,0.9374697208404541
,table,0.9317797422409058
,attractive,0.9264956712722778
,indoors,0.9263499975204468
,people,0.9239898920059204
,pretty,0.9172960519790649
,one,0.9083573818206787
,smile,0.9051153659820557
,beautiful,0.8944051265716553
,tea,0.8935329914093018
,portrait,0.893023669719696
,coffee,0.8928204774856567
,cheerful,0.8895992040634155
,person,0.8849823474884033
,happiness,0.8731579780578613
,enjoyment,0.8727989196777344
https://scontent.cdninstagram.com/t51.2885-15/e35/13298074_287262291615688_1151964011_n.jpg,woman,0.9927842020988464
,girl,0.9917891025543213
,fashion,0.9834671020507812
,pretty,0.9795253872871399
,beautiful,0.9712971448898315
,portrait,0.9698028564453125
,model,0.9479254484176636
,cute,0.9466491937637329
,people,0.9397057294845581
,young,0.9367406368255615
,hair,0.9315537810325623
,sexy,0.9292441010475159
,face,0.8881371021270752
,eye,0.88441401720047
,long,0.8710975646972656
,indoors,0.8648781776428223
,attractive,0.861121416091919
,glamour,0.8586313724517822
,dress,0.8524918556213379
,flower,0.8358269929885864
https://scontent.cdninstagram.com/t51.2885-15/s640x640/e15/12917902_1593901387592131_1259062151_n.jpg,portrait,0.9816591739654541
,child,0.9764649868011475
,people,0.972795307636261
,paper,0.9652727842330933
,cute,0.9473751783370972
,vertical,0.9442703127861023
,indoors,0.9431501626968384
,business,0.942950963973999
,education,0.9413264989852905
,one,0.9090420603752136
,woman,0.9002935290336609
,happiness,0.8928462266921997
,office,0.880007266998291
,schoolboy,0.879638135433197
,cheerful,0.876983642578125
,school,0.8712388277053833
,young,0.8635672330856323
,looking,0.8579674363136292
,adult,0.8534230589866638
,isolated,0.8479187488555908
https://scontent.cdninstagram.com/t51.2885-15/e35/13129286_1088505334543596_20995396_n.jpg,girl,0.9863044023513794
,people,0.9839702844619751
,woman,0.9768185615539551
,education,0.97011399269104
,portrait,0.9570791721343994
,indoors,0.9535038471221924
,school,0.9488480091094971
,child,0.9442516565322876
,one,0.9375015497207642
,sit,0.9333702325820923
,library,0.92317795753479
,coffee,0.9081016778945923
,table,0.9016710519790649
,cute,0.8909967541694641
,restaurant,0.8716820478439331
,book,0.8709304928779602
,adolescent,0.8616217970848083
,laptop,0.8595761656761169
,fashion,0.8550057411193848
,pretty,0.8506999015808105
https://scontent.cdninstagram.com/t51.2885-15/e35/13269552_2025717384319532_708126684_n.jpg,food,0.9985952377319336
,plate,0.9836152195930481
,no person,0.9815776944160461
,meal,0.9717205762863159
,grow,0.9651582837104797
,meat,0.9650487899780273
,fruit,0.9627989530563354
,delicious,0.9604602456092834
,dish,0.95880126953125
,dinner,0.9538562297821045
,vegetable,0.9528442621231079
,still life,0.9488702416419983
,restaurant,0.9404101371765137
,epicure,0.9353439211845398
,chocolate,0.9278454184532166
,cheese,0.9231720566749573
,fork,0.9199275374412537
,dairy product,0.9140384197235107
,sweet,0.912966251373291
,slice,0.90578293800354
https://scontent.cdninstagram.com/t51.2885-15/sh0.08/e35/p750x750/13166960_1581453525517326_1473553064_n.jpg,wine,0.9950895309448242
,woman,0.9909162521362305
,indoors,0.9746142625808716
,restaurant,0.9573854207992554
,enjoyment,0.9405655264854431
,glass,0.9405277967453003
,drink,0.9265729784965515
,red wine,0.9207497835159302
,sit,0.9092015027999878
,family,0.9035981893539429
,people,0.9003632068634033
,fun,0.8995952606201172
,dining,0.8910693526268005
,girl,0.8856908082962036
,food,0.8765883445739746
,pretty,0.876517653465271
,table,0.8668664693832397
,celebration,0.8658636808395386
,cute,0.8482818603515625
,toast,0.834904670715332
https://scontent.cdninstagram.com/t51.2885-15/e35/13167276_1764449530453967_315659901_n.jpg,woman,0.9953809380531311
,fashion,0.9880111217498779
,portrait,0.9851030111312866
,girl,0.981795072555542
,model,0.9533650875091553
,glamour,0.9525868892669678
,sexy,0.9445708990097046
,people,0.9406871795654297
,pretty,0.920243501663208
,music,0.9130652546882629
,one,0.8950804471969604
,eye,0.8746597766876221
,adult,0.8714737296104431
,light,0.862400233745575
,indoors,0.859128475189209
,cute,0.8499080538749695
,lips,0.8420970439910889
,hair,0.8348311185836792
,musician,0.8292765021324158
,festival,0.8278860449790955
https://scontent.cdninstagram.com/t51.2885-15/e35/13108628_1607236392937190_1300918602_n.jpg,woman,0.9941974878311157
,fashion,0.9791761040687561
,glamour,0.9643930792808533
,lips,0.9581586122512817
,pretty,0.9460779428482056
,sexy,0.9409871697425842
,cute,0.9244009852409363
,eye,0.9232323169708252
,portrait,0.9083217978477478
,look,0.9019883871078491
,skin,0.8964383006095886
,elegant,0.88997483253479
,girl,0.8820737600326538
,lipstick,0.8646557331085205
,seduction,0.843444287776947
,hair,0.8399444222450256
,brunette,0.8132346272468567
,model,0.8063828349113464
,long,0.7933036684989929
,one,0.7856855392456055
https://scontent.cdninstagram.com/t51.2885-15/e35/12965079_1713686788912526_1906957789_n.jpg,woman,0.9951461553573608
,fashion,0.9764765501022339
,pretty,0.9751905798912048
,glamour,0.9525872468948364
,sexy,0.9443531036376953
,cute,0.9436333179473877
,elegant,0.9406588077545166
,health,0.930408239364624
,seduction,0.9071923494338989
,isolated,0.89998859167099
,healthcare,0.8990675210952759
,eye,0.8750423192977905
,lips,0.8634073138237
,look,0.8628953695297241
,young,0.861907958984375
,indoors,0.8596841096878052
,precious,0.8531458377838135
,joy,0.8476791381835938
,adolescent,0.8436403274536133
,charming,0.8395451307296753
https://scontent.cdninstagram.com/t51.2885-15/e35/13381102_1635942089999848_2041450004_n.jpg,education,0.99359130859375
,school,0.9913902282714844
,people,0.9819992780685425
,university,0.9700407981872559
,competition,0.9584587812423706
,adult,0.9561855792999268
,election,0.9494591355323792
,indoors,0.9490158557891846
,child,0.9362119436264038
,many,0.9264320135116577
,group,0.9215637445449829
,wear,0.9052885174751282
,woman,0.9026345014572144
,man,0.8836783170700073
,athlete,0.8809869289398193
,International,0.8675196766853333
,administration,0.8642817735671997
,container,0.8397073149681091
,vehicle,0.8280224800109863
,knowledge,0.8190144300460815
https://scontent.cdninstagram.com/t51.2885-15/e35/13392780_1328394817176933_1272739171_n.jpg,woman,0.996306300163269
,relaxation,0.9764742851257324
,nude,0.9649779796600342
,indoors,0.9588280916213989
,pretty,0.9475208520889282
,sexy,0.9329227209091187
,reclining,0.9158859848976135
,portrait,0.914035439491272
,fashion,0.913875937461853
,adolescent,0.9018994569778442
,enjoyment,0.894209086894989
,people,0.8868995904922485
,eye,0.8848451375961304
,cute,0.8793303966522217
,facial expression,0.877260684967041
,one,0.874069333076477
,skin,0.8694906234741211
,girl,0.8432416915893555
,glamour,0.8216357231140137
,leisure,0.8080490827560425
https://scontent.cdninstagram.com/t51.2885-15/e35/13381214_610253775805557_1350921695_n.jpg,art,0.9957058429718018
,illustration,0.9943803548812866
,painting,0.9853533506393433
,religion,0.9829322099685669
,old,0.9735029935836792
,culture,0.9428089261054993
,antique,0.9422845244407654
,book,0.9396836161613464
,ancient,0.934306263923645
,holy,0.9207737445831299
,print,0.9204413890838623
,color,0.9194786548614502
,people,0.9151980876922607
,god,0.9101859331130981
,blood,0.8914985656738281
,man,0.8913326859474182
,art,0.8826361894607544
,spirituality,0.8824284076690674
,pattern,0.88211989402771
,vintage,0.880496084690094
https://scontent.cdninstagram.com/t51.2885-15/e35/13402355_142833459456291_1047313587_n.jpg,food,0.996141791343689
,meal,0.9841873645782471
,dinner,0.9757588505744934
,meat,0.9750044941902161
,dish,0.9748321771621704
,vegetable,0.9735807180404663
,plate,0.9732690453529358
,lunch,0.9656925201416016
,delicious,0.9613982439041138
,no person,0.9570068717002869
,cuisine,0.9550648927688599
,healthy,0.9382337331771851
,restaurant,0.9370994567871094
,epicure,0.9341956377029419
,cooking,0.9325486421585083
,beef,0.9218215346336365
,tasty,0.9207165241241455
,traditional,0.919723391532898
,pork,0.9184204339981079
,sauce,0.9164896011352539
https://scontent.cdninstagram.com/t51.2885-15/e35/12327983_1577281389253357_1985915785_n.jpg,woman,0.9866477251052856
,fashion,0.9707416892051697
,business,0.9650238752365112
,shopping,0.9597504734992981
,indoors,0.9408965110778809
,luggage,0.9408191442489624
,people,0.9319499731063843
,street,0.9297454357147217
,telephone,0.9126126170158386
,girl,0.8966265916824341
,portrait,0.8914334774017334
,adult,0.8645168542861938
,model,0.8608276844024658
,wear,0.8580788969993591
,commerce,0.8569890260696411
,pretty,0.8405084609985352
,city,0.8376074433326721
,glamour,0.8235759735107422
,bag,0.7971764802932739
,one,0.7953224778175354
https://scontent.cdninstagram.com/t51.2885-15/e35/13092432_212664675784297_1931279044_n.jpg,indoors,0.981730043888092
,no person,0.981110692024231
,shopping,0.9497780203819275
,business,0.9303346872329712
,family,0.929871678352356
,merchandise,0.9156183004379272
,wood,0.914470911026001
,luxury,0.909084677696228
,paper,0.9082168340682983
,travel,0.9012423157691956
,interior design,0.89629065990448
,furniture,0.8897747993469238
,box,0.880736768245697
,luggage,0.8685169219970703
,design,0.8674622774124146
,industry,0.8669726848602295
,retro,0.8657325506210327
,coffee,0.8597657680511475
,stock,0.8527929782867432
,container,0.8369170427322388
