url,class,score
https://scontent-sit4-1.cdninstagram.com/t51.2885-15/s480x480/e35/12907407_1517459931897296_1095151957_n.jpg,no person,0.9707046151161194
,isolated,0.9417505264282227
,desktop,0.9375208616256714
,design,0.9199066758155823
,equipment,0.9167604446411133
,business,0.9105511903762817
,modern,0.906639575958252
,vector,0.9064446687698364
,horizontal,0.9050953388214111
,plastic,0.8700203895568848
,car,0.8587831258773804
,paper,0.8399889469146729
,display,0.839397668838501
,single,0.8065881729125977
,family,0.7954736948013306
,image,0.7910898923873901
,technology,0.7876354455947876
,isolated,0.7841665744781494
,illustration,0.7836235761642456
,contemporary,0.771543025970459
https://scontent-sit4-1.cdninstagram.com/t51.2885-15/s480x480/e35/12751427_472443839546926_944481343_n.jpg,illustration,0.9965820908546448
,vector,0.9928199052810669
,horizontal,0.9861891269683838
,pattern,0.9744638204574585
,shape,0.973482608795166
,desktop,0.9692533016204834
,design,0.9678224325180054
,abstract,0.9640927314758301
,decoration,0.9639874696731567
,picture frame,0.9592537879943848
,template,0.9528384804725647
,art,0.9496228694915771
,modern,0.9421913623809814
,banner,0.9415082931518555
,ornate,0.9334729909896851
,image,0.928963840007782
,blank,0.9284918308258057
,isolated,0.912883996963501
,background,0.9123134613037109
,wallpaper,0.9118820428848267
https://scontent-sit4-1.cdninstagram.com/t51.2885-15/e35/12930709_231225630571716_1258234992_n.jpg,symbol,0.9375690221786499
,no person,0.9372303485870361
,vector,0.9340393543243408
,desktop,0.9333783388137817
,illustration,0.933184027671814
,sign,0.9176635146141052
,isolated,0.899795413017273
,design,0.89551842212677
,image,0.8332363367080688
,business,0.8331117630004883
,isolated,0.8162292242050171
,paper,0.8073129653930664
,empty,0.8034873604774475
,art,0.793720006942749
,horizontal,0.7915576696395874
,graphic,0.7777609825134277
,banner,0.7717692852020264
,simple,0.7604442238807678
,equipment,0.7602629661560059
,shape,0.7577986717224121
https://scontent-sit4-1.cdninstagram.com/t51.2885-15/e35/13534129_303088996698836_907530355_n.jpg,moon,0.9966086149215698
,sunset,0.9962015151977539
,sky,0.9943605065345764
,dusk,0.9865232110023499
,no person,0.9850287437438965
,evening,0.9822471141815186
,sun,0.9803628325462341
,dawn,0.9801452159881592
,water,0.9793976545333862
,landscape,0.974231481552124
,travel,0.9638639688491821
,outdoors,0.9479563236236572
,architecture,0.944025993347168
,silhouette,0.9392916560173035
,light,0.9361236095428467
,city,0.9278433322906494
,dark,0.9190182685852051
,nature,0.9066113829612732
,beach,0.8837579488754272
,lake,0.8807729482650757
https://scontent-sit4-1.cdninstagram.com/t51.2885-15/s480x480/e35/13402367_1094264863967139_782435006_n.jpg,symbol,0.9812593460083008
,technology,0.9534233212471008
,text,0.9405413866043091
,business,0.9401849508285522
,desktop,0.9288445711135864
,communication,0.9129461646080017
,image,0.9126494526863098
,computer,0.9111582040786743
,accomplishment,0.906505823135376
,internet,0.9025291204452515
,retro,0.899388313293457
,World Wide Web,0.8780322074890137
,no person,0.8717460632324219
,education,0.8707605004310608
,data,0.863766074180603
,sign,0.857389509677887
,illustration,0.8462492227554321
,money,0.8390130996704102
,sign,0.8384727835655212
,safety,0.8329142332077026
https://scontent-sit4-1.cdninstagram.com/t51.2885-15/e15/12501650_851062321706446_989797932_n.jpg,people,0.9928497672080994
,adult,0.9907352328300476
,woman,0.9868777990341187
,one,0.9747599363327026
,portrait,0.969064474105835
,indoors,0.9620300531387329
,room,0.9616563320159912
,wear,0.949713945388794
,girl,0.9450518488883972
,facial expression,0.936068594455719
,education,0.9098182916641235
,business,0.905431866645813
,happiness,0.8877949714660645
,technology,0.8732792139053345
,school,0.8499178886413574
,eyewear,0.8413577675819397
,medicine,0.8355982303619385
,science,0.8344360589981079
,healthcare,0.819629430770874
,office,0.8168035745620728
https://scontent-sit4-1.cdninstagram.com/t51.2885-15/sh0.08/e35/p750x750/13108753_486134611579490_1290339773_n.jpg,desktop,0.967795729637146
,no person,0.9563792943954468
,business,0.9318524599075317
,people,0.928239643573761
,illustration,0.9184656739234924
,vector,0.9091325998306274
,set,0.8911535739898682
,woman,0.8865079879760742
,navigation,0.876926064491272
,person,0.8545116782188416
,collage,0.8529278039932251
,paper,0.8467773795127869
,banner,0.8381915092468262
,travel,0.8247150182723999
,man,0.817299485206604
,graphic,0.8154926300048828
,isolated,0.8042492866516113
,stripe,0.8021981716156006
,symbol,0.8003961443901062
,family,0.7952126264572144
https://scontent-sit4-1.cdninstagram.com/t51.2885-15/s750x750/sh0.08/e35/12940216_218532755183867_1153765186_n.jpg,child,0.9929671287536621
,people,0.9850257635116577
,happiness,0.9823246002197266
,group,0.9726040363311768
,girl,0.9695870280265808
,facial expression,0.9626222848892212
,lifestyle,0.9618490934371948
,portrait,0.9609595537185669
,youth,0.9561081528663635
,togetherness,0.9552633762359619
,family,0.952966570854187
,woman,0.9511290788650513
,room,0.9419784545898438
,indoors,0.9413400888442993
,friendship,0.9399049282073975
,adult,0.9353318214416504
,fun,0.9290620684623718
,education,0.9272840023040771
,school,0.920741081237793
,enjoyment,0.9115148782730103
https://scontent-sit4-1.cdninstagram.com/t51.2885-15/e35/10611226_786427034795634_310459972_n.jpg,business,0.9710988998413086
,diagram,0.9504812955856323
,illustration,0.9354910850524902
,people,0.9020471572875977
,graph,0.8942818641662598
,technology,0.8914256691932678
,communication,0.891216516494751
,internet,0.8838838338851929
,World Wide Web,0.8750813007354736
,presentation,0.8749306201934814
,symbol,0.8697251081466675
,vector,0.8454571962356567
,data,0.8295778632164001
,connection,0.8200982213020325
,computer,0.817029595375061
,data,0.8046249151229858
,finance,0.7819839715957642
,sign,0.7719506025314331
,horizontal,0.767565131187439
,adult,0.7661606073379517
https://scontent-sit4-1.cdninstagram.com/t51.2885-15/e15/13388628_1574910006136533_1043391137_n.jpg,portrait,0.9962677955627441
,adult,0.9908878803253174
,people,0.9901387691497803
,one,0.9828728437423706
,eyeglasses,0.9809870719909668
,woman,0.975856363773346
,eyewear,0.9699794054031372
,sunglasses,0.9600117206573486
,fashion,0.9386119246482849
,girl,0.9383549690246582
,wear,0.9376224279403687
,face,0.917241096496582
,business,0.9099843502044678
,facial expression,0.9073184132575989
,young,0.8998843431472778
,fashionable,0.8659660220146179
,indoors,0.8515498638153076
,person,0.848839521408081
,model,0.8476665019989014
,happiness,0.8379012942314148
https://scontent-sit4-1.cdninstagram.com/t51.2885-15/e35/13129537_1018989151515426_554990949_n.jpg,illustration,0.9866483211517334
,vector,0.9845916032791138
,symbol,0.9696201682090759
,sketch,0.9293631911277771
,image,0.9275157451629639
,square,0.9249681234359741
,design,0.903128981590271
,technology,0.8960540294647217
,desktop,0.8931307196617126
,vector,0.8920973539352417
,no person,0.8838423490524292
,business,0.879828691482544
,safety,0.8757426738739014
,internet,0.8656862378120422
,danger,0.8637861609458923
,head,0.8492740392684937
,communication,0.8482588529586792
,silhouette,0.8399059772491455
,sign,0.8298816680908203
,art,0.829666256904602
https://scontent-sit4-1.cdninstagram.com/t51.2885-15/e35/12940864_197921333926681_311091687_n.jpg,child,0.8907753825187683
,people,0.886627733707428
,business,0.8848379850387573
,text,0.8792177438735962
,education,0.8475277423858643
,paper,0.831074595451355
,woman,0.8236401081085205
,indoors,0.8211772441864014
,desktop,0.814551591873169
,symbol,0.7954579591751099
,person,0.7789919376373291
,fun,0.774388313293457
,portrait,0.7419418096542358
,adult,0.7243570685386658
,communication,0.711864173412323
,man,0.7006070613861084
,card,0.6977721452713013
,sign,0.6976686716079712
,love,0.6972508430480957
,girl,0.6751071214675903
https://scontent-sit4-1.cdninstagram.com/t51.2885-15/sh0.08/e35/p750x750/13534206_536061249928042_230147140_n.jpg,woman,0.9885724782943726
,people,0.9731728434562683
,adult,0.9669125080108643
,business,0.9585713148117065
,technology,0.929712176322937
,indoors,0.9253995418548584
,blank,0.9191967844963074
,fashion,0.8983199596405029
,portrait,0.8900760412216187
,bill,0.8722046613693237
,young,0.8720828294754028
,communication,0.8683398962020874
,internet,0.8667201995849609
,presentation,0.8642594814300537
,looking,0.8604722023010254
,display,0.8474661111831665
,modern,0.8460009098052979
,empty,0.8367923498153687
,education,0.8361485004425049
,pretty,0.8344043493270874
https://scontent-sit4-1.cdninstagram.com/t51.2885-15/e15/13423483_638115649671814_1372009866_n.jpg,woman,0.9921470880508423
,portrait,0.9907281398773193
,one,0.9873970746994019
,people,0.9871554374694824
,wear,0.977039098739624
,adult,0.9758402705192566
,facial expression,0.9670023322105408
,indoors,0.9624037742614746
,fashion,0.9537184238433838
,actress,0.944832444190979
,girl,0.938657820224762
,happiness,0.8911270499229431
,winter,0.8875640630722046
,movie,0.8640545606613159
,daylight,0.8552682399749756
,model,0.8545899987220764
,festival,0.8528074026107788
,relaxation,0.8526101112365723
,enjoyment,0.8461741805076599
,room,0.8444592952728271
https://scontent-sit4-1.cdninstagram.com/t51.2885-15/sh0.08/e35/p750x750/13549364_1755787478011604_275150540_n.jpg,child,0.9803786277770996
,portrait,0.9776780605316162
,beautiful,0.9776483774185181
,girl,0.9773536920547485
,fun,0.9759712219238281
,people,0.9694034457206726
,woman,0.9598784446716309
,face,0.9543479681015015
,person,0.9515912532806396
,cute,0.9463645219802856
,young,0.9389047622680664
,happiness,0.9351296424865723
,little,0.9336872100830078
,one,0.923166036605835
,brunette,0.9073871374130249
,education,0.8994666337966919
,smile,0.8957282304763794
,hair,0.893695592880249
,joy,0.8882203102111816
,pretty,0.8803037405014038
https://scontent-sit4-1.cdninstagram.com/t51.2885-15/s640x640/sh0.08/e35/13397533_834941479969804_1349626125_n.jpg,girl,0.9923662543296814
,bed,0.9917557239532471
,woman,0.9912279844284058
,lingerie,0.9903221130371094
,nude,0.9868205785751343
,people,0.9716974496841431
,bedroom,0.9695137739181519
,portrait,0.9686347246170044
,indoors,0.945504903793335
,model,0.9438364505767822
,sexy,0.9318898916244507
,dawn,0.9301555156707764
,adult,0.9208714962005615
,reclining,0.9183144569396973
,underwear,0.9035439491271973
,love,0.8791435956954956
,fashion,0.8773196935653687
,room,0.8731483221054077
,maternity,0.865187406539917
,one,0.8615180253982544
https://scontent-sit4-1.cdninstagram.com/t51.2885-15/e35/12912718_841608912612165_1733105175_n.jpg,desk,0.996910572052002
,office,0.9937366247177124
,adult,0.9866656064987183
,education,0.9866278171539307
,indoors,0.9804890155792236
,room,0.9734795093536377
,classroom,0.970151424407959
,class,0.9665412902832031
,table,0.9636726379394531
,school,0.9542614221572876
,woman,0.9462889432907104
,man,0.9443278312683105
,group,0.9441429376602173
,business,0.9426308870315552
,sitting,0.9375535845756531
,meeting,0.9357272386550903
,teacher,0.9301761388778687
,paper,0.929745078086853
,league,0.9292623996734619
,document,0.9272966384887695
https://scontent-sit4-1.cdninstagram.com/t51.2885-15/s640x640/e15/13696781_169617126783254_247882275_n.jpg,woman,0.9829620718955994
,people,0.9785028696060181
,indoors,0.9706230163574219
,girl,0.9679805636405945
,portrait,0.9675551652908325
,adult,0.9554919600486755
,lifestyle,0.9517335891723633
,beautiful,0.945655345916748
,adolescent,0.9428125619888306
,family,0.9352995157241821
,child,0.9336065053939819
,room,0.9269956350326538
,happiness,0.922785758972168
,young,0.9172835946083069
,fun,0.916682243347168
,sit,0.91359543800354
,friendship,0.9067946076393127
,cute,0.8886170387268066
,youth,0.8875651359558105
,education,0.8736158609390259
https://scontent-sit4-1.cdninstagram.com/t51.2885-15/e35/12822400_997208517035596_1110714591_n.jpg,people,0.9955077171325684
,adult,0.9916395545005798
,two,0.9903433322906494
,woman,0.9896017909049988
,portrait,0.9879961013793945
,facial expression,0.9850900769233704
,happiness,0.9783867597579956
,wear,0.9774225950241089
,girl,0.9723526239395142
,togetherness,0.9693682193756104
,love,0.9655919075012207
,man,0.9620583057403564
,indoors,0.9467916488647461
,daylight,0.9406595230102539
,lifestyle,0.9348767399787903
,romance,0.9259054660797119
,interaction,0.9255157709121704
,child,0.9253600835800171
,youth,0.9044685363769531
,friendship,0.9024180173873901
https://scontent-sit4-1.cdninstagram.com/t51.2885-15/e15/13249852_163431597392708_189794506_n.jpg,woman,0.9973925948143005
,fashion,0.9584424495697021
,pretty,0.9549702405929565
,portrait,0.9492684602737427
,sexy,0.9484024047851562
,love,0.9402488470077515
,eye,0.9378745555877686
,girl,0.9342142343521118
,cute,0.9183226227760315
,glamour,0.9139145612716675
,skin,0.9116120338439941
,young,0.8987401723861694
,nude,0.8952699303627014
,hair,0.873440146446228
,people,0.8705716133117676
,indoors,0.8554584980010986
,adolescent,0.854907751083374
,relaxation,0.8527214527130127
,lips,0.8422625660896301
,romance,0.8411107063293457
https://scontent-sit4-1.cdninstagram.com/t51.2885-15/sh0.08/e35/p750x750/13388467_1081867988546675_576606857_n.jpg,ink,0.9854967594146729
,text,0.9841753244400024
,no person,0.9623119831085205
,give voice,0.9613493084907532
,sign,0.9591937065124512
,business,0.9581688642501831
,typography,0.9530124664306641
,calligraphy,0.9410076141357422
,illustration,0.9408698081970215
,writing,0.9389127492904663
,education,0.9342405796051025
,handwriting,0.9272658228874207
,paper,0.9262830018997192
,symbol,0.9261826276779175
,letter,0.9144117832183838
,graphic,0.9113343954086304
,handwritten,0.9039877653121948
,conceptual,0.8885512948036194
,love,0.8737059235572815
,baptismal font,0.862625002861023
https://scontent-sit4-1.cdninstagram.com/t51.2885-15/e15/12328454_1134771829890632_1114017032_n.jpg,desk,0.9950848817825317
,education,0.9935157895088196
,table,0.9932870864868164
,classroom,0.987578272819519
,school,0.9862322807312012
,indoors,0.9854294061660767
,furniture,0.9853585958480835
,adult,0.983156681060791
,room,0.9721505641937256
,chair,0.9702443480491638
,people,0.9474958777427673
,university,0.9464454650878906
,teacher,0.9391709566116333
,man,0.9202371835708618
,league,0.8962951898574829
,office,0.8920658826828003
,woman,0.8856362700462341
,class,0.8805590867996216
,meeting,0.8749463558197021
,group,0.8723739981651306
https://scontent-sit4-1.cdninstagram.com/t51.2885-15/s640x640/sh0.08/e35/13108718_252132435174480_1155732175_n.jpg,woman,0.9881359934806824
,people,0.9801716804504395
,adult,0.9743896722793579
,indoors,0.9532458782196045
,fashion,0.9352074861526489
,horizontal,0.9255347847938538
,young,0.9133697748184204
,business,0.9085426330566406
,portrait,0.9020370841026306
,adolescent,0.8957048058509827
,pretty,0.8730491399765015
,looking,0.8729935884475708
,technology,0.8691351413726807
,education,0.8579167127609253
,vertical,0.8333975076675415
,girl,0.8318688869476318
,cute,0.8263599872589111
,beautiful,0.8224338293075562
,fun,0.8171789646148682
,outdoors,0.8091182708740234
https://scontent-sit4-1.cdninstagram.com/t51.2885-15/sh0.08/e35/p750x750/13380881_1746766168941259_490102512_n.jpg,girl,0.9893507361412048
,woman,0.9863708019256592
,beautiful,0.9831264019012451
,young,0.9792327284812927
,child,0.9727258682250977
,love,0.9653486013412476
,portrait,0.9642060995101929
,fun,0.9583219289779663
,happiness,0.9540114402770996
,cute,0.9449037313461304
,family,0.9361027479171753
,people,0.9337159991264343
,pretty,0.9320647716522217
,joy,0.9318960309028625
,face,0.9313144683837891
,smile,0.931071937084198
,cheerful,0.9265702962875366
,care,0.9251807928085327
,person,0.9188692569732666
,attractive,0.9169702529907227
https://scontent-sit4-1.cdninstagram.com/t51.2885-15/s750x750/sh0.08/e35/13298237_496694340536078_1794001884_n.jpg,child,0.9956350326538086
,group,0.9813226461410522
,people,0.9686987996101379
,family,0.9607276916503906
,facial expression,0.9525774717330933
,boy,0.9514707326889038
,fun,0.948066771030426
,portrait,0.946587860584259
,happiness,0.944940447807312
,enjoyment,0.9232595562934875
,sibling,0.9110598564147949
,celebration,0.9109128713607788
,friendship,0.9033294916152954
,laughing,0.8862764835357666
,togetherness,0.8813302516937256
,four,0.8788466453552246
,girl,0.8746150732040405
,exhilaration,0.8696445226669312
,many,0.8657326698303223
,wear,0.8507934808731079
https://scontent-sit4-1.cdninstagram.com/t51.2885-15/e35/13297967_504342153084031_1558507156_n.jpg,dog,0.9978943467140198
,mammal,0.9976650476455688
,canine,0.9968002438545227
,one,0.9938719868659973
,pet,0.9901976585388184
,no person,0.9847671389579773
,indoors,0.9829632043838501
,people,0.9709594249725342
,two,0.9684617519378662
,sit,0.9568519592285156
,adult,0.9554035067558289
,furniture,0.9532179236412048
,room,0.9483999609947205
,portrait,0.9462034106254578
,puppy,0.9457144141197205
,animal,0.9363822937011719
,daylight,0.9347892999649048
,cute,0.9334656000137329
,painting,0.8949472904205322
,looking,0.8819329738616943
https://scontent-sit4-1.cdninstagram.com/t51.2885-15/e35/13713985_101108346996687_562290889_n.jpg,people,0.9883348941802979
,woman,0.9868146181106567
,young,0.9791034460067749
,family,0.973654568195343
,girl,0.9727345705032349
,fun,0.9523757696151733
,lifestyle,0.9422541260719299
,friendship,0.9347445964813232
,smile,0.932637095451355
,couple,0.9274888038635254
,beautiful,0.9256653785705566
,person,0.9228928089141846
,love,0.9225784540176392
,child,0.9179385900497437
,adult,0.9137498140335083
,man,0.9115601181983948
,happiness,0.9060286283493042
,group,0.8982030153274536
,togetherness,0.8968563079833984
,pretty,0.8902168273925781
https://scontent-sit4-1.cdninstagram.com/t51.2885-15/e35/12328132_833928186718945_1340543931_n.jpg,woman,0.9724880456924438
,style,0.9666076302528381
,beautiful,0.965949535369873
,color,0.9635090827941895
,art,0.9580930471420288
,abstract,0.9550536870956421
,girl,0.9532948732376099
,hair,0.9524492621421814
,fantasy,0.9468494057655334
,elegant,0.9445486068725586
,artistic,0.9429289102554321
,desktop,0.9377881288528442
,creativity,0.9364800453186035
,portrait,0.9363387823104858
,light,0.9358562231063843
,blur,0.9336144924163818
,design,0.9324160218238831
,fashion,0.9273636937141418
,bright,0.9180195331573486
,illustration,0.9072315692901611
https://scontent-sit4-1.cdninstagram.com/t51.2885-15/sh0.08/e35/p750x750/13166779_1786543038244061_1267617532_n.jpg,text,0.9825479984283447
,handwriting,0.9345806837081909
,chalk,0.917957067489624
,give voice,0.9164589643478394
,typography,0.895438551902771
,no person,0.8740198612213135
,conceptual,0.8574773669242859
,writing,0.8519723415374756
,business,0.8513189554214478
,desktop,0.8510150909423828
,greeting,0.8392057418823242
,chalkboard,0.8342670202255249
,handwritten,0.8328025341033936
,card,0.8078635931015015
,success,0.7888674139976501
,motivation,0.7831894159317017
,retro,0.7570013999938965
,letter,0.7241277694702148
,winter,0.7203986644744873
,graphic,0.7016935348510742
https://scontent-sit4-1.cdninstagram.com/t51.2885-15/e35/13768375_299718690375223_841003874_n.jpg,people,0.9967086315155029
,adult,0.9798668622970581
,one,0.979320764541626
,woman,0.9606934785842896
,administration,0.9256249666213989
,wear,0.918899416923523
,two,0.8531047105789185
,outfit,0.8478046655654907
,portrait,0.8366818428039551
,group,0.8295907974243164
,room,0.8269164562225342
,street,0.822923481464386
,actress,0.8225054740905762
,indoors,0.8202886581420898
,man,0.8190743327140808
,leader,0.8071049451828003
,education,0.7784548401832581
,musician,0.7742455005645752
,music,0.7617844343185425
,singer,0.760114312171936
https://scontent-sit4-1.cdninstagram.com/t51.2885-15/sh0.08/e35/p750x750/12940882_117871665278966_1185024258_n.jpg,girl,0.976638913154602
,people,0.9740698337554932
,woman,0.9738523960113525
,tattoo,0.9715975522994995
,adult,0.9604676961898804
,skin,0.9524810314178467
,no person,0.9481824636459351
,medicine,0.9424120783805847
,one,0.9420883655548096
,business,0.9402081370353699
,text,0.9311931133270264
,sign,0.9262576699256897
,blood,0.926053524017334
,finance,0.9184927940368652
,healthcare,0.9180818200111389
,fashion,0.9119323492050171
,creativity,0.9069358110427856
,wear,0.899645209312439
,pain,0.895371675491333
,gambling,0.8911854028701782
https://scontent-sit4-1.cdninstagram.com/t51.2885-15/sh0.08/e35/p750x750/13584300_1043230115753091_1617220154_n.jpg,no person,0.9869204163551331
,time,0.9724019765853882
,text,0.9048874974250793
,sky,0.884350061416626
,light,0.8784922361373901
,number,0.8540962934494019
,image,0.8531510829925537
,symbol,0.838886022567749
,outdoors,0.8289147615432739
,midnight,0.8247629404067993
,business,0.8205047845840454
,dawn,0.8175686597824097
,weather,0.8143572807312012
,desktop,0.8042802214622498
,early,0.7649390697479248
,display,0.7564576864242554
,nature,0.7494590282440186
,sign,0.7407712936401367
,cloud,0.7297863960266113
,late,0.7157659530639648
https://scontent-sit4-1.cdninstagram.com/t51.2885-15/e35/13534036_1788079488081977_1448453421_n.jpg,desktop,0.9731320142745972
,winter,0.9555723667144775
,image,0.9552935361862183
,illustration,0.9511743187904358
,symbol,0.948857307434082
,snow,0.946464478969574
,abstract,0.9384562969207764
,color,0.930640697479248
,Christmas,0.9225718975067139
,design,0.922026515007019
,cold,0.9218408465385437
,frost,0.9195284843444824
,isolated,0.9195047616958618
,art,0.912301778793335
,sign,0.8994241952896118
,brush,0.8953226804733276
,no person,0.8877698183059692
,shape,0.887697696685791
,communication,0.8738268613815308
,letter,0.855850338935852
https://scontent-sit4-1.cdninstagram.com/t51.2885-15/e35/12965756_1019588728112509_925604784_n.jpg,child,0.999735951423645
,togetherness,0.9917337894439697
,family,0.9853659272193909
,fun,0.9849694967269897
,enjoyment,0.9676293134689331
,people,0.9554164409637451
,happiness,0.9514818787574768
,boy,0.9446139931678772
,outdoors,0.9435129761695862
,boy,0.9366762638092041
,leisure,0.932686448097229
,love,0.9324427843093872
,group,0.9285727739334106
,girl,0.9102057814598083
,sibling,0.9035069346427917
,daylight,0.8973534107208252
,youth,0.88498854637146
,affection,0.8797382712364197
,offspring,0.8774861097335815
,four,0.8768470287322998
https://scontent-sit4-1.cdninstagram.com/t51.2885-15/e35/13649361_153859205023563_123499725_n.jpg,people,0.9976590871810913
,adult,0.9878252148628235
,vehicle,0.9825155735015869
,group,0.9728312492370605
,daylight,0.9565291404724121
,one,0.9557663202285767
,transportation system,0.9508895874023438
,man,0.9444622993469238
,travel,0.9174646139144897
,no person,0.9154009222984314
,two,0.880630373954773
,building,0.849196195602417
,container,0.8489155769348145
,home,0.8447682857513428
,outdoors,0.8420138359069824
,war,0.8218862414360046
,wear,0.8175697326660156
,military,0.8137839436531067
,flame,0.7966091632843018
,religion,0.788279116153717
https://scontent-sit4-1.cdninstagram.com/t51.2885-15/e35/13724564_1028278023953797_1158891928_n.jpg,no person,0.9867233633995056
,one,0.9608445167541504
,mammal,0.9557350873947144
,daylight,0.9470049142837524
,cold,0.9129445552825928
,outdoors,0.912864089012146
,winter,0.9000349044799805
,animal,0.8945752382278442
,portrait,0.8890568017959595
,nature,0.8802945613861084
,snow,0.8776533603668213
,sky,0.8717902898788452
,relaxation,0.8636965751647949
,desktop,0.8633660078048706
,travel,0.8541988134384155
,cute,0.8494584560394287
,people,0.8358209729194641
,dawn,0.8256292343139648
,weather,0.8222294449806213
,landscape,0.8200811147689819
https://scontent-sit4-1.cdninstagram.com/t51.2885-15/sh0.08/e35/p750x750/13248890_235663780143556_1066640510_n.jpg,illustration,0.9406963586807251
,fun,0.9287941455841064
,money,0.9079248905181885
,man,0.9046484231948853
,people,0.9011646509170532
,woman,0.8921866416931152
,no person,0.8752800822257996
,desktop,0.8696047067642212
,art,0.8681981563568115
,design,0.867859959602356
,money,0.8555103540420532
,business,0.848380446434021
,retro,0.837295651435852
,paper,0.8337591886520386
,vector,0.8099162578582764
,wealth,0.8078563213348389
,conceptual,0.8058119416236877
,adult,0.7992601990699768
,color,0.7981311082839966
,symbol,0.7840879559516907
https://scontent-sit4-1.cdninstagram.com/t51.2885-15/sh0.08/e35/p750x750/13402154_243849796000858_1098379336_n.jpg,woman,0.9574004411697388
,child,0.9296938180923462
,indoors,0.9207457304000854
,love,0.907943844795227
,relaxation,0.8997132778167725
,health,0.8980728387832642
,people,0.8817031979560852
,horizontal,0.8579643368721008
,water,0.8578145503997803
,fun,0.8574684858322144
,vertical,0.8545858263969421
,togetherness,0.8534784317016602
,man,0.8458830118179321
,cute,0.8342053890228271
,nature,0.8334997892379761
,family,0.8295189142227173
,healthcare,0.8271867632865906
,protection,0.8266629576683044
,treatment,0.8221997618675232
,conceptual,0.8221235871315002
https://scontent-sit4-1.cdninstagram.com/t51.2885-15/e35/13277650_1620899321560750_1012328283_n.jpg,fashion,0.963664174079895
,girl,0.9465304613113403
,editorial,0.9402881860733032
,dress,0.9224566221237183
,portrait,0.9181731343269348
,retro,0.9161981344223022
,people,0.9059842228889465
,model,0.8796748518943787
,movie,0.87471604347229
,child,0.861436128616333
,woman,0.8541494607925415
,beautiful,0.8492192029953003
,party,0.8454859256744385
,recreation,0.8262938261032104
,art,0.7979588508605957
,cute,0.7962074279785156
,actress,0.7960766553878784
,desktop,0.7947639226913452
,person,0.7862324714660645
,one,0.7851889133453369
https://scontent-sit4-1.cdninstagram.com/t51.2885-15/e35/13266869_1735867403297718_1767677588_n.jpg,group,0.9926719665527344
,people,0.9894512891769409
,woman,0.9886474609375
,portrait,0.9829448461532593
,adult,0.9807999730110168
,four,0.9632250666618347
,girl,0.9615652561187744
,three,0.9560484290122986
,man,0.955679714679718
,facial expression,0.9525752067565918
,group,0.9413505792617798
,happiness,0.9403306841850281
,wear,0.9382981061935425
,family,0.9307116270065308
,child,0.9240645170211792
,indoors,0.923835039138794
,room,0.9020769596099854
,enjoyment,0.8766095042228699
,five,0.8689256906509399
,friendship,0.8611961007118225
https://scontent-sit4-1.cdninstagram.com/t51.2885-15/sh0.08/e35/p750x750/13551666_574899262689463_1992210280_n.jpg,woman,0.9975762367248535
,fashion,0.9964799284934998
,glamour,0.9891128540039062
,sexy,0.9870349168777466
,pretty,0.9740769863128662
,eye,0.9728946685791016
,skin,0.9637525677680969
,long,0.9502111077308655
,lips,0.9379337430000305
,model,0.9360181093215942
,elegant,0.9326059222221375
,girl,0.9281005263328552
,hair,0.9185190200805664
,cute,0.9029279351234436
,nude,0.8968222141265869
,portrait,0.8851606249809265
,seduction,0.8771471977233887
,look,0.8273859024047852
,nature,0.8131192922592163
,love,0.8053678274154663
https://scontent-sit4-1.cdninstagram.com/t51.2885-15/e35/13259615_1170067949691449_1908068068_n.jpg,child,0.9652653932571411
,fun,0.9616308212280273
,people,0.9404958486557007
,cute,0.9192522764205933
,woman,0.9148968458175659
,indoors,0.9108715057373047
,one,0.9103542566299438
,wear,0.9019606113433838
,girl,0.9002310037612915
,happiness,0.8988664150238037
,leisure,0.8934829235076904
,portrait,0.889180600643158
,enjoyment,0.8827395439147949
,joy,0.8652164936065674
,vertical,0.8577717542648315
,summer,0.8387727737426758
,little,0.8247226476669312
,fashion,0.7943123579025269
,traditional,0.7939159870147705
,adult,0.7805080413818359
https://scontent-sit4-1.cdninstagram.com/t51.2885-15/e35/13298246_295345807471032_48876566_n.jpg,road,0.9993948936462402
,car,0.9980067610740662
,transportation system,0.9976919889450073
,highway,0.9967008829116821
,street,0.9966034293174744
,traffic,0.9960530996322632
,travel,0.9862407445907593
,asphalt,0.9738431572914124
,city,0.9711190462112427
,expressway,0.9663108587265015
,urban,0.9647926092147827
,vehicle,0.9640971422195435
,blur,0.9594462513923645
,sky,0.957351565361023
,bus,0.9564909934997559
,drive,0.9512628316879272
,truck,0.9438671469688416
,guidance,0.9418977499008179
,building,0.9403032660484314
,no person,0.9150829911231995
https://scontent-sit4-1.cdninstagram.com/t51.2885-15/e35/13532109_270554493307928_894280731_n.jpg,sea,0.9989619255065918
,beach,0.998571515083313
,ocean,0.9975621700286865
,water,0.9971346259117126
,sand,0.9901485443115234
,summer,0.9896939992904663
,seashore,0.9868384003639221
,vacation,0.9785941243171692
,freedom,0.9767528772354126
,leisure,0.9757562875747681
,travel,0.9665478467941284
,sky,0.9653264880180359
,carefree,0.9642530083656311
,fun,0.9596614837646484
,bikini,0.9579509496688843
,relaxation,0.946064829826355
,lifestyle,0.9303286075592041
,joy,0.9300222396850586
,woman,0.928730845451355
,enjoyment,0.9275344014167786
https://scontent-sit4-1.cdninstagram.com/t51.2885-15/sh0.08/e35/p750x750/13649170_262665907444147_1127236461_n.jpg,portrait,0.990809440612793
,child,0.9819931983947754
,girl,0.9772289991378784
,fun,0.9733423590660095
,people,0.971605658531189
,one,0.965690016746521
,sunglasses,0.9647917747497559
,woman,0.9556275606155396
,eyeglasses,0.9543302059173584
,fashion,0.945418119430542
,eyewear,0.9359643459320068
,happiness,0.9309259653091431
,lid,0.9288352727890015
,cute,0.9195816516876221
,adult,0.902285099029541
,winter,0.8855020403862
,studio,0.8833162784576416
,funny,0.8792688846588135
,joy,0.8785200119018555
,little,0.8759244680404663
https://scontent-sit4-1.cdninstagram.com/t51.2885-15/e35/13715229_842026639261992_1630805326_n.jpg,no person,0.9712520241737366
,indoors,0.9578012824058533
,retro,0.9508373737335205
,family,0.9474932551383972
,fashion,0.9467449188232422
,exhibition,0.9389758110046387
,album,0.9297031760215759
,room,0.9075653553009033
,landscape,0.9041684865951538
,furniture,0.8975372314453125
,decoration,0.892823338508606
,desktop,0.8920037746429443
,paper,0.891044020652771
,woman,0.8858336806297302
,design,0.8850382566452026
,picture frame,0.8848845958709717
,flower,0.879387378692627
,vintage,0.8793610334396362
,inside,0.8772227764129639
,travel,0.8702223896980286
https://scontent-sit4-1.cdninstagram.com/t51.2885-15/e35/12724645_260479394287667_929343661_n.jpg,people,0.9949405789375305
,many,0.980682909488678
,group,0.9646891355514526
,crowd,0.9427838325500488
,competition,0.942129373550415
,man,0.9405301213264465
,child,0.9396409392356873
,adult,0.9322104454040527
,woman,0.9081469178199768
,fun,0.8929023742675781
,wear,0.8760381937026978
,festival,0.86490797996521
,action,0.848504900932312
,game,0.8238847851753235
,recreation,0.8079431056976318
,lid,0.8053808212280273
,vehicle,0.7943191528320312
,spectator,0.7777695655822754
,group,0.7773966789245605
,motion,0.7723736763000488
https://scontent-sit4-1.cdninstagram.com/t51.2885-15/e35/13597656_1733591456896032_1336349151_n.jpg,crowd,0.9931929111480713
,people,0.9895557165145874
,many,0.9870478510856628
,child,0.9334368705749512
,event,0.9270523190498352
,woman,0.9254680871963501
,group,0.92289799451828
,editorial,0.9184340238571167
,competition,0.9121276140213013
,festival,0.912054181098938
,man,0.9049915075302124
,street,0.900818407535553
,shopping,0.8878681063652039
,performance,0.8766494989395142
,city,0.8753840923309326
,education,0.8739606142044067
,fun,0.8583974242210388
,market,0.8575077056884766
,audience,0.8514564037322998
,flea,0.8468116521835327
