url,class,score,,,,,,,,
https://scontent.cdninstagram.com/t51.2885-15/s640x640/sh0.08/e35/13636222_105855333184231_1847169793_n.jpg,people,0.9844762086868286,"Fashion & Beauty",,,,"My look",,,
,man,0.9729636907577515,,,,,,,,
,adult,0.9677759408950806,,,,,,,,
,indoors,0.944631814956665,,,,,,,,
,furniture,0.9428920745849609,,,,,,,,
,one,0.9393364191055298,,,,,,,,
,chair,0.9234861135482788,,,,,,,,
,table,0.9085493087768555,,,,,,,,
,business,0.8998445272445679,,,,,,,,
,room,0.8765430450439453,,,,,,,,
,woman,0.8681669235229492,,,,,,,,
,portrait,0.8641654849052429,,,,,,,,
,seat,0.8631012439727783,,,,,,,,
,"facial expression",0.772278368473053,,,,,,,,
,employee,0.7688741683959961,,,,,,,,
,office,0.7535182237625122,,,,,,,,
,hotel,0.7498092651367188,,,,,,,,
,two,0.73006272315979,,,,,,,,
,looking,0.728797435760498,,,,,,,,
,sit,0.7212393283843994,,,,,,,,
https://scontent.cdninstagram.com/t51.2885-15/e35/13627967_165800273836173_1258867292_n.jpg,business,0.9935967326164246,Commerce,Food,,,"Product/brand shots","Drinks and snack",,
,paper,0.9859600067138672,,,,,,,,
,"no person",0.9838674068450928,,,,,,,,
,finance,0.9797544479370117,,,,,,,,
,money,0.9785668849945068,,,,,,,,
,success,0.9702605605125427,,,,,,,,
,money,0.9309817552566528,,,,,,,,
,wealth,0.9121040105819702,,,,,,,,
,security,0.9049673676490784,,,,,,,,
,shopping,0.8900640606880188,,,,,,,,
,safety,0.8879845142364502,,,,,,,,
,sign,0.8673689961433411,,,,,,,,
,commerce,0.8623048067092896,,,,,,,,
,text,0.8613722324371338,,,,,,,,
,conceptual,0.8598987460136414,,,,,,,,
,savings,0.8510597944259644,,,,,,,,
,investment,0.8453037738800049,,,,,,,,
,financial,0.8388234376907349,,,,,,,,
,wood,0.8274238109588623,,,,,,,,
,danger,0.815967321395874,,,,,,,,
https://scontent.cdninstagram.com/t51.2885-15/s480x480/e35/13269483_282479545473710_564114112_n.jpg,food,0.9894589185714722,Food,,,,Dessert,,,
,"no person",0.9891605377197266,,,,,,,,
,doughnut,0.9713316559791565,,,,,,,,
,delicious,0.9614435434341431,,,,,,,,
,traditional,0.9543999433517456,,,,,,,,
,fruit,0.9410985708236694,,,,,,,,
,sugar,0.9390375018119812,,,,,,,,
,desktop,0.938888669013977,,,,,,,,
,health,0.935774564743042,,,,,,,,
,breakfast,0.928473711013794,,,,,,,,
,nutrition,0.9141287803649902,,,,,,,,
,sweet,0.9099803566932678,,,,,,,,
,color,0.9009283781051636,,,,,,,,
,refreshment,0.8991957306861877,,,,,,,,
,apple,0.8842925429344177,,,,,,,,
,kind,0.8809382915496826,,,,,,,,
,unhealthy,0.872661828994751,,,,,,,,
,wood,0.8709287643432617,,,,,,,,
,round,0.8695160150527954,,,,,,,,
,party,0.8626355528831482,,,,,,,,
https://scontent.cdninstagram.com/t51.2885-15/e35/13269567_520755798110150_1768608140_n.jpg,food,0.9980918169021606,Food,,,,"Meal time",,,
,vegetable,0.9885523915290833,,,,,,,,
,meal,0.9882934093475342,,,,,,,,
,cooking,0.982596755027771,,,,,,,,
,cuisine,0.9810922145843506,,,,,,,,
,dinner,0.977770209312439,,,,,,,,
,delicious,0.9762523174285889,,,,,,,,
,seafood,0.9733564853668213,,,,,,,,
,dish,0.9702942371368408,,,,,,,,
,restaurant,0.9677224159240723,,,,,,,,
,fish,0.9565235376358032,,,,,,,,
,epicure,0.9546491503715515,,,,,,,,
,healthy,0.942966103553772,,,,,,,,
,desktop,0.9391860365867615,,,,,,,,
,lunch,0.9375534653663635,,,,,,,,
,"no person",0.931982159614563,,,,,,,,
,nutrition,0.9114768505096436,,,,,,,,
,traditional,0.9073511362075806,,,,,,,,
,hot,0.9073271751403809,,,,,,,,
,grow,0.902572512626648,,,,,,,,
https://scontent.cdninstagram.com/t51.2885-15/e35/12918518_859811210811812_2002413466_n.jpg,people,0.9969576597213745,"Fun Filter","My life",,,"Fun Filter",Selfie,,
,man,0.9953054785728455,,,,,,,,
,portrait,0.9952292442321777,,,,,,,,
,adult,0.9943714141845703,,,,,,,,
,one,0.9938294291496277,,,,,,,,
,wear,0.9614335298538208,,,,,,,,
,"facial expression",0.959574282169342,,,,,,,,
,"facial hair",0.9495130777359009,,,,,,,,
,actor,0.9170912504196167,,,,,,,,
,face,0.8988169431686401,,,,,,,,
,athlete,0.8809709548950195,,,,,,,,
,music,0.8482417464256287,,,,,,,,
,pain,0.8473536372184753,,,,,,,,
,festival,0.8365229368209839,,,,,,,,
,ailment,0.816897988319397,,,,,,,,
,singer,0.8066771030426025,,,,,,,,
,mustache,0.8003920316696167,,,,,,,,
,goatee,0.7922223806381226,,,,,,,,
,outfit,0.7763617038726807,,,,,,,,
,movie,0.7600384950637817,,,,,,,,
https://scontent.cdninstagram.com/t51.2885-15/e35/12965180_496911270513173_1657126238_n.jpg,"no person",0.9986274838447571,Food,,,,Dessert,,,
,health,0.9798168540000916,,,,,,,,
,delicious,0.9659667015075684,,,,,,,,
,dinner,0.9636105298995972,,,,,,,,
,food,0.9567136764526367,,,,,,,,
,traditional,0.9530984163284302,,,,,,,,
,ingredients,0.9530115127563477,,,,,,,,
,nutrition,0.9460951089859009,,,,,,,,
,cooking,0.9406176805496216,,,,,,,,
,rice,0.9405864477157593,,,,,,,,
,lunch,0.9403515458106995,,,,,,,,
,sugar,0.9006409645080566,,,,,,,,
,taste,0.8946834802627563,,,,,,,,
,bowl,0.8876082897186279,,,,,,,,
,homemade,0.8817110657691956,,,,,,,,
,glass,0.8575410842895508,,,,,,,,
,summer,0.8501455783843994,,,,,,,,
,indoors,0.8389110565185547,,,,,,,,
,horizontal,0.8339203596115112,,,,,,,,
,ready,0.808558464050293,,,,,,,,
https://scontent.cdninstagram.com/t51.2885-15/e35/12501656_992629877450760_1042513889_n.jpg,milk,0.9832518100738525,Food,,,,"Drinks and snack",,,
,"no person",0.9641979932785034,,,,,,,,
,health,0.9600456357002258,,,,,,,,
,glass,0.9529456496238708,,,,,,,,
,delicious,0.9278611540794373,,,,,,,,
,shake,0.9224382638931274,,,,,,,,
,indoors,0.9199212193489075,,,,,,,,
,cold,0.9031703472137451,,,,,,,,
,vertical,0.8919541239738464,,,,,,,,
,food,0.8617515563964844,,,,,,,,
,woman,0.8582603931427002,,,,,,,,
,ice,0.8542748689651489,,,,,,,,
,healthcare,0.8524307012557983,,,,,,,,
,nutrition,0.850913405418396,,,,,,,,
,sugar,0.8479363322257996,,,,,,,,
,juice,0.84044349193573,,,,,,,,
,paper,0.8388156890869141,,,,,,,,
,drink,0.8237946033477783,,,,,,,,
,ingredients,0.8163834810256958,,,,,,,,
,cream,0.8161197900772095,,,,,,,,
https://scontent.cdninstagram.com/t51.2885-15/e35/12912518_620710884749903_198142130_n.jpg,architecture,0.9979536533355713,Environment,,,,"Manmade beauty",,,
,outdoors,0.9968048930168152,,,,,,,,
,horizontal,0.995803713798523,,,,,,,,
,city,0.9921733736991882,,,,,,,,
,modern,0.9853038787841797,,,,,,,,
,sky,0.9844681024551392,,,,,,,,
,office,0.9821942448616028,,,,,,,,
,apartment,0.980816125869751,,,,,,,,
,skyscraper,0.9660135507583618,,,,,,,,
,window,0.9628480672836304,,,,,,,,
,business,0.9603919982910156,,,,,,,,
,tallest,0.9581713676452637,,,,,,,,
,facade,0.9498241543769836,,,,,,,,
,glass,0.9475053548812866,,,,,,,,
,expression,0.9321390390396118,,,,,,,,
,cityscape,0.9305956363677979,,,,,,,,
,block,0.9222737550735474,,,,,,,,
,reflection,0.9180566668510437,,,,,,,,
,cloud,0.8854529857635498,,,,,,,,
,vertical,0.8840690851211548,,,,,,,,
https://scontent.cdninstagram.com/t51.2885-15/e35/13385766_188670421534512_1716804988_n.jpg,food,0.9979329109191895,Food,,,,"Meal time",,,
,dinner,0.9889651536941528,,,,,,,,
,meal,0.9882384538650513,,,,,,,,
,delicious,0.9871373176574707,,,,,,,,
,lunch,0.9793518781661987,,,,,,,,
,epicure,0.9773930311203003,,,,,,,,
,cooking,0.9745322465896606,,,,,,,,
,cuisine,0.9744998216629028,,,,,,,,
,dish,0.9724153280258179,,,,,,,,
,healthy,0.9710467457771301,,,,,,,,
,bowl,0.9703933000564575,,,,,,,,
,hot,0.9690587520599365,,,,,,,,
,tasty,0.9669313430786133,,,,,,,,
,traditional,0.9639151692390442,,,,,,,,
,plate,0.9629379510879517,,,,,,,,
,vegetable,0.96110999584198,,,,,,,,
,nutrition,0.9599066376686096,,,,,,,,
,soup,0.9584865570068359,,,,,,,,
,restaurant,0.9533929824829102,,,,,,,,
,closeup,0.9526020288467407,,,,,,,,
https://scontent.cdninstagram.com/t51.2885-15/e35/13534493_108615559572961_1932131400_n.jpg,"no person",0.9718824625015259,Food,,,,"Meal time",,,
,drink,0.9391757249832153,,,,,,,,
,business,0.9362633228302002,,,,,,,,
,container,0.8989008665084839,,,,,,,,
,food,0.8938918113708496,,,,,,,,
,indoors,0.8820148706436157,,,,,,,,
,paper,0.8783499002456665,,,,,,,,
,coffee,0.8731223344802856,,,,,,,,
,desktop,0.871478796005249,,,,,,,,
,wood,0.8212748169898987,,,,,,,,
,health,0.8079657554626465,,,,,,,,
,cup,0.8001958131790161,,,,,,,,
,milk,0.793800950050354,,,,,,,,
,"still life",0.7882652878761292,,,,,,,,
,text,0.7797412872314453,,,,,,,,
,merchandise,0.7722641229629517,,,,,,,,
,box,0.770284116268158,,,,,,,,
,closeup,0.7662519216537476,,,,,,,,
,money,0.7589395046234131,,,,,,,,
,horizontal,0.7588181495666504,,,,,,,,
https://scontent.cdninstagram.com/t51.2885-15/e35/13525490_544369779083495_1535170219_n.jpg,people,0.9701601266860962,"Fun Filter","My life",,,"Fun Filter",Selfie,,
,portrait,0.9581971764564514,,,,,,,,
,man,0.9485033750534058,,,,,,,,
,young,0.9358044266700745,,,,,,,,
,one,0.9146397113800049,,,,,,,,
,face,0.9036476016044617,,,,,,,,
,boy,0.9000985622406006,,,,,,,,
,person,0.8856558799743652,,,,,,,,
,cute,0.8723303079605103,,,,,,,,
,sign,0.8682997226715088,,,,,,,,
,serious,0.8672049045562744,,,,,,,,
,child,0.8664829730987549,,,,,,,,
,looking,0.8399997353553772,,,,,,,,
,adult,0.8362126350402832,,,,,,,,
,business,0.8228534460067749,,,,,,,,
,adolescent,0.8062601089477539,,,,,,,,
,isolated,0.801175594329834,,,,,,,,
,education,0.7850266695022583,,,,,,,,
,actor,0.7810882329940796,,,,,,,,
,desktop,0.7740285396575928,,,,,,,,
https://scontent.cdninstagram.com/t51.2885-15/e35/13248972_1022584464491014_235674733_n.jpg,cream,0.9986727237701416,Commerce,Food,,,"Product/brand shots","Drinks and snack",,
,milk,0.995029091835022,,,,,,,,
,ice,0.9917802214622498,,,,,,,,
,delicious,0.9910862445831299,,,,,,,,
,vanilla,0.9861346483230591,,,,,,,,
,cold,0.9824235439300537,,,,,,,,
,"no person",0.9819360375404358,,,,,,,,
,sweet,0.9812312126159668,,,,,,,,
,chocolate,0.9798840284347534,,,,,,,,
,creamy,0.9794787168502808,,,,,,,,
,yogurt,0.9772017598152161,,,,,,,,
,food,0.9759753346443176,,,,,,,,
,cup,0.9724801778793335,,,,,,,,
,refreshment,0.9716501235961914,,,,,,,,
,dairy,0.960296094417572,,,,,,,,
,frozen,0.9570909142494202,,,,,,,,
,"whipped cream",0.9531501531600952,,,,,,,,
,breakfast,0.9523454308509827,,,,,,,,
,coffee,0.951008677482605,,,,,,,,
,glass,0.9339452981948853,,,,,,,,
https://scontent.cdninstagram.com/t51.2885-15/e35/13099020_266720193671253_323853751_n.jpg,leaf,0.9961293935775757,Environment,,,,"Natural beauty",,,
,garden,0.9940340518951416,,,,,,,,
,flora,0.9937781095504761,,,,,,,,
,flower,0.9906419515609741,,,,,,,,
,"no person",0.9790979623794556,,,,,,,,
,pot,0.9725478887557983,,,,,,,,
,growth,0.9700911045074463,,,,,,,,
,nature,0.9676750898361206,,,,,,,,
,greenhouse,0.9557290077209473,,,,,,,,
,summer,0.9249961972236633,,,,,,,,
,color,0.921745777130127,,,,,,,,
,botanical,0.9108259677886963,,,,,,,,
,horticulture,0.892623782157898,,,,,,,,
,tree,0.8900501728057861,,,,,,,,
,perfume,0.8839737176895142,,,,,,,,
,floral,0.8794165849685669,,,,,,,,
,herb,0.8725893497467041,,,,,,,,
,environment,0.8712283372879028,,,,,,,,
,closeup,0.8565716743469238,,,,,,,,
,outdoors,0.8525539636611938,,,,,,,,
https://scontent.cdninstagram.com/t51.2885-15/s480x480/e35/13113720_1126937287365502_1509918673_n.jpg,people,0.9738270044326782,"Fashion & Beauty","My life",,,"My look","Here I am",,
,recreation,0.962592601776123,,,,,,,,
,actress,0.9459044337272644,,,,,,,,
,sign,0.9311625957489014,,,,,,,,
,actor,0.9283397197723389,,,,,,,,
,"red carpet",0.9259618520736694,,,,,,,,
,fashion,0.9230583906173706,,,,,,,,
,business,0.9151493310928345,,,,,,,,
,portrait,0.8727076053619385,,,,,,,,
,festival,0.8526207804679871,,,,,,,,
,award,0.8321268558502197,,,,,,,,
,wear,0.8182764053344727,,,,,,,,
,movie,0.8090724349021912,,,,,,,,
,one,0.8090459108352661,,,,,,,,
,adult,0.7978121042251587,,,,,,,,
,room,0.7891706824302673,,,,,,,,
,editorial,0.7848832607269287,,,,,,,,
,promotion,0.7753899097442627,,,,,,,,
,person,0.7590928673744202,,,,,,,,
,party,0.7389973402023315,,,,,,,,
https://scontent.cdninstagram.com/t51.2885-15/e35/12912482_1720632524884428_131402071_n.jpg,people,0.9846344590187073,"Fashion & Beauty",Environment,,,"My look","Manmade beauty",,
,man,0.9815284609794617,,,,,,,,
,adult,0.976071834564209,,,,,,,,
,one,0.9716408252716064,,,,,,,,
,portrait,0.9594578146934509,,,,,,,,
,outdoors,0.948439359664917,,,,,,,,
,water,0.9459896087646484,,,,,,,,
,woman,0.9440670013427734,,,,,,,,
,wear,0.920287013053894,,,,,,,,
,leisure,0.9108045101165771,,,,,,,,
,recreation,0.9100354313850403,,,,,,,,
,travel,0.8942751288414001,,,,,,,,
,daylight,0.876101553440094,,,,,,,,
,summer,0.8653687238693237,,,,,,,,
,sea,0.8647375106811523,,,,,,,,
,vacation,0.8628287315368652,,,,,,,,
,lifestyle,0.859691858291626,,,,,,,,
,happiness,0.857613205909729,,,,,,,,
,beach,0.8403881788253784,,,,,,,,
,young,0.839602530002594,,,,,,,,
https://scontent.cdninstagram.com/t51.2885-15/e35/12959916_1717469778533158_2019250874_n.jpg,food,0.9994032979011536,Food,,,,"Meal time",,,
,meal,0.9930945038795471,,,,,,,,
,dinner,0.9910043478012085,,,,,,,,
,vegetable,0.9909889101982117,,,,,,,,
,dish,0.986957848072052,,,,,,,,
,cuisine,0.9866148233413696,,,,,,,,
,delicious,0.9854037761688232,,,,,,,,
,sauce,0.9844942092895508,,,,,,,,
,meat,0.9838635921478271,,,,,,,,
,beef,0.9806120991706848,,,,,,,,
,lunch,0.9753057956695557,,,,,,,,
,rice,0.9732667803764343,,,,,,,,
,tasty,0.9717767238616943,,,,,,,,
,hot,0.9713162183761597,,,,,,,,
,restaurant,0.9684739112854004,,,,,,,,
,epicure,0.9676966667175293,,,,,,,,
,chili,0.9663252830505371,,,,,,,,
,cooking,0.9644169807434082,,,,,,,,
,plate,0.962881326675415,,,,,,,,
,"no person",0.9496902227401733,,,,,,,,
https://scontent.cdninstagram.com/t51.2885-15/e35/13248814_282527992093724_2099292324_n.jpg,city,0.9895387291908264,"Fashion & Beauty",Environment,,,"My look","Manmade beauty",,
,people,0.9885973930358887,,,,,,,,
,street,0.9859222173690796,,,,,,,,
,woman,0.9682623147964478,,,,,,,,
,road,0.951114296913147,,,,,,,,
,university,0.9477506875991821,,,,,,,,
,adult,0.9369885325431824,,,,,,,,
,outdoors,0.9309624433517456,,,,,,,,
,school,0.9243612289428711,,,,,,,,
,education,0.9128710031509399,,,,,,,,
,pavement,0.911308765411377,,,,,,,,
,business,0.9025970101356506,,,,,,,,
,urban,0.8763861656188965,,,,,,,,
,building,0.8622307777404785,,,,,,,,
,religion,0.8531709313392639,,,,,,,,
,daylight,0.8512825965881348,,,,,,,,
,man,0.8330156207084656,,,,,,,,
,administration,0.8268521428108215,,,,,,,,
,wear,0.8252869844436646,,,,,,,,
,portrait,0.824474573135376,,,,,,,,
https://scontent.cdninstagram.com/t51.2885-15/e35/13392662_579738895530434_1749292475_n.jpg,food,0.9954715967178345,Food,,,,"Meal time",,,
,dinner,0.9891220927238464,,,,,,,,
,lunch,0.9864190816879272,,,,,,,,
,meal,0.9858763813972473,,,,,,,,
,table,0.9768317937850952,,,,,,,,
,restaurant,0.9766476154327393,,,,,,,,
,dining,0.9733482599258423,,,,,,,,
,plate,0.9639843702316284,,,,,,,,
,dish,0.9457080960273743,,,,,,,,
,meat,0.9392498731613159,,,,,,,,
,delicious,0.92952960729599,,,,,,,,
,"no person",0.9152277112007141,,,,,,,,
,breakfast,0.8956243991851807,,,,,,,,
,bread,0.8906849026679993,,,,,,,,
,vegetable,0.8861384391784668,,,,,,,,
,cooking,0.8843978643417358,,,,,,,,
,helping,0.8809664249420166,,,,,,,,
,tableware,0.8764714598655701,,,,,,,,
,grow,0.8718152642250061,,,,,,,,
,knife,0.8597114086151123,,,,,,,,
https://scontent.cdninstagram.com/t51.2885-15/sh0.08/e35/p750x750/13671286_1122157367826558_1632443056_n.jpg,portrait,0.9899194836616516,"Fun Filter","My life",,,"Fun Filter",Selfie,,
,people,0.9754663705825806,,,,,,,,
,woman,0.9745702743530273,,,,,,,,
,girl,0.973379909992218,,,,,,,,
,face,0.9622458815574646,,,,,,,,
,adult,0.9615400433540344,,,,,,,,
,fashion,0.9544188976287842,,,,,,,,
,studio,0.948505699634552,,,,,,,,
,eye,0.9455196857452393,,,,,,,,
,young,0.9424266219139099,,,,,,,,
,hair,0.9356077313423157,,,,,,,,
,man,0.9348230361938477,,,,,,,,
,beautiful,0.9328715801239014,,,,,,,,
,model,0.9230586886405945,,,,,,,,
,head,0.9204857349395752,,,,,,,,
,skin,0.9038476943969727,,,,,,,,
,one,0.9028651714324951,,,,,,,,
,lips,0.8789254426956177,,,,,,,,
,pretty,0.8742724061012268,,,,,,,,
,person,0.8725223541259766,,,,,,,,
https://scontent.cdninstagram.com/t51.2885-15/e35/13525447_873911482713295_1092096045_n.jpg,bread,0.9978363513946533,Food,,,,"Meal time",,,
,bun,0.9959844350814819,,,,,,,,
,food,0.9957410097122192,,,,,,,,
,burger,0.9943875670433044,,,,,,,,
,lettuce,0.9942812919616699,,,,,,,,
,sandwich,0.993720531463623,,,,,,,,
,unhealthy,0.9932510852813721,,,,,,,,
,lunch,0.9906865954399109,,,,,,,,
,meat,0.9889485836029053,,,,,,,,
,beef,0.9877306222915649,,,,,,,,
,tomato,0.985999345779419,,,,,,,,
,onion,0.9839101433753967,,,,,,,,
,"no person",0.9833047389984131,,,,,,,,
,fast,0.9817116856575012,,,,,,,,
,dinner,0.9802221059799194,,,,,,,,
,delicious,0.9794886708259583,,,,,,,,
,sesame,0.9778571128845215,,,,,,,,
,meal,0.9724642634391785,,,,,,,,
,"french fries",0.9705955982208252,,,,,,,,
,refreshment,0.9690295457839966,,,,,,,,
https://scontent.cdninstagram.com/t51.2885-15/e35/13256956_185243908541367_1397635429_n.jpg,tree,0.9896732568740845,Celebrations,Environment,,,"Community Events","Natural beauty",,
,nature,0.9873796701431274,,,,,,,,
,"no person",0.9824199676513672,,,,,,,,
,winter,0.9669491052627563,,,,,,,,
,outdoors,0.9559941291809082,,,,,,,,
,branch,0.9497137069702148,,,,,,,,
,season,0.9497034549713135,,,,,,,,
,leaf,0.9359150528907776,,,,,,,,
,wood,0.9311169385910034,,,,,,,,
,sky,0.9304594397544861,,,,,,,,
,bright,0.9276859760284424,,,,,,,,
,summer,0.9200472235679626,,,,,,,,
,landscape,0.9192928075790405,,,,,,,,
,Christmas,0.9025238752365112,,,,,,,,
,flora,0.8843665719032288,,,,,,,,
,pine,0.881268322467804,,,,,,,,
,desktop,0.8432621955871582,,,,,,,,
,decoration,0.8428845405578613,,,,,,,,
,fall,0.8349329233169556,,,,,,,,
,"fair weather",0.8293377161026001,,,,,,,,
https://scontent.cdninstagram.com/l/t51.2885-15/e35/13151365_603922293107023_681761117_n.jpg,text,0.9848792552947998,"My life",Environment,,,"Here I am","Manmade beauty",,
,business,0.9798144102096558,,,,,,,,
,sign,0.9743074178695679,,,,,,,,
,"give voice",0.9704804420471191,,,,,,,,
,sign,0.9457392692565918,,,,,,,,
,symbol,0.903059720993042,,,,,,,,
,communication,0.9018572568893433,,,,,,,,
,finance,0.8857975006103516,,,,,,,,
,money,0.8759862184524536,,,,,,,,
,design,0.8695588111877441,,,,,,,,
,success,0.8640395998954773,,,,,,,,
,financial,0.8571467399597168,,,,,,,,
,message,0.8452572822570801,,,,,,,,
,economy,0.8394598960876465,,,,,,,,
,desktop,0.8381369113922119,,,,,,,,
,sale,0.8356820940971375,,,,,,,,
,retail,0.8168109655380249,,,,,,,,
,market,0.8136860132217407,,,,,,,,
,education,0.8093624114990234,,,,,,,,
,advertising,0.8050538301467896,,,,,,,,
https://scontent.cdninstagram.com/t51.2885-15/e35/12950302_256067464739799_981573389_n.jpg,man,0.9931541681289673,"Fun Filter","My life",,,"Fun Filter",Selfie,,
,portrait,0.9675951600074768,,,,,,,,
,retro,0.9667854905128479,,,,,,,,
,lid,0.9606863260269165,,,,,,,,
,people,0.9540804624557495,,,,,,,,
,face,0.9511330723762512,,,,,,,,
,Halloween,0.9425022602081299,,,,,,,,
,sunglasses,0.9406760931015015,,,,,,,,
,fun,0.9030231237411499,,,,,,,,
,scary,0.8929572105407715,,,,,,,,
,vicious,0.8889724016189575,,,,,,,,
,funny,0.8853209614753723,,,,,,,,
,one,0.8843883275985718,,,,,,,,
,cap,0.8794547319412231,,,,,,,,
,angry,0.8683601021766663,,,,,,,,
,isolated,0.8608253002166748,,,,,,,,
,person,0.8503389358520508,,,,,,,,
,mask,0.8484175205230713,,,,,,,,
,vintage,0.8462514877319336,,,,,,,,
,head,0.8459122180938721,,,,,,,,
https://scontent.cdninstagram.com/t51.2885-15/e35/13257158_1035643393193096_1520259429_n.jpg,food,0.9943848848342896,Food,,,,"Meal time",,,
,"no person",0.98488450050354,,,,,,,,
,delicious,0.9825058579444885,,,,,,,,
,plate,0.972427248954773,,,,,,,,
,dinner,0.9699337482452393,,,,,,,,
,grow,0.9615026116371155,,,,,,,,
,lunch,0.9561405181884766,,,,,,,,
,meal,0.9481999278068542,,,,,,,,
,meat,0.9437490701675415,,,,,,,,
,epicure,0.935271143913269,,,,,,,,
,dish,0.9232358336448669,,,,,,,,
,beef,0.9217076301574707,,,,,,,,
,sauce,0.9164183139801025,,,,,,,,
,homemade,0.9140523076057434,,,,,,,,
,"dairy product",0.9137532711029053,,,,,,,,
,bread,0.9035130739212036,,,,,,,,
,tasty,0.9010459184646606,,,,,,,,
,pork,0.8757779002189636,,,,,,,,
,vegetable,0.8703064918518066,,,,,,,,
,slice,0.8615747690200806,,,,,,,,
https://scontent.cdninstagram.com/t51.2885-15/e35/13329091_1759729174249336_2053424481_n.jpg,shopping,0.9839590191841125,"Fashion & Beauty",,,,Ootd,,,
,indoors,0.9677895307540894,,,,,,,,
,shop,0.960124135017395,,,,,,,,
,stock,0.9503707885742188,,,,,,,,
,man,0.9492818117141724,,,,,,,,
,luggage,0.9402585029602051,,,,,,,,
,airport,0.9058957099914551,,,,,,,,
,action,0.9039045572280884,,,,,,,,
,International,0.9027224183082581,,,,,,,,
,portrait,0.8869647979736328,,,,,,,,
,city,0.8865431547164917,,,,,,,,
,competition,0.8793110847473145,,,,,,,,
,people,0.8694659471511841,,,,,,,,
,business,0.8555985689163208,,,,,,,,
,street,0.8513936996459961,,,,,,,,
,adult,0.8507915735244751,,,,,,,,
,motion,0.8463842868804932,,,,,,,,
,terminal,0.8264349102973938,,,,,,,,
,train,0.8091740012168884,,,,,,,,
,travel,0.8081568479537964,,,,,,,,
https://scontent.cdninstagram.com/t51.2885-15/s480x480/e35/13188017_980007252114260_473880807_n.jpg,plate,0.9883668422698975,Food,,,,Dessert,,,
,"no person",0.9861141443252563,,,,,,,,
,food,0.9838602542877197,,,,,,,,
,fork,0.9782061576843262,,,,,,,,
,dish,0.9491666555404663,,,,,,,,
,table,0.9308560490608215,,,,,,,,
,sweet,0.9235231876373291,,,,,,,,
,meal,0.9162775278091431,,,,,,,,
,cooking,0.9139775037765503,,,,,,,,
,knife,0.9080232381820679,,,,,,,,
,restaurant,0.9039073586463928,,,,,,,,
,delicious,0.8948256373405457,,,,,,,,
,dishware,0.8890104293823242,,,,,,,,
,lunch,0.8868269920349121,,,,,,,,
,dinner,0.880460262298584,,,,,,,,
,epicure,0.8777157068252563,,,,,,,,
,refreshment,0.8774789571762085,,,,,,,,
,cutlery,0.8735034465789795,,,,,,,,
,breakfast,0.8723459839820862,,,,,,,,
,freshness,0.8665790557861328,,,,,,,,
https://scontent.cdninstagram.com/t51.2885-15/e35/12424763_232425960442009_1273760371_n.jpg,isolated,0.9865034222602844,"Fun Filter","My life",,,"Fun Filter",Selfie,,
,young,0.9840033054351807,,,,,,,,
,bunny,0.9836591482162476,,,,,,,,
,rabbit,0.9707822799682617,,,,,,,,
,funny,0.9593132734298706,,,,,,,,
,man,0.9583976864814758,,,,,,,,
,fun,0.9342331886291504,,,,,,,,
,desktop,0.9214633703231812,,,,,,,,
,portrait,0.919095516204834,,,,,,,,
,one,0.9183517098426819,,,,,,,,
,Easter,0.9178701639175415,,,,,,,,
,people,0.9145532846450806,,,,,,,,
,cute,0.9133098125457764,,,,,,,,
,surprise,0.9100067019462585,,,,,,,,
,looking,0.9065778255462646,,,,,,,,
,hand,0.9005637764930725,,,,,,,,
,person,0.8983026742935181,,,,,,,,
,studio,0.8979674577713013,,,,,,,,
,head,0.885530948638916,,,,,,,,
,sign,0.8799762725830078,,,,,,,,
https://scontent.cdninstagram.com/l/t51.2885-15/e35/12599494_950572895033057_1400099765_n.jpg,dinner,0.9942306876182556,Food,,,,"Meal time",,,
,food,0.9895706176757812,,,,,,,,
,lunch,0.9895228147506714,,,,,,,,
,pasta,0.9886341094970703,,,,,,,,
,"no person",0.9834797382354736,,,,,,,,
,delicious,0.9822027683258057,,,,,,,,
,meal,0.9627399444580078,,,,,,,,
,cuisine,0.9596213102340698,,,,,,,,
,nutrition,0.9526104927062988,,,,,,,,
,cooking,0.952248215675354,,,,,,,,
,restaurant,0.9490187764167786,,,,,,,,
,dish,0.9446818828582764,,,,,,,,
,spaghetti,0.9405933618545532,,,,,,,,
,traditional,0.934975266456604,,,,,,,,
,noodles,0.9310287237167358,,,,,,,,
,plate,0.9279724359512329,,,,,,,,
,cheese,0.9269428253173828,,,,,,,,
,sauce,0.9101563692092896,,,,,,,,
,epicure,0.9004579782485962,,,,,,,,
,ready,0.8947935104370117,,,,,,,,
https://scontent.cdninstagram.com/t51.2885-15/s750x750/sh0.08/e35/13183514_1044387538933738_1445691080_n.jpg,Easter,0.9957936406135559,Food,,,,Dessert,,,
,egg,0.9887892007827759,,,,,,,,
,decoration,0.9849749803543091,,,,,,,,
,celebration,0.9788809418678284,,,,,,,,
,color,0.9737738966941833,,,,,,,,
,"no person",0.9723396897315979,,,,,,,,
,motley,0.9681694507598877,,,,,,,,
,desktop,0.9679099321365356,,,,,,,,
,pattern,0.96772301197052,,,,,,,,
,bright,0.9618174433708191,,,,,,,,
,food,0.959989070892334,,,,,,,,
,traditional,0.9583832621574402,,,,,,,,
,design,0.9408810138702393,,,,,,,,
,chicken,0.938393771648407,,,,,,,,
,many,0.9371136426925659,,,,,,,,
,group,0.935379147529602,,,,,,,,
,religion,0.9238749742507935,,,,,,,,
,ornate,0.9231637716293335,,,,,,,,
,symbol,0.9158743619918823,,,,,,,,
,fun,0.900847315788269,,,,,,,,
https://scontent.cdninstagram.com/t51.2885-15/e35/12080535_207657322932727_132976899_n.jpg,"no person",0.9847817420959473,Environment,Commerce,,,"Natural beauty","Product/brand shots",,
,indoors,0.9539403915405273,,,,,,,,
,decoration,0.9299609661102295,,,,,,,,
,travel,0.9284507036209106,,,,,,,,
,"interior design",0.927027702331543,,,,,,,,
,summer,0.9193962812423706,,,,,,,,
,design,0.9030781984329224,,,,,,,,
,outdoors,0.8985989093780518,,,,,,,,
,contemporary,0.889634370803833,,,,,,,,
,architecture,0.8879534602165222,,,,,,,,
,table,0.8857674598693848,,,,,,,,
,luxury,0.8843702077865601,,,,,,,,
,chair,0.8786832690238953,,,,,,,,
,nature,0.8730771541595459,,,,,,,,
,bright,0.8672762513160706,,,,,,,,
,vacation,0.8621394634246826,,,,,,,,
,tropical,0.8599051237106323,,,,,,,,
,relaxation,0.8573441505432129,,,,,,,,
,family,0.8484052419662476,,,,,,,,
,wood,0.8370363712310791,,,,,,,,
https://scontent.cdninstagram.com/t51.2885-15/e35/12965092_1180001862012196_457078243_n.jpg,hand,0.9892793297767639,Commerce,,,,"Product/brand shots",,,
,band,0.973425030708313,,,,,,,,
,wealth,0.9732615947723389,,,,,,,,
,bracelet,0.9716020822525024,,,,,,,,
,gold,0.9614974856376648,,,,,,,,
,security,0.9598968029022217,,,,,,,,
,jewelry,0.9583967924118042,,,,,,,,
,chain,0.9448521137237549,,,,,,,,
,luxury,0.9351550340652466,,,,,,,,
,key,0.9162164926528931,,,,,,,,
,lock,0.9136925935745239,,,,,,,,
,business,0.9045548439025879,,,,,,,,
,symbol,0.8944393992424011,,,,,,,,
,success,0.8633040189743042,,,,,,,,
,investment,0.8536510467529297,,,,,,,,
,desktop,0.8518696427345276,,,,,,,,
,gift,0.8400088548660278,,,,,,,,
,brass,0.8399384021759033,,,,,,,,
,wedding,0.8286793828010559,,,,,,,,
,woman,0.825264573097229,,,,,,,,
https://scontent.cdninstagram.com/t51.2885-15/s750x750/sh0.08/e35/10986136_1571896073138040_171799333_n.jpg,man,0.9761704206466675,"Fashion & Beauty",,,,"My look",,,
,people,0.9728753566741943,,,,,,,,
,young,0.9472827911376953,,,,,,,,
,woman,0.945763349533081,,,,,,,,
,one,0.9327007532119751,,,,,,,,
,portrait,0.9230825304985046,,,,,,,,
,person,0.9212768077850342,,,,,,,,
,human,0.9109218120574951,,,,,,,,
,head,0.9002209901809692,,,,,,,,
,face,0.8821923732757568,,,,,,,,
,culture,0.8816749453544617,,,,,,,,
,adult,0.8738174438476562,,,,,,,,
,beautiful,0.8738095760345459,,,,,,,,
,family,0.8627792596817017,,,,,,,,
,style,0.8572172522544861,,,,,,,,
,indoors,0.8569278717041016,,,,,,,,
,desktop,0.8439031839370728,,,,,,,,
,old,0.8391095399856567,,,,,,,,
,casual,0.8319108486175537,,,,,,,,
,retro,0.8209900856018066,,,,,,,,
https://scontent.cdninstagram.com/t51.2885-15/e35/13534344_1747555772196444_1710430645_n.jpg,"no person",0.9945942759513855,Commerce,,,,"Product/brand shots",,,
,medicine,0.9926280379295349,,,,,,,,
,healthcare,0.9841575622558594,,,,,,,,
,illness,0.9814118146896362,,,,,,,,
,food,0.9766005873680115,,,,,,,,
,bottle,0.9682247638702393,,,,,,,,
,container,0.9625383615493774,,,,,,,,
,disease,0.9472915530204773,,,,,,,,
,drink,0.9437901377677917,,,,,,,,
,drug,0.9332388043403625,,,,,,,,
,cure,0.9252961874008179,,,,,,,,
,one,0.9199181795120239,,,,,,,,
,beer,0.9067193269729614,,,,,,,,
,health,0.9027499556541443,,,,,,,,
,glass,0.88175368309021,,,,,,,,
,indoors,0.8764526844024658,,,,,,,,
,hospital,0.8754703998565674,,,,,,,,
,ailment,0.87432861328125,,,,,,,,
,prescription,0.8667564392089844,,,,,,,,
,pill,0.8636929392814636,,,,,,,,
https://scontent.cdninstagram.com/t51.2885-15/e35/11931055_984919474934657_672818738_n.jpg,food,0.9977722764015198,Food,,,,Food-s,,,
,fruit,0.997336745262146,,,,,,,,
,"no person",0.9923409223556519,,,,,,,,
,nutrition,0.9795221090316772,,,,,,,,
,sweet,0.9776609539985657,,,,,,,,
,apple,0.9745754599571228,,,,,,,,
,juicy,0.9731482267379761,,,,,,,,
,health,0.9730944633483887,,,,,,,,
,tropical,0.9717367887496948,,,,,,,,
,grow,0.9714823961257935,,,,,,,,
,healthy,0.9692152738571167,,,,,,,,
,vegetable,0.9663359522819519,,,,,,,,
,delicious,0.9630253314971924,,,,,,,,
,agriculture,0.9603371620178223,,,,,,,,
,vitamin,0.9585734605789185,,,,,,,,
,diet,0.9538826942443848,,,,,,,,
,group,0.9520938396453857,,,,,,,,
,fall,0.9470566511154175,,,,,,,,
,summer,0.9403139352798462,,,,,,,,
,exotic,0.9396370649337769,,,,,,,,
https://scontent.cdninstagram.com/t51.2885-15/e35/12105010_1412660938759936_1440427712_n.jpg,rice,0.9995888471603394,Food,,,,"Meal time",,,
,food,0.9971392154693604,,,,,,,,
,dinner,0.9934412240982056,,,,,,,,
,lunch,0.9906252026557922,,,,,,,,
,meal,0.9842623472213745,,,,,,,,
,vegetable,0.9836046695709229,,,,,,,,
,dish,0.9786900281906128,,,,,,,,
,risotto,0.9729776382446289,,,,,,,,
,delicious,0.9697237014770508,,,,,,,,
,"no person",0.9657574892044067,,,,,,,,
,meat,0.9594975709915161,,,,,,,,
,fork,0.9566117525100708,,,,,,,,
,cooking,0.9560036659240723,,,,,,,,
,curry,0.9553135633468628,,,,,,,,
,pork,0.9528837203979492,,,,,,,,
,cuisine,0.9525367021560669,,,,,,,,
,grow,0.9498001337051392,,,,,,,,
,plate,0.9465615749359131,,,,,,,,
,mouth-watering,0.9455373287200928,,,,,,,,
,chicken,0.9363716840744019,,,,,,,,
https://scontent.cdninstagram.com/t51.2885-15/e35/13183521_1215953935091552_1113779653_n.jpg,food,0.9959434270858765,Food,,,,"Meal time",,,
,"no person",0.9901715517044067,,,,,,,,
,delicious,0.9751337766647339,,,,,,,,
,lunch,0.9749152660369873,,,,,,,,
,dinner,0.9658194780349731,,,,,,,,
,meal,0.9636136293411255,,,,,,,,
,grow,0.9625414609909058,,,,,,,,
,meat,0.9622794389724731,,,,,,,,
,bread,0.9577707648277283,,,,,,,,
,breakfast,0.9541776776313782,,,,,,,,
,plate,0.9517179727554321,,,,,,,,
,hot,0.9495881199836731,,,,,,,,
,cooking,0.9393512010574341,,,,,,,,
,traditional,0.9285287261009216,,,,,,,,
,dish,0.9281908273696899,,,,,,,,
,"dairy product",0.9238617420196533,,,,,,,,
,pork,0.9218878746032715,,,,,,,,
,cuisine,0.9101144075393677,,,,,,,,
,homemade,0.9049564599990845,,,,,,,,
,nutrition,0.9027224183082581,,,,,,,,
https://scontent.cdninstagram.com/t51.2885-15/e35/12905191_533574403496089_1947608852_n.jpg,food,0.9939265847206116,Food,,,,"Meal time",,,
,"no person",0.9863131642341614,,,,,,,,
,lunch,0.9773406982421875,,,,,,,,
,delicious,0.9735369682312012,,,,,,,,
,dinner,0.9733639359474182,,,,,,,,
,cheese,0.9613524675369263,,,,,,,,
,meal,0.9363900423049927,,,,,,,,
,dish,0.9224852323532104,,,,,,,,
,plate,0.9087493419647217,,,,,,,,
,cooking,0.905698299407959,,,,,,,,
,vegetable,0.9008111953735352,,,,,,,,
,"dairy product",0.89974045753479,,,,,,,,
,chicken,0.8993777632713318,,,,,,,,
,meat,0.8973522782325745,,,,,,,,
,nutrition,0.8921690583229065,,,,,,,,
,pepper,0.8916712403297424,,,,,,,,
,grow,0.8850642442703247,,,,,,,,
,cuisine,0.8758636713027954,,,,,,,,
,sauce,0.8743115663528442,,,,,,,,
,homemade,0.8630703687667847,,,,,,,,
https://scontent.cdninstagram.com/t51.2885-15/e35/13256701_1716630471910174_447014481_n.jpg,"no person",0.9984530210494995,Commerce,Food,,,"Product/brand shots","Drinks and snack",,
,food,0.94757479429245,,,,,,,,
,tea,0.9381759762763977,,,,,,,,
,drink,0.9283221960067749,,,,,,,,
,health,0.9282118082046509,,,,,,,,
,cup,0.9177995920181274,,,,,,,,
,milk,0.9145833253860474,,,,,,,,
,cream,0.9120330810546875,,,,,,,,
,dawn,0.9051966667175293,,,,,,,,
,hot,0.9034294486045837,,,,,,,,
,leaf,0.902615487575531,,,,,,,,
,coffee,0.884980320930481,,,,,,,,
,breakfast,0.8817125558853149,,,,,,,,
,creamy,0.8794666528701782,,,,,,,,
,indoors,0.869156002998352,,,,,,,,
,nutrition,0.8637169599533081,,,,,,,,
,thick,0.8608431220054626,,,,,,,,
,delicious,0.846034049987793,,,,,,,,
,ingredients,0.8399970531463623,,,,,,,,
,wood,0.8328385353088379,,,,,,,,
https://scontent.cdninstagram.com/t51.2885-15/e35/13437213_293377154342701_402045881_n.jpg,lunch,0.9949471950531006,Food,,,,"Meal time",,,
,dinner,0.9930903911590576,,,,,,,,
,food,0.9896978139877319,,,,,,,,
,"no person",0.9859994649887085,,,,,,,,
,delicious,0.98004150390625,,,,,,,,
,cheese,0.9777052998542786,,,,,,,,
,meal,0.972357988357544,,,,,,,,
,pasta,0.9722965955734253,,,,,,,,
,nutrition,0.9542719125747681,,,,,,,,
,sauce,0.9436239004135132,,,,,,,,
,fast,0.9350278377532959,,,,,,,,
,"french fries",0.925790548324585,,,,,,,,
,cooking,0.9237184524536133,,,,,,,,
,homemade,0.923163115978241,,,,,,,,
,bacon,0.9159616827964783,,,,,,,,
,cuisine,0.9059269428253174,,,,,,,,
,ready,0.9052411317825317,,,,,,,,
,macaroni,0.9041329622268677,,,,,,,,
,basil,0.9021377563476562,,,,,,,,
,unhealthy,0.8946274518966675,,,,,,,,
https://scontent.cdninstagram.com/t51.2885-15/s480x480/e35/13381278_825388947593377_799586621_n.jpg,portrait,0.9932926297187805,"Fashion & Beauty","My life",,,"My look",Selfie,,
,adult,0.9924771189689636,,,,,,,,
,people,0.9920223355293274,,,,,,,,
,one,0.9888994097709656,,,,,,,,
,man,0.9774525165557861,,,,,,,,
,wear,0.9577427506446838,,,,,,,,
,indoors,0.9091097116470337,,,,,,,,
,outdoors,0.9080817699432373,,,,,,,,
,fashion,0.9076798558235168,,,,,,,,
,"facial expression",0.9071553945541382,,,,,,,,
,woman,0.9016033411026001,,,,,,,,
,model,0.8817039728164673,,,,,,,,
,urban,0.8641360998153687,,,,,,,,
,window,0.863274872303009,,,,,,,,
,music,0.8549972176551819,,,,,,,,
,pensive,0.8345481157302856,,,,,,,,
,city,0.8328731060028076,,,,,,,,
,business,0.8298405408859253,,,,,,,,
,reflection,0.829695463180542,,,,,,,,
,profile,0.8232705593109131,,,,,,,,
https://scontent.cdninstagram.com/t51.2885-15/e35/13423415_1732624810337530_637963136_n.jpg,coffee,0.9979390501976013,Food,,,,"Drinks and snack",,,
,cup,0.9978904128074646,,,,,,,,
,drink,0.995246410369873,,,,,,,,
,tea,0.9894825220108032,,,,,,,,
,"no person",0.988126277923584,,,,,,,,
,dawn,0.9878388047218323,,,,,,,,
,mug,0.9777145385742188,,,,,,,,
,hot,0.9755474328994751,,,,,,,,
,breakfast,0.9511337280273438,,,,,,,,
,espresso,0.9436815977096558,,,,,,,,
,caffeine,0.9348691701889038,,,,,,,,
,"coffee cup",0.9178431034088135,,,,,,,,
,ceramic,0.9109552502632141,,,,,,,,
,"still life",0.8904911279678345,,,,,,,,
,porcelain,0.8813012838363647,,,,,,,,
,container,0.8812941312789917,,,,,,,,
,table,0.8701825737953186,,,,,,,,
,empty,0.8685854077339172,,,,,,,,
,one,0.8618006110191345,,,,,,,,
,business,0.8611364364624023,,,,,,,,
https://scontent.cdninstagram.com/t51.2885-15/e35/13532088_316058532058612_803500530_n.jpg,people,0.989272952079773,"Fashion & Beauty","My life",,,"My look",Selfie,,
,portrait,0.9846556186676025,,,,,,,,
,man,0.9833505153656006,,,,,,,,
,adult,0.9826451539993286,,,,,,,,
,boy,0.9688928127288818,,,,,,,,
,indoors,0.9622052311897278,,,,,,,,
,one,0.9621458053588867,,,,,,,,
,wear,0.9191997051239014,,,,,,,,
,lifestyle,0.8561370968818665,,,,,,,,
,young,0.8521559238433838,,,,,,,,
,family,0.8461571931838989,,,,,,,,
,room,0.8352348804473877,,,,,,,,
,"facial expression",0.834973156452179,,,,,,,,
,person,0.8278207778930664,,,,,,,,
,technology,0.820379912853241,,,,,,,,
,guy,0.8201693892478943,,,,,,,,
,head,0.8173713684082031,,,,,,,,
,child,0.8010326623916626,,,,,,,,
,education,0.7993584871292114,,,,,,,,
,face,0.7896055579185486,,,,,,,,
https://scontent.cdninstagram.com/t51.2885-15/e35/13437199_195385697529242_185090712_n.jpg,eyeglasses,0.9981823563575745,"Fun Filter","My life",,,"Fun Filter",Selfie,,
,portrait,0.9947656393051147,,,,,,,,
,sunglasses,0.9925395250320435,,,,,,,,
,eyewear,0.9912149906158447,,,,,,,,
,people,0.985999584197998,,,,,,,,
,face,0.9810429811477661,,,,,,,,
,man,0.9761821031570435,,,,,,,,
,one,0.9721109867095947,,,,,,,,
,boy,0.9684100151062012,,,,,,,,
,fine-looking,0.9575225114822388,,,,,,,,
,fashion,0.9564051628112793,,,,,,,,
,young,0.9550792574882507,,,,,,,,
,adult,0.9417925477027893,,,,,,,,
,person,0.9409390687942505,,,,,,,,
,guy,0.9351102113723755,,,,,,,,
,modern,0.9133861064910889,,,,,,,,
,eye,0.8918404579162598,,,,,,,,
,serious,0.8883973360061646,,,,,,,,
,eccentric,0.8851883411407471,,,,,,,,
,desktop,0.8821119070053101,,,,,,,,
https://scontent.cdninstagram.com/t51.2885-15/e35/13388498_102633590163320_1051842579_n.jpg,portrait,0.9752101302146912,"Fun Filter","My life",,,"Fun Filter",Selfie,,
,woman,0.965253472328186,,,,,,,,
,people,0.9442850351333618,,,,,,,,
,adolescent,0.94163978099823,,,,,,,,
,cute,0.941571056842804,,,,,,,,
,fashion,0.9408277869224548,,,,,,,,
,indoors,0.9382456541061401,,,,,,,,
,young,0.9283953309059143,,,,,,,,
,relaxation,0.9229111671447754,,,,,,,,
,pretty,0.9187076687812805,,,,,,,,
,eye,0.9140185117721558,,,,,,,,
,child,0.9004666805267334,,,,,,,,
,serious,0.8993164300918579,,,,,,,,
,looking,0.8866750001907349,,,,,,,,
,skin,0.8654245138168335,,,,,,,,
,clean,0.8487321138381958,,,,,,,,
,enjoyment,0.837204098701477,,,,,,,,
,health,0.8297759294509888,,,,,,,,
,one,0.8246229887008667,,,,,,,,
,hair,0.8035455942153931,,,,,,,,
https://scontent.cdninstagram.com/t51.2885-15/e35/13525471_1737672606508215_306139173_n.jpg,food,0.9949936866760254,Commerce,Food,,,"Product/brand shots","Meal time",,
,dinner,0.993553638458252,,,,,,,,
,vegetable,0.9885762929916382,,,,,,,,
,lunch,0.982426106929779,,,,,,,,
,delicious,0.9755679368972778,,,,,,,,
,meal,0.9740293025970459,,,,,,,,
,cooking,0.9694459438323975,,,,,,,,
,plate,0.9536797404289246,,,,,,,,
,dish,0.9509626626968384,,,,,,,,
,nutrition,0.9453848600387573,,,,,,,,
,cuisine,0.939277172088623,,,,,,,,
,salad,0.9363940954208374,,,,,,,,
,lettuce,0.9358554482460022,,,,,,,,
,health,0.9329936504364014,,,,,,,,
,grow,0.929585874080658,,,,,,,,
,asparagus,0.9268308877944946,,,,,,,,
,"no person",0.9250136613845825,,,,,,,,
,restaurant,0.9146453142166138,,,,,,,,
,epicure,0.9121936559677124,,,,,,,,
,diet,0.9076421856880188,,,,,,,,
https://scontent.cdninstagram.com/t51.2885-15/e35/13534147_1250395231645663_1293072015_n.jpg,man,0.9948116540908813,"Fun Filter","My life",,,"Fun Filter",Selfie,,
,people,0.9902970790863037,,,,,,,,
,illustration,0.9814576506614685,,,,,,,,
,graffiti,0.9568594694137573,,,,,,,,
,art,0.9434982538223267,,,,,,,,
,portrait,0.9363527297973633,,,,,,,,
,blood,0.9352244138717651,,,,,,,,
,adult,0.9312278032302856,,,,,,,,
,offense,0.9249401092529297,,,,,,,,
,painting,0.9134815335273743,,,,,,,,
,war,0.8910651206970215,,,,,,,,
,religion,0.8838901519775391,,,,,,,,
,book,0.8712309002876282,,,,,,,,
,illegal,0.8622639179229736,,,,,,,,
,revolution,0.8556475639343262,,,,,,,,
,mural,0.8546972870826721,,,,,,,,
,culture,0.8303478360176086,,,,,,,,
,woman,0.825566828250885,,,,,,,,
,retro,0.8225411176681519,,,,,,,,
,face,0.8149563670158386,,,,,,,,
https://scontent.cdninstagram.com/t51.2885-15/e35/13395118_1186155521406709_1495321663_n.jpg,food,0.998762845993042,Food,,,,"Meal time",,,
,soup,0.9981279373168945,,,,,,,,
,dinner,0.9956854581832886,,,,,,,,
,meat,0.994799017906189,,,,,,,,
,hot,0.9923150539398193,,,,,,,,
,dish,0.9908374547958374,,,,,,,,
,cuisine,0.9904559850692749,,,,,,,,
,pork,0.9894838333129883,,,,,,,,
,meal,0.9888831377029419,,,,,,,,
,lunch,0.9879724979400635,,,,,,,,
,delicious,0.9850938320159912,,,,,,,,
,traditional,0.9830687642097473,,,,,,,,
,vegetable,0.9822845458984375,,,,,,,,
,bowl,0.9822715520858765,,,,,,,,
,broth,0.9819421768188477,,,,,,,,
,cooking,0.9796617031097412,,,,,,,,
,chicken,0.9705519080162048,,,,,,,,
,noodles,0.967795729637146,,,,,,,,
,restaurant,0.9659183025360107,,,,,,,,
,plate,0.9641200304031372,,,,,,,,
https://scontent.cdninstagram.com/t51.2885-15/e35/13395166_117022398724962_1491888283_n.jpg,business,0.9824929237365723,Commerce,Food,,,"Product/brand shots","Drinks and snack",,
,text,0.9604856967926025,,,,,,,,
,money,0.9119521379470825,,,,,,,,
,label,0.9117969274520874,,,,,,,,
,finance,0.9097392559051514,,,,,,,,
,paper,0.9053018093109131,,,,,,,,
,sign,0.9018111228942871,,,,,,,,
,aid,0.8860095739364624,,,,,,,,
,"give voice",0.8764410614967346,,,,,,,,
,success,0.8681260347366333,,,,,,,,
,service,0.8652515411376953,,,,,,,,
,conceptual,0.858721137046814,,,,,,,,
,financial,0.844612717628479,,,,,,,,
,solution,0.8382118940353394,,,,,,,,
,"no person",0.837688148021698,,,,,,,,
,desktop,0.8370201587677002,,,,,,,,
,symbol,0.8219244480133057,,,,,,,,
,commerce,0.8016270995140076,,,,,,,,
,support,0.7934643030166626,,,,,,,,
,internet,0.7813345193862915,,,,,,,,
https://scontent.cdninstagram.com/t51.2885-15/e35/13129884_1050973418318248_1304747042_n.jpg,portrait,0.9900679588317871,"Fashion & Beauty","My life",,,"My look",Selfie,,
,adult,0.9836279153823853,,,,,,,,
,people,0.9814838171005249,,,,,,,,
,man,0.9706364870071411,,,,,,,,
,young,0.958598792552948,,,,,,,,
,one,0.9410058259963989,,,,,,,,
,face,0.9361967444419861,,,,,,,,
,woman,0.917932391166687,,,,,,,,
,serious,0.9090183973312378,,,,,,,,
,person,0.9081878662109375,,,,,,,,
,hand,0.8855750560760498,,,,,,,,
,desktop,0.8848645687103271,,,,,,,,
,looking,0.8748469352722168,,,,,,,,
,fine-looking,0.8556101322174072,,,,,,,,
,head,0.8526719808578491,,,,,,,,
,hair,0.8296429514884949,,,,,,,,
,pain,0.8264889717102051,,,,,,,,
,beautiful,0.8225012421607971,,,,,,,,
,sadness,0.8221542835235596,,,,,,,,
,solo,0.8212950825691223,,,,,,,,
https://scontent.cdninstagram.com/t51.2885-15/s750x750/sh0.08/e35/13561796_153535881724031_1942826655_n.jpg,"no person",0.9933510422706604,Environment,"My life",,,"Natural beauty","My world today",,
,tree,0.9888020157814026,,,,,,,,
,nature,0.9811328649520874,,,,,,,,
,palm,0.9751620888710022,,,,,,,,
,leaf,0.9676103591918945,,,,,,,,
,tropical,0.9648382067680359,,,,,,,,
,outdoors,0.9495675563812256,,,,,,,,
,wood,0.9429076313972473,,,,,,,,
,summer,0.9331684708595276,,,,,,,,
,coconut,0.9287729263305664,,,,,,,,
,sun,0.9217514991760254,,,,,,,,
,"fair weather",0.9141840934753418,,,,,,,,
,sky,0.9079443216323853,,,,,,,,
,travel,0.8925342559814453,,,,,,,,
,exotic,0.891913652420044,,,,,,,,
,beach,0.8766393661499023,,,,,,,,
,landscape,0.8509252071380615,,,,,,,,
,bright,0.831007719039917,,,,,,,,
,flora,0.8148444890975952,,,,,,,,
,frond,0.8147944211959839,,,,,,,,
https://scontent.cdninstagram.com/t51.2885-15/e35/13402316_1083086998430142_181984706_n.jpg,ceramic,0.9978470802307129,Food,,,,"Drinks and snack",,,
,drink,0.9958176612854004,,,,,,,,
,"no person",0.9956346750259399,,,,,,,,
,cup,0.9942162036895752,,,,,,,,
,tea,0.9912887811660767,,,,,,,,
,porcelain,0.9855327606201172,,,,,,,,
,tableware,0.9847888946533203,,,,,,,,
,ceramic,0.9765880107879639,,,,,,,,
,"still life",0.9685739278793335,,,,,,,,
,container,0.9673497080802917,,,,,,,,
,coffee,0.9672157764434814,,,,,,,,
,hot,0.9589310884475708,,,,,,,,
,food,0.9551187753677368,,,,,,,,
,indoors,0.9492281675338745,,,,,,,,
,one,0.9449847340583801,,,,,,,,
,teacup,0.9407951235771179,,,,,,,,
,mug,0.9403746128082275,,,,,,,,
,dawn,0.9291599988937378,,,,,,,,
,breakfast,0.9229753613471985,,,,,,,,
,traditional,0.9152975082397461,,,,,,,,
