url,class,score
https://scontent-sit4-1.cdninstagram.com/t51.2885-15/s480x480/e35/12534445_1083253111705423_510873614_n.jpg,electronics,0.9947815537452698
,isolated,0.9934596419334412
,plastic,0.9912381768226624
,no person,0.9904862642288208
,portable,0.9870513081550598
,technology,0.9834476709365845
,computer,0.9692531824111938
,wireless,0.9619771242141724
,business,0.9533544778823853
,connection,0.9424782991409302
,equipment,0.9374923706054688
,security,0.9347330927848816
,machinery,0.9344021677970886
,contemporary,0.9337409734725952
,internet,0.9336771965026855
,data,0.8968130350112915
,modern,0.8792493343353271
,telephone,0.8629465103149414
,device,0.8609676957130432
,glazed,0.8564189672470093
https://scontent-sit4-1.cdninstagram.com/t51.2885-15/e15/11018515_1407478756229112_1796117246_n.jpg,telephone,0.9998894333839417
,cellular telephone,0.9996450543403625
,cellular,0.998833179473877
,screen,0.9986464977264404
,touch,0.9978219270706177
,smart,0.9965264797210693
,technology,0.9963213801383972
,portable,0.9959096908569336
,device,0.9952055215835571
,wireless,0.9946612119674683
,sms,0.9911105632781982
,telecommunication,0.9901096820831299
,pill,0.9848103523254395
,display,0.9841915965080261
,communication,0.9824016094207764
,multimedia,0.9814083576202393
,appliance,0.9808824062347412
,connection,0.9756025075912476
,internet,0.9737730026245117
,wireless local area network,0.9723862409591675
https://scontent-sit4-1.cdninstagram.com/t51.2885-15/s480x480/e35/12547662_1675316719419785_609404840_n.jpg,label,0.9869817495346069
,template,0.9865243434906006
,stripe,0.9829905033111572
,banner,0.9829392433166504
,page,0.9801549315452576
,navigation,0.9795054793357849
,World Wide Web,0.9781976938247681
,vector,0.9705469608306885
,form,0.9681541323661804
,menu,0.9658240079879761
,site,0.9652880430221558
,menu,0.9567420482635498
,vector,0.9444514513015747
,login,0.9425758123397827
,no person,0.9341486692428589
,illustration,0.9246997833251953
,text,0.9213218688964844
,layout,0.9092810153961182
,arrow,0.9085029363632202
,number,0.9071286916732788
https://scontent-sit4-1.cdninstagram.com/t51.2885-15/e15/11246523_951290861557987_486772252_n.jpg,illuminated,0.9647467136383057
,dark,0.9582727551460266
,technology,0.9498826265335083
,light,0.9497009515762329
,hot,0.9464478492736816
,heat,0.9453356266021729
,luminescence,0.9419877529144287
,light,0.9389211535453796
,desktop,0.9340940713882446
,space,0.9339672327041626
,bright,0.9292256832122803
,lamp,0.9282232522964478
,flame,0.9261540770530701
,sun,0.9146146774291992
,abstract,0.912947416305542
,illustration,0.8939287662506104
,design,0.8650355339050293
,symbol,0.8512754440307617
,danger,0.8382983207702637
,burnt,0.8247218132019043
https://scontent-sit4-1.cdninstagram.com/t51.2885-15/e15/11055748_806380446104908_451555214_n.jpg,cellular telephone,0.9610930681228638
,isolated,0.9581061601638794
,telephone,0.957314133644104
,illustration,0.9514409899711609
,no person,0.9506227970123291
,technology,0.9414704442024231
,symbol,0.9302027821540833
,glazed,0.9283019304275513
,business,0.9178820252418518
,design,0.9016906023025513
,desktop,0.8667227029800415
,modern,0.8514772653579712
,equipment,0.8471258878707886
,plastic,0.8310211896896362
,electronics,0.8209500312805176
,image,0.8182767629623413
,machinery,0.807345986366272
,internet,0.8042263984680176
,text,0.7895997762680054
,device,0.7805754542350769
https://scontent-sit4-1.cdninstagram.com/t51.2885-15/e15/10810089_752624121478674_17510043_n.jpg,woman,0.9955689311027527
,treatment,0.9922107458114624
,patient,0.9888402223587036
,medicine,0.988796591758728
,man,0.9865413308143616
,healthcare,0.9854419231414795
,care,0.9795447587966919
,people,0.9778733253479004
,indoors,0.9776690006256104
,adult,0.967321515083313
,health,0.9638338088989258
,doctor,0.9620638489723206
,massage,0.96152663230896
,hand,0.9392637014389038
,touch,0.9390068054199219
,teamwork,0.9350460767745972
,cooperation,0.9344106912612915
,aid,0.9342606663703918
,support,0.9236228466033936
,medical,0.9207490682601929
https://scontent-sit4-1.cdninstagram.com/t51.2885-15/e15/10986277_1536091239997864_714036343_n.jpg,text,0.9856435656547546
,vertical,0.9676114916801453
,give voice,0.9608714580535889
,people,0.9228094816207886
,illustration,0.9227460622787476
,no person,0.9128925204277039
,calligraphy,0.9127962589263916
,business,0.8964207172393799
,desktop,0.8918085098266602
,language,0.8786404132843018
,communication,0.8785539865493774
,medicine,0.8601526618003845
,adult,0.8424607515335083
,horizontal,0.8378840684890747
,education,0.8186744451522827
,symbol,0.8183066844940186
,conceptual,0.8177242279052734
,ink,0.8163371086120605
,disease,0.799695611000061
,health,0.7970758676528931
https://scontent-sit4-1.cdninstagram.com/t51.2885-15/e15/928739_726488454096092_1997399566_n.jpg,food,0.9975090026855469
,fruit,0.994985818862915
,delicious,0.9890029430389404
,no person,0.9851415157318115
,sweet,0.9841519594192505
,plate,0.9798833131790161
,grow,0.9766716957092285
,berry,0.9665987491607666
,strawberry,0.9577755928039551
,refreshment,0.9517526030540466
,epicure,0.9415686130523682
,nutrition,0.9337595701217651
,health,0.930424153804779
,breakfast,0.9257313013076782
,cake,0.9075371026992798
,cream,0.9048246145248413
,dairy product,0.9040729403495789
,healthy,0.9018256664276123
,tasty,0.8952043652534485
,sugar,0.8908188343048096
https://scontent-sit4-1.cdninstagram.com/t51.2885-15/e35/11906166_964048776972303_855757455_n.jpg,road,0.9840350151062012
,transportation system,0.9819462299346924
,city,0.9650702476501465
,traffic,0.964676022529602
,street,0.9626190662384033
,no person,0.9573761820793152
,vehicle,0.9541542530059814
,business,0.9527592658996582
,car,0.951008141040802
,building,0.9481452107429504
,travel,0.9378088712692261
,urban,0.930059015750885
,sky,0.9159195423126221
,industry,0.9105340838432312
,architecture,0.8976355195045471
,daylight,0.8942621946334839
,environment,0.893951416015625
,outdoors,0.8867767453193665
,truck,0.860039472579956
,auto racing,0.849525511264801
https://scontent-sit4-1.cdninstagram.com/t51.2885-15/e15/10299903_695180057205833_1135991040_n.jpg,cat,0.9992527961730957
,mammal,0.9928207397460938
,cute,0.9915133714675903
,portrait,0.9913026094436646
,animal,0.9890522360801697
,kitten,0.9840012788772583
,pet,0.9818331003189087
,eye,0.9793797135353088
,no person,0.9757771492004395
,fur,0.9708799123764038
,one,0.9611471891403198
,little,0.9584046602249146
,looking,0.958014726638794
,young,0.9571983814239502
,tabby,0.9543836116790771
,domestic,0.9529910683631897
,nature,0.9474555253982544
,sit,0.9467196464538574
,funny,0.9364725947380066
,hair,0.9330765008926392
https://scontent-sit4-1.cdninstagram.com/t51.2885-15/e15/10838583_1506896952917250_69993185_n.jpg,dashboard,0.9898338913917542
,temperature,0.9877333045005798
,indicator,0.9851038455963135
,illustration,0.9733657836914062
,number,0.9682246446609497
,control,0.9679999947547913
,thermometer,0.950263261795044
,Celsius,0.9476013779640198
,speedometer,0.9461301565170288
,gauge,0.9441231489181519
,desktop,0.9335570335388184
,round,0.9312244057655334
,no person,0.9193112850189209
,instrument,0.9184226393699646
,car,0.9103854894638062
,power,0.9077490568161011
,dial,0.9068599939346313
,limit,0.9008226990699768
,fast,0.8944997787475586
,symbol,0.8913361430168152
https://scontent-sit4-1.cdninstagram.com/t51.2885-15/e35/12224061_476645899174411_1905270073_n.jpg,technology,0.9598554372787476
,business,0.9299970865249634
,illustration,0.8988132476806641
,desktop,0.8954273462295532
,paper,0.8864365816116333
,card,0.8848453760147095
,sign,0.8768105506896973
,symbol,0.8676744699478149
,display,0.8668020963668823
,communication,0.8666566014289856
,internet,0.8654543161392212
,money,0.8647300004959106
,equipment,0.8619466423988342
,computer,0.8589928150177002
,sale,0.8383975028991699
,World Wide Web,0.838158130645752
,image,0.8346027135848999
,telephone,0.8332746028900146
,online,0.8331879377365112
,commerce,0.8278021812438965
https://scontent-sit4-1.cdninstagram.com/t51.2885-15/e15/11419282_898719240186419_181530717_n.jpg,vehicle,0.9969417452812195
,wheel,0.9893993139266968
,car,0.9893693923950195
,rubberize,0.98103928565979
,transportation system,0.9767511487007141
,tire,0.9501912593841553
,no person,0.9376296997070312
,one,0.9177896976470947
,rim,0.9094562530517578
,technology,0.909098744392395
,drive,0.9062838554382324
,indoors,0.9037673473358154
,front,0.8794373273849487
,accident,0.8661326169967651
,travel,0.8581188917160034
,truck,0.8541354537010193
,people,0.8490549325942993
,modality,0.837629497051239
,automotive,0.835302472114563
,power,0.8226948976516724
https://scontent-sit4-1.cdninstagram.com/t51.2885-15/e35/11313604_1670611303184741_739992523_n.jpg,landscape,0.9897146224975586
,water,0.9765362739562988
,travel,0.9634538888931274
,sea,0.9606988430023193
,sky,0.959441065788269
,tree,0.9593231678009033
,beach,0.9555532932281494
,seashore,0.9524072408676147
,nature,0.9504562616348267
,lake,0.945984959602356
,road,0.945671796798706
,ocean,0.9372864961624146
,no person,0.9370623826980591
,transportation system,0.933535099029541
,summer,0.929253101348877
,outdoors,0.9246610999107361
,wood,0.9118350744247437
,recreation,0.9106286764144897
,vehicle,0.9038946032524109
,mountain,0.9038705825805664
https://scontent-sit4-1.cdninstagram.com/t51.2885-15/e35/12728649_554484734714814_1535198856_n.jpg,no person,0.9899890422821045
,internet,0.9886361360549927
,technology,0.9834482669830322
,telephone,0.9818168878555298
,touch,0.9768164157867432
,electronics,0.9742857813835144
,business,0.9732470512390137
,spherical,0.9673975706100464
,machinery,0.9528563618659973
,connection,0.9504290819168091
,contemporary,0.9502212405204773
,wireless,0.9395153522491455
,portable,0.929877519607544
,appliance,0.9273326396942139
,sign,0.9213815331459045
,isolated,0.9141378998756409
,communication,0.9140893220901489
,equipment,0.8957884907722473
,computer,0.8947076797485352
,data,0.8945330381393433
https://scontent-sit4-1.cdninstagram.com/t51.2885-15/e15/10809926_777195075661567_866260282_n.jpg,food,0.9936877489089966
,no person,0.9853407144546509
,delicious,0.9759917259216309
,plate,0.9668812155723572
,breakfast,0.9606590270996094
,sweet,0.9604742527008057
,strawberry,0.9532414674758911
,cream,0.9471996426582336
,dinner,0.9453168511390686
,meal,0.93973708152771
,lunch,0.9375185966491699
,fruit,0.9353960752487183
,refreshment,0.9327869415283203
,dish,0.9324837923049927
,nutrition,0.9287551641464233
,leaf,0.9218555688858032
,cooking,0.9202092289924622
,cheese,0.9182637929916382
,sugar,0.9179457426071167
,restaurant,0.912358283996582
https://scontent-sit4-1.cdninstagram.com/t51.2885-15/e15/10299764_1395045984112200_2081811721_n.jpg,illustration,0.967904806137085
,luck,0.917380690574646
,design,0.8962787389755249
,vector,0.8955943584442139
,fun,0.8927682042121887
,graphic,0.8893533945083618
,technology,0.8890853524208069
,desktop,0.8857424259185791
,isolated,0.8777633309364319
,symbol,0.8756020069122314
,image,0.862199068069458
,play,0.8477983474731445
,lucky,0.8422765731811523
,business,0.8396049737930298
,card,0.8388246297836304
,sketch,0.8263206481933594
,celebration,0.8141505718231201
,paper,0.7995470762252808
,child,0.7978436946868896
,internet,0.7788166999816895
https://scontent-sit4-1.cdninstagram.com/t51.2885-15/e15/11242402_881694688543311_1907459973_n.jpg,food,0.994901180267334
,dinner,0.9900925159454346
,lunch,0.9865965843200684
,delicious,0.9853147268295288
,meal,0.9709790349006653
,lettuce,0.9678891897201538
,meat,0.966071367263794
,no person,0.9610912799835205
,vegetable,0.9598720073699951
,tomato,0.9547940492630005
,cooking,0.9516050815582275
,epicure,0.940161943435669
,nutrition,0.9341380596160889
,bread,0.9336495995521545
,cuisine,0.929250955581665
,tasty,0.9172845482826233
,traditional,0.9119924306869507
,restaurant,0.9117839336395264
,salad,0.9036405086517334
,hot,0.9026815891265869
https://scontent-sit4-1.cdninstagram.com/t51.2885-15/e15/10838364_1589076267983012_1435496478_n.jpg,display,0.9918112754821777
,screen,0.9916843175888062
,technology,0.9902530312538147
,telephone,0.9874757528305054
,business,0.9843997955322266
,electronics,0.9789695739746094
,number,0.9706770181655884
,cellular telephone,0.9619196057319641
,plastic,0.955048680305481
,keyboard,0.9541184306144714
,no person,0.9519258141517639
,wireless,0.9493494033813477
,device,0.9482875466346741
,talk,0.9459259510040283
,connection,0.9434584975242615
,office,0.9295318126678467
,calculator,0.9212781190872192
,modern,0.9153671264648438
,telecommunication,0.9054278135299683
,equipment,0.9026838541030884
https://scontent-sit4-1.cdninstagram.com/t51.2885-15/e35/11326174_1601203330120942_1488912257_n.jpg,no person,0.9960377216339111
,bottle,0.9897951483726501
,medicine,0.9895233511924744
,treatment,0.9786052703857422
,healthcare,0.9743556976318359
,health,0.9734491109848022
,cure,0.9557541012763977
,container,0.954683244228363
,glass,0.9522969722747803
,merchandise,0.9307822585105896
,two,0.9292353987693787
,aromatherapy,0.9143270254135132
,care,0.8992238640785217
,perfume,0.8837395906448364
,drink,0.8711085319519043
,soap,0.8694514036178589
,relaxation,0.8682647943496704
,homeopathy,0.8673356771469116
,luxury,0.8565943241119385
,still life,0.8492954969406128
https://scontent-sit4-1.cdninstagram.com/t51.2885-15/e35/13712096_292690641121762_511204201_n.jpg,medicine,0.9727126359939575
,health,0.9554715156555176
,healthcare,0.9484444856643677
,bottle,0.9315310716629028
,no person,0.9165116548538208
,treatment,0.8644306659698486
,medical,0.8198999166488647
,cure,0.8080201745033264
,text,0.7917804718017578
,illness,0.7863907814025879
,number,0.783159613609314
,research,0.7799620032310486
,illustration,0.7308721542358398
,science,0.7261976599693298
,liquid,0.7236316800117493
,influenza,0.6988469362258911
,care,0.6982628107070923
,sign,0.6806950569152832
,glass,0.6772860288619995
,label,0.6750550270080566
https://scontent-sit4-1.cdninstagram.com/t51.2885-15/e15/10809888_695831443871699_1916544344_n.jpg,candle,0.9958161115646362
,child,0.9670764207839966
,people,0.9610069990158081
,flame,0.9596742391586304
,man,0.9434125423431396
,celebration,0.916985273361206
,religion,0.9153046607971191
,wax,0.9025299549102783
,woman,0.8892332315444946
,family,0.8775334358215332
,candlelight,0.8543407917022705
,boy,0.8524273037910461
,sit,0.8337962627410889
,traditional,0.833369255065918
,indoors,0.8295490741729736
,love,0.825055718421936
,happiness,0.8227210640907288
,table,0.8216309547424316
,education,0.8180243968963623
,adult,0.8138681650161743
https://scontent-sit4-1.cdninstagram.com/t51.2885-15/e15/11007848_406341852872881_866908884_n.jpg,text,0.9818590879440308
,paper,0.9606763124465942
,communication,0.9598867297172546
,business,0.9452357292175293
,illustration,0.9105010032653809
,horizontal,0.9089127779006958
,card,0.9047173261642456
,old,0.872637152671814
,internet,0.8644618988037109
,page,0.8567488193511963
,document,0.8509249687194824
,box,0.8281478881835938
,paper,0.8256429433822632
,letter,0.8250004649162292
,symbol,0.8243911862373352
,sign,0.8223370313644409
,bill,0.8206813335418701
,snap,0.8156676888465881
,service,0.8144899606704712
,sign,0.8040390014648438
https://scontent-sit4-1.cdninstagram.com/t51.2885-15/e35/11258381_1057028294329658_148683472_n.jpg,dog,0.9987309575080872
,mammal,0.9862352609634399
,no person,0.9845929145812988
,one,0.9838608503341675
,canine,0.9830126762390137
,portrait,0.9737664461135864
,pet,0.9588440656661987
,animal,0.939958930015564
,cute,0.9260783195495605
,street,0.9137990474700928
,outdoors,0.9116826057434082
,people,0.904346764087677
,loyalty,0.9042545557022095
,obedience,0.8868167400360107
,two,0.8859327435493469
,obedience,0.8847974538803101
,puppy,0.8703281879425049
,sit,0.8608760833740234
,funny,0.8471315503120422
,looking,0.8321872353553772
https://scontent-sit4-1.cdninstagram.com/t51.2885-15/e15/10520384_379247975584307_985626923_n.jpg,food,0.9956305027008057
,soup,0.9952530860900879
,bowl,0.9899994730949402
,dinner,0.9892122149467468
,vegetable,0.9792973399162292
,dish,0.9784423112869263
,lunch,0.9779374599456787
,cuisine,0.973418116569519
,cooking,0.9713536500930786
,hot,0.970967173576355
,no person,0.9702028036117554
,traditional,0.9694377183914185
,delicious,0.9638323187828064
,meal,0.9571135640144348
,meat,0.9551708698272705
,homemade,0.9257340431213379
,appetizer,0.9245103001594543
,grow,0.9197972416877747
,plate,0.9188493490219116
,curry,0.9179527759552002
https://scontent-sit4-1.cdninstagram.com/t51.2885-15/e35/12751042_958877204203990_1037675582_n.jpg,food,0.9933940172195435
,dinner,0.9814972877502441
,dish,0.9798189401626587
,vegetable,0.979509174823761
,lunch,0.9788298010826111
,meal,0.9734423756599426
,soup,0.9719171524047852
,delicious,0.970115065574646
,cuisine,0.969916820526123
,plate,0.9668391942977905
,rice,0.9576987028121948
,bowl,0.9502509832382202
,meat,0.9435877799987793
,cooking,0.9392871856689453
,chicken,0.938340425491333
,healthy,0.9285534024238586
,epicure,0.9209176301956177
,noodles,0.9175851941108704
,pork,0.9127672910690308
,nutrition,0.9095215797424316
https://scontent-sit4-1.cdninstagram.com/t51.2885-15/e15/11085185_787295681360660_1196653095_n.jpg,uniform,0.997718095779419
,military,0.9883817434310913
,people,0.987217903137207
,championship,0.9817920327186584
,competition,0.9796104431152344
,auto racing,0.9780746102333069
,army,0.9697893857955933
,ceremony,0.9681341648101807
,track,0.9680814146995544
,adult,0.9634628295898438
,navy,0.9563391208648682
,leader,0.9555922746658325
,police,0.954606294631958
,outfit,0.9513667821884155
,parade,0.9495524168014526
,wear,0.9478761553764343
,royalty,0.9397134780883789
,race,0.9316266775131226
,race,0.9304308295249939
,many,0.9268454313278198
https://scontent-sit4-1.cdninstagram.com/t51.2885-15/e15/10725099_610829155692872_1339775769_n.jpg,performance,0.9993747472763062
,concert,0.9993102550506592
,stage,0.9985552430152893
,auditorium,0.9970647692680359
,theater,0.9967197179794312
,music,0.9966342449188232
,theater,0.9955593347549438
,audience,0.9920819997787476
,musician,0.9847071170806885
,opera,0.9830812215805054
,festival,0.9826339483261108
,singer,0.9762245416641235
,movie,0.9634963274002075
,ceremony,0.9631844758987427
,people,0.9524098634719849
,light,0.9350059032440186
,seat,0.9341456890106201
,league,0.9236845970153809
,spotlight,0.9195263385772705
,venue,0.9152743816375732
https://scontent-sit4-1.cdninstagram.com/t51.2885-15/e35/12331478_984985094894307_361250977_n.jpg,technology,0.9872076511383057
,screen,0.9696167707443237
,computer,0.9602168202400208
,display,0.9365078210830688
,indoors,0.9245680570602417
,business,0.9227604866027832
,no person,0.9188041687011719
,science,0.9084819555282593
,internet,0.9025734663009644
,education,0.8970835208892822
,text,0.8786952495574951
,people,0.8665862083435059
,offense,0.8639740943908691
,light,0.8623342514038086
,monitor,0.862109899520874
,data,0.8257977962493896
,television,0.8173736929893494
,connection,0.8148168921470642
,illuminated,0.7580026984214783
,industry,0.747423529624939
https://scontent-sit4-1.cdninstagram.com/t51.2885-15/e15/11111429_1573073682981355_566797931_n.jpg,illustration,0.9553062915802002
,paper,0.9198771715164185
,scissors,0.9128268957138062
,equipment,0.8964351415634155
,no person,0.8674815893173218
,set,0.8333687782287598
,business,0.8157657980918884
,design,0.7871686220169067
,card,0.7848547101020813
,vector,0.7723332643508911
,wealth,0.772216796875
,desktop,0.7715747952461243
,still life,0.7538841366767883
,symbol,0.7495034337043762
,spoon,0.7484878301620483
,collection,0.7420987486839294
,family,0.7301950454711914
,horizontal,0.7276734113693237
,vector,0.726769745349884
,vertical,0.7177374362945557
https://scontent-sit4-1.cdninstagram.com/t51.2885-15/e15/10817525_1752282821662822_1103223391_n.jpg,no person,0.9976147413253784
,delicious,0.9913724064826965
,sugar,0.9850140810012817
,custard,0.9846503138542175
,sweet,0.9715149402618408
,cream,0.969517707824707
,baking,0.9627233743667603
,homemade,0.9618108868598938
,pudding,0.9547967910766602
,food,0.9463353753089905
,fruit,0.9439086318016052
,breakfast,0.9415719509124756
,creamy,0.937231719493866
,candy,0.9334075450897217
,indulgence,0.9325721263885498
,jam,0.9249281883239746
,chocolate,0.9226468205451965
,cake,0.9152103662490845
,berry,0.902226448059082
,mousse,0.8925409317016602
https://scontent-sit4-1.cdninstagram.com/t51.2885-15/e15/11056034_459214944228979_1434744418_n.jpg,people,0.9962295293807983
,umbrella,0.9877305030822754
,vehicle,0.984114408493042
,many,0.9817498922348022
,crowd,0.9720779657363892
,rain,0.9674346446990967
,group,0.9642124176025391
,transportation system,0.9628298878669739
,street,0.9593148231506348
,road,0.9592232704162598
,festival,0.9492154121398926
,parade,0.9439415335655212
,weather,0.9371515512466431
,city,0.926024317741394
,group,0.9253151416778564
,rally,0.9243932962417603
,man,0.9226890802383423
,competition,0.916698694229126
,action,0.9134016036987305
,police,0.8825942873954773
https://scontent-sit4-1.cdninstagram.com/t51.2885-15/e15/10817973_737501516342669_737400194_n.jpg,Christmas,0.9990124702453613
,winter,0.9957720041275024
,christmas tree,0.9841864109039307
,celebration,0.9802689552307129
,no person,0.9726860523223877
,decoration,0.9560385942459106
,festival,0.953445315361023
,tree,0.9515703916549683
,light,0.9490958452224731
,neon,0.9288760423660278
,modern,0.9238592386245728
,design,0.921928882598877
,hotel,0.8876136541366577
,merry,0.8833258152008057
,art,0.8812096118927002
,theme,0.8805292844772339
,gambling,0.8734323382377625
,fun,0.8708343505859375
,vacation,0.8683196306228638
,pine,0.8611693978309631
https://scontent-sit4-1.cdninstagram.com/t51.2885-15/e15/10354557_232134600309757_1135283396_n.jpg,palm,0.997941255569458
,hotel,0.9940298795700073
,resort,0.9921609163284302
,tree,0.9908066391944885
,luxury,0.990320086479187
,no person,0.9896528720855713
,vacation,0.9877051711082458
,travel,0.9873775243759155
,beach,0.9810007810592651
,tropical,0.979931116104126
,architecture,0.9683749079704285
,seashore,0.9653506278991699
,island,0.9560115337371826
,ocean,0.9531862735748291
,leisure,0.9387888312339783
,outdoors,0.9368624091148376
,house,0.9294087886810303
,sky,0.9255278706550598
,villa,0.9212231636047363
,tourism,0.9134237766265869
https://scontent-sit4-1.cdninstagram.com/t51.2885-15/e35/11249786_127445744284675_40087819_n.jpg,festival,0.9914973974227905
,evening,0.9839649200439453
,light,0.9824144840240479
,casino,0.9738832712173462
,exhilaration,0.9710663557052612
,neon,0.9647420644760132
,illuminated,0.962365448474884
,gambling,0.9546816349029541
,hotel,0.9528826475143433
,travel,0.9507369995117188
,building,0.9439429640769958
,nightlife,0.942823052406311
,city,0.9422496557235718
,celebration,0.9401580095291138
,road,0.9343438148498535
,fun,0.9254892468452454
,motion,0.9249866008758545
,urban,0.9204890131950378
,music,0.9073960781097412
,tourism,0.8919291496276855
https://scontent-sit4-1.cdninstagram.com/t51.2885-15/e35/12356469_1535870806735242_1797016008_n.jpg,food,0.9834945201873779
,no person,0.969752311706543
,desktop,0.9244507551193237
,cooking,0.9178909063339233
,meal,0.9113998413085938
,delicious,0.9069622755050659
,dinner,0.9064168930053711
,lunch,0.8897854089736938
,nutrition,0.8890670537948608
,text,0.8786898851394653
,vegetable,0.8674294948577881
,traditional,0.8597042560577393
,display,0.8558703660964966
,healthy,0.8472517132759094
,restaurant,0.8449075222015381
,wood,0.84136962890625
,leaf,0.8387272953987122
,health,0.8380969762802124
,ingredients,0.8325997591018677
,chicken,0.8205050230026245
https://scontent-sit4-1.cdninstagram.com/t51.2885-15/e35/10488727_471331066383553_730797572_n.jpg,dog,0.9947084188461304
,cute,0.983426570892334
,little,0.9783291816711426
,canine,0.9740625023841858
,mammal,0.9617016315460205
,pet,0.9591262340545654
,no person,0.9580451846122742
,sit,0.9578693509101868
,domestic,0.9457685947418213
,indoors,0.9425899982452393
,puppy,0.9367607831954956
,Christmas,0.9174533486366272
,fur,0.9161670207977295
,funny,0.9069979190826416
,downy,0.8966851830482483
,animal,0.8902938365936279
,people,0.8843147158622742
,portrait,0.8695871829986572
,one,0.8612238764762878
,fun,0.8546984195709229
https://scontent-sit4-1.cdninstagram.com/t51.2885-15/e35/13108615_133430370403644_1386879853_n.jpg,lettuce,0.9955816268920898
,lunch,0.9930084943771362
,food,0.9918712377548218
,tomato,0.9840643405914307
,no person,0.9834569692611694
,dinner,0.9831076860427856
,meat,0.9751288890838623
,meal,0.9745032787322998
,delicious,0.9733802080154419
,nutrition,0.9715191125869751
,bread,0.9604963064193726
,refreshment,0.9576281905174255
,beef,0.9530773758888245
,sandwich,0.9476995468139648
,vegetable,0.9408146739006042
,salad,0.9349640607833862
,tasty,0.9324291944503784
,cheese,0.9224578142166138
,cuisine,0.9116379022598267
,diet,0.9100885391235352
https://scontent-sit4-1.cdninstagram.com/t51.2885-15/e35/12826037_998913143529776_2126662230_n.jpg,people,0.9960274696350098
,military,0.9745014905929565
,weapon,0.9705631732940674
,man,0.9701269268989563
,adult,0.9675898551940918
,group,0.9664099812507629
,one,0.9595975875854492
,war,0.9574617147445679
,outfit,0.9528111219406128
,group,0.9485654830932617
,uniform,0.9432781934738159
,wear,0.9353389739990234
,armor,0.9275833368301392
,two,0.9236565232276917
,many,0.9132587313652039
,helmet,0.8986624479293823
,soldier,0.8986501693725586
,combat,0.8892538547515869
,robot,0.8782777190208435
,music,0.8632904291152954
https://scontent-sit4-1.cdninstagram.com/t51.2885-15/e35/12237217_910162062366022_1295464032_n.jpg,Christmas,0.9904036521911621
,no person,0.9858958721160889
,winter,0.9814504384994507
,decoration,0.9763972759246826
,interior design,0.9751763939857483
,celebration,0.9684162139892578
,glass,0.9479280710220337
,shining,0.9188696146011353
,indoors,0.9066152572631836
,bright,0.9021562337875366
,thread,0.8967897891998291
,luxury,0.8923380374908447
,light,0.8808258771896362
,christmas tree,0.8704574108123779
,hanging,0.8655965328216553
,sparkling,0.8644528985023499
,vacation,0.8529175519943237
,glisten,0.8452772498130798
,ornate,0.842710018157959
,ball,0.8424192070960999
https://scontent-sit4-1.cdninstagram.com/t51.2885-15/e15/11055817_766283790152805_1338648679_n.jpg,people,0.9930045008659363
,group,0.9775077104568481
,light,0.9516531229019165
,adult,0.9497872591018677
,city,0.9463504552841187
,travel,0.9459748268127441
,indoors,0.9450126886367798
,architecture,0.9402711391448975
,support,0.927012026309967
,no person,0.9222773313522339
,man,0.9139840006828308
,building,0.9052861332893372
,one,0.8720747232437134
,administration,0.8685823678970337
,many,0.8624117374420166
,museum,0.842280387878418
,ceremony,0.8366043567657471
,group,0.8333224058151245
,transportation system,0.8293076753616333
,vehicle,0.8282203674316406
https://scontent-sit4-1.cdninstagram.com/t51.2885-15/e35/12298803_738063939658061_1264698781_n.jpg,architecture,0.9832557439804077
,travel,0.9800732135772705
,illuminated,0.9790666103363037
,no person,0.9759535193443298
,city,0.9756898880004883
,dusk,0.9617801904678345
,building,0.953957200050354
,business,0.9512509703636169
,evening,0.9449143409729004
,downtown,0.9322958588600159
,modern,0.9270451068878174
,light,0.9179513454437256
,water,0.903836190700531
,traffic,0.9019825458526611
,bridge,0.8982640504837036
,hotel,0.8880312442779541
,road,0.8803099989891052
,urban,0.8801960945129395
,reflection,0.8785020709037781
,outdoors,0.8758045434951782
https://scontent-sit4-1.cdninstagram.com/t51.2885-15/e35/10952963_793722477406543_1040393048_n.jpg,Christmas,0.9998248815536499
,winter,0.99920654296875
,celebration,0.9970163106918335
,ball,0.9937223196029663
,decoration,0.9926305413246155
,no person,0.9850936532020569
,shining,0.9826026558876038
,advent,0.9762423038482666
,sphere,0.96647047996521
,bangle,0.9655551314353943
,season,0.9554933309555054
,tinsel,0.9504548907279968
,merry,0.9479495286941528
,traditional,0.9464226365089417
,candle,0.9386345148086548
,thread,0.9363809823989868
,bow,0.9310500621795654
,New Year,0.9309215545654297
,tree,0.9297987222671509
,vacation,0.9278939962387085
https://scontent-sit4-1.cdninstagram.com/t51.2885-15/e35/11427382_1514681088858358_142522932_n.jpg,Christmas,0.9999883770942688
,winter,0.9998825788497925
,ball,0.9997066259384155
,celebration,0.9996109008789062
,decoration,0.9994679689407349
,merry,0.9991229176521301
,bangle,0.998785138130188
,sphere,0.9987620711326599
,thread,0.9986943006515503
,pine,0.9981487989425659
,shining,0.9980796575546265
,bow,0.9967193603515625
,gold,0.9961526393890381
,hanging,0.9946392774581909
,fir,0.9946316480636597
,tree,0.9903815388679504
,tinsel,0.9890167713165283
,glisten,0.9866508841514587
,gift,0.9865482449531555
,season,0.9855445623397827
https://scontent-sit4-1.cdninstagram.com/t51.2885-15/e35/916349_731077733692908_2138396611_n.jpg,woman,0.9862300157546997
,people,0.9852905869483948
,wear,0.9775229096412659
,adult,0.9658360481262207
,group,0.9606744050979614
,fashion,0.9511094689369202
,portrait,0.9410405158996582
,veil,0.9277439117431641
,costume,0.9150223731994629
,man,0.8994193077087402
,two,0.8638277053833008
,girl,0.8593789339065552
,outfit,0.8561517000198364
,dress,0.8467761278152466
,art,0.8460474014282227
,model,0.8458648920059204
,monochrome,0.8336879014968872
,music,0.8275858163833618
,child,0.8192603588104248
,retro,0.8051005601882935
https://scontent-sit4-1.cdninstagram.com/t51.2885-15/e35/12105165_502270529947784_137031570_n.jpg,dog,0.9791454076766968
,water,0.9557504653930664
,no person,0.9483810663223267
,beach,0.9437031745910645
,people,0.9424034357070923
,outdoors,0.926342248916626
,sea,0.9200412631034851
,landscape,0.9116911292076111
,travel,0.9116763472557068
,lake,0.8832540512084961
,one,0.8819851279258728
,street,0.8700562715530396
,summer,0.8651536703109741
,pier,0.8623310327529907
,city,0.8616353273391724
,race,0.8524978160858154
,woman,0.8401203155517578
,competition,0.835448682308197
,portrait,0.8320260643959045
,ocean,0.8247023224830627
https://scontent-sit4-1.cdninstagram.com/t51.2885-15/e35/12543179_209417689405524_598775273_n.jpg,no person,0.9948697090148926
,modern,0.9936409592628479
,travel,0.991239070892334
,architecture,0.9911572933197021
,hotel,0.9911532402038574
,water,0.9891825914382935
,city,0.974814772605896
,contemporary,0.9732003808021545
,business,0.9723195433616638
,outdoors,0.9708279371261597
,light,0.9704656600952148
,illuminated,0.9693427085876465
,evening,0.9664251804351807
,dusk,0.9586870670318604
,building,0.9525688886642456
,sky,0.9491671323776245
,casino,0.9445698261260986
,luxury,0.937447190284729
,transportation system,0.9355254173278809
,downtown,0.9267737865447998
https://scontent-sit4-1.cdninstagram.com/t51.2885-15/e35/12132729_1490543447942656_1655981114_n.jpg,no person,0.9981220364570618
,tree,0.9966623783111572
,Christmas,0.993168830871582
,dog,0.9872763156890869
,mammal,0.9776723384857178
,flower,0.9745827913284302
,outdoors,0.9678851366043091
,canine,0.9657046794891357
,miniature,0.9595986008644104
,two,0.9578738212585449
,one,0.9543636441230774
,winter,0.9456713199615479
,christmas tree,0.9438865184783936
,interior design,0.9310733079910278
,decoration,0.9304255247116089
,celebration,0.9125927686691284
,garden,0.8980981111526489
,nature,0.8812977075576782
,sit,0.8749638795852661
,little,0.856635570526123
