url,class,score
https://scontent-sit4-1.cdninstagram.com/t51.2885-15/s640x640/sh0.08/e35/13584052_291721794514715_1814910693_n.jpg,people,0.9790743589401245
,one,0.9755579233169556
,adult,0.9637786746025085
,portrait,0.9634732604026794
,indoors,0.9298242330551147
,wear,0.9080290198326111
,man,0.8997950553894043
,education,0.8939046859741211
,dark,0.8823197484016418
,intelligence,0.8762472867965698
,head,0.8762404918670654
,school,0.8355971574783325
,facial expression,0.8325099945068359
,child,0.8301589488983154
,face,0.8233334422111511
,boy,0.8159129619598389
,profile,0.8141263723373413
,woman,0.8073883056640625
,desktop,0.7878667116165161
,person,0.7632154822349548
https://scontent-sit4-1.cdninstagram.com/t51.2885-15/e35/13557026_1608981882764680_549670550_n.jpg,no person,0.9904305934906006
,architecture,0.9848370552062988
,sky,0.9828915596008301
,travel,0.9757633209228516
,water,0.9744787216186523
,daylight,0.9684429168701172
,building,0.9677664041519165
,outdoors,0.9650275707244873
,city,0.9481208324432373
,sea,0.9330368638038635
,modern,0.9326597452163696
,landscape,0.8900657892227173
,industry,0.8834495544433594
,hotel,0.8806813359260559
,seashore,0.8658195734024048
,ocean,0.8523520827293396
,pollution,0.8489736318588257
,museum,0.8322060704231262
,technology,0.8302446007728577
,environment,0.8278539180755615
https://scontent-sit4-1.cdninstagram.com/t51.2885-15/e35/13534515_242542482796658_1740157862_n.jpg,people,0.9945645332336426
,woman,0.9939165711402893
,portrait,0.9888151288032532
,man,0.9880636930465698
,facial expression,0.9880077838897705
,adult,0.9874814748764038
,indoors,0.9817689657211304
,two,0.9787275791168213
,interaction,0.9729352593421936
,togetherness,0.9650262594223022
,happiness,0.9571956396102905
,wear,0.9502758383750916
,three,0.9342786073684692
,group,0.9336578249931335
,cooperation,0.9298995733261108
,business,0.9252375960350037
,girl,0.9237415790557861
,teamwork,0.9205490350723267
,confidence,0.9165164232254028
,friendship,0.9149254560470581
https://scontent-sit4-1.cdninstagram.com/t51.2885-15/e35/13395121_1643774995945525_18350144_n.jpg,people,0.9881713390350342
,recreation,0.9805463552474976
,portrait,0.9785963296890259
,man,0.9684991836547852
,two,0.9655165672302246
,facial expression,0.958407461643219
,red carpet,0.9529279470443726
,wear,0.9480671882629395
,movie,0.947940468788147
,actress,0.9355888366699219
,adult,0.9318399429321289
,music,0.9187042117118835
,musician,0.9083735942840576
,festival,0.9067481756210327
,woman,0.8776252269744873
,actor,0.8665487766265869
,singer,0.8570178747177124
,eyeglasses,0.8365073800086975
,competition,0.8311989903450012
,ceremony,0.8192155361175537
https://scontent-sit4-1.cdninstagram.com/t51.2885-15/e35/13774875_1008113772636386_1481419461_n.jpg,woman,0.9448717832565308
,people,0.8915506601333618
,young,0.860417366027832
,person,0.8562394976615906
,beautiful,0.8548835515975952
,girl,0.8314340114593506
,family,0.7920582294464111
,cute,0.7908519506454468
,pretty,0.7877845764160156
,health,0.787607729434967
,adult,0.7716823816299438
,desktop,0.76092529296875
,lifestyle,0.7592906951904297
,indoors,0.7496325969696045
,attractive,0.7483409643173218
,fashion,0.7387555837631226
,love,0.7327471971511841
,smile,0.7217035293579102
,elegant,0.7212270498275757
,business,0.7193412780761719
https://scontent-sit4-1.cdninstagram.com/t51.2885-15/e35/13741368_917317938413804_1066959241_n.jpg,administration,0.9859824180603027
,leader,0.9854568243026733
,politician,0.9745862483978271
,group,0.9677947759628296
,people,0.964466392993927
,business,0.9569783210754395
,ceremony,0.9404815435409546
,home,0.9395806789398193
,election,0.9373695850372314
,portrait,0.9337755441665649
,wear,0.9336267709732056
,chair,0.9170231819152832
,outfit,0.9158088564872742
,meeting,0.9087112545967102
,award,0.8949740529060364
,adult,0.88648521900177
,room,0.8863280415534973
,International,0.8632049560546875
,recreation,0.8624178767204285
,facial expression,0.8584380149841309
https://scontent-sit4-1.cdninstagram.com/t51.2885-15/e35/13597658_252905068435172_1849221026_n.jpg,adult,0.9865009784698486
,people,0.9858126044273376
,woman,0.9427071809768677
,illustration,0.9419101476669312
,business,0.9364632368087769
,man,0.9217252135276794
,music,0.9170769453048706
,portrait,0.9112973213195801
,indoors,0.9101818799972534
,chair,0.8994674682617188
,musician,0.8964686393737793
,facial expression,0.8892815709114075
,wear,0.8830208778381348
,bill,0.8651654720306396
,competition,0.8517366647720337
,technology,0.8415578603744507
,movie,0.8276358842849731
,room,0.8256043791770935
,performance,0.8222193717956543
,sitting,0.818464994430542
https://scontent-sit4-1.cdninstagram.com/t51.2885-15/e35/13398592_1216520515059819_1459058934_n.jpg,education,0.9843106865882874
,eyeglasses,0.9706746339797974
,people,0.970073938369751
,portrait,0.9583697319030762
,school,0.9539461135864258
,finance,0.9527353048324585
,election,0.9513143301010132
,business,0.9280195236206055
,indoors,0.9225554466247559
,eyewear,0.9060125350952148
,group,0.897847056388855
,administration,0.8968309760093689
,man,0.894821047782898
,intelligence,0.8854356408119202
,woman,0.8820043802261353
,adult,0.8750379681587219
,music,0.8739867210388184
,movie,0.8665610551834106
,book,0.8591657876968384
,festival,0.8591383695602417
https://scontent-sit4-1.cdninstagram.com/t51.2885-15/e35/13391224_1556214234680764_1011692562_n.jpg,competition,0.9938028454780579
,people,0.9897655248641968
,athlete,0.9781310558319092
,soccer,0.9302200078964233
,recreation,0.9234477281570435
,football,0.921301007270813
,basketball,0.8712252974510193
,track and field,0.8677113652229309
,race,0.8676759004592896
,race,0.8654924631118774
,marathon,0.850955069065094
,footrace,0.8286138772964478
,wear,0.8123973608016968
,man,0.8101553916931152
,adult,0.7923439741134644
,championship,0.7650923728942871
,portrait,0.7570038437843323
,ball,0.75145423412323
,motion,0.7386189699172974
,award,0.7296950817108154
https://scontent-sit4-1.cdninstagram.com/t51.2885-15/e35/13774277_1063781263701940_2111438405_n.jpg,woman,0.9958235025405884
,wear,0.9909218549728394
,adult,0.9802460670471191
,love,0.975130558013916
,affection,0.9726889729499817
,people,0.972443163394928
,facial expression,0.9717390537261963
,togetherness,0.9673016667366028
,two,0.9652678966522217
,portrait,0.9599671363830566
,happiness,0.9420273303985596
,man,0.938033938407898
,fashion,0.9290939569473267
,embrace,0.9149582386016846
,enjoyment,0.909498393535614
,girl,0.9073435068130493
,indoors,0.9007593393325806
,recreation,0.8764276504516602
,romance,0.8758759498596191
,fun,0.8743954300880432
https://scontent-sit4-1.cdninstagram.com/t51.2885-15/e35/13402394_1784890715091621_2115828455_n.jpg,portrait,0.9932471513748169
,people,0.9907026290893555
,eyewear,0.9876017570495605
,eyeglasses,0.9864152669906616
,woman,0.9809018969535828
,man,0.9761359691619873
,adult,0.9756370186805725
,sunglasses,0.9699866771697998
,wear,0.9401124715805054
,fashion,0.9208425283432007
,girl,0.9168509244918823
,indoors,0.9100427627563477
,business,0.8889464139938354
,festival,0.8808468580245972
,facial expression,0.8523213863372803
,movie,0.8108134269714355
,education,0.7999991178512573
,couple,0.7765673398971558
,music,0.7706379890441895
,brunette,0.7699114084243774
https://scontent-sit4-1.cdninstagram.com/t51.2885-15/e35/13473160_1028663040514511_1907145993_n.jpg,indoors,0.993715763092041
,furniture,0.9813120365142822
,luxury,0.9765360951423645
,contemporary,0.9603747129440308
,room,0.9589462280273438
,family,0.9469527006149292
,no person,0.9466555714607239
,window,0.9173728227615356
,table,0.9115650653839111
,chair,0.8879844546318054
,inside,0.866157054901123
,wood,0.8403674364089966
,interior design,0.8332705497741699
,comfort,0.8123153448104858
,seat,0.8019335269927979
,hotel,0.7924841642379761
,bed,0.7830368280410767
,business,0.782192587852478
,residential,0.7812454700469971
,rug,0.7774621248245239
https://scontent-sit4-1.cdninstagram.com/t51.2885-15/e35/13549460_528179590723054_923848277_n.jpg,business,0.9764871597290039
,people,0.9612526893615723
,text,0.9543272256851196
,adult,0.9388996362686157
,horizontal,0.9061514139175415
,man,0.9043033123016357
,bill,0.9023868441581726
,vertical,0.8874483704566956
,conceptual,0.8831393122673035
,transportation system,0.853606104850769
,communication,0.8411899209022522
,indoors,0.830535888671875
,sign,0.8221895694732666
,illustration,0.8191450834274292
,paper,0.8174943923950195
,unemployment,0.8135888576507568
,technology,0.804932713508606
,data,0.7990038394927979
,actor,0.7820615768432617
,preparation,0.7808487415313721
https://scontent-sit4-1.cdninstagram.com/t51.2885-15/e35/13743393_628527407314145_1953037134_n.jpg,portrait,0.9865491986274719
,woman,0.9779733419418335
,people,0.9496704339981079
,school,0.9478136301040649
,wear,0.9320822358131409
,adult,0.9313195943832397
,business,0.927475094795227
,commerce,0.9194214344024658
,group,0.9189888834953308
,education,0.909998893737793
,indoors,0.9080866575241089
,exhibition,0.902000904083252
,happiness,0.8925785422325134
,university,0.8849920630455017
,man,0.883476972579956
,facial expression,0.8703875541687012
,competition,0.8640801906585693
,stock,0.8481606245040894
,girl,0.8415049314498901
,recreation,0.8345053791999817
https://scontent-sit4-1.cdninstagram.com/t51.2885-15/e35/13388503_262374394125087_1005831176_n.jpg,squad,0.9785425662994385
,people,0.9586772918701172
,competition,0.9568003416061401
,soccer,0.9473224878311157
,goal,0.9455052614212036
,football,0.9312933683395386
,man,0.9100832343101501
,championship,0.8954715728759766
,International,0.8734480738639832
,adult,0.8468153476715088
,teamwork,0.8466142416000366
,populace,0.8376321792602539
,game,0.8143714070320129
,champion,0.8111662864685059
,league,0.8032270073890686
,education,0.8006483316421509
,business,0.7988736629486084
,sport,0.7901394367218018
,victory,0.7871654629707336
,stadium,0.7625226974487305
https://scontent-sit4-1.cdninstagram.com/t51.2885-15/e35/13628012_1769488673295207_418428387_n.jpg,man,0.9843847751617432
,woman,0.9791730642318726
,indoors,0.9737753868103027
,wear,0.93869948387146
,people,0.9328690767288208
,enjoyment,0.9279987812042236
,togetherness,0.9216057658195496
,military,0.9193247556686401
,outdoors,0.915686845779419
,intelligence,0.9086698293685913
,eyeglasses,0.904654860496521
,skill,0.8832391500473022
,recreation,0.8808066844940186
,competition,0.8781411647796631
,soccer,0.8741536736488342
,vehicle,0.8667553663253784
,business,0.8653194904327393
,movie,0.8626079559326172
,adolescent,0.855515718460083
,group,0.8546721935272217
https://scontent-sit4-1.cdninstagram.com/t51.2885-15/e35/13355520_1728548127384281_1288096066_n.jpg,people,0.9932754039764404
,woman,0.9858635067939758
,portrait,0.9834182262420654
,adult,0.9704213738441467
,man,0.9677639007568359
,group,0.9609977006912231
,facial expression,0.952978789806366
,girl,0.9504303932189941
,festival,0.9359908699989319
,brunette,0.919723391532898
,wear,0.9076051712036133
,two,0.8964247107505798
,street,0.8824762105941772
,music,0.8823031783103943
,child,0.8778015375137329
,movie,0.8777452111244202
,family,0.8665257096290588
,indoors,0.865394115447998
,enjoyment,0.8434994220733643
,three,0.8238610029220581
https://scontent-sit4-1.cdninstagram.com/t51.2885-15/e35/13422795_1749272532025510_2024748293_n.jpg,portrait,0.9822568297386169
,people,0.9768311381340027
,woman,0.9766165018081665
,exhibition,0.9733486175537109
,wear,0.9678436517715454
,indoors,0.9605698585510254
,adult,0.9512434005737305
,facial expression,0.9460868835449219
,stock,0.9457165002822876
,festival,0.9350031018257141
,commerce,0.9315126538276672
,room,0.9078539609909058
,editorial,0.9051201343536377
,man,0.9022354483604431
,movie,0.8996243476867676
,daylight,0.8955221772193909
,actress,0.8895929455757141
,school,0.8858723640441895
,girl,0.8832184076309204
,fashion,0.8809819221496582
https://scontent-sit4-1.cdninstagram.com/t51.2885-15/e35/13532017_160796440999323_746458062_n.jpg,man,0.9918314218521118
,indoors,0.9853695631027222
,woman,0.983650803565979
,people,0.9803345799446106
,eyeglasses,0.9707268476486206
,portrait,0.9574621915817261
,fashion,0.9525614380836487
,two,0.943240761756897
,wear,0.9249471426010132
,sunglasses,0.923888087272644
,adult,0.9210100173950195
,togetherness,0.9184805154800415
,eyewear,0.9127159118652344
,love,0.8974152207374573
,three,0.8854227662086487
,enjoyment,0.8839902877807617
,fun,0.8790687918663025
,family,0.8646332025527954
,girl,0.840889573097229
,looking,0.8326972126960754
https://scontent-sit4-1.cdninstagram.com/t51.2885-15/e35/13413241_901708053286011_399904544_n.jpg,woman,0.9850653409957886
,people,0.984896183013916
,portrait,0.9510311484336853
,adult,0.9441787004470825
,man,0.9095414280891418
,two,0.9028226137161255
,wear,0.8999637365341187
,recreation,0.8900008797645569
,indoors,0.8689705729484558
,couple,0.848270058631897
,love,0.8142678737640381
,fashion,0.8004508018493652
,young,0.794227659702301
,lifestyle,0.7848776578903198
,togetherness,0.7767964005470276
,group,0.7582834362983704
,happiness,0.7571630477905273
,girl,0.7570801973342896
,pretty,0.7424697875976562
,looking,0.7406215667724609
https://scontent-sit4-1.cdninstagram.com/t51.2885-15/e35/13561671_211466275914365_927545374_n.jpg,people,0.987187922000885
,recreation,0.9870827198028564
,competition,0.9801443815231323
,woman,0.9601880311965942
,wear,0.9465134143829346
,facial expression,0.9279049634933472
,group,0.9252855181694031
,portrait,0.906399667263031
,group,0.9030357003211975
,musician,0.874598503112793
,music,0.8737039566040039
,basketball,0.8559169769287109
,two,0.8499600887298584
,outfit,0.8430709838867188
,sports equipment,0.8321841955184937
,sports fan,0.8290097117424011
,fashion,0.8204779624938965
,movie,0.8179152011871338
,fun,0.8161903619766235
,singer,0.8146700263023376
https://scontent-sit4-1.cdninstagram.com/t51.2885-15/e35/13724631_274197366288713_683810169_n.jpg,indoors,0.9812782406806946
,woman,0.9809028506278992
,people,0.9738240242004395
,portrait,0.9724029302597046
,competition,0.9576565027236938
,man,0.9487771391868591
,child,0.9475136995315552
,two,0.9317944049835205
,wear,0.9296159744262695
,adult,0.9217737913131714
,facial expression,0.9175949692726135
,togetherness,0.9160696268081665
,enjoyment,0.9122620224952698
,recreation,0.8987213373184204
,school,0.8957961797714233
,education,0.8746880292892456
,adolescent,0.8593872785568237
,family,0.8568395376205444
,three,0.8548769950866699
,happiness,0.8494873046875
https://scontent-sit4-1.cdninstagram.com/t51.2885-15/e35/13557320_1215606991785851_494143122_n.jpg,group,0.9976401329040527
,group,0.9887019395828247
,friendship,0.9821336269378662
,school,0.9744972586631775
,facial expression,0.9731884002685547
,woman,0.9688615798950195
,education,0.9664418697357178
,togetherness,0.9595193862915039
,people,0.9564435482025146
,child,0.9554365873336792
,man,0.9529274106025696
,portrait,0.946560263633728
,teamwork,0.9464337825775146
,five,0.9338670372962952
,multicultural,0.9317731857299805
,university,0.9255664348602295
,adult,0.9212232232093811
,class,0.9185277819633484
,laughing,0.9165351390838623
,happiness,0.9155821800231934
https://scontent-sit4-1.cdninstagram.com/t51.2885-15/e35/13696948_314340368911751_1863733075_n.jpg,club,0.9906424283981323
,nightlife,0.9876068830490112
,music,0.987267017364502
,party,0.9844764471054077
,fashion,0.9679797887802124
,boogie,0.966748833656311
,people,0.9629538655281067
,dancing,0.9610266089439392
,disco,0.950873076915741
,woman,0.9425722360610962
,adult,0.9418731927871704
,illustration,0.9326931238174438
,abstract,0.9254612922668457
,glamour,0.9106255173683167
,celebration,0.9065487384796143
,modern,0.8890060782432556
,motion,0.888594388961792
,text,0.8839841485023499
,fun,0.8723337650299072
,portrait,0.8543997406959534
https://scontent-sit4-1.cdninstagram.com/t51.2885-15/e35/13734274_1118373914875709_846664148_n.jpg,people,0.9706104397773743
,man,0.9598296880722046
,recreation,0.9482110738754272
,woman,0.9320905208587646
,education,0.9295326471328735
,group,0.9209370613098145
,music,0.913957417011261
,portrait,0.9086136817932129
,musician,0.8985481262207031
,indoors,0.897470235824585
,singer,0.8880738019943237
,festival,0.8748767971992493
,movie,0.8693097829818726
,adult,0.8666942119598389
,fame,0.8560743927955627
,competition,0.8531067371368408
,university,0.8518357276916504
,school,0.8356791734695435
,student,0.8347431421279907
,performance,0.8258675336837769
https://scontent-sit4-1.cdninstagram.com/t51.2885-15/e35/13741381_1766750030239258_2136443696_n.jpg,woman,0.9912680983543396
,recreation,0.9871680736541748
,people,0.9824481010437012
,competition,0.9807334542274475
,man,0.9735257625579834
,wear,0.9578346014022827
,portrait,0.9460383653640747
,two,0.9453691244125366
,adult,0.9434512257575989
,music,0.9392935633659363
,togetherness,0.9357419013977051
,indoors,0.9326636791229248
,adolescent,0.9204486608505249
,facial expression,0.9183226823806763
,enjoyment,0.903680682182312
,friendship,0.8959338068962097
,musician,0.8784970045089722
,red carpet,0.8686630725860596
,singer,0.8675644397735596
,fashion,0.8634802103042603
https://scontent-sit4-1.cdninstagram.com/t51.2885-15/e35/13628302_1646208645700313_1672971966_n.jpg,people,0.9902774095535278
,portrait,0.9518758654594421
,facial expression,0.9343404173851013
,adult,0.9324604272842407
,woman,0.9274593591690063
,musician,0.916079044342041
,wear,0.9126180410385132
,two,0.9054166674613953
,group,0.8949410319328308
,music,0.8812482953071594
,man,0.8785563707351685
,recreation,0.8721654415130615
,competition,0.8003442883491516
,singer,0.7837029695510864
,festival,0.7357877492904663
,three,0.734561026096344
,education,0.7315953373908997
,enjoyment,0.7115360498428345
,performance,0.6729434728622437
,concert,0.6715518236160278
https://scontent-sit4-1.cdninstagram.com/t51.2885-15/e35/13573582_581562142005114_666321294_n.jpg,woman,0.9953835010528564
,indoors,0.9858940839767456
,man,0.9842960238456726
,facial expression,0.9796687364578247
,people,0.9781022071838379
,adult,0.9755415320396423
,togetherness,0.9704431295394897
,two,0.9548195600509644
,family,0.9495642185211182
,enjoyment,0.9430867433547974
,wear,0.9304778575897217
,happiness,0.9212868213653564
,portrait,0.9164107441902161
,room,0.8863187432289124
,love,0.8541007041931152
,adolescent,0.8422603607177734
,looking,0.8368079662322998
,affection,0.8338156938552856
,healthcare,0.8302251100540161
,laughing,0.826887845993042
https://scontent-sit4-1.cdninstagram.com/l/t51.2885-15/e35/13391231_1103081759753398_1162819142_n.jpg,woman,0.9929862022399902
,togetherness,0.984298825263977
,love,0.9766443967819214
,people,0.9724447727203369
,portrait,0.9714862108230591
,friendship,0.9622629880905151
,man,0.9586828947067261
,girl,0.9543130397796631
,indoors,0.9530289769172668
,two,0.9400377869606018
,facial expression,0.9393249750137329
,fashion,0.920194149017334
,child,0.9158740043640137
,affection,0.9134974479675293
,fun,0.9121397137641907
,adolescent,0.9107400178909302
,enjoyment,0.9010907411575317
,family,0.9006088972091675
,wear,0.8924907445907593
,happiness,0.8848962187767029
https://scontent-sit4-1.cdninstagram.com/t51.2885-15/e35/13402520_129254907501207_1921734628_n.jpg,portrait,0.9791234731674194
,woman,0.9682433009147644
,people,0.9588358402252197
,school,0.9499790668487549
,child,0.9262686371803284
,education,0.9095876216888428
,girl,0.9079545736312866
,facial expression,0.8999555110931396
,happiness,0.8987595438957214
,group,0.8972942233085632
,adult,0.884384274482727
,wear,0.8326950669288635
,exhibition,0.8308990001678467
,elementary school,0.8161020278930664
,man,0.7944738268852234
,indoors,0.7837889194488525
,youth,0.777992844581604
,administration,0.7664977312088013
,parliament,0.762840747833252
,election,0.7528390288352966
https://scontent-sit4-1.cdninstagram.com/t51.2885-15/e35/13525354_1792982567650524_594817958_n.jpg,child,0.9985712170600891
,togetherness,0.9900988340377808
,family,0.9850978851318359
,happiness,0.9843257665634155
,cheerful,0.9765094518661499
,fun,0.9761013984680176
,people,0.9742004871368408
,enjoyment,0.970149040222168
,indoors,0.9639017581939697
,horizontal,0.9633352756500244
,portrait,0.962418794631958
,bonding,0.9616637229919434
,friendship,0.9560966491699219
,laughing,0.947899341583252
,vertical,0.9342082738876343
,sit,0.9193849563598633
,pajamas,0.9062971472740173
,innocence,0.9051375389099121
,cute,0.8995411396026611
,woman,0.8932844400405884
https://scontent-sit4-1.cdninstagram.com/t51.2885-15/e35/13422967_1738687286344005_82447870_n.jpg,people,0.9896714687347412
,competition,0.9666135311126709
,recreation,0.960751473903656
,man,0.9355450868606567
,editorial,0.9277623891830444
,group,0.8778268098831177
,adult,0.8711971044540405
,actress,0.8695491552352905
,festival,0.8619614839553833
,game,0.8547537326812744
,soccer,0.8424715995788574
,sign,0.8412840366363525
,movie,0.8399998545646667
,actor,0.8394488096237183
,award,0.8325172662734985
,football,0.8245219588279724
,award,0.8154498338699341
,vehicle,0.8152299523353577
,populace,0.8117333650588989
,ceremony,0.7884613275527954
https://scontent-sit4-1.cdninstagram.com/t51.2885-15/e35/13551542_972603229526937_2032966456_n.jpg,woman,0.9920444488525391
,group,0.9884288907051086
,education,0.9766228199005127
,people,0.9726380705833435
,adult,0.9525468349456787
,university,0.9510225057601929
,portrait,0.9486804604530334
,school,0.948456883430481
,indoors,0.9297045469284058
,man,0.9269355535507202
,room,0.9145349860191345
,election,0.8883984684944153
,administration,0.8866632580757141
,facial expression,0.8679269552230835
,exhibition,0.8617861866950989
,adolescent,0.844779908657074
,three,0.8416799306869507
,enjoyment,0.8414635062217712
,commerce,0.8195958137512207
,league,0.7975499629974365
https://scontent-sit4-1.cdninstagram.com/t51.2885-15/e35/13534546_1202928829751461_698365192_n.jpg,people,0.9929903745651245
,portrait,0.9737219214439392
,adult,0.9709585905075073
,man,0.9699020981788635
,competition,0.9546821713447571
,one,0.9283090829849243
,athlete,0.8998106718063354
,wear,0.8932021856307983
,sports fan,0.8912205696105957
,soccer,0.8893166780471802
,race,0.8631353378295898
,football,0.8535103797912598
,fame,0.8341273069381714
,tattoo,0.8273100852966309
,rugby,0.8213833570480347
,youth,0.8209993839263916
,woman,0.8182539939880371
,education,0.8136780261993408
,festival,0.7914708256721497
,commerce,0.7872663736343384
https://scontent-sit4-1.cdninstagram.com/t51.2885-15/e35/13398871_256851038014664_1891578459_n.jpg,competition,0.9990076422691345
,race,0.9864063262939453
,race,0.9859588146209717
,athlete,0.9805563688278198
,wear,0.979609489440918
,championship,0.9786603450775146
,portrait,0.9736314415931702
,soccer,0.9724736213684082
,people,0.9656555652618408
,auto racing,0.9592207670211792
,man,0.9553403258323669
,recreation,0.9512885212898254
,adult,0.9499987959861755
,football,0.9494621753692627
,track,0.9389006495475769
,woman,0.9278067350387573
,basketball,0.9206446409225464
,cricket,0.8931924104690552
,sports equipment,0.872638463973999
,track and field,0.8726153373718262
https://scontent-sit4-1.cdninstagram.com/t51.2885-15/e35/13551777_930506350393725_118955807_n.jpg,people,0.9873612523078918
,woman,0.9810577034950256
,recreation,0.9718379974365234
,facial expression,0.9636054039001465
,portrait,0.9534093141555786
,two,0.9372756481170654
,man,0.9314191937446594
,togetherness,0.8973766565322876
,adult,0.8961055874824524
,wear,0.8938424587249756
,enjoyment,0.8867664337158203
,leisure,0.8790266513824463
,outdoors,0.8594138622283936
,fun,0.8386309146881104
,couple,0.8367053270339966
,friendship,0.8364585638046265
,happiness,0.8348485827445984
,love,0.8247061371803284
,indoors,0.7654622197151184
,lifestyle,0.7489725351333618
https://scontent-sit4-1.cdninstagram.com/t51.2885-15/e35/13628161_1026563290753487_1864742185_n.jpg,woman,0.9714125990867615
,people,0.9691486358642578
,portrait,0.9603972434997559
,friendship,0.9267339706420898
,two,0.9238718748092651
,adult,0.9214192628860474
,man,0.9015806913375854
,togetherness,0.8833518028259277
,young,0.873828113079071
,girl,0.8705106973648071
,music,0.8684548139572144
,wear,0.868013858795166
,fun,0.8662035465240479
,fashion,0.8550108671188354
,three,0.8467857241630554
,facial expression,0.8451393842697144
,group,0.8410147428512573
,happiness,0.8370814919471741
,indoors,0.8328361511230469
,adolescent,0.8266799449920654
https://scontent-sit4-1.cdninstagram.com/t51.2885-15/e35/13534352_945419408900271_653048073_n.jpg,man,0.983607292175293
,adult,0.9792472124099731
,woman,0.9775306582450867
,people,0.9765251278877258
,wear,0.9750999212265015
,indoors,0.957668662071228
,facial expression,0.9556864500045776
,portrait,0.9447364211082458
,group,0.9353995323181152
,happiness,0.9173740744590759
,school,0.8942824602127075
,employee,0.8910292983055115
,daylight,0.8900429010391235
,competition,0.8881150484085083
,two,0.8820964097976685
,three,0.8801480531692505
,togetherness,0.8786767721176147
,enjoyment,0.8495801687240601
,education,0.8487024307250977
,stock,0.8362707495689392
https://scontent-sit4-1.cdninstagram.com/t51.2885-15/e35/13413271_104077410020442_355393216_n.jpg,people,0.9897392392158508
,recreation,0.946778416633606
,facial expression,0.9254295825958252
,award,0.9195077419281006
,fame,0.911082923412323
,actress,0.8709728717803955
,two,0.8673720359802246
,indoors,0.8572487831115723
,wear,0.8248788118362427
,competition,0.8151547312736511
,man,0.7942835092544556
,ceremony,0.7691607475280762
,basketball,0.7676171064376831
,family,0.7611590623855591
,movie,0.7605302333831787
,singer,0.7355135083198547
,portrait,0.7293865084648132
,red carpet,0.7258847951889038
,woman,0.7234934568405151
,three,0.7179226875305176
https://scontent-sit4-1.cdninstagram.com/t51.2885-15/e35/13534635_1091404204253349_1522177944_n.jpg,woman,0.9701727628707886
,stock,0.9696569442749023
,portrait,0.9545894861221313
,people,0.949063777923584
,shop,0.9439470767974854
,event,0.9076744914054871
,cheerful,0.9051953554153442
,adult,0.8909697532653809
,happiness,0.8860678672790527
,shopping,0.8630642890930176
,festival,0.8283067345619202
,fashion,0.8202865719795227
,fame,0.8158639669418335
,editorial,0.7842443585395813
,trendy,0.7819591760635376
,outdoors,0.7762241363525391
,laughing,0.7606091499328613
,business,0.7345280051231384
,friendship,0.7301980257034302
,market,0.7252087593078613
https://scontent-sit4-1.cdninstagram.com/t51.2885-15/e35/13556942_238366966550056_875222887_n.jpg,people,0.9932091236114502
,man,0.9900583028793335
,group,0.9883713722229004
,wear,0.9854927062988281
,portrait,0.9781314134597778
,adult,0.9774854183197021
,facial expression,0.9689648151397705
,music,0.9671165943145752
,woman,0.9605447053909302
,musician,0.9551178216934204
,group,0.9543581008911133
,festival,0.9506173133850098
,recreation,0.9485784769058228
,singer,0.9461674094200134
,outfit,0.9398523569107056
,competition,0.9287446737289429
,four,0.9133867025375366
,several,0.9112453460693359
,five,0.894813597202301
,family,0.8887851238250732
https://scontent-sit4-1.cdninstagram.com/t51.2885-15/e35/13398406_1733298970246665_470874585_n.jpg,competition,0.9970470666885376
,ball,0.9946192502975464
,match,0.9882781505584717
,game,0.9880292415618896
,athlete,0.9879053831100464
,soccer,0.9856667518615723
,squad,0.9818534851074219
,football,0.9786506295204163
,man,0.9728088974952698
,people,0.9659208059310913
,cricket,0.9586369395256042
,portrait,0.9580539464950562
,stadium,0.9523346424102783
,adult,0.9514721632003784
,champion,0.9490084648132324
,tournament,0.9385880827903748
,award,0.9369375705718994
,championship,0.9364867210388184
,cup,0.9364354014396667
,victory,0.9230945706367493
https://scontent-sit4-1.cdninstagram.com/t51.2885-15/e35/13694684_1597470010545673_1566992289_n.jpg,people,0.9989437460899353
,entertainment,0.9944088459014893
,event,0.986403226852417
,pop,0.9755659103393555
,famous,0.9713773131370544
,talent,0.9712379574775696
,fame,0.9438024759292603
,person,0.9334471225738525
,group,0.8518170118331909
,fame,0.8320198059082031
,facial expression,0.7980120182037354
,award,0.7747833132743835
,wear,0.7707986831665039
,actress,0.6775487661361694
,actor,0.6702933311462402
,eyewear,0.6082279086112976
,musician,0.5654231309890747
,pants,0.5518913269042969
,jacket,0.5502686500549316
,recreation,0.5495306849479675
https://scontent-sit4-1.cdninstagram.com/t51.2885-15/e35/13388463_1325139317513546_979985834_n.jpg,group,0.9915971755981445
,woman,0.9754079580307007
,man,0.9726577997207642
,people,0.9702523946762085
,friendship,0.965798020362854
,group,0.9426548480987549
,togetherness,0.9415979981422424
,adolescent,0.9410836696624756
,enjoyment,0.9320265650749207
,portrait,0.9313348531723022
,indoors,0.9262128472328186
,child,0.9251039624214172
,facial expression,0.924384355545044
,adult,0.9163186550140381
,laughing,0.9125910997390747
,school,0.912442684173584
,education,0.906497597694397
,four,0.8603971004486084
,student,0.8591192960739136
,three,0.8543564081192017
https://scontent-sit4-1.cdninstagram.com/t51.2885-15/e35/13408819_1038669376181408_696595389_n.jpg,group,0.9975744485855103
,group,0.9958683252334595
,school,0.9878758192062378
,man,0.9874014854431152
,competition,0.9866173267364502
,woman,0.9853503704071045
,people,0.9827512502670288
,portrait,0.9792530536651611
,education,0.9723728895187378
,university,0.9720137119293213
,adult,0.9673287868499756
,four,0.9622560739517212
,teamwork,0.9586189985275269
,recreation,0.9541494846343994
,five,0.950882077217102
,three,0.939970850944519
,cooperation,0.9280087947845459
,several,0.9249127507209778
,athlete,0.9034850001335144
,friendship,0.9007633924484253
https://scontent-sit4-1.cdninstagram.com/t51.2885-15/e35/13642908_823813967720109_1985054997_n.jpg,people,0.9706689119338989
,event,0.9355629086494446
,man,0.9200171828269958
,light,0.8992670178413391
,celebration,0.8810694813728333
,group,0.8772475719451904
,person,0.8675276041030884
,woman,0.8664802312850952
,space,0.8593981266021729
,music,0.8384652137756348
,basketball,0.8312296271324158
,competition,0.8302905559539795
,fame,0.8224127292633057
,fun,0.8105690479278564
,performance,0.8092429637908936
,dark,0.8075305223464966
,party,0.7895134687423706
,education,0.7836639881134033
,desktop,0.7799872159957886
,design,0.7760946750640869
https://scontent-sit4-1.cdninstagram.com/t51.2885-15/e35/13388606_1761671404120033_586023708_n.jpg,business,0.9675746560096741
,woman,0.9556504487991333
,man,0.9548628330230713
,people,0.948464572429657
,togetherness,0.9051393866539001
,eyeglasses,0.9035933017730713
,portrait,0.8889600038528442
,adult,0.8856394290924072
,indoors,0.8849977850914001
,partnership,0.8817166090011597
,two,0.8794268369674683
,wear,0.8738819360733032
,facial expression,0.8614559173583984
,outdoors,0.8546426296234131
,looking,0.8256574273109436
,fame,0.8104262351989746
,commerce,0.8050405979156494
,success,0.799984335899353
,contemporary,0.7990745306015015
,cooperation,0.7835475206375122
https://scontent-sit4-1.cdninstagram.com/l/t51.2885-15/e35/13696674_138564916576288_1947713189_n.jpg,people,0.9732390642166138
,group,0.9322735071182251
,man,0.9252697229385376
,woman,0.92512047290802
,portrait,0.923621416091919
,adult,0.9176853895187378
,bill,0.8928212523460388
,education,0.8730226755142212
,award,0.8390704393386841
,sign,0.8288730382919312
,family,0.8139761686325073
,school,0.8135985136032104
,ceremony,0.7796416282653809
,festival,0.7598471641540527
,business,0.7377506494522095
,child,0.7356487512588501
,wear,0.7297738790512085
,competition,0.726740300655365
,recreation,0.7262667417526245
,administration,0.720836877822876
