url,class,score
https://scontent-sit4-1.cdninstagram.com/t51.2885-15/s640x640/e15/13584308_1130205467041163_1746675104_n.jpg,adult,0.9915083646774292
,music,0.9911668300628662
,people,0.9894512891769409
,one,0.9880584478378296
,woman,0.9834665656089783
,musician,0.9825323820114136
,guitar,0.9748060703277588
,instrument,0.964943528175354
,indoors,0.954532265663147
,portrait,0.9527292847633362
,guitarist,0.9524013996124268
,singer,0.9346119165420532
,performance,0.8898320198059082
,stringed instrument,0.8827263712882996
,girl,0.8788279294967651
,pop,0.871984601020813
,facial expression,0.8714015483856201
,wear,0.8671085834503174
,sitting,0.8191445469856262
,hairdo,0.8179749250411987
https://scontent-sit4-1.cdninstagram.com/t51.2885-15/s640x640/e15/13385895_1075690552511843_357592662_n.jpg,portrait,0.995009183883667
,one,0.9927574396133423
,people,0.9922375082969666
,adult,0.992043137550354
,vehicle,0.9889079928398132
,man,0.9877256155014038
,car,0.9721172451972961
,transportation system,0.9630053639411926
,recreation,0.9597506523132324
,sunglasses,0.9527808427810669
,travel,0.9496247172355652
,wear,0.9378136992454529
,eyewear,0.9321095943450928
,light,0.9129170179367065
,seat,0.9127368330955505
,indoors,0.9110320806503296
,driver,0.9089365005493164
,outdoors,0.9059687852859497
,daylight,0.9057232141494751
,lid,0.8897842764854431
https://scontent-sit4-1.cdninstagram.com/t51.2885-15/s640x640/e15/13712301_717705851701829_1994726575_n.jpg,man,0.9949232339859009
,portrait,0.9906215667724609
,people,0.9871904850006104
,eyewear,0.9839498996734619
,adult,0.9837354421615601
,eyeglasses,0.9587951898574829
,sunglasses,0.9458719491958618
,one,0.9450050592422485
,facial expression,0.8903819918632507
,wear,0.8786846399307251
,business,0.8721084594726562
,athlete,0.8625270128250122
,mustache,0.8584867715835571
,competition,0.8386290073394775
,facial hair,0.8305079936981201
,strange,0.8213220834732056
,fashion,0.8073885440826416
,bald,0.8068361282348633
,science,0.7675583958625793
,indoors,0.7654554843902588
https://scontent-sit4-1.cdninstagram.com/t51.2885-15/e15/12543097_950561258342264_245085565_n.jpg,people,0.9857631921768188
,man,0.9849444031715393
,portrait,0.9764811396598816
,one,0.9663968682289124
,adult,0.9554667472839355
,facial expression,0.9256736040115356
,indoors,0.890920877456665
,child,0.8747392892837524
,wear,0.8590711355209351
,profile,0.8320052027702332
,pensive,0.8168972730636597
,side view,0.8011891841888428
,enjoyment,0.7872483134269714
,adolescent,0.7657447457313538
,serious,0.7579399347305298
,relaxation,0.7492513060569763
,fashion,0.7457833886146545
,looking,0.7277142405509949
,stubble,0.7191839218139648
,eye,0.7027201652526855
https://scontent-sit4-1.cdninstagram.com/t51.2885-15/e35/926222_1656146751320342_2141832662_n.jpg,portrait,0.997906506061554
,people,0.9971299171447754
,eyewear,0.9936127662658691
,adult,0.9917755722999573
,man,0.9911139011383057
,eyeglasses,0.9879947304725647
,musician,0.9869246482849121
,music,0.9750616550445557
,movie,0.9689685702323914
,wear,0.9623101949691772
,facial expression,0.9607974886894226
,singer,0.9539090394973755
,group,0.9479184150695801
,two,0.9465950131416321
,sunglasses,0.9441097378730774
,three,0.9374616146087646
,actor,0.9364361763000488
,amusing,0.9341831207275391
,theater,0.917055606842041
,one,0.9100023508071899
https://scontent-sit4-1.cdninstagram.com/t51.2885-15/e35/13257107_504757373061484_216970717_n.jpg,abstract,0.9925893545150757
,wallpaper,0.9772356748580933
,art,0.9603593349456787
,texture,0.954235851764679
,blur,0.9418696165084839
,background,0.9343576431274414
,pattern,0.9328205585479736
,fabric,0.9203131198883057
,luxury,0.9082242250442505
,canvas,0.8985985517501831
,square,0.8853926062583923
,retro,0.880730390548706
,wear,0.8776540160179138
,leather,0.8754562735557556
,old,0.8720453977584839
,no person,0.8666491508483887
,upholstery,0.858855128288269
,dark,0.855543851852417
,vintage,0.8545265793800354
,rough,0.8475621938705444
https://scontent-sit4-1.cdninstagram.com/t51.2885-15/e15/13126617_1073975672662376_377425217_n.jpg,people,0.9779133796691895
,portrait,0.9713233709335327
,adult,0.9686909914016724
,business,0.9409949779510498
,rally,0.9119715094566345
,offense,0.9098644256591797
,man,0.9035214185714722
,one,0.9034745693206787
,election,0.8630690574645996
,wear,0.8619046211242676
,text,0.8556452989578247
,competition,0.8342888951301575
,finance,0.822585940361023
,administration,0.8120952844619751
,daylight,0.8111811876296997
,outdoors,0.8033666014671326
,leader,0.8030358552932739
,soccer,0.7965561747550964
,building,0.786872386932373
,education,0.7787398099899292
https://scontent-sit4-1.cdninstagram.com/t51.2885-15/e35/12750347_1038582152881756_858207582_n.jpg,people,0.9965636730194092
,facial expression,0.996549129486084
,portrait,0.9956550598144531
,man,0.9907633066177368
,two,0.9815707206726074
,adult,0.978506326675415
,laughing,0.9781113862991333
,affection,0.9595898389816284
,love,0.9490929841995239
,wear,0.9392883777618408
,happiness,0.9367458820343018
,embrace,0.9334756135940552
,bald,0.926226794719696
,togetherness,0.9208178520202637
,woman,0.9105977416038513
,fun,0.8811556696891785
,smile,0.8659073114395142
,joy,0.8633714914321899
,three,0.8310500383377075
,friendship,0.8085167407989502
https://scontent-sit4-1.cdninstagram.com/t51.2885-15/e35/12070740_123824028017875_1506944987_n.jpg,people,0.9848616123199463
,group,0.9800021052360535
,woman,0.9638360142707825
,portrait,0.9625999331474304
,adult,0.9587448835372925
,election,0.9574030637741089
,rally,0.9479467868804932
,vehicle,0.9408173561096191
,music,0.9312554597854614
,administration,0.9301575422286987
,offense,0.9244354963302612
,wear,0.9231992959976196
,facial expression,0.9211277961730957
,festival,0.918972909450531
,battle,0.9180247187614441
,rally,0.8890249133110046
,enjoyment,0.8879374265670776
,rebellion,0.8863917589187622
,many,0.8850959539413452
,musician,0.8727821707725525
https://scontent-sit4-1.cdninstagram.com/t51.2885-15/e35/13584200_591923774314507_121171527_n.jpg,window,0.9843310117721558
,people,0.9834600687026978
,city,0.9581294655799866
,architecture,0.9472030997276306
,adult,0.9448843598365784
,street,0.9374641180038452
,building,0.9346631169319153
,one,0.9135013818740845
,travel,0.9033405780792236
,light,0.9025601744651794
,room,0.8949926495552063
,daylight,0.8721110820770264
,house,0.8699994683265686
,no person,0.8649895191192627
,urban,0.862921416759491
,office,0.8588864803314209
,business,0.8525456190109253
,reflection,0.8426599502563477
,furniture,0.8382052183151245
,home,0.8336290121078491
https://scontent-sit4-1.cdninstagram.com/t51.2885-15/e35/12751075_1073646796013811_151405535_n.jpg,music,0.9932895302772522
,woman,0.9843633770942688
,recreation,0.9798027276992798
,performance,0.9780286550521851
,adult,0.9764788150787354
,people,0.9760589599609375
,light,0.9746662378311157
,concert,0.9723030924797058
,one,0.9714142084121704
,musician,0.9705492854118347
,singer,0.9660947322845459
,blur,0.9606736302375793
,pop,0.9552135467529297
,wear,0.9528084993362427
,party,0.9517338275909424
,portrait,0.9490200877189636
,facial expression,0.9454680681228638
,enjoyment,0.9439878463745117
,festival,0.9335954189300537
,girl,0.9216874837875366
https://scontent-sit4-1.cdninstagram.com/t51.2885-15/e35/12552447_927187674044217_1100144005_n.jpg,people,0.9849933981895447
,adult,0.9545568227767944
,vehicle,0.9441875219345093
,city,0.9409694671630859
,one,0.9215928316116333
,woman,0.9206576347351074
,street,0.9112719297409058
,competition,0.9039406180381775
,water,0.9029690027236938
,man,0.8946926593780518
,bridge,0.8843196630477905
,reflection,0.8829412460327148
,rain,0.8661699295043945
,action,0.863237738609314
,car,0.8446676135063171
,business,0.8347498774528503
,recreation,0.8288628458976746
,athlete,0.8284211158752441
,race,0.8272035121917725
,transportation system,0.826745867729187
https://scontent-sit4-1.cdninstagram.com/t51.2885-15/e35/13741402_141545592946131_315913405_n.jpg,sunset,0.9914710521697998
,sky,0.9859492778778076
,no person,0.9833149909973145
,dawn,0.9761965274810791
,landscape,0.975416898727417
,evening,0.9727742671966553
,travel,0.9632331132888794
,sun,0.9540630578994751
,water,0.9511847496032715
,dusk,0.9459983110427856
,light,0.9447906613349915
,cloud,0.9347613453865051
,outdoors,0.919765055179596
,ocean,0.9181106090545654
,nature,0.9151423573493958
,fair weather,0.9132573008537292
,summer,0.9016438722610474
,weather,0.9006837010383606
,airplane,0.8916599154472351
,sea,0.8852580785751343
https://scontent-sit4-1.cdninstagram.com/t51.2885-15/e35/12716764_1560932080884431_931330186_n.jpg,water,0.9902456998825073
,landscape,0.9897001385688782
,sunset,0.983608067035675
,beach,0.9835844039916992
,lake,0.9705513715744019
,dawn,0.9642106294631958
,sea,0.9614372253417969
,sky,0.9523491859436035
,evening,0.9482821226119995
,reflection,0.9460868835449219
,ocean,0.9456521272659302
,no person,0.9442665576934814
,tree,0.9421703815460205
,light,0.9350079298019409
,seashore,0.931354284286499
,seascape,0.9306175112724304
,silhouette,0.9264645576477051
,sun,0.918631911277771
,dusk,0.9125850796699524
,backlit,0.8931090831756592
https://scontent-sit4-1.cdninstagram.com/l/t51.2885-15/e15/12976296_1736708976564077_977008991_n.jpg,portrait,0.9960072636604309
,woman,0.9953250288963318
,girl,0.9876184463500977
,people,0.9857119917869568
,one,0.9752807021141052
,indoors,0.962367057800293
,window,0.9557040929794312
,face,0.9528130292892456
,adult,0.9503483772277832
,fashion,0.9428730010986328
,model,0.9371689558029175
,pretty,0.9266160726547241
,eye,0.9222058057785034
,beautiful,0.9167737364768982
,facial expression,0.914358377456665
,smile,0.9039040803909302
,brunette,0.8979319334030151
,young,0.8952629566192627
,hair,0.895041823387146
,adolescent,0.8628412485122681
https://scontent-sit4-1.cdninstagram.com/t51.2885-15/e35/13724743_535463386643265_1571761236_n.jpg,facial expression,0.9963560104370117
,group,0.994782567024231
,adult,0.9925297498703003
,people,0.9899754524230957
,man,0.9859907627105713
,woman,0.9821996688842773
,portrait,0.9666759967803955
,eyewear,0.9655092358589172
,happiness,0.9598352909088135
,wear,0.9585938453674316
,three,0.9483771324157715
,furniture,0.9426823854446411
,five,0.9410524368286133
,togetherness,0.927612841129303
,education,0.92393559217453
,group,0.9214491844177246
,indoors,0.907862663269043
,room,0.9067802429199219
,four,0.8973263502120972
,veil,0.8847782611846924
https://scontent-sit4-1.cdninstagram.com/t51.2885-15/e35/12135166_824797334292400_331444157_n.jpg,group,0.9838032722473145
,adult,0.9808439612388611
,people,0.9786677956581116
,facial expression,0.9774124026298523
,boy,0.9735602736473083
,portrait,0.9624743461608887
,child,0.9575281143188477
,woman,0.9557095766067505
,man,0.9551622867584229
,girl,0.9546778202056885
,four,0.9539560079574585
,togetherness,0.9467045068740845
,offspring,0.9459583759307861
,happiness,0.9392882585525513
,group,0.9380960464477539
,three,0.9352940320968628
,family,0.9279643297195435
,room,0.9242009520530701
,interaction,0.922376275062561
,five,0.9213734269142151
https://scontent-sit4-1.cdninstagram.com/t51.2885-15/e35/13437341_1115354455174216_1475828440_n.jpg,people,0.9924847483634949
,adult,0.9924026727676392
,portrait,0.9849004149436951
,one,0.9771748185157776
,facial expression,0.9663611054420471
,woman,0.9562451839447021
,man,0.9554517269134521
,wear,0.9527319073677063
,musician,0.9459162354469299
,music,0.9448297619819641
,singer,0.9353666305541992
,art,0.9146667718887329
,painting,0.9047129154205322
,pop,0.8698781132698059
,performance,0.8645145893096924
,girl,0.8485773801803589
,two,0.8474218845367432
,jewelry,0.8265540599822998
,veil,0.8160547614097595
,concert,0.8144519329071045
https://scontent-sit4-1.cdninstagram.com/t51.2885-15/s750x750/sh0.08/e35/13109051_1714388312182641_1040477327_n.jpg,group,0.997581958770752
,people,0.9953588843345642
,group,0.9940677881240845
,portrait,0.9932894706726074
,facial expression,0.9827032089233398
,four,0.9743303060531616
,adult,0.9677822589874268
,man,0.9609206914901733
,five,0.958698034286499
,three,0.9350950717926025
,musician,0.9296627640724182
,boy,0.9258506894111633
,friendship,0.9094729423522949
,music,0.9045731425285339
,laughing,0.8968720436096191
,singer,0.8928177952766418
,happiness,0.8857890367507935
,fame,0.8731234073638916
,family,0.8692997097969055
,child,0.8647654056549072
https://scontent-sit4-1.cdninstagram.com/t51.2885-15/e35/12826129_1575038502788407_1194081206_n.jpg,music,0.9980179071426392
,performance,0.9976825714111328
,concert,0.9950453042984009
,festival,0.9916322827339172
,stage,0.9851333498954773
,musician,0.9845778346061707
,club,0.984065592288971
,singer,0.9756274223327637
,band,0.974798321723938
,rap,0.9747568368911743
,people,0.9689232110977173
,light,0.9618529081344604
,tube,0.9363921880722046
,energy,0.9355465173721313
,venue,0.9331547021865845
,dancing,0.9331414699554443
,party,0.9298200607299805
,celebration,0.9269253015518188
,group,0.9179152846336365
,audience,0.9138199687004089
https://scontent-sit4-1.cdninstagram.com/t51.2885-15/s640x640/sh0.08/e35/12599476_1096622667057084_1502366926_n.jpg,portrait,0.9932997822761536
,people,0.9918700456619263
,eyewear,0.9851289987564087
,adult,0.9823939800262451
,movie,0.9812800884246826
,facial expression,0.980934739112854
,wear,0.9796643257141113
,red carpet,0.9794485569000244
,music,0.9785986542701721
,sunglasses,0.9639052152633667
,man,0.9602503180503845
,festival,0.9475833773612976
,fashion,0.940402626991272
,recreation,0.9383653402328491
,musician,0.9381484985351562
,actor,0.9312077760696411
,eyeglasses,0.9264522790908813
,two,0.9225757718086243
,singer,0.9141383171081543
,arrival,0.8957227468490601
https://scontent-sit4-1.cdninstagram.com/t51.2885-15/e35/13556825_1627993647515637_682686056_n.jpg,people,0.98704594373703
,portrait,0.9739211797714233
,adult,0.9655431509017944
,woman,0.9511628150939941
,facial expression,0.9457740783691406
,travel,0.9262299537658691
,group,0.9132336378097534
,daylight,0.9045668840408325
,girl,0.9039431214332581
,outdoors,0.898506760597229
,water,0.8791455030441284
,city,0.8667970895767212
,pool,0.8642600774765015
,happiness,0.8639503717422485
,beach,0.8383421897888184
,enjoyment,0.8376805782318115
,lifestyle,0.8290830254554749
,vehicle,0.7986307144165039
,recreation,0.7938371896743774
,wear,0.7921750545501709
https://scontent-sit4-1.cdninstagram.com/t51.2885-15/e35/12338677_1657125217909815_1047501785_n.jpg,people,0.9904482364654541
,woman,0.9732058048248291
,music,0.952869176864624
,man,0.9235155582427979
,group,0.9023140072822571
,adult,0.8958257436752319
,portrait,0.8914319276809692
,street,0.8847640752792358
,two,0.8662156462669373
,festival,0.8576082587242126
,wear,0.8341246247291565
,musician,0.8315269947052002
,concert,0.8139144778251648
,one,0.8095623254776001
,sunglasses,0.803360104560852
,police,0.796312689781189
,rap,0.7921768426895142
,three,0.7805338501930237
,fun,0.7784804105758667
,military,0.7713702917098999
https://scontent-sit4-1.cdninstagram.com/t51.2885-15/e35/13768124_586724404831900_846194907_n.jpg,people,0.9890183210372925
,adult,0.9850654006004333
,man,0.9764405488967896
,child,0.9761848449707031
,woman,0.9685076475143433
,group,0.9680125713348389
,facial expression,0.9589914083480835
,two,0.9577137231826782
,portrait,0.956096887588501
,indoors,0.9548366069793701
,three,0.9450721740722656
,boy,0.9259353876113892
,togetherness,0.9241561889648438
,girl,0.9181236028671265
,offspring,0.9166866540908813
,room,0.912004292011261
,happiness,0.9097919464111328
,family,0.9091172218322754
,four,0.8969939947128296
,furniture,0.8771666884422302
https://scontent-sit4-1.cdninstagram.com/t51.2885-15/e35/13259460_131297287277551_1637579205_n.jpg,people,0.9753564596176147
,music,0.9746326208114624
,concert,0.9577504396438599
,performance,0.9433973431587219
,light,0.9338425397872925
,festival,0.9296923875808716
,evening,0.9236353039741516
,stage,0.9054747819900513
,musician,0.8894820213317871
,city,0.8699502944946289
,band,0.8657991886138916
,audience,0.8641282916069031
,travel,0.8554561734199524
,group,0.8539435863494873
,singer,0.8491335511207581
,club,0.8421829342842102
,recreation,0.8384339213371277
,adult,0.8246454000473022
,reflection,0.820081353187561
,crowd,0.8162282705307007
https://scontent-sit4-1.cdninstagram.com/t51.2885-15/e35/1172922_754057018029233_671794692_n.jpg,people,0.9928561449050903
,group,0.9927374124526978
,facial expression,0.9765703678131104
,group,0.960983395576477
,adult,0.9333897233009338
,portrait,0.9253108501434326
,woman,0.9225583076477051
,wear,0.9030082821846008
,music,0.8993188142776489
,musician,0.892861545085907
,man,0.8924331068992615
,singer,0.8900980949401855
,performance,0.8833657503128052
,fame,0.8297088742256165
,interaction,0.8231360912322998
,recreation,0.8069084882736206
,festival,0.7984268069267273
,friendship,0.788106381893158
,many,0.7873792052268982
,party,0.7869400978088379
https://scontent-sit4-1.cdninstagram.com/t51.2885-15/e35/13549566_267590576946918_1792977099_n.jpg,wood,0.9729741811752319
,glass,0.9688263535499573
,wooden,0.9601515531539917
,food,0.9510083198547363
,drink,0.9498937129974365
,round,0.9463369250297546
,desktop,0.9375898241996765
,round,0.9346606731414795
,table,0.9195510149002075
,family,0.905750036239624
,water,0.8897337913513184
,healthy,0.8814976215362549
,no person,0.8673031330108643
,health,0.8614063262939453
,medicine,0.8603981137275696
,board,0.8405666351318359
,liquid,0.8360220193862915
,nature,0.8341048955917358
,old,0.8258236646652222
,design,0.8255754709243774
https://scontent-sit4-1.cdninstagram.com/t51.2885-15/e35/1515172_1583967665257078_524231283_n.jpg,people,0.9943690299987793
,man,0.9827437996864319
,adult,0.9807009696960449
,group,0.9712780117988586
,woman,0.9615734815597534
,two,0.9573886394500732
,wear,0.9338313341140747
,group,0.9316394925117493
,vehicle,0.9233191609382629
,furniture,0.9212077260017395
,three,0.9085291028022766
,transportation system,0.8986581563949585
,four,0.8911561369895935
,indoors,0.886624813079834
,competition,0.8666227459907532
,several,0.86463862657547
,many,0.8628973364830017
,sit,0.8452637195587158
,one,0.8450912237167358
,room,0.8385589122772217
https://scontent-sit4-1.cdninstagram.com/t51.2885-15/e35/13118123_1649302221959019_184408569_n.jpg,people,0.9922342300415039
,group,0.9833017587661743
,music,0.9745078086853027
,portrait,0.9743688702583313
,festival,0.9577161073684692
,adult,0.9455371499061584
,musician,0.9373623132705688
,woman,0.9297795295715332
,singer,0.9207372665405273
,movie,0.9052919149398804
,facial expression,0.8999438285827637
,performance,0.8969429731369019
,administration,0.876953125
,party,0.8688830137252808
,concert,0.8574485778808594
,rally,0.8491079807281494
,fame,0.8364561796188354
,energy,0.8362951278686523
,many,0.82273930311203
,youth,0.8151392936706543
https://scontent-sit4-1.cdninstagram.com/t51.2885-15/e35/13767525_1565669607072112_952191770_n.jpg,people,0.9885196685791016
,adult,0.9634116888046265
,woman,0.9495797157287598
,man,0.9446703195571899
,stock,0.9397193789482117
,street,0.9368740916252136
,portrait,0.9364244937896729
,indoors,0.9335598349571228
,one,0.9314945936203003
,city,0.908374011516571
,bar,0.8937473297119141
,restaurant,0.8741494417190552
,wear,0.8613734245300293
,urban,0.8597099781036377
,business,0.8559605479240417
,vehicle,0.853049635887146
,shopping,0.8234793543815613
,travel,0.8142861127853394
,graffiti,0.8127294778823853
,music,0.8124096989631653
https://scontent-sit4-1.cdninstagram.com/t51.2885-15/e35/12407541_1047085175356240_843162099_n.jpg,child,0.9929148554801941
,group,0.9902207851409912
,people,0.9808143377304077
,facial expression,0.9798542857170105
,woman,0.9736400842666626
,togetherness,0.9583309888839722
,happiness,0.9556722640991211
,enjoyment,0.9498550891876221
,friendship,0.9324641227722168
,indoors,0.9288744330406189
,education,0.9263323545455933
,wear,0.9224594235420227
,school,0.9194826483726501
,fun,0.9191182255744934
,adult,0.9145011901855469
,group,0.9044882655143738
,laughing,0.904044508934021
,four,0.8929051756858826
,portrait,0.8927184343338013
,man,0.8888016939163208
https://scontent-sit4-1.cdninstagram.com/t51.2885-15/e35/12729561_524413781065648_1097509939_n.jpg,people,0.9901193380355835
,one,0.9826304912567139
,music,0.9728549122810364
,adult,0.9680218696594238
,man,0.9493562579154968
,musician,0.9478145837783813
,performance,0.9436600208282471
,concert,0.9374710917472839
,wear,0.9349426031112671
,singer,0.9227567911148071
,stage,0.8601830005645752
,woman,0.8561187982559204
,festival,0.8555741906166077
,light,0.8529450297355652
,recreation,0.8314282894134521
,portrait,0.8270561695098877
,indoors,0.8015153408050537
,theater,0.7858303785324097
,band,0.7587190866470337
,energy,0.757339358329773
https://scontent-sit4-1.cdninstagram.com/t51.2885-15/e35/12599073_1647426922186436_1742169809_n.jpg,man,0.9928606152534485
,woman,0.9854713678359985
,people,0.9826151132583618
,facial expression,0.979163408279419
,three,0.9760903120040894
,group,0.9743735194206238
,four,0.9704086780548096
,group,0.9647039771080017
,portrait,0.9645658731460571
,adult,0.9641210436820984
,togetherness,0.9520211219787598
,family,0.9508252143859863
,wear,0.9148294925689697
,laughing,0.9116400480270386
,five,0.8989683389663696
,two,0.898719072341919
,friendship,0.892930269241333
,enjoyment,0.8890519142150879
,indoors,0.8844078183174133
,happiness,0.8579909801483154
https://scontent-sit4-1.cdninstagram.com/t51.2885-15/e35/12556021_1711453802399613_909993914_n.jpg,people,0.9323855638504028
,performance,0.9229973554611206
,festival,0.9208676218986511
,music,0.9155513048171997
,rally,0.8852981925010681
,group,0.8773907423019409
,competition,0.8732020854949951
,wear,0.8603209257125854
,woman,0.8569371700286865
,singer,0.8433815836906433
,action,0.8368097543716431
,rally,0.8334933519363403
,city,0.8298953771591187
,commerce,0.8287864327430725
,battle,0.8277085423469543
,election,0.82013338804245
,musician,0.8130354881286621
,adult,0.8054755926132202
,street,0.803835391998291
,convention,0.8017848134040833
https://scontent-sit4-1.cdninstagram.com/t51.2885-15/e35/12729423_1171350779556563_941122199_n.jpg,sunset,0.9977296590805054
,beach,0.995338499546051
,water,0.9890691041946411
,sea,0.9865107536315918
,dawn,0.9837886095046997
,sun,0.9836410284042358
,ocean,0.9826549887657166
,seascape,0.9670078754425049
,dusk,0.9563698768615723
,landscape,0.9554044008255005
,silhouette,0.9546754360198975
,backlit,0.9484736919403076
,evening,0.931865930557251
,sand,0.9218823909759521
,sky,0.8889157176017761
,seashore,0.887121856212616
,light,0.8688035011291504
,storm,0.8617992401123047
,cloud,0.8581173419952393
,surf,0.8532367944717407
https://scontent-sit4-1.cdninstagram.com/t51.2885-15/e35/13473184_184480825288117_1118978738_n.jpg,music,0.99131178855896
,musician,0.9895870685577393
,people,0.9850763082504272
,singer,0.9795616865158081
,recreation,0.9751843214035034
,bar,0.9695638418197632
,man,0.9669217467308044
,performance,0.9630897045135498
,group,0.9604939818382263
,festival,0.9587546586990356
,concert,0.9558107852935791
,beer,0.9517597556114197
,movie,0.9510394334793091
,club,0.9466345310211182
,eyewear,0.9424269199371338
,rap,0.9417588114738464
,portrait,0.9370216727256775
,group,0.933983564376831
,adult,0.9217513799667358
,wear,0.9169741868972778
https://scontent-sit4-1.cdninstagram.com/t51.2885-15/e35/12950296_994632787295016_1370211502_n.jpg,group,0.9973381757736206
,people,0.9930989146232605
,group,0.9922289848327637
,boy,0.9722808003425598
,child,0.9716618061065674
,portrait,0.9664245247840881
,woman,0.9612607955932617
,adult,0.9606039524078369
,man,0.9371324777603149
,friendship,0.9317364692687988
,four,0.9155057072639465
,many,0.9130545258522034
,family,0.9121850728988647
,facial expression,0.8926557302474976
,five,0.8846616744995117
,girl,0.8751316070556641
,fun,0.8711472749710083
,enjoyment,0.8688569664955139
,laughing,0.8593740463256836
,performance,0.8363076448440552
https://scontent-sit4-1.cdninstagram.com/t51.2885-15/e35/1169692_1680618822221450_1836950929_n.jpg,indoors,0.9866033792495728
,people,0.9864459037780762
,tube,0.982671856880188
,monochrome,0.9673029184341431
,business,0.952523410320282
,man,0.9454481601715088
,no person,0.9371134042739868
,street,0.9199914932250977
,architecture,0.9110188484191895
,transportation system,0.9006701707839966
,tunnel,0.8877111077308655
,hallway,0.8825092315673828
,railway,0.8792635202407837
,woman,0.8723762035369873
,train,0.8625050783157349
,one,0.8567242622375488
,light,0.8521132469177246
,adult,0.8505764007568359
,airport,0.8407813310623169
,building,0.811700701713562
https://scontent-sit4-1.cdninstagram.com/t51.2885-15/e35/12393775_152807568419773_135217381_n.jpg,group,0.9961659908294678
,facial expression,0.9911781549453735
,group,0.991146981716156
,people,0.9811028242111206
,woman,0.9772706627845764
,friendship,0.9675788879394531
,adult,0.9673484563827515
,man,0.9606452584266663
,togetherness,0.959312915802002
,many,0.9576033353805542
,seat,0.9554774761199951
,enjoyment,0.9462525844573975
,four,0.9432694315910339
,five,0.9402070641517639
,happiness,0.9396333694458008
,furniture,0.9295037984848022
,portrait,0.9253485202789307
,child,0.9140325784683228
,laughing,0.9113765954971313
,recreation,0.9083297252655029
https://scontent-sit4-1.cdninstagram.com/t51.2885-15/e35/1661210_194033227622539_2074615681_n.jpg,facial expression,0.9861459732055664
,people,0.9852826595306396
,portrait,0.9849570989608765
,group,0.9836727380752563
,adult,0.9723720550537109
,three,0.9613929986953735
,woman,0.9425938129425049
,man,0.9417479038238525
,two,0.9404782652854919
,happiness,0.9325287342071533
,wear,0.9286763668060303
,festival,0.9137759208679199
,friendship,0.9115173816680908
,movie,0.8978497982025146
,fun,0.8905472755432129
,child,0.8830429315567017
,togetherness,0.8773702383041382
,fame,0.8720411658287048
,four,0.8704224824905396
,group,0.8704044818878174
https://scontent-sit4-1.cdninstagram.com/t51.2885-15/e35/12543153_1642684445997549_730195191_n.jpg,group,0.988620400428772
,people,0.9773955345153809
,embrace,0.9766154289245605
,group,0.9750369787216187
,portrait,0.9727970361709595
,man,0.9724215269088745
,facial expression,0.9653995037078857
,laughing,0.9618529081344604
,togetherness,0.9593548774719238
,four,0.9559730291366577
,three,0.9539675116539001
,family,0.9521365165710449
,interaction,0.9379886388778687
,affection,0.9365557432174683
,love,0.9307541251182556
,woman,0.9192242622375488
,two,0.9192088842391968
,friendship,0.9171684980392456
,adult,0.9168206453323364
,musician,0.9100830554962158
https://scontent-sit4-1.cdninstagram.com/t51.2885-15/e35/12519588_201743136849195_231423967_n.jpg,coffee,0.999547004699707
,wood,0.9965686798095703
,espresso,0.9960775971412659
,cup,0.993678092956543
,caffeine,0.9917959570884705
,no person,0.989915132522583
,cappuccino,0.9885107278823853
,drink,0.9880789518356323
,dawn,0.9878847599029541
,hot,0.9828563332557678
,breakfast,0.9821363687515259
,table,0.9775232672691345
,mug,0.9728319048881531
,tea,0.9606056213378906
,coffee cup,0.9554353952407837
,indoors,0.9368121027946472
,foam,0.9303902387619019
,rustic,0.9290870428085327
,dark,0.9275850653648376
,mocha,0.9116754531860352
https://scontent-sit4-1.cdninstagram.com/t51.2885-15/e35/12534534_498639770316436_1644284455_n.jpg,step,0.9949477910995483
,building,0.9771052598953247
,architecture,0.9762769341468811
,people,0.9711158275604248
,business,0.9677818417549133
,urban,0.9599016904830933
,city,0.9591542482376099
,industry,0.9469713568687439
,no person,0.9461861848831177
,concrete,0.9414323568344116
,tube,0.9272255897521973
,light,0.9170617461204529
,street,0.9145610332489014
,expression,0.9095587730407715
,indoors,0.8929815292358398
,ladder,0.8923980593681335
,steel,0.8859343528747559
,glass,0.8834660649299622
,support,0.8789377808570862
,construction,0.8361238837242126
https://scontent-sit4-1.cdninstagram.com/t51.2885-15/e35/13108909_1704989279771048_939548769_n.jpg,people,0.9765105247497559
,woman,0.9745640754699707
,portrait,0.9425212144851685
,paper,0.9269653558731079
,business,0.9101881980895996
,shopping,0.9093714952468872
,girl,0.8979271650314331
,young,0.8932083249092102
,fashion,0.883291482925415
,person,0.88136225938797
,one,0.8782710433006287
,adult,0.8696707487106323
,money,0.8422404527664185
,indoors,0.8415846228599548
,bill,0.8266929984092712
,pretty,0.8240590691566467
,card,0.8220751285552979
,sexy,0.8086340427398682
,offense,0.8056087493896484
,entertainment,0.7988072633743286
https://scontent-sit4-1.cdninstagram.com/t51.2885-15/e35/13129165_693874584049361_76122812_n.jpg,audience,0.9894192218780518
,concert,0.9884687662124634
,crowd,0.9874778985977173
,performance,0.9853221774101257
,music,0.9808446168899536
,people,0.9807395935058594
,competition,0.977187991142273
,sports fan,0.9750440120697021
,stadium,0.9742164611816406
,light,0.9617756009101868
,many,0.9617666602134705
,athlete,0.9563692808151245
,group,0.9492128491401672
,motion,0.9394482374191284
,venue,0.9230351448059082
,spectator,0.9206723570823669
,stage,0.916662335395813
,action,0.8962963223457336
,musician,0.8948453664779663
,energy,0.8791119456291199
https://scontent-sit4-1.cdninstagram.com/t51.2885-15/e35/12446022_778540968924266_19919011_n.jpg,city,0.9837924242019653
,street,0.982981264591217
,people,0.9808108806610107
,festival,0.9753389358520508
,tourist,0.9559881091117859
,tourism,0.9558398723602295
,market,0.9502683877944946
,crowd,0.9478495717048645
,travel,0.9245203733444214
,shopping,0.9235376119613647
,many,0.916313111782074
,outdoors,0.9161245226860046
,religion,0.916007399559021
,commerce,0.9159109592437744
,urban,0.9084988832473755
,traditional,0.8900534510612488
,road,0.8865779638290405
,group,0.886225700378418
,stock,0.8699866533279419
,daylight,0.8682976961135864
https://scontent-sit4-1.cdninstagram.com/t51.2885-15/e35/13259490_272893856392106_885967635_n.jpg,portrait,0.9961352348327637
,group,0.9919391870498657
,people,0.9916683435440063
,facial expression,0.9900058507919312
,adult,0.9847056865692139
,man,0.9777014255523682
,music,0.9675803184509277
,group,0.9654930233955383
,musician,0.9651590585708618
,singer,0.939976692199707
,laughing,0.9374540448188782
,eyewear,0.931084156036377
,happiness,0.9302270412445068
,woman,0.9090325832366943
,rap,0.9045595526695251
,wear,0.8933486342430115
,performance,0.8901006579399109
,festival,0.887482225894928
,fun,0.8577327132225037
,veil,0.8473411202430725
https://scontent-sit4-1.cdninstagram.com/t51.2885-15/e35/13129326_1559754950992129_2055603460_n.jpg,stock,0.9848392009735107
,no person,0.9819871187210083
,bar,0.9804983139038086
,restaurant,0.9636663198471069
,shopping,0.9636492133140564
,market,0.9619114995002747
,travel,0.9609618186950684
,shop,0.9408847093582153
,city,0.9363235831260681
,drink,0.9191339015960693
,business,0.909362256526947
,indoors,0.9029462337493896
,commerce,0.8992458581924438
,merchandise,0.8949400186538696
,tourism,0.8882370591163635
,urban,0.8818924427032471
,presentation,0.8751144409179688
,alcohol,0.8727302551269531
,pub,0.8650447726249695
,many,0.8573535084724426
