url,class,score
https://scontent-sit4-1.cdninstagram.com/t51.2885-15/e15/12362128_1120752341276990_366421915_n.jpg,sleep,0.9865278005599976
,sheet,0.9760749340057373
,horizontal,0.9704442024230957
,bedroom,0.9697047472000122
,bed,0.9692949652671814
,indoors,0.9680595993995667
,pillow,0.9515049457550049
,relaxation,0.9306354522705078
,dawn,0.9279965162277222
,woman,0.9175379276275635
,dream,0.9128763675689697
,love,0.9123554229736328
,paper,0.9064942598342896
,bedtime,0.9015936851501465
,people,0.8945247530937195
,romance,0.892714262008667
,innocence,0.8752947449684143
,cover,0.8749105930328369
,cute,0.8731695413589478
,no person,0.8430185317993164
https://scontent-sit4-1.cdninstagram.com/t51.2885-15/s640x640/e15/13628391_188938411509540_2031806203_n.jpg,adult,0.9882640838623047
,woman,0.9845117330551147
,people,0.9840774536132812
,indoors,0.9786871075630188
,portrait,0.9729798436164856
,horizontal,0.9402704238891602
,business,0.9193482398986816
,telephone,0.9164689779281616
,contemplation,0.907856822013855
,technology,0.898471474647522
,vertical,0.8968008160591125
,fashion,0.8820037841796875
,happiness,0.8756721615791321
,relaxation,0.8734136819839478
,sitting,0.8549895286560059
,communication,0.852973461151123
,cheerful,0.8129004240036011
,office,0.8123653531074524
,facial expression,0.7897793054580688
,adolescent,0.7889291644096375
https://scontent-sit4-1.cdninstagram.com/t51.2885-15/e35/p480x480/12357558_1539360523056311_1957403853_n.jpg,food,0.9953292608261108
,people,0.9855595827102661
,one,0.9565930366516113
,sushi,0.9470012187957764
,meat,0.9413350820541382
,fish,0.9401054382324219
,woman,0.9373471736907959
,two,0.9360393285751343
,no person,0.9345294833183289
,sausage,0.9318971633911133
,seafood,0.9207085371017456
,dinner,0.9170554280281067
,meal,0.9116734266281128
,dairy product,0.8951298594474792
,grow,0.8929579854011536
,refreshment,0.8905929327011108
,restaurant,0.8829195499420166
,adult,0.8761560320854187
,rice,0.8603814840316772
,delicious,0.8488990068435669
https://scontent-sit4-1.cdninstagram.com/t51.2885-15/sh0.08/e35/p640x640/12976526_1081556105244990_1201039734_n.jpg,illustration,0.9974911212921143
,sketch,0.9862859845161438
,vector,0.972597062587738
,people,0.952400267124176
,sketch,0.9310988783836365
,business,0.9235396385192871
,vector,0.915760338306427
,humor,0.9149904251098633
,hand,0.9107628464698792
,adult,0.9084534645080566
,graphic design,0.9019477963447571
,no person,0.8779269456863403
,man,0.8767382502555847
,vertical,0.8766996264457703
,woman,0.8721497058868408
,fun,0.8388912081718445
,creativity,0.8126797676086426
,cute,0.8096120357513428
,child,0.7924400568008423
,funny,0.7903700470924377
https://scontent-sit4-1.cdninstagram.com/t51.2885-15/e15/13166892_618998251585278_469616539_n.jpg,business,0.9825246334075928
,adult,0.9763689637184143
,woman,0.9711413383483887
,people,0.9631302952766418
,portrait,0.9599208831787109
,isolated,0.9199703931808472
,vertical,0.9196235537528992
,office,0.893997311592102
,desktop,0.8662746548652649
,paper,0.8584301471710205
,person,0.8559543490409851
,young,0.8250418305397034
,communication,0.8181254863739014
,cheerful,0.8054938316345215
,looking,0.8022087812423706
,sadness,0.7916123867034912
,success,0.7907928824424744
,contemplation,0.7885350584983826
,adolescent,0.7693642377853394
,finance,0.76292884349823
https://scontent-sit4-1.cdninstagram.com/t51.2885-15/e15/13628339_1707964126122367_741085433_n.jpg,music,0.9780992269515991
,celebration,0.9735565781593323
,people,0.9711203575134277
,performance,0.9667764902114868
,festival,0.9650999307632446
,musician,0.9485016465187073
,concert,0.947719931602478
,group,0.9472930431365967
,singer,0.9155731201171875
,education,0.9028948545455933
,ceremony,0.8989816904067993
,adult,0.8970226049423218
,portrait,0.8949072360992432
,stage,0.8774121403694153
,wear,0.864905834197998
,woman,0.8646100759506226
,party,0.8427144885063171
,school,0.8374091386795044
,university,0.8370186686515808
,man,0.83235102891922
https://scontent-sit4-1.cdninstagram.com/t51.2885-15/s640x640/sh0.08/e35/13113957_505724532944860_2045137072_n.jpg,woman,0.978014349937439
,girl,0.9318211078643799
,business,0.9259925484657288
,young,0.9252475500106812
,people,0.9166682958602905
,pretty,0.9065240025520325
,desktop,0.896492063999176
,portrait,0.8887594938278198
,fashion,0.8732917308807373
,beautiful,0.8658919334411621
,person,0.8658356070518494
,brunette,0.863655149936676
,smile,0.8591748476028442
,isolated,0.8448578119277954
,attractive,0.8416367769241333
,one,0.8393993377685547
,adult,0.8372074365615845
,looking,0.8299205899238586
,education,0.8266876935958862
,presentation,0.8259421586990356
https://scontent-sit4-1.cdninstagram.com/t51.2885-15/e35/13531882_1648533645466202_955799229_n.jpg,sunset,0.9969272017478943
,dawn,0.991981029510498
,sun,0.9839606285095215
,evening,0.9820667505264282
,water,0.9819470643997192
,landscape,0.9816259741783142
,moon,0.9813780188560486
,dusk,0.9761377573013306
,silhouette,0.972711980342865
,sky,0.9719239473342896
,light,0.9693608283996582
,lake,0.959302544593811
,backlit,0.9572212100028992
,river,0.9456911683082581
,beach,0.945315420627594
,tree,0.9390918016433716
,fog,0.9318399429321289
,no person,0.9266112446784973
,dark,0.9261256456375122
,sea,0.913486123085022
https://scontent-sit4-1.cdninstagram.com/t51.2885-15/e15/13584083_1625264537791275_720546642_n.jpg,no person,0.9883484244346619
,business,0.9868952035903931
,text,0.9851046800613403
,typography,0.9850963354110718
,alphabet,0.980927586555481
,time,0.9789683818817139
,symbol,0.9696710705757141
,number,0.9645031690597534
,graphic design,0.9483822584152222
,illustration,0.9410605430603027
,data,0.9346017837524414
,isolated,0.930916428565979
,sign,0.9278273582458496
,display,0.9127082824707031
,rudiment,0.9030016660690308
,isolated,0.9003071188926697
,education,0.8859608173370361
,data,0.8840186595916748
,design,0.8689264059066772
,design,0.8615380525588989
https://scontent-sit4-1.cdninstagram.com/t51.2885-15/s640x640/e15/13561901_293670717646468_1448632200_n.jpg,athlete,0.9945822954177856
,energy,0.989774227142334
,recreation,0.9861558675765991
,performance,0.9811593294143677
,wear,0.9749144315719604
,woman,0.9744013547897339
,competition,0.9720199108123779
,fashion,0.9656124114990234
,girl,0.9579883813858032
,people,0.9576904773712158
,adult,0.949135422706604
,stage,0.9484738111495972
,music,0.9476848840713501
,motion,0.9434524774551392
,festival,0.9433920383453369
,model,0.9430515170097351
,group,0.9381604790687561
,group,0.9377412796020508
,dancing,0.937095046043396
,gymnastics,0.924075722694397
https://scontent-sit4-1.cdninstagram.com/t51.2885-15/s640x640/sh0.08/e35/12353234_812519148859253_1410900434_n.jpg,paper,0.9955430030822754
,Christmas,0.9920263886451721
,gift,0.9878972768783569
,card,0.987587034702301
,thread,0.9854263663291931
,surprise,0.9815993905067444
,box,0.9789117574691772
,bow,0.9641207456588745
,anniversary,0.962134599685669
,decoration,0.9559276103973389
,birthday,0.9554591178894043
,celebration,0.9545992612838745
,love,0.9503660202026367
,invitation,0.9429267048835754
,greeting,0.9368405342102051
,post,0.9314956665039062
,note,0.9304095506668091
,vacation,0.9292320013046265
,no person,0.9215883016586304
,blank,0.886683464050293
https://scontent-sit4-1.cdninstagram.com/t51.2885-15/e15/13741007_1069590273126435_1116615974_n.jpg,adult,0.9951635599136353
,woman,0.9931207895278931
,people,0.986491322517395
,facial expression,0.9801099896430969
,wear,0.9758772850036621
,portrait,0.97419273853302
,indoors,0.9669489860534668
,brunette,0.9504438638687134
,blur,0.9476414918899536
,one,0.9401525855064392
,girl,0.9346131086349487
,two,0.9333520531654358
,daylight,0.9287546873092651
,side view,0.9164071083068848
,happiness,0.911972165107727
,interaction,0.9098034501075745
,man,0.8980807065963745
,recreation,0.8913767337799072
,business,0.888398289680481
,outdoors,0.8778601884841919
https://scontent-sit4-1.cdninstagram.com/t51.2885-15/sh0.08/e35/p640x640/13116642_232409980465686_192195176_n.jpg,adult,0.9921697378158569
,people,0.9901655912399292
,woman,0.9887688159942627
,portrait,0.9873204231262207
,vertical,0.984298825263977
,fashion,0.9736475944519043
,indoors,0.9491226077079773
,cheerful,0.9140620231628418
,dress,0.9043512344360352
,happiness,0.9014176726341248
,relaxation,0.9011318683624268
,contemplation,0.8933418989181519
,horizontal,0.8923518657684326
,sit,0.8780588507652283
,sitting,0.8718578815460205
,glamour,0.8716769814491272
,confidence,0.863467812538147
,cute,0.857079029083252
,adolescent,0.8561581373214722
,sadness,0.8220467567443848
https://scontent-sit4-1.cdninstagram.com/t51.2885-15/e15/13774216_1197519443605206_681636206_n.jpg,airport,0.9944970607757568
,commuter,0.9870564341545105
,people,0.9834690093994141
,reflection,0.9759050607681274
,adult,0.9594829082489014
,city,0.9542089104652405
,transportation system,0.951980710029602
,blur,0.9468277096748352
,crowd,0.9408683180809021
,railway,0.9391173720359802
,business,0.9385429620742798
,travel,0.9363806843757629
,woman,0.9342668056488037
,luggage,0.9334840774536133
,motion,0.9292852282524109
,wait,0.9240137934684753
,vehicle,0.9234058856964111
,man,0.9233044981956482
,tube,0.922311544418335
,action,0.9150044918060303
https://scontent-sit4-1.cdninstagram.com/t51.2885-15/e35/13108553_1227201603957383_1289102144_n.jpg,illustration,0.9643723964691162
,vector,0.9627132415771484
,vector,0.9603179693222046
,internet,0.9417144060134888
,horizontal,0.9218342304229736
,technology,0.9122385382652283
,World Wide Web,0.8998613357543945
,business,0.8907948136329651
,vertical,0.8894359469413757
,data,0.8838351368904114
,data,0.877838134765625
,connection,0.8629146814346313
,communication,0.8553239703178406
,page,0.8355163335800171
,flat,0.835509717464447
,abstract,0.83403480052948
,luster,0.8261150121688843
,text,0.8201740384101868
,modern,0.8200329542160034
,identity,0.8171682357788086
https://scontent-sit4-1.cdninstagram.com/t51.2885-15/s640x640/sh0.08/e35/11008262_1682639591953058_311550125_n.jpg,woman,0.9912583231925964
,togetherness,0.9889363050460815
,people,0.983184814453125
,child,0.9816798567771912
,portrait,0.9707801938056946
,friendship,0.970766007900238
,adolescent,0.9688454270362854
,girl,0.9673672914505005
,facial expression,0.9666452407836914
,family,0.9664074182510376
,affection,0.9647160172462463
,two,0.9620667695999146
,fun,0.9620214104652405
,love,0.9536392688751221
,indoors,0.9487863779067993
,daylight,0.9457262754440308
,interaction,0.9411396384239197
,laughing,0.9349340796470642
,enjoyment,0.9284425973892212
,happiness,0.9188479781150818
https://scontent-sit4-1.cdninstagram.com/t51.2885-15/e35/12543349_1664227230506173_315766702_n.jpg,no person,0.9946349263191223
,one,0.9521380662918091
,still life,0.8708685040473938
,recreation,0.845244288444519
,flower,0.8348439931869507
,blur,0.8224228620529175
,food,0.8184288740158081
,people,0.7888447046279907
,light,0.7750816941261292
,travel,0.7702397108078003
,business,0.7632170915603638
,conceptual,0.7356729507446289
,wood,0.7223094701766968
,sculpture,0.716903567314148
,tree,0.7101619839668274
,creativity,0.6998341083526611
,shape,0.6991113424301147
,outdoors,0.6909576058387756
,leisure,0.6862869262695312
,motley,0.682640016078949
https://scontent-sit4-1.cdninstagram.com/t51.2885-15/s640x640/sh0.08/e35/1173065_1244860412265760_595194663_n.jpg,woman,0.9880188703536987
,people,0.9782238602638245
,portrait,0.9618955850601196
,girl,0.9581900835037231
,child,0.9560823440551758
,wear,0.9514858722686768
,facial expression,0.9417846202850342
,friendship,0.9304901361465454
,togetherness,0.9203113913536072
,adolescent,0.9170001745223999
,daylight,0.9069234132766724
,enjoyment,0.906466007232666
,group,0.9060838222503662
,fun,0.8962812423706055
,shopping,0.8793954849243164
,outdoors,0.8458701372146606
,happiness,0.8438969850540161
,indoors,0.8341965675354004
,two,0.8077256679534912
,adult,0.8036361932754517
https://scontent-sit4-1.cdninstagram.com/t51.2885-15/e35/12797844_1713291502249392_1249503514_n.jpg,instrument,0.9940261244773865
,music,0.9939438104629517
,guitar,0.9883446097373962
,woman,0.9829624891281128
,adult,0.9824715256690979
,people,0.9810312390327454
,musician,0.971477746963501
,indoors,0.9557254314422607
,girl,0.9556496143341064
,one,0.9544975757598877
,room,0.9541983008384705
,portrait,0.9189307689666748
,leisure,0.8851245045661926
,family,0.8834578990936279
,guitarist,0.877655565738678
,man,0.8576791286468506
,sit,0.8570889830589294
,sofa,0.8472439050674438
,light,0.8405534029006958
,acoustic,0.8361506462097168
https://scontent-sit4-1.cdninstagram.com/t51.2885-15/s640x640/sh0.08/e35/13561530_290540147946677_1238830508_n.jpg,people,0.9941216707229614
,adult,0.9796321392059326
,portrait,0.979322612285614
,vertical,0.9788070917129517
,woman,0.9633049964904785
,horizontal,0.9624075889587402
,indoors,0.9430508613586426
,cheerful,0.9378493428230286
,fun,0.9281597137451172
,happiness,0.9277013540267944
,fashion,0.8849236965179443
,outdoors,0.874923586845398
,enjoyment,0.8747138381004333
,contemplation,0.8744441270828247
,relaxation,0.8685832023620605
,redhead,0.8468204736709595
,adolescent,0.8437075614929199
,headshot,0.8411378264427185
,square,0.8396774530410767
,child,0.830414891242981
https://scontent-sit4-1.cdninstagram.com/t51.2885-15/s640x640/sh0.08/e35/12547529_1559319641060912_57346524_n.jpg,woman,0.990547776222229
,togetherness,0.9714456796646118
,people,0.9632452726364136
,facial expression,0.9557211399078369
,portrait,0.9513278007507324
,student,0.9431383013725281
,indoors,0.9396716356277466
,group,0.9300283193588257
,daylight,0.9259122014045715
,enjoyment,0.9143533110618591
,adolescent,0.911575436592102
,man,0.9083215594291687
,girl,0.9057139754295349
,teamwork,0.9030763506889343
,interaction,0.8845804929733276
,three,0.8842906951904297
,friendship,0.8772767782211304
,child,0.8742659091949463
,confidence,0.8616239428520203
,fun,0.8592814207077026
https://scontent-sit4-1.cdninstagram.com/t51.2885-15/sh0.08/e35/p640x640/13741218_1317799054897354_1246407230_n.jpg,indoors,0.9892867803573608
,family,0.985992968082428
,woman,0.9834948778152466
,house,0.9803581237792969
,room,0.977554202079773
,fashion,0.9733322858810425
,shopping,0.971451997756958
,wardrobe,0.9629701375961304
,wear,0.9556239247322083
,pretty,0.9550034999847412
,people,0.9279705286026001
,adult,0.9251457452774048
,one,0.9214624166488647
,wood,0.9167200326919556
,inside,0.9155548810958862
,young,0.9110442399978638
,sexy,0.9084749221801758
,dress,0.904839038848877
,girl,0.9046580791473389
,contemporary,0.8970941305160522
https://scontent-sit4-1.cdninstagram.com/t51.2885-15/s750x750/sh0.08/e35/12424813_520601504785781_1845393363_n.jpg,woman,0.9945305585861206
,people,0.9896590709686279
,facial expression,0.985338568687439
,portrait,0.978195071220398
,adult,0.9765313863754272
,happiness,0.9613887667655945
,one,0.9612762928009033
,leisure,0.9586601257324219
,telephone,0.9551035165786743
,wear,0.947410523891449
,enjoyment,0.9407863616943359
,girl,0.9299794435501099
,brunette,0.9272814989089966
,fun,0.9230841398239136
,fashion,0.9160224199295044
,indoors,0.9028716087341309
,joy,0.8937821388244629
,young,0.8931680917739868
,lifestyle,0.8927183151245117
,pretty,0.8900414705276489
https://scontent-sit4-1.cdninstagram.com/t51.2885-15/e15/1388985_1666152453659172_1915360167_n.jpg,people,0.9572651386260986
,competition,0.9387488961219788
,exhibition,0.9355561137199402
,music,0.9204054474830627
,fashion,0.9137786626815796
,festival,0.9093809127807617
,city,0.875832200050354
,wear,0.873141884803772
,woman,0.8691248297691345
,adult,0.8657563924789429
,many,0.8492720127105713
,travel,0.8461319208145142
,recreation,0.8335328102111816
,man,0.8317673206329346
,portrait,0.8298926949501038
,building,0.829015851020813
,celebration,0.8275281190872192
,show,0.8225735425949097
,light,0.8215907216072083
,performance,0.7979322671890259
https://scontent-sit4-1.cdninstagram.com/t51.2885-15/s750x750/sh0.08/e35/13398970_1631630657157173_1410700042_n.jpg,indoors,0.985040545463562
,woman,0.9800369143486023
,people,0.9789258241653442
,room,0.9743333458900452
,adult,0.9611542224884033
,painting,0.9375411868095398
,furniture,0.9303352236747742
,child,0.9265546202659607
,sit,0.9231777787208557
,family,0.9231644868850708
,fun,0.9229223728179932
,girl,0.9210301637649536
,enjoyment,0.8950892686843872
,recreation,0.8903917074203491
,happiness,0.889244794845581
,brunette,0.8889092206954956
,one,0.8886923789978027
,bedroom,0.8786215782165527
,wear,0.877537727355957
,portrait,0.8775119781494141
https://scontent-sit4-1.cdninstagram.com/t51.2885-15/s640x640/sh0.08/e35/12940873_497049287161392_1537881983_n.jpg,child,0.9924378395080566
,woman,0.9757963418960571
,fun,0.9706360101699829
,girl,0.9663728475570679
,friendship,0.962104320526123
,portrait,0.9618821740150452
,togetherness,0.9535773992538452
,family,0.9517967700958252
,people,0.9478899836540222
,joy,0.9187124967575073
,adolescent,0.9154439568519592
,cute,0.9150607585906982
,laughing,0.9056274890899658
,student,0.8911334276199341
,three,0.8894615173339844
,group,0.8804664015769958
,smile,0.8744429349899292
,enjoyment,0.8646180629730225
,love,0.8631001710891724
,nature,0.8533428907394409
https://scontent-sit4-1.cdninstagram.com/t51.2885-15/sh0.08/e35/p750x750/13714137_1649560012029994_1562275977_n.jpg,monochrome,0.9994287490844727
,portrait,0.9980636835098267
,girl,0.9970625638961792
,model,0.9937493801116943
,woman,0.991608738899231
,people,0.9909435510635376
,street,0.9902746677398682
,fashion,0.9837870001792908
,black and white,0.9782838225364685
,adult,0.9731296896934509
,light,0.9706618785858154
,sunglasses,0.9668470621109009
,one,0.958625078201294
,car,0.9486459493637085
,sexy,0.9479634761810303
,face,0.9411541223526001
,city,0.9410484433174133
,dark,0.9343121647834778
,beautiful,0.9301589727401733
,urban,0.9298586845397949
https://scontent-sit4-1.cdninstagram.com/t51.2885-15/e35/927477_838845366243106_39559422_n.jpg,money,0.982905924320221
,people,0.9813245534896851
,business,0.9737446904182434
,wealth,0.9598422646522522
,money,0.9531588554382324
,woman,0.9464487433433533
,commerce,0.9316965341567993
,adult,0.9168151021003723
,music,0.9099652171134949
,finance,0.9069701433181763
,cash,0.9034521579742432
,paper,0.8987472057342529
,technology,0.8938026428222656
,gambling,0.889358401298523
,shopping,0.8863637447357178
,telephone,0.8724935054779053
,indoors,0.856939435005188
,wear,0.8516327142715454
,one,0.8485631942749023
,dollar,0.8459811210632324
https://scontent-sit4-1.cdninstagram.com/t51.2885-15/sh0.08/e35/p640x640/12558814_474922182709748_1104761644_n.jpg,people,0.9899398684501648
,one,0.9890421628952026
,adult,0.9768927097320557
,woman,0.9744299650192261
,wear,0.9572954773902893
,portrait,0.9341470003128052
,indoors,0.9146336317062378
,outfit,0.8970104455947876
,two,0.8894268274307251
,fashion,0.872545599937439
,man,0.845806896686554
,recreation,0.8121769428253174
,model,0.7905003428459167
,street,0.789111852645874
,museum,0.7784570455551147
,glamour,0.7642079591751099
,administration,0.7626984119415283
,city,0.759320080280304
,room,0.7449579834938049
,group,0.7371708154678345
https://scontent-sit4-1.cdninstagram.com/t51.2885-15/sh0.08/e35/p750x750/13551802_576360532546145_1116220556_n.jpg,woman,0.9963952898979187
,togetherness,0.9905335903167725
,facial expression,0.9885088801383972
,adolescent,0.9853588342666626
,indoors,0.9767340421676636
,wear,0.9727306365966797
,portrait,0.972312331199646
,child,0.9711540937423706
,people,0.9691667556762695
,enjoyment,0.9554622173309326
,accomplishment,0.9545430541038513
,friendship,0.9509881138801575
,man,0.9503294229507446
,interaction,0.9479178190231323
,intelligence,0.9418907165527344
,two,0.9337858557701111
,student,0.9219974279403687
,love,0.9209229946136475
,graduation,0.9050843715667725
,pride,0.9010888338088989
https://scontent-sit4-1.cdninstagram.com/l/t51.2885-15/sh0.08/e35/p750x750/13744965_227231227671446_1305355843_n.jpg,girl,0.9933058023452759
,woman,0.9929383397102356
,young,0.9846522808074951
,fashion,0.9816728234291077
,beautiful,0.9792766571044922
,model,0.9790918827056885
,lifestyle,0.9772503972053528
,adult,0.9665336608886719
,portrait,0.9664326906204224
,dress,0.9587384462356567
,walk,0.9558574557304382
,pretty,0.9496732950210571
,one,0.9370372295379639
,summer,0.9320756793022156
,lady,0.9316549301147461
,people,0.9098900556564331
,sexy,0.9043129086494446
,casual,0.889599084854126
,leisure,0.885525643825531
,fun,0.8761401772499084
https://scontent-sit4-1.cdninstagram.com/t51.2885-15/e35/12783880_1685706288352030_1657607355_n.jpg,woman,0.9896678328514099
,people,0.9850831031799316
,togetherness,0.9680191278457642
,portrait,0.9674133062362671
,girl,0.9611932039260864
,child,0.9575482606887817
,fun,0.9564424753189087
,two,0.9555484056472778
,adolescent,0.9526910781860352
,daylight,0.9455506801605225
,friendship,0.9433577060699463
,pretty,0.9338818788528442
,family,0.9283923506736755
,wear,0.9274577498435974
,group,0.9220227003097534
,enjoyment,0.9213130474090576
,facial expression,0.9199092388153076
,joy,0.9141214489936829
,love,0.9119976162910461
,indoors,0.9079142212867737
https://scontent-sit4-1.cdninstagram.com/t51.2885-15/sh0.08/e35/p750x750/13724440_1096870457060652_1408255026_n.jpg,fashion,0.9948218464851379
,woman,0.9932050108909607
,girl,0.9815757274627686
,pretty,0.9643250107765198
,portrait,0.9553166627883911
,sexy,0.9496982097625732
,model,0.9495829343795776
,beautiful,0.9275065064430237
,young,0.9274019598960876
,cute,0.925510585308075
,shopping,0.9060295820236206
,summer,0.8875907063484192
,fun,0.8864800930023193
,elegant,0.8784623146057129
,trendy,0.8694089651107788
,people,0.8678749799728394
,joy,0.8655607104301453
,adult,0.8580511808395386
,glamour,0.8484682440757751
,one,0.8445495367050171
https://scontent-sit4-1.cdninstagram.com/t51.2885-15/sh0.08/e35/p750x750/13150969_377262642444017_1879105876_n.jpg,woman,0.968017578125
,outdoors,0.9631922245025635
,young,0.9535825252532959
,relaxation,0.941077470779419
,nature,0.9375226497650146
,leisure,0.9300018548965454
,summer,0.9243608713150024
,fun,0.9228675961494446
,enjoyment,0.9188354015350342
,people,0.9074229001998901
,joy,0.9053246974945068
,fashion,0.8989167213439941
,success,0.8837556838989258
,casual,0.880101203918457
,contemporary,0.8727496862411499
,health,0.870978593826294
,travel,0.8696101903915405
,water,0.8507962226867676
,recreation,0.8501905202865601
,adolescent,0.8450490236282349
https://scontent-sit4-1.cdninstagram.com/t51.2885-15/e35/12677215_989319531153112_1395640500_n.jpg,woman,0.9912838935852051
,girl,0.9875972270965576
,beautiful,0.9746419191360474
,people,0.9706748723983765
,young,0.9638558626174927
,portrait,0.9628476500511169
,pretty,0.9554762840270996
,fashion,0.9380974173545837
,lady,0.9228160381317139
,model,0.9193211793899536
,smile,0.9178351163864136
,indoors,0.9171105623245239
,person,0.9110831618309021
,adult,0.8984497785568237
,attractive,0.8869543671607971
,cute,0.8859065175056458
,one,0.8852214217185974
,dress,0.8770699501037598
,dawn,0.871586799621582
,face,0.8581217527389526
https://scontent-sit4-1.cdninstagram.com/t51.2885-15/e35/13395052_253432085030256_1534446790_n.jpg,woman,0.9959158897399902
,paper,0.9885101914405823
,beautiful,0.985087513923645
,isolated,0.981590747833252
,pretty,0.9767920970916748
,fashion,0.9760580658912659
,young,0.9757363200187683
,shopping,0.9740822315216064
,fun,0.970544695854187
,portrait,0.9669491052627563
,girl,0.9602530002593994
,adult,0.9553223848342896
,wealth,0.9477769136428833
,sexy,0.9423742294311523
,attractive,0.9398398399353027
,joy,0.9315446615219116
,sale,0.9289047718048096
,people,0.9249420166015625
,happiness,0.9211364984512329
,glamour,0.9167665243148804
https://scontent-sit4-1.cdninstagram.com/t51.2885-15/e35/12725095_149529982095917_2064462971_n.jpg,fashion,0.9948904514312744
,woman,0.9895156621932983
,wear,0.977752685546875
,door,0.9717680215835571
,model,0.971527099609375
,portrait,0.9650986194610596
,indoors,0.958227813243866
,dress,0.9486548900604248
,glamour,0.938225269317627
,skirt,0.9258103370666504
,telephone,0.9248124361038208
,adult,0.9238386154174805
,one,0.9217314720153809
,girl,0.9130409359931946
,people,0.8960298299789429
,window,0.8639479875564575
,sexy,0.8577383756637573
,long,0.8519713878631592
,fashionable,0.8455259799957275
,door,0.8269517421722412
https://scontent-sit4-1.cdninstagram.com/t51.2885-15/sh0.08/e35/p640x640/12826159_198838070471981_793012434_n.jpg,woman,0.9963775873184204
,indoors,0.9839671850204468
,facial expression,0.9780178070068359
,people,0.969648540019989
,wear,0.9531753063201904
,one,0.9518349170684814
,enjoyment,0.9464800357818604
,adolescent,0.9315059781074524
,fashion,0.9228671193122864
,portrait,0.9034494161605835
,pretty,0.894040584564209
,girl,0.872849702835083
,daylight,0.868378758430481
,cute,0.8681478500366211
,relaxation,0.8609288334846497
,looking,0.8484772443771362
,leisure,0.8484113812446594
,adult,0.8474467992782593
,recreation,0.8408646583557129
,sitting,0.8395490646362305
https://scontent-sit4-1.cdninstagram.com/t51.2885-15/s750x750/sh0.08/e35/12748373_1003388576365377_413135432_n.jpg,portrait,0.9970784783363342
,girl,0.9945573806762695
,woman,0.9918416738510132
,model,0.9897445440292358
,fashion,0.9895108938217163
,eye,0.9775009155273438
,beautiful,0.9765692949295044
,face,0.9636486172676086
,hair,0.9622011184692383
,pretty,0.9619460105895996
,sexy,0.9591431617736816
,young,0.9555807113647461
,glamour,0.955569863319397
,lady,0.9462088346481323
,studio,0.9387121200561523
,cute,0.9291950464248657
,skin,0.9214470982551575
,headshot,0.9134019613265991
,people,0.9050891995429993
,smile,0.8843605518341064
https://scontent-sit4-1.cdninstagram.com/t51.2885-15/e35/12407296_2157283371079273_908722299_n.jpg,people,0.9914587140083313
,portrait,0.9889637231826782
,adult,0.955890417098999
,one,0.9407724738121033
,street,0.9247189164161682
,man,0.917768120765686
,woman,0.9144063591957092
,music,0.8842225074768066
,model,0.867542028427124
,face,0.8554368615150452
,fashion,0.8398110866546631
,wear,0.8099443912506104
,light,0.8078610897064209
,art,0.7925420999526978
,smoke,0.7908014059066772
,musician,0.786175012588501
,dark,0.7752196788787842
,movie,0.7508130073547363
,flame,0.746593713760376
,urban,0.7416200637817383
https://scontent-sit4-1.cdninstagram.com/t51.2885-15/e35/13126664_1757554954459337_70560411_n.jpg,group,0.9958658218383789
,group,0.9794207811355591
,student,0.9761597514152527
,education,0.9706554412841797
,man,0.9588848352432251
,woman,0.9582643508911133
,people,0.9446131587028503
,portrait,0.9416693449020386
,school,0.9361854791641235
,university,0.9160170555114746
,adult,0.9145030379295349
,squad,0.9089181423187256
,friendship,0.9063670635223389
,child,0.8827579021453857
,teamwork,0.8769563436508179
,four,0.8586864471435547
,adolescent,0.8556720018386841
,college,0.8219136595726013
,three,0.8135675191879272
,laughing,0.8134827613830566
https://scontent-sit4-1.cdninstagram.com/t51.2885-15/s750x750/sh0.08/e35/925862_1498395790467221_350461032_n.jpg,group,0.9946755766868591
,woman,0.9883238077163696
,portrait,0.9854732155799866
,student,0.9821932315826416
,friendship,0.9761373400688171
,people,0.97528076171875
,university,0.9597505331039429
,group,0.9541861414909363
,education,0.9365561604499817
,campus,0.9311988353729248
,young,0.929963231086731
,outdoors,0.9293439388275146
,school,0.928013265132904
,girl,0.9170289039611816
,adult,0.9105987548828125
,adolescent,0.9069129228591919
,togetherness,0.8980021476745605
,happiness,0.8939533829689026
,laughing,0.8737080097198486
,three,0.8648227453231812
https://scontent-sit4-1.cdninstagram.com/t51.2885-15/e35/12519377_1054679744592344_323832608_n.jpg,woman,0.9898896217346191
,girl,0.9771319627761841
,people,0.9748127460479736
,brunette,0.969590961933136
,togetherness,0.9642038345336914
,love,0.960979163646698
,portrait,0.958562970161438
,friendship,0.9442410469055176
,facial expression,0.9212644100189209
,summer,0.9157732725143433
,fun,0.9136171340942383
,two,0.9045487642288208
,affection,0.9002832174301147
,family,0.897290050983429
,romance,0.8942177891731262
,couple,0.8873987197875977
,child,0.8850057125091553
,interaction,0.881770670413971
,adolescent,0.880220353603363
,outdoors,0.878826916217804
https://scontent-sit4-1.cdninstagram.com/t51.2885-15/e35/12818883_604487616371882_1844696655_n.jpg,woman,0.994715690612793
,pretty,0.9632461071014404
,outdoors,0.9584724307060242
,people,0.9565461874008179
,girl,0.9544411897659302
,nature,0.9494724273681641
,portrait,0.9234224557876587
,young,0.9139109253883362
,summer,0.9071404337882996
,enjoyment,0.9012953639030457
,adolescent,0.8930858373641968
,joy,0.8860354423522949
,fun,0.8624027967453003
,leisure,0.8609976768493652
,smile,0.8555166721343994
,relaxation,0.8523329496383667
,sit,0.8405573964118958
,happiness,0.836972713470459
,one,0.8367339968681335
,student,0.835840106010437
https://scontent-sit4-1.cdninstagram.com/t51.2885-15/e35/13437415_799065080231157_1506244173_n.jpg,outdoors,0.9794208407402039
,woman,0.9768185615539551
,man,0.9617748260498047
,togetherness,0.9609424471855164
,people,0.9496144652366638
,leisure,0.9404139518737793
,friendship,0.9312257170677185
,adult,0.9223053455352783
,recreation,0.9160435199737549
,school,0.9137763977050781
,portrait,0.9020165801048279
,group,0.9004533290863037
,adolescent,0.898708701133728
,education,0.879487156867981
,runner,0.8678668737411499
,competition,0.8592721223831177
,happiness,0.8583366870880127
,travel,0.8576959371566772
,enjoyment,0.8506230115890503
,university,0.847129225730896
https://scontent-sit4-1.cdninstagram.com/t51.2885-15/e35/12424468_667638973338440_2054334055_n.jpg,woman,0.9894683361053467
,people,0.9869590997695923
,adult,0.9841358661651611
,illustration,0.9656596183776855
,portrait,0.9655545949935913
,fashion,0.9608969688415527
,bill,0.9174779653549194
,music,0.8955274820327759
,vertical,0.8860226273536682
,actress,0.8797265291213989
,festival,0.8718295097351074
,indoors,0.8712445497512817
,dress,0.8587357997894287
,horizontal,0.8244842290878296
,movie,0.8242856860160828
,stock,0.7955048084259033
,theater,0.7947466373443604
,recreation,0.7823014259338379
,celebration,0.7772715091705322
,glamour,0.7700209617614746
https://scontent-sit4-1.cdninstagram.com/t51.2885-15/e35/11373579_773129062823516_379242650_n.jpg,woman,0.9937323331832886
,umbrella,0.9920815825462341
,girl,0.9842245578765869
,people,0.9841615557670593
,portrait,0.975532591342926
,outdoors,0.9739705324172974
,pretty,0.9622963666915894
,summer,0.9382373094558716
,brunette,0.9369754791259766
,young,0.9358605146408081
,fun,0.9319031238555908
,recreation,0.9224004149436951
,beautiful,0.9215648174285889
,leisure,0.9149747490882874
,smile,0.9148848056793213
,nature,0.8942110538482666
,park,0.8914135694503784
,joy,0.8670408129692078
,enjoyment,0.8633251190185547
,adolescent,0.8570894002914429
https://scontent-sit4-1.cdninstagram.com/t51.2885-15/e35/12818893_1769383126627736_1972707653_n.jpg,woman,0.9962115287780762
,people,0.9675719738006592
,indoors,0.9651411771774292
,togetherness,0.9585585594177246
,friendship,0.9362286925315857
,adolescent,0.9362043142318726
,portrait,0.9324135780334473
,facial expression,0.9297574162483215
,girl,0.9110720753669739
,enjoyment,0.9103853106498718
,leisure,0.9044915437698364
,fashion,0.9043750762939453
,recreation,0.900606632232666
,two,0.8809088468551636
,wear,0.8679583072662354
,daylight,0.8628861308097839
,student,0.8541351556777954
,man,0.8526337146759033
,looking,0.847459077835083
,fun,0.8437535762786865
