url,class,score
https://scontent.cdninstagram.com/t51.2885-15/e35/13408770_1094839347251023_1607192070_n.jpg?ig_cache_key=MTI3MzE5OTQzNzA3MDIxNzgwNw%3D%3D.2,no person,0.9907248020172119
,food,0.9733178615570068
,delicious,0.9730081558227539
,breakfast,0.9623143672943115
,dawn,0.9478798508644104
,sweet,0.9314002990722656
,cream,0.9292430877685547
,creamy,0.9229469895362854
,lunch,0.9178368449211121
,custard,0.9109005928039551
,nutrition,0.9085211753845215
,spoon,0.8966397643089294
,cooking,0.8892280459403992
,egg yolk,0.8889648914337158
,plate,0.8876036405563354
,dinner,0.878516435623169
,traditional,0.8776620626449585
,soup,0.8545973300933838
,egg,0.8521246910095215
,ingredients,0.8519482612609863
https://scontent.cdninstagram.com/t51.2885-15/e15/p640x640/13413442_1731941963744643_685656628_n.jpg?ig_cache_key=MTI3NTQwMTY5NzEyODg4NzIyOA%3D%3D.2,child,0.9960678219795227
,people,0.9838560819625854
,girl,0.9702392816543579
,portrait,0.9702063202857971
,birthday,0.9631233811378479
,facial expression,0.9615217447280884
,youth,0.9551595449447632
,two,0.9525700807571411
,happiness,0.9514070749282837
,family,0.9459830522537231
,celebration,0.9434258937835693
,school,0.9399631023406982
,candle,0.9373540878295898
,room,0.9357664585113525
,boy,0.9262189865112305
,wear,0.9191441535949707
,adult,0.9094561338424683
,education,0.9075884819030762
,fun,0.8989330530166626
,togetherness,0.8942348957061768
https://scontent.cdninstagram.com/t51.2885-15/e35/13402140_240907779627278_747024351_n.jpg?ig_cache_key=MTI3NTgwMDU4MDMyOTg0NTUzMg%3D%3D.2,isolated,0.9804397821426392
,retro,0.9766683578491211
,equipment,0.9760603904724121
,no person,0.9743903875350952
,electronics,0.969959020614624
,plastic,0.9473832845687866
,paper,0.9332504272460938
,technology,0.9317777156829834
,obsolete,0.9137774109840393
,display,0.8949660062789917
,business,0.8937824964523315
,movie,0.8759937286376953
,old,0.8509594202041626
,electricity,0.8393048644065857
,power,0.8355329036712646
,tape,0.8321723937988281
,isolated,0.8294841051101685
,antique,0.8242310881614685
,number,0.8194093704223633
,family,0.8155336380004883
https://scontent.cdninstagram.com/t51.2885-15/e35/13402358_1555926124713367_1204757013_n.jpg?ig_cache_key=MTI3MDEyNzIwNTk3NjY1MDU3Nw%3D%3D.2,decoration,0.9893026351928711
,celebration,0.981830358505249
,desktop,0.9644497632980347
,Christmas,0.954716145992279
,sweet,0.9522855877876282
,chocolate,0.9495857954025269
,birthday,0.9456602334976196
,thread,0.934728741645813
,gift,0.9286460280418396
,no person,0.9253158569335938
,ornate,0.9116672277450562
,sugar,0.9095249772071838
,party,0.9062820672988892
,card,0.9049142003059387
,vacation,0.90269935131073
,cake,0.8952059745788574
,candy,0.8928196430206299
,cream,0.8887665271759033
,greeting,0.8887099027633667
,confection,0.8876000642776489
https://scontent.cdninstagram.com/t51.2885-15/e35/13108973_539476539558828_618485969_n.jpg?ig_cache_key=MTI3NDQwNjg1MDUyMzgzNjYxNg%3D%3D.2,box,0.9711980819702148
,people,0.9651672840118408
,Christmas,0.9648484587669373
,celebration,0.9570591449737549
,fun,0.9541410803794861
,man,0.9184244275093079
,drink,0.9025824666023254
,bar,0.8907400965690613
,service,0.8868812322616577
,restaurant,0.8846529126167297
,gift,0.8803385496139526
,child,0.8533044457435608
,vacation,0.8209303617477417
,party,0.81593918800354
,family,0.8121340870857239
,winter,0.802623987197876
,glass,0.8014053702354431
,collage,0.7962105870246887
,surprise,0.7959871292114258
,food,0.7866483926773071
https://scontent.cdninstagram.com/t51.2885-15/e35/13398944_291972557808129_1974951520_n.jpg?ig_cache_key=MTI3MDI5NDA5MTM4NTI4NzQ0Mg%3D%3D.2,woman,0.9879893064498901
,breakfast,0.9734458923339844
,girl,0.9704822301864624
,young,0.9671544432640076
,food,0.9635632038116455
,meal,0.9621863961219788
,lunch,0.9606635570526123
,family,0.9501535296440125
,person,0.938612699508667
,nutrition,0.9381312131881714
,beautiful,0.9333555698394775
,dawn,0.9280725717544556
,pretty,0.9234864711761475
,hungry,0.9229416847229004
,people,0.9212439060211182
,healthy,0.9136186838150024
,lifestyle,0.9132400155067444
,cooking,0.9045001268386841
,health,0.9038854837417603
,child,0.8900421261787415
https://scontent.cdninstagram.com/t51.2885-15/e35/13402358_1555926124713367_1204757013_n.jpg?ig_cache_key=MTI3MDEyNzIwNTk3NjY1MDU3Nw%3D%3D.2,decoration,0.9893026351928711
,celebration,0.981830358505249
,desktop,0.9644497632980347
,Christmas,0.954716145992279
,sweet,0.9522855877876282
,chocolate,0.9495857954025269
,birthday,0.9456602334976196
,thread,0.934728741645813
,gift,0.9286460280418396
,no person,0.9253158569335938
,ornate,0.9116672277450562
,sugar,0.9095249772071838
,party,0.9062820672988892
,card,0.9049142003059387
,vacation,0.90269935131073
,cake,0.8952059745788574
,candy,0.8928196430206299
,cream,0.8887665271759033
,greeting,0.8887099027633667
,confection,0.8876000642776489
https://scontent.cdninstagram.com/t51.2885-15/e15/13267589_1628103407510518_236597635_n.jpg?ig_cache_key=MTI2MDU0MjM3OTEyODc5NTQ1MA%3D%3D.2,guitar,0.9998819828033447
,music,0.9995622038841248
,instrument,0.9993487000465393
,acoustic,0.9992491006851196
,bowed stringed instrument,0.9989719390869141
,sound,0.9987256526947021
,jazz,0.9980311393737793
,fret,0.9920774102210999
,pop,0.9917171001434326
,classic,0.9913723468780518
,fingerboard,0.9911701679229736
,song,0.9901961088180542
,chord,0.988385796546936
,sound,0.9834465980529785
,musician,0.9833545088768005
,play,0.9808613657951355
,acoustic guitar,0.9776366949081421
,bass,0.9761653542518616
,modern,0.9745492935180664
,harmony,0.9714416265487671
https://scontent.cdninstagram.com/t51.2885-15/e35/13108973_539476539558828_618485969_n.jpg?ig_cache_key=MTI3NDQwNjg1MDUyMzgzNjYxNg%3D%3D.2,box,0.9711980819702148
,people,0.9651672840118408
,Christmas,0.9648484587669373
,celebration,0.9570591449737549
,fun,0.9541410803794861
,man,0.9184244275093079
,drink,0.9025824666023254
,bar,0.8907400965690613
,service,0.8868812322616577
,restaurant,0.8846529126167297
,gift,0.8803385496139526
,child,0.8533044457435608
,vacation,0.8209303617477417
,party,0.81593918800354
,family,0.8121340870857239
,winter,0.802623987197876
,glass,0.8014053702354431
,collage,0.7962105870246887
,surprise,0.7959871292114258
,food,0.7866483926773071
https://scontent.cdninstagram.com/t51.2885-15/e35/13402496_975929302525796_2049133787_n.jpg?ig_cache_key=MTI3OTQ2Nzk5MzE0NzAwNDQ5Ng%3D%3D.2,food,0.9938690662384033
,dinner,0.9699234962463379
,delicious,0.9637994766235352
,meal,0.9605896472930908
,dish,0.9602203369140625
,cuisine,0.9544005990028381
,no person,0.9494807720184326
,lunch,0.9477351903915405
,cooking,0.9416823387145996
,plate,0.940600574016571
,hot,0.9384927749633789
,healthy,0.9337819814682007
,tasty,0.9328277111053467
,pepper,0.925384521484375
,vegetable,0.9237602949142456
,traditional,0.9217982292175293
,nutrition,0.9187047481536865
,chili,0.9146429896354675
,restaurant,0.9094952344894409
,seafood,0.9070150852203369
https://scontent.cdninstagram.com/t51.2885-15/e35/13116547_1597779700538891_1918347494_n.jpg?ig_cache_key=MTIzOTA2MTk5NTIyMDM4MjY2NQ%3D%3D.2,sunset,0.9543335437774658
,people,0.9534882307052612
,man,0.9462649822235107
,evening,0.945988655090332
,illuminated,0.938919186592102
,dusk,0.9340720176696777
,travel,0.9246642589569092
,city,0.9189987182617188
,light,0.9056175947189331
,water,0.9048029780387878
,outdoors,0.9014977812767029
,business,0.8821580410003662
,sky,0.8812201023101807
,nightlife,0.8773658275604248
,love,0.8724411725997925
,street,0.8697482943534851
,woman,0.8651450872421265
,fun,0.8624714612960815
,couple,0.8610974550247192
,urban,0.8463649749755859
https://scontent.cdninstagram.com/t51.2885-15/e35/13116547_1597779700538891_1918347494_n.jpg?ig_cache_key=MTIzOTA2MTk5NTIyMDM4MjY2NQ%3D%3D.2,sunset,0.9543335437774658
,people,0.9534882307052612
,man,0.9462649822235107
,evening,0.945988655090332
,illuminated,0.938919186592102
,dusk,0.9340720176696777
,travel,0.9246642589569092
,city,0.9189987182617188
,light,0.9056175947189331
,water,0.9048029780387878
,outdoors,0.9014977812767029
,business,0.8821580410003662
,sky,0.8812201023101807
,nightlife,0.8773658275604248
,love,0.8724411725997925
,street,0.8697482943534851
,woman,0.8651450872421265
,fun,0.8624714612960815
,couple,0.8610974550247192
,urban,0.8463649749755859
https://scontent.cdninstagram.com/t51.2885-15/e35/13402384_141830082894178_562703495_n.jpg?ig_cache_key=MTI2NzQzMTAwNzg2ODE3MDYzNA%3D%3D.2,sunset,0.9876284599304199
,dawn,0.9802142977714539
,sea,0.9768682718276978
,sun,0.9746198058128357
,nature,0.9688911437988281
,water,0.96661376953125
,travel,0.9633640050888062
,sky,0.9620850086212158
,beach,0.9602046012878418
,landscape,0.9368497729301453
,ocean,0.9327185153961182
,tropical,0.931566596031189
,fog,0.9295285940170288
,light,0.9198813438415527
,summer,0.9198375344276428
,architecture,0.9091407060623169
,fair weather,0.8928990364074707
,sight,0.8868286609649658
,bridge,0.8831316232681274
,city,0.8700989484786987
https://scontent.cdninstagram.com/t51.2885-15/e35/13398944_291972557808129_1974951520_n.jpg?ig_cache_key=MTI3MDI5NDA5MTM4NTI4NzQ0Mg%3D%3D.2,woman,0.9879893064498901
,breakfast,0.9734458923339844
,girl,0.9704822301864624
,young,0.9671544432640076
,food,0.9635632038116455
,meal,0.9621863961219788
,lunch,0.9606635570526123
,family,0.9501535296440125
,person,0.938612699508667
,nutrition,0.9381312131881714
,beautiful,0.9333555698394775
,dawn,0.9280725717544556
,pretty,0.9234864711761475
,hungry,0.9229416847229004
,people,0.9212439060211182
,healthy,0.9136186838150024
,lifestyle,0.9132400155067444
,cooking,0.9045001268386841
,health,0.9038854837417603
,child,0.8900421261787415
https://scontent.cdninstagram.com/t51.2885-15/e35/13413273_1796711117266160_1471753264_n.jpg?ig_cache_key=MTI3NTg1MTgxMDU0ODc1NjgxNg%3D%3D.2,nature,0.9933228492736816
,flora,0.9756366014480591
,isolated,0.9671778082847595
,desktop,0.9668738842010498
,isolated,0.9378159046173096
,flower,0.925153374671936
,leaf,0.9248656630516052
,decoration,0.9202862977981567
,agriculture,0.919206440448761
,beautiful,0.9167960286140442
,design,0.9058005809783936
,cereal,0.9043844938278198
,food,0.8999844789505005
,symbol,0.8963063955307007
,no person,0.8924050331115723
,medicine,0.8901715278625488
,health,0.8877923488616943
,closeup,0.8762116432189941
,healthy,0.8728721737861633
,bud,0.8679925203323364
https://scontent.cdninstagram.com/t51.2885-15/e15/p640x640/13413442_1731941963744643_685656628_n.jpg?ig_cache_key=MTI3NTQwMTY5NzEyODg4NzIyOA%3D%3D.2,child,0.9960678219795227
,people,0.9838560819625854
,girl,0.9702392816543579
,portrait,0.9702063202857971
,birthday,0.9631233811378479
,facial expression,0.9615217447280884
,youth,0.9551595449447632
,two,0.9525700807571411
,happiness,0.9514070749282837
,family,0.9459830522537231
,celebration,0.9434258937835693
,school,0.9399631023406982
,candle,0.9373540878295898
,room,0.9357664585113525
,boy,0.9262189865112305
,wear,0.9191441535949707
,adult,0.9094561338424683
,education,0.9075884819030762
,fun,0.8989330530166626
,togetherness,0.8942348957061768
https://scontent.cdninstagram.com/t51.2885-15/e35/13102316_1129463293770763_1836526540_n.jpg?ig_cache_key=MTI0MDUwMTc5OTU2NDg4MjQ5Mg%3D%3D.2,woman,0.985750675201416
,breakfast,0.9741048216819763
,food,0.9724124670028687
,coffee,0.9654237627983093
,table,0.9626178741455078
,indoors,0.951306939125061
,hungry,0.9498329162597656
,lunch,0.9491780996322632
,sit,0.9450275897979736
,family,0.9424160718917847
,young,0.9419270753860474
,tea,0.9326838850975037
,knife,0.930289626121521
,drink,0.9142849445343018
,pretty,0.9087741374969482
,meal,0.9082128405570984
,lifestyle,0.9071565866470337
,girl,0.8999624252319336
,juice,0.8953179121017456
,room,0.8865686655044556
https://scontent.cdninstagram.com/t51.2885-15/e35/13385711_119694251791080_855974185_n.jpg?ig_cache_key=MTI3ODMxMzE4NDY4NDE1OTAyNA%3D%3D.2,paper,0.9728754758834839
,business,0.926923394203186
,desktop,0.9041467905044556
,isolated,0.8637561798095703
,symbol,0.8500477075576782
,note,0.8254199028015137
,text,0.8129943609237671
,education,0.8018084764480591
,design,0.7852668166160583
,illustration,0.7827502489089966
,blank,0.7632384300231934
,document,0.7558097839355469
,isolated,0.7532956600189209
,page,0.7527529001235962
,color,0.7452899217605591
,no person,0.7407824397087097
,abstract,0.7391799688339233
,paper,0.7364473342895508
,image,0.73162841796875
,reminder,0.7251657247543335
https://scontent.cdninstagram.com/t51.2885-15/e35/13249640_884790701648404_325155141_n.jpg?ig_cache_key=MTI1ODQ2MDMxMjMzNzM5NTcxNg%3D%3D.2,woman,0.9936380386352539
,young,0.9777545928955078
,pretty,0.97271728515625
,portrait,0.9542274475097656
,people,0.9489861726760864
,isolated,0.9369863271713257
,success,0.9267237186431885
,cute,0.9234085083007812
,girl,0.9208652377128601
,fashion,0.913385272026062
,one,0.9074505567550659
,lid,0.9053522348403931
,beautiful,0.9035913348197937
,telephone,0.9004697203636169
,looking,0.8940503001213074
,business,0.8939816951751709
,smile,0.8886335492134094
,indoors,0.8836683034896851
,adolescent,0.8688740730285645
,adult,0.8588274121284485
https://scontent.cdninstagram.com/t51.2885-15/e35/13385711_119694251791080_855974185_n.jpg?ig_cache_key=MTI3ODMxMzE4NDY4NDE1OTAyNA%3D%3D.2,paper,0.9728754758834839
,business,0.926923394203186
,desktop,0.9041467905044556
,isolated,0.8637561798095703
,symbol,0.8500477075576782
,note,0.8254199028015137
,text,0.8129943609237671
,education,0.8018084764480591
,design,0.7852668166160583
,illustration,0.7827502489089966
,blank,0.7632384300231934
,document,0.7558097839355469
,isolated,0.7532956600189209
,page,0.7527529001235962
,color,0.7452899217605591
,no person,0.7407824397087097
,abstract,0.7391799688339233
,paper,0.7364473342895508
,image,0.73162841796875
,reminder,0.7251657247543335
https://scontent.cdninstagram.com/t51.2885-15/e35/12917772_100682450339064_438465921_n.jpg?ig_cache_key=MTIzMDQyOTUyMTcyODc3OTAyMg%3D%3D.2,woman,0.9942598342895508
,girl,0.9891537427902222
,love,0.9789755940437317
,young,0.9587874412536621
,people,0.9561437368392944
,pretty,0.9554656744003296
,couple,0.9548872709274292
,beautiful,0.9547475576400757
,portrait,0.9475643634796143
,nature,0.9388588666915894
,fashion,0.935276985168457
,family,0.9324080348014832
,summer,0.9254868030548096
,outdoors,0.906292736530304
,smile,0.9005956649780273
,cute,0.8865658640861511
,model,0.8795111179351807
,relaxation,0.8781224489212036
,romance,0.873350977897644
,sexy,0.8717871904373169
https://scontent.cdninstagram.com/t51.2885-15/e35/13402692_1031488573566339_40689785_n.jpg?ig_cache_key=MTI3ODAxNDc3MTYxNDcyNDIxNw%3D%3D.2,woman,0.9737261533737183
,people,0.9698783755302429
,summer,0.9602524638175964
,outdoors,0.9593334197998047
,family,0.9474769234657288
,lifestyle,0.9396650791168213
,adult,0.9228222370147705
,nature,0.9194155931472778
,beautiful,0.9190917611122131
,girl,0.9116336107254028
,happiness,0.9093427658081055
,child,0.908307671546936
,leisure,0.906176745891571
,relaxation,0.9024063348770142
,man,0.8975377082824707
,tree,0.8964177966117859
,flower,0.8939655423164368
,house,0.8905438184738159
,young,0.8902593851089478
,travel,0.8856837749481201
https://scontent.cdninstagram.com/t51.2885-15/e15/13092358_1181078265259521_1468698904_n.jpg?ig_cache_key=MTIzNTg0OTM0MTg0MDQwNDY3Ng%3D%3D.2,guitar,0.9553444385528564
,woman,0.9492009282112122
,contemporary,0.9490547180175781
,instrument,0.942878007888794
,music,0.9342135787010193
,family,0.929923415184021
,modern,0.9272089004516602
,indoors,0.9144469499588013
,people,0.8910234570503235
,girl,0.8676773309707642
,adult,0.8541529178619385
,wood,0.8412402868270874
,style,0.8327642679214478
,equipment,0.8262311220169067
,isolated,0.8261926174163818
,desktop,0.8181343078613281
,business,0.8119490146636963
,classic,0.803839385509491
,young,0.7949072122573853
,fashion,0.7948094606399536
https://scontent.cdninstagram.com/t51.2885-15/e35/13408939_1081278178607128_505099898_n.jpg?ig_cache_key=MTI3OTQ2ODg0MjE5MTU1NDI5Mw%3D%3D.2,juicy,0.9925224781036377
,fruit,0.9919829964637756
,food,0.9862529039382935
,strawberry,0.9852036237716675
,no person,0.980689525604248
,health,0.9752160310745239
,delicious,0.9746488928794861
,berry,0.9745254516601562
,grape,0.9608103036880493
,leaf,0.9579645395278931
,nutrition,0.954879879951477
,healthy,0.954515814781189
,confection,0.9453803300857544
,vitamin,0.9401755332946777
,isolated,0.9358710050582886
,juice,0.9275534152984619
,sweet,0.9158207774162292
,ingredients,0.9154527187347412
,kind,0.8932554721832275
,isolated,0.887820839881897
https://scontent.cdninstagram.com/t51.2885-15/e35/13402140_240907779627278_747024351_n.jpg?ig_cache_key=MTI3NTgwMDU4MDMyOTg0NTUzMg%3D%3D.2,isolated,0.9804397821426392
,retro,0.9766683578491211
,equipment,0.9760603904724121
,no person,0.9743903875350952
,electronics,0.969959020614624
,plastic,0.9473832845687866
,paper,0.9332504272460938
,technology,0.9317777156829834
,obsolete,0.9137774109840393
,display,0.8949660062789917
,business,0.8937824964523315
,movie,0.8759937286376953
,old,0.8509594202041626
,electricity,0.8393048644065857
,power,0.8355329036712646
,tape,0.8321723937988281
,isolated,0.8294841051101685
,antique,0.8242310881614685
,number,0.8194093704223633
,family,0.8155336380004883
https://scontent.cdninstagram.com/t51.2885-15/e35/13102316_1129463293770763_1836526540_n.jpg?ig_cache_key=MTI0MDUwMTc5OTU2NDg4MjQ5Mg%3D%3D.2,woman,0.985750675201416
,breakfast,0.9741048216819763
,food,0.9724124670028687
,coffee,0.9654237627983093
,table,0.9626178741455078
,indoors,0.951306939125061
,hungry,0.9498329162597656
,lunch,0.9491780996322632
,sit,0.9450275897979736
,family,0.9424160718917847
,young,0.9419270753860474
,tea,0.9326838850975037
,knife,0.930289626121521
,drink,0.9142849445343018
,pretty,0.9087741374969482
,meal,0.9082128405570984
,lifestyle,0.9071565866470337
,girl,0.8999624252319336
,juice,0.8953179121017456
,room,0.8865686655044556
https://scontent.cdninstagram.com/t51.2885-15/e35/13402384_141830082894178_562703495_n.jpg?ig_cache_key=MTI2NzQzMTAwNzg2ODE3MDYzNA%3D%3D.2,sunset,0.9876284599304199
,dawn,0.9802142977714539
,sea,0.9768682718276978
,sun,0.9746198058128357
,nature,0.9688911437988281
,water,0.96661376953125
,travel,0.9633640050888062
,sky,0.9620850086212158
,beach,0.9602046012878418
,landscape,0.9368497729301453
,ocean,0.9327185153961182
,tropical,0.931566596031189
,fog,0.9295285940170288
,light,0.9198813438415527
,summer,0.9198375344276428
,architecture,0.9091407060623169
,fair weather,0.8928990364074707
,sight,0.8868286609649658
,bridge,0.8831316232681274
,city,0.8700989484786987
https://scontent.cdninstagram.com/t51.2885-15/e35/13129264_1730293540562203_1446768735_n.jpg?ig_cache_key=MTI0MDQ3NzAwODc3ODc2OTIzMQ%3D%3D.2,woman,0.9765371084213257
,friendship,0.9695984721183777
,fun,0.9563500285148621
,togetherness,0.9526385068893433
,isolated,0.9487144351005554
,adolescent,0.9457638263702393
,student,0.9405203461647034
,child,0.9386141300201416
,people,0.9341307282447815
,young,0.9240795373916626
,three,0.9235406517982483
,family,0.9174426198005676
,man,0.9068822860717773
,joy,0.9048510193824768
,pretty,0.8960510492324829
,group,0.8917486667633057
,four,0.8888450860977173
,girl,0.8849500417709351
,love,0.8821567296981812
,beautiful,0.8623650074005127
https://scontent.cdninstagram.com/t51.2885-15/e15/13092358_1181078265259521_1468698904_n.jpg?ig_cache_key=MTIzNTg0OTM0MTg0MDQwNDY3Ng%3D%3D.2,guitar,0.9553444385528564
,woman,0.9492009282112122
,contemporary,0.9490547180175781
,instrument,0.942878007888794
,music,0.9342135787010193
,family,0.929923415184021
,modern,0.9272089004516602
,indoors,0.9144469499588013
,people,0.8910234570503235
,girl,0.8676773309707642
,adult,0.8541529178619385
,wood,0.8412402868270874
,style,0.8327642679214478
,equipment,0.8262311220169067
,isolated,0.8261926174163818
,desktop,0.8181343078613281
,business,0.8119490146636963
,classic,0.803839385509491
,young,0.7949072122573853
,fashion,0.7948094606399536
https://scontent.cdninstagram.com/t51.2885-15/e35/12976515_210782939303649_1900295929_n.jpg?ig_cache_key=MTIzNjgxNTc5MTk1ODc5OTI3Nw%3D%3D.2,child,0.9935455918312073
,collage,0.9786238670349121
,people,0.9723937511444092
,friendship,0.9680277109146118
,woman,0.9619043469429016
,group,0.9397265911102295
,girl,0.9250731468200684
,man,0.9192572832107544
,family,0.9192391633987427
,fun,0.9162653684616089
,meal,0.9034891724586487
,boy,0.8946046829223633
,table,0.8930842876434326
,togetherness,0.8912252187728882
,food,0.879241943359375
,young,0.8692618608474731
,drink,0.8679423332214355
,lunch,0.8644827008247375
,restaurant,0.8608612418174744
,smile,0.8602352738380432
https://scontent.cdninstagram.com/t51.2885-15/e35/13129264_1730293540562203_1446768735_n.jpg?ig_cache_key=MTI0MDQ3NzAwODc3ODc2OTIzMQ%3D%3D.2,woman,0.9765371084213257
,friendship,0.9695984721183777
,fun,0.9563500285148621
,togetherness,0.9526385068893433
,isolated,0.9487144351005554
,adolescent,0.9457638263702393
,student,0.9405203461647034
,child,0.9386141300201416
,people,0.9341307282447815
,young,0.9240795373916626
,three,0.9235406517982483
,family,0.9174426198005676
,man,0.9068822860717773
,joy,0.9048510193824768
,pretty,0.8960510492324829
,group,0.8917486667633057
,four,0.8888450860977173
,girl,0.8849500417709351
,love,0.8821567296981812
,beautiful,0.8623650074005127
https://scontent.cdninstagram.com/t51.2885-15/e35/13355538_500294906838625_1458889676_n.jpg?ig_cache_key=MTI3MjQ0OTIzNzE3OTQ0NTM5NA%3D%3D.2,violin,0.9932305812835693
,classic,0.9921773076057434
,paper,0.9907457828521729
,instrument,0.9857795834541321
,symphony,0.9830790758132935
,isolated,0.9782888889312744
,orchestra,0.9781769514083862
,note,0.9772309064865112
,document,0.9728227257728577
,composition,0.9685691595077515
,classical music,0.9667478799819946
,no person,0.9553170204162598
,bowed stringed instrument,0.9548622369766235
,wood,0.9497817754745483
,music,0.947298526763916
,art,0.9237089157104492
,harmony,0.922245979309082
,artistic,0.9034600853919983
,education,0.9024535417556763
,ink,0.895158052444458
https://scontent.cdninstagram.com/t51.2885-15/e35/13381301_1736369373243698_1986417187_n.jpg?ig_cache_key=MTI3NTM1MDA2NDAwNTEzMzI3Mg%3D%3D.2,food,0.9930405616760254
,restaurant,0.991471529006958
,lunch,0.9906210899353027
,meal,0.9899092316627502
,dinner,0.9886267185211182
,cooking,0.9796972274780273
,woman,0.9527698159217834
,table,0.9477531909942627
,wine,0.9353224039077759
,dining,0.916398823261261
,plate,0.9108690023422241
,young,0.8993896245956421
,dish,0.8991628885269165
,delicious,0.8910742402076721
,spaghetti,0.8872390985488892
,salad,0.8861342668533325
,beer,0.8816232681274414
,nutrition,0.8810510635375977
,drink,0.880624532699585
,cuisine,0.8479475975036621
https://scontent.cdninstagram.com/t51.2885-15/e35/13402496_975929302525796_2049133787_n.jpg?ig_cache_key=MTI3OTQ2Nzk5MzE0NzAwNDQ5Ng%3D%3D.2,food,0.9938690662384033
,dinner,0.9699234962463379
,delicious,0.9637994766235352
,meal,0.9605896472930908
,dish,0.9602203369140625
,cuisine,0.9544005990028381
,no person,0.9494807720184326
,lunch,0.9477351903915405
,cooking,0.9416823387145996
,plate,0.940600574016571
,hot,0.9384927749633789
,healthy,0.9337819814682007
,tasty,0.9328277111053467
,pepper,0.925384521484375
,vegetable,0.9237602949142456
,traditional,0.9217982292175293
,nutrition,0.9187047481536865
,chili,0.9146429896354675
,restaurant,0.9094952344894409
,seafood,0.9070150852203369
https://scontent.cdninstagram.com/t51.2885-15/e35/13249640_884790701648404_325155141_n.jpg?ig_cache_key=MTI1ODQ2MDMxMjMzNzM5NTcxNg%3D%3D.2,woman,0.9936380386352539
,young,0.9777545928955078
,pretty,0.97271728515625
,portrait,0.9542274475097656
,people,0.9489861726760864
,isolated,0.9369863271713257
,success,0.9267237186431885
,cute,0.9234085083007812
,girl,0.9208652377128601
,fashion,0.913385272026062
,one,0.9074505567550659
,lid,0.9053522348403931
,beautiful,0.9035913348197937
,telephone,0.9004697203636169
,looking,0.8940503001213074
,business,0.8939816951751709
,smile,0.8886335492134094
,indoors,0.8836683034896851
,adolescent,0.8688740730285645
,adult,0.8588274121284485
https://scontent.cdninstagram.com/t51.2885-15/e15/13260858_1330713610290139_441964492_n.jpg?ig_cache_key=MTI2MDc3NzUwOTMzNjM5NjY3MA%3D%3D.2,sound,0.9926813244819641
,music,0.9925302267074585
,instrument,0.9885594844818115
,guitar,0.987497091293335
,bowed stringed instrument,0.9724640846252441
,desktop,0.961946427822113
,isolated,0.9600000977516174
,acoustic,0.9563143849372864
,play,0.9434424638748169
,song,0.9362350106239319
,neck,0.9306049346923828
,studio,0.912254810333252
,classic,0.9104875326156616
,young,0.9085237979888916
,musician,0.9062718152999878
,sound,0.9050029516220093
,pop,0.8998498916625977
,jazz,0.8977762460708618
,player,0.8929758071899414
,education,0.8789543509483337
https://scontent.cdninstagram.com/t51.2885-15/e35/13408770_1094839347251023_1607192070_n.jpg?ig_cache_key=MTI3MzE5OTQzNzA3MDIxNzgwNw%3D%3D.2,no person,0.9907248020172119
,food,0.9733178615570068
,delicious,0.9730081558227539
,breakfast,0.9623143672943115
,dawn,0.9478798508644104
,sweet,0.9314002990722656
,cream,0.9292430877685547
,creamy,0.9229469895362854
,lunch,0.9178368449211121
,custard,0.9109005928039551
,nutrition,0.9085211753845215
,spoon,0.8966397643089294
,cooking,0.8892280459403992
,egg yolk,0.8889648914337158
,plate,0.8876036405563354
,dinner,0.878516435623169
,traditional,0.8776620626449585
,soup,0.8545973300933838
,egg,0.8521246910095215
,ingredients,0.8519482612609863
https://scontent.cdninstagram.com/t51.2885-15/e35/13102587_1054292377966084_430299030_n.jpg?ig_cache_key=MTIzOTE5OTMxMjk0MTY5MTE1OA%3D%3D.2,woman,0.9838075637817383
,girl,0.9676799774169922
,pretty,0.9633688926696777
,young,0.9598301649093628
,people,0.9590256810188293
,cute,0.9539402723312378
,portrait,0.9529879093170166
,casual,0.9453375339508057
,smile,0.9414947032928467
,beautiful,0.9323365688323975
,indoors,0.9267455339431763
,adolescent,0.9250944256782532
,one,0.9171590209007263
,college,0.9117550849914551
,person,0.9024845361709595
,school,0.8990569710731506
,looking,0.8804833292961121
,isolated,0.8802703619003296
,education,0.867089569568634
,child,0.8623736500740051
https://scontent.cdninstagram.com/t51.2885-15/e35/13117898_783680615098554_636025652_n.jpg?ig_cache_key=MTI0MDYyNTAyNTgwODg3MTUwOA%3D%3D.2,architecture,0.9750961065292358
,people,0.9579448699951172
,religion,0.951206386089325
,city,0.9471580982208252
,travel,0.9435302019119263
,building,0.9333606362342834
,crowd,0.9068776369094849
,church,0.8935192823410034
,audience,0.8699386119842529
,ceremony,0.8545914888381958
,business,0.8533254861831665
,urban,0.8460456132888794
,many,0.8443676233291626
,old,0.843206524848938
,man,0.8403898477554321
,concert,0.8350594639778137
,group,0.833479642868042
,prayer,0.826597273349762
,auditorium,0.8263289928436279
,tourism,0.8198370933532715
https://scontent.cdninstagram.com/t51.2885-15/e15/13260858_1330713610290139_441964492_n.jpg?ig_cache_key=MTI2MDc3NzUwOTMzNjM5NjY3MA%3D%3D.2,sound,0.9926813244819641
,music,0.9925302267074585
,instrument,0.9885594844818115
,guitar,0.987497091293335
,bowed stringed instrument,0.9724640846252441
,desktop,0.961946427822113
,isolated,0.9600000977516174
,acoustic,0.9563143849372864
,play,0.9434424638748169
,song,0.9362350106239319
,neck,0.9306049346923828
,studio,0.912254810333252
,classic,0.9104875326156616
,young,0.9085237979888916
,musician,0.9062718152999878
,sound,0.9050029516220093
,pop,0.8998498916625977
,jazz,0.8977762460708618
,player,0.8929758071899414
,education,0.8789543509483337
https://scontent.cdninstagram.com/t51.2885-15/e35/13381301_1736369373243698_1986417187_n.jpg?ig_cache_key=MTI3NTM1MDA2NDAwNTEzMzI3Mg%3D%3D.2,food,0.9930405616760254
,restaurant,0.991471529006958
,lunch,0.9906210899353027
,meal,0.9899092316627502
,dinner,0.9886267185211182
,cooking,0.9796972274780273
,woman,0.9527698159217834
,table,0.9477531909942627
,wine,0.9353224039077759
,dining,0.916398823261261
,plate,0.9108690023422241
,young,0.8993896245956421
,dish,0.8991628885269165
,delicious,0.8910742402076721
,spaghetti,0.8872390985488892
,salad,0.8861342668533325
,beer,0.8816232681274414
,nutrition,0.8810510635375977
,drink,0.880624532699585
,cuisine,0.8479475975036621
https://scontent.cdninstagram.com/t51.2885-15/e15/12383414_1012785352149019_1036768654_n.jpg?ig_cache_key=MTIyNDczMTc3MjE2OTQ5OTYyNw%3D%3D.2,people,0.9930671453475952
,street,0.9552068710327148
,group,0.9427073001861572
,group,0.9398459196090698
,man,0.9326692819595337
,stock,0.9188007712364197
,monochrome,0.915005087852478
,vehicle,0.8875620365142822
,restaurant,0.8766428828239441
,adult,0.8754397630691528
,transportation system,0.8716238141059875
,airport,0.8624550104141235
,crowd,0.8431118726730347
,many,0.8154138326644897
,railway,0.7931032776832581
,woman,0.781461775302887
,train,0.7737836241722107
,bar,0.7663923501968384
,light,0.7560909986495972
,military,0.7491411566734314
https://scontent.cdninstagram.com/t51.2885-15/e15/12383414_1012785352149019_1036768654_n.jpg?ig_cache_key=MTIyNDczMTc3MjE2OTQ5OTYyNw%3D%3D.2,people,0.9930671453475952
,street,0.9552068710327148
,group,0.9427073001861572
,group,0.9398459196090698
,man,0.9326692819595337
,stock,0.9188007712364197
,monochrome,0.915005087852478
,vehicle,0.8875620365142822
,restaurant,0.8766428828239441
,adult,0.8754397630691528
,transportation system,0.8716238141059875
,airport,0.8624550104141235
,crowd,0.8431118726730347
,many,0.8154138326644897
,railway,0.7931032776832581
,woman,0.781461775302887
,train,0.7737836241722107
,bar,0.7663923501968384
,light,0.7560909986495972
,military,0.7491411566734314
https://scontent.cdninstagram.com/t51.2885-15/e35/13355538_500294906838625_1458889676_n.jpg?ig_cache_key=MTI3MjQ0OTIzNzE3OTQ0NTM5NA%3D%3D.2,violin,0.9932305812835693
,classic,0.9921773076057434
,paper,0.9907457828521729
,instrument,0.9857795834541321
,symphony,0.9830790758132935
,isolated,0.9782888889312744
,orchestra,0.9781769514083862
,note,0.9772309064865112
,document,0.9728227257728577
,composition,0.9685691595077515
,classical music,0.9667478799819946
,no person,0.9553170204162598
,bowed stringed instrument,0.9548622369766235
,wood,0.9497817754745483
,music,0.947298526763916
,art,0.9237089157104492
,harmony,0.922245979309082
,artistic,0.9034600853919983
,education,0.9024535417556763
,ink,0.895158052444458
https://scontent.cdninstagram.com/t51.2885-15/e35/13381430_1630643680593657_1814668989_n.jpg?ig_cache_key=MTI2NTMyMzIwNjMxMjIxMTIwOQ%3D%3D.2,woman,0.9497314691543579
,paper,0.9476003646850586
,business,0.9441101551055908
,isolated,0.9332478046417236
,desktop,0.9160237312316895
,hand,0.8837107419967651
,human,0.8759118318557739
,illustration,0.874890923500061
,no person,0.8423588275909424
,people,0.8382737636566162
,symbol,0.8066697120666504
,abstract,0.80292809009552
,banner,0.8012564778327942
,man,0.795717716217041
,thread,0.7955009937286377
,girl,0.7912222146987915
,office,0.7834234237670898
,color,0.7825688123703003
,isolated,0.7779014706611633
,conceptual,0.7684639692306519
https://scontent.cdninstagram.com/t51.2885-15/e15/12976544_1067678976623982_548818630_n.jpg?ig_cache_key=MTIzNTQyNzgyNTUyOTEzOTY1OQ%3D%3D.2,indoors,0.9562778472900391
,modern,0.9532445669174194
,room,0.9394360780715942
,adult,0.9371408224105835
,woman,0.9346098899841309
,computer,0.9341116547584534
,inside,0.9262945652008057
,desk,0.9231641292572021
,office,0.922426700592041
,people,0.9212508797645569
,desktop,0.9205023050308228
,contemporary,0.9199863076210022
,laptop,0.8993770480155945
,business,0.8965635895729065
,isolated,0.8965157866477966
,person,0.8942695260047913
,instrument,0.893348217010498
,family,0.892130434513092
,education,0.8883512020111084
,table,0.8845952749252319
https://scontent.cdninstagram.com/t51.2885-15/e35/13259627_1112773235451038_813656167_n.jpg?ig_cache_key=MTI1MzM5MzU1NDEzMTkyMzAwMw%3D%3D.2,child,0.9818147420883179
,hoggish,0.9430892467498779
,woman,0.9389957785606384
,business,0.9360835552215576
,people,0.9340677857398987
,baby,0.9162869453430176
,cute,0.9115506410598755
,young,0.9080971479415894
,fun,0.899473249912262
,isolated,0.8944729566574097
,family,0.889975368976593
,happiness,0.869294285774231
,little,0.8687126636505127
,joy,0.8603790998458862
,cheerful,0.8570389747619629
,person,0.8559058904647827
,pretty,0.8489780426025391
,girl,0.8454731702804565
,desktop,0.8393468856811523
,man,0.8314014673233032
https://scontent.cdninstagram.com/t51.2885-15/e35/13402692_1031488573566339_40689785_n.jpg?ig_cache_key=MTI3ODAxNDc3MTYxNDcyNDIxNw%3D%3D.2,woman,0.9737261533737183
,people,0.9698783755302429
,summer,0.9602524638175964
,outdoors,0.9593334197998047
,family,0.9474769234657288
,lifestyle,0.9396650791168213
,adult,0.9228222370147705
,nature,0.9194155931472778
,beautiful,0.9190917611122131
,girl,0.9116336107254028
,happiness,0.9093427658081055
,child,0.908307671546936
,leisure,0.906176745891571
,relaxation,0.9024063348770142
,man,0.8975377082824707
,tree,0.8964177966117859
,flower,0.8939655423164368
,house,0.8905438184738159
,young,0.8902593851089478
,travel,0.8856837749481201
https://scontent.cdninstagram.com/t51.2885-15/e35/12934839_1568186133480408_1192747069_n.jpg?ig_cache_key=MTIzNDY5OTIzODAyMjg1MzE4OA%3D%3D.2,shopping,0.9958074688911438
,supermarket,0.9934730529785156
,shop,0.9846453666687012
,stock,0.9684252738952637
,market,0.9680964350700378
,fruit,0.9496755599975586
,option,0.9481620788574219
,sale,0.9470690488815308
,food,0.9346185326576233
,woman,0.9210007786750793
,bargain,0.9157434701919556
,merchandise,0.9100496768951416
,apple,0.9052233695983887
,buyer,0.9007213115692139
,shopper,0.8785415887832642
,confection,0.8766629695892334
,purchase,0.8630805611610413
,girl,0.8557493686676025
,banana,0.8451137542724609
,people,0.8414759635925293
https://scontent.cdninstagram.com/t51.2885-15/e35/12917772_100682450339064_438465921_n.jpg?ig_cache_key=MTIzMDQyOTUyMTcyODc3OTAyMg%3D%3D.2,woman,0.9942598342895508
,girl,0.9891537427902222
,love,0.9789755940437317
,young,0.9587874412536621
,people,0.9561437368392944
,pretty,0.9554656744003296
,couple,0.9548872709274292
,beautiful,0.9547475576400757
,portrait,0.9475643634796143
,nature,0.9388588666915894
,fashion,0.935276985168457
,family,0.9324080348014832
,summer,0.9254868030548096
,outdoors,0.906292736530304
,smile,0.9005956649780273
,cute,0.8865658640861511
,model,0.8795111179351807
,relaxation,0.8781224489212036
,romance,0.873350977897644
,sexy,0.8717871904373169
https://scontent.cdninstagram.com/t51.2885-15/e15/12976544_1067678976623982_548818630_n.jpg?ig_cache_key=MTIzNTQyNzgyNTUyOTEzOTY1OQ%3D%3D.2,indoors,0.9562778472900391
,modern,0.9532445669174194
,room,0.9394360780715942
,adult,0.9371408224105835
,woman,0.9346098899841309
,computer,0.9341116547584534
,inside,0.9262945652008057
,desk,0.9231641292572021
,office,0.922426700592041
,people,0.9212508797645569
,desktop,0.9205023050308228
,contemporary,0.9199863076210022
,laptop,0.8993770480155945
,business,0.8965635895729065
,isolated,0.8965157866477966
,person,0.8942695260047913
,instrument,0.893348217010498
,family,0.892130434513092
,education,0.8883512020111084
,table,0.8845952749252319
https://scontent.cdninstagram.com/t51.2885-15/e35/12935004_224659967899723_331335547_n.jpg?ig_cache_key=MTIyNTIwMjA4NTE4OTY2MDcyOQ%3D%3D.2,paper,0.9984334707260132
,document,0.9955688118934631
,page,0.9950507879257202
,reminder,0.9901476502418518
,note,0.9561372995376587
,text,0.9559680223464966
,diary,0.9498450756072998
,office,0.9452232122421265
,notebook,0.9391629099845886
,education,0.9379837512969971
,form,0.9265192747116089
,blank,0.9210042953491211
,sheet,0.9201067090034485
,schedule,0.9198086857795715
,business,0.9173327684402466
,number,0.9086341857910156
,calendar,0.9082919359207153
,monthly,0.8914260864257812
,book,0.8874855637550354
,empty,0.882869303226471
https://scontent.cdninstagram.com/t51.2885-15/e35/12934839_1568186133480408_1192747069_n.jpg?ig_cache_key=MTIzNDY5OTIzODAyMjg1MzE4OA%3D%3D.2,shopping,0.9958074688911438
,supermarket,0.9934730529785156
,shop,0.9846453666687012
,stock,0.9684252738952637
,market,0.9680964350700378
,fruit,0.9496755599975586
,option,0.9481620788574219
,sale,0.9470690488815308
,food,0.9346185326576233
,woman,0.9210007786750793
,bargain,0.9157434701919556
,merchandise,0.9100496768951416
,apple,0.9052233695983887
,buyer,0.9007213115692139
,shopper,0.8785415887832642
,confection,0.8766629695892334
,purchase,0.8630805611610413
,girl,0.8557493686676025
,banana,0.8451137542724609
,people,0.8414759635925293
https://scontent.cdninstagram.com/t51.2885-15/e15/12905224_612523552232152_1697809329_n.jpg?ig_cache_key=MTIyNjc1ODIwMzI3OTk0NjE1Ng%3D%3D.2,guitar,0.9972571134567261
,music,0.9956655502319336
,woman,0.9877636432647705
,leisure,0.9825462698936462
,instrument,0.9749941825866699
,girl,0.9711823463439941
,pretty,0.9688262343406677
,beautiful,0.9670044183731079
,young,0.9663833975791931
,musician,0.96319180727005
,fun,0.9582206606864929
,acoustic,0.9543524980545044
,casual,0.9484012126922607
,one,0.9482277631759644
,sit,0.9441418647766113
,relaxation,0.9393527507781982
,enjoyment,0.9383578896522522
,nature,0.9361706972122192
,contemporary,0.9288781881332397
,wood,0.9278563261032104
https://scontent.cdninstagram.com/t51.2885-15/e15/13267589_1628103407510518_236597635_n.jpg?ig_cache_key=MTI2MDU0MjM3OTEyODc5NTQ1MA%3D%3D.2,guitar,0.9998819828033447
,music,0.9995622038841248
,instrument,0.9993487000465393
,acoustic,0.9992491006851196
,bowed stringed instrument,0.9989719390869141
,sound,0.9987256526947021
,jazz,0.9980311393737793
,fret,0.9920774102210999
,pop,0.9917171001434326
,classic,0.9913723468780518
,fingerboard,0.9911701679229736
,song,0.9901961088180542
,chord,0.988385796546936
,sound,0.9834465980529785
,musician,0.9833545088768005
,play,0.9808613657951355
,acoustic guitar,0.9776366949081421
,bass,0.9761653542518616
,modern,0.9745492935180664
,harmony,0.9714416265487671
https://scontent.cdninstagram.com/t51.2885-15/e35/13381430_1630643680593657_1814668989_n.jpg?ig_cache_key=MTI2NTMyMzIwNjMxMjIxMTIwOQ%3D%3D.2,woman,0.9497314691543579
,paper,0.9476003646850586
,business,0.9441101551055908
,isolated,0.9332478046417236
,desktop,0.9160237312316895
,hand,0.8837107419967651
,human,0.8759118318557739
,illustration,0.874890923500061
,no person,0.8423588275909424
,people,0.8382737636566162
,symbol,0.8066697120666504
,abstract,0.80292809009552
,banner,0.8012564778327942
,man,0.795717716217041
,thread,0.7955009937286377
,girl,0.7912222146987915
,office,0.7834234237670898
,color,0.7825688123703003
,isolated,0.7779014706611633
,conceptual,0.7684639692306519
https://scontent.cdninstagram.com/t51.2885-15/e35/12976640_286398051691694_1529524301_n.jpg?ig_cache_key=MTIzMzM0MjA3MjQyMjY3NTExNA%3D%3D.2,business,0.9694845676422119
,money,0.9640507698059082
,money,0.9631405472755432
,drink,0.9468684792518616
,finance,0.9467297196388245
,success,0.9264919757843018
,paper,0.9155800342559814
,wealth,0.9106076955795288
,desktop,0.9094942808151245
,savings,0.8947450518608093
,no person,0.8847939968109131
,isolated,0.8822400569915771
,cash,0.8791104555130005
,alcohol,0.874815821647644
,bottle,0.8735558986663818
,label,0.8587093353271484
,bank,0.8547706604003906
,commerce,0.841593861579895
,dollar,0.8267500400543213
,isolated,0.8224544525146484
https://scontent.cdninstagram.com/t51.2885-15/e15/12905224_612523552232152_1697809329_n.jpg?ig_cache_key=MTIyNjc1ODIwMzI3OTk0NjE1Ng%3D%3D.2,guitar,0.9972571134567261
,music,0.9956655502319336
,woman,0.9877636432647705
,leisure,0.9825462698936462
,instrument,0.9749941825866699
,girl,0.9711823463439941
,pretty,0.9688262343406677
,beautiful,0.9670044183731079
,young,0.9663833975791931
,musician,0.96319180727005
,fun,0.9582206606864929
,acoustic,0.9543524980545044
,casual,0.9484012126922607
,one,0.9482277631759644
,sit,0.9441418647766113
,relaxation,0.9393527507781982
,enjoyment,0.9383578896522522
,nature,0.9361706972122192
,contemporary,0.9288781881332397
,wood,0.9278563261032104
https://scontent.cdninstagram.com/t51.2885-15/e35/12976515_210782939303649_1900295929_n.jpg?ig_cache_key=MTIzNjgxNTc5MTk1ODc5OTI3Nw%3D%3D.2,child,0.9935455918312073
,collage,0.9786238670349121
,people,0.9723937511444092
,friendship,0.9680277109146118
,woman,0.9619043469429016
,group,0.9397265911102295
,girl,0.9250731468200684
,man,0.9192572832107544
,family,0.9192391633987427
,fun,0.9162653684616089
,meal,0.9034891724586487
,boy,0.8946046829223633
,table,0.8930842876434326
,togetherness,0.8912252187728882
,food,0.879241943359375
,young,0.8692618608474731
,drink,0.8679423332214355
,lunch,0.8644827008247375
,restaurant,0.8608612418174744
,smile,0.8602352738380432
https://scontent.cdninstagram.com/t51.2885-15/e35/13102587_1054292377966084_430299030_n.jpg?ig_cache_key=MTIzOTE5OTMxMjk0MTY5MTE1OA%3D%3D.2,woman,0.9838075637817383
,girl,0.9676799774169922
,pretty,0.9633688926696777
,young,0.9598301649093628
,people,0.9590256810188293
,cute,0.9539402723312378
,portrait,0.9529879093170166
,casual,0.9453375339508057
,smile,0.9414947032928467
,beautiful,0.9323365688323975
,indoors,0.9267455339431763
,adolescent,0.9250944256782532
,one,0.9171590209007263
,college,0.9117550849914551
,person,0.9024845361709595
,school,0.8990569710731506
,looking,0.8804833292961121
,isolated,0.8802703619003296
,education,0.867089569568634
,child,0.8623736500740051
https://scontent.cdninstagram.com/t51.2885-15/e35/13408939_1081278178607128_505099898_n.jpg?ig_cache_key=MTI3OTQ2ODg0MjE5MTU1NDI5Mw%3D%3D.2,juicy,0.9925224781036377
,fruit,0.9919829964637756
,food,0.9862529039382935
,strawberry,0.9852036237716675
,no person,0.980689525604248
,health,0.9752160310745239
,delicious,0.9746488928794861
,berry,0.9745254516601562
,grape,0.9608103036880493
,leaf,0.9579645395278931
,nutrition,0.954879879951477
,healthy,0.954515814781189
,confection,0.9453803300857544
,vitamin,0.9401755332946777
,isolated,0.9358710050582886
,juice,0.9275534152984619
,sweet,0.9158207774162292
,ingredients,0.9154527187347412
,kind,0.8932554721832275
,isolated,0.887820839881897
https://scontent.cdninstagram.com/t51.2885-15/e35/13388724_1717651611841089_1504198395_n.jpg?ig_cache_key=MTI3MzE5NjIzOTk3ODc3MDg5NA%3D%3D.2,lunch,0.9945268034934998
,restaurant,0.9926807880401611
,dinner,0.9912267923355103
,meal,0.9898905754089355
,table,0.9866528511047363
,food,0.9826475381851196
,woman,0.9810755252838135
,hungry,0.954290509223938
,dining,0.9512064456939697
,pizza,0.9504567384719849
,friendship,0.9422101378440857
,people,0.9364960193634033
,enjoyment,0.9362516403198242
,family,0.9312053918838501
,fun,0.9248407483100891
,togetherness,0.9242900609970093
,young,0.9228227138519287
,cooking,0.9223967790603638
,man,0.9103150963783264
,cake,0.8959447145462036
https://scontent.cdninstagram.com/t51.2885-15/e35/12976647_1712705985668595_643711611_n.jpg?ig_cache_key=MTIzODg5MjU1Nzg4ODEzOTYyNA%3D%3D.2,paper,0.9883206486701965
,business,0.966802179813385
,illustration,0.9410161972045898
,money,0.9188022613525391
,wealth,0.8995358943939209
,desktop,0.8803762197494507
,finance,0.8691478371620178
,symbol,0.8614627122879028
,money,0.8578351736068726
,cash,0.8223559260368347
,note,0.8050399422645569
,isolated,0.7885320782661438
,bank,0.7847646474838257
,savings,0.7409960031509399
,isolated,0.727408230304718
,no person,0.7120829224586487
,financial,0.6964821815490723
,shopping,0.6959123611450195
,design,0.6869510412216187
,graphic,0.6791653633117676
https://scontent.cdninstagram.com/t51.2885-15/e35/12935004_224659967899723_331335547_n.jpg?ig_cache_key=MTIyNTIwMjA4NTE4OTY2MDcyOQ%3D%3D.2,paper,0.9984334707260132
,document,0.9955688118934631
,page,0.9950507879257202
,reminder,0.9901476502418518
,note,0.9561372995376587
,text,0.9559680223464966
,diary,0.9498450756072998
,office,0.9452232122421265
,notebook,0.9391629099845886
,education,0.9379837512969971
,form,0.9265192747116089
,blank,0.9210042953491211
,sheet,0.9201067090034485
,schedule,0.9198086857795715
,business,0.9173327684402466
,number,0.9086341857910156
,calendar,0.9082919359207153
,monthly,0.8914260864257812
,book,0.8874855637550354
,empty,0.882869303226471
https://scontent.cdninstagram.com/t51.2885-15/e35/13388724_1717651611841089_1504198395_n.jpg?ig_cache_key=MTI3MzE5NjIzOTk3ODc3MDg5NA%3D%3D.2,lunch,0.9945268034934998
,restaurant,0.9926807880401611
,dinner,0.9912267923355103
,meal,0.9898905754089355
,table,0.9866528511047363
,food,0.9826475381851196
,woman,0.9810755252838135
,hungry,0.954290509223938
,dining,0.9512064456939697
,pizza,0.9504567384719849
,friendship,0.9422101378440857
,people,0.9364960193634033
,enjoyment,0.9362516403198242
,family,0.9312053918838501
,fun,0.9248407483100891
,togetherness,0.9242900609970093
,young,0.9228227138519287
,cooking,0.9223967790603638
,man,0.9103150963783264
,cake,0.8959447145462036
https://scontent.cdninstagram.com/t51.2885-15/e15/13129695_1089577994418765_341146926_n.jpg?ig_cache_key=MTI1MDY3MTUyMjk0NDM5ODI0MQ%3D%3D.2,adult,0.9785594344139099
,horizontal,0.9757851362228394
,woman,0.9741303324699402
,indoors,0.9720908403396606
,people,0.963892936706543
,business,0.9492590427398682
,desk,0.9459705352783203
,sit,0.9306704998016357
,office,0.9213964939117432
,table,0.9212278127670288
,sitting,0.8967522382736206
,music,0.892504096031189
,portrait,0.8856743574142456
,fashion,0.8658797740936279
,cheerful,0.8385016918182373
,modern,0.8303563594818115
,technology,0.8258606195449829
,relaxation,0.8237324953079224
,happiness,0.8059041500091553
,chair,0.7932005524635315
https://scontent.cdninstagram.com/t51.2885-15/e35/13413273_1796711117266160_1471753264_n.jpg?ig_cache_key=MTI3NTg1MTgxMDU0ODc1NjgxNg%3D%3D.2,nature,0.9933228492736816
,flora,0.9756366014480591
,isolated,0.9671778082847595
,desktop,0.9668738842010498
,isolated,0.9378159046173096
,flower,0.925153374671936
,leaf,0.9248656630516052
,decoration,0.9202862977981567
,agriculture,0.919206440448761
,beautiful,0.9167960286140442
,design,0.9058005809783936
,cereal,0.9043844938278198
,food,0.8999844789505005
,symbol,0.8963063955307007
,no person,0.8924050331115723
,medicine,0.8901715278625488
,health,0.8877923488616943
,closeup,0.8762116432189941
,healthy,0.8728721737861633
,bud,0.8679925203323364
https://scontent.cdninstagram.com/t51.2885-15/e35/13381325_1423479077677953_1115976789_n.jpg?ig_cache_key=MTI3Nzk2MjcwODcyNTgwNTY0Ng%3D%3D.2,street,0.9797313809394836
,man,0.9628204107284546
,road,0.9595714807510376
,people,0.9580032229423523
,woman,0.9426165819168091
,traffic,0.9399592876434326
,car,0.9111020565032959
,exercise,0.8874678611755371
,travel,0.8758285045623779
,sport,0.8687090277671814
,fast,0.8672312498092651
,summer,0.827977180480957
,hurry,0.8226159811019897
,transportation system,0.8196813464164734
,health,0.8162671327590942
,fun,0.7975426912307739
,family,0.790456235408783
,city,0.7835879921913147
,emergency,0.7805241346359253
,travel,0.7770394086837769
https://scontent.cdninstagram.com/t51.2885-15/e35/13130028_1036134759758011_1705027994_n.jpg?ig_cache_key=MTI0MjcwNTEzMDQ3OTY5NDYzMw%3D%3D.2,woman,0.9783676862716675
,girl,0.9748722314834595
,people,0.9685977697372437
,fashion,0.9351694583892822
,adult,0.9191474914550781
,beautiful,0.9096857309341431
,portrait,0.8961530923843384
,young,0.8890979290008545
,business,0.885553240776062
,technology,0.8746248483657837
,computer,0.8583635091781616
,winter,0.8567015528678894
,art,0.8521276712417603
,man,0.8484488725662231
,one,0.8367430567741394
,travel,0.8336421251296997
,desktop,0.8306310176849365
,illustration,0.8200205564498901
,model,0.8163575530052185
,lady,0.8116854429244995
https://scontent.cdninstagram.com/t51.2885-15/e35/13525452_1739507872973192_945933795_n.jpg?ig_cache_key=MTI3Nzk2MzExMTIxOTYwNjEwMw%3D%3D.2,woman,0.9869124293327332
,girl,0.951275110244751
,people,0.9505290985107422
,desktop,0.9474166631698608
,wear,0.9435476064682007
,dress,0.9360631704330444
,young,0.9351559281349182
,adult,0.91180419921875
,man,0.9014313220977783
,fashion,0.8982541561126709
,illustration,0.8951104283332825
,isolated,0.8807371258735657
,beautiful,0.871614396572113
,fun,0.8588329553604126
,stage,0.8546862602233887
,art,0.8532222509384155
,cute,0.8523118495941162
,retro,0.8498855829238892
,person,0.8396109342575073
,collage,0.837536633014679
https://scontent.cdninstagram.com/t51.2885-15/e35/12976647_1712705985668595_643711611_n.jpg?ig_cache_key=MTIzODg5MjU1Nzg4ODEzOTYyNA%3D%3D.2,paper,0.9883206486701965
,business,0.966802179813385
,illustration,0.9410161972045898
,money,0.9188022613525391
,wealth,0.8995358943939209
,desktop,0.8803762197494507
,finance,0.8691478371620178
,symbol,0.8614627122879028
,money,0.8578351736068726
,cash,0.8223559260368347
,note,0.8050399422645569
,isolated,0.7885320782661438
,bank,0.7847646474838257
,savings,0.7409960031509399
,isolated,0.727408230304718
,no person,0.7120829224586487
,financial,0.6964821815490723
,shopping,0.6959123611450195
,design,0.6869510412216187
,graphic,0.6791653633117676
https://scontent.cdninstagram.com/t51.2885-15/e15/13129695_1089577994418765_341146926_n.jpg?ig_cache_key=MTI1MDY3MTUyMjk0NDM5ODI0MQ%3D%3D.2,adult,0.9785594344139099
,horizontal,0.9757851362228394
,woman,0.9741303324699402
,indoors,0.9720908403396606
,people,0.963892936706543
,business,0.9492590427398682
,desk,0.9459705352783203
,sit,0.9306704998016357
,office,0.9213964939117432
,table,0.9212278127670288
,sitting,0.8967522382736206
,music,0.892504096031189
,portrait,0.8856743574142456
,fashion,0.8658797740936279
,cheerful,0.8385016918182373
,modern,0.8303563594818115
,technology,0.8258606195449829
,relaxation,0.8237324953079224
,happiness,0.8059041500091553
,chair,0.7932005524635315
https://scontent.cdninstagram.com/t51.2885-15/e35/13151336_209481099444356_1118327706_n.jpg?ig_cache_key=MTI0NzA2NzQwOTM3NTU3MjIyNA%3D%3D.2,education,0.9554486274719238
,people,0.9238983392715454
,man,0.9193838834762573
,woman,0.8848612308502197
,service,0.8528800010681152
,skill,0.8450734615325928
,uniform,0.843390941619873
,isolated,0.8430780172348022
,student,0.8253449201583862
,instrument,0.8153097033500671
,cooking,0.8063144087791443
,young,0.8057496547698975
,child,0.8015885353088379
,industry,0.7755776047706604
,creativity,0.7725896835327148
,science,0.7553509473800659
,equipment,0.7550567388534546
,artistic,0.7544233202934265
,fun,0.7533169984817505
,college,0.7524722814559937
https://scontent.cdninstagram.com/t51.2885-15/e35/13108573_576172835920488_296363584_n.jpg?ig_cache_key=MTI1MzI4MTk3MDYwNDc0OTM3Mg%3D%3D.2,cooking,0.9969793558120728
,food,0.991587221622467
,meal,0.9763208627700806
,lunch,0.9746054410934448
,chef,0.9723323583602905
,restaurant,0.9713045358657837
,woman,0.9699249267578125
,pan,0.9688490629196167
,dinner,0.959852397441864
,bowl,0.9533923268318176
,people,0.9526866674423218
,table,0.9473695755004883
,young,0.9463684558868408
,stove,0.9217864274978638
,preparation,0.9212555885314941
,breakfast,0.9174581170082092
,family,0.9154759645462036
,nutrition,0.9108216762542725
,indoors,0.9050641059875488
,cookware,0.8939371109008789
https://scontent.cdninstagram.com/t51.2885-15/e35/13397559_290402827972590_1557733355_n.jpg?ig_cache_key=MTI3Nzk4NTk3Nzk1MjY0NTQwMw%3D%3D.2,woman,0.9809415340423584
,fashion,0.9395520687103271
,child,0.9390842914581299
,cute,0.9365718960762024
,pretty,0.9313654899597168
,love,0.9303460121154785
,family,0.8980355858802795
,isolated,0.8871414661407471
,people,0.8864706158638
,summer,0.8864668607711792
,girl,0.8819373846054077
,fun,0.8796991109848022
,relaxation,0.8689309358596802
,togetherness,0.84336918592453
,young,0.8388451337814331
,joy,0.8333982229232788
,enjoyment,0.8276330232620239
,traditional,0.8268938064575195
,health,0.8176370859146118
,travel,0.8010342717170715
https://scontent.cdninstagram.com/l/t51.2885-15/e35/13473310_252658335114922_953856904_n.jpg?ig_cache_key=MTI3Nzk2MzY4MjUxNzM2NTM1Ng%3D%3D.2,city,0.9756774306297302
,travel,0.9698719382286072
,architecture,0.9622114896774292
,tourist,0.9539315700531006
,tourism,0.9475011825561523
,building,0.9427553415298462
,urban,0.9354942440986633
,street,0.9275968074798584
,outdoors,0.9070954918861389
,vacation,0.9061664342880249
,woman,0.8939305543899536
,people,0.8875339031219482
,young,0.8766981959342957
,summer,0.872391939163208
,town,0.8711752891540527
,sightseeing,0.8700522184371948
,man,0.859978199005127
,person,0.8530069589614868
,sky,0.8471587896347046
,old,0.8228076696395874
https://scontent.cdninstagram.com/t51.2885-15/e15/13151020_530759343716010_933919479_n.jpg?ig_cache_key=MTI1MTA5MjAyMjU4MTUzODkxNg%3D%3D.2,guitar,0.9952489137649536
,music,0.9885879755020142
,one,0.9757677912712097
,girl,0.971807599067688
,instrument,0.9621803760528564
,portrait,0.9618358612060547
,nature,0.9582623839378357
,beautiful,0.9531866908073425
,young,0.9515134692192078
,leisure,0.9495283365249634
,adult,0.9493652582168579
,summer,0.9482265710830688
,musician,0.946942150592804
,beach,0.9422705173492432
,people,0.9379051923751831
,outdoors,0.9377151131629944
,woman,0.9354763031005859
,rock,0.9327870607376099
,fun,0.9286534786224365
,sky,0.9250143766403198
https://scontent.cdninstagram.com/t51.2885-15/e15/13151016_587884098045581_1561805762_n.jpg?ig_cache_key=MTI0NDcxODk2ODQzNTY1MDY0NQ%3D%3D.2,room,0.9121741056442261
,fashion,0.9065109491348267
,bed,0.9017670154571533
,woman,0.9003908038139343
,sofa,0.8997067213058472
,family,0.8917689323425293
,wood,0.8903989791870117
,indoors,0.8871702551841736
,modern,0.8790544271469116
,luxury,0.8703441023826599
,hotel,0.8679152727127075
,style,0.8674854040145874
,desktop,0.8664185404777527
,inside,0.8573033213615417
,classic,0.8346777558326721
,isolated,0.8319076299667358
,comfort,0.8299081325531006
,furniture,0.8204951286315918
,contemporary,0.8143647909164429
,relaxation,0.8085377812385559
https://scontent.cdninstagram.com/t51.2885-15/e15/13151020_530759343716010_933919479_n.jpg?ig_cache_key=MTI1MTA5MjAyMjU4MTUzODkxNg%3D%3D.2,guitar,0.9952489137649536
,music,0.9885879755020142
,one,0.9757677912712097
,girl,0.971807599067688
,instrument,0.9621803760528564
,portrait,0.9618358612060547
,nature,0.9582623839378357
,beautiful,0.9531866908073425
,young,0.9515134692192078
,leisure,0.9495283365249634
,adult,0.9493652582168579
,summer,0.9482265710830688
,musician,0.946942150592804
,beach,0.9422705173492432
,people,0.9379051923751831
,outdoors,0.9377151131629944
,woman,0.9354763031005859
,rock,0.9327870607376099
,fun,0.9286534786224365
,sky,0.9250143766403198
https://scontent.cdninstagram.com/t51.2885-15/e15/13151016_587884098045581_1561805762_n.jpg?ig_cache_key=MTI0NDcxODk2ODQzNTY1MDY0NQ%3D%3D.2,room,0.9121741056442261
,fashion,0.9065109491348267
,bed,0.9017670154571533
,woman,0.9003908038139343
,sofa,0.8997067213058472
,family,0.8917689323425293
,wood,0.8903989791870117
,indoors,0.8871702551841736
,modern,0.8790544271469116
,luxury,0.8703441023826599
,hotel,0.8679152727127075
,style,0.8674854040145874
,desktop,0.8664185404777527
,inside,0.8573033213615417
,classic,0.8346777558326721
,isolated,0.8319076299667358
,comfort,0.8299081325531006
,furniture,0.8204951286315918
,contemporary,0.8143647909164429
,relaxation,0.8085377812385559
https://scontent.cdninstagram.com/t51.2885-15/e35/13259627_1112773235451038_813656167_n.jpg?ig_cache_key=MTI1MzM5MzU1NDEzMTkyMzAwMw%3D%3D.2,child,0.9818147420883179
,hoggish,0.9430892467498779
,woman,0.9389957785606384
,business,0.9360835552215576
,people,0.9340677857398987
,baby,0.9162869453430176
,cute,0.9115506410598755
,young,0.9080971479415894
,fun,0.899473249912262
,isolated,0.8944729566574097
,family,0.889975368976593
,happiness,0.869294285774231
,little,0.8687126636505127
,joy,0.8603790998458862
,cheerful,0.8570389747619629
,person,0.8559058904647827
,pretty,0.8489780426025391
,girl,0.8454731702804565
,desktop,0.8393468856811523
,man,0.8314014673233032
https://scontent.cdninstagram.com/t51.2885-15/e35/13397559_290402827972590_1557733355_n.jpg?ig_cache_key=MTI3Nzk4NTk3Nzk1MjY0NTQwMw%3D%3D.2,woman,0.9809415340423584
,fashion,0.9395520687103271
,child,0.9390842914581299
,cute,0.9365718960762024
,pretty,0.9313654899597168
,love,0.9303460121154785
,family,0.8980355858802795
,isolated,0.8871414661407471
,people,0.8864706158638
,summer,0.8864668607711792
,girl,0.8819373846054077
,fun,0.8796991109848022
,relaxation,0.8689309358596802
,togetherness,0.84336918592453
,young,0.8388451337814331
,joy,0.8333982229232788
,enjoyment,0.8276330232620239
,traditional,0.8268938064575195
,health,0.8176370859146118
,travel,0.8010342717170715
https://scontent.cdninstagram.com/t51.2885-15/e35/13130028_1036134759758011_1705027994_n.jpg?ig_cache_key=MTI0MjcwNTEzMDQ3OTY5NDYzMw%3D%3D.2,woman,0.9783676862716675
,girl,0.9748722314834595
,people,0.9685977697372437
,fashion,0.9351694583892822
,adult,0.9191474914550781
,beautiful,0.9096857309341431
,portrait,0.8961530923843384
,young,0.8890979290008545
,business,0.885553240776062
,technology,0.8746248483657837
,computer,0.8583635091781616
,winter,0.8567015528678894
,art,0.8521276712417603
,man,0.8484488725662231
,one,0.8367430567741394
,travel,0.8336421251296997
,desktop,0.8306310176849365
,illustration,0.8200205564498901
,model,0.8163575530052185
,lady,0.8116854429244995
https://scontent.cdninstagram.com/t51.2885-15/e35/13381325_1423479077677953_1115976789_n.jpg?ig_cache_key=MTI3Nzk2MjcwODcyNTgwNTY0Ng%3D%3D.2,street,0.9797313809394836
,man,0.9628204107284546
,road,0.9595714807510376
,people,0.9580032229423523
,woman,0.9426165819168091
,traffic,0.9399592876434326
,car,0.9111020565032959
,exercise,0.8874678611755371
,travel,0.8758285045623779
,sport,0.8687090277671814
,fast,0.8672312498092651
,summer,0.827977180480957
,hurry,0.8226159811019897
,transportation system,0.8196813464164734
,health,0.8162671327590942
,fun,0.7975426912307739
,family,0.790456235408783
,city,0.7835879921913147
,emergency,0.7805241346359253
,travel,0.7770394086837769
https://scontent.cdninstagram.com/t51.2885-15/e35/13113894_1544448255850856_795971685_n.jpg?ig_cache_key=MTI0MDY0MTgyODI5OTc0ODE4Mw%3D%3D.2,people,0.9869352579116821
,street,0.9865121245384216
,city,0.9830577373504639
,stock,0.9804477691650391
,shopping,0.9754063487052917
,market,0.965144157409668
,bar,0.9615290760993958
,restaurant,0.9524412751197815
,urban,0.951935887336731
,tube,0.9519139528274536
,business,0.9503852128982544
,editorial,0.9493832588195801
,crowd,0.9460463523864746
,bike,0.9412376880645752
,mall,0.9406881332397461
,commerce,0.9368493556976318
,event,0.9180554151535034
,travel,0.9161421060562134
,shop,0.9147508144378662
,vehicle,0.9131902456283569
https://scontent.cdninstagram.com/t51.2885-15/e35/13183499_1529997120643287_55112211_n.jpg?ig_cache_key=MTI0OTkwNTMzMTE3OTEwNjgwNw%3D%3D.2,leisure,0.9938551187515259
,summer,0.9810676574707031
,beach,0.979117751121521
,lifestyle,0.9768921136856079
,recreation,0.9766470193862915
,fun,0.9595164060592651
,vacation,0.9522081613540649
,relaxation,0.9519678354263306
,sand,0.9302240610122681
,sea,0.9281702637672424
,seashore,0.9249728918075562
,man,0.9166879653930664
,travel,0.9141256809234619
,active,0.9120863676071167
,nature,0.9119472503662109
,boy,0.9062351584434509
,ocean,0.9024735689163208
,young,0.8957329392433167
,water,0.8947871923446655
,sky,0.8889718055725098
https://scontent.cdninstagram.com/l/t51.2885-15/e35/13473310_252658335114922_953856904_n.jpg?ig_cache_key=MTI3Nzk2MzY4MjUxNzM2NTM1Ng%3D%3D.2,city,0.9756774306297302
,travel,0.9698719382286072
,architecture,0.9622114896774292
,tourist,0.9539315700531006
,tourism,0.9475011825561523
,building,0.9427553415298462
,urban,0.9354942440986633
,street,0.9275968074798584
,outdoors,0.9070954918861389
,vacation,0.9061664342880249
,woman,0.8939305543899536
,people,0.8875339031219482
,young,0.8766981959342957
,summer,0.872391939163208
,town,0.8711752891540527
,sightseeing,0.8700522184371948
,man,0.859978199005127
,person,0.8530069589614868
,sky,0.8471587896347046
,old,0.8228076696395874
https://scontent.cdninstagram.com/t51.2885-15/e35/13113894_1544448255850856_795971685_n.jpg?ig_cache_key=MTI0MDY0MTgyODI5OTc0ODE4Mw%3D%3D.2,people,0.9869352579116821
,street,0.9865121245384216
,city,0.9830577373504639
,stock,0.9804477691650391
,shopping,0.9754063487052917
,market,0.965144157409668
,bar,0.9615290760993958
,restaurant,0.9524412751197815
,urban,0.951935887336731
,tube,0.9519139528274536
,business,0.9503852128982544
,editorial,0.9493832588195801
,crowd,0.9460463523864746
,bike,0.9412376880645752
,mall,0.9406881332397461
,commerce,0.9368493556976318
,event,0.9180554151535034
,travel,0.9161421060562134
,shop,0.9147508144378662
,vehicle,0.9131902456283569
https://scontent.cdninstagram.com/t51.2885-15/e35/13117898_783680615098554_636025652_n.jpg?ig_cache_key=MTI0MDYyNTAyNTgwODg3MTUwOA%3D%3D.2,architecture,0.9750961065292358
,people,0.9579448699951172
,religion,0.951206386089325
,city,0.9471580982208252
,travel,0.9435302019119263
,building,0.9333606362342834
,crowd,0.9068776369094849
,church,0.8935192823410034
,audience,0.8699386119842529
,ceremony,0.8545914888381958
,business,0.8533254861831665
,urban,0.8460456132888794
,many,0.8443676233291626
,old,0.843206524848938
,man,0.8403898477554321
,concert,0.8350594639778137
,group,0.833479642868042
,prayer,0.826597273349762
,auditorium,0.8263289928436279
,tourism,0.8198370933532715
https://scontent.cdninstagram.com/t51.2885-15/e35/13108573_576172835920488_296363584_n.jpg?ig_cache_key=MTI1MzI4MTk3MDYwNDc0OTM3Mg%3D%3D.2,cooking,0.9969793558120728
,food,0.991587221622467
,meal,0.9763208627700806
,lunch,0.9746054410934448
,chef,0.9723323583602905
,restaurant,0.9713045358657837
,woman,0.9699249267578125
,pan,0.9688490629196167
,dinner,0.959852397441864
,bowl,0.9533923268318176
,people,0.9526866674423218
,table,0.9473695755004883
,young,0.9463684558868408
,stove,0.9217864274978638
,preparation,0.9212555885314941
,breakfast,0.9174581170082092
,family,0.9154759645462036
,nutrition,0.9108216762542725
,indoors,0.9050641059875488
,cookware,0.8939371109008789
https://scontent.cdninstagram.com/t51.2885-15/e35/13525452_1739507872973192_945933795_n.jpg?ig_cache_key=MTI3Nzk2MzExMTIxOTYwNjEwMw%3D%3D.2,woman,0.9869124293327332
,girl,0.951275110244751
,people,0.9505290985107422
,desktop,0.9474166631698608
,wear,0.9435476064682007
,dress,0.9360631704330444
,young,0.9351559281349182
,adult,0.91180419921875
,man,0.9014313220977783
,fashion,0.8982541561126709
,illustration,0.8951104283332825
,isolated,0.8807371258735657
,beautiful,0.871614396572113
,fun,0.8588329553604126
,stage,0.8546862602233887
,art,0.8532222509384155
,cute,0.8523118495941162
,retro,0.8498855829238892
,person,0.8396109342575073
,collage,0.837536633014679
https://scontent.cdninstagram.com/t51.2885-15/e35/12976640_286398051691694_1529524301_n.jpg?ig_cache_key=MTIzMzM0MjA3MjQyMjY3NTExNA%3D%3D.2,business,0.9694845676422119
,money,0.9640507698059082
,money,0.9631405472755432
,drink,0.9468684792518616
,finance,0.9467297196388245
,success,0.9264919757843018
,paper,0.9155800342559814
,wealth,0.9106076955795288
,desktop,0.9094942808151245
,savings,0.8947450518608093
,no person,0.8847939968109131
,isolated,0.8822400569915771
,cash,0.8791104555130005
,alcohol,0.874815821647644
,bottle,0.8735558986663818
,label,0.8587093353271484
,bank,0.8547706604003906
,commerce,0.841593861579895
,dollar,0.8267500400543213
,isolated,0.8224544525146484
