url,class,score
https://scontent-sit4-1.cdninstagram.com/t51.2885-15/s750x750/sh0.08/e35/13397669_135957496824545_1204551454_n.jpg,design,0.9825384616851807
,illustration,0.9818350672721863
,desktop,0.9772089719772339
,symbol,0.9771234393119812
,element,0.9769769310951233
,graphic,0.9684180617332458
,sign,0.9625982046127319
,business,0.9610344171524048
,image,0.9528288841247559
,abstract,0.9491496086120605
,label,0.9475753307342529
,isolated,0.9330933094024658
,sale,0.9127235412597656
,text,0.9118145704269409
,art,0.904057502746582
,shape,0.8912822008132935
,internet,0.8829821348190308
,special,0.8701580762863159
,template,0.8627490997314453
,decoration,0.8595467805862427
https://scontent-sit4-1.cdninstagram.com/t51.2885-15/e35/13597719_894770283966192_441408858_n.jpg,people,0.9935343265533447
,wear,0.9913787245750427
,group,0.9896994233131409
,facial expression,0.9895662069320679
,movie,0.9837608933448792
,adult,0.9824956655502319
,recreation,0.9791040420532227
,two,0.9711681604385376
,outfit,0.9709817171096802
,child,0.9692410826683044
,group,0.9632074236869812
,woman,0.9625935554504395
,man,0.9579979181289673
,three,0.9493686556816101
,competition,0.9404320120811462
,daylight,0.9361771941184998
,actress,0.9323979616165161
,festival,0.9284360408782959
,portrait,0.9272881746292114
,happiness,0.9190133810043335
https://scontent-sit4-1.cdninstagram.com/t51.2885-15/e35/13473201_1043784075702826_226995460_n.jpg,business,0.984942615032196
,paper,0.9797134399414062
,document,0.9734840393066406
,text,0.9633033275604248
,finance,0.9611003398895264
,money,0.9569895267486572
,financial,0.9377225041389465
,horizontal,0.9013525247573853
,success,0.8812151551246643
,no person,0.8773484230041504
,data,0.8741404414176941
,economy,0.865527868270874
,investment,0.8631298542022705
,administration,0.8546599745750427
,money,0.8512274026870728
,gain,0.850422739982605
,commerce,0.8458203077316284
,letter,0.8381374478340149
,travel,0.8268355131149292
,growth,0.8232698440551758
https://scontent-sit4-1.cdninstagram.com/t51.2885-15/e35/13736828_927161844075872_948895114_n.jpg,people,0.9836227893829346
,group,0.981498658657074
,woman,0.9726119637489319
,man,0.9725366830825806
,adult,0.9720455408096313
,recreation,0.9649040699005127
,portrait,0.9427558183670044
,wear,0.9356536865234375
,competition,0.9134055376052856
,group,0.8953638672828674
,music,0.8900984525680542
,education,0.8839812278747559
,facial expression,0.8775152564048767
,performance,0.8766587972640991
,festival,0.8763881921768188
,family,0.8754231929779053
,child,0.8625270128250122
,singer,0.8508625030517578
,enjoyment,0.8479658365249634
,school,0.8460198640823364
https://scontent-sit4-1.cdninstagram.com/t51.2885-15/e35/13636247_1623045304675081_626171438_n.jpg,uniform,0.9940810203552246
,military,0.9909551739692688
,people,0.9792013168334961
,police,0.974079966545105
,army,0.9724351167678833
,award,0.9713797569274902
,man,0.9701632857322693
,outfit,0.9688886404037476
,ceremony,0.9682580232620239
,leader,0.9675222635269165
,wear,0.9657219648361206
,administration,0.9497706890106201
,portrait,0.9455456733703613
,offense,0.9451817274093628
,group,0.9402210712432861
,military uniform,0.9346864819526672
,adult,0.9136328101158142
,politician,0.9029295444488525
,league,0.8870775103569031
,navy,0.8839476108551025
https://scontent-sit4-1.cdninstagram.com/t51.2885-15/e35/13385622_1023959904318472_1401488847_n.jpg,people,0.9698688983917236
,group,0.958782434463501
,battle,0.9456125497817993
,adult,0.9428632259368896
,rebellion,0.9422379732131958
,woman,0.9397302865982056
,man,0.937538743019104
,election,0.9353582859039307
,rally,0.9302431344985962
,police,0.9230712652206421
,offense,0.9088823795318604
,competition,0.9078453779220581
,administration,0.8927316665649414
,education,0.8850390911102295
,wear,0.8742984533309937
,rally,0.8709095120429993
,child,0.8627054691314697
,interaction,0.8493472933769226
,portrait,0.8413899540901184
,family,0.8239901065826416
https://scontent-sit4-1.cdninstagram.com/t51.2885-15/e35/13694496_156309864795017_1249860867_n.jpg,city,0.9815558195114136
,people,0.9705880880355835
,street,0.9671945571899414
,many,0.9523352384567261
,police,0.9370281100273132
,battle,0.9369500875473022
,group,0.9347783327102661
,crowd,0.9342721700668335
,flag,0.9213768243789673
,road,0.919690728187561
,rally,0.9161243438720703
,business,0.9059081077575684
,tourist,0.9039840698242188
,tourism,0.9006953239440918
,urban,0.9006070494651794
,action,0.8927112817764282
,competition,0.8921612501144409
,military,0.8693104982376099
,army,0.8648999929428101
,daylight,0.8634166121482849
https://scontent-sit4-1.cdninstagram.com/t51.2885-15/e35/13774455_273327559713463_708821135_n.jpg,people,0.9894806146621704
,many,0.9771826267242432
,group,0.9759867191314697
,group,0.9692957401275635
,crowd,0.9640605449676514
,man,0.9545438289642334
,flag,0.9538273811340332
,child,0.9511096477508545
,school,0.9350852966308594
,adult,0.9309655427932739
,squad,0.9251946210861206
,military,0.9199025630950928
,boy,0.9079710245132446
,education,0.905792772769928
,woman,0.8983082175254822
,army,0.8918846845626831
,competition,0.8644967079162598
,International,0.8584293127059937
,recreation,0.8553476929664612
,wear,0.8546998500823975
https://scontent-sit4-1.cdninstagram.com/t51.2885-15/e35/13737093_294326017586921_939578467_n.jpg,group,0.9920218586921692
,woman,0.9797223210334778
,facial expression,0.9776229858398438
,adult,0.9760830402374268
,people,0.969427227973938
,room,0.9656826257705688
,group,0.9608686566352844
,four,0.9550749063491821
,child,0.9546769857406616
,man,0.9447821378707886
,friendship,0.9433869123458862
,indoors,0.9418854713439941
,portrait,0.9393852353096008
,togetherness,0.9390185475349426
,education,0.9339941740036011
,furniture,0.9308165311813354
,happiness,0.929731547832489
,three,0.9225337505340576
,adolescent,0.9190505743026733
,enjoyment,0.9024817943572998
https://scontent-sit4-1.cdninstagram.com/t51.2885-15/sh0.08/e35/p750x750/13402335_1092782387445538_560592510_n.jpg,man,0.9954552054405212
,eyeglasses,0.9946993589401245
,people,0.9931942224502563
,eyewear,0.9921154975891113
,portrait,0.9824866652488708
,two,0.9771782755851746
,adult,0.9718246459960938
,wear,0.9628869295120239
,togetherness,0.9370379447937012
,woman,0.9324799180030823
,facial expression,0.9295224547386169
,enjoyment,0.9027842879295349
,movie,0.8988329172134399
,education,0.8985059857368469
,group,0.8865221738815308
,happiness,0.8822907209396362
,indoors,0.8815642595291138
,three,0.8686383962631226
,friendship,0.8052569031715393
,love,0.7924288511276245
https://scontent-sit4-1.cdninstagram.com/t51.2885-15/e35/13437313_269062060116039_566392016_n.jpg,people,0.9881741404533386
,performance,0.9701283574104309
,group,0.9681422114372253
,festival,0.9567228555679321
,music,0.9511923789978027
,many,0.9459984302520752
,ceremony,0.9440615177154541
,room,0.9369884729385376
,adult,0.9310556650161743
,man,0.930568277835846
,audience,0.9259114861488342
,stage,0.9213902950286865
,concert,0.916607141494751
,celebration,0.9100845456123352
,child,0.9073572158813477
,crowd,0.9058235287666321
,school,0.9052627086639404
,event,0.8641216158866882
,movie,0.857214093208313
,election,0.8538559079170227
https://scontent-sit4-1.cdninstagram.com/t51.2885-15/e35/13736995_108684822905074_2031948196_n.jpg,indoors,0.9905946254730225
,business,0.982117772102356
,league,0.9745599627494812
,education,0.9745151996612549
,room,0.9735658168792725
,election,0.9684131145477295
,hospital,0.9682437181472778
,adult,0.9671463370323181
,finance,0.9626539945602417
,exhibition,0.9601946473121643
,people,0.9596362709999084
,healthcare,0.954391360282898
,meeting,0.9518016576766968
,office,0.9479371309280396
,museum,0.934502363204956
,technology,0.9315648078918457
,Congress,0.9310142397880554
,woman,0.9281512498855591
,medicine,0.9263297915458679
,airport,0.9228682518005371
https://scontent-sit4-1.cdninstagram.com/t51.2885-15/e35/13473302_258072691236043_1016256431_n.jpg,people,0.9687210321426392
,group,0.9662119150161743
,education,0.9616702795028687
,adult,0.9606885313987732
,woman,0.955596923828125
,man,0.9396970868110657
,happiness,0.9324647188186646
,school,0.9244824051856995
,university,0.9060831069946289
,portrait,0.899562418460846
,facial expression,0.8976327776908875
,enjoyment,0.8407262563705444
,child,0.8399053812026978
,togetherness,0.8345023393630981
,friendship,0.8229117393493652
,adolescent,0.8009481430053711
,teacher,0.7922418117523193
,wear,0.7885602712631226
,healthcare,0.7812610864639282
,room,0.747400164604187
https://scontent-sit4-1.cdninstagram.com/t51.2885-15/e35/13739437_617588961750072_1271085159_n.jpg,architecture,0.9981640577316284
,skyscraper,0.9981439709663391
,city,0.9976294636726379
,downtown,0.9972643852233887
,modern,0.9968719482421875
,office,0.9953368902206421
,building,0.9938058853149414
,skyline,0.9924232959747314
,business,0.9919062852859497
,cityscape,0.9918273687362671
,urban,0.9907186031341553
,tallest,0.9891492128372192
,sky,0.9840971231460571
,tower,0.9776889085769653
,district,0.9747542142868042
,reflection,0.9618902206420898
,apartment,0.9571037292480469
,construction,0.9555302262306213
,finance,0.953183114528656
,high,0.9529421329498291
https://scontent-sit4-1.cdninstagram.com/t51.2885-15/e35/13712603_1654417414882748_1829830780_n.jpg,sky,0.9933416247367859
,architecture,0.9890118837356567
,no person,0.9887260794639587
,outdoors,0.9822774529457092
,daylight,0.979550838470459
,building,0.9635663032531738
,city,0.9596340656280518
,apartment,0.9528260231018066
,house,0.9479981660842896
,blue sky,0.9299493432044983
,window,0.9278407096862793
,home,0.912045955657959
,travel,0.9053398966789246
,modern,0.8954234719276428
,fair weather,0.8867020010948181
,downtown,0.8858852386474609
,family,0.8828306198120117
,high,0.876224160194397
,summer,0.8686493635177612
,tree,0.8587117195129395
https://scontent-sit4-1.cdninstagram.com/t51.2885-15/e35/13744246_1778185942461241_1553923800_n.jpg,competition,0.9912503957748413
,track and field,0.9753444790840149
,marathon,0.9751206636428833
,woman,0.9643864035606384
,people,0.9640794992446899
,recreation,0.9606431722640991
,man,0.9600831866264343
,runner,0.9586684703826904
,footrace,0.9462047815322876
,motion,0.9391529560089111
,jogger,0.9296784400939941
,athlete,0.9100886583328247
,group,0.9066214561462402
,victory,0.9011330604553223
,race,0.8986222743988037
,landscape,0.8821907043457031
,healthcare,0.8790940046310425
,energy,0.8760640621185303
,outdoors,0.8756587505340576
,race,0.8683106303215027
https://scontent-sit4-1.cdninstagram.com/t51.2885-15/e35/13696402_164973910579630_1842905027_n.jpg,presentation,0.968127965927124
,people,0.9491474628448486
,business,0.9410277605056763
,banner,0.9372158050537109
,adult,0.9286339282989502
,bill,0.9103131294250488
,man,0.9032328128814697
,sign,0.9029476642608643
,graph,0.8960328102111816
,text,0.8680849075317383
,horizontal,0.8634823560714722
,template,0.8336518406867981
,information,0.8272879123687744
,vertical,0.8246256709098816
,paper,0.80635666847229
,symbol,0.805950403213501
,data,0.8038074970245361
,election,0.8029606342315674
,card,0.7972699403762817
,identity,0.7742108702659607
https://scontent-sit4-1.cdninstagram.com/t51.2885-15/s750x750/sh0.08/e35/13721106_1742537546015070_132470857_n.jpg,people,0.9769214987754822
,many,0.9425865411758423
,woman,0.9367597103118896
,group,0.9311782121658325
,festival,0.9247727394104004
,child,0.9185664653778076
,education,0.9162210822105408
,flag,0.9161466360092163
,man,0.9156568646430969
,celebration,0.9112881422042847
,adult,0.9108643531799316
,rally,0.9005832672119141
,crowd,0.8888028860092163
,school,0.8803097009658813
,ceremony,0.8633358478546143
,portrait,0.8416210412979126
,outdoors,0.8409475088119507
,rally,0.8220711946487427
,group,0.821605920791626
,motion,0.8175627589225769
https://scontent-sit4-1.cdninstagram.com/t51.2885-15/e35/13724664_265714630482266_1189554312_n.jpg,portrait,0.9928486347198486
,people,0.9833359718322754
,group,0.9816194772720337
,woman,0.9799438714981079
,eyewear,0.9741325378417969
,man,0.9695992469787598
,adult,0.964876651763916
,facial expression,0.9600030779838562
,happiness,0.9519151449203491
,school,0.9231694936752319
,eyeglasses,0.9188141822814941
,education,0.9176156520843506
,girl,0.9016886949539185
,stock,0.8927696347236633
,togetherness,0.8911679983139038
,university,0.8760365843772888
,wear,0.873349666595459
,friendship,0.855478048324585
,enjoyment,0.8476465940475464
,street,0.8418352603912354
https://scontent-sit4-1.cdninstagram.com/t51.2885-15/e35/13549621_1718827108376738_626128420_n.jpg,people,0.9891437292098999
,man,0.9804509878158569
,recreation,0.9732998609542847
,adult,0.9643698930740356
,one,0.9526174068450928
,outdoors,0.9511908292770386
,portrait,0.9442228674888611
,two,0.9321063756942749
,boy,0.9128357768058777
,adventure,0.908668041229248
,child,0.9084252119064331
,mountain,0.9010850191116333
,woman,0.872623860836029
,leisure,0.8664431571960449
,fun,0.851629376411438
,hike,0.847467303276062
,lid,0.8473379015922546
,landscape,0.8338415622711182
,cropland,0.8330597877502441
,girl,0.8298835754394531
https://scontent-sit4-1.cdninstagram.com/t51.2885-15/e35/13395092_1215312748503187_932483842_n.jpg,collection,0.9921866059303284
,show,0.9876158237457275
,fashion,0.9875729084014893
,model,0.9831745624542236
,wear,0.981055498123169
,exhibition,0.9810237884521484
,people,0.9783810377120972
,dress,0.9705286026000977
,group,0.9617452621459961
,woman,0.9609026908874512
,wedding,0.9500216245651245
,pageant,0.9387309551239014
,fashionable,0.9376826286315918
,many,0.9358835220336914
,man,0.9347834587097168
,stock,0.9321469068527222
,school,0.9244987964630127
,trendy,0.9235481023788452
,adult,0.9159544110298157
,industry,0.9142053127288818
https://scontent-sit4-1.cdninstagram.com/t51.2885-15/e35/13402594_477975132392515_2050300320_n.jpg,people,0.9907867908477783
,competition,0.973222017288208
,flag,0.9715611934661865
,election,0.9549649953842163
,man,0.9385434985160828
,business,0.9283834099769592
,uniform,0.9252018928527832
,race,0.9233475923538208
,adult,0.9178298711776733
,group,0.9081143140792847
,many,0.9046107530593872
,administration,0.8948358297348022
,woman,0.888888955116272
,athlete,0.8861213326454163
,soccer,0.8820861577987671
,politician,0.8771889209747314
,victory,0.8664084076881409
,award,0.865734875202179
,marathon,0.8655469417572021
,education,0.8641251921653748
https://scontent-sit4-1.cdninstagram.com/t51.2885-15/e35/13392910_1748211645400438_1555194700_n.jpg,patient,0.9984215497970581
,healthcare,0.9978986978530884
,hospital,0.9951400756835938
,surgery,0.9943293929100037
,medicine,0.9900394082069397
,clinic,0.9868968725204468
,dentistry,0.9860818982124329
,dental,0.980902910232544
,drill,0.9758933782577515
,professional,0.9748556017875671
,doctor,0.9736933708190918
,medical,0.9735829830169678
,woman,0.972000241279602
,hygiene,0.9692291617393494
,man,0.9665923118591309
,nurse,0.9563548564910889
,surgeon,0.9528852701187134
,stretcher,0.9524134397506714
,people,0.9508857131004333
,urgency,0.9414300918579102
https://scontent-sit4-1.cdninstagram.com/t51.2885-15/e35/13643080_1774028962873443_820279711_n.jpg,people,0.9815781116485596
,festival,0.9726566672325134
,city,0.9635284543037415
,many,0.9562969207763672
,crowd,0.9528947472572327
,group,0.9448424577713013
,competition,0.9122973680496216
,street,0.9045227766036987
,tourist,0.8971564769744873
,flag,0.870546817779541
,man,0.8604716062545776
,action,0.8509373664855957
,rally,0.8472306728363037
,road,0.844325065612793
,daylight,0.8434088230133057
,school,0.8369477987289429
,editorial,0.8324085474014282
,celebration,0.8304444551467896
,parade,0.8268700838088989
,event,0.8166412711143494
https://scontent-sit4-1.cdninstagram.com/t51.2885-15/e35/13534547_1599099423722015_306939425_n.jpg,child,0.9997057914733887
,boy,0.9946371912956238
,people,0.9925845861434937
,facial expression,0.9736946821212769
,wear,0.9720859527587891
,boy,0.9704856872558594
,indoors,0.9672079682350159
,innocence,0.9634053707122803
,baby,0.9550173282623291
,one,0.9521268606185913
,portrait,0.9503148794174194
,cute,0.9428083896636963
,youth,0.9390916228294373
,two,0.9269431829452515
,offspring,0.9261927604675293
,fun,0.9219496250152588
,man,0.9204487800598145
,education,0.9171943068504333
,medical practitioner,0.9033273458480835
,little,0.8855118751525879
https://scontent-sit4-1.cdninstagram.com/t51.2885-15/e35/13643502_1747809732156021_1515638585_n.jpg,movie,0.9799010753631592
,man,0.9771775603294373
,adult,0.9689947366714478
,wear,0.9676496982574463
,woman,0.9659478068351746
,portrait,0.9655232429504395
,group,0.9644702672958374
,people,0.9623436331748962
,recreation,0.9528981447219849
,family,0.9526486396789551
,facial expression,0.9502040147781372
,happiness,0.9427928328514099
,togetherness,0.9330629110336304
,enjoyment,0.9305613040924072
,actress,0.9186065793037415
,room,0.9020255208015442
,festival,0.8878648281097412
,love,0.8833219408988953
,red carpet,0.8823899030685425
,interaction,0.875282883644104
https://scontent-sit4-1.cdninstagram.com/t51.2885-15/e35/13391223_1719106948371256_1560223583_n.jpg,cropland,0.9908925294876099
,travel,0.9772465229034424
,agriculture,0.9758424758911133
,nature,0.9754399061203003
,no person,0.9726766347885132
,outdoors,0.9726063013076782
,landscape,0.9683367013931274
,hill,0.9374767541885376
,mountain,0.9362230896949768
,summer,0.9305975437164307
,crop,0.9210414886474609
,rice,0.9173392653465271
,pasture,0.9161562919616699
,plantation,0.914462685585022
,countryside,0.9075214862823486
,valley,0.9068260192871094
,tree,0.9064802527427673
,sky,0.8962461948394775
,farm,0.8947592973709106
,growth,0.8789147138595581
https://scontent-sit4-1.cdninstagram.com/t51.2885-15/e35/13671905_1624667834490266_703979765_n.jpg,child,0.9973881244659424
,baby,0.993300199508667
,people,0.9828541278839111
,boy,0.9757472276687622
,little,0.9720788598060608
,cute,0.9593771696090698
,two,0.959094762802124
,one,0.952278733253479
,portrait,0.9439839124679565
,offspring,0.9298908710479736
,sit,0.9259297847747803
,monochrome,0.9180502891540527
,family,0.9180127382278442
,innocence,0.864177942276001
,toddler,0.8433644771575928
,newborn,0.840302586555481
,indoors,0.8278489112854004
,three,0.8195777535438538
,girl,0.8148519992828369
,facial expression,0.8095178604125977
https://scontent-sit4-1.cdninstagram.com/t51.2885-15/e35/13391165_1136062416456594_614140914_n.jpg,airplane,0.9996563196182251
,airport,0.9991516470909119
,aircraft,0.9990670680999756
,transportation system,0.9974139332771301
,vehicle,0.9959816932678223
,jet,0.9920608401298523
,military,0.9886622428894043
,air,0.9849135875701904
,flight,0.981236457824707
,runway,0.9667613506317139
,tarmac,0.9663146734237671
,airliner,0.9580738544464111
,departure,0.9580045938491821
,accident,0.9473844766616821
,calamity,0.9441680312156677
,travel,0.9384957551956177
,arrival,0.9382230043411255
,fly,0.9289544820785522
,fuselage,0.9223941564559937
,battle,0.9188718795776367
https://scontent-sit4-1.cdninstagram.com/t51.2885-15/e35/13736051_503140763220269_484558956_n.jpg,garden,0.9944195747375488
,leaf,0.9893866777420044
,flora,0.9871114492416382
,no person,0.9843893051147461
,nature,0.9808772802352905
,flower,0.9786787033081055
,park,0.9755960702896118
,outdoors,0.9724687337875366
,grass,0.9706242084503174
,growth,0.9570452570915222
,wood,0.9569058418273926
,environment,0.9495891332626343
,ground,0.9466923475265503
,color,0.9436423778533936
,tree,0.9426231980323792
,lawn,0.9408427476882935
,food,0.9333686828613281
,fall,0.931728720664978
,season,0.9246715903282166
,yard,0.9241877198219299
https://scontent-sit4-1.cdninstagram.com/t51.2885-15/e35/13671188_1575476392758130_1419107919_n.jpg,people,0.981611967086792
,outdoors,0.9694463610649109
,man,0.9647656679153442
,recreation,0.9628878831863403
,soccer,0.9573650360107422
,leisure,0.9476627707481384
,competition,0.9428327679634094
,summer,0.9342328906059265
,child,0.932693362236023
,sport,0.9274560213088989
,rally,0.912497341632843
,woman,0.911320149898529
,family,0.9081375002861023
,police,0.906470775604248
,adult,0.8935309052467346
,lifestyle,0.8892040252685547
,landscape,0.8875311017036438
,fun,0.8739128708839417
,environment,0.8725283145904541
,grass,0.8713558912277222
https://scontent-sit4-1.cdninstagram.com/t51.2885-15/e35/11420943_251901438518152_179561732_n.jpg,people,0.9918867945671082
,adult,0.9810281991958618
,recreation,0.9789043068885803
,man,0.9777507185935974
,two,0.9746010303497314
,competition,0.973366379737854
,wear,0.972223162651062
,woman,0.9637240171432495
,facial expression,0.9540766477584839
,enjoyment,0.9482836723327637
,athlete,0.9322447180747986
,group,0.9297765493392944
,leisure,0.911017656326294
,three,0.9065316319465637
,group,0.9030892848968506
,togetherness,0.9011813402175903
,child,0.8753682374954224
,happiness,0.8648794293403625
,portrait,0.8583431243896484
,five,0.8202685713768005
https://scontent-sit4-1.cdninstagram.com/t51.2885-15/e35/13707054_185639015184435_1510977470_n.jpg,theater,0.9776978492736816
,text,0.9666113257408142
,no person,0.9647119045257568
,illustration,0.9382022619247437
,desktop,0.9199215173721313
,banner,0.9188041687011719
,stage,0.9147988557815552
,business,0.9112359285354614
,movie,0.9038419127464294
,bill,0.9017933011054993
,theater,0.898697018623352
,vector,0.8929109573364258
,gold,0.8805809020996094
,design,0.8419148325920105
,illuminated,0.83696448802948
,presentation,0.8221790790557861
,decoration,0.8198791146278381
,sign,0.8153384923934937
,education,0.8128253221511841
,art,0.8027801513671875
https://scontent-sit4-1.cdninstagram.com/t51.2885-15/e35/13413396_1078640592229427_2095589198_n.jpg,industry,0.9883110523223877
,expression,0.9873058795928955
,scaffolding,0.9863433837890625
,steel,0.9803804159164429
,construction,0.9711511135101318
,building,0.9698405265808105
,urban,0.9605129957199097
,architecture,0.9588797688484192
,concrete,0.9509037733078003
,no person,0.9416037797927856
,technology,0.9396203756332397
,iron,0.9362938404083252
,grinder,0.9328274726867676
,business,0.921919584274292
,house,0.9126050472259521
,crane,0.9060080051422119
,city,0.9047931432723999
,work,0.9044929146766663
,travel,0.8958169221878052
,site,0.8893821239471436
https://scontent-sit4-1.cdninstagram.com/t51.2885-15/e35/13703216_1154129204635597_1936834435_n.jpg,people,0.9694417715072632
,competition,0.9456967115402222
,fun,0.9439421892166138
,child,0.9410514831542969
,man,0.9002575874328613
,adult,0.8892006874084473
,leisure,0.8842557668685913
,outdoors,0.883560836315155
,woman,0.8711814880371094
,sport,0.8696995973587036
,recreation,0.8683454990386963
,travel,0.8551653623580933
,vehicle,0.8366377949714661
,ball,0.8187916278839111
,landscape,0.8170967102050781
,game,0.8063622117042542
,road,0.8018379211425781
,wear,0.8014342188835144
,city,0.7870727777481079
,motion,0.7723525762557983
https://scontent-sit4-1.cdninstagram.com/t51.2885-15/e35/13531898_1737410506515515_1179152513_n.jpg,soccer,0.9929454326629639
,people,0.986911416053772
,competition,0.9818521738052368
,group,0.9750356674194336
,football,0.9711850881576538
,group,0.9683862328529358
,many,0.9668852090835571
,auto racing,0.9642475843429565
,adult,0.962907075881958
,man,0.9628884792327881
,woman,0.9598381519317627
,championship,0.9593935608863831
,leader,0.9584255218505859
,portrait,0.9578712582588196
,sports fan,0.9564979076385498
,race,0.9470399618148804
,wear,0.9365634918212891
,uniform,0.9046844244003296
,school,0.8912193179130554
,outfit,0.8903439044952393
https://scontent-sit4-1.cdninstagram.com/t51.2885-15/e35/13715244_1112051282174842_1415134948_n.jpg,group,0.9929725527763367
,woman,0.9910489320755005
,wear,0.9905345439910889
,people,0.9879288673400879
,adult,0.9828664064407349
,dancer,0.9665250182151794
,costume,0.9625548124313354
,dancing,0.9597095251083374
,performance,0.9546559453010559
,facial expression,0.9470405578613281
,art,0.9393086433410645
,veil,0.9376939535140991
,dress,0.9374701976776123
,girl,0.936895489692688
,portrait,0.9246335029602051
,music,0.9134715795516968
,child,0.9038026332855225
,man,0.9029480218887329
,three,0.9013872742652893
,boy,0.8612657785415649
https://scontent-sit4-1.cdninstagram.com/t51.2885-15/sh0.08/e35/p750x750/13573540_307590516240121_2020903266_n.jpg,text,0.9310836791992188
,desktop,0.9019050598144531
,business,0.8977527618408203
,cloud,0.8516784906387329
,communication,0.8178449869155884
,no person,0.8135783672332764
,education,0.8112861514091492
,success,0.777331531047821
,conceptual,0.7637051343917847
,symbol,0.7292048335075378
,offense,0.7264059782028198
,information,0.7129299640655518
,illustration,0.7104417085647583
,service,0.6986246109008789
,money,0.6968138217926025
,law,0.6961508989334106
,data,0.6934574842453003
,internet,0.6879904270172119
,rule,0.6824624538421631
,paper,0.6791009902954102
https://scontent-sit4-1.cdninstagram.com/t51.2885-15/e35/13534125_896942243749869_1977360822_n.jpg,people,0.9857975244522095
,crowd,0.9726927280426025
,festival,0.9719229340553284
,many,0.9642205834388733
,child,0.9612612724304199
,event,0.9603054523468018
,celebration,0.9551697969436646
,squad,0.948695719242096
,woman,0.9301853179931641
,group,0.9279786944389343
,party,0.896938681602478
,school,0.889451265335083
,education,0.8883094787597656
,religion,0.879869818687439
,performance,0.8692046403884888
,populace,0.8652770519256592
,editorial,0.8540860414505005
,fun,0.8539505004882812
,class,0.8537817001342773
,show,0.8492001295089722
https://scontent-sit4-1.cdninstagram.com/t51.2885-15/e35/13732156_256792474705969_1728345385_n.jpg,runner,0.9748764038085938
,motion,0.9745962619781494
,competition,0.9729616641998291
,marathon,0.9726170301437378
,people,0.9677337408065796
,sport,0.9574861526489258
,exercise,0.957114040851593
,man,0.9560168981552124
,action,0.9467923641204834
,jogger,0.9445285797119141
,athlete,0.9375330209732056
,race,0.9340469837188721
,run,0.9136985540390015
,woman,0.9125666618347168
,track and field,0.901111364364624
,endurance,0.8834354877471924
,adult,0.8824055194854736
,recreation,0.8695309162139893
,fitness,0.8441553711891174
,effort,0.8352323770523071
https://scontent-sit4-1.cdninstagram.com/t51.2885-15/e35/13414300_924605554315698_750344358_n.jpg,mountain,0.9914876222610474
,no person,0.986550509929657
,travel,0.9840241074562073
,landscape,0.983637809753418
,nature,0.9799118041992188
,outdoors,0.9691743850708008
,sky,0.967287540435791
,valley,0.9441571235656738
,rock,0.931280255317688
,summer,0.9218660593032837
,scenic,0.9145143032073975
,hill,0.914002537727356
,tree,0.8913880586624146
,water,0.8913145065307617
,wood,0.8822781443595886
,daylight,0.8639440536499023
,tourism,0.8636401891708374
,grass,0.8591961860656738
,hike,0.8581585884094238
,high,0.8466348648071289
https://scontent-sit4-1.cdninstagram.com/t51.2885-15/e35/13694490_273325209695709_958716104_n.jpg,people,0.9805259704589844
,fun,0.9509429931640625
,illustration,0.949603259563446
,man,0.9493900537490845
,sport,0.9475899934768677
,recreation,0.9436304569244385
,leisure,0.9421123266220093
,game,0.9412446618080139
,ball,0.9295545220375061
,competition,0.9295418858528137
,desktop,0.9289264678955078
,motion,0.9273389577865601
,adult,0.9225009679794312
,squad,0.910754382610321
,child,0.8955639004707336
,abstract,0.8930805325508118
,vector,0.8715000748634338
,outdoors,0.8666411638259888
,city,0.8640866875648499
,boy,0.8611185550689697
https://scontent-sit4-1.cdninstagram.com/t51.2885-15/e35/13628379_265079450536148_1490844509_n.jpg,gold,0.9801233410835266
,wealth,0.9784079790115356
,no person,0.9737783074378967
,luck,0.968624472618103
,money,0.9576315879821777
,luxury,0.9368841648101807
,money,0.9195188283920288
,symbol,0.916857123374939
,desktop,0.8989439606666565
,box,0.8910529613494873
,game,0.8713229894638062
,travel,0.8697723150253296
,entertainment,0.8692939281463623
,business,0.8677198886871338
,finance,0.8557257652282715
,cash,0.8535295724868774
,design,0.852790355682373
,casino,0.8399899005889893
,gambling,0.8383806943893433
,art,0.8375805616378784
https://scontent-sit4-1.cdninstagram.com/t51.2885-15/e35/13734415_820534448082874_624852951_n.jpg,people,0.9911476373672485
,performance,0.9653898477554321
,music,0.9542080163955688
,woman,0.9517825841903687
,man,0.9285670518875122
,festival,0.9220123291015625
,exhibition,0.9179567098617554
,group,0.9146857857704163
,indoors,0.9049854278564453
,adult,0.887886643409729
,wear,0.8672807812690735
,dancing,0.8602352142333984
,recreation,0.8565298318862915
,education,0.8399262428283691
,election,0.8358265161514282
,singer,0.8337218761444092
,stage,0.8301275968551636
,child,0.8202770948410034
,portrait,0.8192686438560486
,family,0.8184956908226013
https://scontent-sit4-1.cdninstagram.com/t51.2885-15/e35/13714019_507126849476152_2120607612_n.jpg,business,0.9889044165611267
,text,0.9824420809745789
,billboard,0.9760043025016785
,guidance,0.9688653945922852
,sign,0.9630817770957947
,road,0.944809079170227
,market,0.9408478736877441
,communication,0.9310405254364014
,sign,0.9162925481796265
,guidance,0.9133672714233398
,display,0.9094144105911255
,stock,0.8872997760772705
,service,0.8845124244689941
,desktop,0.8844443559646606
,sign,0.8820428252220154
,conceptual,0.8659490942955017
,street,0.8618344068527222
,traffic,0.8606882691383362
,finance,0.8578445911407471
,bill,0.8576371669769287
https://scontent-sit4-1.cdninstagram.com/t51.2885-15/e35/13734263_635803183255683_587332048_n.jpg,athlete,0.9805906414985657
,competition,0.9780864715576172
,man,0.9500319957733154
,sport,0.9468966722488403
,champion,0.9437739849090576
,soccer,0.9409516453742981
,people,0.9362010955810547
,game,0.9284605979919434
,motion,0.9207285046577454
,action,0.9199211597442627
,marathon,0.9189332723617554
,stadium,0.9157671928405762
,adult,0.9001274108886719
,victory,0.8952767848968506
,goal,0.876159131526947
,recreation,0.8754391074180603
,runner,0.8753794431686401
,ball,0.8727455139160156
,exercise,0.8703161478042603
,energy,0.8608158230781555
https://scontent-sit4-1.cdninstagram.com/t51.2885-15/e35/13741067_1145771242128110_1549255352_n.jpg,league,0.98977130651474
,meeting,0.9832455515861511
,school,0.9826196432113647
,education,0.9820466637611389
,class,0.9803545475006104
,people,0.9776710867881775
,group,0.969059944152832
,exhibition,0.9639406204223633
,teacher,0.9609079360961914
,adult,0.9603782892227173
,many,0.9578595161437988
,woman,0.9519224166870117
,university,0.9482557773590088
,International,0.9394357204437256
,man,0.9137595891952515
,child,0.9086724519729614
,festival,0.8954848647117615
,competition,0.8951069116592407
,athlete,0.8909268975257874
,election,0.886237382888794
https://scontent-sit4-1.cdninstagram.com/t51.2885-15/e35/13734507_933941310065892_1672107801_n.jpg,people,0.9937868118286133
,man,0.9655308723449707
,adult,0.9634314775466919
,group,0.9508864283561707
,woman,0.950691282749176
,portrait,0.9462485313415527
,two,0.9429410696029663
,wear,0.9244622588157654
,travel,0.8533591032028198
,street,0.851417601108551
,commerce,0.8365755081176758
,outdoors,0.8331735134124756
,vehicle,0.8298810720443726
,facial expression,0.8132287263870239
,music,0.789762556552887
,festival,0.7783759236335754
,city,0.7736108899116516
,three,0.7725467681884766
,interaction,0.7716120481491089
,stock,0.7699435353279114
