url,class,score
https://scontent-sit4-1.cdninstagram.com/t51.2885-15/e35/13774904_1008360349283755_170324575_n.jpg,industry,0.9780639410018921
,people,0.9735337495803833
,vehicle,0.958511471748352
,business,0.9499154686927795
,grinder,0.9453868269920349
,indoors,0.9451992511749268
,technology,0.9328386783599854
,production,0.9292495250701904
,adult,0.915794849395752
,travel,0.8741550445556641
,commerce,0.8729945421218872
,machine,0.863139271736145
,competition,0.861085057258606
,transportation system,0.8605557084083557
,no person,0.8549814224243164
,man,0.8531676530838013
,service,0.844429612159729
,wear,0.8315294981002808
,equipment,0.8199706673622131
,airport,0.8139855861663818
https://scontent-sit4-1.cdninstagram.com/t51.2885-15/e35/13731103_140896743008415_732103422_n.jpg,people,0.9755258560180664
,man,0.9640766382217407
,horizontal,0.9565364122390747
,adult,0.951777458190918
,portrait,0.9446114897727966
,indoors,0.9361836910247803
,vertical,0.8822011351585388
,serious,0.8617722988128662
,child,0.8569636940956116
,looking,0.8554127812385559
,woman,0.8467098474502563
,outdoors,0.8371556997299194
,adolescent,0.8215984106063843
,cap,0.8103010058403015
,education,0.8101887106895447
,wear,0.7998965978622437
,headshot,0.7978365421295166
,safety,0.7917468547821045
,pride,0.7762882709503174
,lid,0.7758734822273254
https://scontent-sit4-1.cdninstagram.com/t51.2885-15/e35/13649359_230411467358769_1195000736_n.jpg,transportation system,0.99692702293396
,travel,0.9931719303131104
,vehicle,0.9931236505508423
,road,0.9817404747009277
,car,0.974217414855957
,no person,0.9647262692451477
,empty,0.9605250358581543
,light,0.959966242313385
,blur,0.9535021781921387
,people,0.9526339769363403
,seat,0.9489880800247192
,traffic,0.9482908248901367
,bus,0.9471291303634644
,race,0.9392604827880859
,competition,0.938306450843811
,street,0.9320306777954102
,airplane,0.9309818744659424
,airport,0.9292914867401123
,daylight,0.9276846647262573
,highway,0.9254856109619141
https://scontent-sit4-1.cdninstagram.com/t51.2885-15/e35/13643545_278540915857378_1728015572_n.jpg,no person,0.9835958480834961
,travel,0.940100371837616
,outdoors,0.9150139093399048
,city,0.9128289222717285
,street,0.9017000198364258
,sky,0.9013776183128357
,vehicle,0.8864538669586182
,light,0.8771267533302307
,road,0.868461012840271
,transportation system,0.8482693433761597
,tree,0.8297773599624634
,nature,0.8024860620498657
,traffic,0.7949279546737671
,urban,0.7844521999359131
,architecture,0.781764805316925
,one,0.7572475671768188
,winter,0.7515295743942261
,rain,0.7509500980377197
,daylight,0.7467061281204224
,people,0.7435138821601868
https://scontent-sit4-1.cdninstagram.com/t51.2885-15/e35/11420901_492388267626253_922919866_n.jpg,athlete,0.9447528123855591
,people,0.9443357586860657
,adult,0.9003118276596069
,competition,0.8964561820030212
,weightlifting,0.8809722661972046
,man,0.8706163167953491
,energy,0.8458373546600342
,exercise,0.8411815166473389
,indoors,0.8122022151947021
,strength,0.7873281240463257
,recreation,0.7712768316268921
,effort,0.7478376626968384
,action,0.7476279735565186
,one,0.747139573097229
,motion,0.7324639558792114
,woman,0.723693311214447
,balance,0.7080923318862915
,vehicle,0.7012298107147217
,two,0.6667729020118713
,leisure,0.6667194366455078
https://scontent-sit4-1.cdninstagram.com/t51.2885-15/e15/13658378_619096668272904_1792751768_n.jpg,indoors,0.9990437030792236
,horizontal,0.9937944412231445
,vertical,0.9670031666755676
,business,0.9598128199577332
,window,0.9566445350646973
,modern,0.9364478588104248
,office,0.9360772967338562
,illuminated,0.9306976795196533
,technology,0.9252415299415588
,absence,0.9043660759925842
,communication,0.9043031930923462
,outdoors,0.9024993181228638
,empty,0.8932398557662964
,door,0.8745661973953247
,wall,0.8728880882263184
,light,0.8724792003631592
,room,0.862712025642395
,security,0.8578940629959106
,people,0.857524573802948
,equipment,0.8521018028259277
https://scontent-sit4-1.cdninstagram.com/t51.2885-15/e35/13736033_1071908899563847_180104875_n.jpg,technology,0.984665036201477
,laptop,0.9753497838973999
,computer,0.9744988083839417
,internet,0.9682555198669434
,screen,0.9671610593795776
,business,0.9634361267089844
,computer network,0.9473251104354858
,no person,0.9425626993179321
,connection,0.9227959513664246
,telephone,0.9140775203704834
,data,0.9007200598716736
,wireless,0.883480429649353
,electronics,0.8799614906311035
,indoors,0.8796384334564209
,portable,0.8502836227416992
,horizontal,0.8374035358428955
,industry,0.8286764025688171
,display,0.8064373135566711
,people,0.8025978803634644
,data,0.8011783957481384
https://scontent-sit4-1.cdninstagram.com/t51.2885-15/e35/13743506_1271613309515621_2107611995_n.jpg,blur,0.9981569051742554
,transportation system,0.9930084347724915
,car,0.99226975440979
,traffic,0.9855160713195801
,bus,0.9844902157783508
,city,0.9763468503952026
,travel,0.9758709669113159
,road,0.9751346111297607
,street,0.9729387164115906
,vehicle,0.9582061171531677
,urban,0.9536275863647461
,light,0.9533114433288574
,action,0.9461638927459717
,hurry,0.9395177364349365
,fast,0.9222651720046997
,rush,0.9207187294960022
,motion,0.9204326868057251
,business,0.9102351069450378
,tube,0.9059037566184998
,train,0.9022343158721924
https://scontent-sit4-1.cdninstagram.com/t51.2885-15/e35/13774614_255733198140891_478203202_n.jpg,vehicle,0.9934187531471252
,transportation system,0.9897987842559814
,bus,0.9792656898498535
,truck,0.9713975191116333
,road,0.9640949964523315
,car,0.9609448313713074
,travel,0.9550715684890747
,city,0.9329930543899536
,traffic,0.928099513053894
,street,0.905586302280426
,landscape,0.8856892585754395
,competition,0.8714426755905151
,tourism,0.8679299354553223
,urban,0.8602063059806824
,savings,0.8568025827407837
,outdoors,0.8402522802352905
,no person,0.8238790035247803
,horizontal,0.7888325452804565
,people,0.7845303416252136
,environment,0.777664065361023
https://scontent-sit4-1.cdninstagram.com/t51.2885-15/s640x640/sh0.08/e35/13768155_1019560678158445_644583956_n.jpg,stripe,0.9979209899902344
,banner,0.9956349730491638
,vector,0.9939371347427368
,illustration,0.9893288612365723
,template,0.9890746474266052
,page,0.9831732511520386
,label,0.9719491004943848
,set,0.969633936882019
,navigation,0.9680641293525696
,graph,0.9679263830184937
,layout,0.9675842523574829
,form,0.9580833315849304
,sandbank,0.9579833745956421
,World Wide Web,0.952876091003418
,symbol,0.9454476833343506
,arrow,0.9439172744750977
,presentation,0.9425853490829468
,design,0.9416691660881042
,horizontal,0.941409170627594
,number,0.9298078417778015
https://scontent-sit4-1.cdninstagram.com/t51.2885-15/sh0.08/e35/p640x640/13774888_270450393324973_997300072_n.jpg,illustration,0.970403790473938
,people,0.9613506197929382
,man,0.9403362274169922
,horizontal,0.9274282455444336
,adult,0.9177460670471191
,outdoors,0.8893324136734009
,woman,0.8856451511383057
,business,0.8848379850387573
,spherical,0.8187174797058105
,teamwork,0.7688484787940979
,accomplishment,0.7676668167114258
,vertical,0.7633305788040161
,success,0.7595086097717285
,child,0.7492744326591492
,communication,0.7410169839859009
,vector,0.7403370141983032
,fun,0.7262828350067139
,swimming,0.7018334269523621
,travel,0.6990379691123962
,water,0.6932361721992493
https://scontent-sit4-1.cdninstagram.com/t51.2885-15/e35/13739613_1147236398680989_1174549181_n.jpg,vehicle,0.9880461692810059
,people,0.969163179397583
,transportation system,0.960551381111145
,competition,0.9328885674476624
,action,0.9293625354766846
,adult,0.9174846410751343
,wear,0.9003278017044067
,soccer,0.8929309844970703
,police,0.8923662900924683
,one,0.8741989731788635
,man,0.8673847913742065
,military,0.849248468875885
,administration,0.8482685089111328
,calamity,0.845794677734375
,car,0.8393770456314087
,auto racing,0.8383381366729736
,offense,0.8331629037857056
,race,0.8307758569717407
,industry,0.8196606636047363
,watercraft,0.8037294149398804
https://scontent-sit4-1.cdninstagram.com/t51.2885-15/e35/13774311_152385685165936_1006869939_n.jpg,paper,0.9902583360671997
,document,0.9879143834114075
,no person,0.9775490760803223
,business,0.9775030016899109
,composition,0.948763370513916
,writing,0.9425389170646667
,office,0.9407186508178711
,money,0.9345017671585083
,note,0.9338398575782776
,mathematics,0.9183530807495117
,administration,0.9093177318572998
,signature,0.9069181084632874
,research,0.896765947341919
,finance,0.8900219202041626
,balance,0.8870829343795776
,form,0.8816742897033691
,education,0.879686713218689
,finance,0.8775854110717773
,law,0.8752195239067078
,data,0.8720784187316895
https://scontent-sit4-1.cdninstagram.com/t51.2885-15/e35/13707291_282919368735029_317893078_n.jpg,food,0.9894075393676758
,no person,0.9852573275566101
,bowl,0.9837669134140015
,milk,0.9763103127479553
,spoon,0.9759058952331543
,cream,0.9758385419845581
,yogurt,0.972442626953125
,dairy product,0.9689595699310303
,creamy,0.9580159187316895
,grow,0.9396541118621826
,health,0.9385639429092407
,nutrition,0.9357800483703613
,dip,0.9289779663085938
,delicious,0.9197558164596558
,homemade,0.914293646812439
,still life,0.9105465412139893
,breakfast,0.9093912243843079
,healthy,0.9093509912490845
,vegetable,0.9011878371238708
,container,0.9000343084335327
https://scontent-sit4-1.cdninstagram.com/t51.2885-15/e35/13774268_1143855348971224_598012353_n.jpg,vehicle,0.9792970418930054
,transportation system,0.9639965891838074
,window,0.9541344046592712
,no person,0.9396553635597229
,daylight,0.9351780414581299
,calamity,0.9321192502975464
,travel,0.9123631715774536
,car,0.8963268399238586
,train,0.8857420682907104
,military,0.8831226229667664
,police,0.882549524307251
,bus,0.878446638584137
,hospital,0.8746221661567688
,indoors,0.869208812713623
,people,0.8676284551620483
,offense,0.8490149974822998
,window,0.8424060344696045
,industry,0.8375918865203857
,storm,0.8337560892105103
,building,0.8302454948425293
https://scontent-sit4-1.cdninstagram.com/t51.2885-15/e35/13734380_1575418549428742_181615203_n.jpg,architecture,0.986246645450592
,no person,0.9823391437530518
,house,0.9818838834762573
,window,0.9656791687011719
,building,0.9635603427886963
,outdoors,0.9613454937934875
,city,0.9536105990409851
,family,0.9460480213165283
,business,0.9418764114379883
,apartment,0.938815176486969
,town,0.9289519786834717
,home,0.9282702207565308
,indoors,0.9182837605476379
,urban,0.9181951284408569
,room,0.9158452153205872
,travel,0.9148766994476318
,modern,0.909968912601471
,street,0.8989905714988708
,glass,0.8861501812934875
,office,0.8845484256744385
https://scontent-sit4-1.cdninstagram.com/t51.2885-15/e35/13722028_603411909819505_1440260962_n.jpg,indoors,0.988746702671051
,business,0.9802337884902954
,travel,0.9720027446746826
,airport,0.9680646061897278
,people,0.9599977135658264
,transportation system,0.9588523507118225
,window,0.9460025429725647
,horizontal,0.9454952478408813
,travel,0.9266374111175537
,outdoors,0.9248760938644409
,adult,0.9186394810676575
,no person,0.9174083471298218
,vertical,0.907061755657196
,security,0.877688467502594
,airplane,0.8762346506118774
,office,0.874125599861145
,man,0.8670066595077515
,document,0.8589197397232056
,city,0.8588443994522095
,industry,0.8566542863845825
https://scontent-sit4-1.cdninstagram.com/t51.2885-15/e15/13741325_1067076840037993_1681806726_n.jpg,indoors,0.9873347878456116
,horizontal,0.9843756556510925
,reflection,0.9564597606658936
,abstract,0.9553322792053223
,vertical,0.9546910524368286
,modern,0.9527119398117065
,illuminated,0.9454144239425659
,empty,0.9396345019340515
,illustration,0.9375688433647156
,window,0.936941921710968
,round,0.9360237121582031
,technology,0.9358171224594116
,light,0.9342226386070251
,ceiling,0.9299405217170715
,glazed,0.9299046993255615
,shadow,0.9257068634033203
,wall,0.9198125600814819
,pattern,0.9196378588676453
,square,0.9113333225250244
,shape,0.9091078639030457
https://scontent-sit4-1.cdninstagram.com/t51.2885-15/e35/13768394_158515424576714_60847695_n.jpg,people,0.9821423292160034
,adult,0.9642642736434937
,indoors,0.9592301845550537
,seat,0.9586275815963745
,woman,0.9517704248428345
,man,0.9235376119613647
,chair,0.9071220755577087
,travel,0.8970353007316589
,fun,0.895636796951294
,lifestyle,0.8926376104354858
,group,0.8895727396011353
,urban,0.8815000057220459
,room,0.8811584711074829
,happiness,0.878593921661377
,vehicle,0.8668565154075623
,leisure,0.8534016013145447
,tube,0.8466588258743286
,portrait,0.8442516326904297
,train,0.8429145812988281
,enjoyment,0.839558482170105
https://scontent-sit4-1.cdninstagram.com/t51.2885-15/e35/13732275_1771045686450897_1291015289_n.jpg,dashboard,0.996832013130188
,vehicle,0.9907643795013428
,no person,0.9899646043777466
,control,0.9851207137107849
,car,0.9785187840461731
,temperature,0.9553618431091309
,speedometer,0.9497600197792053
,transportation system,0.9494575262069702
,display,0.9416425228118896
,equipment,0.9410641193389893
,indoors,0.933817982673645
,dial,0.9214322566986084
,guidance,0.9202463626861572
,seat,0.9127672910690308
,instrument,0.9117529392242432
,technology,0.9015916585922241
,light,0.894489049911499
,dash,0.8943410515785217
,inside,0.8939268589019775
,gauge,0.8924078941345215
https://scontent-sit4-1.cdninstagram.com/t51.2885-15/e35/13712106_544058872452154_1528586567_n.jpg,business,0.9933090806007385
,document,0.9892251491546631
,paper,0.9883390069007874
,money,0.9849061965942383
,no person,0.9842569231987
,data,0.9668204188346863
,research,0.9633744955062866
,finance,0.961126446723938
,text,0.960192084312439
,number,0.9549669623374939
,composition,0.9533253908157349
,income,0.9501068592071533
,paperwork,0.9496221542358398
,preparation,0.9460780620574951
,financial,0.9450033903121948
,growth,0.9408202171325684
,administration,0.937502384185791
,balance,0.9295060634613037
,form,0.9260435700416565
,office,0.9234826564788818
https://scontent-sit4-1.cdninstagram.com/t51.2885-15/e35/13743580_841432859322953_630624053_n.jpg,transportation system,0.9934895038604736
,outdoors,0.980692982673645
,train,0.9650837182998657
,car,0.9589481353759766
,horizontal,0.9493304491043091
,city,0.9407223463058472
,travel,0.9351871013641357
,traffic,0.9340933561325073
,bus,0.9301308393478394
,business,0.9269275665283203
,road,0.9184504151344299
,vertical,0.9166369438171387
,people,0.9092656373977661
,street,0.9023528099060059
,railway,0.8771476745605469
,public transport,0.8726788759231567
,vehicle,0.8458801507949829
,motion,0.8253753185272217
,savings,0.8189136981964111
,no person,0.818309485912323
https://scontent-sit4-1.cdninstagram.com/t51.2885-15/e35/13703099_1000249383406491_823335907_n.jpg,vehicle,0.9882794618606567
,road,0.9877458810806274
,transportation system,0.9856050610542297
,street,0.9838823080062866
,travel,0.9807317852973938
,city,0.9764624834060669
,traffic,0.974539041519165
,car,0.9736112356185913
,bus,0.9589881896972656
,urban,0.950855553150177
,truck,0.9437220096588135
,outdoors,0.9383628964424133
,building,0.927970290184021
,environment,0.9207807779312134
,tourism,0.9039913415908813
,daylight,0.8970077037811279
,architecture,0.8922081589698792
,business,0.8868525624275208
,landscape,0.8829402923583984
,modern,0.8792362809181213
https://scontent-sit4-1.cdninstagram.com/t51.2885-15/e15/13636139_1755531201403104_292378228_n.jpg,business,0.9902496337890625
,wealth,0.9871379137039185
,finance,0.9851281642913818
,money,0.9803870320320129
,money,0.9689000248908997
,horizontal,0.9563413858413696
,abundance,0.9546653032302856
,pay,0.9239643812179565
,transportation system,0.9153609275817871
,investment,0.9111954569816589
,paper,0.9083073139190674
,success,0.8946083784103394
,number,0.894596517086029
,competition,0.8876234292984009
,debt,0.8863732814788818
,loan,0.8810754418373108
,sale,0.880648136138916
,batch,0.8766070604324341
,car,0.8731018304824829
,market,0.8639382123947144
https://scontent-sit4-1.cdninstagram.com/t51.2885-15/e35/13703205_526010290937388_2097057244_n.jpg,vehicle,0.999298632144928
,car,0.9991114139556885
,transportation system,0.9985954761505127
,dashboard,0.9961321353912354
,drive,0.9948384761810303
,fast,0.9930135011672974
,driver,0.9904378652572632
,race,0.986524224281311
,speedometer,0.9854819774627686
,seat,0.9727258086204529
,fuel,0.964225709438324
,action,0.9629697203636169
,competition,0.9612330198287964
,no person,0.9585510492324829
,dash,0.955194354057312
,control,0.9529240131378174
,travel,0.9487344622612
,odometer,0.9389693140983582
,outdoors,0.9355001449584961
,gasoline,0.9340406060218811
https://scontent-sit4-1.cdninstagram.com/t51.2885-15/e35/13741239_1074223635989010_618923344_n.jpg,vehicle,0.9889348745346069
,transportation system,0.9807266592979431
,bus,0.964448094367981
,road,0.957214891910553
,traffic,0.9479351043701172
,car,0.9443008899688721
,business,0.9172605872154236
,truck,0.9172350168228149
,street,0.9099695086479187
,savings,0.9094288349151611
,accident,0.9036930799484253
,no person,0.8986465930938721
,industry,0.8932921886444092
,travel,0.8908979892730713
,people,0.8879782557487488
,offense,0.8852817416191101
,train,0.8782527446746826
,calamity,0.8772571682929993
,emergency,0.8739891052246094
,police,0.8709894418716431
https://scontent-sit4-1.cdninstagram.com/t51.2885-15/e35/13712088_120621685047340_13871318_n.jpg,car,0.9778754711151123
,vehicle,0.971598744392395
,transportation system,0.9689563512802124
,technology,0.961883544921875
,control,0.943286657333374
,equipment,0.9306957721710205
,power,0.9286512136459351
,business,0.9214376211166382
,fuel,0.9096243381500244
,device,0.8836795091629028
,drive,0.8662863373756409
,modern,0.8654898405075073
,display,0.8648033738136292
,dashboard,0.8577062487602234
,computer,0.8569827079772949
,plastic,0.8372954726219177
,desktop,0.8288075923919678
,no person,0.8255818486213684
,industry,0.8206322193145752
,connection,0.8118280172348022
https://scontent-sit4-1.cdninstagram.com/t51.2885-15/sh0.08/e35/p640x640/13774681_1169715913100433_1240544205_n.jpg,people,0.9827014207839966
,monochrome,0.9602704048156738
,adult,0.9009793996810913
,business,0.8970401883125305
,street,0.8952903747558594
,man,0.8558061122894287
,text,0.8345761299133301
,woman,0.811618983745575
,sign,0.8066767454147339
,technology,0.7630422115325928
,bill,0.7544364929199219
,paper,0.7218461036682129
,offense,0.7163096070289612
,dark,0.6893929243087769
,city,0.6698096394538879
,indoors,0.6674796342849731
,security,0.6327364444732666
,one,0.6218578815460205
,internet,0.6179051399230957
,commerce,0.6025255918502808
https://scontent-sit4-1.cdninstagram.com/t51.2885-15/e35/13712333_1114939395208560_2033312721_n.jpg,transportation system,0.9929080009460449
,vehicle,0.9922451376914978
,car,0.9906893968582153
,bus,0.9830737709999084
,road,0.9817996025085449
,traffic,0.9761683940887451
,travel,0.9761261343955994
,street,0.9507512450218201
,city,0.9464257955551147
,truck,0.9419933557510376
,savings,0.9282033443450928
,outdoors,0.9230588674545288
,no person,0.9116305708885193
,urban,0.9087209701538086
,business,0.8999897837638855
,railway,0.8892651796340942
,police,0.8783267140388489
,train,0.8664945960044861
,public,0.8497737646102905
,fast,0.8471581935882568
https://scontent-sit4-1.cdninstagram.com/t51.2885-15/e35/13715097_274733456236900_175711680_n.jpg,street,0.9766452312469482
,city,0.9520835876464844
,transportation system,0.9450610280036926
,road,0.9436392784118652
,bus,0.937957763671875
,car,0.9353929758071899
,vehicle,0.9257766008377075
,travel,0.9228767156600952
,urban,0.9203670024871826
,business,0.9035105109214783
,window,0.9003515839576721
,light,0.8976083993911743
,traffic,0.8758028745651245
,indoors,0.8635536432266235
,people,0.8596775531768799
,architecture,0.859215259552002
,door,0.8558224439620972
,building,0.8546791672706604
,stock,0.8540894985198975
,no person,0.8465635776519775
https://scontent-sit4-1.cdninstagram.com/t51.2885-15/e35/13704086_1615681225429250_775012831_n.jpg,no person,0.965789258480072
,business,0.9608860015869141
,money,0.9525816440582275
,paper,0.9342691898345947
,success,0.9294451475143433
,finance,0.8840140700340271
,security,0.8780733346939087
,text,0.8755254745483398
,wealth,0.8740264177322388
,money,0.8523988723754883
,financial,0.8162678480148315
,card,0.8099408745765686
,education,0.8080611228942871
,safety,0.8077574968338013
,finance,0.8008835315704346
,bank,0.7985763549804688
,emergency,0.79350745677948
,law,0.7827465534210205
,administration,0.7803203463554382
,commerce,0.7645663022994995
https://scontent-sit4-1.cdninstagram.com/t51.2885-15/sh0.08/e35/p640x640/13696814_510299785827266_1908676403_n.jpg,equipment,0.9867703914642334
,technology,0.9865692257881165
,car,0.9800269603729248
,instrument,0.9777399897575378
,watch,0.9642659425735474
,business,0.9573140144348145
,measure,0.9549296498298645
,device,0.9499301910400391
,lens,0.9459841251373291
,time,0.945210874080658
,electronics,0.9446437358856201
,chrome,0.9413560032844543
,timer,0.9408078193664551
,isolated,0.93898606300354
,old,0.932421088218689
,desktop,0.9284494519233704
,clock,0.9276077747344971
,dial,0.9205228686332703
,safety,0.9084146618843079
,vehicle,0.9004674553871155
https://scontent-sit4-1.cdninstagram.com/t51.2885-15/sh0.08/e35/p640x640/13658432_385159768321286_1720608653_n.jpg,people,0.9669625759124756
,bar,0.947008490562439
,man,0.9072574377059937
,business,0.8733445405960083
,indoors,0.8510497808456421
,adult,0.8448153734207153
,person,0.8316426277160645
,woman,0.829120397567749
,car,0.8280588388442993
,competition,0.8030083775520325
,restaurant,0.7994788885116577
,desktop,0.7977402210235596
,chair,0.7955464124679565
,stock,0.7899625301361084
,street,0.789025604724884
,track,0.7841787338256836
,computer,0.7766718864440918
,banner,0.7740483283996582
,modern,0.7739959955215454
,technology,0.7704600095748901
https://scontent-sit4-1.cdninstagram.com/t51.2885-15/e35/13725707_1744495919158181_173940486_n.jpg,people,0.981582760810852
,exhibition,0.9525371789932251
,competition,0.9335891008377075
,vehicle,0.9133551120758057
,room,0.8995120525360107
,adult,0.8963896036148071
,business,0.8850633502006531
,furniture,0.8829269409179688
,recreation,0.8722460269927979
,group,0.8575119972229004
,industry,0.8564417362213135
,tourism,0.854229211807251
,chair,0.8513333201408386
,indoors,0.8506922125816345
,city,0.8499239683151245
,woman,0.8352747559547424
,election,0.8329474329948425
,tourist,0.8289231657981873
,carnival,0.820777416229248
,soccer,0.8108615279197693
https://scontent-sit4-1.cdninstagram.com/t51.2885-15/e35/13712631_156715818091901_1138958122_n.jpg,man,0.9881448745727539
,people,0.9847041368484497
,portrait,0.9827060699462891
,eyeglasses,0.973781406879425
,indoors,0.9714511632919312
,one,0.9569436311721802
,adult,0.93914794921875
,eyewear,0.9132494926452637
,healthcare,0.8848863840103149
,sunglasses,0.838050901889801
,wear,0.831774890422821
,fashion,0.8136836886405945
,vehicle,0.8009335994720459
,hospital,0.7838337421417236
,business,0.7767341136932373
,intelligence,0.7763231992721558
,science,0.7727388143539429
,looking,0.762229323387146
,travel,0.7583504915237427
,competition,0.7385072708129883
https://scontent-sit4-1.cdninstagram.com/t51.2885-15/e35/13696906_1774188492866239_922122777_n.jpg,bus,0.9979630708694458
,transportation system,0.9975733160972595
,traffic,0.9965442419052124
,car,0.9946019649505615
,vehicle,0.9920998811721802
,road,0.9905337691307068
,truck,0.9852160215377808
,savings,0.9776321053504944
,street,0.9686267375946045
,travel,0.9498522281646729
,ambulance,0.934859037399292
,outdoors,0.9290255308151245
,emergency,0.9289708733558655
,police,0.9181506037712097
,city,0.915341854095459
,speed,0.9140994548797607
,public transport,0.9005700945854187
,fast,0.888367235660553
,tram,0.8770239353179932
,horizontal,0.8708453178405762
https://scontent-sit4-1.cdninstagram.com/t51.2885-15/e35/13741326_1772841272930916_1476570908_n.jpg,recreation,0.8917272090911865
,people,0.8782137632369995
,equipment,0.8711299896240234
,leisure,0.8682955503463745
,woman,0.8596731424331665
,no person,0.8514288663864136
,technology,0.8488174676895142
,travel,0.8455725908279419
,adult,0.8363591432571411
,summer,0.8127064108848572
,indoors,0.8088005781173706
,desktop,0.8065048456192017
,lifestyle,0.8051968216896057
,vehicle,0.7812824249267578
,man,0.778322696685791
,color,0.7708872556686401
,one,0.7603479623794556
,lens,0.7594297528266907
,sport,0.7547289133071899
,health,0.7482023239135742
https://scontent-sit4-1.cdninstagram.com/t51.2885-15/e35/13741227_1132920986751903_1842915893_n.jpg,bus,0.994918704032898
,vehicle,0.9938226938247681
,transportation system,0.9920846819877625
,car,0.9887953996658325
,road,0.9801848530769348
,traffic,0.9768713712692261
,urban,0.9688785076141357
,modern,0.9638676643371582
,truck,0.9603618383407593
,city,0.9518044590950012
,public,0.9502508044242859
,train,0.945866048336029
,street,0.9446521997451782
,business,0.941897988319397
,railway,0.93963223695755
,travel,0.91733717918396
,soccer,0.9041103720664978
,police,0.8982187509536743
,action,0.8821955919265747
,building,0.8786183595657349
https://scontent-sit4-1.cdninstagram.com/t51.2885-15/e35/13715250_1726318577617596_485162404_n.jpg,vehicle,0.9645005464553833
,transportation system,0.9596916437149048
,people,0.9476079940795898
,light,0.9358805418014526
,no person,0.9240096211433411
,indoors,0.9171667098999023
,window,0.9134749174118042
,travel,0.8829244375228882
,train,0.8716847896575928
,street,0.8659080266952515
,industry,0.860486626625061
,airplane,0.8423916101455688
,business,0.83351731300354
,aircraft,0.8175984621047974
,calamity,0.8170818090438843
,city,0.8141658306121826
,rain,0.8088143467903137
,outdoors,0.8011336326599121
,window,0.8007560968399048
,urban,0.7827166318893433
https://scontent-sit4-1.cdninstagram.com/t51.2885-15/e35/13652078_1072240562867442_1647342840_n.jpg,container,0.9580909609794617
,no person,0.9513611793518066
,indoors,0.935581386089325
,healthcare,0.9094970226287842
,bottle,0.9094796180725098
,food,0.908183217048645
,medicine,0.9044801592826843
,family,0.8843458890914917
,room,0.8807098865509033
,people,0.8592851161956787
,drink,0.8566867113113403
,jar,0.810399055480957
,one,0.8030484914779663
,hospital,0.7881903648376465
,illness,0.7677690982818604
,stock,0.7649104595184326
,decoration,0.7599196434020996
,coffee,0.7577961683273315
,religion,0.7533862590789795
,furniture,0.7389389872550964
https://scontent-sit4-1.cdninstagram.com/t51.2885-15/e35/13743279_1817375321826019_1426421862_n.jpg,car,0.9977414011955261
,vehicle,0.9775049686431885
,road,0.9724998474121094
,transportation system,0.9700871706008911
,light,0.9680723547935486
,street,0.965288519859314
,city,0.9374851584434509
,urban,0.9318356513977051
,travel,0.9209829568862915
,luxury,0.9149659276008606
,winter,0.905096173286438
,snow,0.9003702402114868
,modern,0.9003225564956665
,landscape,0.8693455457687378
,no person,0.859454870223999
,people,0.8515290021896362
,blur,0.849943995475769
,hurry,0.8392842411994934
,tree,0.8305562734603882
,room,0.8294206857681274
https://scontent-sit4-1.cdninstagram.com/t51.2885-15/e35/13725581_228167267582886_1758080215_n.jpg,business,0.9750303030014038
,industry,0.97098708152771
,transportation system,0.9504566788673401
,train,0.9424969553947449
,tube,0.9368845224380493
,vehicle,0.9251672625541687
,steel,0.9221150875091553
,station,0.913006067276001
,railway,0.9093132019042969
,urban,0.9086421132087708
,no person,0.9029492139816284
,modern,0.8997258543968201
,grinder,0.8962045311927795
,city,0.8933568000793457
,train,0.8928728103637695
,tube,0.8883920311927795
,technology,0.8883816003799438
,production,0.8844716548919678
,bus,0.8774179220199585
,airport,0.8729557394981384
https://scontent-sit4-1.cdninstagram.com/t51.2885-15/e35/13745204_1260186654000072_1567788947_n.jpg,group,0.991054892539978
,man,0.9859598875045776
,adult,0.9816083908081055
,people,0.9808186292648315
,woman,0.9618597626686096
,facial expression,0.9578600525856018
,child,0.9465855360031128
,group,0.9380663633346558
,wear,0.9288514852523804
,portrait,0.9266670942306519
,happiness,0.9121087789535522
,five,0.9073985815048218
,furniture,0.9037989377975464
,room,0.9025700092315674
,four,0.8993467092514038
,education,0.8962595462799072
,family,0.895145058631897
,offspring,0.864676833152771
,togetherness,0.8621045351028442
,boy,0.8513983488082886
https://scontent-sit4-1.cdninstagram.com/t51.2885-15/e35/13774207_1138626359529526_868876915_n.jpg,road,0.9826582670211792
,transportation system,0.9825994968414307
,vehicle,0.977668046951294
,street,0.9775923490524292
,bus,0.9770532846450806
,traffic,0.9747837781906128
,car,0.9685957431793213
,no person,0.9278680086135864
,city,0.9202542901039124
,industry,0.9161343574523926
,business,0.9028379917144775
,urban,0.8970401883125305
,railway,0.8969253897666931
,train,0.8923980593681335
,tube,0.8890482187271118
,travel,0.887070894241333
,savings,0.8860306739807129
,emergency,0.8831664323806763
,accident,0.8790150880813599
,police,0.8649535775184631
https://scontent-sit4-1.cdninstagram.com/t51.2885-15/e35/13745161_838636642939367_412272943_n.jpg,people,0.955806314945221
,illustration,0.9294835329055786
,outdoors,0.9285728931427002
,vehicle,0.9070484638214111
,man,0.8981620073318481
,vector,0.8863356113433838
,sketch,0.8507610559463501
,business,0.8500361442565918
,competition,0.8145959377288818
,road,0.8021878004074097
,travel,0.7955068945884705
,sky,0.7813584804534912
,adult,0.7748169898986816
,car,0.768451452255249
,woman,0.7683396935462952
,industry,0.7677369117736816
,street,0.7475765943527222
,transportation system,0.7454368472099304
,city,0.7414178848266602
,graphic,0.7389988899230957
https://scontent-sit4-1.cdninstagram.com/t51.2885-15/e35/13712209_1714008925532327_39595454_n.jpg,vehicle,0.9893890619277954
,seat,0.9829902052879333
,transportation system,0.9801243543624878
,people,0.9788005352020264
,chair,0.964698076248169
,indoors,0.9600135087966919
,airport,0.9593924880027771
,furniture,0.9583768844604492
,travel,0.9566507935523987
,business,0.9541717767715454
,telephone,0.9539958238601685
,adult,0.9330750107765198
,window,0.9287011623382568
,one,0.9281268119812012
,airplane,0.9192797541618347
,room,0.9145153760910034
,car,0.911790668964386
,luggage,0.8922637104988098
,aircraft,0.8838878273963928
,technology,0.8758094310760498
https://scontent-sit4-1.cdninstagram.com/t51.2885-15/e35/13714251_241552892905031_251257788_n.jpg,transportation system,0.9781192541122437
,vehicle,0.9744633436203003
,travel,0.9587022662162781
,road,0.9576040506362915
,car,0.9466984272003174
,no person,0.9438164234161377
,outdoors,0.9281558990478516
,landscape,0.9275320768356323
,traffic,0.9128681421279907
,environment,0.8918333053588867
,street,0.879991888999939
,water,0.8593136668205261
,competition,0.8561891317367554
,summer,0.8450391292572021
,sky,0.8392260074615479
,auto racing,0.8391656875610352
,highway,0.8228719234466553
,people,0.8137534856796265
,truck,0.808850884437561
,tree,0.8080921173095703
https://scontent-sit4-1.cdninstagram.com/t51.2885-15/e35/13687122_588867877961021_2133779663_n.jpg,man,0.9928187131881714
,people,0.9823910593986511
,outdoors,0.9714305400848389
,wear,0.9682085514068604
,facial expression,0.9681260585784912
,portrait,0.9673789739608765
,adult,0.9653189182281494
,togetherness,0.9561821818351746
,happiness,0.9174062013626099
,two,0.914139986038208
,daylight,0.9008298516273499
,veil,0.9001959562301636
,woman,0.8821349143981934
,race,0.8768516182899475
,cooperation,0.8503706455230713
,group,0.8462053537368774
,competition,0.8447104692459106
,industry,0.8352378010749817
,enjoyment,0.8328254818916321
,teamwork,0.8322441577911377
