<<<<<<< HEAD
URL,CLASS,SCORE
https://scontent.cdninstagram.com/t51.2885-15/e35/13402486_529185183957238_637368640_n.jpg,woman,0.988610864
,fashion,0.973891437
,people,0.960880637
,dress,0.958438754
,girl,0.931810975
,door,0.923416018
,indoors,0.915403962
,one,0.881260991
,adult,0.876554728
,wear,0.876533866
,model,0.875925004
,family,0.873307407
,glamour,0.850409269
,pretty,0.833965778
,child,0.810109258
,wedding,0.806098938
,young,0.792636871
,shopping,0.786747813
,sexy,0.785452962
,portrait,0.784834743
https://scontent.cdninstagram.com/t51.2885-15/e35/13414412_263619763996642_1689514175_n.jpg,woman,0.995268106
,girl,0.992593884
,fashion,0.99122262
,pretty,0.977013826
,beautiful,0.972526312
,portrait,0.970868945
,people,0.968546271
,model,0.968363762
,young,0.963273406
,sexy,0.957475185
,indoors,0.951717496
,glamour,0.946344376
,hair,0.925709486
,cute,0.913828373
,family,0.903008699
,brunette,0.901171327
,elegant,0.889539838
,dress,0.887393594
,eye,0.883852124
,one,0.88220185
"https://scontent.cdninstagram.com/t51.2885-15/e35/13413459_246289662409128_211330202_n.jpg= Error Image, Not Accessible.",,
https://scontent.cdninstagram.com/t51.2885-15/e35/13402599_252347555133347_413940188_n.jpg,woman,0.996319592
,pretty,0.987298191
,fashion,0.986053467
,sexy,0.971544385
,young,0.968697608
,girl,0.955678821
,cute,0.954432011
,beautiful,0.950604081
,glamour,0.948400497
,model,0.929720879
,elegant,0.910930514
,long,0.906681716
,casual,0.89800036
,attractive,0.888702631
,looking,0.882678986
,joy,0.877764583
,adolescent,0.871346593
,hair,0.869219422
,shopping,0.866107106
,adult,0.859835982
https://scontent.cdninstagram.com/t51.2885-15/e35/13408789_1721166344798976_1962456573_n.jpg,illustration,0.974523842
,vector,0.968745351
,desktop,0.964018464
,no person,0.947867751
,pattern,0.942992806
,design,0.940391004
,isolated,0.938800752
,art,0.920051694
,horizontal,0.918727696
,paper,0.906829536
,abstract,0.893939495
,sign,0.881620407
,symbol,0.880660415
,decoration,0.88013351
,education,0.879486322
,graphic,0.875091076
,text,0.869613767
,image,0.863197207
,picture frame,0.86280477
,business,0.851252019
https://scontent.cdninstagram.com/t51.2885-15/e35/13329187_1745189122428265_124301201_n.jpg,woman,0.995598435
,fashion,0.99288404
,glamour,0.982841551
,sexy,0.975190639
,pretty,0.974272251
,eye,0.969370186
,skin,0.955271482
,cute,0.938531637
,lips,0.933501363
,portrait,0.924025178
,girl,0.920497537
,elegant,0.913738132
,nude,0.909541667
,long,0.901941299
,model,0.89417088
,look,0.886069596
,hair,0.88138175
,relaxation,0.863148212
,luxury,0.847416997
,young,0.842897594
https://scontent.cdninstagram.com/t51.2885-15/s480x480/e35/13408842_591354594359999_947018499_n.jpg,storm,0.999105811
,thunderstorm,0.993983626
,weather,0.992836118
,dramatic,0.990433931
,sky,0.98842907
,outdoors,0.986775696
,dark,0.985888541
,nature,0.985161066
,rain,0.980576336
,cloud,0.977258801
,cloudiness,0.973484993
,meteorology,0.972372711
,dusk,0.970677912
,cyclone,0.967983782
,hurricane,0.96723187
,lightning,0.963413298
,cloudscape,0.949648976
,no person,0.941972017
,fair weather,0.938861489
,tornado,0.937476456
https://scontent.cdninstagram.com/t51.2885-15/e35/13414223_1609985025908805_1015311180_n.jpg,girl,0.996879697
,woman,0.995376468
,fashion,0.98431623
,model,0.980937004
,portrait,0.975132346
,street,0.97422576
,young,0.972881675
,skate,0.966644526
,people,0.961530149
,sport,0.957720995
,lifestyle,0.949175656
,fun,0.945759773
,smile,0.943965077
,summer,0.940084219
,exercise,0.939899027
,adult,0.935448825
,recreation,0.934973419
,sexy,0.934961557
,urban,0.93422842
,beautiful,0.930770457
https://scontent.cdninstagram.com/t51.2885-15/e35/13355396_668210353332075_675365263_n.jpg,chocolate,0.955646813
,paper,0.944052219
,desktop,0.936542153
,celebration,0.907062173
,decoration,0.894967079
,Christmas,0.881152511
,sweet,0.877909958
,card,0.873159051
,woman,0.861554921
,business,0.858868122
,cake,0.854828477
,party,0.839895844
,people,0.825698853
,hand,0.823327184
,cream,0.816331685
,design,0.815069914
,candy,0.792996109
,girl,0.792345881
,person,0.769105911
,birthday,0.767270923
https://scontent.cdninstagram.com/t51.2885-15/s640x640/e15/13285303_133792013695191_1751235184_n.jpg,music,0.998712063
,performance,0.997777104
,festival,0.997410476
,concert,0.997031212
,musician,0.984002054
,rave,0.982509494
,stage,0.981351137
,club,0.981009185
,singer,0.977090418
,dancing,0.968001962
,band,0.965136766
,rap,0.960715055
,party,0.956003189
,club,0.921378613
,energy,0.912671328
,motion,0.898907721
,celebration,0.892505169
,audience,0.885346651
,disco,0.867362499
,crowd,0.856548071
https://scontent.cdninstagram.com/t51.2885-15/s640x640/e15/13551810_270682036623402_2084673385_n.jpg,festival,0.973544478
,performance,0.97182256
,people,0.96211791
,light,0.951024413
,music,0.926164389
,concert,0.925981045
,landscape,0.897469521
,vehicle,0.896828055
,musician,0.887968421
,competition,0.85171628
,adult,0.84719193
,venue,0.834107637
,group,0.832697213
,recreation,0.817891777
,energy,0.816286802
,flame,0.806121707
,celebration,0.804725528
,singer,0.783067226
,stage,0.775479138
,motion,0.773396134
https://scontent.cdninstagram.com/t51.2885-15/e35/13413205_651137771700134_787886915_n.jpg,woman,0.993971527
,people,0.990048289
,portrait,0.983523011
,one,0.981690228
,girl,0.973732829
,adult,0.97101599
,model,0.944441319
,wear,0.939454377
,fashion,0.938004196
,music,0.929567575
,room,0.905203462
,indoors,0.897823334
,facial expression,0.895320177
,skirt,0.893858135
,footwear,0.893073142
,dress,0.883275092
,recreation,0.881852746
,furniture,0.853845537
,seat,0.841869354
,two,0.839050651
https://scontent.cdninstagram.com/t51.2885-15/e35/13422908_964651613632107_850002801_n.jpg,woman,0.996350706
,fashion,0.993751764
,portrait,0.976153612
,girl,0.96886611
,glamour,0.967784166
,sexy,0.965752065
,model,0.963072717
,pretty,0.959294379
,eye,0.945279002
,people,0.939931989
,lips,0.919248939
,elegant,0.905515015
,cute,0.904469371
,dress,0.890700996
,jewelry,0.88777703
,brunette,0.887084842
,indoors,0.879110038
,hair,0.865813732
,long,0.828111827
,skin,0.826946855
https://scontent.cdninstagram.com/t51.2885-15/e35/13381430_1598946450416025_2096270435_n.jpg,woman,0.988756359
,young,0.978623271
,fashion,0.966670871
,girl,0.964895248
,summer,0.963285089
,health,0.960231602
,fun,0.944479704
,nature,0.940926611
,pretty,0.938734889
,leisure,0.936913133
,fitness,0.933439255
,exercise,0.93012619
,active,0.919230461
,sit,0.916421056
,relaxation,0.914365053
,adolescent,0.910079241
,sexy,0.909806192
,outdoors,0.907990694
,sport,0.90648663
,recreation,0.900150895
https://scontent.cdninstagram.com/t51.2885-15/e35/13385724_655717501248337_1663363254_n.jpg,woman,0.994424403
,pretty,0.99075532
,fashion,0.984045446
,cute,0.979242682
,young,0.974149108
,girl,0.972150266
,adolescent,0.96313715
,casual,0.958589792
,beautiful,0.955922246
,sexy,0.954859376
,brunette,0.934742749
,bag,0.933034062
,looking,0.927206635
,glamour,0.923601627
,attractive,0.9171561
,model,0.91461432
,college,0.908009291
,portrait,0.899843812
,multicultural,0.89403069
,one,0.889132619
https://scontent.cdninstagram.com/t51.2885-15/e35/13414362_1250187724991682_125128283_n.jpg,no person,0.968967974
,vector,0.963752031
,illustration,0.95875895
,desktop,0.941540956
,abstract,0.908923686
,conceptual,0.895723462
,design,0.889449239
,text,0.886511326
,creativity,0.881518304
,business,0.880252123
,modern,0.848261952
,symbol,0.848050535
,typographic,0.847885251
,graphic,0.84220016
,contemporary,0.835583627
,art,0.832602501
,dark,0.825592279
,technology,0.818953395
,people,0.81639564
,nature,0.802855372
https://scontent.cdninstagram.com/t51.2885-15/e35/13398443_974403036010525_1822314193_n.jpg,woman,0.991160035
,people,0.967129648
,adult,0.958475471
,portrait,0.957970977
,family,0.91631186
,fashion,0.910176694
,indoors,0.906439185
,happiness,0.902045667
,wear,0.894360423
,model,0.887122452
,lifestyle,0.871805549
,girl,0.850286603
,enjoyment,0.844035745
,room,0.833034754
,one,0.812793255
,dress,0.805704892
,young,0.799576044
,relaxation,0.790866673
,recreation,0.788994014
,laughing,0.78417486
https://scontent.cdninstagram.com/t51.2885-15/e35/13556789_1802966456605077_1331521961_n.jpg,woman,0.993213058
,friendship,0.972551584
,fashion,0.962311029
,people,0.959320188
,joy,0.958328009
,pretty,0.957362413
,portrait,0.955217004
,young,0.943742692
,fun,0.940530658
,togetherness,0.939333081
,adolescent,0.928609371
,girl,0.924677074
,beautiful,0.923121393
,smile,0.921524644
,happiness,0.911043406
,love,0.904585481
,two,0.903169036
,laughing,0.899747729
,cute,0.883758664
,cheerful,0.873475671
https://scontent.cdninstagram.com/t51.2885-15/e35/13392894_1709502385980174_1708235419_n.jpg,woman,0.994233012
,health,0.99403739
,leisure,0.986203969
,fitness,0.982888162
,summer,0.978290558
,young,0.977530122
,exercise,0.97594434
,thin,0.973152995
,active,0.972883046
,energetic,0.963458776
,fashion,0.962297618
,recreation,0.954016626
,sexy,0.953932166
,pretty,0.953741074
,fun,0.940737009
,enjoyment,0.93139708
,balance,0.9269979
,healthy,0.916373253
,relaxation,0.913926899
,joy,0.91277945
https://scontent.cdninstagram.com/t51.2885-15/s640x640/e15/13269602_1096331520438046_1045279308_n.jpg,music,0.998437703
,performance,0.998349905
,concert,0.996367693
,festival,0.994912505
,musician,0.985111892
,stage,0.980077505
,singer,0.974655807
,band,0.974585652
,energy,0.965068221
,rap,0.941372037
,audience,0.932009697
,recreation,0.930695176
,people,0.913997829
,light,0.906038046
,club,0.890013635
,party,0.874798715
,pop,0.868087649
,rave,0.867349148
,film festival,0.847447813
,crowd,0.843334675
https://scontent.cdninstagram.com/t51.2885-15/e35/13397459_259298991098377_1788833522_n.jpg,woman,0.996761143
,fashion,0.98514992
,pretty,0.984091401
,glamour,0.969247937
,sexy,0.967161834
,skin,0.964989781
,cute,0.957423329
,elegant,0.953844965
,portrait,0.932081342
,young,0.931978345
,eye,0.924553871
,girl,0.908340573
,hair,0.889413893
,lips,0.882650256
,look,0.867831826
,isolated,0.867704153
,model,0.85449779
,clean,0.849720836
,charming,0.844435453
,luxury,0.832759202
https://scontent.cdninstagram.com/t51.2885-15/e35/13259646_253440558350952_392583845_n.jpg,fashion,0.998402357
,woman,0.995283961
,model,0.983106375
,glamour,0.980555475
,sexy,0.971202731
,portrait,0.954290628
,pretty,0.951917052
,girl,0.950922489
,elegant,0.917702019
,dress,0.888588965
,wear,0.883321643
,contemporary,0.875338554
,long,0.870599866
,thin,0.861895382
,young,0.85120821
,casual,0.838320732
,cute,0.805066586
,one,0.800673723
,shopping,0.799890041
,style,0.796348929
https://scontent.cdninstagram.com/t51.2885-15/s640x640/e15/13249697_1745519135721211_1789179586_n.jpg,music,0.99954319
,performance,0.999438703
,concert,0.999211669
,festival,0.993413329
,musician,0.993344367
,singer,0.992046714
,stage,0.990473509
,band,0.987000942
,audience,0.954009712
,energy,0.947795033
,club,0.921193004
,guitarist,0.913106084
,party,0.906352758
,light,0.906254888
,rap,0.902450562
,rave,0.901519299
,celebration,0.901128232
,song,0.900120378
,motion,0.883125067
,pop,0.876027644
https://scontent.cdninstagram.com/t51.2885-15/e35/13398468_489363907927753_1471922813_n.jpg,woman,0.993440032
,fashion,0.981225014
,portrait,0.961746454
,summer,0.95113641
,pretty,0.947996497
,model,0.934094429
,people,0.930930257
,nature,0.925563514
,girl,0.917764783
,eye,0.916104555
,sexy,0.90759176
,outdoors,0.902223587
,glamour,0.879060328
,cute,0.866361737
,hair,0.865120947
,brunette,0.861497223
,relaxation,0.851642728
,fair weather,0.84938693
,adolescent,0.835403144
,young,0.816416919
https://scontent.cdninstagram.com/t51.2885-15/e35/13285411_1102124169851612_1565611231_n.jpg,woman,0.997497797
,fashion,0.993847489
,pretty,0.983886123
,glamour,0.977169871
,sexy,0.972705364
,eye,0.971428275
,cute,0.955827832
,lips,0.949617863
,skin,0.946112156
,portrait,0.92657125
,long,0.922314048
,elegant,0.912037253
,look,0.91091013
,hair,0.910184503
,girl,0.906948149
,adolescent,0.880442023
,seduction,0.875537217
,model,0.855534613
,young,0.840746939
,joy,0.838734508
https://scontent.cdninstagram.com/t51.2885-15/e35/13402463_261586384206301_834543791_n.jpg,woman,0.997319579
,fashion,0.985364318
,pretty,0.984457374
,girl,0.983698487
,young,0.981966496
,portrait,0.980180621
,isolated,0.974392176
,beautiful,0.973740637
,shopping,0.97093451
,lady,0.96724093
,attractive,0.963913262
,people,0.961374164
,adult,0.944983542
,bag,0.942451
,person,0.937655687
,cute,0.929195642
,sexy,0.928740621
,one,0.925504982
,business,0.925483346
,model,0.910208225
"https://scontent.cdninstagram.com/t51.2885-15/e35/13395006_617343661756809_1071200158_n.jpg= Error Image, Not Accessible.",,
https://scontent.cdninstagram.com/t51.2885-15/e35/13422895_1041326345936992_1924189671_n.jpg,woman,0.997774482
,fashion,0.987699866
,sexy,0.985618651
,pretty,0.983055651
,glamour,0.982903838
,skin,0.979308605
,elegant,0.96257925
,cute,0.951982081
,eye,0.942365646
,lips,0.896851301
,portrait,0.891142845
,young,0.884658098
,seduction,0.879047275
,luxury,0.877317667
,look,0.875012875
,girl,0.869361639
,nude,0.868196487
,perfection,0.863893747
,hair,0.860119164
,model,0.857543826
"https://scontent.cdninstagram.com/t51.2885-15/e35/13267468_683025891838781_1289435399_n.jpg= Error Image, Not Accessible.",,
https://scontent.cdninstagram.com/t51.2885-15/e35/13423488_157224108027920_2119406796_n.jpg,woman,0.994882226
,pretty,0.977903068
,portrait,0.960436702
,fashion,0.957446694
,girl,0.956381917
,young,0.92670846
,cute,0.925493836
,smile,0.908263087
,isolated,0.89039278
,model,0.887422502
,sexy,0.882997632
,eye,0.879567564
,people,0.870878816
,joy,0.860288918
,adolescent,0.854714036
,casual,0.850315571
,lady,0.850267351
,hair,0.848964334
,beautiful,0.847208977
,glamour,0.845022082
https://scontent.cdninstagram.com/t51.2885-15/e35/13398579_909592439162715_1842980341_n.jpg,woman,0.99555546
,fashion,0.98634243
,pretty,0.980782032
,glamour,0.972250462
,sexy,0.968399048
,cute,0.95789963
,skin,0.954749227
,elegant,0.94893384
,eye,0.915843606
,young,0.914763451
,girl,0.913976967
,portrait,0.910301745
,isolated,0.903744698
,model,0.892074406
,look,0.873643994
,hair,0.869380951
,lips,0.8664428
,clean,0.836709142
,health,0.828943849
,studio,0.821021497
https://scontent.cdninstagram.com/t51.2885-15/sh0.08/e35/p750x750/13269541_1336684549681612_1398450761_n.jpg,woman,0.995012283
,girl,0.984999359
,fashion,0.984813988
,portrait,0.984799743
,model,0.964622617
,adult,0.948641419
,pretty,0.942460418
,beautiful,0.934693158
,glamour,0.934270918
,sexy,0.931589246
,young,0.928199351
,one,0.928012252
,people,0.901460469
,studio,0.872792482
,wear,0.872138143
,skirt,0.865923762
,bag,0.859869361
,adolescent,0.833732367
,cute,0.828035474
,dress,0.826180696
https://scontent.cdninstagram.com/t51.2885-15/e35/13423685_1757298394525370_1613071091_n.jpg,woman,0.995309949
,pretty,0.993722439
,fashion,0.988539815
,cute,0.983094335
,joy,0.9812693
,adolescent,0.97983706
,elegant,0.969474256
,young,0.963508368
,lid,0.958134115
,fun,0.950967312
,isolated,0.94352746
,portrait,0.931504846
,child,0.924346447
,contemporary,0.923185825
,casual,0.919324517
,glamour,0.918701231
,indoors,0.911458373
,looking,0.910553455
,retro,0.908707023
,sexy,0.902703881
https://scontent.cdninstagram.com/t51.2885-15/s640x640/e15/13267455_1048561281876436_1124938816_n.jpg,festival,0.98047471
,music,0.975318491
,light,0.974229157
,performance,0.960199356
,concert,0.950323462
,stage,0.948611736
,energy,0.893358111
,audience,0.87554884
,celebration,0.868778586
,no person,0.868465781
,singer,0.868306518
,flame,0.866009593
,calamity,0.864412367
,spotlight,0.861904979
,musician,0.839041293
,technology,0.820409298
,offense,0.811990142
,explosion,0.808063149
,dark,0.805537999
,abstract,0.797717392
https://scontent.cdninstagram.com/t51.2885-15/e35/13391241_244657815906692_757316912_n.jpg,woman,0.98759985
,young,0.972113252
,fashion,0.947544456
,pretty,0.941012025
,casual,0.940947711
,girl,0.914323449
,people,0.912708819
,fun,0.906699061
,one,0.90205121
,beautiful,0.901680708
,attractive,0.900719941
,family,0.898114979
,lifestyle,0.892706811
,summer,0.891685069
,shopping,0.887550592
,joy,0.886998177
,person,0.871634841
,adult,0.859755874
,leisure,0.846627712
,looking,0.839506269
https://scontent.cdninstagram.com/t51.2885-15/e35/13285383_1793193224242882_743991828_n.jpg,water,0.995106459
,beach,0.985488057
,people,0.985430241
,sea,0.985263407
,travel,0.972179174
,woman,0.970231533
,pier,0.969799161
,ocean,0.969390869
,landscape,0.968947768
,adult,0.967762828
,boat,0.965654492
,seashore,0.962180018
,lake,0.954820275
,one,0.952132225
,sunset,0.949413776
,girl,0.947791934
,portrait,0.945739329
,jetty,0.940562069
,bridge,0.938434124
,river,0.9370538
https://scontent.cdninstagram.com/t51.2885-15/e35/13381135_965480656904397_646514707_n.jpg,water,0.993560553
,woman,0.98518765
,summer,0.980441928
,outdoors,0.974893153
,leisure,0.97242713
,relaxation,0.967514217
,nature,0.965728998
,travel,0.965041101
,sea,0.958543181
,sky,0.936938405
,fair weather,0.93485558
,enjoyment,0.911651373
,young,0.911619663
,river,0.90785861
,pier,0.90424788
,beach,0.900782764
,recreation,0.900497615
,fun,0.899667144
,sun,0.895889103
,boat,0.893043756
https://scontent.cdninstagram.com/t51.2885-15/e35/13259464_1743343475907994_899290056_n.jpg,woman,0.993959785
,family,0.987848341
,people,0.984267175
,girl,0.982462645
,portrait,0.976938844
,two,0.975853264
,indoors,0.970162332
,love,0.962286472
,adult,0.961749196
,facial expression,0.9357149
,room,0.914300859
,brunette,0.913182676
,togetherness,0.90343523
,happiness,0.898565412
,fun,0.888284683
,friendship,0.888065994
,maternity,0.883934677
,enjoyment,0.880801201
,man,0.873856127
,wear,0.851927876
"https://scontent.cdninstagram.com/t51.2885-15/e35/13261067_1729408937300186_1682978123_n.jpg= Error Image, Not Accessible.",,
https://scontent.cdninstagram.com/t51.2885-15/e35/13525386_533019140223237_730201307_n.jpg,woman,0.995006323
,outdoors,0.982030153
,pretty,0.965248108
,fashion,0.962226748
,relaxation,0.952864051
,adolescent,0.950268507
,contemporary,0.939184129
,nature,0.934417605
,enjoyment,0.914616883
,cute,0.908823967
,leisure,0.90743053
,looking,0.904074252
,summer,0.899294853
,sexy,0.896580696
,people,0.895808876
,scholar,0.894440174
,vertical,0.891459525
,joy,0.888858557
,portrait,0.888778031
,intelligence,0.876541078
https://scontent.cdninstagram.com/t51.2885-15/e35/13257180_236372296742774_1558922907_n.jpg,performance,0.999723077
,music,0.999072611
,concert,0.998704135
,musician,0.994187951
,singer,0.993057728
,festival,0.992277861
,stage,0.98725301
,band,0.985494375
,guitarist,0.950361609
,club,0.943993092
,indie,0.93885386
,guitar,0.916531444
,celebration,0.897087097
,stringed instrument,0.890517294
,energy,0.88786298
,drummer,0.873742282
,audience,0.866277039
,pop,0.859600484
,songwriter,0.843940616
,people,0.819001079
https://scontent.cdninstagram.com/t51.2885-15/e35/13534284_294446484276539_467681770_n.jpg,togetherness,0.982873082
,woman,0.981512904
,love,0.976758182
,fun,0.974637866
,joy,0.974296451
,people,0.964655161
,friendship,0.959729552
,child,0.958793879
,young,0.956317365
,embrace,0.955897927
,family,0.954624176
,adolescent,0.952661276
,two,0.942434192
,pretty,0.93968308
,cute,0.928901196
,laughing,0.914042711
,happiness,0.903069615
,girl,0.89894855
,isolated,0.898354173
,romance,0.889036417
https://scontent.cdninstagram.com/t51.2885-15/e35/13257002_622263084591021_675580021_n.jpg,woman,0.99478817
,fashion,0.976386786
,indoors,0.975854456
,people,0.963096499
,girl,0.962435246
,sexy,0.941560268
,love,0.937492967
,glamour,0.936978221
,portrait,0.920013309
,music,0.916244745
,mirror,0.914094865
,dark,0.898207605
,model,0.889490604
,pretty,0.889246106
,light,0.854348361
,evening,0.849866807
,nude,0.83996141
,family,0.824407697
,fun,0.80741632
,erotic,0.78858006
https://scontent.cdninstagram.com/t51.2885-15/sh0.08/e35/p750x750/13298079_1095330043858250_360223119_n.jpg,people,0.997318625
,portrait,0.99712646
,monochrome,0.993198395
,one,0.98970145
,adult,0.988492727
,woman,0.984937429
,girl,0.970007896
,facial expression,0.957605183
,wear,0.945584536
,music,0.935791016
,model,0.935063243
,fashion,0.906003594
,face,0.874630272
,child,0.828045249
,black and white,0.822476387
,jewelry,0.810911
,actress,0.801661849
,beautiful,0.754333735
,actor,0.750824571
,dress,0.750450432
https://scontent.cdninstagram.com/t51.2885-15/e35/13423560_1746356988953877_1007994247_n.jpg,people,0.994300485
,woman,0.986359417
,adult,0.981488109
,portrait,0.968926072
,one,0.968268454
,telephone,0.949178874
,girl,0.948296666
,room,0.943247914
,music,0.93017292
,coffee,0.918581963
,chair,0.917847574
,education,0.898258924
,two,0.879578114
,family,0.872081399
,home,0.86910677
,furniture,0.867676973
,indoors,0.855967939
,sit,0.855475307
,brunette,0.849434614
,musician,0.848099589
https://scontent.cdninstagram.com/t51.2885-15/e35/13256857_559476527558015_1768013589_n.jpg,people,0.993302345
,woman,0.990554214
,portrait,0.990070939
,girl,0.985930562
,one,0.982201457
,adult,0.981279969
,indoors,0.957915783
,music,0.945662856
,model,0.942986012
,fashion,0.937552214
,family,0.930218935
,room,0.913262606
,light,0.905106902
,coffee,0.892531753
,wear,0.884714007
,brunette,0.884500027
,maternity,0.877730012
,telephone,0.856005788
,movie,0.835253
,singer,0.809306204
https://scontent.cdninstagram.com/t51.2885-15/e35/13249872_845752335556548_1429732285_n.jpg,performance,0.999786317
,music,0.998063087
,concert,0.997643113
,singer,0.997117758
,musician,0.996981204
,festival,0.992285132
,stage,0.988479853
,rap,0.979420781
,band,0.964780688
,film festival,0.958429933
,people,0.955250502
,theater,0.938386738
,recreation,0.915533066
,songwriter,0.902142406
,pop,0.886602044
,adult,0.852586329
,light,0.831313968
,energy,0.827086389
,theater,0.825935483
,concert hall,0.821336508
https://scontent.cdninstagram.com/t51.2885-15/e35/13258949_268402763512264_332011800_n.jpg,performance,0.998999655
,concert,0.998533547
,music,0.998397112
,stage,0.988606215
,singer,0.984153628
,musician,0.9836362
,band,0.974809825
,festival,0.948933423
,club,0.933399558
,audience,0.928607464
,club,0.897901058
,celebration,0.895954847
,light,0.889864504
,guitarist,0.882383704
,rap,0.872678399
,indie,0.866332054
,disco,0.85121882
,song,0.846609235
,pop,0.829023242
,songwriter,0.826883793
https://scontent.cdninstagram.com/t51.2885-15/e35/13395098_1117780474952477_2005869118_n.jpg,indoors,0.976373196
,people,0.967618942
,business,0.946035862
,vehicle,0.930431843
,adult,0.916422069
,woman,0.912350059
,one,0.884645224
,travel,0.881673694
,control,0.8795892
,safety,0.878771305
,car,0.878448606
,portrait,0.863829255
,man,0.86296308
,security,0.852814794
,danger,0.847691894
,transportation system,0.838513732
,offense,0.820150733
,young,0.818504453
,vertical,0.803167045
,looking,0.799945951
https://scontent.cdninstagram.com/t51.2885-15/e35/13181342_1097440943649284_675966681_n.jpg,performance,0.998485744
,music,0.99339664
,concert,0.992897868
,musician,0.991543889
,singer,0.98308742
,band,0.96922648
,festival,0.96691823
,rap,0.958835125
,stage,0.958691299
,people,0.90809238
,recreation,0.876500487
,songwriter,0.862692714
,film festival,0.838874817
,guitarist,0.834392846
,energy,0.805323243
,light,0.800506651
,adult,0.781970739
,club,0.778567433
,indie,0.748020172
,wear,0.740207255
https://scontent.cdninstagram.com/t51.2885-15/e35/13285531_227461360973573_309276657_n.jpg,woman,0.99352026
,fashion,0.989658833
,girl,0.984002352
,portrait,0.982824206
,model,0.971569359
,glamour,0.969062746
,sexy,0.968419433
,music,0.959711194
,people,0.957898617
,car,0.954426885
,beautiful,0.941497087
,light,0.934615135
,one,0.927114487
,pretty,0.926125646
,festival,0.912746906
,lady,0.908077002
,indoors,0.900089145
,musician,0.899000764
,adult,0.894671679
,hair,0.893657029
https://scontent.cdninstagram.com/t51.2885-15/e35/13414187_521151961407396_752195537_n.jpg,egg,0.998348534
,egg yolk,0.994821727
,food,0.9945333
,meal,0.986135244
,plate,0.981130838
,breakfast,0.97766912
,lunch,0.976522446
,no person,0.974622488
,delicious,0.973707557
,dish,0.961953402
,dinner,0.959721804
,meat,0.952586889
,dining,0.948897064
,cuisine,0.947058856
,vegetable,0.946027756
,healthy,0.942727923
,nutrition,0.938337862
,cooking,0.935872495
,fried egg,0.933530211
,hot,0.916514397
https://scontent.cdninstagram.com/t51.2885-15/e35/13398484_1709062102682048_1031302031_n.jpg,woman,0.993921041
,girl,0.978080034
,people,0.976029515
,portrait,0.970692098
,one,0.966175914
,fashion,0.956629336
,indoors,0.954181194
,model,0.941413045
,adult,0.940410495
,wear,0.917990685
,brunette,0.906881332
,sexy,0.899694204
,music,0.889697373
,recreation,0.856597066
,facial expression,0.829098165
,pretty,0.792388618
,room,0.777611732
,glamour,0.772030354
,telephone,0.759925425
,leisure,0.755784631
https://scontent.cdninstagram.com/t51.2885-15/e35/13257046_244515549241161_894558132_n.jpg,performance,0.999251485
,music,0.995285392
,concert,0.994609118
,musician,0.98979938
,singer,0.988593519
,band,0.985133946
,festival,0.970469117
,stage,0.955475926
,rap,0.952792704
,film festival,0.890276194
,indie,0.88967526
,club,0.875894368
,songwriter,0.871721387
,people,0.866800547
,light,0.861896992
,guitarist,0.85588634
,pop,0.85163641
,energy,0.738754272
,evening,0.72879529
,guitar,0.697062492
=======
URL,CLASS,SCORE,primary_passion_point_1,primary_passion_point_2,primary_passion_point_3,primary_passion_point_4,secondary_passion_point_1,secondary_passion_point_2,secondary_passion_point_3,secondary_passion_point_4
https://scontent.cdninstagram.com/t51.2885-15/e35/13402486_529185183957238_637368640_n.jpg,woman,0.988610864,a,cha,"Recreation ",Recreation,Adventure,,,,,
,fashion,0.973891437,,,,,,,,,,
,people,0.960880637,,,,,,,,,,
,dress,0.958438754,,,,,,,,,,
,girl,0.931810975,,,,,,,,,,
,door,0.923416018,,,,,,,,,,
,indoors,0.915403962,,,,,,,,,,
,one,0.881260991,,,,,,,,,,
,adult,0.876554728,,,,,,,,,,
,wear,0.876533866,,,,,,,,,,
,model,0.875925004,,,,,,,,,,
,family,0.873307407,,,,,,,,,,
,glamour,0.850409269,,,,,,,,,,
,pretty,0.833965778,,,,,,,,,,
,child,0.810109258,,,,,,,,,,
,wedding,0.806098938,,,,,,,,,,
,young,0.792636871,,,,,,,,,,
,shopping,0.786747813,,,,,,,,,,
,sexy,0.785452962,,,,,,,,,,
,portrait,0.784834743,,,,,,,,,,
https://scontent.cdninstagram.com/t51.2885-15/e35/13414412_263619763996642_1689514175_n.jpg,woman,0.995268106,Fa,Recreation,,,Adventure,,,,,
,girl,0.992593884,,,,,,,,,,
,fashion,0.99122262,,,,,,,,,,
,pretty,0.977013826,,,,,,,,,,
,beautiful,0.972526312,,,,,,,,,,
,portrait,0.970868945,,,,,,,,,,
,people,0.968546271,,,,,,,,,,
,model,0.968363762,,,,,,,,,,
,young,0.963273406,,,,,,,,,,
,sexy,0.957475185,,,,,,,,,,
,indoors,0.951717496,,,,,,,,,,
,glamour,0.946344376,,,,,,,,,,
,hair,0.925709486,,,,,,,,,,
,cute,0.913828373,,,,,,,,,,
,family,0.903008699,,,,,,,,,,
,brunette,0.901171327,,,,,,,,,,
,elegant,0.889539838,,,,,,,,,,
,dress,0.887393594,,,,,,,,,,
,eye,0.883852124,,,,,,,,,,
,one,0.88220185,,,,,,,,,,
"https://scontent.cdninstagram.com/t51.2885-15/e35/13413459_246289662409128_211330202_n.jpg= Error Image, Not Accessible.",,,,,,,,,,,,
https://scontent.cdninstagram.com/t51.2885-15/e35/13402599_252347555133347_413940188_n.jpg,woman,0.996319592,Recreation,,,,Adventure,,,,,
,pretty,0.987298191,,,,,,,,,,
,fashion,0.986053467,,,,,,,,,,
,sexy,0.971544385,,,,,,,,,,
,young,0.968697608,,,,,,,,,,
,girl,0.955678821,,,,,,,,,,
,cute,0.954432011,,,,,,,,,,
,beautiful,0.950604081,,,,,,,,,,
,glamour,0.948400497,,,,,,,,,,
,model,0.929720879,,,,,,,,,,
,elegant,0.910930514,,,,,,,,,,
,long,0.906681716,,,,,,,,,,
,casual,0.89800036,,,,,,,,,,
,attractive,0.888702631,,,,,,,,,,
,looking,0.882678986,,,,,,,,,,
,joy,0.877764583,,,,,,,,,,
,adolescent,0.871346593,,,,,,,,,,
,hair,0.869219422,,,,,,,,,,
,shopping,0.866107106,,,,,,,,,,
,adult,0.859835982,,,,,,,,,,
https://scontent.cdninstagram.com/t51.2885-15/e35/13408789_1721166344798976_1962456573_n.jpg,illustration,0.974523842,Recreation,,,,Adventure,,,,,
,vector,0.968745351,,,,,,,,,,
,desktop,0.964018464,,,,,,,,,,
,"no person",0.947867751,,,,,,,,,,
,pattern,0.942992806,,,,,,,,,,
,design,0.940391004,,,,,,,,,,
,isolated,0.938800752,,,,,,,,,,
,art,0.920051694,,,,,,,,,,
,horizontal,0.918727696,,,,,,,,,,
,paper,0.906829536,,,,,,,,,,
,abstract,0.893939495,,,,,,,,,,
,sign,0.881620407,,,,,,,,,,
,symbol,0.880660415,,,,,,,,,,
,decoration,0.88013351,,,,,,,,,,
,education,0.879486322,,,,,,,,,,
,graphic,0.875091076,,,,,,,,,,
,text,0.869613767,,,,,,,,,,
,image,0.863197207,,,,,,,,,,
,"picture frame",0.86280477,,,,,,,,,,
,business,0.851252019,,,,,,,,,,
https://scontent.cdninstagram.com/t51.2885-15/e35/13329187_1745189122428265_124301201_n.jpg,woman,0.995598435,Recreation,,,,Adventure,,,,,
,fashion,0.99288404,,,,,,,,,,
,glamour,0.982841551,,,,,,,,,,
,sexy,0.975190639,,,,,,,,,,
,pretty,0.974272251,,,,,,,,,,
,eye,0.969370186,,,,,,,,,,
,skin,0.955271482,,,,,,,,,,
,cute,0.938531637,,,,,,,,,,
,lips,0.933501363,,,,,,,,,,
,portrait,0.924025178,,,,,,,,,,
,girl,0.920497537,,,,,,,,,,
,elegant,0.913738132,,,,,,,,,,
,nude,0.909541667,,,,,,,,,,
,long,0.901941299,,,,,,,,,,
,model,0.89417088,,,,,,,,,,
,look,0.886069596,,,,,,,,,,
,hair,0.88138175,,,,,,,,,,
,relaxation,0.863148212,,,,,,,,,,
,luxury,0.847416997,,,,,,,,,,
,young,0.842897594,,,,,,,,,,
https://scontent.cdninstagram.com/t51.2885-15/s480x480/e35/13408842_591354594359999_947018499_n.jpg,storm,0.999105811,,,,,,,,,,
,thunderstorm,0.993983626,,,,,,,,,,
,weather,0.992836118,,,,,,,,,,
,dramatic,0.990433931,,,,,,,,,,
,sky,0.98842907,,,,,,,,,,
,outdoors,0.986775696,,,,,,,,,,
,dark,0.985888541,,,,,,,,,,
,nature,0.985161066,,,,,,,,,,
,rain,0.980576336,,,,,,,,,,
,cloud,0.977258801,,,,,,,,,,
,cloudiness,0.973484993,,,,,,,,,,
,meteorology,0.972372711,,,,,,,,,,
,dusk,0.970677912,,,,,,,,,,
,cyclone,0.967983782,,,,,,,,,,
,hurricane,0.96723187,,,,,,,,,,
,lightning,0.963413298,,,,,,,,,,
,cloudscape,0.949648976,,,,,,,,,,
,"no person",0.941972017,,,,,,,,,,
,"fair weather",0.938861489,,,,,,,,,,
,tornado,0.937476456,,,,,,,,,,
https://scontent.cdninstagram.com/t51.2885-15/e35/13414223_1609985025908805_1015311180_n.jpg,girl,0.996879697,,,,,,,,,,
,woman,0.995376468,,,,,,,,,,
,fashion,0.98431623,,,,,,,,,,
,model,0.980937004,,,,,,,,,,
,portrait,0.975132346,,,,,,,,,,
,street,0.97422576,,,,,,,,,,
,young,0.972881675,,,,,,,,,,
,skate,0.966644526,,,,,,,,,,
,people,0.961530149,,,,,,,,,,
,sport,0.957720995,,,,,,,,,,
,lifestyle,0.949175656,,,,,,,,,,
,fun,0.945759773,,,,,,,,,,
,smile,0.943965077,,,,,,,,,,
,summer,0.940084219,,,,,,,,,,
,exercise,0.939899027,,,,,,,,,,
,adult,0.935448825,,,,,,,,,,
,recreation,0.934973419,,,,,,,,,,
,sexy,0.934961557,,,,,,,,,,
,urban,0.93422842,,,,,,,,,,
,beautiful,0.930770457,,,,,,,,,,
https://scontent.cdninstagram.com/t51.2885-15/e35/13414223_1609985025908805_1015311180_n.jpg,girl,0.996879697,,,,,,,,,,
,woman,0.995376468,,,,,,,,,,
,fashion,0.98431623,,,,,,,,,,
,model,0.980937004,,,,,,,,,,
,portrait,0.975132346,,,,,,,,,,
,street,0.97422576,,,,,,,,,,
,young,0.972881675,,,,,,,,,,
,skate,0.966644526,,,,,,,,,,
,people,0.961530149,,,,,,,,,,
,sport,0.957720995,,,,,,,,,,
,lifestyle,0.949175656,,,,,,,,,,
,fun,0.945759773,,,,,,,,,,
,smile,0.943965077,,,,,,,,,,
,summer,0.940084219,,,,,,,,,,
,exercise,0.939899027,,,,,,,,,,
,adult,0.935448825,,,,,,,,,,
,recreation,0.934973419,,,,,,,,,,
,sexy,0.934961557,,,,,,,,,,
,urban,0.93422842,,,,,,,,,,
,beautiful,0.930770457,,,,,,,,,,
https://scontent.cdninstagram.com/t51.2885-15/e35/13355396_668210353332075_675365263_n.jpg,chocolate,0.955646813,,,,,,,,,,
,paper,0.944052219,,,,,,,,,,
,desktop,0.936542153,,,,,,,,,,
,celebration,0.907062173,,,,,,,,,,
,decoration,0.894967079,,,,,,,,,,
,Christmas,0.881152511,,,,,,,,,,
,sweet,0.877909958,,,,,,,,,,
,card,0.873159051,,,,,,,,,,
,woman,0.861554921,,,,,,,,,,
,business,0.858868122,,,,,,,,,,
,cake,0.854828477,,,,,,,,,,
,party,0.839895844,,,,,,,,,,
,people,0.825698853,,,,,,,,,,
,hand,0.823327184,,,,,,,,,,
,cream,0.816331685,,,,,,,,,,
,design,0.815069914,,,,,,,,,,
,candy,0.792996109,,,,,,,,,,
,girl,0.792345881,,,,,,,,,,
,person,0.769105911,,,,,,,,,,
,birthday,0.767270923,,,,,,,,,,
https://scontent.cdninstagram.com/t51.2885-15/s640x640/e15/13285303_133792013695191_1751235184_n.jpg,music,0.998712063,,,,,,,,,,
,performance,0.997777104,,,,,,,,,,
,festival,0.997410476,,,,,,,,,,
,concert,0.997031212,,,,,,,,,,
,musician,0.984002054,,,,,,,,,,
,rave,0.982509494,,,,,,,,,,
,stage,0.981351137,,,,,,,,,,
,club,0.981009185,,,,,,,,,,
,singer,0.977090418,,,,,,,,,,
,dancing,0.968001962,,,,,,,,,,
,band,0.965136766,,,,,,,,,,
,rap,0.960715055,,,,,,,,,,
,party,0.956003189,,,,,,,,,,
,club,0.921378613,,,,,,,,,,
,energy,0.912671328,,,,,,,,,,
,motion,0.898907721,,,,,,,,,,
,celebration,0.892505169,,,,,,,,,,
,audience,0.885346651,,,,,,,,,,
,disco,0.867362499,,,,,,,,,,
,crowd,0.856548071,,,,,,,,,,
https://scontent.cdninstagram.com/t51.2885-15/s640x640/e15/13551810_270682036623402_2084673385_n.jpg,festival,0.973544478,,,,,,,,,,
,performance,0.97182256,,,,,,,,,,
,people,0.96211791,,,,,,,,,,
,light,0.951024413,,,,,,,,,,
,music,0.926164389,,,,,,,,,,
,concert,0.925981045,,,,,,,,,,
,landscape,0.897469521,,,,,,,,,,
,vehicle,0.896828055,,,,,,,,,,
,musician,0.887968421,,,,,,,,,,
,competition,0.85171628,,,,,,,,,,
,adult,0.84719193,,,,,,,,,,
,venue,0.834107637,,,,,,,,,,
,group,0.832697213,,,,,,,,,,
,recreation,0.817891777,,,,,,,,,,
,energy,0.816286802,,,,,,,,,,
,flame,0.806121707,,,,,,,,,,
,celebration,0.804725528,,,,,,,,,,
,singer,0.783067226,,,,,,,,,,
,stage,0.775479138,,,,,,,,,,
,motion,0.773396134,,,,,,,,,,
https://scontent.cdninstagram.com/t51.2885-15/e35/13413205_651137771700134_787886915_n.jpg,woman,0.993971527,,,,,,,,,,
,people,0.990048289,,,,,,,,,,
,portrait,0.983523011,,,,,,,,,,
,one,0.981690228,,,,,,,,,,
,girl,0.973732829,,,,,,,,,,
,adult,0.97101599,,,,,,,,,,
,model,0.944441319,,,,,,,,,,
,wear,0.939454377,,,,,,,,,,
,fashion,0.938004196,,,,,,,,,,
,music,0.929567575,,,,,,,,,,
,room,0.905203462,,,,,,,,,,
,indoors,0.897823334,,,,,,,,,,
,"facial expression",0.895320177,,,,,,,,,,
,skirt,0.893858135,,,,,,,,,,
,footwear,0.893073142,,,,,,,,,,
,dress,0.883275092,,,,,,,,,,
,recreation,0.881852746,,,,,,,,,,
,furniture,0.853845537,,,,,,,,,,
,seat,0.841869354,,,,,,,,,,
,two,0.839050651,,,,,,,,,,
"https://scontent.cdninstagram.com/t51.2885-15/e35/13413459_246289662409128_211330202_n.jpg= Error Image, Not Accessible.",,,,,,,,,,,,
https://scontent.cdninstagram.com/t51.2885-15/e35/13422908_964651613632107_850002801_n.jpg,woman,0.996350706,,,,,,,,,,
,fashion,0.993751764,,,,,,,,,,
,portrait,0.976153612,,,,,,,,,,
,girl,0.96886611,,,,,,,,,,
,glamour,0.967784166,,,,,,,,,,
,sexy,0.965752065,,,,,,,,,,
,model,0.963072717,,,,,,,,,,
,pretty,0.959294379,,,,,,,,,,
,eye,0.945279002,,,,,,,,,,
,people,0.939931989,,,,,,,,,,
,lips,0.919248939,,,,,,,,,,
,elegant,0.905515015,,,,,,,,,,
,cute,0.904469371,,,,,,,,,,
,dress,0.890700996,,,,,,,,,,
,jewelry,0.88777703,,,,,,,,,,
,brunette,0.887084842,,,,,,,,,,
,indoors,0.879110038,,,,,,,,,,
,hair,0.865813732,,,,,,,,,,
,long,0.828111827,,,,,,,,,,
,skin,0.826946855,,,,,,,,,,
https://scontent.cdninstagram.com/t51.2885-15/e35/13381430_1598946450416025_2096270435_n.jpg,woman,0.988756359,,,,,,,,,,
,young,0.978623271,,,,,,,,,,
,fashion,0.966670871,,,,,,,,,,
,girl,0.964895248,,,,,,,,,,
,summer,0.963285089,,,,,,,,,,
,health,0.960231602,,,,,,,,,,
,fun,0.944479704,,,,,,,,,,
,nature,0.940926611,,,,,,,,,,
,pretty,0.938734889,,,,,,,,,,
,leisure,0.936913133,,,,,,,,,,
,fitness,0.933439255,,,,,,,,,,
,exercise,0.93012619,,,,,,,,,,
,active,0.919230461,,,,,,,,,,
,sit,0.916421056,,,,,,,,,,
,relaxation,0.914365053,,,,,,,,,,
,adolescent,0.910079241,,,,,,,,,,
,sexy,0.909806192,,,,,,,,,,
,outdoors,0.907990694,,,,,,,,,,
,sport,0.90648663,,,,,,,,,,
,recreation,0.900150895,,,,,,,,,,
https://scontent.cdninstagram.com/t51.2885-15/e35/13402599_252347555133347_413940188_n.jpg,woman,0.996319592,Recreation,,,,Adventure,,,,,
,pretty,0.987298191,,,,,,,,,,
,fashion,0.986053467,,,,,,,,,,
,sexy,0.971544385,,,,,,,,,,
,young,0.968697608,,,,,,,,,,
,girl,0.955678821,,,,,,,,,,
,cute,0.954432011,,,,,,,,,,
,beautiful,0.950604081,,,,,,,,,,
,glamour,0.948400497,,,,,,,,,,
,model,0.929720879,,,,,,,,,,
,elegant,0.910930514,,,,,,,,,,
,long,0.906681716,,,,,,,,,,
,casual,0.89800036,,,,,,,,,,
,attractive,0.888702631,,,,,,,,,,
,looking,0.882678986,,,,,,,,,,
,joy,0.877764583,,,,,,,,,,
,adolescent,0.871346593,,,,,,,,,,
,hair,0.869219422,,,,,,,,,,
,shopping,0.866107106,,,,,,,,,,
,adult,0.859835982,,,,,,,,,,
https://scontent.cdninstagram.com/t51.2885-15/s640x640/e15/13285303_133792013695191_1751235184_n.jpg,music,0.998712063,,,,,,,,,,
,performance,0.997777104,,,,,,,,,,
,festival,0.997410476,,,,,,,,,,
,concert,0.997031212,,,,,,,,,,
,musician,0.984002054,,,,,,,,,,
,rave,0.982509494,,,,,,,,,,
,stage,0.981351137,,,,,,,,,,
,club,0.981009185,,,,,,,,,,
,singer,0.977090418,,,,,,,,,,
,dancing,0.968001962,,,,,,,,,,
,band,0.965136766,,,,,,,,,,
,rap,0.960715055,,,,,,,,,,
,party,0.956003189,,,,,,,,,,
,club,0.921378613,,,,,,,,,,
,energy,0.912671328,,,,,,,,,,
,motion,0.898907721,,,,,,,,,,
,celebration,0.892505169,,,,,,,,,,
,audience,0.885346651,,,,,,,,,,
,disco,0.867362499,,,,,,,,,,
,crowd,0.856548071,,,,,,,,,,
https://scontent.cdninstagram.com/t51.2885-15/e35/13355396_668210353332075_675365263_n.jpg,chocolate,0.955646813,,,,,,,,,,
,paper,0.944052219,,,,,,,,,,
,desktop,0.936542153,,,,,,,,,,
,celebration,0.907062173,,,,,,,,,,
,decoration,0.894967079,,,,,,,,,,
,Christmas,0.881152511,,,,,,,,,,
,sweet,0.877909958,,,,,,,,,,
,card,0.873159051,,,,,,,,,,
,woman,0.861554921,,,,,,,,,,
,business,0.858868122,,,,,,,,,,
,cake,0.854828477,,,,,,,,,,
,party,0.839895844,,,,,,,,,,
,people,0.825698853,,,,,,,,,,
,hand,0.823327184,,,,,,,,,,
,cream,0.816331685,,,,,,,,,,
,design,0.815069914,,,,,,,,,,
,candy,0.792996109,,,,,,,,,,
,girl,0.792345881,,,,,,,,,,
,person,0.769105911,,,,,,,,,,
,birthday,0.767270923,,,,,,,,,,
https://scontent.cdninstagram.com/t51.2885-15/e35/13413205_651137771700134_787886915_n.jpg,woman,0.993971527,,,,,,,,,,
,people,0.990048289,,,,,,,,,,
,portrait,0.983523011,,,,,,,,,,
,one,0.981690228,,,,,,,,,,
,girl,0.973732829,,,,,,,,,,
,adult,0.97101599,,,,,,,,,,
,model,0.944441319,,,,,,,,,,
,wear,0.939454377,,,,,,,,,,
,fashion,0.938004196,,,,,,,,,,
,music,0.929567575,,,,,,,,,,
,room,0.905203462,,,,,,,,,,
,indoors,0.897823334,,,,,,,,,,
,"facial expression",0.895320177,,,,,,,,,,
,skirt,0.893858135,,,,,,,,,,
,footwear,0.893073142,,,,,,,,,,
,dress,0.883275092,,,,,,,,,,
,recreation,0.881852746,,,,,,,,,,
,furniture,0.853845537,,,,,,,,,,
,seat,0.841869354,,,,,,,,,,
,two,0.839050651,,,,,,,,,,
https://scontent.cdninstagram.com/t51.2885-15/e35/13385724_655717501248337_1663363254_n.jpg,woman,0.994424403,,,,,,,,,,
,pretty,0.99075532,,,,,,,,,,
,fashion,0.984045446,,,,,,,,,,
,cute,0.979242682,,,,,,,,,,
,young,0.974149108,,,,,,,,,,
,girl,0.972150266,,,,,,,,,,
,adolescent,0.96313715,,,,,,,,,,
,casual,0.958589792,,,,,,,,,,
,beautiful,0.955922246,,,,,,,,,,
,sexy,0.954859376,,,,,,,,,,
,brunette,0.934742749,,,,,,,,,,
,bag,0.933034062,,,,,,,,,,
,looking,0.927206635,,,,,,,,,,
,glamour,0.923601627,,,,,,,,,,
,attractive,0.9171561,,,,,,,,,,
,model,0.91461432,,,,,,,,,,
,college,0.908009291,,,,,,,,,,
,portrait,0.899843812,,,,,,,,,,
,multicultural,0.89403069,,,,,,,,,,
,one,0.889132619,,,,,,,,,,
https://scontent.cdninstagram.com/t51.2885-15/e35/13414362_1250187724991682_125128283_n.jpg,"no person",0.968967974,,,,,,,,,,
,vector,0.963752031,,,,,,,,,,
,illustration,0.95875895,,,,,,,,,,
,desktop,0.941540956,,,,,,,,,,
,abstract,0.908923686,,,,,,,,,,
,conceptual,0.895723462,,,,,,,,,,
,design,0.889449239,,,,,,,,,,
,text,0.886511326,,,,,,,,,,
,creativity,0.881518304,,,,,,,,,,
,business,0.880252123,,,,,,,,,,
,modern,0.848261952,,,,,,,,,,
,symbol,0.848050535,,,,,,,,,,
,typographic,0.847885251,,,,,,,,,,
,graphic,0.84220016,,,,,,,,,,
,contemporary,0.835583627,,,,,,,,,,
,art,0.832602501,,,,,,,,,,
,dark,0.825592279,,,,,,,,,,
,technology,0.818953395,,,,,,,,,,
,people,0.81639564,,,,,,,,,,
,nature,0.802855372,,,,,,,,,,
https://scontent.cdninstagram.com/t51.2885-15/s480x480/e35/13408842_591354594359999_947018499_n.jpg,storm,0.999105811,,,,,,,,,,
,thunderstorm,0.993983626,,,,,,,,,,
,weather,0.992836118,,,,,,,,,,
,dramatic,0.990433931,,,,,,,,,,
,sky,0.98842907,,,,,,,,,,
,outdoors,0.986775696,,,,,,,,,,
,dark,0.985888541,,,,,,,,,,
,nature,0.985161066,,,,,,,,,,
,rain,0.980576336,,,,,,,,,,
,cloud,0.977258801,,,,,,,,,,
,cloudiness,0.973484993,,,,,,,,,,
,meteorology,0.972372711,,,,,,,,,,
,dusk,0.970677912,,,,,,,,,,
,cyclone,0.967983782,,,,,,,,,,
,hurricane,0.96723187,,,,,,,,,,
,lightning,0.963413298,,,,,,,,,,
,cloudscape,0.949648976,,,,,,,,,,
,"no person",0.941972017,,,,,,,,,,
,"fair weather",0.938861489,,,,,,,,,,
,tornado,0.937476456,,,,,,,,,,
https://scontent.cdninstagram.com/t51.2885-15/e35/13398443_974403036010525_1822314193_n.jpg,woman,0.991160035,,,,,,,,,,
,people,0.967129648,,,,,,,,,,
,adult,0.958475471,,,,,,,,,,
,portrait,0.957970977,,,,,,,,,,
,family,0.91631186,,,,,,,,,,
,fashion,0.910176694,,,,,,,,,,
,indoors,0.906439185,,,,,,,,,,
,happiness,0.902045667,,,,,,,,,,
,wear,0.894360423,,,,,,,,,,
,model,0.887122452,,,,,,,,,,
,lifestyle,0.871805549,,,,,,,,,,
,girl,0.850286603,,,,,,,,,,
,enjoyment,0.844035745,,,,,,,,,,
,room,0.833034754,,,,,,,,,,
,one,0.812793255,,,,,,,,,,
,dress,0.805704892,,,,,,,,,,
,young,0.799576044,,,,,,,,,,
,relaxation,0.790866673,,,,,,,,,,
,recreation,0.788994014,,,,,,,,,,
,laughing,0.78417486,,,,,,,,,,
https://scontent.cdninstagram.com/t51.2885-15/e35/13556789_1802966456605077_1331521961_n.jpg,woman,0.993213058,,,,,,,,,,
,friendship,0.972551584,,,,,,,,,,
,fashion,0.962311029,,,,,,,,,,
,people,0.959320188,,,,,,,,,,
,joy,0.958328009,,,,,,,,,,
,pretty,0.957362413,,,,,,,,,,
,portrait,0.955217004,,,,,,,,,,
,young,0.943742692,,,,,,,,,,
,fun,0.940530658,,,,,,,,,,
,togetherness,0.939333081,,,,,,,,,,
,adolescent,0.928609371,,,,,,,,,,
,girl,0.924677074,,,,,,,,,,
,beautiful,0.923121393,,,,,,,,,,
,smile,0.921524644,,,,,,,,,,
,happiness,0.911043406,,,,,,,,,,
,love,0.904585481,,,,,,,,,,
,two,0.903169036,,,,,,,,,,
,laughing,0.899747729,,,,,,,,,,
,cute,0.883758664,,,,,,,,,,
,cheerful,0.873475671,,,,,,,,,,
https://scontent.cdninstagram.com/t51.2885-15/e35/13392894_1709502385980174_1708235419_n.jpg,woman,0.994233012,,,,,,,,,,
,health,0.99403739,,,,,,,,,,
,leisure,0.986203969,,,,,,,,,,
,fitness,0.982888162,,,,,,,,,,
,summer,0.978290558,,,,,,,,,,
,young,0.977530122,,,,,,,,,,
,exercise,0.97594434,,,,,,,,,,
,thin,0.973152995,,,,,,,,,,
,active,0.972883046,,,,,,,,,,
,energetic,0.963458776,,,,,,,,,,
,fashion,0.962297618,,,,,,,,,,
,recreation,0.954016626,,,,,,,,,,
,sexy,0.953932166,,,,,,,,,,
,pretty,0.953741074,,,,,,,,,,
,fun,0.940737009,,,,,,,,,,
,enjoyment,0.93139708,,,,,,,,,,
,balance,0.9269979,,,,,,,,,,
,healthy,0.916373253,,,,,,,,,,
,relaxation,0.913926899,,,,,,,,,,
,joy,0.91277945,,,,,,,,,,
https://scontent.cdninstagram.com/t51.2885-15/s640x640/e15/13269602_1096331520438046_1045279308_n.jpg,music,0.998437703,,,,,,,,,,
,performance,0.998349905,,,,,,,,,,
,concert,0.996367693,,,,,,,,,,
,festival,0.994912505,,,,,,,,,,
,musician,0.985111892,,,,,,,,,,
,stage,0.980077505,,,,,,,,,,
,singer,0.974655807,,,,,,,,,,
,band,0.974585652,,,,,,,,,,
,energy,0.965068221,,,,,,,,,,
,rap,0.941372037,,,,,,,,,,
,audience,0.932009697,,,,,,,,,,
,recreation,0.930695176,,,,,,,,,,
,people,0.913997829,,,,,,,,,,
,light,0.906038046,,,,,,,,,,
,club,0.890013635,,,,,,,,,,
,party,0.874798715,,,,,,,,,,
,pop,0.868087649,,,,,,,,,,
,rave,0.867349148,,,,,,,,,,
,"film festival",0.847447813,,,,,,,,,,
,crowd,0.843334675,,,,,,,,,,
https://scontent.cdninstagram.com/t51.2885-15/e35/13556789_1802966456605077_1331521961_n.jpg,woman,0.993213058,,,,,,,,,,
,friendship,0.972551584,,,,,,,,,,
,fashion,0.962311029,,,,,,,,,,
,people,0.959320188,,,,,,,,,,
,joy,0.958328009,,,,,,,,,,
,pretty,0.957362413,,,,,,,,,,
,portrait,0.955217004,,,,,,,,,,
,young,0.943742692,,,,,,,,,,
,fun,0.940530658,,,,,,,,,,
,togetherness,0.939333081,,,,,,,,,,
,adolescent,0.928609371,,,,,,,,,,
,girl,0.924677074,,,,,,,,,,
,beautiful,0.923121393,,,,,,,,,,
,smile,0.921524644,,,,,,,,,,
,happiness,0.911043406,,,,,,,,,,
,love,0.904585481,,,,,,,,,,
,two,0.903169036,,,,,,,,,,
,laughing,0.899747729,,,,,,,,,,
,cute,0.883758664,,,,,,,,,,
,cheerful,0.873475671,,,,,,,,,,
https://scontent.cdninstagram.com/t51.2885-15/s640x640/e15/13269602_1096331520438046_1045279308_n.jpg,music,0.998437703,,,,,,,,,,
,performance,0.998349905,,,,,,,,,,
,concert,0.996367693,,,,,,,,,,
,festival,0.994912505,,,,,,,,,,
,musician,0.985111892,,,,,,,,,,
,stage,0.980077505,,,,,,,,,,
,singer,0.974655807,,,,,,,,,,
,band,0.974585652,,,,,,,,,,
,energy,0.965068221,,,,,,,,,,
,rap,0.941372037,,,,,,,,,,
,audience,0.932009697,,,,,,,,,,
,recreation,0.930695176,,,,,,,,,,
,people,0.913997829,,,,,,,,,,
,light,0.906038046,,,,,,,,,,
,club,0.890013635,,,,,,,,,,
,party,0.874798715,,,,,,,,,,
,pop,0.868087649,,,,,,,,,,
,rave,0.867349148,,,,,,,,,,
,"film festival",0.847447813,,,,,,,,,,
,crowd,0.843334675,,,,,,,,,,
https://scontent.cdninstagram.com/t51.2885-15/e35/13397459_259298991098377_1788833522_n.jpg,woman,0.996761143,,,,,,,,,,
,fashion,0.98514992,,,,,,,,,,
,pretty,0.984091401,,,,,,,,,,
,glamour,0.969247937,,,,,,,,,,
,sexy,0.967161834,,,,,,,,,,
,skin,0.964989781,,,,,,,,,,
,cute,0.957423329,,,,,,,,,,
,elegant,0.953844965,,,,,,,,,,
,portrait,0.932081342,,,,,,,,,,
,young,0.931978345,,,,,,,,,,
,eye,0.924553871,,,,,,,,,,
,girl,0.908340573,,,,,,,,,,
,hair,0.889413893,,,,,,,,,,
,lips,0.882650256,,,,,,,,,,
,look,0.867831826,,,,,,,,,,
,isolated,0.867704153,,,,,,,,,,
,model,0.85449779,,,,,,,,,,
,clean,0.849720836,,,,,,,,,,
,charming,0.844435453,,,,,,,,,,
,luxury,0.832759202,,,,,,,,,,
https://scontent.cdninstagram.com/t51.2885-15/e35/13397459_259298991098377_1788833522_n.jpg,woman,0.996761143,,,,,,,,,,
,fashion,0.98514992,,,,,,,,,,
,pretty,0.984091401,,,,,,,,,,
,glamour,0.969247937,,,,,,,,,,
,sexy,0.967161834,,,,,,,,,,
,skin,0.964989781,,,,,,,,,,
,cute,0.957423329,,,,,,,,,,
,elegant,0.953844965,,,,,,,,,,
,portrait,0.932081342,,,,,,,,,,
,young,0.931978345,,,,,,,,,,
,eye,0.924553871,,,,,,,,,,
,girl,0.908340573,,,,,,,,,,
,hair,0.889413893,,,,,,,,,,
,lips,0.882650256,,,,,,,,,,
,look,0.867831826,,,,,,,,,,
,isolated,0.867704153,,,,,,,,,,
,model,0.85449779,,,,,,,,,,
,clean,0.849720836,,,,,,,,,,
,charming,0.844435453,,,,,,,,,,
,luxury,0.832759202,,,,,,,,,,
https://scontent.cdninstagram.com/t51.2885-15/e35/13259646_253440558350952_392583845_n.jpg,fashion,0.998402357,,,,,,,,,,
,woman,0.995283961,,,,,,,,,,
,model,0.983106375,,,,,,,,,,
,glamour,0.980555475,,,,,,,,,,
,sexy,0.971202731,,,,,,,,,,
,portrait,0.954290628,,,,,,,,,,
,pretty,0.951917052,,,,,,,,,,
,girl,0.950922489,,,,,,,,,,
,elegant,0.917702019,,,,,,,,,,
,dress,0.888588965,,,,,,,,,,
,wear,0.883321643,,,,,,,,,,
,contemporary,0.875338554,,,,,,,,,,
,long,0.870599866,,,,,,,,,,
,thin,0.861895382,,,,,,,,,,
,young,0.85120821,,,,,,,,,,
,casual,0.838320732,,,,,,,,,,
,cute,0.805066586,,,,,,,,,,
,one,0.800673723,,,,,,,,,,
,shopping,0.799890041,,,,,,,,,,
,style,0.796348929,,,,,,,,,,
https://scontent.cdninstagram.com/t51.2885-15/e35/13392894_1709502385980174_1708235419_n.jpg,woman,0.994233012,,,,,,,,,,
,health,0.99403739,,,,,,,,,,
,leisure,0.986203969,,,,,,,,,,
,fitness,0.982888162,,,,,,,,,,
,summer,0.978290558,,,,,,,,,,
,young,0.977530122,,,,,,,,,,
,exercise,0.97594434,,,,,,,,,,
,thin,0.973152995,,,,,,,,,,
,active,0.972883046,,,,,,,,,,
,energetic,0.963458776,,,,,,,,,,
,fashion,0.962297618,,,,,,,,,,
,recreation,0.954016626,,,,,,,,,,
,sexy,0.953932166,,,,,,,,,,
,pretty,0.953741074,,,,,,,,,,
,fun,0.940737009,,,,,,,,,,
,enjoyment,0.93139708,,,,,,,,,,
,balance,0.9269979,,,,,,,,,,
,healthy,0.916373253,,,,,,,,,,
,relaxation,0.913926899,,,,,,,,,,
,joy,0.91277945,,,,,,,,,,
https://scontent.cdninstagram.com/t51.2885-15/e35/13398443_974403036010525_1822314193_n.jpg,woman,0.991160035,,,,,,,,,,
,people,0.967129648,,,,,,,,,,
,adult,0.958475471,,,,,,,,,,
,portrait,0.957970977,,,,,,,,,,
,family,0.91631186,,,,,,,,,,
,fashion,0.910176694,,,,,,,,,,
,indoors,0.906439185,,,,,,,,,,
,happiness,0.902045667,,,,,,,,,,
,wear,0.894360423,,,,,,,,,,
,model,0.887122452,,,,,,,,,,
,lifestyle,0.871805549,,,,,,,,,,
,girl,0.850286603,,,,,,,,,,
,enjoyment,0.844035745,,,,,,,,,,
,room,0.833034754,,,,,,,,,,
,one,0.812793255,,,,,,,,,,
,dress,0.805704892,,,,,,,,,,
,young,0.799576044,,,,,,,,,,
,relaxation,0.790866673,,,,,,,,,,
,recreation,0.788994014,,,,,,,,,,
,laughing,0.78417486,,,,,,,,,,
https://scontent.cdninstagram.com/t51.2885-15/e35/13259646_253440558350952_392583845_n.jpg,fashion,0.998402357,,,,,,,,,,
,woman,0.995283961,,,,,,,,,,
,model,0.983106375,,,,,,,,,,
,glamour,0.980555475,,,,,,,,,,
,sexy,0.971202731,,,,,,,,,,
,portrait,0.954290628,,,,,,,,,,
,pretty,0.951917052,,,,,,,,,,
,girl,0.950922489,,,,,,,,,,
,elegant,0.917702019,,,,,,,,,,
,dress,0.888588965,,,,,,,,,,
,wear,0.883321643,,,,,,,,,,
,contemporary,0.875338554,,,,,,,,,,
,long,0.870599866,,,,,,,,,,
,thin,0.861895382,,,,,,,,,,
,young,0.85120821,,,,,,,,,,
,casual,0.838320732,,,,,,,,,,
,cute,0.805066586,,,,,,,,,,
,one,0.800673723,,,,,,,,,,
,shopping,0.799890041,,,,,,,,,,
,style,0.796348929,,,,,,,,,,
https://scontent.cdninstagram.com/t51.2885-15/s640x640/e15/13249697_1745519135721211_1789179586_n.jpg,music,0.99954319,,,,,,,,,,
,performance,0.999438703,,,,,,,,,,
,concert,0.999211669,,,,,,,,,,
,festival,0.993413329,,,,,,,,,,
,musician,0.993344367,,,,,,,,,,
,singer,0.992046714,,,,,,,,,,
,stage,0.990473509,,,,,,,,,,
,band,0.987000942,,,,,,,,,,
,audience,0.954009712,,,,,,,,,,
,energy,0.947795033,,,,,,,,,,
,club,0.921193004,,,,,,,,,,
,guitarist,0.913106084,,,,,,,,,,
,party,0.906352758,,,,,,,,,,
,light,0.906254888,,,,,,,,,,
,rap,0.902450562,,,,,,,,,,
,rave,0.901519299,,,,,,,,,,
,celebration,0.901128232,,,,,,,,,,
,song,0.900120378,,,,,,,,,,
,motion,0.883125067,,,,,,,,,,
,pop,0.876027644,,,,,,,,,,
https://scontent.cdninstagram.com/t51.2885-15/e35/13398468_489363907927753_1471922813_n.jpg,woman,0.993440032,,,,,,,,,,
,fashion,0.981225014,,,,,,,,,,
,portrait,0.961746454,,,,,,,,,,
,summer,0.95113641,,,,,,,,,,
,pretty,0.947996497,,,,,,,,,,
,model,0.934094429,,,,,,,,,,
,people,0.930930257,,,,,,,,,,
,nature,0.925563514,,,,,,,,,,
,girl,0.917764783,,,,,,,,,,
,eye,0.916104555,,,,,,,,,,
,sexy,0.90759176,,,,,,,,,,
,outdoors,0.902223587,,,,,,,,,,
,glamour,0.879060328,,,,,,,,,,
,cute,0.866361737,,,,,,,,,,
,hair,0.865120947,,,,,,,,,,
,brunette,0.861497223,,,,,,,,,,
,relaxation,0.851642728,,,,,,,,,,
,"fair weather",0.84938693,,,,,,,,,,
,adolescent,0.835403144,,,,,,,,,,
,young,0.816416919,,,,,,,,,,
https://scontent.cdninstagram.com/t51.2885-15/e35/13422908_964651613632107_850002801_n.jpg,woman,0.996350706,,,,,,,,,,
,fashion,0.993751764,,,,,,,,,,
,portrait,0.976153612,,,,,,,,,,
,girl,0.96886611,,,,,,,,,,
,glamour,0.967784166,,,,,,,,,,
,sexy,0.965752065,,,,,,,,,,
,model,0.963072717,,,,,,,,,,
,pretty,0.959294379,,,,,,,,,,
,eye,0.945279002,,,,,,,,,,
,people,0.939931989,,,,,,,,,,
,lips,0.919248939,,,,,,,,,,
,elegant,0.905515015,,,,,,,,,,
,cute,0.904469371,,,,,,,,,,
,dress,0.890700996,,,,,,,,,,
,jewelry,0.88777703,,,,,,,,,,
,brunette,0.887084842,,,,,,,,,,
,indoors,0.879110038,,,,,,,,,,
,hair,0.865813732,,,,,,,,,,
,long,0.828111827,,,,,,,,,,
,skin,0.826946855,,,,,,,,,,
https://scontent.cdninstagram.com/t51.2885-15/e35/13398468_489363907927753_1471922813_n.jpg,woman,0.993440032,,,,,,,,,,
,fashion,0.981225014,,,,,,,,,,
,portrait,0.961746454,,,,,,,,,,
,summer,0.95113641,,,,,,,,,,
,pretty,0.947996497,,,,,,,,,,
,model,0.934094429,,,,,,,,,,
,people,0.930930257,,,,,,,,,,
,nature,0.925563514,,,,,,,,,,
,girl,0.917764783,,,,,,,,,,
,eye,0.916104555,,,,,,,,,,
,sexy,0.90759176,,,,,,,,,,
,outdoors,0.902223587,,,,,,,,,,
,glamour,0.879060328,,,,,,,,,,
,cute,0.866361737,,,,,,,,,,
,hair,0.865120947,,,,,,,,,,
,brunette,0.861497223,,,,,,,,,,
,relaxation,0.851642728,,,,,,,,,,
,"fair weather",0.84938693,,,,,,,,,,
,adolescent,0.835403144,,,,,,,,,,
,young,0.816416919,,,,,,,,,,
https://scontent.cdninstagram.com/t51.2885-15/e35/13285411_1102124169851612_1565611231_n.jpg,woman,0.997497797,,,,,,,,,,
,fashion,0.993847489,,,,,,,,,,
,pretty,0.983886123,,,,,,,,,,
,glamour,0.977169871,,,,,,,,,,
,sexy,0.972705364,,,,,,,,,,
,eye,0.971428275,,,,,,,,,,
,cute,0.955827832,,,,,,,,,,
,lips,0.949617863,,,,,,,,,,
,skin,0.946112156,,,,,,,,,,
,portrait,0.92657125,,,,,,,,,,
,long,0.922314048,,,,,,,,,,
,elegant,0.912037253,,,,,,,,,,
,look,0.91091013,,,,,,,,,,
,hair,0.910184503,,,,,,,,,,
,girl,0.906948149,,,,,,,,,,
,adolescent,0.880442023,,,,,,,,,,
,seduction,0.875537217,,,,,,,,,,
,model,0.855534613,,,,,,,,,,
,young,0.840746939,,,,,,,,,,
,joy,0.838734508,,,,,,,,,,
https://scontent.cdninstagram.com/t51.2885-15/e35/13414412_263619763996642_1689514175_n.jpg,woman,0.995268106,Fa,Recreation,,,Adventure,,,,,
,girl,0.992593884,,,,,,,,,,
,fashion,0.99122262,,,,,,,,,,
,pretty,0.977013826,,,,,,,,,,
,beautiful,0.972526312,,,,,,,,,,
,portrait,0.970868945,,,,,,,,,,
,people,0.968546271,,,,,,,,,,
,model,0.968363762,,,,,,,,,,
,young,0.963273406,,,,,,,,,,
,sexy,0.957475185,,,,,,,,,,
,indoors,0.951717496,,,,,,,,,,
,glamour,0.946344376,,,,,,,,,,
,hair,0.925709486,,,,,,,,,,
,cute,0.913828373,,,,,,,,,,
,family,0.903008699,,,,,,,,,,
,brunette,0.901171327,,,,,,,,,,
,elegant,0.889539838,,,,,,,,,,
,dress,0.887393594,,,,,,,,,,
,eye,0.883852124,,,,,,,,,,
,one,0.88220185,,,,,,,,,,
https://scontent.cdninstagram.com/t51.2885-15/e35/13402463_261586384206301_834543791_n.jpg,woman,0.997319579,,,,,,,,,,
,fashion,0.985364318,,,,,,,,,,
,pretty,0.984457374,,,,,,,,,,
,girl,0.983698487,,,,,,,,,,
,young,0.981966496,,,,,,,,,,
,portrait,0.980180621,,,,,,,,,,
,isolated,0.974392176,,,,,,,,,,
,beautiful,0.973740637,,,,,,,,,,
,shopping,0.97093451,,,,,,,,,,
,lady,0.96724093,,,,,,,,,,
,attractive,0.963913262,,,,,,,,,,
,people,0.961374164,,,,,,,,,,
,adult,0.944983542,,,,,,,,,,
,bag,0.942451,,,,,,,,,,
,person,0.937655687,,,,,,,,,,
,cute,0.929195642,,,,,,,,,,
,sexy,0.928740621,,,,,,,,,,
,one,0.925504982,,,,,,,,,,
,business,0.925483346,,,,,,,,,,
,model,0.910208225,,,,,,,,,,
https://scontent.cdninstagram.com/t51.2885-15/e35/13402463_261586384206301_834543791_n.jpg,woman,0.997319579,,,,,,,,,,
,fashion,0.985364318,,,,,,,,,,
,pretty,0.984457374,,,,,,,,,,
,girl,0.983698487,,,,,,,,,,
,young,0.981966496,,,,,,,,,,
,portrait,0.980180621,,,,,,,,,,
,isolated,0.974392176,,,,,,,,,,
,beautiful,0.973740637,,,,,,,,,,
,shopping,0.97093451,,,,,,,,,,
,lady,0.96724093,,,,,,,,,,
,attractive,0.963913262,,,,,,,,,,
,people,0.961374164,,,,,,,,,,
,adult,0.944983542,,,,,,,,,,
,bag,0.942451,,,,,,,,,,
,person,0.937655687,,,,,,,,,,
,cute,0.929195642,,,,,,,,,,
,sexy,0.928740621,,,,,,,,,,
,one,0.925504982,,,,,,,,,,
,business,0.925483346,,,,,,,,,,
,model,0.910208225,,,,,,,,,,
https://scontent.cdninstagram.com/t51.2885-15/s640x640/e15/13551810_270682036623402_2084673385_n.jpg,festival,0.973544478,,,,,,,,,,
,performance,0.97182256,,,,,,,,,,
,people,0.96211791,,,,,,,,,,
,light,0.951024413,,,,,,,,,,
,music,0.926164389,,,,,,,,,,
,concert,0.925981045,,,,,,,,,,
,landscape,0.897469521,,,,,,,,,,
,vehicle,0.896828055,,,,,,,,,,
,musician,0.887968421,,,,,,,,,,
,competition,0.85171628,,,,,,,,,,
,adult,0.84719193,,,,,,,,,,
,venue,0.834107637,,,,,,,,,,
,group,0.832697213,,,,,,,,,,
,recreation,0.817891777,,,,,,,,,,
,energy,0.816286802,,,,,,,,,,
,flame,0.806121707,,,,,,,,,,
,celebration,0.804725528,,,,,,,,,,
,singer,0.783067226,,,,,,,,,,
,stage,0.775479138,,,,,,,,,,
,motion,0.773396134,,,,,,,,,,
https://scontent.cdninstagram.com/t51.2885-15/e35/13402486_529185183957238_637368640_n.jpg,woman,0.988610864,a,cha,"Recreation ",Recreation,Adventure,,,,,
,fashion,0.973891437,,,,,,,,,,
,people,0.960880637,,,,,,,,,,
,dress,0.958438754,,,,,,,,,,
,girl,0.931810975,,,,,,,,,,
,door,0.923416018,,,,,,,,,,
,indoors,0.915403962,,,,,,,,,,
,one,0.881260991,,,,,,,,,,
,adult,0.876554728,,,,,,,,,,
,wear,0.876533866,,,,,,,,,,
,model,0.875925004,,,,,,,,,,
,family,0.873307407,,,,,,,,,,
,glamour,0.850409269,,,,,,,,,,
,pretty,0.833965778,,,,,,,,,,
,child,0.810109258,,,,,,,,,,
,wedding,0.806098938,,,,,,,,,,
,young,0.792636871,,,,,,,,,,
,shopping,0.786747813,,,,,,,,,,
,sexy,0.785452962,,,,,,,,,,
,portrait,0.784834743,,,,,,,,,,
"https://scontent.cdninstagram.com/t51.2885-15/e35/13395006_617343661756809_1071200158_n.jpg= Error Image, Not Accessible.",,,,,,,,,,,,
"https://scontent.cdninstagram.com/t51.2885-15/e35/13395006_617343661756809_1071200158_n.jpg= Error Image, Not Accessible.",,,,,,,,,,,,
https://scontent.cdninstagram.com/t51.2885-15/e35/13285411_1102124169851612_1565611231_n.jpg,woman,0.997497797,,,,,,,,,,
,fashion,0.993847489,,,,,,,,,,
,pretty,0.983886123,,,,,,,,,,
,glamour,0.977169871,,,,,,,,,,
,sexy,0.972705364,,,,,,,,,,
,eye,0.971428275,,,,,,,,,,
,cute,0.955827832,,,,,,,,,,
,lips,0.949617863,,,,,,,,,,
,skin,0.946112156,,,,,,,,,,
,portrait,0.92657125,,,,,,,,,,
,long,0.922314048,,,,,,,,,,
,elegant,0.912037253,,,,,,,,,,
,look,0.91091013,,,,,,,,,,
,hair,0.910184503,,,,,,,,,,
,girl,0.906948149,,,,,,,,,,
,adolescent,0.880442023,,,,,,,,,,
,seduction,0.875537217,,,,,,,,,,
,model,0.855534613,,,,,,,,,,
,young,0.840746939,,,,,,,,,,
,joy,0.838734508,,,,,,,,,,
https://scontent.cdninstagram.com/t51.2885-15/e35/13385724_655717501248337_1663363254_n.jpg,woman,0.994424403,,,,,,,,,,
,pretty,0.99075532,,,,,,,,,,
,fashion,0.984045446,,,,,,,,,,
,cute,0.979242682,,,,,,,,,,
,young,0.974149108,,,,,,,,,,
,girl,0.972150266,,,,,,,,,,
,adolescent,0.96313715,,,,,,,,,,
,casual,0.958589792,,,,,,,,,,
,beautiful,0.955922246,,,,,,,,,,
,sexy,0.954859376,,,,,,,,,,
,brunette,0.934742749,,,,,,,,,,
,bag,0.933034062,,,,,,,,,,
,looking,0.927206635,,,,,,,,,,
,glamour,0.923601627,,,,,,,,,,
,attractive,0.9171561,,,,,,,,,,
,model,0.91461432,,,,,,,,,,
,college,0.908009291,,,,,,,,,,
,portrait,0.899843812,,,,,,,,,,
,multicultural,0.89403069,,,,,,,,,,
,one,0.889132619,,,,,,,,,,
https://scontent.cdninstagram.com/t51.2885-15/e35/13422895_1041326345936992_1924189671_n.jpg,woman,0.997774482,,,,,,,,,,
,fashion,0.987699866,,,,,,,,,,
,sexy,0.985618651,,,,,,,,,,
,pretty,0.983055651,,,,,,,,,,
,glamour,0.982903838,,,,,,,,,,
,skin,0.979308605,,,,,,,,,,
,elegant,0.96257925,,,,,,,,,,
,cute,0.951982081,,,,,,,,,,
,eye,0.942365646,,,,,,,,,,
,lips,0.896851301,,,,,,,,,,
,portrait,0.891142845,,,,,,,,,,
,young,0.884658098,,,,,,,,,,
,seduction,0.879047275,,,,,,,,,,
,luxury,0.877317667,,,,,,,,,,
,look,0.875012875,,,,,,,,,,
,girl,0.869361639,,,,,,,,,,
,nude,0.868196487,,,,,,,,,,
,perfection,0.863893747,,,,,,,,,,
,hair,0.860119164,,,,,,,,,,
,model,0.857543826,,,,,,,,,,
"https://scontent.cdninstagram.com/t51.2885-15/e35/13267468_683025891838781_1289435399_n.jpg= Error Image, Not Accessible.",,,,,,,,,,,,
"https://scontent.cdninstagram.com/t51.2885-15/e35/13267468_683025891838781_1289435399_n.jpg= Error Image, Not Accessible.",,,,,,,,,,,,
https://scontent.cdninstagram.com/t51.2885-15/e35/13423488_157224108027920_2119406796_n.jpg,woman,0.994882226,,,,,,,,,,
,pretty,0.977903068,,,,,,,,,,
,portrait,0.960436702,,,,,,,,,,
,fashion,0.957446694,,,,,,,,,,
,girl,0.956381917,,,,,,,,,,
,young,0.92670846,,,,,,,,,,
,cute,0.925493836,,,,,,,,,,
,smile,0.908263087,,,,,,,,,,
,isolated,0.89039278,,,,,,,,,,
,model,0.887422502,,,,,,,,,,
,sexy,0.882997632,,,,,,,,,,
,eye,0.879567564,,,,,,,,,,
,people,0.870878816,,,,,,,,,,
,joy,0.860288918,,,,,,,,,,
,adolescent,0.854714036,,,,,,,,,,
,casual,0.850315571,,,,,,,,,,
,lady,0.850267351,,,,,,,,,,
,hair,0.848964334,,,,,,,,,,
,beautiful,0.847208977,,,,,,,,,,
,glamour,0.845022082,,,,,,,,,,
https://scontent.cdninstagram.com/t51.2885-15/e35/13398579_909592439162715_1842980341_n.jpg,woman,0.99555546,,,,,,,,,,
,fashion,0.98634243,,,,,,,,,,
,pretty,0.980782032,,,,,,,,,,
,glamour,0.972250462,,,,,,,,,,
,sexy,0.968399048,,,,,,,,,,
,cute,0.95789963,,,,,,,,,,
,skin,0.954749227,,,,,,,,,,
,elegant,0.94893384,,,,,,,,,,
,eye,0.915843606,,,,,,,,,,
,young,0.914763451,,,,,,,,,,
,girl,0.913976967,,,,,,,,,,
,portrait,0.910301745,,,,,,,,,,
,isolated,0.903744698,,,,,,,,,,
,model,0.892074406,,,,,,,,,,
,look,0.873643994,,,,,,,,,,
,hair,0.869380951,,,,,,,,,,
,lips,0.8664428,,,,,,,,,,
,clean,0.836709142,,,,,,,,,,
,health,0.828943849,,,,,,,,,,
,studio,0.821021497,,,,,,,,,,
https://scontent.cdninstagram.com/t51.2885-15/e35/13414362_1250187724991682_125128283_n.jpg,"no person",0.968967974,,,,,,,,,,
,vector,0.963752031,,,,,,,,,,
,illustration,0.95875895,,,,,,,,,,
,desktop,0.941540956,,,,,,,,,,
,abstract,0.908923686,,,,,,,,,,
,conceptual,0.895723462,,,,,,,,,,
,design,0.889449239,,,,,,,,,,
,text,0.886511326,,,,,,,,,,
,creativity,0.881518304,,,,,,,,,,
,business,0.880252123,,,,,,,,,,
,modern,0.848261952,,,,,,,,,,
,symbol,0.848050535,,,,,,,,,,
,typographic,0.847885251,,,,,,,,,,
,graphic,0.84220016,,,,,,,,,,
,contemporary,0.835583627,,,,,,,,,,
,art,0.832602501,,,,,,,,,,
,dark,0.825592279,,,,,,,,,,
,technology,0.818953395,,,,,,,,,,
,people,0.81639564,,,,,,,,,,
,nature,0.802855372,,,,,,,,,,
https://scontent.cdninstagram.com/t51.2885-15/sh0.08/e35/p750x750/13269541_1336684549681612_1398450761_n.jpg,woman,0.995012283,,,,,,,,,,
,girl,0.984999359,,,,,,,,,,
,fashion,0.984813988,,,,,,,,,,
,portrait,0.984799743,,,,,,,,,,
,model,0.964622617,,,,,,,,,,
,adult,0.948641419,,,,,,,,,,
,pretty,0.942460418,,,,,,,,,,
,beautiful,0.934693158,,,,,,,,,,
,glamour,0.934270918,,,,,,,,,,
,sexy,0.931589246,,,,,,,,,,
,young,0.928199351,,,,,,,,,,
,one,0.928012252,,,,,,,,,,
,people,0.901460469,,,,,,,,,,
,studio,0.872792482,,,,,,,,,,
,wear,0.872138143,,,,,,,,,,
,skirt,0.865923762,,,,,,,,,,
,bag,0.859869361,,,,,,,,,,
,adolescent,0.833732367,,,,,,,,,,
,cute,0.828035474,,,,,,,,,,
,dress,0.826180696,,,,,,,,,,
https://scontent.cdninstagram.com/t51.2885-15/e35/13423685_1757298394525370_1613071091_n.jpg,woman,0.995309949,,,,,,,,,,
,pretty,0.993722439,,,,,,,,,,
,fashion,0.988539815,,,,,,,,,,
,cute,0.983094335,,,,,,,,,,
,joy,0.9812693,,,,,,,,,,
,adolescent,0.97983706,,,,,,,,,,
,elegant,0.969474256,,,,,,,,,,
,young,0.963508368,,,,,,,,,,
,lid,0.958134115,,,,,,,,,,
,fun,0.950967312,,,,,,,,,,
,isolated,0.94352746,,,,,,,,,,
,portrait,0.931504846,,,,,,,,,,
,child,0.924346447,,,,,,,,,,
,contemporary,0.923185825,,,,,,,,,,
,casual,0.919324517,,,,,,,,,,
,glamour,0.918701231,,,,,,,,,,
,indoors,0.911458373,,,,,,,,,,
,looking,0.910553455,,,,,,,,,,
,retro,0.908707023,,,,,,,,,,
,sexy,0.902703881,,,,,,,,,,
https://scontent.cdninstagram.com/t51.2885-15/s640x640/e15/13267455_1048561281876436_1124938816_n.jpg,festival,0.98047471,,,,,,,,,,
,music,0.975318491,,,,,,,,,,
,light,0.974229157,,,,,,,,,,
,performance,0.960199356,,,,,,,,,,
,concert,0.950323462,,,,,,,,,,
,stage,0.948611736,,,,,,,,,,
,energy,0.893358111,,,,,,,,,,
,audience,0.87554884,,,,,,,,,,
,celebration,0.868778586,,,,,,,,,,
,"no person",0.868465781,,,,,,,,,,
,singer,0.868306518,,,,,,,,,,
,flame,0.866009593,,,,,,,,,,
,calamity,0.864412367,,,,,,,,,,
,spotlight,0.861904979,,,,,,,,,,
,musician,0.839041293,,,,,,,,,,
,technology,0.820409298,,,,,,,,,,
,offense,0.811990142,,,,,,,,,,
,explosion,0.808063149,,,,,,,,,,
,dark,0.805537999,,,,,,,,,,
,abstract,0.797717392,,,,,,,,,,
https://scontent.cdninstagram.com/t51.2885-15/e35/13391241_244657815906692_757316912_n.jpg,woman,0.98759985,,,,,,,,,,
,young,0.972113252,,,,,,,,,,
,fashion,0.947544456,,,,,,,,,,
,pretty,0.941012025,,,,,,,,,,
,casual,0.940947711,,,,,,,,,,
,girl,0.914323449,,,,,,,,,,
,people,0.912708819,,,,,,,,,,
,fun,0.906699061,,,,,,,,,,
,one,0.90205121,,,,,,,,,,
,beautiful,0.901680708,,,,,,,,,,
,attractive,0.900719941,,,,,,,,,,
,family,0.898114979,,,,,,,,,,
,lifestyle,0.892706811,,,,,,,,,,
,summer,0.891685069,,,,,,,,,,
,shopping,0.887550592,,,,,,,,,,
,joy,0.886998177,,,,,,,,,,
,person,0.871634841,,,,,,,,,,
,adult,0.859755874,,,,,,,,,,
,leisure,0.846627712,,,,,,,,,,
,looking,0.839506269,,,,,,,,,,
https://scontent.cdninstagram.com/t51.2885-15/s640x640/e15/13249697_1745519135721211_1789179586_n.jpg,music,0.99954319,,,,,,,,,,
,performance,0.999438703,,,,,,,,,,
,concert,0.999211669,,,,,,,,,,
,festival,0.993413329,,,,,,,,,,
,musician,0.993344367,,,,,,,,,,
,singer,0.992046714,,,,,,,,,,
,stage,0.990473509,,,,,,,,,,
,band,0.987000942,,,,,,,,,,
,audience,0.954009712,,,,,,,,,,
,energy,0.947795033,,,,,,,,,,
,club,0.921193004,,,,,,,,,,
,guitarist,0.913106084,,,,,,,,,,
,party,0.906352758,,,,,,,,,,
,light,0.906254888,,,,,,,,,,
,rap,0.902450562,,,,,,,,,,
,rave,0.901519299,,,,,,,,,,
,celebration,0.901128232,,,,,,,,,,
,song,0.900120378,,,,,,,,,,
,motion,0.883125067,,,,,,,,,,
,pop,0.876027644,,,,,,,,,,
https://scontent.cdninstagram.com/t51.2885-15/e35/13285383_1793193224242882_743991828_n.jpg,water,0.995106459,,,,,,,,,,
,beach,0.985488057,,,,,,,,,,
,people,0.985430241,,,,,,,,,,
,sea,0.985263407,,,,,,,,,,
,travel,0.972179174,,,,,,,,,,
,woman,0.970231533,,,,,,,,,,
,pier,0.969799161,,,,,,,,,,
,ocean,0.969390869,,,,,,,,,,
,landscape,0.968947768,,,,,,,,,,
,adult,0.967762828,,,,,,,,,,
,boat,0.965654492,,,,,,,,,,
,seashore,0.962180018,,,,,,,,,,
,lake,0.954820275,,,,,,,,,,
,one,0.952132225,,,,,,,,,,
,sunset,0.949413776,,,,,,,,,,
,girl,0.947791934,,,,,,,,,,
,portrait,0.945739329,,,,,,,,,,
,jetty,0.940562069,,,,,,,,,,
,bridge,0.938434124,,,,,,,,,,
,river,0.9370538,,,,,,,,,,
https://scontent.cdninstagram.com/t51.2885-15/e35/13381135_965480656904397_646514707_n.jpg,water,0.993560553,,,,,,,,,,
,woman,0.98518765,,,,,,,,,,
,summer,0.980441928,,,,,,,,,,
,outdoors,0.974893153,,,,,,,,,,
,leisure,0.97242713,,,,,,,,,,
,relaxation,0.967514217,,,,,,,,,,
,nature,0.965728998,,,,,,,,,,
,travel,0.965041101,,,,,,,,,,
,sea,0.958543181,,,,,,,,,,
,sky,0.936938405,,,,,,,,,,
,"fair weather",0.93485558,,,,,,,,,,
,enjoyment,0.911651373,,,,,,,,,,
,young,0.911619663,,,,,,,,,,
,river,0.90785861,,,,,,,,,,
,pier,0.90424788,,,,,,,,,,
,beach,0.900782764,,,,,,,,,,
,recreation,0.900497615,,,,,,,,,,
,fun,0.899667144,,,,,,,,,,
,sun,0.895889103,,,,,,,,,,
,boat,0.893043756,,,,,,,,,,
https://scontent.cdninstagram.com/t51.2885-15/e35/13259464_1743343475907994_899290056_n.jpg,woman,0.993959785,,,,,,,,,,
,family,0.987848341,,,,,,,,,,
,people,0.984267175,,,,,,,,,,
,girl,0.982462645,,,,,,,,,,
,portrait,0.976938844,,,,,,,,,,
,two,0.975853264,,,,,,,,,,
,indoors,0.970162332,,,,,,,,,,
,love,0.962286472,,,,,,,,,,
,adult,0.961749196,,,,,,,,,,
,"facial expression",0.9357149,,,,,,,,,,
,room,0.914300859,,,,,,,,,,
,brunette,0.913182676,,,,,,,,,,
,togetherness,0.90343523,,,,,,,,,,
,happiness,0.898565412,,,,,,,,,,
,fun,0.888284683,,,,,,,,,,
,friendship,0.888065994,,,,,,,,,,
,maternity,0.883934677,,,,,,,,,,
,enjoyment,0.880801201,,,,,,,,,,
,man,0.873856127,,,,,,,,,,
,wear,0.851927876,,,,,,,,,,
"https://scontent.cdninstagram.com/t51.2885-15/e35/13261067_1729408937300186_1682978123_n.jpg= Error Image, Not Accessible.",,,,,,,,,,,,
https://scontent.cdninstagram.com/t51.2885-15/e35/13381430_1598946450416025_2096270435_n.jpg,woman,0.988756359,,,,,,,,,,
,young,0.978623271,,,,,,,,,,
,fashion,0.966670871,,,,,,,,,,
,girl,0.964895248,,,,,,,,,,
,summer,0.963285089,,,,,,,,,,
,health,0.960231602,,,,,,,,,,
,fun,0.944479704,,,,,,,,,,
,nature,0.940926611,,,,,,,,,,
,pretty,0.938734889,,,,,,,,,,
,leisure,0.936913133,,,,,,,,,,
,fitness,0.933439255,,,,,,,,,,
,exercise,0.93012619,,,,,,,,,,
,active,0.919230461,,,,,,,,,,
,sit,0.916421056,,,,,,,,,,
,relaxation,0.914365053,,,,,,,,,,
,adolescent,0.910079241,,,,,,,,,,
,sexy,0.909806192,,,,,,,,,,
,outdoors,0.907990694,,,,,,,,,,
,sport,0.90648663,,,,,,,,,,
,recreation,0.900150895,,,,,,,,,,
https://scontent.cdninstagram.com/t51.2885-15/e35/13408789_1721166344798976_1962456573_n.jpg,illustration,0.974523842,Recreation,,,,Adventure,,,,,
,vector,0.968745351,,,,,,,,,,
,desktop,0.964018464,,,,,,,,,,
,"no person",0.947867751,,,,,,,,,,
,pattern,0.942992806,,,,,,,,,,
,design,0.940391004,,,,,,,,,,
,isolated,0.938800752,,,,,,,,,,
,art,0.920051694,,,,,,,,,,
,horizontal,0.918727696,,,,,,,,,,
,paper,0.906829536,,,,,,,,,,
,abstract,0.893939495,,,,,,,,,,
,sign,0.881620407,,,,,,,,,,
,symbol,0.880660415,,,,,,,,,,
,decoration,0.88013351,,,,,,,,,,
,education,0.879486322,,,,,,,,,,
,graphic,0.875091076,,,,,,,,,,
,text,0.869613767,,,,,,,,,,
,image,0.863197207,,,,,,,,,,
,"picture frame",0.86280477,,,,,,,,,,
,business,0.851252019,,,,,,,,,,
"https://scontent.cdninstagram.com/t51.2885-15/e35/13261067_1729408937300186_1682978123_n.jpg= Error Image, Not Accessible.",,,,,,,,,,,,
https://scontent.cdninstagram.com/t51.2885-15/e35/13525386_533019140223237_730201307_n.jpg,woman,0.995006323,,,,,,,,,,
,outdoors,0.982030153,,,,,,,,,,
,pretty,0.965248108,,,,,,,,,,
,fashion,0.962226748,,,,,,,,,,
,relaxation,0.952864051,,,,,,,,,,
,adolescent,0.950268507,,,,,,,,,,
,contemporary,0.939184129,,,,,,,,,,
,nature,0.934417605,,,,,,,,,,
,enjoyment,0.914616883,,,,,,,,,,
,cute,0.908823967,,,,,,,,,,
,leisure,0.90743053,,,,,,,,,,
,looking,0.904074252,,,,,,,,,,
,summer,0.899294853,,,,,,,,,,
,sexy,0.896580696,,,,,,,,,,
,people,0.895808876,,,,,,,,,,
,scholar,0.894440174,,,,,,,,,,
,vertical,0.891459525,,,,,,,,,,
,joy,0.888858557,,,,,,,,,,
,portrait,0.888778031,,,,,,,,,,
,intelligence,0.876541078,,,,,,,,,,
https://scontent.cdninstagram.com/t51.2885-15/e35/13257180_236372296742774_1558922907_n.jpg,performance,0.999723077,,,,,,,,,,
,music,0.999072611,,,,,,,,,,
,concert,0.998704135,,,,,,,,,,
,musician,0.994187951,,,,,,,,,,
,singer,0.993057728,,,,,,,,,,
,festival,0.992277861,,,,,,,,,,
,stage,0.98725301,,,,,,,,,,
,band,0.985494375,,,,,,,,,,
,guitarist,0.950361609,,,,,,,,,,
,club,0.943993092,,,,,,,,,,
,indie,0.93885386,,,,,,,,,,
,guitar,0.916531444,,,,,,,,,,
,celebration,0.897087097,,,,,,,,,,
,"stringed instrument",0.890517294,,,,,,,,,,
,energy,0.88786298,,,,,,,,,,
,drummer,0.873742282,,,,,,,,,,
,audience,0.866277039,,,,,,,,,,
,pop,0.859600484,,,,,,,,,,
,songwriter,0.843940616,,,,,,,,,,
,people,0.819001079,,,,,,,,,,
https://scontent.cdninstagram.com/t51.2885-15/e35/13534284_294446484276539_467681770_n.jpg,togetherness,0.982873082,,,,,,,,,,
,woman,0.981512904,,,,,,,,,,
,love,0.976758182,,,,,,,,,,
,fun,0.974637866,,,,,,,,,,
,joy,0.974296451,,,,,,,,,,
,people,0.964655161,,,,,,,,,,
,friendship,0.959729552,,,,,,,,,,
,child,0.958793879,,,,,,,,,,
,young,0.956317365,,,,,,,,,,
,embrace,0.955897927,,,,,,,,,,
,family,0.954624176,,,,,,,,,,
,adolescent,0.952661276,,,,,,,,,,
,two,0.942434192,,,,,,,,,,
,pretty,0.93968308,,,,,,,,,,
,cute,0.928901196,,,,,,,,,,
,laughing,0.914042711,,,,,,,,,,
,happiness,0.903069615,,,,,,,,,,
,girl,0.89894855,,,,,,,,,,
,isolated,0.898354173,,,,,,,,,,
,romance,0.889036417,,,,,,,,,,
https://scontent.cdninstagram.com/t51.2885-15/e35/13257002_622263084591021_675580021_n.jpg,woman,0.99478817,,,,,,,,,,
,fashion,0.976386786,,,,,,,,,,
,indoors,0.975854456,,,,,,,,,,
,people,0.963096499,,,,,,,,,,
,girl,0.962435246,,,,,,,,,,
,sexy,0.941560268,,,,,,,,,,
,love,0.937492967,,,,,,,,,,
,glamour,0.936978221,,,,,,,,,,
,portrait,0.920013309,,,,,,,,,,
,music,0.916244745,,,,,,,,,,
,mirror,0.914094865,,,,,,,,,,
,dark,0.898207605,,,,,,,,,,
,model,0.889490604,,,,,,,,,,
,pretty,0.889246106,,,,,,,,,,
,light,0.854348361,,,,,,,,,,
,evening,0.849866807,,,,,,,,,,
,nude,0.83996141,,,,,,,,,,
,family,0.824407697,,,,,,,,,,
,fun,0.80741632,,,,,,,,,,
,erotic,0.78858006,,,,,,,,,,
https://scontent.cdninstagram.com/t51.2885-15/sh0.08/e35/p750x750/13298079_1095330043858250_360223119_n.jpg,people,0.997318625,,,,,,,,,,
,portrait,0.99712646,,,,,,,,,,
,monochrome,0.993198395,,,,,,,,,,
,one,0.98970145,,,,,,,,,,
,adult,0.988492727,,,,,,,,,,
,woman,0.984937429,,,,,,,,,,
,girl,0.970007896,,,,,,,,,,
,"facial expression",0.957605183,,,,,,,,,,
,wear,0.945584536,,,,,,,,,,
,music,0.935791016,,,,,,,,,,
,model,0.935063243,,,,,,,,,,
,fashion,0.906003594,,,,,,,,,,
,face,0.874630272,,,,,,,,,,
,child,0.828045249,,,,,,,,,,
,"black and white",0.822476387,,,,,,,,,,
,jewelry,0.810911,,,,,,,,,,
,actress,0.801661849,,,,,,,,,,
,beautiful,0.754333735,,,,,,,,,,
,actor,0.750824571,,,,,,,,,,
,dress,0.750450432,,,,,,,,,,
https://scontent.cdninstagram.com/t51.2885-15/e35/13423560_1746356988953877_1007994247_n.jpg,people,0.994300485,,,,,,,,,,
,woman,0.986359417,,,,,,,,,,
,adult,0.981488109,,,,,,,,,,
,portrait,0.968926072,,,,,,,,,,
,one,0.968268454,,,,,,,,,,
,telephone,0.949178874,,,,,,,,,,
,girl,0.948296666,,,,,,,,,,
,room,0.943247914,,,,,,,,,,
,music,0.93017292,,,,,,,,,,
,coffee,0.918581963,,,,,,,,,,
,chair,0.917847574,,,,,,,,,,
,education,0.898258924,,,,,,,,,,
,two,0.879578114,,,,,,,,,,
,family,0.872081399,,,,,,,,,,
,home,0.86910677,,,,,,,,,,
,furniture,0.867676973,,,,,,,,,,
,indoors,0.855967939,,,,,,,,,,
,sit,0.855475307,,,,,,,,,,
,brunette,0.849434614,,,,,,,,,,
,musician,0.848099589,,,,,,,,,,
https://scontent.cdninstagram.com/t51.2885-15/e35/13256857_559476527558015_1768013589_n.jpg,people,0.993302345,,,,,,,,,,
,woman,0.990554214,,,,,,,,,,
,portrait,0.990070939,,,,,,,,,,
,girl,0.985930562,,,,,,,,,,
,one,0.982201457,,,,,,,,,,
,adult,0.981279969,,,,,,,,,,
,indoors,0.957915783,,,,,,,,,,
,music,0.945662856,,,,,,,,,,
,model,0.942986012,,,,,,,,,,
,fashion,0.937552214,,,,,,,,,,
,family,0.930218935,,,,,,,,,,
,room,0.913262606,,,,,,,,,,
,light,0.905106902,,,,,,,,,,
,coffee,0.892531753,,,,,,,,,,
,wear,0.884714007,,,,,,,,,,
,brunette,0.884500027,,,,,,,,,,
,maternity,0.877730012,,,,,,,,,,
,telephone,0.856005788,,,,,,,,,,
,movie,0.835253,,,,,,,,,,
,singer,0.809306204,,,,,,,,,,
https://scontent.cdninstagram.com/t51.2885-15/e35/13525386_533019140223237_730201307_n.jpg,woman,0.995006323,,,,,,,,,,
,outdoors,0.982030153,,,,,,,,,,
,pretty,0.965248108,,,,,,,,,,
,fashion,0.962226748,,,,,,,,,,
,relaxation,0.952864051,,,,,,,,,,
,adolescent,0.950268507,,,,,,,,,,
,contemporary,0.939184129,,,,,,,,,,
,nature,0.934417605,,,,,,,,,,
,enjoyment,0.914616883,,,,,,,,,,
,cute,0.908823967,,,,,,,,,,
,leisure,0.90743053,,,,,,,,,,
,looking,0.904074252,,,,,,,,,,
,summer,0.899294853,,,,,,,,,,
,sexy,0.896580696,,,,,,,,,,
,people,0.895808876,,,,,,,,,,
,scholar,0.894440174,,,,,,,,,,
,vertical,0.891459525,,,,,,,,,,
,joy,0.888858557,,,,,,,,,,
,portrait,0.888778031,,,,,,,,,,
,intelligence,0.876541078,,,,,,,,,,
https://scontent.cdninstagram.com/t51.2885-15/e35/13249872_845752335556548_1429732285_n.jpg,performance,0.999786317,,,,,,,,,,
,music,0.998063087,,,,,,,,,,
,concert,0.997643113,,,,,,,,,,
,singer,0.997117758,,,,,,,,,,
,musician,0.996981204,,,,,,,,,,
,festival,0.992285132,,,,,,,,,,
,stage,0.988479853,,,,,,,,,,
,rap,0.979420781,,,,,,,,,,
,band,0.964780688,,,,,,,,,,
,"film festival",0.958429933,,,,,,,,,,
,people,0.955250502,,,,,,,,,,
,theater,0.938386738,,,,,,,,,,
,recreation,0.915533066,,,,,,,,,,
,songwriter,0.902142406,,,,,,,,,,
,pop,0.886602044,,,,,,,,,,
,adult,0.852586329,,,,,,,,,,
,light,0.831313968,,,,,,,,,,
,energy,0.827086389,,,,,,,,,,
,theater,0.825935483,,,,,,,,,,
,"concert hall",0.821336508,,,,,,,,,,
https://scontent.cdninstagram.com/t51.2885-15/e35/13258949_268402763512264_332011800_n.jpg,performance,0.998999655,,,,,,,,,,
,concert,0.998533547,,,,,,,,,,
,music,0.998397112,,,,,,,,,,
,stage,0.988606215,,,,,,,,,,
,singer,0.984153628,,,,,,,,,,
,musician,0.9836362,,,,,,,,,,
,band,0.974809825,,,,,,,,,,
,festival,0.948933423,,,,,,,,,,
,club,0.933399558,,,,,,,,,,
,audience,0.928607464,,,,,,,,,,
,club,0.897901058,,,,,,,,,,
,celebration,0.895954847,,,,,,,,,,
,light,0.889864504,,,,,,,,,,
,guitarist,0.882383704,,,,,,,,,,
,rap,0.872678399,,,,,,,,,,
,indie,0.866332054,,,,,,,,,,
,disco,0.85121882,,,,,,,,,,
,song,0.846609235,,,,,,,,,,
,pop,0.829023242,,,,,,,,,,
,songwriter,0.826883793,,,,,,,,,,
https://scontent.cdninstagram.com/t51.2885-15/s640x640/e15/13267455_1048561281876436_1124938816_n.jpg,festival,0.98047471,,,,,,,,,,
,music,0.975318491,,,,,,,,,,
,light,0.974229157,,,,,,,,,,
,performance,0.960199356,,,,,,,,,,
,concert,0.950323462,,,,,,,,,,
,stage,0.948611736,,,,,,,,,,
,energy,0.893358111,,,,,,,,,,
,audience,0.87554884,,,,,,,,,,
,celebration,0.868778586,,,,,,,,,,
,"no person",0.868465781,,,,,,,,,,
,singer,0.868306518,,,,,,,,,,
,flame,0.866009593,,,,,,,,,,
,calamity,0.864412367,,,,,,,,,,
,spotlight,0.861904979,,,,,,,,,,
,musician,0.839041293,,,,,,,,,,
,technology,0.820409298,,,,,,,,,,
,offense,0.811990142,,,,,,,,,,
,explosion,0.808063149,,,,,,,,,,
,dark,0.805537999,,,,,,,,,,
,abstract,0.797717392,,,,,,,,,,
https://scontent.cdninstagram.com/t51.2885-15/e35/13256857_559476527558015_1768013589_n.jpg,people,0.993302345,,,,,,,,,,
,woman,0.990554214,,,,,,,,,,
,portrait,0.990070939,,,,,,,,,,
,girl,0.985930562,,,,,,,,,,
,one,0.982201457,,,,,,,,,,
,adult,0.981279969,,,,,,,,,,
,indoors,0.957915783,,,,,,,,,,
,music,0.945662856,,,,,,,,,,
,model,0.942986012,,,,,,,,,,
,fashion,0.937552214,,,,,,,,,,
,family,0.930218935,,,,,,,,,,
,room,0.913262606,,,,,,,,,,
,light,0.905106902,,,,,,,,,,
,coffee,0.892531753,,,,,,,,,,
,wear,0.884714007,,,,,,,,,,
,brunette,0.884500027,,,,,,,,,,
,maternity,0.877730012,,,,,,,,,,
,telephone,0.856005788,,,,,,,,,,
,movie,0.835253,,,,,,,,,,
,singer,0.809306204,,,,,,,,,,
https://scontent.cdninstagram.com/t51.2885-15/e35/13398579_909592439162715_1842980341_n.jpg,woman,0.99555546,,,,,,,,,,
,fashion,0.98634243,,,,,,,,,,
,pretty,0.980782032,,,,,,,,,,
,glamour,0.972250462,,,,,,,,,,
,sexy,0.968399048,,,,,,,,,,
,cute,0.95789963,,,,,,,,,,
,skin,0.954749227,,,,,,,,,,
,elegant,0.94893384,,,,,,,,,,
,eye,0.915843606,,,,,,,,,,
,young,0.914763451,,,,,,,,,,
,girl,0.913976967,,,,,,,,,,
,portrait,0.910301745,,,,,,,,,,
,isolated,0.903744698,,,,,,,,,,
,model,0.892074406,,,,,,,,,,
,look,0.873643994,,,,,,,,,,
,hair,0.869380951,,,,,,,,,,
,lips,0.8664428,,,,,,,,,,
,clean,0.836709142,,,,,,,,,,
,health,0.828943849,,,,,,,,,,
,studio,0.821021497,,,,,,,,,,
https://scontent.cdninstagram.com/t51.2885-15/e35/13395098_1117780474952477_2005869118_n.jpg,indoors,0.976373196,,,,,,,,,,
,people,0.967618942,,,,,,,,,,
,business,0.946035862,,,,,,,,,,
,vehicle,0.930431843,,,,,,,,,,
,adult,0.916422069,,,,,,,,,,
,woman,0.912350059,,,,,,,,,,
,one,0.884645224,,,,,,,,,,
,travel,0.881673694,,,,,,,,,,
,control,0.8795892,,,,,,,,,,
,safety,0.878771305,,,,,,,,,,
,car,0.878448606,,,,,,,,,,
,portrait,0.863829255,,,,,,,,,,
,man,0.86296308,,,,,,,,,,
,security,0.852814794,,,,,,,,,,
,danger,0.847691894,,,,,,,,,,
,"transportation system",0.838513732,,,,,,,,,,
,offense,0.820150733,,,,,,,,,,
,young,0.818504453,,,,,,,,,,
,vertical,0.803167045,,,,,,,,,,
,looking,0.799945951,,,,,,,,,,
https://scontent.cdninstagram.com/t51.2885-15/e35/13423560_1746356988953877_1007994247_n.jpg,people,0.994300485,,,,,,,,,,
,woman,0.986359417,,,,,,,,,,
,adult,0.981488109,,,,,,,,,,
,portrait,0.968926072,,,,,,,,,,
,one,0.968268454,,,,,,,,,,
,telephone,0.949178874,,,,,,,,,,
,girl,0.948296666,,,,,,,,,,
,room,0.943247914,,,,,,,,,,
,music,0.93017292,,,,,,,,,,
,coffee,0.918581963,,,,,,,,,,
,chair,0.917847574,,,,,,,,,,
,education,0.898258924,,,,,,,,,,
,two,0.879578114,,,,,,,,,,
,family,0.872081399,,,,,,,,,,
,home,0.86910677,,,,,,,,,,
,furniture,0.867676973,,,,,,,,,,
,indoors,0.855967939,,,,,,,,,,
,sit,0.855475307,,,,,,,,,,
,brunette,0.849434614,,,,,,,,,,
,musician,0.848099589,,,,,,,,,,
https://scontent.cdninstagram.com/t51.2885-15/e35/13181342_1097440943649284_675966681_n.jpg,performance,0.998485744,,,,,,,,,,
,music,0.99339664,,,,,,,,,,
,concert,0.992897868,,,,,,,,,,
,musician,0.991543889,,,,,,,,,,
,singer,0.98308742,,,,,,,,,,
,band,0.96922648,,,,,,,,,,
,festival,0.96691823,,,,,,,,,,
,rap,0.958835125,,,,,,,,,,
,stage,0.958691299,,,,,,,,,,
,people,0.90809238,,,,,,,,,,
,recreation,0.876500487,,,,,,,,,,
,songwriter,0.862692714,,,,,,,,,,
,"film festival",0.838874817,,,,,,,,,,
,guitarist,0.834392846,,,,,,,,,,
,energy,0.805323243,,,,,,,,,,
,light,0.800506651,,,,,,,,,,
,adult,0.781970739,,,,,,,,,,
,club,0.778567433,,,,,,,,,,
,indie,0.748020172,,,,,,,,,,
,wear,0.740207255,,,,,,,,,,
https://scontent.cdninstagram.com/t51.2885-15/e35/13423488_157224108027920_2119406796_n.jpg,woman,0.994882226,,,,,,,,,,
,pretty,0.977903068,,,,,,,,,,
,portrait,0.960436702,,,,,,,,,,
,fashion,0.957446694,,,,,,,,,,
,girl,0.956381917,,,,,,,,,,
,young,0.92670846,,,,,,,,,,
,cute,0.925493836,,,,,,,,,,
,smile,0.908263087,,,,,,,,,,
,isolated,0.89039278,,,,,,,,,,
,model,0.887422502,,,,,,,,,,
,sexy,0.882997632,,,,,,,,,,
,eye,0.879567564,,,,,,,,,,
,people,0.870878816,,,,,,,,,,
,joy,0.860288918,,,,,,,,,,
,adolescent,0.854714036,,,,,,,,,,
,casual,0.850315571,,,,,,,,,,
,lady,0.850267351,,,,,,,,,,
,hair,0.848964334,,,,,,,,,,
,beautiful,0.847208977,,,,,,,,,,
,glamour,0.845022082,,,,,,,,,,
https://scontent.cdninstagram.com/t51.2885-15/e35/13257002_622263084591021_675580021_n.jpg,woman,0.99478817,,,,,,,,,,
,fashion,0.976386786,,,,,,,,,,
,indoors,0.975854456,,,,,,,,,,
,people,0.963096499,,,,,,,,,,
,girl,0.962435246,,,,,,,,,,
,sexy,0.941560268,,,,,,,,,,
,love,0.937492967,,,,,,,,,,
,glamour,0.936978221,,,,,,,,,,
,portrait,0.920013309,,,,,,,,,,
,music,0.916244745,,,,,,,,,,
,mirror,0.914094865,,,,,,,,,,
,dark,0.898207605,,,,,,,,,,
,model,0.889490604,,,,,,,,,,
,pretty,0.889246106,,,,,,,,,,
,light,0.854348361,,,,,,,,,,
,evening,0.849866807,,,,,,,,,,
,nude,0.83996141,,,,,,,,,,
,family,0.824407697,,,,,,,,,,
,fun,0.80741632,,,,,,,,,,
,erotic,0.78858006,,,,,,,,,,
https://scontent.cdninstagram.com/t51.2885-15/e35/13329187_1745189122428265_124301201_n.jpg,woman,0.995598435,Recreation,,,,Adventure,,,,,
,fashion,0.99288404,,,,,,,,,,
,glamour,0.982841551,,,,,,,,,,
,sexy,0.975190639,,,,,,,,,,
,pretty,0.974272251,,,,,,,,,,
,eye,0.969370186,,,,,,,,,,
,skin,0.955271482,,,,,,,,,,
,cute,0.938531637,,,,,,,,,,
,lips,0.933501363,,,,,,,,,,
,portrait,0.924025178,,,,,,,,,,
,girl,0.920497537,,,,,,,,,,
,elegant,0.913738132,,,,,,,,,,
,nude,0.909541667,,,,,,,,,,
,long,0.901941299,,,,,,,,,,
,model,0.89417088,,,,,,,,,,
,look,0.886069596,,,,,,,,,,
,hair,0.88138175,,,,,,,,,,
,relaxation,0.863148212,,,,,,,,,,
,luxury,0.847416997,,,,,,,,,,
,young,0.842897594,,,,,,,,,,
https://scontent.cdninstagram.com/t51.2885-15/e35/13285531_227461360973573_309276657_n.jpg,woman,0.99352026,,,,,,,,,,
,fashion,0.989658833,,,,,,,,,,
,girl,0.984002352,,,,,,,,,,
,portrait,0.982824206,,,,,,,,,,
,model,0.971569359,,,,,,,,,,
,glamour,0.969062746,,,,,,,,,,
,sexy,0.968419433,,,,,,,,,,
,music,0.959711194,,,,,,,,,,
,people,0.957898617,,,,,,,,,,
,car,0.954426885,,,,,,,,,,
,beautiful,0.941497087,,,,,,,,,,
,light,0.934615135,,,,,,,,,,
,one,0.927114487,,,,,,,,,,
,pretty,0.926125646,,,,,,,,,,
,festival,0.912746906,,,,,,,,,,
,lady,0.908077002,,,,,,,,,,
,indoors,0.900089145,,,,,,,,,,
,musician,0.899000764,,,,,,,,,,
,adult,0.894671679,,,,,,,,,,
,hair,0.893657029,,,,,,,,,,
https://scontent.cdninstagram.com/t51.2885-15/e35/13414187_521151961407396_752195537_n.jpg,egg,0.998348534,,,,,,,,,,
,"egg yolk",0.994821727,,,,,,,,,,
,food,0.9945333,,,,,,,,,,
,meal,0.986135244,,,,,,,,,,
,plate,0.981130838,,,,,,,,,,
,breakfast,0.97766912,,,,,,,,,,
,lunch,0.976522446,,,,,,,,,,
,"no person",0.974622488,,,,,,,,,,
,delicious,0.973707557,,,,,,,,,,
,dish,0.961953402,,,,,,,,,,
,dinner,0.959721804,,,,,,,,,,
,meat,0.952586889,,,,,,,,,,
,dining,0.948897064,,,,,,,,,,
,cuisine,0.947058856,,,,,,,,,,
,vegetable,0.946027756,,,,,,,,,,
,healthy,0.942727923,,,,,,,,,,
,nutrition,0.938337862,,,,,,,,,,
,cooking,0.935872495,,,,,,,,,,
,"fried egg",0.933530211,,,,,,,,,,
,hot,0.916514397,,,,,,,,,,
https://scontent.cdninstagram.com/t51.2885-15/e35/13257180_236372296742774_1558922907_n.jpg,performance,0.999723077,,,,,,,,,,
,music,0.999072611,,,,,,,,,,
,concert,0.998704135,,,,,,,,,,
,musician,0.994187951,,,,,,,,,,
,singer,0.993057728,,,,,,,,,,
,festival,0.992277861,,,,,,,,,,
,stage,0.98725301,,,,,,,,,,
,band,0.985494375,,,,,,,,,,
,guitarist,0.950361609,,,,,,,,,,
,club,0.943993092,,,,,,,,,,
,indie,0.93885386,,,,,,,,,,
,guitar,0.916531444,,,,,,,,,,
,celebration,0.897087097,,,,,,,,,,
,"stringed instrument",0.890517294,,,,,,,,,,
,energy,0.88786298,,,,,,,,,,
,drummer,0.873742282,,,,,,,,,,
,audience,0.866277039,,,,,,,,,,
,pop,0.859600484,,,,,,,,,,
,songwriter,0.843940616,,,,,,,,,,
,people,0.819001079,,,,,,,,,,
https://scontent.cdninstagram.com/t51.2885-15/e35/13398484_1709062102682048_1031302031_n.jpg,woman,0.993921041,,,,,,,,,,
,girl,0.978080034,,,,,,,,,,
,people,0.976029515,,,,,,,,,,
,portrait,0.970692098,,,,,,,,,,
,one,0.966175914,,,,,,,,,,
,fashion,0.956629336,,,,,,,,,,
,indoors,0.954181194,,,,,,,,,,
,model,0.941413045,,,,,,,,,,
,adult,0.940410495,,,,,,,,,,
,wear,0.917990685,,,,,,,,,,
,brunette,0.906881332,,,,,,,,,,
,sexy,0.899694204,,,,,,,,,,
,music,0.889697373,,,,,,,,,,
,recreation,0.856597066,,,,,,,,,,
,"facial expression",0.829098165,,,,,,,,,,
,pretty,0.792388618,,,,,,,,,,
,room,0.777611732,,,,,,,,,,
,glamour,0.772030354,,,,,,,,,,
,telephone,0.759925425,,,,,,,,,,
,leisure,0.755784631,,,,,,,,,,
https://scontent.cdninstagram.com/t51.2885-15/e35/13181342_1097440943649284_675966681_n.jpg,performance,0.998485744,,,,,,,,,,
,music,0.99339664,,,,,,,,,,
,concert,0.992897868,,,,,,,,,,
,musician,0.991543889,,,,,,,,,,
,singer,0.98308742,,,,,,,,,,
,band,0.96922648,,,,,,,,,,
,festival,0.96691823,,,,,,,,,,
,rap,0.958835125,,,,,,,,,,
,stage,0.958691299,,,,,,,,,,
,people,0.90809238,,,,,,,,,,
,recreation,0.876500487,,,,,,,,,,
,songwriter,0.862692714,,,,,,,,,,
,"film festival",0.838874817,,,,,,,,,,
,guitarist,0.834392846,,,,,,,,,,
,energy,0.805323243,,,,,,,,,,
,light,0.800506651,,,,,,,,,,
,adult,0.781970739,,,,,,,,,,
,club,0.778567433,,,,,,,,,,
,indie,0.748020172,,,,,,,,,,
,wear,0.740207255,,,,,,,,,,
https://scontent.cdninstagram.com/t51.2885-15/e35/13249872_845752335556548_1429732285_n.jpg,performance,0.999786317,,,,,,,,,,
,music,0.998063087,,,,,,,,,,
,concert,0.997643113,,,,,,,,,,
,singer,0.997117758,,,,,,,,,,
,musician,0.996981204,,,,,,,,,,
,festival,0.992285132,,,,,,,,,,
,stage,0.988479853,,,,,,,,,,
,rap,0.979420781,,,,,,,,,,
,band,0.964780688,,,,,,,,,,
,"film festival",0.958429933,,,,,,,,,,
,people,0.955250502,,,,,,,,,,
,theater,0.938386738,,,,,,,,,,
,recreation,0.915533066,,,,,,,,,,
,songwriter,0.902142406,,,,,,,,,,
,pop,0.886602044,,,,,,,,,,
,adult,0.852586329,,,,,,,,,,
,light,0.831313968,,,,,,,,,,
,energy,0.827086389,,,,,,,,,,
,theater,0.825935483,,,,,,,,,,
,"concert hall",0.821336508,,,,,,,,,,
https://scontent.cdninstagram.com/t51.2885-15/e35/13423685_1757298394525370_1613071091_n.jpg,woman,0.995309949,,,,,,,,,,
,pretty,0.993722439,,,,,,,,,,
,fashion,0.988539815,,,,,,,,,,
,cute,0.983094335,,,,,,,,,,
,joy,0.9812693,,,,,,,,,,
,adolescent,0.97983706,,,,,,,,,,
,elegant,0.969474256,,,,,,,,,,
,young,0.963508368,,,,,,,,,,
,lid,0.958134115,,,,,,,,,,
,fun,0.950967312,,,,,,,,,,
,isolated,0.94352746,,,,,,,,,,
,portrait,0.931504846,,,,,,,,,,
,child,0.924346447,,,,,,,,,,
,contemporary,0.923185825,,,,,,,,,,
,casual,0.919324517,,,,,,,,,,
,glamour,0.918701231,,,,,,,,,,
,indoors,0.911458373,,,,,,,,,,
,looking,0.910553455,,,,,,,,,,
,retro,0.908707023,,,,,,,,,,
,sexy,0.902703881,,,,,,,,,,
https://scontent.cdninstagram.com/t51.2885-15/e35/13257046_244515549241161_894558132_n.jpg,performance,0.999251485,,,,,,,,,,
,music,0.995285392,,,,,,,,,,
,concert,0.994609118,,,,,,,,,,
,musician,0.98979938,,,,,,,,,,
,singer,0.988593519,,,,,,,,,,
,band,0.985133946,,,,,,,,,,
,festival,0.970469117,,,,,,,,,,
,stage,0.955475926,,,,,,,,,,
,rap,0.952792704,,,,,,,,,,
,"film festival",0.890276194,,,,,,,,,,
,indie,0.88967526,,,,,,,,,,
,club,0.875894368,,,,,,,,,,
,songwriter,0.871721387,,,,,,,,,,
,people,0.866800547,,,,,,,,,,
,light,0.861896992,,,,,,,,,,
,guitarist,0.85588634,,,,,,,,,,
,pop,0.85163641,,,,,,,,,,
,energy,0.738754272,,,,,,,,,,
,evening,0.72879529,,,,,,,,,,
,guitar,0.697062492,,,,,,,,,,
https://scontent.cdninstagram.com/t51.2885-15/e35/13257046_244515549241161_894558132_n.jpg,performance,0.999251485,,,,,,,,,,
,music,0.995285392,,,,,,,,,,
,concert,0.994609118,,,,,,,,,,
,musician,0.98979938,,,,,,,,,,
,singer,0.988593519,,,,,,,,,,
,band,0.985133946,,,,,,,,,,
,festival,0.970469117,,,,,,,,,,
,stage,0.955475926,,,,,,,,,,
,rap,0.952792704,,,,,,,,,,
,"film festival",0.890276194,,,,,,,,,,
,indie,0.88967526,,,,,,,,,,
,club,0.875894368,,,,,,,,,,
,songwriter,0.871721387,,,,,,,,,,
,people,0.866800547,,,,,,,,,,
,light,0.861896992,,,,,,,,,,
,guitarist,0.85588634,,,,,,,,,,
,pop,0.85163641,,,,,,,,,,
,energy,0.738754272,,,,,,,,,,
,evening,0.72879529,,,,,,,,,,
,guitar,0.697062492,,,,,,,,,,
https://scontent.cdninstagram.com/t51.2885-15/e35/13258949_268402763512264_332011800_n.jpg,performance,0.998999655,,,,,,,,,,
,concert,0.998533547,,,,,,,,,,
,music,0.998397112,,,,,,,,,,
,stage,0.988606215,,,,,,,,,,
,singer,0.984153628,,,,,,,,,,
,musician,0.9836362,,,,,,,,,,
,band,0.974809825,,,,,,,,,,
,festival,0.948933423,,,,,,,,,,
,club,0.933399558,,,,,,,,,,
,audience,0.928607464,,,,,,,,,,
,club,0.897901058,,,,,,,,,,
,celebration,0.895954847,,,,,,,,,,
,light,0.889864504,,,,,,,,,,
,guitarist,0.882383704,,,,,,,,,,
,rap,0.872678399,,,,,,,,,,
,indie,0.866332054,,,,,,,,,,
,disco,0.85121882,,,,,,,,,,
,song,0.846609235,,,,,,,,,,
,pop,0.829023242,,,,,,,,,,
,songwriter,0.826883793,,,,,,,,,,
>>>>>>> origin/dev-billy-neuro
