url,class,score
<<<<<<< HEAD
https://scontent.cdninstagram.com/l/t51.2885-15/e35/13423665_987882551330622_863282965_n.jpg?ig_cache_key=MTI3ODM5MjQ4MjI5NjMwNzI2Ng%3D%3D.2,woman,0.98916769
,people,0.981819153
,adult,0.961232841
,group,0.951742291
,portrait,0.935074925
,wear,0.928811431
,indoors,0.921630621
,brunette,0.911215484
,three,0.907957911
,facial expression,0.902275801
,girl,0.899151385
,two,0.891468525
,togetherness,0.860656857
,man,0.851115823
,interaction,0.840383947
,music,0.832208037
,four,0.817976832
,lingerie,0.817647934
,fashion,0.811267436
,room,0.794222832
https://scontent.cdninstagram.com/t51.2885-15/sh0.08/e35/p750x750/12907282_474997412697554_1170469281_n.jpg?ig_cache_key=MTIyNTkwNjc3MzYwMjE0ODA1OQ%3D%3D.2,woman,0.99197495
,indoors,0.989282489
,adult,0.975910246
,healthcare,0.975254297
,medicine,0.963463187
,people,0.956361413
,science,0.946668446
,hospital,0.943577528
,facial expression,0.943351507
,doctor,0.923991799
,technology,0.919363022
,research,0.91824317
,pharmacist,0.9104141
,looking,0.903419375
,laboratory,0.900426686
,confidence,0.899764776
,business,0.895987928
,science,0.877875686
,office,0.87205565
,outerwear,0.867973089
https://scontent.cdninstagram.com/t51.2885-15/s750x750/sh0.08/e35/13269597_119977408419836_614883170_n.jpg?ig_cache_key=MTI1NzEyOTY3Njk1MTU5MjkxNw%3D%3D.2,woman,0.991906464
,people,0.98425293
,man,0.977287829
,portrait,0.972674012
,two,0.965769887
,couple,0.93828547
,girl,0.933540344
,adolescent,0.928166747
,love,0.926216722
,music,0.923449993
,togetherness,0.923076808
,facial expression,0.9065696
,friendship,0.89465946
,adult,0.892805696
,outdoors,0.888494909
,child,0.873451352
,fun,0.86462599
,family,0.834571779
,wear,0.82639277
,indoors,0.808781028
https://scontent.cdninstagram.com/t51.2885-15/e15/12748349_755831144518838_1469459183_n.jpg?ig_cache_key=MTE5NTc0MTQxMTQ2MDA2MzEzMg%3D%3D.2,facial expression,0.998208046
,people,0.993250191
,happiness,0.989178598
,two,0.986972153
,portrait,0.985651135
,laughing,0.984672666
,adult,0.981754601
,togetherness,0.979527235
,woman,0.977800786
,enjoyment,0.975282311
,affection,0.972126484
,wear,0.97043103
,three,0.965681136
,child,0.957188845
,fun,0.95011121
,love,0.948982835
,joy,0.948199034
,friendship,0.943239212
,man,0.941692889
,boy,0.939005136
https://scontent.cdninstagram.com/t51.2885-15/e35/13113877_255191528166356_982677157_n.jpg?ig_cache_key=MTI0Nzg3NjE3NjExMTU0MTU4Mw%3D%3D.2,movie,0.986742377
,ceremony,0.971753836
,woman,0.966944575
,wedding,0.96583575
,curtain,0.965378404
,people,0.950616479
,indoors,0.940810561
,dress,0.939795732
,family,0.932153702
,wear,0.91614759
,room,0.908867717
,one,0.884225726
,fashion,0.881369114
,bride,0.879699886
,food,0.875274479
,theater,0.873404801
,adult,0.872839212
,relaxation,0.868584752
,portrait,0.861445546
,luxury,0.860265374
https://scontent.cdninstagram.com/t51.2885-15/e15/12628078_1520521714909028_441610507_n.jpg?ig_cache_key=MTE3NjgzNzAyOTM2NDU3MTI0OQ%3D%3D.2,pool,0.994740069
,swimming pool,0.991351962
,adult,0.979789138
,recreation,0.978363633
,woman,0.978238225
,water,0.978195429
,people,0.973823667
,leisure,0.962955475
,swimming,0.9565624
,man,0.952788889
,class,0.952227175
,lifestyle,0.948811293
,girl,0.945531845
,child,0.943854928
,travel,0.939451337
,teacher,0.931503057
,boy,0.921995044
,fun,0.91962105
,enjoyment,0.917494893
,competition,0.916230559
https://scontent.cdninstagram.com/t51.2885-15/e15/12383497_772919452845622_1360319380_n.jpg?ig_cache_key=MTIwNjI1MzI5ODAwNjE3MDg1MA%3D%3D.2,people,0.977734745
,woman,0.975962579
,portrait,0.949427843
,adult,0.94752574
,fun,0.930648685
,young,0.902542174
,happiness,0.898788452
,girl,0.893798232
,beautiful,0.885269821
,enjoyment,0.877317429
,group,0.87372458
,shopping,0.870278776
,facial expression,0.869336724
,outdoors,0.867921948
,man,0.866485834
,friendship,0.862355709
,stock,0.857775569
,music,0.855990767
,festival,0.848083913
,fashion,0.845153093
https://scontent.cdninstagram.com/t51.2885-15/e35/13166740_1597505503893596_1330265409_n.jpg?ig_cache_key=MTI0OTI5Nzc2Mjg0MDU1MDk4NQ%3D%3D.2,woman,0.984477758
,indoors,0.976967216
,people,0.944811106
,one,0.934618115
,pretty,0.930879712
,fashion,0.909593523
,portrait,0.89754796
,cute,0.891976476
,adult,0.885060787
,wear,0.880736291
,adolescent,0.868397951
,telephone,0.858246088
,looking,0.858169019
,family,0.849841356
,girl,0.839084923
,vertical,0.830182552
,casual,0.816384017
,child,0.816364408
,leisure,0.807596445
,recreation,0.803514302
https://scontent.cdninstagram.com/t51.2885-15/e35/13531946_1733842860161702_1512311370_n.jpg?ig_cache_key=MTI4MDQxMjM4OTkwODUyNjMxOQ%3D%3D.2,luggage,0.997260451
,woman,0.996756673
,fashion,0.986739397
,purse,0.979939699
,bag,0.973272562
,girl,0.970706403
,adult,0.970272839
,portrait,0.963686049
,wear,0.954541326
,model,0.94509089
,people,0.933614671
,one,0.926199973
,dress,0.919756949
,airport,0.911709309
,sexy,0.910094619
,skirt,0.900297403
,sunglasses,0.884035826
,pretty,0.868885398
,brunette,0.852010489
,long,0.835457206
https://scontent.cdninstagram.com/t51.2885-15/e35/12716562_194126250946127_1781722956_n.jpg?ig_cache_key=MTE4NDc2MzIxNjU4MTY5NjgwNQ%3D%3D.2,woman,0.987746656
,fashion,0.981336594
,adult,0.974653423
,group,0.968282878
,dress,0.966503382
,presentation,0.962785482
,model,0.960939705
,fashionable,0.956347346
,young,0.955456972
,collection,0.953564167
,lifestyle,0.944070935
,trendy,0.942229509
,modern,0.937228501
,school,0.917082906
,walk,0.90350759
,business,0.902557492
,girl,0.898198605
,casual,0.883386374
,people,0.881788969
,education,0.872252822
https://scontent.cdninstagram.com/t51.2885-15/e35/1516627_927066237388551_792054464_n.jpg?ig_cache_key=MTE5NDA0MTA0MDgzNjU2NjkxNw%3D%3D.2,people,0.983908772
,girl,0.979871094
,woman,0.979313731
,adult,0.959468365
,portrait,0.940978587
,one,0.929146528
,fashion,0.92571193
,model,0.902692556
,recreation,0.84625411
,wear,0.843857646
,fun,0.842063785
,dress,0.832921803
,skirt,0.824329019
,child,0.822063565
,indoors,0.80394882
,leisure,0.801974356
,beautiful,0.796979308
,school,0.795349836
,lifestyle,0.789978623
,young,0.785460114
https://scontent.cdninstagram.com/t51.2885-15/e35/13298134_1635204693464477_788020944_n.jpg?ig_cache_key=MTI2OTYxMDA3NjI0NDM1MjYwNw%3D%3D.2,woman,0.992393374
,portrait,0.991631866
,people,0.988045454
,adult,0.98543942
,group,0.981220722
,facial expression,0.978254735
,three,0.976480365
,indoors,0.974741817
,happiness,0.96752584
,friendship,0.961555839
,girl,0.957533538
,four,0.930080771
,laughing,0.922159076
,lifestyle,0.91919589
,family,0.913588285
,fun,0.912662745
,school,0.912610829
,enjoyment,0.911972404
,adolescent,0.903492808
,education,0.903055131
https://scontent.cdninstagram.com/t51.2885-15/e35/13129384_1046137215452691_247548915_n.jpg?ig_cache_key=MTIzOTAxNzM2NDgyMjc2MTA2Nw%3D%3D.2,woman,0.994865775
,summer,0.977220178
,relaxation,0.976988971
,people,0.973237157
,leisure,0.969197631
,girl,0.944482923
,nature,0.942660749
,enjoyment,0.936933577
,portrait,0.936581671
,outdoors,0.932968616
,beach,0.930702925
,one,0.922371089
,recreation,0.907071352
,fair weather,0.889538348
,lifestyle,0.882549584
,facial expression,0.881751895
,happiness,0.859948814
,travel,0.859178424
,adult,0.851918161
,vacation,0.831822157
https://scontent.cdninstagram.com/t51.2885-15/s750x750/sh0.08/e35/13166980_867413640030316_1511341387_n.jpg?ig_cache_key=MTI0NzAzMTk0Mzc2NzA3MjMyMg%3D%3D.2,facial expression,0.98159039
,people,0.980367661
,group,0.980240583
,togetherness,0.979528129
,portrait,0.977972388
,woman,0.975289226
,friendship,0.97393024
,happiness,0.966867805
,daylight,0.964564085
,adult,0.958543181
,child,0.95020014
,three,0.943825126
,interaction,0.937700868
,girl,0.934154093
,enjoyment,0.924099684
,affection,0.923287272
,two,0.919493794
,offspring,0.912558019
,man,0.911176801
,fun,0.905308366
https://scontent.cdninstagram.com/t51.2885-15/s640x640/sh0.08/e35/12907215_255570228114856_1047502578_n.jpg?ig_cache_key=MTIxMjgzNDIyMTQ4OTIwMDg2NA%3D%3D.2,woman,0.997038007
,girl,0.991728425
,fashion,0.988420784
,portrait,0.98326689
,telephone,0.965886712
,sexy,0.963296771
,pretty,0.960758388
,cute,0.948640108
,glamour,0.945352435
,model,0.943916202
,eye,0.934335947
,people,0.931210756
,hair,0.928330302
,music,0.927435756
,studio,0.916818619
,young,0.914239645
,face,0.908325195
,look,0.905332148
,brunette,0.895126462
,lips,0.89449811
https://scontent.cdninstagram.com/t51.2885-15/e15/1390444_589300804560073_667954229_n.jpg?ig_cache_key=MTIwNzMyMTAzMjQwNDA0OTUwNQ%3D%3D.2,indoors,0.976658106
,man,0.96077323
,woman,0.947556615
,people,0.914721251
,adult,0.904568911
,business,0.875730574
,technology,0.866553724
,horizontal,0.824082017
,industry,0.812635601
,science,0.790837646
,medicine,0.78965795
,production,0.769866645
,healthcare,0.76500845
,looking,0.732147098
,doctor,0.721619964
,hospital,0.720245957
,service,0.695634425
,pride,0.692297697
,reflection,0.692135215
,safety,0.69153136
https://scontent.cdninstagram.com/t51.2885-15/s750x750/sh0.08/e35/13151040_218127518572171_221025675_n.jpg?ig_cache_key=MTI0NzA5MzQ4OTU0MTEyNzU5NA%3D%3D.2,woman,0.969561338
,people,0.962320983
,portrait,0.947519422
,recreation,0.939797163
,celebration,0.930992365
,fashion,0.924262226
,ceremony,0.923385859
,adult,0.898112714
,wear,0.896499574
,party,0.884673834
,festival,0.851575732
,music,0.840153217
,award,0.831504107
,movie,0.827476621
,adolescent,0.808626652
,accomplishment,0.807663441
,dress,0.794692218
,actress,0.792765498
,singer,0.779257178
,happiness,0.752885103
https://scontent.cdninstagram.com/t51.2885-15/e35/12568797_740374082765566_271285619_n.jpg?ig_cache_key=MTE2OTM4NDE0MzEzMTA1NzMxNw%3D%3D.2,food,0.990604639
,meat,0.981889188
,cooking,0.978498876
,dinner,0.977280915
,no person,0.964298964
,pan,0.963499308
,delicious,0.945849597
,pork,0.93581593
,beef,0.927335143
,lunch,0.927152872
,frying pan,0.915162504
,meal,0.904290199
,chicken,0.897877216
,boiling,0.896602869
,fish,0.893054485
,stove,0.887957036
,hot,0.867405415
,preparation,0.86432749
,nutrition,0.86180532
,epicure,0.859989166
https://scontent.cdninstagram.com/t51.2885-15/e35/12748334_1665372863737946_1357899614_n.jpg?ig_cache_key=MTE4MzM0MDg1NTcxODM4Njk5MQ%3D%3D.2,woman,0.989306867
,love,0.9868505
,girl,0.978326499
,people,0.966149032
,rose,0.965200484
,wedding,0.95457375
,adult,0.94587779
,one,0.928196907
,wear,0.923984587
,nude,0.92205292
,fashion,0.919301808
,flower,0.916934133
,bride,0.914154112
,romance,0.91130054
,beautiful,0.890459836
,portrait,0.883529305
,sexy,0.860728741
,model,0.83353579
,glamour,0.80788666
,romantic,0.796431065
https://scontent.cdninstagram.com/t51.2885-15/sh0.08/e35/p750x750/13249794_1733327053608626_845268527_n.jpg?ig_cache_key=MTI1NDg1NTQ5Njg0MzQ2NzkyOA%3D%3D.2,cat,0.9942258
,cute,0.993447185
,little,0.984051943
,pet,0.977496028
,kitten,0.976686418
,fur,0.975812316
,mammal,0.967914939
,animal,0.967646241
,portrait,0.965393782
,eye,0.956659138
,young,0.954996586
,sit,0.941814423
,one,0.919519603
,funny,0.919256091
,looking,0.911815584
,domestic,0.910305023
,hair,0.901397645
,adorable,0.887423635
,downy,0.884899616
,curiosity,0.874472737
https://scontent.cdninstagram.com/t51.2885-15/e35/12393713_1662260387358535_1411528322_n.jpg?ig_cache_key=MTE3MzcxODE0OTg1MTA2MTQ0Nw%3D%3D.2,school,0.973138273
,athlete,0.969237089
,people,0.968388438
,sport,0.96593678
,competition,0.960950434
,portrait,0.954404473
,woman,0.950218081
,squad,0.941047549
,fitness,0.93712616
,exercise,0.932911873
,group,0.930574358
,adult,0.92534709
,motion,0.902157664
,active,0.886375785
,education,0.877948999
,recreation,0.876649261
,group,0.867665529
,girl,0.866482258
,man,0.863978744
,runner,0.861237645
https://scontent.cdninstagram.com/t51.2885-15/e35/925900_1701182770093736_861004744_n.jpg?ig_cache_key=MTIxNjU4MTE0NzQ5MzczNjE2Nw%3D%3D.2,girl,0.991323769
,woman,0.985984743
,summer,0.985966384
,beautiful,0.970889211
,portrait,0.967688024
,leisure,0.964922369
,model,0.962443709
,fashion,0.958762109
,smile,0.958587885
,pretty,0.956795692
,outdoors,0.954890788
,young,0.953320384
,one,0.95130378
,person,0.950711846
,brunette,0.949337959
,hair,0.942562103
,sexy,0.934160471
,people,0.931667507
,outside,0.931158483
,lifestyle,0.929745436
https://scontent.cdninstagram.com/t51.2885-15/e35/11809551_432148513661219_18812497_n.jpg?ig_cache_key=MTE5Mzk2MTA1MTk3ODAxMzk1MQ%3D%3D.2,woman,0.990366459
,portrait,0.989937425
,fashion,0.977754891
,wear,0.951794624
,girl,0.946837664
,model,0.934332013
,people,0.92836529
,adult,0.920226395
,dress,0.904705763
,happiness,0.875915408
,two,0.859086871
,editorial,0.824474692
,studio,0.819131613
,looking,0.817597389
,adolescent,0.817204237
,glamour,0.816264033
,pretty,0.81553638
,brunette,0.812404513
,school,0.798776388
,recreation,0.793135405
https://scontent.cdninstagram.com/t51.2885-15/e35/12784011_551308058378877_450636988_n.jpg?ig_cache_key=MTE5NzEwNTYwMDAxMTI0NzM4MA%3D%3D.2,bar,0.987067342
,wine,0.985939384
,woman,0.976411462
,party,0.973098993
,people,0.968311548
,celebration,0.952983022
,restaurant,0.951044023
,luxury,0.938112855
,alcohol,0.936671376
,fun,0.916578174
,fashion,0.915568888
,young,0.908424854
,drink,0.908199012
,indoors,0.898585796
,shopping,0.898235381
,champagne,0.895101368
,adult,0.885226846
,stock,0.883339226
,portrait,0.882387877
,girl,0.874495745
https://scontent.cdninstagram.com/t51.2885-15/e35/12905188_1754736188095345_1605706299_n.jpg?ig_cache_key=MTIyOTQ4NDU0NzY3MTY2MTc5OQ%3D%3D.2,cat,0.998158932
,cute,0.997851074
,little,0.993892431
,kitten,0.993388414
,pet,0.982946396
,downy,0.973483741
,fur,0.973239124
,eye,0.971158922
,baby,0.970819592
,sit,0.970616698
,mammal,0.960681319
,young,0.959096789
,whisker,0.957371056
,friendship,0.956358016
,funny,0.955632806
,domestic,0.944933414
,adorable,0.93985939
,animal,0.932255805
,one,0.93045032
,portrait,0.929350734
https://scontent.cdninstagram.com/t51.2885-15/e35/12545318_193001677724890_1950252243_n.jpg?ig_cache_key=MTE3OTUzODgwNzc1MTI1MzAxOA%3D%3D.2,mammal,0.989155293
,woman,0.987294078
,cute,0.983056784
,pet,0.980858147
,dog,0.963449359
,one,0.962628603
,love,0.959140658
,people,0.952105403
,friendship,0.951278567
,young,0.943006039
,child,0.941351175
,cat,0.940077543
,girl,0.936193764
,fun,0.934484363
,portrait,0.931572795
,adult,0.926572502
,animal,0.922323465
,pretty,0.919920743
,little,0.896886408
,affection,0.89291364
https://scontent.cdninstagram.com/t51.2885-15/e35/12976584_573532219475287_315603571_n.jpg?ig_cache_key=MTIzNTQ3MTM3ODUzNjAxMzA0Mg%3D%3D.2,girl,0.994530797
,woman,0.988639474
,people,0.986707449
,model,0.976670325
,portrait,0.975082994
,adult,0.969511628
,fashion,0.952490091
,young,0.930417776
,recreation,0.916145086
,ball,0.91042769
,sport,0.906901181
,one,0.906255245
,exercise,0.894895971
,smile,0.876802206
,fitness,0.868276954
,fun,0.867891729
,sexy,0.867848754
,beautiful,0.859543204
,health,0.851626158
,body,0.850818217
https://scontent.cdninstagram.com/t51.2885-15/e35/12543354_1684012638538361_196413831_n.jpg?ig_cache_key=MTE3MTQ4OTk3ODExMjA4OTYyOA%3D%3D.2,footwear,0.999746919
,foot,0.999514759
,fashion,0.999277353
,wear,0.998446167
,leather,0.995538116
,pants,0.990372658
,woman,0.988512158
,shoe,0.98850137
,denim,0.986925125
,girl,0.981069326
,people,0.979481936
,casual,0.97549665
,couple,0.964893997
,two,0.963263452
,sneakers,0.949777603
,man,0.949391603
,color,0.91658318
,sole,0.909973562
,dress,0.883237004
,fashionable,0.854323626
https://scontent.cdninstagram.com/t51.2885-15/e35/12446188_1702015390075185_556318726_n.jpg?ig_cache_key=MTE4MDIxMzI2NzMyODIxMjMxMA%3D%3D.2,group,0.994118571
,people,0.988068819
,child,0.985919356
,woman,0.983150721
,family,0.938200593
,group,0.938112378
,four,0.937259078
,adult,0.93053025
,man,0.915040851
,friendship,0.910369933
,education,0.907562375
,togetherness,0.89909029
,girl,0.891120553
,festival,0.872334123
,celebration,0.865972757
,school,0.846125007
,wear,0.834131479
,enjoyment,0.825057447
,ceremony,0.82097131
,many,0.812048435
https://scontent.cdninstagram.com/t51.2885-15/e35/12543311_1555158461442986_341949572_n.jpg?ig_cache_key=MTE3Mzg1MDc2ODE2NTExNzcxMw%3D%3D.2,woman,0.982603133
,girl,0.96019274
,people,0.948660135
,street,0.942194581
,leisure,0.933504939
,recreation,0.924791336
,two,0.918951511
,fun,0.918314457
,fashion,0.916160464
,child,0.91388917
,adolescent,0.904943824
,outdoors,0.902681172
,exercise,0.890345335
,young,0.876747847
,competition,0.863765955
,fitness,0.861283362
,portrait,0.858497739
,love,0.857479513
,adult,0.856657326
,sneakers,0.837284207
https://scontent.cdninstagram.com/t51.2885-15/e35/12328124_261929820805192_1724073114_n.jpg?ig_cache_key=MTIwNDE3NTY2MTk2ODQ2NTg4OA%3D%3D.2,woman,0.991386354
,indoors,0.991367817
,family,0.972996473
,people,0.972685695
,one,0.966204762
,girl,0.948381305
,adult,0.945202768
,portrait,0.934001327
,telephone,0.927864373
,maternity,0.92661953
,fashion,0.919968784
,wear,0.848210573
,room,0.837186575
,anticipation,0.834209681
,music,0.833793581
,looking,0.794581532
,model,0.788052142
,house,0.747948825
,military,0.742797732
,business,0.739124298
https://scontent.cdninstagram.com/t51.2885-15/e35/13551642_946100682179315_405469049_n.jpg?ig_cache_key=MTI4MTU4MDI0NTAxMDU3Mjg0MQ%3D%3D.2,architecture,0.99137938
,university,0.986167729
,daylight,0.98093003
,building,0.978751302
,home,0.973400235
,people,0.973259926
,city,0.963629484
,outdoors,0.961613655
,administration,0.958981991
,park,0.954084039
,museum,0.947745085
,castle,0.94766283
,travel,0.946547389
,adult,0.934122205
,education,0.932725072
,street,0.912246227
,school,0.905395269
,tower,0.904309392
,sculpture,0.897833169
,one,0.891402125
https://scontent.cdninstagram.com/t51.2885-15/e35/12725200_529303693907697_430540530_n.jpg?ig_cache_key=MTE4NTM2MTE1MjA5NzE5NzczOQ%3D%3D.2,woman,0.991003096
,fun,0.977681518
,child,0.973551869
,togetherness,0.960228741
,joy,0.958520532
,girl,0.954762816
,cute,0.950849414
,portrait,0.944907367
,fashion,0.9389745
,people,0.938548207
,facial expression,0.934346676
,enjoyment,0.933098137
,adolescent,0.930058658
,pretty,0.923228741
,friendship,0.923057079
,laughing,0.91440177
,daylight,0.910931468
,love,0.890401244
,indoors,0.889818847
,happiness,0.888265967
https://scontent.cdninstagram.com/t51.2885-15/e35/12677420_1698100093760936_1771461710_n.jpg?ig_cache_key=MTE4MzE2OTM1NjY0MjQ1OTI2Nw%3D%3D.2,woman,0.985265017
,adult,0.978027105
,people,0.976378262
,portrait,0.966744184
,indoors,0.952103376
,wear,0.940040946
,exhibition,0.935253739
,family,0.926165104
,technology,0.924569607
,girl,0.920281649
,painting,0.916932285
,man,0.866392493
,computer,0.865847766
,room,0.863494635
,business,0.847754002
,fashion,0.837159276
,stock,0.808729827
,brunette,0.800420403
,looking,0.799606502
,happiness,0.793963611
https://scontent.cdninstagram.com/t51.2885-15/e35/12547454_466110006925962_8366821_n.jpg?ig_cache_key=MTE2ODgxODAyMTg4MTE1OTQ4Nw%3D%3D.2,woman,0.966691613
,people,0.966360569
,group,0.938784361
,fun,0.920033932
,family,0.917130709
,group,0.907457113
,portrait,0.904862642
,adult,0.891477406
,celebration,0.883802772
,girl,0.879231334
,friendship,0.873891354
,indoors,0.834398568
,happiness,0.833238125
,young,0.82384038
,party,0.818430424
,smile,0.804415941
,laughing,0.793869376
,beautiful,0.776952922
,joy,0.768279195
,music,0.767169714
https://scontent.cdninstagram.com/t51.2885-15/e35/13398914_921827944609821_1532059401_n.jpg?ig_cache_key=MTI2NTk5MjU1MjE3NzAxNjM5Mw%3D%3D.2,group,0.990756035
,group,0.98534143
,woman,0.968237281
,people,0.96397537
,man,0.958498478
,enjoyment,0.954236031
,four,0.951448798
,adult,0.941038907
,facial expression,0.936458886
,five,0.923915267
,friendship,0.919519663
,portrait,0.906899035
,competition,0.904227674
,togetherness,0.902509809
,child,0.898672104
,recreation,0.897605181
,vehicle,0.884218693
,family,0.874640822
,many,0.87461096
,wear,0.868065715
https://scontent.cdninstagram.com/t51.2885-15/e35/13320076_988847964562064_804054455_n.jpg?ig_cache_key=MTI2Nzk2MTc5NDgyNDgzODc0NQ%3D%3D.2,woman,0.994704962
,nude,0.979386687
,girl,0.969503403
,portrait,0.96496141
,pretty,0.957588851
,people,0.943200946
,sexy,0.938475966
,fashion,0.919669628
,eye,0.897172332
,adolescent,0.876025796
,model,0.864781141
,long,0.852069259
,hair,0.840887427
,skin,0.836679578
,indoors,0.82290858
,young,0.819438279
,cute,0.819166303
,facial expression,0.808128119
,lips,0.80591011
,glamour,0.800446391
https://scontent.cdninstagram.com/t51.2885-15/e35/13259041_1743935709154996_868192586_n.jpg?ig_cache_key=MTI2MDY3NTcyMjMyNzY5NTM1Nw%3D%3D.2,group,0.977553725
,group,0.974072874
,music,0.972290397
,competition,0.969482064
,wear,0.960795462
,band,0.955928087
,people,0.948200703
,woman,0.944322884
,recreation,0.9400208
,performance,0.936276853
,many,0.929483294
,energy,0.910834312
,festival,0.903704166
,enjoyment,0.898596883
,singer,0.895235896
,athlete,0.894381404
,man,0.893571615
,motion,0.890352666
,adult,0.872453868
,concert,0.859437883
https://scontent.cdninstagram.com/t51.2885-15/s750x750/sh0.08/e35/10296852_1684469111828192_1413324711_n.jpg?ig_cache_key=MTIwMTU0MjA3NjcxNTMxMDQ4Mw%3D%3D.2,woman,0.987415314
,people,0.969803631
,love,0.967857301
,girl,0.967023134
,togetherness,0.958195686
,portrait,0.946193039
,two,0.944905281
,fun,0.94019264
,beautiful,0.938567996
,family,0.928530693
,young,0.923889875
,pretty,0.919051051
,happiness,0.914845109
,laughing,0.908210993
,joy,0.908170104
,indoors,0.90605545
,smile,0.904954553
,adult,0.901352048
,cute,0.89909637
,friendship,0.897523284
https://scontent.cdninstagram.com/t51.2885-15/s750x750/sh0.08/e35/12751559_1029152967143477_388663245_n.jpg?ig_cache_key=MTIwMDgwNDM4OTU5MDk5ODc1OA%3D%3D.2,woman,0.987575054
,portrait,0.979806483
,fashion,0.978034019
,girl,0.970187545
,people,0.961857319
,model,0.961141109
,dark,0.946701407
,nightlife,0.935893357
,party,0.933651984
,dress,0.916593671
,music,0.91581589
,man,0.914660096
,glamour,0.890662551
,love,0.885597348
,sexy,0.884131432
,punk,0.87434113
,festival,0.867846012
,backstage,0.865496457
,fun,0.852193296
,band,0.831486106
https://scontent.cdninstagram.com/t51.2885-15/e35/13381121_1616847071962786_243357393_n.jpg?ig_cache_key=MTI2NjYxMDUxNzM4MTU1MzY0Nw%3D%3D.2,woman,0.990257978
,people,0.975638509
,portrait,0.96818471
,facial expression,0.940219879
,girl,0.936411381
,indoors,0.929655194
,fun,0.919574738
,laughing,0.917449415
,togetherness,0.916970015
,friendship,0.906453788
,child,0.905579031
,enjoyment,0.904169798
,family,0.889466822
,adolescent,0.88616097
,love,0.874168992
,happiness,0.867329121
,adult,0.856045425
,wear,0.855969667
,fashion,0.841589749
,joy,0.826384783
https://scontent.cdninstagram.com/t51.2885-15/e35/13298186_975608969155716_1732557120_n.jpg?ig_cache_key=MTI2Mjk0MDI4NjAxMjQzMjMyOA%3D%3D.2,no person,0.998366117
,dairy product,0.996816278
,food,0.995989919
,fruit,0.986719787
,sweet,0.985570848
,delicious,0.984758139
,grow,0.983457267
,creamy,0.979401529
,cream,0.977376819
,sugar,0.972868979
,baking,0.971818328
,caramel,0.970684409
,chocolate,0.96858722
,homemade,0.946891308
,cake,0.946465492
,indulgence,0.940576792
,pudding,0.931088805
,breakfast,0.930442691
,plate,0.928235412
,vanilla,0.921967626
https://scontent.cdninstagram.com/t51.2885-15/e35/12751474_191013374602892_1042801109_n.jpg?ig_cache_key=MTE5ODU4Mzg5MTgwMDk1NjM5OQ%3D%3D.2,child,0.995783687
,boy,0.977457821
,people,0.974718988
,baby,0.968511462
,family,0.952556372
,room,0.899626374
,group,0.889876783
,two,0.878408313
,offspring,0.864916205
,indoors,0.861982822
,sibling,0.857069612
,three,0.850912929
,girl,0.836922467
,portrait,0.829803407
,adult,0.82915777
,furniture,0.821192682
,fun,0.782890499
,wear,0.77541554
,four,0.757732749
,one,0.749581397
https://scontent.cdninstagram.com/t51.2885-15/e35/13269526_249241858770067_952029543_n.jpg?ig_cache_key=MTI2MjE5MTQzOTA3ODMwMTUyMQ%3D%3D.2,bed,0.996196866
,bedroom,0.994664073
,room,0.986050069
,family,0.985528946
,people,0.978737473
,furniture,0.977912664
,indoors,0.96841085
,woman,0.965434372
,adult,0.954833269
,facial expression,0.954515219
,girl,0.951798022
,reclining,0.946228623
,pajamas,0.942987442
,two,0.936049819
,happiness,0.914290071
,enjoyment,0.912782431
,child,0.9116925
,dawn,0.902495384
,portrait,0.897962689
,youth,0.896164656
https://scontent.cdninstagram.com/t51.2885-15/e35/13266735_314414955576820_2113216747_n.jpg?ig_cache_key=MTI2MTUzMzk4MTUwNjg3MDcyMQ%3D%3D.2,beach,0.999042332
,bikini,0.997319937
,people,0.990349829
,sand,0.990322769
,water,0.987448692
,seashore,0.987266421
,vacation,0.983983874
,resort,0.983368278
,ocean,0.976697803
,leisure,0.975929022
,recreation,0.974575281
,travel,0.974467158
,summer,0.974217534
,girl,0.966281891
,sea,0.959699988
,woman,0.954168856
,adult,0.945333481
,tan,0.9346838
,enjoyment,0.931283057
,swimsuit,0.92916584
https://scontent.cdninstagram.com/t51.2885-15/e35/12816854_471388643068368_282622839_n.jpg?ig_cache_key=MTIwMzU3NzAxMzUzMDMzNjgzMw%3D%3D.2,woman,0.992190838
,wear,0.991247535
,people,0.987637162
,outdoors,0.986616313
,man,0.976538777
,adult,0.96682179
,two,0.96606338
,portrait,0.947618961
,daylight,0.932516575
,facial expression,0.932456255
,togetherness,0.920994699
,love,0.907089591
,traditional,0.906208873
,travel,0.892475247
,veil,0.887161136
,religion,0.877900958
,scarf,0.872192502
,ceremony,0.866600633
,fashion,0.865216315
,festival,0.861289024
=======
https://scontent.cdninstagram.com/l/t51.2885-15/e35/13423665_987882551330622_863282965_n.jpg?ig_cache_key=MTI3ODM5MjQ4MjI5NjMwNzI2Ng%3D%3D.2,woman,0.9891676902770996
,people,0.9818191528320312
,adult,0.9612328410148621
,group,0.9517422914505005
,portrait,0.9350749254226685
,wear,0.9288114309310913
,indoors,0.9216306209564209
,brunette,0.9112154841423035
,three,0.907957911491394
,facial expression,0.902275800704956
,girl,0.8991513848304749
,two,0.8914685249328613
,togetherness,0.8606568574905396
,man,0.8511158227920532
,interaction,0.8403839468955994
,music,0.8322080373764038
,four,0.8179768323898315
,lingerie,0.8176479339599609
,fashion,0.8112674355506897
,room,0.7942228317260742
https://scontent.cdninstagram.com/t51.2885-15/sh0.08/e35/p750x750/12907282_474997412697554_1170469281_n.jpg?ig_cache_key=MTIyNTkwNjc3MzYwMjE0ODA1OQ%3D%3D.2,woman,0.991974949836731
,indoors,0.989282488822937
,adult,0.9759102463722229
,healthcare,0.9752542972564697
,medicine,0.9634631872177124
,people,0.9563614130020142
,science,0.9466684460639954
,hospital,0.9435775279998779
,facial expression,0.9433515071868896
,doctor,0.9239917993545532
,technology,0.9193630218505859
,research,0.9182431697845459
,pharmacist,0.9104140996932983
,looking,0.9034193754196167
,laboratory,0.9004266858100891
,confidence,0.8997647762298584
,business,0.8959879279136658
,science,0.8778756856918335
,office,0.8720556497573853
,outerwear,0.8679730892181396
https://scontent.cdninstagram.com/t51.2885-15/s750x750/sh0.08/e35/13269597_119977408419836_614883170_n.jpg?ig_cache_key=MTI1NzEyOTY3Njk1MTU5MjkxNw%3D%3D.2,woman,0.991906464099884
,people,0.9842529296875
,man,0.9772878289222717
,portrait,0.9726740121841431
,two,0.96576988697052
,couple,0.9382854700088501
,girl,0.9335403442382812
,adolescent,0.9281667470932007
,love,0.926216721534729
,music,0.9234499931335449
,togetherness,0.9230768084526062
,facial expression,0.9065696001052856
,friendship,0.8946594595909119
,adult,0.8928056955337524
,outdoors,0.8884949088096619
,child,0.8734513521194458
,fun,0.8646259903907776
,family,0.8345717787742615
,wear,0.8263927698135376
,indoors,0.8087810277938843
https://scontent.cdninstagram.com/t51.2885-15/e15/12748349_755831144518838_1469459183_n.jpg?ig_cache_key=MTE5NTc0MTQxMTQ2MDA2MzEzMg%3D%3D.2,facial expression,0.9982080459594727
,people,0.9932501912117004
,happiness,0.9891785979270935
,two,0.9869721531867981
,portrait,0.9856511354446411
,laughing,0.9846726655960083
,adult,0.9817546010017395
,togetherness,0.9795272350311279
,woman,0.9778007864952087
,enjoyment,0.9752823114395142
,affection,0.9721264839172363
,wear,0.9704310297966003
,three,0.9656811356544495
,child,0.9571888446807861
,fun,0.9501112103462219
,love,0.948982834815979
,joy,0.9481990337371826
,friendship,0.9432392120361328
,man,0.9416928887367249
,boy,0.9390051364898682
https://scontent.cdninstagram.com/t51.2885-15/e35/13113877_255191528166356_982677157_n.jpg?ig_cache_key=MTI0Nzg3NjE3NjExMTU0MTU4Mw%3D%3D.2,movie,0.986742377281189
,ceremony,0.9717538356781006
,woman,0.9669445753097534
,wedding,0.9658357501029968
,curtain,0.9653784036636353
,people,0.9506164789199829
,indoors,0.9408105611801147
,dress,0.939795732498169
,family,0.9321537017822266
,wear,0.9161475896835327
,room,0.9088677167892456
,one,0.8842257261276245
,fashion,0.8813691139221191
,bride,0.8796998858451843
,food,0.8752744793891907
,theater,0.8734048008918762
,adult,0.8728392124176025
,relaxation,0.8685847520828247
,portrait,0.8614455461502075
,luxury,0.8602653741836548
https://scontent.cdninstagram.com/t51.2885-15/e15/12628078_1520521714909028_441610507_n.jpg?ig_cache_key=MTE3NjgzNzAyOTM2NDU3MTI0OQ%3D%3D.2,pool,0.9947400689125061
,swimming pool,0.9913519620895386
,adult,0.979789137840271
,recreation,0.9783636331558228
,woman,0.9782382249832153
,water,0.9781954288482666
,people,0.9738236665725708
,leisure,0.9629554748535156
,swimming,0.9565623998641968
,man,0.9527888894081116
,class,0.9522271752357483
,lifestyle,0.9488112926483154
,girl,0.9455318450927734
,child,0.9438549280166626
,travel,0.9394513368606567
,teacher,0.9315030574798584
,boy,0.9219950437545776
,fun,0.9196210503578186
,enjoyment,0.9174948930740356
,competition,0.9162305593490601
https://scontent.cdninstagram.com/t51.2885-15/e15/12748349_755831144518838_1469459183_n.jpg?ig_cache_key=MTE5NTc0MTQxMTQ2MDA2MzEzMg%3D%3D.2,facial expression,0.9982080459594727
,people,0.9932501912117004
,happiness,0.9891785979270935
,two,0.9869721531867981
,portrait,0.9856511354446411
,laughing,0.9846726655960083
,adult,0.9817546010017395
,togetherness,0.9795272350311279
,woman,0.9778007864952087
,enjoyment,0.9752823114395142
,affection,0.9721264839172363
,wear,0.9704310297966003
,three,0.9656811356544495
,child,0.9571888446807861
,fun,0.9501112103462219
,love,0.948982834815979
,joy,0.9481990337371826
,friendship,0.9432392120361328
,man,0.9416928887367249
,boy,0.9390051364898682
https://scontent.cdninstagram.com/t51.2885-15/e15/12383497_772919452845622_1360319380_n.jpg?ig_cache_key=MTIwNjI1MzI5ODAwNjE3MDg1MA%3D%3D.2,people,0.9777347445487976
,woman,0.9759625792503357
,portrait,0.9494278430938721
,adult,0.9475257396697998
,fun,0.930648684501648
,young,0.9025421738624573
,happiness,0.8987884521484375
,girl,0.8937982320785522
,beautiful,0.885269820690155
,enjoyment,0.8773174285888672
,group,0.8737245798110962
,shopping,0.8702787756919861
,facial expression,0.869336724281311
,outdoors,0.8679219484329224
,man,0.8664858341217041
,friendship,0.8623557090759277
,stock,0.8577755689620972
,music,0.8559907674789429
,festival,0.8480839133262634
,fashion,0.8451530933380127
https://scontent.cdninstagram.com/t51.2885-15/e35/13166740_1597505503893596_1330265409_n.jpg?ig_cache_key=MTI0OTI5Nzc2Mjg0MDU1MDk4NQ%3D%3D.2,woman,0.9844777584075928
,indoors,0.9769672155380249
,people,0.9448111057281494
,one,0.9346181154251099
,pretty,0.9308797121047974
,fashion,0.9095935225486755
,portrait,0.8975479602813721
,cute,0.8919764757156372
,adult,0.8850607872009277
,wear,0.8807362914085388
,adolescent,0.8683979511260986
,telephone,0.8582460880279541
,looking,0.8581690192222595
,family,0.8498413562774658
,girl,0.8390849232673645
,vertical,0.8301825523376465
,casual,0.8163840174674988
,child,0.8163644075393677
,leisure,0.8075964450836182
,recreation,0.803514301776886
https://scontent.cdninstagram.com/t51.2885-15/e35/13166740_1597505503893596_1330265409_n.jpg?ig_cache_key=MTI0OTI5Nzc2Mjg0MDU1MDk4NQ%3D%3D.2,woman,0.9844777584075928
,indoors,0.9769672155380249
,people,0.9448111057281494
,one,0.9346181154251099
,pretty,0.9308797121047974
,fashion,0.9095935225486755
,portrait,0.8975479602813721
,cute,0.8919764757156372
,adult,0.8850607872009277
,wear,0.8807362914085388
,adolescent,0.8683979511260986
,telephone,0.8582460880279541
,looking,0.8581690192222595
,family,0.8498413562774658
,girl,0.8390849232673645
,vertical,0.8301825523376465
,casual,0.8163840174674988
,child,0.8163644075393677
,leisure,0.8075964450836182
,recreation,0.803514301776886
https://scontent.cdninstagram.com/t51.2885-15/e35/13531946_1733842860161702_1512311370_n.jpg?ig_cache_key=MTI4MDQxMjM4OTkwODUyNjMxOQ%3D%3D.2,luggage,0.9972604513168335
,woman,0.9967566728591919
,fashion,0.9867393970489502
,purse,0.9799396991729736
,bag,0.9732725620269775
,girl,0.9707064032554626
,adult,0.9702728390693665
,portrait,0.9636860489845276
,wear,0.9545413255691528
,model,0.9450908899307251
,people,0.9336146712303162
,one,0.9261999726295471
,dress,0.9197569489479065
,airport,0.9117093086242676
,sexy,0.9100946187973022
,skirt,0.9002974033355713
,sunglasses,0.8840358257293701
,pretty,0.8688853979110718
,brunette,0.8520104885101318
,long,0.8354572057723999
https://scontent.cdninstagram.com/t51.2885-15/e35/12716562_194126250946127_1781722956_n.jpg?ig_cache_key=MTE4NDc2MzIxNjU4MTY5NjgwNQ%3D%3D.2,woman,0.9877466559410095
,fashion,0.9813365936279297
,adult,0.974653422832489
,group,0.9682828783988953
,dress,0.966503381729126
,presentation,0.9627854824066162
,model,0.9609397053718567
,fashionable,0.9563473463058472
,young,0.9554569721221924
,collection,0.9535641670227051
,lifestyle,0.9440709352493286
,trendy,0.9422295093536377
,modern,0.9372285008430481
,school,0.9170829057693481
,walk,0.9035075902938843
,business,0.9025574922561646
,girl,0.8981986045837402
,casual,0.8833863735198975
,people,0.881788969039917
,education,0.8722528219223022
https://scontent.cdninstagram.com/t51.2885-15/e35/1516627_927066237388551_792054464_n.jpg?ig_cache_key=MTE5NDA0MTA0MDgzNjU2NjkxNw%3D%3D.2,people,0.9839087724685669
,girl,0.9798710942268372
,woman,0.9793137311935425
,adult,0.9594683647155762
,portrait,0.9409785866737366
,one,0.9291465282440186
,fashion,0.9257119297981262
,model,0.9026925563812256
,recreation,0.8462541103363037
,wear,0.8438576459884644
,fun,0.8420637845993042
,dress,0.8329218029975891
,skirt,0.8243290185928345
,child,0.8220635652542114
,indoors,0.8039488196372986
,leisure,0.801974356174469
,beautiful,0.7969793081283569
,school,0.7953498363494873
,lifestyle,0.7899786233901978
,young,0.7854601144790649
https://scontent.cdninstagram.com/t51.2885-15/e35/13298134_1635204693464477_788020944_n.jpg?ig_cache_key=MTI2OTYxMDA3NjI0NDM1MjYwNw%3D%3D.2,woman,0.9923933744430542
,portrait,0.9916318655014038
,people,0.9880454540252686
,adult,0.9854394197463989
,group,0.9812207221984863
,facial expression,0.9782547354698181
,three,0.9764803647994995
,indoors,0.9747418165206909
,happiness,0.967525839805603
,friendship,0.9615558385848999
,girl,0.9575335383415222
,four,0.930080771446228
,laughing,0.9221590757369995
,lifestyle,0.9191958904266357
,family,0.913588285446167
,fun,0.9126627445220947
,school,0.9126108288764954
,enjoyment,0.9119724035263062
,adolescent,0.90349280834198
,education,0.9030551314353943
https://scontent.cdninstagram.com/t51.2885-15/e35/13129384_1046137215452691_247548915_n.jpg?ig_cache_key=MTIzOTAxNzM2NDgyMjc2MTA2Nw%3D%3D.2,woman,0.9948657751083374
,summer,0.9772201776504517
,relaxation,0.9769889712333679
,people,0.973237156867981
,leisure,0.9691976308822632
,girl,0.9444829225540161
,nature,0.9426607489585876
,enjoyment,0.9369335770606995
,portrait,0.9365816712379456
,outdoors,0.9329686164855957
,beach,0.9307029247283936
,one,0.9223710894584656
,recreation,0.9070713520050049
,fair weather,0.8895383477210999
,lifestyle,0.8825495839118958
,facial expression,0.8817518949508667
,happiness,0.8599488139152527
,travel,0.8591784238815308
,adult,0.8519181609153748
,vacation,0.8318221569061279
https://scontent.cdninstagram.com/l/t51.2885-15/e35/13423665_987882551330622_863282965_n.jpg?ig_cache_key=MTI3ODM5MjQ4MjI5NjMwNzI2Ng%3D%3D.2,woman,0.9891676902770996
,people,0.9818191528320312
,adult,0.9612328410148621
,group,0.9517422914505005
,portrait,0.9350749254226685
,wear,0.9288114309310913
,indoors,0.9216306209564209
,brunette,0.9112154841423035
,three,0.907957911491394
,facial expression,0.902275800704956
,girl,0.8991513848304749
,two,0.8914685249328613
,togetherness,0.8606568574905396
,man,0.8511158227920532
,interaction,0.8403839468955994
,music,0.8322080373764038
,four,0.8179768323898315
,lingerie,0.8176479339599609
,fashion,0.8112674355506897
,room,0.7942228317260742
https://scontent.cdninstagram.com/t51.2885-15/s750x750/sh0.08/e35/13166980_867413640030316_1511341387_n.jpg?ig_cache_key=MTI0NzAzMTk0Mzc2NzA3MjMyMg%3D%3D.2,facial expression,0.9815903902053833
,people,0.9803676605224609
,group,0.9802405834197998
,togetherness,0.9795281291007996
,portrait,0.9779723882675171
,woman,0.9752892255783081
,friendship,0.9739302396774292
,happiness,0.9668678045272827
,daylight,0.9645640850067139
,adult,0.9585431814193726
,child,0.9502001404762268
,three,0.9438251256942749
,interaction,0.9377008676528931
,girl,0.9341540932655334
,enjoyment,0.9240996837615967
,affection,0.9232872724533081
,two,0.9194937944412231
,offspring,0.9125580191612244
,man,0.9111768007278442
,fun,0.9053083658218384
https://scontent.cdninstagram.com/t51.2885-15/s640x640/sh0.08/e35/12907215_255570228114856_1047502578_n.jpg?ig_cache_key=MTIxMjgzNDIyMTQ4OTIwMDg2NA%3D%3D.2,woman,0.9970380067825317
,girl,0.9917284250259399
,fashion,0.9884207844734192
,portrait,0.9832668900489807
,telephone,0.9658867120742798
,sexy,0.9632967710494995
,pretty,0.96075838804245
,cute,0.9486401081085205
,glamour,0.9453524351119995
,model,0.9439162015914917
,eye,0.9343359470367432
,people,0.9312107563018799
,hair,0.9283303022384644
,music,0.9274357557296753
,studio,0.9168186187744141
,young,0.9142396450042725
,face,0.9083251953125
,look,0.9053321480751038
,brunette,0.895126461982727
,lips,0.8944981098175049
https://scontent.cdninstagram.com/t51.2885-15/s750x750/sh0.08/e35/13166980_867413640030316_1511341387_n.jpg?ig_cache_key=MTI0NzAzMTk0Mzc2NzA3MjMyMg%3D%3D.2,facial expression,0.9815903902053833
,people,0.9803676605224609
,group,0.9802405834197998
,togetherness,0.9795281291007996
,portrait,0.9779723882675171
,woman,0.9752892255783081
,friendship,0.9739302396774292
,happiness,0.9668678045272827
,daylight,0.9645640850067139
,adult,0.9585431814193726
,child,0.9502001404762268
,three,0.9438251256942749
,interaction,0.9377008676528931
,girl,0.9341540932655334
,enjoyment,0.9240996837615967
,affection,0.9232872724533081
,two,0.9194937944412231
,offspring,0.9125580191612244
,man,0.9111768007278442
,fun,0.9053083658218384
https://scontent.cdninstagram.com/t51.2885-15/e15/1390444_589300804560073_667954229_n.jpg?ig_cache_key=MTIwNzMyMTAzMjQwNDA0OTUwNQ%3D%3D.2,indoors,0.9766581058502197
,man,0.960773229598999
,woman,0.9475566148757935
,people,0.9147212505340576
,adult,0.9045689105987549
,business,0.875730574131012
,technology,0.8665537238121033
,horizontal,0.8240820169448853
,industry,0.812635600566864
,science,0.7908376455307007
,medicine,0.7896579504013062
,production,0.7698666453361511
,healthcare,0.7650084495544434
,looking,0.7321470975875854
,doctor,0.7216199636459351
,hospital,0.7202459573745728
,service,0.6956344246864319
,pride,0.6922976970672607
,reflection,0.692135214805603
,safety,0.6915313601493835
https://scontent.cdninstagram.com/t51.2885-15/s750x750/sh0.08/e35/13151040_218127518572171_221025675_n.jpg?ig_cache_key=MTI0NzA5MzQ4OTU0MTEyNzU5NA%3D%3D.2,woman,0.9695613384246826
,people,0.9623209834098816
,portrait,0.9475194215774536
,recreation,0.9397971630096436
,celebration,0.9309923648834229
,fashion,0.9242622256278992
,ceremony,0.9233858585357666
,adult,0.8981127142906189
,wear,0.8964995741844177
,party,0.8846738338470459
,festival,0.8515757322311401
,music,0.8401532173156738
,award,0.8315041065216064
,movie,0.8274766206741333
,adolescent,0.808626651763916
,accomplishment,0.8076634407043457
,dress,0.7946922183036804
,actress,0.7927654981613159
,singer,0.7792571783065796
,happiness,0.752885103225708
https://scontent.cdninstagram.com/t51.2885-15/e35/12716562_194126250946127_1781722956_n.jpg?ig_cache_key=MTE4NDc2MzIxNjU4MTY5NjgwNQ%3D%3D.2,woman,0.9877466559410095
,fashion,0.9813365936279297
,adult,0.974653422832489
,group,0.9682828783988953
,dress,0.966503381729126
,presentation,0.9627854824066162
,model,0.9609397053718567
,fashionable,0.9563473463058472
,young,0.9554569721221924
,collection,0.9535641670227051
,lifestyle,0.9440709352493286
,trendy,0.9422295093536377
,modern,0.9372285008430481
,school,0.9170829057693481
,walk,0.9035075902938843
,business,0.9025574922561646
,girl,0.8981986045837402
,casual,0.8833863735198975
,people,0.881788969039917
,education,0.8722528219223022
https://scontent.cdninstagram.com/t51.2885-15/e35/12568797_740374082765566_271285619_n.jpg?ig_cache_key=MTE2OTM4NDE0MzEzMTA1NzMxNw%3D%3D.2,food,0.9906046390533447
,meat,0.9818891882896423
,cooking,0.9784988760948181
,dinner,0.9772809147834778
,no person,0.9642989635467529
,pan,0.9634993076324463
,delicious,0.945849597454071
,pork,0.9358159303665161
,beef,0.9273351430892944
,lunch,0.9271528720855713
,frying pan,0.9151625037193298
,meal,0.9042901992797852
,chicken,0.8978772163391113
,boiling,0.8966028690338135
,fish,0.8930544853210449
,stove,0.8879570364952087
,hot,0.8674054145812988
,preparation,0.8643274903297424
,nutrition,0.8618053197860718
,epicure,0.8599891662597656
https://scontent.cdninstagram.com/t51.2885-15/e35/12748334_1665372863737946_1357899614_n.jpg?ig_cache_key=MTE4MzM0MDg1NTcxODM4Njk5MQ%3D%3D.2,woman,0.9893068671226501
,love,0.9868505001068115
,girl,0.9783264994621277
,people,0.9661490321159363
,rose,0.9652004837989807
,wedding,0.9545737504959106
,adult,0.9458777904510498
,one,0.928196907043457
,wear,0.9239845871925354
,nude,0.9220529198646545
,fashion,0.9193018078804016
,flower,0.9169341325759888
,bride,0.9141541123390198
,romance,0.911300539970398
,beautiful,0.8904598355293274
,portrait,0.8835293054580688
,sexy,0.8607287406921387
,model,0.8335357904434204
,glamour,0.8078866600990295
,romantic,0.7964310646057129
https://scontent.cdninstagram.com/t51.2885-15/sh0.08/e35/p750x750/13249794_1733327053608626_845268527_n.jpg?ig_cache_key=MTI1NDg1NTQ5Njg0MzQ2NzkyOA%3D%3D.2,cat,0.994225800037384
,cute,0.9934471845626831
,little,0.9840519428253174
,pet,0.9774960279464722
,kitten,0.976686418056488
,fur,0.9758123159408569
,mammal,0.9679149389266968
,animal,0.9676462411880493
,portrait,0.9653937816619873
,eye,0.9566591382026672
,young,0.9549965858459473
,sit,0.9418144226074219
,one,0.9195196032524109
,funny,0.9192560911178589
,looking,0.9118155837059021
,domestic,0.9103050231933594
,hair,0.9013976454734802
,adorable,0.8874236345291138
,downy,0.8848996162414551
,curiosity,0.8744727373123169
https://scontent.cdninstagram.com/t51.2885-15/e35/12393713_1662260387358535_1411528322_n.jpg?ig_cache_key=MTE3MzcxODE0OTg1MTA2MTQ0Nw%3D%3D.2,school,0.9731382727622986
,athlete,0.9692370891571045
,people,0.9683884382247925
,sport,0.9659367799758911
,competition,0.9609504342079163
,portrait,0.9544044733047485
,woman,0.9502180814743042
,squad,0.9410475492477417
,fitness,0.9371261596679688
,exercise,0.9329118728637695
,group,0.930574357509613
,adult,0.925347089767456
,motion,0.9021576642990112
,active,0.8863757848739624
,education,0.8779489994049072
,recreation,0.8766492605209351
,group,0.8676655292510986
,girl,0.8664822578430176
,man,0.8639787435531616
,runner,0.861237645149231
https://scontent.cdninstagram.com/t51.2885-15/e35/925900_1701182770093736_861004744_n.jpg?ig_cache_key=MTIxNjU4MTE0NzQ5MzczNjE2Nw%3D%3D.2,girl,0.9913237690925598
,woman,0.985984742641449
,summer,0.9859663844108582
,beautiful,0.9708892107009888
,portrait,0.9676880240440369
,leisure,0.9649223685264587
,model,0.9624437093734741
,fashion,0.9587621092796326
,smile,0.9585878849029541
,pretty,0.9567956924438477
,outdoors,0.954890787601471
,young,0.9533203840255737
,one,0.9513037800788879
,person,0.9507118463516235
,brunette,0.9493379592895508
,hair,0.9425621032714844
,sexy,0.9341604709625244
,people,0.9316675066947937
,outside,0.9311584830284119
,lifestyle,0.9297454357147217
https://scontent.cdninstagram.com/t51.2885-15/e35/11809551_432148513661219_18812497_n.jpg?ig_cache_key=MTE5Mzk2MTA1MTk3ODAxMzk1MQ%3D%3D.2,woman,0.9903664588928223
,portrait,0.989937424659729
,fashion,0.9777548909187317
,wear,0.9517946243286133
,girl,0.9468376636505127
,model,0.934332013130188
,people,0.9283652901649475
,adult,0.9202263951301575
,dress,0.9047057628631592
,happiness,0.8759154081344604
,two,0.8590868711471558
,editorial,0.8244746923446655
,studio,0.81913161277771
,looking,0.8175973892211914
,adolescent,0.8172042369842529
,glamour,0.8162640333175659
,pretty,0.815536379814148
,brunette,0.8124045133590698
,school,0.798776388168335
,recreation,0.793135404586792
https://scontent.cdninstagram.com/t51.2885-15/e35/13531946_1733842860161702_1512311370_n.jpg?ig_cache_key=MTI4MDQxMjM4OTkwODUyNjMxOQ%3D%3D.2,luggage,0.9972604513168335
,woman,0.9967566728591919
,fashion,0.9867393970489502
,purse,0.9799396991729736
,bag,0.9732725620269775
,girl,0.9707064032554626
,adult,0.9702728390693665
,portrait,0.9636860489845276
,wear,0.9545413255691528
,model,0.9450908899307251
,people,0.9336146712303162
,one,0.9261999726295471
,dress,0.9197569489479065
,airport,0.9117093086242676
,sexy,0.9100946187973022
,skirt,0.9002974033355713
,sunglasses,0.8840358257293701
,pretty,0.8688853979110718
,brunette,0.8520104885101318
,long,0.8354572057723999
https://scontent.cdninstagram.com/t51.2885-15/e35/12784011_551308058378877_450636988_n.jpg?ig_cache_key=MTE5NzEwNTYwMDAxMTI0NzM4MA%3D%3D.2,bar,0.9870673418045044
,wine,0.9859393835067749
,woman,0.9764114618301392
,party,0.9730989933013916
,people,0.9683115482330322
,celebration,0.952983021736145
,restaurant,0.9510440230369568
,luxury,0.9381128549575806
,alcohol,0.9366713762283325
,fun,0.9165781736373901
,fashion,0.9155688881874084
,young,0.9084248542785645
,drink,0.9081990122795105
,indoors,0.8985857963562012
,shopping,0.8982353806495667
,champagne,0.8951013684272766
,adult,0.885226845741272
,stock,0.8833392262458801
,portrait,0.8823878765106201
,girl,0.8744957447052002
https://scontent.cdninstagram.com/t51.2885-15/e35/12905188_1754736188095345_1605706299_n.jpg?ig_cache_key=MTIyOTQ4NDU0NzY3MTY2MTc5OQ%3D%3D.2,cat,0.9981589317321777
,cute,0.9978510737419128
,little,0.9938924312591553
,kitten,0.9933884143829346
,pet,0.9829463958740234
,downy,0.9734837412834167
,fur,0.9732391238212585
,eye,0.9711589217185974
,baby,0.9708195924758911
,sit,0.9706166982650757
,mammal,0.9606813192367554
,young,0.9590967893600464
,whisker,0.9573710560798645
,friendship,0.956358015537262
,funny,0.9556328058242798
,domestic,0.9449334144592285
,adorable,0.9398593902587891
,animal,0.9322558045387268
,one,0.9304503202438354
,portrait,0.929350733757019
https://scontent.cdninstagram.com/t51.2885-15/e35/12748334_1665372863737946_1357899614_n.jpg?ig_cache_key=MTE4MzM0MDg1NTcxODM4Njk5MQ%3D%3D.2,woman,0.9893068671226501
,love,0.9868505001068115
,girl,0.9783264994621277
,people,0.9661490321159363
,rose,0.9652004837989807
,wedding,0.9545737504959106
,adult,0.9458777904510498
,one,0.928196907043457
,wear,0.9239845871925354
,nude,0.9220529198646545
,fashion,0.9193018078804016
,flower,0.9169341325759888
,bride,0.9141541123390198
,romance,0.911300539970398
,beautiful,0.8904598355293274
,portrait,0.8835293054580688
,sexy,0.8607287406921387
,model,0.8335357904434204
,glamour,0.8078866600990295
,romantic,0.7964310646057129
https://scontent.cdninstagram.com/t51.2885-15/e35/1516627_927066237388551_792054464_n.jpg?ig_cache_key=MTE5NDA0MTA0MDgzNjU2NjkxNw%3D%3D.2,people,0.9839087724685669
,girl,0.9798710942268372
,woman,0.9793137311935425
,adult,0.9594683647155762
,portrait,0.9409785866737366
,one,0.9291465282440186
,fashion,0.9257119297981262
,model,0.9026925563812256
,recreation,0.8462541103363037
,wear,0.8438576459884644
,fun,0.8420637845993042
,dress,0.8329218029975891
,skirt,0.8243290185928345
,child,0.8220635652542114
,indoors,0.8039488196372986
,leisure,0.801974356174469
,beautiful,0.7969793081283569
,school,0.7953498363494873
,lifestyle,0.7899786233901978
,young,0.7854601144790649
https://scontent.cdninstagram.com/t51.2885-15/e35/12545318_193001677724890_1950252243_n.jpg?ig_cache_key=MTE3OTUzODgwNzc1MTI1MzAxOA%3D%3D.2,mammal,0.9891552925109863
,woman,0.98729407787323
,cute,0.9830567836761475
,pet,0.9808581471443176
,dog,0.9634493589401245
,one,0.9626286029815674
,love,0.9591406583786011
,people,0.9521054029464722
,friendship,0.951278567314148
,young,0.9430060386657715
,child,0.9413511753082275
,cat,0.940077543258667
,girl,0.9361937642097473
,fun,0.9344843626022339
,portrait,0.9315727949142456
,adult,0.9265725016593933
,animal,0.92232346534729
,pretty,0.9199207425117493
,little,0.89688640832901
,affection,0.8929136395454407
https://scontent.cdninstagram.com/t51.2885-15/e35/12905188_1754736188095345_1605706299_n.jpg?ig_cache_key=MTIyOTQ4NDU0NzY3MTY2MTc5OQ%3D%3D.2,cat,0.9981589317321777
,cute,0.9978510737419128
,little,0.9938924312591553
,kitten,0.9933884143829346
,pet,0.9829463958740234
,downy,0.9734837412834167
,fur,0.9732391238212585
,eye,0.9711589217185974
,baby,0.9708195924758911
,sit,0.9706166982650757
,mammal,0.9606813192367554
,young,0.9590967893600464
,whisker,0.9573710560798645
,friendship,0.956358015537262
,funny,0.9556328058242798
,domestic,0.9449334144592285
,adorable,0.9398593902587891
,animal,0.9322558045387268
,one,0.9304503202438354
,portrait,0.929350733757019
https://scontent.cdninstagram.com/t51.2885-15/e35/12976584_573532219475287_315603571_n.jpg?ig_cache_key=MTIzNTQ3MTM3ODUzNjAxMzA0Mg%3D%3D.2,girl,0.9945307970046997
,woman,0.9886394739151001
,people,0.9867074489593506
,model,0.9766703248023987
,portrait,0.9750829935073853
,adult,0.9695116281509399
,fashion,0.9524900913238525
,young,0.9304177761077881
,recreation,0.9161450862884521
,ball,0.9104276895523071
,sport,0.9069011807441711
,one,0.9062552452087402
,exercise,0.8948959708213806
,smile,0.8768022060394287
,fitness,0.8682769536972046
,fun,0.8678917288780212
,sexy,0.8678487539291382
,beautiful,0.8595432043075562
,health,0.8516261577606201
,body,0.8508182168006897
https://scontent.cdninstagram.com/t51.2885-15/e35/12543354_1684012638538361_196413831_n.jpg?ig_cache_key=MTE3MTQ4OTk3ODExMjA4OTYyOA%3D%3D.2,footwear,0.9997469186782837
,foot,0.9995147585868835
,fashion,0.9992773532867432
,wear,0.9984461665153503
,leather,0.9955381155014038
,pants,0.9903726577758789
,woman,0.9885121583938599
,shoe,0.9885013699531555
,denim,0.9869251251220703
,girl,0.9810693264007568
,people,0.9794819355010986
,casual,0.9754966497421265
,couple,0.9648939967155457
,two,0.9632634520530701
,sneakers,0.9497776031494141
,man,0.9493916034698486
,color,0.9165831804275513
,sole,0.9099735617637634
,dress,0.8832370042800903
,fashionable,0.8543236255645752
https://scontent.cdninstagram.com/t51.2885-15/e35/12976584_573532219475287_315603571_n.jpg?ig_cache_key=MTIzNTQ3MTM3ODUzNjAxMzA0Mg%3D%3D.2,girl,0.9945307970046997
,woman,0.9886394739151001
,people,0.9867074489593506
,model,0.9766703248023987
,portrait,0.9750829935073853
,adult,0.9695116281509399
,fashion,0.9524900913238525
,young,0.9304177761077881
,recreation,0.9161450862884521
,ball,0.9104276895523071
,sport,0.9069011807441711
,one,0.9062552452087402
,exercise,0.8948959708213806
,smile,0.8768022060394287
,fitness,0.8682769536972046
,fun,0.8678917288780212
,sexy,0.8678487539291382
,beautiful,0.8595432043075562
,health,0.8516261577606201
,body,0.8508182168006897
https://scontent.cdninstagram.com/t51.2885-15/e35/13129384_1046137215452691_247548915_n.jpg?ig_cache_key=MTIzOTAxNzM2NDgyMjc2MTA2Nw%3D%3D.2,woman,0.9948657751083374
,summer,0.9772201776504517
,relaxation,0.9769889712333679
,people,0.973237156867981
,leisure,0.9691976308822632
,girl,0.9444829225540161
,nature,0.9426607489585876
,enjoyment,0.9369335770606995
,portrait,0.9365816712379456
,outdoors,0.9329686164855957
,beach,0.9307029247283936
,one,0.9223710894584656
,recreation,0.9070713520050049
,fair weather,0.8895383477210999
,lifestyle,0.8825495839118958
,facial expression,0.8817518949508667
,happiness,0.8599488139152527
,travel,0.8591784238815308
,adult,0.8519181609153748
,vacation,0.8318221569061279
https://scontent.cdninstagram.com/t51.2885-15/e35/12446188_1702015390075185_556318726_n.jpg?ig_cache_key=MTE4MDIxMzI2NzMyODIxMjMxMA%3D%3D.2,group,0.9941185712814331
,people,0.9880688190460205
,child,0.9859193563461304
,woman,0.9831507205963135
,family,0.9382005929946899
,group,0.9381123781204224
,four,0.9372590780258179
,adult,0.9305302500724792
,man,0.9150408506393433
,friendship,0.9103699326515198
,education,0.9075623750686646
,togetherness,0.8990902900695801
,girl,0.8911205530166626
,festival,0.8723341226577759
,celebration,0.8659727573394775
,school,0.8461250066757202
,wear,0.8341314792633057
,enjoyment,0.8250574469566345
,ceremony,0.8209713101387024
,many,0.8120484352111816
https://scontent.cdninstagram.com/t51.2885-15/e35/12543311_1555158461442986_341949572_n.jpg?ig_cache_key=MTE3Mzg1MDc2ODE2NTExNzcxMw%3D%3D.2,woman,0.982603132724762
,girl,0.9601927399635315
,people,0.948660135269165
,street,0.9421945810317993
,leisure,0.9335049390792847
,recreation,0.9247913360595703
,two,0.9189515113830566
,fun,0.9183144569396973
,fashion,0.9161604642868042
,child,0.9138891696929932
,adolescent,0.9049438238143921
,outdoors,0.9026811718940735
,exercise,0.8903453350067139
,young,0.8767478466033936
,competition,0.8637659549713135
,fitness,0.8612833619117737
,portrait,0.8584977388381958
,love,0.8574795126914978
,adult,0.8566573262214661
,sneakers,0.8372842073440552
https://scontent.cdninstagram.com/t51.2885-15/e15/1390444_589300804560073_667954229_n.jpg?ig_cache_key=MTIwNzMyMTAzMjQwNDA0OTUwNQ%3D%3D.2,indoors,0.9766581058502197
,man,0.960773229598999
,woman,0.9475566148757935
,people,0.9147212505340576
,adult,0.9045689105987549
,business,0.875730574131012
,technology,0.8665537238121033
,horizontal,0.8240820169448853
,industry,0.812635600566864
,science,0.7908376455307007
,medicine,0.7896579504013062
,production,0.7698666453361511
,healthcare,0.7650084495544434
,looking,0.7321470975875854
,doctor,0.7216199636459351
,hospital,0.7202459573745728
,service,0.6956344246864319
,pride,0.6922976970672607
,reflection,0.692135214805603
,safety,0.6915313601493835
https://scontent.cdninstagram.com/t51.2885-15/e35/12446188_1702015390075185_556318726_n.jpg?ig_cache_key=MTE4MDIxMzI2NzMyODIxMjMxMA%3D%3D.2,group,0.9941185712814331
,people,0.9880688190460205
,child,0.9859193563461304
,woman,0.9831507205963135
,family,0.9382005929946899
,group,0.9381123781204224
,four,0.9372590780258179
,adult,0.9305302500724792
,man,0.9150408506393433
,friendship,0.9103699326515198
,education,0.9075623750686646
,togetherness,0.8990902900695801
,girl,0.8911205530166626
,festival,0.8723341226577759
,celebration,0.8659727573394775
,school,0.8461250066757202
,wear,0.8341314792633057
,enjoyment,0.8250574469566345
,ceremony,0.8209713101387024
,many,0.8120484352111816
https://scontent.cdninstagram.com/t51.2885-15/s640x640/sh0.08/e35/12907215_255570228114856_1047502578_n.jpg?ig_cache_key=MTIxMjgzNDIyMTQ4OTIwMDg2NA%3D%3D.2,woman,0.9970380067825317
,girl,0.9917284250259399
,fashion,0.9884207844734192
,portrait,0.9832668900489807
,telephone,0.9658867120742798
,sexy,0.9632967710494995
,pretty,0.96075838804245
,cute,0.9486401081085205
,glamour,0.9453524351119995
,model,0.9439162015914917
,eye,0.9343359470367432
,people,0.9312107563018799
,hair,0.9283303022384644
,music,0.9274357557296753
,studio,0.9168186187744141
,young,0.9142396450042725
,face,0.9083251953125
,look,0.9053321480751038
,brunette,0.895126461982727
,lips,0.8944981098175049
https://scontent.cdninstagram.com/t51.2885-15/e35/12328124_261929820805192_1724073114_n.jpg?ig_cache_key=MTIwNDE3NTY2MTk2ODQ2NTg4OA%3D%3D.2,woman,0.991386353969574
,indoors,0.9913678169250488
,family,0.9729964733123779
,people,0.972685694694519
,one,0.9662047624588013
,girl,0.9483813047409058
,adult,0.9452027678489685
,portrait,0.9340013265609741
,telephone,0.9278643727302551
,maternity,0.9266195297241211
,fashion,0.9199687838554382
,wear,0.8482105731964111
,room,0.8371865749359131
,anticipation,0.834209680557251
,music,0.833793580532074
,looking,0.7945815324783325
,model,0.7880521416664124
,house,0.7479488253593445
,military,0.7427977323532104
,business,0.7391242980957031
https://scontent.cdninstagram.com/t51.2885-15/e35/13298134_1635204693464477_788020944_n.jpg?ig_cache_key=MTI2OTYxMDA3NjI0NDM1MjYwNw%3D%3D.2,woman,0.9923933744430542
,portrait,0.9916318655014038
,people,0.9880454540252686
,adult,0.9854394197463989
,group,0.9812207221984863
,facial expression,0.9782547354698181
,three,0.9764803647994995
,indoors,0.9747418165206909
,happiness,0.967525839805603
,friendship,0.9615558385848999
,girl,0.9575335383415222
,four,0.930080771446228
,laughing,0.9221590757369995
,lifestyle,0.9191958904266357
,family,0.913588285446167
,fun,0.9126627445220947
,school,0.9126108288764954
,enjoyment,0.9119724035263062
,adolescent,0.90349280834198
,education,0.9030551314353943
https://scontent.cdninstagram.com/t51.2885-15/sh0.08/e35/p750x750/13249794_1733327053608626_845268527_n.jpg?ig_cache_key=MTI1NDg1NTQ5Njg0MzQ2NzkyOA%3D%3D.2,cat,0.994225800037384
,cute,0.9934471845626831
,little,0.9840519428253174
,pet,0.9774960279464722
,kitten,0.976686418056488
,fur,0.9758123159408569
,mammal,0.9679149389266968
,animal,0.9676462411880493
,portrait,0.9653937816619873
,eye,0.9566591382026672
,young,0.9549965858459473
,sit,0.9418144226074219
,one,0.9195196032524109
,funny,0.9192560911178589
,looking,0.9118155837059021
,domestic,0.9103050231933594
,hair,0.9013976454734802
,adorable,0.8874236345291138
,downy,0.8848996162414551
,curiosity,0.8744727373123169
https://scontent.cdninstagram.com/t51.2885-15/e35/11809551_432148513661219_18812497_n.jpg?ig_cache_key=MTE5Mzk2MTA1MTk3ODAxMzk1MQ%3D%3D.2,woman,0.9903664588928223
,portrait,0.989937424659729
,fashion,0.9777548909187317
,wear,0.9517946243286133
,girl,0.9468376636505127
,model,0.934332013130188
,people,0.9283652901649475
,adult,0.9202263951301575
,dress,0.9047057628631592
,happiness,0.8759154081344604
,two,0.8590868711471558
,editorial,0.8244746923446655
,studio,0.81913161277771
,looking,0.8175973892211914
,adolescent,0.8172042369842529
,glamour,0.8162640333175659
,pretty,0.815536379814148
,brunette,0.8124045133590698
,school,0.798776388168335
,recreation,0.793135404586792
https://scontent.cdninstagram.com/t51.2885-15/s750x750/sh0.08/e35/13269597_119977408419836_614883170_n.jpg?ig_cache_key=MTI1NzEyOTY3Njk1MTU5MjkxNw%3D%3D.2,woman,0.991906464099884
,people,0.9842529296875
,man,0.9772878289222717
,portrait,0.9726740121841431
,two,0.96576988697052
,couple,0.9382854700088501
,girl,0.9335403442382812
,adolescent,0.9281667470932007
,love,0.926216721534729
,music,0.9234499931335449
,togetherness,0.9230768084526062
,facial expression,0.9065696001052856
,friendship,0.8946594595909119
,adult,0.8928056955337524
,outdoors,0.8884949088096619
,child,0.8734513521194458
,fun,0.8646259903907776
,family,0.8345717787742615
,wear,0.8263927698135376
,indoors,0.8087810277938843
https://scontent.cdninstagram.com/t51.2885-15/e35/12393713_1662260387358535_1411528322_n.jpg?ig_cache_key=MTE3MzcxODE0OTg1MTA2MTQ0Nw%3D%3D.2,school,0.9731382727622986
,athlete,0.9692370891571045
,people,0.9683884382247925
,sport,0.9659367799758911
,competition,0.9609504342079163
,portrait,0.9544044733047485
,woman,0.9502180814743042
,squad,0.9410475492477417
,fitness,0.9371261596679688
,exercise,0.9329118728637695
,group,0.930574357509613
,adult,0.925347089767456
,motion,0.9021576642990112
,active,0.8863757848739624
,education,0.8779489994049072
,recreation,0.8766492605209351
,group,0.8676655292510986
,girl,0.8664822578430176
,man,0.8639787435531616
,runner,0.861237645149231
https://scontent.cdninstagram.com/t51.2885-15/sh0.08/e35/p750x750/12907282_474997412697554_1170469281_n.jpg?ig_cache_key=MTIyNTkwNjc3MzYwMjE0ODA1OQ%3D%3D.2,woman,0.991974949836731
,indoors,0.989282488822937
,adult,0.9759102463722229
,healthcare,0.9752542972564697
,medicine,0.9634631872177124
,people,0.9563614130020142
,science,0.9466684460639954
,hospital,0.9435775279998779
,facial expression,0.9433515071868896
,doctor,0.9239917993545532
,technology,0.9193630218505859
,research,0.9182431697845459
,pharmacist,0.9104140996932983
,looking,0.9034193754196167
,laboratory,0.9004266858100891
,confidence,0.8997647762298584
,business,0.8959879279136658
,science,0.8778756856918335
,office,0.8720556497573853
,outerwear,0.8679730892181396
https://scontent.cdninstagram.com/t51.2885-15/e35/13551642_946100682179315_405469049_n.jpg?ig_cache_key=MTI4MTU4MDI0NTAxMDU3Mjg0MQ%3D%3D.2,architecture,0.9913793802261353
,university,0.9861677289009094
,daylight,0.9809300303459167
,building,0.9787513017654419
,home,0.9734002351760864
,people,0.9732599258422852
,city,0.9636294841766357
,outdoors,0.961613655090332
,administration,0.958981990814209
,park,0.954084038734436
,museum,0.9477450847625732
,castle,0.9476628303527832
,travel,0.9465473890304565
,adult,0.9341222047805786
,education,0.9327250719070435
,street,0.9122462272644043
,school,0.9053952693939209
,tower,0.9043093919754028
,sculpture,0.8978331685066223
,one,0.8914021253585815
https://scontent.cdninstagram.com/t51.2885-15/e35/12543311_1555158461442986_341949572_n.jpg?ig_cache_key=MTE3Mzg1MDc2ODE2NTExNzcxMw%3D%3D.2,woman,0.982603132724762
,girl,0.9601927399635315
,people,0.948660135269165
,street,0.9421945810317993
,leisure,0.9335049390792847
,recreation,0.9247913360595703
,two,0.9189515113830566
,fun,0.9183144569396973
,fashion,0.9161604642868042
,child,0.9138891696929932
,adolescent,0.9049438238143921
,outdoors,0.9026811718940735
,exercise,0.8903453350067139
,young,0.8767478466033936
,competition,0.8637659549713135
,fitness,0.8612833619117737
,portrait,0.8584977388381958
,love,0.8574795126914978
,adult,0.8566573262214661
,sneakers,0.8372842073440552
https://scontent.cdninstagram.com/t51.2885-15/e35/13551642_946100682179315_405469049_n.jpg?ig_cache_key=MTI4MTU4MDI0NTAxMDU3Mjg0MQ%3D%3D.2,architecture,0.9913793802261353
,university,0.9861677289009094
,daylight,0.9809300303459167
,building,0.9787513017654419
,home,0.9734002351760864
,people,0.9732599258422852
,city,0.9636294841766357
,outdoors,0.961613655090332
,administration,0.958981990814209
,park,0.954084038734436
,museum,0.9477450847625732
,castle,0.9476628303527832
,travel,0.9465473890304565
,adult,0.9341222047805786
,education,0.9327250719070435
,street,0.9122462272644043
,school,0.9053952693939209
,tower,0.9043093919754028
,sculpture,0.8978331685066223
,one,0.8914021253585815
https://scontent.cdninstagram.com/t51.2885-15/e35/13113877_255191528166356_982677157_n.jpg?ig_cache_key=MTI0Nzg3NjE3NjExMTU0MTU4Mw%3D%3D.2,movie,0.986742377281189
,ceremony,0.9717538356781006
,woman,0.9669445753097534
,wedding,0.9658357501029968
,curtain,0.9653784036636353
,people,0.9506164789199829
,indoors,0.9408105611801147
,dress,0.939795732498169
,family,0.9321537017822266
,wear,0.9161475896835327
,room,0.9088677167892456
,one,0.8842257261276245
,fashion,0.8813691139221191
,bride,0.8796998858451843
,food,0.8752744793891907
,theater,0.8734048008918762
,adult,0.8728392124176025
,relaxation,0.8685847520828247
,portrait,0.8614455461502075
,luxury,0.8602653741836548
https://scontent.cdninstagram.com/t51.2885-15/s750x750/sh0.08/e35/13151040_218127518572171_221025675_n.jpg?ig_cache_key=MTI0NzA5MzQ4OTU0MTEyNzU5NA%3D%3D.2,woman,0.9695613384246826
,people,0.9623209834098816
,portrait,0.9475194215774536
,recreation,0.9397971630096436
,celebration,0.9309923648834229
,fashion,0.9242622256278992
,ceremony,0.9233858585357666
,adult,0.8981127142906189
,wear,0.8964995741844177
,party,0.8846738338470459
,festival,0.8515757322311401
,music,0.8401532173156738
,award,0.8315041065216064
,movie,0.8274766206741333
,adolescent,0.808626651763916
,accomplishment,0.8076634407043457
,dress,0.7946922183036804
,actress,0.7927654981613159
,singer,0.7792571783065796
,happiness,0.752885103225708
https://scontent.cdninstagram.com/t51.2885-15/e15/12383497_772919452845622_1360319380_n.jpg?ig_cache_key=MTIwNjI1MzI5ODAwNjE3MDg1MA%3D%3D.2,people,0.9777347445487976
,woman,0.9759625792503357
,portrait,0.9494278430938721
,adult,0.9475257396697998
,fun,0.930648684501648
,young,0.9025421738624573
,happiness,0.8987884521484375
,girl,0.8937982320785522
,beautiful,0.885269820690155
,enjoyment,0.8773174285888672
,group,0.8737245798110962
,shopping,0.8702787756919861
,facial expression,0.869336724281311
,outdoors,0.8679219484329224
,man,0.8664858341217041
,friendship,0.8623557090759277
,stock,0.8577755689620972
,music,0.8559907674789429
,festival,0.8480839133262634
,fashion,0.8451530933380127
https://scontent.cdninstagram.com/t51.2885-15/e35/12725200_529303693907697_430540530_n.jpg?ig_cache_key=MTE4NTM2MTE1MjA5NzE5NzczOQ%3D%3D.2,woman,0.9910030961036682
,fun,0.9776815176010132
,child,0.973551869392395
,togetherness,0.9602287411689758
,joy,0.9585205316543579
,girl,0.9547628164291382
,cute,0.9508494138717651
,portrait,0.9449073672294617
,fashion,0.9389744997024536
,people,0.93854820728302
,facial expression,0.9343466758728027
,enjoyment,0.9330981373786926
,adolescent,0.9300586581230164
,pretty,0.9232287406921387
,friendship,0.9230570793151855
,laughing,0.9144017696380615
,daylight,0.9109314680099487
,love,0.8904012441635132
,indoors,0.8898188471794128
,happiness,0.8882659673690796
https://scontent.cdninstagram.com/t51.2885-15/e35/12725200_529303693907697_430540530_n.jpg?ig_cache_key=MTE4NTM2MTE1MjA5NzE5NzczOQ%3D%3D.2,woman,0.9910030961036682
,fun,0.9776815176010132
,child,0.973551869392395
,togetherness,0.9602287411689758
,joy,0.9585205316543579
,girl,0.9547628164291382
,cute,0.9508494138717651
,portrait,0.9449073672294617
,fashion,0.9389744997024536
,people,0.93854820728302
,facial expression,0.9343466758728027
,enjoyment,0.9330981373786926
,adolescent,0.9300586581230164
,pretty,0.9232287406921387
,friendship,0.9230570793151855
,laughing,0.9144017696380615
,daylight,0.9109314680099487
,love,0.8904012441635132
,indoors,0.8898188471794128
,happiness,0.8882659673690796
https://scontent.cdninstagram.com/t51.2885-15/e35/12677420_1698100093760936_1771461710_n.jpg?ig_cache_key=MTE4MzE2OTM1NjY0MjQ1OTI2Nw%3D%3D.2,woman,0.9852650165557861
,adult,0.9780271053314209
,people,0.9763782620429993
,portrait,0.9667441844940186
,indoors,0.9521033763885498
,wear,0.9400409460067749
,exhibition,0.9352537393569946
,family,0.9261651039123535
,technology,0.9245696067810059
,girl,0.9202816486358643
,painting,0.9169322848320007
,man,0.8663924932479858
,computer,0.8658477663993835
,room,0.8634946346282959
,business,0.8477540016174316
,fashion,0.837159276008606
,stock,0.8087298274040222
,brunette,0.8004204034805298
,looking,0.7996065020561218
,happiness,0.793963611125946
https://scontent.cdninstagram.com/t51.2885-15/e35/925900_1701182770093736_861004744_n.jpg?ig_cache_key=MTIxNjU4MTE0NzQ5MzczNjE2Nw%3D%3D.2,girl,0.9913237690925598
,woman,0.985984742641449
,summer,0.9859663844108582
,beautiful,0.9708892107009888
,portrait,0.9676880240440369
,leisure,0.9649223685264587
,model,0.9624437093734741
,fashion,0.9587621092796326
,smile,0.9585878849029541
,pretty,0.9567956924438477
,outdoors,0.954890787601471
,young,0.9533203840255737
,one,0.9513037800788879
,person,0.9507118463516235
,brunette,0.9493379592895508
,hair,0.9425621032714844
,sexy,0.9341604709625244
,people,0.9316675066947937
,outside,0.9311584830284119
,lifestyle,0.9297454357147217
https://scontent.cdninstagram.com/t51.2885-15/e35/12568797_740374082765566_271285619_n.jpg?ig_cache_key=MTE2OTM4NDE0MzEzMTA1NzMxNw%3D%3D.2,food,0.9906046390533447
,meat,0.9818891882896423
,cooking,0.9784988760948181
,dinner,0.9772809147834778
,no person,0.9642989635467529
,pan,0.9634993076324463
,delicious,0.945849597454071
,pork,0.9358159303665161
,beef,0.9273351430892944
,lunch,0.9271528720855713
,frying pan,0.9151625037193298
,meal,0.9042901992797852
,chicken,0.8978772163391113
,boiling,0.8966028690338135
,fish,0.8930544853210449
,stove,0.8879570364952087
,hot,0.8674054145812988
,preparation,0.8643274903297424
,nutrition,0.8618053197860718
,epicure,0.8599891662597656
https://scontent.cdninstagram.com/t51.2885-15/e15/12628078_1520521714909028_441610507_n.jpg?ig_cache_key=MTE3NjgzNzAyOTM2NDU3MTI0OQ%3D%3D.2,pool,0.9947400689125061
,swimming pool,0.9913519620895386
,adult,0.979789137840271
,recreation,0.9783636331558228
,woman,0.9782382249832153
,water,0.9781954288482666
,people,0.9738236665725708
,leisure,0.9629554748535156
,swimming,0.9565623998641968
,man,0.9527888894081116
,class,0.9522271752357483
,lifestyle,0.9488112926483154
,girl,0.9455318450927734
,child,0.9438549280166626
,travel,0.9394513368606567
,teacher,0.9315030574798584
,boy,0.9219950437545776
,fun,0.9196210503578186
,enjoyment,0.9174948930740356
,competition,0.9162305593490601
https://scontent.cdninstagram.com/t51.2885-15/e35/12677420_1698100093760936_1771461710_n.jpg?ig_cache_key=MTE4MzE2OTM1NjY0MjQ1OTI2Nw%3D%3D.2,woman,0.9852650165557861
,adult,0.9780271053314209
,people,0.9763782620429993
,portrait,0.9667441844940186
,indoors,0.9521033763885498
,wear,0.9400409460067749
,exhibition,0.9352537393569946
,family,0.9261651039123535
,technology,0.9245696067810059
,girl,0.9202816486358643
,painting,0.9169322848320007
,man,0.8663924932479858
,computer,0.8658477663993835
,room,0.8634946346282959
,business,0.8477540016174316
,fashion,0.837159276008606
,stock,0.8087298274040222
,brunette,0.8004204034805298
,looking,0.7996065020561218
,happiness,0.793963611125946
https://scontent.cdninstagram.com/t51.2885-15/e35/12543354_1684012638538361_196413831_n.jpg?ig_cache_key=MTE3MTQ4OTk3ODExMjA4OTYyOA%3D%3D.2,footwear,0.9997469186782837
,foot,0.9995147585868835
,fashion,0.9992773532867432
,wear,0.9984461665153503
,leather,0.9955381155014038
,pants,0.9903726577758789
,woman,0.9885121583938599
,shoe,0.9885013699531555
,denim,0.9869251251220703
,girl,0.9810693264007568
,people,0.9794819355010986
,casual,0.9754966497421265
,couple,0.9648939967155457
,two,0.9632634520530701
,sneakers,0.9497776031494141
,man,0.9493916034698486
,color,0.9165831804275513
,sole,0.9099735617637634
,dress,0.8832370042800903
,fashionable,0.8543236255645752
https://scontent.cdninstagram.com/t51.2885-15/e35/12547454_466110006925962_8366821_n.jpg?ig_cache_key=MTE2ODgxODAyMTg4MTE1OTQ4Nw%3D%3D.2,woman,0.9666916131973267
,people,0.9663605690002441
,group,0.9387843608856201
,fun,0.9200339317321777
,family,0.917130708694458
,group,0.9074571132659912
,portrait,0.904862642288208
,adult,0.8914774060249329
,celebration,0.8838027715682983
,girl,0.879231333732605
,friendship,0.8738913536071777
,indoors,0.8343985676765442
,happiness,0.8332381248474121
,young,0.8238403797149658
,party,0.8184304237365723
,smile,0.8044159412384033
,laughing,0.7938693761825562
,beautiful,0.7769529223442078
,joy,0.7682791948318481
,music,0.767169713973999
https://scontent.cdninstagram.com/t51.2885-15/e35/13398914_921827944609821_1532059401_n.jpg?ig_cache_key=MTI2NTk5MjU1MjE3NzAxNjM5Mw%3D%3D.2,group,0.9907560348510742
,group,0.9853414297103882
,woman,0.9682372808456421
,people,0.9639753699302673
,man,0.958498477935791
,enjoyment,0.9542360305786133
,four,0.9514487981796265
,adult,0.9410389065742493
,facial expression,0.9364588856697083
,five,0.9239152669906616
,friendship,0.9195196628570557
,portrait,0.9068990349769592
,competition,0.9042276740074158
,togetherness,0.9025098085403442
,child,0.8986721038818359
,recreation,0.8976051807403564
,vehicle,0.884218692779541
,family,0.8746408224105835
,many,0.874610960483551
,wear,0.8680657148361206
https://scontent.cdninstagram.com/t51.2885-15/e35/13320076_988847964562064_804054455_n.jpg?ig_cache_key=MTI2Nzk2MTc5NDgyNDgzODc0NQ%3D%3D.2,woman,0.9947049617767334
,nude,0.9793866872787476
,girl,0.9695034027099609
,portrait,0.9649614095687866
,pretty,0.9575888514518738
,people,0.943200945854187
,sexy,0.9384759664535522
,fashion,0.9196696281433105
,eye,0.8971723318099976
,adolescent,0.8760257959365845
,model,0.8647811412811279
,long,0.8520692586898804
,hair,0.8408874273300171
,skin,0.8366795778274536
,indoors,0.8229085803031921
,young,0.8194382786750793
,cute,0.8191663026809692
,facial expression,0.8081281185150146
,lips,0.8059101104736328
,glamour,0.8004463911056519
https://scontent.cdninstagram.com/t51.2885-15/e35/13398914_921827944609821_1532059401_n.jpg?ig_cache_key=MTI2NTk5MjU1MjE3NzAxNjM5Mw%3D%3D.2,group,0.9907560348510742
,group,0.9853414297103882
,woman,0.9682372808456421
,people,0.9639753699302673
,man,0.958498477935791
,enjoyment,0.9542360305786133
,four,0.9514487981796265
,adult,0.9410389065742493
,facial expression,0.9364588856697083
,five,0.9239152669906616
,friendship,0.9195196628570557
,portrait,0.9068990349769592
,competition,0.9042276740074158
,togetherness,0.9025098085403442
,child,0.8986721038818359
,recreation,0.8976051807403564
,vehicle,0.884218692779541
,family,0.8746408224105835
,many,0.874610960483551
,wear,0.8680657148361206
https://scontent.cdninstagram.com/t51.2885-15/e35/13320076_988847964562064_804054455_n.jpg?ig_cache_key=MTI2Nzk2MTc5NDgyNDgzODc0NQ%3D%3D.2,woman,0.9947049617767334
,nude,0.9793866872787476
,girl,0.9695034027099609
,portrait,0.9649614095687866
,pretty,0.9575888514518738
,people,0.943200945854187
,sexy,0.9384759664535522
,fashion,0.9196696281433105
,eye,0.8971723318099976
,adolescent,0.8760257959365845
,model,0.8647811412811279
,long,0.8520692586898804
,hair,0.8408874273300171
,skin,0.8366795778274536
,indoors,0.8229085803031921
,young,0.8194382786750793
,cute,0.8191663026809692
,facial expression,0.8081281185150146
,lips,0.8059101104736328
,glamour,0.8004463911056519
https://scontent.cdninstagram.com/t51.2885-15/e35/12547454_466110006925962_8366821_n.jpg?ig_cache_key=MTE2ODgxODAyMTg4MTE1OTQ4Nw%3D%3D.2,woman,0.9666916131973267
,people,0.9663605690002441
,group,0.9387843608856201
,fun,0.9200339317321777
,family,0.917130708694458
,group,0.9074571132659912
,portrait,0.904862642288208
,adult,0.8914774060249329
,celebration,0.8838027715682983
,girl,0.879231333732605
,friendship,0.8738913536071777
,indoors,0.8343985676765442
,happiness,0.8332381248474121
,young,0.8238403797149658
,party,0.8184304237365723
,smile,0.8044159412384033
,laughing,0.7938693761825562
,beautiful,0.7769529223442078
,joy,0.7682791948318481
,music,0.767169713973999
https://scontent.cdninstagram.com/t51.2885-15/e35/13259041_1743935709154996_868192586_n.jpg?ig_cache_key=MTI2MDY3NTcyMjMyNzY5NTM1Nw%3D%3D.2,group,0.9775537252426147
,group,0.9740728735923767
,music,0.9722903966903687
,competition,0.9694820642471313
,wear,0.9607954621315002
,band,0.9559280872344971
,people,0.9482007026672363
,woman,0.9443228840827942
,recreation,0.9400207996368408
,performance,0.9362768530845642
,many,0.9294832944869995
,energy,0.9108343124389648
,festival,0.9037041664123535
,enjoyment,0.8985968828201294
,singer,0.8952358961105347
,athlete,0.8943814039230347
,man,0.8935716152191162
,motion,0.8903526663780212
,adult,0.8724538683891296
,concert,0.859437882900238
https://scontent.cdninstagram.com/t51.2885-15/s750x750/sh0.08/e35/10296852_1684469111828192_1413324711_n.jpg?ig_cache_key=MTIwMTU0MjA3NjcxNTMxMDQ4Mw%3D%3D.2,woman,0.9874153137207031
,people,0.9698036313056946
,love,0.967857301235199
,girl,0.9670231342315674
,togetherness,0.958195686340332
,portrait,0.9461930394172668
,two,0.9449052810668945
,fun,0.9401926398277283
,beautiful,0.9385679960250854
,family,0.9285306930541992
,young,0.9238898754119873
,pretty,0.9190510511398315
,happiness,0.9148451089859009
,laughing,0.9082109928131104
,joy,0.9081701040267944
,indoors,0.9060554504394531
,smile,0.9049545526504517
,adult,0.901352047920227
,cute,0.8990963697433472
,friendship,0.8975232839584351
https://scontent.cdninstagram.com/t51.2885-15/s750x750/sh0.08/e35/12751559_1029152967143477_388663245_n.jpg?ig_cache_key=MTIwMDgwNDM4OTU5MDk5ODc1OA%3D%3D.2,woman,0.9875750541687012
,portrait,0.9798064827919006
,fashion,0.9780340194702148
,girl,0.9701875448226929
,people,0.9618573188781738
,model,0.9611411094665527
,dark,0.9467014074325562
,nightlife,0.9358933568000793
,party,0.9336519837379456
,dress,0.9165936708450317
,music,0.9158158898353577
,man,0.9146600961685181
,glamour,0.8906625509262085
,love,0.8855973482131958
,sexy,0.8841314315795898
,punk,0.8743411302566528
,festival,0.8678460121154785
,backstage,0.8654964566230774
,fun,0.852193295955658
,band,0.8314861059188843
https://scontent.cdninstagram.com/t51.2885-15/s750x750/sh0.08/e35/12751559_1029152967143477_388663245_n.jpg?ig_cache_key=MTIwMDgwNDM4OTU5MDk5ODc1OA%3D%3D.2,woman,0.9875750541687012
,portrait,0.9798064827919006
,fashion,0.9780340194702148
,girl,0.9701875448226929
,people,0.9618573188781738
,model,0.9611411094665527
,dark,0.9467014074325562
,nightlife,0.9358933568000793
,party,0.9336519837379456
,dress,0.9165936708450317
,music,0.9158158898353577
,man,0.9146600961685181
,glamour,0.8906625509262085
,love,0.8855973482131958
,sexy,0.8841314315795898
,punk,0.8743411302566528
,festival,0.8678460121154785
,backstage,0.8654964566230774
,fun,0.852193295955658
,band,0.8314861059188843
https://scontent.cdninstagram.com/t51.2885-15/e35/13381121_1616847071962786_243357393_n.jpg?ig_cache_key=MTI2NjYxMDUxNzM4MTU1MzY0Nw%3D%3D.2,woman,0.990257978439331
,people,0.9756385087966919
,portrait,0.9681847095489502
,facial expression,0.9402198791503906
,girl,0.9364113807678223
,indoors,0.9296551942825317
,fun,0.9195747375488281
,laughing,0.917449414730072
,togetherness,0.9169700145721436
,friendship,0.9064537882804871
,child,0.9055790305137634
,enjoyment,0.9041697978973389
,family,0.8894668221473694
,adolescent,0.8861609697341919
,love,0.8741689920425415
,happiness,0.8673291206359863
,adult,0.8560454249382019
,wear,0.8559696674346924
,fashion,0.8415897488594055
,joy,0.8263847827911377
https://scontent.cdninstagram.com/t51.2885-15/e35/13298186_975608969155716_1732557120_n.jpg?ig_cache_key=MTI2Mjk0MDI4NjAxMjQzMjMyOA%3D%3D.2,no person,0.998366117477417
,dairy product,0.9968162775039673
,food,0.9959899187088013
,fruit,0.9867197871208191
,sweet,0.9855708479881287
,delicious,0.9847581386566162
,grow,0.9834572672843933
,creamy,0.9794015288352966
,cream,0.9773768186569214
,sugar,0.9728689789772034
,baking,0.9718183279037476
,caramel,0.9706844091415405
,chocolate,0.9685872197151184
,homemade,0.9468913078308105
,cake,0.9464654922485352
,indulgence,0.9405767917633057
,pudding,0.9310888051986694
,breakfast,0.9304426908493042
,plate,0.9282354116439819
,vanilla,0.921967625617981
https://scontent.cdninstagram.com/t51.2885-15/e35/12751474_191013374602892_1042801109_n.jpg?ig_cache_key=MTE5ODU4Mzg5MTgwMDk1NjM5OQ%3D%3D.2,child,0.9957836866378784
,boy,0.9774578213691711
,people,0.9747189879417419
,baby,0.9685114622116089
,family,0.9525563716888428
,room,0.8996263742446899
,group,0.8898767828941345
,two,0.8784083127975464
,offspring,0.864916205406189
,indoors,0.8619828224182129
,sibling,0.8570696115493774
,three,0.8509129285812378
,girl,0.8369224667549133
,portrait,0.8298034071922302
,adult,0.8291577696800232
,furniture,0.8211926817893982
,fun,0.7828904986381531
,wear,0.7754155397415161
,four,0.7577327489852905
,one,0.7495813965797424
https://scontent.cdninstagram.com/t51.2885-15/e35/13259041_1743935709154996_868192586_n.jpg?ig_cache_key=MTI2MDY3NTcyMjMyNzY5NTM1Nw%3D%3D.2,group,0.9775537252426147
,group,0.9740728735923767
,music,0.9722903966903687
,competition,0.9694820642471313
,wear,0.9607954621315002
,band,0.9559280872344971
,people,0.9482007026672363
,woman,0.9443228840827942
,recreation,0.9400207996368408
,performance,0.9362768530845642
,many,0.9294832944869995
,energy,0.9108343124389648
,festival,0.9037041664123535
,enjoyment,0.8985968828201294
,singer,0.8952358961105347
,athlete,0.8943814039230347
,man,0.8935716152191162
,motion,0.8903526663780212
,adult,0.8724538683891296
,concert,0.859437882900238
https://scontent.cdninstagram.com/t51.2885-15/e35/12545318_193001677724890_1950252243_n.jpg?ig_cache_key=MTE3OTUzODgwNzc1MTI1MzAxOA%3D%3D.2,mammal,0.9891552925109863
,woman,0.98729407787323
,cute,0.9830567836761475
,pet,0.9808581471443176
,dog,0.9634493589401245
,one,0.9626286029815674
,love,0.9591406583786011
,people,0.9521054029464722
,friendship,0.951278567314148
,young,0.9430060386657715
,child,0.9413511753082275
,cat,0.940077543258667
,girl,0.9361937642097473
,fun,0.9344843626022339
,portrait,0.9315727949142456
,adult,0.9265725016593933
,animal,0.92232346534729
,pretty,0.9199207425117493
,little,0.89688640832901
,affection,0.8929136395454407
https://scontent.cdninstagram.com/t51.2885-15/e35/13269526_249241858770067_952029543_n.jpg?ig_cache_key=MTI2MjE5MTQzOTA3ODMwMTUyMQ%3D%3D.2,bed,0.9961968660354614
,bedroom,0.9946640729904175
,room,0.9860500693321228
,family,0.9855289459228516
,people,0.978737473487854
,furniture,0.9779126644134521
,indoors,0.968410849571228
,woman,0.9654343724250793
,adult,0.9548332691192627
,facial expression,0.9545152187347412
,girl,0.9517980217933655
,reclining,0.9462286233901978
,pajamas,0.9429874420166016
,two,0.9360498189926147
,happiness,0.9142900705337524
,enjoyment,0.9127824306488037
,child,0.9116925001144409
,dawn,0.9024953842163086
,portrait,0.8979626893997192
,youth,0.8961646556854248
https://scontent.cdninstagram.com/t51.2885-15/e35/12784011_551308058378877_450636988_n.jpg?ig_cache_key=MTE5NzEwNTYwMDAxMTI0NzM4MA%3D%3D.2,bar,0.9870673418045044
,wine,0.9859393835067749
,woman,0.9764114618301392
,party,0.9730989933013916
,people,0.9683115482330322
,celebration,0.952983021736145
,restaurant,0.9510440230369568
,luxury,0.9381128549575806
,alcohol,0.9366713762283325
,fun,0.9165781736373901
,fashion,0.9155688881874084
,young,0.9084248542785645
,drink,0.9081990122795105
,indoors,0.8985857963562012
,shopping,0.8982353806495667
,champagne,0.8951013684272766
,adult,0.885226845741272
,stock,0.8833392262458801
,portrait,0.8823878765106201
,girl,0.8744957447052002
https://scontent.cdninstagram.com/t51.2885-15/e35/12751474_191013374602892_1042801109_n.jpg?ig_cache_key=MTE5ODU4Mzg5MTgwMDk1NjM5OQ%3D%3D.2,child,0.9957836866378784
,boy,0.9774578213691711
,people,0.9747189879417419
,baby,0.9685114622116089
,family,0.9525563716888428
,room,0.8996263742446899
,group,0.8898767828941345
,two,0.8784083127975464
,offspring,0.864916205406189
,indoors,0.8619828224182129
,sibling,0.8570696115493774
,three,0.8509129285812378
,girl,0.8369224667549133
,portrait,0.8298034071922302
,adult,0.8291577696800232
,furniture,0.8211926817893982
,fun,0.7828904986381531
,wear,0.7754155397415161
,four,0.7577327489852905
,one,0.7495813965797424
https://scontent.cdninstagram.com/t51.2885-15/e35/12328124_261929820805192_1724073114_n.jpg?ig_cache_key=MTIwNDE3NTY2MTk2ODQ2NTg4OA%3D%3D.2,woman,0.991386353969574
,indoors,0.9913678169250488
,family,0.9729964733123779
,people,0.972685694694519
,one,0.9662047624588013
,girl,0.9483813047409058
,adult,0.9452027678489685
,portrait,0.9340013265609741
,telephone,0.9278643727302551
,maternity,0.9266195297241211
,fashion,0.9199687838554382
,wear,0.8482105731964111
,room,0.8371865749359131
,anticipation,0.834209680557251
,music,0.833793580532074
,looking,0.7945815324783325
,model,0.7880521416664124
,house,0.7479488253593445
,military,0.7427977323532104
,business,0.7391242980957031
https://scontent.cdninstagram.com/t51.2885-15/s750x750/sh0.08/e35/10296852_1684469111828192_1413324711_n.jpg?ig_cache_key=MTIwMTU0MjA3NjcxNTMxMDQ4Mw%3D%3D.2,woman,0.9874153137207031
,people,0.9698036313056946
,love,0.967857301235199
,girl,0.9670231342315674
,togetherness,0.958195686340332
,portrait,0.9461930394172668
,two,0.9449052810668945
,fun,0.9401926398277283
,beautiful,0.9385679960250854
,family,0.9285306930541992
,young,0.9238898754119873
,pretty,0.9190510511398315
,happiness,0.9148451089859009
,laughing,0.9082109928131104
,joy,0.9081701040267944
,indoors,0.9060554504394531
,smile,0.9049545526504517
,adult,0.901352047920227
,cute,0.8990963697433472
,friendship,0.8975232839584351
https://scontent.cdninstagram.com/t51.2885-15/e35/13266735_314414955576820_2113216747_n.jpg?ig_cache_key=MTI2MTUzMzk4MTUwNjg3MDcyMQ%3D%3D.2,beach,0.9990423321723938
,bikini,0.9973199367523193
,people,0.9903498291969299
,sand,0.9903227686882019
,water,0.9874486923217773
,seashore,0.9872664213180542
,vacation,0.9839838743209839
,resort,0.9833682775497437
,ocean,0.9766978025436401
,leisure,0.9759290218353271
,recreation,0.9745752811431885
,travel,0.9744671583175659
,summer,0.9742175340652466
,girl,0.9662818908691406
,sea,0.9596999883651733
,woman,0.9541688561439514
,adult,0.9453334808349609
,tan,0.9346837997436523
,enjoyment,0.9312830567359924
,swimsuit,0.9291658401489258
https://scontent.cdninstagram.com/t51.2885-15/e35/12816854_471388643068368_282622839_n.jpg?ig_cache_key=MTIwMzU3NzAxMzUzMDMzNjgzMw%3D%3D.2,woman,0.9921908378601074
,wear,0.9912475347518921
,people,0.9876371622085571
,outdoors,0.986616313457489
,man,0.9765387773513794
,adult,0.9668217897415161
,two,0.966063380241394
,portrait,0.9476189613342285
,daylight,0.9325165748596191
,facial expression,0.9324562549591064
,togetherness,0.9209946990013123
,love,0.9070895910263062
,traditional,0.906208872795105
,travel,0.8924752473831177
,veil,0.887161135673523
,religion,0.8779009580612183
,scarf,0.8721925020217896
,ceremony,0.8666006326675415
,fashion,0.8652163147926331
,festival,0.8612890243530273
https://scontent.cdninstagram.com/t51.2885-15/e35/12816854_471388643068368_282622839_n.jpg?ig_cache_key=MTIwMzU3NzAxMzUzMDMzNjgzMw%3D%3D.2,woman,0.9921908378601074
,wear,0.9912475347518921
,people,0.9876371622085571
,outdoors,0.986616313457489
,man,0.9765387773513794
,adult,0.9668217897415161
,two,0.966063380241394
,portrait,0.9476189613342285
,daylight,0.9325165748596191
,facial expression,0.9324562549591064
,togetherness,0.9209946990013123
,love,0.9070895910263062
,traditional,0.906208872795105
,travel,0.8924752473831177
,veil,0.887161135673523
,religion,0.8779009580612183
,scarf,0.8721925020217896
,ceremony,0.8666006326675415
,fashion,0.8652163147926331
,festival,0.8612890243530273
>>>>>>> origin/dev-billy-neuro
