url,class,score
https://scontent.cdninstagram.com/t51.2885-15/e35/13398581_617205575123133_2130098053_n.jpg,people,0.9862371683120728
,group,0.9825893044471741
,wear,0.9770449995994568
,woman,0.9743802547454834
,adult,0.9656243324279785
,portrait,0.9571999311447144
,festival,0.9425259828567505
,happiness,0.9417054653167725
,exhibition,0.9410816431045532
,facial expression,0.9375799298286438
,movie,0.9239673614501953
,actress,0.9188045263290405
,dress,0.9178816676139832
,celebration,0.9135619401931763
,family,0.9074931144714355
,man,0.9017652273178101
,ceremony,0.8918746709823608
,girl,0.87149578332901
,four,0.8676782846450806
,room,0.8626335859298706
https://scontent.cdninstagram.com/t51.2885-15/e35/13116645_128229184248187_2022307262_n.jpg,woman,0.9919632077217102
,fashion,0.9675030708312988
,people,0.9573236703872681
,portrait,0.9498671293258667
,friendship,0.9392765164375305
,wear,0.9381077289581299
,togetherness,0.9300011396408081
,adult,0.9081149101257324
,facial expression,0.9079840183258057
,two,0.9000388383865356
,shopping,0.8990557193756104
,indoors,0.8902327418327332
,man,0.8882839679718018
,girl,0.8780994415283203
,love,0.8584616184234619
,music,0.8495713472366333
,enjoyment,0.8459471464157104
,group,0.8402589559555054
,recreation,0.8399291038513184
,movie,0.8301754593849182
https://scontent.cdninstagram.com/t51.2885-15/e15/p640x640/13408761_251821665174027_1460839117_n.jpg,tropical,0.9868650436401367
,drink,0.9838560819625854
,coffee,0.9754786491394043
,leaf,0.9728507399559021
,palm,0.9662925004959106
,flora,0.9641044735908508
,flower,0.9567674994468689
,resort,0.955981969833374
,food,0.9525019526481628
,summer,0.9522799253463745
,garden,0.9485510587692261
,nature,0.9253150224685669
,patio,0.9186402559280396
,relaxation,0.9185918569564819
,growth,0.9124488830566406
,pot,0.9090694189071655
,exotic,0.9074375629425049
,hot,0.8987181782722473
,tea,0.8985373973846436
,tree,0.8905327320098877
https://scontent.cdninstagram.com/t51.2885-15/e35/13398681_1152430774788204_854764766_n.jpg,people,0.9928982257843018
,portrait,0.9924198389053345
,girl,0.9918312430381775
,woman,0.9872477054595947
,adult,0.9822545051574707
,one,0.981448769569397
,veil,0.9577876925468445
,brunette,0.9576456546783447
,lid,0.9525730609893799
,facial expression,0.949637234210968
,wear,0.9457755088806152
,child,0.9413701295852661
,model,0.9086674451828003
,happiness,0.8954593539237976
,face,0.8919994831085205
,indoors,0.8869043588638306
,fashion,0.8838040828704834
,hairdo,0.8404463529586792
,cute,0.8107793927192688
,room,0.8102864027023315
https://scontent.cdninstagram.com/t51.2885-15/e35/13102484_811881952276697_1052932261_n.jpg,facial expression,0.9941447973251343
,portrait,0.9899144172668457
,adult,0.9885163307189941
,people,0.9874088764190674
,wear,0.9872019290924072
,woman,0.9786252975463867
,girl,0.9750906229019165
,boy,0.9676356315612793
,two,0.9673175811767578
,one,0.9632743000984192
,happiness,0.9376698136329651
,child,0.9328382611274719
,indoors,0.932284951210022
,brunette,0.9201314449310303
,togetherness,0.9142967462539673
,man,0.8869420289993286
,offspring,0.8832663297653198
,love,0.8825271725654602
,cute,0.8762301802635193
,enjoyment,0.8759487271308899
https://scontent.cdninstagram.com/t51.2885-15/e35/13099067_269110560107171_2133839362_n.jpg,dog,0.9994173049926758
,canine,0.9989503026008606
,poodle,0.9978965520858765
,mammal,0.9978442192077637
,puppy,0.9971722960472107
,cute,0.9961264729499817
,pet,0.9954941868782043
,fur,0.9921422004699707
,animal,0.989549458026886
,little,0.9836719036102295
,downy,0.9783961176872253
,portrait,0.973983645439148
,no person,0.972570538520813
,breed,0.9693787097930908
,funny,0.9662754535675049
,toy,0.9595072269439697
,domestic,0.9594838619232178
,sit,0.9559151530265808
,one,0.953076183795929
,adorable,0.9520807266235352
https://scontent.cdninstagram.com/t51.2885-15/s750x750/sh0.08/e35/12750118_1037122209670226_419687402_n.jpg,togetherness,0.9896731376647949
,woman,0.9864860773086548
,facial expression,0.9863549470901489
,people,0.9713598489761353
,affection,0.9653370380401611
,portrait,0.9634017944335938
,man,0.9585021734237671
,two,0.9583828449249268
,love,0.9575201272964478
,embrace,0.956122875213623
,wear,0.955466628074646
,outdoors,0.9498940706253052
,interaction,0.9497323632240295
,enjoyment,0.9410432577133179
,friendship,0.9380499124526978
,daylight,0.9258732795715332
,adult,0.9136016368865967
,adolescent,0.9097948670387268
,leisure,0.9081000685691833
,happiness,0.8947705626487732
https://scontent.cdninstagram.com/t51.2885-15/e35/13422826_1749423951973667_546059037_n.jpg,people,0.9932217001914978
,adult,0.9786281585693359
,group,0.971136212348938
,woman,0.9673311710357666
,two,0.9513377547264099
,wear,0.9410561323165894
,daylight,0.934674859046936
,commerce,0.9269171953201294
,portrait,0.9211516380310059
,man,0.9152458310127258
,family,0.9133623838424683
,happiness,0.8975791335105896
,stock,0.8829807043075562
,outdoors,0.8822371959686279
,facial expression,0.8793385028839111
,house,0.8608664274215698
,interaction,0.853988528251648
,street,0.8384490013122559
,three,0.8309253454208374
,enjoyment,0.8279755711555481
https://scontent.cdninstagram.com/t51.2885-15/e35/12748158_1503102986664274_693062749_n.jpg,no person,0.9903567433357239
,mammal,0.9817507266998291
,cage,0.9569772481918335
,one,0.9261190891265869
,indoors,0.9250361919403076
,business,0.9030672907829285
,people,0.891187310218811
,industry,0.8870707750320435
,dog,0.8828390836715698
,music,0.8761168122291565
,commerce,0.8755548000335693
,stock,0.8738788366317749
,vehicle,0.8421341180801392
,transportation system,0.8401362895965576
,pet,0.8343743085861206
,animal,0.8282680511474609
,two,0.8116350173950195
,shopping,0.794850766658783
,desktop,0.7854100465774536
,daylight,0.7775802612304688
https://scontent.cdninstagram.com/t51.2885-15/e35/13102487_1709790529279487_1558183873_n.jpg,chocolate,0.9981412291526794
,no person,0.9977309703826904
,delicious,0.9890967607498169
,baking,0.9858802556991577
,sweet,0.9857445955276489
,sugar,0.9851144552230835
,cake,0.9805413484573364
,candy,0.9716498851776123
,cream,0.9710745215415955
,indulgence,0.9696803092956543
,food,0.960037350654602
,homemade,0.9577133655548096
,Christmas,0.9539791345596313
,unhealthy,0.9467840194702148
,sprinkles,0.9464215636253357
,pastry,0.9334625005722046
,whipped cream,0.9283316731452942
,temptation,0.9104229211807251
,vanilla,0.9060021042823792
,birthday,0.9024014472961426
https://scontent.cdninstagram.com/t51.2885-15/e35/13413262_530232517178399_1165770466_n.jpg,food,0.9942296147346497
,people,0.9720145463943481
,meal,0.9710021018981934
,cooking,0.9552999138832092
,restaurant,0.9397287368774414
,seafood,0.9384238719940186
,dinner,0.937697172164917
,pasta,0.9344631433486938
,lunch,0.9317530393600464
,cuisine,0.9080027341842651
,vegetable,0.8890973329544067
,spaghetti,0.8844799995422363
,chef,0.8677120804786682
,table,0.8668333292007446
,adult,0.8614468574523926
,noodles,0.8611860275268555
,dish,0.8605375289916992
,traditional,0.8534753322601318
,plate,0.8389734625816345
,meat,0.8175606727600098
https://scontent.cdninstagram.com/t51.2885-15/e35/12424611_1562125760778489_1023509537_n.jpg,woman,0.9816445708274841
,people,0.9812188744544983
,group,0.9804127216339111
,girl,0.9753233790397644
,happiness,0.9733478426933289
,portrait,0.9704158902168274
,facial expression,0.9523049592971802
,adult,0.9462767243385315
,togetherness,0.9384707808494568
,child,0.9353199005126953
,laughing,0.9321606159210205
,man,0.929872453212738
,three,0.9240095615386963
,group,0.9137269258499146
,fun,0.9090341329574585
,family,0.9042738080024719
,friendship,0.9028493165969849
,four,0.8907039165496826
,wear,0.8846368193626404
,smile,0.8831232190132141
https://scontent.cdninstagram.com/t51.2885-15/e35/12501906_1565140253804473_1746847634_n.jpg,bed,0.9976824522018433
,bedroom,0.987425684928894
,cover,0.9871059656143188
,family,0.9841523766517639
,toy,0.9823454022407532
,dog,0.9821443557739258
,indoors,0.9806013703346252
,one,0.9804366230964661
,room,0.980266273021698
,baby,0.9801903963088989
,pillow,0.9749817848205566
,people,0.9738461971282959
,child,0.973219633102417
,cute,0.9689710140228271
,sofa,0.9665260910987854
,sleep,0.9642513990402222
,love,0.9633579850196838
,boy,0.9629347324371338
,little,0.9626251459121704
,two,0.9504281282424927
https://scontent.cdninstagram.com/t51.2885-15/e35/13267563_270104356666841_93508869_n.jpg,illustration,0.9954035878181458
,people,0.983391523361206
,painting,0.9739484786987305
,art,0.9664511680603027
,no person,0.9586383700370789
,child,0.9546037316322327
,man,0.9374319314956665
,picture frame,0.931815505027771
,woman,0.9304838180541992
,sketch,0.9179937839508057
,image,0.8911007642745972
,vector,0.8874615430831909
,adult,0.8867987394332886
,exhibition,0.872819721698761
,Christmas,0.8713499307632446
,bill,0.8709362745285034
,book,0.8694883584976196
,book,0.8603010177612305
,graphic,0.8557770252227783
,religion,0.8470964431762695
https://scontent.cdninstagram.com/t51.2885-15/e15/12328281_472853222924753_1800512170_n.jpg,face,0.9883192777633667
,woman,0.9861171245574951
,beautiful,0.9858483076095581
,portrait,0.985084056854248
,young,0.9817571640014648
,fashion,0.9776624441146851
,girl,0.9736976623535156
,glamour,0.9642571210861206
,adult,0.9617022275924683
,attractive,0.951826274394989
,lips,0.9418572187423706
,model,0.9373620748519897
,hair,0.9341769814491272
,eye,0.9335607290267944
,skin,0.93352210521698
,brunette,0.9310654997825623
,people,0.9282634258270264
,person,0.925037145614624
,pretty,0.920845091342926
,closeup,0.9191254377365112
https://scontent.cdninstagram.com/t51.2885-15/e35/12818997_201835053511445_1092606022_n.jpg,woman,0.984941840171814
,people,0.9770084619522095
,portrait,0.9675952196121216
,family,0.9187973737716675
,outdoors,0.9095892906188965
,group,0.875091552734375
,friendship,0.8649178743362427
,three,0.8537830710411072
,happiness,0.8488755822181702
,street,0.8422854542732239
,girl,0.8405662775039673
,fun,0.839107096195221
,two,0.8368523120880127
,togetherness,0.8357027769088745
,university,0.8342390060424805
,laughing,0.8317909836769104
,love,0.8163368701934814
,adult,0.8154025077819824
,education,0.8140784502029419
,enjoyment,0.8088768720626831
https://scontent.cdninstagram.com/t51.2885-15/e15/12783915_368623573308288_1342822604_n.jpg,cute,0.9846700429916382
,little,0.9840992093086243
,baby,0.9839946031570435
,downy,0.9837259650230408
,one,0.9817131757736206
,newborn,0.9698984026908875
,people,0.9632631540298462
,tiny,0.9621036052703857
,rodent,0.9535045027732849
,no person,0.9527034759521484
,mammal,0.9423260688781738
,medicine,0.9365514516830444
,portrait,0.9287476539611816
,fur,0.9260569214820862
,child,0.9108089208602905
,healthcare,0.9054127931594849
,care,0.9045678377151489
,pet,0.9042370319366455
,love,0.9023885726928711
,albino,0.8999882936477661
https://scontent.cdninstagram.com/t51.2885-15/e35/13329169_524486947742806_140587439_n.jpg,airplane,0.9925042986869812
,travel,0.9917588233947754
,no person,0.9910520315170288
,sky,0.9893584251403809
,aircraft,0.9691174626350403
,transportation system,0.9668396711349487
,outdoors,0.9493657350540161
,airport,0.945508599281311
,water,0.9389436841011047
,vehicle,0.9222561120986938
,summer,0.8937506675720215
,vacation,0.8848890662193298
,landscape,0.8779547214508057
,sea,0.8767269849777222
,travel,0.8667923808097839
,fair weather,0.8624262809753418
,daylight,0.8598105907440186
,sun,0.8569374084472656
,ocean,0.8499274849891663
,flight,0.8477354049682617
https://scontent.cdninstagram.com/t51.2885-15/e35/12747570_1514974295471594_1565640252_n.jpg,woman,0.9928368330001831
,people,0.954782247543335
,fashion,0.953993558883667
,indoors,0.9461179375648499
,pretty,0.9211766719818115
,portrait,0.9186890125274658
,adolescent,0.8960707187652588
,sexy,0.8809632062911987
,glamour,0.8763976097106934
,one,0.8730204105377197
,cute,0.851978600025177
,girl,0.8480584621429443
,child,0.8223928213119507
,wear,0.8084332942962646
,enjoyment,0.7971518039703369
,eye,0.7965627908706665
,relaxation,0.7913188934326172
,looking,0.7817783355712891
,skin,0.7771186828613281
,young,0.770180881023407
https://scontent.cdninstagram.com/t51.2885-15/e35/12445960_1732851403639151_186446370_n.jpg,woman,0.9841645956039429
,girl,0.9715734720230103
,portrait,0.9567006826400757
,fashion,0.9560246467590332
,one,0.9528403282165527
,wear,0.9391472339630127
,adult,0.8947533965110779
,pretty,0.8866838216781616
,indoors,0.8627693057060242
,brunette,0.8578855991363525
,model,0.8508670330047607
,facial expression,0.8329950571060181
,people,0.8221895694732666
,footwear,0.820235550403595
,blouse,0.7998905777931213
,casual,0.7763968706130981
,adolescent,0.7757247686386108
,young,0.7680935859680176
,dress,0.7669222354888916
,miniskirt,0.7578517198562622
https://scontent.cdninstagram.com/t51.2885-15/e35/13355557_1731335530445647_1467737356_n.jpg,people,0.9933822751045227
,airport,0.9901269674301147
,indoors,0.9597948789596558
,city,0.9585556387901306
,woman,0.9520169496536255
,tube,0.9502135515213013
,adult,0.9495369791984558
,exhibition,0.9470754861831665
,business,0.9458502531051636
,departure,0.942301332950592
,transportation system,0.9263017177581787
,stock,0.9231290817260742
,industry,0.9207437038421631
,luggage,0.9190506935119629
,railway,0.9108504056930542
,production,0.9083447456359863
,grinder,0.9082698822021484
,portrait,0.9082241058349609
,urban,0.9050249457359314
,vehicle,0.9047670364379883
https://scontent.cdninstagram.com/t51.2885-15/sh0.08/e35/p750x750/13249925_1123681147695807_1661424601_n.jpg,woman,0.9943633079528809
,facial expression,0.9802243709564209
,people,0.9791537523269653
,indoors,0.976679801940918
,wear,0.9700033664703369
,enjoyment,0.9571017026901245
,adult,0.9473802447319031
,one,0.9405943751335144
,love,0.9399598836898804
,portrait,0.9356962442398071
,fun,0.9211941361427307
,fashion,0.9165830016136169
,togetherness,0.9121830463409424
,two,0.8877432346343994
,affection,0.8823682069778442
,girl,0.8615473508834839
,happiness,0.85072922706604
,embrace,0.8501629829406738
,glamour,0.8451294302940369
,brunette,0.8403857946395874
https://scontent.cdninstagram.com/t51.2885-15/s750x750/sh0.08/e35/10533599_210758655929580_1292452645_n.jpg,portrait,0.9919651746749878
,woman,0.9848291873931885
,people,0.9841822385787964
,fashion,0.977789044380188
,festival,0.9683422446250916
,girl,0.9649696946144104
,adult,0.9529513120651245
,model,0.9502323269844055
,wear,0.9492863416671753
,music,0.9453425407409668
,man,0.933626651763916
,movie,0.9248716831207275
,musician,0.9219158887863159
,singer,0.9051057696342468
,facial expression,0.8970428705215454
,brunette,0.893764317035675
,love,0.8936702013015747
,two,0.8874390125274658
,couple,0.8621043562889099
,glamour,0.8452868461608887
https://scontent.cdninstagram.com/t51.2885-15/e35/12751050_678175345666753_1171064285_n.jpg,woman,0.9922324419021606
,girl,0.9908127784729004
,portrait,0.9835692644119263
,people,0.9674965739250183
,computer,0.9640216827392578
,technology,0.9588892459869385
,laptop,0.9511361122131348
,model,0.937212347984314
,internet,0.9362289905548096
,brunette,0.9355543851852417
,adult,0.934703528881073
,one,0.9142308831214905
,portable,0.8867465853691101
,facial expression,0.879012942314148
,indoors,0.8652747273445129
,exhibition,0.8631840944290161
,museum,0.8585817813873291
,telephone,0.8542453050613403
,pretty,0.8476070165634155
,fashion,0.8472055196762085
https://scontent.cdninstagram.com/t51.2885-15/e35/13181478_1232006310143693_1920559968_n.jpg,no person,0.9968730211257935
,delicious,0.9854968786239624
,coffee,0.9789665937423706
,food,0.9775862693786621
,chocolate,0.9728702306747437
,sugar,0.9580971002578735
,cup,0.9500179886817932
,wood,0.9191750288009644
,scoop,0.9149028062820435
,sweet,0.9129462242126465
,milk,0.9112610220909119
,cream,0.9107698202133179
,taste,0.8923099040985107
,dark,0.8818858861923218
,dawn,0.8812623023986816
,homemade,0.8706141710281372
,breakfast,0.8659106492996216
,hot,0.8502271175384521
,caffeine,0.8441879749298096
,baking,0.8382845520973206
https://scontent.cdninstagram.com/t51.2885-15/e35/13402351_1317152754964803_217786642_n.jpg,dinner,0.9942700862884521
,meat,0.9879458546638489
,beef,0.9854958653450012
,steak,0.9839963912963867
,lunch,0.9831502437591553
,food,0.9796905517578125
,no person,0.9753518104553223
,meal,0.9722236394882202
,delicious,0.9675463438034058
,barbecue,0.9596214294433594
,pork,0.9536583423614502
,lettuce,0.9495847225189209
,plate,0.9477996826171875
,salad,0.9474276304244995
,juicy,0.940360426902771
,cooking,0.939754843711853
,dish,0.9335787296295166
,fillet,0.9330040216445923
,restaurant,0.9253617525100708
,nutrition,0.925307035446167
https://scontent.cdninstagram.com/t51.2885-15/e35/13277704_237710636601703_681341078_n.jpg,dog,0.9982300996780396
,canine,0.9944795370101929
,pet,0.9938540458679199
,cute,0.9935609102249146
,domestic,0.9908842444419861
,little,0.9884876012802124
,puppy,0.9875152707099915
,mammal,0.9823295474052429
,animal,0.9735708236694336
,funny,0.9727640748023987
,toy,0.9674851894378662
,adorable,0.962063729763031
,one,0.9532483816146851
,portrait,0.9513239860534668
,indoors,0.9432852864265442
,young,0.9382885694503784
,no person,0.9289774894714355
,child,0.9233884811401367
,fur,0.9225377440452576
,breed,0.9175760746002197
https://scontent.cdninstagram.com/t51.2885-15/e35/12545251_513421945491694_1556451664_n.jpg,woman,0.9729829430580139
,indoors,0.9723494052886963
,people,0.9714932441711426
,relaxation,0.9690849781036377
,child,0.9681389331817627
,girl,0.9501069784164429
,family,0.937308132648468
,adult,0.9340345859527588
,reclining,0.9338302612304688
,one,0.9275779128074646
,sleep,0.9263479709625244
,leisure,0.907916784286499
,portrait,0.9055595993995667
,bed,0.9004511833190918
,cute,0.8821168541908264
,baby,0.8758150339126587
,boy,0.8713223934173584
,treatment,0.8572660684585571
,lifestyle,0.8534702062606812
,youth,0.8456186056137085
https://scontent.cdninstagram.com/t51.2885-15/e35/13423037_138906843182146_1031670792_n.jpg,food,0.9910420775413513
,no person,0.9783868789672852
,sweet,0.9740996360778809
,chocolate,0.9656630754470825
,decoration,0.9562366008758545
,plate,0.9519739151000977
,sugar,0.9513441324234009
,desktop,0.927943229675293
,tableware,0.9211826324462891
,cake,0.9122853875160217
,people,0.9110132455825806
,candy,0.9110010862350464
,cream,0.9094349145889282
,fruit,0.9090723991394043
,still life,0.9071377515792847
,breakfast,0.9050987362861633
,flatware,0.902328372001648
,delicious,0.89792400598526
,color,0.8919639587402344
,pastry,0.8789523243904114
https://scontent.cdninstagram.com/t51.2885-15/e35/10844307_1129289080437201_707719101_n.jpg,group,0.9943975806236267
,many,0.9909816980361938
,people,0.9740489721298218
,school,0.9635289907455444
,portrait,0.9631658792495728
,woman,0.9621595144271851
,education,0.9578269124031067
,group,0.952385425567627
,adult,0.9454525709152222
,crowd,0.9242624044418335
,festival,0.9232420921325684
,singer,0.9121655821800232
,university,0.9081589579582214
,offense,0.889843225479126
,music,0.8882417678833008
,rally,0.8760699033737183
,performance,0.8728618025779724
,band,0.852995753288269
,musician,0.8506231307983398
,wear,0.844106912612915
https://scontent.cdninstagram.com/t51.2885-15/s640x640/sh0.08/e35/13391134_1540680719573335_1538727974_n.jpg,people,0.9825933575630188
,music,0.9731271266937256
,table,0.966890811920166
,speaker,0.9607671499252319
,room,0.9545109272003174
,indoors,0.9499902129173279
,sound,0.9481468200683594
,chair,0.9456964731216431
,furniture,0.9400186538696289
,adult,0.933975100517273
,one,0.9162317514419556
,loud,0.9078689813613892
,woman,0.894982099533081
,musician,0.8765013813972473
,performance,0.8644017577171326
,concert,0.862511157989502
,drum,0.8577755093574524
,instrument,0.8375582098960876
,classroom,0.8320322036743164
,percussion instrument,0.8173031806945801
https://scontent.cdninstagram.com/t51.2885-15/e35/12728482_242570819414506_1101033748_n.jpg,woman,0.9930547475814819
,portrait,0.9834269881248474
,girl,0.9796974062919617
,people,0.9703547954559326
,brunette,0.9468604326248169
,one,0.9446973204612732
,fashion,0.9410117864608765
,model,0.9357157945632935
,adult,0.9292111396789551
,indoors,0.9206079244613647
,pretty,0.8970837593078613
,wear,0.8881874084472656
,facial expression,0.8813318014144897
,relaxation,0.8594613075256348
,sexy,0.8577976226806641
,adolescent,0.8577171564102173
,hair,0.855411171913147
,bed,0.8342930674552917
,eye,0.8243952989578247
,cute,0.822240948677063
https://scontent.cdninstagram.com/t51.2885-15/e35/12345948_474746632708908_1139213940_n.jpg,decoration,0.9937858581542969
,pattern,0.9919441938400269
,art,0.9916418790817261
,abstract,0.9884260892868042
,design,0.9850473999977112
,illustration,0.9795600175857544
,style,0.9714991450309753
,texture,0.9606466889381409
,element,0.9584448337554932
,graphic,0.9572412371635437
,ornate,0.9543038606643677
,artistic,0.9497541189193726
,wallpaper,0.9465695023536682
,retro,0.9322330355644226
,desktop,0.9280261993408203
,shape,0.9008215665817261
,image,0.8792856931686401
,vector,0.8777706623077393
,geometric,0.8763231039047241
,line,0.8734750747680664
https://scontent.cdninstagram.com/t51.2885-15/e35/13394884_1136207873088580_794707737_n.jpg,people,0.9880017042160034
,woman,0.9759625196456909
,adult,0.9738618731498718
,outdoors,0.9478936195373535
,wear,0.943987250328064
,portrait,0.9404609203338623
,facial expression,0.9258806705474854
,daylight,0.9240743517875671
,interaction,0.9181021451950073
,two,0.8986443281173706
,man,0.8921949863433838
,one,0.8884673714637756
,offense,0.8836844563484192
,city,0.8738616704940796
,travel,0.8735458850860596
,street,0.8686040639877319
,rally,0.8558831214904785
,rebellion,0.8532514572143555
,group,0.8479527235031128
,battle,0.8357727527618408
https://scontent.cdninstagram.com/t51.2885-15/e35/13355540_1021650874579870_421025938_n.jpg,dog,0.9983402490615845
,canine,0.9932830333709717
,domestic,0.9904944896697998
,pet,0.9903357028961182
,puppy,0.9858048558235168
,portrait,0.981651782989502
,cute,0.9809302091598511
,mammal,0.9766439199447632
,little,0.958881139755249
,animal,0.9555466175079346
,adorable,0.945838987827301
,fur,0.9387035369873047
,funny,0.9350029826164246
,spaniel,0.9340819716453552
,indoors,0.9329759478569031
,poodle,0.9192308187484741
,sit,0.9190195798873901
,studio,0.9117780923843384
,one,0.9107617139816284
,humor,0.9086986780166626
https://scontent.cdninstagram.com/t51.2885-15/e35/12407708_1122931461070979_1822676464_n.jpg,business,0.956735372543335
,paper,0.9462922215461731
,people,0.9425411820411682
,woman,0.9418958425521851
,success,0.9338418841362
,luck,0.9253070950508118
,wealth,0.9180207252502441
,money,0.911622166633606
,stacks,0.9099519848823547
,one,0.9030194282531738
,man,0.8774111270904541
,chance,0.8675370812416077
,number,0.8656949996948242
,isolated,0.8466691970825195
,money,0.8359375
,risk,0.8178570866584778
,card,0.817601203918457
,adult,0.8117793798446655
,indoors,0.8100268840789795
,two,0.7934730648994446
https://scontent.cdninstagram.com/t51.2885-15/e35/12519203_436184933245902_1322713331_n.jpg,competition,0.9984224438667297
,basketball,0.9966202974319458
,athlete,0.9920644760131836
,game,0.9905988574028015
,wear,0.9859308004379272
,ball,0.9826807975769043
,adult,0.9752070903778076
,school,0.9726425409317017
,championship,0.9645551443099976
,group,0.9645216464996338
,sports equipment,0.9564434885978699
,match,0.9534645080566406
,people,0.9531656503677368
,man,0.9479622840881348
,tournament,0.9476655721664429
,sport,0.9376161098480225
,outfit,0.9325661659240723
,winner,0.9305378198623657
,portrait,0.9278461933135986
,league,0.9260668158531189
https://scontent.cdninstagram.com/t51.2885-15/e35/12950412_480759142122349_1501423749_n.jpg,cute,0.9983363151550293
,dog,0.9964000582695007
,pet,0.9944832921028137
,canine,0.990387499332428
,no person,0.9900253415107727
,little,0.9897410273551941
,puppy,0.9863181114196777
,mammal,0.9853315353393555
,indoors,0.9834104180335999
,sit,0.9806033372879028
,funny,0.9749842286109924
,animal,0.9744099378585815
,domestic,0.9723733067512512
,fur,0.9601666927337646
,adorable,0.9589278697967529
,looking,0.9541988372802734
,downy,0.9519051313400269
,portrait,0.9467307329177856
,one,0.9430828094482422
,puppy,0.9390822649002075
https://scontent.cdninstagram.com/t51.2885-15/e35/12479553_1688254981461460_160900867_n.jpg,no person,0.9902698397636414
,wood,0.9682000875473022
,food,0.9495460987091064
,table,0.9064366817474365
,still life,0.8914591670036316
,bamboo,0.884085476398468
,bowl,0.8628213405609131
,one,0.8564022779464722
,traditional,0.8342850208282471
,wooden,0.8086662292480469
,sweet,0.7793742418289185
,festival,0.7792689800262451
,desktop,0.7779138088226318
,container,0.7681596279144287
,retro,0.7512416839599609
,wear,0.744167685508728
,grow,0.7429362535476685
,homemade,0.7400487065315247
,indoors,0.7359161972999573
,decoration,0.7359110116958618
https://scontent.cdninstagram.com/t51.2885-15/e35/12424821_1703958943181641_1861591484_n.jpg,food,0.9728904962539673
,paper,0.9457426071166992
,business,0.9413408041000366
,no person,0.9156619310379028
,desktop,0.8963063955307007
,horizontal,0.8884693384170532
,health,0.8676126003265381
,refreshment,0.8386445045471191
,indoors,0.8150959014892578
,success,0.803909182548523
,vertical,0.7930953502655029
,sweet,0.7895060777664185
,wood,0.7760021686553955
,celebration,0.765012800693512
,cooking,0.7511927485466003
,delicious,0.7486369609832764
,breakfast,0.744953989982605
,batch,0.7434695959091187
,freshness,0.7311639785766602
,glass,0.7125811576843262
https://scontent.cdninstagram.com/t51.2885-15/e35/12918606_1139619712737685_743401257_n.jpg,people,0.9992491006851196
,one,0.997104287147522
,adult,0.9888583421707153
,two,0.9875571131706238
,reclining,0.982070803642273
,portrait,0.9768837690353394
,man,0.9705309867858887
,elderly,0.9681549072265625
,furniture,0.9615856409072876
,bed,0.9559119939804077
,administration,0.9245237112045288
,indoors,0.9210602045059204
,wear,0.9146494269371033
,war,0.9125298261642456
,facial expression,0.9075480699539185
,baby,0.9001519680023193
,family,0.8979482650756836
,sleep,0.8910433053970337
,dog,0.8745337724685669
,three,0.8651916980743408
https://scontent.cdninstagram.com/t51.2885-15/e35/13109012_1174379585919810_799969489_n.jpg,mammal,0.9972963333129883
,one,0.9917474985122681
,no person,0.9916220307350159
,indoors,0.9737285375595093
,animal,0.9721328020095825
,cage,0.9702284336090088
,bird,0.9657189249992371
,rat,0.9643498659133911
,rodent,0.9591577053070068
,pet,0.9360995292663574
,people,0.9248567819595337
,business,0.9222007989883423
,fur,0.9135383367538452
,vehicle,0.9134165048599243
,curiosity,0.9076457023620605
,wildlife,0.9075572490692139
,mouse,0.9068648815155029
,poultry,0.9067214727401733
,outdoors,0.9040639400482178
,two,0.8959670066833496
https://scontent.cdninstagram.com/t51.2885-15/s750x750/sh0.08/e35/12976415_490836837790009_1304545733_n.jpg,portrait,0.985323965549469
,people,0.9790788888931274
,facial expression,0.9755168557167053
,group,0.9724380373954773
,music,0.9568796157836914
,woman,0.955808162689209
,festival,0.9435135722160339
,recreation,0.9403221607208252
,wear,0.9366217255592346
,adult,0.9345435500144958
,musician,0.9323745965957642
,movie,0.9287979006767273
,singer,0.927822470664978
,friendship,0.9263367652893066
,group,0.9193766117095947
,three,0.9136530756950378
,four,0.8976120948791504
,actress,0.896573543548584
,togetherness,0.8838956356048584
,fame,0.883739173412323
https://scontent.cdninstagram.com/t51.2885-15/e35/12627819_1533317076961206_328297947_n.jpg,competition,0.9804254770278931
,people,0.9645717144012451
,man,0.9338230490684509
,ice,0.9257150292396545
,nightlife,0.9165117144584656
,action,0.9153715968132019
,music,0.9141631126403809
,indoors,0.9131753444671631
,soccer,0.9040409326553345
,street,0.9006615877151489
,fun,0.8769991993904114
,festival,0.8745988607406616
,performance,0.8638103604316711
,bar,0.8618879318237305
,shopping,0.8617371320724487
,exhibition,0.8598243594169617
,one,0.8575971126556396
,rally,0.8556699752807617
,celebration,0.8554822206497192
,city,0.8553107976913452
https://scontent.cdninstagram.com/t51.2885-15/e35/12519134_1675545019368059_1301668678_n.jpg,people,0.991439938545227
,food,0.9887396097183228
,restaurant,0.9718413352966309
,coffee,0.9566823244094849
,drink,0.9541398286819458
,adult,0.9464333057403564
,group,0.932915210723877
,table,0.9296383261680603
,man,0.9227198362350464
,meal,0.9225096702575684
,woman,0.9098960161209106
,indoors,0.9016782641410828
,no person,0.8853756785392761
,bar,0.8707616329193115
,one,0.861841082572937
,plate,0.8550384044647217
,cake,0.8523788452148438
,dining,0.8508155345916748
,many,0.8478211164474487
,breakfast,0.8277509212493896
https://scontent.cdninstagram.com/t51.2885-15/e15/13413241_262676584123934_2114188096_n.jpg,dog,0.9993441104888916
,canine,0.9987399578094482
,mammal,0.9961776733398438
,one,0.9950082302093506
,pet,0.9917718172073364
,puppy,0.9902539253234863
,portrait,0.9845023155212402
,no person,0.9775962829589844
,toy,0.9652695059776306
,indoors,0.9501132965087891
,people,0.9455900192260742
,little,0.9448579549789429
,cute,0.9421347379684448
,wear,0.9388693571090698
,two,0.9237987995147705
,facial expression,0.8992955684661865
,puppy,0.883784294128418
,child,0.8804042339324951
,downy,0.8772150278091431
,room,0.8767132759094238
https://scontent.cdninstagram.com/t51.2885-15/e35/13473346_1189182277793757_1860052663_n.jpg,people,0.9937636256217957
,child,0.9590067863464355
,adult,0.9545842409133911
,wear,0.948804497718811
,festival,0.9452207088470459
,school,0.9286020994186401
,group,0.9240046739578247
,exhibition,0.9193383455276489
,woman,0.9181818962097168
,girl,0.9139097929000854
,man,0.9016956686973572
,boy,0.9002378582954407
,crowd,0.8753527402877808
,many,0.8410394191741943
,music,0.8313077092170715
,fun,0.8254501819610596
,education,0.8215632438659668
,youth,0.8104900121688843
,painting,0.8045724630355835
,portrait,0.8000226020812988
https://scontent.cdninstagram.com/t51.2885-15/e35/13534533_367855596671416_665449120_n.jpg,people,0.9926649332046509
,adult,0.9812880158424377
,room,0.9692239165306091
,telephone,0.9659172892570496
,one,0.9635787010192871
,woman,0.9621772766113281
,girl,0.9602525234222412
,family,0.9500875473022461
,portrait,0.9473769068717957
,indoors,0.9409571886062622
,technology,0.9202240705490112
,bed,0.8951060771942139
,child,0.876880943775177
,furniture,0.8721103668212891
,bedroom,0.8694801330566406
,wear,0.8623475432395935
,leisure,0.8480710387229919
,home,0.8403730392456055
,ailment,0.8322592973709106
,music,0.8321625590324402
https://scontent.cdninstagram.com/t51.2885-15/e35/1390162_516442668530513_743024225_n.jpg,no person,0.9777550101280212
,woman,0.9714853763580322
,people,0.9694163203239441
,paper,0.9638636112213135
,indoors,0.9604400396347046
,business,0.9588633179664612
,retro,0.9469674229621887
,man,0.9417608976364136
,adult,0.9331854581832886
,furniture,0.9071521162986755
,painting,0.900770902633667
,illustration,0.8971470594406128
,technology,0.8970735669136047
,laptop,0.8756194710731506
,room,0.8718791007995605
,wear,0.8619164228439331
,book,0.8611702919006348
,two,0.8550963401794434
,print,0.845047116279602
,card,0.8446100950241089
https://scontent.cdninstagram.com/t51.2885-15/e35/12356495_869617909803479_1813041431_n.jpg,no person,0.9934244155883789
,wear,0.9803098440170288
,winter,0.974526047706604
,desktop,0.9637497663497925
,fashion,0.961769700050354
,design,0.9615200757980347
,pattern,0.9593469500541687
,Christmas,0.9562960863113403
,dress,0.9291784763336182
,celebration,0.9133092164993286
,color,0.9127957224845886
,one,0.9079321622848511
,decoration,0.8950225710868835
,people,0.8774443864822388
,bright,0.8740688562393188
,elegant,0.8580471873283386
,traditional,0.8568160533905029
,isolated,0.8528128266334534
,texture,0.84984290599823
,tree,0.8432132005691528
https://scontent.cdninstagram.com/t51.2885-15/sh0.08/e35/p750x750/10655042_1077940472228464_1582526596_n.jpg,woman,0.9808357954025269
,girl,0.9773178100585938
,pretty,0.9642826318740845
,one,0.9570410847663879
,portrait,0.9560273885726929
,cute,0.9535658359527588
,people,0.9523811340332031
,eye,0.9277956485748291
,fun,0.9261385798454285
,young,0.9175008535385132
,fashion,0.9144291877746582
,child,0.9090021848678589
,brunette,0.907384991645813
,face,0.9045055508613586
,hair,0.9035930633544922
,beautiful,0.8914691209793091
,model,0.8794739246368408
,joy,0.8608325123786926
,long,0.860115110874176
,adult,0.8394719958305359
