url,class,score
https://scontent.cdninstagram.com/t51.2885-15/e35/13385908_1756251204654857_207747301_n.jpg?ig_cache_key=MTI3NDAwMDMwNDk3MzQ2NTYyMg%3D%3D.2,facial expression,0.9890567064285278
,togetherness,0.9856228828430176
,affection,0.9801648259162903
,man,0.9768387079238892
,love,0.9767708778381348
,happiness,0.9692888259887695
,woman,0.9672101736068726
,laughing,0.9631544947624207
,enjoyment,0.9597703218460083
,two,0.9584642648696899
,people,0.9570180177688599
,outdoors,0.953645646572113
,embrace,0.9493584632873535
,fun,0.9486989974975586
,romance,0.9475840330123901
,leisure,0.9458744525909424
,summer,0.9456188082695007
,beach,0.9346510171890259
,joy,0.9342108964920044
,daylight,0.9316237568855286
https://scontent.cdninstagram.com/t51.2885-15/e35/13269418_208714619522088_1122426739_n.jpg?ig_cache_key=MTI2MzAzNTA1MzQ3Mzk3NDU1NQ%3D%3D.2,pool,0.9973701238632202
,resort,0.9965479373931885
,swimming pool,0.9938101768493652
,people,0.9922510385513306
,recreation,0.991675615310669
,swimming,0.9911781549453735
,vacation,0.9887734055519104
,water,0.9861352443695068
,group,0.9847318530082703
,travel,0.984126627445221
,leisure,0.9838696122169495
,beach,0.9834492206573486
,enjoyment,0.972896933555603
,group,0.9728734493255615
,hotel,0.9720844626426697
,seashore,0.9708884358406067
,poolside,0.9586985111236572
,relaxation,0.956518292427063
,woman,0.9507926106452942
,tropical,0.9458612203598022
https://scontent.cdninstagram.com/t51.2885-15/e35/12918607_460310110834083_1923141781_n.jpg?ig_cache_key=MTIyMjIzMjMwMDQ0NzUxNjk1NQ%3D%3D.2,people,0.9939863681793213
,woman,0.9510871767997742
,group,0.9224750995635986
,facial expression,0.9194976091384888
,brunette,0.9039654731750488
,portrait,0.9003018140792847
,man,0.8842602372169495
,group,0.876952052116394
,love,0.8591387271881104
,togetherness,0.8504306077957153
,indoors,0.8453279733657837
,couple,0.8436565399169922
,music,0.842898964881897
,two,0.8407915830612183
,family,0.8243502378463745
,enjoyment,0.8224881887435913
,adult,0.8153988122940063
,girl,0.8075188398361206
,friendship,0.8050281405448914
,musician,0.7974534034729004
https://scontent.cdninstagram.com/t51.2885-15/e35/10311136_817801608324341_1363537637_n.jpg?ig_cache_key=MTIwOTAzOTEyNjYxOTE0NjgyMA%3D%3D.2,water,0.9765721559524536
,travel,0.9683133959770203
,sea,0.9651221036911011
,landscape,0.9622982740402222
,people,0.945607602596283
,beach,0.9452645182609558
,seashore,0.9252874851226807
,city,0.9180017709732056
,vehicle,0.9174158573150635
,bridge,0.9167113900184631
,sky,0.9159245491027832
,ocean,0.9121050834655762
,outdoors,0.9040577411651611
,girl,0.8953005075454712
,street,0.8919461369514465
,architecture,0.8901721835136414
,recreation,0.8783636093139648
,building,0.871268630027771
,lake,0.8708046078681946
,light,0.8660452961921692
https://scontent.cdninstagram.com/t51.2885-15/e35/12479399_1999189886971933_1177886011_n.jpg?ig_cache_key=MTIxNTMyMjY5MzQ2MDQ3ODk0MQ%3D%3D.2,people,0.9937381744384766
,portrait,0.9746696949005127
,fashion,0.9697637557983398
,wear,0.9639395475387573
,actress,0.9526313543319702
,dress,0.9499039053916931
,woman,0.9498828649520874
,music,0.946206271648407
,recreation,0.9454113245010376
,red carpet,0.9422560930252075
,adult,0.9353625774383545
,model,0.9252821207046509
,party,0.9218984842300415
,two,0.9197409152984619
,movie,0.9111149311065674
,singer,0.9101004600524902
,editorial,0.9077305793762207
,hotel,0.9071205854415894
,girl,0.9002385139465332
,group,0.8702497482299805
https://scontent.cdninstagram.com/t51.2885-15/e35/12501748_529439810566133_1437520705_n.jpg?ig_cache_key=MTE1NzcyMTEzMjIyNDEzNzMyNg%3D%3D.2,people,0.989608883857727
,woman,0.9815545082092285
,happiness,0.9810910224914551
,adult,0.9731799364089966
,girl,0.9725266695022583
,wear,0.9721758365631104
,fun,0.9654345512390137
,school,0.959770917892456
,child,0.9572373628616333
,portrait,0.9555853009223938
,stock,0.9544292688369751
,container,0.9394024610519409
,group,0.9376926422119141
,celebration,0.9343589544296265
,education,0.9325128793716431
,facial expression,0.9314970970153809
,lifestyle,0.9029743671417236
,indoors,0.9000754356384277
,adolescent,0.8993744850158691
,daylight,0.885903000831604
https://scontent.cdninstagram.com/t51.2885-15/e35/12950252_576554649188917_94520045_n.jpg?ig_cache_key=MTIxOTk0Mjg5MDY5NTc0MDE3MA%3D%3D.2,woman,0.9901862144470215
,summer,0.9863263964653015
,love,0.9841421842575073
,girl,0.983251690864563
,young,0.9757561087608337
,beautiful,0.9680090546607971
,couple,0.9550765752792358
,outdoors,0.9477009177207947
,fun,0.9458355903625488
,nature,0.9386916160583496
,two,0.9370120763778687
,pretty,0.9330588579177856
,smile,0.9173367023468018
,sexy,0.9110691547393799
,park,0.909030556678772
,outside,0.9057062864303589
,happiness,0.9048175811767578
,people,0.8999631404876709
,joy,0.8996598720550537
,leisure,0.8916327953338623
https://scontent.cdninstagram.com/t51.2885-15/e35/13116757_844002559039777_1952373902_n.jpg?ig_cache_key=MTI1MDM2MTI5NjMyMjIxODIwOQ%3D%3D.2,group,0.9798465967178345
,group,0.97138512134552
,girl,0.969255268573761
,people,0.9689193964004517
,woman,0.968187689781189
,child,0.9573739171028137
,wear,0.9509053826332092
,portrait,0.95002281665802
,happiness,0.9431339502334595
,friendship,0.9350500106811523
,recreation,0.9286972284317017
,adult,0.9257861375808716
,lifestyle,0.9256616830825806
,school,0.9232354164123535
,enjoyment,0.9087105989456177
,facial expression,0.9056886434555054
,many,0.888108491897583
,fun,0.8874739408493042
,family,0.8812844157218933
,competition,0.8773651123046875
https://scontent.cdninstagram.com/t51.2885-15/e35/13129751_526136280902331_1905489838_n.jpg?ig_cache_key=MTIzOTI4NDY4Mzg0NTMyMjgzNQ%3D%3D.2,facial expression,0.9911515712738037
,people,0.9808312654495239
,party,0.9748876094818115
,group,0.9741801023483276
,brunette,0.9707892537117004
,celebration,0.9652526378631592
,woman,0.9579046964645386
,group,0.9534735679626465
,bar,0.9290768504142761
,portrait,0.9254306554794312
,drink,0.9119603633880615
,recreation,0.9117118716239929
,festival,0.9071907997131348
,club,0.9034709930419922
,movie,0.902713418006897
,adult,0.8996868133544922
,wear,0.8941905498504639
,ceremony,0.8738120794296265
,wine,0.8673530220985413
,music,0.8615944385528564
https://scontent.cdninstagram.com/t51.2885-15/e35/13398782_575756235929802_980441297_n.jpg?ig_cache_key=MTI3MjA4OTAyNzc5OTg2MTkzOA%3D%3D.2,beautiful,0.9564039707183838
,fun,0.9487171173095703
,girl,0.94624924659729
,summer,0.9457818865776062
,nature,0.9436545968055725
,young,0.9426180720329285
,woman,0.9311264753341675
,lifestyle,0.9295241236686707
,healthy,0.924801766872406
,people,0.9218475818634033
,fashion,0.9207097291946411
,water,0.9204391241073608
,hair,0.8937000036239624
,person,0.8917614221572876
,outdoors,0.8843642473220825
,adult,0.8802073001861572
,portrait,0.877005934715271
,happiness,0.8559709191322327
,leisure,0.8476664423942566
,desktop,0.8345155715942383
https://scontent.cdninstagram.com/t51.2885-15/e35/929121_228272440837559_205081430_n.jpg?ig_cache_key=MTE1MzAxMDA5MzAzMzE4MDE0Nw%3D%3D.2,people,0.9924356937408447
,celebration,0.9787514209747314
,festival,0.9670587182044983
,portrait,0.9598579406738281
,woman,0.9531433582305908
,party,0.9372357130050659
,Christmas,0.9306854009628296
,adult,0.8843441009521484
,fashion,0.8841705322265625
,facial expression,0.8818271160125732
,recreation,0.8790563941001892
,balloon,0.8787464499473572
,actress,0.8712068200111389
,brunette,0.8503426909446716
,music,0.827701210975647
,girl,0.8269561529159546
,man,0.8246119022369385
,fun,0.8231009244918823
,two,0.8197165727615356
,dress,0.8153781294822693
https://scontent.cdninstagram.com/t51.2885-15/e35/12599072_586099744870537_1553003258_n.jpg?ig_cache_key=MTE3NDA0NzMyOTUyMjQ2OTAyOQ%3D%3D.2,woman,0.987390398979187
,nightlife,0.9712269306182861
,fun,0.9664674997329712
,people,0.9519248008728027
,celebration,0.9428843855857849
,enjoyment,0.9409325122833252
,friendship,0.937079131603241
,wine,0.9273817539215088
,drink,0.9192334413528442
,party,0.9145424365997314
,adult,0.9140483736991882
,two,0.9059315919876099
,champagne,0.9032202363014221
,joy,0.9009363651275635
,happiness,0.8738834857940674
,portrait,0.8689126968383789
,love,0.8670459985733032
,brunette,0.8585439324378967
,group,0.8580549955368042
,facial expression,0.847955584526062
https://scontent.cdninstagram.com/t51.2885-15/e35/13408876_268406113550420_1092805287_n.jpg?ig_cache_key=MTI2OTg4MDI1MjkxMzMzODU0NQ%3D%3D.2,beach,0.9972383975982666
,love,0.991665244102478
,sand,0.9914194941520691
,sea,0.9878854751586914
,ocean,0.9868299961090088
,water,0.9861806631088257
,togetherness,0.985337495803833
,romance,0.9788200855255127
,seashore,0.9783121347427368
,woman,0.9690513610839844
,enjoyment,0.953427791595459
,fun,0.9488924741744995
,leisure,0.943340539932251
,summer,0.9408866167068481
,two,0.9408516883850098
,affection,0.9379295706748962
,vacation,0.9345508813858032
,man,0.9305980205535889
,couple,0.9236545562744141
,travel,0.9125943183898926
https://scontent.cdninstagram.com/t51.2885-15/e35/12555851_857108021073141_1952430614_n.jpg?ig_cache_key=MTE2MTkyNjAzMDMyMzAwOTkzMQ%3D%3D.2,people,0.9818863868713379
,festival,0.9695627689361572
,street,0.9299489259719849
,food,0.9246156215667725
,woman,0.9133498668670654
,bar,0.899366021156311
,restaurant,0.898225724697113
,adult,0.8786835670471191
,fun,0.8733136653900146
,celebration,0.866091251373291
,tourist,0.8648397922515869
,stock,0.8621623516082764
,recreation,0.8614764213562012
,event,0.8564592599868774
,city,0.8561663627624512
,portrait,0.8545895218849182
,party,0.8534963130950928
,music,0.8471827507019043
,outdoors,0.831987738609314
,drink,0.8296743631362915
https://scontent.cdninstagram.com/t51.2885-15/e35/12362608_142689516101163_1555832391_n.jpg?ig_cache_key=MTE0Njc0MTQ2NTE0NTA2ODA2Ng%3D%3D.2,people,0.9788483381271362
,facial expression,0.9748721122741699
,woman,0.966537594795227
,adult,0.9590000510215759
,man,0.9458268880844116
,group,0.9437992572784424
,happiness,0.9245111346244812
,two,0.9135680198669434
,togetherness,0.9123104810714722
,wear,0.9053130745887756
,room,0.901993989944458
,indoors,0.8896355032920837
,friendship,0.8881452083587646
,enjoyment,0.8748816251754761
,portrait,0.8735094666481018
,interaction,0.8691989183425903
,celebration,0.8634588122367859
,family,0.849652886390686
,furniture,0.8467121124267578
,restaurant,0.8087877631187439
https://scontent.cdninstagram.com/t51.2885-15/e35/12362504_1498245190479483_1746864343_n.jpg?ig_cache_key=MTE0MDg3ODAyODkwMDg0NTcxMQ%3D%3D.2,facial expression,0.982345461845398
,people,0.9790698289871216
,two,0.9694778323173523
,portrait,0.9676103591918945
,togetherness,0.9578641653060913
,man,0.9490294456481934
,woman,0.946342945098877
,affection,0.9412291049957275
,embrace,0.9290612936019897
,adult,0.9288005232810974
,love,0.9273674488067627
,happiness,0.90477454662323
,wear,0.8962008953094482
,family,0.8877228498458862
,laughing,0.8719635009765625
,interaction,0.8491058349609375
,fun,0.8430745601654053
,enjoyment,0.8357783555984497
,indoors,0.8338661193847656
,group,0.8270660638809204
https://scontent.cdninstagram.com/t51.2885-15/e35/12751443_226413364370710_154024179_n.jpg?ig_cache_key=MTE5NTE4NTgwNDE3OTA2NTE1NQ%3D%3D.2,facial expression,0.9880706071853638
,two,0.9825441837310791
,man,0.9794329404830933
,people,0.9787076711654663
,woman,0.9704470634460449
,wear,0.9698591232299805
,recreation,0.9639242887496948
,portrait,0.9584420323371887
,embrace,0.9580870866775513
,love,0.9277219176292419
,adult,0.9246945381164551
,togetherness,0.9222498536109924
,actress,0.9168530702590942
,red carpet,0.9156202077865601
,music,0.9142699241638184
,group,0.9110631942749023
,romance,0.8844634294509888
,movie,0.879853367805481
,musician,0.867394745349884
,interaction,0.8637054562568665
https://scontent.cdninstagram.com/t51.2885-15/e35/12599071_196316140720138_1976733101_n.jpg?ig_cache_key=MTE2NzY0OTA4OTg1NjEzMDAzMw%3D%3D.2,woman,0.9938719272613525
,sit,0.9809250235557556
,adult,0.9738162159919739
,people,0.9685211181640625
,girl,0.9593765735626221
,leisure,0.950728178024292
,lifestyle,0.9487075805664062
,brunette,0.9473324418067932
,portrait,0.9329296350479126
,drink,0.9299676418304443
,young,0.9257907271385193
,happiness,0.9249083995819092
,relaxation,0.9175045490264893
,travel,0.9129551649093628
,enjoyment,0.9127763509750366
,one,0.908449649810791
,outdoors,0.8976180553436279
,beautiful,0.8948431611061096
,summer,0.8869509696960449
,restaurant,0.884555995464325
https://scontent.cdninstagram.com/t51.2885-15/e35/10369351_1690381634582375_127271938_n.jpg?ig_cache_key=MTE1Mzk4MTUzNTEyODMwODY5Mw%3D%3D.2,sunset,0.9969050884246826
,dawn,0.9942583441734314
,no person,0.9873079061508179
,landscape,0.982978880405426
,evening,0.9786807298660278
,sun,0.9762647151947021
,dusk,0.9731510877609253
,tree,0.9660472869873047
,light,0.9641900062561035
,sky,0.9621151089668274
,outdoors,0.9620779752731323
,fog,0.957004189491272
,lake,0.9528549909591675
,travel,0.9410279989242554
,water,0.9400641918182373
,nature,0.9279153347015381
,mist,0.9170594811439514
,fair weather,0.8965264558792114
,silhouette,0.8953551054000854
,reflection,0.8866711258888245
https://scontent.cdninstagram.com/t51.2885-15/e35/12797896_1143715282314425_1187054812_n.jpg?ig_cache_key=MTIwNzY5MjkxNjIwNTQ3MjQ2OQ%3D%3D.2,beach,0.9993183612823486
,sand,0.9978286623954773
,ocean,0.9968248605728149
,water,0.9965412616729736
,travel,0.9964110851287842
,vacation,0.9961761236190796
,seashore,0.9955960512161255
,sea,0.9954596161842346
,summer,0.9944696426391602
,bikini,0.9938438534736633
,tropical,0.9881532788276672
,sun,0.9818914532661438
,relaxation,0.9742497205734253
,enjoyment,0.9725191593170166
,leisure,0.9725083112716675
,woman,0.9704715013504028
,tan,0.970199465751648
,paradise,0.9647858142852783
,sexy,0.9588340520858765
,resort,0.9527831077575684
https://scontent.cdninstagram.com/t51.2885-15/e35/13151334_1118512971548146_352779492_n.jpg?ig_cache_key=MTI0NjczODQ4MDQyNzM1NTAyMw%3D%3D.2,beach,0.9946707487106323
,sea,0.9902331829071045
,travel,0.9825377464294434
,water,0.9806993007659912
,sand,0.9755852222442627
,seashore,0.9747442007064819
,ocean,0.9719669222831726
,relaxation,0.9641900062561035
,people,0.9627662301063538
,girl,0.9519555568695068
,leisure,0.9309048056602478
,one,0.9277700185775757
,vacation,0.9210977554321289
,sky,0.91475510597229
,sun,0.9134637117385864
,summer,0.9107264280319214
,outdoors,0.9052257537841797
,woman,0.899536669254303
,recreation,0.8943567276000977
,fair weather,0.8871567845344543
https://scontent.cdninstagram.com/t51.2885-15/e35/13166911_1581822952110273_2137761928_n.jpg?ig_cache_key=MTI0OTY0OTE0NTAwOTg1MTAxOQ%3D%3D.2,people,0.9798787832260132
,facial expression,0.9770447015762329
,recreation,0.9752241373062134
,summer,0.9673588275909424
,two,0.960440993309021
,woman,0.9292120933532715
,outdoors,0.9275059700012207
,portrait,0.920278012752533
,adult,0.9193596243858337
,wear,0.9181685447692871
,togetherness,0.9059275388717651
,happiness,0.8949167728424072
,affection,0.8914094567298889
,travel,0.8801082372665405
,love,0.879589319229126
,man,0.8525419235229492
,vacation,0.8442423343658447
,enjoyment,0.8438964486122131
,girl,0.8373641967773438
,lifestyle,0.8316562175750732
https://scontent.cdninstagram.com/t51.2885-15/e35/12729607_231159350560112_750612276_n.jpg?ig_cache_key=MTE5MzY2MTczMDc4MTA1NTA2Ng%3D%3D.2,woman,0.9807437658309937
,fun,0.975124180316925
,fashion,0.9737721681594849
,people,0.9670332670211792
,joy,0.9169887900352478
,two,0.9143717288970947
,girl,0.9142085313796997
,friendship,0.8994351625442505
,love,0.8756821751594543
,pretty,0.8681994676589966
,portrait,0.8612474799156189
,wear,0.8585644960403442
,togetherness,0.855864405632019
,indoors,0.8440977334976196
,cute,0.8381470441818237
,family,0.8315898180007935
,happiness,0.8276703953742981
,adult,0.8032976984977722
,Christmas,0.8004837036132812
,enjoyment,0.7941925525665283
https://scontent.cdninstagram.com/t51.2885-15/e35/13398734_787119208056338_1236695440_n.jpg?ig_cache_key=MTI2NTY3Mjk1MzI4MTgyNTYxNA%3D%3D.2,people,0.9945153594017029
,music,0.9624645709991455
,recreation,0.9572893381118774
,fashion,0.9515860080718994
,wear,0.9514791965484619
,woman,0.9390952587127686
,portrait,0.9321877956390381
,movie,0.9140357971191406
,sunglasses,0.9109330177307129
,adult,0.9066704511642456
,hotel,0.9054174423217773
,one,0.9020775556564331
,actress,0.8802391886711121
,festival,0.8758552074432373
,two,0.8668845891952515
,dress,0.8454821109771729
,party,0.8415334224700928
,facial expression,0.8356209993362427
,street,0.8067629933357239
,red carpet,0.8039125204086304
https://scontent.cdninstagram.com/t51.2885-15/e35/12825909_1686706881592293_460877398_n.jpg?ig_cache_key=MTIwNjYzNzUyNzE1NDIxNTcxOA%3D%3D.2,people,0.9659361243247986
,recreation,0.955634593963623
,woman,0.924807071685791
,red carpet,0.9213309288024902
,wear,0.9184889197349548
,music,0.874188244342804
,fashion,0.8590207099914551
,facial expression,0.840752899646759
,pageant,0.8175418376922607
,portrait,0.8112363815307617
,fame,0.7988533973693848
,group,0.7795383334159851
,festival,0.7402380704879761
,competition,0.7194340825080872
,singer,0.7113920450210571
,group,0.7044383883476257
,musician,0.6945725083351135
,event,0.6915879249572754
,adolescent,0.6845122575759888
,entertainment,0.6642504930496216
https://scontent.cdninstagram.com/t51.2885-15/e35/13402690_1769945659884136_1064907084_n.jpg?ig_cache_key=MTI3NTQ3MTA5NzA3MDc5OTE2OQ%3D%3D.2,people,0.9731924533843994
,adult,0.973046600818634
,portrait,0.9653446674346924
,landscape,0.9639493227005005
,outdoors,0.959428071975708
,woman,0.9498782157897949
,travel,0.9430016279220581
,beach,0.939200758934021
,seashore,0.9389113187789917
,sky,0.936480700969696
,daylight,0.9344762563705444
,girl,0.9284462928771973
,beautiful,0.9189980626106262
,nature,0.9157488346099854
,summer,0.9140936732292175
,two,0.9048517942428589
,facial expression,0.9029712080955505
,sea,0.8989272117614746
,happiness,0.8861970901489258
,lifestyle,0.8798108696937561
https://scontent.cdninstagram.com/t51.2885-15/e35/13166816_939015129547821_384475104_n.jpg?ig_cache_key=MTI0Mjg2MzI1Mjk1MzU0OTEzNQ%3D%3D.2,man,0.9876713752746582
,love,0.986547589302063
,sunglasses,0.9831947088241577
,couple,0.973522961139679
,fun,0.9735188484191895
,people,0.9700709581375122
,portrait,0.9597734212875366
,woman,0.9552702903747559
,togetherness,0.943213939666748
,summer,0.9385900497436523
,happiness,0.9366039633750916
,two,0.9318185448646545
,outdoors,0.9302671551704407
,laughing,0.9112623333930969
,girl,0.903536319732666
,friendship,0.9001551866531372
,leisure,0.8995755910873413
,joy,0.888837993144989
,romance,0.8877589106559753
,vacation,0.8855277299880981
https://scontent.cdninstagram.com/t51.2885-15/e35/12545320_1000155776708661_191316299_n.jpg?ig_cache_key=MTE1ODgzNjcwMjQ0MTAzMjM3Nw%3D%3D.2,people,0.9939073324203491
,group,0.9897339344024658
,four,0.9819726943969727
,adult,0.9800671339035034
,group,0.9779520034790039
,three,0.975719690322876
,facial expression,0.972364068031311
,woman,0.9561100006103516
,two,0.9489502906799316
,portrait,0.948357343673706
,man,0.9381275773048401
,music,0.9158167839050293
,five,0.9148430824279785
,wear,0.884007453918457
,offspring,0.870895266532898
,several,0.8608158826828003
,musician,0.850178599357605
,recreation,0.8481696248054504
,singer,0.8190749883651733
,leader,0.8135478496551514
https://scontent.cdninstagram.com/t51.2885-15/e35/12677326_1519969621632471_482191667_n.jpg?ig_cache_key=MTE3ODM2OTA4MTk1NDE5MjE2OQ%3D%3D.2,people,0.9925938844680786
,group,0.9898911714553833
,many,0.9812793731689453
,music,0.971442699432373
,performance,0.9630181789398193
,concert,0.9557507038116455
,crowd,0.946679949760437
,adult,0.9363793730735779
,woman,0.9311436414718628
,festival,0.9307289123535156
,group,0.9173190593719482
,man,0.9152039885520935
,party,0.903343915939331
,dancing,0.9015868902206421
,school,0.8985046744346619
,celebration,0.8948234915733337
,education,0.8942952156066895
,indoors,0.8819887638092041
,club,0.848014771938324
,band,0.8327499628067017
https://scontent.cdninstagram.com/t51.2885-15/s750x750/sh0.08/e35/12543127_446673472188027_927862247_n.jpg?ig_cache_key=MTE2MzM4NDU2NTAxOTg4ODUyMA%3D%3D.2,underwater,0.9998988509178162
,swimming,0.9989967346191406
,snorkeling,0.9971740245819092
,diver,0.9968335628509521
,diving,0.9964498281478882
,water,0.995995044708252
,water sports,0.9920963048934937
,goggles,0.9895253777503967
,submerged,0.9870367050170898
,fun,0.9807369112968445
,swimmer,0.9785939455032349
,ocean,0.975710391998291
,sea,0.9720678925514221
,pool,0.9633610248565674
,scuba,0.9611266851425171
,reef,0.9536252021789551
,fish,0.953493595123291
,swimming pool,0.9485142230987549
,leisure,0.9482297897338867
,vacation,0.9448468089103699
https://scontent.cdninstagram.com/t51.2885-15/e35/12950248_1593178260972254_51598940_n.jpg?ig_cache_key=MTIzMTM2NjU3NjEyNDM4MTcwMg%3D%3D.2,group,0.9933286905288696
,people,0.9872335195541382
,woman,0.9855773448944092
,adult,0.9785119891166687
,facial expression,0.9646428823471069
,wear,0.9608211517333984
,man,0.9441457390785217
,recreation,0.9380948543548584
,group,0.9370187520980835
,girl,0.9351688623428345
,portrait,0.9314011931419373
,enjoyment,0.9291555881500244
,outdoors,0.9255107641220093
,festival,0.9038443565368652
,happiness,0.897338330745697
,friendship,0.8970938920974731
,togetherness,0.885981559753418
,many,0.8600053191184998
,summer,0.8530281782150269
,beach,0.8491217494010925
https://scontent.cdninstagram.com/t51.2885-15/e35/12750278_1780082992222679_1887390013_n.jpg?ig_cache_key=MTIwNTM4MTAzNDU4MDgyMjI1NA%3D%3D.2,recreation,0.9975425004959106
,bikini,0.9974783658981323
,water,0.9972394704818726
,leisure,0.9914336204528809
,beach,0.9898287653923035
,woman,0.9877851009368896
,summer,0.9827226400375366
,swimming pool,0.9799013137817383
,vacation,0.9745017290115356
,travel,0.9718881249427795
,swimsuit,0.9711031913757324
,pool,0.9699300527572632
,adult,0.9649869799613953
,ocean,0.9631454944610596
,sea,0.9615576267242432
,body,0.961347222328186
,swimming,0.9603013396263123
,sexy,0.9598072171211243
,people,0.9597061276435852
,resort,0.9555597305297852
https://scontent.cdninstagram.com/t51.2885-15/e35/12950281_601857309981313_2029264011_n.jpg?ig_cache_key=MTIzNDkyMTE3MzM0MjQwNzU4NA%3D%3D.2,people,0.9927570223808289
,facial expression,0.9588584899902344
,woman,0.9588525891304016
,family,0.9563998579978943
,indoors,0.9551349878311157
,man,0.9539666175842285
,togetherness,0.9407376050949097
,adult,0.9397718906402588
,happiness,0.9273198843002319
,two,0.9132105112075806
,enjoyment,0.898331880569458
,room,0.8850058913230896
,group,0.8821805715560913
,furniture,0.8713722229003906
,coffee,0.8709060549736023
,sit,0.8537481427192688
,drink,0.8378020524978638
,brunette,0.8078091144561768
,technology,0.8076630234718323
,leisure,0.8001786470413208
https://scontent.cdninstagram.com/t51.2885-15/e35/12547450_1226564840704907_1139494431_n.jpg?ig_cache_key=MTE2ODI1MDA0NzM0MjQ5NjM4Mg%3D%3D.2,woman,0.9753754138946533
,music,0.9731226563453674
,people,0.9666186571121216
,group,0.9659609794616699
,red carpet,0.9572480916976929
,festival,0.9544353485107422
,recreation,0.9399672746658325
,movie,0.9326902627944946
,friendship,0.9259629249572754
,actress,0.9235312938690186
,facial expression,0.913366436958313
,wear,0.9013396501541138
,fashion,0.8977460861206055
,man,0.865654468536377
,group,0.8611722588539124
,many,0.8565340638160706
,portrait,0.8516032695770264
,singer,0.8488264679908752
,concert,0.8433778285980225
,musician,0.841559648513794
https://scontent.cdninstagram.com/t51.2885-15/e35/12407662_995845033806267_585749348_n.jpg?ig_cache_key=MTE3MzM2Nzk4MzUxNDI0MTA3Ng%3D%3D.2,woman,0.9932538270950317
,portrait,0.9885900020599365
,pretty,0.9785304665565491
,people,0.973010778427124
,girl,0.9575956463813782
,young,0.9560698866844177
,fashion,0.9554378390312195
,stock,0.9349126815795898
,beautiful,0.9319756031036377
,adult,0.9308179020881653
,fun,0.9290054440498352
,one,0.920037031173706
,happiness,0.9118948578834534
,enjoyment,0.9101747274398804
,adolescent,0.9008117914199829
,facial expression,0.8991327881813049
,shopping,0.8870274424552917
,cute,0.8850781917572021
,joy,0.8846164345741272
,hair,0.8668205738067627
https://scontent.cdninstagram.com/t51.2885-15/e35/13249684_1029910447091546_1420460499_n.jpg?ig_cache_key=MTI2NTIwMjI5NzczODAyMDk1OA%3D%3D.2,woman,0.989669144153595
,people,0.9831037521362305
,adult,0.9397474527359009
,portrait,0.9371061325073242
,street,0.9262180328369141
,city,0.9107850790023804
,girl,0.8966018557548523
,recreation,0.8884960412979126
,shopping,0.8747747540473938
,enjoyment,0.8600051403045654
,happiness,0.8528895378112793
,leisure,0.8430438041687012
,one,0.8408994674682617
,outdoors,0.8346092700958252
,wear,0.8082072734832764
,young,0.7883225083351135
,lifestyle,0.7831977009773254
,fun,0.7766141295433044
,coffee,0.775662899017334
,daylight,0.7507103085517883
https://scontent.cdninstagram.com/t51.2885-15/e35/10354469_864485170328171_157214440_n.jpg?ig_cache_key=MTIxMDM3MDkzNjcyMDUwOTQxMg%3D%3D.2,beach,0.9976950883865356
,sand,0.9959876537322998
,togetherness,0.9939377307891846
,sea,0.9917449355125427
,seashore,0.9899890422821045
,leisure,0.9869281053543091
,vacation,0.9868407845497131
,summer,0.9859294295310974
,enjoyment,0.9847667217254639
,ocean,0.9805769920349121
,fun,0.980140209197998
,travel,0.9798792004585266
,love,0.9775148630142212
,water,0.9772039651870728
,woman,0.973318338394165
,sunglasses,0.9660815000534058
,man,0.9583942890167236
,romance,0.9546947479248047
,relaxation,0.9494652152061462
,outdoors,0.9486435055732727
https://scontent.cdninstagram.com/t51.2885-15/e35/10012561_867883696655800_136167804_n.jpg?ig_cache_key=MTIxOTc2MTYzNDYzNjkwODY5OA%3D%3D.2,woman,0.9927160739898682
,fun,0.9782141447067261
,togetherness,0.9595656394958496
,joy,0.9536644816398621
,enjoyment,0.9532490968704224
,friendship,0.9488074779510498
,two,0.9355573654174805
,people,0.9342069029808044
,indoors,0.9328336715698242
,laughing,0.9313932657241821
,juice,0.928695559501648
,pretty,0.9270001649856567
,leisure,0.9213994741439819
,drink,0.8886185884475708
,wine,0.8846309185028076
,young,0.8787345886230469
,love,0.8780509233474731
,family,0.8779809474945068
,adolescent,0.869743824005127
,facial expression,0.8690885305404663
https://scontent.cdninstagram.com/t51.2885-15/e35/12934900_1020634711324301_1515670953_n.jpg?ig_cache_key=MTIzMDUxMzM1NDk1MDIzMzA4NQ%3D%3D.2,people,0.9906802177429199
,competition,0.9734756946563721
,woman,0.9731302261352539
,adult,0.9541523456573486
,enjoyment,0.9435620307922363
,festival,0.9432966113090515
,group,0.9376634359359741
,recreation,0.9354798793792725
,girl,0.9243215918540955
,many,0.9240347146987915
,fun,0.9240153431892395
,athlete,0.9152195453643799
,wear,0.9101415872573853
,man,0.9001014232635498
,group,0.8870217204093933
,music,0.8864455223083496
,child,0.8780566453933716
,motion,0.8728024959564209
,action,0.8689992427825928
,leisure,0.8570080995559692
https://scontent.cdninstagram.com/t51.2885-15/e35/12825855_259774114353918_962525863_n.jpg?ig_cache_key=MTE5OTY0MTE2NzU0MDQzOTE4Mw%3D%3D.2,woman,0.9922134876251221
,group,0.9907323122024536
,friendship,0.9892122149467468
,people,0.975932776927948
,group,0.9709866046905518
,portrait,0.9587781429290771
,fun,0.9559286236763
,music,0.94334876537323
,facial expression,0.9294015169143677
,adolescent,0.9284589886665344
,togetherness,0.9276590347290039
,fashion,0.9119029641151428
,laughing,0.8999428749084473
,four,0.8981563448905945
,girl,0.8978502750396729
,recreation,0.8949126601219177
,multicultural,0.8945460319519043
,outdoors,0.8903251886367798
,adult,0.8851150274276733
,party,0.8804028034210205
https://scontent.cdninstagram.com/t51.2885-15/e35/1597145_1659277777681946_1455128567_n.jpg?ig_cache_key=MTE0ODA4ODg2NDg3MDQxOTM5NQ%3D%3D.2,people,0.9811489582061768
,woman,0.9788957834243774
,Christmas,0.9759380221366882
,adult,0.9677838087081909
,facial expression,0.9558586478233337
,celebration,0.9545679092407227
,christmas tree,0.941051185131073
,family,0.9383794069290161
,happiness,0.9372124671936035
,girl,0.9363647103309631
,portrait,0.9293034672737122
,two,0.9197412729263306
,indoors,0.9089023470878601
,enjoyment,0.903470516204834
,vacation,0.892491340637207
,man,0.8883942365646362
,fun,0.8802226781845093
,furniture,0.8639324307441711
,wear,0.8630742430686951
,togetherness,0.8624306917190552
https://scontent.cdninstagram.com/t51.2885-15/e35/13092439_1730659297206409_350676351_n.jpg?ig_cache_key=MTI0MDE3NDQ2MzMxMTMzMzYwMg%3D%3D.2,woman,0.9822338819503784
,people,0.973244309425354
,friendship,0.9547427892684937
,fun,0.9514636993408203
,recreation,0.9495326280593872
,enjoyment,0.9394463300704956
,wear,0.938535213470459
,adult,0.9362099170684814
,group,0.9323203563690186
,facial expression,0.930000901222229
,man,0.9249629974365234
,outdoors,0.9164952039718628
,group,0.9067320823669434
,competition,0.8938601613044739
,leisure,0.8908944725990295
,togetherness,0.8876287937164307
,family,0.8859658241271973
,happiness,0.8618005514144897
,girl,0.8577057719230652
,adolescent,0.8465001583099365
https://scontent.cdninstagram.com/t51.2885-15/e35/13402295_833246896807811_724384166_n.jpg?ig_cache_key=MTI2NzQ2MTIyNjE4MjM5NjQ0Ng%3D%3D.2,shopping,0.9930964708328247
,stock,0.9885819554328918
,people,0.9859524965286255
,commerce,0.984801173210144
,city,0.9644547700881958
,many,0.9614980816841125
,market,0.9601613283157349
,street,0.9562984108924866
,crowd,0.9509623050689697
,tourist,0.9437147378921509
,festival,0.9303891658782959
,road,0.9290346503257751
,group,0.927969217300415
,shop,0.911460280418396
,Broadway,0.8589228391647339
,wear,0.8580678701400757
,evening,0.853672981262207
,vehicle,0.851872444152832
,bar,0.8474318981170654
,nightlife,0.8469780683517456
https://scontent.cdninstagram.com/t51.2885-15/e35/13267311_1543504302622661_1299392918_n.jpg?ig_cache_key=MTI1NjU1OTI4MTIzNDE2ODgwNQ%3D%3D.2,desktop,0.9492676258087158
,decoration,0.9247252345085144
,art,0.9236012101173401
,pattern,0.9224310517311096
,color,0.9204052686691284
,design,0.9192554354667664
,texture,0.8971331715583801
,market,0.8788442611694336
,souvenir,0.8749043941497803
,bright,0.84297776222229
,no person,0.8159993290901184
,flower,0.813786506652832
,abstract,0.8114764094352722
,traditional,0.8078676462173462
,symbol,0.7840772867202759
,many,0.7840304374694824
,illustration,0.7838489413261414
,culture,0.7766040563583374
,image,0.7751993536949158
,nature,0.773094892501831
https://scontent.cdninstagram.com/t51.2885-15/e35/13257170_994809423960552_642977114_n.jpg?ig_cache_key=MTI1NDQwMDY1MDE0MTE1NzU5Mw%3D%3D.2,water,0.9967676401138306
,leisure,0.9878960847854614
,fun,0.9867696762084961
,swimming,0.9863880276679993
,vacation,0.9850369691848755
,travel,0.9786887168884277
,recreation,0.9760100245475769
,enjoyment,0.9755361080169678
,summer,0.9723966717720032
,joy,0.9620389938354492
,togetherness,0.9617763757705688
,woman,0.950678825378418
,swimming pool,0.9476335048675537
,child,0.9294629096984863
,family,0.9292052984237671
,outdoors,0.9276769161224365
,pool,0.92425137758255
,relaxation,0.9211972951889038
,happiness,0.9188501834869385
,friendship,0.9031407237052917
https://scontent.cdninstagram.com/t51.2885-15/e35/13249811_1108933692511661_1287181291_n.jpg?ig_cache_key=MTI1NzM2ODI3NTM2MDA3NDI3Nw%3D%3D.2,people,0.9976708889007568
,elephant,0.996610164642334
,child,0.9927376508712769
,adult,0.9923717975616455
,mammal,0.9899598360061646
,group,0.9882436990737915
,two,0.9868199825286865
,boy,0.9764503836631775
,portrait,0.9732680916786194
,five,0.9717484712600708
,man,0.9689810276031494
,girl,0.9679923057556152
,daylight,0.9644899964332581
,three,0.9547858834266663
,woman,0.9457881450653076
,one,0.9389286041259766
,happiness,0.9299115538597107
,environment,0.9265855550765991
,wear,0.9179112911224365
,travel,0.912983238697052
https://scontent.cdninstagram.com/t51.2885-15/s750x750/sh0.08/e35/13259474_1699961340265516_616333254_n.jpg?ig_cache_key=MTI2MTg0OTc0ODIzODY4MjI5OQ%3D%3D.2,people,0.9980507493019104
,group,0.9975706338882446
,religion,0.9959359765052795
,temple,0.9873389005661011
,many,0.9843412637710571
,traditional,0.9808578491210938
,culture,0.9706440567970276
,ceremony,0.9702625274658203
,festival,0.968450665473938
,woman,0.9514453411102295
,adult,0.9474198818206787
,travel,0.945716142654419
,Buddha,0.9257389903068542
,several,0.9151108264923096
,music,0.901710033416748
,wear,0.8979910612106323
,man,0.8940157294273376
,performance,0.8718392252922058
,costume,0.8626631498336792
,parade,0.8573378324508667
https://scontent.cdninstagram.com/t51.2885-15/e35/13256922_1625941214394540_512156603_n.jpg?ig_cache_key=MTI1MjQ4MjUxNTQ5ODYxNzgwMA%3D%3D.2,vacation,0.9950665235519409
,fun,0.9926880598068237
,summer,0.990013599395752
,people,0.9878937602043152
,sunglasses,0.9853171110153198
,travel,0.9719746112823486
,beach,0.9712707996368408
,recreation,0.9662773609161377
,woman,0.9654048085212708
,party,0.9651645421981812
,leisure,0.9570862054824829
,group,0.95045405626297
,music,0.9466934204101562
,portrait,0.9452941417694092
,friendship,0.9407138228416443
,man,0.9387710094451904
,festival,0.9361699819564819
,bikini,0.9246338605880737
,enjoyment,0.921920657157898
,girl,0.9214190244674683
https://scontent.cdninstagram.com/t51.2885-15/e35/13248690_1599300947051149_1844090950_n.jpg?ig_cache_key=MTI1MzY3NDI3MTIyMTE0MDA4Nw%3D%3D.2,water,0.9931119680404663
,beach,0.986973226070404
,travel,0.9832208156585693
,seashore,0.9816216230392456
,ocean,0.977864682674408
,sea,0.976696252822876
,recreation,0.963878870010376
,leisure,0.955948531627655
,vacation,0.952857255935669
,summer,0.9363954663276672
,people,0.9343030452728271
,woman,0.9248367547988892
,landscape,0.9152752161026001
,sand,0.9036409854888916
,one,0.8923615217208862
,relaxation,0.890910804271698
,outdoors,0.886440098285675
,adult,0.8818331360816956
,island,0.8672755360603333
,bikini,0.863439679145813
https://scontent.cdninstagram.com/t51.2885-15/e35/13249640_1763173850586303_1925969189_n.jpg?ig_cache_key=MTI1MDg1NjU3NTkyMDE2MzYyMA%3D%3D.2,graduation,0.9998235702514648
,diploma,0.9988234043121338
,ceremony,0.9968630075454712
,university,0.9958511590957642
,education,0.9927447438240051
,mortarboard,0.9921107292175293
,people,0.9909278154373169
,school,0.987335205078125
,group,0.9866397976875305
,woman,0.9825926423072815
,accomplishment,0.9814183712005615
,celebration,0.9792604446411133
,cap,0.9790075421333313
,adult,0.9773503541946411
,lid,0.9667907357215881
,man,0.96232008934021
,outdoors,0.9562927484512329
,many,0.9471665024757385
,wear,0.9471300840377808
,happiness,0.9378507137298584
