url,class,score
https://scontent.cdninstagram.com/t51.2885-15/e35/12256883_1489128378060071_692689360_n.jpg?ig_cache_key=MTEyMDUzNzUzMDU5MzM2OTYzNg%3D%3D.2,sunset,0.9896293878555298
,water,0.9835679531097412
,dawn,0.9754576086997986
,landscape,0.9752006530761719
,evening,0.9738616943359375
,sea,0.9647448062896729
,seashore,0.9595023393630981
,dusk,0.9570701718330383
,reflection,0.9506627321243286
,sky,0.9412596225738525
,light,0.9365090131759644
,ocean,0.9360964894294739
,lake,0.9331539869308472
,travel,0.9239345192909241
,beach,0.9213277101516724
,mountain,0.9020714163780212
,no person,0.8996464014053345
,scenic,0.895621657371521
,river,0.8782075643539429
,outdoors,0.8762024641036987
https://scontent.cdninstagram.com/t51.2885-15/s320x320/e35/13267520_1595353337443401_35376807_n.jpg?ig_cache_key=MTI1NzIzMDMxMjU2MDMxOTU3Mg%3D%3D.2,text,0.9893405437469482
,give voice,0.9829778671264648
,desktop,0.9500362873077393
,business,0.9402471780776978
,education,0.9373228549957275
,typographic,0.9333018064498901
,abstract,0.920905351638794
,illustration,0.9165998697280884
,alphabet,0.903163731098175
,symbol,0.9019778966903687
,conceptual,0.8960217237472534
,baptismal font,0.890273928642273
,typography,0.8865721225738525
,paper,0.8670032024383545
,school,0.8640904426574707
,success,0.8435570001602173
,graphic,0.8424758911132812
,type,0.8414275646209717
,knowledge,0.8372445702552795
,typescript,0.8300359845161438
https://scontent.cdninstagram.com/t51.2885-15/e35/10268873_1706664746230707_700427678_n.jpg?ig_cache_key=MTE1MzI5MDk2MDg1NjM0MTU1NQ%3D%3D.2,girl,0.9968509674072266
,portrait,0.9888091087341309
,model,0.976588785648346
,woman,0.9761728048324585
,beautiful,0.9704912900924683
,hair,0.9691745042800903
,nude,0.961202085018158
,sleep,0.960375189781189
,fashion,0.9558358192443848
,people,0.9467658400535583
,cute,0.9352395534515381
,face,0.930951714515686
,eye,0.9160864949226379
,skin,0.912519633769989
,studio,0.9111994504928589
,smile,0.9103759527206421
,glamour,0.9056739211082458
,sexy,0.9046599864959717
,light,0.9026809930801392
,blond,0.9009405374526978
https://scontent.cdninstagram.com/t51.2885-15/s750x750/sh0.08/e35/13388461_1570123413288166_1107708474_n.jpg?ig_cache_key=MTI2NTcxNTEyNDA5NDgxOTc0Nw%3D%3D.2,people,0.9958579540252686
,one,0.9835383892059326
,adult,0.9814732670783997
,portrait,0.9758280515670776
,monochrome,0.9629943370819092
,woman,0.9565541744232178
,music,0.9198352098464966
,wear,0.8984177708625793
,musician,0.8897228240966797
,indoors,0.8800745010375977
,education,0.829242467880249
,facial expression,0.8046048283576965
,man,0.7904486060142517
,singer,0.7638159990310669
,book,0.743486225605011
,concentration,0.7269808053970337
,writer,0.7172690629959106
,sitting,0.713904619216919
,administration,0.712240993976593
,business,0.7081872224807739
https://scontent.cdninstagram.com/t51.2885-15/e35/13113775_1319957411352947_1771092330_n.jpg?ig_cache_key=MTI1MDk4OTYwODU1MzA3NzgxMA%3D%3D.2,city,0.994864284992218
,bridge,0.9942539930343628
,water,0.9942120313644409
,sunset,0.9901154041290283
,evening,0.9897448420524597
,river,0.988937258720398
,cityscape,0.9848812818527222
,architecture,0.9835917353630066
,travel,0.9820553660392761
,skyline,0.9776408672332764
,dusk,0.9755030870437622
,light,0.9645119905471802
,sky,0.9609624147415161
,building,0.953481912612915
,dawn,0.9510111212730408
,landmark,0.9338328838348389
,urban,0.9326763153076172
,waterfront,0.9263330101966858
,transportation system,0.9203681349754333
,no person,0.9181836843490601
https://scontent.cdninstagram.com/t51.2885-15/e35/12446243_1744403325789631_94355198_n.jpg?ig_cache_key=MTE2MDQ2MTAyMjU1Mzg5MDM1MA%3D%3D.2,mountain,0.9943877458572388
,landscape,0.9880023002624512
,travel,0.9803640842437744
,outdoors,0.9727725982666016
,no person,0.9666404724121094
,valley,0.9660906791687012
,sky,0.9529412984848022
,rock,0.9518596529960632
,hike,0.9455649852752686
,daylight,0.9450736045837402
,nature,0.9444575905799866
,hill,0.9380176067352295
,scenic,0.9378988742828369
,water,0.9328089952468872
,people,0.9223154783248901
,adventure,0.9092375040054321
,one,0.885982871055603
,recreation,0.885836660861969
,river,0.8765816688537598
,sunset,0.8730131387710571
https://scontent.cdninstagram.com/t51.2885-15/e35/12628029_469021449968758_1787622338_n.jpg?ig_cache_key=MTE2OTIwMTI1Mjc3MzU4NDAxNA%3D%3D.2,water,0.9941766262054443
,sunset,0.994112491607666
,dawn,0.9803085327148438
,travel,0.964337944984436
,no person,0.9633157849311829
,evening,0.958175778388977
,river,0.9516794681549072
,watercraft,0.9491977691650391
,dusk,0.9481527805328369
,boat,0.9388912320137024
,sky,0.9385144114494324
,sea,0.9383347034454346
,harbor,0.9342033267021179
,reflection,0.9333784580230713
,transportation system,0.9331327080726624
,landscape,0.9313595294952393
,vehicle,0.9141515493392944
,ship,0.9100946187973022
,city,0.9082847833633423
,pier,0.8992503881454468
https://scontent.cdninstagram.com/t51.2885-15/e35/12237569_492929670888347_559834538_n.jpg?ig_cache_key=MTExODA2Njk5ODM1NDU2NjczMw%3D%3D.2,water,0.9965919256210327
,travel,0.9896066188812256
,bridge,0.9872978925704956
,river,0.9817687273025513
,evening,0.9814087152481079
,city,0.9795143604278564
,opera,0.9736478328704834
,reflection,0.9645107984542847
,architecture,0.9627761840820312
,no person,0.9544910192489624
,dusk,0.9518241286277771
,sunset,0.9483869671821594
,transportation system,0.9452945590019226
,sea,0.9408838748931885
,vehicle,0.9366744160652161
,light,0.9346680641174316
,building,0.9344176054000854
,watercraft,0.9317142963409424
,sky,0.9314066171646118
,tourism,0.9268776178359985
https://scontent.cdninstagram.com/t51.2885-15/e35/12357723_779712998839933_225911594_n.jpg?ig_cache_key=MTE0NjY0MzIxMTkyNjgyMjY2MA%3D%3D.2,man,0.9937900304794312
,people,0.9888484477996826
,two,0.9723416566848755
,portrait,0.9662982225418091
,woman,0.9590705037117004
,adult,0.9558254480361938
,family,0.942157506942749
,group,0.9359151124954224
,couple,0.9083079695701599
,three,0.908304750919342
,movie,0.904434323310852
,fun,0.8845146894454956
,music,0.8839921951293945
,television,0.883001446723938
,indoors,0.8728733062744141
,group,0.8575599789619446
,theater,0.8546632528305054
,four,0.8546019792556763
,love,0.8528456687927246
,friendship,0.8527193069458008
https://scontent.cdninstagram.com/t51.2885-15/s750x750/sh0.08/e35/13423602_1711151662479580_1176745249_n.jpg?ig_cache_key=MTI3MDc5MzM1NzUxMzM4MzY0Ng%3D%3D.2,travel,0.9814667105674744
,river,0.9691380262374878
,water,0.9651778936386108
,city,0.9559231400489807
,building,0.9557439684867859
,bridge,0.9437175989151001
,architecture,0.9409143328666687
,road,0.9404897689819336
,evening,0.9326101541519165
,motion,0.9290161728858948
,light,0.9284024834632874
,transportation system,0.9255611896514893
,outdoors,0.9197952747344971
,people,0.9078874588012695
,vehicle,0.9034949541091919
,dusk,0.8870460987091064
,waterfront,0.876396894454956
,sky,0.8620470762252808
,festival,0.8466242551803589
,business,0.8464406728744507
https://scontent.cdninstagram.com/t51.2885-15/e35/12317423_549381011883608_239737487_n.jpg?ig_cache_key=MTE0MzUyMzU1MDgxMzE1MTE1OA%3D%3D.2,water,0.9964621067047119
,travel,0.9873376488685608
,sea,0.9817568063735962
,ocean,0.9812389612197876
,beach,0.9788790941238403
,seashore,0.9750295877456665
,summer,0.9649523496627808
,vacation,0.962060809135437
,tropical,0.9610798358917236
,island,0.9578019976615906
,no person,0.9534556865692139
,turquoise,0.9505655765533447
,seascape,0.9473415017127991
,sand,0.9289443492889404
,nature,0.9166510701179504
,relaxation,0.916244387626648
,resort,0.910904049873352
,landscape,0.9107097387313843
,fair weather,0.9060108065605164
,outdoors,0.8992389440536499
https://scontent.cdninstagram.com/t51.2885-15/e35/1172443_1663787317234534_215050152_n.jpg?ig_cache_key=MTE0OTU5MTQ3MjMyMDk5NDQzNg%3D%3D.2,one,0.9723258018493652
,no person,0.9613790512084961
,outdoors,0.9556624889373779
,people,0.9555630683898926
,climb,0.8886476755142212
,adult,0.8783969283103943
,two,0.8746575117111206
,portrait,0.8320202827453613
,travel,0.8209506273269653
,water,0.8177356719970703
,step,0.8144339919090271
,tree,0.7926775813102722
,wood,0.7743289470672607
,man,0.7588095664978027
,religion,0.7520958185195923
,daylight,0.7477115392684937
,nature,0.7249459028244019
,indoors,0.721908688545227
,sculpture,0.7039009928703308
,mammal,0.6984264254570007
https://scontent.cdninstagram.com/t51.2885-15/e15/10601808_1548943882092129_527587474_n.jpg?ig_cache_key=MTE2MzU0NjU0NzM5MzMyMjM2MQ%3D%3D.2,outdoors,0.9983616471290588
,horizontal,0.9950199723243713
,water,0.9922276735305786
,nature,0.9881073236465454
,sea,0.9845221042633057
,beach,0.9762141704559326
,sky,0.9636877775192261
,cloud,0.9605745077133179
,seashore,0.9529315233230591
,landscape,0.9525392055511475
,quiet,0.946499764919281
,rock,0.9368411302566528
,travel,0.9190348386764526
,summer,0.9090992212295532
,tree,0.9047565460205078
,relaxation,0.8999146223068237
,remote,0.8981212377548218
,lake,0.892358660697937
,solitude,0.8891350030899048
,fair weather,0.8871711492538452
https://scontent.cdninstagram.com/t51.2885-15/e35/13391258_1739061376315009_185944171_n.jpg?ig_cache_key=MTI3NTQ1MjE2NzQxODk5NDQ4NA%3D%3D.2,water,0.9905316829681396
,travel,0.9835547208786011
,city,0.9818456768989563
,architecture,0.9772228002548218
,modern,0.9732358455657959
,building,0.9716194868087769
,urban,0.9635728001594543
,outdoors,0.9440270662307739
,sky,0.9422597885131836
,skyscraper,0.9339227676391602
,reflection,0.9330017566680908
,summer,0.9296668767929077
,hotel,0.9295361042022705
,business,0.929105281829834
,office,0.9274562001228333
,downtown,0.9265795946121216
,river,0.9165258407592773
,pool,0.8976643085479736
,sight,0.8938664793968201
,luxury,0.8919152021408081
https://scontent.cdninstagram.com/t51.2885-15/e35/13260917_973178636133712_23439010_n.jpg?ig_cache_key=MTI1NTUyODU5NTQxNDI0NTEwMw%3D%3D.2,beach,0.9909614324569702
,sea,0.9908814430236816
,water,0.9895194172859192
,ocean,0.9820400476455688
,seashore,0.9811641573905945
,travel,0.9626505374908447
,sand,0.9545207023620605
,leisure,0.9525044560432434
,summer,0.9519869089126587
,woman,0.9515619874000549
,girl,0.9393641352653503
,recreation,0.9296588897705078
,relaxation,0.9289095401763916
,vacation,0.9187278747558594
,bikini,0.917322039604187
,one,0.910489559173584
,outdoors,0.901475191116333
,sky,0.9009371995925903
,lifestyle,0.8947768807411194
,adult,0.8734285831451416
https://scontent.cdninstagram.com/t51.2885-15/e35/11267566_434700980049672_2128796280_n.jpg?ig_cache_key=MTEyNTMxMjA5MzI2NDk5MzgwNQ%3D%3D.2,water,0.9921203851699829
,nature,0.9892995357513428
,outdoors,0.980181097984314
,travel,0.977325439453125
,landscape,0.9702945947647095
,rock,0.9674840569496155
,river,0.964485764503479
,summer,0.9620967507362366
,wood,0.9581103324890137
,mountain,0.9470745325088501
,beautiful,0.9416229724884033
,stream,0.9395827054977417
,waterfall,0.9317444562911987
,adventure,0.9284845590591431
,recreation,0.9251019954681396
,hike,0.9212630987167358
,stone,0.9194790720939636
,park,0.9153684377670288
,leisure,0.9054139256477356
,vacation,0.9041906595230103
https://scontent.cdninstagram.com/t51.2885-15/e35/925388_1270473729636840_1137947509_n.jpg?ig_cache_key=MTE1OTIyMzYyOTk5MzY2NDMyOA%3D%3D.2,sea,0.9932931065559387
,water,0.9931560754776001
,travel,0.9873330593109131
,seashore,0.9822400808334351
,ocean,0.980035662651062
,beach,0.9759047031402588
,no person,0.9741470217704773
,watercraft,0.9584517478942871
,vacation,0.9428911209106445
,resort,0.9252301454544067
,sky,0.9237585067749023
,summer,0.9209882020950317
,leisure,0.9137605428695679
,bay,0.9118832349777222
,island,0.8906646966934204
,outdoors,0.8842623233795166
,tourism,0.8842407464981079
,recreation,0.879763126373291
,harbor,0.8651669025421143
,seascape,0.8648965358734131
https://scontent.cdninstagram.com/t51.2885-15/e35/12362047_936267556427904_536936298_n.jpg?ig_cache_key=MTE0MTg0MDE3NDI4NDcyNTYzNw%3D%3D.2,woman,0.9902963638305664
,togetherness,0.9852631092071533
,facial expression,0.9848078489303589
,love,0.9824496507644653
,embrace,0.9799827337265015
,portrait,0.9796125888824463
,friendship,0.971969723701477
,affection,0.9711167216300964
,family,0.9708264470100403
,people,0.9698019027709961
,happiness,0.9684630632400513
,brunette,0.9665563702583313
,two,0.9663562774658203
,girl,0.9427345991134644
,interaction,0.9404966831207275
,fun,0.9308045506477356
,joy,0.9252841472625732
,adolescent,0.9243308305740356
,romance,0.9199039936065674
,leisure,0.9153124094009399
https://scontent.cdninstagram.com/t51.2885-15/e35/12905191_1537556299881360_334235304_n.jpg?ig_cache_key=MTIyNTk3OTYwNTc4MjAyNzk5Mw%3D%3D.2,water,0.9901056289672852
,travel,0.9788728952407837
,sea,0.9760627746582031
,beach,0.9668959379196167
,summer,0.9627624750137329
,sky,0.9625824689865112
,outdoors,0.9567229747772217
,seashore,0.9523329734802246
,nature,0.9483404159545898
,ocean,0.9413818717002869
,landscape,0.9276957511901855
,relaxation,0.9266142845153809
,vacation,0.9145579934120178
,sun,0.8990715742111206
,recreation,0.8879866600036621
,leisure,0.885429322719574
,fair weather,0.8615249395370483
,composure,0.8469568490982056
,island,0.8460962772369385
,sand,0.8353785276412964
https://scontent.cdninstagram.com/t51.2885-15/e35/12501468_1734690450094075_1822708_n.jpg?ig_cache_key=MTE2NDM5MTIyMTA2MjQ1OTAxMA%3D%3D.2,sunset,0.9972847700119019
,water,0.9916645288467407
,dawn,0.988290548324585
,no person,0.9844963550567627
,dusk,0.980897068977356
,evening,0.9797422885894775
,sky,0.9460245370864868
,river,0.9434047937393188
,reflection,0.9295647144317627
,outdoors,0.9219021201133728
,lake,0.91938316822052
,travel,0.9190196990966797
,sun,0.9100807905197144
,city,0.9098042845726013
,sea,0.8920705318450928
,moon,0.8795866966247559
,landscape,0.871983528137207
,light,0.8624021410942078
,nature,0.8599470257759094
,architecture,0.841352105140686
https://scontent.cdninstagram.com/t51.2885-15/e35/10311276_199154023797987_1280988040_n.jpg?ig_cache_key=MTIxNTg1NTAxMTQxMDY2NDgxOQ%3D%3D.2,bridge,0.9953891634941101
,travel,0.9864105582237244
,water,0.9842209815979004
,outdoors,0.9696285724639893
,architecture,0.9680772423744202
,people,0.9595309495925903
,sky,0.9444868564605713
,city,0.9373815655708313
,vehicle,0.9210236072540283
,daylight,0.9109270572662354
,building,0.9099785089492798
,no person,0.9036864042282104
,transportation system,0.8982071876525879
,recreation,0.896409273147583
,connection,0.8934141397476196
,tourism,0.8757169246673584
,one,0.8647208213806152
,tourist,0.8641833066940308
,ocean,0.8627647757530212
,adult,0.8587778806686401
https://scontent.cdninstagram.com/t51.2885-15/s750x750/sh0.08/e35/13113840_517041398487665_547103011_n.jpg?ig_cache_key=MTI0OTg5ODg2ODUxNTIwMDI5OA%3D%3D.2,group,0.9945638179779053
,group,0.9852466583251953
,adult,0.98356032371521
,people,0.9831100702285767
,four,0.9777243733406067
,man,0.9761793613433838
,woman,0.9749797582626343
,facial expression,0.9712048768997192
,seat,0.9687199592590332
,portrait,0.9685620069503784
,indoors,0.9674094319343567
,family,0.9630795121192932
,three,0.9604072570800781
,room,0.9428497552871704
,five,0.9171065092086792
,music,0.9147242307662964
,sofa,0.9118658304214478
,happiness,0.9104844927787781
,interaction,0.8945519328117371
,offspring,0.8925132751464844
https://scontent.cdninstagram.com/t51.2885-15/e35/12545529_963144777113532_1661028751_n.jpg?ig_cache_key=MTE3ODI4MzQ1Mjc2MDUxMzk3NA%3D%3D.2,people,0.9963057637214661
,group,0.992546796798706
,portrait,0.9903398752212524
,group,0.9831748008728027
,music,0.981452226638794
,adult,0.9759867787361145
,man,0.9759242534637451
,musician,0.9708578586578369
,three,0.9655770063400269
,four,0.9648069143295288
,woman,0.9521011114120483
,actress,0.9470812082290649
,actor,0.9384572505950928
,singer,0.9334441423416138
,movie,0.9127435684204102
,several,0.9125764966011047
,recreation,0.9125157594680786
,wear,0.9099825024604797
,two,0.9057561159133911
,facial expression,0.9015958309173584
https://scontent.cdninstagram.com/t51.2885-15/sh0.08/e35/p640x640/12935156_1782135995353508_1304698749_n.jpg?ig_cache_key=MTIzMjY0NjM2NDkwNzg4ODM3MA%3D%3D.2,beach,0.9872443675994873
,water,0.9847961664199829
,travel,0.9836700558662415
,tropical,0.9831475019454956
,idyllic,0.980358362197876
,summer,0.9721866846084595
,relaxation,0.9706946611404419
,seashore,0.968064546585083
,island,0.9633630514144897
,leisure,0.9541431665420532
,recreation,0.9513546228408813
,vacation,0.950817346572876
,sun,0.9506200551986694
,ocean,0.9475775361061096
,sand,0.9413515329360962
,no person,0.927527904510498
,exotic,0.927111804485321
,fair weather,0.9147541522979736
,palm,0.9094205498695374
,resort,0.8972594738006592
https://scontent.cdninstagram.com/t51.2885-15/e35/12940275_1688817988040839_225264071_n.jpg?ig_cache_key=MTIyNTg3MDM2MDAxNzI5NzIyMw%3D%3D.2,water,0.9939894080162048
,beach,0.9867280125617981
,sea,0.9840625524520874
,ocean,0.9810941219329834
,travel,0.9693704843521118
,seashore,0.967474102973938
,people,0.9655824303627014
,summer,0.938610315322876
,leisure,0.9255489110946655
,vacation,0.9248385429382324
,recreation,0.9183010458946228
,landscape,0.916351318359375
,woman,0.9156282544136047
,sunset,0.9149958491325378
,sky,0.9132893085479736
,sun,0.9068279266357422
,watercraft,0.9028546810150146
,girl,0.8856901526451111
,outdoors,0.8696879744529724
,adult,0.8681107759475708
https://scontent.cdninstagram.com/t51.2885-15/e35/13256766_1616509831998635_1095457750_n.jpg?ig_cache_key=MTI1NDUwMzcyNDUwNDc2NzUxOQ%3D%3D.2,woman,0.989594042301178
,portrait,0.9888207316398621
,people,0.9848353862762451
,facial expression,0.9801110029220581
,adult,0.9514331817626953
,girl,0.9419846534729004
,happiness,0.9356833100318909
,brunette,0.9233589172363281
,daylight,0.9229708313941956
,indoors,0.904354453086853
,outdoors,0.9022952318191528
,man,0.894101083278656
,interaction,0.8892226815223694
,togetherness,0.8879960179328918
,wear,0.8862987160682678
,two,0.8796079158782959
,adolescent,0.8740025758743286
,enjoyment,0.8649072647094727
,friendship,0.8340017795562744
,child,0.8325697779655457
https://scontent.cdninstagram.com/t51.2885-15/e35/12724688_866642816790855_1890622209_n.jpg?ig_cache_key=MTIzNzY0ODc3ODAxMDQ4Mzg5MQ%3D%3D.2,sky,0.9949474334716797
,sunset,0.9944186806678772
,moon,0.9928835034370422
,no person,0.9892127513885498
,dusk,0.9869866371154785
,evening,0.9842801690101624
,silhouette,0.9759896993637085
,light,0.9734658002853394
,sun,0.9720396995544434
,dawn,0.9666469693183899
,landscape,0.9634523987770081
,astronomy,0.959246039390564
,travel,0.9582164883613586
,airplane,0.9533942341804504
,outdoors,0.9499085545539856
,daylight,0.9461085796356201
,backlit,0.9453335404396057
,aircraft,0.9388684034347534
,vehicle,0.9387162923812866
,eclipse,0.9327791929244995
https://scontent.cdninstagram.com/t51.2885-15/e35/12950307_228521594173856_310823815_n.jpg?ig_cache_key=MTIyNTMyOTg2Mjg4NjIxOTMxOA%3D%3D.2,group,0.9881108999252319
,woman,0.9810426831245422
,people,0.9688112139701843
,music,0.9569151401519775
,portrait,0.9536256194114685
,group,0.9433071613311768
,festival,0.9353954195976257
,musician,0.9026963710784912
,friendship,0.8986488580703735
,man,0.8939469456672668
,band,0.8867636322975159
,many,0.8798338174819946
,singer,0.8763072490692139
,facial expression,0.8751339316368103
,family,0.8694020509719849
,school,0.85359787940979
,education,0.8517589569091797
,adolescent,0.8419655561447144
,performance,0.8364987373352051
,adult,0.8350085020065308
https://scontent.cdninstagram.com/t51.2885-15/e35/12749886_190560301308315_1279442660_n.jpg?ig_cache_key=MTE5Mjc1OTcyMjI3MzU5NTE0OQ%3D%3D.2,water,0.9974820613861084
,summer,0.9966251850128174
,travel,0.9925968050956726
,beach,0.9877846240997314
,sea,0.9873007535934448
,vacation,0.9853764772415161
,fair weather,0.9799458980560303
,sun,0.9788697361946106
,ocean,0.9775307178497314
,sunglasses,0.9750851392745972
,leisure,0.973107099533081
,recreation,0.971221923828125
,relaxation,0.9707792401313782
,sky,0.9603564143180847
,sand,0.9549813866615295
,tropical,0.954530656337738
,swimming,0.9539957642555237
,outdoors,0.9512779116630554
,nature,0.9440814852714539
,seashore,0.9425182342529297
https://scontent.cdninstagram.com/t51.2885-15/e35/13113893_1729700097300414_1505937356_n.jpg?ig_cache_key=MTI0OTEzODExNzQ1ODQ1MjAzMQ%3D%3D.2,animal,0.9868934154510498
,dog,0.9850615859031677
,girl,0.9774113893508911
,mammal,0.9773867726325989
,friendship,0.9711920022964478
,portrait,0.9711208939552307
,cute,0.9678522348403931
,grass,0.966339111328125
,pet,0.9658918380737305
,people,0.9644265174865723
,nature,0.958709716796875
,outdoors,0.9560729265213013
,love,0.9498987197875977
,fun,0.9412457346916199
,park,0.9312033653259277
,woman,0.9296565055847168
,young,0.922866940498352
,beautiful,0.9097588658332825
,two,0.9093990921974182
,happiness,0.9081488251686096
https://scontent.cdninstagram.com/t51.2885-15/e35/13130034_586463518198357_1733845798_n.jpg?ig_cache_key=MTI0MDYxMTE4MTgyNDIzNzU1Mw%3D%3D.2,portrait,0.9950939416885376
,fashion,0.9928750991821289
,model,0.9915400147438049
,girl,0.9911832809448242
,woman,0.9901093244552612
,glamour,0.9746986627578735
,face,0.9711189270019531
,people,0.9704968333244324
,eye,0.9531424045562744
,adult,0.9484807252883911
,lips,0.9483036994934082
,sexy,0.9313720464706421
,studio,0.931300699710846
,beautiful,0.9106596112251282
,art,0.9008184671401978
,hairdo,0.8951817750930786
,one,0.8895725011825562
,hair,0.8839229345321655
,skin,0.8762012720108032
,lady,0.8702849745750427
https://scontent.cdninstagram.com/t51.2885-15/e35/11356020_239108486427052_250827894_n.jpg?ig_cache_key=MTE5MTA2NDQ0NDI5ODUxNzg3MQ%3D%3D.2,water,0.9950280785560608
,beach,0.9902332425117493
,seashore,0.9895097017288208
,ocean,0.9882237911224365
,sea,0.9842525720596313
,travel,0.9833056926727295
,summer,0.9592081904411316
,vacation,0.957930862903595
,island,0.9567303657531738
,tropical,0.9538572430610657
,recreation,0.9485953450202942
,sand,0.9424935579299927
,seascape,0.9280366897583008
,surf,0.9194139242172241
,wave,0.9078723192214966
,relaxation,0.9069097638130188
,sky,0.9049458503723145
,landscape,0.8924990296363831
,leisure,0.8920787572860718
,bay,0.8860337734222412
https://scontent.cdninstagram.com/t51.2885-15/sh0.08/e35/p750x750/12558704_572956639523767_1814359574_n.jpg?ig_cache_key=MTE3MDczMDE3MDI5MDcyNDIwNg%3D%3D.2,woman,0.9950060248374939
,girl,0.9833470582962036
,portrait,0.9816457033157349
,brunette,0.9636726379394531
,love,0.9630946516990662
,fashion,0.9491933584213257
,people,0.9431681632995605
,sexy,0.9306725859642029
,pretty,0.9098426699638367
,togetherness,0.9018573760986328
,happiness,0.8957135081291199
,facial expression,0.8908998966217041
,nude,0.8889877200126648
,glamour,0.8777761459350586
,romance,0.8759461641311646
,adult,0.8605955839157104
,model,0.8554717302322388
,indoors,0.8554124236106873
,joy,0.8512752056121826
,fun,0.8456553220748901
https://scontent.cdninstagram.com/t51.2885-15/e35/10584632_1507562262881634_946008472_n.jpg?ig_cache_key=MTE1MzM0MDc2MTc1NzExMzcyNA%3D%3D.2,city,0.9957690238952637
,cityscape,0.9857293367385864
,architecture,0.9855395555496216
,skyline,0.9819653034210205
,bridge,0.9766998291015625
,travel,0.9659047722816467
,panorama,0.9653807878494263
,sunset,0.9579828977584839
,sky,0.9572875499725342
,sight,0.9547736644744873
,urban,0.953998327255249
,castle,0.9506521224975586
,building,0.9479328393936157
,panoramic,0.943783700466156
,landmark,0.9426225423812866
,light,0.940090537071228
,church,0.9321081042289734
,river,0.9217392206192017
,old,0.9212129712104797
,capital,0.9179783463478088
https://scontent.cdninstagram.com/t51.2885-15/e35/12751190_1716179741937026_602823183_n.jpg?ig_cache_key=MTE5MTA4MzA3OTA3OTQ4NTA0Nw%3D%3D.2,water,0.9994705319404602
,travel,0.995022177696228
,summer,0.993719220161438
,sand,0.9936918020248413
,vacation,0.9935688376426697
,beach,0.9931561946868896
,tropical,0.9927940368652344
,leisure,0.991836667060852
,ocean,0.9910176992416382
,recreation,0.9901437759399414
,sea,0.9865927696228027
,relaxation,0.9854261875152588
,swimming,0.9762167930603027
,fair weather,0.973175048828125
,sun,0.9690618515014648
,snorkeling,0.9675559997558594
,sky,0.9634201526641846
,seashore,0.9558581113815308
,turquoise,0.9532037973403931
,enjoyment,0.9421659708023071
https://scontent.cdninstagram.com/t51.2885-15/s640x640/sh0.08/e35/12407245_1665802210345578_1276181945_n.jpg?ig_cache_key=MTE3NTMyOTg3OTE0Nzg2MzI5OA%3D%3D.2,beach,0.9903016090393066
,sea,0.9864170551300049
,sand,0.9836013317108154
,seashore,0.9785556197166443
,ocean,0.9771597385406494
,travel,0.9731941223144531
,water,0.9700470566749573
,summer,0.9623197317123413
,vacation,0.9498457908630371
,no person,0.9097462892532349
,shore,0.8896242380142212
,island,0.8852251172065735
,sky,0.873450756072998
,sun,0.8697768449783325
,tourism,0.8694487810134888
,relaxation,0.8645011186599731
,landscape,0.8377842903137207
,tropical,0.8125369548797607
,nature,0.8063828349113464
,sunny,0.7894080877304077
https://scontent.cdninstagram.com/t51.2885-15/e35/p480x480/12568788_1633562673532979_945359069_n.jpg?ig_cache_key=MTE4MTE2NzY4OTk3MzAzMDI1Nw%3D%3D.2,sunset,0.9953588247299194
,beach,0.9859975576400757
,sun,0.9717178344726562
,water,0.9705206155776978
,sea,0.9695731401443481
,dusk,0.9605899453163147
,evening,0.9586606025695801
,ocean,0.95688396692276
,dawn,0.9555321931838989
,girl,0.9529431462287903
,seashore,0.9340739250183105
,people,0.9330853819847107
,woman,0.9248130321502686
,landscape,0.9017456769943237
,backlit,0.8786391019821167
,travel,0.857999861240387
,love,0.8563194274902344
,sand,0.847746729850769
,adult,0.8376094698905945
,leisure,0.8273657560348511
https://scontent.cdninstagram.com/t51.2885-15/e35/924990_1325499894132318_1575080284_n.jpg?ig_cache_key=MTIxNjY2MzIwNjgyMzY0ODMyMQ%3D%3D.2,beach,0.9963400959968567
,sand,0.9879544377326965
,travel,0.9819624423980713
,sea,0.9797073602676392
,sky,0.9676340222358704
,people,0.9658844470977783
,ocean,0.9650887250900269
,water,0.9605924487113953
,seashore,0.9511061906814575
,sun,0.937218189239502
,outdoors,0.9348698854446411
,landscape,0.932774543762207
,desert,0.9257123470306396
,summer,0.9195771217346191
,girl,0.9190195798873901
,city,0.9015902280807495
,vacation,0.8943051099777222
,sunset,0.8757773637771606
,nature,0.867566704750061
,leisure,0.8599228858947754
https://scontent.cdninstagram.com/t51.2885-15/e35/12345871_1741900602697739_632361586_n.jpg?ig_cache_key=MTE0NzU5MjMyMjczMzc2MDQwOA%3D%3D.2,woman,0.9925297498703003
,people,0.986251950263977
,portrait,0.9488186240196228
,facial expression,0.9461475014686584
,recreation,0.9427363872528076
,girl,0.9351069927215576
,friendship,0.9310128688812256
,adult,0.9220024347305298
,outdoors,0.9151880741119385
,enjoyment,0.9103459715843201
,brunette,0.8904542922973633
,summer,0.881098747253418
,park,0.867576539516449
,togetherness,0.8604073524475098
,adolescent,0.8597531914710999
,fun,0.8561415672302246
,love,0.8403720259666443
,group,0.8350797891616821
,family,0.8291033506393433
,man,0.8074969053268433
https://scontent.cdninstagram.com/t51.2885-15/sh0.08/e35/p750x750/12599241_1677437332531749_712855611_n.jpg?ig_cache_key=MTE4MzIwNDkyNzc2NjQ1Mzk2MA%3D%3D.2,facial expression,0.9966682195663452
,friendship,0.9846346378326416
,portrait,0.9810126423835754
,people,0.9798317551612854
,woman,0.9739350080490112
,interaction,0.9723294973373413
,togetherness,0.9717330932617188
,wear,0.9644322395324707
,group,0.9633817076683044
,happiness,0.9483839869499207
,adult,0.9365004897117615
,three,0.9338565468788147
,girl,0.9327234029769897
,two,0.9226647615432739
,music,0.9204589128494263
,youth,0.913861870765686
,recreation,0.9100310802459717
,laughing,0.9094048738479614
,child,0.8982914686203003
,daylight,0.8956812620162964
https://scontent.cdninstagram.com/t51.2885-15/sh0.08/e35/p750x750/13391249_604027539772670_79193658_n.jpg?ig_cache_key=MTI3MTY5NTIyNDY3ODMwOTU3NA%3D%3D.2,tower,0.9960138201713562
,architecture,0.9953429698944092
,city,0.9922707080841064
,tallest,0.9904283881187439
,sky,0.9892540574073792
,building,0.9853100180625916
,skyscraper,0.9846012592315674
,business,0.9838158488273621
,urban,0.9767241477966309
,expression,0.9721550941467285
,high,0.9720571041107178
,construction,0.9649158716201782
,finance,0.9637240171432495
,high,0.9633777737617493
,downtown,0.9632580280303955
,twin,0.9561179876327515
,office,0.9499771595001221
,people,0.9439095258712769
,skyline,0.9407492280006409
,cityscape,0.9381794333457947
https://scontent.cdninstagram.com/t51.2885-15/e35/12822576_502545876601386_809195533_n.jpg?ig_cache_key=MTE5NzU3MDc3ODA5MTE1MTA3MQ%3D%3D.2,marsupial,0.9998557567596436
,kangaroo,0.9998259544372559
,wallaby,0.999080240726471
,pouch,0.9952730536460876
,mammal,0.9952084422111511
,nature,0.992577314376831
,fur,0.9924473762512207
,wildlife,0.9923173785209656
,cute,0.9885547161102295
,animal,0.9866275787353516
,grey,0.9864262938499451
,no person,0.9841288328170776
,wild,0.9832764863967896
,grass,0.98162442445755
,native,0.9748504757881165
,young,0.9708399772644043
,tail,0.9652731418609619
,hop,0.9643280506134033
,wood,0.9639610648155212
,outdoors,0.9635238647460938
https://scontent.cdninstagram.com/t51.2885-15/e35/12568807_1001018733311350_327374588_n.jpg?ig_cache_key=MTE3Njc3MTA3ODQxNzIxMDU2NA%3D%3D.2,city,0.9834217429161072
,travel,0.9726814031600952
,water,0.9660929441452026
,no person,0.9649776220321655
,light,0.96199631690979
,evening,0.9525121450424194
,architecture,0.943346381187439
,vehicle,0.9431264400482178
,building,0.935738205909729
,river,0.9341337084770203
,transportation system,0.9262570142745972
,reflection,0.9144369959831238
,bridge,0.9052629470825195
,road,0.9007757902145386
,cityscape,0.900657057762146
,outdoors,0.8930774927139282
,landscape,0.8883415460586548
,sky,0.886060357093811
,energy,0.883468508720398
,street,0.8731237649917603
https://scontent.cdninstagram.com/t51.2885-15/e15/12960058_528273537353149_1538266806_n.jpg?ig_cache_key=MTIzMjY0NzM4NTQ3NDMyNjI4Mw%3D%3D.2,sunglasses,0.9969927072525024
,water,0.9939122200012207
,summer,0.9937986731529236
,travel,0.9846301674842834
,vacation,0.9838757514953613
,beach,0.9824846982955933
,leisure,0.9784228801727295
,recreation,0.9660900235176086
,outdoors,0.9655440449714661
,sea,0.9623329639434814
,swimming,0.9574617743492126
,people,0.9420585632324219
,relaxation,0.9410359859466553
,woman,0.9381387829780579
,fair weather,0.9365384578704834
,fun,0.9270569086074829
,seashore,0.9268089532852173
,eyewear,0.9246015548706055
,ocean,0.9241286516189575
,nature,0.9173634052276611
https://scontent.cdninstagram.com/t51.2885-15/e35/12716691_579796935506704_28515567_n.jpg?ig_cache_key=MTE5MTgzNjgzNTczMTY2MDUxMw%3D%3D.2,beach,0.9931395053863525
,sand,0.9931282997131348
,water,0.9893200397491455
,seashore,0.9840198755264282
,travel,0.9832910895347595
,no person,0.9787946343421936
,sea,0.9732476472854614
,ocean,0.9694263339042664
,summer,0.9676460027694702
,seascape,0.9600892663002014
,sun,0.9488875865936279
,vacation,0.9477039575576782
,surf,0.9466478228569031
,fair weather,0.9437543153762817
,tropical,0.9389501810073853
,island,0.9325823783874512
,sky,0.9178347587585449
,relaxation,0.915684700012207
,turquoise,0.9044478535652161
,idyllic,0.8980189561843872
https://scontent.cdninstagram.com/t51.2885-15/s750x750/sh0.08/e35/12750186_1553610738285735_873495442_n.jpg?ig_cache_key=MTE4NjA3NDUxODcyOTQ0OTE0OA%3D%3D.2,candle,0.9830734729766846
,celebration,0.9785444736480713
,people,0.9757769107818604
,restaurant,0.966195821762085
,man,0.9649190902709961
,indoors,0.9614472389221191
,two,0.9597474336624146
,wine,0.9519053101539612
,family,0.9472023844718933
,woman,0.9464694261550903
,four,0.944988489151001
,elderly,0.9442247152328491
,romance,0.9399404525756836
,love,0.9311410784721375
,adult,0.9225339889526367
,drink,0.9160729646682739
,enjoyment,0.9148012399673462
,ceremony,0.9026057720184326
,three,0.8960775136947632
,group,0.8929200172424316
https://scontent.cdninstagram.com/t51.2885-15/e35/1168611_1738569833042268_586590534_n.jpg?ig_cache_key=MTE5MTE2MDY1NjM0NzQ1NTMwNQ%3D%3D.2,summer,0.9782726764678955
,outdoors,0.9687261581420898
,woman,0.9684509038925171
,people,0.9668592214584351
,nature,0.9662818908691406
,portrait,0.9656744003295898
,young,0.9568490982055664
,girl,0.9555753469467163
,beautiful,0.9505268335342407
,sunglasses,0.946480929851532
,adult,0.9450174570083618
,fun,0.9231722950935364
,cute,0.9107021689414978
,park,0.9015960693359375
,two,0.9014902114868164
,brunette,0.8969069719314575
,child,0.8856367468833923
,happiness,0.8584933876991272
,one,0.8558022379875183
,leisure,0.8446534872055054
https://scontent.cdninstagram.com/t51.2885-15/e35/12534227_1551022818546498_143753608_n.jpg?ig_cache_key=MTE3MTk2MzQyNzg3MTE4NTkyMQ%3D%3D.2,water,0.9955590963363647
,sea,0.9866456389427185
,no person,0.9845232963562012
,travel,0.9770653247833252
,ocean,0.9769285917282104
,outdoors,0.9604347944259644
,surf,0.9593181610107422
,beach,0.9576988220214844
,seashore,0.9543215036392212
,sky,0.9417277574539185
,recreation,0.9179534316062927
,seascape,0.9137047529220581
,landscape,0.9117408394813538
,summer,0.9079692959785461
,nature,0.8948570489883423
,sunset,0.8807210922241211
,daylight,0.8717087507247925
,rock,0.8665269017219543
,fair weather,0.8650151491165161
,leisure,0.8593466281890869
https://scontent.cdninstagram.com/t51.2885-15/e35/12751388_1047341581990514_886215418_n.jpg?ig_cache_key=MTIwMjA3OTI2OTU1MjA1MzUzNw%3D%3D.2,water,0.9908508658409119
,no person,0.9907697439193726
,travel,0.9868703484535217
,seashore,0.9867666959762573
,sea,0.9770981073379517
,ocean,0.9679884910583496
,beach,0.9674372673034668
,landscape,0.9563776254653931
,sky,0.9507149457931519
,island,0.9461684226989746
,nature,0.9442946910858154
,mountain,0.9410884380340576
,outdoors,0.9374443292617798
,rock,0.9349017143249512
,scenic,0.9330579042434692
,daylight,0.928476095199585
,vacation,0.9264467358589172
,summer,0.9215553998947144
,bay,0.9172986745834351
,seascape,0.8912336826324463
