url,class,score,,,,,,,,
https://scontent.cdninstagram.com/t51.2885-15/e35/13473176_1027709553932384_965045145_n.jpg,chocolate,0.9863116145133972,Food,,,,Dessert,,,
,vanilla,0.9834127426147461,,,,,,,,
,cream,0.9824522137641907,,,,,,,,
,sugar,0.9746621251106262,,,,,,,,
,candy,0.9726197719573975,,,,,,,,
,delicious,0.9691242575645447,,,,,,,,
,sweet,0.9669922590255737,,,,,,,,
,merchandise,0.9655263423919678,,,,,,,,
,"no person",0.9652384519577026,,,,,,,,
,indulgence,0.9573255777359009,,,,,,,,
,ice,0.951485276222229,,,,,,,,
,sprinkles,0.9505040049552917,,,,,,,,
,cake,0.9504736661911011,,,,,,,,
,baking,0.9451704621315002,,,,,,,,
,option,0.933179497718811,,,,,,,,
,food,0.9319366216659546,,,,,,,,
,indoors,0.9148367643356323,,,,,,,,
,cone,0.9134398698806763,,,,,,,,
,cornet,0.9077112674713135,,,,,,,,
,kind,0.9054962396621704,,,,,,,,
https://scontent.cdninstagram.com/t51.2885-15/e35/13380895_825820534219095_1728562272_n.jpg,sunset,0.9928432703018188,Environment,Travel,,,"Natural beauty",Travel-s,,
,water,0.9890772700309753,,,,,,,,
,backlit,0.9831115007400513,,,,,,,,
,people,0.9707192778587341,,,,,,,,
,dawn,0.9616100788116455,,,,,,,,
,dusk,0.9573417901992798,,,,,,,,
,watercraft,0.9458606243133545,,,,,,,,
,beach,0.9415159225463867,,,,,,,,
,recreation,0.9402680993080139,,,,,,,,
,landscape,0.9319867491722107,,,,,,,,
,ocean,0.9318852424621582,,,,,,,,
,evening,0.9260662198066711,,,,,,,,
,silhouette,0.9230787754058838,,,,,,,,
,sea,0.9205175638198853,,,,,,,,
,seashore,0.9164482355117798,,,,,,,,
,sun,0.889707088470459,,,,,,,,
,adult,0.8830384016036987,,,,,,,,
,one,0.8802576661109924,,,,,,,,
,vehicle,0.8705258965492249,,,,,,,,
,travel,0.8523663282394409,,,,,,,,
https://scontent.cdninstagram.com/t51.2885-15/e35/13385655_1216753178343540_167154902_n.jpg,"no person",0.9935829043388367,Cute,,,,Cute,,,
,one,0.9845544099807739,,,,,,,,
,indoors,0.9825748205184937,,,,,,,,
,dog,0.9811910390853882,,,,,,,,
,mammal,0.9782496690750122,,,,,,,,
,canine,0.9699711799621582,,,,,,,,
,Easter,0.9696308374404907,,,,,,,,
,people,0.9630143642425537,,,,,,,,
,pet,0.9600890874862671,,,,,,,,
,downy,0.9556809663772583,,,,,,,,
,wear,0.9546762704849243,,,,,,,,
,rabbit,0.9492374658584595,,,,,,,,
,toy,0.9455491304397583,,,,,,,,
,bird,0.9366596937179565,,,,,,,,
,fur,0.9350757598876953,,,,,,,,
,cute,0.9327212572097778,,,,,,,,
,portrait,0.9281717538833618,,,,,,,,
,adult,0.9194594621658325,,,,,,,,
,cat,0.9188377857208252,,,,,,,,
,chicken,0.9183942079544067,,,,,,,,
https://scontent.cdninstagram.com/t51.2885-15/e35/13385655_1216753178343540_167154902_n.jpg,"no person",0.9935829043388367,Cute,,,,Cute,,,
,one,0.9845544099807739,,,,,,,,
,indoors,0.9825748205184937,,,,,,,,
,dog,0.9811910390853882,,,,,,,,
,mammal,0.9782496690750122,,,,,,,,
,canine,0.9699711799621582,,,,,,,,
,Easter,0.9696308374404907,,,,,,,,
,people,0.9630143642425537,,,,,,,,
,pet,0.9600890874862671,,,,,,,,
,downy,0.9556809663772583,,,,,,,,
,wear,0.9546762704849243,,,,,,,,
,rabbit,0.9492374658584595,,,,,,,,
,toy,0.9455491304397583,,,,,,,,
,bird,0.9366596937179565,,,,,,,,
,fur,0.9350757598876953,,,,,,,,
,cute,0.9327212572097778,,,,,,,,
,portrait,0.9281717538833618,,,,,,,,
,adult,0.9194594621658325,,,,,,,,
,cat,0.9188377857208252,,,,,,,,
,chicken,0.9183942079544067,,,,,,,,
https://scontent.cdninstagram.com/t51.2885-15/e35/13525594_1628361774157560_1114602233_n.jpg,paper,0.9869353771209717,Arts,,,,Arts-s,,,
,business,0.9850931763648987,,,,,,,,
,note,0.9786325693130493,,,,,,,,
,composition,0.9719424843788147,,,,,,,,
,office,0.9698039889335632,,,,,,,,
,writing,0.9664398431777954,,,,,,,,
,education,0.9627234935760498,,,,,,,,
,document,0.9397116303443909,,,,,,,,
,notebook,0.9346722364425659,,,,,,,,
,work,0.9216463565826416,,,,,,,,
,"no person",0.9215121269226074,,,,,,,,
,pencil,0.9197119474411011,,,,,,,,
,desk,0.917945146560669,,,,,,,,
,data,0.9029390811920166,,,,,,,,
,text,0.9006536602973938,,,,,,,,
,school,0.8922662734985352,,,,,,,,
,laptop,0.8905313014984131,,,,,,,,
,finance,0.8888310194015503,,,,,,,,
,sketch,0.8847419023513794,,,,,,,,
,wood,0.8617784976959229,,,,,,,,
https://scontent.cdninstagram.com/t51.2885-15/e35/13397636_187271311674259_1910870935_n.jpg,people,0.9509310722351074,Commerce,Gifts,Celebrations,,"Product/brand shots",Gifts-s,"Personal Events",
,food,0.9500347375869751,,,,,,,,
,indoors,0.9497628211975098,,,,,,,,
,woman,0.9279894828796387,,,,,,,,
,business,0.9206756353378296,,,,,,,,
,computer,0.9178751707077026,,,,,,,,
,adult,0.9136507511138916,,,,,,,,
,room,0.9050358533859253,,,,,,,,
,internet,0.9038543701171875,,,,,,,,
,technology,0.8904677033424377,,,,,,,,
,man,0.8816710710525513,,,,,,,,
,furniture,0.8798187971115112,,,,,,,,
,coffee,0.8498272895812988,,,,,,,,
,table,0.8496991395950317,,,,,,,,
,commerce,0.8438019752502441,,,,,,,,
,telephone,0.8386869430541992,,,,,,,,
,family,0.8104044198989868,,,,,,,,
,drink,0.7985481023788452,,,,,,,,
,portrait,0.7823983430862427,,,,,,,,
,meal,0.7784817218780518,,,,,,,,
https://scontent.cdninstagram.com/t51.2885-15/e35/13422869_1716319251941651_1498788565_n.jpg,paper,0.9843437671661377,Commerce,Food,,,"Product/brand shots",Food-s,,
,money,0.9737976789474487,,,,,,,,
,business,0.9728463888168335,,,,,,,,
,money,0.9610723257064819,,,,,,,,
,note,0.9387645721435547,,,,,,,,
,cash,0.9287301898002625,,,,,,,,
,wealth,0.9268498420715332,,,,,,,,
,finance,0.8998833894729614,,,,,,,,
,hand,0.8917106986045837,,,,,,,,
,financial,0.8915002346038818,,,,,,,,
,savings,0.8829926252365112,,,,,,,,
,desktop,0.8690375089645386,,,,,,,,
,symbol,0.8666166067123413,,,,,,,,
,dollar,0.8625475168228149,,,,,,,,
,card,0.8607714772224426,,,,,,,,
,shopping,0.8605771064758301,,,,,,,,
,success,0.8541154265403748,,,,,,,,
,"no person",0.8454524278640747,,,,,,,,
,isolated,0.839874267578125,,,,,,,,
,finance,0.8290736675262451,,,,,,,,
https://scontent.cdninstagram.com/t51.2885-15/e35/13473176_1027709553932384_965045145_n.jpg,chocolate,0.9863116145133972,Food,,,,Dessert,,,
,vanilla,0.9834127426147461,,,,,,,,
,cream,0.9824522137641907,,,,,,,,
,sugar,0.9746621251106262,,,,,,,,
,candy,0.9726197719573975,,,,,,,,
,delicious,0.9691242575645447,,,,,,,,
,sweet,0.9669922590255737,,,,,,,,
,merchandise,0.9655263423919678,,,,,,,,
,"no person",0.9652384519577026,,,,,,,,
,indulgence,0.9573255777359009,,,,,,,,
,ice,0.951485276222229,,,,,,,,
,sprinkles,0.9505040049552917,,,,,,,,
,cake,0.9504736661911011,,,,,,,,
,baking,0.9451704621315002,,,,,,,,
,option,0.933179497718811,,,,,,,,
,food,0.9319366216659546,,,,,,,,
,indoors,0.9148367643356323,,,,,,,,
,cone,0.9134398698806763,,,,,,,,
,cornet,0.9077112674713135,,,,,,,,
,kind,0.9054962396621704,,,,,,,,
https://scontent.cdninstagram.com/t51.2885-15/e35/13392822_156079641464295_1773935266_n.jpg,food,0.9935663938522339,Food,,,,"Drinks and snack",,,
,"no person",0.9854726791381836,,,,,,,,
,bowl,0.9747176170349121,,,,,,,,
,cooking,0.9395896792411804,,,,,,,,
,dinner,0.9361615777015686,,,,,,,,
,dish,0.9330688714981079,,,,,,,,
,delicious,0.9289884567260742,,,,,,,,
,meal,0.9255883097648621,,,,,,,,
,hot,0.9243366718292236,,,,,,,,
,plate,0.9229460954666138,,,,,,,,
,cuisine,0.9153045415878296,,,,,,,,
,egg,0.9127807021141052,,,,,,,,
,salt,0.9119066596031189,,,,,,,,
,lunch,0.910199761390686,,,,,,,,
,traditional,0.9054075479507446,,,,,,,,
,health,0.9010183215141296,,,,,,,,
,nutrition,0.9000687599182129,,,,,,,,
,vegetable,0.8964608907699585,,,,,,,,
,dip,0.8926087617874146,,,,,,,,
,wood,0.889426589012146,,,,,,,,
https://scontent.cdninstagram.com/t51.2885-15/e35/13298079_499522860238961_1465278035_n.jpg,portrait,0.9920777678489685,"Fashion & Beauty","My life",,,"My look",Selfie,,
,woman,0.9822864532470703,,,,,,,,
,people,0.9816145896911621,,,,,,,,
,adult,0.9650217294692993,,,,,,,,
,one,0.9605591297149658,,,,,,,,
,girl,0.9574501514434814,,,,,,,,
,young,0.9504244327545166,,,,,,,,
,hair,0.9437652230262756,,,,,,,,
,pretty,0.9239803552627563,,,,,,,,
,face,0.9170290231704712,,,,,,,,
,fashion,0.9152135848999023,,,,,,,,
,eye,0.9124231338500977,,,,,,,,
,sadness,0.9002540707588196,,,,,,,,
,serious,0.8998883962631226,,,,,,,,
,brunette,0.8979350328445435,,,,,,,,
,man,0.8888727426528931,,,,,,,,
,beautiful,0.8888716697692871,,,,,,,,
,angry,0.8843878507614136,,,,,,,,
,sexy,0.8753112554550171,,,,,,,,
,cute,0.8668376207351685,,,,,,,,
https://scontent.cdninstagram.com/t51.2885-15/e35/13298079_499522860238961_1465278035_n.jpg,portrait,0.9920777678489685,"Fashion & Beauty","My life",,,"My look",Selfie,,
,woman,0.9822864532470703,,,,,,,,
,people,0.9816145896911621,,,,,,,,
,adult,0.9650217294692993,,,,,,,,
,one,0.9605591297149658,,,,,,,,
,girl,0.9574501514434814,,,,,,,,
,young,0.9504244327545166,,,,,,,,
,hair,0.9437652230262756,,,,,,,,
,pretty,0.9239803552627563,,,,,,,,
,face,0.9170290231704712,,,,,,,,
,fashion,0.9152135848999023,,,,,,,,
,eye,0.9124231338500977,,,,,,,,
,sadness,0.9002540707588196,,,,,,,,
,serious,0.8998883962631226,,,,,,,,
,brunette,0.8979350328445435,,,,,,,,
,man,0.8888727426528931,,,,,,,,
,beautiful,0.8888716697692871,,,,,,,,
,angry,0.8843878507614136,,,,,,,,
,sexy,0.8753112554550171,,,,,,,,
,cute,0.8668376207351685,,,,,,,,
https://scontent.cdninstagram.com/t51.2885-15/e35/13166758_512355688973082_1661413452_n.jpg,people,0.9948496222496033,Entertainment,,,,Entertainment-s,,,
,adult,0.9829487800598145,,,,,,,,
,computer,0.9781801700592041,,,,,,,,
,woman,0.9726340770721436,,,,,,,,
,technology,0.9696476459503174,,,,,,,,
,one,0.9669636487960815,,,,,,,,
,girl,0.9475635886192322,,,,,,,,
,laptop,0.9408605098724365,,,,,,,,
,education,0.9318386316299438,,,,,,,,
,indoors,0.9246425628662109,,,,,,,,
,internet,0.9128056168556213,,,,,,,,
,reclining,0.9122388362884521,,,,,,,,
,business,0.908470630645752,,,,,,,,
,portrait,0.904848039150238,,,,,,,,
,screen,0.890507161617279,,,,,,,,
,child,0.8861408233642578,,,,,,,,
,room,0.8855078220367432,,,,,,,,
,bed,0.8812918663024902,,,,,,,,
,music,0.8676867485046387,,,,,,,,
,man,0.8596482276916504,,,,,,,,
https://scontent.cdninstagram.com/t51.2885-15/e35/13525594_1628361774157560_1114602233_n.jpg,paper,0.9869353771209717,Arts,,,,Arts-s,,,
,business,0.9850931763648987,,,,,,,,
,note,0.9786325693130493,,,,,,,,
,composition,0.9719424843788147,,,,,,,,
,office,0.9698039889335632,,,,,,,,
,writing,0.9664398431777954,,,,,,,,
,education,0.9627234935760498,,,,,,,,
,document,0.9397116303443909,,,,,,,,
,notebook,0.9346722364425659,,,,,,,,
,work,0.9216463565826416,,,,,,,,
,"no person",0.9215121269226074,,,,,,,,
,pencil,0.9197119474411011,,,,,,,,
,desk,0.917945146560669,,,,,,,,
,data,0.9029390811920166,,,,,,,,
,text,0.9006536602973938,,,,,,,,
,school,0.8922662734985352,,,,,,,,
,laptop,0.8905313014984131,,,,,,,,
,finance,0.8888310194015503,,,,,,,,
,sketch,0.8847419023513794,,,,,,,,
,wood,0.8617784976959229,,,,,,,,
https://scontent.cdninstagram.com/t51.2885-15/e35/13422869_1716319251941651_1498788565_n.jpg,paper,0.9843437671661377,Commerce,Food,,,"Product/brand shots",Food-s,,
,money,0.9737976789474487,,,,,,,,
,business,0.9728463888168335,,,,,,,,
,money,0.9610723257064819,,,,,,,,
,note,0.9387645721435547,,,,,,,,
,cash,0.9287301898002625,,,,,,,,
,wealth,0.9268498420715332,,,,,,,,
,finance,0.8998833894729614,,,,,,,,
,hand,0.8917106986045837,,,,,,,,
,financial,0.8915002346038818,,,,,,,,
,savings,0.8829926252365112,,,,,,,,
,desktop,0.8690375089645386,,,,,,,,
,symbol,0.8666166067123413,,,,,,,,
,dollar,0.8625475168228149,,,,,,,,
,card,0.8607714772224426,,,,,,,,
,shopping,0.8605771064758301,,,,,,,,
,success,0.8541154265403748,,,,,,,,
,"no person",0.8454524278640747,,,,,,,,
,isolated,0.839874267578125,,,,,,,,
,finance,0.8290736675262451,,,,,,,,
https://scontent.cdninstagram.com/t51.2885-15/e35/13118064_795316360604584_1473178831_n.jpg,computer,0.99235999584198,Entertainment,,,,Entertainment-s,,,
,technology,0.9922495484352112,,,,,,,,
,indoors,0.9913372993469238,,,,,,,,
,screen,0.9892590045928955,,,,,,,,
,room,0.9821982383728027,,,,,,,,
,internet,0.9751906394958496,,,,,,,,
,people,0.9737489223480225,,,,,,,,
,child,0.9675524234771729,,,,,,,,
,furniture,0.9584544897079468,,,,,,,,
,seat,0.9577007293701172,,,,,,,,
,blur,0.9565916061401367,,,,,,,,
,family,0.9551472663879395,,,,,,,,
,window,0.9528902769088745,,,,,,,,
,connection,0.9453083276748657,,,,,,,,
,television,0.9443254470825195,,,,,,,,
,access,0.9390437602996826,,,,,,,,
,landscape,0.9364435076713562,,,,,,,,
,laptop,0.9347656965255737,,,,,,,,
,travel,0.9268028736114502,,,,,,,,
,business,0.920132040977478,,,,,,,,
https://scontent.cdninstagram.com/t51.2885-15/e35/13266914_1225976714112604_78890807_n.jpg,indoors,0.9870365858078003,Environment,,,,"Manmade beauty",,,
,house,0.9870017766952515,,,,,,,,
,room,0.9832824468612671,,,,,,,,
,door,0.9789488315582275,,,,,,,,
,"no person",0.9776683449745178,,,,,,,,
,architecture,0.9657866358757019,,,,,,,,
,family,0.9649983644485474,,,,,,,,
,door,0.9523396492004395,,,,,,,,
,furniture,0.9455372095108032,,,,,,,,
,home,0.9408842325210571,,,,,,,,
,"interior design",0.9394557476043701,,,,,,,,
,wood,0.9354686737060547,,,,,,,,
,window,0.9259539842605591,,,,,,,,
,entrance,0.9149914383888245,,,,,,,,
,contemporary,0.9067765474319458,,,,,,,,
,step,0.9017508029937744,,,,,,,,
,wall,0.8951796293258667,,,,,,,,
,inside,0.8756335973739624,,,,,,,,
,decoration,0.8719355463981628,,,,,,,,
,bathroom,0.8434644937515259,,,,,,,,
https://scontent.cdninstagram.com/t51.2885-15/e35/13249713_132145467203136_318060801_n.jpg,people,0.9876368045806885,Food,,,,"Drinks and snack",,,
,man,0.9851990938186646,,,,,,,,
,indoors,0.9812575578689575,,,,,,,,
,adult,0.9688981771469116,,,,,,,,
,woman,0.9614903330802917,,,,,,,,
,child,0.9492517709732056,,,,,,,,
,one,0.921711802482605,,,,,,,,
,treatment,0.9089326858520508,,,,,,,,
,relaxation,0.8936716318130493,,,,,,,,
,table,0.8906372785568237,,,,,,,,
,sit,0.8754582405090332,,,,,,,,
,medicine,0.8723752498626709,,,,,,,,
,family,0.862711489200592,,,,,,,,
,leisure,0.8398098945617676,,,,,,,,
,healthcare,0.829490602016449,,,,,,,,
,enjoyment,0.8188991546630859,,,,,,,,
,health,0.8129156231880188,,,,,,,,
,education,0.7998814582824707,,,,,,,,
,skill,0.7989004850387573,,,,,,,,
,adolescent,0.7879616022109985,,,,,,,,
https://scontent.cdninstagram.com/t51.2885-15/e35/13118064_795316360604584_1473178831_n.jpg,computer,0.99235999584198,Entertainment,,,,Entertainment-s,,,
,technology,0.9922495484352112,,,,,,,,
,indoors,0.9913372993469238,,,,,,,,
,screen,0.9892590045928955,,,,,,,,
,room,0.9821982383728027,,,,,,,,
,internet,0.9751906394958496,,,,,,,,
,people,0.9737489223480225,,,,,,,,
,child,0.9675524234771729,,,,,,,,
,furniture,0.9584544897079468,,,,,,,,
,seat,0.9577007293701172,,,,,,,,
,blur,0.9565916061401367,,,,,,,,
,family,0.9551472663879395,,,,,,,,
,window,0.9528902769088745,,,,,,,,
,connection,0.9453083276748657,,,,,,,,
,television,0.9443254470825195,,,,,,,,
,access,0.9390437602996826,,,,,,,,
,landscape,0.9364435076713562,,,,,,,,
,laptop,0.9347656965255737,,,,,,,,
,travel,0.9268028736114502,,,,,,,,
,business,0.920132040977478,,,,,,,,
https://scontent.cdninstagram.com/t51.2885-15/e35/13381080_1131112743612658_1875563161_n.jpg,"facial expression",0.9943991899490356,Relationships,,,,Friends,,,
,group,0.990456223487854,,,,,,,,
,people,0.9896999597549438,,,,,,,,
,friendship,0.9879127740859985,,,,,,,,
,happiness,0.9874602556228638,,,,,,,,
,child,0.9865057468414307,,,,,,,,
,togetherness,0.9860807657241821,,,,,,,,
,portrait,0.9856375455856323,,,,,,,,
,woman,0.9705716967582703,,,,,,,,
,three,0.9656569957733154,,,,,,,,
,wear,0.9626623392105103,,,,,,,,
,adult,0.9619277715682983,,,,,,,,
,fun,0.9604180455207825,,,,,,,,
,girl,0.9579994678497314,,,,,,,,
,laughing,0.9558161497116089,,,,,,,,
,offspring,0.954275906085968,,,,,,,,
,boy,0.9538434743881226,,,,,,,,
,interaction,0.9525833129882812,,,,,,,,
,affection,0.9402017593383789,,,,,,,,
,two,0.9325621128082275,,,,,,,,
https://scontent.cdninstagram.com/t51.2885-15/e35/13113727_1741856832702465_50401025_n.jpg,people,0.9732372760772705,Relationships,Travel,,,Friends,Travel-s,,
,travel,0.9586623907089233,,,,,,,,
,tourism,0.9402822256088257,,,,,,,,
,business,0.937874972820282,,,,,,,,
,city,0.9369443655014038,,,,,,,,
,street,0.9131746292114258,,,,,,,,
,chair,0.9030077457427979,,,,,,,,
,tourist,0.9004408121109009,,,,,,,,
,woman,0.8907997012138367,,,,,,,,
,urban,0.8898965716362,,,,,,,,
,architecture,0.8800870180130005,,,,,,,,
,building,0.8795638084411621,,,,,,,,
,recreation,0.8793925046920776,,,,,,,,
,man,0.8782960176467896,,,,,,,,
,hotel,0.8770161867141724,,,,,,,,
,modern,0.8695141077041626,,,,,,,,
,furniture,0.8565729856491089,,,,,,,,
,group,0.8564767837524414,,,,,,,,
,leisure,0.8502686023712158,,,,,,,,
,"transportation system",0.8463821411132812,,,,,,,,
https://scontent.cdninstagram.com/t51.2885-15/e35/13381080_1131112743612658_1875563161_n.jpg,"facial expression",0.9943991899490356,Relationships,,,,Friends,,,
,group,0.990456223487854,,,,,,,,
,people,0.9896999597549438,,,,,,,,
,friendship,0.9879127740859985,,,,,,,,
,happiness,0.9874602556228638,,,,,,,,
,child,0.9865057468414307,,,,,,,,
,togetherness,0.9860807657241821,,,,,,,,
,portrait,0.9856375455856323,,,,,,,,
,woman,0.9705716967582703,,,,,,,,
,three,0.9656569957733154,,,,,,,,
,wear,0.9626623392105103,,,,,,,,
,adult,0.9619277715682983,,,,,,,,
,fun,0.9604180455207825,,,,,,,,
,girl,0.9579994678497314,,,,,,,,
,laughing,0.9558161497116089,,,,,,,,
,offspring,0.954275906085968,,,,,,,,
,boy,0.9538434743881226,,,,,,,,
,interaction,0.9525833129882812,,,,,,,,
,affection,0.9402017593383789,,,,,,,,
,two,0.9325621128082275,,,,,,,,
https://scontent.cdninstagram.com/t51.2885-15/e35/13380895_825820534219095_1728562272_n.jpg,sunset,0.9928432703018188,Environment,Travel,,,"Natural beauty",Travel-s,,
,water,0.9890772700309753,,,,,,,,
,backlit,0.9831115007400513,,,,,,,,
,people,0.9707192778587341,,,,,,,,
,dawn,0.9616100788116455,,,,,,,,
,dusk,0.9573417901992798,,,,,,,,
,watercraft,0.9458606243133545,,,,,,,,
,beach,0.9415159225463867,,,,,,,,
,recreation,0.9402680993080139,,,,,,,,
,landscape,0.9319867491722107,,,,,,,,
,ocean,0.9318852424621582,,,,,,,,
,evening,0.9260662198066711,,,,,,,,
,silhouette,0.9230787754058838,,,,,,,,
,sea,0.9205175638198853,,,,,,,,
,seashore,0.9164482355117798,,,,,,,,
,sun,0.889707088470459,,,,,,,,
,adult,0.8830384016036987,,,,,,,,
,one,0.8802576661109924,,,,,,,,
,vehicle,0.8705258965492249,,,,,,,,
,travel,0.8523663282394409,,,,,,,,
https://scontent.cdninstagram.com/t51.2885-15/e35/13392822_156079641464295_1773935266_n.jpg,food,0.9935663938522339,Food,,,,"Drinks and snack",,,
,"no person",0.9854726791381836,,,,,,,,
,bowl,0.9747176170349121,,,,,,,,
,cooking,0.9395896792411804,,,,,,,,
,dinner,0.9361615777015686,,,,,,,,
,dish,0.9330688714981079,,,,,,,,
,delicious,0.9289884567260742,,,,,,,,
,meal,0.9255883097648621,,,,,,,,
,hot,0.9243366718292236,,,,,,,,
,plate,0.9229460954666138,,,,,,,,
,cuisine,0.9153045415878296,,,,,,,,
,egg,0.9127807021141052,,,,,,,,
,salt,0.9119066596031189,,,,,,,,
,lunch,0.910199761390686,,,,,,,,
,traditional,0.9054075479507446,,,,,,,,
,health,0.9010183215141296,,,,,,,,
,nutrition,0.9000687599182129,,,,,,,,
,vegetable,0.8964608907699585,,,,,,,,
,dip,0.8926087617874146,,,,,,,,
,wood,0.889426589012146,,,,,,,,
https://scontent.cdninstagram.com/t51.2885-15/e35/13166721_1180592121951362_1210926013_n.jpg,offense,0.9775426983833313,Food,Commerce,,,"Drinks and snack","Product/brand shots",,
,pollution,0.9582657814025879,,,,,,,,
,police,0.9559217691421509,,,,,,,,
,environment,0.9486929774284363,,,,,,,,
,rally,0.9475808143615723,,,,,,,,
,people,0.9449375867843628,,,,,,,,
,battle,0.9302167296409607,,,,,,,,
,healthcare,0.9286282062530518,,,,,,,,
,force,0.9091966152191162,,,,,,,,
,savings,0.8980408310890198,,,,,,,,
,danger,0.8901047706604004,,,,,,,,
,industry,0.8868708610534668,,,,,,,,
,illness,0.8837463855743408,,,,,,,,
,calamity,0.8621366024017334,,,,,,,,
,blood,0.8543809652328491,,,,,,,,
,health,0.84111487865448,,,,,,,,
,election,0.839491605758667,,,,,,,,
,medicine,0.8361179828643799,,,,,,,,
,business,0.8344078063964844,,,,,,,,
,accident,0.8262871503829956,,,,,,,,
https://scontent.cdninstagram.com/t51.2885-15/e35/13258921_1109822995705722_2104714657_n.jpg,"give voice",0.9504291415214539,Undefined,,,,Undefined,,,
,business,0.9122377634048462,,,,,,,,
,conceptual,0.8924698829650879,,,,,,,,
,text,0.8895279169082642,,,,,,,,
,desktop,0.8418696522712708,,,,,,,,
,education,0.8315352201461792,,,,,,,,
,data,0.820736289024353,,,,,,,,
,design,0.7750305533409119,,,,,,,,
,management,0.7716729640960693,,,,,,,,
,system,0.7579569816589355,,,,,,,,
,internet,0.7543228268623352,,,,,,,,
,medicine,0.7519879937171936,,,,,,,,
,"World Wide Web",0.7316166758537292,,,,,,,,
,company,0.7287964820861816,,,,,,,,
,time,0.7255078554153442,,,,,,,,
,service,0.7239468097686768,,,,,,,,
,success,0.7226254940032959,,,,,,,,
,"no person",0.7105053663253784,,,,,,,,
,research,0.7100274562835693,,,,,,,,
,definition,0.6997578144073486,,,,,,,,
https://scontent.cdninstagram.com/t51.2885-15/e35/12940796_226949614361102_1481850555_n.jpg,water,0.9966721534729004,Environment,"My life",Travel,,"Natural beauty","My world today",Travel-s,
,sunset,0.9942489266395569,,,,,,,,
,"no person",0.9878313541412354,,,,,,,,
,dawn,0.9810551404953003,,,,,,,,
,watercraft,0.9712823629379272,,,,,,,,
,dusk,0.9520646929740906,,,,,,,,
,evening,0.9461163282394409,,,,,,,,
,travel,0.9457353353500366,,,,,,,,
,beach,0.9384222030639648,,,,,,,,
,sea,0.9358563423156738,,,,,,,,
,vehicle,0.9312576651573181,,,,,,,,
,reflection,0.922217607498169,,,,,,,,
,lake,0.9200491905212402,,,,,,,,
,ocean,0.9188481569290161,,,,,,,,
,sky,0.9183260202407837,,,,,,,,
,landscape,0.9098840951919556,,,,,,,,
,sun,0.8915318250656128,,,,,,,,
,river,0.8809953927993774,,,,,,,,
,outdoors,0.8762046694755554,,,,,,,,
,daylight,0.8570740818977356,,,,,,,,
https://scontent.cdninstagram.com/t51.2885-15/e15/12141870_230827893939221_470511551_n.jpg,"no person",0.9850561618804932,,Food,,,,"Drinks and snack",,
,waste,0.9238004684448242,,,,,,,,
,wood,0.9005943536758423,,,,,,,,
,landscape,0.8779522776603699,,,,,,,,
,environment,0.8704192638397217,,,,,,,,
,messy,0.866145133972168,,,,,,,,
,"auto racing",0.8579895496368408,,,,,,,,
,sand,0.8566320538520813,,,,,,,,
,water,0.8536860942840576,,,,,,,,
,travel,0.853060781955719,,,,,,,,
,dirty,0.8513544797897339,,,,,,,,
,action,0.8475868701934814,,,,,,,,
,calamity,0.8469094038009644,,,,,,,,
,garbage,0.8444768786430359,,,,,,,,
,competition,0.8321806192398071,,,,,,,,
,pollution,0.8271561861038208,,,,,,,,
,race,0.826103687286377,,,,,,,,
,vacation,0.7770336270332336,,,,,,,,
,desktop,0.7755434513092041,,,,,,,,
,track,0.7734968662261963,,,,,,,,
https://scontent.cdninstagram.com/t51.2885-15/e15/12141870_230827893939221_470511551_n.jpg,"no person",0.9850561618804932,,Food,,,,"Drinks and snack",,
,waste,0.9238004684448242,,,,,,,,
,wood,0.9005943536758423,,,,,,,,
,landscape,0.8779522776603699,,,,,,,,
,environment,0.8704192638397217,,,,,,,,
,messy,0.866145133972168,,,,,,,,
,"auto racing",0.8579895496368408,,,,,,,,
,sand,0.8566320538520813,,,,,,,,
,water,0.8536860942840576,,,,,,,,
,travel,0.853060781955719,,,,,,,,
,dirty,0.8513544797897339,,,,,,,,
,action,0.8475868701934814,,,,,,,,
,calamity,0.8469094038009644,,,,,,,,
,garbage,0.8444768786430359,,,,,,,,
,competition,0.8321806192398071,,,,,,,,
,pollution,0.8271561861038208,,,,,,,,
,race,0.826103687286377,,,,,,,,
,vacation,0.7770336270332336,,,,,,,,
,desktop,0.7755434513092041,,,,,,,,
,track,0.7734968662261963,,,,,,,,
https://scontent.cdninstagram.com/t51.2885-15/s750x750/sh0.08/e35/12917857_1604428646545139_1963150299_n.jpg,group,0.9944545030593872,Relationships,Travel,,,Family,Travel-s,,
,people,0.9930000305175781,,,,,,,,
,child,0.9707013368606567,,,,,,,,
,woman,0.9518507719039917,,,,,,,,
,religion,0.9514092206954956,,,,,,,,
,portrait,0.9511064291000366,,,,,,,,
,adult,0.949487566947937,,,,,,,,
,many,0.9200901985168457,,,,,,,,
,battle,0.9018691182136536,,,,,,,,
,road,0.8985916376113892,,,,,,,,
,five,0.8970497846603394,,,,,,,,
,offense,0.8951067924499512,,,,,,,,
,education,0.8947298526763916,,,,,,,,
,boy,0.8937432169914246,,,,,,,,
,landscape,0.8878476619720459,,,,,,,,
,festival,0.8853061199188232,,,,,,,,
,man,0.8852862119674683,,,,,,,,
,school,0.8820844292640686,,,,,,,,
,calamity,0.8806776404380798,,,,,,,,
,rally,0.8800193071365356,,,,,,,,
https://scontent.cdninstagram.com/t51.2885-15/e35/12501573_445275602346536_578679379_n.jpg,tree,0.975432276725769,Environment,Travel,,,"Natural beauty",Travel-s,,
,sky,0.9740103483200073,,,,,,,,
,people,0.9621561765670776,,,,,,,,
,travel,0.9550472497940063,,,,,,,,
,landscape,0.9452173709869385,,,,,,,,
,one,0.9429811835289001,,,,,,,,
,outdoors,0.9309329986572266,,,,,,,,
,daylight,0.9288954734802246,,,,,,,,
,nature,0.9177529811859131,,,,,,,,
,water,0.9173920750617981,,,,,,,,
,summer,0.9068524241447449,,,,,,,,
,sculpture,0.9046791791915894,,,,,,,,
,"no person",0.8927730321884155,,,,,,,,
,garden,0.8926421999931335,,,,,,,,
,adult,0.8902184963226318,,,,,,,,
,environment,0.8840980529785156,,,,,,,,
,city,0.88274747133255,,,,,,,,
,architecture,0.8687902688980103,,,,,,,,
,park,0.8664528131484985,,,,,,,,
,nude,0.8659374713897705,,,,,,,,
https://scontent.cdninstagram.com/t51.2885-15/e35/12940796_226949614361102_1481850555_n.jpg,water,0.9966721534729004,Environment,"My life",Travel,,"Natural beauty","My world today",Travel-s,
,sunset,0.9942489266395569,,,,,,,,
,"no person",0.9878313541412354,,,,,,,,
,dawn,0.9810551404953003,,,,,,,,
,watercraft,0.9712823629379272,,,,,,,,
,dusk,0.9520646929740906,,,,,,,,
,evening,0.9461163282394409,,,,,,,,
,travel,0.9457353353500366,,,,,,,,
,beach,0.9384222030639648,,,,,,,,
,sea,0.9358563423156738,,,,,,,,
,vehicle,0.9312576651573181,,,,,,,,
,reflection,0.922217607498169,,,,,,,,
,lake,0.9200491905212402,,,,,,,,
,ocean,0.9188481569290161,,,,,,,,
,sky,0.9183260202407837,,,,,,,,
,landscape,0.9098840951919556,,,,,,,,
,sun,0.8915318250656128,,,,,,,,
,river,0.8809953927993774,,,,,,,,
,outdoors,0.8762046694755554,,,,,,,,
,daylight,0.8570740818977356,,,,,,,,
https://scontent.cdninstagram.com/t51.2885-15/s750x750/sh0.08/e35/12907151_280555988942772_1721579196_n.jpg,child,0.9962304830551147,Relationships,Travel,,,Family,Travel-s,,
,group,0.9899517297744751,,,,,,,,
,people,0.9846087694168091,,,,,,,,
,woman,0.947938084602356,,,,,,,,
,school,0.9444247484207153,,,,,,,,
,boy,0.9412921667098999,,,,,,,,
,portrait,0.940140426158905,,,,,,,,
,education,0.9393037557601929,,,,,,,,
,vehicle,0.919090211391449,,,,,,,,
,many,0.900962233543396,,,,,,,,
,wear,0.8895280957221985,,,,,,,,
,boy,0.8832464218139648,,,,,,,,
,man,0.8645423650741577,,,,,,,,
,girl,0.8624600172042847,,,,,,,,
,adult,0.8481637835502625,,,,,,,,
,family,0.8476077318191528,,,,,,,,
,seat,0.8398572206497192,,,,,,,,
,crowd,0.8241689205169678,,,,,,,,
,classroom,0.7906882762908936,,,,,,,,
,street,0.7902942895889282,,,,,,,,
https://scontent.cdninstagram.com/t51.2885-15/s750x750/sh0.08/e35/12907151_280555988942772_1721579196_n.jpg,child,0.9962304830551147,Relationships,Travel,,,Family,Travel-s,,
,group,0.9899517297744751,,,,,,,,
,people,0.9846087694168091,,,,,,,,
,woman,0.947938084602356,,,,,,,,
,school,0.9444247484207153,,,,,,,,
,boy,0.9412921667098999,,,,,,,,
,portrait,0.940140426158905,,,,,,,,
,education,0.9393037557601929,,,,,,,,
,vehicle,0.919090211391449,,,,,,,,
,many,0.900962233543396,,,,,,,,
,wear,0.8895280957221985,,,,,,,,
,boy,0.8832464218139648,,,,,,,,
,man,0.8645423650741577,,,,,,,,
,girl,0.8624600172042847,,,,,,,,
,adult,0.8481637835502625,,,,,,,,
,family,0.8476077318191528,,,,,,,,
,seat,0.8398572206497192,,,,,,,,
,crowd,0.8241689205169678,,,,,,,,
,classroom,0.7906882762908936,,,,,,,,
,street,0.7902942895889282,,,,,,,,
https://scontent.cdninstagram.com/t51.2885-15/e35/13397572_531827840338006_1465816766_n.jpg,one,0.9951314926147461,"My life",,,,"With me",,,
,mammal,0.9943548440933228,,,,,,,,
,cat,0.9936257004737854,,,,,,,,
,"no person",0.9907343983650208,,,,,,,,
,pet,0.9888789653778076,,,,,,,,
,dog,0.9770295023918152,,,,,,,,
,people,0.9698103666305542,,,,,,,,
,portrait,0.9569240212440491,,,,,,,,
,canine,0.9481890201568604,,,,,,,,
,cute,0.9429960250854492,,,,,,,,
,kitten,0.9406827688217163,,,,,,,,
,two,0.9392712116241455,,,,,,,,
,fur,0.9131731986999512,,,,,,,,
,domestic,0.9101766347885132,,,,,,,,
,furniture,0.9028317928314209,,,,,,,,
,animal,0.8993149995803833,,,,,,,,
,indoors,0.8987506628036499,,,,,,,,
,motley,0.883596658706665,,,,,,,,
,adult,0.8654470443725586,,,,,,,,
,downy,0.8636465072631836,,,,,,,,
https://scontent.cdninstagram.com/t51.2885-15/e35/12501573_445275602346536_578679379_n.jpg,tree,0.975432276725769,Environment,Travel,,,"Natural beauty",Travel-s,,
,sky,0.9740103483200073,,,,,,,,
,people,0.9621561765670776,,,,,,,,
,travel,0.9550472497940063,,,,,,,,
,landscape,0.9452173709869385,,,,,,,,
,one,0.9429811835289001,,,,,,,,
,outdoors,0.9309329986572266,,,,,,,,
,daylight,0.9288954734802246,,,,,,,,
,nature,0.9177529811859131,,,,,,,,
,water,0.9173920750617981,,,,,,,,
,summer,0.9068524241447449,,,,,,,,
,sculpture,0.9046791791915894,,,,,,,,
,"no person",0.8927730321884155,,,,,,,,
,garden,0.8926421999931335,,,,,,,,
,adult,0.8902184963226318,,,,,,,,
,environment,0.8840980529785156,,,,,,,,
,city,0.88274747133255,,,,,,,,
,architecture,0.8687902688980103,,,,,,,,
,park,0.8664528131484985,,,,,,,,
,nude,0.8659374713897705,,,,,,,,
https://scontent.cdninstagram.com/t51.2885-15/e35/12935117_608132229338868_1824917276_n.jpg,"no person",0.9842671155929565,Undefined,,,,Undefined,,,
,stripe,0.9735405445098877,,,,,,,,
,data,0.9726185202598572,,,,,,,,
,navigation,0.956843376159668,,,,,,,,
,template,0.9502600431442261,,,,,,,,
,"graphic design",0.9429938793182373,,,,,,,,
,tag,0.9420808553695679,,,,,,,,
,business,0.9412134289741516,,,,,,,,
,"World Wide Web",0.9349789619445801,,,,,,,,
,form,0.9333237409591675,,,,,,,,
,page,0.9243756532669067,,,,,,,,
,layout,0.9230285286903381,,,,,,,,
,design,0.8987892866134644,,,,,,,,
,label,0.8953702449798584,,,,,,,,
,data,0.8736382722854614,,,,,,,,
,option,0.8726397752761841,,,,,,,,
,order,0.8667248487472534,,,,,,,,
,progress,0.8605908155441284,,,,,,,,
,identity,0.8296290636062622,,,,,,,,
,internet,0.8243755102157593,,,,,,,,
https://scontent.cdninstagram.com/t51.2885-15/s750x750/sh0.08/e35/12917857_1604428646545139_1963150299_n.jpg,group,0.9944545030593872,Relationships,Travel,,,Family,Travel-s,,
,people,0.9930000305175781,,,,,,,,
,child,0.9707013368606567,,,,,,,,
,woman,0.9518507719039917,,,,,,,,
,religion,0.9514092206954956,,,,,,,,
,portrait,0.9511064291000366,,,,,,,,
,adult,0.949487566947937,,,,,,,,
,many,0.9200901985168457,,,,,,,,
,battle,0.9018691182136536,,,,,,,,
,road,0.8985916376113892,,,,,,,,
,five,0.8970497846603394,,,,,,,,
,offense,0.8951067924499512,,,,,,,,
,education,0.8947298526763916,,,,,,,,
,boy,0.8937432169914246,,,,,,,,
,landscape,0.8878476619720459,,,,,,,,
,festival,0.8853061199188232,,,,,,,,
,man,0.8852862119674683,,,,,,,,
,school,0.8820844292640686,,,,,,,,
,calamity,0.8806776404380798,,,,,,,,
,rally,0.8800193071365356,,,,,,,,
https://scontent.cdninstagram.com/t51.2885-15/e35/12935117_608132229338868_1824917276_n.jpg,"no person",0.9842671155929565,Undefined,,,,Undefined,,,
,stripe,0.9735405445098877,,,,,,,,
,data,0.9726185202598572,,,,,,,,
,navigation,0.956843376159668,,,,,,,,
,template,0.9502600431442261,,,,,,,,
,"graphic design",0.9429938793182373,,,,,,,,
,tag,0.9420808553695679,,,,,,,,
,business,0.9412134289741516,,,,,,,,
,"World Wide Web",0.9349789619445801,,,,,,,,
,form,0.9333237409591675,,,,,,,,
,page,0.9243756532669067,,,,,,,,
,layout,0.9230285286903381,,,,,,,,
,design,0.8987892866134644,,,,,,,,
,label,0.8953702449798584,,,,,,,,
,data,0.8736382722854614,,,,,,,,
,option,0.8726397752761841,,,,,,,,
,order,0.8667248487472534,,,,,,,,
,progress,0.8605908155441284,,,,,,,,
,identity,0.8296290636062622,,,,,,,,
,internet,0.8243755102157593,,,,,,,,
https://scontent.cdninstagram.com/t51.2885-15/e15/12918069_923964284367776_691289064_n.jpg,indoors,0.9968278408050537,Animals,,,,"Non Usable",,,
,blur,0.9845049381256104,,,,,,,,
,hallway,0.9689513444900513,,,,,,,,
,room,0.9683693647384644,,,,,,,,
,"no person",0.9641523361206055,,,,,,,,
,architecture,0.9440360069274902,,,,,,,,
,business,0.9413964748382568,,,,,,,,
,tube,0.9387786388397217,,,,,,,,
,furniture,0.9377061128616333,,,,,,,,
,reflection,0.936720609664917,,,,,,,,
,contemporary,0.9319653511047363,,,,,,,,
,light,0.9256752729415894,,,,,,,,
,airport,0.9244805574417114,,,,,,,,
,modern,0.9026092290878296,,,,,,,,
,floor,0.8992295861244202,,,,,,,,
,museum,0.8982255458831787,,,,,,,,
,city,0.8944883346557617,,,,,,,,
,inside,0.8917537927627563,,,,,,,,
,seat,0.8898769617080688,,,,,,,,
,luxury,0.8887490034103394,,,,,,,,
https://scontent.cdninstagram.com/t51.2885-15/e35/13258921_1109822995705722_2104714657_n.jpg,"give voice",0.9504291415214539,Undefined,,,,Undefined,,,
,business,0.9122377634048462,,,,,,,,
,conceptual,0.8924698829650879,,,,,,,,
,text,0.8895279169082642,,,,,,,,
,desktop,0.8418696522712708,,,,,,,,
,education,0.8315352201461792,,,,,,,,
,data,0.820736289024353,,,,,,,,
,design,0.7750305533409119,,,,,,,,
,management,0.7716729640960693,,,,,,,,
,system,0.7579569816589355,,,,,,,,
,internet,0.7543228268623352,,,,,,,,
,medicine,0.7519879937171936,,,,,,,,
,"World Wide Web",0.7316166758537292,,,,,,,,
,company,0.7287964820861816,,,,,,,,
,time,0.7255078554153442,,,,,,,,
,service,0.7239468097686768,,,,,,,,
,success,0.7226254940032959,,,,,,,,
,"no person",0.7105053663253784,,,,,,,,
,research,0.7100274562835693,,,,,,,,
,definition,0.6997578144073486,,,,,,,,
https://scontent.cdninstagram.com/t51.2885-15/e15/12918614_594819377341880_2141830149_n.jpg,street,0.9941423535346985,Animals,,,,"Non Usable",,,
,people,0.9930583238601685,,,,,,,,
,city,0.9903748631477356,,,,,,,,
,road,0.979732871055603,,,,,,,,
,many,0.9776462912559509,,,,,,,,
,group,0.967975914478302,,,,,,,,
,crowd,0.966361403465271,,,,,,,,
,offense,0.9240551590919495,,,,,,,,
,motion,0.9166918992996216,,,,,,,,
,commuter,0.9137014746665955,,,,,,,,
,battle,0.911479651927948,,,,,,,,
,woman,0.9045096039772034,,,,,,,,
,police,0.9036513566970825,,,,,,,,
,commerce,0.9005441665649414,,,,,,,,
,shopping,0.8911948800086975,,,,,,,,
,action,0.8904814720153809,,,,,,,,
,rally,0.8795035481452942,,,,,,,,
,competition,0.8785121440887451,,,,,,,,
,tourist,0.8759533166885376,,,,,,,,
,travel,0.8752538561820984,,,,,,,,
https://scontent.cdninstagram.com/t51.2885-15/e35/13266914_1225976714112604_78890807_n.jpg,indoors,0.9870365858078003,Environment,,,,"Manmade beauty",,,
,house,0.9870017766952515,,,,,,,,
,room,0.9832824468612671,,,,,,,,
,door,0.9789488315582275,,,,,,,,
,"no person",0.9776683449745178,,,,,,,,
,architecture,0.9657866358757019,,,,,,,,
,family,0.9649983644485474,,,,,,,,
,door,0.9523396492004395,,,,,,,,
,furniture,0.9455372095108032,,,,,,,,
,home,0.9408842325210571,,,,,,,,
,"interior design",0.9394557476043701,,,,,,,,
,wood,0.9354686737060547,,,,,,,,
,window,0.9259539842605591,,,,,,,,
,entrance,0.9149914383888245,,,,,,,,
,contemporary,0.9067765474319458,,,,,,,,
,step,0.9017508029937744,,,,,,,,
,wall,0.8951796293258667,,,,,,,,
,inside,0.8756335973739624,,,,,,,,
,decoration,0.8719355463981628,,,,,,,,
,bathroom,0.8434644937515259,,,,,,,,
https://scontent.cdninstagram.com/t51.2885-15/e35/13249713_132145467203136_318060801_n.jpg,people,0.9876368045806885,Food,,,,"Drinks and snack",,,
,man,0.9851990938186646,,,,,,,,
,indoors,0.9812575578689575,,,,,,,,
,adult,0.9688981771469116,,,,,,,,
,woman,0.9614903330802917,,,,,,,,
,child,0.9492517709732056,,,,,,,,
,one,0.921711802482605,,,,,,,,
,treatment,0.9089326858520508,,,,,,,,
,relaxation,0.8936716318130493,,,,,,,,
,table,0.8906372785568237,,,,,,,,
,sit,0.8754582405090332,,,,,,,,
,medicine,0.8723752498626709,,,,,,,,
,family,0.862711489200592,,,,,,,,
,leisure,0.8398098945617676,,,,,,,,
,healthcare,0.829490602016449,,,,,,,,
,enjoyment,0.8188991546630859,,,,,,,,
,health,0.8129156231880188,,,,,,,,
,education,0.7998814582824707,,,,,,,,
,skill,0.7989004850387573,,,,,,,,
,adolescent,0.7879616022109985,,,,,,,,
https://scontent.cdninstagram.com/t51.2885-15/e35/12940877_915988575189572_1502020827_n.jpg,leisure,0.9880956411361694,Recreation,Environment,,,Fitness,"Manmade beauty",,
,recreation,0.9866834282875061,,,,,,,,
,fun,0.9860696792602539,,,,,,,,
,skate,0.9765583872795105,,,,,,,,
,skateboard,0.9748595952987671,,,,,,,,
,air,0.9725602865219116,,,,,,,,
,balance,0.9724090099334717,,,,,,,,
,lifestyle,0.9680917263031006,,,,,,,,
,park,0.9672870635986328,,,,,,,,
,sport,0.9652717113494873,,,,,,,,
,action,0.9614387154579163,,,,,,,,
,people,0.9563677310943604,,,,,,,,
,exercise,0.9446950554847717,,,,,,,,
,landscape,0.941543459892273,,,,,,,,
,competition,0.9370149374008179,,,,,,,,
,trick,0.935218095779419,,,,,,,,
,motion,0.9351719617843628,,,,,,,,
,hurry,0.9318888187408447,,,,,,,,
,outdoors,0.9167778491973877,,,,,,,,
,skater,0.9164286851882935,,,,,,,,
https://scontent.cdninstagram.com/t51.2885-15/e35/12424453_213583012352900_1809024026_n.jpg,paper,0.9812740087509155,Arts,,,,Arts-s,,,
,business,0.9604790806770325,,,,,,,,
,illustration,0.925997793674469,,,,,,,,
,text,0.9023706912994385,,,,,,,,
,"no person",0.8689548373222351,,,,,,,,
,card,0.8576099872589111,,,,,,,,
,sign,0.8452528715133667,,,,,,,,
,vertical,0.8367331027984619,,,,,,,,
,note,0.8364007472991943,,,,,,,,
,symbol,0.8270338773727417,,,,,,,,
,design,0.8131695985794067,,,,,,,,
,old,0.8121586441993713,,,,,,,,
,identity,0.808499813079834,,,,,,,,
,bill,0.803085446357727,,,,,,,,
,isolated,0.8014988303184509,,,,,,,,
,page,0.8013567924499512,,,,,,,,
,desktop,0.8005203008651733,,,,,,,,
,document,0.7994518280029297,,,,,,,,
,money,0.7934213876724243,,,,,,,,
,collection,0.7930315732955933,,,,,,,,
https://scontent.cdninstagram.com/t51.2885-15/e15/1799713_1486396565003415_968302275_n.jpg,people,0.9866364002227783,"Fashion & Beauty",,,,"My look",,,
,portrait,0.9837068319320679,,,,,,,,
,woman,0.9712842702865601,,,,,,,,
,festival,0.959709882736206,,,,,,,,
,adult,0.9544270038604736,,,,,,,,
,one,0.9482797980308533,,,,,,,,
,ceremony,0.9167057871818542,,,,,,,,
,girl,0.9064205884933472,,,,,,,,
,sign,0.9011655449867249,,,,,,,,
,wear,0.8905658721923828,,,,,,,,
,movie,0.8862897157669067,,,,,,,,
,education,0.8835204243659973,,,,,,,,
,actress,0.8832885026931763,,,,,,,,
,"red carpet",0.8786286115646362,,,,,,,,
,"film festival",0.865814208984375,,,,,,,,
,actor,0.854263961315155,,,,,,,,
,recreation,0.8487733602523804,,,,,,,,
,business,0.8426975011825562,,,,,,,,
,administration,0.8290013074874878,,,,,,,,
,school,0.8288779258728027,,,,,,,,
https://scontent.cdninstagram.com/t51.2885-15/e15/1799713_1486396565003415_968302275_n.jpg,people,0.9866364002227783,"Fashion & Beauty",,,,"My look",,,
,portrait,0.9837068319320679,,,,,,,,
,woman,0.9712842702865601,,,,,,,,
,festival,0.959709882736206,,,,,,,,
,adult,0.9544270038604736,,,,,,,,
,one,0.9482797980308533,,,,,,,,
,ceremony,0.9167057871818542,,,,,,,,
,girl,0.9064205884933472,,,,,,,,
,sign,0.9011655449867249,,,,,,,,
,wear,0.8905658721923828,,,,,,,,
,movie,0.8862897157669067,,,,,,,,
,education,0.8835204243659973,,,,,,,,
,actress,0.8832885026931763,,,,,,,,
,"red carpet",0.8786286115646362,,,,,,,,
,"film festival",0.865814208984375,,,,,,,,
,actor,0.854263961315155,,,,,,,,
,recreation,0.8487733602523804,,,,,,,,
,business,0.8426975011825562,,,,,,,,
,administration,0.8290013074874878,,,,,,,,
,school,0.8288779258728027,,,,,,,,
https://scontent.cdninstagram.com/t51.2885-15/e35/13277704_293833047622740_1772194916_n.jpg,"no person",0.9771363735198975,Entertainment,,,,Events,,,
,moon,0.9434195756912231,,,,,,,,
,dark,0.9244629144668579,,,,,,,,
,light,0.9108210802078247,,,,,,,,
,sky,0.9081292152404785,,,,,,,,
,silhouette,0.8947688341140747,,,,,,,,
,travel,0.8537649512290955,,,,,,,,
,vehicle,0.8516969680786133,,,,,,,,
,water,0.8498402833938599,,,,,,,,
,sun,0.8329710960388184,,,,,,,,
,outdoors,0.8268245458602905,,,,,,,,
,evening,0.8188967704772949,,,,,,,,
,nature,0.8013286590576172,,,,,,,,
,people,0.7999995946884155,,,,,,,,
,Christmas,0.7679023742675781,,,,,,,,
,aircraft,0.7641031742095947,,,,,,,,
,landscape,0.7626011371612549,,,,,,,,
,energy,0.760945200920105,,,,,,,,
,winter,0.7597451210021973,,,,,,,,
,astronomy,0.751839280128479,,,,,,,,
https://scontent.cdninstagram.com/t51.2885-15/e35/12930700_1026961904048317_2115519555_n.jpg,people,0.9393209218978882,Undefined,,,,Undefined,,,
,man,0.9138485193252563,,,,,,,,
,wear,0.9040583372116089,,,,,,,,
,woman,0.8688592910766602,,,,,,,,
,toy,0.8611595034599304,,,,,,,,
,adult,0.8577617406845093,,,,,,,,
,old,0.8206857442855835,,,,,,,,
,one,0.8200767040252686,,,,,,,,
,"no person",0.810712456703186,,,,,,,,
,hand,0.8076977729797363,,,,,,,,
,family,0.8070226907730103,,,,,,,,
,fall,0.8066184520721436,,,,,,,,
,nature,0.8058222532272339,,,,,,,,
,color,0.801701545715332,,,,,,,,
,two,0.7977691292762756,,,,,,,,
,child,0.7972284555435181,,,,,,,,
,love,0.7793708443641663,,,,,,,,
,symbol,0.7609308958053589,,,,,,,,
,group,0.7578122615814209,,,,,,,,
,indoors,0.7577942609786987,,,,,,,,
https://scontent.cdninstagram.com/t51.2885-15/e35/12519404_190620921322060_790510467_n.jpg,wood,0.9991053938865662,Environment,Recreation,,,"Natural beauty",Recreation-s,,
,tree,0.9966329336166382,,,,,,,,
,trail,0.9925337433815002,,,,,,,,
,park,0.9920896291732788,,,,,,,,
,nature,0.9897457361221313,,,,,,,,
,road,0.9855023622512817,,,,,,,,
,walk,0.9827815294265747,,,,,,,,
,guidance,0.9791755676269531,,,,,,,,
,recreation,0.9762486219406128,,,,,,,,
,footpath,0.9752423167228699,,,,,,,,
,landscape,0.9666080474853516,,,,,,,,
,leaf,0.9636107683181763,,,,,,,,
,outdoors,0.9560381174087524,,,,,,,,
,leisure,0.9520914554595947,,,,,,,,
,summer,0.9488974809646606,,,,,,,,
,environment,0.9425785541534424,,,,,,,,
,people,0.9394378066062927,,,,,,,,
,hike,0.9379479885101318,,,,,,,,
,one,0.9351882934570312,,,,,,,,
,adventure,0.9315231442451477,,,,,,,,
https://scontent.cdninstagram.com/t51.2885-15/e35/12519404_190620921322060_790510467_n.jpg,wood,0.9991053938865662,Environment,Recreation,,,"Natural beauty",Recreation-s,,
,tree,0.9966329336166382,,,,,,,,
,trail,0.9925337433815002,,,,,,,,
,park,0.9920896291732788,,,,,,,,
,nature,0.9897457361221313,,,,,,,,
,road,0.9855023622512817,,,,,,,,
,walk,0.9827815294265747,,,,,,,,
,guidance,0.9791755676269531,,,,,,,,
,recreation,0.9762486219406128,,,,,,,,
,footpath,0.9752423167228699,,,,,,,,
,landscape,0.9666080474853516,,,,,,,,
,leaf,0.9636107683181763,,,,,,,,
,outdoors,0.9560381174087524,,,,,,,,
,leisure,0.9520914554595947,,,,,,,,
,summer,0.9488974809646606,,,,,,,,
,environment,0.9425785541534424,,,,,,,,
,people,0.9394378066062927,,,,,,,,
,hike,0.9379479885101318,,,,,,,,
,one,0.9351882934570312,,,,,,,,
,adventure,0.9315231442451477,,,,,,,,
https://scontent.cdninstagram.com/t51.2885-15/e35/13277704_293833047622740_1772194916_n.jpg,"no person",0.9771363735198975,Entertainment,,,,Events,,,
,moon,0.9434195756912231,,,,,,,,
,dark,0.9244629144668579,,,,,,,,
,light,0.9108210802078247,,,,,,,,
,sky,0.9081292152404785,,,,,,,,
,silhouette,0.8947688341140747,,,,,,,,
,travel,0.8537649512290955,,,,,,,,
,vehicle,0.8516969680786133,,,,,,,,
,water,0.8498402833938599,,,,,,,,
,sun,0.8329710960388184,,,,,,,,
,outdoors,0.8268245458602905,,,,,,,,
,evening,0.8188967704772949,,,,,,,,
,nature,0.8013286590576172,,,,,,,,
,people,0.7999995946884155,,,,,,,,
,Christmas,0.7679023742675781,,,,,,,,
,aircraft,0.7641031742095947,,,,,,,,
,landscape,0.7626011371612549,,,,,,,,
,energy,0.760945200920105,,,,,,,,
,winter,0.7597451210021973,,,,,,,,
,astronomy,0.751839280128479,,,,,,,,
https://scontent.cdninstagram.com/t51.2885-15/e35/12930700_1026961904048317_2115519555_n.jpg,people,0.9393209218978882,Undefined,,,,Undefined,,,
,man,0.9138485193252563,,,,,,,,
,wear,0.9040583372116089,,,,,,,,
,woman,0.8688592910766602,,,,,,,,
,toy,0.8611595034599304,,,,,,,,
,adult,0.8577617406845093,,,,,,,,
,old,0.8206857442855835,,,,,,,,
,one,0.8200767040252686,,,,,,,,
,"no person",0.810712456703186,,,,,,,,
,hand,0.8076977729797363,,,,,,,,
,family,0.8070226907730103,,,,,,,,
,fall,0.8066184520721436,,,,,,,,
,nature,0.8058222532272339,,,,,,,,
,color,0.801701545715332,,,,,,,,
,two,0.7977691292762756,,,,,,,,
,child,0.7972284555435181,,,,,,,,
,love,0.7793708443641663,,,,,,,,
,symbol,0.7609308958053589,,,,,,,,
,group,0.7578122615814209,,,,,,,,
,indoors,0.7577942609786987,,,,,,,,
https://scontent.cdninstagram.com/t51.2885-15/e35/13166721_1180592121951362_1210926013_n.jpg,offense,0.9775426983833313,Food,Commerce,,,"Drinks and snack","Product/brand shots",,
,pollution,0.9582657814025879,,,,,,,,
,police,0.9559217691421509,,,,,,,,
,environment,0.9486929774284363,,,,,,,,
,rally,0.9475808143615723,,,,,,,,
,people,0.9449375867843628,,,,,,,,
,battle,0.9302167296409607,,,,,,,,
,healthcare,0.9286282062530518,,,,,,,,
,force,0.9091966152191162,,,,,,,,
,savings,0.8980408310890198,,,,,,,,
,danger,0.8901047706604004,,,,,,,,
,industry,0.8868708610534668,,,,,,,,
,illness,0.8837463855743408,,,,,,,,
,calamity,0.8621366024017334,,,,,,,,
,blood,0.8543809652328491,,,,,,,,
,health,0.84111487865448,,,,,,,,
,election,0.839491605758667,,,,,,,,
,medicine,0.8361179828643799,,,,,,,,
,business,0.8344078063964844,,,,,,,,
,accident,0.8262871503829956,,,,,,,,
https://scontent.cdninstagram.com/t51.2885-15/e35/13113727_1741856832702465_50401025_n.jpg,people,0.9732372760772705,Relationships,Travel,,,Friends,Travel-s,,
,travel,0.9586623907089233,,,,,,,,
,tourism,0.9402822256088257,,,,,,,,
,business,0.937874972820282,,,,,,,,
,city,0.9369443655014038,,,,,,,,
,street,0.9131746292114258,,,,,,,,
,chair,0.9030077457427979,,,,,,,,
,tourist,0.9004408121109009,,,,,,,,
,woman,0.8907997012138367,,,,,,,,
,urban,0.8898965716362,,,,,,,,
,architecture,0.8800870180130005,,,,,,,,
,building,0.8795638084411621,,,,,,,,
,recreation,0.8793925046920776,,,,,,,,
,man,0.8782960176467896,,,,,,,,
,hotel,0.8770161867141724,,,,,,,,
,modern,0.8695141077041626,,,,,,,,
,furniture,0.8565729856491089,,,,,,,,
,group,0.8564767837524414,,,,,,,,
,leisure,0.8502686023712158,,,,,,,,
,"transportation system",0.8463821411132812,,,,,,,,
https://scontent.cdninstagram.com/t51.2885-15/e35/13166758_512355688973082_1661413452_n.jpg,people,0.9948496222496033,Entertainment,,,,Entertainment-s,,,
,adult,0.9829487800598145,,,,,,,,
,computer,0.9781801700592041,,,,,,,,
,woman,0.9726340770721436,,,,,,,,
,technology,0.9696476459503174,,,,,,,,
,one,0.9669636487960815,,,,,,,,
,girl,0.9475635886192322,,,,,,,,
,laptop,0.9408605098724365,,,,,,,,
,education,0.9318386316299438,,,,,,,,
,indoors,0.9246425628662109,,,,,,,,
,internet,0.9128056168556213,,,,,,,,
,reclining,0.9122388362884521,,,,,,,,
,business,0.908470630645752,,,,,,,,
,portrait,0.904848039150238,,,,,,,,
,screen,0.890507161617279,,,,,,,,
,child,0.8861408233642578,,,,,,,,
,room,0.8855078220367432,,,,,,,,
,bed,0.8812918663024902,,,,,,,,
,music,0.8676867485046387,,,,,,,,
,man,0.8596482276916504,,,,,,,,
https://scontent.cdninstagram.com/t51.2885-15/e35/12976230_1754874634726546_974700599_n.jpg,furniture,0.9936019778251648,Food,,,,"Drinks and snack",,,
,indoors,0.9822255373001099,,,,,,,,
,room,0.9764715433120728,,,,,,,,
,"no person",0.9757333397865295,,,,,,,,
,table,0.9668763875961304,,,,,,,,
,seat,0.9561996459960938,,,,,,,,
,two,0.9545094966888428,,,,,,,,
,people,0.9473534822463989,,,,,,,,
,tableware,0.9435160160064697,,,,,,,,
,one,0.9429486989974976,,,,,,,,
,adult,0.9352706670761108,,,,,,,,
,chair,0.9346340894699097,,,,,,,,
,leisure,0.9191429615020752,,,,,,,,
,dog,0.918271541595459,,,,,,,,
,daylight,0.9161959886550903,,,,,,,,
,wine,0.9157620668411255,,,,,,,,
,drink,0.9095036387443542,,,,,,,,
,man,0.9054083824157715,,,,,,,,
,dining,0.9013718366622925,,,,,,,,
,hotel,0.8972339034080505,,,,,,,,
https://scontent.cdninstagram.com/t51.2885-15/e35/12346249_1724512761111618_1363587453_n.jpg,food,0.9885414242744446,Food,,,,"Drinks and snack",,,
,"no person",0.9837651252746582,,,,,,,,
,desktop,0.946851909160614,,,,,,,,
,homemade,0.9447934627532959,,,,,,,,
,delicious,0.9435347318649292,,,,,,,,
,traditional,0.9376785755157471,,,,,,,,
,hand,0.9294780492782593,,,,,,,,
,isolated,0.9262853860855103,,,,,,,,
,sugar,0.9235546588897705,,,,,,,,
,color,0.9103611707687378,,,,,,,,
,little,0.9100821614265442,,,,,,,,
,cookie,0.9092403650283813,,,,,,,,
,child,0.907372772693634,,,,,,,,
,sweet,0.9013400673866272,,,,,,,,
,candy,0.9007591009140015,,,,,,,,
,confection,0.8963581323623657,,,,,,,,
,handmade,0.8934975862503052,,,,,,,,
,woman,0.8813349008560181,,,,,,,,
,toy,0.8796660900115967,,,,,,,,
,two,0.8792238235473633,,,,,,,,
https://scontent.cdninstagram.com/t51.2885-15/e15/12918069_923964284367776_691289064_n.jpg,indoors,0.9968278408050537,Animals,,,,"Non Usable",,,
,blur,0.9845049381256104,,,,,,,,
,hallway,0.9689513444900513,,,,,,,,
,room,0.9683693647384644,,,,,,,,
,"no person",0.9641523361206055,,,,,,,,
,architecture,0.9440360069274902,,,,,,,,
,business,0.9413964748382568,,,,,,,,
,tube,0.9387786388397217,,,,,,,,
,furniture,0.9377061128616333,,,,,,,,
,reflection,0.936720609664917,,,,,,,,
,contemporary,0.9319653511047363,,,,,,,,
,light,0.9256752729415894,,,,,,,,
,airport,0.9244805574417114,,,,,,,,
,modern,0.9026092290878296,,,,,,,,
,floor,0.8992295861244202,,,,,,,,
,museum,0.8982255458831787,,,,,,,,
,city,0.8944883346557617,,,,,,,,
,inside,0.8917537927627563,,,,,,,,
,seat,0.8898769617080688,,,,,,,,
,luxury,0.8887490034103394,,,,,,,,
https://scontent.cdninstagram.com/t51.2885-15/e35/12393841_929279227156403_982829720_n.jpg,food,0.9854699373245239,Food,,,,"Meal time",,,
,"no person",0.9522137641906738,,,,,,,,
,restaurant,0.9284449815750122,,,,,,,,
,delicious,0.9220387935638428,,,,,,,,
,lunch,0.9159433841705322,,,,,,,,
,dinner,0.90799480676651,,,,,,,,
,meal,0.8830845355987549,,,,,,,,
,cooking,0.8800891041755676,,,,,,,,
,plate,0.8737108111381531,,,,,,,,
,breakfast,0.8603588342666626,,,,,,,,
,traditional,0.8566778898239136,,,,,,,,
,grow,0.8529538512229919,,,,,,,,
,dish,0.8431824445724487,,,,,,,,
,table,0.8399802446365356,,,,,,,,
,health,0.8376438617706299,,,,,,,,
,indoors,0.8375376462936401,,,,,,,,
,refreshment,0.8361068964004517,,,,,,,,
,knife,0.8204525113105774,,,,,,,,
,drink,0.8047007918357849,,,,,,,,
,hot,0.8014112710952759,,,,,,,,
https://scontent.cdninstagram.com/t51.2885-15/s750x750/sh0.08/e35/12357468_196517684028887_2055740060_n.jpg,face,0.9426785707473755,Cute,,,,Cute,,,
,portrait,0.9287588000297546,,,,,,,,
,people,0.9285120964050293,,,,,,,,
,fun,0.9203095436096191,,,,,,,,
,girl,0.919366180896759,,,,,,,,
,woman,0.9141007661819458,,,,,,,,
,one,0.9128161668777466,,,,,,,,
,desktop,0.9014232158660889,,,,,,,,
,adult,0.8943352699279785,,,,,,,,
,decoration,0.8899513483047485,,,,,,,,
,"no person",0.8846097588539124,,,,,,,,
,happiness,0.8725919723510742,,,,,,,,
,young,0.871077299118042,,,,,,,,
,beautiful,0.8687334060668945,,,,,,,,
,smile,0.8557224273681641,,,,,,,,
,cute,0.8522598743438721,,,,,,,,
,Christmas,0.8519939184188843,,,,,,,,
,family,0.8481696844100952,,,,,,,,
,closeup,0.8226979970932007,,,,,,,,
,celebration,0.8194370269775391,,,,,,,,
https://scontent.cdninstagram.com/t51.2885-15/e35/12346249_1724512761111618_1363587453_n.jpg,food,0.9885414242744446,Food,,,,"Drinks and snack",,,
,"no person",0.9837651252746582,,,,,,,,
,desktop,0.946851909160614,,,,,,,,
,homemade,0.9447934627532959,,,,,,,,
,delicious,0.9435347318649292,,,,,,,,
,traditional,0.9376785755157471,,,,,,,,
,hand,0.9294780492782593,,,,,,,,
,isolated,0.9262853860855103,,,,,,,,
,sugar,0.9235546588897705,,,,,,,,
,color,0.9103611707687378,,,,,,,,
,little,0.9100821614265442,,,,,,,,
,cookie,0.9092403650283813,,,,,,,,
,child,0.907372772693634,,,,,,,,
,sweet,0.9013400673866272,,,,,,,,
,candy,0.9007591009140015,,,,,,,,
,confection,0.8963581323623657,,,,,,,,
,handmade,0.8934975862503052,,,,,,,,
,woman,0.8813349008560181,,,,,,,,
,toy,0.8796660900115967,,,,,,,,
,two,0.8792238235473633,,,,,,,,
https://scontent.cdninstagram.com/t51.2885-15/e35/12940877_915988575189572_1502020827_n.jpg,leisure,0.9880956411361694,Recreation,Environment,,,Fitness,"Manmade beauty",,
,recreation,0.9866834282875061,,,,,,,,
,fun,0.9860696792602539,,,,,,,,
,skate,0.9765583872795105,,,,,,,,
,skateboard,0.9748595952987671,,,,,,,,
,air,0.9725602865219116,,,,,,,,
,balance,0.9724090099334717,,,,,,,,
,lifestyle,0.9680917263031006,,,,,,,,
,park,0.9672870635986328,,,,,,,,
,sport,0.9652717113494873,,,,,,,,
,action,0.9614387154579163,,,,,,,,
,people,0.9563677310943604,,,,,,,,
,exercise,0.9446950554847717,,,,,,,,
,landscape,0.941543459892273,,,,,,,,
,competition,0.9370149374008179,,,,,,,,
,trick,0.935218095779419,,,,,,,,
,motion,0.9351719617843628,,,,,,,,
,hurry,0.9318888187408447,,,,,,,,
,outdoors,0.9167778491973877,,,,,,,,
,skater,0.9164286851882935,,,,,,,,
https://scontent.cdninstagram.com/t51.2885-15/e35/12407654_1687713558179139_703363382_n.jpg,people,0.9993276596069336,Undefined,,,,Undefined,,,
,one,0.9927754998207092,,,,,,,,
,adult,0.988012433052063,,,,,,,,
,two,0.9870296120643616,,,,,,,,
,portrait,0.9731494188308716,,,,,,,,
,man,0.9685254096984863,,,,,,,,
,monochrome,0.9522167444229126,,,,,,,,
,"sports equipment",0.9521225690841675,,,,,,,,
,woman,0.9428493976593018,,,,,,,,
,administration,0.9328775405883789,,,,,,,,
,child,0.9322542548179626,,,,,,,,
,group,0.9173769950866699,,,,,,,,
,group,0.9124684929847717,,,,,,,,
,three,0.9123378992080688,,,,,,,,
,military,0.9092962145805359,,,,,,,,
,wear,0.8877912163734436,,,,,,,,
,healthcare,0.8731944561004639,,,,,,,,
,outfit,0.8651027679443359,,,,,,,,
,four,0.8645273447036743,,,,,,,,
,"medical practitioner",0.8640094995498657,,,,,,,,
https://scontent.cdninstagram.com/t51.2885-15/e35/12976230_1754874634726546_974700599_n.jpg,furniture,0.9936019778251648,Food,,,,"Drinks and snack",,,
,indoors,0.9822255373001099,,,,,,,,
,room,0.9764715433120728,,,,,,,,
,"no person",0.9757333397865295,,,,,,,,
,table,0.9668763875961304,,,,,,,,
,seat,0.9561996459960938,,,,,,,,
,two,0.9545094966888428,,,,,,,,
,people,0.9473534822463989,,,,,,,,
,tableware,0.9435160160064697,,,,,,,,
,one,0.9429486989974976,,,,,,,,
,adult,0.9352706670761108,,,,,,,,
,chair,0.9346340894699097,,,,,,,,
,leisure,0.9191429615020752,,,,,,,,
,dog,0.918271541595459,,,,,,,,
,daylight,0.9161959886550903,,,,,,,,
,wine,0.9157620668411255,,,,,,,,
,drink,0.9095036387443542,,,,,,,,
,man,0.9054083824157715,,,,,,,,
,dining,0.9013718366622925,,,,,,,,
,hotel,0.8972339034080505,,,,,,,,
https://scontent.cdninstagram.com/t51.2885-15/e35/12356331_877094525744837_1459168608_n.jpg,"facial expression",0.9823073744773865,Relationships,,,,"Best friends",,,
,woman,0.9817174673080444,,,,,,,,
,portrait,0.9805335998535156,,,,,,,,
,wear,0.9781872034072876,,,,,,,,
,fashion,0.963358998298645,,,,,,,,
,people,0.9539202451705933,,,,,,,,
,"red carpet",0.9516105651855469,,,,,,,,
,actress,0.9507375955581665,,,,,,,,
,happiness,0.9495581388473511,,,,,,,,
,two,0.9465121626853943,,,,,,,,
,girl,0.9381126165390015,,,,,,,,
,movie,0.9236990213394165,,,,,,,,
,adult,0.9234179258346558,,,,,,,,
,togetherness,0.9220055341720581,,,,,,,,
,brunette,0.9090331792831421,,,,,,,,
,knitwear,0.898548424243927,,,,,,,,
,youth,0.8840129971504211,,,,,,,,
,festival,0.8817620277404785,,,,,,,,
,fun,0.8767095804214478,,,,,,,,
,friendship,0.8762152791023254,,,,,,,,
https://scontent.cdninstagram.com/t51.2885-15/e35/12081027_929758283772527_1271277937_n.jpg,music,0.9772917628288269,Entertainment,,,,Events,,,
,concert,0.9745321273803711,,,,,,,,
,silhouette,0.9589340090751648,,,,,,,,
,sky,0.9578708410263062,,,,,,,,
,light,0.9515581130981445,,,,,,,,
,performance,0.9471550583839417,,,,,,,,
,nature,0.9265320301055908,,,,,,,,
,stage,0.9229627847671509,,,,,,,,
,travel,0.9162633419036865,,,,,,,,
,festival,0.9134191870689392,,,,,,,,
,energy,0.9069687128067017,,,,,,,,
,"no person",0.8949323892593384,,,,,,,,
,band,0.8901635408401489,,,,,,,,
,landscape,0.8854930400848389,,,,,,,,
,dark,0.8820128440856934,,,,,,,,
,singer,0.8797814846038818,,,,,,,,
,Christmas,0.8762269020080566,,,,,,,,
,moon,0.8648637533187866,,,,,,,,
,bright,0.8594294786453247,,,,,,,,
,pop,0.8574259281158447,,,,,,,,
https://scontent.cdninstagram.com/t51.2885-15/e35/12081027_929758283772527_1271277937_n.jpg,music,0.9772917628288269,Entertainment,,,,Events,,,
,concert,0.9745321273803711,,,,,,,,
,silhouette,0.9589340090751648,,,,,,,,
,sky,0.9578708410263062,,,,,,,,
,light,0.9515581130981445,,,,,,,,
,performance,0.9471550583839417,,,,,,,,
,nature,0.9265320301055908,,,,,,,,
,stage,0.9229627847671509,,,,,,,,
,travel,0.9162633419036865,,,,,,,,
,festival,0.9134191870689392,,,,,,,,
,energy,0.9069687128067017,,,,,,,,
,"no person",0.8949323892593384,,,,,,,,
,band,0.8901635408401489,,,,,,,,
,landscape,0.8854930400848389,,,,,,,,
,dark,0.8820128440856934,,,,,,,,
,singer,0.8797814846038818,,,,,,,,
,Christmas,0.8762269020080566,,,,,,,,
,moon,0.8648637533187866,,,,,,,,
,bright,0.8594294786453247,,,,,,,,
,pop,0.8574259281158447,,,,,,,,
https://scontent.cdninstagram.com/t51.2885-15/s750x750/sh0.08/e35/12357468_196517684028887_2055740060_n.jpg,face,0.9426785707473755,Cute,,,,Cute,,,
,portrait,0.9287588000297546,,,,,,,,
,people,0.9285120964050293,,,,,,,,
,fun,0.9203095436096191,,,,,,,,
,girl,0.919366180896759,,,,,,,,
,woman,0.9141007661819458,,,,,,,,
,one,0.9128161668777466,,,,,,,,
,desktop,0.9014232158660889,,,,,,,,
,adult,0.8943352699279785,,,,,,,,
,decoration,0.8899513483047485,,,,,,,,
,"no person",0.8846097588539124,,,,,,,,
,happiness,0.8725919723510742,,,,,,,,
,young,0.871077299118042,,,,,,,,
,beautiful,0.8687334060668945,,,,,,,,
,smile,0.8557224273681641,,,,,,,,
,cute,0.8522598743438721,,,,,,,,
,Christmas,0.8519939184188843,,,,,,,,
,family,0.8481696844100952,,,,,,,,
,closeup,0.8226979970932007,,,,,,,,
,celebration,0.8194370269775391,,,,,,,,
https://scontent.cdninstagram.com/t51.2885-15/e35/12362508_1654973471412386_588849295_n.jpg,people,0.9983272552490234,Relationships,,,,"Best friends",,,
,furniture,0.9956605434417725,,,,,,,,
,seat,0.9934439659118652,,,,,,,,
,adult,0.9897290468215942,,,,,,,,
,room,0.9893045425415039,,,,,,,,
,group,0.9883899688720703,,,,,,,,
,one,0.986445426940918,,,,,,,,
,chair,0.9748507142066956,,,,,,,,
,indoors,0.9720811247825623,,,,,,,,
,container,0.9570963382720947,,,,,,,,
,music,0.9530147314071655,,,,,,,,
,woman,0.9511675834655762,,,,,,,,
,two,0.9490000009536743,,,,,,,,
,wear,0.9469509124755859,,,,,,,,
,man,0.9427618980407715,,,,,,,,
,home,0.9414491057395935,,,,,,,,
,painting,0.9294620156288147,,,,,,,,
,vehicle,0.9146969318389893,,,,,,,,
,leader,0.9071581363677979,,,,,,,,
,"easy chair",0.8953323364257812,,,,,,,,
https://scontent.cdninstagram.com/t51.2885-15/e35/13397572_531827840338006_1465816766_n.jpg,one,0.9951314926147461,"My life",,,,"With me",,,
,mammal,0.9943548440933228,,,,,,,,
,cat,0.9936257004737854,,,,,,,,
,"no person",0.9907343983650208,,,,,,,,
,pet,0.9888789653778076,,,,,,,,
,dog,0.9770295023918152,,,,,,,,
,people,0.9698103666305542,,,,,,,,
,portrait,0.9569240212440491,,,,,,,,
,canine,0.9481890201568604,,,,,,,,
,cute,0.9429960250854492,,,,,,,,
,kitten,0.9406827688217163,,,,,,,,
,two,0.9392712116241455,,,,,,,,
,fur,0.9131731986999512,,,,,,,,
,domestic,0.9101766347885132,,,,,,,,
,furniture,0.9028317928314209,,,,,,,,
,animal,0.8993149995803833,,,,,,,,
,indoors,0.8987506628036499,,,,,,,,
,motley,0.883596658706665,,,,,,,,
,adult,0.8654470443725586,,,,,,,,
,downy,0.8636465072631836,,,,,,,,
https://scontent.cdninstagram.com/t51.2885-15/e35/12407654_1687713558179139_703363382_n.jpg,people,0.9993276596069336,Undefined,,,,Undefined,,,
,one,0.9927754998207092,,,,,,,,
,adult,0.988012433052063,,,,,,,,
,two,0.9870296120643616,,,,,,,,
,portrait,0.9731494188308716,,,,,,,,
,man,0.9685254096984863,,,,,,,,
,monochrome,0.9522167444229126,,,,,,,,
,"sports equipment",0.9521225690841675,,,,,,,,
,woman,0.9428493976593018,,,,,,,,
,administration,0.9328775405883789,,,,,,,,
,child,0.9322542548179626,,,,,,,,
,group,0.9173769950866699,,,,,,,,
,group,0.9124684929847717,,,,,,,,
,three,0.9123378992080688,,,,,,,,
,military,0.9092962145805359,,,,,,,,
,wear,0.8877912163734436,,,,,,,,
,healthcare,0.8731944561004639,,,,,,,,
,outfit,0.8651027679443359,,,,,,,,
,four,0.8645273447036743,,,,,,,,
,"medical practitioner",0.8640094995498657,,,,,,,,
https://scontent.cdninstagram.com/t51.2885-15/e35/12907125_1592279967766120_596461917_n.jpg,computer,0.9958411455154419,Technology,Entertainment,,,Technology-s,Entertainment-s,,
,technology,0.9949660301208496,,,,,,,,
,adult,0.9911321401596069,,,,,,,,
,people,0.9773383140563965,,,,,,,,
,screen,0.9736343026161194,,,,,,,,
,business,0.9663523435592651,,,,,,,,
,production,0.9506421685218811,,,,,,,,
,office,0.9489717483520508,,,,,,,,
,room,0.9419954419136047,,,,,,,,
,one,0.9279968738555908,,,,,,,,
,indoors,0.9266021251678467,,,,,,,,
,employee,0.919708251953125,,,,,,,,
,industry,0.9163156747817993,,,,,,,,
,woman,0.914393424987793,,,,,,,,
,commerce,0.9136803150177002,,,,,,,,
,telephone,0.9125157594680786,,,,,,,,
,exhibition,0.9102610349655151,,,,,,,,
,education,0.9089028835296631,,,,,,,,
,laptop,0.8953463435173035,,,,,,,,
,desk,0.8918424844741821,,,,,,,,
https://scontent.cdninstagram.com/t51.2885-15/e35/12393841_929279227156403_982829720_n.jpg,food,0.9854699373245239,Food,,,,"Meal time",,,
,"no person",0.9522137641906738,,,,,,,,
,restaurant,0.9284449815750122,,,,,,,,
,delicious,0.9220387935638428,,,,,,,,
,lunch,0.9159433841705322,,,,,,,,
,dinner,0.90799480676651,,,,,,,,
,meal,0.8830845355987549,,,,,,,,
,cooking,0.8800891041755676,,,,,,,,
,plate,0.8737108111381531,,,,,,,,
,breakfast,0.8603588342666626,,,,,,,,
,traditional,0.8566778898239136,,,,,,,,
,grow,0.8529538512229919,,,,,,,,
,dish,0.8431824445724487,,,,,,,,
,table,0.8399802446365356,,,,,,,,
,health,0.8376438617706299,,,,,,,,
,indoors,0.8375376462936401,,,,,,,,
,refreshment,0.8361068964004517,,,,,,,,
,knife,0.8204525113105774,,,,,,,,
,drink,0.8047007918357849,,,,,,,,
,hot,0.8014112710952759,,,,,,,,
https://scontent.cdninstagram.com/t51.2885-15/e35/12105189_949970775082983_1247523951_n.jpg,sea,0.9941474199295044,Environment,Travel,,,"Natural beauty",Travel-s,,
,water,0.9917128682136536,,,,,,,,
,ocean,0.9872971773147583,,,,,,,,
,beach,0.9840787649154663,,,,,,,,
,seashore,0.9818712472915649,,,,,,,,
,rock,0.9681077003479004,,,,,,,,
,landscape,0.9598753452301025,,,,,,,,
,seascape,0.9339479804039001,,,,,,,,
,travel,0.9335818290710449,,,,,,,,
,island,0.9098353385925293,,,,,,,,
,bay,0.8771296739578247,,,,,,,,
,nature,0.871907651424408,,,,,,,,
,scenic,0.8668025732040405,,,,,,,,
,sky,0.8419890403747559,,,,,,,,
,sunset,0.828961968421936,,,,,,,,
,summer,0.817192792892456,,,,,,,,
,shore,0.8074044585227966,,,,,,,,
,wave,0.7926461696624756,,,,,,,,
,sand,0.7770826816558838,,,,,,,,
,surf,0.7747223973274231,,,,,,,,
https://scontent.cdninstagram.com/t51.2885-15/e35/12105189_949970775082983_1247523951_n.jpg,sea,0.9941474199295044,Environment,Travel,,,"Natural beauty",Travel-s,,
,water,0.9917128682136536,,,,,,,,
,ocean,0.9872971773147583,,,,,,,,
,beach,0.9840787649154663,,,,,,,,
,seashore,0.9818712472915649,,,,,,,,
,rock,0.9681077003479004,,,,,,,,
,landscape,0.9598753452301025,,,,,,,,
,seascape,0.9339479804039001,,,,,,,,
,travel,0.9335818290710449,,,,,,,,
,island,0.9098353385925293,,,,,,,,
,bay,0.8771296739578247,,,,,,,,
,nature,0.871907651424408,,,,,,,,
,scenic,0.8668025732040405,,,,,,,,
,sky,0.8419890403747559,,,,,,,,
,sunset,0.828961968421936,,,,,,,,
,summer,0.817192792892456,,,,,,,,
,shore,0.8074044585227966,,,,,,,,
,wave,0.7926461696624756,,,,,,,,
,sand,0.7770826816558838,,,,,,,,
,surf,0.7747223973274231,,,,,,,,
https://scontent.cdninstagram.com/t51.2885-15/e35/12301239_830088170441649_1663722107_n.jpg,Christmas,0.9811127185821533,Food,,,,"Drinks and snack",,,
,"no person",0.9773614406585693,,,,,,,,
,gingerbread,0.9422050714492798,,,,,,,,
,cookie,0.938569188117981,,,,,,,,
,winter,0.9379412531852722,,,,,,,,
,isolated,0.9325911998748779,,,,,,,,
,box,0.9292154312133789,,,,,,,,
,paper,0.9254549145698547,,,,,,,,
,food,0.9207773208618164,,,,,,,,
,vacation,0.9158985614776611,,,,,,,,
,baking,0.9137903451919556,,,,,,,,
,celebration,0.9137902855873108,,,,,,,,
,cute,0.9053862690925598,,,,,,,,
,funny,0.9000386595726013,,,,,,,,
,cake,0.8898204565048218,,,,,,,,
,fun,0.8859502077102661,,,,,,,,
,child,0.8857406973838806,,,,,,,,
,business,0.88352370262146,,,,,,,,
,candy,0.8825670480728149,,,,,,,,
,sugar,0.873645544052124,,,,,,,,
https://scontent.cdninstagram.com/t51.2885-15/e35/12292618_103243590045643_158841166_n.jpg,"no person",0.9914649724960327,Arts,,,,Arts-s,,,
,paper,0.9681521654129028,,,,,,,,
,writing,0.9590682983398438,,,,,,,,
,composition,0.9347174763679504,,,,,,,,
,business,0.9137283563613892,,,,,,,,
,document,0.9031194448471069,,,,,,,,
,book,0.8980007171630859,,,,,,,,
,education,0.8933774828910828,,,,,,,,
,write,0.8932849764823914,,,,,,,,
,people,0.8876951932907104,,,,,,,,
,pencil,0.8695438504219055,,,,,,,,
,note,0.8675136566162109,,,,,,,,
,text,0.8484560251235962,,,,,,,,
,notebook,0.8464337587356567,,,,,,,,
,wear,0.8376518487930298,,,,,,,,
,office,0.8373086452484131,,,,,,,,
,one,0.8281497955322266,,,,,,,,
,blank,0.8201158046722412,,,,,,,,
,"still life",0.8121542930603027,,,,,,,,
,school,0.811394214630127,,,,,,,,
https://scontent.cdninstagram.com/t51.2885-15/e35/12354002_1780859232141344_635868286_n.jpg,people,0.9877505302429199,Relationships,,,,Friends,,,
,group,0.9848763942718506,,,,,,,,
,music,0.9657683372497559,,,,,,,,
,many,0.9604089856147766,,,,,,,,
,festival,0.941051185131073,,,,,,,,
,performance,0.935895562171936,,,,,,,,
,woman,0.9215311408042908,,,,,,,,
,crowd,0.9192452430725098,,,,,,,,
,adult,0.9047670364379883,,,,,,,,
,man,0.9006803035736084,,,,,,,,
,group,0.8964400291442871,,,,,,,,
,band,0.8934805393218994,,,,,,,,
,wear,0.8932833075523376,,,,,,,,
,portrait,0.879610002040863,,,,,,,,
,singer,0.8789284825325012,,,,,,,,
,street,0.8732196092605591,,,,,,,,
,city,0.8727583885192871,,,,,,,,
,movie,0.8591256737709045,,,,,,,,
,musician,0.8562465310096741,,,,,,,,
,exhibition,0.8498430848121643,,,,,,,,
https://scontent.cdninstagram.com/t51.2885-15/e35/1389506_1036532353093482_2064024543_n.jpg,"no person",0.9914413690567017,Food,,,,"Drinks and snack",,,
,food,0.953910231590271,,,,,,,,
,"still life",0.9517884254455566,,,,,,,,
,drink,0.9408057332038879,,,,,,,,
,wood,0.9092940092086792,,,,,,,,
,fruit,0.8932891488075256,,,,,,,,
,table,0.8722068071365356,,,,,,,,
,grow,0.8159748315811157,,,,,,,,
,"dairy product",0.8038621544837952,,,,,,,,
,container,0.7747635245323181,,,,,,,,
,bar,0.7736973762512207,,,,,,,,
,sugar,0.7521962523460388,,,,,,,,
,people,0.7449817657470703,,,,,,,,
,indoors,0.7300595641136169,,,,,,,,
,restaurant,0.706531822681427,,,,,,,,
,two,0.6883940696716309,,,,,,,,
,one,0.6683006882667542,,,,,,,,
,cold,0.6625086069107056,,,,,,,,
,ice,0.6426441669464111,,,,,,,,
,counter,0.6391302347183228,,,,,,,,
https://scontent.cdninstagram.com/t51.2885-15/e35/12362508_1654973471412386_588849295_n.jpg,people,0.9983272552490234,Relationships,,,,"Best friends",,,
,furniture,0.9956605434417725,,,,,,,,
,seat,0.9934439659118652,,,,,,,,
,adult,0.9897290468215942,,,,,,,,
,room,0.9893045425415039,,,,,,,,
,group,0.9883899688720703,,,,,,,,
,one,0.986445426940918,,,,,,,,
,chair,0.9748507142066956,,,,,,,,
,indoors,0.9720811247825623,,,,,,,,
,container,0.9570963382720947,,,,,,,,
,music,0.9530147314071655,,,,,,,,
,woman,0.9511675834655762,,,,,,,,
,two,0.9490000009536743,,,,,,,,
,wear,0.9469509124755859,,,,,,,,
,man,0.9427618980407715,,,,,,,,
,home,0.9414491057395935,,,,,,,,
,painting,0.9294620156288147,,,,,,,,
,vehicle,0.9146969318389893,,,,,,,,
,leader,0.9071581363677979,,,,,,,,
,"easy chair",0.8953323364257812,,,,,,,,
https://scontent.cdninstagram.com/t51.2885-15/e35/12292618_103243590045643_158841166_n.jpg,"no person",0.9914649724960327,Arts,,,,Arts-s,,,
,paper,0.9681521654129028,,,,,,,,
,writing,0.9590682983398438,,,,,,,,
,composition,0.9347174763679504,,,,,,,,
,business,0.9137283563613892,,,,,,,,
,document,0.9031194448471069,,,,,,,,
,book,0.8980007171630859,,,,,,,,
,education,0.8933774828910828,,,,,,,,
,write,0.8932849764823914,,,,,,,,
,people,0.8876951932907104,,,,,,,,
,pencil,0.8695438504219055,,,,,,,,
,note,0.8675136566162109,,,,,,,,
,text,0.8484560251235962,,,,,,,,
,notebook,0.8464337587356567,,,,,,,,
,wear,0.8376518487930298,,,,,,,,
,office,0.8373086452484131,,,,,,,,
,one,0.8281497955322266,,,,,,,,
,blank,0.8201158046722412,,,,,,,,
,"still life",0.8121542930603027,,,,,,,,
,school,0.811394214630127,,,,,,,,
https://scontent.cdninstagram.com/t51.2885-15/e35/12354002_1780859232141344_635868286_n.jpg,people,0.9877505302429199,Relationships,,,,Friends,,,
,group,0.9848763942718506,,,,,,,,
,music,0.9657683372497559,,,,,,,,
,many,0.9604089856147766,,,,,,,,
,festival,0.941051185131073,,,,,,,,
,performance,0.935895562171936,,,,,,,,
,woman,0.9215311408042908,,,,,,,,
,crowd,0.9192452430725098,,,,,,,,
,adult,0.9047670364379883,,,,,,,,
,man,0.9006803035736084,,,,,,,,
,group,0.8964400291442871,,,,,,,,
,band,0.8934805393218994,,,,,,,,
,wear,0.8932833075523376,,,,,,,,
,portrait,0.879610002040863,,,,,,,,
,singer,0.8789284825325012,,,,,,,,
,street,0.8732196092605591,,,,,,,,
,city,0.8727583885192871,,,,,,,,
,movie,0.8591256737709045,,,,,,,,
,musician,0.8562465310096741,,,,,,,,
,exhibition,0.8498430848121643,,,,,,,,
https://scontent.cdninstagram.com/t51.2885-15/e35/12346103_920335984716152_703831114_n.jpg,"no person",0.9928622245788574,Environment,Travel,,,"Natural beauty",Travel-s,,
,landscape,0.9924190044403076,,,,,,,,
,water,0.9893381595611572,,,,,,,,
,travel,0.9745765924453735,,,,,,,,
,mountain,0.9736801385879517,,,,,,,,
,river,0.9707517623901367,,,,,,,,
,outdoors,0.9676693677902222,,,,,,,,
,scenic,0.95276939868927,,,,,,,,
,valley,0.9490301609039307,,,,,,,,
,nature,0.9465512037277222,,,,,,,,
,sky,0.9458808898925781,,,,,,,,
,rock,0.9361634254455566,,,,,,,,
,frosty,0.9360480308532715,,,,,,,,
,stream,0.9088436365127563,,,,,,,,
,hill,0.9018957614898682,,,,,,,,
,grass,0.8993972539901733,,,,,,,,
,lake,0.8886826038360596,,,,,,,,
,seashore,0.8856645822525024,,,,,,,,
,countryside,0.8616005778312683,,,,,,,,
,summer,0.8449896574020386,,,,,,,,
https://scontent.cdninstagram.com/t51.2885-15/e35/12356331_877094525744837_1459168608_n.jpg,"facial expression",0.9823073744773865,Relationships,,,,"Best friends",,,
,woman,0.9817174673080444,,,,,,,,
,portrait,0.9805335998535156,,,,,,,,
,wear,0.9781872034072876,,,,,,,,
,fashion,0.963358998298645,,,,,,,,
,people,0.9539202451705933,,,,,,,,
,"red carpet",0.9516105651855469,,,,,,,,
,actress,0.9507375955581665,,,,,,,,
,happiness,0.9495581388473511,,,,,,,,
,two,0.9465121626853943,,,,,,,,
,girl,0.9381126165390015,,,,,,,,
,movie,0.9236990213394165,,,,,,,,
,adult,0.9234179258346558,,,,,,,,
,togetherness,0.9220055341720581,,,,,,,,
,brunette,0.9090331792831421,,,,,,,,
,knitwear,0.898548424243927,,,,,,,,
,youth,0.8840129971504211,,,,,,,,
,festival,0.8817620277404785,,,,,,,,
,fun,0.8767095804214478,,,,,,,,
,friendship,0.8762152791023254,,,,,,,,
https://scontent.cdninstagram.com/t51.2885-15/e35/12346103_920335984716152_703831114_n.jpg,"no person",0.9928622245788574,Environment,Travel,,,"Natural beauty",Travel-s,,
,landscape,0.9924190044403076,,,,,,,,
,water,0.9893381595611572,,,,,,,,
,travel,0.9745765924453735,,,,,,,,
,mountain,0.9736801385879517,,,,,,,,
,river,0.9707517623901367,,,,,,,,
,outdoors,0.9676693677902222,,,,,,,,
,scenic,0.95276939868927,,,,,,,,
,valley,0.9490301609039307,,,,,,,,
,nature,0.9465512037277222,,,,,,,,
,sky,0.9458808898925781,,,,,,,,
,rock,0.9361634254455566,,,,,,,,
,frosty,0.9360480308532715,,,,,,,,
,stream,0.9088436365127563,,,,,,,,
,hill,0.9018957614898682,,,,,,,,
,grass,0.8993972539901733,,,,,,,,
,lake,0.8886826038360596,,,,,,,,
,seashore,0.8856645822525024,,,,,,,,
,countryside,0.8616005778312683,,,,,,,,
,summer,0.8449896574020386,,,,,,,,
https://scontent.cdninstagram.com/t51.2885-15/e35/12331462_866445130143696_1468687657_n.jpg,people,0.992716908454895,Travel,Environment,,,Travel-s,"Natural beauty",,
,vehicle,0.9912638664245605,,,,,,,,
,snow,0.9891343712806702,,,,,,,,
,"no person",0.983041524887085,,,,,,,,
,winter,0.9823809862136841,,,,,,,,
,one,0.9788232445716858,,,,,,,,
,calamity,0.9714862108230591,,,,,,,,
,action,0.97119140625,,,,,,,,
,recreation,0.966467022895813,,,,,,,,
,water,0.9634346961975098,,,,,,,,
,two,0.9562650322914124,,,,,,,,
,adult,0.9558390378952026,,,,,,,,
,environment,0.9428436756134033,,,,,,,,
,competition,0.935340940952301,,,,,,,,
,man,0.9342324733734131,,,,,,,,
,weather,0.9334903359413147,,,,,,,,
,exploration,0.9300620555877686,,,,,,,,
,mine,0.9191503524780273,,,,,,,,
,landscape,0.9181667566299438,,,,,,,,
,watercraft,0.9179096221923828,,,,,,,,
https://scontent.cdninstagram.com/t51.2885-15/e35/12301239_830088170441649_1663722107_n.jpg,Christmas,0.9811127185821533,Food,,,,"Drinks and snack",,,
,"no person",0.9773614406585693,,,,,,,,
,gingerbread,0.9422050714492798,,,,,,,,
,cookie,0.938569188117981,,,,,,,,
,winter,0.9379412531852722,,,,,,,,
,isolated,0.9325911998748779,,,,,,,,
,box,0.9292154312133789,,,,,,,,
,paper,0.9254549145698547,,,,,,,,
,food,0.9207773208618164,,,,,,,,
,vacation,0.9158985614776611,,,,,,,,
,baking,0.9137903451919556,,,,,,,,
,celebration,0.9137902855873108,,,,,,,,
,cute,0.9053862690925598,,,,,,,,
,funny,0.9000386595726013,,,,,,,,
,cake,0.8898204565048218,,,,,,,,
,fun,0.8859502077102661,,,,,,,,
,child,0.8857406973838806,,,,,,,,
,business,0.88352370262146,,,,,,,,
,candy,0.8825670480728149,,,,,,,,
,sugar,0.873645544052124,,,,,,,,
https://scontent.cdninstagram.com/t51.2885-15/e15/12918614_594819377341880_2141830149_n.jpg,street,0.9941423535346985,Animals,,,,"Non Usable",,,
,people,0.9930583238601685,,,,,,,,
,city,0.9903748631477356,,,,,,,,
,road,0.979732871055603,,,,,,,,
,many,0.9776462912559509,,,,,,,,
,group,0.967975914478302,,,,,,,,
,crowd,0.966361403465271,,,,,,,,
,offense,0.9240551590919495,,,,,,,,
,motion,0.9166918992996216,,,,,,,,
,commuter,0.9137014746665955,,,,,,,,
,battle,0.911479651927948,,,,,,,,
,woman,0.9045096039772034,,,,,,,,
,police,0.9036513566970825,,,,,,,,
,commerce,0.9005441665649414,,,,,,,,
,shopping,0.8911948800086975,,,,,,,,
,action,0.8904814720153809,,,,,,,,
,rally,0.8795035481452942,,,,,,,,
,competition,0.8785121440887451,,,,,,,,
,tourist,0.8759533166885376,,,,,,,,
,travel,0.8752538561820984,,,,,,,,
https://scontent.cdninstagram.com/t51.2885-15/e35/12331462_866445130143696_1468687657_n.jpg,people,0.992716908454895,Travel,Environment,,,Travel-s,"Natural beauty",,
,vehicle,0.9912638664245605,,,,,,,,
,snow,0.9891343712806702,,,,,,,,
,"no person",0.983041524887085,,,,,,,,
,winter,0.9823809862136841,,,,,,,,
,one,0.9788232445716858,,,,,,,,
,calamity,0.9714862108230591,,,,,,,,
,action,0.97119140625,,,,,,,,
,recreation,0.966467022895813,,,,,,,,
,water,0.9634346961975098,,,,,,,,
,two,0.9562650322914124,,,,,,,,
,adult,0.9558390378952026,,,,,,,,
,environment,0.9428436756134033,,,,,,,,
,competition,0.935340940952301,,,,,,,,
,man,0.9342324733734131,,,,,,,,
,weather,0.9334903359413147,,,,,,,,
,exploration,0.9300620555877686,,,,,,,,
,mine,0.9191503524780273,,,,,,,,
,landscape,0.9181667566299438,,,,,,,,
,watercraft,0.9179096221923828,,,,,,,,
https://scontent.cdninstagram.com/t51.2885-15/e35/12424453_213583012352900_1809024026_n.jpg,paper,0.9812740087509155,Arts,,,,Arts-s,,,
,business,0.9604790806770325,,,,,,,,
,illustration,0.925997793674469,,,,,,,,
,text,0.9023706912994385,,,,,,,,
,"no person",0.8689548373222351,,,,,,,,
,card,0.8576099872589111,,,,,,,,
,sign,0.8452528715133667,,,,,,,,
,vertical,0.8367331027984619,,,,,,,,
,note,0.8364007472991943,,,,,,,,
,symbol,0.8270338773727417,,,,,,,,
,design,0.8131695985794067,,,,,,,,
,old,0.8121586441993713,,,,,,,,
,identity,0.808499813079834,,,,,,,,
,bill,0.803085446357727,,,,,,,,
,isolated,0.8014988303184509,,,,,,,,
,page,0.8013567924499512,,,,,,,,
,desktop,0.8005203008651733,,,,,,,,
,document,0.7994518280029297,,,,,,,,
,money,0.7934213876724243,,,,,,,,
,collection,0.7930315732955933,,,,,,,,
https://scontent.cdninstagram.com/t51.2885-15/e35/1389506_1036532353093482_2064024543_n.jpg,"no person",0.9914413690567017,Food,,,,"Drinks and snack",,,
,food,0.953910231590271,,,,,,,,
,"still life",0.9517884254455566,,,,,,,,
,drink,0.9408057332038879,,,,,,,,
,wood,0.9092940092086792,,,,,,,,
,fruit,0.8932891488075256,,,,,,,,
,table,0.8722068071365356,,,,,,,,
,grow,0.8159748315811157,,,,,,,,
,"dairy product",0.8038621544837952,,,,,,,,
,container,0.7747635245323181,,,,,,,,
,bar,0.7736973762512207,,,,,,,,
,sugar,0.7521962523460388,,,,,,,,
,people,0.7449817657470703,,,,,,,,
,indoors,0.7300595641136169,,,,,,,,
,restaurant,0.706531822681427,,,,,,,,
,two,0.6883940696716309,,,,,,,,
,one,0.6683006882667542,,,,,,,,
,cold,0.6625086069107056,,,,,,,,
,ice,0.6426441669464111,,,,,,,,
,counter,0.6391302347183228,,,,,,,,
https://scontent.cdninstagram.com/t51.2885-15/e35/12907125_1592279967766120_596461917_n.jpg,computer,0.9958411455154419,Technology,Entertainment,,,Technology-s,Entertainment-s,,
,technology,0.9949660301208496,,,,,,,,
,adult,0.9911321401596069,,,,,,,,
,people,0.9773383140563965,,,,,,,,
,screen,0.9736343026161194,,,,,,,,
,business,0.9663523435592651,,,,,,,,
,production,0.9506421685218811,,,,,,,,
,office,0.9489717483520508,,,,,,,,
,room,0.9419954419136047,,,,,,,,
,one,0.9279968738555908,,,,,,,,
,indoors,0.9266021251678467,,,,,,,,
,employee,0.919708251953125,,,,,,,,
,industry,0.9163156747817993,,,,,,,,
,woman,0.914393424987793,,,,,,,,
,commerce,0.9136803150177002,,,,,,,,
,telephone,0.9125157594680786,,,,,,,,
,exhibition,0.9102610349655151,,,,,,,,
,education,0.9089028835296631,,,,,,,,
,laptop,0.8953463435173035,,,,,,,,
,desk,0.8918424844741821,,,,,,,,
https://scontent.cdninstagram.com/t51.2885-15/e35/12356395_951585084917151_1434742905_n.jpg,family,0.975261926651001,Relationships,,,,"Best friends",,,
,people,0.9742640256881714,,,,,,,,
,woman,0.9572423100471497,,,,,,,,
,two,0.9527336955070496,,,,,,,,
,love,0.9377284049987793,,,,,,,,
,portrait,0.9353386163711548,,,,,,,,
,child,0.9316641092300415,,,,,,,,
,indoors,0.9255907535552979,,,,,,,,
,man,0.9241029024124146,,,,,,,,
,adult,0.9216639995574951,,,,,,,,
,girl,0.9028815031051636,,,,,,,,
,togetherness,0.8984092473983765,,,,,,,,
,happiness,0.8900526762008667,,,,,,,,
,couple,0.888339638710022,,,,,,,,
,group,0.8636019229888916,,,,,,,,
,three,0.8416625261306763,,,,,,,,
,fun,0.816679060459137,,,,,,,,
,friendship,0.8147024512290955,,,,,,,,
,affection,0.7823554277420044,,,,,,,,
,room,0.7800606489181519,,,,,,,,
https://scontent.cdninstagram.com/t51.2885-15/e35/13397636_187271311674259_1910870935_n.jpg,people,0.9509310722351074,Commerce,Gifts,Celebrations,,"Product/brand shots",Gifts-s,"Personal Events",
,food,0.9500347375869751,,,,,,,,
,indoors,0.9497628211975098,,,,,,,,
,woman,0.9279894828796387,,,,,,,,
,business,0.9206756353378296,,,,,,,,
,computer,0.9178751707077026,,,,,,,,
,adult,0.9136507511138916,,,,,,,,
,room,0.9050358533859253,,,,,,,,
,internet,0.9038543701171875,,,,,,,,
,technology,0.8904677033424377,,,,,,,,
,man,0.8816710710525513,,,,,,,,
,furniture,0.8798187971115112,,,,,,,,
,coffee,0.8498272895812988,,,,,,,,
,table,0.8496991395950317,,,,,,,,
,commerce,0.8438019752502441,,,,,,,,
,telephone,0.8386869430541992,,,,,,,,
,family,0.8104044198989868,,,,,,,,
,drink,0.7985481023788452,,,,,,,,
,portrait,0.7823983430862427,,,,,,,,
,meal,0.7784817218780518,,,,,,,,
https://scontent.cdninstagram.com/t51.2885-15/e35/12356395_951585084917151_1434742905_n.jpg,family,0.975261926651001,Relationships,,,,"Best friends",,,
,people,0.9742640256881714,,,,,,,,
,woman,0.9572423100471497,,,,,,,,
,two,0.9527336955070496,,,,,,,,
,love,0.9377284049987793,,,,,,,,
,portrait,0.9353386163711548,,,,,,,,
,child,0.9316641092300415,,,,,,,,
,indoors,0.9255907535552979,,,,,,,,
,man,0.9241029024124146,,,,,,,,
,adult,0.9216639995574951,,,,,,,,
,girl,0.9028815031051636,,,,,,,,
,togetherness,0.8984092473983765,,,,,,,,
,happiness,0.8900526762008667,,,,,,,,
,couple,0.888339638710022,,,,,,,,
,group,0.8636019229888916,,,,,,,,
,three,0.8416625261306763,,,,,,,,
,fun,0.816679060459137,,,,,,,,
,friendship,0.8147024512290955,,,,,,,,
,affection,0.7823554277420044,,,,,,,,
,room,0.7800606489181519,,,,,,,,
