url,class,score
https://scontent-sit4-1.cdninstagram.com/t51.2885-15/s640x640/e15/13534199_1577440045888508_2111395352_n.jpg,performance,0.9835976362228394
,music,0.9827088117599487
,musician,0.9812972545623779
,people,0.9789226651191711
,stage,0.9759643077850342
,adult,0.9711071252822876
,concert,0.9705579280853271
,indoors,0.9624103307723999
,portrait,0.9601352214813232
,festival,0.9539815783500671
,singer,0.9515964984893799
,microphone,0.950419545173645
,movie,0.9428758025169373
,man,0.9349664449691772
,business,0.9037504196166992
,recreation,0.8672555088996887
,one,0.8607595562934875
,pop,0.8503168225288391
,film festival,0.8346410989761353
,wear,0.8221368789672852
https://scontent-sit4-1.cdninstagram.com/t51.2885-15/s640x640/e15/13525474_497541617105940_1266844373_n.jpg,stage,0.991838276386261
,people,0.9909958243370056
,music,0.9887886047363281
,group,0.9840902090072632
,performance,0.9825341701507568
,concert,0.9766741991043091
,musician,0.9663580656051636
,audience,0.9458537101745605
,theater,0.9341174960136414
,man,0.9263328909873962
,light,0.9218523502349854
,recreation,0.91892009973526
,room,0.9050633907318115
,opera,0.9021294116973877
,adult,0.8966693878173828
,festival,0.8934071063995361
,chair,0.8927870988845825
,band,0.8920426368713379
,instrument,0.8680862188339233
,several,0.8499413132667542
https://scontent-sit4-1.cdninstagram.com/t51.2885-15/e15/p640x640/13408800_290498197970621_1999387211_n.jpg,group,0.9916799068450928
,performance,0.987934410572052
,people,0.9870389699935913
,music,0.9825758337974548
,festival,0.9781014919281006
,musician,0.976477861404419
,stage,0.9758723974227905
,singer,0.9722577333450317
,concert,0.9586154222488403
,woman,0.9499154090881348
,many,0.9362238645553589
,adult,0.9347103834152222
,recreation,0.9306032061576843
,celebration,0.927330493927002
,band,0.926943302154541
,man,0.9101371765136719
,wear,0.905971884727478
,group,0.9034784436225891
,education,0.8950048089027405
,club,0.8905014991760254
https://scontent-sit4-1.cdninstagram.com/t51.2885-15/s640x640/e15/13556939_798385443595283_1631114916_n.jpg,performance,0.9996479749679565
,music,0.9994242787361145
,concert,0.9973121881484985
,musician,0.9962500333786011
,singer,0.9902769327163696
,band,0.9872649908065796
,festival,0.9849948287010193
,stage,0.9739665389060974
,guitarist,0.9703713059425354
,rap,0.9463229179382324
,club,0.9393646717071533
,audience,0.9386860132217407
,indie,0.9270641803741455
,people,0.922197699546814
,stringed instrument,0.893846869468689
,guitar,0.8796464800834656
,pop,0.8615339398384094
,songwriter,0.858588695526123
,instrument,0.857837438583374
,energy,0.8526246547698975
https://scontent-sit4-1.cdninstagram.com/t51.2885-15/e35/13473312_142609109477453_569487756_n.jpg,people,0.9822081327438354
,indoors,0.9772123098373413
,adult,0.971757173538208
,stock,0.9697374701499939
,shopping,0.9437203407287598
,food,0.9183568954467773
,portrait,0.9142439365386963
,city,0.9139277935028076
,business,0.9089010953903198
,enjoyment,0.897992730140686
,wear,0.8905532360076904
,market,0.8900175094604492
,restaurant,0.8820900321006775
,commerce,0.8767372369766235
,child,0.8667787909507751
,side view,0.8531993627548218
,woman,0.849773645401001
,man,0.844816267490387
,happiness,0.8423236608505249
,merchandise,0.8355103731155396
https://scontent-sit4-1.cdninstagram.com/t51.2885-15/s640x640/e15/13473179_1562551190707268_1012581396_n.jpg,outdoors,0.9795113801956177
,city,0.9646899700164795
,horizontal,0.9643649458885193
,people,0.9642981886863708
,travel,0.9606066942214966
,street,0.9401596784591675
,illuminated,0.9345375299453735
,tourist,0.9161303639411926
,sky,0.9101470708847046
,tourism,0.9035135507583618
,architecture,0.8946089744567871
,transportation system,0.8717294931411743
,dusk,0.8626471757888794
,building,0.8211824893951416
,business,0.8098646402359009
,water,0.7914365530014038
,town,0.77995765209198
,road,0.7774119973182678
,nightlife,0.7772462368011475
,square,0.7765926122665405
https://scontent-sit4-1.cdninstagram.com/t51.2885-15/e35/13355610_269166133467681_1908006868_n.jpg,room,0.9934430122375488
,indoors,0.9921520948410034
,interior design,0.9882550239562988
,museum,0.9871273040771484
,furniture,0.9828543066978455
,no person,0.9810007810592651
,home,0.9723864197731018
,family,0.9660676717758179
,television,0.9643667936325073
,seat,0.9343074560165405
,exhibition,0.9142608642578125
,light,0.9138005971908569
,contemporary,0.8928794860839844
,house,0.8826620578765869
,chair,0.8748495578765869
,people,0.8645709156990051
,hotel,0.8392034769058228
,two,0.8295934200286865
,empty,0.8260717391967773
,minimalist,0.8227549195289612
https://scontent-sit4-1.cdninstagram.com/t51.2885-15/e35/13423590_1647186405603730_1708820003_n.jpg,people,0.996574342250824
,monochrome,0.9893006086349487
,two,0.9872961044311523
,adult,0.9840736389160156
,woman,0.9779205322265625
,portrait,0.9665118455886841
,one,0.9605263471603394
,facial expression,0.948104739189148
,wear,0.9461982250213623
,man,0.9393815994262695
,child,0.9247279167175293
,actress,0.9034990668296814
,group,0.8870046138763428
,black and white,0.886085033416748
,sit,0.8789571523666382
,three,0.8743376731872559
,music,0.866275429725647
,interaction,0.8461850881576538
,furniture,0.8430529236793518
,indoors,0.841492772102356
https://scontent-sit4-1.cdninstagram.com/t51.2885-15/s640x640/e15/13741041_315426918846867_1104630560_n.jpg,one,0.9664374589920044
,healthcare,0.9622249007225037
,medicine,0.9615329504013062
,treatment,0.9583768844604492
,woman,0.9389652013778687
,indoors,0.9378485679626465
,health,0.9321449398994446
,cure,0.8948899507522583
,paper,0.888468325138092
,milk,0.8684501647949219
,wear,0.8664172887802124
,clean,0.8194112777709961
,people,0.815794825553894
,soap,0.7767826318740845
,industry,0.7733893990516663
,business,0.7604137659072876
,no person,0.7506577968597412
,bottle,0.7479152679443359
,fashion,0.7336951494216919
,adult,0.7296254634857178
https://scontent-sit4-1.cdninstagram.com/t51.2885-15/s750x750/sh0.08/e35/13402724_997289690385720_115799084_n.jpg,indoors,0.9993816614151001
,contemporary,0.998953640460968
,furniture,0.9977583289146423
,luxury,0.9963617324829102
,interior design,0.9941409826278687
,room,0.9893690347671509
,family,0.9832735061645508
,comfort,0.9782496690750122
,no person,0.9668385982513428
,apartment,0.9409968852996826
,bedroom,0.9384328126907349
,lamp,0.9358612298965454
,rug,0.9305351972579956
,table,0.9263852834701538
,shelf,0.9116190671920776
,bed,0.90401291847229
,pillow,0.9021350145339966
,chair,0.899714469909668
,wood,0.8903247714042664
,seat,0.8843419551849365
https://scontent-sit4-1.cdninstagram.com/t51.2885-15/s750x750/sh0.08/e35/13402422_258883497804598_1893527463_n.jpg,indoors,0.9987990856170654
,furniture,0.9944989681243896
,contemporary,0.9924538135528564
,interior design,0.9888632297515869
,room,0.9887863397598267
,no person,0.9849833250045776
,luxury,0.9823247790336609
,chair,0.9713255167007446
,mirror,0.9633365869522095
,cabinet,0.9276552200317383
,table,0.9269602298736572
,seat,0.9228671789169312
,window,0.9061218500137329
,apartment,0.894004225730896
,modern,0.8744046092033386
,absence,0.8665059804916382
,lamp,0.8602486252784729
,comfort,0.856135368347168
,hotel,0.8528451323509216
,desk,0.8484317064285278
https://scontent-sit4-1.cdninstagram.com/t51.2885-15/e35/13744214_281469598884680_885597060_n.jpg,water,0.986258864402771
,no person,0.9780887365341187
,travel,0.9446635246276855
,outdoors,0.9444020986557007
,landscape,0.9408745169639587
,sky,0.9196637272834778
,race,0.9005842804908752
,seashore,0.8974229097366333
,vehicle,0.8927658796310425
,sea,0.8896087408065796
,watercraft,0.8733389377593994
,beach,0.8729192018508911
,competition,0.8664476275444031
,nature,0.8530019521713257
,transportation system,0.8514848947525024
,recreation,0.8366156816482544
,summer,0.8336102366447449
,ocean,0.8263571858406067
,action,0.8263453841209412
,river,0.8234792947769165
https://scontent-sit4-1.cdninstagram.com/t51.2885-15/s750x750/sh0.08/e35/13398723_1587183931579823_1165696317_n.jpg,luggage,0.9991053342819214
,travel,0.9927545785903931
,adventure,0.9798719882965088
,case,0.9658743739128113
,travel,0.9603564739227295
,travel,0.9525659084320068
,bag,0.9447692036628723
,no person,0.9359991550445557
,backpack,0.9235101938247681
,transportation system,0.9194784164428711
,journey,0.9050378799438477
,airport,0.8972988724708557
,sail,0.8959282040596008
,isolated,0.8939971327781677
,vacation,0.8915450572967529
,retro,0.8744969367980957
,airplane,0.8741298913955688
,business,0.8582786321640015
,briefcase,0.854384183883667
,equipment,0.8462385535240173
https://scontent-sit4-1.cdninstagram.com/t51.2885-15/e15/13534436_1789687224607864_106269997_n.jpg,tropical,0.9887346029281616
,summer,0.9882383942604065
,juice,0.9879348874092102
,drink,0.9872431755065918
,no person,0.9691115617752075
,straw,0.9506698846817017
,glass,0.9457958936691284
,people,0.942129373550415
,nature,0.9329872727394104
,outdoors,0.9300827383995056
,fruit,0.9295227527618408
,food,0.9280677437782288
,cold,0.9231649041175842
,ice,0.9202090501785278
,exotic,0.910566508769989
,relaxation,0.9060870409011841
,cocktail,0.8945348262786865
,sun,0.8875467777252197
,cool,0.8792890310287476
,one,0.8778992891311646
https://scontent-sit4-1.cdninstagram.com/t51.2885-15/e35/13534096_1738372103067710_1001540065_n.jpg,woman,0.9887800216674805
,portrait,0.9772722721099854
,facial expression,0.9730989933013916
,people,0.9621920585632324
,fashion,0.9534628391265869
,girl,0.9311480522155762
,fun,0.9231874942779541
,adolescent,0.9095056653022766
,child,0.8985792398452759
,indoors,0.8979365825653076
,love,0.8879841566085815
,adult,0.8825903534889221
,joy,0.8747652173042297
,enjoyment,0.8687981963157654
,cute,0.8665584325790405
,togetherness,0.8510756492614746
,pretty,0.8498497605323792
,happiness,0.8495358824729919
,wear,0.8451340198516846
,two,0.8169246912002563
https://scontent-sit4-1.cdninstagram.com/t51.2885-15/e35/13437208_1755675434717906_1796840468_n.jpg,woman,0.9917576313018799
,outdoors,0.9896319508552551
,summer,0.969691276550293
,people,0.9664850234985352
,travel,0.9622588157653809
,togetherness,0.954879105091095
,grass,0.9415451884269714
,leisure,0.9404186010360718
,enjoyment,0.9395202398300171
,love,0.9345767498016357
,fun,0.9291993975639343
,nature,0.9261823892593384
,two,0.9201438426971436
,man,0.9125551581382751
,affection,0.9064823985099792
,relaxation,0.8857817649841309
,sit,0.8783372044563293
,daylight,0.8777908086776733
,sky,0.8745990991592407
,fair weather,0.8612008094787598
https://scontent-sit4-1.cdninstagram.com/t51.2885-15/e35/13398924_1801908703374408_1672461402_n.jpg,collage,0.993979811668396
,collection,0.9847356081008911
,food,0.9710890650749207
,desktop,0.9274401664733887
,set,0.9264929890632629
,meat,0.9176304936408997
,no person,0.9107908606529236
,illustration,0.9096096754074097
,delicious,0.8721457719802856
,tasty,0.8591557741165161
,meal,0.8560236692428589
,paper,0.8545446395874023
,nature,0.8477449417114258
,isolated,0.8474845290184021
,image,0.8459558486938477
,refreshment,0.8224304914474487
,dinner,0.8177656531333923
,restaurant,0.8057506084442139
,dish,0.8028013706207275
,beef,0.7998861074447632
https://scontent-sit4-1.cdninstagram.com/t51.2885-15/s640x640/sh0.08/e35/13414261_1705009449741294_1873265965_n.jpg,indoors,0.9982702732086182
,furniture,0.9980692863464355
,contemporary,0.9954636096954346
,room,0.994414210319519
,chair,0.9920940399169922
,lamp,0.9916423559188843
,interior design,0.9847754836082458
,family,0.9840885996818542
,comfort,0.9795725345611572
,seat,0.9775433540344238
,luxury,0.9762547016143799
,table,0.9663687944412231
,hotel,0.9589716792106628
,mirror,0.9539059400558472
,sofa,0.9501562118530273
,window,0.9467076063156128
,no person,0.935200572013855
,apartment,0.9251776933670044
,inside,0.9135806560516357
,armchair,0.8827435970306396
https://scontent-sit4-1.cdninstagram.com/t51.2885-15/e35/13388657_1044794198937807_1250932290_n.jpg,portrait,0.9863801002502441
,woman,0.9859679937362671
,fashion,0.9805805683135986
,people,0.955498456954956
,girl,0.9404645562171936
,model,0.927033543586731
,togetherness,0.9155434370040894
,child,0.9111814498901367
,two,0.9068716168403625
,wear,0.9062843322753906
,facial expression,0.905888557434082
,adolescent,0.9042023420333862
,love,0.8975757956504822
,boy,0.8708006143569946
,man,0.8697508573532104
,glamour,0.8609411716461182
,friendship,0.859775185585022
,adult,0.8341149091720581
,three,0.823028564453125
,movie,0.8173543810844421
https://scontent-sit4-1.cdninstagram.com/t51.2885-15/e35/13398781_1720084268209335_807865255_n.jpg,no person,0.9669432044029236
,industry,0.9288549423217773
,one,0.8950733542442322
,two,0.8674688339233398
,healthcare,0.8632407784461975
,plastic,0.8611074090003967
,tube,0.8542807698249817
,energy,0.8414033651351929
,business,0.8359469175338745
,chemical,0.835700511932373
,health,0.8297508955001831
,people,0.8281751871109009
,medicine,0.8259072303771973
,safety,0.8196686506271362
,treatment,0.8052901029586792
,danger,0.7892789840698242
,container,0.7861864566802979
,indoors,0.7636258602142334
,woman,0.7486993074417114
,emergency,0.747370719909668
https://scontent-sit4-1.cdninstagram.com/t51.2885-15/e35/13413261_1760803964163322_410798570_n.jpg,drink,0.9989742040634155
,beer,0.9961401224136353
,bar,0.9958963394165039
,glass,0.9878185987472534
,cold,0.9846762418746948
,pint,0.9821814298629761
,alcohol,0.979884147644043
,brewery,0.9768515825271606
,no person,0.959837794303894
,ice,0.9561364054679871
,party,0.9517948627471924
,liquor,0.9505123496055603
,lager,0.9369828701019287
,pub,0.9342515468597412
,refreshment,0.9164990186691284
,ale,0.9031684398651123
,food,0.9008440971374512
,liquid,0.8910045623779297
,foam,0.8697869181632996
,table,0.8418867588043213
https://scontent-sit4-1.cdninstagram.com/t51.2885-15/s750x750/sh0.08/e35/13394901_157508071331675_730684201_n.jpg,shopping,0.9797083735466003
,stock,0.9698424339294434
,business,0.9532688856124878
,shop,0.9329587817192078
,merchandise,0.9318273067474365
,commerce,0.9308803081512451
,market,0.9255256056785583
,no person,0.9235643148422241
,shelf,0.9100557565689087
,drink,0.9073586463928223
,bottle,0.9062321186065674
,option,0.9044368267059326
,luggage,0.8865953087806702
,fashion,0.8815855383872986
,coffee,0.8792266249656677
,container,0.8652191162109375
,people,0.8602010011672974
,collection,0.8558158874511719
,wear,0.8398405909538269
,sale,0.8374080657958984
https://scontent-sit4-1.cdninstagram.com/t51.2885-15/e35/13651807_1053481588070201_421380354_n.jpg,business,0.9810541868209839
,paper,0.9781006574630737
,administration,0.9414013624191284
,finance,0.9165107011795044
,money,0.913367748260498
,text,0.9112882614135742
,no person,0.9057923555374146
,document,0.8697363138198853
,pay,0.8630238771438599
,commerce,0.8483933210372925
,finance,0.8438904285430908
,one,0.8360283374786377
,people,0.8232614398002625
,number,0.8138839602470398
,indoors,0.8090240955352783
,money,0.8069853782653809
,sign,0.7823603749275208
,healthcare,0.7813571095466614
,medicine,0.7705250382423401
,education,0.7694078683853149
https://scontent-sit4-1.cdninstagram.com/t51.2885-15/e15/p640x640/13597643_1567433213552039_504703038_n.jpg,people,0.9939272403717041
,festival,0.9811134338378906
,food,0.9720537662506104
,child,0.9668815732002258
,group,0.9600684642791748
,fruit,0.9507180452346802
,grow,0.9501279592514038
,adult,0.9250811338424683
,vehicle,0.9151666760444641
,many,0.9075947999954224
,outdoors,0.9055345058441162
,road,0.9023061990737915
,summer,0.8896690607070923
,street,0.8875415921211243
,religion,0.8651591539382935
,daylight,0.8511195182800293
,woman,0.845279335975647
,healthcare,0.843991219997406
,one,0.8413399457931519
,city,0.8412373065948486
https://scontent-sit4-1.cdninstagram.com/t51.2885-15/s750x750/sh0.08/e35/13413239_518660658339472_2013870142_n.jpg,group,0.9978506565093994
,portrait,0.9943702816963196
,facial expression,0.9912770986557007
,group,0.9909300804138184
,people,0.9869065880775452
,four,0.9839035272598267
,woman,0.9827122688293457
,three,0.9804664850234985
,adult,0.9763733148574829
,man,0.9620655179023743
,laughing,0.9502893686294556
,boy,0.9421044588088989
,togetherness,0.9322894811630249
,wear,0.9292595386505127
,happiness,0.9246377944946289
,child,0.923621416091919
,friendship,0.9230098128318787
,five,0.9083530902862549
,girl,0.8676275610923767
,enjoyment,0.8600054979324341
https://scontent-sit4-1.cdninstagram.com/t51.2885-15/e35/13402220_537534509766042_848174136_n.jpg,no person,0.9952364563941956
,wine,0.971370279788971
,drink,0.9161947965621948
,education,0.8877067565917969
,bottle,0.8852036595344543
,text,0.880817174911499
,business,0.8611699342727661
,alcohol,0.847669243812561
,glass,0.8458254933357239
,one,0.8455346822738647
,wood,0.8442820310592651
,label,0.8236030340194702
,liquor,0.8068073987960815
,research,0.8015197515487671
,isolated,0.7959223985671997
,food,0.7955988645553589
,indoors,0.7858372926712036
,health,0.7732789516448975
,empty,0.7606594562530518
,healthcare,0.7589758038520813
https://scontent-sit4-1.cdninstagram.com/t51.2885-15/e35/13531843_146370569100358_1170516900_n.jpg,woman,0.9948883056640625
,people,0.9740121960639954
,facial expression,0.9696819186210632
,interaction,0.9633049964904785
,indoors,0.9607793092727661
,togetherness,0.9597532749176025
,portrait,0.9555730819702148
,enjoyment,0.9545037746429443
,two,0.9342348575592041
,fun,0.9316521883010864
,friendship,0.9232897162437439
,girl,0.90779048204422
,daylight,0.9063079357147217
,cute,0.9033929109573364
,adolescent,0.9024920463562012
,wear,0.8978986740112305
,fashion,0.8878709673881531
,pretty,0.8841031789779663
,child,0.8823069930076599
,looking,0.8794572949409485
https://scontent-sit4-1.cdninstagram.com/t51.2885-15/e35/13398378_1611336499181082_1953596250_n.jpg,woman,0.9937121868133545
,people,0.9869955778121948
,education,0.9864600896835327
,friendship,0.9862886071205139
,university,0.9848464727401733
,adolescent,0.9809616804122925
,school,0.9806803464889526
,group,0.978143572807312
,man,0.9761591553688049
,togetherness,0.9732682108879089
,student,0.9732517004013062
,adult,0.9729678630828857
,portrait,0.9709736704826355
,indoors,0.9674322605133057
,college,0.9566333293914795
,horizontal,0.9530553221702576
,happiness,0.95287024974823
,laughing,0.9394068717956543
,teamwork,0.9375391602516174
,cheerful,0.9371623992919922
https://scontent-sit4-1.cdninstagram.com/t51.2885-15/e35/13402382_1085389168215272_912274571_n.jpg,woman,0.9824744462966919
,people,0.9809591770172119
,group,0.9799765348434448
,group,0.9796434640884399
,man,0.9755702018737793
,facial expression,0.974755048751831
,four,0.9687050580978394
,restaurant,0.9686403870582581
,enjoyment,0.9642155170440674
,meal,0.9517102837562561
,table,0.9389065504074097
,adult,0.9379053115844727
,indoors,0.9342039823532104
,food,0.9083073139190674
,friendship,0.905261218547821
,lunch,0.899309515953064
,dining,0.8971079587936401
,furniture,0.8761529326438904
,drink,0.8755874633789062
,happiness,0.8406227827072144
https://scontent-sit4-1.cdninstagram.com/t51.2885-15/e35/13413335_645411072279444_262607867_n.jpg,people,0.9884363412857056
,administration,0.9829629063606262
,business,0.9699257612228394
,adult,0.9646528959274292
,text,0.9407733678817749
,leader,0.9059908986091614
,finance,0.895891547203064
,sign,0.8803039789199829
,document,0.8775758147239685
,offense,0.8639839291572571
,one,0.8630845546722412
,woman,0.8367741107940674
,education,0.8360791206359863
,rally,0.8148998022079468
,sign,0.8053457736968994
,man,0.7862503528594971
,vehicle,0.7853254079818726
,law,0.7615552544593811
,finance,0.7545827031135559
,lawyer,0.7307986617088318
https://scontent-sit4-1.cdninstagram.com/t51.2885-15/e35/13422861_1067812059959497_147539716_n.jpg,group,0.9918177127838135
,people,0.9865118265151978
,adult,0.9799333214759827
,woman,0.9749801158905029
,child,0.9706387519836426
,man,0.9571564197540283
,facial expression,0.957140326499939
,room,0.9544556140899658
,education,0.9466086030006409
,group,0.9463315010070801
,friendship,0.9356310367584229
,happiness,0.9270377159118652
,enjoyment,0.9268741607666016
,girl,0.9136335849761963
,table,0.9127366542816162
,togetherness,0.9071292877197266
,four,0.9066624045372009
,family,0.901195228099823
,boy,0.8989083766937256
,furniture,0.8953659534454346
https://scontent-sit4-1.cdninstagram.com/t51.2885-15/e35/13525487_199491093780538_471460955_n.jpg,food,0.9948837757110596
,vegetable,0.9867285490036011
,bowl,0.9812566041946411
,dish,0.9642848372459412
,meal,0.9635567665100098
,no person,0.9632887840270996
,parsley,0.9605324268341064
,dinner,0.9604688882827759
,lunch,0.9562357068061829
,cuisine,0.9505652189254761
,delicious,0.9404520988464355
,cooking,0.9320787191390991
,hot,0.9300252199172974
,grow,0.9246270656585693
,tasty,0.9205943942070007
,plate,0.9203753471374512
,sauce,0.911376953125
,herb,0.9091378450393677
,soup,0.9079716205596924
,nutrition,0.9012749195098877
https://scontent-sit4-1.cdninstagram.com/t51.2885-15/s750x750/sh0.08/e35/13381351_156787144738617_308409121_n.jpg,competition,0.9859503507614136
,city,0.9723255634307861
,street,0.9702901244163513
,commerce,0.9693951606750488
,people,0.9636826515197754
,stock,0.9600309133529663
,exhibition,0.9577974081039429
,shopping,0.9569159746170044
,business,0.9553296566009521
,sign,0.9546303749084473
,vehicle,0.9431769847869873
,tourist,0.9264894723892212
,road,0.9259858131408691
,urban,0.9239118099212646
,rally,0.9174400568008423
,public,0.9158214926719666
,soccer,0.9138760566711426
,travel,0.9067068099975586
,tourism,0.9040241241455078
,building,0.9039964079856873
https://scontent-sit4-1.cdninstagram.com/t51.2885-15/e35/13525584_1749319065346661_8342444_n.jpg,dog,0.9979006052017212
,no person,0.9863486289978027
,cute,0.9858109951019287
,retriever,0.9815472364425659
,canine,0.975339949131012
,pet,0.9743481874465942
,mammal,0.9700174331665039
,portrait,0.9623144268989563
,puppy,0.9563034772872925
,golden retriever,0.9534634947776794
,sit,0.9527264833450317
,one,0.9367395043373108
,funny,0.9274662137031555
,animal,0.9148843884468079
,fur,0.8974745273590088
,outdoors,0.8951215147972107
,looking,0.8930703401565552
,Labrador retriever,0.8921658992767334
,loyalty,0.8885612487792969
,young,0.876670241355896
https://scontent-sit4-1.cdninstagram.com/t51.2885-15/e35/13473086_596656373827580_474157827_n.jpg,money,0.9789237380027771
,money,0.9780184030532837
,business,0.9719418883323669
,wealth,0.9647214412689209
,people,0.9514756798744202
,cash,0.93876051902771
,paper,0.93751060962677
,woman,0.9294191002845764
,finance,0.9263413548469543
,adult,0.9131406545639038
,savings,0.8785604238510132
,card,0.8497645854949951
,bank,0.8496221303939819
,abundance,0.8488199710845947
,pay,0.8391042351722717
,commerce,0.8376957774162292
,euro,0.8278559446334839
,desktop,0.8265652060508728
,success,0.824973464012146
,investment,0.8213075995445251
https://scontent-sit4-1.cdninstagram.com/t51.2885-15/e35/13525350_269996200022374_2096707675_n.jpg,no person,0.9829022884368896
,business,0.9738277196884155
,success,0.9498940706253052
,contemporary,0.9470799565315247
,luxury,0.9406167268753052
,wealth,0.9405630826950073
,money,0.9393200874328613
,indoors,0.9388406276702881
,fashion,0.9154815077781677
,container,0.9062800407409668
,retro,0.9055255651473999
,paper,0.9054977893829346
,money,0.897371768951416
,still life,0.8893191814422607
,woman,0.8855763673782349
,box,0.8775812983512878
,empty,0.8739038109779358
,finance,0.871320903301239
,glass,0.8584853410720825
,isolated,0.8552219867706299
https://scontent-sit4-1.cdninstagram.com/t51.2885-15/e35/13525435_602950563200944_129917336_n.jpg,food,0.9957976341247559
,rice,0.9779895544052124
,plate,0.9748085737228394
,meal,0.9701926708221436
,bowl,0.9641146659851074
,vegetable,0.9601248502731323
,traditional,0.9552571773529053
,dinner,0.9542944431304932
,dish,0.9510451555252075
,cuisine,0.9504361152648926
,healthy,0.944808840751648
,lunch,0.9409273862838745
,desktop,0.9301106333732605
,cooking,0.9268826246261597
,no person,0.9260987639427185
,egg,0.92467200756073
,delicious,0.9158879518508911
,appetizer,0.8978292942047119
,meat,0.8878524303436279
,hot,0.887568473815918
https://scontent-sit4-1.cdninstagram.com/t51.2885-15/e35/13398434_995205937261199_1987987138_n.jpg,money,0.9973351955413818
,money,0.995124101638794
,business,0.9930232167243958
,paper,0.9922164082527161
,cash,0.9908462762832642
,finance,0.9900460243225098
,wealth,0.9683297276496887
,waste,0.9637024998664856
,financial,0.95952308177948
,euro,0.9495061039924622
,note,0.9491230845451355
,finance,0.947262704372406
,savings,0.9464470148086548
,abundance,0.9370006918907166
,success,0.9359503984451294
,no person,0.924612283706665
,commerce,0.9241406917572021
,bank,0.922573447227478
,garbage,0.9209084510803223
,luck,0.9179596304893494
https://scontent-sit4-1.cdninstagram.com/t51.2885-15/e35/13423083_1652377625087949_633802331_n.jpg,food,0.9814361333847046
,wood,0.9458781480789185
,wooden,0.9376777410507202
,no person,0.9315571784973145
,plate,0.9246838092803955
,table,0.9217126965522766
,bowl,0.9069350361824036
,meal,0.9051990509033203
,traditional,0.9019907712936401
,dinner,0.8993538618087769
,desktop,0.8842669725418091
,closeup,0.8803333044052124
,delicious,0.8786044120788574
,still life,0.8720272779464722
,sweet,0.8695977926254272
,hot,0.8640395402908325
,dish,0.863766074180603
,health,0.8616558313369751
,vegetable,0.8574625253677368
,fruit,0.8529042601585388
https://scontent-sit4-1.cdninstagram.com/t51.2885-15/e35/13584281_108042569628887_1882397328_n.jpg,people,0.9782298803329468
,group,0.972630500793457
,woman,0.9620602130889893
,festival,0.9335914850234985
,many,0.9218074083328247
,group,0.9160459041595459
,man,0.8706749677658081
,wear,0.8569827675819397
,street,0.8528186082839966
,family,0.8343851566314697
,vehicle,0.8340210914611816
,road,0.8338095545768738
,adult,0.8317136168479919
,portrait,0.8257914781570435
,crowd,0.818213701248169
,military,0.8120646476745605
,music,0.8070275187492371
,rally,0.8057273626327515
,city,0.8000748157501221
,rally,0.7730572819709778
https://scontent-sit4-1.cdninstagram.com/t51.2885-15/e35/13549621_1619122515068450_626081695_n.jpg,car,0.9981602430343628
,road,0.9959731101989746
,street,0.988886296749115
,vehicle,0.9876844882965088
,transportation system,0.9832950830459595
,traffic,0.9688929319381714
,action,0.9520648121833801
,pavement,0.9459854364395142
,competition,0.936822772026062
,city,0.9316623210906982
,people,0.9283002018928528
,blur,0.9222861528396606
,travel,0.9109032154083252
,hurry,0.9001456499099731
,urban,0.8750389814376831
,asphalt,0.7688104510307312
,avenue,0.7612112164497375
,building,0.7534034252166748
,outdoors,0.732956051826477
,race,0.7240810394287109
https://scontent-sit4-1.cdninstagram.com/t51.2885-15/e35/13414246_1757873481149668_1998244669_n.jpg,lantern,0.9865927696228027
,no person,0.9849089980125427
,illuminated,0.978602409362793
,travel,0.9784538745880127
,light,0.9668806791305542
,evening,0.9604939222335815
,commerce,0.9450359344482422
,city,0.9426108598709106
,outdoors,0.9424828290939331
,festival,0.9388492107391357
,transportation system,0.9354655742645264
,street,0.9283126592636108
,architecture,0.9270020723342896
,stock,0.9004709720611572
,tourism,0.8969187140464783
,tourist,0.8962060213088989
,road,0.8946533203125
,horizontal,0.8891366720199585
,dusk,0.8868076205253601
,neon,0.8821793794631958
https://scontent-sit4-1.cdninstagram.com/t51.2885-15/e35/13402614_1380344071983021_753013302_n.jpg,no person,0.987576961517334
,fashion,0.9827890396118164
,indoors,0.9795805215835571
,travel,0.9748729467391968
,family,0.9542216062545776
,business,0.9417374730110168
,leisure,0.9339950084686279
,still life,0.9281460642814636
,retro,0.9168494343757629
,money,0.9072376489639282
,luggage,0.9046611785888672
,wear,0.8993983268737793
,design,0.8980135917663574
,furniture,0.8926911354064941
,tourism,0.8731229305267334
,decoration,0.8599725365638733
,bed,0.8572494983673096
,gambling,0.8540774583816528
,wealth,0.8520171642303467
,poker,0.8488519787788391
https://scontent-sit4-1.cdninstagram.com/t51.2885-15/e35/13397599_1743619612582287_124774227_n.jpg,no person,0.9643861055374146
,fun,0.9530162811279297
,entertainment,0.9455862045288086
,outdoors,0.9329451322555542
,steel,0.929969072341919
,iron,0.928610622882843
,travel,0.9241214990615845
,theme,0.9071329832077026
,sign,0.8889448642730713
,industry,0.8877334594726562
,business,0.8740384578704834
,park,0.873278021812439
,retro,0.8706969022750854
,building,0.8695685267448425
,design,0.8684002757072449
,urban,0.8646973371505737
,transportation system,0.8635382652282715
,sky,0.8419170379638672
,color,0.8379710912704468
,art,0.823959231376648
https://scontent-sit4-1.cdninstagram.com/t51.2885-15/e35/13402582_307098892958205_1157939578_n.jpg,sign,0.9395619034767151
,symbol,0.9289692640304565
,festival,0.9236160516738892
,carnival,0.9217572212219238
,business,0.9215487241744995
,fun,0.9170806407928467
,traditional,0.9080696105957031
,text,0.9064033031463623
,luck,0.8984516859054565
,culture,0.8974075317382812
,food,0.8952507972717285
,art,0.8856297731399536
,stock,0.8777096271514893
,desktop,0.8753527998924255
,design,0.8724018931388855
,celebration,0.8636748790740967
,entertainment,0.8599635362625122
,illustration,0.8557827472686768
,people,0.8538339138031006
,no person,0.8432269096374512
https://scontent-sit4-1.cdninstagram.com/t51.2885-15/e35/13408789_242929662758936_533465178_n.jpg,people,0.9771971702575684
,festival,0.9591733813285828
,street,0.9538490772247314
,city,0.9520905017852783
,many,0.9258148670196533
,crowd,0.9191244840621948
,road,0.9034395217895508
,woman,0.8940246105194092
,group,0.8914364576339722
,shopping,0.8684804439544678
,fun,0.8675490617752075
,rally,0.8531663417816162
,child,0.8391880989074707
,man,0.8360917568206787
,enjoyment,0.8226855993270874
,motion,0.8014100193977356
,recreation,0.7984472513198853
,tourist,0.7971240878105164
,group,0.7924748659133911
,wear,0.7900711297988892
https://scontent-sit4-1.cdninstagram.com/t51.2885-15/e35/13473255_495802160610651_1585872167_n.jpg,people,0.9684062004089355
,child,0.9499695301055908
,woman,0.9368698596954346
,outdoors,0.9071197509765625
,fun,0.8885494470596313
,one,0.8813864588737488
,girl,0.8641456365585327
,traditional,0.863965630531311
,portrait,0.8218836784362793
,young,0.7928043007850647
,adult,0.7860351800918579
,street,0.7860164046287537
,summer,0.7803740501403809
,cute,0.7703067064285278
,family,0.7696115970611572
,celebration,0.769443929195404
,art,0.757843554019928
,person,0.7543238401412964
,wood,0.7404356002807617
,movie,0.7401615381240845
https://scontent-sit4-1.cdninstagram.com/t51.2885-15/e35/13423039_1013367905379127_2122198159_n.jpg,people,0.9924266338348389
,woman,0.980063796043396
,adult,0.9479631185531616
,city,0.9374947547912598
,shopping,0.9271838068962097
,girl,0.9209891557693481
,group,0.9195314645767212
,lifestyle,0.9160244464874268
,summer,0.9152131676673889
,outdoors,0.9019166827201843
,young,0.8918952345848083
,travel,0.8910727500915527
,leisure,0.8856823444366455
,portrait,0.8817572593688965
,street,0.8750611543655396
,road,0.866142988204956
,urban,0.8656005859375
,happiness,0.8547099828720093
,enjoyment,0.8513315320014954
,tree,0.8510215282440186
