url,class,score
https://scontent.cdninstagram.com/t51.2885-15/e35/12728429_1013711455357146_1843808923_n.jpg,facial expression,0.9956279397010803
,adult,0.9858587980270386
,woman,0.9825421571731567
,group,0.9821789860725403
,room,0.9801421165466309
,indoors,0.9756591320037842
,togetherness,0.9749759435653687
,people,0.9747423529624939
,happiness,0.9738180637359619
,enjoyment,0.9714611172676086
,child,0.9668897390365601
,man,0.9634577035903931
,wear,0.9621042013168335
,furniture,0.9581699371337891
,two,0.9475741386413574
,three,0.9472157955169678
,friendship,0.938155472278595
,daylight,0.9359865784645081
,education,0.9318385124206543
,offspring,0.9310438632965088
https://scontent.cdninstagram.com/t51.2885-15/e35/13721304_291350804547273_1250730553_n.jpg,food,0.9937781095504761
,sweet,0.9922350645065308
,fruit,0.9868357181549072
,sugar,0.9821687936782837
,candy,0.9748281836509705
,no person,0.9680379033088684
,refreshment,0.9669567346572876
,delicious,0.9594089388847351
,confection,0.9213556051254272
,apple,0.9168291687965393
,watermelon,0.9168000221252441
,healthy,0.9077939987182617
,melon,0.9067290425300598
,closeup,0.9020068645477295
,tasty,0.8992583751678467
,still life,0.8959317207336426
,plate,0.8959037065505981
,health,0.895667314529419
,strawberry,0.8899490833282471
,cake,0.883878231048584
https://scontent.cdninstagram.com/t51.2885-15/e35/13671907_1781819605397287_1786636511_n.jpg,paper,0.9641149640083313
,business,0.9561787247657776
,no person,0.9472615718841553
,text,0.9147124290466309
,education,0.9058432579040527
,money,0.8892545104026794
,document,0.8824771642684937
,card,0.8509465456008911
,number,0.834415078163147
,pencil,0.8298494815826416
,game,0.8280267119407654
,writing,0.8259649276733398
,school,0.7885177135467529
,symbol,0.7833288908004761
,finance,0.7773417830467224
,sign,0.7762512564659119
,two,0.7752386331558228
,still life,0.7735388278961182
,recreation,0.7734951972961426
,risk,0.7717173099517822
https://scontent.cdninstagram.com/t51.2885-15/e35/13398992_303506719981419_1501717769_n.jpg,group,0.993719220161438
,people,0.97996985912323
,adult,0.9732925891876221
,education,0.9683593511581421
,election,0.9575812220573425
,administration,0.9540719389915466
,room,0.9538744688034058
,school,0.9493849277496338
,offense,0.9358025193214417
,man,0.9331961274147034
,woman,0.929161548614502
,portrait,0.920846700668335
,facial expression,0.9189456701278687
,movie,0.903671145439148
,teacher,0.8936634063720703
,wear,0.8908407092094421
,several,0.8897714614868164
,university,0.8806813955307007
,five,0.8749040365219116
,furniture,0.872617244720459
https://scontent.cdninstagram.com/t51.2885-15/e35/11261978_211366012547726_251603596_n.jpg,food,0.9969421029090881
,no person,0.9957101345062256
,vegetable,0.9746415615081787
,meal,0.9688371419906616
,grow,0.9591017365455627
,cooking,0.9534568786621094
,lunch,0.9372177124023438
,delicious,0.9356101155281067
,nutrition,0.9293763041496277
,dinner,0.9238275289535522
,restaurant,0.9210354089736938
,hot,0.9119805097579956
,cuisine,0.9065566658973694
,tasty,0.8962970972061157
,closeup,0.8930203914642334
,meat,0.8787423372268677
,healthy,0.8738220930099487
,dish,0.8631874918937683
,dry,0.8582247495651245
,root,0.8557308912277222
https://scontent.cdninstagram.com/t51.2885-15/e35/12965866_1565080923785271_1763649166_n.jpg,meat,0.9983611702919006
,dinner,0.9971294403076172
,food,0.9957602024078369
,meal,0.992784857749939
,lunch,0.9910889267921448
,beef,0.9855198860168457
,plate,0.9852256774902344
,dish,0.984408974647522
,restaurant,0.9820122122764587
,vegetable,0.9811487197875977
,hot,0.9798086881637573
,sauce,0.9791699647903442
,pork,0.9778158664703369
,poultry,0.9775726795196533
,chicken,0.9757550954818726
,cuisine,0.9745463132858276
,delicious,0.9677109718322754
,no person,0.9665526151657104
,dining,0.9606293439865112
,cooking,0.9592392444610596
https://scontent.cdninstagram.com/t51.2885-15/e35/13285286_246905435668336_1307757085_n.jpg,cake,0.9991801381111145
,sweet,0.9983309507369995
,chocolate,0.9971472024917603
,cream,0.9947906732559204
,sugar,0.9928112030029297
,pastry,0.9924835562705994
,delicious,0.9921352863311768
,bakery,0.9893769025802612
,food,0.9860483407974243
,plate,0.9822525978088379
,goody,0.9817342758178711
,pie,0.981254518032074
,mousse,0.9762946367263794
,birthday,0.9738202095031738
,fruit,0.9735743403434753
,berry,0.9662203788757324
,celebration,0.9568703770637512
,homemade,0.9525564908981323
,refreshment,0.9510370492935181
,party,0.9454416036605835
https://scontent.cdninstagram.com/t51.2885-15/e35/13397504_147600685653308_1181309668_n.jpg,birthday,0.9912410974502563
,family,0.9903592467308044
,child,0.9852020144462585
,woman,0.981176495552063
,candle,0.9799593687057495
,fun,0.9772906303405762
,celebration,0.9748853445053101
,indoors,0.9728204011917114
,cake,0.9716945290565491
,people,0.9712145328521729
,Christmas,0.9407531023025513
,girl,0.9373760223388672
,portrait,0.9161916971206665
,enjoyment,0.9111530184745789
,gift,0.9001139402389526
,two,0.8993958830833435
,love,0.8960096836090088
,four,0.8942179679870605
,coffee,0.8804324865341187
,three,0.876733660697937
https://scontent.cdninstagram.com/t51.2885-15/e35/13745160_106185039826418_814709876_n.jpg,no person,0.9854669570922852
,container,0.9641866683959961
,plastic,0.9615167379379272
,tube,0.9554083347320557
,treatment,0.9447708129882812
,bottle,0.9338232278823853
,steel,0.9275628328323364
,clean,0.9206814169883728
,health,0.9182776212692261
,military,0.9168236255645752
,equipment,0.9109051823616028
,ink,0.8949990272521973
,protection,0.8831928372383118
,healthcare,0.8771147727966309
,can,0.8736721873283386
,war,0.8716468214988708
,glazed,0.8715907335281372
,hygiene,0.8637826442718506
,wood,0.8557035326957703
,merchandise,0.8452088832855225
https://scontent.cdninstagram.com/t51.2885-15/e35/12534434_1524433171187283_365331993_n.jpg,people,0.9913087487220764
,group,0.9730129241943359
,woman,0.969996988773346
,adult,0.9672024250030518
,portrait,0.9667620658874512
,wear,0.9647349715232849
,facial expression,0.9573141932487488
,room,0.9443925619125366
,child,0.9315807819366455
,indoors,0.9236762523651123
,furniture,0.9154592752456665
,music,0.8901134729385376
,actress,0.8817092180252075
,family,0.8769775629043579
,man,0.8755065202713013
,movie,0.8750416040420532
,two,0.8710626363754272
,recreation,0.8592666387557983
,enjoyment,0.854478120803833
,exhibition,0.8498116135597229
https://scontent.cdninstagram.com/t51.2885-15/e35/13285404_908498369259407_2142356411_n.jpg,no person,0.9942936897277832
,food,0.9918358325958252
,dinner,0.9902556538581848
,meat,0.987290620803833
,lunch,0.9829192161560059
,beef,0.9816539287567139
,delicious,0.97959303855896
,meal,0.9689322710037231
,chicken,0.9568349123001099
,pork,0.9508988857269287
,plate,0.9371402263641357
,vegetable,0.9317821264266968
,dish,0.9309431314468384
,french fries,0.9301005601882935
,sauce,0.9229155778884888
,grow,0.9224749803543091
,tomato,0.9195385575294495
,traditional,0.9140806198120117
,restaurant,0.912992000579834
,poultry,0.9068719148635864
https://scontent.cdninstagram.com/t51.2885-15/e35/12724683_1710563789223261_2015739291_n.jpg,no person,0.984703540802002
,delicious,0.9182288646697998
,traditional,0.8676676750183105
,food,0.8528779745101929
,homemade,0.8498342037200928
,love,0.8091962337493896
,wood,0.7914896607398987
,sugar,0.780975341796875
,decoration,0.7753082513809204
,sweet,0.7544450759887695
,baking,0.7316800355911255
,refreshment,0.7209771871566772
,desktop,0.7145860195159912
,flower,0.7104647755622864
,breakfast,0.6950740814208984
,dough,0.6928274631500244
,rose,0.6854853630065918
,cake,0.6833730936050415
,romance,0.6494967937469482
,pastry,0.6332930326461792
https://scontent.cdninstagram.com/t51.2885-15/s750x750/sh0.08/e35/13394992_119894688433597_1112307873_n.jpg,indoors,0.9927504658699036
,family,0.9919595718383789
,togetherness,0.9900434017181396
,two,0.9877738356590271
,woman,0.9871107339859009
,birthday cake,0.9850431680679321
,facial expression,0.9846657514572144
,enjoyment,0.984417200088501
,adult,0.9841965436935425
,cake,0.9837286472320557
,man,0.9819962382316589
,candle,0.9800536632537842
,happiness,0.9791388511657715
,room,0.9762061834335327
,people,0.9747605919837952
,love,0.9729139804840088
,birthday,0.9690897464752197
,child,0.9668912887573242
,three,0.9638265371322632
,affection,0.9636998176574707
https://scontent.cdninstagram.com/t51.2885-15/e35/13381063_1019461414796769_1948494629_n.jpg,no person,0.9961632490158081
,food,0.9941710233688354
,cake,0.9937633275985718
,delicious,0.9766130447387695
,chocolate,0.9756612777709961
,sweet,0.972032904624939
,bread,0.9718623161315918
,sugar,0.9694823622703552
,pastry,0.9658390283584595
,bakery,0.9594112634658813
,slice,0.95875483751297
,breakfast,0.9548102617263794
,sponge,0.9543766975402832
,baking,0.9520019292831421
,cream,0.9463363885879517
,homemade,0.9366834759712219
,still life,0.9193229675292969
,pie,0.9157323837280273
,fruit,0.913199782371521
,pudding,0.9046858549118042
https://scontent.cdninstagram.com/t51.2885-15/e35/13525277_655669121265018_126751585_n.jpg,woman,0.963756799697876
,people,0.9311656951904297
,stock,0.9270188808441162
,shopping,0.9246718883514404
,fashion,0.9044883847236633
,portrait,0.867132306098938
,outdoors,0.8572290539741516
,man,0.8276857137680054
,shop,0.8270464539527893
,fame,0.8070617914199829
,wear,0.8003146648406982
,young,0.795803427696228
,indoors,0.7896770238876343
,movie,0.7892834544181824
,one,0.7819916009902954
,business,0.7810518741607666
,option,0.7765966057777405
,pretty,0.7765530347824097
,festival,0.7762935161590576
,recreation,0.7733173370361328
https://scontent.cdninstagram.com/t51.2885-15/e35/12407511_178152489216174_279567174_n.jpg,desktop,0.956758975982666
,paper,0.9565521478652954
,card,0.9455915689468384
,design,0.9418783187866211
,illustration,0.9208629727363586
,symbol,0.9070744514465332
,no person,0.8855651021003723
,business,0.8830245733261108
,retro,0.8621963262557983
,decoration,0.8579908609390259
,luck,0.8571105003356934
,art,0.8371158838272095
,blank,0.8369541764259338
,isolated,0.8268907070159912
,color,0.8266170024871826
,graphic,0.8179013133049011
,vintage,0.8008449077606201
,image,0.7971348166465759
,element,0.784835934638977
,lucky,0.7832611799240112
https://scontent.cdninstagram.com/t51.2885-15/e35/12728572_1510840582556793_426982813_n.jpg,flower,0.9962869882583618
,nature,0.9848096370697021
,flora,0.9833997488021851
,no person,0.9789425134658813
,branch,0.9746105670928955
,color,0.9704700708389282
,decoration,0.9674481153488159
,leaf,0.9581646919250488
,garden,0.9557751417160034
,season,0.941077709197998
,growth,0.9354519844055176
,blooming,0.931766152381897
,bright,0.9306262135505676
,summer,0.9251565933227539
,floral,0.9134727716445923
,bud,0.9083395600318909
,closeup,0.908315896987915
,beautiful,0.8989923000335693
,petal,0.8962246179580688
,cherry,0.8860970735549927
https://scontent.cdninstagram.com/t51.2885-15/e35/12716713_228818624128626_239056566_n.jpg,people,0.9801971912384033
,indoors,0.9786315560340881
,woman,0.9736425876617432
,adult,0.9689813852310181
,man,0.9687276482582092
,child,0.9630874395370483
,togetherness,0.946437656879425
,facial expression,0.9408450126647949
,enjoyment,0.9321026802062988
,group,0.9315359592437744
,family,0.9287194609642029
,happiness,0.925360918045044
,room,0.925072193145752
,table,0.9186123609542847
,education,0.9174766540527344
,furniture,0.9061082005500793
,two,0.9007720947265625
,sit,0.899450421333313
,three,0.8974707126617432
,girl,0.8944305181503296
https://scontent.cdninstagram.com/t51.2885-15/e35/928469_1546894592303555_998206177_n.jpg,group,0.9990453124046326
,group,0.9934799671173096
,adult,0.9872083067893982
,portrait,0.984627902507782
,facial expression,0.983268678188324
,people,0.9796099066734314
,woman,0.9790573716163635
,happiness,0.9671952724456787
,man,0.9611490964889526
,five,0.9545987844467163
,four,0.9425562620162964
,three,0.9353034496307373
,several,0.9183836579322815
,indoors,0.9103101491928101
,leader,0.9067226648330688
,cooperation,0.8993569612503052
,wear,0.8969166278839111
,girl,0.8878674507141113
,room,0.8871167302131653
,teamwork,0.8861415386199951
https://scontent.cdninstagram.com/t51.2885-15/e35/13113918_577115572467065_927230650_n.jpg,people,0.9666239023208618
,foot,0.964495062828064
,woman,0.9584853053092957
,girl,0.9507424831390381
,relaxation,0.9313215613365173
,child,0.9270070791244507
,one,0.9171913862228394
,wear,0.9064425230026245
,desktop,0.9005467891693115
,color,0.8904720544815063
,adult,0.8890947103500366
,body,0.8890253901481628
,person,0.8871551752090454
,lifestyle,0.8836146593093872
,floor,0.8758037090301514
,fashion,0.8657447099685669
,recreation,0.8638483881950378
,leisure,0.8559702634811401
,love,0.8549126386642456
,family,0.8520716428756714
https://scontent.cdninstagram.com/t51.2885-15/sh0.08/e35/p750x750/12725060_223785957961208_1628357805_n.jpg,child,0.9884641170501709
,people,0.9859892725944519
,woman,0.9791147708892822
,group,0.9773950576782227
,adult,0.9773632287979126
,facial expression,0.9711836576461792
,happiness,0.9605867266654968
,fun,0.9479078054428101
,man,0.9453859329223633
,togetherness,0.9443883895874023
,girl,0.9330781698226929
,indoors,0.9325634241104126
,room,0.9097253084182739
,boy,0.9070523977279663
,enjoyment,0.8988100290298462
,friendship,0.8970769047737122
,family,0.8920235633850098
,boy,0.8854597210884094
,wear,0.8781352043151855
,education,0.8779023885726929
https://scontent.cdninstagram.com/t51.2885-15/e35/13556974_557167111152261_13466260_n.jpg,people,0.9891746044158936
,water,0.9840829968452454
,man,0.9809668064117432
,love,0.9711346626281738
,beach,0.9689974784851074
,sea,0.9632905721664429
,woman,0.9617656469345093
,romance,0.9612840414047241
,outdoors,0.9573607444763184
,two,0.9503508806228638
,adult,0.9471946954727173
,togetherness,0.9399973154067993
,travel,0.9357205629348755
,seashore,0.9272503852844238
,daylight,0.9269283413887024
,sunset,0.9246997833251953
,recreation,0.9223443865776062
,portrait,0.9218026399612427
,leisure,0.9212924242019653
,girl,0.9189748764038086
https://scontent.cdninstagram.com/t51.2885-15/e35/12568194_459449877512981_919343076_n.jpg,food,0.995253324508667
,no person,0.9866690635681152
,wood,0.9761115312576294
,traditional,0.9638853073120117
,health,0.950515866279602
,delicious,0.9474115371704102
,bowl,0.9404211640357971
,drink,0.9371780157089233
,table,0.9277043342590332
,wooden,0.9215385913848877
,hot,0.912726640701294
,epicure,0.9081352949142456
,taste,0.9029062390327454
,closeup,0.9006763696670532
,healthy,0.8999109268188477
,bamboo,0.8958075046539307
,cooking,0.8906586170196533
,nutrition,0.8905068039894104
,desktop,0.8893212080001831
,cup,0.887826681137085
https://scontent.cdninstagram.com/t51.2885-15/e35/12446152_958272564210747_807493457_n.jpg,no person,0.9956021308898926
,shopping,0.9792954325675964
,paper,0.9777851700782776
,luck,0.9707341194152832
,card,0.9679244756698608
,interior design,0.9606664180755615
,fashion,0.9427485466003418
,gift,0.9413329362869263
,traditional,0.9409159421920776
,woman,0.9392416477203369
,illustration,0.9381027817726135
,love,0.930711567401886
,graphic design,0.9305409789085388
,fun,0.9255309104919434
,Christmas,0.9254586100578308
,cute,0.9177837371826172
,leisure,0.9141373038291931
,retro,0.9034907817840576
,design,0.8872641324996948
,vertical,0.8748745918273926
https://scontent.cdninstagram.com/t51.2885-15/e35/12724849_187933194899802_1673178532_n.jpg,desktop,0.9590696096420288
,shape,0.9503570795059204
,cube,0.942564845085144
,business,0.928912341594696
,no person,0.9202704429626465
,square,0.909014880657196
,abstract,0.9049757122993469
,mosaic,0.8899167776107788
,design,0.889196515083313
,pattern,0.8881958723068237
,creativity,0.8736304044723511
,illustration,0.8730931282043457
,color,0.8661479949951172
,geometric,0.8628047704696655
,connection,0.8604087829589844
,modern,0.8540831804275513
,conceptual,0.8507435321807861
,symbol,0.8448506593704224
,texture,0.8320370316505432
,technology,0.8263187408447266
https://scontent.cdninstagram.com/t51.2885-15/e35/12568110_553906381458497_2115761276_n.jpg,flower,0.9981972575187683
,festival,0.9846559166908264
,garden,0.9733740091323853
,tree,0.9660872220993042
,bright,0.9474610686302185
,Zen,0.9470106959342957
,color,0.9418296813964844
,flora,0.9402412176132202
,celebration,0.9324603080749512
,decoration,0.9142086505889893
,people,0.910275936126709
,season,0.9043249487876892
,no person,0.8934406042098999
,floral,0.8891080617904663
,branch,0.8806227445602417
,blooming,0.8765408992767334
,traditional,0.8674750924110413
,nature,0.8639841675758362
,petal,0.8629899024963379
,leaf,0.8603728413581848
https://scontent.cdninstagram.com/t51.2885-15/sh0.08/e35/p750x750/12530765_1512175405743978_460257062_n.jpg,portrait,0.9888362884521484
,woman,0.9864768385887146
,wear,0.9849966764450073
,adult,0.9794474840164185
,people,0.978662371635437
,model,0.963050127029419
,girl,0.9630259871482849
,facial expression,0.9615896940231323
,one,0.9582698941230774
,fashion,0.9423761367797852
,fashionable,0.9243267774581909
,dress,0.9177245497703552
,indoors,0.9012182950973511
,museum,0.871769905090332
,room,0.8705642223358154
,actress,0.8504194021224976
,furniture,0.8497970104217529
,exhibition,0.8472450971603394
,movie,0.8460419178009033
,brunette,0.8429738879203796
https://scontent.cdninstagram.com/t51.2885-15/e35/12905256_1063778033679068_1248027961_n.jpg,food,0.9975118637084961
,meal,0.9875096678733826
,sauce,0.9844939708709717
,no person,0.9816955327987671
,lunch,0.9765958786010742
,dinner,0.9740642309188843
,restaurant,0.9696593880653381
,tomato,0.9661682844161987
,tortilla,0.9643654227256775
,refreshment,0.9614875316619873
,vegetable,0.9598678350448608
,hot,0.9582480192184448
,cheese,0.9571040272712708
,delicious,0.9435714483261108
,meat,0.9416236877441406
,pepper,0.934963047504425
,plate,0.9254185557365417
,cuisine,0.925268828868866
,grow,0.9246116280555725
,onion,0.9242403507232666
https://scontent.cdninstagram.com/t51.2885-15/e35/12930749_125064621227280_1628195874_n.jpg,food,0.9981967806816101
,no person,0.9886444807052612
,meal,0.9778920412063599
,delicious,0.9683347344398499
,vegetable,0.9620388746261597
,plate,0.9589448571205139
,lunch,0.9588440656661987
,dinner,0.9585754871368408
,meat,0.9576099514961243
,refreshment,0.9574941396713257
,grow,0.957019567489624
,bread,0.9515547752380371
,dish,0.930097222328186
,cooking,0.9298948049545288
,homemade,0.9188185930252075
,tasty,0.9164735674858093
,hot,0.904972493648529
,nutrition,0.9031749963760376
,dairy product,0.9030505418777466
,traditional,0.902592658996582
https://scontent.cdninstagram.com/t51.2885-15/e35/13827447_1086593274763853_908048479_n.jpg,no person,0.9913923740386963
,food,0.9902596473693848
,vegetable,0.9782155752182007
,health,0.9774378538131714
,grow,0.972197413444519
,ingredients,0.9707862138748169
,nutrition,0.9602529406547546
,cooking,0.9457813501358032
,healthy,0.9252619743347168
,delicious,0.9193707704544067
,vitamin,0.8890911936759949
,market,0.8709404468536377
,kind,0.8704767227172852
,fruit,0.8488146066665649
,corn,0.832149088382721
,diet,0.8253492116928101
,still life,0.8104284405708313
,legume,0.80628502368927
,pasture,0.8022979497909546
,bean,0.7966331839561462
https://scontent.cdninstagram.com/t51.2885-15/e35/12598994_1680079688906674_117639169_n.jpg,food,0.9976571202278137
,meal,0.9866801500320435
,vegetable,0.9858060479164124
,grow,0.982438325881958
,no person,0.9817025661468506
,dinner,0.9800803661346436
,dish,0.9797415137290955
,plate,0.9786953926086426
,lunch,0.9741783142089844
,cooking,0.9649958610534668
,cuisine,0.9632400870323181
,restaurant,0.9557191133499146
,hot,0.95545893907547
,delicious,0.951829731464386
,appetizer,0.9493503570556641
,bowl,0.9448885917663574
,meat,0.9433492422103882
,table,0.938936710357666
,epicure,0.9355263710021973
,bread,0.9275542497634888
https://scontent.cdninstagram.com/t51.2885-15/e35/13256999_252032371822621_1581017065_n.jpg,woman,0.9830229878425598
,people,0.9717188477516174
,indoors,0.9534547328948975
,family,0.93828284740448
,coffee,0.9270083904266357
,enjoyment,0.9236389398574829
,child,0.9103996753692627
,food,0.8770442605018616
,education,0.8661788105964661
,adolescent,0.8651201725006104
,sit,0.8546621799468994
,adult,0.8417873978614807
,healthcare,0.8222260475158691
,table,0.8148320913314819
,cooking,0.8139320611953735
,one,0.7954062223434448
,portrait,0.7871718406677246
,girl,0.7767632007598877
,school,0.7749823331832886
,drink,0.7726101279258728
https://scontent.cdninstagram.com/t51.2885-15/e35/13380897_1640820919574930_1628017938_n.jpg,food,0.9933393001556396
,health,0.9835526943206787
,healthy,0.9827591776847839
,no person,0.9803459644317627
,vegetable,0.9780638813972473
,nutrition,0.9652880430221558
,many,0.9650388360023499
,fruit,0.9596083164215088
,tomato,0.95950847864151
,grow,0.950400710105896
,vitamin,0.9492835998535156
,diet,0.9476135969161987
,cooking,0.9473751783370972
,still life,0.946903645992279
,color,0.9395350217819214
,freshness,0.9112941026687622
,ingredients,0.9040271043777466
,closeup,0.8991267085075378
,group,0.8923476934432983
,desktop,0.8889281749725342
https://scontent.cdninstagram.com/t51.2885-15/e35/10706743_1069120823108126_1997210093_n.jpg,no person,0.9759361743927002
,paper,0.9712173938751221
,business,0.9375908970832825
,love,0.933840811252594
,symbol,0.8375672101974487
,romance,0.801434338092804
,celebration,0.7997070550918579
,note,0.7950652837753296
,sign,0.7863542437553406
,card,0.7643620371818542
,success,0.752219557762146
,heart,0.7387661337852478
,Christmas,0.7364135980606079
,gift,0.7348436117172241
,illustration,0.7311917543411255
,desktop,0.7202862501144409
,sticky,0.7182712554931641
,retro,0.6990793943405151
,conceptual,0.6907391548156738
,shape,0.6824620962142944
https://scontent.cdninstagram.com/t51.2885-15/e35/13388486_610410495788411_808730234_n.jpg,food,0.9964982867240906
,plate,0.9880796670913696
,dinner,0.9878392815589905
,meat,0.9852722883224487
,meal,0.9850077629089355
,dish,0.9815273284912109
,cuisine,0.9759620428085327
,delicious,0.9735115766525269
,lunch,0.9715239405632019
,no person,0.9670315980911255
,restaurant,0.9633733034133911
,sauce,0.9591723680496216
,epicure,0.9571179151535034
,cooking,0.9519193172454834
,vegetable,0.9514582753181458
,slice,0.9499135613441467
,tasty,0.9364237785339355
,pepper,0.9317471981048584
,healthy,0.9233183860778809
,helping,0.9230570197105408
https://scontent.cdninstagram.com/t51.2885-15/e35/13267428_1567072260259135_825044177_n.jpg,food,0.9935702085494995
,egg,0.9820852279663086
,bowl,0.9665197134017944
,traditional,0.9648087620735168
,cooking,0.952862024307251
,chicken,0.9483327865600586
,meal,0.9443256855010986
,cuisine,0.9430270195007324
,delicious,0.9418846368789673
,vegetable,0.9329655170440674
,healthy,0.9329005479812622
,plate,0.9281550645828247
,breakfast,0.9270848035812378
,dinner,0.9265756607055664
,dish,0.9265455007553101
,table,0.9215291142463684
,nutrition,0.9200872778892517
,lunch,0.912427544593811
,wooden,0.9115732312202454
,no person,0.9056813716888428
https://scontent.cdninstagram.com/t51.2885-15/e35/12628030_1534204113545932_2026984008_n.jpg,food,0.9910147190093994
,dinner,0.9648300409317017
,no person,0.9623223543167114
,lunch,0.9585129022598267
,meal,0.9578930735588074
,meat,0.9551604986190796
,delicious,0.9545716047286987
,vegetable,0.9528981447219849
,grow,0.9328120946884155
,dish,0.9278963804244995
,plate,0.9117986559867859
,pork,0.9018974304199219
,cooking,0.8971849679946899
,nutrition,0.8964601755142212
,beef,0.8874604105949402
,bowl,0.8749533891677856
,cuisine,0.862835168838501
,epicure,0.8611265420913696
,mouth-watering,0.8563264608383179
,healthy,0.8536210060119629
https://scontent.cdninstagram.com/t51.2885-15/e35/12677155_165831353795466_1161469751_n.jpg,cone,0.9960291981697083
,cream,0.9920192956924438
,sweet,0.9916342496871948
,vanilla,0.9849973917007446
,wafer,0.9779754877090454
,goody,0.9732389450073242
,chocolate,0.9728795289993286
,cornet,0.9702751636505127
,scoop,0.9701870083808899
,ice,0.9694456458091736
,food,0.9682070016860962
,frozen,0.9619282484054565
,dairy product,0.9587625861167908
,no person,0.9511188864707947
,indulgence,0.9469626545906067
,refreshment,0.9448834657669067
,relish,0.9417023062705994
,cream,0.924961507320404
,delicious,0.9202888607978821
,sugar,0.9115632772445679
https://scontent.cdninstagram.com/t51.2885-15/e35/12728414_1724286771142337_422352285_n.jpg,no person,0.996404230594635
,food,0.9938405156135559
,grow,0.9873769879341125
,sweet,0.9790031909942627
,delicious,0.9705984592437744
,fruit,0.9699216485023499
,homemade,0.9519716501235962
,dairy product,0.9489951133728027
,sugar,0.9269590377807617
,cooking,0.9208247661590576
,cake,0.9203095436096191
,wood,0.9165126085281372
,still life,0.9102169275283813
,one,0.909356415271759
,nutrition,0.9055420160293579
,health,0.9020718336105347
,tasty,0.8806073665618896
,bread,0.879845380783081
,desktop,0.8792507648468018
,refreshment,0.8687204122543335
https://scontent.cdninstagram.com/t51.2885-15/e35/13267574_637153626435968_1451730231_n.jpg,food,0.9885707497596741
,no person,0.9664441347122192
,delicious,0.9599575996398926
,dinner,0.9530682563781738
,vegetable,0.9375183582305908
,traditional,0.9314631223678589
,rice,0.9273700714111328
,soup,0.9269856214523315
,dish,0.918626070022583
,meal,0.9130727052688599
,lunch,0.9084616899490356
,plate,0.8878569602966309
,cooking,0.883999228477478
,nutrition,0.8802255392074585
,health,0.8795937299728394
,cuisine,0.8757501244544983
,hot,0.8692514896392822
,carrot,0.8611643314361572
,bowl,0.8563068509101868
,healthy,0.8540501594543457
https://scontent.cdninstagram.com/t51.2885-15/e35/12724897_1073068176099467_1550240138_n.jpg,food,0.9959269762039185
,asparagus,0.9938950538635254
,no person,0.9928231835365295
,dinner,0.9833561182022095
,broccoli,0.9823357462882996
,vegetable,0.9777175188064575
,cooking,0.9669755697250366
,meal,0.9659287333488464
,healthy,0.9655555486679077
,delicious,0.963144838809967
,health,0.9589265584945679
,lunch,0.9539384245872498
,nutrition,0.9526618719100952
,pepper,0.9476932287216187
,salad,0.9413537979125977
,ingredients,0.9302563667297363
,grow,0.9293819665908813
,dish,0.9248964786529541
,fish,0.9190036058425903
,diet,0.9096317291259766
https://scontent.cdninstagram.com/t51.2885-15/e35/13557237_1735714676703206_1088559232_n.jpg,coffee,0.9963235855102539
,drink,0.9888631701469421
,chocolate,0.9848344922065735
,cup,0.9821333885192871
,no person,0.9693554639816284
,breakfast,0.9678347110748291
,cream,0.9660816788673401
,sugar,0.963754415512085
,delicious,0.959122896194458
,food,0.9590370655059814
,milk,0.9580931663513184
,sweet,0.9504896402359009
,table,0.949434757232666
,espresso,0.9484274387359619
,cake,0.9381507635116577
,plate,0.9165223836898804
,dawn,0.9132927060127258
,cappuccino,0.9088594913482666
,hot,0.881166934967041
,foam,0.8803597688674927
https://scontent.cdninstagram.com/t51.2885-15/e35/13381135_1612758475704232_414153371_n.jpg,desktop,0.9768995642662048
,color,0.9698363542556763
,no person,0.9500335454940796
,art,0.9333426356315613
,plastic,0.9330462217330933
,design,0.933029294013977
,bright,0.9237046241760254
,round,0.9193980097770691
,round,0.9161838293075562
,texture,0.9056844711303711
,food,0.8881560564041138
,decoration,0.8853311538696289
,wood,0.8831632137298584
,group,0.8766859769821167
,candle,0.8734853267669678
,vintage,0.8684451580047607
,retro,0.8678873777389526
,color,0.8650347590446472
,abstract,0.862439751625061
,closeup,0.8623017072677612
https://scontent.cdninstagram.com/t51.2885-15/e35/1169867_1251997608149677_1686192463_n.jpg,food,0.9947104454040527
,egg,0.9880934953689575
,no person,0.9864044785499573
,cooking,0.9794667363166809
,vegetable,0.9624875783920288
,dinner,0.9582844972610474
,delicious,0.9581933617591858
,lunch,0.9566496014595032
,rice,0.9442060589790344
,nutrition,0.934543788433075
,breakfast,0.9331849813461304
,meal,0.9312633275985718
,chicken,0.9299830794334412
,dish,0.9276663661003113
,grow,0.9216612577438354
,bowl,0.9075747728347778
,meat,0.8887442350387573
,pork,0.8783037662506104
,boiling,0.8763213157653809
,cuisine,0.8624984622001648
https://scontent.cdninstagram.com/t51.2885-15/e35/13694595_1792540370979064_203305868_n.jpg,food,0.996289074420929
,meal,0.9856508374214172
,dinner,0.9835593700408936
,delicious,0.9824486970901489
,epicure,0.9749068021774292
,fish,0.974199652671814
,lunch,0.973412811756134
,seafood,0.9701769351959229
,healthy,0.9650202393531799
,cuisine,0.9645780324935913
,dish,0.9640868306159973
,nutrition,0.9618862867355347
,traditional,0.9616022109985352
,plate,0.9602301716804504
,cooking,0.9586518406867981
,tasty,0.9567205905914307
,restaurant,0.9479768872261047
,closeup,0.9428473114967346
,diet,0.9306873083114624
,no person,0.928101122379303
https://scontent.cdninstagram.com/t51.2885-15/e35/12547705_1114096741943393_172488732_n.jpg,no person,0.9947052597999573
,food,0.9644599556922913
,leaf,0.9453545808792114
,cooking,0.9342729449272156
,chili,0.9271331429481506
,health,0.9202331304550171
,still life,0.9038093686103821
,vegetable,0.8950952291488647
,wood,0.8854373693466187
,ingredients,0.8805969953536987
,pepper,0.8683069944381714
,traditional,0.8645519018173218
,closeup,0.8623397350311279
,delicious,0.8534373044967651
,flower,0.8522665500640869
,color,0.8472012877464294
,nutrition,0.8452664017677307
,hot,0.8427915573120117
,dinner,0.8425164222717285
,nature,0.8365079164505005
https://scontent.cdninstagram.com/t51.2885-15/e35/13277521_140317713044480_105575801_n.jpg,food,0.9952400922775269
,bread,0.96998530626297
,no person,0.9691733717918396
,delicious,0.9583255052566528
,meal,0.9518932104110718
,sweet,0.9475271105766296
,pastry,0.9437984228134155
,homemade,0.9423388838768005
,breakfast,0.9389231204986572
,bakery,0.9371705651283264
,baking,0.9280394315719604
,cake,0.9249929189682007
,flour,0.9240905046463013
,tasty,0.9226605892181396
,refreshment,0.9224177598953247
,slice,0.9218050241470337
,pie,0.9172428846359253
,traditional,0.9170050024986267
,sugar,0.9143989086151123
,cooking,0.9134684801101685
https://scontent.cdninstagram.com/t51.2885-15/e35/13267335_802454816555345_177102678_n.jpg,gold,0.9849222898483276
,flame,0.9799256324768066
,light,0.9568996429443359
,no person,0.946007490158081
,dark,0.9382641315460205
,desktop,0.9379825592041016
,decoration,0.9273118376731873
,food,0.9098209142684937
,color,0.907158613204956
,art,0.9028970003128052
,celebration,0.9018641710281372
,Christmas,0.8918657302856445
,design,0.8902122378349304
,traditional,0.8851776719093323
,shining,0.884740948677063
,party,0.8846523761749268
,light,0.8791228532791138
,candle,0.8736212253570557
,culture,0.8680814504623413
,warmly,0.8653643131256104
