url,class,score
https://scontent-sit4-1.cdninstagram.com/t51.2885-15/s480x480/e35/13561628_982159761902070_355303671_n.jpg,mountain,0.9958385229110718
,hike,0.9889121055603027
,landscape,0.983715295791626
,climb,0.9708297848701477
,outdoors,0.9601656794548035
,adventure,0.9553102254867554
,people,0.9552456140518188
,valley,0.9524757862091064
,travel,0.9453848600387573
,recreation,0.9446467161178589
,daylight,0.9426997303962708
,pinnacle,0.9321675300598145
,exploration,0.9275861978530884
,adult,0.9274263978004456
,climber,0.9260909557342529
,snow,0.9237575531005859
,rock,0.9048721790313721
,scenic,0.8896626234054565
,backpacker,0.8819973468780518
,nature,0.8735990524291992
https://scontent-sit4-1.cdninstagram.com/t51.2885-15/e35/13392736_142253596186068_1743479627_n.jpg,light,0.9920449256896973
,evening,0.9914320111274719
,dusk,0.9880589246749878
,sunset,0.9874860644340515
,city,0.9841443300247192
,bridge,0.9833589196205139
,travel,0.980259358882904
,architecture,0.9712302088737488
,silhouette,0.9710864424705505
,dawn,0.963905930519104
,water,0.9610561728477478
,building,0.9583086967468262
,river,0.9543334245681763
,street,0.9487698674201965
,cityscape,0.9457547664642334
,urban,0.9376955032348633
,reflection,0.9325051307678223
,no person,0.9238790273666382
,sky,0.9203981161117554
,road,0.9175963401794434
https://scontent-sit4-1.cdninstagram.com/t51.2885-15/e35/13473280_1165756723455569_947202633_n.jpg,light,0.9833670258522034
,indoors,0.9697480201721191
,vehicle,0.9598951935768127
,people,0.9572811126708984
,room,0.955298662185669
,no person,0.9509272575378418
,car,0.9493734836578369
,travel,0.9451013803482056
,transportation system,0.9322197437286377
,landscape,0.9286477565765381
,lamp,0.9245598316192627
,seat,0.9232229590415955
,street,0.9142247438430786
,one,0.9064590334892273
,mirror,0.8896048069000244
,furniture,0.8891289234161377
,window,0.8726100325584412
,business,0.8697034120559692
,city,0.858819842338562
,art,0.8577991127967834
https://scontent-sit4-1.cdninstagram.com/t51.2885-15/e35/13556841_265692523791213_1249946375_n.jpg,motion,0.9855546355247498
,people,0.9824467897415161
,horizontal,0.9783257246017456
,outdoors,0.97606360912323
,side view,0.9748504161834717
,adult,0.9711875915527344
,balance,0.9409933090209961
,energy,0.9306653141975403
,strength,0.9294266700744629
,flexibility,0.9291741847991943
,vertical,0.9210611581802368
,cloud,0.9099969863891602
,carefree,0.9055908918380737
,freedom,0.8916493058204651
,agility,0.889927864074707
,success,0.8833444118499756
,midair,0.8775327801704407
,sky,0.8769052028656006
,flick,0.8742744326591492
,woman,0.8740434646606445
https://scontent-sit4-1.cdninstagram.com/t51.2885-15/s750x750/sh0.08/e35/13394904_701036906705617_666549370_n.jpg,child,0.9960864186286926
,people,0.9952946901321411
,outdoors,0.9772204160690308
,daylight,0.967450737953186
,travel,0.9459472894668579
,portrait,0.9384435415267944
,one,0.9371503591537476
,woman,0.9337607622146606
,girl,0.9299314022064209
,adult,0.917858362197876
,landscape,0.9113664627075195
,wear,0.9108548164367676
,group,0.9053195714950562
,boy,0.9008607268333435
,education,0.893213152885437
,festival,0.8888152837753296
,two,0.879371166229248
,mountain,0.8684130311012268
,recreation,0.8424727916717529
,school,0.8409831523895264
https://scontent-sit4-1.cdninstagram.com/t51.2885-15/s750x750/sh0.08/e35/13557243_519223004931399_613350433_n.jpg,people,0.9943041801452637
,religion,0.9787808656692505
,wear,0.9667890667915344
,adult,0.9533872604370117
,one,0.9527219533920288
,group,0.952103853225708
,man,0.9377022385597229
,woman,0.9340364933013916
,veil,0.9262412786483765
,market,0.9145116806030273
,street,0.8919300436973572
,daylight,0.8890056610107422
,travel,0.8879375457763672
,ceremony,0.8805267810821533
,two,0.8656338453292847
,traditional,0.861258327960968
,festival,0.8611543774604797
,lid,0.8565865755081177
,child,0.8135231733322144
,war,0.8029838800430298
https://scontent-sit4-1.cdninstagram.com/t51.2885-15/e35/13392853_556753094496480_1641765219_n.jpg,bedroom,0.9945955276489258
,bed,0.9939740300178528
,room,0.9923616647720337
,family,0.9893768429756165
,lamp,0.98465895652771
,hotel,0.9843698740005493
,indoors,0.982751727104187
,furniture,0.9815627336502075
,house,0.9703385829925537
,pillow,0.967880129814148
,window,0.9598339200019836
,inside,0.9579733610153198
,light,0.9502643942832947
,sleep,0.9441086053848267
,comfort,0.9440151453018188
,sofa,0.9428825974464417
,cozy,0.9303745627403259
,apartment,0.9294701814651489
,headboard,0.9177188873291016
,design,0.9140559434890747
https://scontent-sit4-1.cdninstagram.com/t51.2885-15/e35/13408708_1040470136036303_1918139378_n.jpg,architecture,0.9933183193206787
,no person,0.9880015850067139
,outdoors,0.9807263612747192
,building,0.9796432852745056
,travel,0.9778454899787903
,city,0.9751843810081482
,daylight,0.9628852605819702
,sky,0.9531763792037964
,park,0.9358500242233276
,tourism,0.9150935411453247
,home,0.9145095348358154
,competition,0.9111433029174805
,recreation,0.9105327129364014
,sculpture,0.9084402918815613
,statue,0.902848482131958
,landmark,0.901091992855072
,urban,0.8920812606811523
,tourist,0.8842273354530334
,monument,0.8837249279022217
,town,0.8819931745529175
https://scontent-sit4-1.cdninstagram.com/t51.2885-15/s750x750/sh0.08/e35/13381311_1051748991570507_1061860704_n.jpg,child,0.9943172931671143
,people,0.9878419637680054
,girl,0.9770857095718384
,outdoors,0.9769452810287476
,daylight,0.9637348651885986
,woman,0.9581347703933716
,portrait,0.9570022821426392
,one,0.9543343782424927
,wear,0.9477564096450806
,cap,0.9473309516906738
,happiness,0.9413678646087646
,recreation,0.9374918937683105
,fall,0.9339357614517212
,leisure,0.9257468581199646
,landscape,0.9252179861068726
,nature,0.9188003540039062
,enjoyment,0.9150803089141846
,lid,0.9108498692512512
,adult,0.9091512560844421
,mountain,0.9071757793426514
https://scontent-sit4-1.cdninstagram.com/t51.2885-15/e35/13298139_904163263025702_863321153_n.jpg,no person,0.9891672134399414
,food,0.9646626710891724
,health,0.96265709400177
,medicine,0.9561549425125122
,ingredients,0.9349791407585144
,leaf,0.9184260964393616
,herbal,0.9110487699508667
,herb,0.9051481485366821
,alternative,0.8993625640869141
,tea,0.8986661434173584
,isolated,0.8977224826812744
,healthcare,0.8973743319511414
,desktop,0.8854113817214966
,nature,0.8817466497421265
,healthy,0.8748593926429749
,indoors,0.866828203201294
,nutrition,0.8407862186431885
,flora,0.8212578892707825
,dry,0.8206219673156738
,horizontal,0.813213050365448
https://scontent-sit4-1.cdninstagram.com/t51.2885-15/e35/13423506_654708611336511_1125092975_n.jpg,people,0.991186797618866
,group,0.9860795140266418
,adult,0.9729176759719849
,man,0.9662843942642212
,woman,0.9660395979881287
,recreation,0.950722336769104
,drink,0.9414710998535156
,portrait,0.9401100873947144
,room,0.9364340901374817
,wear,0.9269148707389832
,child,0.9062237739562988
,bar,0.9032243490219116
,family,0.9031490087509155
,festival,0.8947468996047974
,celebration,0.8776781558990479
,restaurant,0.8746397495269775
,four,0.8685306310653687
,enjoyment,0.8662543296813965
,three,0.8635464310646057
,facial expression,0.8555347919464111
https://scontent-sit4-1.cdninstagram.com/t51.2885-15/e35/13388617_1097624833643910_1448871249_n.jpg,dinner,0.9963095188140869
,food,0.9961751699447632
,lunch,0.9874864220619202
,meal,0.9871145486831665
,dish,0.9856534004211426
,delicious,0.9836649298667908
,meat,0.9806333780288696
,vegetable,0.976509690284729
,cuisine,0.969124436378479
,plate,0.9686188101768494
,cooking,0.9681875705718994
,sauce,0.9632481336593628
,no person,0.962726354598999
,hot,0.9544633626937866
,pork,0.9451227188110352
,epicure,0.9433712959289551
,traditional,0.9395636916160583
,parsley,0.9347081780433655
,nutrition,0.9246126413345337
,restaurant,0.9229243397712708
https://scontent-sit4-1.cdninstagram.com/t51.2885-15/e35/13388762_1043566455678778_653478002_n.jpg,pasta,0.9992768168449402
,food,0.9963840246200562
,spaghetti,0.9960803985595703
,dinner,0.9948657751083374
,lunch,0.9912056922912598
,meal,0.9898679852485657
,noodles,0.9892566800117493
,cuisine,0.9881939888000488
,delicious,0.9862880110740662
,sauce,0.9859409332275391
,dish,0.9823302030563354
,basil,0.9822101593017578
,plate,0.9778757095336914
,vegetable,0.974592924118042
,macaroni,0.9621444940567017
,nutrition,0.9557154178619385
,restaurant,0.9547837376594543
,tagliatelle,0.9533191323280334
,tasty,0.9525704979896545
,cooking,0.9525662660598755
https://scontent-sit4-1.cdninstagram.com/t51.2885-15/e35/13414264_147155462368545_293233267_n.jpg,people,0.9899089336395264
,mountain,0.9881631135940552
,adult,0.984167218208313
,landscape,0.9670826196670532
,travel,0.9532432556152344
,two,0.9495353102684021
,one,0.9353091716766357
,outdoors,0.9320073127746582
,woman,0.9310593605041504
,recreation,0.9300680160522461
,hike,0.9278227090835571
,man,0.9271035194396973
,adventure,0.9132084250450134
,group,0.9098695516586304
,daylight,0.9048798084259033
,leisure,0.9039731025695801
,rock,0.8858709335327148
,valley,0.8743129968643188
,snow,0.8732790946960449
,climb,0.8607986569404602
https://scontent-sit4-1.cdninstagram.com/t51.2885-15/e35/13414289_508975442625731_1973540804_n.jpg,food,0.9891351461410522
,dinner,0.9839144945144653
,cream,0.978193998336792
,dish,0.9755948781967163
,lunch,0.9728342890739441
,delicious,0.957228422164917
,no person,0.9561103582382202
,creamy,0.9506447315216064
,plate,0.9474360942840576
,cooking,0.9473493099212646
,meal,0.9469652771949768
,soup,0.9439513087272644
,parsley,0.9396345615386963
,bowl,0.9376277923583984
,cuisine,0.9333382844924927
,vegetable,0.92893385887146
,restaurant,0.9236888885498047
,traditional,0.9143205285072327
,closeup,0.9083393216133118
,meat,0.9031225442886353
https://scontent-sit4-1.cdninstagram.com/t51.2885-15/e35/13385900_2046704935553849_1984739879_n.jpg,indoors,0.952239453792572
,stock,0.9458349347114563
,option,0.9420758485794067
,no person,0.9362436532974243
,people,0.8992139101028442
,winter,0.8633997440338135
,snow,0.8450998663902283
,hanging,0.8366575241088867
,wear,0.8161119818687439
,many,0.8108084201812744
,shop,0.8092032670974731
,modern,0.8036916851997375
,shopping,0.8031010627746582
,pattern,0.796391487121582
,business,0.7803046107292175
,Christmas,0.7801870107650757
,one,0.7771520614624023
,decoration,0.7708662748336792
,horizontal,0.7690855264663696
,shelf,0.7653447985649109
https://scontent-sit4-1.cdninstagram.com/t51.2885-15/e35/13534458_575527605962465_350934095_n.jpg,architecture,0.9912890791893005
,no person,0.9829842448234558
,travel,0.9804285168647766
,building,0.9740716814994812
,city,0.9631435871124268
,sky,0.9498273134231567
,sculpture,0.949771523475647
,religion,0.9483350515365601
,outdoors,0.9363720417022705
,church,0.9331588745117188
,tourism,0.9292925596237183
,statue,0.9188472628593445
,cathedral,0.9174438118934631
,old,0.9022877812385559
,Gothic,0.901917040348053
,ancient,0.8965013027191162
,monument,0.8931347727775574
,culture,0.8856732845306396
,landmark,0.8836706876754761
,tower,0.8690673112869263
https://scontent-sit4-1.cdninstagram.com/t51.2885-15/e35/13437248_1311569682190984_23416341_n.jpg,train,0.9998140335083008
,railway,0.9996278285980225
,train,0.9990884065628052
,transportation system,0.9968552589416504
,railway,0.9962383508682251
,engine,0.9902840852737427
,station,0.9861874580383301
,travel,0.9844092726707458
,track,0.9829903841018677
,wagon,0.9752779006958008
,platform,0.9679991006851196
,carriage,0.9660570621490479
,tube,0.9652540683746338
,public,0.9641321301460266
,tramway,0.9574040174484253
,road,0.95175701379776
,commuter,0.9443277716636658
,no person,0.9425674676895142
,travel,0.9185007810592651
,steel,0.9179452657699585
https://scontent-sit4-1.cdninstagram.com/t51.2885-15/e35/13525569_2056109954614426_1106209293_n.jpg,food,0.9948254823684692
,no person,0.9903095364570618
,dinner,0.9718626141548157
,delicious,0.9695483446121216
,plate,0.9662843346595764
,meal,0.961754322052002
,traditional,0.9597674608230591
,wood,0.9354925155639648
,lunch,0.9350025653839111
,meat,0.9316027164459229
,grow,0.9283361434936523
,dish,0.9211380481719971
,restaurant,0.9171702861785889
,hot,0.9091362953186035
,unhealthy,0.9038378596305847
,beef,0.8989769816398621
,cooking,0.8924287557601929
,sauce,0.8817674517631531
,cuisine,0.8783788681030273
,nutrition,0.875369668006897
https://scontent-sit4-1.cdninstagram.com/t51.2885-15/e35/13532046_254007624980001_2021498059_n.jpg,indoors,0.987254798412323
,furniture,0.984486997127533
,table,0.981235146522522
,no person,0.9769716858863831
,bar,0.976661741733551
,room,0.9723089337348938
,wine,0.9708273410797119
,interior design,0.9544728994369507
,restaurant,0.946272611618042
,food,0.9421274662017822
,drink,0.9280440807342529
,dining,0.9190753698348999
,candle,0.9149389266967773
,hotel,0.9115810990333557
,celebration,0.8720051050186157
,luxury,0.8676633238792419
,beer,0.864325225353241
,counter,0.8612723350524902
,seat,0.8553849458694458
,family,0.8477493524551392
https://scontent-sit4-1.cdninstagram.com/t51.2885-15/e35/13355479_1141771179217531_2101137089_n.jpg,street,0.9970877170562744
,road,0.9923714399337769
,people,0.9841962456703186
,city,0.980196475982666
,landscape,0.9414010643959045
,travel,0.9376698136329651
,urban,0.9321678876876831
,group,0.9278968572616577
,transportation system,0.9240149259567261
,vehicle,0.9165160655975342
,commerce,0.8867738246917725
,man,0.8852283954620361
,car,0.8838869333267212
,bridge,0.8808368444442749
,woman,0.8798107504844666
,pavement,0.8692417144775391
,religion,0.8604770302772522
,motion,0.8354021310806274
,adult,0.8344542980194092
,storm,0.8336838483810425
https://scontent-sit4-1.cdninstagram.com/t51.2885-15/e35/13525476_1691404464441979_838775512_n.jpg,vehicle,0.9672361612319946
,transportation system,0.9152345657348633
,street,0.9123711585998535
,people,0.9091064929962158
,color,0.9062973260879517
,old,0.8870689868927002
,vintage,0.8847034573554993
,chair,0.8825205564498901
,no person,0.8768121004104614
,light,0.8648402690887451
,city,0.8626447916030884
,group,0.8387264609336853
,indoors,0.8286539316177368
,design,0.8235733509063721
,still life,0.8132434487342834
,decoration,0.797792911529541
,flower,0.7971231937408447
,wheel,0.7968441247940063
,desktop,0.7868177890777588
,art,0.7851367592811584
https://scontent-sit4-1.cdninstagram.com/t51.2885-15/e35/13395175_1134399106640245_444508863_n.jpg,chef,0.9964480400085449
,restaurant,0.9947367310523987
,people,0.9921457767486572
,industry,0.984700083732605
,adult,0.9843255281448364
,man,0.9828199148178101
,baker,0.9786866903305054
,portrait,0.9752310514450073
,cooking,0.9590473175048828
,indoors,0.9456247091293335
,bar,0.9446405172348022
,food,0.9420781135559082
,woman,0.9368683099746704
,wear,0.9225900173187256
,apron,0.9172444343566895
,production,0.9155579209327698
,music,0.9151844382286072
,two,0.9132234454154968
,lid,0.9082759618759155
,one,0.9042274951934814
https://scontent-sit4-1.cdninstagram.com/t51.2885-15/s750x750/sh0.08/e35/13397539_1713079862279349_2085564429_n.jpg,people,0.9932382106781006
,lid,0.9888955950737
,portrait,0.9853012561798096
,child,0.9814125299453735
,outdoors,0.9564083218574524
,one,0.9545612335205078
,adult,0.9505192041397095
,wear,0.9317663908004761
,park,0.9287292957305908
,boy,0.9145476818084717
,cap,0.9038825631141663
,girl,0.9012274742126465
,light,0.8887790441513062
,youth,0.876021146774292
,veil,0.8656915426254272
,woman,0.8444885015487671
,happiness,0.8419148921966553
,daylight,0.840512752532959
,man,0.8171596527099609
,person,0.8166757822036743
https://scontent-sit4-1.cdninstagram.com/t51.2885-15/e35/13561848_1050021888418151_1294247079_n.jpg,food,0.9914525747299194
,dinner,0.9874798059463501
,lunch,0.9841200113296509
,vegetable,0.9838910698890686
,salad,0.9756667613983154
,rocket,0.9700926542282104
,meal,0.9696412086486816
,no person,0.9655189514160156
,delicious,0.9618176221847534
,lettuce,0.9585670232772827
,dish,0.9569862484931946
,plate,0.9537959098815918
,grow,0.9503372311592102
,meat,0.9341698884963989
,chicken,0.9280552864074707
,cheese,0.9125118255615234
,parsley,0.91064453125
,mouth-watering,0.9052107334136963
,spinach,0.9026681184768677
,nutrition,0.902107834815979
https://scontent-sit4-1.cdninstagram.com/t51.2885-15/e35/13402737_106259723135507_1554414727_n.jpg,mountain,0.9883261919021606
,water,0.9823859930038452
,people,0.9813126921653748
,landscape,0.9747892022132874
,daylight,0.9726346731185913
,travel,0.9703603386878967
,rock,0.9532438516616821
,outdoors,0.9468196630477905
,tree,0.9452753067016602
,snow,0.9435551166534424
,wood,0.9389151334762573
,nature,0.9308434724807739
,one,0.9154138565063477
,house,0.9134253263473511
,adult,0.9130811095237732
,river,0.9096128940582275
,valley,0.8947938084602356
,scenic,0.8934777975082397
,waterfall,0.890557050704956
,recreation,0.8846160173416138
https://scontent-sit4-1.cdninstagram.com/t51.2885-15/e35/13285352_859230364183292_696349203_n.jpg,stock,0.9926983118057251
,architecture,0.9902198910713196
,shopping,0.9819324016571045
,commerce,0.9800072312355042
,travel,0.9736018180847168
,outdoors,0.9710813760757446
,street,0.9710408449172974
,city,0.969482421875
,no person,0.9667668342590332
,people,0.9538805484771729
,shop,0.9481878280639648
,pavement,0.9402980804443359
,town,0.9282697439193726
,restaurant,0.9268064498901367
,daylight,0.9189524054527283
,business,0.9076882600784302
,building,0.8954312205314636
,downtown,0.8922088146209717
,urban,0.8908588886260986
,sign,0.8907934427261353
https://scontent-sit4-1.cdninstagram.com/t51.2885-15/e35/13269438_626258367539999_203365620_n.jpg,no person,0.9934498071670532
,indoors,0.9875680208206177
,wood,0.9832453727722168
,knife,0.9731415510177612
,food,0.961765468120575
,table,0.9605822563171387
,interior design,0.9545791745185852
,coffee,0.9498885273933411
,family,0.945406436920166
,furniture,0.9388118386268616
,room,0.933955192565918
,still life,0.9302371144294739
,paper,0.9065634608268738
,traditional,0.8826063871383667
,luxury,0.8631460070610046
,breakfast,0.8597291707992554
,house,0.8577947616577148
,contemporary,0.8536559343338013
,retro,0.8533451557159424
,dinner,0.8409571647644043
https://scontent-sit4-1.cdninstagram.com/t51.2885-15/e35/13531878_281920472198887_298121639_n.jpg,fruit,0.9974344372749329
,food,0.996198832988739
,grow,0.99568772315979
,no person,0.9906599521636963
,exotic,0.9877413511276245
,tropical,0.9737486839294434
,market,0.9664915800094604
,cactus,0.9656122922897339
,nature,0.95624840259552
,flora,0.9525876045227051
,succulent,0.9495670795440674
,color,0.9392625093460083
,stall,0.9371023178100586
,group,0.935665488243103
,desert,0.9307035803794861
,agriculture,0.9128210544586182
,vegetable,0.912105917930603
,texture,0.8998926877975464
,artichoke,0.8966597318649292
,pineapple,0.8946806192398071
https://scontent-sit4-1.cdninstagram.com/t51.2885-15/e35/13392849_1032717933473845_221937013_n.jpg,people,0.9964455366134644
,religion,0.982077956199646
,street,0.9807678461074829
,child,0.9800965785980225
,waste,0.9527550935745239
,woman,0.9397274255752563
,prayer,0.9292137026786804
,battle,0.9242016077041626
,festival,0.9156028628349304
,market,0.9098713994026184
,road,0.9091124534606934
,city,0.9066963195800781
,dig,0.9001195430755615
,adult,0.8857465982437134
,industry,0.8706060647964478
,revolution,0.8705028295516968
,man,0.8694869875907898
,graffiti,0.8667700886726379
,urban,0.8586124181747437
,calamity,0.8522381782531738
https://scontent-sit4-1.cdninstagram.com/t51.2885-15/e35/13402313_1563195783977348_1492923967_n.jpg,outdoors,0.9974222183227539
,horizontal,0.9890618324279785
,architecture,0.9759100079536438
,sky,0.9750106334686279
,horizontal,0.9702436327934265
,nature,0.9525876045227051
,fair weather,0.9405618906021118
,city,0.9366194009780884
,travel,0.9348011612892151
,cloud,0.9259161353111267
,vertical,0.8990334272384644
,square,0.8878171443939209
,dusk,0.8722233772277832
,quiet,0.8630342483520508
,sunset,0.8618274331092834
,tree,0.8236674070358276
,sun,0.8148675560951233
,summer,0.8026450872421265
,landscape,0.8012851476669312
,sunny,0.7815809845924377
https://scontent-sit4-1.cdninstagram.com/t51.2885-15/e35/13423001_925346480908067_1457338251_n.jpg,travel,0.9790405035018921
,architecture,0.9713357090950012
,no person,0.9681505560874939
,city,0.9609873294830322
,people,0.9493691921234131
,building,0.9463822841644287
,many,0.9410421848297119
,group,0.9407637119293213
,sculpture,0.9406847357749939
,religion,0.9389643669128418
,square,0.9312617778778076
,art,0.9240690469741821
,temple,0.9215842485427856
,symbol,0.9164632558822632
,tourism,0.9141048789024353
,old,0.9079785346984863
,castle,0.9018682241439819
,decoration,0.8994718790054321
,street,0.8842118978500366
,gold,0.8814107775688171
https://scontent-sit4-1.cdninstagram.com/t51.2885-15/e35/13636271_1072519506146770_1006760905_n.jpg,architecture,0.9857270121574402
,house,0.9822632074356079
,home,0.9812026023864746
,building,0.9750365018844604
,no person,0.9707375764846802
,street,0.9432821273803711
,family,0.9121487140655518
,town,0.909433126449585
,people,0.9057784080505371
,hotel,0.9049437046051025
,outdoors,0.8919281959533691
,balcony,0.8881204724311829
,travel,0.8841699361801147
,pavement,0.8820250034332275
,city,0.8766719102859497
,luxury,0.8752676248550415
,urban,0.843345582485199
,door,0.8417413830757141
,tree,0.837043046951294
,patio,0.8119127750396729
https://scontent-sit4-1.cdninstagram.com/t51.2885-15/e35/13398892_117463078679925_1585234800_n.jpg,street,0.9906558990478516
,city,0.987683117389679
,people,0.9853222370147705
,group,0.9774072170257568
,tourist,0.9736231565475464
,many,0.9703875780105591
,tourism,0.9663195610046387
,daylight,0.966245174407959
,commerce,0.9642068147659302
,road,0.9617820978164673
,town,0.9593361616134644
,crowd,0.9587934017181396
,stock,0.947352409362793
,festival,0.9400192499160767
,travel,0.9028234481811523
,shopping,0.8975130319595337
,market,0.8766195774078369
,vehicle,0.8564862012863159
,outdoors,0.8528236150741577
,sightseeing,0.8422054648399353
https://scontent-sit4-1.cdninstagram.com/t51.2885-15/e35/13437384_246676452380420_301711863_n.jpg,carnival,0.983790397644043
,festival,0.9812391400337219
,music,0.9772393703460693
,people,0.9676041007041931
,performance,0.9672197699546814
,club,0.9668781757354736
,exhilaration,0.9666117429733276
,city,0.9583096504211426
,concert,0.9494897127151489
,tourist,0.9478274583816528
,casino,0.9471732974052429
,dancing,0.9466050863265991
,street,0.9376316070556641
,shopping,0.9357652068138123
,bar,0.9181777238845825
,crowd,0.9089798927307129
,light,0.9066399335861206
,exhibition,0.9060020446777344
,tube,0.9054657816886902
,gambling,0.9022164940834045
https://scontent-sit4-1.cdninstagram.com/t51.2885-15/e35/13298125_253711524985215_1550211888_n.jpg,people,0.9938539266586304
,group,0.9709092378616333
,man,0.9678068161010742
,bench,0.9565862417221069
,adult,0.9329451322555542
,seat,0.9251876473426819
,many,0.9168814420700073
,education,0.9127784967422485
,city,0.908677339553833
,recreation,0.9024238586425781
,two,0.891487717628479
,chair,0.8866435885429382
,woman,0.8853657245635986
,outdoors,0.8840956687927246
,child,0.8420028686523438
,road,0.8374738693237305
,family,0.8305169343948364
,school,0.8072704672813416
,furniture,0.801295280456543
,park,0.7936036586761475
https://scontent-sit4-1.cdninstagram.com/t51.2885-15/e35/13473371_314804495517207_1169828421_n.jpg,furniture,0.9901333451271057
,room,0.9900496602058411
,seat,0.9889054298400879
,no person,0.9870936870574951
,indoors,0.9861580729484558
,table,0.9807982444763184
,chair,0.9740641117095947
,interior design,0.9739059209823608
,contemporary,0.9286810159683228
,sofa,0.9284307360649109
,restaurant,0.9265130162239075
,architecture,0.9065199494361877
,luxury,0.9039922952651978
,lamp,0.8923871517181396
,wood,0.892229437828064
,many,0.8855342864990234
,family,0.8703927397727966
,travel,0.8461016416549683
,house,0.8381634950637817
,music,0.8365893363952637
https://scontent-sit4-1.cdninstagram.com/t51.2885-15/e35/13636157_559372644266214_1781041069_n.jpg,architecture,0.9900556206703186
,building,0.9877793192863464
,city,0.9841085076332092
,street,0.9795974493026733
,travel,0.9712916612625122
,outdoors,0.9539463520050049
,road,0.9427106380462646
,urban,0.9382251501083374
,tourism,0.9342334270477295
,town,0.9285807609558105
,no person,0.9205513596534729
,daylight,0.9202269911766052
,tourist,0.9089186191558838
,house,0.9030334949493408
,vehicle,0.8968673348426819
,home,0.8853284120559692
,stock,0.880582332611084
,public,0.8361371755599976
,facade,0.832552433013916
,transportation system,0.8293607234954834
https://scontent-sit4-1.cdninstagram.com/t51.2885-15/e35/13562094_211588592569643_113879476_n.jpg,people,0.9850653409957886
,airport,0.9826189279556274
,railway,0.9802616834640503
,crowd,0.9776845574378967
,shopping,0.9738404750823975
,transportation system,0.9730560779571533
,many,0.9720958471298218
,tube,0.9665893316268921
,commerce,0.9657498598098755
,business,0.9627702236175537
,commuter,0.9602949619293213
,group,0.959978461265564
,train,0.9545806646347046
,travel,0.948056697845459
,city,0.9451634287834167
,competition,0.9425449371337891
,departure,0.940565824508667
,stock,0.9337823390960693
,vehicle,0.9313790202140808
,public,0.926484227180481
https://scontent-sit4-1.cdninstagram.com/t51.2885-15/e35/13381253_1734115876861314_1699846975_n.jpg,street,0.9987722635269165
,city,0.9793028831481934
,pavement,0.9772605895996094
,people,0.976969838142395
,urban,0.9687361717224121
,town,0.9594380855560303
,family,0.9515758752822876
,building,0.9250112771987915
,outdoors,0.9207786321640015
,house,0.9183196425437927
,architecture,0.9171932935714722
,home,0.9134426712989807
,man,0.912833034992218
,woman,0.9012691974639893
,road,0.8886932730674744
,child,0.8787883520126343
,alley,0.8575645685195923
,adult,0.8482882976531982
,graffiti,0.8394927978515625
,travel,0.8335371017456055
https://scontent-sit4-1.cdninstagram.com/t51.2885-15/e35/13534281_551456645033940_968187120_n.jpg,no person,0.9936386942863464
,architecture,0.98921799659729
,sky,0.9800772070884705
,building,0.9783459901809692
,tallest,0.9667964577674866
,city,0.9659695029258728
,outdoors,0.9622000455856323
,tree,0.9538755416870117
,glass,0.9244322776794434
,skyscraper,0.9061845541000366
,business,0.9054446816444397
,high,0.8943846225738525
,travel,0.8832492828369141
,tower,0.878757119178772
,office,0.8764752149581909
,modern,0.8742865920066833
,urban,0.8598144054412842
,contemporary,0.8536563515663147
,perspective,0.8427655100822449
,downtown,0.8350760340690613
https://scontent-sit4-1.cdninstagram.com/t51.2885-15/e35/13551805_612375842260828_962597916_n.jpg,city,0.9976668953895569
,architecture,0.9958181381225586
,building,0.995707631111145
,office,0.9927424192428589
,urban,0.9905447959899902
,street,0.9850298166275024
,business,0.9818018674850464
,downtown,0.976767897605896
,apartment,0.9661332368850708
,modern,0.965262234210968
,travel,0.9645598530769348
,skyscraper,0.9531722664833069
,no person,0.9478000402450562
,hotel,0.9456568956375122
,cityscape,0.9439560174942017
,expression,0.9403520226478577
,construction,0.931382417678833
,sight,0.9234727621078491
,window,0.9227942228317261
,outdoors,0.9144089221954346
https://scontent-sit4-1.cdninstagram.com/t51.2885-15/e35/13394901_245148419203566_46245598_n.jpg,food,0.9952396154403687
,soup,0.9951937794685364
,hot,0.9946697950363159
,dinner,0.9818036556243896
,dish,0.9774134159088135
,no person,0.9765608310699463
,meat,0.9757848978042603
,traditional,0.9721829891204834
,meal,0.9717459082603455
,plate,0.9710975885391235
,bowl,0.9701210260391235
,lunch,0.9654827117919922
,vegetable,0.9595351219177246
,cuisine,0.9521776437759399
,healthy,0.9497671127319336
,bread,0.949528694152832
,restaurant,0.9450975656509399
,warmly,0.9433284997940063
,spoon,0.9382889270782471
,cooking,0.9353460073471069
https://scontent-sit4-1.cdninstagram.com/t51.2885-15/e35/13391293_1245710415441749_855894509_n.jpg,no person,0.9906857013702393
,architecture,0.9866985082626343
,street,0.9841711521148682
,stock,0.9802021980285645
,travel,0.9761416912078857
,outdoors,0.9702931642532349
,town,0.9614468812942505
,city,0.9606744050979614
,building,0.9570949673652649
,commerce,0.9351561069488525
,house,0.9272816181182861
,tourism,0.922261655330658
,pavement,0.9155753254890442
,facade,0.9065594673156738
,daylight,0.9023282527923584
,tourist,0.8908905386924744
,urban,0.8709021806716919
,shopping,0.8374470472335815
,people,0.8295074701309204
,road,0.8071210980415344
https://scontent-sit4-1.cdninstagram.com/t51.2885-15/e35/13395092_1714786085475607_1171661474_n.jpg,adventure,0.9955705404281616
,outdoors,0.9948785305023193
,desert,0.9855976104736328
,nature,0.9828026294708252
,horizontal,0.9809826612472534
,sky,0.9808661937713623
,mountain,0.9758961200714111
,travel,0.9752508401870728
,landscape,0.95763099193573
,hike,0.9512310028076172
,remote,0.9486185312271118
,cloud,0.9442328214645386
,fair weather,0.9428133964538574
,travel,0.9367434978485107
,barren,0.9205747842788696
,horizontal,0.9172528982162476
,freedom,0.911551833152771
,sand,0.9108632802963257
,exploration,0.908110499382019
,tourism,0.9068121314048767
https://scontent-sit4-1.cdninstagram.com/t51.2885-15/e35/13413303_1732635666978496_568411995_n.jpg,no person,0.9888949394226074
,tent,0.9788110256195068
,mountain,0.9785112142562866
,travel,0.9763048887252808
,nature,0.9682251214981079
,landscape,0.9680581092834473
,adventure,0.963934063911438
,outdoors,0.9636592864990234
,recreation,0.955818235874176
,hike,0.9381704330444336
,sky,0.9178457260131836
,summer,0.9082568883895874
,tree,0.9031336307525635
,leisure,0.9001460075378418
,water,0.8926142454147339
,scenic,0.8800698518753052
,camper,0.8630813360214233
,rock,0.8573958873748779
,valley,0.8549479246139526
,exploration,0.8483394384384155
https://scontent-sit4-1.cdninstagram.com/t51.2885-15/e35/13414176_1604229923221446_1468139948_n.jpg,street,0.9957064390182495
,city,0.9944508075714111
,architecture,0.9903411865234375
,building,0.9820135831832886
,urban,0.9799314141273499
,town,0.9796807765960693
,travel,0.97577965259552
,house,0.9662226438522339
,no person,0.9637115001678467
,tourism,0.9516768455505371
,outdoors,0.9477150440216064
,stock,0.9389875531196594
,modern,0.9389299154281616
,old,0.9242424964904785
,road,0.9239760637283325
,pavement,0.923005998134613
,window,0.9223149418830872
,tourist,0.9126856327056885
,light,0.8927757143974304
,downtown,0.8854135274887085
https://scontent-sit4-1.cdninstagram.com/t51.2885-15/e35/13573490_1020624334669448_453978851_n.jpg,street,0.9931862354278564
,tree,0.9840013980865479
,no person,0.9823284149169922
,road,0.9808745384216309
,city,0.9725582599639893
,winter,0.9684884548187256
,outdoors,0.9596458673477173
,architecture,0.9584040641784668
,building,0.9438991546630859
,town,0.9426906704902649
,travel,0.9421041011810303
,house,0.9354864954948425
,wood,0.9323461055755615
,snow,0.927621603012085
,alley,0.9170942306518555
,daylight,0.9163376092910767
,urban,0.9005118608474731
,light,0.8808892369270325
,pavement,0.8630104064941406
,landscape,0.860288143157959
