url,class,score
https://scontent-sit4-1.cdninstagram.com/t51.2885-15/s640x640/e15/13551626_1711958035721434_25971563_n.jpg,child,0.9877829551696777
,fun,0.9688419699668884
,street,0.9662114977836609
,people,0.9579442143440247
,girl,0.9501783847808838
,summer,0.944490909576416
,youth,0.9257724285125732
,person,0.924824595451355
,color,0.9245511889457703
,ground,0.9099631905555725
,woman,0.899524986743927
,outdoors,0.8941975831985474
,festival,0.8778917789459229
,beach,0.8661137819290161
,leisure,0.8631018400192261
,park,0.8609492778778076
,shoe,0.8592822551727295
,play,0.8586431741714478
,outside,0.8576815128326416
,foot,0.8555759191513062
https://scontent-sit4-1.cdninstagram.com/t51.2885-15/e35/13423055_980946848669720_2115751282_n.jpg,water,0.9866631031036377
,travel,0.9742303490638733
,sea,0.9577585458755493
,seashore,0.9542776942253113
,city,0.943114697933197
,landscape,0.939162015914917
,evening,0.9356156587600708
,people,0.9329879283905029
,ocean,0.9325659275054932
,beach,0.9297986030578613
,sunset,0.9174333810806274
,light,0.8986436128616333
,daylight,0.8985062837600708
,vehicle,0.8972622156143188
,outdoors,0.8942222595214844
,sky,0.888009250164032
,no person,0.8787927627563477
,one,0.8770242929458618
,transportation system,0.8695346713066101
,blur,0.8513221740722656
https://scontent-sit4-1.cdninstagram.com/t51.2885-15/e35/13531808_1229926017031079_1255330453_n.jpg,no person,0.9913445711135864
,outdoors,0.9766334891319275
,sky,0.9630905985832214
,competition,0.9539478421211243
,daylight,0.9497449398040771
,travel,0.9495647549629211
,city,0.9376388788223267
,architecture,0.930167555809021
,people,0.9046746492385864
,grass,0.8882905840873718
,soccer,0.8824950456619263
,park,0.8687520027160645
,one,0.8671815395355225
,building,0.8495612144470215
,business,0.8315415382385254
,athlete,0.8274127244949341
,landscape,0.8260592818260193
,water,0.8199752569198608
,summer,0.809519350528717
,patriotism,0.8072908520698547
https://scontent-sit4-1.cdninstagram.com/t51.2885-15/s640x640/e15/13355626_549139361957111_864676408_n.jpg,technology,0.9838258028030396
,business,0.9787005186080933
,computer,0.9723774194717407
,people,0.9447327852249146
,man,0.9440970420837402
,indoors,0.9419410228729248
,industry,0.9332864284515381
,internet,0.9326367378234863
,electronics,0.8975096940994263
,adult,0.8968350887298584
,connection,0.8896484375
,screen,0.889212429523468
,machinery,0.883205771446228
,room,0.8742395043373108
,telephone,0.8731141090393066
,security,0.8645148277282715
,science,0.8521935343742371
,access,0.8511034250259399
,contemporary,0.8418455719947815
,service,0.838808536529541
https://scontent-sit4-1.cdninstagram.com/t51.2885-15/e35/13385626_797545673679242_1514128280_n.jpg,no person,0.9965534210205078
,delicious,0.9935015439987183
,breakfast,0.9900996685028076
,traditional,0.9838511943817139
,food,0.983001708984375
,unhealthy,0.9829828143119812
,lunch,0.9722366333007812
,nutrition,0.9686379432678223
,taste,0.9546219110488892
,dawn,0.9496992826461792
,health,0.9476003646850586
,hot,0.9455663561820984
,sugar,0.9394184947013855
,bread,0.937044620513916
,dinner,0.9362761974334717
,cream,0.9331095814704895
,milk,0.9319412708282471
,coffee,0.9247873425483704
,cooking,0.9077451229095459
,fast,0.9021429419517517
https://scontent-sit4-1.cdninstagram.com/t51.2885-15/e35/13642977_1766305616915248_266840459_n.jpg,no person,0.9986451268196106
,chocolate,0.9881282448768616
,delicious,0.985742449760437
,homemade,0.979814887046814
,sugar,0.965135931968689
,sweet,0.961223840713501
,food,0.9543395042419434
,baking,0.95421302318573
,breakfast,0.9477250576019287
,indulgence,0.9470490217208862
,stacks,0.9435679316520691
,cream,0.9386186003684998
,ingredients,0.9161310195922852
,milk,0.9142730832099915
,cake,0.9115779995918274
,coffee,0.9108887314796448
,creamy,0.900892972946167
,candy,0.8977441787719727
,pastry,0.8886733055114746
,traditional,0.8733699917793274
https://scontent-sit4-1.cdninstagram.com/t51.2885-15/e35/13643642_1137023496362147_601053539_n.jpg,food,0.9832181930541992
,no person,0.98067706823349
,delicious,0.9759211540222168
,breakfast,0.9677250385284424
,bread,0.9626241326332092
,lunch,0.9543143510818481
,plate,0.9518676996231079
,dinner,0.9397010803222656
,homemade,0.934802770614624
,meal,0.9263099431991577
,nutrition,0.9235893487930298
,traditional,0.9006696939468384
,toast,0.8948857188224792
,cream,0.893913984298706
,health,0.8870223760604858
,vegetable,0.857548713684082
,dawn,0.8512800931930542
,dining,0.8498892784118652
,cooking,0.8401527404785156
,baking,0.8294944763183594
https://scontent-sit4-1.cdninstagram.com/t51.2885-15/e35/13355444_513630255489611_429604685_n.jpg,people,0.9866724014282227
,business,0.9712172746658325
,adult,0.9653010368347168
,finance,0.9614673852920532
,money,0.9462549090385437
,man,0.9377158880233765
,portrait,0.9236099720001221
,woman,0.9147474765777588
,girl,0.887736439704895
,group,0.8613337278366089
,happiness,0.857947826385498
,actor,0.8512605428695679
,technology,0.8465105295181274
,bank,0.828474760055542
,commerce,0.8111490607261658
,smile,0.7824400663375854
,wealth,0.7817456722259521
,two,0.7801788449287415
,employee,0.7770814299583435
,security,0.7696561813354492
https://scontent-sit4-1.cdninstagram.com/t51.2885-15/s640x640/e15/13734277_1719775011620717_1702348640_n.jpg,no person,0.9888161420822144
,indoors,0.962559700012207
,interior design,0.9597162008285522
,furniture,0.945430338382721
,travel,0.9360486268997192
,seat,0.9022881984710693
,museum,0.8910900950431824
,recreation,0.8905469179153442
,people,0.8756609559059143
,exhibition,0.8697150349617004
,sculpture,0.8540134429931641
,man,0.8535881638526917
,woman,0.8322205543518066
,architecture,0.8306546211242676
,table,0.8233767747879028
,wear,0.8115116357803345
,room,0.8102394342422485
,chair,0.7894809246063232
,art,0.7795703411102295
,family,0.7699238657951355
https://scontent-sit4-1.cdninstagram.com/t51.2885-15/e35/13408696_496718623859185_658406063_n.jpg,no person,0.9903628826141357
,medicine,0.989730954170227
,healthcare,0.9603341817855835
,bottle,0.9558438062667847
,cure,0.9494416117668152
,one,0.9414589405059814
,indoors,0.9370453357696533
,container,0.9326745271682739
,still life,0.9280458092689514
,illness,0.9099783301353455
,recreation,0.8946626782417297
,wood,0.8909631967544556
,people,0.8839634656906128
,disease,0.8663098812103271
,food,0.86238694190979
,poison,0.8517966270446777
,two,0.8474699854850769
,treatment,0.84577476978302
,lid,0.8439157009124756
,fall,0.8377315998077393
https://scontent-sit4-1.cdninstagram.com/t51.2885-15/e35/13731135_1381023341913819_725083904_n.jpg,child,0.9985318183898926
,toy,0.9984425902366638
,play,0.9777184128761292
,fun,0.9677795171737671
,boy,0.9575008749961853
,sketch,0.9495197534561157
,Lego,0.9470056295394897
,still life,0.9407815933227539
,game,0.9362126588821411
,group,0.9264398813247681
,no person,0.9174460768699646
,baby,0.916674017906189
,girl,0.9114192724227905
,movie,0.9114019274711609
,people,0.9107472896575928
,illustration,0.9088218212127686
,wood,0.8999418616294861
,money,0.8956558108329773
,doll,0.8956416845321655
,cute,0.8765335083007812
https://scontent-sit4-1.cdninstagram.com/t51.2885-15/e35/13414398_1586240908341264_1800116346_n.jpg,travel,0.9863381385803223
,city,0.9829921126365662
,sky,0.9809390902519226
,sight,0.9751285314559937
,town,0.960722804069519
,nature,0.9542285799980164
,landscape,0.9520981311798096
,architecture,0.9458366632461548
,outdoors,0.9449952244758606
,urban,0.9445991516113281
,tree,0.9438262581825256
,tourism,0.9391084909439087
,transportation system,0.9361579418182373
,summer,0.9326533079147339
,cityscape,0.927060604095459
,house,0.9246529936790466
,traffic,0.9207844734191895
,road,0.9187097549438477
,building,0.911048173904419
,wood,0.9016985893249512
https://scontent-sit4-1.cdninstagram.com/t51.2885-15/e35/13408757_1804282256467993_867606573_n.jpg,composition,0.9976798295974731
,pencil,0.9948554635047913
,paper,0.9877258539199829
,business,0.9752452373504639
,education,0.9749355316162109
,school,0.9506282806396484
,no person,0.9468594789505005
,office,0.9447599649429321
,document,0.9375201463699341
,write,0.9304608106613159
,writing,0.9239768385887146
,study,0.8893312215805054
,graph,0.8874945044517517
,number,0.8510478734970093
,data,0.842035174369812
,diagram,0.836409330368042
,page,0.8320587873458862
,data,0.8220973014831543
,notebook,0.821952223777771
,eraser,0.8149583339691162
https://scontent-sit4-1.cdninstagram.com/t51.2885-15/e35/13408740_835192989946349_1142537623_n.jpg,people,0.9875043630599976
,adult,0.9743032455444336
,woman,0.9726946353912354
,two,0.965258777141571
,man,0.9549455046653748
,wear,0.9481865167617798
,performance,0.9330220222473145
,music,0.9162344932556152
,celebration,0.9145769476890564
,love,0.9025827050209045
,portrait,0.8992388248443604
,group,0.8860808610916138
,dress,0.8850123882293701
,girl,0.880831241607666
,recreation,0.8674765825271606
,musician,0.8628741502761841
,singer,0.8551263809204102
,family,0.8536036610603333
,veil,0.8534290790557861
,costume,0.8442293405532837
https://scontent-sit4-1.cdninstagram.com/t51.2885-15/e35/13658748_1714596305461551_689192215_n.jpg,food,0.9949061870574951
,dinner,0.9900258779525757
,chicken,0.9854750633239746
,meat,0.9838151931762695
,dish,0.9762408137321472
,no person,0.9762358665466309
,meal,0.9753375053405762
,lunch,0.9740835428237915
,poultry,0.9691371321678162
,delicious,0.9519767761230469
,cooking,0.9519562125205994
,vegetable,0.9484037160873413
,cuisine,0.9473583102226257
,plate,0.9439554214477539
,pork,0.9334555864334106
,sauce,0.9328385591506958
,seafood,0.929374098777771
,restaurant,0.918366551399231
,chili,0.9168067574501038
,hot,0.9155104160308838
https://scontent-sit4-1.cdninstagram.com/t51.2885-15/e35/13525353_580355452145352_526482556_n.jpg,no person,0.9971968531608582
,cream,0.9957402944564819
,food,0.9914013147354126
,delicious,0.9892059564590454
,dairy product,0.987409234046936
,vanilla,0.982660174369812
,creamy,0.9780757427215576
,chocolate,0.9766800403594971
,sweet,0.9723644852638245
,fruit,0.932104766368866
,plate,0.9283179044723511
,indulgence,0.9281861782073975
,milk,0.9216809272766113
,grow,0.919108510017395
,mint,0.9119149446487427
,sugar,0.9084928035736084
,caramel,0.904262125492096
,homemade,0.900907039642334
,epicure,0.8897672295570374
,tea,0.8897457718849182
https://scontent-sit4-1.cdninstagram.com/t51.2885-15/e35/13557214_1094091103968176_1473508487_n.jpg,no person,0.9958579540252686
,delicious,0.9813824892044067
,food,0.9721654653549194
,ready,0.9577747583389282
,dinner,0.9484578371047974
,lunch,0.9450708627700806
,cream,0.9401047229766846
,bowl,0.9394618272781372
,homemade,0.9274649024009705
,breakfast,0.921403169631958
,nutrition,0.912516713142395
,traditional,0.911147952079773
,taste,0.9078836441040039
,creamy,0.9061323404312134
,dairy product,0.8896044492721558
,health,0.887542724609375
,milk,0.877043604850769
,spoon,0.8696219325065613
,hot,0.8662797212600708
,still life,0.8552737236022949
https://scontent-sit4-1.cdninstagram.com/t51.2885-15/e35/13385597_1797082473862199_172872984_n.jpg,food,0.9941860437393188
,dinner,0.9927413463592529
,soup,0.991919994354248
,meat,0.9847815632820129
,lunch,0.9827897548675537
,beef,0.9776390790939331
,hot,0.973344624042511
,cuisine,0.966571569442749
,delicious,0.9665518999099731
,traditional,0.9664164781570435
,no person,0.9658757448196411
,cooking,0.9644614458084106
,meal,0.9615277647972107
,dish,0.9587624073028564
,noodles,0.9574395418167114
,bowl,0.9533768892288208
,broth,0.9508360028266907
,pork,0.9504110813140869
,vegetable,0.9489831924438477
,rice,0.9351632595062256
https://scontent-sit4-1.cdninstagram.com/t51.2885-15/e35/13395136_126817681076152_134508859_n.jpg,education,0.9961686134338379
,child,0.99593186378479
,school,0.9903103113174438
,people,0.985381007194519
,table,0.9795698523521423
,indoors,0.9714164733886719
,one,0.9670237302780151
,boy,0.956743597984314
,concentration,0.9565577507019043
,creativity,0.9564067125320435
,adult,0.9536356925964355
,room,0.9251930713653564
,sit,0.9066309928894043
,writing,0.8837974071502686
,food,0.8788923621177673
,skill,0.8748176097869873
,enjoyment,0.8742827773094177
,lifestyle,0.8736447095870972
,homework,0.8690295219421387
,wear,0.8672160506248474
https://scontent-sit4-1.cdninstagram.com/t51.2885-15/e35/13397610_582503888577578_1038862792_n.jpg,education,0.9807449579238892
,paper,0.9778895378112793
,toy,0.9684723615646362
,school,0.9680349826812744
,no person,0.9615327715873718
,child,0.945253849029541
,knowledge,0.9332680702209473
,business,0.9318228363990784
,book,0.8988178968429565
,college,0.8982728719711304
,indoors,0.8969151973724365
,note,0.8767592906951904
,office,0.8518620729446411
,pencil,0.8429572582244873
,study,0.8418594598770142
,writing,0.8402723073959351
,fun,0.8275949954986572
,furniture,0.8240970373153687
,color,0.8190512657165527
,table,0.8066610097885132
https://scontent-sit4-1.cdninstagram.com/t51.2885-15/e35/13392798_1208303242534043_574503332_n.jpg,food,0.9921267032623291
,no person,0.9807425737380981
,delicious,0.9699515104293823
,refreshment,0.9427164793014526
,sweet,0.9296201467514038
,cream,0.9271914958953857
,traditional,0.9143942594528198
,fruit,0.9101868271827698
,homemade,0.8970779180526733
,epicure,0.895740270614624
,closeup,0.8856507539749146
,grow,0.8801028728485107
,dairy product,0.8798640966415405
,meal,0.8769527673721313
,tasty,0.8729473352432251
,vegetable,0.8711000084877014
,hot,0.8648858070373535
,cooking,0.8558651208877563
,sugar,0.8540242910385132
,herb,0.8514219522476196
https://scontent-sit4-1.cdninstagram.com/t51.2885-15/e35/13696978_118557411915987_1016703972_n.jpg,city,0.99637770652771
,architecture,0.9925514459609985
,cityscape,0.9925130605697632
,travel,0.9864456653594971
,skyline,0.9836404323577881
,downtown,0.9832813739776611
,skyscraper,0.9782682657241821
,building,0.9679306745529175
,urban,0.9647982716560364
,no person,0.9584237337112427
,water,0.954983115196228
,street,0.9474988579750061
,modern,0.9460347890853882
,outdoors,0.9323461055755615
,sky,0.9301344156265259
,hotel,0.927506685256958
,town,0.9216773509979248
,office,0.9143418073654175
,business,0.9039573669433594
,tower,0.8852827548980713
https://scontent-sit4-1.cdninstagram.com/t51.2885-15/e35/13397453_509489605920535_15953520_n.jpg,food,0.9983647465705872
,dinner,0.9910058975219727
,plate,0.9898353219032288
,meat,0.9883861541748047
,meal,0.9882809519767761
,no person,0.9851387739181519
,dish,0.9817671775817871
,lunch,0.9816690683364868
,grow,0.9790217876434326
,vegetable,0.9705623388290405
,delicious,0.9702134132385254
,chicken,0.9619582891464233
,beef,0.9593018293380737
,tableware,0.9581601023674011
,pork,0.9516794085502625
,cooking,0.9468387365341187
,potato,0.940584659576416
,rice,0.9313637018203735
,cuisine,0.9312489032745361
,dining,0.9308702349662781
https://scontent-sit4-1.cdninstagram.com/t51.2885-15/e35/13525401_262713280756783_545782537_n.jpg,child,0.9807282090187073
,people,0.970842719078064
,fun,0.9630995392799377
,family,0.9557063579559326
,indoors,0.9541672468185425
,woman,0.9483520984649658
,movie,0.932122528553009
,adult,0.9250355958938599
,man,0.9217469096183777
,facial expression,0.8858931660652161
,enjoyment,0.859826922416687
,celebration,0.8535780310630798
,illustration,0.8476383686065674
,happiness,0.8463872671127319
,room,0.8252766132354736
,two,0.8212483525276184
,group,0.8139929175376892
,togetherness,0.8048276901245117
,painting,0.7988327741622925
,festival,0.7955970168113708
https://scontent-sit4-1.cdninstagram.com/t51.2885-15/e35/13392705_1032984453416940_919683942_n.jpg,food,0.9978452920913696
,delicious,0.9932306408882141
,rice,0.9929016828536987
,seafood,0.9869345426559448
,dinner,0.9829376935958862
,shrimp,0.9800784587860107
,lunch,0.9788833856582642
,vegetable,0.9761528372764587
,no person,0.9760267734527588
,meal,0.9691668748855591
,fish,0.9684581756591797
,dish,0.967715322971344
,grow,0.9675184488296509
,prawn,0.9634944200515747
,cooking,0.9529711604118347
,shellfish,0.9521068930625916
,epicure,0.9457306861877441
,chili,0.942347526550293
,plate,0.9407882690429688
,sauce,0.938407301902771
https://scontent-sit4-1.cdninstagram.com/t51.2885-15/e35/13743398_1655073021482042_168392716_n.jpg,no person,0.955247163772583
,food,0.9461007118225098
,desktop,0.9460619688034058
,decoration,0.9220840930938721
,color,0.8977547883987427
,sweet,0.8922934532165527
,wooden,0.885340690612793
,table,0.8609349727630615
,wood,0.8608083724975586
,fruit,0.8516497611999512
,ball,0.8214858770370483
,design,0.8203091621398926
,still life,0.8087003827095032
,celebration,0.7926058769226074
,texture,0.7802479267120361
,closeup,0.7773322463035583
,round,0.7701520919799805
,vertical,0.7628079652786255
,delicious,0.7352322340011597
,family,0.727490246295929
https://scontent-sit4-1.cdninstagram.com/t51.2885-15/e35/13413309_1106434676095894_2103457206_n.jpg,no person,0.9925480484962463
,food,0.989593505859375
,dinner,0.9837262630462646
,lunch,0.9832333326339722
,homemade,0.9779999852180481
,delicious,0.975528359413147
,cooking,0.9748568534851074
,breakfast,0.9631290435791016
,dish,0.9606454968452454
,bread,0.953457236289978
,meal,0.9380037784576416
,knife,0.9308798313140869
,traditional,0.9293267726898193
,plate,0.9223880767822266
,dining,0.9185141921043396
,hot,0.9181582927703857
,baking,0.9178404808044434
,nutrition,0.9148906469345093
,cream,0.8927717804908752
,brunch,0.8858885765075684
https://scontent-sit4-1.cdninstagram.com/t51.2885-15/e35/13395028_1075767175849177_963469812_n.jpg,food,0.9907889366149902
,no person,0.9841814041137695
,dinner,0.9788867235183716
,delicious,0.9781085252761841
,lunch,0.9778577089309692
,meal,0.9631125926971436
,bread,0.9629995822906494
,breakfast,0.9572259187698364
,plate,0.9506670832633972
,bacon,0.9448230266571045
,knife,0.9421082735061646
,dining,0.9297807216644287
,meat,0.927741527557373
,nutrition,0.9199108481407166
,vegetable,0.9182650446891785
,cheese,0.9135297536849976
,grow,0.9129659533500671
,fork,0.911717414855957
,cutlery,0.906653881072998
,dish,0.9059877395629883
https://scontent-sit4-1.cdninstagram.com/t51.2885-15/e35/13388568_1127821943954406_1897899439_n.jpg,dinner,0.9952497482299805
,food,0.9951869249343872
,lunch,0.9895937442779541
,meal,0.9811850786209106
,dish,0.9714609384536743
,delicious,0.9691945314407349
,plate,0.964322566986084
,no person,0.9632912874221802
,traditional,0.9576636552810669
,vegetable,0.9576461315155029
,meat,0.9549221992492676
,restaurant,0.9548764228820801
,cooking,0.9507509469985962
,cuisine,0.9505983591079712
,cheese,0.9475749731063843
,pasta,0.9462762475013733
,dining,0.941698431968689
,table,0.9408632516860962
,sauce,0.929904580116272
,nutrition,0.912147045135498
https://scontent-sit4-1.cdninstagram.com/t51.2885-15/e35/13774257_987935514638295_391499682_n.jpg,people,0.9927151203155518
,woman,0.9887637495994568
,two,0.9846757650375366
,adult,0.9739331007003784
,drink,0.970859706401825
,portrait,0.9655296802520752
,indoors,0.9653621912002563
,restaurant,0.9617787599563599
,family,0.9606234431266785
,facial expression,0.9589529633522034
,candle,0.9526575207710266
,celebration,0.9511469602584839
,man,0.9501252770423889
,three,0.9454557299613953
,bar,0.944766640663147
,hotel,0.943240761756897
,enjoyment,0.9420071244239807
,group,0.9246821403503418
,four,0.9194586277008057
,love,0.917923092842102
https://scontent-sit4-1.cdninstagram.com/t51.2885-15/e35/13437427_1713514298908595_498880972_n.jpg,people,0.984620213508606
,restaurant,0.9773739576339722
,food,0.9761518239974976
,man,0.9560789465904236
,meal,0.9420017004013062
,lunch,0.9395931959152222
,dining,0.9295151233673096
,group,0.9290244579315186
,fish,0.9289543628692627
,woman,0.923719048500061
,seafood,0.9114910364151001
,dinner,0.9010727405548096
,adult,0.884204626083374
,stock,0.8494413495063782
,many,0.8346608877182007
,buffet,0.8316850662231445
,cooking,0.8304276466369629
,market,0.8288640975952148
,city,0.8262606263160706
,booth,0.8196216821670532
https://scontent-sit4-1.cdninstagram.com/t51.2885-15/e35/13643488_1116905845066982_571853037_n.jpg,no person,0.9905756711959839
,food,0.9890850186347961
,cream,0.988375186920166
,sweet,0.9883400201797485
,fruit,0.9797729253768921
,chocolate,0.9776345491409302
,delicious,0.9549359083175659
,sugar,0.944538950920105
,dairy product,0.9440781474113464
,creamy,0.9392491579055786
,milk,0.937427282333374
,indulgence,0.9322349429130554
,ice,0.9317338466644287
,vanilla,0.9165694713592529
,scoop,0.9110987186431885
,homemade,0.9103400707244873
,glass,0.9050552845001221
,refreshment,0.9019390344619751
,berry,0.9007447361946106
,strawberry,0.8961139917373657
https://scontent-sit4-1.cdninstagram.com/t51.2885-15/e35/13736058_308423299496035_1641794931_n.jpg,food,0.9910054206848145
,rice,0.98378586769104
,dinner,0.9810947179794312
,no person,0.9779298901557922
,delicious,0.9742493033409119
,lunch,0.9736090898513794
,meat,0.9592911005020142
,pork,0.952518105506897
,cooking,0.950864315032959
,meal,0.9498412609100342
,beef,0.9421267509460449
,hot,0.9365547895431519
,dish,0.9362976551055908
,chicken,0.9271706342697144
,traditional,0.9241683483123779
,pepper,0.9190288782119751
,vegetable,0.9183692932128906
,cuisine,0.9123468995094299
,restaurant,0.884562611579895
,plate,0.8727653622627258
https://scontent-sit4-1.cdninstagram.com/t51.2885-15/e35/13402555_279501092401574_1956019891_n.jpg,no person,0.9921020269393921
,chocolate,0.98697829246521
,food,0.9856505990028381
,cake,0.973138689994812
,delicious,0.9577748775482178
,sweet,0.9490724802017212
,sugar,0.9340887069702148
,cream,0.9176419973373413
,people,0.9085150957107544
,little,0.907993495464325
,slice,0.8968619108200073
,breakfast,0.8965576887130737
,pastry,0.887642502784729
,baking,0.8804985284805298
,indulgence,0.8785505890846252
,candy,0.8752844333648682
,custard,0.8614864349365234
,one,0.8520073890686035
,unhealthy,0.8415819406509399
,homemade,0.8410164713859558
https://scontent-sit4-1.cdninstagram.com/t51.2885-15/e35/13694511_641671975989636_1627618254_n.jpg,lunch,0.9909548759460449
,food,0.9879353046417236
,dinner,0.9869836568832397
,tableware,0.9817818999290466
,meal,0.9791948199272156
,vegetable,0.978351354598999
,dish,0.9778429269790649
,flatware,0.9767278432846069
,plate,0.9731065034866333
,grow,0.9645029902458191
,cuisine,0.9577192068099976
,dining,0.9570683240890503
,restaurant,0.9553451538085938
,appetizer,0.9546375274658203
,soup,0.9510495066642761
,mouth-watering,0.9473571181297302
,bowl,0.9458909630775452
,cooking,0.939085841178894
,cutlery,0.929707407951355
,no person,0.9245855808258057
https://scontent-sit4-1.cdninstagram.com/t51.2885-15/e35/13651766_364249097032680_977081208_n.jpg,no person,0.974035382270813
,people,0.9639058113098145
,travel,0.9610594511032104
,tree,0.9605811834335327
,road,0.9578636884689331
,evening,0.9567750096321106
,outdoors,0.9534330368041992
,light,0.9505054950714111
,street,0.939908504486084
,dusk,0.9286165237426758
,illuminated,0.9194135665893555
,park,0.9126349687576294
,sunset,0.9055833220481873
,competition,0.9013466835021973
,building,0.8807702660560608
,action,0.8593546748161316
,city,0.8525247573852539
,landscape,0.846672773361206
,sign,0.8410278558731079
,dawn,0.8314335942268372
https://scontent-sit4-1.cdninstagram.com/t51.2885-15/e35/13381392_1712428549018386_718321000_n.jpg,girl,0.9833991527557373
,people,0.9723653793334961
,family,0.9548628330230713
,portrait,0.9536969065666199
,child,0.947679340839386
,adult,0.9466484785079956
,happiness,0.9444765448570251
,indoors,0.9429562091827393
,woman,0.9425719976425171
,room,0.9243656396865845
,smile,0.8797634840011597
,Christmas,0.867188036441803
,box,0.8532763123512268
,one,0.8523865938186646
,lifestyle,0.8499833345413208
,fun,0.8398209810256958
,beautiful,0.8330336809158325
,cute,0.8168877363204956
,cake,0.8068282008171082
,gift,0.7943218946456909
https://scontent-sit4-1.cdninstagram.com/t51.2885-15/e35/13736920_1558667974439147_1637243699_n.jpg,food,0.9923393726348877
,meal,0.9649331569671631
,bowl,0.9616612195968628
,no person,0.953834056854248
,lunch,0.9537900686264038
,refreshment,0.9518351554870605
,dish,0.9490755796432495
,dinner,0.9479184746742249
,delicious,0.9398238658905029
,crunchy,0.9382444620132446
,nutrition,0.9284142255783081
,meat,0.9190818071365356
,cuisine,0.9123938083648682
,crisp,0.9119641184806824
,vegetable,0.9060379266738892
,healthy,0.9059524536132812
,plate,0.8959068059921265
,gold,0.8871065378189087
,chicken,0.8866128921508789
,tasty,0.8863378167152405
https://scontent-sit4-1.cdninstagram.com/t51.2885-15/e35/13774824_532830450247518_1940892903_n.jpg,people,0.9959731698036194
,adult,0.9769983887672424
,group,0.9677914381027222
,two,0.9647167325019836
,portrait,0.9619091749191284
,music,0.9555254578590393
,festival,0.9495552778244019
,light,0.9460881948471069
,evening,0.9362181425094604
,celebration,0.9341976642608643
,woman,0.9328229427337646
,one,0.931342363357544
,wear,0.9308516383171082
,man,0.9285364151000977
,performance,0.9118329882621765
,vehicle,0.9041759967803955
,recreation,0.9015539288520813
,enjoyment,0.8906065225601196
,musician,0.8877938985824585
,landscape,0.8798030614852905
https://scontent-sit4-1.cdninstagram.com/t51.2885-15/e35/13562093_1792600590959391_895867297_n.jpg,food,0.9982209801673889
,dinner,0.9960007667541504
,lunch,0.9908938407897949
,meat,0.9860761165618896
,meal,0.9850587844848633
,dish,0.9822367429733276
,chicken,0.9806845784187317
,delicious,0.9788369536399841
,no person,0.9756902456283569
,vegetable,0.9746277332305908
,cuisine,0.967749297618866
,plate,0.9630134105682373
,cooking,0.956757128238678
,rice,0.9565592408180237
,hot,0.9548298120498657
,pork,0.9460960626602173
,seafood,0.9457075595855713
,sauce,0.9453459978103638
,bowl,0.9449204206466675
,poultry,0.9423774480819702
https://scontent-sit4-1.cdninstagram.com/t51.2885-15/e35/13381102_529191890615028_336890124_n.jpg,people,0.9937336444854736
,portrait,0.9846519827842712
,woman,0.9832108020782471
,two,0.9814159870147705
,facial expression,0.9813976883888245
,love,0.9767640233039856
,togetherness,0.9748083353042603
,man,0.9741413593292236
,happiness,0.9735199213027954
,affection,0.9721949100494385
,family,0.9694859981536865
,daylight,0.968457818031311
,adult,0.9648303389549255
,child,0.9638506174087524
,interaction,0.9634005427360535
,girl,0.9560957551002502
,enjoyment,0.915258526802063
,brunette,0.9100933074951172
,embrace,0.9054230451583862
,outdoors,0.900718629360199
https://scontent-sit4-1.cdninstagram.com/t51.2885-15/e35/13671878_642543612562403_356693459_n.jpg,wood,0.9911357760429382
,no person,0.9790915250778198
,drink,0.9608027338981628
,food,0.9571347236633301
,table,0.9437726736068726
,hot,0.9409018754959106
,desktop,0.9400915503501892
,wooden,0.938667893409729
,cup,0.9265713691711426
,closeup,0.9174087047576904
,color,0.9112597107887268
,traditional,0.8945214748382568
,still life,0.8843538761138916
,dark,0.8803979158401489
,pot,0.8728618621826172
,Christmas,0.8711217641830444
,nature,0.8591198921203613
,coffee,0.8471935987472534
,rustic,0.842711865901947
,decoration,0.8258484601974487
https://scontent-sit4-1.cdninstagram.com/t51.2885-15/e35/13724449_219199518477700_1677015331_n.jpg,food,0.9969072341918945
,meal,0.9897329807281494
,dish,0.9847197532653809
,dinner,0.9841189384460449
,meat,0.977394163608551
,plate,0.9768259525299072
,vegetable,0.974062979221344
,lunch,0.9735097289085388
,cuisine,0.9692540168762207
,salad,0.9673883318901062
,restaurant,0.965373158454895
,delicious,0.9601331949234009
,epicure,0.9572751522064209
,healthy,0.9563875198364258
,sauce,0.9559298157691956
,tasty,0.9429193735122681
,pepper,0.9404979944229126
,cooking,0.9360568523406982
,hot,0.9219455718994141
,chicken,0.9144026637077332
https://scontent-sit4-1.cdninstagram.com/t51.2885-15/e35/13735868_1013550025431586_714928221_n.jpg,food,0.9989627599716187
,meal,0.9824074506759644
,delicious,0.9811007976531982
,cuisine,0.9792861938476562
,rice,0.9775630235671997
,no person,0.9773590564727783
,cooking,0.9755889177322388
,dish,0.9736239910125732
,restaurant,0.9688555598258972
,sauce,0.9662647843360901
,vegetable,0.9657928943634033
,lunch,0.9629806280136108
,dinner,0.9609377384185791
,hot,0.9602745771408081
,chili,0.9562209844589233
,healthy,0.9552513360977173
,tasty,0.947098433971405
,plate,0.9426535367965698
,egg,0.9424135684967041
,meat,0.9356383681297302
https://scontent-sit4-1.cdninstagram.com/t51.2885-15/e35/13561509_630081303812260_492928062_n.jpg,woman,0.9956315159797668
,people,0.9881963729858398
,facial expression,0.9876319766044617
,indoors,0.9842560291290283
,adult,0.9815517067909241
,togetherness,0.9785057306289673
,man,0.9654042720794678
,happiness,0.9544785618782043
,enjoyment,0.9522425532341003
,cooking,0.9489982724189758
,restaurant,0.9326801300048828
,portrait,0.9204896688461304
,laughing,0.9151887893676758
,group,0.9126176834106445
,friendship,0.897040843963623
,three,0.8821688890457153
,wear,0.8796018362045288
,two,0.8746252059936523
,meal,0.867851734161377
,family,0.8552820682525635
https://scontent-sit4-1.cdninstagram.com/t51.2885-15/e35/13704127_296168120735473_1324021183_n.jpg,food,0.998727560043335
,soup,0.9966910481452942
,meat,0.9933215379714966
,vegetable,0.9879388213157654
,hot,0.983721911907196
,no person,0.9824954271316528
,meal,0.9823358654975891
,cooking,0.9813167452812195
,dish,0.9783185720443726
,dinner,0.9781856536865234
,bowl,0.974810004234314
,lunch,0.9630777835845947
,pork,0.9605259895324707
,cuisine,0.9602499008178711
,onion,0.9470150470733643
,delicious,0.9455665946006775
,restaurant,0.9414842128753662
,sauce,0.9337384700775146
,egg,0.9298697710037231
,broth,0.9223451018333435
https://scontent-sit4-1.cdninstagram.com/t51.2885-15/e35/13584284_1023330721107643_576734359_n.jpg,no person,0.9898840188980103
,business,0.8797008991241455
,paper,0.8461174964904785
,travel,0.8249257802963257
,spherical,0.819738507270813
,internet,0.8162920475006104
,leisure,0.7876139283180237
,success,0.7849366664886475
,money,0.7766742706298828
,identity,0.7687411308288574
,indoors,0.7652127742767334
,shopping,0.7608617544174194
,recreation,0.7499315738677979
,data,0.728136420249939
,people,0.7248016595840454
,technology,0.7209488749504089
,finance,0.7168574333190918
,woman,0.7081466317176819
,commerce,0.7041693925857544
,wealth,0.6961395740509033
https://scontent-sit4-1.cdninstagram.com/t51.2885-15/e35/13658733_639136746237985_2104818875_n.jpg,french fries,0.9943783283233643
,no person,0.9919829368591309
,lunch,0.9910988807678223
,food,0.9865143299102783
,dinner,0.9863373041152954
,delicious,0.9763733148574829
,meal,0.9431827664375305
,unhealthy,0.9299118518829346
,meat,0.9281535148620605
,bread,0.9240052700042725
,fast,0.9204342365264893
,bacon,0.9160988330841064
,beef,0.9151124954223633
,cheese,0.9076858758926392
,nutrition,0.903949499130249
,tomato,0.898820161819458
,plate,0.8802248239517212
,fish,0.8769021034240723
,chicken,0.876022458076477
,dining,0.8685621023178101
