url,class,score
https://scontent-sit4-1.cdninstagram.com/t51.2885-15/e35/11313614_1657548394502049_491594246_n.jpg,food,0.9799307584762573
,summer,0.9253960847854614
,hand,0.9167997241020203
,restaurant,0.8998980522155762
,fish,0.8852941989898682
,healthy,0.8833213448524475
,no person,0.8798415660858154
,meal,0.8753228783607483
,plate,0.8753133416175842
,delicious,0.8751108050346375
,epicure,0.8664792776107788
,seafood,0.864600658416748
,outdoors,0.8629881143569946
,leaf,0.858788013458252
,desktop,0.8532384634017944
,flower,0.8523707389831543
,light,0.8513888120651245
,closeup,0.849349856376648
,dinner,0.8448777794837952
,nature,0.8423997163772583
https://scontent-sit4-1.cdninstagram.com/t51.2885-15/e15/1940981_768901523122714_189770887_n.jpg,chair,0.9828997850418091
,luxury,0.9711077213287354
,no person,0.9659558534622192
,wood,0.9626436233520508
,hotel,0.9568089246749878
,seat,0.9529229402542114
,garden,0.9525749683380127
,table,0.9521113634109497
,house,0.9482027292251587
,design,0.9423622488975525
,modern,0.9414811134338379
,travel,0.9406745433807373
,architecture,0.9404751062393188
,light,0.9322695732116699
,tree,0.9302109479904175
,building,0.9277727007865906
,resort,0.9265521764755249
,outdoors,0.9167568683624268
,old,0.9162741899490356
,lamp,0.912055492401123
https://scontent-sit4-1.cdninstagram.com/t51.2885-15/e35/12345761_116833415354583_1619676523_n.jpg,people,0.9873758554458618
,water,0.9761379957199097
,one,0.9642814993858337
,travel,0.9625349044799805
,woman,0.9571436643600464
,adult,0.950524091720581
,recreation,0.9364779591560364
,outdoors,0.9349266886711121
,leisure,0.9240871667861938
,girl,0.9194301962852478
,blur,0.9170373678207397
,summer,0.907955527305603
,light,0.9018199443817139
,music,0.8993037343025208
,water,0.8974558115005493
,beach,0.8945199847221375
,festival,0.8885213136672974
,action,0.8877542018890381
,sea,0.8775238990783691
,vehicle,0.8770133256912231
https://scontent-sit4-1.cdninstagram.com/t51.2885-15/e15/924510_375932242546108_2073822688_n.jpg,portrait,0.9985132217407227
,people,0.9965428709983826
,facial expression,0.9954380989074707
,adult,0.9951287508010864
,two,0.9907987713813782
,man,0.9825172424316406
,woman,0.9816210269927979
,happiness,0.9720054864883423
,wear,0.9702222347259521
,interaction,0.9663504362106323
,love,0.9642928242683411
,girl,0.9600227475166321
,togetherness,0.946138322353363
,affection,0.935551106929779
,movie,0.899760365486145
,eyewear,0.8985112309455872
,boy,0.8963287472724915
,face,0.8725522756576538
,indoors,0.8712819218635559
,music,0.8648017048835754
https://scontent-sit4-1.cdninstagram.com/t51.2885-15/e15/1889269_246903422157939_1160649573_n.jpg,people,0.9902624487876892
,portrait,0.9899582862854004
,two,0.9811297655105591
,woman,0.9791351556777954
,man,0.9705692529678345
,adult,0.9620903134346008
,facial expression,0.94761061668396
,eyewear,0.9465294480323792
,movie,0.9423632025718689
,wear,0.9417389035224915
,eyeglasses,0.9417170286178589
,girl,0.9343136548995972
,love,0.9224749803543091
,interaction,0.9213113188743591
,group,0.9156190156936646
,fashion,0.9118481874465942
,music,0.9115644693374634
,togetherness,0.9072721004486084
,festival,0.8912515044212341
,happiness,0.8533999919891357
https://scontent-sit4-1.cdninstagram.com/t51.2885-15/e35/12356605_140581972978680_1640965467_n.jpg,food,0.9953661561012268
,pasta,0.9918664693832397
,dinner,0.9888372421264648
,lunch,0.9830643534660339
,meal,0.9801589250564575
,vegetable,0.9749597311019897
,dish,0.9685217142105103
,tomato,0.9682710766792297
,cuisine,0.9651544094085693
,plate,0.9641138315200806
,no person,0.9640909433364868
,macaroni,0.9583019018173218
,healthy,0.9580556154251099
,delicious,0.9487161636352539
,nutrition,0.9466186761856079
,cooking,0.9454939365386963
,sauce,0.937739372253418
,cheese,0.9337772130966187
,diet,0.930284857749939
,meat,0.9262326955795288
https://scontent-sit4-1.cdninstagram.com/t51.2885-15/e15/928317_660831373991059_1493509276_n.jpg,cold,0.9966742396354675
,coffee,0.9962779879570007
,ice,0.9959099888801575
,cream,0.9946475028991699
,drink,0.9943512678146362
,milk,0.9936761856079102
,cup,0.9932171106338501
,food,0.9751834869384766
,cappuccino,0.9724804759025574
,dairy product,0.9708934426307678
,foam,0.967727780342102
,no person,0.9605880975723267
,glass,0.9566828012466431
,dawn,0.9555330276489258
,breakfast,0.9538769125938416
,creamy,0.9522088766098022
,espresso,0.9490083456039429
,sweet,0.9479984045028687
,scoop,0.9448487162590027
,caffeine,0.9414454102516174
https://scontent-sit4-1.cdninstagram.com/t51.2885-15/e15/10727287_563729360426616_1836637343_n.jpg,food,0.9955277442932129
,fruit,0.9878639578819275
,no person,0.9829440116882324
,still life,0.978476345539093
,cake,0.9562909007072449
,grow,0.9529745578765869
,apple,0.9423474073410034
,dairy product,0.9421682953834534
,sweet,0.9396908283233643
,people,0.9305927753448486
,candle,0.9032416939735413
,cheese,0.8996341228485107
,drink,0.899559497833252
,plate,0.8976022005081177
,pastry,0.860608696937561
,indoors,0.8532960414886475
,sugar,0.8532715439796448
,strawberry,0.8488977551460266
,berry,0.8411272764205933
,sponge,0.8398290276527405
https://scontent-sit4-1.cdninstagram.com/t51.2885-15/e15/10175221_279492122212495_325548444_n.jpg,no person,0.9954143166542053
,bread,0.99462890625
,food,0.9935795068740845
,bacon,0.9846023321151733
,sandwich,0.977056622505188
,ham,0.9761251211166382
,cheese,0.975922167301178
,dairy product,0.9757012724876404
,lunch,0.9693227410316467
,breakfast,0.9677181243896484
,delicious,0.9612044095993042
,toast,0.9501188397407532
,lettuce,0.9466040730476379
,meat,0.9438259601593018
,unhealthy,0.9325097799301147
,nutrition,0.9278401136398315
,meal,0.9225773811340332
,dinner,0.9138809442520142
,still life,0.900837779045105
,egg,0.8964808583259583
https://scontent-sit4-1.cdninstagram.com/t51.2885-15/s750x750/sh0.08/e35/12728667_215551442129581_2060665632_n.jpg,conceptual,0.9513461589813232
,business,0.9456983804702759
,data,0.9306900501251221
,no person,0.8837460875511169
,success,0.8076392412185669
,internet,0.7848895788192749
,travel,0.7666115760803223
,spherical,0.7634423971176147
,service,0.7358869910240173
,money,0.7187666893005371
,security,0.7181419730186462
,World Wide Web,0.6985678672790527
,data,0.6977187991142273
,desktop,0.6830838918685913
,presentation,0.6825087070465088
,education,0.6821543574333191
,order,0.6819589734077454
,navigation,0.6710507869720459
,strategy,0.6687902212142944
,give voice,0.6587352752685547
https://scontent-sit4-1.cdninstagram.com/t51.2885-15/e35/12317312_1616072915320752_196376693_n.jpg,cream,0.9966070652008057
,vanilla,0.9847908020019531
,dairy product,0.9763436317443848
,sweet,0.9746558666229248
,cone,0.9736294150352478
,people,0.9709337949752808
,milk,0.9696449041366577
,creamy,0.9671056270599365
,chocolate,0.9620059728622437
,food,0.9289235472679138
,scoop,0.9075461626052856
,delicious,0.9069534540176392
,two,0.8920043706893921
,sugar,0.8641400337219238
,goody,0.8619874715805054
,cup,0.853234052658081
,dairy,0.8478071689605713
,one,0.8381171226501465
,cake,0.8368245363235474
,no person,0.8138924837112427
https://scontent-sit4-1.cdninstagram.com/t51.2885-15/e15/11287792_1014809108581642_884872740_n.jpg,two,0.9922704100608826
,people,0.9886305928230286
,portrait,0.9879186749458313
,facial expression,0.9863572120666504
,love,0.9827351570129395
,woman,0.9806034564971924
,adult,0.9759092330932617
,happiness,0.9727468490600586
,togetherness,0.9721109867095947
,man,0.9689868688583374
,wear,0.9639888405799866
,interaction,0.9494775533676147
,girl,0.9404315948486328
,affection,0.9393865466117859
,romance,0.928647518157959
,eyewear,0.911547064781189
,fun,0.8968037366867065
,friendship,0.8926268815994263
,indoors,0.879883885383606
,family,0.8772188425064087
https://scontent-sit4-1.cdninstagram.com/t51.2885-15/e15/10802774_1752944824929654_1892064191_n.jpg,portrait,0.9938580989837646
,girl,0.9911708235740662
,woman,0.9860703945159912
,people,0.9800748825073242
,fashion,0.9699702858924866
,eye,0.9539441466331482
,cute,0.9524367451667786
,model,0.9510659575462341
,child,0.9482343196868896
,pretty,0.9286251068115234
,one,0.9198811054229736
,facial expression,0.9013888835906982
,smile,0.9011787176132202
,face,0.9005045890808105
,adolescent,0.8889397382736206
,hair,0.8879393339157104
,studio,0.8739461898803711
,joy,0.8704007863998413
,sexy,0.8443697094917297
,fun,0.8368636965751648
https://scontent-sit4-1.cdninstagram.com/t51.2885-15/e15/10453929_511382175627894_1833859798_n.jpg,landscape,0.9959813356399536
,tree,0.9886879920959473
,grass,0.9806331992149353
,nature,0.975428581237793
,field,0.9595316648483276
,hayfield,0.9552170634269714
,golf,0.9513528347015381
,dawn,0.9511920213699341
,no person,0.9460009336471558
,sky,0.9447058439254761
,sunset,0.9365867376327515
,countryside,0.9360231161117554
,rural,0.934745192527771
,sun,0.927503764629364
,fog,0.9229346513748169
,fall,0.9205114841461182
,scenic,0.9090985655784607
,cloud,0.9087837934494019
,mist,0.9057532548904419
,summer,0.9038057327270508
https://scontent-sit4-1.cdninstagram.com/t51.2885-15/e15/10576055_1547806918775605_72030971_n.jpg,no person,0.9945187568664551
,food,0.9913400411605835
,dairy product,0.9876097440719604
,tableware,0.9828816652297974
,one,0.9744784832000732
,cup,0.9695691466331482
,drink,0.9642186164855957
,cream,0.9469516277313232
,chocolate,0.9363089799880981
,container,0.9122276306152344
,flatware,0.9098162651062012
,coffee,0.8958518505096436
,cake,0.8946945667266846
,kitchenware,0.8900468349456787
,sweet,0.8762377500534058
,bowl,0.8632991313934326
,people,0.8589104413986206
,plate,0.857513427734375
,ceramic,0.8539519309997559
,creamy,0.8244146108627319
https://scontent-sit4-1.cdninstagram.com/t51.2885-15/e15/10246086_239518722909874_693106240_n.jpg,portrait,0.992254376411438
,people,0.9896619319915771
,girl,0.9872463941574097
,woman,0.9840342402458191
,love,0.9839510917663574
,child,0.9763345718383789
,togetherness,0.969343900680542
,two,0.9687747955322266
,fun,0.9673274755477905
,facial expression,0.959563136100769
,happiness,0.9340212345123291
,boy,0.9324106574058533
,man,0.9204721450805664
,adult,0.9201627969741821
,affection,0.9201192855834961
,friendship,0.9133254289627075
,cute,0.9097084999084473
,joy,0.9062082767486572
,adolescent,0.9023376107215881
,embrace,0.8903787136077881
https://scontent-sit4-1.cdninstagram.com/t51.2885-15/e15/10488647_1445528055700377_1885744302_n.jpg,portrait,0.9818720817565918
,people,0.9791784286499023
,woman,0.9767572283744812
,paper,0.9752944707870483
,adult,0.9653013944625854
,identity,0.9475623965263367
,collection,0.9470996856689453
,vertical,0.943570613861084
,collage,0.9414219260215759
,headshot,0.9410277605056763
,man,0.9279637932777405
,card,0.9075832366943359
,communication,0.9050788879394531
,horizontal,0.8959388732910156
,child,0.8933448791503906
,education,0.8701550960540771
,bill,0.8562731742858887
,cover,0.8555280566215515
,old,0.8454936146736145
,indoors,0.8445448875427246
https://scontent-sit4-1.cdninstagram.com/t51.2885-15/e15/10424606_734760989914933_560363223_n.jpg,no person,0.9839870929718018
,sweet,0.9819436073303223
,confection,0.9684648513793945
,food,0.9677701592445374
,still life,0.9642765522003174
,chocolate,0.9519543051719666
,candy,0.9506434798240662
,sugar,0.9474020004272461
,fruit,0.9417281150817871
,Christmas,0.9071714878082275
,dark,0.9066268801689148
,love,0.9038385152816772
,cookie,0.9012888669967651
,indoors,0.8979377150535583
,desktop,0.8973263502120972
,cake,0.8902840614318848
,color,0.8765033483505249
,delicious,0.8759512901306152
,berry,0.8756754994392395
,goody,0.8721925020217896
https://scontent-sit4-1.cdninstagram.com/t51.2885-15/e15/10413786_246168758910012_1487833740_n.jpg,no person,0.9865247011184692
,wood,0.9801997542381287
,traditional,0.9523013830184937
,pot,0.9192870855331421
,hot,0.9178421497344971
,food,0.8997459411621094
,table,0.8808634281158447
,tea,0.8663763999938965
,health,0.8632372617721558
,wooden,0.8561441898345947
,cooking,0.842205822467804
,breakfast,0.8344256281852722
,indoors,0.8277403712272644
,text,0.8138032555580139
,retro,0.8060988187789917
,cup,0.8009626865386963
,container,0.7802402973175049
,drink,0.7746155858039856
,spoon,0.7235196828842163
,education,0.7224894165992737
https://scontent-sit4-1.cdninstagram.com/t51.2885-15/e15/10448857_1519450658283042_1666993708_n.jpg,shellfish,0.9989382028579712
,invertebrate,0.9986199140548706
,shell,0.9977490901947021
,crustacean,0.9977337121963501
,marine,0.9971333742141724
,sea,0.9950700998306274
,ocean,0.9949047565460205
,crab,0.9928547143936157
,water,0.9925293326377869
,wildlife,0.9894214272499084
,beach,0.9888238906860352
,nature,0.9886944890022278
,environment,0.9873356223106384
,fish,0.9854843616485596
,animal,0.984677791595459
,seashore,0.977704644203186
,sand,0.9763233661651611
,no person,0.9747712016105652
,seashell,0.9729528427124023
,aquatic,0.9680508375167847
https://scontent-sit4-1.cdninstagram.com/t51.2885-15/e35/12393674_812527762190577_1975864061_n.jpg,food,0.9979046583175659
,egg,0.9977744817733765
,no person,0.9831103682518005
,meal,0.9785729050636292
,breakfast,0.9682171940803528
,plate,0.9664334654808044
,dish,0.9643272161483765
,delicious,0.9640249013900757
,rice,0.952735185623169
,dinner,0.9506587982177734
,vegetable,0.9496210813522339
,cooking,0.9433151483535767
,cuisine,0.9362483024597168
,lunch,0.9322342872619629
,chicken,0.9241856336593628
,egg yolk,0.923378586769104
,grow,0.9169355034828186
,pepper,0.8995704650878906
,nutrition,0.8986481428146362
,hot,0.8966370224952698
https://scontent-sit4-1.cdninstagram.com/t51.2885-15/e35/12353255_1538212249830061_1651522651_n.jpg,music,0.9895133972167969
,people,0.9894905090332031
,festival,0.9886574745178223
,performance,0.9695754051208496
,blur,0.9674215316772461
,light,0.9646665453910828
,concert,0.9616235494613647
,city,0.961235523223877
,street,0.9562329053878784
,musician,0.9483122229576111
,woman,0.9071988463401794
,travel,0.905083179473877
,action,0.900770902633667
,party,0.8981221914291382
,vehicle,0.8951224088668823
,adult,0.8907049298286438
,competition,0.8877419233322144
,band,0.8870135545730591
,nightlife,0.880903959274292
,building,0.8788280487060547
https://scontent-sit4-1.cdninstagram.com/t51.2885-15/e15/10358196_571817562938582_1422119223_n.jpg,tree,0.9949638843536377
,no person,0.9931175112724304
,nature,0.9886531829833984
,landscape,0.9882895946502686
,wood,0.9871554970741272
,leaf,0.9646995663642883
,dawn,0.9509347677230835
,outdoors,0.9505051970481873
,oak,0.9498720765113831
,sky,0.9316343069076538
,fall,0.9273775815963745
,sun,0.9198712706565857
,environment,0.9167523384094238
,water,0.9103699326515198
,branch,0.9069774150848389
,fair weather,0.9029830694198608
,park,0.8985562324523926
,summer,0.8844736218452454
,sunset,0.865800142288208
,fog,0.8626619577407837
https://scontent-sit4-1.cdninstagram.com/t51.2885-15/e15/10424577_326579810826321_1331248245_n.jpg,no person,0.9740701913833618
,travel,0.9530402421951294
,street,0.9422327280044556
,stone,0.928316593170166
,outdoors,0.9218563437461853
,nature,0.9143060445785522
,old,0.9116911888122559
,architecture,0.911353588104248
,water,0.9016026258468628
,road,0.8891047239303589
,tree,0.8560971021652222
,calamity,0.854780375957489
,light,0.8481597900390625
,rain,0.8354690074920654
,step,0.831035852432251
,shadow,0.8274713754653931
,summer,0.8273642659187317
,city,0.8175572156906128
,wall,0.8048321008682251
,soil,0.8043891191482544
https://scontent-sit4-1.cdninstagram.com/t51.2885-15/e15/10268766_303930013097487_1774948433_n.jpg,portrait,0.9940587282180786
,girl,0.9934055805206299
,people,0.9928325414657593
,woman,0.9899116158485413
,facial expression,0.9878643155097961
,one,0.9723004698753357
,adult,0.9691442251205444
,wear,0.9500647783279419
,indoors,0.9391710758209229
,brunette,0.9213341474533081
,happiness,0.9161776900291443
,child,0.9145415425300598
,model,0.902332067489624
,face,0.8845204710960388
,adolescent,0.878010630607605
,room,0.866132378578186
,fashion,0.8544961214065552
,music,0.854263424873352
,fun,0.8256144523620605
,cute,0.8210651874542236
https://scontent-sit4-1.cdninstagram.com/t51.2885-15/e15/10311198_278421588995452_2093957172_n.jpg,portrait,0.9961233139038086
,people,0.9951854348182678
,woman,0.9904695153236389
,two,0.98781418800354
,adult,0.9873904585838318
,facial expression,0.9839984774589539
,man,0.974043607711792
,girl,0.9727668762207031
,love,0.9640445113182068
,interaction,0.955443263053894
,wear,0.9532703757286072
,togetherness,0.9420109987258911
,indoors,0.9267853498458862
,child,0.9167368412017822
,happiness,0.9027301073074341
,fashion,0.875478982925415
,eyewear,0.8712731599807739
,affection,0.8591811656951904
,romance,0.855986475944519
,friendship,0.8290615677833557
https://scontent-sit4-1.cdninstagram.com/t51.2885-15/e35/12628025_990960067636339_619911459_n.jpg,food,0.9979156255722046
,sweet,0.9943687319755554
,no person,0.9903484582901001
,chocolate,0.9850060939788818
,sugar,0.9779840707778931
,delicious,0.9773271679878235
,fruit,0.971449077129364
,grow,0.9656622409820557
,cake,0.9600434303283691
,dairy product,0.9541881084442139
,cream,0.9447731971740723
,pastry,0.9424325227737427
,baking,0.9422770738601685
,refreshment,0.9419211149215698
,plate,0.9363745450973511
,indulgence,0.9348031282424927
,desktop,0.9277236461639404
,breakfast,0.9124966859817505
,still life,0.9106698036193848
,closeup,0.9050461649894714
https://scontent-sit4-1.cdninstagram.com/t51.2885-15/e35/12362481_486880931494161_1888383285_n.jpg,food,0.9989149570465088
,vegetable,0.9959118366241455
,healthy,0.9891566634178162
,meal,0.9872639179229736
,dish,0.9864622354507446
,plate,0.9836798906326294
,dinner,0.9819353818893433
,diet,0.9802002906799316
,grow,0.9799045324325562
,bowl,0.9779433012008667
,cuisine,0.9770169854164124
,lunch,0.976033091545105
,salad,0.9699379205703735
,pepper,0.9661983251571655
,tasty,0.9643568992614746
,epicure,0.9642622470855713
,appetizer,0.9575920104980469
,tomato,0.9539196491241455
,delicious,0.949905276298523
,nutrition,0.9487313032150269
https://scontent-sit4-1.cdninstagram.com/t51.2885-15/e35/13743307_610338149144922_2027787030_n.jpg,stage,0.999359130859375
,theater,0.9951598644256592
,auditorium,0.9932785630226135
,movie,0.9911680221557617
,performance,0.9883905649185181
,velvet,0.9847497344017029
,audience,0.9839568734169006
,theater,0.9750266671180725
,curtain,0.9749581217765808
,concert,0.9731777906417847
,opera,0.9729902744293213
,spotlight,0.9628379344940186
,circus,0.9541150331497192
,show,0.9528963565826416
,play,0.9411079287528992
,music,0.9313894510269165
,Broadway,0.9311276078224182
,festival,0.9256393313407898
,ceremony,0.9220093488693237
,dark,0.9022567272186279
https://scontent-sit4-1.cdninstagram.com/t51.2885-15/e15/927940_496282587160340_1364422685_n.jpg,pasta,0.9996249079704285
,dinner,0.9954636693000793
,lunch,0.9941815137863159
,noodles,0.9929803609848022
,food,0.9925485849380493
,spaghetti,0.9894963502883911
,macaroni,0.9884366989135742
,delicious,0.9827436208724976
,dish,0.9746921062469482
,meal,0.9730767011642456
,penne,0.9730006456375122
,sauce,0.9713003039360046
,cuisine,0.9689373970031738
,no person,0.9684139490127563
,nutrition,0.9576390981674194
,plate,0.9574278593063354
,basil,0.9508483409881592
,cooking,0.9475767612457275
,tasty,0.9263037443161011
,cheese,0.9246630668640137
https://scontent-sit4-1.cdninstagram.com/t51.2885-15/e35/12729514_1124232680930137_1089574293_n.jpg,indoors,0.9580855369567871
,technology,0.9490842223167419
,no person,0.942185640335083
,business,0.9202396869659424
,people,0.9099063873291016
,food,0.8922033309936523
,display,0.8883201479911804
,drink,0.8446322679519653
,adult,0.8419589996337891
,horizontal,0.8398538827896118
,man,0.8376213312149048
,stock,0.8316861391067505
,industry,0.8255959749221802
,travel,0.8233113288879395
,identity,0.8167513012886047
,communication,0.8089479804039001
,computer,0.8080960512161255
,coffee,0.8080121874809265
,science,0.8077053427696228
,commerce,0.7982141971588135
https://scontent-sit4-1.cdninstagram.com/t51.2885-15/e15/927695_331626376987693_1648919043_n.jpg,sign,0.9964855909347534
,no person,0.9864075183868408
,road,0.9718029499053955
,street,0.9631129503250122
,outdoors,0.9589895009994507
,sign,0.9584450721740723
,travel,0.9564070701599121
,bill,0.929498553276062
,sky,0.9228513240814209
,people,0.9228082895278931
,sign,0.9172321557998657
,rally,0.9074234962463379
,education,0.887478768825531
,text,0.8809148073196411
,finance,0.877619743347168
,city,0.8713765144348145
,park,0.8704847097396851
,building,0.8704751133918762
,administration,0.852257490158081
,offense,0.8497095108032227
https://scontent-sit4-1.cdninstagram.com/t51.2885-15/e35/13525545_1218954398148952_1311932967_n.jpg,architecture,0.9960837364196777
,travel,0.9893296957015991
,building,0.9833552837371826
,city,0.9795953035354614
,no person,0.9649640321731567
,outdoors,0.9596226215362549
,sky,0.9424068331718445
,square,0.941453218460083
,tourism,0.9378117322921753
,administration,0.9296419620513916
,landmark,0.9261652231216431
,religion,0.9238576889038086
,dome,0.889477550983429
,monument,0.8767167329788208
,facade,0.8766400218009949
,fountain,0.8721140623092651
,tower,0.8707567453384399
,old,0.865405797958374
,tourist,0.8577355146408081
,castle,0.8476115465164185
https://scontent-sit4-1.cdninstagram.com/t51.2885-15/e35/12357670_1734632290098827_1783123910_n.jpg,business,0.9498233199119568
,no person,0.8609726428985596
,number,0.860059380531311
,graphic,0.8557804822921753
,blur,0.8118345141410828
,illustration,0.8070040941238403
,text,0.7911759614944458
,abstract,0.7792659401893616
,administration,0.6996579766273499
,presentation,0.6886839270591736
,bill,0.6844476461410522
,light,0.6812747120857239
,education,0.6785708069801331
,travel,0.6479353904724121
,page,0.6465122699737549
,data,0.6357332468032837
,money,0.633065402507782
,banner,0.6222546100616455
,paper,0.6219849586486816
,card,0.6200804710388184
https://scontent-sit4-1.cdninstagram.com/t51.2885-15/e35/13269592_255391521489034_1425734892_n.jpg,food,0.9989341497421265
,cooking,0.991965651512146
,soup,0.9875297546386719
,restaurant,0.9812530279159546
,meal,0.9794125556945801
,pan,0.9764781594276428
,dinner,0.9698138236999512
,seafood,0.9679204821586609
,fish,0.965995728969574
,cuisine,0.9577832221984863
,hot,0.9534734487533569
,pot,0.950308620929718
,vegetable,0.9436137676239014
,healthy,0.9426736831665039
,lunch,0.9384151101112366
,bowl,0.9361952543258667
,meat,0.9358410239219666
,traditional,0.934961199760437
,delicious,0.9319450855255127
,dish,0.9128184914588928
https://scontent-sit4-1.cdninstagram.com/t51.2885-15/e15/10731565_1405101773098280_1688392989_n.jpg,people,0.9954684972763062
,man,0.992556095123291
,portrait,0.9904762506484985
,adult,0.9901242852210999
,one,0.9877467751502991
,music,0.9548547267913818
,indoors,0.9539918899536133
,eyewear,0.9400779008865356
,wear,0.9341220855712891
,musician,0.9328016042709351
,education,0.8931046724319458
,eyeglasses,0.8625928163528442
,recreation,0.8592711687088013
,festival,0.8590280413627625
,singer,0.8561055660247803
,facial expression,0.8390592932701111
,boy,0.8359178304672241
,school,0.8323038816452026
,room,0.8242529630661011
,sunglasses,0.820496678352356
https://scontent-sit4-1.cdninstagram.com/t51.2885-15/e35/12930684_468040650058567_642482863_n.jpg,street,0.991493821144104
,architecture,0.9883203506469727
,city,0.9874202013015747
,building,0.979994535446167
,modern,0.9794051051139832
,light,0.9786467552185059
,travel,0.9754148721694946
,urban,0.9754005670547485
,hotel,0.9718616604804993
,business,0.9605109095573425
,downtown,0.9520074129104614
,water,0.9472155570983887
,road,0.941197395324707
,reflection,0.927199125289917
,office,0.9148455858230591
,traffic,0.9109456539154053
,skyscraper,0.9082305431365967
,outdoors,0.9077590107917786
,no person,0.9034752249717712
,sky,0.9027920961380005
https://scontent-sit4-1.cdninstagram.com/l/t51.2885-15/e15/10413245_1464799720428298_1587959324_n.jpg,bridge,0.9814407825469971
,tree,0.9787471294403076
,water,0.9747564196586609
,garden,0.9667131900787354
,park,0.962508499622345
,no person,0.9502449035644531
,river,0.944670557975769
,lake,0.9409892559051514
,reflection,0.9382672309875488
,fence,0.9272386431694031
,building,0.9191335439682007
,architecture,0.9146324396133423
,pool,0.9098796844482422
,landscape,0.9062950611114502
,light,0.9043065309524536
,travel,0.9021288752555847
,house,0.8769328594207764
,environment,0.8767951726913452
,guidance,0.8736199140548706
,nature,0.8716639280319214
https://scontent-sit4-1.cdninstagram.com/t51.2885-15/e35/13355561_903516633091508_345426559_n.jpg,woman,0.9912980794906616
,people,0.9897821545600891
,portrait,0.9837530851364136
,girl,0.9760738015174866
,fashion,0.9754623174667358
,indoors,0.9572679400444031
,street,0.9566763639450073
,model,0.9517929553985596
,shopping,0.938687264919281
,tube,0.9246593713760376
,city,0.9028142690658569
,enjoyment,0.8704195022583008
,school,0.8599300384521484
,festival,0.8525732755661011
,adolescent,0.8519207239151001
,child,0.8415501117706299
,wear,0.8404998779296875
,light,0.8376143574714661
,stock,0.8354530930519104
,fun,0.8302815556526184
https://scontent-sit4-1.cdninstagram.com/t51.2885-15/e15/10431938_619503461478754_431699518_n.jpg,no person,0.9941326379776001
,outdoors,0.9216600656509399
,architecture,0.9209475517272949
,travel,0.9120548963546753
,step,0.8696069717407227
,bridge,0.8687176704406738
,indoors,0.8625361919403076
,transportation system,0.8562417030334473
,wood,0.8550546169281006
,road,0.8516883850097656
,business,0.8431248664855957
,building,0.8381178379058838
,guidance,0.8373138904571533
,industry,0.8118677735328674
,daylight,0.8047756552696228
,city,0.7958019971847534
,street,0.7931289076805115
,urban,0.7877580523490906
,people,0.7844234704971313
,light,0.7778067588806152
https://scontent-sit4-1.cdninstagram.com/t51.2885-15/e35/12797687_1676281472612125_1795622272_n.jpg,water,0.9959554076194763
,sunset,0.9945181608200073
,reflection,0.989720344543457
,dawn,0.9828378558158875
,evening,0.9769648313522339
,pier,0.9745067358016968
,river,0.9723246097564697
,no person,0.9662713408470154
,city,0.9654484987258911
,watercraft,0.9580011367797852
,boat,0.957184910774231
,sea,0.9557515382766724
,lake,0.9550285339355469
,dusk,0.9520667195320129
,harbor,0.9454635977745056
,travel,0.9417853951454163
,light,0.9409168362617493
,landscape,0.9191111922264099
,ocean,0.9087806940078735
,bridge,0.9073832035064697
https://scontent-sit4-1.cdninstagram.com/t51.2885-15/e35/12627916_1662067294061620_1413234186_n.jpg,food,0.9951649904251099
,meat,0.9936296343803406
,dinner,0.9902602434158325
,no person,0.982911229133606
,delicious,0.9821204543113708
,beef,0.9789331555366516
,lunch,0.9750303030014038
,meal,0.9726821184158325
,nutrition,0.9682298898696899
,chicken,0.9647111892700195
,dish,0.9622859954833984
,sauce,0.9560397863388062
,plate,0.9551001787185669
,pork,0.9495943784713745
,cooking,0.9490762948989868
,cuisine,0.9490619897842407
,poultry,0.9439725875854492
,hot,0.9199882745742798
,ready,0.9188519716262817
,tasty,0.9106837511062622
https://scontent-sit4-1.cdninstagram.com/t51.2885-15/e15/925349_686377544761951_2025174140_n.jpg,no person,0.9818256497383118
,people,0.9532257914543152
,interior design,0.9477146863937378
,room,0.9406259059906006
,indoors,0.9325829744338989
,furniture,0.914204478263855
,business,0.9035699367523193
,painting,0.889157772064209
,chair,0.8771381974220276
,window,0.8584489822387695
,seat,0.849295437335968
,family,0.8475556373596191
,travel,0.8265159130096436
,house,0.8261909484863281
,home,0.8100449442863464
,architecture,0.8097094297409058
,illustration,0.8036282658576965
,light,0.7929658889770508
,table,0.7864270806312561
,decoration,0.7774138450622559
https://scontent-sit4-1.cdninstagram.com/t51.2885-15/e15/914710_559238197526555_768445351_n.jpg,seafood,0.9882710576057434
,shellfish,0.9859722852706909
,no person,0.9785314798355103
,sea,0.9724765419960022
,fish,0.9660857915878296
,food,0.9620444178581238
,ocean,0.9374665021896362
,shell,0.9368036985397339
,desktop,0.9355645775794983
,bivalve,0.9267950057983398
,mussel,0.9253159761428833
,marine,0.921310305595398
,nature,0.9193494319915771
,invertebrate,0.9147089719772339
,crustacean,0.9145554900169373
,texture,0.9036468267440796
,clam,0.9034061431884766
,closeup,0.8922535181045532
,seashell,0.886750340461731
,color,0.8865106105804443
https://scontent-sit4-1.cdninstagram.com/t51.2885-15/e35/12394104_1176439012384537_48120680_n.jpg,people,0.9776248335838318
,woman,0.9390120506286621
,adult,0.9351729154586792
,music,0.9247316718101501
,portrait,0.9043115377426147
,indoors,0.8962927460670471
,one,0.8828854560852051
,art,0.8658386468887329
,graffiti,0.8632146716117859
,man,0.8433206677436829
,business,0.8416081666946411
,painting,0.8341017365455627
,wear,0.8299800157546997
,bar,0.8272019624710083
,performance,0.8261411190032959
,light,0.8161302804946899
,nightlife,0.8128087520599365
,travel,0.807201623916626
,bill,0.8068854212760925
,party,0.7965630292892456
https://scontent-sit4-1.cdninstagram.com/t51.2885-15/e15/10413844_1427061277571800_1384340544_n.jpg,water,0.9980227947235107
,no person,0.9934461116790771
,river,0.9933568239212036
,dam,0.989277720451355
,reservoir,0.9889928102493286
,bridge,0.9859337210655212
,reflection,0.9784775972366333
,rain,0.9590445160865784
,canal,0.9478428363800049
,lake,0.9433677196502686
,outdoors,0.9408494234085083
,electricity,0.9310493469238281
,flood,0.9273337125778198
,travel,0.9250551462173462
,filter,0.9169610142707825
,fall,0.9130353331565857
,architecture,0.9117238521575928
,fog,0.9086790680885315
,industry,0.9029415249824524
,tree,0.9027712941169739
https://scontent-sit4-1.cdninstagram.com/t51.2885-15/e35/13651781_167484997001252_1776721262_n.jpg,foot,0.999826192855835
,footwear,0.9907660484313965
,shoe,0.986595094203949
,woman,0.9853500127792358
,girl,0.9830900430679321
,barefoot,0.9800276756286621
,couple,0.9794201850891113
,sole,0.9682905673980713
,fashion,0.966895580291748
,toe,0.9590103626251221
,people,0.9485321044921875
,two,0.924122154712677
,wear,0.898932695388794
,beautiful,0.8829411268234253
,closeup,0.8808689713478088
,hand,0.8712619543075562
,man,0.8661673069000244
,human,0.8640530109405518
,skin,0.8637269139289856
,adult,0.8601301908493042
https://scontent-sit4-1.cdninstagram.com/t51.2885-15/e15/1516630_722536824466974_861040373_n.jpg,people,0.9956588745117188
,adult,0.9943278431892395
,portrait,0.9933856725692749
,facial expression,0.9855722188949585
,two,0.9851750135421753
,man,0.9709761142730713
,eyewear,0.9694387912750244
,wear,0.9611927270889282
,eyeglasses,0.9560649394989014
,woman,0.9485510587692261
,happiness,0.9381909370422363
,love,0.9034026265144348
,one,0.8947007656097412
,interaction,0.8915466070175171
,togetherness,0.8739196062088013
,affection,0.852875828742981
,romance,0.8138097524642944
,girl,0.8094528913497925
,music,0.7672325968742371
,festival,0.7498644590377808
